Ticker;SimFinId;Currency;"Fiscal Year";"Fiscal Period";"Report Date";"Publish Date";"Shares (Basic)";"Shares (Diluted)";"Net Income/Starting Line";"Depreciation & Amortization";"Non-Cash Items";"Change in Fixed Assets & Intangibles";"Net Change in Investments";"Net Cash from Investing Activities";"Dividends Paid";"Cash from (Repayment of) Debt";"Cash from (Repurchase of) Equity";"Net Cash from Financing Activities";"Effect of Foreign Exchange Rates";"Net Change in Cash"
AAME;450021;USD;2010;FY;2010-12-31;2011-08-12;22254000;22340000;990000;379000;-817000;;;3864000;-508000;;-60000;-568000;;8196000
AAME;450021;USD;2011;FY;2011-12-31;2012-03-26;22142000;22272000;3290000;388000;-2687000;;;-14122000;-445000;;-1601000;-2046000;;-7040000
AAME;450021;USD;2012;FY;2012-12-31;2013-03-27;21222000;21289000;4436000;469000;-3405000;;;-5638000;-2501000;;-310000;-2811000;;-2334000
AAME;450021;USD;2013;FY;2013-12-31;2014-03-26;21236000;22875000;11022000;600000;-10227000;;;3815000;-906000;0;-1278000;-2684000;;14151000
AAME;450021;USD;2014;FY;2014-12-31;2015-03-27;20818000;20818000;4430000;932000;-1107000;;;-9606000;-1305000;-6750000;-2519000;-11574000;;-16727000
AAME;450021;USD;2015;FY;2015-12-31;2016-03-29;20566000;20566000;4388000;1117000;-5073000;;;-1201000;-811000;;-950000;-1761000;;-753000
AAME;450021;USD;2016;FY;2016-12-31;2017-03-24;20445000;20445000;2636000;1205000;-3120000;;;-2232000;-807000;;-647000;-1454000;;-2370000
AAME;450021;USD;2017;FY;2017-12-31;2018-03-26;20431000;20431000;4528000;1438000;-13750000;;;10128000;-807000;;-660000;-1467000;;11295000
AAME;450021;USD;2018;FY;2018-12-31;2019-04-01;20284000;20284000;-704000;987000;1425000;;;-14787000;-806000;;-561000;-1590000;;-11917000
AET;62217;USD;2008;FY;2008-12-31;2009-07-31;475500000;488300000;1384100000;378300000;749100000;-446600000;-626700000;-1073300000;-18400000;570400000;-1758000000;-1208100000;;-74500000
AET;62217;USD;2009;FY;2009-12-31;2010-02-26;441100000;449500000;1276500000;416000000;-78500000;-362000000;-1562600000;-1999700000;-17300000;266100000;-758200000;-464500000;;24100000
AET;62217;USD;2010;FY;2010-12-31;2011-02-25;415700000;422900000;1766800000;444400000;7400000;-288700000;923300000;634500000;-16100000;217000000;-1562800000;-1382600000;;664000000
AET;62217;USD;2011;FY;2011-12-31;2012-02-24;372500000;380200000;1986900000;447200000;142100000;-372000000;47500000;-1880200000;-167200000;6000000;-1687500000;-1818800000;;-1187900000
AET;62217;USD;2012;FY;2012-12-31;2013-02-19;340100000;345000000;1659800000;449900000;193600000;-338200000;115500000;-231300000;-239100000;1961700000;-1462000000;305900000;;1899500000
AET;62217;USD;2013;FY;2013-12-31;2014-02-28;355400000;359200000;1911900000;569100000;30500000;-479100000;203600000;-1919800000;-278700000;0;-1395900000;-1525800000;;-1166900000
AET;62217;USD;2014;FY;2014-12-31;2015-02-27;355500000;359100000;2045000000;629000000;194000000;-370000000;-1320000000;-2130000000;-321000000;184000000;-1278000000;-1235000000;;8000000
AET;62217;USD;2015;FY;2015-12-31;2016-02-19;349300000;352600000;2395000000;671000000;302000000;-363000000;-644000000;-1027000000;-349000000;-729000000;-439000000;-1735000000;;1104000000
AET;62217;USD;2016;FY;2016-12-31;2017-02-17;351300000;354300000;2256000000;681000000;191000000;-270000000;-111000000;-381000000;-351000000;12886000000;-139000000;12134000000;;15472000000
AET;62217;USD;2017;FY;2017-12-31;2018-02-23;333200000;335400000;1905000000;705000000;-250000000;-410000000;1774000000;2784000000;-583000000;-11746000000;-4025000000;-16186000000;;-13920000000
AFG;485236;USD;2009;FY;2009-12-31;2010-08-09;115700000;116800000;530000000;198000000;169000000;;-597000000;-783000000;-60000000;-204000000;-66000000;-276000000;;-144000000
AFG;485236;USD;2010;FY;2010-12-31;2011-02-28;109200000;110500000;426000000;202000000;241000000;;-1461000000;-1705000000;-63000000;120000000;-260000000;820000000;;-21000000
AFG;485236;USD;2011;FY;2011-12-31;2012-02-28;101300000;102900000;319000000;180000000;-37000000;;-1984000000;-2439000000;-67000000;-18000000;-276000000;1997000000;;225000000
AFG;485236;USD;2012;FY;2012-12-31;2013-02-28;94200000;95900000;402000000;257000000;-34000000;;-1362000000;-1425000000;-90000000;7000000;-369000000;989000000;;381000000
AFG;485236;USD;2013;FY;2013-12-31;2014-02-28;89300000;91200000;453000000;142000000;7000000;;-3104000000;-2915000000;-160000000;-40000000;-16000000;2089000000;;-66000000
AFG;485236;USD;2014;FY;2014-12-31;2015-02-26;89000000;91000000;406000000;144000000;309000000;;-3771000000;-3628000000;-167000000;143000000;-144000000;2101000000;;-296000000
AFG;485236;USD;2015;FY;2015-12-31;2016-02-26;87600000;89400000;370000000;134000000;463000000;;-3488000000;-4573000000;-176000000;-47000000;-65000000;3097000000;;-123000000
AFG;485236;USD;2016;FY;2016-12-31;2017-02-24;86900000;88500000;668000000;134000000;289000000;;-1780000000;-2981000000;-185000000;284000000;-98000000;2718000000;;887000000
AFG;485236;USD;2017;FY;2017-12-31;2018-02-23;87800000;89800000;477000000;107000000;758000000;;-2739000000;-3292000000;-417000000;-33000000;37000000;1719000000;;231000000
AFG;485236;USD;2018;FY;2018-12-31;2019-02-26;89000000;90600000;517000000;210000000;1177000000;;-4854000000;-5350000000;-394000000;0;27000000;2444000000;;-823000000
AFL;62581;USD;2018;FY;2018-12-31;2019-02-25;769588000;774650000;2920000000;;2246000000;;-4387000000;-3582000000;-793000000;470000000;-1243000000;-1616000000;30000000;846000000
AIG;251769;USD;2008;FY;2008-12-31;2009-09-03;131714245;131714245;-93346000000;12875000000;68152000000;;33922000000;47176000000;-1628000000;75904000000;47343000000;-40734000000;38000000;6358000000
AIG;251769;USD;2009;FY;2009-12-31;2010-02-26;135324896;135324896;-12818000000;12074000000;11345000000;;9381000000;5778000000;;5455000000;;-28997000000;533000000;-4102000000
AIG;251769;USD;2010;FY;2010-12-31;2011-02-24;136585844;136649280;13254000000;5977000000;-13070000000;;-1703000000;-9912000000;;15256000000;;-9261000000;39000000;-2537000000
AIG;251769;USD;2011;FY;2011-12-31;2012-02-23;1799385757;1799458497;18863000000;7372000000;-29686000000;;-16737000000;36448000000;;-10048000000;4985000000;-36926000000;29000000;-530000000
AIG;251769;USD;2012;FY;2012-12-31;2013-02-21;1687197038;1687226641;3699000000;7349000000;-7372000000;;25545000000;16612000000;;-2489000000;-13000000000;-20564000000;16000000;-260000000
AIG;251769;USD;2013;FY;2013-12-31;2014-02-20;1474171690;1481206797;9008000000;4713000000;-7856000000;;3893000000;7099000000;-294000000;-8962000000;-597000000;-11758000000;-92000000;1114000000
AIG;251769;USD;2014;FY;2014-12-31;2015-02-20;1427959799;1447553652;7574000000;4448000000;-7015000000;;10464000000;14284000000;-712000000;-9473000000;-4902000000;-19788000000;-74000000;-571000000
AIG;251769;USD;2015;FY;2015-12-31;2016-02-19;1299825350;1334464883;2222000000;4629000000;-3974000000;;10662000000;8462000000;-1028000000;-2938000000;-10691000000;-11429000000;-39000000;-129000000
AIG;251769;USD;2016;FY;2016-12-31;2017-02-23;1091085131;1091085131;-259000000;4090000000;-1448000000;;5038000000;4744000000;-1372000000;1872000000;-11460000000;-6833000000;52000000;346000000
AIG;251769;USD;2017;FY;2017-12-31;2018-02-16;930561286;930561286;-6060000000;3874000000;-6399000000;;14029000000;14671000000;-1172000000;-342000000;-6275000000;-5697000000;-28000000;361000000
AIG;251769;USD;2018;FY;2018-12-31;2019-02-15;898405537;910141242;103000000;5362000000;-5404000000;;9566000000;-223000000;-1138000000;1062000000;-1739000000;794000000;-11000000;621000000
ALL;68840;USD;2008;FY;2008-12-31;2009-08-27;548300000;548300000;-1679000000;;5424000000;-291000000;4199000000;3788000000;-889000000;19000000;-1290000000;-7705000000;;-7000000
ALL;68840;USD;2009;FY;2009-12-31;2010-02-25;539600000;540900000;854000000;;3902000000;-189000000;3617000000;3440000000;-542000000;251000000;-1000000;-7544000000;;197000000
ALL;68840;USD;2010;FY;2010-12-31;2011-02-24;540300000;542500000;911000000;;2783000000;-162000000;2487000000;2332000000;-430000000;-2000000;-124000000;-6071000000;;-50000000
ALL;68840;USD;2011;FY;2011-12-31;2012-02-22;520700000;523100000;787000000;;988000000;-246000000;7323000000;6161000000;-435000000;0;-934000000;-7876000000;;214000000
ALL;68840;USD;2012;FY;2012-12-31;2013-02-20;489400000;493000000;2306000000;;874000000;-285000000;1853000000;1581000000;-534000000;141000000;-828000000;-4605000000;;30000000
ALL;68840;USD;2013;FY;2013-12-31;2014-02-20;464400000;470300000;2280000000;;2149000000;-207000000;1811000000;1580000000;-358000000;-356000000;-883000000;-5953000000;;-131000000
ALL;68840;USD;2014;FY;2014-12-31;2015-02-19;431400000;438200000;2850000000;;633000000;-288000000;1531000000;1621000000;-564000000;-1006000000;-1070000000;-4875000000;;-18000000
ALL;68840;USD;2015;FY;2015-12-31;2016-02-19;401100000;406800000;2171000000;;1540000000;-303000000;1045000000;742000000;-599000000;-20000000;-2678000000;-4520000000;;-162000000
ALL;68840;USD;2016;FY;2016-12-31;2017-02-17;372800000;377300000;1877000000;;2132000000;-313000000;-2213000000;-2526000000;-602000000;1219000000;-1173000000;-1526000000;;-59000000
ALL;68840;USD;2017;FY;2017-12-31;2018-02-26;362000000;367800000;3189000000;;797000000;-299000000;445000000;-1210000000;-641000000;0;-1360000000;-2923000000;;181000000
ALL;68840;USD;2018;FY;2018-12-31;2019-02-15;347800000;353200000;2252000000;;1716000000;-277000000;-884000000;-1719000000;-748000000;98000000;-2058000000;-3574000000;;-118000000
ANTM;378099;USD;2008;FY;2008-12-31;2009-07-29;519800000;523000000;2490700000;571700000;870700000;-445100000;-4266000000;616200000;;-316300000;-3155000000;-3735600000;;-584000000
ANTM;378099;USD;2009;FY;2009-12-31;2010-02-18;476300000;480500000;4745900000;553500000;-597500000;-423500000;-5376700000;3002800000;;-424000000;-2511900000;-3402800000;-6700000;2632200000
ANTM;378099;USD;2010;FY;2010-12-31;2011-02-17;410900000;415800000;2887100000;600800000;-1326800000;-507500000;-7398500000;-1271500000;0;542400000;-4216700000;-3169300000;-3200000;-3027300000
ANTM;378099;USD;2011;FY;2011-12-31;2012-02-22;360200000;365100000;2646700000;637200000;-204000000;-694300000;-9995100000;-942000000;-357800000;855900000;-2794800000;-2019200000;-400000;412800000
ANTM;378099;USD;2012;FY;2012-12-31;2013-02-22;321500000;324800000;2655500000;740700000;-695300000;-812700000;-13069000000;-4551600000;-367100000;5138600000;-2386000000;2088900000;1100000;283000000
ANTM;378099;USD;2013;FY;2013-12-31;2014-02-20;298500000;303800000;2489700000;908800000;621200000;-731700000;-11967000000;-2234400000;-448000000;-593600000;-1095400000;-1717800000;2200000;-897700000
ANTM;378099;USD;2014;FY;2014-12-31;2014-10-29;275900000;285900000;2569700000;851000000;231800000;-707600000;-8460200000;-974900000;-480700000;590700000;-2697500000;-1822500000;-7100000;564800000
ANTM;378099;USD;2015;FY;2015-12-31;2016-02-19;263000000;272900000;2560000000;907900000;-228100000;-1022800000;-8568700000;-1151500000;-656600000;-648500000;-1329800000;-2997400000;-5300000;-38200000
ANTM;378099;USD;2016;FY;2016-12-31;2017-02-22;262900000;268100000;2469800000;911800000;423100000;-711800000;-8622600000;-513900000;-684000000;-153200000;119400000;-732900000;4100000;1961800000
ANTM;378099;USD;2017;FY;2017-12-31;2018-02-21;261500000;267800000;3842800000;890400000;-473100000;-1735000000;-9900800000;-5082400000;-704900000;3652300000;-1772400000;426900000;4300000;-466400000
ANTM;378099;USD;2018;FY;2018-12-31;2019-02-20;258100000;264200000;3750000000;1132000000;751000000;-1328000000;-4393000000;-1259000000;-776000000;-1086000000;-262000000;-2241000000;-2000000;325000000
BHF;696260;USD;2016;FY;2016-12-31;2017-08-15;119773106;119773106;-2939000000;17000000;4610000000;;8211000000;4674000000;;-26000000;;-4752000000;;3658000000
BHF;696260;USD;2017;FY;2017-12-31;2018-03-16;119773106;119773106;-378000000;17000000;-65000000;;-731000000;-3915000000;;778000000;;-2852000000;;-3371000000
BHF;696260;USD;2018;FY;2018-12-31;2019-02-26;119386280;119827478;870000000;18000000;-2260000000;;176000000;-4538000000;;366000000;-105000000;3764000000;;2288000000
CB;378112;USD;2008;FY;2008-12-31;2009-08-07;332900719;334606237;1197000000;;2875000000;;-1027000000;-4124000000;-386000000;890000000;-468000000;314000000;66000000;357000000
CB;378112;USD;2009;FY;2009-12-31;2010-02-25;336725625;337539294;2549000000;;697000000;;-3231000000;-3224000000;-388000000;500000000;25000000;-321000000;12000000;-198000000
CB;378112;USD;2010;FY;2010-12-31;2011-02-25;339685143;341246387;3085000000;;-227000000;;-2600000000;-4181000000;-435000000;199000000;-173000000;732000000;6000000;103000000
CB;378112;USD;2011;FY;2011-12-31;2012-02-24;338159409;340780224;1540000000;;1092000000;;-1881000000;-3036000000;-459000000;0;-56000000;-565000000;-27000000;-158000000
CB;378112;USD;2012;FY;2012-12-31;2013-02-28;339843438;342746950;2706000000;;1018000000;;-2505000000;-3439000000;-815000000;;115000000;-550000000;-5000000;1000000
CB;378112;USD;2013;FY;2013-12-31;2014-02-28;340906490;344147575;3758000000;;232000000;;-2601000000;-4442000000;-517000000;947000000;-152000000;391000000;-7000000;-36000000
CB;378112;USD;2014;FY;2014-12-31;2015-02-27;335609899;338986287;2853000000;;1834000000;;-1234000000;-2504000000;-862000000;198000000;-1302000000;-1777000000;-139000000;76000000
CB;378112;USD;2015;FY;2015-12-31;2016-02-26;325589361;328835378;2834000000;;867000000;;-6274000000;-6294000000;-862000000;4940000000;-627000000;3695000000;-145000000;1120000000
CB;378112;USD;2016;FY;2016-12-31;2017-02-28;462519789;465949399;4135000000;;2377000000;;9091000000;-5315000000;-1173000000;;167000000;-742000000;-25000000;-790000000
CB;378112;USD;2017;FY;2017-12-31;2018-02-23;467145716;471196901;3861000000;;2961000000;;-2063000000;-2442000000;-1308000000;-501000000;-650000000;-2319000000;1000000;-257000000
CB;378112;USD;2018;FY;2018-12-31;2019-02-28;463629203;466802348;3962000000;;3058000000;;-2061000000;-2935000000;-1337000000;170000000;-929000000;-1991000000;-65000000;489000000
CI;378114;USD;2008;FY;2008-12-31;2009-07-30;;275287000;290000000;244000000;-179000000;-257000000;-216000000;-2572000000;-14000000;578000000;-341000000;314000000;-26000000;-628000000
CI;378114;USD;2009;FY;2009-12-31;2010-02-25;;275287000;1304000000;268000000;265000000;-307000000;-726000000;-1485000000;-11000000;199000000;30000000;307000000;15000000;-418000000
CI;378114;USD;2010;FY;2010-12-31;2011-02-28;275287000;275287000;1283000000;292000000;11000000;-300000000;-556000000;-1342000000;-11000000;332000000;-137000000;274000000;6000000;681000000
CI;378114;USD;2011;FY;2011-12-31;2012-02-23;274249000;274249000;1261000000;345000000;-29000000;-422000000;-118000000;-1270000000;-11000000;2224000000;509000000;2867000000;-3000000;3085000000
CI;378114;USD;2012;FY;2012-12-31;2013-02-28;289530000;289530000;1624000000;560000000;2000000;-408000000;486000000;-3857000000;-11000000;-228000000;-87000000;-228000000;23000000;-1712000000
CI;378114;USD;2013;FY;2013-12-31;2014-02-27;284685000;284685000;1478000000;597000000;-2521000000;-527000000;987000000;15000000;;-116000000;-853000000;-930000000;13000000;-183000000
CI;378114;USD;2014;FY;2014-12-31;2015-02-26;268603000;268603000;2094000000;588000000;-271000000;-473000000;-1562000000;-1866000000;;-112000000;-1502000000;-1635000000;-32000000;-1375000000
CI;378114;USD;2015;FY;2015-12-31;2016-02-25;260592000;260592000;2077000000;585000000;90000000;-510000000;-604000000;-1736000000;;-65000000;-517000000;-609000000;-40000000;548000000
CI;378114;USD;2016;FY;2016-12-31;2017-02-23;259647000;259647000;1843000000;610000000;-174000000;-461000000;-1576000000;-2574000000;;-148000000;-103000000;-225000000;-10000000;1217000000
CI;378114;USD;2017;FY;2017-12-31;2018-02-28;255072000;255072000;2232000000;566000000;241000000;-471000000;-1230000000;-1703000000;;411000000;-2594000000;-2651000000;55000000;-213000000
CINF;248488;USD;2009;FY;2009-12-31;2010-07-29;162595041;162866863;432000000;38000000;40000000;;-1289000000;-815000000;-249000000;;;-162000000;;-452000000
CINF;248488;USD;2010;FY;2010-12-31;2011-02-25;162778000;163274000;375000000;41000000;130000000;;-398000000;-529000000;-252000000;;-10000000;-174000000;;-172000000
CINF;248488;USD;2011;FY;2011-12-31;2012-02-29;162700000;163300000;164000000;42000000;88000000;;-208000000;-8000000;-255000000;55000000;-31000000;-186000000;;53000000
CINF;248488;USD;2012;FY;2012-12-31;2013-02-27;162500000;163700000;421000000;44000000;99000000;;-95000000;-304000000;-256000000;0;10000000;-285000000;;49000000
CINF;248488;USD;2013;FY;2013-12-31;2014-02-27;163500000;165400000;517000000;50000000;184000000;;-411000000;-509000000;-263000000;0;-27000000;-341000000;;-54000000
CINF;248488;USD;2014;FY;2014-12-31;2015-02-27;163500000;165100000;525000000;51000000;289000000;;-267000000;-311000000;-278000000;-55000000;1000000;-404000000;;158000000
CINF;248488;USD;2015;FY;2015-12-31;2016-02-26;164000000;165600000;634000000;52000000;373000000;;-480000000;-624000000;-366000000;-14000000;-29000000;-487000000;;-47000000
CINF;248488;USD;2016;FY;2016-12-31;2017-02-24;164500000;166500000;591000000;48000000;381000000;;-468000000;-456000000;-306000000;-15000000;-18000000;-414000000;;233000000
CINF;248488;USD;2017;FY;2017-12-31;2018-02-23;164200000;166000000;1045000000;55000000;-29000000;;-528000000;-558000000;-400000000;4000000;-79000000;-614000000;;-120000000
CINF;248488;USD;2018;FY;2018-12-31;2019-02-22;163200000;164500000;287000000;63000000;832000000;;-347000000;-451000000;-336000000;8000000;-116000000;-603000000;;127000000
CNFR;847219;USD;2014;FY;2014-12-31;2015-10-13;2672440;2672440;-6939000;371000;16766000;;-44679000;-47700000;-191000;-4075000;34535000;48587000;;7192000
CNFR;847219;USD;2015;FY;2015-12-31;2016-03-15;5369960;5369960;-17000;398000;-1398000;;;-15294000;-384000;-19212000;29791000;12645000;;-5785000
CNFR;847219;USD;2016;FY;2016-12-31;2017-03-15;7618588;7618588;-8437000;401000;9225000;;;-10751000;0;-2000000;-625000;4375000;;-210000
CNFR;847219;USD;2017;FY;2017-12-31;2018-03-15;7867344;7867344;-21542000;372000;928000;;;-25954000;0;-19750000;5000000;16239000;;-625000
CNFR;847219;USD;2018;FY;2018-12-31;2019-03-13;8543876;8543876;-9227000;386000;-3097000;;;12222000;;-19500000;-636000;3710000;;-1076000
ERIE;446629;USD;2010;FY;2010-12-31;2011-02-24;50708153;56887440;;;721000000;;-368000000;-405000000;-98000000;0;-57000000;-120000000;;196000000
ERIE;446629;USD;2011;FY;2011-12-31;2012-02-27;48877862;55059983;;;360000000;;-339000000;-374000000;-102000000;-1000000;-155000000;-231000000;;-245000000
ERIE;446629;USD;2012;FY;2012-12-31;2013-02-26;47360380;53550377;;;577000000;;-234000000;-85000000;-229000000;0;-70000000;-277000000;;215000000
ERIE;446629;USD;2013;FY;2013-12-31;2014-02-27;46663193;52858299;;;211573000;;-83152000;-65232000;-83618000;;-31721000;-115339000;;37437000
ERIE;446629;USD;2014;FY;2014-12-31;2015-02-26;46250418;52618776;;;193485000;;-14709000;-5097000;-118526000;;-19692000;-138218000;;42698000
ERIE;446629;USD;2015;FY;2015-12-31;2016-02-25;46189213;52501353;;;209603000;;-13317000;622000;-126858000;;0;-126858000;;91142000
ERIE;446629;USD;2016;FY;2016-12-31;2017-02-23;46191494;52437845;;;254089000;;-134028000;-136944000;-135985000;24776000;0;-111209000;;6183000
ERIE;446629;USD;2017;FY;2017-12-31;2018-02-22;46189373;52340005;;;201846000;;-51884000;-74663000;-145765000;49951000;;-95814000;;26649000
ETFC;378132;USD;2009;FY;2009-12-31;2010-11-03;109544000;109544000;-1297762000;345969000;2000294000;-86195000;-2424199000;1198223000;;3400000000;733118000;-2562397000;21606000;-370611000
ETFC;378132;USD;2010;FY;2010-12-31;2010-11-03;211302000;211302000;-28472000;339085000;579517000;-82076000;-3765586000;-1072854000;;2350000000;;-1086130000;797000;-1108892000
ETFC;378132;USD;2011;FY;2011-12-31;2011-11-04;267291000;289822000;156701000;340691000;361069000;-89410000;-3953639000;-1630174000;;2221375000;;259712000;;-274507000
ETFC;378132;USD;2012;FY;2012-12-31;2012-11-01;285748000;285748000;-113000000;409000000;189000000;-80000000;-1109000000;665000000;;3061000000;;156000000;;662000000
ETFC;378132;USD;2013;FY;2013-12-31;2013-11-07;286991000;292589000;86000000;395000000;350000000;-47000000;-1478000000;286000000;;2180000000;0;-2327000000;;-924000000
ETFC;378132;USD;2014;FY;2014-12-31;2014-11-04;288705000;294103000;293000000;331000000;183000000;-87000000;-306000000;1713000000;;330000000;0;-2469000000;;-55000000
ETFC;378132;USD;2015;FY;2015-12-31;2015-11-04;290762000;295011000;268000000;325000000;180000000;-70000000;-1404000000;2000000;0;620000000;-50000000;-395000000;;450000000
ETFC;378132;USD;2016;FY;2016-12-31;2016-11-03;277789000;279048000;552000000;239000000;109000000;-75000000;-4292000000;-3999000000;0;0;-52000000;2075000000;;120000000
ETFC;378132;USD;2017;FY;2017-12-31;2018-02-21;273190000;274352000;614000000;262000000;346000000;-102000000;-14549000000;-13576000000;-25000000;450000000;-62000000;11387000000;;-1607000000
ETFC;378132;USD;2018;FY;2018-12-31;2019-02-20;260600000;261669000;1052000000;244000000;268000000;-112000000;-787000000;-190000000;-72000000;-80000000;-1139000000;45000000;;1541000000
GNW;527413;USD;2008;FY;2008-12-31;2009-07-31;433200000;433200000;-572000000;884000000;37000000;;3607000000;1965000000;-175000000;278000000;-71000000;-2913000000;-258000000;4237000000
GNW;527413;USD;2009;FY;2009-12-31;2010-02-26;451100000;451100000;-399000000;782000000;-478000000;;754000000;820000000;-10000000;-612000000;622000000;-5309000000;232000000;-2326000000
GNW;527413;USD;2010;FY;2010-12-31;2011-02-25;489300000;493900000;195000000;626000000;-1294000000;;-3236000000;-1815000000;-43000000;1192000000;;-1512000000;121000000;-1870000000
GNW;527413;USD;2011;FY;2011-12-31;2012-02-27;490600000;493500000;141000000;593000000;-1535000000;;544000000;-59000000;-67000000;-345000000;;-1641000000;-69000000;1356000000
GNW;527413;USD;2012;FY;2012-12-31;2013-02-28;491600000;494400000;468000000;722000000;-1330000000;;-520000000;-722000000;-50000000;-1017000000;;-1101000000;26000000;-835000000
GNW;527413;USD;2013;FY;2013-12-31;2014-03-03;493600000;498700000;680000000;463000000;-1277000000;;-524000000;-580000000;-52000000;400000000;;-149000000;-109000000;561000000
GNW;527413;USD;2014;FY;2014-12-31;2015-03-02;496400000;496400000;-1205000000;453000000;-713000000;;-839000000;-1836000000;-75000000;-519000000;;205000000;-103000000;704000000
GNW;527413;USD;2015;FY;2015-12-31;2016-02-26;497400000;497400000;-6000000;966000000;-1151000000;;64000000;-404000000;-157000000;-31000000;;-42000000;-70000000;1075000000
GNW;527413;USD;2016;FY;2016-12-31;2017-02-27;498300000;498300000;-38000000;498000000;-991000000;;-1311000000;-2120000000;-138000000;-1982000000;;-2931000000;-10000000;-3209000000
GNW;527413;USD;2017;FY;2017-12-31;2018-02-28;499000000;501400000;936000000;435000000;-1539000000;;683000000;-759000000;-107000000;0;;-1768000000;64000000;91000000
GNW;527413;USD;2018;FY;2018-12-31;2019-02-27;500400000;504200000;297000000;391000000;-714000000;;-57000000;-622000000;-97000000;-159000000;;-1621000000;-88000000;-698000000
HIG;387752;USD;2008;FY;2008-12-31;2009-08-26;306700000;306700000;-2749000000;361000000;6741000000;;-6323000000;-8827000000;-660000000;2079000000;280000000;4274000000;161000000;-200000000
HIG;387752;USD;2009;FY;2009-12-31;2009-11-03;346300000;346300000;-887000000;470000000;7842000000;;463000000;-3123000000;-222000000;-473000000;4304000000;523000000;-43000000;331000000
HIG;387752;USD;2010;FY;2010-12-31;2010-11-02;431500000;481500000;1636000000;596000000;3220000000;;178000000;-434000000;-170000000;-7000000;-1219000000;-2955000000;0;-80000000
HIG;387752;USD;2011;FY;2011-12-31;2011-11-02;445000000;478000000;712000000;668000000;-449000000;;490000000;-1182000000;-195000000;-473000000;-36000000;-609000000;36000000;519000000
HIG;387752;USD;2012;FY;2012-12-31;2012-11-01;437700000;465900000;-38000000;467000000;2285000000;;905000000;-2557000000;-217000000;-163000000;-440000000;-228000000;-56000000;-160000000
HIG;387752;USD;2013;FY;2013-12-31;2013-10-28;447700000;490600000;176000000;189000000;-6205000000;;5522000000;3745000000;-223000000;-882000000;-613000000;-5820000000;-155000000;-993000000
HIG;387752;USD;2014;FY;2014-12-31;2014-10-27;441800000;460200000;798000000;276000000;-939000000;;3113000000;1696000000;-282000000;-213000000;-1766000000;-4476000000;-135000000;-1029000000
HIG;387752;USD;2015;FY;2015-12-31;2015-10-26;415500000;425200000;1682000000;373000000;2189000000;;-1211000000;485000000;-316000000;-806000000;-1250000000;-3144000000;-48000000;2000000
HIG;387752;USD;2016;FY;2016-12-31;2016-10-27;387700000;394800000;896000000;398000000;1719000000;;3480000000;949000000;-334000000;-292000000;-1330000000;-2541000000;-40000000;185000000
HIG;387752;USD;2017;FY;2017-12-31;2018-02-23;363700000;363700000;-3131000000;399000000;6765000000;;1777000000;-1442000000;-341000000;71000000;-1028000000;-979000000;70000000;-148000000
HIG;387752;USD;2018;FY;2018-12-31;2019-02-22;358400000;364100000;1807000000;467000000;1716000000;;1763000000;-1962000000;-379000000;-338000000;334000000;-1467000000;-10000000;-59000000
HRTG;640779;USD;2013;FY;2014-03-31;2014-08-06;14313150;14473800;34213000;150000;59593000;-10884000;-119547000;-136494000;;-1000000;;32630000;;1187000
HRTG;640779;USD;2014;FY;2015-03-31;2015-03-18;24568876;25816560;47097000;777000;141946000;-6929000;-192332000;-200047000;;78670000;22515000;101273000;;95422000
HRTG;640779;USD;2015;FY;2016-03-31;2016-03-08;30056491;30326468;92512000;1350000;62309000;-1174000;-86639000;-86964000;;;8900000;9639000;;75796000
HRTG;640779;USD;2016;FY;2017-03-31;2017-03-15;29632171;29634349;33865000;8976000;15016000;-1621000;-137476000;-249416000;-6806000;;-25562000;43826000;;-122635000
HRTG;640779;USD;2017;FY;2018-03-31;2018-03-15;26798465;26798465;-1119000;7742000;289002000;-385000;134062000;-7242000;-8249000;-12531000;-61206000;47556000;;47803000
HUM;234479;USD;2008;FY;2008-12-31;2009-08-03;167172000;169187000;647154000;220350000;107894000;;-685524000;-498324000;;192551000;-95105000;-554016000;;-70030000
HUM;234479;USD;2009;FY;2009-12-31;2010-02-19;167364000;169071000;1040000000;250000000;29000000;;-1975000000;-1859000000;0;-250000000;-6000000;80000000;;-357000000
HUM;234479;USD;2010;FY;2010-12-31;2011-02-18;167782000;169798000;1099000000;263000000;-169000000;;-756000000;-1811000000;0;0;-171000000;-371000000;;60000000
HUM;234479;USD;2011;FY;2011-12-31;2012-02-24;165413000;167827000;1419000000;303000000;135000000;;-796000000;-1358000000;-82000000;0;-469000000;-1017000000;;-296000000
HUM;234479;USD;2012;FY;2012-12-31;2013-02-22;161484000;163457000;1222000000;338000000;-48000000;;-320000000;-1965000000;-165000000;954000000;-461000000;-29000000;;-71000000
HUM;234479;USD;2013;FY;2013-12-31;2014-02-19;157503000;159151000;1231000000;309000000;242000000;;-592000000;-1182000000;-168000000;0;-471000000;-702000000;;-168000000
HUM;234479;USD;2014;FY;2014-12-31;2015-02-18;154187000;155874000;1147000000;328000000;322000000;;411000000;-63000000;-172000000;1233000000;-843000000;-758000000;;797000000
HUM;234479;USD;2015;FY;2015-12-31;2016-02-18;149455000;151142000;1276000000;354000000;-152000000;;-181000000;320000000;-172000000;298000000;-364000000;-552000000;;636000000
HUM;234479;USD;2016;FY;2016-12-31;2017-02-17;149375000;150917000;614000000;388000000;-20000000;;-828000000;-1362000000;-177000000;-2000000;-93000000;732000000;;1306000000
HUM;234479;USD;2017;FY;2017-12-31;2018-02-16;144493000;145585000;2448000000;410000000;468000000;;-2386000000;-2941000000;-220000000;826000000;-3303000000;-945000000;;165000000
HUM;234479;USD;2018;FY;2018-12-31;2019-02-21;137486000;138403000;1683000000;444000000;1047000000;;-221000000;-3087000000;-265000000;1135000000;-1045000000;-785000000;;-1699000000
L;378182;USD;2008;FY;2008-12-31;2009-08-06;108470000;108600000;580000000;692000000;2236000000;-3997000000;-2552000000;-3214000000;-732000000;1003000000;148000000;-173000000;-13000000;-29000000
L;378182;USD;2009;FY;2009-12-31;2010-02-24;432810000;433450000;1385000000;784000000;1665000000;-2529000000;-860000000;-4863000000;-756000000;1226000000;-146000000;321000000;10000000;59000000
L;378182;USD;2010;FY;2010-12-31;2011-02-23;418720000;419520000;2008000000;816000000;88000000;-917000000;-619000000;664000000;-597000000;-14000000;-53000000;-688000000;1000000;-70000000
L;378182;USD;2011;FY;2011-12-31;2012-02-22;404530000;405320000;1694000000;833000000;381000000;-1335000000;-1416000000;-1903000000;-500000000;-511000000;-556000000;-2053000000;;9000000
L;378182;USD;2012;FY;2012-12-31;2013-02-22;395120000;395870000;1110000000;905000000;487000000;-1405000000;-445000000;-3095000000;-549000000;242000000;650000000;336000000;4000000;99000000
L;378182;USD;2013;FY;2013-12-31;2014-02-24;388640000;389510000;1069000000;871000000;588000000;-1737000000;-1031000000;-3298000000;-597000000;1761000000;147000000;1271000000;-3000000;66000000
L;378182;USD;2014;FY;2014-12-31;2015-02-24;381920000;382550000;962000000;899000000;888000000;-2753000000;-484000000;-1470000000;-433000000;-265000000;-611000000;-1442000000;-8000000;70000000
L;378182;USD;2015;FY;2015-12-31;2016-02-19;362430000;362690000;287000000;955000000;1346000000;-1555000000;-190000000;-1935000000;-255000000;-101000000;-1144000000;-1525000000;-11000000;76000000
L;378182;USD;2016;FY;2016-12-31;2017-02-16;337950000;338310000;716000000;841000000;1008000000;-1450000000;-1276000000;-2187000000;-218000000;196000000;-134000000;-166000000;-13000000;-113000000
L;378182;USD;2017;FY;2017-12-31;2018-02-15;336610000;337500000;1412000000;874000000;62000000;-1031000000;14000000;-2655000000;-223000000;656000000;-216000000;201000000;9000000;145000000
L;378182;USD;2018;FY;2018-12-31;2019-02-13;319060000;319930000;706000000;912000000;755000000;-995000000;-7000000;-1444000000;-201000000;-178000000;-1026000000;-2835000000;-10000000;-67000000
LNC;243942;USD;2008;FY;2008-12-31;2009-08-07;257498535;259390810;57000000;;1202000000;;-634000000;2571000000;-430000000;150000000;-427000000;431000000;;4261000000
LNC;243942;USD;2009;FY;2009-12-31;2010-02-25;280031363;285635603;-485000000;;1422000000;;-6384000000;-7852000000;-79000000;266000000;1602000000;5173000000;;-1742000000
LNC;243942;USD;2010;FY;2010-12-31;2011-02-25;310005264;319213747;902000000;;818000000;;-5287000000;-5630000000;-42000000;344000000;-654000000;2467000000;;-1443000000
LNC;243942;USD;2011;FY;2011-12-31;2012-02-23;307216181;314950051;221000000;;1055000000;;-3881000000;-2125000000;-61000000;-227000000;-572000000;2618000000;;1769000000
LNC;243942;USD;2012;FY;2012-12-31;2013-03-01;280648391;287590845;1313000000;;-44000000;;-4053000000;-3857000000;-91000000;-20000000;-493000000;2308000000;;-280000000
LNC;243942;USD;2013;FY;2013-12-31;2014-02-25;265631377;275148876;1244000000;;-445000000;;-3734000000;-4710000000;-128000000;393000000;-415000000;2045000000;;-1866000000
LNC;243942;USD;2014;FY;2014-12-31;2015-02-26;260877533;267963995;1515000000;;589000000;;-1884000000;-1383000000;-170000000;-500000000;-618000000;834000000;;1555000000
LNC;243942;USD;2015;FY;2015-12-31;2016-02-25;250629243;254938112;1154000000;;1089000000;;-3670000000;-4223000000;-204000000;48000000;-853000000;1207000000;;-773000000
LNC;243942;USD;2016;FY;2016-12-31;2017-02-23;234181717;236830287;1192000000;;80000000;;-2790000000;-3666000000;-238000000;-205000000;-853000000;1970000000;;-424000000
LNC;243942;USD;2017;FY;2017-12-31;2018-02-22;222128687;226220980;2079000000;;-1291000000;;-2650000000;-4188000000;-262000000;;-679000000;2306000000;;-1094000000
LNC;243942;USD;2018;FY;2018-12-31;2019-02-20;215936448;219552106;1641000000;;302000000;;-2978000000;-5815000000;-289000000;557000000;-906000000;4589000000;;717000000
MET;380562;USD;2008;FY;2008-12-31;2009-08-04;824876826;835649252;3278000000;375000000;-2731000000;;22666000000;-2671000000;-717000000;2935000000;2011000000;6189000000;-349000000;13871000000
MET;380562;USD;2009;FY;2009-12-31;2010-02-26;918314532;918314532;-2278000000;520000000;4374000000;;-13184000000;-13935000000;-732000000;1234000000;1043000000;-4103000000;108000000;-14127000000
MET;380562;USD;2010;FY;2010-12-31;2011-02-25;990093789;998095159;2663000000;585000000;-2226000000;;-7401000000;-18303000000;-906000000;3423000000;3529000000;13381000000;-129000000;2934000000
MET;380562;USD;2011;FY;2011-12-31;2012-02-28;1188849256;1198401872;6415000000;679000000;-9846000000;;1374000000;-22218000000;-909000000;-818000000;145000000;9382000000;-22000000;-2585000000
MET;380562;USD;2012;FY;2012-12-31;2013-02-27;1201387739;1208214075;1362000000;596000000;7124000000;;3216000000;-11929000000;-933000000;-1887000000;1000000000;35000000;11000000;5277000000
MET;380562;USD;2013;FY;2013-12-31;2014-02-27;1240460416;1252379441;3393000000;714000000;3496000000;;12360000000;-15165000000;-1241000000;-299000000;1000000000;-8907000000;-212000000;-8153000000
MET;380562;USD;2014;FY;2014-12-31;2015-02-27;1266401400;1281885000;6336000000;713000000;-1664000000;;2417000000;-15055000000;-1621000000;-1937000000;0;2256000000;-354000000;3223000000
MET;380562;USD;2015;FY;2015-12-31;2016-02-25;1254171600;1265952600;5385000000;693000000;-3026000000;;10701000000;-10398000000;-1769000000;2398000000;-1907000000;-1218000000;-492000000;1944000000
MET;380562;USD;2016;FY;2016-12-31;2017-03-01;1234761000;1243737000;854000000;652000000;4467000000;;17473000000;-5850000000;-1839000000;-1347000000;-372000000;-3497000000;-302000000;5125000000
MET;380562;USD;2017;FY;2017-12-31;2018-03-01;1069700000;1078500000;4020000000;795000000;886000000;;1128000000;-16876000000;-1820000000;-367000000;-2927000000;-906000000;323000000;-5176000000
MET;380562;USD;2018;FY;2018-12-31;2019-02-22;1005900000;1013900000;5128000000;628000000;-2592000000;;11301000000;-5434000000;-1819000000;-1908000000;-2718000000;-3001000000;-183000000;3120000000
MKL;205470;USD;2009;FY;2009-12-31;2010-08-06;9815000;9826000;202419000;31172000;1236000;-21906000;-208442000;-333709000;;252053000;0;251612000;9749000;210115000
MKL;205470;USD;2010;FY;2010-12-31;2011-02-28;9768000;9785000;267729000;53587000;-100749000;-42103000;-233029000;-283343000;;12876000;-45218000;-45610000;427000;-105235000
MKL;205470;USD;2011;FY;2011-12-31;2012-02-28;9686000;9726000;148486000;70572000;86404000;-60132000;-81554000;-491106000;;245624000;-41731000;194589000;-1823000;12978000
MKL;205470;USD;2012;FY;2012-12-31;2013-02-28;9640000;9666000;258248000;87326000;49076000;-45519000;420806000;-377130000;;179002000;-7728000;141962000;3142000;160507000
MKL;205470;USD;2013;FY;2013-12-31;2014-02-28;12538000;12586000;283845000;190066000;328277000;-47725000;704105000;187387000;;225236000;-32870000;175367000;6485000;1114760000
MKL;205470;USD;2014;FY;2014-12-31;2015-02-27;13984000;14057000;323688000;203580000;436256000;-82132000;-445367000;-622205000;;5758000;-20362000;-67124000;-45820000;-18357000
MKL;205470;USD;2015;FY;2015-12-31;2016-02-26;13978000;14061000;589142000;200987000;-212640000;-79755000;466340000;63449000;;-18223000;-26739000;-74211000;-52642000;587747000
MKL;205470;USD;2016;FY;2016-12-31;2017-02-24;14013000;14078000;460443000;194147000;167475000;-63674000;-876952000;-1638481000;;280937000;-46519000;152019000;-33138000;-984977000
MKL;205470;USD;2017;FY;2017-12-31;2018-02-23;13964000;14006000;400758000;203871000;498224000;-74652000;531264000;-744457000;;404685000;-110286000;256315000;45295000;415682000
MKL;205470;USD;2018;FY;2018-12-31;2019-02-28;13923000;13923000;-130353000;227846000;894600000;-106593000;-574906000;-797239000;;-82250000;-54007000;-178985000;-21047000;-104414000
MMC;85544;USD;2008;FY;2008-12-31;2009-08-10;514000000;515000000;-62000000;404000000;955000000;-445000000;97000000;-348000000;-412000000;-260000000;68000000;-643000000;-397000000;-448000000
MMC;85544;USD;2009;FY;2009-12-31;2010-02-26;522000000;524000000;241000000;365000000;391000000;-296000000;29000000;-260000000;-431000000;-10000000;34000000;-440000000;152000000;92000000
MMC;85544;USD;2010;FY;2010-12-31;2011-02-28;540000000;544000000;871000000;357000000;56000000;445000000;76000000;520000000;-452000000;-559000000;-45000000;-1115000000;-10000000;117000000
MMC;85544;USD;2011;FY;2011-12-31;2012-02-28;542000000;551000000;1015000000;332000000;286000000;-514000000;41000000;-478000000;-480000000;485000000;-199000000;-986000000;-22000000;219000000
MMC;85544;USD;2012;FY;2012-12-31;2013-02-27;544000000;552000000;1201000000;349000000;84000000;-606000000;20000000;-583000000;-497000000;-11000000;18000000;-633000000;82000000;188000000
MMC;85544;USD;2013;FY;2013-12-31;2014-02-27;549000000;558000000;1385000000;358000000;-166000000;-533000000;93000000;-446000000;-533000000;287000000;-198000000;-834000000;-59000000;2000000
MMC;85544;USD;2014;FY;2014-12-31;2015-02-26;545000000;553000000;1497000000;388000000;222000000;-919000000;-298000000;-1222000000;-582000000;1055000000;-537000000;-968000000;-274000000;-345000000
MMC;85544;USD;2015;FY;2015-12-31;2016-02-24;531000000;536000000;1636000000;423000000;65000000;-1204000000;-65000000;-1265000000;-632000000;1030000000;-1176000000;-906000000;-301000000;-584000000
MMC;85544;USD;2016;FY;2016-12-31;2017-02-24;519000000;524000000;1795000000;438000000;-36000000;-1062000000;2000000;-1056000000;-682000000;385000000;-612000000;-1067000000;-232000000;-348000000
MMC;85544;USD;2017;FY;2017-12-31;2018-02-22;513000000;519000000;1512000000;481000000;-37000000;-949000000;-13000000;-956000000;-740000000;672000000;-734000000;-1009000000;251000000;179000000
MMC;85544;USD;2018;FY;2018-12-31;2019-02-21;506000000;511000000;1670000000;494000000;293000000;-1085000000;4000000;-1089000000;-807000000;328000000;-582000000;-1310000000;-168000000;-139000000
NATL;138792;USD;2010;FY;2010-12-31;2011-08-05;19343000;19452000;39459000;;12449000;;-34911000;-70635000;-6231000;5000000;497000;-703000;;8465000
NATL;138792;USD;2011;FY;2011-12-31;2012-03-08;19371000;19491000;35548000;;-14239000;;-31942000;-36230000;-7007000;2000000;214000;-4639000;;-3380000
NATL;138792;USD;2012;FY;2012-12-31;2013-03-08;19446000;19579000;34294000;;-2728000;;13540000;593000;-47079000;-10000000;3027000;-53985000;;18307000
NATL;138792;USD;2013;FY;2013-12-31;2014-03-07;19645000;19768000;17573000;;37562000;;-43365000;-49179000;-8673000;;1127000;-7521000;;-6297000
NATL;138792;USD;2014;FY;2014-12-31;2015-03-06;19755000;19833000;11026000;;105212000;;-53204000;-61490000;-9513000;;2414000;-7048000;;17899000
NATL;138792;USD;2015;FY;2015-12-31;2016-03-10;19862000;19910000;20847000;;158114000;;-100748000;-107161000;-10362000;;1940000;-8470000;;18361000
PFG;367240;USD;2008;FY;2008-12-31;2009-08-05;259300000;261100000;465800000;145000000;2197600000;-105000000;-2637300000;-2917200000;-149700000;142000000;30000000;1956000000;;1263600000
PFG;367240;USD;2009;FY;2009-12-31;2010-02-17;297300000;298900000;645700000;138500000;1585700000;-26200000;1192500000;1026800000;-192500000;-128200000;1118900000;-3637400000;;-367600000
PFG;367240;USD;2010;FY;2010-12-31;2011-02-16;320300000;323000000;680800000;164700000;2048500000;-21500000;184000000;27500000;-209200000;-7100000;18000000;-3182200000;;-363000000
PFG;367240;USD;2011;FY;2011-12-31;2012-02-15;314500000;317600000;674500000;119900000;2049100000;-56900000;307300000;-202100000;-246700000;-9000000;-530500000;-1554700000;;956500000
PFG;367240;USD;2012;FY;2012-12-31;2013-02-13;297500000;300400000;825400000;132100000;2052700000;-38900000;-1183100000;-1611300000;-264300000;974000000;-243800000;-126200000;;1343300000
PFG;367240;USD;2013;FY;2013-12-31;2014-02-12;294600000;298200000;936100000;153900000;1263100000;-59400000;155300000;-1226300000;-321400000;-72000000;-27800000;-2800300000;;-1805400000
PFG;367240;USD;2014;FY;2014-12-31;2015-02-11;294700000;298700000;1176400000;169500000;1730100000;-136000000;-673300000;-1172700000;-409600000;-180100000;-145200000;-2438100000;;-507900000
PFG;367240;USD;2015;FY;2015-12-31;2016-02-10;294400000;298000000;1253200000;193000000;2996700000;-136400000;-2319200000;-3167600000;-1007500000;909300000;-224500000;-508600000;;700900000
PFG;367240;USD;2016;FY;2016-12-31;2017-02-08;289400000;292700000;1361800000;186600000;2211800000;-154900000;-4950800000;-5153900000;-464900000;-274600000;-239500000;1450900000;;154800000
PFG;367240;USD;2017;FY;2017-12-31;2018-02-09;288900000;293100000;2324500000;195700000;2009100000;-164800000;-4098600000;-4052800000;-540000000;-69200000;-57900000;-384000000;;-248800000
PFG;367240;USD;2018;FY;2018-12-31;2019-02-13;285800000;288800000;1553700000;205100000;3641900000;-92300000;-5098200000;-5702500000;-598600000;88000000;-607600000;1052700000;;506700000
PGR;378203;USD;2008;FY;2008-12-31;2009-08-10;668000000;673900000;-70000000;99100000;1307000000;-97400000;-1392300000;-1312500000;-98300000;;-152400000;-239600000;0;-2900000
PGR;378203;USD;2009;FY;2009-12-31;2010-03-01;666800000;672200000;1057500000;87300000;287000000;-64800000;-867300000;-1178600000;0;0;-161800000;-152100000;1700000;157800000
PGR;378203;USD;2010;FY;2010-12-31;2011-03-01;657900000;663300000;1068300000;83100000;223000000;-56700000;-375800000;-486500000;-763700000;0;-231400000;-1195400000;800000;-1800000
PGR;378203;USD;2011;FY;2011-12-31;2012-02-28;632300000;636900000;1015500000;88500000;218100000;-75900000;-668400000;-744900000;-263600000;491900000;-975400000;-755700000;-500000;-3200000
PGR;378203;USD;2012;FY;2012-12-31;2013-02-26;603300000;607800000;902300000;94400000;-28000000;-123900000;-97000000;-264900000;-853700000;-350000000;-173700000;-1404100000;1000000;23400000
PGR;378203;USD;2013;FY;2013-12-31;2014-02-26;599100000;603600000;1165400000;101300000;-51800000;-136700000;-1372000000;-1356500000;-175600000;-150000000;-273400000;-646800000;-600000;-104000000
PGR;378203;USD;2014;FY;2014-12-31;2015-03-02;590600000;594800000;1281000000;97100000;13100000;-102200000;-704700000;-836900000;-892600000;344700000;-271400000;-855400000;0;33300000
PGR;378203;USD;2015;FY;2015-12-31;2016-02-29;585500000;589200000;1300500000;150500000;-52400000;-120100000;-1030300000;-1923900000;-403600000;361600000;-208300000;-252800000;-200000;115700000
PGR;378203;USD;2016;FY;2016-12-31;2017-03-01;581700000;585000000;1057200000;199500000;65100000;-208800000;-2315100000;-2464500000;-519000000;470100000;-192500000;-250400000;400000;-12600000
PGR;378203;USD;2017;FY;2017-12-31;2018-02-27;580800000;585700000;1598100000;236100000;-32400000;-140400000;-3214600000;-3406700000;-395400000;792100000;-62000000;-300900000;-300000;48900000
PGR;378203;USD;2018;FY;2018-12-31;2019-02-27;582400000;586700000;2621000000;262400000;390400000;-256600000;-6790000000;-7331800000;-668400000;1096900000;418200000;846700000;0;-200300000
PRU;78741;USD;2008;FY;2008-12-31;2009-08-07;429700000;429700000;-1081000000;717000000;6788000000;;-10532000000;-10705000000;-317000000;1097000000;-2056000000;3721000000;97000000;3968000000
PRU;78741;USD;2009;FY;2009-12-31;2010-02-26;444600000;448200000;3090000000;175000000;4729000000;;-1973000000;2429000000;-347000000;-6382000000;1455000000;-10421000000;288000000;-1864000000
PRU;78741;USD;2010;FY;2010-12-31;2011-02-25;466800000;475400000;3012000000;-104000000;3668000000;;-9111000000;-8522000000;-575000000;1507000000;1068000000;1613000000;118000000;-249000000
PRU;78741;USD;2011;FY;2011-12-31;2012-02-24;480200000;488700000;3666000000;290000000;6611000000;;-11376000000;-13295000000;-704000000;631000000;-877000000;2099000000;155000000;1336000000
PRU;78741;USD;2012;FY;2012-12-31;2013-02-22;465600000;468100000;570000000;302000000;19900000000;;-15792000000;-15420000000;-768000000;2090000000;-500000000;-1305000000;-335000000;3849000000
PRU;78741;USD;2013;FY;2013-12-31;2014-02-27;463100000;463100000;-560000000;411000000;7546000000;;-14943000000;-16334000000;-847000000;817000000;-390000000;2242000000;-1014000000;-6661000000
PRU;78741;USD;2014;FY;2014-12-31;2015-02-20;458500000;467700000;1438000000;631000000;15974000000;;-16966000000;-17088000000;-1027000000;544000000;-731000000;1629000000;-458000000;3479000000
PRU;78741;USD;2015;FY;2015-12-31;2016-02-19;451700000;460400000;5712000000;113000000;8395000000;;-8322000000;-7746000000;-1117000000;277000000;-1455000000;-3524000000;69000000;2694000000
PRU;78741;USD;2016;FY;2016-12-31;2017-02-17;438200000;446600000;4419000000;318000000;10978000000;;-21501000000;-21551000000;-1300000000;281000000;-1693000000;3238000000;50000000;-3485000000
PRU;78741;USD;2017;FY;2017-12-31;2018-02-16;427000000;436000000;7974000000;222000000;6391000000;;29835000000;-11934000000;-1296000000;-564000000;-1004000000;-1258000000;110000000;363000000
PRU;78741;USD;2018;FY;2018-12-31;2019-02-15;417600000;426200000;4088000000;161000000;-10580000000;;6625000000;5687000000;-1521000000;1323000000;-1368000000;781000000;142000000;959000000
RGA;448474;USD;2009;FY;2009-12-31;2010-11-03;72790000;73327000;407086000;;692246000;;3069842000;-1939058000;-26212000;220568000;4697000;194999000;16447000;-363376000
RGA;448474;USD;2010;FY;2010-12-31;2010-11-03;73157000;74694000;535742000;;1672128000;;3499562000;-1720482000;-35170000;26324000;1559000;-193429000;22805000;-48366000
RGA;448474;USD;2011;FY;2011-12-31;2011-11-04;73586000;74108000;546045000;;951560000;;3476981000;-905781000;-44229000;494770000;-373896000;101995000;-6537000;499209000
RGA;448474;USD;2012;FY;2012-12-31;2012-11-06;73737000;74153000;631893000;;1665658000;0;-1033979000;-1967996000;-61945000;260812000;-10011000;281939000;8552000;297022000
RGA;448474;USD;2013;FY;2013-12-31;2013-11-05;71917000;72461000;418837000;;1601437000;0;-590006000;-1335101000;-77642000;202499000;-240814000;-681213000;-47091000;-336245000
RGA;448474;USD;2014;FY;2014-12-31;2014-11-05;69248000;69962000;684047000;15309000;1790753000;-88361000;-511036000;-1310945000;-87256000;558175000;-192279000;-255559000;-47629000;722022000
RGA;448474;USD;2015;FY;2015-12-31;2015-11-04;66553000;67292000;502166000;31103000;1924573000;-23553000;396331000;-1431741000;-93381000;192121000;-373368000;-708282000;-68986000;-120394000
RGA;448474;USD;2016;FY;2016-12-31;2016-11-02;64274000;64989000;701443000;26853000;992933000;-44642000;-2064643000;-2825726000;-100371000;753060000;-107595000;1055389000;-19938000;-324557000
RGA;448474;USD;2017;FY;2017-12-31;2018-02-27;64427000;65753000;1822181000;52902000;211496000;-44211000;-577459000;-1607573000;-117291000;-133851000;-36216000;-324622000;52693000;102806000
RGA;448474;USD;2018;FY;2018-12-31;2019-02-27;63658000;65094000;715842000;45127000;1747146000;-28891000;719887000;-636552000;-140110000;-52747000;-296220000;-321973000;-36387000;586209000
SAFT;250043;USD;2010;FY;2010-12-31;2011-08-08;15065696;15084295;56342000;12533000;-7738000;;-52126000;-54511000;-27098000;;-3824000;-30865000;;-34179000
SAFT;250043;USD;2011;FY;2011-12-31;2012-03-13;15165065;15176006;13702000;13554000;15678000;;-8036000;-12413000;-30322000;;859000;-29463000;;-2401000
SAFT;250043;USD;2012;FY;2012-12-31;2013-03-18;15288346;15295452;58070000;14322000;40073000;;-70240000;-74445000;-33634000;;1241000;-32393000;;-2507000
SAFT;250043;USD;2013;FY;2013-12-31;2014-03-17;15167052;15212385;61351000;12326000;47322000;;-40778000;-51298000;-36865000;;-2207000;-39072000;;20494000
SAFT;250043;USD;2014;FY;2014-12-31;2015-03-02;14963047;15052745;59354000;13123000;43395000;;-41786000;-48522000;-39302000;;-23170000;-62469000;;-13422000
SAFT;250043;USD;2015;FY;2015-12-31;2016-02-26;14866607;14866607;-13853000;12597000;80784000;;31515000;23845000;-41976000;;278000;-41697000;;5039000
SAFT;250043;USD;2016;FY;2016-12-31;2017-02-24;14946453;15032263;64585000;14073000;10852000;;-79086000;-84252000;-42265000;;257000;-42014000;;-27442000
SAFT;250043;USD;2017;FY;2017-12-31;2018-02-28;15010751;15135348;62387000;6962000;24775000;;-9063000;-14924000;-45460000;;;-45460000;;21656000
SAFT;250043;USD;2018;FY;2018-12-31;2019-02-28;15080269;15229898;83195000;5273000;35567000;;-71983000;-83004000;-48813000;;;-48813000;;-4126000
SIGI;627778;USD;2009;FY;2009-12-31;2010-07-29;52630000;53397000;36398000;28593000;135201000;;-198833000;-220197000;-26296000;;1602000;-25194000;;-17832000
SIGI;627778;USD;2010;FY;2010-12-31;2011-02-25;53359000;54504000;66966000;31770000;46030000;;-172412000;-123527000;-26056000;;3276000;-35824000;;-166000
SIGI;627778;USD;2011;FY;2011-12-31;2012-02-24;54095000;55221000;22033000;34645000;101976000;;-91712000;-143507000;-26513000;0;2270000;20667000;;117000
SIGI;627778;USD;2012;FY;2012-12-31;2013-02-21;54880000;55933000;37963000;38693000;120023000;;-205215000;-202712000;-26944000;0;1345000;-24539000;;-552000
SIGI;627778;USD;2013;FY;2013-12-31;2014-02-28;55638000;56810000;106418000;43461000;210240000;;-421163000;-391025000;-27416000;178435000;3403000;54884000;;-17000
SIGI;627778;USD;2014;FY;2014-12-31;2015-02-26;56310000;57351000;141827000;45346000;121126000;;-214394000;-169468000;-28428000;;3720000;-39529000;;23766000
SIGI;627778;USD;2015;FY;2015-12-31;2016-02-24;57212000;58156000;165861000;59688000;134984000;;-332754000;-391543000;-31052000;;5907000;-13098000;;-23061000
SIGI;627778;USD;2016;FY;2016-12-31;2017-02-22;57889000;58747000;158495000;61671000;215480000;;-231269000;-318101000;-33758000;;2819000;15878000;;-440000
SIGI;627778;USD;2017;FY;2017-12-31;2018-02-20;58458000;59357000;168826000;52100000;203514000;;-342365000;-331075000;-37045000;;1584000;-39582000;;76000
SIGI;627778;USD;2018;FY;2018-12-31;2019-02-15;58950000;59713000;178939000;44874000;294753000;;-130328000;-435688000;-42097000;;696000;-47047000;;-27791000
TMK;378226;USD;2008;FY;2008-12-31;2009-08-07;186825576;186825576;452259000;398324000;-467101000;;-380574000;-432248000;-48802000;102178000;-430263000;-261258000;-10803000;26302000
TMK;378226;USD;2009;FY;2009-12-31;2010-02-26;186825576;186825576;404953000;429253000;-329916000;;-641918000;-937099000;-46615000;125929000;-43134000;148438000;-1934000;185518000
TMK;378226;USD;2010;FY;2010-12-31;2011-02-28;183013842;184685007;498866000;376988000;-367741000;;-938437000;-557641000;-50061000;-43345000;-208143000;-329621000;-7570000;133761000
TMK;378226;USD;2011;FY;2011-12-31;2012-02-28;162417170;164723085;497161000;364583000;-408301000;;-456921000;-312133000;-49125000;25967000;-809943000;-824485000;-4412000;-281566000
TMK;378226;USD;2012;FY;2012-12-31;2013-02-28;144921299;146847582;529324000;385167000;-371166000;;-341517000;-698039000;-55527000;151534000;-389143000;-269112000;1909000;-22403000
TMK;378226;USD;2013;FY;2013-12-31;2014-02-28;137646885;139563785;507205000;400869000;-426019000;;-501750000;-614378000;-60911000;-90067000;-384448000;-535919000;6250000;-24767000
TMK;378226;USD;2014;FY;2014-12-31;2015-02-27;130721738;132640244;528074000;415914000;-521427000;;-321251000;-350163000;-65006000;9328000;-393014000;-499960000;14491000;29076000
TMK;378226;USD;2015;FY;2015-12-31;2016-02-26;125094628;126757235;516293000;445625000;-485847000;;-495925000;-633350000;-66899000;1978000;-382568000;-525705000;34369000;-4636000
TMK;378226;USD;2016;FY;2016-12-31;2017-02-27;120001191;122367785;539590000;469063000;-452346000;;-972493000;-1062436000;-66931000;172224000;-343455000;-319791000;-1701000;14780000
TMK;378226;USD;2017;FY;2017-12-31;2018-02-27;116342529;118983494;1458263000;490403000;-1316472000;;-810082000;-926824000;-68831000;59217000;-351774000;-453981000;-5853000;42400000
TRV;262327;USD;2008;FY;2008-12-31;2009-10-22;595900000;604300000;2924000000;821000000;-607000000;;727000000;-162000000;-715000000;-56000000;-2078000000;-2868000000;-29000000;79000000
TRV;262327;USD;2009;FY;2009-12-31;2010-02-18;563200000;568600000;3622000000;797000000;-188000000;;-1461000000;-899000000;-693000000;351000000;-3079000000;-3442000000;15000000;-95000000
TRV;262327;USD;2010;FY;2010-12-31;2011-02-17;476500000;482500000;3216000000;812000000;-974000000;;3025000000;2109000000;-673000000;74000000;-4590000000;-5221000000;3000000;-55000000
TRV;262327;USD;2011;FY;2011-12-31;2012-02-16;415800000;420500000;1426000000;802000000;-59000000;;-4000000;1152000000;-665000000;-8000000;-2605000000;-3306000000;-1000000;14000000
TRV;262327;USD;2012;FY;2012-12-31;2013-02-19;386200000;389800000;2473000000;827000000;-70000000;;-954000000;-972000000;-694000000;-258000000;-1179000000;-2146000000;4000000;116000000
TRV;262327;USD;2013;FY;2013-12-31;2014-02-13;370300000;374300000;3673000000;867000000;-724000000;;158000000;-910000000;-729000000;-6000000;-2194000000;-2939000000;-3000000;-36000000
TRV;262327;USD;2014;FY;2014-12-31;2015-02-12;338800000;342500000;3692000000;864000000;-863000000;;776000000;206000000;-729000000;;-3080000000;-3809000000;-10000000;80000000
TRV;262327;USD;2015;FY;2015-12-31;2016-02-11;310600000;313900000;3439000000;818000000;-823000000;;1035000000;317000000;-739000000;-8000000;-2967000000;-3733000000;-12000000;6000000
TRV;262327;USD;2016;FY;2016-12-31;2017-02-16;288100000;291000000;3014000000;826000000;362000000;;-1125000000;-1460000000;-757000000;91000000;-2068000000;-2806000000;-9000000;-73000000
TRV;262327;USD;2017;FY;2017-12-31;2018-02-15;276000000;278600000;2056000000;813000000;893000000;;-881000000;-1816000000;-785000000;132000000;-1205000000;-1920000000;11000000;37000000
TRV;262327;USD;2018;FY;2018-12-31;2019-02-14;267400000;269800000;2523000000;803000000;1054000000;;-2716000000;-2329000000;-814000000;-9000000;-1138000000;-2012000000;-10000000;29000000
UIHC;774910;USD;2010;FY;2010-12-31;2011-08-15;10573932;10573932;-925000;1106000;1065000;;80305000;79921000;-529000;-26891000;0;-27420000;;44558000
UIHC;774910;USD;2011;FY;2011-12-31;2012-03-14;10442034;10442034;8088000;719000;22192000;;-65870000;-68155000;-518000;450000;-431000;-499000;;-30005000
UNAM;251597;USD;2010;FY;2010-12-31;2011-08-12;5312684;5351578;2329152;127371;-12250577;-104773;38048999;7611901;-1917209;;77599;-1799579;;-73302
UNAM;251597;USD;2011;FY;2011-12-31;2012-03-26;5335524;5358590;3739876;59483;-7604715;-91607;48038998;1479571;;;12682;15406;;421877
UNAM;251597;USD;2012;FY;2012-12-31;2013-03-29;5339341;5352978;1953728;139293;-4061339;-765362;58080000;7497858;-6409445;;-197109;-6590280;;-306581
UNAM;251597;USD;2013;FY;2013-12-31;2014-03-28;5341147;5344212;603668;307237;-5577001;-620327;30890000;4324186;0;;0;0;;215882
UNAM;251597;USD;2014;FY;2014-12-31;2015-03-31;5341147;5346552;846361;539608;1137850;-879974;2100000;-2535412;0;;0;0;;-67226
UNAM;251597;USD;2015;FY;2015-12-31;2016-03-25;5335540;5335540;-1182870;341264;6140378;-1339138;10891749;8241358;0;;-242314;-242314;;7949511
UNAM;251597;USD;2016;FY;2016-12-31;2017-03-31;5307694;5307694;-1404277;483580;-1609329;-545392;18617722;6736530;;;-89582;-89582;;5237706
UNAM;251597;USD;2017;FY;2017-12-31;2018-04-02;5307133;5307133;-8724984;517199;-115775;-249536;55077915;-5699921;;;0;0;;-12722153
UNAM;251597;USD;2018;FY;2018-12-31;2019-04-01;5307121;5307121;-3169559;551183;2077788;-97134;21656031;-2318706;;;-216;-216;;-4449182
UNM;378233;USD;2008;FY;2008-12-31;2009-08-05;341022800;341560300;553200000;68800000;87200000;;-729600000;-424700000;-103500000;-240400000;-695600000;-1049500000;-1100000;-149200000
UNM;378233;USD;2009;FY;2009-12-31;2010-02-26;331266200;332136200;852600000;74500000;-286000000;;-1289100000;-1213900000;-104500000;96500000;8000000;-1500000;100000;21700000
UNM;378233;USD;2010;FY;2010-12-31;2011-02-25;325839000;327221100;878700000;75400000;-361600000;;-483000000;-1073700000;-114800000;318600000;-346000000;-141100000;;-18000000
UNM;378233;USD;2011;FY;2011-12-31;2012-02-24;302399800;303571000;284200000;81100000;-116500000;-98200000;114500000;-410300000;-121000000;2800000;-605100000;-720400000;;63000000
UNM;378233;USD;2012;FY;2012-12-31;2013-02-22;281355900;281756800;894400000;84300000;-334500000;-105400000;-756400000;-969900000;-133800000;176400000;-491800000;-449000000;;-39300000
UNM;378233;USD;2013;FY;2013-12-31;2014-02-26;264725800;265949200;847000000;84800000;-273800000;-105500000;-366700000;-419200000;-146500000;-116200000;-305800000;-595500000;;16800000
UNM;378233;USD;2014;FY;2014-12-31;2015-02-25;255525900;256652800;402100000;87900000;-303700000;-114500000;-648900000;-886600000;-159400000;160600000;-293700000;-328600000;;8400000
UNM;378233;USD;2015;FY;2015-12-31;2016-02-24;246986700;247854700;867100000;99500000;-198200000;-100200000;-1008200000;-713000000;-174200000;45100000;-411500000;-568700000;;10400000
UNM;378233;USD;2016;FY;2016-12-31;2017-02-22;235445700;235979200;931400000;101700000;-278400000;-85000000;-253500000;-710000000;-182600000;195100000;-396700000;-418600000;;-12500000
UNM;378233;USD;2017;FY;2017-12-31;2018-02-21;226492400;227335200;994200000;103400000;-328500000;-105300000;188600000;-484600000;-196000000;-63500000;-391000000;-687800000;;-23000000
UNM;378233;USD;2018;FY;2018-12-31;2019-02-19;219635600;220058600;523400000;101400000;-227500000;-144100000;-403800000;-930100000;-215600000;30700000;-351600000;-589800000;;16600000
UVE;529179;USD;2010;FY;2010-12-31;2011-08-05;39113000;40579000;36984000;831000;-569726000;-1714000;-22952000;527404000;-12553000;-1471000;14000;-14203000;;-40164000
UVE;529179;USD;2011;FY;2011-12-31;2012-03-26;39184000;40442000;20109000;639000;-736738000;-2395000;0;919294000;-12770000;-1471000;5000;-14213000;;96040000
UVE;529179;USD;2012;FY;2012-12-31;2013-03-08;39614000;40616000;30312000;840000;-308732000;-2726000;;357302000;-18956000;-1471000;207000;-22101000;;117707000
UVE;529179;USD;2013;FY;2013-12-31;2014-03-03;35866000;37776000;58977000;1012000;-37365000;-1350000;-351341000;-250022000;-17754000;18529000;-32366000;-34393000;;-230117000
UVE;529179;USD;2014;FY;2014-12-31;2015-02-25;33569000;35150000;72988000;1194000;-16920000;-9267000;-18005000;-77188000;-19253000;-7471000;-10663000;-48036000;;-1878000
UVE;529179;USD;2015;FY;2015-12-31;2016-02-24;34799000;35884000;106484000;2033000;30378000;-11869000;-89011000;-83052000;-22297000;-7080000;-18394000;-54602000;;81617000
UVE;529179;USD;2016;FY;2016-12-31;2017-02-24;34919000;35650000;99410000;3242000;58000;-8223000;-118940000;-174311000;-24202000;-2136000;-5426000;-38369000;;-91284000
UVE;529179;USD;2017;FY;2017-12-31;2018-02-23;34841000;35809000;106935000;4058000;259387000;-4618000;20406000;-85709000;-24011000;-2170000;-18141000;-51545000;;107756000
UVE;529179;USD;2018;FY;2018-12-31;2019-03-01;34856000;35786000;117051000;4820000;317436000;-6731000;-183412000;-212286000;-25518000;-1471000;-25174000;-64877000;;-47058000
