Date,Open,High,Low,Close,Adj Close,Volume
2017-06-29,150.000000,165.000000,150.000000,150.000000,150.000000,2737000
2017-06-30,149.699997,151.500000,137.550003,140.100006,140.100006,827000
2017-07-03,142.199997,145.050003,133.199997,145.050003,145.050003,284700
2017-07-05,144.000000,144.449997,131.699997,132.600006,132.600006,340200
2017-07-06,132.449997,132.600006,119.250000,120.900002,120.900002,836400
2017-07-07,121.650002,123.599998,110.400002,115.949997,115.949997,546600
2017-07-10,117.150002,124.800003,114.300003,122.099998,122.099998,363300
2017-07-11,114.000000,118.199997,106.199997,107.099998,107.099998,438200
2017-07-12,106.949997,114.599998,106.500000,113.400002,113.400002,234300
2017-07-13,110.400002,117.000000,110.324997,111.000000,111.000000,132700
2017-07-14,109.650002,112.349998,108.000000,110.400002,110.400002,105000
2017-07-17,103.199997,103.500000,96.750000,98.849998,98.849998,555000
2017-07-18,98.550003,99.300003,93.449997,95.400002,95.400002,339500
2017-07-19,95.849998,103.199997,95.250000,99.750000,99.750000,267600
2017-07-20,99.000000,100.949997,96.300003,97.800003,97.800003,100400
2017-07-21,97.349998,100.199997,96.750000,98.250000,98.250000,73800
2017-07-24,108.300003,117.974998,105.000000,111.150002,111.150002,1071400
2017-07-25,117.150002,117.599998,110.849998,112.500000,112.500000,308700
2017-07-26,111.315002,111.599998,101.250000,101.250000,101.250000,302100
2017-07-27,103.500000,104.250000,98.550003,100.800003,100.800003,140400
2017-07-28,103.199997,103.500000,99.750000,101.099998,101.099998,129200
2017-07-31,103.349998,103.500000,98.849998,99.150002,99.150002,93000
2017-08-01,100.050003,100.500000,94.500000,95.550003,95.550003,141100
2017-08-02,95.550003,95.550003,90.750000,93.000000,93.000000,255500
2017-08-03,93.750000,96.300003,90.750000,93.300003,93.300003,185400
2017-08-04,94.050003,95.250000,85.500000,87.449997,87.449997,506100
2017-08-07,88.500000,89.084999,87.000000,87.750000,87.750000,242900
2017-08-08,87.000000,89.250000,85.949997,87.150002,87.150002,155300
2017-08-09,85.800003,98.250000,82.650002,93.599998,93.599998,326800
2017-08-10,80.699997,85.500000,75.449997,77.099998,77.099998,1107700
2017-08-11,76.199997,78.000000,75.000000,76.800003,76.800003,219800
2017-08-14,76.199997,81.750000,75.449997,80.400002,80.400002,214800
2017-08-15,81.750000,87.300003,79.650002,84.750000,84.750000,213300
2017-08-16,85.199997,85.800003,82.050003,82.500000,82.500000,102800
2017-08-17,81.900002,85.349998,79.949997,80.849998,80.849998,171000
2017-08-18,79.500000,80.400002,76.800003,79.650002,79.650002,101300
2017-08-21,79.349998,79.410004,76.199997,78.599998,78.599998,113300
2017-08-22,77.099998,79.650002,76.650002,78.750000,78.750000,211100
2017-08-23,78.000000,83.250000,77.400002,82.050003,82.050003,117400
2017-08-24,81.599998,84.750000,81.300003,82.199997,82.199997,112100
2017-08-25,81.750000,82.949997,79.949997,80.849998,80.849998,78600
2017-08-28,80.250000,81.824997,77.760002,80.699997,80.699997,73300
2017-08-29,79.500000,80.699997,77.400002,77.550003,77.550003,106200
2017-08-30,78.000000,80.250000,77.699997,79.949997,79.949997,60400
2017-08-31,81.449997,82.050003,78.300003,78.599998,78.599998,72700
2017-09-01,78.300003,78.870003,77.400002,78.300003,78.300003,66700
2017-09-05,78.150002,80.250000,77.849998,78.300003,78.300003,66500
2017-09-06,78.000000,84.300003,77.699997,82.050003,82.050003,215800
2017-09-07,82.349998,83.250000,79.080002,80.099998,80.099998,118600
2017-09-08,80.699997,82.349998,79.650002,80.699997,80.699997,100500
2017-09-11,81.599998,81.974998,79.650002,81.150002,81.150002,78600
2017-09-12,81.750000,81.750000,79.199997,80.550003,80.550003,116000
2017-09-13,79.800003,81.750000,79.500000,80.849998,80.849998,70300
2017-09-14,80.849998,88.949997,80.849998,84.750000,84.750000,310400
2017-09-15,86.849998,92.400002,85.650002,90.900002,90.900002,282800
2017-09-18,93.599998,93.750000,84.750000,85.050003,85.050003,215800
2017-09-19,84.900002,86.849998,80.400002,82.650002,82.650002,241100
2017-09-20,82.500000,82.949997,78.000000,78.300003,78.300003,225000
2017-09-21,83.250000,85.199997,78.000000,78.449997,78.449997,233800
2017-09-22,78.599998,79.500000,76.800003,77.849998,77.849998,182400
2017-09-25,79.800003,83.595001,78.449997,83.099998,83.099998,382600
2017-09-26,84.000000,88.574997,82.724998,87.000000,87.000000,236000
2017-09-27,88.349998,88.949997,82.650002,87.000000,87.000000,166600
2017-09-28,87.000000,87.599998,81.900002,83.849998,83.849998,141700
2017-09-29,83.400002,83.849998,81.599998,81.750000,81.750000,89400
2017-10-02,81.300003,83.099998,81.000000,81.599998,81.599998,76600
2017-10-03,81.150002,82.349998,79.574997,80.099998,80.099998,162300
2017-10-04,80.550003,80.849998,79.199997,80.099998,80.099998,73200
2017-10-05,80.099998,80.849998,78.750000,79.800003,79.800003,91500
2017-10-06,79.500000,80.099998,78.750000,78.750000,78.750000,56300
2017-10-09,78.750000,79.394997,77.250000,77.250000,77.250000,158800
2017-10-10,77.250000,78.449997,75.900002,76.349998,76.349998,113800
2017-10-11,76.500000,77.099998,75.750000,76.349998,76.349998,62400
2017-10-12,76.349998,76.800003,75.449997,76.199997,76.199997,69600
2017-10-13,76.500000,79.199997,75.900002,77.400002,77.400002,148300
2017-10-16,78.750000,79.875000,77.250000,78.750000,78.750000,113000
2017-10-17,79.050003,80.699997,78.000000,80.699997,80.699997,158700
2017-10-18,80.550003,83.175003,79.349998,79.500000,79.500000,142900
2017-10-19,78.300003,79.500000,76.500000,77.550003,77.550003,128900
2017-10-20,78.150002,78.150002,76.050003,76.199997,76.199997,123800
2017-10-23,76.050003,77.400002,75.150002,77.250000,77.250000,105100
2017-10-24,76.349998,77.699997,75.750000,76.199997,76.199997,65100
2017-10-25,75.750000,76.349998,72.449997,75.150002,75.150002,184500
2017-10-26,74.699997,77.099998,73.800003,75.449997,75.449997,72300
2017-10-27,75.449997,77.099998,74.550003,76.949997,76.949997,70200
2017-10-30,76.050003,77.699997,74.849998,75.150002,75.150002,95500
2017-10-31,74.849998,75.449997,71.250000,71.550003,71.550003,172100
2017-11-01,71.250000,72.750000,69.150002,70.050003,70.050003,152900
2017-11-02,71.400002,73.349998,56.250000,57.000000,57.000000,461900
2017-11-03,57.150002,58.049999,53.430000,56.849998,56.849998,184900
2017-11-06,56.400002,59.849998,56.400002,58.200001,58.200001,142400
2017-11-07,57.750000,58.500000,45.450001,45.750000,45.750000,806700
2017-11-08,46.349998,48.750000,46.049999,47.849998,47.849998,131600
2017-11-09,47.400002,48.525002,46.125000,46.349998,46.349998,198200
2017-11-10,46.200001,48.599998,46.200001,47.549999,47.549999,76400
2017-11-13,47.250000,47.849998,45.900002,45.900002,45.900002,85700
2017-11-14,46.500000,46.500000,45.299999,45.900002,45.900002,72800
2017-11-15,45.750000,46.650002,45.299999,46.349998,46.349998,76200
2017-11-16,46.349998,46.799999,45.945000,46.200001,46.200001,63200
2017-11-17,46.049999,46.500000,45.599998,45.599998,45.599998,76600
2017-11-20,46.200001,46.500000,44.549999,45.150002,45.150002,91600
2017-11-21,45.450001,46.049999,44.849998,44.849998,44.849998,46700
2017-11-22,45.150002,45.299999,44.099998,44.549999,44.549999,79200
2017-11-24,44.700001,48.000000,44.700001,46.950001,46.950001,147100
2017-11-27,46.799999,48.450001,45.900002,46.049999,46.049999,88800
2017-11-28,45.900002,47.025002,45.150002,45.750000,45.750000,170600
2017-11-29,45.750000,46.049999,44.849998,44.849998,44.849998,98200
2017-11-30,45.150002,45.974998,44.400002,44.849998,44.849998,70400
2017-12-01,47.250000,50.250000,45.764999,48.450001,48.450001,423700
2017-12-04,51.599998,64.650002,51.180000,56.400002,56.400002,771100
2017-12-05,57.750000,57.900002,52.500000,56.400002,56.400002,205500
2017-12-06,55.049999,57.150002,54.000000,56.099998,56.099998,85900
2017-12-07,56.849998,57.599998,55.500000,56.700001,56.700001,112500
2017-12-08,57.224998,57.599998,56.400002,57.599998,57.599998,86800
2017-12-11,57.825001,58.950001,57.165001,57.750000,57.750000,112000
2017-12-12,59.400002,59.849998,58.200001,59.700001,59.700001,113200
2017-12-13,59.250000,60.150002,57.150002,59.549999,59.549999,154500
2017-12-14,62.400002,64.349998,60.299999,63.150002,63.150002,235300
2017-12-15,63.299999,65.025002,63.000000,63.299999,63.299999,123700
2017-12-18,64.349998,64.500000,63.000000,64.500000,64.500000,130900
2017-12-19,64.650002,68.250000,63.900002,66.750000,66.750000,144800
2017-12-20,67.500000,68.400002,66.150002,66.150002,66.150002,97100
2017-12-21,66.000000,66.599998,60.000000,60.599998,60.599998,178500
2017-12-22,60.599998,62.625000,60.150002,60.599998,60.599998,89100
2017-12-26,60.599998,63.299999,60.150002,62.099998,62.099998,58400
2017-12-27,62.099998,65.099998,61.650002,63.150002,63.150002,102200
2017-12-28,63.299999,65.250000,63.150002,64.349998,64.349998,81500
2017-12-29,63.750000,64.500000,60.299999,60.450001,60.450001,103900
2018-01-02,60.900002,62.400002,60.299999,61.950001,61.950001,65300
2018-01-03,62.250000,62.549999,60.375000,61.500000,61.500000,79400
2018-01-04,61.500000,61.950001,58.650002,59.849998,59.849998,134200
2018-01-05,59.700001,60.900002,58.650002,58.650002,58.650002,75200
2018-01-08,58.500000,58.500000,54.599998,55.650002,55.650002,102800
2018-01-09,55.500000,55.875000,52.200001,52.200001,52.200001,103200
2018-01-10,50.849998,52.950001,50.025002,51.000000,51.000000,103600
2018-01-11,51.000000,53.400002,51.000000,52.950001,52.950001,82700
2018-01-12,53.099998,53.400002,50.849998,51.150002,51.150002,147900
2018-01-16,51.299999,51.299999,47.250000,47.700001,47.700001,136100
2018-01-17,48.000000,48.299999,46.500000,47.400002,47.400002,88600
2018-01-18,47.849998,50.250000,47.250000,48.000000,48.000000,124600
2018-01-19,48.000000,49.049999,45.299999,45.900002,45.900002,180400
2018-01-22,45.750000,48.750000,45.000000,48.150002,48.150002,124700
2018-01-23,48.150002,48.150002,46.799999,48.000000,48.000000,67000
2018-01-24,48.000000,48.435001,45.750000,46.200001,46.200001,83300
2018-01-25,46.500000,48.000000,45.750000,45.750000,45.750000,125800
2018-01-26,46.200001,46.799999,45.599998,46.349998,46.349998,68000
2018-01-29,46.650002,46.950001,46.049999,46.799999,46.799999,88000
2018-01-30,46.200001,46.349998,45.150002,45.750000,45.750000,64000
2018-01-31,46.349998,46.349998,44.549999,44.849998,44.849998,148000
2018-02-01,44.849998,46.395000,44.250000,45.299999,45.299999,58800
2018-02-02,47.549999,48.599998,45.450001,45.599998,45.599998,398300
2018-02-05,47.250000,47.400002,45.000000,46.200001,46.200001,203300
2018-02-06,45.750000,47.250000,45.450001,46.799999,46.799999,127500
2018-02-07,46.799999,49.349998,46.650002,48.000000,48.000000,177200
2018-02-08,50.099998,55.799999,48.750000,55.500000,55.500000,547100
2018-02-09,54.299999,54.599998,46.650002,48.900002,48.900002,343800
2018-02-12,51.150002,51.750000,49.500000,50.250000,50.250000,232900
2018-02-13,54.900002,63.000000,49.049999,50.250000,50.250000,1014200
2018-02-14,51.750000,53.250000,50.250000,52.049999,52.049999,213400
2018-02-15,52.950001,53.070000,48.750000,49.650002,49.650002,190200
2018-02-16,50.400002,55.500000,50.400002,53.400002,53.400002,533000
2018-02-20,54.000000,54.299999,50.849998,50.849998,50.849998,218300
2018-02-21,52.349998,52.349998,48.375000,49.049999,49.049999,185300
2018-02-22,49.049999,50.700001,48.000000,49.650002,49.650002,103400
2018-02-23,49.349998,49.500000,45.750000,46.500000,46.500000,648200
2018-02-26,46.500000,46.950001,44.250000,44.549999,44.549999,289200
2018-02-27,44.700001,44.834999,41.549999,41.700001,41.700001,453500
2018-02-28,41.700001,43.200001,41.549999,41.849998,41.849998,182300
2018-03-01,42.150002,42.150002,39.900002,40.650002,40.650002,218600
2018-03-02,40.500000,41.250000,38.700001,41.099998,41.099998,159500
2018-03-05,39.900002,40.799999,38.700001,39.000000,39.000000,292400
2018-03-06,39.150002,39.750000,37.799999,38.250000,38.250000,221000
2018-03-07,37.950001,38.250000,37.200001,37.349998,37.349998,132500
2018-03-08,37.349998,37.799999,30.000000,31.049999,31.049999,643100
2018-03-09,31.650000,35.250000,31.500000,34.349998,34.349998,439600
2018-03-12,34.799999,35.099998,29.924999,31.049999,31.049999,720100
2018-03-13,31.500000,33.299999,31.200001,32.250000,32.250000,198500
2018-03-14,31.799999,33.750000,30.299999,32.400002,32.400002,223800
2018-03-15,33.450001,35.549999,32.400002,32.849998,32.849998,314000
2018-03-16,32.700001,34.500000,31.200001,32.250000,32.250000,235900
2018-03-19,35.099998,35.099998,31.950001,32.549999,32.549999,268400
2018-03-20,32.250000,32.400002,30.900000,31.049999,31.049999,180800
2018-03-21,31.650000,33.525002,30.900000,32.250000,32.250000,146300
2018-03-22,31.650000,32.700001,30.450001,30.750000,30.750000,143200
2018-03-23,30.900000,31.350000,30.150000,30.600000,30.600000,105400
2018-03-26,30.600000,31.950001,27.750000,29.400000,29.400000,338100
2018-03-27,29.250000,30.600000,29.100000,29.850000,29.850000,140600
2018-03-28,28.500000,28.500000,27.450001,28.200001,28.200001,205300
2018-03-29,28.500000,30.000000,27.900000,30.000000,30.000000,175700
2018-04-02,30.750000,30.750000,27.750000,28.049999,28.049999,145600
2018-04-03,28.950001,28.950001,27.000000,27.000000,27.000000,136900
2018-04-04,27.000000,27.750000,25.799999,27.750000,27.750000,119500
2018-04-05,27.600000,28.049999,27.000000,27.900000,27.900000,72100
2018-04-06,27.450001,27.600000,26.400000,26.549999,26.549999,93600
2018-04-09,27.000000,28.125000,26.700001,27.750000,27.750000,60300
2018-04-10,28.200001,28.500000,27.000000,27.600000,27.600000,66800
2018-04-11,27.450001,28.049999,27.000000,27.150000,27.150000,60500
2018-04-12,27.299999,27.900000,27.150000,27.299999,27.299999,50800
2018-04-13,27.900000,29.700001,27.450001,28.950001,28.950001,138700
2018-04-16,29.549999,32.250000,28.875000,30.600000,30.600000,317000
2018-04-17,31.500000,31.635000,28.500000,29.700001,29.700001,176600
2018-04-18,29.700001,32.250000,29.700001,30.900000,30.900000,179000
2018-04-19,30.900000,31.049999,28.934999,30.000000,30.000000,64500
2018-04-20,29.549999,31.049999,29.549999,30.000000,30.000000,74100
2018-04-23,30.299999,30.525000,28.950001,29.700001,29.700001,91400
2018-04-24,30.000000,30.000000,28.350000,28.950001,28.950001,97400
2018-04-25,28.950001,29.700001,28.500000,29.549999,29.549999,71800
2018-04-26,29.549999,34.200001,28.799999,33.900002,33.900002,706100
2018-04-27,33.599998,33.750000,31.200001,31.350000,31.350000,503300
2018-04-30,31.950001,31.950001,31.200001,31.350000,31.350000,110000
2018-05-01,31.650000,31.799999,31.200001,31.500000,31.500000,97700
2018-05-02,31.950001,31.950001,31.049999,31.500000,31.500000,129600
2018-05-03,33.450001,34.500000,31.049999,34.500000,34.500000,817000
2018-05-04,35.250000,37.950001,34.650002,36.599998,36.599998,612000
2018-05-07,39.000000,39.375000,36.750000,38.250000,38.250000,446200
2018-05-08,39.299999,43.500000,38.849998,42.599998,42.599998,689800
2018-05-09,43.500000,43.650002,36.450001,40.049999,40.049999,522500
2018-05-10,40.200001,40.500000,36.000000,36.900002,36.900002,378900
2018-05-11,36.000000,37.349998,36.000000,36.599998,36.599998,181300
2018-05-14,36.599998,38.849998,36.599998,37.650002,37.650002,216000
2018-05-15,37.650002,39.224998,36.299999,38.250000,38.250000,348200
2018-05-16,38.400002,39.450001,37.889999,39.299999,39.299999,123100
2018-05-17,40.200001,43.500000,39.165001,41.549999,41.549999,599100
2018-05-18,42.299999,43.200001,41.400002,42.150002,42.150002,315500
2018-05-21,42.750000,45.599998,42.599998,45.000000,45.000000,488800
2018-05-22,45.900002,48.450001,45.599998,47.849998,47.849998,603400
2018-05-23,48.750000,48.900002,43.049999,44.549999,44.549999,460600
2018-05-24,45.299999,48.599998,42.750000,46.200001,46.200001,559200
2018-05-25,46.950001,47.849998,45.450001,45.750000,45.750000,274500
2018-05-29,45.150002,45.450001,43.049999,44.099998,44.099998,301000
2018-05-30,45.150002,45.599998,43.724998,45.450001,45.450001,198100
2018-05-31,45.450001,46.500000,45.075001,46.049999,46.049999,213800
2018-06-01,46.500000,48.000000,46.200001,47.849998,47.849998,327300
2018-06-04,48.750000,51.450001,48.450001,50.700001,50.700001,479300
2018-06-05,51.000000,51.900002,46.950001,50.700001,50.700001,416300
2018-06-06,50.099998,50.235001,48.000000,48.750000,48.750000,332400
2018-06-07,48.299999,48.825001,43.650002,47.849998,47.849998,374000
2018-06-08,47.099998,48.450001,45.299999,48.000000,48.000000,141300
2018-06-11,47.700001,48.525002,47.310001,48.000000,48.000000,125500
2018-06-12,47.700001,48.150002,45.750000,45.900002,45.900002,158800
2018-06-13,45.900002,46.875000,45.000000,45.750000,45.750000,165100
2018-06-14,45.150002,46.650002,43.799999,46.500000,46.500000,335000
2018-06-15,45.900002,45.900002,44.400002,45.450001,45.450001,191000
2018-06-18,45.000000,48.150002,44.700001,48.150002,48.150002,262300
2018-06-19,47.849998,49.200001,45.750000,49.200001,49.200001,262000
2018-06-20,49.500000,51.000000,48.900002,50.700001,50.700001,221600
2018-06-21,50.700001,50.924999,48.000000,49.500000,49.500000,187400
2018-06-22,49.349998,49.950001,48.375000,49.950001,49.950001,111700
2018-06-25,48.599998,51.959999,47.700001,48.900002,48.900002,213700
2018-06-26,48.450001,49.200001,47.400002,47.700001,47.700001,171300
2018-06-27,47.700001,49.650002,46.500000,48.750000,48.750000,139800
2018-06-28,48.750000,48.750000,46.799999,48.299999,48.299999,98000
2018-06-29,48.450001,51.150002,48.299999,50.250000,50.250000,251200
2018-07-02,49.500000,49.799999,48.900002,49.650002,49.650002,78000
2018-07-03,49.500000,50.099998,48.900002,49.200001,49.200001,38400
2018-07-05,49.049999,53.849998,48.750000,52.950001,52.950001,333100
2018-07-06,53.250000,54.299999,49.799999,50.250000,50.250000,211700
2018-07-09,50.700001,52.200001,50.250000,51.599998,51.599998,155600
2018-07-10,51.599998,58.349998,51.150002,57.150002,57.150002,409400
2018-07-11,55.500000,56.700001,53.250000,55.049999,55.049999,303700
2018-07-12,55.799999,60.450001,55.200001,58.799999,58.799999,572400
2018-07-13,60.000000,62.250000,58.200001,58.349998,58.349998,418900
2018-07-16,57.900002,58.349998,53.250000,56.099998,56.099998,286200
2018-07-17,54.750000,55.950001,52.799999,53.700001,53.700001,202900
2018-07-18,53.849998,54.750000,52.650002,53.250000,53.250000,137900
2018-07-19,53.250000,53.400002,50.400002,51.000000,51.000000,166800
2018-07-20,50.700001,51.000000,45.450001,46.650002,46.650002,354300
2018-07-23,46.799999,47.700001,42.299999,47.700001,47.700001,418800
2018-07-24,47.849998,47.849998,43.650002,44.099998,44.099998,356700
2018-07-25,44.099998,47.549999,44.099998,46.500000,46.500000,243600
2018-07-26,46.049999,46.500000,45.599998,46.200001,46.200001,117800
2018-07-27,46.200001,46.500000,41.250000,41.400002,41.400002,427400
2018-07-30,42.000000,42.000000,36.750000,36.900002,36.900002,338700
2018-07-31,36.599998,40.275002,35.400002,35.549999,35.549999,388300
2018-08-01,35.549999,37.424999,34.500000,36.299999,36.299999,374700
2018-08-02,30.000000,30.299999,27.299999,27.450001,27.450001,929600
2018-08-03,27.900000,33.150002,27.750000,32.400002,32.400002,572500
2018-08-06,32.849998,32.849998,28.950001,30.900000,30.900000,337200
2018-08-07,30.150000,33.450001,28.950001,32.099998,32.099998,323700
2018-08-08,31.799999,34.500000,30.750000,34.200001,34.200001,422700
2018-08-09,33.750000,34.500000,33.299999,33.599998,33.599998,137600
2018-08-10,33.299999,35.400002,31.799999,32.400002,32.400002,231800
2018-08-13,32.849998,33.299999,31.350000,31.950001,31.950001,163000
2018-08-14,31.950001,32.400002,30.825001,31.200001,31.200001,118100
2018-08-15,31.200001,31.200001,30.150000,30.450001,30.450001,123700
2018-08-16,31.200001,32.250000,30.750000,31.650000,31.650000,122000
2018-08-17,31.799999,33.000000,31.514999,32.849998,32.849998,142900
2018-08-20,32.700001,34.049999,32.174999,33.299999,33.299999,124700
2018-08-21,33.150002,34.799999,32.700001,34.049999,34.049999,129600
2018-08-22,34.049999,34.650002,33.314999,34.349998,34.349998,129200
2018-08-23,34.200001,34.799999,32.849998,34.500000,34.500000,132700
2018-08-24,34.349998,34.349998,33.299999,33.450001,33.450001,99800
2018-08-27,33.599998,33.735001,31.049999,32.099998,32.099998,242400
2018-08-28,31.950001,32.700001,31.485001,31.950001,31.950001,87100
2018-08-29,31.650000,32.250000,31.049999,31.500000,31.500000,84400
2018-08-30,31.650000,31.799999,30.000000,30.150000,30.150000,104800
2018-08-31,30.150000,30.750000,30.000000,30.299999,30.299999,93600
2018-09-04,30.299999,30.450001,28.650000,29.549999,29.549999,181500
2018-09-05,29.400000,29.490000,27.750000,27.750000,27.750000,180400
2018-09-06,27.750000,27.900000,26.850000,27.000000,27.000000,95100
2018-09-07,26.850000,29.400000,25.500000,27.299999,27.299999,210800
2018-09-10,27.900000,29.250000,27.450001,28.650000,28.650000,171000
2018-09-11,28.500000,28.799999,27.450001,27.600000,27.600000,102900
2018-09-12,27.600000,28.200001,27.299999,27.450001,27.450001,54300
2018-09-13,27.450001,28.799999,27.450001,28.049999,28.049999,108100
2018-09-14,27.900000,28.200001,26.700001,27.450001,27.450001,177900
2018-09-17,27.750000,27.900000,26.250000,26.700001,26.700001,135100
2018-09-18,26.549999,27.000000,25.950001,26.250000,26.250000,105500
2018-09-19,26.100000,26.250000,24.900000,25.200001,25.200001,199600
2018-09-20,25.200001,28.875000,24.600000,28.049999,28.049999,381900
2018-09-21,28.350000,28.650000,26.400000,26.850000,26.850000,188600
2018-09-24,26.850000,27.299999,24.750000,25.049999,25.049999,320500
2018-09-25,25.350000,28.275000,25.049999,27.299999,27.299999,533800
2018-09-26,27.000000,27.150000,25.799999,26.549999,26.549999,161700
2018-09-27,26.700001,26.850000,25.500000,25.500000,25.500000,133600
2018-09-28,25.500000,26.100000,25.200001,25.799999,25.799999,97000
2018-10-01,25.799999,25.950001,23.850000,24.000000,24.000000,248700
2018-10-02,24.450001,24.600000,21.600000,22.049999,22.049999,391800
2018-10-03,22.049999,22.500000,20.700001,20.850000,20.850000,330000
2018-10-04,21.000000,23.250000,20.549999,22.799999,22.799999,384700
2018-10-05,22.650000,23.400000,21.750000,22.799999,22.799999,224600
2018-10-08,22.799999,23.100000,21.900000,22.049999,22.049999,114400
2018-10-09,21.900000,22.350000,20.700001,20.700001,20.700001,175700
2018-10-10,21.000000,21.450001,19.650000,20.100000,20.100000,260200
2018-10-11,19.650000,21.299999,19.350000,19.500000,19.500000,297600
2018-10-12,19.950001,21.000000,19.799999,20.100000,20.100000,193100
2018-10-15,20.250000,20.700001,19.799999,20.250000,20.250000,76100
2018-10-16,20.700001,21.299999,19.950001,20.250000,20.250000,272100
2018-10-17,20.250000,20.400000,19.350000,19.650000,19.650000,269100
2018-10-18,19.799999,20.100000,18.900000,19.049999,19.049999,132300
2018-10-19,19.049999,19.950001,18.299999,18.450001,18.450001,219300
2018-10-22,18.600000,18.750000,16.350000,16.650000,16.650000,361800
2018-10-23,16.799999,18.299999,15.300000,17.700001,17.700001,275000
2018-10-24,17.400000,17.850000,16.500000,16.650000,16.650000,90100
2018-10-25,17.100000,17.700001,16.799999,17.400000,17.400000,51200
2018-10-26,16.950001,17.850000,15.600000,17.100000,17.100000,193200
2018-10-29,19.350000,21.750000,18.299999,19.049999,19.049999,708400
2018-10-30,19.500000,20.850000,18.750000,19.950001,19.950001,458100
2018-10-31,20.250000,21.750000,19.799999,21.299999,21.299999,318700
2018-11-01,21.299999,21.600000,20.100000,20.850000,20.850000,140200
2018-11-02,20.250000,21.450001,20.250000,21.150000,21.150000,132600
2018-11-05,20.250000,22.650000,20.250000,22.500000,22.500000,299000
2018-11-06,22.200001,22.440001,19.650000,19.950001,19.950001,192200
2018-11-07,20.700001,20.700001,17.250000,18.450001,18.450001,232900
2018-11-08,18.900000,19.200001,18.450001,18.600000,18.600000,45200
2018-11-09,18.600000,18.600000,18.000000,18.450001,18.450001,81200
2018-11-12,18.600000,18.900000,17.100000,18.750000,18.750000,146300
2018-11-13,18.900000,18.900000,17.400000,18.299999,18.299999,190900
2018-11-14,17.549999,18.750000,16.350000,17.549999,17.549999,172300
2018-11-15,16.799999,18.000000,16.650000,17.850000,17.850000,117800
2018-11-16,17.549999,17.700001,16.500000,17.549999,17.549999,145500
2018-11-19,17.100000,17.549999,16.500000,17.100000,17.100000,187100
2018-11-20,16.350000,17.100000,16.049999,16.200001,16.200001,130400
2018-11-21,16.500000,16.650000,15.600000,15.900000,15.900000,123500
2018-11-23,15.600000,16.650000,15.600000,16.350000,16.350000,38800
2018-11-26,16.200001,16.650000,15.450000,16.500000,16.500000,152600
2018-11-27,16.049999,16.500000,16.049999,16.049999,16.049999,42800
2018-11-28,16.049999,17.325001,15.900000,17.250000,17.250000,187100
2018-11-29,17.100000,18.000000,17.100000,17.850000,17.850000,120600
2018-11-30,17.850000,17.850000,16.799999,17.549999,17.549999,154300
2018-12-03,18.000000,18.150000,16.799999,17.250000,17.250000,97100
2018-12-04,16.950001,18.150000,16.650000,16.799999,16.799999,221600
2018-12-06,16.650000,16.950001,16.049999,16.500000,16.500000,197400
2018-12-07,16.650000,16.799999,15.900000,15.900000,15.900000,177400
2018-12-10,15.900000,16.049999,15.450000,15.600000,15.600000,106900
2018-12-11,15.750000,16.500000,15.450000,16.200001,16.200001,161300
2018-12-12,16.200001,16.350000,15.450000,15.450000,15.450000,163500
2018-12-13,15.450000,16.049999,15.450000,15.600000,15.600000,274600
2018-12-14,15.600000,15.900000,15.450000,15.750000,15.750000,173200
2018-12-17,15.750000,15.825000,15.000000,15.150000,15.150000,137800
2018-12-18,15.000000,15.300000,13.260000,13.455000,13.455000,266000
2018-12-19,13.425000,13.500000,11.550000,11.700000,11.700000,551200
2018-12-20,12.000000,12.300000,11.550000,11.550000,11.550000,242800
2018-12-21,11.700000,12.075000,9.750000,9.885000,9.885000,384100
2018-12-24,10.950000,11.100000,10.200000,10.350000,10.350000,158300
2018-12-26,10.785000,11.880000,10.245000,11.775000,11.775000,209600
2018-12-27,11.700000,14.670000,11.700000,13.800000,13.800000,373800
2018-12-28,14.250000,16.950001,13.815000,16.799999,16.799999,443200
2018-12-31,17.100000,17.549999,15.150000,15.300000,15.300000,339600
2019-01-02,15.450000,16.500000,14.355000,16.200001,16.200001,141400
2019-01-03,15.900000,15.930000,15.000000,15.300000,15.300000,79000
2019-01-04,15.150000,15.750000,14.805000,14.850000,14.850000,137500
2019-01-07,14.700000,15.000000,13.050000,14.175000,14.175000,225300
2019-01-08,14.100000,14.550000,13.350000,14.265000,14.265000,226200
2019-01-09,14.490000,16.049999,14.175000,15.450000,15.450000,280100
2019-01-10,15.450000,16.350000,15.000000,15.750000,15.750000,217100
2019-01-11,15.900000,16.200001,15.150000,16.049999,16.049999,176100
2019-01-14,15.900000,16.049999,15.150000,15.600000,15.600000,145800
2019-01-15,16.950001,22.650000,16.799999,22.650000,22.650000,1176800
2019-01-16,21.600000,23.250000,19.950001,21.450001,21.450001,535500
2019-01-17,21.450001,21.450001,18.000000,19.200001,19.200001,413500
2019-01-18,19.049999,21.750000,18.900000,21.000000,21.000000,331700
2019-01-22,21.000000,21.000000,19.650000,20.700001,20.700001,208900
2019-01-23,21.000000,21.299999,19.350000,20.100000,20.100000,238200
2019-01-24,20.400000,20.549999,19.650000,20.400000,20.400000,83300
2019-01-25,20.700001,22.500000,19.950001,21.299999,21.299999,380500
2019-01-28,21.150000,22.200001,19.799999,21.600000,21.600000,287400
2019-01-29,21.750000,22.950001,20.850000,22.500000,22.500000,407600
2019-01-30,22.650000,23.025000,20.400000,21.299999,21.299999,386300
2019-01-31,23.549999,23.850000,20.100000,21.000000,21.000000,562600
2019-02-01,20.850000,21.299999,20.250000,20.549999,20.549999,178100
2019-02-04,20.700001,21.299999,20.250000,20.700001,20.700001,280000
2019-02-05,20.850000,21.150000,20.250000,21.000000,21.000000,126500
2019-02-06,20.850000,22.049999,20.400000,21.000000,21.000000,259900
2019-02-07,20.850000,21.299999,20.400000,20.400000,20.400000,156200
2019-02-08,20.400000,21.600000,20.400000,21.299999,21.299999,133500
2019-02-11,21.450001,22.799999,20.700001,22.799999,22.799999,321100
2019-02-12,22.799999,24.299999,22.200001,23.850000,23.850000,281200
2019-02-13,24.000000,24.450001,23.549999,23.700001,23.700001,175600
2019-02-14,23.549999,24.000000,22.650000,22.799999,22.799999,97100
2019-02-15,22.799999,23.100000,22.200001,22.350000,22.350000,119700
2019-02-19,22.350000,24.000000,21.900000,23.100000,23.100000,250900
2019-02-20,23.100000,24.600000,22.200001,22.799999,22.799999,328100
2019-02-21,22.950001,23.100000,21.600000,22.350000,22.350000,210500
2019-02-22,22.650000,22.799999,21.750000,21.900000,21.900000,160800
2019-02-25,21.750000,21.990000,20.400000,20.700001,20.700001,182100
2019-02-26,20.549999,20.700001,18.600000,19.350000,19.350000,184300
2019-02-27,18.660000,18.660000,15.750000,15.900000,15.900000,610100
2019-02-28,16.170000,16.500000,15.150000,16.049999,16.049999,240800
2019-03-01,16.500000,16.650000,15.750000,16.200001,16.200001,175300
2019-03-04,16.500000,16.500000,13.950000,14.085000,14.085000,445800
2019-03-05,14.100000,16.049999,13.950000,15.150000,15.150000,470900
2019-03-06,15.450000,15.900000,14.700000,14.850000,14.850000,348500
2019-03-07,15.300000,15.450000,14.655000,14.970000,14.970000,296200
2019-03-08,14.699992,14.999992,13.949993,14.399993,14.399993,4377600
2019-03-11,14.564993,15.299993,14.249993,15.149992,15.149992,4106900
2019-03-12,15.149992,15.449992,14.444993,14.774993,14.774993,3235100
2019-03-13,14.984993,15.299993,14.549993,15.299993,15.299993,3598600
2019-03-14,15.299993,15.449992,14.684993,14.834992,14.834992,2572200
2019-03-15,14.849993,15.599992,14.699992,15.599992,15.599992,3368200
2019-03-18,15.149992,16.049992,15.149992,15.449992,15.449992,3189100
2019-03-19,15.449992,16.049992,15.449992,15.749992,15.749992,1796600
2019-03-20,15.899992,15.899992,14.999992,15.449992,15.449992,1917700
2019-03-21,15.299993,15.599992,14.924993,15.299993,15.299993,1537300
2019-03-22,15.149992,15.299993,14.144993,14.264993,14.264993,2912200
2019-03-25,14.429993,14.474993,13.439993,13.439993,13.439993,3831500
2019-03-26,13.649993,14.999992,13.649993,14.534993,14.534993,4726600
2019-03-27,14.474993,14.699992,13.799994,14.054993,14.054993,2758500
2019-03-28,14.099993,15.149992,14.099993,14.549993,14.549993,3712200
2019-03-29,14.849993,14.864992,14.249993,14.699992,14.699992,2071300
2019-04-01,14.699992,15.149992,14.414992,14.789992,14.789992,3400100
2019-04-02,14.789992,14.789992,14.399993,14.534993,14.534993,3245600
2019-04-03,17.099991,17.249990,15.299993,15.599992,15.599992,9759100
2019-04-04,15.584992,16.049992,15.149992,15.299993,15.299993,2971200
2019-04-05,15.449992,16.499992,15.299993,16.199991,16.199991,2924000
2019-04-08,16.349993,17.549992,16.199991,17.099991,17.099991,5070700
2019-04-09,17.399992,18.599991,16.649992,17.249990,17.249990,4688300
2019-04-10,17.099991,17.099991,16.049992,16.649992,16.649992,2195300
2019-04-11,16.199991,17.099991,16.199991,16.349993,16.349993,1219600
2019-04-12,16.499992,16.649992,16.049992,16.499992,16.499992,1086400
2019-04-15,16.349993,16.499992,14.999992,15.599992,15.599992,2376200
2019-04-16,15.599992,15.599992,14.699992,14.999992,14.999992,2667200
2019-04-17,14.999992,15.299993,14.699992,15.149992,15.149992,1561600
2019-04-18,14.999992,15.299993,14.264993,14.999992,14.999992,2359100
2019-04-22,14.999992,15.149992,14.924993,14.999992,14.999992,798200
2019-04-23,15.149992,15.299993,14.549993,14.579992,14.579992,2220100
2019-04-24,14.849993,14.999992,14.279993,14.879992,14.879992,1770100
2019-04-25,14.999992,14.999992,14.579992,14.999992,14.999992,1359000
2019-04-26,14.999992,16.199991,14.849993,15.749992,15.749992,4049800
2019-04-29,15.899992,16.349993,15.299993,15.599992,15.599992,3568600
2019-04-30,15.749992,16.199991,14.999992,15.449992,15.449992,5705200
2019-05-01,15.749992,15.899992,14.999992,15.749992,15.749992,3854300
2019-05-02,15.599992,15.599992,14.999992,15.149992,15.149992,1138400
2019-05-03,15.149992,15.299993,14.999992,14.999992,14.999992,1447900
2019-05-06,14.699992,14.999992,14.549993,14.774993,14.774993,2450800
2019-05-07,14.744992,14.849993,13.829993,13.874993,13.874993,3497700
2019-05-08,13.949993,14.549993,13.064994,13.829993,13.829993,1948700
2019-05-09,13.499993,13.724993,12.449994,13.214993,13.214993,2891900
2019-05-10,13.049994,13.304994,12.074994,12.329994,12.329994,3392900
2019-05-13,12.299994,12.449994,11.699994,11.804994,11.804994,2763500
2019-05-14,12.149994,12.284994,11.849994,11.969994,11.969994,1741100
2019-05-15,11.999994,12.074994,10.964994,11.399994,11.399994,2652000
2019-05-16,11.549994,11.849994,11.234994,11.309995,11.309995,1415900
2019-05-17,11.204994,11.549994,11.099995,11.204994,11.204994,1023200
2019-05-20,10.769995,10.799994,9.599996,10.274995,10.274995,5792100
2019-05-21,10.049995,11.684994,10.049995,11.519994,11.519994,5135900
2019-05-22,11.249994,11.399994,10.529995,10.904995,10.904995,2166000
2019-05-23,10.499994,11.099995,10.199995,10.934995,10.934995,1228700
2019-05-24,10.949994,11.489994,10.724995,11.144995,11.144995,2166200
2019-05-28,11.249994,11.669994,10.769995,10.874994,10.874994,1975900
2019-05-29,10.949994,11.039994,10.274995,10.559995,10.559995,2022100
2019-05-30,10.349995,10.934995,10.349995,10.544994,10.544994,1459000
2019-05-31,10.349995,10.499994,10.079995,10.424994,10.424994,1349900
2019-06-03,10.244995,10.424994,9.764996,10.274995,10.274995,1934100
2019-06-04,10.424994,10.784995,9.914995,10.409995,10.409995,3690100
2019-06-05,10.349995,10.469995,9.614995,10.214994,10.214994,2292400
2019-06-06,10.349995,10.349995,9.449995,9.974995,9.974995,1964600
2019-06-07,9.899995,9.974995,9.614995,9.749995,9.749995,1582600
2019-06-10,9.704995,9.749995,8.999995,9.089995,9.089995,3270000
2019-06-11,8.999995,9.599996,8.999995,8.999995,8.999995,1811100
2019-06-12,9.134995,9.749995,9.074995,9.644995,9.644995,1814300
2019-06-13,9.749995,10.199995,9.449995,9.779995,9.779995,1875200
2019-06-14,8.999995,8.999995,8.189996,8.249996,8.249996,4923700
2019-06-17,7.860000,9.490000,7.860000,8.180000,8.180000,709100
2019-06-18,8.310000,8.580000,6.920000,7.120000,7.120000,1068500
2019-06-19,7.100000,7.840000,7.020000,7.770000,7.770000,445000
2019-06-20,7.900000,7.900000,6.913000,6.950000,6.950000,972000
2019-06-21,6.950000,6.990000,6.600000,6.960000,6.960000,723600
2019-06-24,6.950000,6.950000,6.350000,6.700000,6.700000,605400
2019-06-25,6.610000,6.870000,6.460000,6.680000,6.680000,337600
2019-06-26,6.670000,6.770000,6.250000,6.380000,6.380000,400100
2019-06-27,6.330000,7.140000,6.100000,7.030000,7.030000,912000
2019-06-28,7.060000,7.060000,6.510000,6.760000,6.760000,575200
2019-07-01,6.840000,7.313000,6.838000,6.920000,6.920000,377400
2019-07-02,6.890000,7.010000,6.711000,6.790000,6.790000,202900
2019-07-03,6.730000,7.150000,6.663000,6.950000,6.950000,190900
2019-07-05,6.760000,7.490000,6.760000,7.300000,7.300000,373800
2019-07-08,7.220000,7.440000,7.140000,7.390000,7.390000,181000
2019-07-09,7.280000,7.390000,6.670000,7.030000,7.030000,507700
2019-07-10,7.000000,7.200000,6.810000,7.160000,7.160000,252000
2019-07-11,7.180000,7.380000,6.920000,7.140000,7.140000,265100
2019-07-12,7.130000,7.790000,7.070000,7.740000,7.740000,624800
2019-07-15,7.730000,7.800000,7.370000,7.660000,7.660000,270400
2019-07-16,8.210000,13.650000,8.190000,10.380000,10.380000,29559800
2019-07-17,10.200000,11.260000,9.330000,9.510000,9.510000,7887300
2019-07-18,9.670000,9.800000,8.330000,8.440000,8.440000,2207100
2019-07-19,8.600000,8.690000,8.050000,8.290000,8.290000,1640600
2019-07-22,8.480000,9.550000,8.190000,8.950000,8.950000,2400500
2019-07-23,9.450000,10.100000,9.220000,9.350000,9.350000,1942200
2019-07-24,9.380000,9.500000,8.860000,8.940000,8.940000,738700
2019-07-25,8.950000,9.863000,8.950000,9.770000,9.770000,1163100
2019-07-26,9.930000,10.250000,9.500000,9.750000,9.750000,975100
2019-07-29,9.700000,9.780000,9.080000,9.330000,9.330000,404600
2019-07-30,9.140000,9.300000,8.700000,8.740000,8.740000,463100
2019-07-31,8.610000,9.100000,8.610000,8.780000,8.780000,208800
2019-08-01,8.580000,8.990000,8.540000,8.630000,8.630000,247300
2019-08-02,8.710000,8.810000,7.670000,7.800000,7.800000,775500
2019-08-05,7.680000,8.450000,7.610000,7.830000,7.830000,670400
2019-08-06,7.700000,8.650000,7.210000,8.480000,8.480000,1212800
2019-08-07,8.430000,9.100000,8.000000,8.990000,8.990000,607600
2019-08-08,8.790000,9.015000,8.380000,8.500000,8.500000,392900
2019-08-09,8.390000,8.480000,7.820000,8.240000,8.240000,358100
2019-08-12,7.930000,8.280000,7.620000,8.240000,8.240000,434300
2019-08-13,8.300000,8.300000,7.780000,8.020000,8.020000,393900
2019-08-14,7.730000,7.880000,7.520000,7.720000,7.720000,528200
2019-08-15,7.540000,7.880000,7.270000,7.480000,7.480000,385100
2019-08-16,7.420000,7.620000,7.040000,7.450000,7.450000,357300
2019-08-19,7.300000,7.450000,7.000000,7.030000,7.030000,285100
2019-08-20,7.060000,7.300000,6.750000,7.110000,7.110000,481700
2019-08-21,6.950000,7.230000,6.950000,7.130000,7.130000,125000
2019-08-22,7.010000,7.200000,6.990000,7.140000,7.140000,126300
2019-08-23,7.150000,7.280000,7.080000,7.280000,7.280000,153300
2019-08-26,7.250000,7.300000,7.040000,7.170000,7.170000,137700
2019-08-27,7.110000,7.160000,6.600000,6.670000,6.670000,232500
2019-08-28,6.550000,6.950000,6.510000,6.760000,6.760000,148700
2019-08-29,6.660000,6.950000,6.660000,6.890000,6.890000,98600
2019-08-30,6.800000,6.940000,6.728000,6.780000,6.780000,109500
2019-09-03,6.680000,7.190000,6.680000,7.030000,7.030000,120900
2019-09-04,7.100000,7.531000,7.010000,7.240000,7.240000,355000
2019-09-05,7.390000,7.490000,7.170000,7.380000,7.380000,221200
2019-09-06,7.250000,7.400000,7.225000,7.300000,7.300000,55300
2019-09-09,7.300000,7.770000,7.300000,7.540000,7.540000,199600
2019-09-10,7.540000,8.090000,7.540000,7.910000,7.910000,251200
2019-09-11,7.980000,8.200000,7.880000,8.140000,8.140000,170500
2019-09-12,7.970000,8.450000,7.970000,8.260000,8.260000,345900
2019-09-13,8.170000,9.940000,8.122000,8.660000,8.660000,868200
2019-09-16,8.820000,9.570000,8.520000,9.520000,9.520000,414200
2019-09-17,9.090000,10.880000,9.070000,10.310000,10.310000,1357800
2019-09-18,10.180000,10.790000,9.010000,9.260000,9.260000,841800
2019-09-19,9.270000,9.530000,8.835000,9.480000,9.480000,318500
2019-09-20,9.250000,9.800000,9.170000,9.270000,9.270000,226700
2019-09-23,9.250000,9.580000,9.030000,9.300000,9.300000,172400
2019-09-24,9.240000,9.410000,8.750000,9.010000,9.010000,413200
2019-09-25,8.920000,9.040000,8.240000,8.600000,8.600000,471800
2019-09-26,8.630000,8.850000,8.100000,8.670000,8.670000,464800
2019-09-27,8.610000,8.820000,8.260000,8.660000,8.660000,259400
2019-09-30,8.600000,8.806000,8.160000,8.430000,8.430000,240900
2019-10-01,8.420000,8.590000,8.230000,8.380000,8.380000,167300
2019-10-02,8.280000,8.550000,7.850000,8.490000,8.490000,198100
2019-10-03,8.480000,9.390000,8.365000,9.270000,9.270000,236300
2019-10-04,9.540000,9.540000,8.850000,9.020000,9.020000,208100
2019-10-07,8.940000,9.440000,8.785000,9.060000,9.060000,160900
2019-10-08,9.040000,9.300000,8.900000,9.160000,9.160000,188100
2019-10-09,9.240000,9.430000,9.034000,9.110000,9.110000,218000
2019-10-10,9.100000,9.220000,8.420000,8.580000,8.580000,378700
2019-10-11,8.670000,8.770000,8.270000,8.330000,8.330000,350600
2019-10-14,8.170000,8.340000,7.860000,8.030000,8.030000,285300
2019-10-15,8.130000,8.250000,7.820000,7.860000,7.860000,384800
2019-10-16,7.890000,8.050000,7.350000,7.380000,7.380000,392300
2019-10-17,7.360000,8.230000,7.360000,8.030000,8.030000,340200
2019-10-18,7.910000,8.070000,7.470000,7.490000,7.490000,209400
2019-10-21,7.470000,7.646000,7.120000,7.210000,7.210000,304900
2019-10-22,7.200000,7.500000,6.890000,7.500000,7.500000,402400
2019-10-23,7.530000,7.720000,7.310000,7.680000,7.680000,218100
2019-10-24,7.540000,7.560000,7.250000,7.330000,7.330000,197800
2019-10-25,7.250000,7.580000,7.170000,7.440000,7.440000,251300
2019-10-28,7.440000,7.650000,7.380000,7.400000,7.400000,153600
2019-10-29,7.340000,7.404000,6.910000,7.050000,7.050000,328500
2019-10-30,7.000000,7.390000,6.900000,7.090000,7.090000,327500
2019-10-31,6.860000,7.760000,6.550000,7.160000,7.160000,671100
2019-11-01,7.310000,8.320000,7.050000,8.300000,8.300000,807200
2019-11-04,8.390000,10.270000,8.300000,8.710000,8.710000,1183700
2019-11-05,8.660000,9.030000,8.470000,8.750000,8.750000,348600
2019-11-06,8.670000,8.930000,8.300000,8.490000,8.490000,173200
2019-11-07,8.440000,8.540000,7.920000,7.920000,7.920000,281800
2019-11-08,7.850000,8.020000,7.670000,7.710000,7.710000,163800
2019-11-11,7.710000,7.720000,7.400000,7.550000,7.550000,191900
2019-11-12,7.410000,7.560000,7.110000,7.230000,7.230000,325500
2019-11-13,7.250000,7.400000,7.230000,7.280000,7.280000,210500
2019-11-14,7.250000,7.402000,7.106000,7.240000,7.240000,279400
2019-11-15,7.150000,7.440000,7.030000,7.360000,7.360000,158300
2019-11-18,7.170000,7.760000,7.050000,7.600000,7.600000,351400
2019-11-19,7.540000,7.960000,7.500000,7.920000,7.920000,127900
2019-11-20,7.940000,7.940000,7.500000,7.520000,7.520000,162800
2019-11-21,7.580000,7.620000,7.120000,7.250000,7.250000,222500
2019-11-22,7.210000,7.500000,6.930000,7.080000,7.080000,394500
2019-11-25,7.050000,7.250000,6.900000,6.970000,6.970000,274700
2019-11-26,6.970000,7.120000,6.710000,6.810000,6.810000,342300
2019-11-27,6.770000,6.770000,6.360000,6.560000,6.560000,459400
2019-11-29,6.480000,6.970000,6.385000,6.740000,6.740000,199500
2019-12-02,6.700000,7.007000,6.580000,6.980000,6.980000,220700
2019-12-03,6.810000,6.980000,6.716000,6.820000,6.820000,219800
2019-12-04,6.790000,6.790000,6.650000,6.730000,6.730000,321800
2019-12-05,6.700000,6.820000,6.330000,6.570000,6.570000,462700
2019-12-06,6.570000,6.930000,6.510000,6.900000,6.900000,338900
2019-12-09,6.830000,6.980000,6.650000,6.800000,6.800000,203800
2019-12-10,6.720000,7.000000,6.720000,6.900000,6.900000,101000
2019-12-11,6.820000,7.150000,6.790000,6.900000,6.900000,194400
2019-12-12,6.850000,7.080000,6.850000,7.060000,7.060000,183800
2019-12-13,6.970000,7.410000,6.970000,7.230000,7.230000,151000
2019-12-16,7.150000,7.420000,7.080000,7.170000,7.170000,185100
2019-12-17,7.150000,7.880000,7.140000,7.610000,7.610000,493600
2019-12-18,7.500000,7.660000,7.320000,7.410000,7.410000,217400
2019-12-19,7.330000,7.800000,7.330000,7.710000,7.710000,232800
2019-12-20,7.720000,7.820000,7.490000,7.610000,7.610000,231100
2019-12-23,7.560000,7.665000,7.500000,7.610000,7.610000,88200
2019-12-24,7.500000,7.726000,7.500000,7.670000,7.670000,55800
2019-12-26,7.680000,7.720000,7.390000,7.470000,7.470000,95000
2019-12-27,7.380000,7.440000,7.130000,7.150000,7.150000,237400
2019-12-30,7.120000,7.180000,6.780000,6.790000,6.790000,275700
2019-12-31,6.700000,6.860000,6.520000,6.580000,6.580000,444800
2020-01-02,6.640000,6.750000,6.360000,6.360000,6.360000,222600
2020-01-03,6.270000,6.350000,6.147000,6.160000,6.160000,248000
2020-01-06,6.150000,6.170000,6.050000,6.090000,6.090000,190200
2020-01-07,6.070000,6.180000,5.890000,5.950000,5.950000,420200
2020-01-08,5.900000,5.900000,5.650000,5.740000,5.740000,336100
2020-01-09,5.720000,5.810000,5.530000,5.680000,5.680000,271900
2020-01-10,5.670000,5.677000,5.260000,5.350000,5.350000,398900
2020-01-13,5.360000,5.376000,5.000000,5.040000,5.040000,462200
2020-01-14,4.990000,5.340000,4.990000,5.220000,5.220000,453500
2020-01-15,5.220000,5.320000,5.090000,5.140000,5.140000,333000
2020-01-16,5.310000,5.310000,5.060000,5.100000,5.100000,347700
2020-01-17,5.130000,5.145000,4.990000,5.020000,5.020000,370100
2020-01-21,5.000000,5.230000,4.700000,5.030000,5.030000,638400
2020-01-22,5.060000,5.130000,4.820000,4.820000,4.820000,410500
2020-01-23,4.820000,4.943000,4.650000,4.760000,4.760000,316800
2020-01-24,4.760000,4.820000,4.420000,4.440000,4.440000,288900
2020-01-27,4.400000,4.490000,4.143000,4.200000,4.200000,347800
2020-01-28,4.290000,4.350000,4.100000,4.180000,4.180000,215500
2020-01-29,4.120000,4.380000,4.050000,4.280000,4.280000,318900
2020-01-30,4.200000,4.350000,4.080000,4.100000,4.100000,408800
2020-01-31,4.100000,4.200000,3.740000,3.860000,3.860000,630600
2020-02-03,3.970000,4.090000,3.780000,3.820000,3.820000,255100
2020-02-04,3.810000,4.070000,3.620000,3.830000,3.830000,430900
2020-02-05,3.890000,4.300000,3.815000,4.130000,4.130000,725500
2020-02-06,4.200000,4.225000,4.020000,4.200000,4.200000,227800
2020-02-07,4.230000,4.310000,3.940000,4.030000,4.030000,218300
2020-02-10,4.030000,4.050000,3.820000,3.980000,3.980000,315100
2020-02-11,3.920000,4.070000,3.710000,3.990000,3.990000,362400
2020-02-12,4.030000,4.090000,3.803000,3.840000,3.840000,276000
2020-02-13,3.800000,3.910000,3.750000,3.840000,3.840000,197800