Date,Open,High,Low,Close,Adj Close,Volume
2014-06-13,11.000000,11.120000,10.530000,10.750000,10.750000,3337300
2014-06-16,10.700000,10.940000,10.570000,10.630000,10.630000,289500
2014-06-17,10.520000,10.600000,10.250000,10.250000,10.250000,296700
2014-06-18,10.250000,10.363000,10.250000,10.260000,10.260000,11600
2014-06-19,10.270000,10.714000,10.270000,10.530000,10.530000,83200
2014-06-20,10.600000,10.680000,10.540000,10.650000,10.650000,43200
2014-06-23,10.740000,11.740000,10.700000,11.440000,11.440000,147500
2014-06-24,11.390000,11.660000,11.310000,11.460000,11.460000,176800
2014-06-25,11.340000,11.340000,10.430000,10.900000,10.900000,80000
2014-06-26,11.000000,11.160000,10.780000,11.010000,11.010000,57700
2014-06-27,11.050000,11.340000,10.920000,11.240000,11.240000,42800
2014-06-30,11.050000,11.300000,11.010000,11.050000,11.050000,26800
2014-07-01,11.034000,11.400000,10.850000,11.070000,11.070000,25700
2014-07-02,11.090000,11.260000,10.960000,11.000000,11.000000,9700
2014-07-03,11.240000,11.240000,11.010000,11.120000,11.120000,17600
2014-07-07,11.230000,11.560000,11.130000,11.360000,11.360000,68500
2014-07-08,11.140000,11.180000,10.540000,10.730000,10.730000,117500
2014-07-09,10.680000,10.779000,10.650000,10.720000,10.720000,18500
2014-07-10,10.680000,10.760000,10.650000,10.750000,10.750000,79300
2014-07-11,10.700000,10.905000,10.660000,10.850000,10.850000,16600
2014-07-14,10.785000,10.970000,10.650000,10.670000,10.670000,42400
2014-07-15,10.670000,10.760000,10.510000,10.530000,10.530000,17200
2014-07-16,10.550000,10.550000,9.880000,10.280000,10.280000,55200
2014-07-17,10.380000,10.700000,10.061000,10.580000,10.580000,11200
2014-07-18,10.510000,10.550000,10.030000,10.040000,10.040000,41500
2014-07-21,10.080000,10.308000,9.500000,9.640000,9.640000,33400
2014-07-22,9.640000,9.790000,9.550000,9.600000,9.600000,20700
2014-07-23,9.620000,9.635000,9.380000,9.560000,9.560000,61200
2014-07-24,9.600000,9.740000,9.435000,9.500000,9.500000,39600
2014-07-25,9.630000,9.750000,9.000000,9.270000,9.270000,50300
2014-07-28,9.360000,9.410000,9.026000,9.270000,9.270000,27200
2014-07-29,9.270000,9.425000,9.120000,9.300000,9.300000,49000
2014-07-30,9.720000,9.750000,8.904000,9.200000,9.200000,37000
2014-07-31,9.170000,9.470000,8.900000,9.000000,9.000000,32900
2014-08-01,9.070000,9.250000,8.795000,9.100000,9.100000,83100
2014-08-04,9.240000,9.550000,8.980000,9.000000,9.000000,74200
2014-08-05,9.270000,9.330000,8.206000,8.210000,8.210000,78700
2014-08-06,8.210000,8.530000,8.210000,8.290000,8.290000,34300
2014-08-07,8.400000,8.710000,8.040000,8.060000,8.060000,26900
2014-08-08,8.160000,8.760000,8.150000,8.320000,8.320000,36400
2014-08-11,8.500000,9.030000,8.500000,8.800000,8.800000,49700
2014-08-12,8.900000,9.200000,8.800000,9.180000,9.180000,105700
2014-08-13,9.330000,10.535000,9.215000,10.450000,10.450000,106400
2014-08-14,10.400000,11.000000,10.060000,10.430000,10.430000,72700
2014-08-15,10.530000,10.640000,9.040000,9.390000,9.390000,44000
2014-08-18,9.500000,10.150000,9.310000,10.050000,10.050000,19200
2014-08-19,9.990000,10.711000,9.990000,10.310000,10.310000,43300
2014-08-20,10.350000,10.490000,10.010000,10.230000,10.230000,58400
2014-08-21,10.320000,10.500000,10.160000,10.450000,10.450000,63200
2014-08-22,10.370000,11.135000,10.329000,10.790000,10.790000,43500
2014-08-25,10.850000,10.850000,10.556000,10.720000,10.720000,45800
2014-08-26,10.880000,10.910000,10.620000,10.810000,10.810000,47700
2014-08-27,10.800000,11.000000,10.720000,10.920000,10.920000,45100
2014-08-28,10.900000,10.910000,10.165000,10.550000,10.550000,141400
2014-08-29,10.550000,10.660000,10.235000,10.630000,10.630000,92500
2014-09-02,10.500000,10.720000,10.450000,10.670000,10.670000,123400
2014-09-03,10.710000,11.100000,10.705000,11.050000,11.050000,83400
2014-09-04,11.100000,11.100000,10.670000,10.700000,10.700000,135700
2014-09-05,10.750000,10.800000,10.550000,10.675000,10.675000,109900
2014-09-08,10.490000,11.000000,10.470000,10.750000,10.750000,83200
2014-09-09,10.830000,10.880000,10.580000,10.670000,10.670000,104200
2014-09-10,10.715000,10.850000,10.340000,10.780000,10.780000,60800
2014-09-11,10.730000,10.740000,10.460000,10.580000,10.580000,50300
2014-09-12,10.520000,10.850000,10.290000,10.810000,10.810000,77500
2014-09-15,10.750000,10.830000,10.400000,10.640000,10.640000,68400
2014-09-16,10.670000,10.670000,10.120000,10.180000,10.180000,35800
2014-09-17,10.100000,10.250000,9.861000,10.200000,10.200000,40600
2014-09-18,10.110000,10.550000,9.940000,10.490000,10.490000,46300
2014-09-19,10.550000,10.550000,9.880000,10.000000,10.000000,229600
2014-09-22,10.040000,10.140000,9.586000,9.990000,9.990000,27900
2014-09-23,9.890000,10.220000,9.600000,10.100000,10.100000,43900
2014-09-24,10.030000,10.310000,9.985000,10.210000,10.210000,25800
2014-09-25,10.120000,10.320000,9.846000,10.240000,10.240000,31200
2014-09-26,10.190000,10.530000,10.052000,10.470000,10.470000,42200
2014-09-29,10.250000,10.340000,10.120000,10.170000,10.170000,52900
2014-09-30,10.120000,10.200000,9.960000,10.080000,10.080000,537000
2014-10-01,10.100000,10.335000,9.210000,9.500000,9.500000,71100
2014-10-02,9.460000,10.400000,9.460000,10.190000,10.190000,33800
2014-10-03,10.210000,10.280000,10.090000,10.180000,10.180000,24800
2014-10-06,10.190000,10.500000,9.950000,10.380000,10.380000,56900
2014-10-07,10.330000,10.340000,9.890000,10.110000,10.110000,64100
2014-10-08,10.090000,10.150000,9.520000,9.830000,9.830000,29900
2014-10-09,9.870000,9.905000,9.090000,9.510000,9.510000,35900
2014-10-10,9.440000,9.700000,9.150000,9.500000,9.500000,14000
2014-10-13,9.560000,9.720000,9.430000,9.690000,9.690000,16900
2014-10-14,9.700000,9.845000,9.310000,9.520000,9.520000,42000
2014-10-15,9.190000,9.460000,9.150000,9.390000,9.390000,27200
2014-10-16,9.190000,10.110000,9.080000,9.900000,9.900000,19400
2014-10-17,9.990000,10.030000,9.540000,9.630000,9.630000,23100
2014-10-20,9.540000,9.810000,9.490000,9.660000,9.660000,22400
2014-10-21,9.890000,9.950000,9.530000,9.800000,9.800000,8400
2014-10-22,9.850000,9.850000,9.510000,9.600000,9.600000,20500
2014-10-23,9.610000,9.760000,9.600000,9.710000,9.710000,15700
2014-10-24,9.740000,9.870000,9.660000,9.850000,9.850000,12100
2014-10-27,9.780000,9.800000,9.660000,9.720000,9.720000,7900
2014-10-28,9.830000,9.850000,9.740000,9.850000,9.850000,7600
2014-10-29,9.900000,10.020000,9.730000,9.840000,9.840000,44300
2014-10-30,9.760000,9.900000,9.740000,9.840000,9.840000,9200
2014-10-31,9.810000,9.950000,9.645000,9.930000,9.930000,42700
2014-11-03,9.880000,9.950000,9.740000,9.950000,9.950000,33000
2014-11-04,9.890000,9.890000,9.590000,9.650000,9.650000,16700
2014-11-05,9.770000,9.900000,9.550000,9.650000,9.650000,18100
2014-11-06,9.580000,9.780000,9.220000,9.620000,9.620000,14900
2014-11-07,9.730000,9.840000,8.710000,8.900000,8.900000,35700
2014-11-10,8.890000,9.020000,7.850000,8.060000,8.060000,52300
2014-11-11,8.130000,8.160000,7.930000,7.950000,7.950000,91900
2014-11-12,7.870000,7.980000,7.660000,7.750000,7.750000,26200
2014-11-13,7.570000,7.750000,7.500000,7.670000,7.670000,20500
2014-11-14,7.790000,7.900000,7.650000,7.870000,7.870000,20100
2014-11-17,7.910000,8.280000,7.800000,7.850000,7.850000,13000
2014-11-18,7.900000,7.900000,7.700000,7.770000,7.770000,2800
2014-11-19,7.700000,7.890000,7.340000,7.370000,7.370000,93000
2014-11-20,7.390000,7.490000,7.250000,7.360000,7.360000,71400
2014-11-21,7.490000,7.560000,7.250000,7.540000,7.540000,21300
2014-11-24,7.460000,7.600000,7.400000,7.510000,7.510000,17900
2014-11-25,7.550000,7.920000,7.550000,7.920000,7.920000,10800
2014-11-26,8.020000,8.400000,7.970000,8.330000,8.330000,12200
2014-11-28,8.270000,8.270000,7.990000,8.100000,8.100000,8700
2014-12-01,8.120000,8.180000,7.300000,7.430000,7.430000,46700
2014-12-02,7.572000,7.572000,7.020000,7.050000,7.050000,41600
2014-12-03,7.100000,7.260000,7.050000,7.090000,7.090000,33800
2014-12-04,6.940000,7.140000,6.940000,7.000000,7.000000,84400
2014-12-05,6.990000,7.150000,6.990000,7.100000,7.100000,110500
2014-12-08,7.040000,7.110000,6.920000,6.930000,6.930000,15300
2014-12-09,6.880000,6.990000,6.760000,6.900000,6.900000,42000
2014-12-10,6.880000,6.880000,6.610000,6.660000,6.660000,25700
2014-12-11,6.600000,6.740000,6.600000,6.660000,6.660000,26500
2014-12-12,6.600000,6.648000,6.540000,6.580000,6.580000,27300
2014-12-15,6.460000,6.710000,6.460000,6.650000,6.650000,23200
2014-12-16,6.670000,6.780000,6.570000,6.620000,6.620000,132700
2014-12-17,6.560000,6.740000,6.560000,6.730000,6.730000,39800
2014-12-18,6.700000,7.190000,6.700000,7.190000,7.190000,56200
2014-12-19,7.210000,8.640000,7.150000,8.490000,8.490000,93100
2014-12-22,8.550000,8.550000,7.940000,8.120000,8.120000,37900
2014-12-23,8.220000,8.220000,7.710000,8.070000,8.070000,23500
2014-12-24,8.050000,8.150000,7.870000,8.060000,8.060000,8900
2014-12-26,8.060000,8.060000,7.780000,7.870000,7.870000,16200
2014-12-29,7.790000,8.050000,7.640000,8.010000,8.010000,89200
2014-12-30,8.050000,8.050000,7.760000,7.970000,7.970000,28900
2014-12-31,7.950000,7.980000,7.850000,7.980000,7.980000,10100
2015-01-02,7.900000,8.450000,7.900000,8.300000,8.300000,279200
2015-01-05,8.240000,8.380000,8.010000,8.190000,8.190000,20000
2015-01-06,8.200000,8.450000,7.600000,7.660000,7.660000,66500
2015-01-07,7.700000,7.715000,6.932000,7.060000,7.060000,39600
2015-01-08,7.070000,7.070000,6.550000,6.660000,6.660000,22800
2015-01-09,6.710000,6.750000,6.600000,6.660000,6.660000,14700
2015-01-12,6.630000,6.660000,6.510000,6.560000,6.560000,16800
2015-01-13,6.620000,6.710000,6.500000,6.710000,6.710000,69200
2015-01-14,6.680000,7.330000,6.680000,7.190000,7.190000,34900
2015-01-15,7.250000,7.530000,7.000000,7.050000,7.050000,27000
2015-01-16,7.040000,7.330000,7.040000,7.320000,7.320000,9600
2015-01-20,7.490000,7.790000,7.270000,7.540000,7.540000,56500
2015-01-21,7.511000,7.566000,7.080000,7.130000,7.130000,30400
2015-01-22,7.200000,7.740000,7.200000,7.600000,7.600000,91000
2015-01-23,7.570000,7.880000,7.510000,7.690000,7.690000,16300
2015-01-26,7.730000,8.000000,7.730000,7.930000,7.930000,6100
2015-01-27,7.680000,7.780000,7.400000,7.580000,7.580000,27800
2015-01-28,7.390000,7.710000,7.340000,7.670000,7.670000,15000
2015-01-29,7.660000,7.760000,7.400000,7.640000,7.640000,29000
2015-01-30,7.730000,8.000000,7.410000,7.660000,7.660000,41900
2015-02-02,7.630000,7.720000,7.500000,7.700000,7.700000,12000
2015-02-03,7.820000,7.990000,7.650000,7.840000,7.840000,179300
2015-02-04,7.790000,7.930000,7.590000,7.780000,7.780000,66500
2015-02-05,7.750000,8.100000,7.750000,8.030000,8.030000,28600
2015-02-06,8.050000,8.150000,7.790000,8.090000,8.090000,28200
2015-02-09,8.140000,8.140000,7.980000,8.000000,8.000000,7700
2015-02-10,8.000000,8.000000,7.560000,7.910000,7.910000,22700
2015-02-11,7.860000,7.960000,7.710000,7.920000,7.920000,4500
2015-02-12,7.840000,8.380000,7.811000,8.040000,8.040000,11200
2015-02-13,8.060000,8.091000,7.880000,7.960000,7.960000,11700
2015-02-17,8.300000,8.498000,8.220000,8.320000,8.320000,37800
2015-02-18,8.380000,8.491000,8.150000,8.240000,8.240000,18600
2015-02-19,8.300000,8.460000,8.254000,8.360000,8.360000,15700
2015-02-20,8.440000,8.440000,7.810000,7.850000,7.850000,13300
2015-02-23,7.910000,8.580000,7.880000,8.490000,8.490000,42200
2015-02-24,8.260000,8.330000,7.500000,7.780000,7.780000,48200
2015-02-25,7.960000,8.020000,7.890000,7.930000,7.930000,8500
2015-02-26,8.000000,8.000000,7.820000,7.970000,7.970000,4800
2015-02-27,8.000000,8.280000,7.930000,7.930000,7.930000,17300
2015-03-02,8.000000,8.100000,7.900000,8.090000,8.090000,100100
2015-03-03,7.940000,8.100000,7.900000,7.900000,7.900000,135800
2015-03-04,7.900000,7.940000,7.900000,7.930000,7.930000,5500
2015-03-05,7.960000,8.010000,7.870000,8.000000,8.000000,15400
2015-03-06,8.000000,8.010000,7.610000,7.650000,7.650000,9900
2015-03-09,7.980000,7.980000,7.700000,7.840000,7.840000,20000
2015-03-10,7.800000,7.910000,7.510000,7.610000,7.610000,35000
2015-03-11,7.710000,7.710000,7.490000,7.540000,7.540000,14800
2015-03-12,7.620000,7.730000,7.400000,7.510000,7.510000,19300
2015-03-13,7.650000,7.650000,7.260000,7.260000,7.260000,86400
2015-03-16,7.330000,7.330000,6.700000,6.740000,6.740000,26000
2015-03-17,6.910000,7.150000,6.890000,6.950000,6.950000,65000
2015-03-18,7.000000,7.200000,6.960000,7.030000,7.030000,138900
2015-03-19,7.150000,7.230000,6.600000,6.660000,6.660000,31200
2015-03-20,6.690000,6.990000,6.600000,6.620000,6.620000,98700
2015-03-23,6.690000,7.380000,6.690000,7.100000,7.100000,32100
2015-03-24,7.200000,7.280000,7.070000,7.170000,7.170000,6600
2015-03-25,7.230000,7.270000,7.040000,7.230000,7.230000,22500
2015-03-26,7.310000,7.310000,7.210000,7.270000,7.270000,13400
2015-03-27,7.270000,7.400000,7.230000,7.340000,7.340000,31100
2015-03-30,7.290000,7.460000,7.000000,7.240000,7.240000,34400
2015-03-31,7.180000,7.290000,7.110000,7.280000,7.280000,8500
2015-04-01,7.240000,7.410000,7.240000,7.400000,7.400000,13500
2015-04-02,7.360000,7.490000,7.310000,7.480000,7.480000,4000
2015-04-06,7.500000,7.942000,7.395000,7.730000,7.730000,106000
2015-04-07,7.800000,7.850000,7.610000,7.690000,7.690000,27400
2015-04-08,7.830000,7.830000,7.570000,7.700000,7.700000,19800
2015-04-09,7.790000,7.790000,7.650000,7.730000,7.730000,10600
2015-04-10,7.660000,7.750000,7.000000,7.110000,7.110000,17000
2015-04-13,7.110000,7.180000,7.060000,7.060000,7.060000,12900
2015-04-14,7.070000,7.240000,7.050000,7.130000,7.130000,9700
2015-04-15,7.090000,7.470000,7.040000,7.410000,7.410000,50500
2015-04-16,7.300000,7.420000,6.850000,6.890000,6.890000,17400
2015-04-17,6.920000,7.090000,6.700000,6.960000,6.960000,15800
2015-04-20,7.040000,7.230000,6.980000,7.190000,7.190000,7400
2015-04-21,7.047000,7.090000,7.000000,7.010000,7.010000,7400
2015-04-22,7.040000,7.220000,6.900000,7.000000,7.000000,14400
2015-04-23,6.920000,7.010000,6.870000,6.900000,6.900000,28300
2015-04-24,6.970000,6.970000,6.750000,6.780000,6.780000,10700
2015-04-27,6.800000,7.010000,6.700000,6.950000,6.950000,146500
2015-04-28,7.060000,7.110000,6.620000,6.680000,6.680000,30000
2015-04-29,6.760000,6.970000,6.700000,6.820000,6.820000,18900
2015-04-30,6.690000,6.690000,6.500000,6.540000,6.540000,32700
2015-05-01,6.460000,6.720000,6.460000,6.680000,6.680000,24800
2015-05-04,6.750000,6.830000,6.460000,6.520000,6.520000,130800
2015-05-05,6.620000,6.790000,6.550000,6.740000,6.740000,25800
2015-05-06,6.660000,7.010000,6.660000,6.880000,6.880000,102900
2015-05-07,6.840000,6.840000,6.450000,6.460000,6.460000,45500
2015-05-08,6.560000,6.790000,6.460000,6.570000,6.570000,50500
2015-05-11,6.600000,6.620000,6.470000,6.600000,6.600000,14600
2015-05-12,6.670000,7.000000,6.570000,6.850000,6.850000,155100
2015-05-13,6.990000,7.060000,6.850000,7.040000,7.040000,64800
2015-05-14,7.020000,7.030000,6.950000,6.990000,6.990000,45400
2015-05-15,7.000000,7.150000,7.000000,7.100000,7.100000,89200
2015-05-18,7.060000,7.160000,7.040000,7.150000,7.150000,46600
2015-05-19,7.165000,7.240000,6.950000,6.950000,6.950000,60300
2015-05-20,7.010000,7.030000,6.790000,6.790000,6.790000,31300
2015-05-21,6.790000,6.950000,6.615000,6.900000,6.900000,15100
2015-05-22,6.870000,6.940000,6.790000,6.810000,6.810000,11900
2015-05-26,6.860000,6.860000,6.500000,6.570000,6.570000,28000
2015-05-27,6.580000,6.600000,6.510000,6.550000,6.550000,24400
2015-05-28,6.570000,6.580000,6.510000,6.570000,6.570000,7200
2015-05-29,6.800000,7.000000,6.800000,6.900000,6.900000,17900
2015-06-01,6.960000,7.050000,6.880000,7.040000,7.040000,21100
2015-06-02,7.120000,7.160000,6.850000,6.930000,6.930000,52800
2015-06-03,6.910000,7.020000,6.660000,6.990000,6.990000,83400
2015-06-04,6.910000,7.010000,6.880000,7.000000,7.000000,24300
2015-06-05,6.950000,7.020000,6.920000,6.920000,6.920000,26600
2015-06-08,6.910000,6.970000,6.210000,6.220000,6.220000,78400
2015-06-09,6.520000,6.740000,6.295000,6.490000,6.490000,110600
2015-06-10,6.500000,6.620000,6.500000,6.500000,6.500000,18300
2015-06-11,6.560000,6.740000,6.560000,6.630000,6.630000,14300
2015-06-12,6.620000,6.620000,6.400000,6.480000,6.480000,19900
2015-06-15,6.430000,6.530000,6.400000,6.490000,6.490000,51900
2015-06-16,6.500000,6.520000,6.220000,6.480000,6.480000,39000
2015-06-17,6.350000,6.680000,6.310000,6.610000,6.610000,15500
2015-06-18,6.680000,6.780000,6.500000,6.660000,6.660000,85000
2015-06-19,6.580000,6.580000,6.310000,6.400000,6.400000,46800
2015-06-22,6.290000,6.420000,6.270000,6.410000,6.410000,45200
2015-06-23,6.415000,6.480000,6.280000,6.380000,6.380000,128100
2015-06-24,6.385000,6.420000,6.285000,6.320000,6.320000,53000
2015-06-25,6.370000,6.450000,6.320000,6.410000,6.410000,41200
2015-06-26,6.400000,6.730000,6.370000,6.600000,6.600000,415900
2015-06-29,6.500000,6.820000,6.260000,6.690000,6.690000,114300
2015-06-30,6.720000,6.750000,6.570000,6.620000,6.620000,44200
2015-07-01,6.630000,6.757000,6.530000,6.530000,6.530000,65900
2015-07-02,6.570000,6.670000,6.350000,6.590000,6.590000,40100
2015-07-06,6.470000,6.590000,6.420000,6.590000,6.590000,37000
2015-07-07,6.540000,6.620000,6.370000,6.470000,6.470000,13700
2015-07-08,6.490000,6.620000,6.270000,6.400000,6.400000,28200
2015-07-09,6.470000,6.550000,6.290000,6.500000,6.500000,17700
2015-07-10,6.430000,6.520000,6.385000,6.460000,6.460000,9900
2015-07-13,6.460000,6.540000,6.400000,6.520000,6.520000,16000
2015-07-14,6.470000,6.890000,6.470000,6.700000,6.700000,19400
2015-07-15,6.690000,6.750000,6.670000,6.670000,6.670000,17100
2015-07-16,6.690000,6.730000,6.670000,6.690000,6.690000,30700
2015-07-17,6.670000,6.725000,6.580000,6.620000,6.620000,61400
2015-07-20,6.600000,6.650000,6.308000,6.590000,6.590000,33400
2015-07-21,6.570000,6.612000,6.560000,6.560000,6.560000,23200
2015-07-22,6.560000,6.645000,6.500000,6.510000,6.510000,44000
2015-07-23,6.560000,6.600000,6.330000,6.420000,6.420000,53800
2015-07-24,6.400000,6.540000,6.360000,6.360000,6.360000,49600
2015-07-27,6.330000,6.500000,6.285000,6.400000,6.400000,157000
2015-07-28,6.380000,6.560000,6.285000,6.490000,6.490000,17100
2015-07-29,6.430000,6.600000,6.360000,6.480000,6.480000,14100
2015-07-30,6.440000,6.580000,6.420000,6.560000,6.560000,7900
2015-07-31,6.570000,6.650000,6.460000,6.590000,6.590000,6600
2015-08-03,6.720000,6.720000,6.450000,6.480000,6.480000,18800
2015-08-04,6.500000,6.640000,6.380000,6.530000,6.530000,26400
2015-08-05,6.570000,6.580000,6.430000,6.520000,6.520000,5100
2015-08-06,6.510000,6.780000,6.450000,6.730000,6.730000,13000
2015-08-07,6.780000,7.140000,6.640000,7.000000,7.000000,137800
2015-08-10,7.190000,7.190000,7.000000,7.110000,7.110000,50800
2015-08-11,7.060000,7.070000,6.660000,6.850000,6.850000,22800
2015-08-12,6.650000,7.000000,6.650000,6.820000,6.820000,95700
2015-08-13,6.745000,6.800000,6.700000,6.700000,6.700000,89400
2015-08-14,6.750000,7.360000,6.750000,7.200000,7.200000,1050500
2015-08-17,7.140000,7.820000,7.090000,7.710000,7.710000,337300
2015-08-18,7.690000,7.800000,7.610000,7.680000,7.680000,107200
2015-08-19,7.790000,7.790000,7.540000,7.610000,7.610000,75400
2015-08-20,7.610000,7.610000,7.360000,7.430000,7.430000,55200
2015-08-21,7.120000,7.360000,7.120000,7.250000,7.250000,55500
2015-08-24,6.970000,7.360000,6.910000,7.170000,7.170000,97900
2015-08-25,7.300000,7.680000,7.110000,7.180000,7.180000,71200
2015-08-26,7.440000,7.440000,7.060000,7.170000,7.170000,150400
2015-08-27,7.200000,7.340000,7.182000,7.300000,7.300000,47000
2015-08-28,7.300000,7.400000,7.230000,7.380000,7.380000,68900
2015-08-31,7.380000,7.490000,7.300000,7.470000,7.470000,64800
2015-09-01,7.440000,7.840000,7.400000,7.750000,7.750000,225400
2015-09-02,7.850000,8.120000,7.715000,8.070000,8.070000,106400
2015-09-03,8.160000,8.460000,8.028000,8.250000,8.250000,128100
2015-09-04,8.300000,8.310000,7.980000,8.100000,8.100000,143200
2015-09-08,8.200000,8.400000,8.160000,8.230000,8.230000,130100
2015-09-09,8.150000,8.430000,8.150000,8.350000,8.350000,99800
2015-09-10,8.410000,8.410000,8.160000,8.290000,8.290000,96800
2015-09-11,8.290000,8.450000,8.290000,8.410000,8.410000,113100
2015-09-14,8.500000,8.560000,8.331000,8.410000,8.410000,212700
2015-09-15,8.530000,8.560000,8.410000,8.470000,8.470000,109700
2015-09-16,8.510000,8.790000,8.414000,8.760000,8.760000,466100
2015-09-17,8.650000,9.030000,8.550000,8.930000,8.930000,74900
2015-09-18,8.860000,9.030000,8.570000,8.570000,8.570000,335500
2015-09-21,8.720000,8.800000,8.360000,8.560000,8.560000,96400
2015-09-22,8.080000,8.540000,8.080000,8.210000,8.210000,91600
2015-09-23,8.270000,8.360000,8.240000,8.350000,8.350000,58700
2015-09-24,8.290000,8.380000,8.010000,8.290000,8.290000,62700
2015-09-25,8.230000,8.490000,8.150000,8.220000,8.220000,78000
2015-09-28,8.200000,8.200000,7.790000,7.800000,7.800000,87000
2015-09-29,7.780000,7.900000,7.390000,7.450000,7.450000,81800
2015-09-30,7.400000,7.560000,7.380000,7.500000,7.500000,113900
2015-10-01,7.440000,7.540000,7.400000,7.470000,7.470000,69400
2015-10-02,7.420000,7.530000,7.380000,7.500000,7.500000,89300
2015-10-05,7.650000,8.050000,7.630000,8.030000,8.030000,68200
2015-10-06,8.020000,8.180000,7.860000,8.160000,8.160000,82500
2015-10-07,8.230000,8.370000,7.970000,8.210000,8.210000,25100
2015-10-08,8.060000,8.432000,7.990000,8.300000,8.300000,137900
2015-10-09,8.295000,8.440000,8.100000,8.300000,8.300000,31700
2015-10-12,8.250000,8.440000,8.030000,8.340000,8.340000,56600
2015-10-13,8.290000,8.469000,8.200000,8.400000,8.400000,27300
2015-10-14,8.420000,8.490000,8.210000,8.400000,8.400000,80900
2015-10-15,8.400000,8.640000,8.290000,8.530000,8.530000,121800
2015-10-16,8.470000,8.640000,8.380000,8.610000,8.610000,42000
2015-10-19,8.560000,8.564000,8.380000,8.540000,8.540000,31400
2015-10-20,8.470000,8.700000,8.390000,8.550000,8.550000,75600
2015-10-21,8.580000,8.870000,8.490000,8.510000,8.510000,202100
2015-10-22,8.460000,8.690000,8.310000,8.410000,8.410000,21600
2015-10-23,8.590000,8.690000,8.355000,8.490000,8.490000,44400
2015-10-26,8.420000,8.420000,8.080000,8.320000,8.320000,38300
2015-10-27,8.230000,8.365000,8.080000,8.250000,8.250000,83000
2015-10-28,8.230000,8.480000,8.180000,8.370000,8.370000,22600
2015-10-29,8.370000,8.490000,8.190000,8.370000,8.370000,35600
2015-10-30,8.400000,8.470000,8.150000,8.370000,8.370000,24400
2015-11-02,8.440000,8.580000,8.170000,8.170000,8.170000,57500
2015-11-03,8.210000,8.310000,7.850000,7.910000,7.910000,48500
2015-11-04,7.980000,8.080000,7.600000,7.690000,7.690000,165800
2015-11-05,7.720000,7.905000,7.615000,7.740000,7.740000,94100
2015-11-06,7.000000,7.000000,5.810000,6.090000,6.090000,750600
2015-11-09,6.190000,6.490000,6.190000,6.340000,6.340000,92700
2015-11-10,6.340000,6.470000,6.250000,6.360000,6.360000,41000
2015-11-11,6.390000,6.400000,5.800000,5.820000,5.820000,38800
2015-11-12,5.850000,5.885000,5.435000,5.510000,5.510000,52700
2015-11-13,5.510000,5.850000,5.470000,5.600000,5.600000,94400
2015-11-16,5.500000,5.740000,5.500000,5.590000,5.590000,48500
2015-11-17,5.700000,5.950000,5.540000,5.830000,5.830000,66700
2015-11-18,5.850000,5.910000,5.700000,5.860000,5.860000,57800
2015-11-19,5.860000,6.070000,5.850000,5.980000,5.980000,430500
2015-11-20,6.030000,6.150000,5.979000,6.120000,6.120000,190200
2015-11-23,6.140000,6.300000,6.030000,6.280000,6.280000,111000
2015-11-24,6.250000,6.370000,6.150000,6.350000,6.350000,71700
2015-11-25,6.370000,6.430000,6.260000,6.380000,6.380000,143300
2015-11-27,6.420000,6.550000,6.390000,6.450000,6.450000,21100
2015-11-30,6.410000,6.620000,6.390000,6.500000,6.500000,75600
2015-12-01,6.540000,6.580000,6.440000,6.530000,6.530000,85100
2015-12-02,6.560000,6.850000,6.510000,6.570000,6.570000,106000
2015-12-03,6.610000,6.670000,6.370000,6.510000,6.510000,78800
2015-12-04,6.550000,6.630000,6.330000,6.410000,6.410000,102700
2015-12-07,6.360000,6.360000,6.040000,6.260000,6.260000,97100
2015-12-08,6.190000,6.350000,6.160000,6.280000,6.280000,45400
2015-12-09,6.260000,6.460000,6.160000,6.310000,6.310000,30100
2015-12-10,6.330000,6.490000,6.290000,6.450000,6.450000,31900
2015-12-11,6.590000,6.590000,6.160000,6.170000,6.170000,307300
2015-12-14,6.120000,6.205000,5.500000,5.640000,5.640000,72900
2015-12-15,5.610000,5.730000,5.430000,5.490000,5.490000,79500
2015-12-16,5.480000,5.560000,5.260000,5.340000,5.340000,193200
2015-12-17,5.450000,5.730000,5.280000,5.720000,5.720000,113000
2015-12-18,5.730000,5.870000,5.430000,5.840000,5.840000,194900
2015-12-21,5.910000,5.910000,5.300000,5.370000,5.370000,36500
2015-12-22,5.290000,5.670000,5.240000,5.630000,5.630000,25900
2015-12-23,5.670000,5.790000,5.610000,5.790000,5.790000,19700
2015-12-24,5.830000,5.850000,5.760000,5.850000,5.850000,4000
2015-12-28,5.850000,5.870000,5.750000,5.800000,5.800000,36400
2015-12-29,5.940000,5.940000,5.810000,5.920000,5.920000,20500
2015-12-30,5.950000,6.210000,5.950000,6.060000,6.060000,54200
2015-12-31,6.030000,6.200000,6.010000,6.070000,6.070000,30000
2016-01-04,6.030000,6.110000,5.950000,6.050000,6.050000,46400
2016-01-05,6.080000,6.360000,5.970000,6.190000,6.190000,27800
2016-01-06,6.040000,6.150000,6.020000,6.100000,6.100000,55800
2016-01-07,6.000000,6.000000,5.750000,5.820000,5.820000,20400
2016-01-08,5.850000,5.850000,5.710000,5.800000,5.800000,34600
2016-01-11,5.830000,6.000000,5.720000,5.800000,5.800000,17300
2016-01-12,5.770000,6.000000,5.770000,6.000000,6.000000,25600
2016-01-13,6.000000,6.000000,5.680000,5.780000,5.780000,27400
2016-01-14,5.740000,5.890000,5.610000,5.700000,5.700000,11100
2016-01-15,5.590000,5.830000,5.500000,5.530000,5.530000,27600
2016-01-19,5.550000,5.620000,5.460000,5.480000,5.480000,24000
2016-01-20,5.350000,5.350000,5.110000,5.210000,5.210000,71200
2016-01-21,5.200000,5.200000,4.930000,4.970000,4.970000,50400
2016-01-22,4.970000,5.185000,4.970000,5.170000,5.170000,47700
2016-01-25,5.180000,5.180000,4.690000,4.700000,4.700000,100700
2016-01-26,4.790000,5.020000,4.460000,4.690000,4.690000,44600
2016-01-27,4.700000,4.780000,4.420000,4.470000,4.470000,84900
2016-01-28,4.480000,4.560000,4.290000,4.340000,4.340000,92200
2016-01-29,4.380000,4.570000,4.240000,4.360000,4.360000,258700
2016-02-01,4.340000,4.515000,4.230000,4.410000,4.410000,438700
2016-02-02,4.370000,4.960000,4.370000,4.770000,4.770000,196700
2016-02-03,4.900000,4.930000,4.480000,4.640000,4.640000,282000
2016-02-04,4.650000,5.010000,4.550000,4.720000,4.720000,31100
2016-02-05,4.740000,4.840000,4.700000,4.740000,4.740000,12100
2016-02-08,4.760000,4.760000,4.500000,4.520000,4.520000,31000
2016-02-09,4.480000,4.597000,3.805000,4.490000,4.490000,60900
2016-02-10,4.510000,4.570000,3.460000,3.710000,3.710000,173800
2016-02-11,3.910000,3.910000,3.480000,3.770000,3.770000,93100
2016-02-12,3.800000,3.930000,3.480000,3.580000,3.580000,45500
2016-02-16,3.740000,3.880000,3.540000,3.860000,3.860000,117000
2016-02-17,3.890000,4.150000,3.860000,3.940000,3.940000,17300
2016-02-18,3.997000,4.040000,3.830000,3.870000,3.870000,11800
2016-02-19,3.850000,3.900000,3.730000,3.780000,3.780000,8900
2016-02-22,3.800000,4.030000,3.800000,3.960000,3.960000,11100
2016-02-23,3.980000,4.070000,3.770000,3.780000,3.780000,9400
2016-02-24,3.780000,3.780000,3.550000,3.550000,3.550000,23700
2016-02-25,3.590000,3.680000,3.560000,3.680000,3.680000,13000
2016-02-26,4.200000,6.580000,3.810000,3.900000,3.900000,427800
2016-02-29,3.920000,4.198000,3.377000,3.650000,3.650000,178500
2016-03-01,3.650000,4.010000,3.650000,3.990000,3.990000,63200
2016-03-02,3.950000,4.040000,3.840000,4.000000,4.000000,45500
2016-03-03,3.900000,4.040000,3.650000,3.690000,3.690000,23400
2016-03-04,3.690000,4.030000,3.670000,3.970000,3.970000,30200
2016-03-07,3.930000,4.030000,3.920000,4.000000,4.000000,28600
2016-03-08,3.980000,4.077000,3.910000,4.000000,4.000000,136900
2016-03-09,4.055000,4.104000,3.960000,4.020000,4.020000,40400
2016-03-10,4.060000,4.070000,3.920000,4.020000,4.020000,114300
2016-03-11,4.080000,4.100000,3.870000,4.010000,4.010000,114200
2016-03-14,4.010000,4.300000,3.935000,4.300000,4.300000,35900
2016-03-15,4.280000,4.520000,4.200000,4.290000,4.290000,43100
2016-03-16,4.300000,4.500000,4.120000,4.140000,4.140000,48500
2016-03-17,4.240000,4.342000,4.000000,4.030000,4.030000,46900
2016-03-18,4.050000,4.610000,4.050000,4.570000,4.570000,155500
2016-03-21,4.720000,5.055000,4.550000,4.730000,4.730000,101100
2016-03-22,4.750000,4.750000,4.440000,4.740000,4.740000,37600
2016-03-23,4.640000,4.640000,4.170000,4.420000,4.420000,40800
2016-03-24,4.410000,4.520000,4.300000,4.440000,4.440000,60300
2016-03-28,4.460000,4.460000,4.280000,4.340000,4.340000,8400
2016-03-29,4.340000,4.500000,4.270000,4.480000,4.480000,29400
2016-03-30,4.490000,4.540000,4.420000,4.480000,4.480000,19900
2016-03-31,4.490000,4.540000,4.480000,4.500000,4.500000,44000
2016-04-01,4.510000,4.520000,4.400000,4.400000,4.400000,36300
2016-04-04,4.400000,4.510000,4.390000,4.450000,4.450000,13500
2016-04-05,4.400000,4.462000,4.260000,4.290000,4.290000,52200
2016-04-06,4.270000,4.370000,4.185000,4.210000,4.210000,48200
2016-04-07,4.170000,4.300000,4.170000,4.180000,4.180000,32900
2016-04-08,4.210000,4.330000,4.170000,4.230000,4.230000,45600
2016-04-11,4.030000,4.320000,4.030000,4.240000,4.240000,57000
2016-04-12,4.230000,4.290000,4.180000,4.290000,4.290000,79500
2016-04-13,4.280000,4.280000,4.150000,4.190000,4.190000,72600
2016-04-14,4.320000,4.320000,4.100000,4.160000,4.160000,85200
2016-04-15,4.200000,4.320000,4.100000,4.190000,4.190000,53000
2016-04-18,4.190000,4.260000,4.130000,4.200000,4.200000,77100
2016-04-19,4.200000,4.225000,4.180000,4.180000,4.180000,66900
2016-04-20,4.160000,4.250000,4.090000,4.100000,4.100000,65800
2016-04-21,4.120000,4.500000,4.120000,4.480000,4.480000,51900
2016-04-22,4.490000,4.540000,4.430000,4.490000,4.490000,64200
2016-04-25,4.450000,4.520000,4.450000,4.500000,4.500000,28700
2016-04-26,4.490000,4.530000,4.457000,4.530000,4.530000,24400
2016-04-27,4.510000,4.750000,4.500000,4.690000,4.690000,81500
2016-04-28,4.660000,4.790000,4.640000,4.770000,4.770000,73200
2016-04-29,4.780000,4.780000,4.720000,4.760000,4.760000,8300
2016-05-02,4.720000,4.790000,4.700000,4.760000,4.760000,52600
2016-05-03,4.700000,4.810000,4.700000,4.760000,4.760000,7600
2016-05-04,4.720000,4.780000,4.210000,4.320000,4.320000,73800
2016-05-05,4.360000,4.650000,4.360000,4.550000,4.550000,57000
2016-05-06,4.450000,4.520000,4.280000,4.500000,4.500000,40200
2016-05-09,4.500000,4.505000,4.320000,4.490000,4.490000,34500
2016-05-10,4.520000,4.520000,4.100000,4.190000,4.190000,13600
2016-05-11,4.200000,4.200000,4.080000,4.150000,4.150000,15300
2016-05-12,4.190000,4.270000,4.140000,4.270000,4.270000,28700
2016-05-13,4.285000,4.460000,4.120000,4.460000,4.460000,29700
2016-05-16,4.470000,4.475000,4.310000,4.390000,4.390000,57300
2016-05-17,4.400000,4.580000,4.250000,4.500000,4.500000,71500
2016-05-18,4.410000,4.580000,4.410000,4.490000,4.490000,55200
2016-05-19,4.480000,4.500000,4.140000,4.240000,4.240000,79000
2016-05-20,4.205000,4.260000,4.120000,4.160000,4.160000,12300
2016-05-23,4.180000,4.200000,4.100000,4.170000,4.170000,10400
2016-05-24,4.200000,4.340000,4.120000,4.160000,4.160000,4600
2016-05-25,4.110000,4.290000,4.110000,4.250000,4.250000,19500
2016-05-26,4.790000,4.790000,4.260000,4.390000,4.390000,5800
2016-05-27,4.350000,4.370000,4.210000,4.250000,4.250000,10800
2016-05-31,4.220000,4.220000,4.000000,4.010000,4.010000,73800
2016-06-01,4.100000,4.270000,4.040000,4.270000,4.270000,24400
2016-06-02,4.280000,4.440000,4.110000,4.120000,4.120000,20400
2016-06-03,4.460000,4.460000,4.120000,4.120000,4.120000,2400
2016-06-06,4.120000,4.420000,4.120000,4.290000,4.290000,81400
2016-06-07,4.330000,4.500000,4.330000,4.440000,4.440000,22700
2016-06-08,4.440000,4.570000,4.420000,4.490000,4.490000,14800
2016-06-09,4.490000,4.550000,4.410000,4.510000,4.510000,18900
2016-06-10,4.460000,4.550000,4.420000,4.480000,4.480000,13500
2016-06-13,4.430000,4.430000,4.180000,4.180000,4.180000,18500
2016-06-14,4.150000,4.240000,4.110000,4.210000,4.210000,24600
2016-06-15,4.170000,4.260000,4.160000,4.190000,4.190000,34800
2016-06-16,4.210000,4.243000,4.110000,4.130000,4.130000,29800
2016-06-17,4.040000,4.250000,3.920000,3.940000,3.940000,92100
2016-06-20,3.970000,4.100000,3.920000,3.970000,3.970000,8400
2016-06-21,4.030000,4.100000,3.910000,4.060000,4.060000,20300
2016-06-22,5.130000,5.390000,4.800000,5.000000,5.000000,925900
2016-06-23,5.020000,5.165000,4.800000,4.930000,4.930000,88800
2016-06-24,4.900000,4.900000,4.690000,4.750000,4.750000,63000
2016-06-27,4.740000,4.740000,4.430000,4.510000,4.510000,37900
2016-06-28,4.600000,5.000000,4.600000,4.950000,4.950000,35500
2016-06-29,5.120000,5.120000,4.830000,4.870000,4.870000,118800
2016-06-30,4.900000,4.980000,4.750000,4.970000,4.970000,64600
2016-07-01,4.950000,5.070000,4.780000,4.920000,4.920000,36900
2016-07-05,4.920000,5.030000,4.720000,4.790000,4.790000,47700
2016-07-06,4.770000,4.940000,4.770000,4.810000,4.810000,15300
2016-07-07,4.910000,4.962000,4.810000,4.840000,4.840000,11600
2016-07-08,4.880000,4.960000,4.750000,4.950000,4.950000,8600
2016-07-11,4.990000,5.035000,4.940000,4.950000,4.950000,13900
2016-07-12,5.000000,5.060000,4.940000,5.040000,5.040000,56000
2016-07-13,5.043000,5.460000,5.043000,5.440000,5.440000,177900
2016-07-14,5.510000,5.625000,5.210000,5.240000,5.240000,45400
2016-07-15,5.760000,5.760000,5.290000,5.440000,5.440000,50200
2016-07-18,5.430000,5.490000,5.170000,5.260000,5.260000,76900
2016-07-19,5.270000,5.450000,5.060000,5.330000,5.330000,20500
2016-07-20,5.330000,5.350000,5.090000,5.280000,5.280000,15800
2016-07-21,5.300000,5.530000,5.160000,5.220000,5.220000,12000
2016-07-22,5.260000,5.400000,5.040000,5.040000,5.040000,10600
2016-07-25,5.050000,5.200000,4.850000,4.870000,4.870000,18100
2016-07-26,4.720000,4.900000,4.701000,4.880000,4.880000,29000
2016-07-27,4.900000,5.040000,4.900000,5.010000,5.010000,32000
2016-07-28,5.020000,5.049000,4.960000,4.960000,4.960000,8800
2016-07-29,4.960000,5.040000,4.950000,4.980000,4.980000,20600
2016-08-01,5.040000,5.040000,4.940000,4.990000,4.990000,25100
2016-08-02,5.000000,5.000000,4.950000,4.970000,4.970000,5900
2016-08-03,4.920000,5.020000,4.920000,4.980000,4.980000,35800
2016-08-04,5.000000,5.220000,5.000000,5.060000,5.060000,10200
2016-08-05,4.800000,4.900000,4.420000,4.740000,4.740000,110700
2016-08-08,4.720000,4.890000,4.590000,4.700000,4.700000,36500
2016-08-09,4.730000,4.820000,4.501000,4.820000,4.820000,10500
2016-08-10,4.810000,4.850000,4.750000,4.830000,4.830000,31700
2016-08-11,4.820000,4.940000,4.800000,4.910000,4.910000,113300
2016-08-12,4.930000,4.986000,4.810000,4.840000,4.840000,46100
2016-08-15,4.850000,4.912000,4.780000,4.890000,4.890000,43700
2016-08-16,4.900000,5.000000,4.840000,4.910000,4.910000,38100
2016-08-17,4.970000,4.988000,4.810000,4.870000,4.870000,44000
2016-08-18,4.910000,4.980000,4.830000,4.890000,4.890000,13900
2016-08-19,4.810000,4.918000,4.620000,4.760000,4.760000,29000
2016-08-22,4.690000,4.810000,4.591000,4.660000,4.660000,34600
2016-08-23,4.720000,4.865000,4.720000,4.840000,4.840000,23800
2016-08-24,4.810000,5.010000,4.810000,4.950000,4.950000,337800
2016-08-25,5.000000,5.050000,4.910000,4.980000,4.980000,606400
2016-08-26,5.010000,5.050000,4.990000,5.020000,5.020000,109900
2016-08-29,5.040000,5.100000,4.980000,5.040000,5.040000,22900
2016-08-30,5.010000,5.050000,4.980000,4.980000,4.980000,21100
2016-08-31,4.990000,5.030000,4.900000,4.910000,4.910000,14800
2016-09-01,4.940000,4.990000,4.930000,4.940000,4.940000,12300
2016-09-02,4.970000,5.310000,4.970000,5.100000,5.100000,149200
2016-09-06,5.050000,5.180000,5.000000,5.060000,5.060000,392200
2016-09-07,5.060000,5.180000,5.060000,5.130000,5.130000,75500
2016-09-08,5.140000,5.180000,5.000000,5.010000,5.010000,104100
2016-09-09,5.020000,5.030000,4.600000,4.620000,4.620000,79400
2016-09-12,4.650000,4.800000,4.640000,4.700000,4.700000,41500
2016-09-13,4.710000,4.730000,4.530000,4.530000,4.530000,18800
2016-09-14,4.580000,4.600000,4.500000,4.530000,4.530000,27000
2016-09-15,4.510000,4.660000,4.500000,4.550000,4.550000,16800
2016-09-16,4.530000,4.960000,4.530000,4.960000,4.960000,52000
2016-09-19,4.900000,5.090000,4.860000,4.960000,4.960000,19900
2016-09-20,5.200000,5.370000,5.100000,5.220000,5.220000,54100
2016-09-21,5.250000,5.365000,5.150000,5.240000,5.240000,50000
2016-09-22,5.310000,5.395000,5.220000,5.310000,5.310000,32500
2016-09-23,5.320000,5.430000,5.100000,5.360000,5.360000,42300
2016-09-26,5.370000,5.530000,5.350000,5.500000,5.500000,52000
2016-09-27,5.440000,5.690000,5.420000,5.670000,5.670000,38900
2016-09-28,5.700000,6.060000,5.580000,6.030000,6.030000,61100
2016-09-29,6.000000,6.240000,5.946000,6.175000,6.175000,42200
2016-09-30,6.200000,6.290000,5.890000,5.960000,5.960000,35400
2016-10-03,6.030000,6.030000,5.910000,5.910000,5.910000,28700
2016-10-04,6.070000,6.180000,5.950000,6.000000,6.000000,51500
2016-10-05,6.050000,6.200000,5.990000,6.150000,6.150000,28300
2016-10-06,6.180000,6.200000,5.950000,6.110000,6.110000,91800
2016-10-07,6.130000,6.240000,6.035000,6.060000,6.060000,15000
2016-10-10,6.130000,6.250000,6.040000,6.110000,6.110000,16800
2016-10-11,6.110000,6.340000,6.030000,6.270000,6.270000,72400
2016-10-12,6.290000,6.490000,6.155000,6.170000,6.170000,26500
2016-10-13,6.150000,6.200000,5.990000,6.140000,6.140000,26800
2016-10-14,6.190000,6.203000,6.048000,6.100000,6.100000,26900
2016-10-17,6.120000,6.210000,6.100000,6.210000,6.210000,15500
2016-10-18,6.210000,6.243000,6.060000,6.150000,6.150000,8800
2016-10-19,6.230000,6.530000,6.030000,6.460000,6.460000,27200
2016-10-20,6.440000,6.590000,6.430000,6.550000,6.550000,22700
2016-10-21,6.560000,6.603000,6.300000,6.470000,6.470000,23100
2016-10-24,6.430000,6.510000,6.301000,6.510000,6.510000,23400
2016-10-25,6.460000,6.553000,6.390000,6.500000,6.500000,14900
2016-10-26,6.500000,6.610000,6.340000,6.360000,6.360000,30900
2016-10-27,6.350000,6.470000,6.250000,6.470000,6.470000,34500
2016-10-28,6.440000,6.710000,6.337000,6.500000,6.500000,19100
2016-10-31,6.510000,6.510000,6.170000,6.170000,6.170000,20400
2016-11-01,6.200000,6.250000,5.980000,6.080000,6.080000,140400
2016-11-02,6.060000,6.060000,5.850000,6.040000,6.040000,85200
2016-11-03,6.040000,6.040000,5.807000,5.890000,5.890000,37600
2016-11-04,5.300000,5.300000,4.010000,4.040000,4.040000,862600
2016-11-07,4.120000,4.233000,3.610000,3.700000,3.700000,75900
2016-11-08,3.720000,4.040000,3.625000,3.940000,3.940000,149200
2016-11-09,3.800000,4.080000,3.690000,3.950000,3.950000,90900
2016-11-10,3.960000,4.130000,3.870000,3.880000,3.880000,52200
2016-11-11,3.830000,4.100000,3.760000,3.940000,3.940000,85400
2016-11-14,3.890000,4.050000,3.750000,3.780000,3.780000,57200
2016-11-15,3.790000,3.866000,3.700000,3.700000,3.700000,101200
2016-11-16,3.720000,4.110000,3.670000,3.940000,3.940000,115800
2016-11-17,4.000000,4.170000,3.780000,3.870000,3.870000,97300
2016-11-18,3.950000,4.000000,3.840000,3.940000,3.940000,207800
2016-11-21,4.000000,4.185000,3.950000,4.000000,4.000000,122300
2016-11-22,4.030000,4.060000,3.910000,4.005000,4.005000,110800
2016-11-23,4.000000,4.080000,3.910000,4.030000,4.030000,27800
2016-11-25,4.050000,4.050000,3.980000,4.000000,4.000000,18800
2016-11-28,4.000000,4.010000,3.850000,3.990000,3.990000,78900
2016-11-29,3.910000,4.000000,3.630000,3.730000,3.730000,333400
2016-11-30,3.750000,3.980000,3.730000,3.850000,3.850000,524800
2016-12-01,3.900000,4.030000,3.883000,3.960000,3.960000,34900
2016-12-02,3.960000,4.210000,3.910000,4.090000,4.090000,273200
2016-12-05,4.100000,4.269000,4.000000,4.130000,4.130000,179800
2016-12-06,4.120000,4.190000,4.090000,4.140000,4.140000,49100
2016-12-07,4.120000,4.310000,4.120000,4.290000,4.290000,57800
2016-12-08,4.300000,4.340000,4.140000,4.300000,4.300000,99900
2016-12-09,4.310000,4.330000,4.150000,4.270000,4.270000,107400
2016-12-12,4.200000,4.300000,4.150000,4.290000,4.290000,100900
2016-12-13,4.230000,4.330000,4.120000,4.160000,4.160000,91500
2016-12-14,4.150000,4.210000,3.970000,3.990000,3.990000,77400
2016-12-15,4.000000,4.090000,3.888000,4.030000,4.030000,73300
2016-12-16,4.010000,4.200000,3.970000,4.200000,4.200000,444900
2016-12-19,4.200000,4.280000,3.990000,4.000000,4.000000,48000
2016-12-20,4.010000,4.220000,4.010000,4.080000,4.080000,134900
2016-12-21,4.120000,4.500000,4.025000,4.440000,4.440000,223800
2016-12-22,4.520000,4.520000,4.280000,4.310000,4.310000,256600
2016-12-23,4.280000,4.290000,4.230000,4.260000,4.260000,36500
2016-12-27,4.250000,4.290000,4.200000,4.240000,4.240000,64200
2016-12-28,4.201000,4.250000,4.000000,4.010000,4.010000,57300
2016-12-29,4.040000,4.060000,3.930000,4.010000,4.010000,340700
2016-12-30,4.030000,4.260000,4.010000,4.130000,4.130000,93400
2017-01-03,4.200000,4.370000,4.200000,4.250000,4.250000,59200
2017-01-04,4.250000,4.400000,4.250000,4.350000,4.350000,39700
2017-01-05,4.350000,4.440000,4.260000,4.260000,4.260000,37500
2017-01-06,4.290000,4.300000,4.100000,4.160000,4.160000,291200
2017-01-09,4.220000,4.250000,4.100000,4.210000,4.210000,61400
2017-01-10,4.230000,4.246000,4.170000,4.220000,4.220000,25800
2017-01-11,4.230000,4.230000,4.140000,4.160000,4.160000,44400
2017-01-12,4.200000,4.230000,4.110000,4.210000,4.210000,36200
2017-01-13,4.200000,4.410000,4.190000,4.270000,4.270000,58000
2017-01-17,4.290000,4.420000,4.250000,4.250000,4.250000,15300
2017-01-18,4.250000,4.420000,4.250000,4.420000,4.420000,55200
2017-01-19,4.420000,4.430000,4.260000,4.350000,4.350000,29500
2017-01-20,4.390000,4.450000,4.340000,4.360000,4.360000,40000
2017-01-23,4.300000,4.430000,4.300000,4.360000,4.360000,15600
2017-01-24,4.390000,4.600000,4.380000,4.570000,4.570000,53300
2017-01-25,4.590000,4.740000,4.570000,4.630000,4.630000,26800
2017-01-26,4.690000,4.690000,4.600000,4.628000,4.628000,22600
2017-01-27,4.670000,4.830000,4.560000,4.740000,4.740000,44900
2017-01-30,4.740000,4.755000,4.600000,4.610000,4.610000,19300
2017-01-31,4.650000,4.720000,4.560000,4.660000,4.660000,17100
2017-02-01,4.690000,4.690000,4.420000,4.450000,4.450000,55500
2017-02-02,4.430000,4.705000,4.400000,4.530000,4.530000,130400
2017-02-03,4.560000,4.856000,4.480000,4.490000,4.490000,78400
2017-02-06,4.500000,4.500000,4.300000,4.340000,4.340000,39200
2017-02-07,4.370000,4.380000,4.140000,4.350000,4.350000,62000
2017-02-08,4.340000,4.380000,4.247000,4.380000,4.380000,29100
2017-02-09,4.370000,4.380000,4.281000,4.360000,4.360000,58800
2017-02-10,4.380000,4.380000,4.360000,4.380000,4.380000,56100
2017-02-13,4.410000,4.410000,4.350000,4.380000,4.380000,54600
2017-02-14,4.360000,4.590000,4.355000,4.580000,4.580000,226700
2017-02-15,4.580000,4.690000,4.510000,4.550000,4.550000,67900
2017-02-16,4.570000,4.570000,4.435000,4.490000,4.490000,22900
2017-02-17,4.470000,4.470000,4.310000,4.390000,4.390000,24900
2017-02-21,4.440000,4.450000,4.275000,4.440000,4.440000,71000
2017-02-22,4.410000,4.500000,4.310000,4.350000,4.350000,48900
2017-02-23,4.380000,4.380000,4.110000,4.110000,4.110000,58600
2017-02-24,3.880000,4.100000,3.840000,4.010000,4.010000,365700
2017-02-27,4.030000,4.090000,3.900000,4.060000,4.060000,71300
2017-02-28,4.140000,4.240000,4.080000,4.140000,4.140000,69100
2017-03-01,4.180000,4.290000,4.130000,4.180000,4.180000,33600
2017-03-02,4.180000,4.180000,4.000000,4.030000,4.030000,55000
2017-03-03,4.050000,4.070000,3.970000,4.060000,4.060000,59800
2017-03-06,4.030000,4.061000,4.000000,4.040000,4.040000,92700
2017-03-07,4.080000,4.080000,4.030000,4.060000,4.060000,39400
2017-03-08,4.050000,4.090000,4.050000,4.050000,4.050000,31700
2017-03-09,4.060000,4.120000,3.995000,4.030000,4.030000,93500
2017-03-10,4.060000,4.090000,4.000000,4.070000,4.070000,78200
2017-03-13,4.050000,4.170000,4.020000,4.150000,4.150000,23600
2017-03-14,4.120000,4.120000,4.000000,4.060000,4.060000,56700
2017-03-15,4.060000,4.120000,4.040000,4.080000,4.080000,16100
2017-03-16,4.090000,4.180000,4.050000,4.140000,4.140000,15500
2017-03-17,4.140000,4.150000,4.050000,4.080000,4.080000,63300
2017-03-20,4.040000,4.100000,3.916000,4.010000,4.010000,32200
2017-03-21,4.060000,4.165000,3.884000,3.890000,3.890000,31900
2017-03-22,3.880000,4.030000,3.850000,3.900000,3.900000,59400
2017-03-23,3.910000,4.074000,3.889000,4.040000,4.040000,42300
2017-03-24,4.040000,4.080000,4.000000,4.020000,4.020000,11700
2017-03-27,3.960000,4.140000,3.960000,4.110000,4.110000,33000
2017-03-28,4.140000,4.170000,4.113000,4.130000,4.130000,26100
2017-03-29,4.130000,4.250000,4.130000,4.210000,4.210000,28100
2017-03-30,4.220000,4.250000,4.090000,4.130000,4.130000,10800
2017-03-31,4.140000,4.250000,4.140000,4.150000,4.150000,40700
2017-04-03,4.140000,4.330000,4.140000,4.290000,4.290000,72800
2017-04-04,4.300000,4.320000,4.090000,4.100000,4.100000,9600
2017-04-05,4.150000,4.230000,4.100000,4.110000,4.110000,18100
2017-04-06,4.140000,4.270000,4.140000,4.230000,4.230000,12600
2017-04-07,4.240000,4.250000,4.170000,4.200000,4.200000,2700
2017-04-10,4.200000,4.250000,4.000000,4.010000,4.010000,20600
2017-04-11,4.020000,4.090000,3.982000,3.990000,3.990000,94000
2017-04-12,4.010000,4.020000,3.970000,4.000000,4.000000,92100
2017-04-13,4.010000,4.020000,3.970000,3.980000,3.980000,132200
2017-04-17,4.000000,4.020000,3.950000,3.980000,3.980000,43500
2017-04-18,3.980000,4.010000,3.950000,3.970000,3.970000,90300
2017-04-19,4.000000,4.005000,3.950000,3.970000,3.970000,52800
2017-04-20,3.980000,4.005000,3.970000,3.970000,3.970000,94200
2017-04-21,4.000000,4.050000,3.960000,3.990000,3.990000,57900
2017-04-24,4.040000,4.050000,3.960000,3.960000,3.960000,193100
2017-04-25,3.990000,4.040000,3.990000,3.990000,3.990000,52900
2017-04-26,3.990000,4.100000,3.950000,3.980000,3.980000,73800
2017-04-27,4.000000,4.100000,4.000000,4.080000,4.080000,30300
2017-04-28,4.090000,4.140000,4.020000,4.060000,4.060000,14900
2017-05-01,4.060000,4.110000,3.970000,4.010000,4.010000,18300
2017-05-02,4.000000,4.080000,4.000000,4.030000,4.030000,28700
2017-05-03,4.080000,4.080000,3.990000,4.030000,4.030000,22100
2017-05-04,4.000000,4.075000,3.980000,4.070000,4.070000,37700
2017-05-05,4.050000,4.420000,4.000000,4.210000,4.210000,103900
2017-05-08,4.260000,4.477000,4.155000,4.370000,4.370000,43800
2017-05-09,4.440000,4.580000,4.330000,4.400000,4.400000,50800
2017-05-10,4.410000,4.490000,4.350000,4.360000,4.360000,20300
2017-05-11,4.270000,4.390000,4.240000,4.330000,4.330000,16800
2017-05-12,4.320000,4.320000,4.135000,4.250000,4.250000,8900
2017-05-15,4.310000,4.350000,4.240000,4.250000,4.250000,35500
2017-05-16,4.274000,4.280000,4.110000,4.230000,4.230000,22200
2017-05-17,4.230000,4.310000,4.220000,4.250000,4.250000,11700
2017-05-18,4.230000,4.310000,4.155000,4.270000,4.270000,13700
2017-05-19,4.290000,4.400000,4.230000,4.400000,4.400000,62500
2017-05-22,4.400000,4.590000,4.382000,4.590000,4.590000,33600
2017-05-23,4.600000,4.620000,4.478000,4.530000,4.530000,42100
2017-05-24,4.530000,4.550000,4.450000,4.500000,4.500000,19800
2017-05-25,4.500000,4.500000,4.420000,4.440000,4.440000,8700
2017-05-26,4.420000,4.550000,4.380000,4.520000,4.520000,26900
2017-05-30,4.530000,4.590000,4.370000,4.590000,4.590000,27400
2017-05-31,4.570000,4.580000,4.500000,4.520000,4.520000,19600
2017-06-01,4.500000,4.550000,4.240000,4.290000,4.290000,31600
2017-06-02,4.280000,4.430000,4.260000,4.300000,4.300000,44100
2017-06-05,4.320000,4.350000,4.320000,4.330000,4.330000,8600
2017-06-06,4.330000,4.360000,4.250000,4.270000,4.270000,5200
2017-06-07,4.260000,4.307000,4.230000,4.260000,4.260000,16300
2017-06-08,4.250000,4.400000,4.250000,4.350000,4.350000,14300
2017-06-09,4.350000,4.590000,4.350000,4.540000,4.540000,55200
2017-06-12,4.480000,4.580000,4.230000,4.270000,4.270000,15000
2017-06-13,4.280000,4.320000,4.274000,4.290000,4.290000,8000
2017-06-14,4.290000,4.290000,4.140000,4.150000,4.150000,4700
2017-06-15,4.140000,4.160000,4.050000,4.060000,4.060000,8400
2017-06-16,4.070000,4.200000,4.000000,4.010000,4.010000,43000
2017-06-19,4.040000,4.270000,4.000000,4.110000,4.110000,62600
2017-06-20,4.080000,4.185000,4.080000,4.140000,4.140000,8600
2017-06-21,4.140000,4.200000,4.100000,4.110000,4.110000,24600
2017-06-22,4.080000,4.250000,4.080000,4.240000,4.240000,44200
2017-06-23,4.250000,4.280000,4.200000,4.250000,4.250000,16200
2017-06-26,4.290000,4.410000,4.215000,4.390000,4.390000,14900
2017-06-27,4.380000,4.400000,4.350000,4.360000,4.360000,5900
2017-06-28,4.350000,4.490000,4.300000,4.410000,4.410000,59400
2017-06-29,4.265000,4.390000,4.120000,4.390000,4.390000,11500
2017-06-30,4.400000,4.450000,4.318000,4.450000,4.450000,20300
2017-07-03,4.440000,4.480000,4.310000,4.410000,4.410000,31000
2017-07-05,4.370000,4.730000,4.310000,4.640000,4.640000,85200
2017-07-06,4.630000,4.630000,4.350000,4.390000,4.390000,9100
2017-07-07,4.390000,4.480000,4.280000,4.450000,4.450000,7000
2017-07-10,4.460000,4.580000,4.340000,4.490000,4.490000,34200
2017-07-11,4.510000,4.590000,4.290000,4.460000,4.460000,32800
2017-07-12,4.480000,4.550000,4.450000,4.460000,4.460000,20300
2017-07-13,4.460000,4.600000,4.440000,4.570000,4.570000,8400
2017-07-14,4.570000,4.600000,4.410000,4.510000,4.510000,47700
2017-07-17,4.500000,4.640000,4.450000,4.590000,4.590000,13600
2017-07-18,4.580000,4.603000,4.510000,4.590000,4.590000,17100
2017-07-19,4.560000,4.650000,4.530000,4.530000,4.530000,16300
2017-07-20,4.530000,4.560000,4.340000,4.480000,4.480000,50700
2017-07-21,4.470000,4.690000,4.430000,4.620000,4.620000,41500
2017-07-24,4.620000,4.690000,4.420000,4.420000,4.420000,19000
2017-07-25,4.380000,4.620000,4.380000,4.450000,4.450000,29700
2017-07-26,4.460000,4.515000,4.390000,4.420000,4.420000,7400
2017-07-27,4.430000,4.500000,4.300000,4.500000,4.500000,50900
2017-07-28,4.560000,4.730000,4.550000,4.620000,4.620000,17500
2017-07-31,4.630000,4.650000,4.477000,4.610000,4.610000,7600
2017-08-01,4.578000,4.670000,4.534000,4.600000,4.600000,39600
2017-08-02,4.595000,4.600000,4.500000,4.560000,4.560000,23600
2017-08-03,4.630000,4.690000,4.490000,4.610000,4.610000,66700
2017-08-04,4.640000,4.840000,4.600000,4.840000,4.840000,36700
2017-08-07,4.900000,4.900000,4.790000,4.820000,4.820000,36600
2017-08-08,4.783000,4.850000,4.700000,4.750000,4.750000,38600
2017-08-09,4.730000,4.735000,4.610000,4.650000,4.650000,42300
2017-08-10,4.690000,4.690000,4.570000,4.600000,4.600000,97400
2017-08-11,4.645000,4.750000,4.625000,4.750000,4.750000,8800
2017-08-14,4.750000,4.780000,4.540000,4.630000,4.630000,12300
2017-08-15,4.586000,4.630000,4.520000,4.580000,4.580000,19100
2017-08-16,4.570000,4.590000,4.280000,4.380000,4.380000,77800
2017-08-17,4.325000,4.430000,4.210000,4.270000,4.270000,12100
2017-08-18,4.280000,4.355000,4.170000,4.250000,4.250000,33100
2017-08-21,4.400000,4.400000,4.110000,4.230000,4.230000,8700
2017-08-22,4.210000,4.324000,4.170000,4.180000,4.180000,6300
2017-08-23,4.210000,4.300000,4.140000,4.210000,4.210000,20600
2017-08-24,4.200000,4.310000,4.162000,4.220000,4.220000,37000
2017-08-25,4.270000,4.460000,4.060000,4.160000,4.160000,88700
2017-08-28,4.250000,4.260000,4.100000,4.200000,4.200000,12200
2017-08-29,4.160000,4.330000,4.100000,4.100000,4.100000,6800
2017-08-30,4.100000,4.170000,4.050000,4.060000,4.060000,24600
2017-08-31,4.080000,4.200000,3.990000,4.090000,4.090000,36700
2017-09-01,4.120000,4.264000,4.100000,4.170000,4.170000,39000
2017-09-05,4.100000,4.200000,4.010000,4.130000,4.130000,60000
2017-09-06,4.120000,4.220000,4.020000,4.190000,4.190000,218200
2017-09-07,4.200000,4.250000,4.185000,4.190000,4.190000,30200
2017-09-08,4.220000,4.250000,4.160000,4.180000,4.180000,240400
2017-09-11,4.200000,4.260000,4.190000,4.200000,4.200000,112800
2017-09-12,4.190000,4.281000,4.140000,4.170000,4.170000,46400
2017-09-13,4.210000,4.250000,4.090000,4.190000,4.190000,32100
2017-09-14,4.190000,4.258000,4.178000,4.210000,4.210000,33500
2017-09-15,4.180000,4.200000,4.040000,4.060000,4.060000,82600
2017-09-18,4.060000,4.150000,4.039000,4.120000,4.120000,34000
2017-09-19,4.160000,4.230000,4.145000,4.180000,4.180000,17500
2017-09-20,4.180000,4.230000,4.160000,4.160000,4.160000,10100
2017-09-21,4.190000,4.200000,4.110000,4.110000,4.110000,8300
2017-09-22,4.190000,4.200000,4.050000,4.060000,4.060000,10100
2017-09-25,4.030000,4.200000,4.030000,4.190000,4.190000,26000
2017-09-26,4.200000,4.200000,4.070000,4.110000,4.110000,30100
2017-09-27,4.130000,4.220000,4.060000,4.190000,4.190000,10500
2017-09-28,4.190000,4.220000,4.170000,4.200000,4.200000,20300
2017-09-29,4.230000,4.430000,4.120000,4.350000,4.350000,321300
2017-10-02,4.440000,4.440000,4.150000,4.200000,4.200000,35700
2017-10-03,4.180000,4.280000,4.150000,4.150000,4.150000,41700
2017-10-04,4.120000,4.200000,4.120000,4.180000,4.180000,13700
2017-10-05,4.200000,4.200000,4.150000,4.180000,4.180000,10200
2017-10-06,4.160000,4.330000,4.128000,4.330000,4.330000,18600
2017-10-09,4.340000,4.490000,4.340000,4.430000,4.430000,34100
2017-10-10,4.450000,4.460000,4.380000,4.440000,4.440000,39300
2017-10-11,4.440000,4.440000,4.280000,4.280000,4.280000,42500
2017-10-12,4.280000,4.430000,4.200000,4.200000,4.200000,17200
2017-10-13,4.200000,4.350000,4.200000,4.310000,4.310000,117800
2017-10-16,4.320000,4.408000,4.180000,4.250000,4.250000,46700
2017-10-17,4.290000,4.350000,4.210000,4.260000,4.260000,21100
2017-10-18,4.280000,4.370000,4.200000,4.370000,4.370000,20300
2017-10-19,4.310000,4.370000,4.210000,4.300000,4.300000,38200
2017-10-20,4.330000,4.330000,4.271000,4.310000,4.310000,16200
2017-10-23,4.320000,4.370000,4.250000,4.350000,4.350000,24700
2017-10-24,4.320000,4.350000,4.250000,4.250000,4.250000,12700
2017-10-25,4.210000,4.360000,4.180000,4.360000,4.360000,8700
2017-10-26,4.400000,4.410000,4.230000,4.340000,4.340000,13500
2017-10-27,4.300000,4.380000,4.290000,4.310000,4.310000,144300
2017-10-30,4.340000,4.450000,4.340000,4.450000,4.450000,40100
2017-10-31,4.460000,4.480000,4.408000,4.480000,4.480000,21500
2017-11-01,4.500000,4.500000,4.410000,4.460000,4.460000,7500
2017-11-02,4.450000,4.480000,4.400000,4.450000,4.450000,9500
2017-11-03,4.320000,4.850000,4.270000,4.790000,4.790000,92000
2017-11-06,4.800000,4.960000,4.740000,4.900000,4.900000,29600
2017-11-07,4.820000,4.970000,4.680000,4.860000,4.860000,30000
2017-11-08,4.830000,4.955000,4.800000,4.860000,4.860000,49700
2017-11-09,4.810000,4.930000,4.770000,4.900000,4.900000,52900
2017-11-10,4.860000,4.970000,4.730000,4.870000,4.870000,21300
2017-11-13,4.850000,4.850000,4.700000,4.830000,4.830000,9800
2017-11-14,4.730000,4.860000,4.610000,4.630000,4.630000,13800
2017-11-15,4.616000,4.800000,4.578000,4.770000,4.770000,40600
2017-11-16,4.750000,4.970000,4.720000,4.770000,4.770000,209100
2017-11-17,4.800000,4.880000,4.650000,4.860000,4.860000,21800
2017-11-20,4.770000,4.900000,4.770000,4.860000,4.860000,17600
2017-11-21,4.830000,4.930000,4.730000,4.820000,4.820000,30900
2017-11-22,4.800000,4.940000,4.780000,4.790000,4.790000,17800
2017-11-24,4.840000,4.840000,4.690000,4.800000,4.800000,7300
2017-11-27,4.830000,4.830000,4.660000,4.720000,4.720000,11600
2017-11-28,4.780000,4.939000,4.630000,4.770000,4.770000,23500
2017-11-29,4.820000,4.820000,4.720000,4.760000,4.760000,3400
2017-11-30,4.730000,4.910000,4.300000,4.770000,4.770000,3015600
2017-12-01,4.760000,4.960000,4.760000,4.840000,4.840000,30800
2017-12-04,4.810000,4.895000,4.770000,4.830000,4.830000,30700
2017-12-05,4.840000,5.120000,4.840000,5.050000,5.050000,30200
2017-12-06,5.050000,5.130000,4.940000,5.070000,5.070000,27600
2017-12-07,5.050000,5.080000,5.000000,5.060000,5.060000,22200
2017-12-08,5.040000,5.040000,4.920000,5.000000,5.000000,7800
2017-12-11,5.040000,5.140000,4.976000,5.030000,5.030000,31200
2017-12-12,5.030000,5.030000,4.917000,4.990000,4.990000,16800
2017-12-13,5.000000,5.040000,4.961000,4.990000,4.990000,27100
2017-12-14,4.990000,5.060000,4.780000,4.820000,4.820000,24500
2017-12-15,4.890000,4.990000,4.840000,4.960000,4.960000,33900
2017-12-18,4.980000,4.980000,4.910000,4.920000,4.920000,13700
2017-12-19,4.890000,5.000000,4.840000,4.850000,4.850000,19900
2017-12-20,4.850000,4.940000,4.820000,4.870000,4.870000,12100
2017-12-21,4.870000,4.950000,4.840000,4.930000,4.930000,18800
2017-12-22,4.900000,4.900000,4.840000,4.890000,4.890000,10400
2017-12-26,4.900000,4.900000,4.800000,4.820000,4.820000,21200
2017-12-27,4.850000,4.860000,4.750000,4.800000,4.800000,24700
2017-12-28,4.770000,4.950000,4.750000,4.940000,4.940000,29300
2017-12-29,4.950000,4.950000,4.850000,4.880000,4.880000,38100
2018-01-02,4.930000,4.980000,4.908000,4.980000,4.980000,18500
2018-01-03,4.970000,5.110000,4.890000,4.990000,4.990000,26700
2018-01-04,5.040000,5.090000,5.030000,5.060000,5.060000,19400
2018-01-05,5.040000,5.090000,5.000000,5.090000,5.090000,17700
2018-01-08,5.050000,5.200000,5.045000,5.070000,5.070000,19100
2018-01-09,5.070000,5.130000,5.050000,5.110000,5.110000,4800
2018-01-10,5.090000,5.090000,4.950000,5.000000,5.000000,47000
2018-01-11,5.050000,5.130000,4.990000,5.050000,5.050000,14400
2018-01-12,5.020000,5.080000,5.010000,5.050000,5.050000,11000
2018-01-16,5.070000,5.075000,4.860000,4.950000,4.950000,33100
2018-01-17,4.990000,5.040000,4.850000,5.030000,5.030000,18400
2018-01-18,5.010000,5.030000,4.920000,5.000000,5.000000,65700
2018-01-19,5.030000,5.090000,4.980000,5.030000,5.030000,54400
2018-01-22,5.010000,5.200000,5.010000,5.120000,5.120000,264000
2018-01-23,5.100000,5.410000,5.080000,5.400000,5.400000,48700
2018-01-24,5.450000,5.582000,5.280000,5.350000,5.350000,77900
2018-01-25,5.400000,5.480000,5.260000,5.380000,5.380000,36700
2018-01-26,5.400000,5.400000,5.290000,5.390000,5.390000,24800
2018-01-29,5.390000,5.390000,5.200000,5.330000,5.330000,15700
2018-01-30,5.190000,5.230000,5.140000,5.210000,5.210000,11800
2018-01-31,5.260000,5.260000,4.970000,5.050000,5.050000,41800
2018-02-01,5.040000,5.040000,4.920000,4.960000,4.960000,32000
2018-02-02,5.000000,5.000000,4.760000,4.800000,4.800000,20300
2018-02-05,4.750000,4.820000,4.500000,4.500000,4.500000,28000
2018-02-06,4.500000,4.730000,4.500000,4.600000,4.600000,49300
2018-02-07,4.590000,5.020000,4.590000,4.970000,4.970000,162600
2018-02-08,4.940000,4.950000,4.710000,4.730000,4.730000,57700
2018-02-09,4.790000,4.790000,4.610000,4.610000,4.610000,54700
2018-02-12,4.650000,4.675000,4.520000,4.560000,4.560000,72700
2018-02-13,4.640000,4.740000,4.570000,4.580000,4.580000,46100
2018-02-14,4.590000,4.720000,4.560000,4.640000,4.640000,35000
2018-02-15,4.670000,4.740000,4.400000,4.600000,4.600000,16200
2018-02-16,4.640000,4.660000,4.350000,4.400000,4.400000,41400
2018-02-20,4.370000,4.570000,4.210000,4.520000,4.520000,28200
2018-02-21,4.490000,4.580000,4.359000,4.440000,4.440000,32700
2018-02-22,4.449000,4.470000,4.350000,4.360000,4.360000,14300
2018-02-23,4.300000,4.590000,4.180000,4.540000,4.540000,594000
2018-02-26,4.430000,4.580000,4.250000,4.520000,4.520000,79100
2018-02-27,4.500000,4.630000,4.500000,4.520000,4.520000,18800
2018-02-28,4.530000,4.620000,4.500000,4.600000,4.600000,38300
2018-03-01,4.600000,4.640000,4.550000,4.570000,4.570000,40200
2018-03-02,4.530000,4.650000,4.530000,4.570000,4.570000,16500
2018-03-05,4.550000,4.800000,4.550000,4.750000,4.750000,23400
2018-03-06,4.790000,4.800000,4.680000,4.680000,4.680000,23700
2018-03-07,4.691000,4.750000,4.650000,4.700000,4.700000,22800
2018-03-08,4.730000,4.840000,4.570000,4.610000,4.610000,30800
2018-03-09,4.670000,4.670000,4.500000,4.590000,4.590000,44500
2018-03-12,4.600000,4.730000,4.500000,4.530000,4.530000,27500
2018-03-13,4.550000,4.600000,4.490000,4.540000,4.540000,13800
2018-03-14,4.550000,4.590000,4.310000,4.470000,4.470000,175200
2018-03-15,4.500000,4.590000,4.390000,4.480000,4.480000,19300
2018-03-16,4.510000,4.550000,4.385000,4.480000,4.480000,29800
2018-03-19,4.470000,4.500000,4.260000,4.270000,4.270000,55400
2018-03-20,4.290000,4.290000,4.240000,4.250000,4.250000,93300
2018-03-21,4.290000,4.360000,4.225000,4.290000,4.290000,46700
2018-03-22,4.300000,4.430000,4.240000,4.240000,4.240000,19300
2018-03-23,4.290000,4.355000,4.230000,4.260000,4.260000,15300
2018-03-26,4.310000,4.370000,4.180000,4.250000,4.250000,224600
2018-03-27,4.250000,4.280000,4.230000,4.240000,4.240000,24000
2018-03-28,4.200000,4.300000,4.200000,4.250000,4.250000,16100
2018-03-29,4.290000,4.300000,4.240000,4.270000,4.270000,43000
2018-04-02,4.230000,4.250000,4.140000,4.180000,4.180000,21700
2018-04-03,4.161000,4.230000,4.140000,4.140000,4.140000,19300
2018-04-04,4.130000,4.160000,4.130000,4.150000,4.150000,16800
2018-04-05,4.150000,4.190000,4.117000,4.140000,4.140000,35000
2018-04-06,4.130000,4.280000,4.120000,4.180000,4.180000,21900
2018-04-09,4.200000,4.200000,4.030000,4.030000,4.030000,18300
2018-04-10,4.090000,4.200000,4.040000,4.140000,4.140000,13400
2018-04-11,4.100000,4.110000,4.060000,4.100000,4.100000,34500
2018-04-12,4.170000,4.340000,4.080000,4.290000,4.290000,285200
2018-04-13,4.280000,4.440000,4.261000,4.410000,4.410000,14800
2018-04-16,4.490000,4.490000,4.360000,4.470000,4.470000,35200
2018-04-17,4.450000,4.450000,4.300000,4.340000,4.340000,41800
2018-04-18,4.350000,4.400000,4.350000,4.380000,4.380000,18500
2018-04-19,4.380000,4.450000,4.290000,4.440000,4.440000,474200
2018-04-20,4.420000,4.540000,4.370000,4.540000,4.540000,12400
2018-04-23,4.550000,4.550000,4.390000,4.450000,4.450000,7400
2018-04-24,4.480000,4.510000,4.410000,4.510000,4.510000,4500
2018-04-25,4.520000,4.520000,4.400000,4.450000,4.450000,3000
2018-04-26,4.480000,4.480000,4.299000,4.410000,4.410000,5300
2018-04-27,4.370000,4.450000,4.310000,4.450000,4.450000,11600
2018-04-30,4.450000,4.590000,4.440000,4.500000,4.500000,12200
2018-05-01,4.460000,4.510000,4.380000,4.490000,4.490000,10400
2018-05-02,4.550000,4.560000,4.444000,4.470000,4.470000,23300
2018-05-03,4.500000,4.550000,4.450000,4.450000,4.450000,1000
2018-05-04,4.160000,4.580000,4.160000,4.550000,4.550000,66600
2018-05-07,4.570000,4.635000,4.486000,4.610000,4.610000,39600
2018-05-08,4.640000,4.760000,4.580000,4.710000,4.710000,30700
2018-05-09,4.730000,4.800000,4.700000,4.750000,4.750000,34700
2018-05-10,4.750000,5.090000,4.690000,5.000000,5.000000,185000
2018-05-11,4.960000,5.080000,4.950000,4.970000,4.970000,22700
2018-05-14,4.970000,5.150000,4.950000,5.000000,5.000000,63000
2018-05-15,4.960000,5.000000,4.960000,4.990000,4.990000,9600
2018-05-16,5.000000,5.130000,4.976000,5.000000,5.000000,17200
2018-05-17,5.000000,5.140000,4.920000,4.960000,4.960000,15300
2018-05-18,4.950000,4.990000,4.860000,4.990000,4.990000,9500
2018-05-21,4.970000,5.060000,4.960000,4.990000,4.990000,22400
2018-05-22,4.936000,5.000000,4.900000,4.950000,4.950000,6400
2018-05-23,4.970000,4.970000,4.700000,4.860000,4.860000,16100
2018-05-24,4.810000,4.990000,4.360000,4.850000,4.850000,7300
2018-05-25,4.850000,4.930000,4.850000,4.910000,4.910000,4000
2018-05-29,4.860000,4.990000,4.860000,4.970000,4.970000,9200
2018-05-30,5.000000,5.040000,5.000000,5.020000,5.020000,57700
2018-05-31,5.030000,5.060000,5.020000,5.020000,5.020000,21600
2018-06-01,5.000000,5.090000,4.910000,5.050000,5.050000,19300
2018-06-04,5.070000,5.150000,5.050000,5.100000,5.100000,24900
2018-06-05,5.080000,5.120000,5.080000,5.090000,5.090000,10800
2018-06-06,5.090000,5.120000,5.020000,5.050000,5.050000,37300
2018-06-07,5.060000,5.110000,5.030000,5.060000,5.060000,35000
2018-06-08,5.060000,5.130000,5.020000,5.050000,5.050000,17300
2018-06-11,5.080000,5.150000,5.050000,5.130000,5.130000,28000
2018-06-12,5.110000,5.150000,5.030000,5.130000,5.130000,113400
2018-06-13,5.150000,5.180000,5.070000,5.140000,5.140000,14000
2018-06-14,5.190000,5.190000,5.060000,5.120000,5.120000,18200
2018-06-15,5.130000,5.140000,5.070000,5.080000,5.080000,10500
2018-06-18,5.120000,5.240000,5.080000,5.200000,5.200000,7100
2018-06-19,5.100000,5.290000,5.050000,5.240000,5.240000,20900
2018-06-20,5.270000,5.300000,5.200000,5.270000,5.270000,9300
2018-06-21,5.290000,5.290000,5.100000,5.170000,5.170000,18700
2018-06-22,5.140000,5.315000,5.120000,5.190000,5.190000,33600
2018-06-25,5.220000,5.220000,5.000000,5.050000,5.050000,23000
2018-06-26,5.010000,5.040000,4.880000,4.880000,4.880000,66500
2018-06-27,4.880000,4.970000,4.830000,4.870000,4.870000,33800
2018-06-28,4.870000,4.900000,4.850000,4.870000,4.870000,44500
2018-06-29,4.910000,4.930000,4.860000,4.900000,4.900000,49900
2018-07-02,4.860000,4.920000,4.825000,4.830000,4.830000,12500
2018-07-03,4.831000,4.890000,4.830000,4.840000,4.840000,7100
2018-07-05,4.830000,4.900000,4.790000,4.890000,4.890000,10000
2018-07-06,4.830000,4.960000,4.799000,4.880000,4.880000,26500
2018-07-09,4.980000,5.040000,4.894000,5.030000,5.030000,25400
2018-07-10,5.020000,5.020000,4.900000,4.970000,4.970000,15900
2018-07-11,4.980000,5.070000,4.920000,4.990000,4.990000,15000
2018-07-12,4.960000,5.110000,4.960000,5.100000,5.100000,5900
2018-07-13,5.100000,5.100000,5.000000,5.040000,5.040000,3400
2018-07-16,5.129000,5.250000,5.010000,5.220000,5.220000,23600
2018-07-17,5.200000,5.230000,5.190000,5.190000,5.190000,4300
2018-07-18,5.180000,5.180000,5.130000,5.150000,5.150000,2300
2018-07-19,5.150000,5.220000,5.120000,5.120000,5.120000,3400
2018-07-20,5.060000,5.180000,5.030000,5.080000,5.080000,1900
2018-07-23,5.010000,5.010000,4.810000,5.010000,5.010000,6600
2018-07-24,4.900000,4.940000,4.840000,4.920000,4.920000,7600
2018-07-25,4.920000,4.920000,4.910000,4.910000,4.910000,1100
2018-07-26,4.870000,4.870000,4.760000,4.840000,4.840000,8800
2018-07-27,4.840000,5.230000,4.820000,5.220000,5.220000,44700
2018-07-30,5.190000,5.240000,5.170000,5.170000,5.170000,1300
2018-07-31,5.100000,5.100000,5.030000,5.080000,5.080000,6200
2018-08-01,5.100000,5.180000,5.085000,5.180000,5.180000,2900
2018-08-02,5.160000,5.270000,5.090000,5.140000,5.140000,5100
2018-08-03,4.500000,4.800000,4.340000,4.790000,4.790000,77300
2018-08-06,4.780000,4.800000,4.600000,4.790000,4.790000,22000
2018-08-07,4.750000,4.820000,4.690000,4.730000,4.730000,13400
2018-08-08,4.700000,4.830000,4.700000,4.810000,4.810000,8300
2018-08-09,4.775000,4.870000,4.704000,4.840000,4.840000,82600
2018-08-10,4.900000,5.050000,4.770000,5.050000,5.050000,35800
2018-08-13,5.000000,5.100000,4.915000,5.040000,5.040000,40400
2018-08-14,5.010000,5.050000,4.875000,4.900000,4.900000,39000
2018-08-15,4.930000,5.000000,4.660000,4.760000,4.760000,32200
2018-08-16,4.800000,4.840000,4.780000,4.800000,4.800000,5000
2018-08-17,4.790000,4.880000,4.790000,4.790000,4.790000,21600
2018-08-20,4.820000,4.880000,4.690000,4.820000,4.820000,21000
2018-08-21,4.820000,4.940000,4.810000,4.810000,4.810000,9300
2018-08-22,4.765000,4.910000,4.765000,4.910000,4.910000,900
2018-08-23,4.870000,4.927000,4.810000,4.870000,4.870000,2800
2018-08-24,4.880000,4.880000,4.630000,4.790000,4.790000,42800
2018-08-27,4.750000,4.880000,4.750000,4.820000,4.820000,16800
2018-08-28,4.880000,4.880000,4.870000,4.880000,4.880000,4100
2018-08-29,4.880000,4.880000,4.760000,4.820000,4.820000,1900
2018-08-30,4.790000,4.870000,4.720000,4.870000,4.870000,2400
2018-08-31,4.830000,4.880000,4.820000,4.840000,4.840000,1900
2018-09-04,4.810000,4.810000,4.660000,4.660000,4.660000,5100
2018-09-05,4.650000,4.750000,4.610000,4.750000,4.750000,2700
2018-09-06,4.760000,4.850000,4.600000,4.850000,4.850000,5400
2018-09-07,4.810000,4.840000,4.661000,4.840000,4.840000,10500
2018-09-10,4.810000,4.840000,4.684000,4.840000,4.840000,2800
2018-09-11,4.800000,4.840000,4.760000,4.820000,4.820000,6600
2018-09-12,4.820000,4.840000,4.793000,4.830000,4.830000,2400
2018-09-13,4.770000,4.840000,4.770000,4.840000,4.840000,10200
2018-09-14,4.810000,4.890000,4.770000,4.830000,4.830000,7300
2018-09-17,4.770000,4.880000,4.770000,4.780000,4.780000,6600
2018-09-18,4.800000,4.870000,4.770000,4.870000,4.870000,2200
2018-09-19,4.830000,4.880000,4.790000,4.830000,4.830000,7100
2018-09-20,4.800000,4.800000,4.760000,4.760000,4.760000,7200
2018-09-21,4.780000,4.780000,4.360000,4.450000,4.450000,120900
2018-09-24,4.450000,4.505000,4.350000,4.380000,4.380000,2900
2018-09-25,4.310000,4.500000,4.000000,4.400000,4.400000,926100
2018-09-26,4.480000,4.580000,4.220000,4.290000,4.290000,54000
2018-09-27,4.250000,4.550000,4.225000,4.550000,4.550000,19300
2018-09-28,4.560000,4.650000,4.330000,4.570000,4.570000,34500
2018-10-01,4.700000,4.770000,4.600000,4.650000,4.650000,16600
2018-10-02,4.680000,4.770000,4.539000,4.750000,4.750000,67400
2018-10-03,4.770000,4.770000,4.620000,4.650000,4.650000,45000
2018-10-04,4.610000,4.640000,4.600000,4.610000,4.610000,29800
2018-10-05,4.600000,4.600000,4.460000,4.540000,4.540000,8200
2018-10-08,4.550000,4.550000,4.240000,4.290000,4.290000,6200
2018-10-09,4.300000,4.410000,4.170000,4.190000,4.190000,9300
2018-10-10,4.170000,4.270000,4.137000,4.180000,4.180000,20800
2018-10-11,4.200000,4.220000,3.930000,3.980000,3.980000,31400
2018-10-12,3.960000,4.000000,3.940000,3.970000,3.970000,8500
2018-10-15,4.010000,4.010000,3.820000,3.820000,3.820000,9600
2018-10-16,3.810000,3.910000,3.700000,3.805000,3.805000,808400
2018-10-17,3.779000,3.779000,3.540000,3.670000,3.670000,41000
2018-10-18,3.640000,3.640000,3.510000,3.580000,3.580000,40000
2018-10-19,3.600000,3.800000,3.510000,3.650000,3.650000,26200
2018-10-22,3.590000,3.670000,3.580000,3.600000,3.600000,1000
2018-10-23,3.560000,3.640000,3.560000,3.640000,3.640000,6600
2018-10-24,3.620000,3.710000,3.540000,3.690000,3.690000,12900
2018-10-25,3.700000,3.970000,3.700000,3.900000,3.900000,10500
2018-10-26,3.870000,3.920000,3.800000,3.860000,3.860000,48900
2018-10-29,3.830000,4.010000,3.783000,4.010000,4.010000,108100
2018-10-30,3.990000,4.080000,3.910000,3.910000,3.910000,4700
2018-10-31,3.890000,4.000000,3.580000,3.580000,3.580000,53000
2018-11-01,3.610000,3.800000,3.610000,3.800000,3.800000,2800
2018-11-02,3.800000,4.005000,3.800000,3.950000,3.950000,43700
2018-11-05,3.920000,3.990000,3.920000,3.940000,3.940000,15000
2018-11-06,3.960000,3.970000,3.930000,3.960000,3.960000,6200
2018-11-07,3.960000,4.010000,3.930000,4.000000,4.000000,30800
2018-11-08,3.949000,4.070000,3.949000,4.010000,4.010000,20400
2018-11-09,4.020000,4.030000,4.010000,4.020000,4.020000,9900
2018-11-12,4.000000,4.000000,3.940000,3.990000,3.990000,10800
2018-11-13,3.920000,3.970000,3.830000,3.830000,3.830000,20700
2018-11-14,3.830000,3.950000,3.580000,3.580000,3.580000,16200
2018-11-15,3.590000,3.619000,3.480000,3.500000,3.500000,53800
2018-11-16,3.543000,3.560000,3.470000,3.470000,3.470000,2300
2018-11-19,3.430000,3.520000,3.305000,3.450000,3.450000,21800
2018-11-20,3.480000,3.480000,3.170000,3.170000,3.170000,5900
2018-11-21,3.200000,3.320000,3.130000,3.250000,3.250000,37600
2018-11-23,3.210000,3.330000,3.200000,3.200000,3.200000,5400
2018-11-26,3.200000,3.370000,3.200000,3.200000,3.200000,21700
2018-11-27,3.200000,3.320000,3.140000,3.270000,3.270000,10900
2018-11-28,3.300000,3.384000,3.250000,3.380000,3.380000,120200
2018-11-29,3.350000,3.370000,3.320000,3.340000,3.340000,4600
2018-11-30,3.300000,3.400000,3.300000,3.360000,3.360000,137300
2018-12-03,3.286000,3.390000,3.060000,3.150000,3.150000,23000
2018-12-04,3.120000,3.120000,2.700000,2.700000,2.700000,128700
2018-12-06,2.750000,2.763000,2.720000,2.760000,2.760000,15500
2018-12-07,2.760000,2.880000,2.658000,2.860000,2.860000,106500
2018-12-10,2.860000,2.860000,2.700000,2.730000,2.730000,15800
2018-12-11,2.760000,2.760000,2.620000,2.680000,2.680000,9000
2018-12-12,2.700000,2.700000,2.530000,2.610000,2.610000,314500
2018-12-13,2.630000,2.690000,2.580000,2.600000,2.600000,16500
2018-12-14,2.680000,2.680000,2.500000,2.500000,2.500000,21700
2018-12-17,2.500000,2.600000,2.450000,2.550000,2.550000,475000
2018-12-18,2.520000,2.550000,2.300000,2.310000,2.310000,16200
2018-12-19,2.300000,2.400000,2.220000,2.250000,2.250000,49300
2018-12-20,2.220000,2.295000,1.950000,1.980000,1.980000,74100
2018-12-21,1.970000,2.030000,1.780000,1.960000,1.960000,89100
2018-12-24,1.930000,1.990000,1.880000,1.900000,1.900000,17700
2018-12-26,1.890000,1.939000,1.610000,1.610000,1.610000,68100
2018-12-27,1.600000,1.800000,1.600000,1.730000,1.730000,738800
2018-12-28,1.730000,2.460000,1.720000,2.170000,2.170000,290500
2018-12-31,2.050000,2.240000,1.910000,2.130000,2.130000,156100
2019-01-02,2.130000,2.220000,2.130000,2.220000,2.220000,24600
2019-01-03,2.200000,2.300000,2.190000,2.255000,2.255000,14900
2019-01-04,2.250000,2.410000,2.200000,2.410000,2.410000,59500
2019-01-07,2.400000,2.540000,2.400000,2.500000,2.500000,21100
2019-01-08,2.500000,2.610000,2.500000,2.540000,2.540000,14900
2019-01-09,2.540000,2.600000,2.500000,2.550000,2.550000,65000
2019-01-10,2.550000,2.590000,2.460000,2.460000,2.460000,16300
2019-01-11,2.570000,2.570000,2.470000,2.470000,2.470000,5300
2019-01-14,2.460000,2.460000,2.400000,2.400000,2.400000,5400
2019-01-15,2.420000,2.490000,2.400000,2.450000,2.450000,30400
2019-01-16,2.500000,3.000000,2.500000,2.750000,2.750000,456600
2019-01-17,2.770000,2.880000,2.670000,2.730000,2.730000,45500
2019-01-18,2.760000,2.760000,2.736000,2.740000,2.740000,32900
2019-01-22,2.790000,2.820000,2.720000,2.750000,2.750000,14400
2019-01-23,2.780000,2.780000,2.582000,2.700000,2.700000,43100
2019-01-24,2.680000,2.820000,2.662000,2.710000,2.710000,21400
2019-01-25,2.722000,2.880000,2.710000,2.750000,2.750000,8600
2019-01-28,2.770000,2.770000,2.680000,2.740000,2.740000,23200
2019-01-29,2.720000,2.770000,2.645000,2.730000,2.730000,23300
2019-01-30,2.717000,2.800000,2.660000,2.660000,2.660000,153200
2019-01-31,2.740000,2.750000,2.690000,2.720000,2.720000,68300
2019-02-01,2.750000,2.880000,2.700000,2.740000,2.740000,80100
2019-02-04,2.748000,2.840000,2.670000,2.670000,2.670000,101400
2019-02-05,2.786000,2.800000,2.710000,2.790000,2.790000,478000
2019-02-06,2.880000,3.370000,2.880000,3.300000,3.300000,37400
2019-02-07,3.330000,3.390000,3.240000,3.290000,3.290000,30200
2019-02-08,3.320000,3.360000,3.230000,3.250000,3.250000,47100
2019-02-11,3.210000,3.340000,3.082000,3.300000,3.300000,40400
2019-02-12,3.300000,3.400000,3.260000,3.380000,3.380000,34400
2019-02-13,3.390000,3.470000,3.230000,3.300000,3.300000,13800
2019-02-14,3.330000,3.390000,3.215000,3.330000,3.330000,44400
2019-02-15,3.300000,3.550000,3.276000,3.520000,3.520000,49200
2019-02-19,3.520000,3.530000,3.370000,3.520000,3.520000,59500
2019-02-20,3.500000,3.570000,3.465000,3.540000,3.540000,43300
2019-02-21,3.560000,3.650000,3.500000,3.600000,3.600000,78400
2019-02-22,3.200000,3.670000,3.060000,3.630000,3.630000,329200
2019-02-25,3.640000,3.740000,3.580000,3.710000,3.710000,66400
2019-02-26,3.690000,3.760000,3.639000,3.720000,3.720000,88600
2019-02-27,3.700000,3.782000,3.630000,3.630000,3.630000,26700
2019-02-28,3.620000,3.685000,3.460000,3.460000,3.460000,19400
2019-03-01,3.490000,3.580000,3.370000,3.520000,3.520000,91200
2019-03-04,3.560000,3.560000,3.300000,3.320000,3.320000,51000
2019-03-05,3.290000,3.480000,3.250000,3.300000,3.300000,19100
2019-03-06,3.290000,3.340000,3.270000,3.300000,3.300000,13600
2019-03-07,3.270000,3.288000,3.210000,3.210000,3.210000,41000
2019-03-08,3.210000,3.210000,3.093000,3.150000,3.150000,14000
2019-03-11,3.110000,3.220000,3.070000,3.140000,3.140000,9900
2019-03-12,3.150000,3.180000,2.980000,2.980000,2.980000,38100
2019-03-13,3.790000,3.790000,2.990000,3.100000,3.100000,330000
2019-03-14,3.070000,3.120000,2.970000,3.100000,3.100000,26400
2019-03-15,3.090000,3.150000,3.010000,3.120000,3.120000,73600
2019-03-18,3.140000,3.150000,3.020000,3.120000,3.120000,36700
2019-03-19,3.150000,3.164000,3.030000,3.030000,3.030000,9400
2019-03-20,3.030000,3.050000,2.950000,3.030000,3.030000,16500
2019-03-21,3.020000,3.070000,2.950000,2.960000,2.960000,114000
2019-03-22,2.950000,3.010000,2.830000,2.860000,2.860000,22200
2019-03-25,2.810000,2.839000,2.650000,2.720000,2.720000,29600
2019-03-26,2.750000,2.765000,2.660000,2.680000,2.680000,39300
2019-03-27,2.690000,2.770000,2.580000,2.605000,2.605000,46100
2019-03-28,2.650000,2.720000,2.520000,2.560000,2.560000,9900
2019-03-29,2.590000,2.680000,2.470000,2.550000,2.550000,32100
2019-04-01,2.540000,2.610000,2.500000,2.500000,2.500000,76700
2019-04-02,2.500000,2.540000,2.480000,2.510000,2.510000,24000
2019-04-03,2.500000,2.560000,2.420000,2.500000,2.500000,36600
2019-04-04,2.470000,2.541000,2.450000,2.500000,2.500000,15000
2019-04-05,2.550000,2.840000,2.508000,2.810000,2.810000,170300
2019-04-08,2.840000,2.930000,2.790000,2.920000,2.920000,25300
2019-04-09,2.920000,2.920000,2.801000,2.870000,2.870000,16100
2019-04-10,2.860000,3.000000,2.860000,2.930000,2.930000,19300
2019-04-11,2.970000,3.000000,2.930000,2.970000,2.970000,25800
2019-04-12,2.950000,3.000000,2.930000,2.950000,2.950000,32500
2019-04-15,2.920000,3.000000,2.920000,2.970000,2.970000,8200
2019-04-16,2.960000,3.000000,2.920000,2.940000,2.940000,61100
2019-04-17,2.980000,3.150000,2.980000,3.130000,3.130000,15600
2019-04-18,3.140000,3.250000,3.123000,3.240000,3.240000,42900
2019-04-22,3.260000,3.260000,3.030000,3.210000,3.210000,111800
2019-04-23,3.240000,3.320000,3.130000,3.180000,3.180000,10200
2019-04-24,3.150000,3.230000,3.130000,3.160000,3.160000,4900
2019-04-25,3.260000,3.740000,3.250000,3.620000,3.620000,173900
2019-04-26,3.650000,3.750000,3.588000,3.750000,3.750000,41200
2019-04-29,3.760000,4.140000,3.716000,4.010000,4.010000,27200
2019-04-30,4.000000,4.120000,3.970000,4.090000,4.090000,74700
2019-05-01,4.090000,4.230000,4.000000,4.200000,4.200000,29200
2019-05-02,4.230000,4.360000,4.150000,4.350000,4.350000,34200
2019-05-03,4.400000,4.830000,4.320000,4.450000,4.450000,108500
2019-05-06,4.390000,4.830000,4.300000,4.600000,4.600000,120200
2019-05-07,4.550000,4.710000,4.530000,4.590000,4.590000,23900
2019-05-08,4.590000,4.710000,4.590000,4.700000,4.700000,28600
2019-05-09,4.650000,4.730000,4.450000,4.700000,4.700000,243400
2019-05-10,4.690000,4.740000,4.560000,4.650000,4.650000,54200
2019-05-13,4.400000,4.840000,4.400000,4.700000,4.700000,110600
2019-05-14,4.660000,4.970000,4.630000,4.930000,4.930000,133800
2019-05-15,4.790000,4.970000,4.790000,4.920000,4.920000,33000
2019-05-16,4.870000,5.090000,4.840000,5.040000,5.040000,36200
2019-05-17,4.910000,5.140000,4.910000,4.940000,4.940000,40600
2019-05-20,5.000000,5.000000,4.825000,4.970000,4.970000,26100
2019-05-21,4.990000,5.030000,4.900000,4.960000,4.960000,24900
2019-05-22,4.930000,5.090000,4.880000,5.000000,5.000000,90400
2019-05-23,4.950000,5.080000,4.560000,4.760000,4.760000,42000
2019-05-24,4.700000,4.890000,4.640000,4.790000,4.790000,17200
2019-05-28,4.790000,4.790000,4.640000,4.780000,4.780000,17400
2019-05-29,4.700000,5.000000,4.653000,4.930000,4.930000,11300
2019-05-30,4.960000,5.150000,4.849000,4.920000,4.920000,13100
2019-05-31,4.860000,5.160000,4.776000,4.900000,4.900000,28800
2019-06-03,5.000000,5.120000,4.950000,5.100000,5.100000,13700
2019-06-04,5.100000,5.150000,5.022000,5.150000,5.150000,17700
2019-06-05,5.150000,5.150000,5.050000,5.050000,5.050000,5000
2019-06-06,5.030000,5.130000,4.780000,4.960000,4.960000,471900
2019-06-07,4.920000,5.030000,4.680000,4.930000,4.930000,40400
2019-06-10,4.930000,5.110000,4.910000,5.000000,5.000000,9600
2019-06-11,5.200000,5.200000,4.970000,5.150000,5.150000,29600
2019-06-12,5.090000,5.350000,4.980000,5.350000,5.350000,85000
2019-06-13,5.350000,6.250000,5.350000,6.250000,6.250000,575000
2019-06-14,6.200000,6.400000,5.810000,5.990000,5.990000,114800
2019-06-17,6.040000,6.350000,6.033000,6.120000,6.120000,65500
2019-06-18,6.080000,6.100000,5.700000,6.020000,6.020000,75400
2019-06-19,5.990000,6.170000,5.730000,6.080000,6.080000,24300
2019-06-20,6.100000,6.160000,5.970000,6.080000,6.080000,17100
2019-06-21,6.040000,6.500000,5.799000,6.400000,6.400000,148100
2019-06-24,6.350000,6.370000,6.120000,6.370000,6.370000,95900
2019-06-25,6.310000,6.310000,6.170000,6.280000,6.280000,48700
2019-06-26,6.330000,6.470000,6.290000,6.470000,6.470000,321500
2019-06-27,6.520000,6.740000,6.430000,6.580000,6.580000,59900
2019-06-28,6.590000,7.150000,6.590000,7.130000,7.130000,236100
2019-07-01,7.350000,7.500000,6.800000,7.000000,7.000000,76100
2019-07-02,6.960000,6.980000,6.720000,6.850000,6.850000,16200
2019-07-03,6.840000,7.000000,6.300000,6.950000,6.950000,49700
2019-07-05,6.960000,6.980000,6.700000,6.940000,6.940000,17000
2019-07-08,6.930000,6.930000,6.220000,6.540000,6.540000,79400
2019-07-09,6.480000,6.761000,6.480000,6.600000,6.600000,64700
2019-07-10,6.600000,6.740000,6.440000,6.570000,6.570000,16900
2019-07-11,6.520000,6.590000,6.280000,6.370000,6.370000,32600
2019-07-12,6.300000,6.680000,6.300000,6.460000,6.460000,31700
2019-07-15,6.420000,6.630000,6.420000,6.580000,6.580000,9200
2019-07-16,6.580000,6.660000,6.313000,6.640000,6.640000,19600
2019-07-17,6.590000,6.590000,6.432000,6.540000,6.540000,2400
2019-07-18,6.540000,6.540000,6.290000,6.400000,6.400000,9300
2019-07-19,6.380000,6.480000,6.360000,6.390000,6.390000,6100
2019-07-22,6.870000,6.930000,6.710000,6.830000,6.830000,36500
2019-07-23,6.860000,6.990000,6.860000,6.980000,6.980000,36900
2019-07-24,6.980000,7.000000,6.860000,6.948000,6.948000,42900
2019-07-25,6.900000,6.930000,6.701000,6.760000,6.760000,10300
2019-07-26,6.700000,6.950000,6.660000,6.810000,6.810000,29200
2019-07-29,6.750000,6.875000,6.330000,6.400000,6.400000,30500
2019-07-30,6.360000,6.560000,6.340000,6.430000,6.430000,21900
2019-07-31,6.380000,6.810000,6.350000,6.600000,6.600000,61500
2019-08-01,6.650000,6.790000,5.890000,6.180000,6.180000,83300
2019-08-02,6.320000,6.450000,6.000000,6.270000,6.270000,53400
2019-08-05,6.130000,6.349000,6.100000,6.200000,6.200000,22400
2019-08-06,6.280000,6.560000,6.220000,6.470000,6.470000,45000
2019-08-07,6.450000,6.670000,6.255000,6.415000,6.415000,24700
2019-08-08,6.480000,6.590000,6.420000,6.440000,6.440000,18400
2019-08-09,6.460000,6.740000,6.365000,6.580000,6.580000,67700
2019-08-12,6.600000,6.680000,6.510000,6.660000,6.660000,18000
2019-08-13,6.600000,6.750000,6.400000,6.750000,6.750000,46100
2019-08-14,6.600000,6.600000,6.370000,6.370000,6.370000,7200
2019-08-15,6.420000,6.558000,6.120000,6.220000,6.220000,14600
2019-08-16,6.240000,6.461000,6.180000,6.400000,6.400000,33300
2019-08-19,6.410000,6.470000,6.220000,6.370000,6.370000,18700
2019-08-20,6.370000,6.410000,6.230000,6.350000,6.350000,6200
2019-08-21,6.350000,6.460000,6.340000,6.460000,6.460000,20200
2019-08-22,6.420000,6.630000,6.420000,6.620000,6.620000,19100
2019-08-23,6.530000,6.570000,6.340000,6.340000,6.340000,17900
2019-08-26,6.330000,6.360000,6.230000,6.230000,6.230000,1700
2019-08-27,6.230000,6.310000,5.890000,6.030000,6.030000,82300
2019-08-28,6.020000,6.250000,6.020000,6.140000,6.140000,4100
2019-08-29,6.200000,6.360000,6.130000,6.200000,6.200000,6600
2019-08-30,6.200000,6.385000,6.000000,6.040000,6.040000,7900
2019-09-03,6.010000,6.010000,5.910000,6.000000,6.000000,12300
2019-09-04,6.050000,6.220000,5.950000,6.110000,6.110000,20100
2019-09-05,6.160000,6.270000,5.780000,5.900000,5.900000,103000
2019-09-06,5.900000,6.105000,5.780000,5.870000,5.870000,20900
2019-09-09,5.900000,6.020000,5.850000,5.950000,5.950000,4300
2019-09-10,6.010000,6.040000,5.530000,5.970000,5.970000,25800
2019-09-11,5.960000,6.140000,5.745000,6.010000,6.010000,25100
2019-09-12,5.960000,5.964000,5.820000,5.960000,5.960000,11700
2019-09-13,5.930000,6.080000,5.760000,5.970000,5.970000,5300
2019-09-16,5.930000,6.285000,5.900000,5.910000,5.910000,101800
2019-09-17,5.860000,6.215000,5.780000,6.140000,6.140000,18800
2019-09-18,6.120000,6.330000,6.100000,6.120000,6.120000,18800
2019-09-19,6.120000,6.300000,5.950000,6.200000,6.200000,14700
2019-09-20,6.130000,6.336000,6.130000,6.270000,6.270000,42200
2019-09-23,6.200000,6.300000,6.170000,6.210000,6.210000,22600
2019-09-24,6.150000,6.180000,5.920000,6.050000,6.050000,58000
2019-09-25,6.000000,6.140000,5.850000,6.120000,6.120000,22900
2019-09-26,6.130000,6.130000,5.920000,6.050000,6.050000,30300
2019-09-27,5.980000,6.180000,5.920000,5.950000,5.950000,7500
2019-09-30,5.880000,6.040000,5.810000,5.920000,5.920000,25500
2019-10-01,5.920000,6.120000,5.730000,5.770000,5.770000,160400
2019-10-02,5.710000,5.885000,5.580000,5.650000,5.650000,22500
2019-10-03,5.670000,5.970000,5.600000,5.820000,5.820000,26600
2019-10-04,5.870000,5.940000,5.710000,5.910000,5.910000,10100
2019-10-07,5.870000,6.030000,5.740000,5.880000,5.880000,10600
2019-10-08,5.850000,6.040000,5.850000,6.020000,6.020000,900
2019-10-09,6.020000,6.020000,5.880000,5.880000,5.880000,1600
2019-10-10,5.860000,5.945000,5.770000,5.770000,5.770000,5100
2019-10-11,5.760000,6.020000,5.760000,6.020000,6.020000,13500
2019-10-14,5.930000,6.080000,5.930000,6.000000,6.000000,6500
2019-10-15,5.960000,6.050000,5.870000,6.050000,6.050000,8600
2019-10-16,6.170000,6.220000,6.080000,6.130000,6.130000,10000
2019-10-17,6.090000,6.140000,5.850000,6.050000,6.050000,75400
2019-10-18,6.110000,6.230000,6.060000,6.060000,6.060000,8300
2019-10-21,6.040000,6.130000,5.950000,5.960000,5.960000,104300
2019-10-22,5.890000,6.000000,5.610000,5.730000,5.730000,105500
2019-10-23,5.770000,5.937000,5.638000,5.850000,5.850000,25400
2019-10-24,5.830000,5.880000,5.740000,5.880000,5.880000,20300
2019-10-25,5.790000,6.090000,5.650000,6.090000,6.090000,7000
2019-10-28,6.050000,6.140000,5.994000,6.050000,6.050000,111500
2019-10-29,6.070000,6.100000,5.985000,6.000000,6.000000,5600
2019-10-30,5.660000,6.120000,5.660000,5.920000,5.920000,21000
2019-10-31,6.040000,6.040000,5.830000,5.830000,5.830000,51600
2019-11-01,5.980000,6.810000,5.980000,6.700000,6.700000,138200
2019-11-04,6.750000,6.750000,6.620000,6.720000,6.720000,38100
2019-11-05,6.750000,6.750000,6.600000,6.600000,6.600000,17200
2019-11-06,6.620000,6.840000,6.620000,6.680000,6.680000,16700
2019-11-07,6.760000,6.760000,6.510000,6.520000,6.520000,18600
2019-11-08,6.530000,6.660000,6.530000,6.620000,6.620000,4300
2019-11-11,6.600000,6.650000,6.515000,6.550000,6.550000,35400
2019-11-12,6.490000,6.760000,6.300000,6.760000,6.760000,115900
2019-11-13,6.770000,7.460000,6.640000,7.450000,7.450000,197900
2019-11-14,7.490000,7.500000,7.070000,7.360000,7.360000,135500
2019-11-15,7.220000,7.420000,6.750000,7.380000,7.380000,46200
2019-11-18,7.160000,7.360000,6.960000,7.190000,7.190000,18700
2019-11-19,7.000000,7.350000,6.807000,7.330000,7.330000,21500
2019-11-20,7.480000,7.540000,7.130000,7.130000,7.130000,59500
2019-11-21,7.150000,7.370000,7.055000,7.200000,7.200000,15900
2019-11-22,7.293000,7.293000,6.990000,6.990000,6.990000,18500
2019-11-25,7.090000,7.170000,6.940000,7.100000,7.100000,15400
2019-11-26,7.080000,7.090000,6.960000,7.000000,7.000000,22000
2019-11-27,7.000000,7.000000,6.830000,6.930000,6.930000,12800
2019-11-29,6.860000,6.990000,6.750000,6.810000,6.810000,19800
2019-12-02,6.770000,7.080000,6.770000,7.010000,7.010000,11400
2019-12-03,7.080000,7.330000,7.010000,7.280000,7.280000,69000
2019-12-04,7.390000,7.760000,7.210000,7.660000,7.660000,336700
2019-12-05,7.700000,7.980000,7.670000,7.950000,7.950000,60500
2019-12-06,7.940000,8.120000,7.900000,7.930000,7.930000,94700
2019-12-09,7.930000,7.980000,7.720000,7.940000,7.940000,31000
2019-12-10,7.940000,8.000000,7.850000,7.890000,7.890000,8300
2019-12-11,7.750000,7.990000,7.610000,7.950000,7.950000,19000
2019-12-12,7.900000,8.080000,7.892000,7.990000,7.990000,24400
2019-12-13,8.050000,8.100000,7.990000,8.080000,8.080000,45000
2019-12-16,8.150000,8.400000,8.047000,8.130000,8.130000,134000
2019-12-17,8.200000,8.420000,8.150000,8.390000,8.390000,60200
2019-12-18,8.360000,8.510000,8.230000,8.290000,8.290000,38600
2019-12-19,8.300000,8.400000,8.170000,8.260000,8.260000,19200
2019-12-20,8.370000,8.370000,8.160000,8.310000,8.310000,42100
2019-12-23,8.370000,8.370000,8.220000,8.290000,8.290000,39000
2019-12-24,8.360000,8.360000,8.099000,8.280000,8.280000,9500
2019-12-26,8.210000,8.300000,7.650000,7.790000,7.790000,37300
2019-12-27,7.890000,7.890000,7.594000,7.740000,7.740000,39200
2019-12-30,7.750000,7.820000,7.670000,7.790000,7.790000,21100
2019-12-31,7.860000,7.875000,7.650000,7.760000,7.760000,20600
2020-01-02,7.760000,7.847000,7.580000,7.700000,7.700000,45000
2020-01-03,7.560000,7.760000,7.490000,7.530000,7.530000,30600
2020-01-06,7.510000,7.740000,7.510000,7.610000,7.610000,28800
2020-01-07,7.500000,7.810000,7.390000,7.670000,7.670000,41900
2020-01-08,7.580000,8.050000,7.580000,7.990000,7.990000,36100
2020-01-09,8.010000,8.075000,7.870000,8.050000,8.050000,18200
2020-01-10,8.050000,8.790000,7.970000,8.720000,8.720000,44900
2020-01-13,8.880000,9.585000,8.772000,9.440000,9.440000,174800
2020-01-14,9.450000,9.710000,9.235000,9.580000,9.580000,58700
2020-01-15,9.450000,9.850000,9.423000,9.740000,9.740000,105300
2020-01-16,9.700000,9.980000,9.700000,9.930000,9.930000,70300
2020-01-17,9.890000,10.230000,9.789000,9.980000,9.980000,74800
2020-01-21,10.000000,10.080000,9.620000,9.970000,9.970000,90700
2020-01-22,10.000000,10.450000,9.980000,10.330000,10.330000,101300
2020-01-23,10.400000,10.710000,10.270000,10.270000,10.270000,124200
2020-01-24,10.340000,10.420000,9.478000,10.100000,10.100000,54200
2020-01-27,10.100000,10.100000,9.610000,9.870000,9.870000,40200
2020-01-28,10.120000,10.270000,8.710000,8.710000,8.710000,338700
2020-01-29,8.680000,8.810000,8.200000,8.630000,8.630000,128900
2020-01-30,8.550000,8.590000,8.330000,8.340000,8.340000,54600
2020-01-31,8.280000,8.430000,7.780000,8.270000,8.270000,118100
2020-02-03,8.340000,8.890000,8.340000,8.850000,8.850000,168100
2020-02-04,9.130000,9.323000,9.050000,9.300000,9.300000,119800
2020-02-05,9.320000,9.565000,9.080000,9.330000,9.330000,111100
2020-02-06,9.270000,9.390000,9.260000,9.380000,9.380000,38200
2020-02-07,9.300000,9.450000,8.513000,9.360000,9.360000,75100
2020-02-10,9.280000,9.377000,9.100000,9.250000,9.250000,69600
2020-02-11,9.240000,9.400000,9.028000,9.370000,9.370000,46700
2020-02-12,9.410000,10.130000,9.310000,10.010000,10.010000,64600
2020-02-13,8.900000,9.700000,8.900000,9.600000,9.600000,327500