Date,Open,High,Low,Close,Adj Close,Volume
2015-07-23,14.000000,15.980000,14.000000,14.750000,14.750000,555200
2015-07-24,14.800000,14.800000,13.500000,14.410000,14.410000,22100
2015-07-27,14.410000,14.410000,14.410000,14.410000,14.410000,0
2015-07-28,14.410000,14.410000,14.410000,14.410000,14.410000,0
2015-07-29,13.650000,14.250000,13.610000,13.610000,13.610000,15500
2015-07-30,13.510000,13.620000,13.350000,13.510000,13.510000,25200
2015-07-31,13.750000,14.370000,13.120000,14.350000,14.350000,516100
2015-08-03,14.250000,14.250000,12.500000,13.190000,13.190000,1689300
2015-08-04,12.850000,13.380000,12.800000,12.940000,12.940000,983000
2015-08-05,13.120000,13.220000,12.790000,13.130000,13.130000,827500
2015-08-06,13.370000,13.600000,12.570000,12.590000,12.590000,1308500
2015-08-07,12.590000,13.130000,11.750000,11.800000,11.800000,999700
2015-08-10,11.810000,12.915000,11.810000,12.710000,12.710000,2369000
2015-08-11,12.700000,13.390000,12.430000,13.180000,13.180000,983300
2015-08-12,13.130000,13.160000,12.630000,12.880000,12.880000,729300
2015-08-13,12.720000,13.010000,12.690000,12.950000,12.950000,567600
2015-08-14,13.020000,13.840000,13.000000,13.730000,13.730000,1684700
2015-08-17,13.770000,14.420000,13.560000,14.090000,14.090000,630100
2015-08-18,13.860000,14.090000,13.220000,13.360000,13.360000,494300
2015-08-19,12.430000,13.510000,12.320000,13.110000,13.110000,236900
2015-08-20,12.850000,13.030000,12.580000,12.670000,12.670000,374900
2015-08-21,12.260000,13.000000,11.870000,12.870000,12.870000,608500
2015-08-24,12.000000,12.830000,12.000000,12.560000,12.560000,749900
2015-08-25,12.890000,12.890000,12.150000,12.170000,12.170000,434700
2015-08-26,12.370000,12.500000,12.100000,12.170000,12.170000,416500
2015-08-27,12.200000,12.480000,12.130000,12.410000,12.410000,268800
2015-08-28,12.350000,13.130000,12.170000,12.860000,12.860000,328500
2015-08-31,12.960000,13.250000,12.800000,12.900000,12.900000,400300
2015-09-01,12.710000,13.160000,12.680000,13.030000,13.030000,255300
2015-09-02,13.270000,14.000000,12.930000,13.310000,13.310000,521500
2015-09-03,13.420000,13.600000,12.910000,13.300000,13.300000,424800
2015-09-04,13.020000,13.820000,13.020000,13.450000,13.450000,366000
2015-09-08,13.450000,13.890000,13.230000,13.260000,13.260000,561400
2015-09-09,14.190000,14.610000,12.810000,12.950000,12.950000,945000
2015-09-10,12.960000,13.030000,12.640000,12.940000,12.940000,283700
2015-09-11,12.950000,12.950000,12.600000,12.740000,12.740000,364200
2015-09-14,12.740000,13.620000,12.670000,13.600000,13.600000,465500
2015-09-15,13.520000,13.600000,13.115000,13.290000,13.290000,366500
2015-09-16,13.250000,13.250000,12.900000,13.020000,13.020000,300600
2015-09-17,12.930000,13.030000,12.620000,12.920000,12.920000,243700
2015-09-18,12.780000,13.140000,12.600000,12.870000,12.870000,1607400
2015-09-21,12.990000,12.990000,12.630000,12.710000,12.710000,311900
2015-09-22,12.650000,12.770000,12.560000,12.650000,12.650000,156700
2015-09-23,12.700000,12.700000,12.500000,12.550000,12.550000,154300
2015-09-24,12.540000,13.340000,12.530000,13.280000,13.280000,195600
2015-09-25,13.290000,13.440000,13.040000,13.370000,13.370000,222000
2015-09-28,13.290000,13.290000,12.592000,12.710000,12.710000,555700
2015-09-29,12.680000,13.040000,12.620000,12.760000,12.760000,400000
2015-09-30,12.840000,12.958000,12.680000,12.710000,12.710000,312600
2015-10-01,12.790000,12.990000,12.420000,12.430000,12.430000,402000
2015-10-02,12.400000,12.680000,12.320000,12.680000,12.680000,300800
2015-10-05,12.740000,12.920000,12.570000,12.610000,12.610000,193400
2015-10-06,12.670000,12.905000,12.460000,12.520000,12.520000,219000
2015-10-07,12.480000,12.900000,12.250000,12.690000,12.690000,430600
2015-10-08,12.410000,12.610000,12.320000,12.610000,12.610000,233300
2015-10-09,12.600000,12.600000,12.360000,12.420000,12.420000,251600
2015-10-12,12.450000,12.690000,12.230000,12.610000,12.610000,182300
2015-10-13,12.500000,12.720000,12.400000,12.450000,12.450000,259200
2015-10-14,12.430000,12.640000,12.300000,12.400000,12.400000,245100
2015-10-15,12.250000,12.650000,12.238000,12.650000,12.650000,223400
2015-10-16,12.720000,12.910000,12.590000,12.860000,12.860000,156200
2015-10-19,12.660000,12.864000,12.420000,12.700000,12.700000,210500
2015-10-20,12.620000,12.620000,12.370000,12.430000,12.430000,240600
2015-10-21,12.430000,12.530000,12.350000,12.440000,12.440000,179300
2015-10-22,12.560000,12.700000,12.410000,12.580000,12.580000,128100
2015-10-23,12.580000,12.640000,12.230000,12.560000,12.560000,251600
2015-10-26,13.470000,13.860000,13.100000,13.240000,13.240000,850800
2015-10-27,13.290000,13.584000,12.800000,12.990000,12.990000,332200
2015-10-28,13.030000,13.630000,12.800000,13.510000,13.510000,454900
2015-10-29,13.420000,14.010000,13.160000,13.970000,13.970000,403200
2015-10-30,13.970000,15.340000,13.855000,14.750000,14.750000,560900
2015-11-02,14.920000,14.920000,14.060000,14.200000,14.200000,301100
2015-11-03,14.200000,14.870000,14.130000,14.330000,14.330000,193700
2015-11-04,14.400000,14.740000,14.360000,14.590000,14.590000,208200
2015-11-05,14.620000,14.745000,14.273000,14.560000,14.560000,131600
2015-11-06,14.430000,14.930000,14.215000,14.930000,14.930000,204900
2015-11-09,14.980000,14.980000,14.360000,14.650000,14.650000,168200
2015-11-10,14.630000,14.725000,14.380000,14.510000,14.510000,144500
2015-11-11,14.570000,14.870000,13.950000,14.110000,14.110000,146500
2015-11-12,13.950000,14.230000,13.690000,13.730000,13.730000,149500
2015-11-13,13.580000,13.860000,13.350000,13.550000,13.550000,197000
2015-11-16,13.630000,14.340000,13.400000,14.200000,14.200000,299200
2015-11-17,14.300000,14.760000,14.060000,14.300000,14.300000,249700
2015-11-18,14.380000,14.640000,14.235000,14.550000,14.550000,178300
2015-11-19,14.520000,14.730000,14.300000,14.410000,14.410000,207300
2015-11-20,14.530000,14.900000,14.320000,14.850000,14.850000,175100
2015-11-23,14.880000,14.950000,14.490000,14.930000,14.930000,200900
2015-11-24,14.780000,14.890000,14.420000,14.810000,14.810000,244300
2015-11-25,14.800000,15.260000,14.680000,15.140000,15.140000,257700
2015-11-27,15.130000,15.490000,14.860000,15.270000,15.270000,59500
2015-11-30,15.280000,15.280000,14.170000,14.450000,14.450000,315900
2015-12-01,14.390000,14.640000,14.150000,14.470000,14.470000,125000
2015-12-02,14.490000,15.050000,14.377000,14.720000,14.720000,208900
2015-12-03,14.720000,14.880000,13.840000,14.000000,14.000000,429700
2015-12-04,13.980000,14.190000,12.920000,12.970000,12.970000,657600
2015-12-07,12.860000,13.370000,12.720000,12.800000,12.800000,357100
2015-12-08,10.950000,11.310000,9.110000,9.310000,9.310000,2828700
2015-12-09,9.310000,9.330000,8.150000,8.990000,8.990000,2196500
2015-12-10,8.950000,9.030000,8.600000,8.760000,8.760000,674000
2015-12-11,8.550000,8.720000,8.430000,8.700000,8.700000,1021700
2015-12-14,9.000000,9.300000,8.750000,9.030000,9.030000,983100
2015-12-15,9.050000,9.100000,8.830000,9.020000,9.020000,802800
2015-12-16,9.080000,9.420000,8.960000,9.350000,9.350000,477800
2015-12-17,9.420000,9.670000,9.260000,9.630000,9.630000,429500
2015-12-18,9.710000,10.305000,9.680000,10.020000,10.020000,1798800
2015-12-21,10.100000,10.100000,9.660000,9.760000,9.760000,345400
2015-12-22,9.750000,9.930000,9.648000,9.660000,9.660000,309100
2015-12-23,9.610000,10.000000,9.610000,9.930000,9.930000,227200
2015-12-24,9.930000,10.300000,9.860000,10.160000,10.160000,99900
2015-12-28,10.150000,10.280000,9.910000,10.060000,10.060000,229100
2015-12-29,10.010000,10.130000,9.960000,10.130000,10.130000,177100
2015-12-30,10.090000,10.231000,10.000000,10.100000,10.100000,125900
2015-12-31,10.000000,10.130000,9.920000,9.950000,9.950000,172000
2016-01-04,9.780000,9.820000,9.550000,9.570000,9.570000,506600
2016-01-05,9.660000,9.750000,9.400000,9.620000,9.620000,415500
2016-01-06,9.450000,9.620000,9.440000,9.490000,9.490000,286500
2016-01-07,9.300000,9.500000,9.100000,9.140000,9.140000,386800
2016-01-08,9.220000,9.400000,9.030000,9.030000,9.030000,507800
2016-01-11,9.060000,9.330000,8.840000,8.930000,8.930000,427900
2016-01-12,8.960000,9.210000,8.750000,8.870000,8.870000,601300
2016-01-13,8.870000,9.080000,8.540000,8.730000,8.730000,641400
2016-01-14,8.780000,9.180000,8.770000,9.110000,9.110000,505800
2016-01-15,8.840000,9.300000,8.830000,9.140000,9.140000,522300
2016-01-19,9.220000,10.040000,9.150000,9.350000,9.350000,696800
2016-01-20,9.290000,9.810000,9.280000,9.630000,9.630000,457100
2016-01-21,9.710000,10.320000,9.600000,10.110000,10.110000,302600
2016-01-22,10.240000,10.420000,10.040000,10.360000,10.360000,220700
2016-01-25,10.290000,10.480000,9.910000,9.990000,9.990000,415700
2016-01-26,10.040000,10.110000,9.850000,10.100000,10.100000,334500
2016-01-27,10.120000,10.360000,10.000000,10.140000,10.140000,339400
2016-01-28,10.270000,10.650000,10.150000,10.620000,10.620000,283800
2016-01-29,10.640000,11.030000,10.620000,11.020000,11.020000,407200
2016-02-01,11.080000,11.180000,10.680000,11.000000,11.000000,324300
2016-02-02,10.860000,10.980000,10.620000,10.740000,10.740000,347300
2016-02-03,10.850000,10.850000,9.800000,10.260000,10.260000,344200
2016-02-04,10.250000,10.900000,10.240000,10.730000,10.730000,387200
2016-02-05,10.680000,10.800000,10.380000,10.450000,10.450000,276700
2016-02-08,10.390000,10.400000,10.030000,10.180000,10.180000,486900
2016-02-09,10.140000,10.140000,9.800000,9.980000,9.980000,424300
2016-02-10,10.070000,10.380000,9.990000,10.000000,10.000000,259900
2016-02-11,9.810000,10.010000,9.660000,9.910000,9.910000,171000
2016-02-12,9.940000,10.050000,9.750000,9.950000,9.950000,184800
2016-02-16,10.030000,10.280000,9.780000,10.200000,10.200000,342000
2016-02-17,10.290000,10.490000,10.260000,10.310000,10.310000,266100
2016-02-18,10.290000,10.420000,10.040000,10.380000,10.380000,174000
2016-02-19,10.380000,10.540000,10.070000,10.200000,10.200000,215100
2016-02-22,10.280000,10.700000,10.180000,10.590000,10.590000,349900
2016-02-23,10.520000,10.690000,10.350000,10.350000,10.350000,227000
2016-02-24,10.250000,10.460000,9.960000,10.420000,10.420000,272300
2016-02-25,10.430000,10.460000,10.120000,10.210000,10.210000,186800
2016-02-26,10.280000,10.540000,9.990000,10.400000,10.400000,215800
2016-02-29,10.410000,10.720000,10.340000,10.680000,10.680000,246400
2016-03-01,10.730000,10.990000,10.650000,10.940000,10.940000,218200
2016-03-02,10.870000,11.010000,10.620000,10.730000,10.730000,239100
2016-03-03,10.700000,10.980000,10.505000,10.800000,10.800000,291500
2016-03-04,10.740000,11.000000,10.690000,10.790000,10.790000,205500
2016-03-07,10.820000,11.430000,10.750000,11.390000,11.390000,651300
2016-03-08,11.570000,11.930000,9.640000,9.690000,9.690000,604800
2016-03-09,9.710000,9.950000,9.540000,9.710000,9.710000,470200
2016-03-10,9.770000,9.860000,9.590000,9.770000,9.770000,344900
2016-03-11,9.800000,9.980000,9.750000,9.930000,9.930000,233300
2016-03-14,9.880000,9.990000,9.780000,9.910000,9.910000,125700
2016-03-15,9.860000,9.920000,9.700000,9.770000,9.770000,140800
2016-03-16,9.720000,10.170000,9.720000,10.040000,10.040000,154400
2016-03-17,10.010000,10.030000,9.800000,9.970000,9.970000,182900
2016-03-18,10.020000,10.090000,9.530000,9.740000,9.740000,469900
2016-03-21,9.630000,9.970000,9.630000,9.800000,9.800000,163600
2016-03-22,9.670000,10.070000,9.660000,9.930000,9.930000,126700
2016-03-23,9.840000,9.990000,9.530000,9.550000,9.550000,197400
2016-03-24,9.560000,9.970000,9.560000,9.950000,9.950000,194700
2016-03-28,9.950000,10.000000,9.490000,9.500000,9.500000,211400
2016-03-29,9.500000,9.630000,9.270000,9.630000,9.630000,280100
2016-03-30,9.650000,9.920000,9.550000,9.760000,9.760000,149500
2016-03-31,9.790000,9.885000,9.740000,9.800000,9.800000,148200
2016-04-01,9.700000,9.700000,9.510000,9.580000,9.580000,145600
2016-04-04,9.540000,9.670000,9.370000,9.400000,9.400000,110700
2016-04-05,9.300000,9.450000,9.210000,9.250000,9.250000,209100
2016-04-06,9.220000,9.370000,8.990000,9.260000,9.260000,178700
2016-04-07,9.240000,9.330000,8.900000,8.920000,8.920000,480100
2016-04-08,9.000000,9.000000,8.710000,8.830000,8.830000,220200
2016-04-11,8.840000,9.090000,8.790000,8.810000,8.810000,191600
2016-04-12,8.800000,9.200000,8.710000,8.990000,8.990000,208400
2016-04-13,9.180000,9.650000,9.160000,9.470000,9.470000,352900
2016-04-14,9.460000,9.720000,9.460000,9.620000,9.620000,234500
2016-04-15,9.570000,9.660000,9.340000,9.620000,9.620000,172800
2016-04-18,9.500000,9.840000,9.500000,9.770000,9.770000,167700
2016-04-19,9.670000,9.850000,9.670000,9.770000,9.770000,132400
2016-04-20,9.720000,9.850000,9.700000,9.780000,9.780000,150000
2016-04-21,9.800000,9.990000,9.730000,9.970000,9.970000,167000
2016-04-22,9.920000,10.105000,9.870000,10.100000,10.100000,291100
2016-04-25,10.050000,10.070000,9.630000,9.850000,9.850000,196300
2016-04-26,9.860000,10.110000,9.850000,10.000000,10.000000,130800
2016-04-27,9.980000,10.050000,9.910000,9.990000,9.990000,141600
2016-04-28,9.920000,9.970000,9.585000,9.620000,9.620000,266300
2016-04-29,9.560000,9.730000,9.350000,9.360000,9.360000,191200
2016-05-02,9.360000,9.570000,9.262000,9.530000,9.530000,215900
2016-05-03,9.410000,9.480000,9.250000,9.330000,9.330000,206100
2016-05-04,9.300000,9.360000,9.070000,9.200000,9.200000,158700
2016-05-05,9.300000,9.340000,9.110000,9.190000,9.190000,220000
2016-05-06,9.140000,9.430000,9.140000,9.430000,9.430000,244300
2016-05-09,9.290000,9.700000,9.290000,9.410000,9.410000,315000
2016-05-10,9.420000,9.530000,9.360000,9.440000,9.440000,166500
2016-05-11,9.380000,9.440000,8.760000,8.780000,8.780000,220700
2016-05-12,8.780000,9.000000,8.760000,8.890000,8.890000,125800
2016-05-13,8.820000,9.110000,8.670000,8.860000,8.860000,250800
2016-05-16,8.860000,9.096000,8.780000,8.790000,8.790000,199800
2016-05-17,8.710000,8.940000,8.510000,8.690000,8.690000,291500
2016-05-18,8.630000,8.850000,8.500000,8.570000,8.570000,328700
2016-05-19,8.570000,8.900000,8.570000,8.690000,8.690000,246400
2016-05-20,8.690000,9.074000,8.690000,8.980000,8.980000,166100
2016-05-23,8.950000,9.080000,8.880000,8.950000,8.950000,228400
2016-05-24,9.010000,9.190000,8.970000,9.160000,9.160000,260700
2016-05-25,9.130000,9.420000,9.070000,9.420000,9.420000,197700
2016-05-26,9.400000,9.560000,9.225000,9.260000,9.260000,117200
2016-05-27,9.220000,9.430000,9.160000,9.320000,9.320000,104500
2016-05-31,9.390000,9.650000,9.200000,9.500000,9.500000,212700
2016-06-01,9.450000,9.900000,9.400000,9.900000,9.900000,277700
2016-06-02,9.830000,9.940000,9.730000,9.930000,9.930000,230500
2016-06-03,9.940000,9.940000,9.540000,9.660000,9.660000,182900
2016-06-06,9.650000,9.760000,9.590000,9.710000,9.710000,128700
2016-06-07,9.690000,9.950000,9.340000,9.830000,9.830000,191800
2016-06-08,9.900000,9.929000,9.800000,9.890000,9.890000,176000
2016-06-09,9.830000,9.840000,9.520000,9.710000,9.710000,169100
2016-06-10,9.670000,9.700000,9.490000,9.610000,9.610000,122800
2016-06-13,9.610000,9.790000,9.530000,9.550000,9.550000,165200
2016-06-14,9.480000,9.730000,9.470000,9.520000,9.520000,215700
2016-06-15,9.490000,9.970000,9.460000,9.740000,9.740000,261200
2016-06-16,9.660000,9.730000,9.460000,9.590000,9.590000,346700
2016-06-17,9.620000,9.800000,9.600000,9.720000,9.720000,836200
2016-06-20,9.850000,10.330000,9.850000,10.160000,10.160000,335900
2016-06-21,10.160000,10.210000,10.010000,10.100000,10.100000,141400
2016-06-22,10.090000,10.250000,9.950000,9.980000,9.980000,212600
2016-06-23,10.100000,10.750000,10.060000,10.290000,10.290000,333800
2016-06-24,10.020000,10.160000,9.730000,10.070000,10.070000,1052600
2016-06-27,9.890000,9.945000,9.480000,9.590000,9.590000,242500
2016-06-28,9.700000,9.820000,9.390000,9.420000,9.420000,567900
2016-06-29,9.620000,10.030000,9.562000,9.950000,9.950000,767300
2016-06-30,10.050000,10.150000,9.860000,10.150000,10.150000,534500
2016-07-01,10.210000,10.550000,10.210000,10.510000,10.510000,211900
2016-07-05,10.400000,10.460000,10.090000,10.240000,10.240000,166400
2016-07-06,10.240000,10.520000,10.210000,10.490000,10.490000,270100
2016-07-07,10.550000,10.720000,10.480000,10.530000,10.530000,151000
2016-07-08,10.630000,10.930000,10.630000,10.900000,10.900000,419200
2016-07-11,11.000000,11.285000,11.000000,11.240000,11.240000,363400
2016-07-12,11.320000,11.520000,11.320000,11.450000,11.450000,305400
2016-07-13,11.460000,11.560000,11.270000,11.380000,11.380000,267600
2016-07-14,11.400000,11.680000,11.400000,11.550000,11.550000,273200
2016-07-15,11.600000,11.690000,11.510000,11.640000,11.640000,263600
2016-07-18,11.560000,11.850000,11.560000,11.810000,11.810000,286900
2016-07-19,11.770000,11.880000,11.770000,11.770000,11.770000,174700
2016-07-20,11.780000,11.800000,11.620000,11.660000,11.660000,110500
2016-07-21,11.650000,11.740000,11.470000,11.550000,11.550000,233400
2016-07-22,11.570000,11.660000,11.535000,11.610000,11.610000,87700
2016-07-25,11.570000,11.690000,11.556000,11.620000,11.620000,186300
2016-07-26,11.640000,11.800000,11.620000,11.660000,11.660000,238600
2016-07-27,11.690000,11.730000,11.610000,11.720000,11.720000,143100
2016-07-28,11.680000,11.710000,11.570000,11.580000,11.580000,149100
2016-07-29,11.550000,11.650000,11.440000,11.560000,11.560000,220300
2016-08-01,11.640000,11.720000,11.510000,11.600000,11.600000,139900
2016-08-02,11.640000,11.640000,11.250000,11.330000,11.330000,239100
2016-08-03,11.260000,11.400000,11.100000,11.390000,11.390000,224500
2016-08-04,11.340000,11.380000,11.170000,11.300000,11.300000,203200
2016-08-05,11.410000,11.780000,11.410000,11.640000,11.640000,177600
2016-08-08,11.690000,11.780000,11.650000,11.720000,11.720000,84300
2016-08-09,11.640000,11.890000,11.640000,11.830000,11.830000,117400
2016-08-10,11.810000,12.000000,11.770000,11.800000,11.800000,76200
2016-08-11,11.940000,12.200000,11.940000,11.940000,11.940000,123400
2016-08-12,11.930000,12.110000,11.798000,12.030000,12.030000,79400
2016-08-15,12.020000,12.200000,12.000000,12.030000,12.030000,104800
2016-08-16,11.950000,12.020000,11.840000,11.970000,11.970000,80200
2016-08-17,11.920000,11.920000,11.300000,11.370000,11.370000,140600
2016-08-18,11.410000,11.810000,11.390000,11.740000,11.740000,137900
2016-08-19,11.690000,11.690000,11.300000,11.490000,11.490000,127400
2016-08-22,11.500000,11.640000,11.430000,11.630000,11.630000,112700
2016-08-23,11.610000,11.817000,11.540000,11.560000,11.560000,75300
2016-08-24,11.540000,11.650000,11.440000,11.490000,11.490000,89900
2016-08-25,11.500000,11.500000,11.330000,11.370000,11.370000,89400
2016-08-26,11.350000,11.400000,11.140000,11.270000,11.270000,102800
2016-08-29,11.230000,11.340000,11.145000,11.250000,11.250000,110200
2016-08-30,11.210000,11.290000,11.120000,11.180000,11.180000,113800
2016-08-31,11.200000,11.275000,11.040000,11.190000,11.190000,131200
2016-09-01,11.170000,11.250000,10.860000,11.110000,11.110000,121800
2016-09-02,11.140000,11.370000,11.100000,11.310000,11.310000,101300
2016-09-06,11.430000,12.090000,11.190000,12.030000,12.030000,201600
2016-09-07,12.080000,12.310000,11.870000,12.240000,12.240000,195500
2016-09-08,11.770000,11.770000,10.835000,11.140000,11.140000,604300
2016-09-09,10.900000,10.949000,10.500000,10.560000,10.560000,414000
2016-09-12,10.440000,10.760000,10.100000,10.150000,10.150000,380100
2016-09-13,10.130000,10.200000,9.830000,9.840000,9.840000,240100
2016-09-14,9.880000,9.880000,9.450000,9.550000,9.550000,244800
2016-09-15,9.460000,9.800000,9.410000,9.750000,9.750000,239300
2016-09-16,9.780000,9.880000,9.570000,9.700000,9.700000,640800
2016-09-19,9.730000,9.870000,9.540000,9.660000,9.660000,186800
2016-09-20,9.690000,9.720000,9.530000,9.540000,9.540000,206600
2016-09-21,9.520000,9.690000,9.400000,9.580000,9.580000,258700
2016-09-22,9.650000,10.030000,9.610000,9.980000,9.980000,324200
2016-09-23,9.930000,10.090000,9.780000,9.840000,9.840000,197800
2016-09-26,9.700000,9.820000,9.505000,9.540000,9.540000,287900
2016-09-27,9.480000,9.590000,9.470000,9.560000,9.560000,204100
2016-09-28,9.520000,9.580000,9.410000,9.540000,9.540000,165800
2016-09-29,9.580000,9.649000,9.270000,9.290000,9.290000,136900
2016-09-30,9.290000,9.630000,9.290000,9.570000,9.570000,343000
2016-10-03,9.460000,9.620000,9.410000,9.460000,9.460000,142700
2016-10-04,9.490000,9.560000,9.260000,9.310000,9.310000,182500
2016-10-05,9.350000,9.570000,9.240000,9.420000,9.420000,155100
2016-10-06,9.370000,9.590000,9.210000,9.570000,9.570000,182200
2016-10-07,9.500000,9.580000,9.310000,9.380000,9.380000,173700
2016-10-10,9.460000,9.670000,9.380000,9.500000,9.500000,197500
2016-10-11,9.460000,9.690000,9.410000,9.640000,9.640000,405900
2016-10-12,9.750000,9.960000,9.560000,9.890000,9.890000,511600
2016-10-13,9.800000,9.850000,9.600000,9.620000,9.620000,182300
2016-10-14,9.700000,9.790000,9.550000,9.600000,9.600000,127100
2016-10-17,9.540000,9.550000,9.310000,9.350000,9.350000,115100
2016-10-18,9.460000,9.480000,9.300000,9.300000,9.300000,78100
2016-10-19,9.350000,9.490000,9.150000,9.460000,9.460000,179100
2016-10-20,9.390000,9.502000,9.300000,9.450000,9.450000,99300
2016-10-21,9.340000,9.650000,9.220000,9.600000,9.600000,167300
2016-10-24,9.670000,9.860000,9.670000,9.810000,9.810000,134200
2016-10-25,9.780000,9.800000,9.550000,9.620000,9.620000,74300
2016-10-26,9.570000,9.670000,9.470000,9.510000,9.510000,69300
2016-10-27,9.490000,9.510000,9.250000,9.280000,9.280000,116100
2016-10-28,9.210000,9.380000,9.180000,9.250000,9.250000,91500
2016-10-31,9.220000,9.310000,9.080000,9.310000,9.310000,92500
2016-11-01,9.270000,9.330000,8.980000,9.090000,9.090000,151100
2016-11-02,9.030000,9.070000,8.836000,8.870000,8.870000,102300
2016-11-03,8.940000,8.960000,8.770000,8.850000,8.850000,134100
2016-11-04,8.920000,8.980000,8.750000,8.750000,8.750000,108900
2016-11-07,8.990000,9.120000,8.930000,9.080000,9.080000,113900
2016-11-08,9.070000,9.270000,8.920000,9.220000,9.220000,119500
2016-11-09,9.050000,9.550000,9.050000,9.450000,9.450000,223000
2016-11-10,9.550000,10.120000,9.550000,9.960000,9.960000,286400
2016-11-11,10.020000,10.440000,9.750000,10.400000,10.400000,273400
2016-11-14,10.540000,10.906000,10.240000,10.480000,10.480000,266600
2016-11-15,10.470000,10.480000,10.030000,10.430000,10.430000,101200
2016-11-16,10.410000,10.642000,10.380000,10.550000,10.550000,147800
2016-11-17,10.550000,10.750000,10.550000,10.720000,10.720000,79800
2016-11-18,10.750000,10.970000,10.580000,10.970000,10.970000,149400
2016-11-21,10.920000,11.020000,10.790000,10.990000,10.990000,102900
2016-11-22,11.000000,11.340000,10.980000,11.310000,11.310000,193300
2016-11-23,11.260000,11.550000,11.260000,11.490000,11.490000,129200
2016-11-25,11.480000,11.660000,11.400000,11.660000,11.660000,80600
2016-11-28,11.650000,11.650000,11.080000,11.320000,11.320000,99300
2016-11-29,11.420000,11.660000,11.340000,11.570000,11.570000,156300
2016-11-30,11.560000,11.650000,11.280000,11.370000,11.370000,203600
2016-12-01,11.420000,11.695000,11.270000,11.360000,11.360000,130100
2016-12-02,11.340000,11.450000,11.250000,11.290000,11.290000,68600
2016-12-05,11.410000,11.680000,11.370000,11.590000,11.590000,163700
2016-12-06,10.140000,10.260000,9.510000,9.940000,9.940000,902300
2016-12-07,10.060000,10.970000,10.050000,10.950000,10.950000,542000
2016-12-08,10.880000,11.600000,10.760000,11.600000,11.600000,448000
2016-12-09,11.610000,11.990000,11.530000,11.990000,11.990000,376000
2016-12-12,11.820000,12.060000,11.620000,12.000000,12.000000,234600
2016-12-13,12.050000,12.350000,11.780000,12.220000,12.220000,535900
2016-12-14,12.060000,12.440000,12.040000,12.170000,12.170000,270000
2016-12-15,12.240000,12.550000,12.050000,12.390000,12.390000,308600
2016-12-16,12.450000,12.840000,12.220000,12.830000,12.830000,780100
2016-12-19,12.840000,13.000000,12.570000,12.830000,12.830000,300600
2016-12-20,12.870000,13.150000,12.630000,12.750000,12.750000,247000
2016-12-21,12.810000,12.810000,12.470000,12.510000,12.510000,138500
2016-12-22,12.490000,12.519000,11.950000,12.010000,12.010000,155900
2016-12-23,11.940000,12.200000,11.730000,11.840000,11.840000,156500
2016-12-27,11.790000,12.050000,11.670000,11.850000,11.850000,112000
2016-12-28,11.880000,12.020000,11.700000,11.910000,11.910000,165200
2016-12-29,11.940000,12.160000,11.650000,11.840000,11.840000,142100
2016-12-30,11.820000,11.900000,11.450000,11.470000,11.470000,158700
2017-01-03,11.660000,11.980000,11.610000,11.890000,11.890000,154100
2017-01-04,11.830000,12.250000,11.820000,12.140000,12.140000,190900
2017-01-05,11.960000,11.960000,11.250000,11.410000,11.410000,170400
2017-01-06,11.550000,11.590000,11.260000,11.340000,11.340000,111800
2017-01-09,11.270000,11.480000,11.130000,11.290000,11.290000,92200
2017-01-10,11.280000,11.700000,11.260000,11.580000,11.580000,126500
2017-01-11,11.590000,11.590000,11.290000,11.500000,11.500000,85300
2017-01-12,11.450000,11.650000,11.190000,11.310000,11.310000,90200
2017-01-13,11.410000,11.607000,11.190000,11.210000,11.210000,78200
2017-01-17,11.310000,11.960000,11.260000,11.470000,11.470000,131300
2017-01-18,11.430000,11.510000,11.160000,11.350000,11.350000,114800
2017-01-19,11.350000,11.450000,10.660000,10.800000,10.800000,147400
2017-01-20,10.790000,10.990000,10.720000,10.850000,10.850000,146800
2017-01-23,10.840000,10.910000,10.580000,10.610000,10.610000,100400
2017-01-24,10.620000,10.790000,10.570000,10.610000,10.610000,124200
2017-01-25,10.730000,11.050000,10.530000,10.970000,10.970000,172600
2017-01-26,10.890000,11.000000,10.410000,10.450000,10.450000,107400
2017-01-27,10.500000,10.609000,10.100000,10.150000,10.150000,200300
2017-01-30,10.050000,10.150000,9.850000,9.960000,9.960000,177000
2017-01-31,9.770000,10.070000,9.710000,10.050000,10.050000,191700
2017-02-01,10.120000,10.200000,9.870000,9.910000,9.910000,117200
2017-02-02,9.870000,9.990000,9.750000,9.890000,9.890000,96300
2017-02-03,9.990000,10.210000,9.890000,10.190000,10.190000,159400
2017-02-06,10.070000,10.170000,9.770000,9.910000,9.910000,154800
2017-02-07,9.900000,10.010000,9.720000,9.720000,9.720000,131800
2017-02-08,9.680000,9.840000,9.440000,9.750000,9.750000,334400
2017-02-09,9.800000,10.110000,9.740000,10.060000,10.060000,121700
2017-02-10,10.100000,10.260000,10.040000,10.220000,10.220000,103800
2017-02-13,10.220000,10.220000,9.890000,9.970000,9.970000,119300
2017-02-14,9.870000,10.080000,9.850000,10.040000,10.040000,129100
2017-02-15,9.950000,10.080000,9.870000,10.030000,10.030000,107800
2017-02-16,10.080000,10.080000,9.710000,9.890000,9.890000,156300
2017-02-17,9.900000,10.170000,9.770000,10.150000,10.150000,235100
2017-02-21,10.080000,10.320000,10.080000,10.240000,10.240000,175800
2017-02-22,10.260000,10.270000,10.080000,10.210000,10.210000,163900
2017-02-23,10.230000,10.230000,9.760000,9.950000,9.950000,228000
2017-02-24,9.790000,10.210000,9.760000,10.050000,10.050000,218200
2017-02-27,10.000000,10.220000,9.750000,10.110000,10.110000,318000
2017-02-28,9.670000,11.300000,9.455000,9.600000,9.600000,656900
2017-03-01,9.930000,10.250000,9.790000,10.150000,10.150000,709200
2017-03-02,10.140000,10.180000,9.940000,10.020000,10.020000,291300
2017-03-03,10.000000,10.110000,9.700000,9.710000,9.710000,220000
2017-03-06,9.520000,9.630000,9.090000,9.310000,9.310000,358200
2017-03-07,9.210000,9.323000,9.130000,9.170000,9.170000,187700
2017-03-08,9.220000,9.790000,9.160000,9.600000,9.600000,227000
2017-03-09,9.580000,9.660000,9.410000,9.460000,9.460000,147900
2017-03-10,9.550000,9.680000,9.460000,9.560000,9.560000,192100
2017-03-13,9.530000,9.570000,9.310000,9.380000,9.380000,145000
2017-03-14,9.320000,9.620000,9.235000,9.530000,9.530000,142900
2017-03-15,9.590000,9.660000,9.450000,9.590000,9.590000,128300
2017-03-16,9.660000,9.700000,9.500000,9.620000,9.620000,155300
2017-03-17,9.650000,9.840000,9.590000,9.770000,9.770000,627300
2017-03-20,9.770000,9.770000,9.500000,9.600000,9.600000,208900
2017-03-21,9.610000,9.610000,9.120000,9.390000,9.390000,223800
2017-03-22,9.340000,9.480000,9.250000,9.430000,9.430000,188600
2017-03-23,9.360000,9.660000,9.340000,9.560000,9.560000,150600
2017-03-24,9.580000,9.610000,9.350000,9.380000,9.380000,151700
2017-03-27,9.210000,9.570000,9.210000,9.500000,9.500000,194100
2017-03-28,9.390000,9.520000,9.340000,9.460000,9.460000,157700
2017-03-29,9.400000,9.880000,9.380000,9.840000,9.840000,338300
2017-03-30,9.860000,9.890000,9.640000,9.680000,9.680000,207300
2017-03-31,9.600000,9.670000,9.480000,9.590000,9.590000,483600
2017-04-03,9.600000,9.600000,9.345000,9.470000,9.470000,222500
2017-04-04,9.480000,9.570000,9.290000,9.380000,9.380000,159100
2017-04-05,9.500000,9.620000,9.180000,9.430000,9.430000,351000
2017-04-06,9.430000,9.520000,9.360000,9.480000,9.480000,243800
2017-04-07,9.480000,9.895000,9.390000,9.860000,9.860000,226000
2017-04-10,9.810000,10.150000,9.790000,9.920000,9.920000,255700
2017-04-11,9.890000,10.000000,9.680000,9.910000,9.910000,147300
2017-04-12,9.920000,9.920000,9.640000,9.660000,9.660000,110400
2017-04-13,9.700000,9.700000,9.480000,9.620000,9.620000,173100
2017-04-17,9.650000,9.740000,9.460000,9.720000,9.720000,296700
2017-04-18,9.670000,9.910000,9.600000,9.880000,9.880000,177500
2017-04-19,9.950000,10.150000,9.915000,10.120000,10.120000,291400
2017-04-20,10.190000,10.470000,10.170000,10.420000,10.420000,234000
2017-04-21,10.390000,10.470000,10.180000,10.300000,10.300000,213200
2017-04-24,10.520000,10.550000,10.170000,10.380000,10.380000,288900
2017-04-25,10.470000,10.690000,10.350000,10.380000,10.380000,253000
2017-04-26,10.320000,10.930000,10.320000,10.740000,10.740000,523300
2017-04-27,10.810000,10.870000,10.530000,10.640000,10.640000,129100
2017-04-28,10.670000,10.670000,10.340000,10.410000,10.410000,269600
2017-05-01,10.420000,10.450000,10.250000,10.340000,10.340000,91300
2017-05-02,10.350000,10.430000,10.211000,10.320000,10.320000,169700
2017-05-03,10.290000,10.340000,10.160000,10.300000,10.300000,150400
2017-05-04,10.340000,10.400000,10.140000,10.310000,10.310000,97600
2017-05-05,10.350000,10.380000,10.160000,10.290000,10.290000,113200
2017-05-08,10.260000,10.470000,10.225000,10.410000,10.410000,155700
2017-05-09,10.370000,10.455000,10.220000,10.330000,10.330000,129900
2017-05-10,10.260000,10.400000,10.130000,10.370000,10.370000,252100
2017-05-11,10.280000,10.300000,9.810000,10.160000,10.160000,195900
2017-05-12,10.070000,10.070000,9.780000,9.820000,9.820000,121600
2017-05-15,9.830000,9.890000,9.420000,9.520000,9.520000,194100
2017-05-16,9.540000,9.540000,9.240000,9.350000,9.350000,220500
2017-05-17,9.350000,9.350000,9.050000,9.100000,9.100000,175200
2017-05-18,9.010000,9.230000,9.010000,9.100000,9.100000,138200
2017-05-19,9.070000,9.230000,9.030000,9.140000,9.140000,119200
2017-05-22,9.300000,9.460000,9.250000,9.350000,9.350000,179400
2017-05-23,9.400000,9.420000,9.240000,9.250000,9.250000,137300
2017-05-24,9.220000,9.380000,9.140000,9.240000,9.240000,134600
2017-05-25,9.330000,9.580000,9.230000,9.470000,9.470000,156900
2017-05-26,9.550000,9.580000,9.340000,9.420000,9.420000,101300
2017-05-30,9.420000,9.480000,9.290000,9.420000,9.420000,73500
2017-05-31,9.410000,9.525000,9.310000,9.490000,9.490000,194300
2017-06-01,9.460000,9.980000,9.400000,9.960000,9.960000,135000
2017-06-02,9.960000,10.300000,9.950000,10.030000,10.030000,172100
2017-06-05,10.070000,10.110000,9.940000,9.940000,9.940000,133400
2017-06-06,9.850000,9.900000,9.590000,9.770000,9.770000,251000
2017-06-07,9.770000,9.770000,9.500000,9.590000,9.590000,148500
2017-06-08,9.630000,10.000000,9.620000,9.890000,9.890000,88600
2017-06-09,9.930000,10.290000,9.800000,10.230000,10.230000,160800
2017-06-12,10.230000,10.630000,10.230000,10.310000,10.310000,153400
2017-06-13,10.310000,10.420000,10.160000,10.220000,10.220000,111800
2017-06-14,10.230000,10.250000,10.030000,10.210000,10.210000,127900
2017-06-15,10.000000,10.220000,9.790000,10.140000,10.140000,116800
2017-06-16,9.940000,10.330000,9.910000,10.310000,10.310000,410100
2017-06-19,10.350000,10.350000,10.125000,10.220000,10.220000,131800
2017-06-20,10.190000,10.510000,10.090000,10.420000,10.420000,225800
2017-06-21,10.430000,10.480000,10.140000,10.360000,10.360000,167200
2017-06-22,10.390000,10.670000,10.380000,10.630000,10.630000,173200
2017-06-23,10.700000,11.100000,10.590000,11.000000,11.000000,584500
2017-06-26,11.050000,11.120000,10.670000,10.810000,10.810000,237800
2017-06-27,10.730000,10.930000,10.730000,10.760000,10.760000,152000
2017-06-28,10.890000,10.970000,10.750000,10.820000,10.820000,179200
2017-06-29,10.800000,10.900000,10.630000,10.730000,10.730000,266200
2017-06-30,10.730000,10.790000,10.620000,10.630000,10.630000,166100
2017-07-03,10.590000,10.850000,10.590000,10.760000,10.760000,190800
2017-07-05,10.680000,10.858000,10.620000,10.760000,10.760000,211400
2017-07-06,10.720000,10.720000,10.140000,10.180000,10.180000,309700
2017-07-07,10.200000,10.270000,9.890000,10.230000,10.230000,256300
2017-07-10,10.240000,10.240000,9.630000,9.670000,9.670000,247700
2017-07-11,9.700000,10.190000,9.670000,10.040000,10.040000,560900
2017-07-12,10.850000,11.010000,8.471000,8.890000,8.890000,1596200
2017-07-13,8.790000,8.950000,7.830000,7.970000,7.970000,1067900
2017-07-14,7.970000,8.050000,7.610000,7.760000,7.760000,1084900
2017-07-17,7.830000,7.990000,7.710000,7.790000,7.790000,603400
2017-07-18,7.730000,8.020000,7.550000,7.850000,7.850000,613400
2017-07-19,7.850000,7.860000,7.450000,7.800000,7.800000,1218000
2017-07-20,7.790000,8.230000,7.790000,7.910000,7.910000,747500
2017-07-21,8.010000,8.010000,7.295000,7.530000,7.530000,714200
2017-07-24,7.520000,7.520000,7.130000,7.190000,7.190000,515800
2017-07-25,7.300000,7.570000,7.300000,7.500000,7.500000,365000
2017-07-26,7.510000,7.560000,7.330000,7.550000,7.550000,288000
2017-07-27,7.630000,7.740000,7.360000,7.500000,7.500000,419300
2017-07-28,7.480000,7.560000,7.230000,7.420000,7.420000,295600
2017-07-31,7.420000,7.480000,7.220000,7.230000,7.230000,311500
2017-08-01,7.270000,7.280000,7.100000,7.200000,7.200000,257100
2017-08-02,7.200000,7.280000,7.070000,7.080000,7.080000,287300
2017-08-03,7.090000,7.200000,7.060000,7.100000,7.100000,228300
2017-08-04,7.160000,7.310000,7.080000,7.260000,7.260000,354400
2017-08-07,7.250000,7.280000,7.020000,7.040000,7.040000,260200
2017-08-08,7.040000,7.210000,6.900000,7.110000,7.110000,357100
2017-08-09,7.070000,7.070000,6.870000,6.920000,6.920000,308700
2017-08-10,6.870000,6.870000,6.620000,6.710000,6.710000,313800
2017-08-11,6.620000,6.890000,6.460000,6.840000,6.840000,419800
2017-08-14,6.890000,6.980000,6.790000,6.930000,6.930000,211500
2017-08-15,6.940000,6.940000,6.600000,6.680000,6.680000,204200
2017-08-16,6.690000,6.840000,6.670000,6.830000,6.830000,212500
2017-08-17,6.780000,6.930000,6.680000,6.790000,6.790000,254300
2017-08-18,6.700000,6.960000,6.700000,6.920000,6.920000,246700
2017-08-21,6.850000,6.940000,6.750000,6.830000,6.830000,209500
2017-08-22,6.870000,7.080000,6.820000,7.020000,7.020000,521400
2017-08-23,6.980000,7.020000,6.770000,6.790000,6.790000,176700
2017-08-24,6.760000,7.000000,6.760000,6.900000,6.900000,162800
2017-08-25,6.970000,7.035000,6.880000,6.980000,6.980000,186200
2017-08-28,6.990000,7.080000,6.920000,6.940000,6.940000,392600
2017-08-29,6.900000,6.950000,6.790000,6.820000,6.820000,208200
2017-08-30,6.320000,6.330000,5.510000,5.610000,5.610000,2127200
2017-08-31,5.600000,5.630000,5.040000,5.180000,5.180000,1775100
2017-09-01,5.170000,5.550000,5.130000,5.510000,5.510000,1189500
2017-09-05,5.450000,5.550000,5.030000,5.220000,5.220000,1211700
2017-09-06,5.270000,5.270000,5.110000,5.200000,5.200000,575500
2017-09-07,5.190000,5.480000,5.190000,5.320000,5.320000,476200
2017-09-08,5.310000,5.620000,5.265000,5.590000,5.590000,499600
2017-09-11,5.680000,5.750000,5.480000,5.500000,5.500000,386100
2017-09-12,5.560000,5.900000,5.510000,5.830000,5.830000,583200
2017-09-13,5.830000,5.990000,5.830000,5.890000,5.890000,569300
2017-09-14,5.910000,6.010000,5.820000,5.880000,5.880000,536400
2017-09-15,5.880000,6.280000,5.805000,6.280000,6.280000,1220300
2017-09-18,6.280000,6.380000,6.170000,6.210000,6.210000,630500
2017-09-19,6.200000,6.230000,5.850000,5.870000,5.870000,495400
2017-09-20,5.870000,6.140000,5.600000,6.090000,6.090000,1407600
2017-09-21,6.070000,6.240000,6.070000,6.090000,6.090000,226000
2017-09-22,6.070000,6.320000,6.060000,6.280000,6.280000,286400
2017-09-25,6.270000,6.600000,6.270000,6.490000,6.490000,422900
2017-09-26,6.500000,6.840000,6.500000,6.640000,6.640000,555100
2017-09-27,6.650000,6.700000,6.470000,6.540000,6.540000,435700
2017-09-28,6.530000,6.610000,6.410000,6.510000,6.510000,398100
2017-09-29,6.490000,6.650000,6.420000,6.510000,6.510000,321800
2017-10-02,6.520000,6.590000,6.400000,6.520000,6.520000,407900
2017-10-03,6.590000,6.675000,6.350000,6.610000,6.610000,463300
2017-10-04,6.610000,6.710000,6.520000,6.580000,6.580000,196600
2017-10-05,6.580000,6.740000,6.550000,6.740000,6.740000,257900
2017-10-06,6.640000,6.850000,6.590000,6.680000,6.680000,228400
2017-10-09,6.680000,6.740000,6.370000,6.420000,6.420000,285400
2017-10-10,6.410000,6.600000,6.330000,6.370000,6.370000,246200
2017-10-11,6.400000,6.460000,6.170000,6.280000,6.280000,246000
2017-10-12,6.240000,6.278000,6.060000,6.120000,6.120000,170900
2017-10-13,6.140000,6.315000,6.100000,6.190000,6.190000,171900
2017-10-16,6.190000,6.300000,6.105000,6.240000,6.240000,177700
2017-10-17,6.180000,6.520000,6.180000,6.480000,6.480000,225500
2017-10-18,6.480000,6.690000,6.480000,6.680000,6.680000,180400
2017-10-19,6.610000,6.660000,6.480000,6.550000,6.550000,183700
2017-10-20,6.640000,6.770000,6.630000,6.680000,6.680000,173700
2017-10-23,6.670000,6.760000,6.470000,6.550000,6.550000,226300
2017-10-24,6.620000,6.720000,6.480000,6.560000,6.560000,179800
2017-10-25,6.530000,6.700000,6.370000,6.610000,6.610000,218700
2017-10-26,6.620000,6.790000,6.550000,6.620000,6.620000,143500
2017-10-27,6.620000,6.620000,6.390000,6.460000,6.460000,167600
2017-10-30,6.430000,6.430000,6.110000,6.190000,6.190000,242100
2017-10-31,6.190000,6.190000,5.300000,5.450000,5.450000,812600
2017-11-01,5.490000,5.700000,5.260000,5.560000,5.560000,401100
2017-11-02,5.500000,5.570000,5.230000,5.260000,5.260000,418700
2017-11-03,5.260000,5.490000,5.260000,5.280000,5.280000,235300
2017-11-06,5.260000,5.390000,5.200000,5.300000,5.300000,228000
2017-11-07,5.330000,5.356000,5.020000,5.080000,5.080000,284800
2017-11-08,5.020000,5.150000,4.990000,5.100000,5.100000,327200
2017-11-09,5.110000,5.220000,5.090000,5.180000,5.180000,251100
2017-11-10,5.220000,5.380000,5.200000,5.280000,5.280000,232200
2017-11-13,5.270000,5.300000,5.130000,5.150000,5.150000,172200
2017-11-14,5.160000,5.320000,5.090000,5.190000,5.190000,252200
2017-11-15,5.110000,5.160000,4.990000,5.010000,5.010000,281100
2017-11-16,5.040000,5.430000,5.040000,5.400000,5.400000,324500
2017-11-17,5.410000,5.580000,5.410000,5.520000,5.520000,157900
2017-11-20,5.560000,5.670000,5.460000,5.660000,5.660000,208300
2017-11-21,5.670000,5.820000,5.540000,5.680000,5.680000,270400
2017-11-22,5.700000,5.860000,5.610000,5.620000,5.620000,180700
2017-11-24,5.620000,5.710000,5.560000,5.680000,5.680000,98300
2017-11-27,5.670000,5.740000,5.490000,5.590000,5.590000,300700
2017-11-28,5.630000,5.900000,5.510000,5.890000,5.890000,364600
2017-11-29,5.900000,6.450000,5.810000,6.340000,6.340000,328500
2017-11-30,6.390000,6.485000,5.880000,6.040000,6.040000,534500
2017-12-01,6.030000,6.220000,5.830000,6.090000,6.090000,425700
2017-12-04,6.230000,6.490000,6.210000,6.290000,6.290000,437100
2017-12-05,6.930000,7.950000,6.920000,7.730000,7.730000,2897800
2017-12-06,7.920000,8.290000,7.540000,7.700000,7.700000,2324500
2017-12-07,7.770000,8.380000,7.660000,7.960000,7.960000,1572600
2017-12-08,7.960000,7.960000,7.240000,7.490000,7.490000,865600
2017-12-11,7.500000,7.980000,7.500000,7.820000,7.820000,1167600
2017-12-12,7.830000,8.630000,7.740000,8.420000,8.420000,1494000
2017-12-13,8.460000,8.670000,8.190000,8.250000,8.250000,1014300
2017-12-14,8.250000,8.580000,8.000000,8.050000,8.050000,823800
2017-12-15,8.050000,8.390000,8.050000,8.280000,8.280000,1467100
2017-12-18,8.300000,9.100000,8.300000,8.840000,8.840000,1044100
2017-12-19,8.840000,9.030000,8.310000,8.360000,8.360000,816300
2017-12-20,8.350000,8.680000,8.310000,8.570000,8.570000,419800
2017-12-21,8.570000,8.590000,8.310000,8.500000,8.500000,474000
2017-12-22,8.480000,8.590000,8.340000,8.430000,8.430000,359400
2017-12-26,8.460000,8.600000,8.385000,8.420000,8.420000,316700
2017-12-27,8.410000,8.440000,8.210000,8.290000,8.290000,320400
2017-12-28,8.290000,8.480000,8.230000,8.350000,8.350000,364200
2017-12-29,8.310000,8.330000,8.210000,8.240000,8.240000,363800
2018-01-02,8.370000,8.680000,8.300000,8.480000,8.480000,897100
2018-01-03,8.520000,8.690000,8.130000,8.220000,8.220000,445000
2018-01-04,8.200000,8.210000,7.940000,8.100000,8.100000,287800
2018-01-05,8.090000,8.090000,7.610000,7.760000,7.760000,493000
2018-01-08,7.770000,7.860000,7.560000,7.650000,7.650000,406500
2018-01-09,7.700000,7.700000,7.430000,7.490000,7.490000,361900
2018-01-10,7.490000,7.620000,7.460000,7.550000,7.550000,512600
2018-01-11,7.620000,7.740000,7.550000,7.680000,7.680000,633000
2018-01-12,7.740000,7.870000,7.590000,7.630000,7.630000,302400
2018-01-16,7.610000,7.680000,7.230000,7.330000,7.330000,349700
2018-01-17,7.360000,7.385000,7.250000,7.380000,7.380000,358100
2018-01-18,7.370000,7.500000,7.250000,7.450000,7.450000,355700
2018-01-19,7.460000,7.750000,7.290000,7.700000,7.700000,393300
2018-01-22,7.700000,7.720000,7.590000,7.710000,7.710000,274000
2018-01-23,7.710000,7.710000,7.520000,7.530000,7.530000,261800
2018-01-24,7.560000,7.560000,7.260000,7.290000,7.290000,174300
2018-01-25,7.290000,7.290000,7.090000,7.170000,7.170000,319200
2018-01-26,7.200000,7.240000,6.775000,6.890000,6.890000,387700
2018-01-29,6.900000,6.920000,6.790000,6.850000,6.850000,186800
2018-01-30,6.750000,6.790000,6.650000,6.740000,6.740000,178000
2018-01-31,6.810000,6.842000,6.630000,6.650000,6.650000,183700
2018-02-01,6.570000,6.710000,6.510000,6.710000,6.710000,249100
2018-02-02,6.650000,6.660000,6.300000,6.300000,6.300000,303400
2018-02-05,6.300000,6.405000,6.180000,6.190000,6.190000,283300
2018-02-06,6.060000,6.450000,5.970000,6.340000,6.340000,305400
2018-02-07,6.350000,6.590000,6.240000,6.520000,6.520000,281600
2018-02-08,6.550000,6.590000,6.350000,6.500000,6.500000,411800
2018-02-09,6.550000,6.670000,6.330000,6.580000,6.580000,269500
2018-02-12,6.620000,6.670000,6.290000,6.500000,6.500000,246300
2018-02-13,6.470000,6.600000,6.400000,6.430000,6.430000,148200
2018-02-14,6.390000,6.660000,6.370000,6.630000,6.630000,228500
2018-02-15,6.670000,6.810000,6.450000,6.790000,6.790000,350800
2018-02-16,6.770000,7.010000,6.750000,6.940000,6.940000,281300
2018-02-20,6.930000,6.930000,6.610000,6.680000,6.680000,268100
2018-02-21,6.700000,6.870000,6.680000,6.840000,6.840000,197100
2018-02-22,6.860000,7.080000,6.785000,6.980000,6.980000,455600
2018-02-23,7.040000,7.410000,7.000000,7.370000,7.370000,409900
2018-02-26,7.410000,7.720000,7.140000,7.600000,7.600000,888600
2018-02-27,7.640000,7.930000,7.471000,7.580000,7.580000,462100
2018-02-28,7.580000,7.580000,7.180000,7.300000,7.300000,392800
2018-03-01,7.500000,8.200000,7.240000,7.350000,7.350000,838400
2018-03-02,7.310000,7.490000,7.050000,7.110000,7.110000,866400
2018-03-05,7.120000,7.430000,7.100000,7.200000,7.200000,825100
2018-03-06,7.210000,7.270000,6.970000,7.160000,7.160000,526300
2018-03-07,7.150000,7.290000,7.040000,7.250000,7.250000,394700
2018-03-08,7.270000,7.270000,6.700000,6.700000,6.700000,456100
2018-03-09,6.770000,6.790000,6.530000,6.550000,6.550000,330400
2018-03-12,6.560000,6.920000,6.550000,6.830000,6.830000,400900
2018-03-13,6.870000,7.120000,6.760000,6.860000,6.860000,395200
2018-03-14,6.900000,6.970000,6.660000,6.690000,6.690000,325300
2018-03-15,6.730000,6.850000,6.600000,6.650000,6.650000,276000
2018-03-16,6.670000,6.890000,6.560000,6.860000,6.860000,1005200
2018-03-19,6.830000,6.910000,6.740000,6.840000,6.840000,592800
2018-03-20,6.850000,6.890000,6.670000,6.810000,6.810000,284700
2018-03-21,6.790000,6.990000,6.770000,6.780000,6.780000,187100
2018-03-22,6.740000,6.780000,6.590000,6.640000,6.640000,227500
2018-03-23,6.660000,6.660000,6.440000,6.440000,6.440000,239700
2018-03-26,6.490000,6.650000,6.360000,6.620000,6.620000,341700
2018-03-27,6.640000,6.790000,6.600000,6.630000,6.630000,288900
2018-03-28,6.610000,6.870000,6.590000,6.740000,6.740000,157000
2018-03-29,6.770000,6.950000,6.770000,6.890000,6.890000,482400
2018-04-02,6.850000,6.895000,6.370000,6.590000,6.590000,354100
2018-04-03,6.620000,6.820000,6.610000,6.730000,6.730000,325400
2018-04-04,6.670000,6.980000,6.660000,6.910000,6.910000,254600
2018-04-05,6.930000,7.130000,6.880000,7.050000,7.050000,241000
2018-04-06,7.020000,7.120000,6.850000,7.030000,7.030000,264800
2018-04-09,7.050000,7.080000,6.960000,7.000000,7.000000,165600
2018-04-10,7.110000,7.250000,7.020000,7.180000,7.180000,213400
2018-04-11,7.110000,7.400000,7.110000,7.210000,7.210000,213000
2018-04-12,7.250000,7.270000,6.970000,7.040000,7.040000,285800
2018-04-13,7.060000,7.080000,6.900000,6.950000,6.950000,146600
2018-04-16,7.000000,7.260000,6.910000,7.190000,7.190000,284700
2018-04-17,7.280000,7.430000,7.200000,7.420000,7.420000,299800
2018-04-18,7.420000,7.600000,7.390000,7.470000,7.470000,188200
2018-04-19,7.400000,7.500000,7.350000,7.400000,7.400000,121300
2018-04-20,7.370000,7.460000,7.340000,7.370000,7.370000,138700
2018-04-23,7.380000,7.460000,7.300000,7.400000,7.400000,154000
2018-04-24,7.420000,7.450000,7.300000,7.370000,7.370000,118800
2018-04-25,7.390000,7.510000,7.320000,7.360000,7.360000,360000
2018-04-26,7.440000,7.560000,7.360000,7.410000,7.410000,580600
2018-04-27,7.440000,7.570000,7.350000,7.420000,7.420000,171800
2018-04-30,7.390000,7.520000,7.075000,7.190000,7.190000,174800
2018-05-01,7.130000,7.160000,6.900000,7.080000,7.080000,198100
2018-05-02,7.100000,7.100000,6.915000,6.990000,6.990000,224800
2018-05-03,7.040000,7.040000,6.720000,6.830000,6.830000,434100
2018-05-04,6.790000,6.950000,6.670000,6.870000,6.870000,175400
2018-05-07,6.880000,6.890000,6.470000,6.540000,6.540000,285200
2018-05-08,6.500000,6.560000,6.450000,6.520000,6.520000,187200
2018-05-09,6.540000,6.620000,6.210000,6.250000,6.250000,287500
2018-05-10,6.270000,6.400000,6.170000,6.310000,6.310000,419500
2018-05-11,6.330000,6.410000,6.250000,6.320000,6.320000,149000
2018-05-14,6.320000,6.350000,6.115000,6.170000,6.170000,410300
2018-05-15,6.170000,6.230000,6.020000,6.030000,6.030000,209200
2018-05-16,6.040000,6.210000,6.040000,6.110000,6.110000,283300
2018-05-17,6.120000,6.220000,6.100000,6.140000,6.140000,224400
2018-05-18,6.170000,6.170000,6.050000,6.100000,6.100000,143500
2018-05-21,6.110000,6.180000,6.090000,6.170000,6.170000,90100
2018-05-22,6.150000,6.420000,6.150000,6.340000,6.340000,429600
2018-05-23,6.300000,6.510000,6.300000,6.480000,6.480000,194700
2018-05-24,6.460000,6.510000,6.230000,6.450000,6.450000,232700
2018-05-25,6.440000,6.480000,6.310000,6.390000,6.390000,132800
2018-05-29,6.370000,6.495000,6.350000,6.370000,6.370000,158600
2018-05-30,6.380000,6.525000,6.330000,6.420000,6.420000,182100
2018-05-31,6.430000,6.430000,6.170000,6.340000,6.340000,363000
2018-06-01,6.350000,6.460000,6.290000,6.380000,6.380000,436200
2018-06-04,6.390000,6.490000,6.210000,6.250000,6.250000,270000
2018-06-05,6.260000,6.485000,6.220000,6.450000,6.450000,240100
2018-06-06,6.460000,6.570000,6.460000,6.500000,6.500000,179500
2018-06-07,6.500000,6.660000,6.460000,6.570000,6.570000,153500
2018-06-08,6.570000,6.630000,6.520000,6.570000,6.570000,180600
2018-06-11,6.580000,6.660000,6.490000,6.590000,6.590000,187200
2018-06-12,6.590000,6.660000,6.520000,6.580000,6.580000,153200
2018-06-13,6.600000,6.600000,6.445000,6.520000,6.520000,153200
2018-06-14,6.510000,6.510000,6.340000,6.440000,6.440000,122800
2018-06-15,6.440000,6.520000,6.340000,6.460000,6.460000,470700
2018-06-18,6.560000,6.655000,6.370000,6.400000,6.400000,321400
2018-06-19,6.410000,6.580000,6.290000,6.490000,6.490000,449800
2018-06-20,6.480000,6.850000,6.400000,6.760000,6.760000,523100
2018-06-21,7.250000,8.320000,7.240000,7.660000,7.660000,1951300
2018-06-22,7.680000,7.680000,6.810000,7.000000,7.000000,1143800
2018-06-25,7.010000,7.036000,6.470000,6.520000,6.520000,733200
2018-06-26,6.480000,6.516000,5.984000,6.160000,6.160000,843900
2018-06-27,6.190000,6.400000,6.090000,6.100000,6.100000,359100
2018-06-28,6.050000,6.050000,5.619000,5.860000,5.860000,627400
2018-06-29,5.860000,5.870000,5.510000,5.640000,5.640000,498600
2018-07-02,5.610000,5.740000,5.530000,5.600000,5.600000,363100
2018-07-03,5.600000,5.660000,5.340000,5.370000,5.370000,491800
2018-07-05,5.420000,5.420000,5.290000,5.410000,5.410000,422500
2018-07-06,5.390000,5.450000,5.320000,5.400000,5.400000,349900
2018-07-09,5.430000,5.460000,5.330000,5.440000,5.440000,303800
2018-07-10,5.430000,5.450000,5.300000,5.400000,5.400000,370300
2018-07-11,5.360000,5.440000,5.230000,5.370000,5.370000,248300
2018-07-12,5.380000,5.500000,5.290000,5.400000,5.400000,352300
2018-07-13,5.380000,5.490000,5.330000,5.470000,5.470000,320500
2018-07-16,5.470000,5.540000,5.420000,5.460000,5.460000,222900
2018-07-17,5.440000,5.500000,5.310000,5.330000,5.330000,346900
2018-07-18,5.330000,5.350000,5.250000,5.340000,5.340000,282700
2018-07-19,5.350000,5.645000,5.270000,5.530000,5.530000,408600
2018-07-20,5.540000,5.590000,5.330000,5.370000,5.370000,338900
2018-07-23,5.350000,5.370000,5.260000,5.280000,5.280000,392600
2018-07-24,5.290000,5.760000,5.280000,5.650000,5.650000,498600
2018-07-25,5.650000,5.740000,5.460000,5.650000,5.650000,351300
2018-07-26,5.670000,5.830000,5.380000,5.400000,5.400000,280800
2018-07-27,5.390000,5.420000,5.280000,5.360000,5.360000,381200
2018-07-30,5.360000,5.690000,5.351000,5.590000,5.590000,259800
2018-07-31,5.590000,5.700000,5.500000,5.620000,5.620000,166800
2018-08-01,5.600000,5.625000,5.520000,5.600000,5.600000,166500
2018-08-02,5.550000,5.660000,5.510000,5.650000,5.650000,169600
2018-08-03,5.650000,5.880000,5.650000,5.820000,5.820000,285300
2018-08-06,5.830000,5.870000,5.740000,5.770000,5.770000,158700
2018-08-07,5.830000,5.873000,5.740000,5.830000,5.830000,134000
2018-08-08,5.820000,5.950000,5.790000,5.920000,5.920000,381200
2018-08-09,5.940000,6.170000,5.910000,6.160000,6.160000,214100
2018-08-10,6.090000,6.370000,6.000000,6.290000,6.290000,240700
2018-08-13,6.280000,6.280000,6.040000,6.160000,6.160000,349400
2018-08-14,6.170000,6.350000,6.170000,6.280000,6.280000,113000
2018-08-15,6.250000,6.300000,6.110000,6.230000,6.230000,185900
2018-08-16,6.240000,6.310000,6.170000,6.240000,6.240000,213300
2018-08-17,6.260000,6.600000,6.230000,6.420000,6.420000,344300
2018-08-20,6.460000,6.660000,6.460000,6.480000,6.480000,270400
2018-08-21,6.480000,6.500000,6.310000,6.350000,6.350000,298200
2018-08-22,5.710000,5.930000,5.250000,5.340000,5.340000,1213500
2018-08-23,5.390000,5.590000,5.250000,5.440000,5.440000,791000
2018-08-24,5.540000,5.600000,5.230000,5.240000,5.240000,1076200
2018-08-27,5.240000,5.270000,4.930000,5.070000,5.070000,943200
2018-08-28,5.110000,5.390000,5.059000,5.370000,5.370000,375000
2018-08-29,5.450000,6.005000,5.400000,5.910000,5.910000,741600
2018-08-30,5.930000,5.990000,5.530000,5.580000,5.580000,607700
2018-08-31,5.550000,6.120000,5.550000,5.980000,5.980000,551500
2018-09-04,5.940000,6.080000,5.830000,5.920000,5.920000,300300
2018-09-05,5.880000,6.085000,5.880000,6.000000,6.000000,266500
2018-09-06,6.040000,6.090000,5.540000,5.560000,5.560000,410600
2018-09-07,5.520000,5.730000,5.520000,5.690000,5.690000,263100
2018-09-10,5.720000,5.762000,5.550000,5.670000,5.670000,239400
2018-09-11,5.630000,5.820000,5.590000,5.650000,5.650000,292900
2018-09-12,5.620000,5.650000,5.350000,5.400000,5.400000,290200
2018-09-13,5.400000,5.420000,5.290000,5.400000,5.400000,446900
2018-09-14,5.380000,5.675000,5.350000,5.620000,5.620000,314600
2018-09-17,5.640000,5.640000,5.430000,5.440000,5.440000,240800
2018-09-18,5.440000,5.580000,5.440000,5.560000,5.560000,300700
2018-09-19,5.570000,5.770000,5.570000,5.650000,5.650000,223800
2018-09-20,5.670000,5.830000,5.620000,5.760000,5.760000,216900
2018-09-21,5.760000,5.830000,5.630000,5.700000,5.700000,611200
2018-09-24,5.680000,5.680000,5.570000,5.570000,5.570000,182300
2018-09-25,5.590000,5.590000,5.370000,5.440000,5.440000,299900
2018-09-26,5.460000,5.620000,5.460000,5.580000,5.580000,249800
2018-09-27,5.580000,5.700000,5.521000,5.670000,5.670000,158400
2018-09-28,5.650000,5.880000,5.650000,5.760000,5.760000,234000
2018-10-01,5.800000,5.800000,5.600000,5.600000,5.600000,196100
2018-10-02,5.580000,5.660000,5.450000,5.490000,5.490000,161800
2018-10-03,5.510000,5.580000,5.430000,5.500000,5.500000,177800
2018-10-04,5.550000,5.580000,5.460000,5.510000,5.510000,148600
2018-10-05,5.530000,5.630000,5.450000,5.610000,5.610000,167800
2018-10-08,5.600000,5.810000,5.600000,5.740000,5.740000,164900
2018-10-09,5.720000,5.930000,5.660000,5.880000,5.880000,243000
2018-10-10,5.860000,5.970000,5.840000,5.890000,5.890000,306900
2018-10-11,5.870000,6.000000,5.830000,5.880000,5.880000,275200
2018-10-12,5.960000,6.000000,5.630000,5.670000,5.670000,174100
2018-10-15,5.660000,5.805000,5.600000,5.760000,5.760000,166800
2018-10-16,5.790000,6.000000,5.710000,6.000000,6.000000,301400
2018-10-17,6.010000,6.350000,5.990000,6.310000,6.310000,265500
2018-10-18,6.300000,6.450000,6.230000,6.300000,6.300000,227600
2018-10-19,6.280000,6.407000,6.260000,6.290000,6.290000,117300
2018-10-22,6.310000,6.370000,6.180000,6.310000,6.310000,207700
2018-10-23,6.230000,6.270000,6.030000,6.110000,6.110000,271500
2018-10-24,6.090000,6.130000,5.800000,5.810000,5.810000,141700
2018-10-25,5.820000,6.070000,5.820000,5.980000,5.980000,280200
2018-10-26,5.940000,6.030000,5.850000,5.920000,5.920000,127900
2018-10-29,6.010000,6.080000,5.760000,5.810000,5.810000,198000
2018-10-30,5.820000,6.040000,5.760000,5.850000,5.850000,146900
2018-10-31,5.940000,5.940000,5.700000,5.710000,5.710000,173600
2018-11-01,5.700000,5.890000,5.660000,5.760000,5.760000,259200
2018-11-02,5.750000,6.130000,5.750000,6.050000,6.050000,157500
2018-11-05,6.000000,6.290000,6.000000,6.170000,6.170000,185200
2018-11-06,6.150000,6.300000,6.070000,6.180000,6.180000,138300
2018-11-07,6.150000,6.280000,6.140000,6.270000,6.270000,235100
2018-11-08,6.250000,6.400000,6.250000,6.330000,6.330000,136300
2018-11-09,6.280000,6.320000,6.190000,6.220000,6.220000,150700
2018-11-12,6.240000,6.290000,6.140000,6.170000,6.170000,208000
2018-11-13,6.200000,6.400000,6.130000,6.300000,6.300000,198500
2018-11-14,6.390000,6.400000,6.250000,6.280000,6.280000,159600
2018-11-15,6.310000,6.640000,6.220000,6.630000,6.630000,202000
2018-11-16,6.580000,6.680000,6.410000,6.670000,6.670000,212200
2018-11-19,6.620000,6.790000,6.350000,6.380000,6.380000,183600
2018-11-20,6.390000,6.550000,6.260000,6.360000,6.360000,213800
2018-11-21,6.380000,6.680000,6.310000,6.550000,6.550000,132200
2018-11-23,6.510000,6.690000,6.510000,6.630000,6.630000,70600
2018-11-26,6.620000,6.720000,6.425000,6.450000,6.450000,198600
2018-11-27,6.390000,6.670000,6.390000,6.550000,6.550000,96900
2018-11-28,6.540000,6.730000,6.420000,6.670000,6.670000,225900
2018-11-29,6.640000,6.760000,6.460000,6.660000,6.660000,201100
2018-11-30,6.600000,6.770000,6.550000,6.670000,6.670000,260300
2018-12-03,6.690000,6.800000,6.400000,6.450000,6.450000,384000
2018-12-04,6.000000,6.000000,4.400000,4.470000,4.470000,2369400
2018-12-06,4.630000,4.842000,4.350000,4.800000,4.800000,1102600
2018-12-07,4.840000,4.950000,4.560000,4.660000,4.660000,546500
2018-12-10,4.680000,4.890000,4.560000,4.860000,4.860000,390400
2018-12-11,4.890000,5.130000,4.760000,4.820000,4.820000,670400
2018-12-12,4.830000,4.930000,4.600000,4.600000,4.600000,319500
2018-12-13,4.620000,4.700000,4.180000,4.300000,4.300000,734200
2018-12-14,4.270000,4.480000,4.150000,4.220000,4.220000,792700
2018-12-17,4.190000,4.260000,3.965000,4.000000,4.000000,886300
2018-12-18,4.020000,4.215000,4.020000,4.110000,4.110000,587200
2018-12-19,4.130000,4.190000,3.780000,3.890000,3.890000,670700
2018-12-20,3.850000,3.980000,3.790000,3.820000,3.820000,802100
2018-12-21,3.810000,3.930000,3.750000,3.830000,3.830000,1289700
2018-12-24,3.830000,3.830000,3.580000,3.690000,3.690000,466900
2018-12-26,3.730000,3.815000,3.630000,3.720000,3.720000,861200
2018-12-27,3.670000,3.850000,3.610000,3.830000,3.830000,430300
2018-12-28,3.830000,4.100000,3.813000,3.940000,3.940000,302200
2018-12-31,3.940000,4.060000,3.910000,4.010000,4.010000,212300
2019-01-02,3.970000,4.360000,3.970000,4.330000,4.330000,469200
2019-01-03,4.250000,4.330000,4.100000,4.210000,4.210000,284300
2019-01-04,4.230000,4.550000,4.230000,4.530000,4.530000,684000
2019-01-07,4.570000,4.650000,4.530000,4.600000,4.600000,330600
2019-01-08,4.650000,4.950000,4.580000,4.900000,4.900000,663200
2019-01-09,4.890000,4.890000,4.610000,4.730000,4.730000,473500
2019-01-10,4.650000,4.810000,4.500000,4.700000,4.700000,544200
2019-01-11,4.650000,5.130000,4.621000,5.110000,5.110000,488000
2019-01-14,5.030000,5.400000,5.030000,5.230000,5.230000,441300
2019-01-15,5.240000,5.240000,4.992000,5.170000,5.170000,258100
2019-01-16,5.190000,5.410000,5.090000,5.390000,5.390000,411500
2019-01-17,5.330000,5.330000,5.110000,5.160000,5.160000,270400
2019-01-18,5.180000,5.370000,5.120000,5.260000,5.260000,438600
2019-01-22,5.290000,5.835000,5.261000,5.370000,5.370000,473600
2019-01-23,5.430000,5.490000,5.310000,5.390000,5.390000,223200
2019-01-24,5.400000,5.640000,5.400000,5.590000,5.590000,220300
2019-01-25,5.610000,5.750000,5.548000,5.710000,5.710000,308900
2019-01-28,5.650000,5.850000,5.580000,5.690000,5.690000,295700
2019-01-29,5.690000,5.890000,5.600000,5.730000,5.730000,272900
2019-01-30,5.810000,5.810000,5.620000,5.710000,5.710000,188200
2019-01-31,5.730000,5.750000,5.580000,5.720000,5.720000,283800
2019-02-01,5.720000,5.720000,5.530000,5.600000,5.600000,354800
2019-02-04,5.590000,5.830000,5.510000,5.740000,5.740000,199300
2019-02-05,5.770000,5.850000,5.630000,5.700000,5.700000,191400
2019-02-06,5.740000,5.770000,5.525000,5.600000,5.600000,329600
2019-02-07,5.520000,5.640000,5.450000,5.630000,5.630000,209300
2019-02-08,5.570000,5.890000,5.535000,5.890000,5.890000,339900
2019-02-11,5.870000,5.960000,5.800000,5.930000,5.930000,174800
2019-02-12,5.940000,6.250000,5.940000,6.200000,6.200000,525200
2019-02-13,6.210000,6.430000,6.170000,6.380000,6.380000,463400
2019-02-14,6.360000,6.470000,6.290000,6.400000,6.400000,343600
2019-02-15,6.450000,6.500000,6.335000,6.410000,6.410000,434200
2019-02-19,6.360000,6.700000,6.351000,6.690000,6.690000,409200
2019-02-20,6.620000,7.080000,6.620000,6.990000,6.990000,508900
2019-02-21,7.030000,7.270000,6.950000,6.990000,6.990000,935000
2019-02-22,7.000000,7.450000,7.000000,7.310000,7.310000,571500
2019-02-25,7.330000,7.470000,7.270000,7.400000,7.400000,633600
2019-02-26,7.400000,7.783000,7.300000,7.390000,7.390000,572400
2019-02-27,7.400000,7.420000,6.790000,6.870000,6.870000,928600
2019-02-28,6.910000,7.310000,6.830000,6.890000,6.890000,1128400
2019-03-01,6.950000,7.140000,6.950000,7.110000,7.110000,514900
2019-03-04,7.170000,7.240000,6.750000,6.840000,6.840000,583900
2019-03-05,6.010000,6.030000,4.620000,4.640000,4.640000,1981300
2019-03-06,4.670000,4.720000,4.270000,4.440000,4.440000,1270500
2019-03-07,4.370000,4.400000,3.987000,4.320000,4.320000,1351900
2019-03-08,4.290000,4.370000,4.210000,4.230000,4.230000,594900
2019-03-11,4.240000,4.350000,4.110000,4.140000,4.140000,1851800
2019-03-12,4.140000,4.410000,4.020000,4.390000,4.390000,1351200
2019-03-13,4.380000,4.760000,4.379000,4.700000,4.700000,1199200
2019-03-14,4.700000,4.827000,4.525000,4.580000,4.580000,783600
2019-03-15,4.580000,4.810000,4.580000,4.810000,4.810000,1510300
2019-03-18,4.780000,4.980000,4.780000,4.920000,4.920000,974800
2019-03-19,4.940000,4.995000,4.810000,4.850000,4.850000,603800
2019-03-20,4.840000,4.880000,4.640000,4.830000,4.830000,658200
2019-03-21,4.820000,4.910000,4.670000,4.720000,4.720000,561100
2019-03-22,4.670000,4.720000,4.530000,4.550000,4.550000,438700
2019-03-25,4.510000,4.650000,4.390000,4.620000,4.620000,384400
2019-03-26,4.670000,4.810000,4.410000,4.440000,4.440000,642600
2019-03-27,4.430000,4.670000,4.430000,4.570000,4.570000,492500
2019-03-28,4.590000,4.640000,4.521000,4.600000,4.600000,289200
2019-03-29,4.570000,4.580000,4.140000,4.200000,4.200000,1025200
2019-04-01,4.230000,4.460000,4.230000,4.400000,4.400000,791700
2019-04-02,4.360000,4.400000,4.240000,4.380000,4.380000,453500
2019-04-03,4.430000,4.560000,4.375000,4.530000,4.530000,554400
2019-04-04,4.530000,4.660000,4.500000,4.640000,4.640000,318300
2019-04-05,4.630000,4.830000,4.625000,4.760000,4.760000,424500
2019-04-08,4.880000,4.880000,4.680000,4.770000,4.770000,353400
2019-04-09,4.770000,4.860000,4.580000,4.590000,4.590000,709300
2019-04-10,4.650000,4.770000,4.580000,4.700000,4.700000,572100
2019-04-11,4.700000,4.760000,4.560000,4.670000,4.670000,290800
2019-04-12,4.710000,4.750000,4.470000,4.520000,4.520000,347500
2019-04-15,4.510000,4.570000,4.400000,4.480000,4.480000,284700
2019-04-16,4.500000,4.540000,4.430000,4.440000,4.440000,211300
2019-04-17,4.470000,4.530000,4.290000,4.360000,4.360000,285100
2019-04-18,4.350000,4.415000,4.280000,4.390000,4.390000,237800
2019-04-22,4.270000,4.330000,3.900000,4.200000,4.200000,495600
2019-04-23,4.180000,4.370000,4.160000,4.290000,4.290000,507800
2019-04-24,4.300000,4.500000,4.175000,4.450000,4.450000,399000
2019-04-25,4.400000,4.500000,4.230000,4.350000,4.350000,544200
2019-04-26,4.370000,4.510000,4.270000,4.400000,4.400000,977700
2019-04-29,4.430000,4.475000,4.310000,4.370000,4.370000,937700
2019-04-30,4.370000,4.520000,4.255000,4.300000,4.300000,510400
2019-05-01,4.330000,4.480000,4.290000,4.380000,4.380000,531500
2019-05-02,4.380000,4.420000,4.060000,4.110000,4.110000,449900
2019-05-03,4.120000,4.290000,4.080000,4.270000,4.270000,432800
2019-05-06,4.230000,4.260000,4.060000,4.240000,4.240000,295300
2019-05-07,4.200000,4.200000,3.950000,4.000000,4.000000,457000
2019-05-08,4.010000,4.140000,3.970000,4.090000,4.090000,493200
2019-05-09,4.070000,4.100000,3.962000,4.090000,4.090000,406200
2019-05-10,4.060000,4.100000,3.970000,4.060000,4.060000,403600
2019-05-13,3.980000,4.000000,3.730000,3.840000,3.840000,539400
2019-05-14,3.870000,4.010000,3.770000,3.950000,3.950000,690600
2019-05-15,3.890000,3.980000,3.640000,3.860000,3.860000,804100
2019-05-16,3.890000,3.910000,3.660000,3.710000,3.710000,522600
2019-05-17,3.690000,3.820000,3.620000,3.660000,3.660000,455100
2019-05-20,3.640000,3.640000,3.284000,3.500000,3.500000,1091000
2019-05-21,3.500000,3.540000,3.440000,3.460000,3.460000,473200
2019-05-22,3.450000,3.500000,3.300000,3.480000,3.480000,688600
2019-05-23,3.420000,3.570000,3.360000,3.530000,3.530000,731200
2019-05-24,3.550000,3.600000,3.370000,3.390000,3.390000,1497800
2019-05-28,3.380000,3.520000,3.380000,3.400000,3.400000,1108800
2019-05-29,3.390000,3.420000,3.270000,3.360000,3.360000,515200
2019-05-30,3.380000,3.400000,3.200000,3.300000,3.300000,516900
2019-05-31,3.240000,3.240000,3.150000,3.170000,3.170000,339400
2019-06-03,3.170000,3.235000,3.130000,3.190000,3.190000,541800
2019-06-04,3.240000,3.370000,3.180000,3.180000,3.180000,566900
2019-06-05,3.200000,3.250000,3.000000,3.150000,3.150000,454600
2019-06-06,3.190000,3.190000,2.910000,3.050000,3.050000,711400
2019-06-07,3.080000,3.290000,3.040000,3.240000,3.240000,504500
2019-06-10,3.200000,3.370000,3.200000,3.310000,3.310000,242600
2019-06-11,3.320000,3.460000,3.270000,3.330000,3.330000,536100
2019-06-12,3.300000,3.360000,3.270000,3.300000,3.300000,231000
2019-06-13,3.300000,3.480000,3.260000,3.460000,3.460000,270200
2019-06-14,3.420000,3.455000,3.360000,3.400000,3.400000,245400
2019-06-17,3.390000,3.410000,3.290000,3.310000,3.310000,427700
2019-06-18,3.360000,3.450000,3.300000,3.300000,3.300000,296700
2019-06-19,3.320000,3.320000,3.150000,3.150000,3.150000,381600
2019-06-20,3.200000,3.270000,3.075000,3.080000,3.080000,459200
2019-06-21,3.070000,3.160000,3.030000,3.140000,3.140000,539500
2019-06-24,3.180000,3.280000,2.960000,2.980000,2.980000,752400
2019-06-25,3.110000,3.280000,3.101000,3.140000,3.140000,950900
2019-06-26,3.110000,3.719000,3.110000,3.590000,3.590000,1153300
2019-06-27,3.640000,3.700000,3.437000,3.460000,3.460000,1003600
2019-06-28,3.570000,3.640000,3.305000,3.360000,3.360000,1264200
2019-07-01,3.410000,3.550000,3.250000,3.320000,3.320000,502700
2019-07-02,3.300000,3.320000,3.115000,3.150000,3.150000,444800
2019-07-03,3.180000,3.250000,3.085000,3.240000,3.240000,209300
2019-07-05,3.210000,3.395000,3.200000,3.390000,3.390000,295500
2019-07-08,3.350000,3.410000,3.280000,3.390000,3.390000,272800
2019-07-09,3.390000,3.400000,3.280000,3.360000,3.360000,387300
2019-07-10,3.410000,3.450000,3.342000,3.410000,3.410000,219800
2019-07-11,3.410000,3.520000,3.400000,3.510000,3.510000,439200
2019-07-12,3.510000,3.630000,3.510000,3.560000,3.560000,311000
2019-07-15,3.950000,4.140000,3.870000,3.960000,3.960000,717700
2019-07-16,3.940000,4.030000,3.850000,4.000000,4.000000,456500
2019-07-17,3.980000,4.185000,3.930000,4.110000,4.110000,588900
2019-07-18,4.100000,4.190000,4.080000,4.130000,4.130000,565300
2019-07-19,4.110000,4.180000,4.100000,4.100000,4.100000,432800
2019-07-22,4.100000,4.110000,3.810000,3.830000,3.830000,348500
2019-07-23,3.850000,3.860000,3.570000,3.640000,3.640000,488000
2019-07-24,3.630000,3.742000,3.510000,3.530000,3.530000,384600
2019-07-25,3.530000,3.610000,3.400000,3.480000,3.480000,746600
2019-07-26,3.490000,3.579000,3.460000,3.500000,3.500000,343800
2019-07-29,3.510000,3.530000,3.440000,3.440000,3.440000,243900
2019-07-30,3.450000,3.530000,3.360000,3.480000,3.480000,379000
2019-07-31,3.480000,3.560000,3.430000,3.500000,3.500000,467600
2019-08-01,3.490000,3.660000,3.430000,3.490000,3.490000,494000
2019-08-02,3.480000,3.540000,3.380000,3.390000,3.390000,246100
2019-08-05,3.350000,3.360000,3.100000,3.140000,3.140000,419700
2019-08-06,3.180000,3.220000,3.085000,3.170000,3.170000,431700
2019-08-07,3.170000,3.260000,3.122000,3.210000,3.210000,224800
2019-08-08,3.240000,3.261000,3.180000,3.230000,3.230000,179600
2019-08-09,3.250000,3.260000,3.020000,3.080000,3.080000,381200
2019-08-12,3.080000,3.110000,2.930000,2.940000,2.940000,416600
2019-08-13,2.980000,3.020000,2.900000,2.910000,2.910000,321600
2019-08-14,2.920000,3.080000,2.890000,3.050000,3.050000,272800
2019-08-15,3.050000,3.070000,2.940000,2.980000,2.980000,300900
2019-08-16,3.010000,3.220000,3.010000,3.200000,3.200000,273300
2019-08-19,3.250000,3.380000,3.220000,3.290000,3.290000,303000
2019-08-20,3.270000,3.340000,3.230000,3.330000,3.330000,291400
2019-08-21,3.330000,3.410000,3.290000,3.370000,3.370000,199100
2019-08-22,3.380000,3.430000,3.200000,3.320000,3.320000,282400
2019-08-23,3.300000,3.340000,3.200000,3.300000,3.300000,436400
2019-08-26,3.320000,3.560000,3.320000,3.420000,3.420000,501100
2019-08-27,3.600000,3.640000,3.320000,3.500000,3.500000,617200
2019-08-28,3.550000,3.630000,3.480000,3.590000,3.590000,552300
2019-08-29,3.610000,3.910000,3.590000,3.880000,3.880000,487000
2019-08-30,3.930000,4.050000,3.780000,3.900000,3.900000,468800
2019-09-03,3.870000,3.870000,3.510000,3.660000,3.660000,429800
2019-09-04,3.690000,3.820000,3.645000,3.700000,3.700000,314400
2019-09-05,3.800000,3.870000,3.610000,3.620000,3.620000,590500
2019-09-06,3.680000,3.700000,3.510000,3.670000,3.670000,319700
2019-09-09,3.690000,3.900000,3.690000,3.840000,3.840000,592200
2019-09-10,3.850000,4.160000,3.810000,4.090000,4.090000,444200
2019-09-11,4.140000,4.570000,4.010000,4.390000,4.390000,707900
2019-09-12,4.410000,4.550000,4.270000,4.520000,4.520000,534400
2019-09-13,4.540000,4.730000,4.380000,4.410000,4.410000,439500
2019-09-16,4.360000,4.410000,3.950000,4.020000,4.020000,669800
2019-09-17,3.860000,3.860000,3.080000,3.310000,3.310000,2007800
2019-09-18,3.300000,3.330000,3.000000,3.250000,3.250000,1650600
2019-09-19,3.250000,3.370000,3.110000,3.200000,3.200000,613900
2019-09-20,3.170000,3.210000,3.010000,3.120000,3.120000,1338800
2019-09-23,3.100000,3.270000,3.090000,3.250000,3.250000,574000
2019-09-24,3.240000,3.320000,3.190000,3.300000,3.300000,586300
2019-09-25,3.390000,3.610000,3.310000,3.390000,3.390000,634800
2019-09-26,3.390000,3.400000,3.090000,3.150000,3.150000,399400
2019-09-27,3.150000,3.230000,3.060000,3.220000,3.220000,540400
2019-09-30,3.190000,3.200000,3.050000,3.120000,3.120000,567400
2019-10-01,3.120000,3.190000,3.000000,3.020000,3.020000,434100
2019-10-02,3.050000,3.050000,2.907000,2.960000,2.960000,678200
2019-10-03,2.920000,3.000000,2.820000,2.990000,2.990000,426900
2019-10-04,3.010000,3.180000,2.950000,3.170000,3.170000,690700
2019-10-07,3.170000,3.240000,3.140000,3.160000,3.160000,254700
2019-10-08,3.070000,3.220000,3.070000,3.210000,3.210000,426800
2019-10-09,3.210000,3.310000,3.150000,3.290000,3.290000,319800
2019-10-10,3.250000,3.312000,3.140000,3.140000,3.140000,381700
2019-10-11,3.230000,3.450000,3.200000,3.300000,3.300000,909800
2019-10-14,3.300000,3.450000,3.230000,3.430000,3.430000,364900
2019-10-15,3.390000,3.500000,3.370000,3.430000,3.430000,409500
2019-10-16,3.380000,3.480000,3.350000,3.440000,3.440000,222600
2019-10-17,3.470000,3.740000,3.470000,3.600000,3.600000,427400
2019-10-18,3.580000,3.778000,3.580000,3.730000,3.730000,414400
2019-10-21,3.750000,4.120000,3.750000,3.970000,3.970000,627000
2019-10-22,3.960000,4.190000,3.920000,4.130000,4.130000,383900
2019-10-23,4.170000,4.190000,4.060000,4.150000,4.150000,355800
2019-10-24,4.170000,4.230000,3.990000,4.120000,4.120000,604700
2019-10-25,4.110000,4.310000,4.090000,4.190000,4.190000,362000
2019-10-28,4.190000,4.325000,4.180000,4.190000,4.190000,231100
2019-10-29,4.180000,4.270000,4.125000,4.190000,4.190000,346900
2019-10-30,4.170000,4.240000,4.095000,4.190000,4.190000,290100
2019-10-31,4.180000,4.215000,4.050000,4.110000,4.110000,236300
2019-11-01,4.140000,4.170000,3.895000,3.910000,3.910000,428200
2019-11-04,3.920000,4.130000,3.920000,4.060000,4.060000,373900
2019-11-05,4.110000,4.360000,4.105000,4.200000,4.200000,408800
2019-11-06,4.220000,4.290000,4.120000,4.160000,4.160000,403500
2019-11-07,4.230000,4.350000,4.160000,4.310000,4.310000,261200
2019-11-08,4.310000,4.505000,4.190000,4.320000,4.320000,662300
2019-11-11,4.310000,4.370000,4.210000,4.230000,4.230000,258100
2019-11-12,4.250000,4.350000,4.150000,4.340000,4.340000,287700
2019-11-13,4.320000,4.320000,4.170000,4.260000,4.260000,218400
2019-11-14,4.270000,4.380000,4.250000,4.370000,4.370000,205400
2019-11-15,4.420000,4.710000,4.350000,4.650000,4.650000,556000
2019-11-18,4.620000,4.760000,4.560000,4.720000,4.720000,427000
2019-11-19,4.760000,5.030000,4.690000,4.720000,4.720000,639200
2019-11-20,4.660000,4.700000,4.430000,4.440000,4.440000,529800
2019-11-21,4.400000,4.455000,4.320000,4.390000,4.390000,295900
2019-11-22,4.450000,4.450000,4.340000,4.400000,4.400000,290800
2019-11-25,4.500000,4.930000,4.450000,4.910000,4.910000,389300
2019-11-26,4.900000,5.070000,4.887000,5.000000,5.000000,331900
2019-11-27,4.990000,5.060000,4.820000,4.900000,4.900000,150200
2019-11-29,4.950000,5.100000,4.910000,5.040000,5.040000,127100
2019-12-02,5.060000,5.060000,4.850000,4.860000,4.860000,334300
2019-12-03,4.840000,4.890000,4.675000,4.800000,4.800000,411300
2019-12-04,4.030000,4.160000,3.650000,3.800000,3.800000,1291600
2019-12-05,3.930000,4.100000,3.820000,3.880000,3.880000,593900
2019-12-06,3.790000,4.080000,3.790000,4.070000,4.070000,604200
2019-12-09,4.110000,4.340000,4.080000,4.340000,4.340000,461400
2019-12-10,4.260000,4.480000,4.260000,4.370000,4.370000,400300
2019-12-11,4.300000,4.435000,4.290000,4.370000,4.370000,390100
2019-12-12,4.320000,4.490000,4.290000,4.470000,4.470000,281500
2019-12-13,4.500000,4.500000,4.185000,4.240000,4.240000,346800
2019-12-16,4.300000,4.570000,4.280000,4.350000,4.350000,534600
2019-12-17,4.370000,4.790000,4.360000,4.650000,4.650000,656200
2019-12-18,4.720000,4.860000,4.600000,4.610000,4.610000,945700
2019-12-19,4.690000,4.760000,4.392000,4.400000,4.400000,464900
2019-12-20,4.420000,4.470000,4.280000,4.280000,4.280000,1289500
2019-12-23,4.280000,4.300000,4.030000,4.180000,4.180000,376000
2019-12-24,4.230000,4.285000,4.150000,4.170000,4.170000,95800
2019-12-26,4.170000,4.280000,4.120000,4.190000,4.190000,169300
2019-12-27,4.150000,4.250000,4.124000,4.170000,4.170000,177900
2019-12-30,4.190000,4.310000,4.070000,4.200000,4.200000,292600
2019-12-31,4.170000,4.320000,4.150000,4.270000,4.270000,372100
2020-01-02,4.320000,4.350000,4.030000,4.050000,4.050000,240700
2020-01-03,4.060000,4.100000,3.820000,3.890000,3.890000,425700
2020-01-06,3.900000,4.510000,3.870000,4.350000,4.350000,499900
2020-01-07,4.320000,4.320000,4.090000,4.120000,4.120000,279800
2020-01-08,3.980000,4.160000,3.890000,3.900000,3.900000,387700
2020-01-09,3.900000,3.940000,3.815000,3.830000,3.830000,236800
2020-01-10,3.830000,3.840000,3.690000,3.720000,3.720000,226600
2020-01-13,3.730000,3.840000,3.620000,3.720000,3.720000,249300
2020-01-14,3.700000,3.850000,3.660000,3.760000,3.760000,228700
2020-01-15,3.760000,3.880000,3.680000,3.730000,3.730000,253600
2020-01-16,3.760000,4.035000,3.760000,3.910000,3.910000,462000
2020-01-17,4.010000,4.030000,3.860000,3.920000,3.920000,224500
2020-01-21,3.960000,3.960000,3.820000,3.860000,3.860000,213700
2020-01-22,3.840000,4.010000,3.780000,3.780000,3.780000,348900
2020-01-23,3.790000,3.910000,3.600000,3.850000,3.850000,368700
2020-01-24,3.860000,3.860000,3.650000,3.690000,3.690000,315500
2020-01-27,3.610000,3.680000,3.500000,3.580000,3.580000,404000
2020-01-28,3.610000,3.670000,3.560000,3.580000,3.580000,136600
2020-01-29,3.580000,3.592000,3.280000,3.280000,3.280000,441200
2020-01-30,3.260000,3.428000,3.070000,3.390000,3.390000,490200
2020-01-31,3.390000,3.590000,3.360000,3.440000,3.440000,421000
2020-02-03,3.440000,3.490000,3.330000,3.350000,3.350000,271300
2020-02-04,3.420000,3.450000,3.260000,3.290000,3.290000,224500
2020-02-05,3.310000,3.450000,3.280000,3.430000,3.430000,251500
2020-02-06,3.430000,3.970000,3.390000,3.590000,3.590000,560300
2020-02-07,3.580000,3.580000,3.300000,3.390000,3.390000,267100
2020-02-10,3.430000,4.000000,3.360000,3.730000,3.730000,947300
2020-02-11,3.790000,4.050000,3.680000,3.940000,3.940000,629500
2020-02-12,3.950000,3.990000,3.580000,3.630000,3.630000,569000
2020-02-13,3.640000,3.730000,3.530000,3.710000,3.710000,256900