Date,Open,High,Low,Close,Adj Close,Volume
2019-04-25,9.700000,9.720000,9.700000,9.700000,9.700000,202000
2019-04-26,9.700000,9.700000,9.700000,9.700000,9.700000,0
2019-04-29,9.700000,9.700000,9.700000,9.700000,9.700000,0
2019-04-30,9.700000,9.700000,9.700000,9.700000,9.700000,0
2019-05-01,9.700000,9.750000,9.700000,9.700000,9.700000,100000
2019-05-02,9.700000,9.700000,9.700000,9.700000,9.700000,0
2019-05-03,9.700000,9.700000,9.700000,9.700000,9.700000,0
2019-05-06,9.700000,9.700000,9.700000,9.700000,9.700000,0
2019-05-07,9.700000,9.700000,9.700000,9.700000,9.700000,0
2019-05-08,9.700000,9.700000,9.700000,9.700000,9.700000,0
2019-05-09,9.700000,9.700000,9.700000,9.700000,9.700000,0
2019-05-10,9.700000,9.700000,9.700000,9.700000,9.700000,0
2019-05-13,9.700000,9.700000,9.700000,9.700000,9.700000,0
2019-05-14,9.700000,9.700000,9.700000,9.700000,9.700000,0
2019-05-15,9.700000,9.700000,9.700000,9.700000,9.700000,0
2019-05-16,9.700000,9.700000,9.700000,9.700000,9.700000,0
2019-05-17,9.674000,9.674000,9.674000,9.674000,9.674000,200
2019-05-20,9.674000,9.674000,9.674000,9.674000,9.674000,0
2019-05-21,9.674000,9.674000,9.674000,9.674000,9.674000,0
2019-05-22,9.674000,9.674000,9.674000,9.674000,9.674000,0
2019-05-23,9.796000,9.796000,9.796000,9.796000,9.796000,200
2019-05-24,9.796000,9.796000,9.796000,9.796000,9.796000,0
2019-05-28,9.796000,9.796000,9.796000,9.796000,9.796000,0
2019-05-29,9.796000,9.796000,9.796000,9.796000,9.796000,0
2019-05-30,9.796000,9.796000,9.796000,9.796000,9.796000,0
2019-05-31,9.796000,9.796000,9.796000,9.796000,9.796000,0
2019-06-03,9.796000,9.796000,9.796000,9.796000,9.796000,0
2019-06-04,9.850000,9.899000,9.790000,9.790000,9.790000,16200
2019-06-05,9.790000,9.790000,9.790000,9.790000,9.790000,0
2019-06-06,9.850000,9.850000,9.790000,9.796000,9.796000,300
2019-06-07,9.750000,9.750000,9.750000,9.750000,9.750000,800
2019-06-10,9.750000,9.750000,9.750000,9.750000,9.750000,0
2019-06-11,9.750000,9.750000,9.750000,9.750000,9.750000,0
2019-06-12,9.750000,9.750000,9.750000,9.750000,9.750000,0
2019-06-13,9.750000,9.750000,9.750000,9.750000,9.750000,0
2019-06-14,9.750000,9.750000,9.750000,9.750000,9.750000,0
2019-06-17,9.750000,9.750000,9.750000,9.750000,9.750000,0
2019-06-18,9.850000,9.850000,9.850000,9.850000,9.850000,100
2019-06-19,9.850000,9.850000,9.813000,9.813000,9.813000,200
2019-06-20,9.720000,9.770000,9.720000,9.770000,9.770000,200
2019-06-21,9.770000,9.770000,9.770000,9.770000,9.770000,0
2019-06-24,9.790000,9.790000,9.790000,9.790000,9.790000,25000
2019-06-25,9.750000,9.750000,9.750000,9.750000,9.750000,5500
2019-06-26,9.750000,9.750000,9.750000,9.750000,9.750000,1000
2019-06-27,9.730000,9.730000,9.730000,9.730000,9.730000,50000
2019-06-28,9.750000,9.750000,9.750000,9.750000,9.750000,45100
2019-07-01,9.770000,9.770000,9.740000,9.740000,9.740000,200
2019-07-02,9.760000,9.760000,9.750000,9.750000,9.750000,4100
2019-07-03,9.750000,9.750000,9.750000,9.750000,9.750000,1000
2019-07-05,9.750000,9.750000,9.750000,9.750000,9.750000,0
2019-07-08,9.750000,9.750000,9.750000,9.750000,9.750000,466300
2019-07-09,9.750000,9.750000,9.750000,9.750000,9.750000,0
2019-07-10,9.760000,9.760000,9.760000,9.760000,9.760000,74500
2019-07-11,9.770000,9.770000,9.770000,9.770000,9.770000,2400
2019-07-12,9.770000,9.770000,9.770000,9.770000,9.770000,0
2019-07-15,9.780000,9.960000,9.780000,9.790000,9.790000,20300
2019-07-16,9.790000,9.790000,9.790000,9.790000,9.790000,0
2019-07-17,9.790000,9.790000,9.790000,9.790000,9.790000,0
2019-07-18,9.790000,9.790000,9.790000,9.790000,9.790000,0
2019-07-19,9.790000,9.790000,9.790000,9.790000,9.790000,0
2019-07-22,9.770000,9.770000,9.760000,9.770000,9.770000,6900
2019-07-23,9.750000,9.770000,9.750000,9.770000,9.770000,7100
2019-07-24,9.770000,9.770000,9.770000,9.770000,9.770000,0
2019-07-25,9.770000,9.770000,9.770000,9.770000,9.770000,0
2019-07-26,9.770000,9.770000,9.770000,9.770000,9.770000,0
2019-07-29,9.770000,9.770000,9.770000,9.770000,9.770000,2400
2019-07-30,9.770000,9.770000,9.770000,9.770000,9.770000,2400
2019-07-31,9.770000,9.770000,9.770000,9.770000,9.770000,2400
2019-08-01,9.790000,9.790000,9.790000,9.790000,9.790000,100
2019-08-02,9.790000,9.790000,9.790000,9.790000,9.790000,100
2019-08-05,9.790000,9.790000,9.790000,9.790000,9.790000,100
2019-08-06,9.790000,9.790000,9.788000,9.788000,9.788000,1200
2019-08-07,9.790000,9.790000,9.788000,9.788000,9.788000,1200
2019-08-08,9.789000,9.789000,9.788000,9.788000,9.788000,1200
2019-08-09,9.820000,9.820000,9.820000,9.820000,9.820000,100
2019-08-12,9.800000,9.820000,9.800000,9.820000,9.820000,302600
2019-08-13,9.800000,9.820000,9.800000,9.820000,9.820000,302600
2019-08-14,9.810000,9.860000,9.780000,9.800000,9.800000,455500
2019-08-15,9.800000,9.800000,9.770000,9.770000,9.770000,112400
2019-08-16,9.800000,9.800000,9.770000,9.770000,9.770000,500
2019-08-19,9.770000,9.770000,9.770000,9.770000,9.770000,0
2019-08-20,9.790000,9.800000,9.790000,9.790000,9.790000,163000
2019-08-21,9.790000,9.790000,9.790000,9.790000,9.790000,0
2019-08-22,9.790000,9.790000,9.790000,9.790000,9.790000,0
2019-08-23,9.770000,9.770000,9.770000,9.770000,9.770000,200
2019-08-26,9.780000,9.780000,9.770000,9.770000,9.770000,50000
2019-08-27,9.780000,9.780000,9.780000,9.780000,9.780000,7000
2019-08-28,9.770000,9.800000,9.770000,9.800000,9.800000,204600
2019-08-29,9.800000,9.800000,9.800000,9.800000,9.800000,80000
2019-08-30,9.810000,9.830000,9.810000,9.830000,9.830000,25000
2019-09-03,9.820000,9.820000,9.820000,9.820000,9.820000,1000
2019-09-04,9.820000,9.820000,9.820000,9.820000,9.820000,0
2019-09-05,9.810000,9.850000,9.810000,9.850000,9.850000,70100
2019-09-06,9.850000,9.850000,9.850000,9.850000,9.850000,0
2019-09-09,9.830000,9.830000,9.830000,9.830000,9.830000,10000
2019-09-10,9.830000,9.980000,9.810000,9.980000,9.980000,223200
2019-09-11,9.850000,9.890000,9.850000,9.890000,9.890000,9800
2019-09-12,9.920000,9.920000,9.920000,9.920000,9.920000,400
2019-09-13,9.870000,9.890000,9.870000,9.880000,9.880000,9700
2019-09-16,9.830000,9.900000,9.830000,9.890000,9.890000,4200
2019-09-17,9.900000,9.940000,9.875000,9.940000,9.940000,3600
2019-09-18,9.830000,9.920000,9.830000,9.900000,9.900000,10300
2019-09-19,9.920000,9.920000,9.920000,9.920000,9.920000,100
2019-09-20,9.920000,9.920000,9.920000,9.920000,9.920000,100
2019-09-23,9.920000,9.920000,9.920000,9.920000,9.920000,0
2019-09-24,9.920000,9.920000,9.920000,9.920000,9.920000,0
2019-09-25,9.910000,9.920000,9.910000,9.920000,9.920000,214900
2019-09-26,9.920000,9.920000,9.920000,9.920000,9.920000,0
2019-09-27,9.920000,9.920000,9.920000,9.920000,9.920000,0
2019-09-30,9.920000,9.920000,9.920000,9.920000,9.920000,0
2019-10-01,9.920000,9.920000,9.920000,9.920000,9.920000,0
2019-10-02,9.920000,9.920000,9.920000,9.920000,9.920000,100
2019-10-03,9.930000,9.950000,9.920000,9.920000,9.920000,400
2019-10-04,9.920000,9.920000,9.920000,9.920000,9.920000,10000
2019-10-07,9.920000,9.920000,9.920000,9.920000,9.920000,0
2019-10-08,9.920000,9.920000,9.920000,9.920000,9.920000,0
2019-10-09,9.820000,9.900000,9.820000,9.900000,9.900000,300
2019-10-10,9.860000,9.860000,9.850000,9.850000,9.850000,4800
2019-10-11,9.870000,9.870000,9.870000,9.870000,9.870000,100
2019-10-14,9.870000,9.870000,9.870000,9.870000,9.870000,0
2019-10-15,9.870000,9.870000,9.870000,9.870000,9.870000,0
2019-10-16,9.870000,9.870000,9.870000,9.870000,9.870000,0
2019-10-17,9.820000,9.910000,9.820000,9.910000,9.910000,3100
2019-10-18,9.910000,9.910000,9.910000,9.910000,9.910000,0
2019-10-21,9.820000,9.910000,9.820000,9.860000,9.860000,54100
2019-10-22,9.820000,9.875000,9.820000,9.860000,9.860000,5800
2019-10-23,9.850000,9.860000,9.850000,9.860000,9.860000,25300
2019-10-24,9.910000,9.950000,9.900000,9.900000,9.900000,421800
2019-10-25,9.860000,9.920000,9.860000,9.920000,9.920000,50100
2019-10-28,9.890000,9.890000,9.880000,9.880000,9.880000,2300
2019-10-29,9.880000,9.880000,9.870000,9.870000,9.870000,290900
2019-10-30,9.890000,9.890000,9.880000,9.880000,9.880000,11500
2019-10-31,9.880000,9.880000,9.880000,9.880000,9.880000,0
2019-11-01,9.880000,9.880000,9.880000,9.880000,9.880000,50000
2019-11-04,9.880000,9.880000,9.880000,9.880000,9.880000,0
2019-11-05,9.880000,9.880000,9.880000,9.880000,9.880000,0
2019-11-06,9.880000,9.880000,9.880000,9.880000,9.880000,0
2019-11-07,9.880000,9.880000,9.880000,9.880000,9.880000,0
2019-11-08,9.880000,9.880000,9.880000,9.880000,9.880000,0
2019-11-11,9.880000,9.880000,9.880000,9.880000,9.880000,0
2019-11-12,9.880000,9.880000,9.880000,9.880000,9.880000,0
2019-11-13,9.880000,9.880000,9.880000,9.880000,9.880000,156300
2019-11-14,9.880000,9.880000,9.880000,9.880000,9.880000,0
2019-11-15,9.880000,9.880000,9.880000,9.880000,9.880000,0
2019-11-18,9.880000,9.880000,9.880000,9.880000,9.880000,0
2019-11-19,9.880000,9.880000,9.880000,9.880000,9.880000,0
2019-11-20,9.920000,9.920000,9.920000,9.920000,9.920000,185000
2019-11-21,9.920000,9.920000,9.920000,9.920000,9.920000,0
2019-11-22,9.940000,9.950000,9.940000,9.950000,9.950000,50000
2019-11-25,9.940000,9.940000,9.940000,9.940000,9.940000,300
2019-11-26,9.950000,9.950000,9.940000,9.940000,9.940000,27000
2019-11-27,9.940000,9.940000,9.940000,9.940000,9.940000,800
2019-11-29,9.940000,9.940000,9.940000,9.940000,9.940000,0
2019-12-02,9.940000,9.940000,9.940000,9.940000,9.940000,0
2019-12-03,9.940000,9.940000,9.940000,9.940000,9.940000,0
2019-12-04,9.940000,9.940000,9.940000,9.940000,9.940000,0
2019-12-05,9.940000,9.940000,9.940000,9.940000,9.940000,0
2019-12-06,9.970000,9.970000,9.970000,9.970000,9.970000,200
2019-12-09,9.970000,9.970000,9.970000,9.970000,9.970000,25800
2019-12-10,9.970000,9.970000,9.970000,9.970000,9.970000,0
2019-12-11,9.990000,9.990000,9.970000,9.970000,9.970000,5300
2019-12-12,9.980000,9.990000,9.980000,9.990000,9.990000,20700
2019-12-13,10.120000,10.120000,10.089000,10.100000,10.100000,2550600
2019-12-16,10.060000,10.100000,10.037000,10.100000,10.100000,303900
2019-12-17,10.100000,10.100000,10.099000,10.100000,10.100000,6200
2019-12-18,10.050000,10.053000,10.042000,10.053000,10.053000,700
2019-12-19,10.090000,10.120000,10.000000,10.000000,10.000000,121000
2019-12-20,10.090000,10.150000,10.090000,10.150000,10.150000,108400
2019-12-23,10.150000,10.150000,10.090000,10.090000,10.090000,25300
2019-12-24,10.090000,10.090000,10.090000,10.090000,10.090000,10000
2019-12-26,10.000000,10.050000,10.000000,10.050000,10.050000,16000
2019-12-27,10.080000,10.080000,10.080000,10.080000,10.080000,2600
2019-12-30,10.090000,10.090000,10.090000,10.090000,10.090000,20000
2019-12-31,10.010000,10.010000,10.010000,10.010000,10.010000,4300
2020-01-02,10.010000,10.010000,10.010000,10.010000,10.010000,0
2020-01-03,9.980000,10.090000,9.980000,10.090000,10.090000,21600
2020-01-06,10.090000,10.090000,10.090000,10.090000,10.090000,0
2020-01-07,10.090000,10.110000,10.090000,10.110000,10.110000,199800
2020-01-08,10.150000,10.150000,10.100000,10.110000,10.110000,31200
2020-01-09,10.140000,10.140000,10.110000,10.120000,10.120000,95800
2020-01-10,10.140000,10.140000,10.120000,10.140000,10.140000,312800
2020-01-13,10.150000,10.170000,10.140000,10.170000,10.170000,990300
2020-01-14,10.200000,10.200000,10.140000,10.180000,10.180000,679900
2020-01-15,10.200000,10.220000,10.180000,10.185000,10.185000,858200
2020-01-16,10.240000,10.370000,10.210000,10.320000,10.320000,1725200
2020-01-17,10.220000,10.540000,10.220000,10.320000,10.320000,1030900
2020-01-21,10.250000,10.360000,10.250000,10.260000,10.260000,283500
2020-01-22,10.180000,10.290000,10.180000,10.280000,10.280000,258000
2020-01-23,10.400000,10.400000,10.220000,10.237000,10.237000,79100
2020-01-24,10.350000,10.350000,10.200000,10.230000,10.230000,849100
2020-01-27,10.200000,10.250000,10.190000,10.205000,10.205000,1022400
2020-01-28,10.380000,10.380000,10.180000,10.200000,10.200000,1114800
2020-01-29,10.250000,10.400000,10.180000,10.200000,10.200000,1936900
2020-01-30,10.300000,10.300000,10.210000,10.220000,10.220000,354800
2020-01-31,10.250000,10.250000,10.220000,10.240000,10.240000,201200
2020-02-03,10.240000,10.240000,10.200000,10.220000,10.220000,930400
2020-02-04,10.230000,10.230000,10.200000,10.220000,10.220000,1544100
2020-02-05,10.200000,10.280000,10.200000,10.270000,10.270000,2102400
2020-02-06,10.210000,10.230000,10.210000,10.210000,10.210000,1069700
2020-02-07,10.180000,10.300000,10.180000,10.300000,10.300000,478900
2020-02-10,10.380000,10.380000,10.250000,10.340000,10.340000,249500
2020-02-11,10.430000,10.430000,10.300000,10.350000,10.350000,61900
2020-02-12,10.290000,10.370000,10.290000,10.340000,10.340000,49400
2020-02-13,10.400000,10.420000,10.330000,10.350000,10.350000,302100
