Date,Open,High,Low,Close,Adj Close,Volume
2014-10-09,14.000000,14.500000,13.250000,13.950000,12.232895,9086800
2014-10-10,13.880000,14.100000,13.560000,13.870000,12.162743,1786000
2014-10-13,13.900000,14.480000,13.710000,14.000000,12.276738,817700
2014-10-14,14.030000,14.250000,13.850000,14.000000,12.276738,302000
2014-10-15,13.900000,14.110000,13.850000,14.000000,12.276738,568900
2014-10-16,13.750000,14.000000,13.750000,13.910000,12.197819,617800
2014-10-17,13.830000,14.050000,13.821000,13.960000,12.241662,308200
2014-10-20,13.870000,14.290000,13.850000,14.290000,12.531043,155500
2014-10-21,14.320000,14.750000,14.250000,14.680000,12.873039,400500
2014-10-22,14.500000,15.320000,14.370000,14.700000,12.890579,403900
2014-10-23,14.750000,14.830000,14.260000,14.500000,12.715195,172600
2014-10-24,14.430000,15.010000,14.220000,14.900000,13.065960,221700
2014-10-27,14.750000,14.800000,14.510000,14.760000,12.943192,64400
2014-10-28,14.660000,15.010000,14.310000,15.000000,13.153651,150500
2014-10-29,15.000000,15.010000,14.620000,14.780000,12.960730,107200
2014-10-30,14.700000,14.730000,14.500000,14.630000,12.829191,119200
2014-10-31,14.650000,15.000000,14.640000,14.970000,13.127345,108700
2014-11-03,14.940000,15.040000,14.510000,14.740000,12.925656,58400
2014-11-04,14.780000,14.920000,14.000000,14.700000,12.890579,207100
2014-11-05,14.920000,15.200000,14.425000,15.120000,13.258879,352100
2014-11-06,15.000000,15.739000,14.810000,15.400000,13.504414,213800
2014-11-07,15.500000,15.780000,15.360000,15.670000,13.741182,265400
2014-11-10,15.650000,15.800000,15.390000,15.450000,13.548259,221900
2014-11-11,15.350000,16.010000,15.120000,15.370000,13.478108,393600
2014-11-12,15.500000,16.000000,15.350000,15.680000,13.749949,368900
2014-11-13,15.730000,16.299999,15.430000,15.590000,13.671028,284900
2014-11-14,15.560000,15.800000,15.270000,15.570000,13.653491,234700
2014-11-17,15.690000,16.290001,15.400000,15.750000,13.811333,448500
2014-11-18,15.740000,15.932000,15.530000,15.660000,13.732409,213500
2014-11-19,15.700000,15.813000,14.760000,15.130000,13.267647,277300
2014-11-20,15.340000,15.800000,15.110000,15.350000,13.460568,122600
2014-11-21,15.600000,15.670000,15.400000,15.460000,13.557028,118100
2014-11-24,15.350000,15.790000,15.350000,15.580000,13.662260,94400
2014-11-25,15.500000,15.830000,15.280000,15.500000,13.592105,189600
2014-11-26,15.430000,15.750000,15.405000,15.690000,13.758718,79600
2014-11-28,15.580000,15.722000,15.190000,15.500000,13.592105,74000
2014-12-01,15.360000,15.595000,15.360000,15.520000,13.609644,170200
2014-12-02,15.580000,16.000000,15.470000,15.550000,13.635952,349300
2014-12-03,15.580000,15.760000,15.300000,15.580000,13.662260,174600
2014-12-04,15.515000,15.753000,15.280000,15.500000,13.592105,104000
2014-12-05,15.530000,16.000000,15.530000,15.790000,13.846412,117000
2014-12-08,15.780000,16.030001,15.650000,15.920000,13.960408,229400
2014-12-09,15.900000,16.340000,15.770000,15.940000,13.977948,612800
2014-12-10,15.870000,16.155001,15.720000,15.960000,13.995485,297000
2014-12-11,15.920000,16.469999,15.760000,16.020000,14.048099,242700
2014-12-12,15.900000,16.219999,15.650000,15.870000,13.916561,199000
2014-12-15,15.840000,16.155001,15.580000,15.980000,14.013021,299800
2014-12-16,15.930000,16.280001,15.750000,15.770000,13.828871,377600
2014-12-17,15.760000,16.270000,15.570000,16.090000,14.109484,610900
2014-12-18,16.200001,16.629999,16.059999,16.400000,14.381321,302000
2014-12-19,16.570000,16.940001,16.150000,16.680000,14.626859,2114300
2014-12-22,16.760000,16.760000,16.000000,16.440001,14.416404,450700
2014-12-23,16.500000,16.709999,16.170000,16.230000,14.232249,195900
2014-12-24,16.230000,16.290001,15.870000,16.160000,14.170866,89200
2014-12-26,16.260000,16.700001,16.100000,16.250000,14.249787,279600
2014-12-29,16.209999,16.480000,16.139999,16.250000,14.249787,112100
2014-12-30,16.200001,16.320000,15.830000,16.219999,14.223480,123000
2014-12-31,16.240000,16.629999,16.150000,16.240000,14.241019,184100
2015-01-02,16.340000,16.500000,15.910000,16.120001,14.135791,60000
2015-01-05,16.010000,16.110001,15.500000,15.900000,13.942868,139300
2015-01-06,15.990000,16.110001,15.050000,15.470000,13.565797,271200
2015-01-07,15.390000,15.650000,15.260000,15.540000,13.627183,137700
2015-01-08,15.540000,15.714000,15.220000,15.510000,13.600876,195400
2015-01-09,15.470000,15.540000,15.100000,15.400000,13.504414,127800
2015-01-12,15.340000,15.520000,15.100000,15.400000,13.504414,151600
2015-01-13,15.480000,16.320000,15.230000,15.640000,13.714872,352500
2015-01-14,15.500000,15.875000,15.410000,15.550000,13.635952,134200
2015-01-15,15.540000,15.770000,15.250000,15.560000,13.644720,155200
2015-01-16,15.480000,15.800000,15.220000,15.770000,13.828871,126900
2015-01-20,15.790000,16.110001,15.570000,16.049999,14.074403,109300
2015-01-21,15.990000,16.049999,15.690000,15.770000,13.828871,124000
2015-01-22,15.910000,16.490000,15.710000,16.270000,14.267328,144400
2015-01-23,16.320000,16.320000,15.360000,15.660000,13.732409,126400
2015-01-26,15.630000,15.740000,15.110000,15.460000,13.557028,240400
2015-01-27,15.320000,15.670000,15.120000,15.290000,13.407955,136800
2015-01-28,15.280000,15.360000,15.090000,15.190000,13.320260,88200
2015-01-29,15.260000,15.470000,15.170000,15.450000,13.548259,179300
2015-01-30,15.280000,15.410000,14.940000,15.160000,13.293955,199400
2015-02-02,15.240000,16.040001,15.070000,15.980000,14.013021,130100
2015-02-03,16.000000,16.379999,15.700000,16.020000,14.048099,89400
2015-02-04,16.010000,16.190001,16.000000,16.120001,14.135791,77000
2015-02-05,16.100000,16.250000,15.730000,16.200001,14.205943,86500
2015-02-06,16.200001,16.200001,15.740000,16.000000,14.030560,56200
2015-02-09,15.910000,16.040001,15.750000,15.850000,13.899025,58300
2015-02-10,15.980000,16.165001,15.570000,16.000000,14.030560,82900
2015-02-11,15.940000,16.340000,15.820000,16.070000,14.091944,92600
2015-02-12,16.180000,16.469999,15.600000,16.230000,14.232249,257400
2015-02-13,16.200001,16.670000,16.200001,16.520000,14.486551,90900
2015-02-17,16.580000,17.350000,16.580000,17.030001,14.933778,339100
2015-02-18,17.059999,17.139999,16.580000,16.879999,14.802240,62600
2015-02-19,16.889999,17.430000,16.719999,17.209999,15.091619,166100
2015-02-20,17.120001,17.299999,17.049999,17.200001,15.082853,191700
2015-02-23,17.160000,17.660000,17.143000,17.340000,15.205622,266400
2015-02-24,17.250000,17.450001,17.115000,17.219999,15.100392,164900
2015-02-25,17.270000,17.410000,16.830000,17.010000,14.916241,222700
2015-02-26,16.969999,17.480000,16.840000,17.209999,15.091619,108500
2015-02-27,17.629999,18.490000,17.629999,17.959999,15.749305,514300
2015-03-02,18.389999,18.500000,17.340000,17.760000,15.573924,366500
2015-03-03,17.760000,17.940001,17.650000,17.820000,15.626536,102800
2015-03-04,17.719999,17.875999,17.430000,17.530001,15.372233,135700
2015-03-05,17.500000,17.950001,17.340000,17.650000,15.477463,87100
2015-03-06,17.500000,18.459999,17.400000,17.559999,15.398538,400300
2015-03-09,17.650000,17.790001,17.410000,17.480000,15.328384,111700
2015-03-10,17.389999,17.530001,16.889999,17.410000,15.267004,190500
2015-03-11,17.400000,17.408001,17.180000,17.270000,15.214146,64900
2015-03-12,17.389999,17.719999,17.129999,17.719999,15.610576,52600
2015-03-13,17.730000,17.730000,17.030001,17.100000,15.064385,241600
2015-03-16,17.230000,17.440001,16.840000,17.410000,15.337481,196900
2015-03-17,17.430000,18.250000,17.240000,18.010000,15.866056,226100
2015-03-18,18.059999,18.290001,17.160000,18.000000,15.857248,371500
2015-03-19,18.040001,18.395000,17.750000,18.309999,16.130342,161000
2015-03-20,18.459999,19.000000,18.063000,18.780001,16.544390,261900
2015-03-23,18.750000,18.950001,18.480000,18.740000,16.509157,137600
2015-03-24,18.690001,18.990000,18.610001,18.709999,16.482719,133200
2015-03-25,18.660000,18.770000,18.129999,18.260000,16.086292,55000
2015-03-26,18.280001,18.320000,17.820000,17.959999,15.822007,89600
2015-03-27,17.900000,18.240000,17.690001,17.879999,15.751531,168500
2015-03-30,17.950001,18.170000,17.920000,18.049999,15.901289,172500
2015-03-31,18.049999,19.000000,18.049999,18.639999,16.421057,523100
2015-04-01,18.639999,18.969999,18.500000,18.580000,16.368198,135800
2015-04-02,18.610001,18.761999,18.270000,18.600000,16.385820,167300
2015-04-06,18.459999,18.709999,18.459999,18.549999,16.341768,102500
2015-04-07,18.500000,19.260000,18.400000,19.010000,16.747011,833700
2015-04-08,18.950001,19.139999,18.620001,18.870001,16.623682,120900
2015-04-09,18.809999,19.070000,18.400000,18.889999,16.641296,87400
2015-04-10,19.000000,19.139999,18.520000,18.620001,16.403442,207600
2015-04-13,18.700001,19.350000,18.670000,18.910000,16.658918,282800
2015-04-14,18.959999,19.110001,18.809999,18.930000,16.676535,121500
2015-04-15,19.030001,19.091999,18.410000,18.500000,16.297728,263900
2015-04-16,18.420000,19.160000,18.370001,18.990000,16.729397,310700
2015-04-17,18.870001,19.080000,18.600000,18.670000,16.447487,147800
2015-04-20,18.770000,19.059999,18.670000,18.980000,16.720583,95400
2015-04-21,18.930000,19.049999,18.830000,18.940001,16.685347,120400
2015-04-22,18.930000,19.260000,18.896000,19.080000,16.808678,69400
2015-04-23,19.030001,19.530001,19.010000,19.370001,17.064157,93900
2015-04-24,19.264000,19.440001,19.150000,19.379999,17.072964,38800
2015-04-27,19.379999,19.790001,19.299999,19.440001,17.125826,105600
2015-04-28,19.410000,19.709999,19.320000,19.680000,17.337257,53600
2015-04-29,19.670000,19.900000,19.420000,19.629999,17.293205,98000
2015-04-30,19.520000,19.559999,19.129999,19.360001,17.055351,125700
2015-05-01,19.350000,19.559999,19.110001,19.430000,17.117016,73600
2015-05-04,19.389999,19.745001,19.200001,19.629999,17.293205,101700
2015-05-05,19.540001,19.650000,19.250000,19.620001,17.284401,88900
2015-05-06,19.620001,20.049999,19.350000,19.559999,17.231543,85900
2015-05-07,19.520000,19.650000,19.250000,19.410000,17.099396,46500
2015-05-08,19.459999,19.750000,19.320000,19.590000,17.257969,62700
2015-05-11,19.549999,19.680000,18.940001,19.110001,16.835110,150600
2015-05-12,19.020000,19.450001,18.730000,19.360001,17.055351,72900
2015-05-13,19.360001,19.959999,19.158001,19.670000,17.328442,159800
2015-05-14,19.750000,19.750000,18.730000,18.950001,16.694157,198400
2015-05-15,18.950001,19.320000,18.950001,19.230000,16.940823,79700
2015-05-18,19.240000,19.860001,19.200001,19.740000,17.390114,82000
2015-05-19,19.740000,19.875999,19.520000,19.740000,17.390114,74400
2015-05-20,19.780001,19.780001,19.510000,19.620001,17.284401,28300
2015-05-21,19.490000,19.700001,19.270000,19.660000,17.319637,53300
2015-05-22,19.559999,19.730000,19.370001,19.540001,17.213919,43000
2015-05-26,19.430000,19.540001,19.250000,19.420000,17.108206,67200
2015-05-27,19.520000,19.520000,19.299999,19.450001,17.134634,86500
2015-05-28,19.340000,19.600000,19.299999,19.490000,17.169872,53300
2015-05-29,19.459999,19.660000,19.139999,19.469999,17.152252,261900
2015-06-01,19.520000,20.020000,19.170000,19.250000,16.958441,101800
2015-06-02,19.500000,19.600000,19.320000,19.520000,17.196302,61100
2015-06-03,19.629999,19.709999,19.500000,19.570000,17.240345,90100
2015-06-04,19.559999,19.660000,19.110001,19.209999,16.923201,48200
2015-06-05,19.190001,19.780001,19.190001,19.350000,17.046543,39600
2015-06-08,19.320000,19.480000,18.770000,18.990000,16.729397,104700
2015-06-09,18.809999,18.809999,17.870001,18.250000,16.077482,211900
2015-06-10,18.250000,18.990000,18.020000,18.750000,16.590693,119000
2015-06-11,18.740000,19.010000,18.714001,18.780001,16.617239,27700
2015-06-12,18.770000,18.770000,18.430000,18.510000,16.378330,41000
2015-06-15,16.559999,18.180000,16.559999,18.000000,15.927062,429600
2015-06-16,18.070000,18.070000,17.360001,17.910000,15.847426,779900
2015-06-17,17.900000,18.049999,17.500000,17.639999,15.608523,6037500
2015-06-18,17.670000,18.020000,17.590000,17.930000,15.865126,1060900
2015-06-19,18.080000,18.680000,17.959999,18.340000,16.227907,752800
2015-06-22,18.340000,18.540001,18.120001,18.430000,16.307537,615300
2015-06-23,18.360001,18.549999,18.100000,18.469999,16.342936,711300
2015-06-24,18.379999,18.495001,18.070000,18.080000,15.997850,233400
2015-06-25,18.180000,18.379999,17.709999,17.740000,15.697001,555400
2015-06-26,17.750000,18.240000,17.520000,17.889999,15.829727,1051300
2015-06-29,17.709999,17.930000,17.400000,17.469999,15.458099,382300
2015-06-30,17.570000,17.910000,17.490000,17.790001,15.741245,501900
2015-07-01,17.959999,18.129999,17.580000,17.790001,15.741245,290900
2015-07-02,17.780001,17.830000,17.570000,17.690001,15.652766,133900
2015-07-06,17.530001,17.709999,17.340000,17.450001,15.440402,191400
2015-07-07,17.490000,17.490000,16.910000,17.350000,15.351919,370800
2015-07-08,17.160000,17.299999,16.900000,17.010000,15.051075,301400
2015-07-09,17.260000,17.459999,17.110001,17.370001,15.369618,276300
2015-07-10,17.400000,17.709999,17.400000,17.600000,15.573126,150400
2015-07-13,17.730000,17.770000,17.549999,17.650000,15.617369,115700
2015-07-14,17.590000,18.070000,17.551001,17.650000,15.617369,207700
2015-07-15,17.600000,17.775000,17.600000,17.700001,15.661616,112100
2015-07-16,17.770000,18.030001,17.760000,17.879999,15.820879,151000
2015-07-17,17.889999,17.889999,17.570000,17.620001,15.590825,83900
2015-07-20,17.600000,17.760000,17.440001,17.719999,15.679309,192500
2015-07-21,17.719999,17.940001,17.610001,17.750000,15.705853,175900
2015-07-22,17.680000,17.920000,17.580000,17.680000,15.643916,142200
2015-07-23,17.650000,17.840000,17.500000,17.540001,15.520036,169700
2015-07-24,17.490000,17.559999,17.195000,17.250000,15.263433,195900
2015-07-27,17.049999,17.500000,17.000000,17.450001,15.440402,332200
2015-07-28,17.530001,17.980000,17.240000,17.709999,15.670457,178100
2015-07-29,17.680000,18.000000,17.549999,17.809999,15.758944,344700
2015-07-30,17.750000,17.910000,17.209999,17.660000,15.626218,199200
2015-07-31,17.709999,18.000000,17.559999,17.670000,15.635068,168700
2015-08-03,17.629999,17.629999,17.330000,17.400000,15.396158,112800
2015-08-04,17.410000,17.469999,17.219999,17.270000,15.281132,101600
2015-08-05,17.350000,17.490000,16.959999,17.059999,15.095316,166800
2015-08-06,17.360001,17.879999,17.120001,17.809999,15.758944,180600
2015-08-07,17.639999,18.000000,17.520000,17.650000,15.617369,157200
2015-08-10,17.730000,18.219999,17.690001,18.120001,16.033243,236100
2015-08-11,17.930000,18.080000,17.620001,17.820000,15.767788,162100
2015-08-12,17.730000,17.730000,17.110001,17.379999,15.378461,210200
2015-08-13,17.340000,17.440001,17.058001,17.170000,15.192646,50200
2015-08-14,17.150000,17.610001,17.150000,17.610001,15.581974,85000
2015-08-17,17.600000,17.879999,17.410000,17.650000,15.617369,175000
2015-08-18,17.570000,17.719999,17.420000,17.639999,15.608523,114000
2015-08-19,17.520000,17.639999,17.240000,17.469999,15.458099,155600
2015-08-20,17.240000,17.490000,17.129999,17.170000,15.192646,126100
2015-08-21,16.860001,17.260000,16.700001,17.030001,15.068772,366600
2015-08-24,15.840000,16.305000,15.180000,15.460000,13.679577,334500
2015-08-25,16.040001,16.945000,15.170000,15.280000,13.520307,263000
2015-08-26,15.490000,16.270000,15.340000,16.219999,14.352051,330600
2015-08-27,16.520000,16.629999,16.100000,16.570000,14.661745,163000
2015-08-28,16.430000,16.450001,16.049999,16.360001,14.475933,189000
2015-08-31,16.250000,16.549999,16.230000,16.520000,14.617504,249700
2015-09-01,16.170000,16.309999,16.090000,16.139999,14.281264,201100
2015-09-02,16.389999,16.700001,16.020000,16.370001,14.484780,265000
2015-09-03,16.469999,16.469999,16.230000,16.379999,14.493624,105600
2015-09-04,16.139999,16.330000,16.000000,16.250000,14.378601,136600
2015-09-08,16.510000,16.760000,16.510000,16.730000,14.803322,179800
2015-09-09,16.830000,16.840000,16.309999,16.430000,14.607722,166900
2015-09-10,16.410000,16.459999,16.170000,16.299999,14.492139,88100
2015-09-11,16.180000,16.320000,15.980000,16.309999,14.501029,79400
2015-09-14,16.330000,16.330000,16.010000,16.219999,14.421012,141300
2015-09-15,16.260000,16.500000,16.260000,16.400000,14.581050,253700
2015-09-16,16.389999,16.430000,15.990000,16.260000,14.456576,235300
2015-09-17,16.219999,16.680000,16.219999,16.450001,14.625502,120800
2015-09-18,16.230000,16.430000,15.940000,16.049999,14.269866,285700
2015-09-21,16.209999,16.219999,15.880000,15.990000,14.216522,78100
2015-09-22,15.790000,15.960000,15.580000,15.840000,14.083159,206300
2015-09-23,15.840000,15.935000,15.470000,15.610000,13.878666,260500
2015-09-24,15.520000,15.600000,15.060000,15.210000,13.523033,260800
2015-09-25,15.400000,15.480000,14.770000,14.810000,13.167398,304100
2015-09-28,14.760000,14.780000,14.535000,14.710000,13.078490,104800
2015-09-29,14.760000,15.090000,14.690000,14.940000,13.282980,127300
2015-09-30,15.190000,15.700000,14.990000,15.420000,13.709743,283000
2015-10-01,15.410000,15.410000,14.780000,14.960000,13.300760,111800
2015-10-02,14.760000,14.940000,14.380000,14.920000,13.265197,69100
2015-10-05,15.070000,15.350000,15.070000,15.300000,13.603051,118200
2015-10-06,15.250000,15.350000,14.850000,14.850000,13.202960,173900
2015-10-07,14.900000,15.330000,14.880000,15.220000,13.531921,153600
2015-10-08,15.160000,15.290000,14.900000,15.200000,13.514143,137400
2015-10-09,15.270000,15.320000,14.850000,14.930000,13.274089,67900
2015-10-12,14.720000,14.900000,14.480000,14.660000,13.034033,127400
2015-10-13,14.550000,14.760000,14.520000,14.620000,12.998470,112500
2015-10-14,14.630000,14.760000,14.410000,14.460000,12.856215,82000
2015-10-15,14.620000,15.150000,14.530000,15.110000,13.434122,179800
2015-10-16,15.080000,15.360000,14.970000,15.070000,13.398561,102700
2015-10-19,14.980000,15.040000,14.810000,14.880000,13.229633,111100
2015-10-20,14.870000,14.950000,14.730000,14.810000,13.167398,102300
2015-10-21,14.880000,14.880000,14.410000,14.470000,12.865108,157700
2015-10-22,14.540000,15.000000,14.540000,14.850000,13.202960,303000
2015-10-23,15.020000,15.550000,14.960000,15.400000,13.691958,321300
2015-10-26,15.350000,15.350000,15.060000,15.120000,13.443014,121400
2015-10-27,15.000000,15.080000,14.900000,15.070000,13.398561,163500
2015-10-28,15.130000,15.910000,15.000000,15.760000,14.012033,345100
2015-10-29,15.660000,15.660000,15.210000,15.280000,13.585269,113500
2015-10-30,15.260000,15.260000,14.980000,15.180000,13.496360,200200
2015-11-02,15.200000,15.970000,15.200000,15.910000,14.145393,113200
2015-11-03,15.850000,16.230000,15.520000,16.209999,14.412122,197000
2015-11-04,16.209999,16.270000,15.720000,16.260000,14.456576,143200
2015-11-05,16.260000,16.540001,16.240000,16.540001,14.705522,164500
2015-11-06,16.520000,17.040001,16.520000,16.910000,15.034484,210400
2015-11-09,16.740000,16.910000,16.459999,16.500000,14.669959,131100
2015-11-10,16.490000,16.635000,16.420000,16.590000,14.749975,245200
2015-11-11,16.610001,16.750000,16.389999,16.500000,14.669959,254600
2015-11-12,16.459999,16.459999,16.090000,16.389999,14.572157,305000
2015-11-13,16.260000,16.400000,15.910000,16.010000,14.234303,181600
2015-11-16,15.980000,16.049999,15.755000,15.990000,14.216522,147000
2015-11-17,16.059999,16.215000,15.876000,16.129999,14.340992,150500
2015-11-18,16.200001,16.250000,15.940000,16.160000,14.367666,112800
2015-11-19,16.170000,16.219999,16.070000,16.150000,14.358774,71900
2015-11-20,16.250000,16.250000,15.960000,15.990000,14.216522,90400
2015-11-23,15.950000,16.129999,15.890000,16.049999,14.269866,104900
2015-11-24,15.970000,16.170000,15.860000,16.129999,14.340992,125500
2015-11-25,16.110001,16.459999,16.080000,16.330000,14.518814,101100
2015-11-27,16.299999,16.440001,16.180000,16.370001,14.554377,31200
2015-11-30,16.410000,16.410000,16.030001,16.209999,14.412122,142200
2015-12-01,16.389999,16.480000,16.129999,16.360001,14.545485,207600
2015-12-02,16.330000,16.370001,16.020000,16.160000,14.367666,180900
2015-12-03,16.240000,16.250000,15.730000,15.800000,14.047595,170100
2015-12-04,15.800000,15.940000,15.730000,15.810000,14.056486,353700
2015-12-07,15.740000,15.740000,15.400000,15.570000,13.843104,110300
2015-12-08,15.290000,15.360000,15.010000,15.230000,13.540813,106600
2015-12-09,15.080000,15.250000,14.780000,14.800000,13.227991,72000
2015-12-10,14.760000,14.930000,14.660000,14.850000,13.272679,176500
2015-12-11,14.570000,14.730000,13.855000,14.220000,12.709598,419600
2015-12-14,14.240000,14.480000,14.230000,14.410000,12.879416,299700
2015-12-15,14.220000,14.500000,13.960000,14.210000,12.700658,324300
2015-12-16,14.330000,14.370000,14.070000,14.360000,12.834726,235000
2015-12-17,14.400000,14.630000,14.350000,14.410000,12.879416,130800
2015-12-18,14.320000,14.810000,14.270000,14.730000,13.165425,206500
2015-12-21,14.820000,14.980000,14.750000,14.970000,13.379934,135300
2015-12-22,14.940000,14.945000,14.600000,14.910000,13.326306,99300
2015-12-23,14.990000,15.320000,14.970000,15.320000,13.692756,126500
2015-12-24,15.270000,15.340000,15.150000,15.300000,13.674882,28100
2015-12-28,15.260000,15.330000,15.050000,15.240000,13.621253,68100
2015-12-29,15.320000,15.490000,15.210000,15.390000,13.755322,56300
2015-12-30,15.310000,15.465000,15.170000,15.210000,13.594440,68700
2015-12-31,15.210000,15.500000,14.890000,15.330000,13.701694,141300
2016-01-04,15.030000,15.030000,14.610000,14.770000,13.201177,120100
2016-01-05,14.780000,15.020000,14.600000,14.900000,13.317369,158600
2016-01-06,14.630000,14.800000,14.190000,14.370000,12.843663,200500
2016-01-07,14.000000,14.190000,13.450000,13.600000,12.155452,310300
2016-01-08,13.600000,13.690000,13.510000,13.660000,12.209077,268300
2016-01-11,13.440000,13.840000,13.360000,13.760000,12.298455,325300
2016-01-12,13.880000,13.880000,12.550000,12.860000,11.494051,363100
2016-01-13,12.710000,12.995000,12.160000,12.220000,10.922029,283800
2016-01-14,12.280000,12.280000,11.750000,11.960000,10.689646,898200
2016-01-15,11.610000,11.910000,11.320000,11.790000,10.537703,269500
2016-01-19,11.970000,12.045000,11.490000,11.650000,10.412573,217600
2016-01-20,11.410000,11.610000,10.960000,11.580000,10.350010,296200
2016-01-21,11.570000,11.770000,11.140000,11.160000,9.974619,191300
2016-01-22,11.360000,11.550000,11.290000,11.380000,10.171252,257600
2016-01-25,11.330000,11.400000,11.150000,11.330000,10.126562,228400
2016-01-26,10.820000,11.090000,10.720000,10.980000,9.813740,421900
2016-01-27,10.970000,11.065000,10.670000,10.750000,9.608170,156400
2016-01-28,10.840000,10.880000,10.460000,10.660000,9.527728,225600
2016-01-29,10.750000,11.310000,10.750000,11.310000,10.108687,375900
2016-02-01,11.200000,11.250000,10.900000,11.080000,9.903116,168700
2016-02-02,10.880000,10.920000,10.330000,10.400000,9.295344,182700
2016-02-03,10.470000,10.700000,10.270000,10.670000,9.536667,268000
2016-02-04,11.310000,12.150000,10.910000,11.140000,9.956744,403700
2016-02-05,11.130000,11.260000,10.830000,11.110000,9.929931,294300
2016-02-08,11.260000,11.570000,10.770000,10.870000,9.715423,319200
2016-02-09,10.740000,11.130000,10.740000,10.890000,9.733298,169000
2016-02-10,11.010000,11.450000,10.860000,10.870000,9.715423,232100
2016-02-11,10.560000,10.930000,10.490000,10.800000,9.652857,146700
2016-02-12,10.930000,11.350000,10.820000,11.150000,9.965682,108700
2016-02-16,11.330000,11.540000,11.190000,11.390000,10.180190,158600
2016-02-17,11.510000,11.950000,11.510000,11.600000,10.367884,230100
2016-02-18,11.620000,11.670000,11.420000,11.430000,10.215943,86800
2016-02-19,11.380000,11.500000,11.220000,11.380000,10.171252,73200
2016-02-22,11.480000,11.720000,11.480000,11.560000,10.332132,180100
2016-02-23,11.440000,12.470000,10.830000,11.170000,9.983555,334200
2016-02-24,11.040000,11.450000,10.700000,11.400000,10.189128,60000
2016-02-25,11.370000,11.500000,11.080000,11.470000,10.251693,80300
2016-02-26,11.550000,11.690000,11.430000,11.600000,10.367884,156600
2016-02-29,11.590000,11.620000,11.250000,11.400000,10.189128,203500
2016-03-01,11.510000,11.910000,11.420000,11.870000,10.609207,115100
2016-03-02,11.810000,11.810000,11.500000,11.730000,10.484076,98000
2016-03-03,11.730000,11.910000,11.700000,11.870000,10.609207,76700
2016-03-04,11.890000,12.110000,11.845000,11.980000,10.707521,125200
2016-03-07,11.910000,12.180000,11.800000,11.910000,10.644955,267300
2016-03-08,11.880000,11.880000,11.400000,11.560000,10.332132,96400
2016-03-09,11.650000,11.850000,11.390000,11.770000,10.519827,150000
2016-03-10,11.790000,11.920000,11.455000,11.700000,10.457262,109000
2016-03-11,11.810000,12.430000,11.655000,12.300000,10.993534,241200
2016-03-14,12.240000,12.240000,11.900000,12.120000,10.832652,216200
2016-03-15,12.000000,12.092000,11.740000,11.930000,10.662834,408300
2016-03-16,11.840000,12.320000,11.640000,12.210000,10.986766,123800
2016-03-17,12.160000,12.700000,12.030000,12.550000,11.292704,249800
2016-03-18,12.630000,12.870000,12.460000,12.760000,11.481667,137600
2016-03-21,12.690000,12.970000,12.630000,12.940000,11.643633,112000
2016-03-22,12.840000,12.990000,12.510000,12.580000,11.319697,137000
2016-03-23,12.510000,12.510000,12.200000,12.220000,10.995763,112400
2016-03-24,12.120000,12.460000,11.980000,12.450000,11.202722,212600
2016-03-28,12.470000,12.870000,12.445000,12.730000,11.454671,158900
2016-03-29,12.640000,13.190000,12.490000,13.090000,11.778606,100300
2016-03-30,13.170000,13.390000,13.130000,13.340000,12.003561,154400
2016-03-31,13.290000,13.470000,13.200000,13.350000,12.012559,206400
2016-04-01,13.240000,13.510000,13.170000,13.280000,11.949571,124400
2016-04-04,13.410000,13.560000,13.010000,13.340000,12.003561,196100
2016-04-05,13.210000,13.280000,12.920000,13.000000,11.697622,143800
2016-04-06,13.020000,13.150000,12.970000,13.000000,11.697622,147600
2016-04-07,12.880000,12.950000,12.690000,12.770000,11.490663,120400
2016-04-08,12.970000,13.045000,12.700000,12.760000,11.481667,119100
2016-04-11,12.780000,13.060000,12.670000,12.740000,11.463669,229600
2016-04-12,12.800000,13.100000,12.580000,13.050000,11.742614,344700
2016-04-13,13.180000,13.920000,13.040000,13.810000,12.426474,182700
2016-04-14,13.780000,13.840000,13.580000,13.720000,12.345491,146800
2016-04-15,13.710000,13.760000,13.480000,13.540000,12.183524,197300
2016-04-18,13.510000,13.880000,13.318000,13.790000,12.408477,136700
2016-04-19,13.850000,13.850000,13.590000,13.770000,12.390481,134600
2016-04-20,13.760000,14.040000,13.760000,13.800000,12.417476,152200
2016-04-21,13.830000,14.110000,13.610000,13.750000,12.372484,151200
2016-04-22,13.700000,13.970000,13.635000,13.890000,12.498460,120400
2016-04-25,13.850000,13.870000,13.640000,13.720000,12.345491,106700
2016-04-26,13.780000,13.840000,13.640000,13.740000,12.363486,126500
2016-04-27,13.780000,13.900000,13.610000,13.840000,12.453468,132900
2016-04-28,13.690000,13.950000,13.620000,13.710000,12.336493,167200
2016-04-29,13.610000,13.645000,13.400000,13.420000,12.075545,137700
2016-05-02,13.430000,13.930000,13.320000,13.790000,12.408477,213900
2016-05-03,13.610000,13.730000,13.190000,13.670000,12.300501,193400
2016-05-04,13.500000,13.630000,13.090000,13.190000,11.868587,412100
2016-05-05,13.280000,14.148000,12.830000,13.970000,12.570445,322200
2016-05-06,13.980000,14.180000,13.910000,14.030000,12.624434,219400
2016-05-09,14.070000,14.250000,13.960000,14.120000,12.705417,316100
2016-05-10,14.240000,14.480000,14.170000,14.250000,12.822393,151400
2016-05-11,14.260000,14.310000,13.840000,13.860000,12.471466,143000
2016-05-12,13.970000,14.180000,13.790000,13.860000,12.471466,158300
2016-05-13,13.870000,14.060000,13.630000,13.690000,12.318496,230700
2016-05-16,13.790000,13.970000,13.740000,13.840000,12.453468,114200
2016-05-17,13.860000,14.140000,13.650000,13.730000,12.354486,211300
2016-05-18,13.670000,14.015000,13.670000,13.930000,12.534453,183500
2016-05-19,13.790000,13.930000,13.570000,13.680000,12.309499,149600
2016-05-20,13.680000,13.950000,13.680000,13.920000,12.525455,161300
2016-05-23,13.880000,14.050000,13.860000,13.880000,12.489462,99600
2016-05-24,14.000000,15.090000,13.870000,14.950000,13.452267,462100
2016-05-25,14.900000,15.100000,14.810000,14.830000,13.344290,417500
2016-05-26,14.910000,14.915000,14.740000,14.870000,13.380281,364000
2016-05-27,14.850000,14.950000,14.780000,14.840000,13.353286,369100
2016-05-31,14.910000,15.290000,14.760000,15.180000,13.659222,132600
2016-06-01,15.040000,15.210000,14.800000,15.170000,13.650225,118400
2016-06-02,15.050000,15.270000,14.950000,15.050000,13.542247,272400
2016-06-03,14.980000,15.520000,14.810000,15.220000,13.695217,251300
2016-06-06,15.000000,15.100000,14.760000,14.800000,13.317295,322200
2016-06-07,14.840000,14.990000,14.690000,14.830000,13.344290,199100
2016-06-08,14.810000,15.129000,14.810000,15.020000,13.515252,195300
2016-06-09,14.900000,15.010000,14.720000,14.780000,13.299295,82800
2016-06-10,14.610000,14.700000,14.260000,14.350000,12.912375,189800
2016-06-13,14.250000,14.385000,14.080000,14.090000,12.678423,150200
2016-06-14,14.100000,14.710000,14.010000,14.300000,12.867384,307700
2016-06-15,14.400000,14.770000,14.010000,14.170000,12.822141,431100
2016-06-16,14.200000,14.460000,13.870000,14.450000,13.075506,288300
2016-06-17,14.300000,14.500000,14.155000,14.240000,12.885482,327600
2016-06-20,14.490000,14.570000,14.210000,14.210000,12.858336,255000
2016-06-21,14.330000,14.700000,14.120000,14.460000,13.084555,237200
2016-06-22,14.460000,14.612000,14.160000,14.270000,12.912628,219200
2016-06-23,14.470000,14.910000,14.460000,14.530000,13.147898,659900
2016-06-24,13.880000,14.410000,13.440000,13.550000,12.261116,2096500
2016-06-27,13.470000,13.500000,12.860000,12.880000,11.654846,396600
2016-06-28,13.050000,13.070000,12.795000,12.900000,11.672942,1003000
2016-06-29,13.050000,13.160000,12.860000,13.120000,11.872016,358100
2016-06-30,13.180000,13.350000,12.995000,13.350000,12.080140,317000
2016-07-01,13.330000,13.590000,13.160000,13.190000,11.935359,193600
2016-07-05,13.150000,13.190000,12.800000,13.010000,11.772480,136600
2016-07-06,12.900000,12.990000,12.750000,12.870000,11.645798,162800
2016-07-07,12.870000,13.090000,12.690000,12.860000,11.636749,140400
2016-07-08,12.990000,13.220000,12.970000,13.180000,11.926310,209600
2016-07-11,13.260000,13.560000,13.200000,13.550000,12.261116,135900
2016-07-12,13.690000,13.940000,13.685000,13.870000,12.550676,168500
2016-07-13,13.870000,13.940000,13.550000,13.790000,12.478286,179300
2016-07-14,13.810000,14.010000,13.810000,13.910000,12.586873,118200
2016-07-15,14.010000,14.180000,13.780000,14.160000,12.813093,102500
2016-07-18,14.130000,14.240000,14.010000,14.150000,12.804042,147800
2016-07-19,14.090000,14.250000,14.060000,14.170000,12.822141,158600
2016-07-20,14.170000,14.170000,13.550000,13.680000,12.378750,270100
2016-07-21,13.680000,13.890000,13.580000,13.870000,12.550676,113400
2016-07-22,13.820000,14.030000,13.750000,13.900000,12.577824,110300
2016-07-25,13.900000,14.020000,13.690000,13.810000,12.496384,115900
2016-07-26,13.840000,14.060000,13.690000,13.850000,12.532581,110700
2016-07-27,13.840000,14.160000,13.840000,14.080000,12.740702,97100
2016-07-28,14.000000,14.060000,13.800000,13.970000,12.641164,98000
2016-07-29,13.990000,14.100000,13.880000,14.000000,12.668311,118500
2016-08-01,14.010000,14.020000,13.570000,13.710000,12.405895,171400
2016-08-02,13.680000,13.790000,13.440000,13.470000,12.188725,67200
2016-08-03,13.500000,13.820000,13.480000,13.590000,12.297311,150100
2016-08-04,13.530000,14.010000,13.290000,13.820000,12.505432,158200
2016-08-05,13.900000,14.100000,13.810000,13.840000,12.523531,109700
2016-08-08,13.880000,13.970000,13.620000,13.730000,12.423992,117800
2016-08-09,13.710000,13.740000,13.520000,13.660000,12.360652,128900
2016-08-10,13.620000,13.643000,13.480000,13.580000,12.288262,85800
2016-08-11,13.620000,13.760000,13.500000,13.650000,12.351602,170400
2016-08-12,13.590000,13.740000,13.420000,13.480000,12.197774,53900
2016-08-15,13.480000,13.645000,13.480000,13.510000,12.224921,85500
2016-08-16,13.620000,13.840000,13.500000,13.580000,12.288262,137500
2016-08-17,13.550000,13.680000,13.420000,13.550000,12.261116,261700
2016-08-18,13.580000,13.640000,13.490000,13.610000,12.315408,82200
2016-08-19,13.610000,13.610000,13.480000,13.560000,12.270165,115400
2016-08-22,13.540000,13.540000,13.330000,13.500000,12.215871,61400
2016-08-23,13.580000,13.720000,13.500000,13.690000,12.387798,76700
2016-08-24,13.710000,13.800000,13.580000,13.600000,12.306359,134700
2016-08-25,13.550000,13.710000,13.260000,13.370000,12.098236,120400
2016-08-26,13.420000,13.470000,13.200000,13.340000,12.071091,97600
2016-08-29,13.290000,13.520000,13.230000,13.470000,12.188725,156400
2016-08-30,13.480000,13.560000,13.430000,13.510000,12.224921,69300
2016-08-31,13.570000,13.740000,13.420000,13.500000,12.215871,177400
2016-09-01,13.550000,13.660000,13.200000,13.420000,12.143480,236700
2016-09-02,13.460000,13.640000,13.300000,13.420000,12.143480,181000
2016-09-06,13.410000,13.640000,13.210000,13.520000,12.233969,347700
2016-09-07,13.550000,13.655000,13.370000,13.510000,12.224921,314500
2016-09-08,13.530000,13.600000,13.310000,13.550000,12.261116,121500
2016-09-09,13.420000,13.520000,13.050000,13.060000,11.817723,91100
2016-09-12,13.010000,13.390000,12.940000,13.340000,12.071091,127200
2016-09-13,13.170000,13.200000,12.800000,12.850000,11.627700,97900
2016-09-14,12.760000,12.830000,12.620000,12.750000,11.609489,109900
2016-09-15,12.690000,12.870000,12.670000,12.810000,11.664122,85900
2016-09-16,12.690000,13.020000,12.540000,12.990000,11.828021,217900
2016-09-19,13.090000,13.250000,13.030000,13.240000,12.055658,152600
2016-09-20,13.270000,13.530000,13.210000,13.500000,12.292400,189100
2016-09-21,13.500000,14.090000,13.430000,13.890000,12.647514,681800
2016-09-22,13.980000,13.990000,13.490000,13.590000,12.374350,232200
2016-09-23,13.600000,13.660000,13.450000,13.480000,12.274190,164500
2016-09-26,13.420000,13.420000,13.135000,13.220000,12.037446,248000
2016-09-27,13.260000,13.660000,13.170000,13.640000,12.419877,150000
2016-09-28,13.570000,13.860000,13.570000,13.820000,12.583776,130000
2016-09-29,13.840000,13.900000,13.480000,13.520000,12.310612,86400
2016-09-30,13.570000,13.980000,13.550000,13.910000,12.665727,126900
2016-10-03,13.800000,13.990000,13.710000,13.770000,12.538248,137100
2016-10-04,13.830000,13.953000,13.690000,13.850000,12.611094,157600
2016-10-05,13.960000,14.160000,13.830000,14.100000,12.838729,258700
2016-10-06,14.180000,14.300000,14.060000,14.140000,12.875151,126400
2016-10-07,14.130000,14.130000,13.865000,14.090000,12.829623,86000
2016-10-10,14.160000,14.300000,14.160000,14.250000,12.975311,106800
2016-10-11,14.200000,14.200000,13.790000,13.920000,12.674830,87400
2016-10-12,13.940000,14.010000,13.800000,13.960000,12.711252,96300
2016-10-13,13.840000,13.920000,13.610000,13.860000,12.620198,71400
2016-10-14,13.990000,14.060000,13.800000,13.920000,12.674830,184000
2016-10-17,13.960000,14.035000,13.780000,14.000000,12.747674,141200
2016-10-18,14.160000,14.190000,14.000000,14.030000,12.774991,122100
2016-10-19,14.110000,14.220000,14.000000,14.140000,12.875151,144600
2016-10-20,14.190000,14.360000,14.120000,14.230000,12.957101,91500
2016-10-21,14.100000,14.420000,14.100000,14.410000,13.120998,69300
2016-10-24,14.540000,14.584000,14.370000,14.440000,13.148315,89700
2016-10-25,14.390000,14.480000,14.150000,14.220000,12.947996,73600
2016-10-26,14.190000,14.260000,13.950000,14.100000,12.838729,182700
2016-10-27,14.220000,14.270000,13.970000,13.990000,12.738568,152700
2016-10-28,14.060000,14.240000,13.940000,14.000000,12.747674,112800
2016-10-31,14.100000,14.170000,13.910000,14.070000,12.811413,201600
2016-11-01,14.120000,14.240000,13.720000,14.000000,12.747674,168900
2016-11-02,14.000000,14.060000,13.060000,13.120000,11.946391,160900
2016-11-03,13.210000,13.210000,12.560000,12.670000,11.536646,224700
2016-11-04,12.640000,12.670000,12.175000,12.200000,11.108687,216300
2016-11-07,12.570000,12.570000,12.240000,12.270000,11.172428,154400
2016-11-08,12.100000,12.280000,12.100000,12.220000,11.126898,136000
2016-11-09,12.230000,12.980000,12.230000,12.920000,11.764282,297200
2016-11-10,13.490000,13.490000,12.820000,13.320000,12.128502,855300
2016-11-11,13.320000,14.290000,13.200000,13.900000,12.656619,368100
2016-11-14,14.120000,14.460000,14.000000,14.460000,13.166526,339800
2016-11-15,14.340000,14.430000,13.910000,14.300000,13.020838,1079500
2016-11-16,14.180000,14.410000,14.180000,14.400000,13.111895,202600
2016-11-17,14.480000,14.730000,14.295000,14.610000,13.303109,145700
2016-11-18,14.600000,14.790000,14.440000,14.730000,13.412374,122200
2016-11-21,14.760000,14.880000,14.660000,14.810000,13.485220,431200
2016-11-22,14.810000,14.868000,14.610000,14.750000,13.430586,147500
2016-11-23,14.780000,14.830000,14.620000,14.810000,13.485220,96900
2016-11-25,14.900000,14.900000,14.710000,14.810000,13.485220,45700
2016-11-28,14.670000,14.740000,14.430000,14.520000,13.221161,82400
2016-11-29,14.600000,14.630000,14.468000,14.550000,13.248475,87700
2016-11-30,14.760000,14.760000,14.420000,14.700000,13.385056,127100
2016-12-01,14.680000,14.970000,14.650000,14.770000,13.448798,109100
2016-12-02,14.770000,14.770000,14.390000,14.470000,13.175632,155700
2016-12-05,14.650000,14.800000,14.450000,14.550000,13.248475,155600
2016-12-06,14.690000,14.875000,14.320000,14.500000,13.202950,234900
2016-12-07,14.500000,15.085000,14.480000,14.850000,13.521643,1568800
2016-12-08,14.910000,15.250000,14.820000,15.230000,13.867648,259800
2016-12-09,15.250000,15.490000,15.150000,15.490000,14.104391,308100
2016-12-12,15.400000,15.510000,15.240000,15.270000,13.904071,202500
2016-12-13,14.950000,14.950000,14.370000,14.520000,13.221161,1135600
2016-12-14,14.440000,14.500000,13.990000,14.000000,12.818298,7790000
2016-12-15,14.000000,14.350000,13.950000,14.270000,13.065508,1486400
2016-12-16,14.330000,14.400000,14.230000,14.340000,13.129600,767800
2016-12-19,14.300000,14.520000,14.240000,14.440000,13.221160,481700
2016-12-20,14.420000,14.550000,14.340000,14.470000,13.248627,939200
2016-12-21,14.500000,14.511000,14.310000,14.310000,13.102132,377800
2016-12-22,14.270000,14.400000,13.940000,14.330000,13.120443,398600
2016-12-23,14.350000,14.415000,14.240000,14.330000,13.120443,344300
2016-12-27,14.350000,14.580000,14.350000,14.510000,13.285251,356900
2016-12-28,14.500000,14.590000,14.475000,14.530000,13.303563,481200
2016-12-29,14.530000,14.720000,14.490000,14.560000,13.331032,393900
2016-12-30,14.650000,14.675000,14.370000,14.500000,13.276095,249700
2017-01-03,14.720000,14.780000,14.320000,14.440000,13.221160,363500
2017-01-04,14.560000,14.680000,14.470000,14.610000,13.376809,476400
2017-01-05,14.490000,14.700000,14.270000,14.480000,13.257783,227200
2017-01-06,14.550000,14.690000,14.340000,14.480000,13.257783,434200
2017-01-09,14.520000,14.520000,14.290000,14.320000,13.111288,399700
2017-01-10,14.340000,14.410000,14.160000,14.340000,13.129600,338800
2017-01-11,14.430000,14.640000,14.190000,14.640000,13.404277,490300
2017-01-12,14.570000,14.630000,14.200000,14.420000,13.202847,353600
2017-01-13,14.570000,14.710000,14.520000,14.600000,13.367655,461700
2017-01-17,14.580000,14.580000,14.260000,14.300000,13.092976,179200
2017-01-18,14.390000,14.410000,14.030000,14.270000,13.065508,317400
2017-01-19,14.250000,14.360000,14.120000,14.250000,13.047197,399800
2017-01-20,14.270000,14.730000,14.270000,14.650000,13.413433,385500
2017-01-23,14.460000,14.620000,14.410000,14.460000,13.239470,339900
2017-01-24,14.440000,14.710000,14.340000,14.600000,13.367655,332100
2017-01-25,14.750000,14.900000,14.610000,14.670000,13.431744,244100
2017-01-26,14.700000,14.747000,14.220000,14.240000,13.038041,179700
2017-01-27,14.250000,14.250000,13.980000,13.990000,12.809142,216600
2017-01-30,13.920000,13.955000,13.740000,13.890000,12.717584,233100
2017-01-31,13.790000,14.100000,13.780000,14.100000,12.909857,221200
2017-02-01,14.190000,14.440000,14.103000,14.220000,13.019729,262600
2017-02-02,14.370000,14.940000,14.250000,14.890000,13.633178,748000
2017-02-03,15.070000,15.310000,14.950000,15.200000,13.917009,450000
2017-02-06,15.080000,15.200000,14.840000,14.840000,13.587397,476300
2017-02-07,14.950000,14.950000,14.630000,14.690000,13.450056,368300
2017-02-08,14.590000,14.600000,14.430000,14.480000,13.257783,321800
2017-02-09,14.510000,14.820000,14.480000,14.640000,13.404277,243900
2017-02-10,14.750000,14.980000,14.695000,14.850000,13.596554,363700
2017-02-13,14.970000,15.110000,14.880000,14.980000,13.715579,399300
2017-02-14,14.900000,15.210000,14.820000,15.130000,13.852920,364400
2017-02-15,15.110000,15.370000,15.015000,15.310000,14.017726,313300
2017-02-16,15.320000,15.320000,14.920000,14.990000,13.724734,375500
2017-02-17,14.990000,15.150000,14.800000,15.080000,13.807137,207900
2017-02-21,15.120000,15.170000,14.960000,15.020000,13.752202,193600
2017-02-22,14.980000,15.130000,14.880000,15.100000,13.825452,246000
2017-02-23,15.130000,15.170000,14.945000,15.040000,13.770514,263800
2017-02-24,14.890000,15.190000,14.890000,15.180000,13.898697,450800
2017-02-27,15.140000,15.210000,14.990000,15.030000,13.761358,302200
2017-02-28,14.900000,15.040000,14.670000,14.910000,13.651488,444100
2017-03-01,15.170000,15.260000,15.085000,15.200000,13.917009,239100
2017-03-02,15.140000,15.140000,14.830000,14.970000,13.706423,349200
2017-03-03,15.030000,15.095000,14.880000,15.030000,13.761358,201000
2017-03-06,14.990000,15.040000,14.830000,15.010000,13.743047,275300
2017-03-07,14.950000,15.060000,14.730000,14.820000,13.569084,280900
2017-03-08,14.960000,15.250000,14.880000,14.980000,13.715579,853800
2017-03-09,14.980000,15.150000,14.980000,15.040000,13.770514,316000
2017-03-10,15.200000,15.270000,14.950000,15.110000,13.834606,364300
2017-03-13,15.070000,15.160000,14.930000,15.060000,13.788827,531400
2017-03-14,14.980000,15.090000,14.920000,15.040000,13.770514,403100
2017-03-15,15.010000,15.130000,14.990000,15.050000,13.853359,354100
2017-03-16,15.030000,15.170000,14.960000,15.070000,13.871767,182500
2017-03-17,15.050000,15.050000,14.550000,14.700000,13.531187,511300
2017-03-20,14.630000,14.710000,14.525000,14.640000,13.475958,286400
2017-03-21,14.710000,14.745000,14.170000,14.170000,13.043329,348400
2017-03-22,14.110000,14.270000,13.980000,14.250000,13.116968,372400
2017-03-23,14.250000,14.480000,14.084000,14.430000,13.282657,344300
2017-03-24,14.470000,14.660000,14.450000,14.560000,13.402321,699900
2017-03-27,14.340000,15.000000,14.280000,14.950000,13.761310,991400
2017-03-28,14.860000,15.100000,14.750000,15.060000,13.862563,267400
2017-03-29,15.040000,15.100000,14.900000,15.040000,13.844153,173500
2017-03-30,15.050000,15.140000,14.950000,15.090000,13.890180,261600
2017-03-31,15.100000,15.220000,15.030000,15.120000,13.917793,236100
2017-04-03,15.260000,15.450000,14.840000,15.050000,13.853359,261700
2017-04-04,15.030000,15.180000,15.010000,15.120000,13.917793,357900
2017-04-05,15.210000,15.210000,14.910000,14.920000,13.733696,448000
2017-04-06,15.000000,15.210000,14.960000,15.120000,13.917793,328600
2017-04-07,15.070000,15.200000,15.000000,15.150000,13.945406,175900
2017-04-10,15.110000,15.220000,14.820000,14.900000,13.715285,530500
2017-04-11,14.790000,15.110000,14.690000,15.030000,13.834949,486900
2017-04-12,15.040000,15.130000,14.790000,14.870000,13.687671,162100
2017-04-13,14.880000,14.950000,14.620000,14.630000,13.466754,198200
2017-04-17,14.680000,14.960000,14.650000,14.960000,13.770515,118800
2017-04-18,14.830000,14.940000,14.700000,14.880000,13.696877,147800
2017-04-19,14.950000,15.000000,14.850000,14.960000,13.770515,193500
2017-04-20,15.020000,15.150000,14.930000,15.150000,13.945406,178600
2017-04-21,15.110000,15.180000,15.000000,15.070000,13.871767,150200
2017-04-24,15.290000,15.500000,15.280000,15.410000,14.184736,438100
2017-04-25,15.580000,15.690000,15.430000,15.530000,14.295194,405100
2017-04-26,15.550000,15.680000,15.510000,15.640000,14.396446,272900
2017-04-27,15.680000,15.750000,15.540000,15.650000,14.405652,199400
2017-04-28,15.650000,15.670000,15.490000,15.560000,14.322808,190200
2017-05-01,15.630000,15.640000,15.430000,15.430000,14.203146,164700
2017-05-02,15.490000,15.490000,15.140000,15.180000,13.973022,294000
2017-05-03,15.070000,15.215000,14.970000,15.130000,13.927000,278500
2017-05-04,15.670000,16.010000,14.820000,15.040000,13.844153,245500
2017-05-05,15.160000,15.330000,14.890000,14.960000,13.770515,714900
2017-05-08,14.990000,15.350000,14.990000,15.310000,14.092687,286200
2017-05-09,15.300000,15.640000,15.200000,15.620000,14.378038,308400
2017-05-10,15.640000,15.730000,15.470000,15.590000,14.350425,267800
2017-05-11,15.540000,15.580000,15.260000,15.280000,14.065073,207700
2017-05-12,15.170000,15.230000,15.015000,15.030000,13.834949,111300
2017-05-15,15.110000,15.370000,15.110000,15.140000,13.936202,404000
2017-05-16,14.550000,14.690000,14.500000,14.640000,13.475958,8530200
2017-05-17,14.470000,14.660000,14.070000,14.090000,12.969689,1698300
2017-05-18,14.070000,14.470000,14.020000,14.180000,13.052534,1098400
2017-05-19,14.210000,14.500000,14.141000,14.340000,13.199810,704800
2017-05-22,14.420000,14.450000,13.980000,14.240000,13.107762,546300
2017-05-23,14.250000,14.270000,13.960000,13.990000,12.877641,515600
2017-05-24,14.050000,14.050000,13.690000,13.810000,12.711952,551200
2017-05-25,13.890000,14.050000,13.790000,13.910000,12.804002,571700
2017-05-26,13.910000,14.120000,13.900000,13.990000,12.877641,330600
2017-05-30,13.960000,14.100000,13.800000,13.860000,12.757977,374200
2017-05-31,13.870000,13.980000,13.570000,13.960000,12.850025,1405400
2017-06-01,14.010000,14.150000,13.930000,14.140000,13.015714,678500
2017-06-02,14.190000,14.400000,14.120000,14.140000,13.015714,524600
2017-06-05,14.590000,14.590000,14.320000,14.520000,13.365500,1536600
2017-06-06,14.440000,14.530000,14.310000,14.400000,13.255041,647200
2017-06-07,14.450000,14.590000,14.450000,14.490000,13.337885,1295800
2017-06-08,14.500000,14.600000,14.470000,14.510000,13.356296,773600
2017-06-09,14.600000,14.610000,14.410000,14.580000,13.420727,1167600
2017-06-12,14.750000,14.895000,14.430000,14.460000,13.310270,1638900
2017-06-13,14.580000,14.600000,14.440000,14.500000,13.347091,1592700
2017-06-14,14.380000,14.910000,14.335000,14.800000,13.708324,2922100
2017-06-15,14.670000,14.880000,14.650000,14.700000,13.615698,785400
2017-06-16,14.760000,15.090000,14.700000,14.930000,13.828735,1591500
2017-06-19,14.980000,15.100000,14.720000,14.810000,13.717587,886500
2017-06-20,14.810000,14.860000,14.610000,14.620000,13.541600,554700
2017-06-21,14.680000,14.680000,14.510000,14.540000,13.467500,338900
2017-06-22,14.530000,14.665000,14.430000,14.490000,13.421188,388400
2017-06-23,14.550000,14.820000,14.460000,14.710000,13.624962,2575000
2017-06-26,14.800000,14.970000,14.650000,14.950000,13.847258,560300
2017-06-27,15.000000,15.100000,14.875000,14.980000,13.875045,530900
2017-06-28,15.110000,15.270000,15.010000,15.140000,14.023243,617200
2017-06-29,15.210000,15.280000,14.880000,15.150000,14.032504,1192900
2017-06-30,14.960000,15.000000,14.765000,14.860000,13.763896,1217600
2017-07-03,14.970000,15.070000,14.710000,14.770000,13.680536,629900
2017-07-05,14.850000,15.040000,14.670000,14.960000,13.856521,653000
2017-07-06,14.920000,14.960000,14.750000,14.770000,13.680536,670200
2017-07-07,14.870000,15.190000,14.790000,15.180000,14.060293,601700
2017-07-10,15.150000,15.450000,15.095000,15.410000,14.273329,515000
2017-07-11,15.410000,15.435000,15.240000,15.260000,14.134392,289700
2017-07-12,15.380000,15.480000,15.301000,15.350000,14.217752,305600
2017-07-13,15.440000,15.590000,15.300000,15.320000,14.189966,266800
2017-07-14,15.250000,15.410000,15.150000,15.400000,14.264066,500900
2017-07-17,15.410000,15.410000,15.135000,15.330000,14.199229,614500
2017-07-18,15.290000,15.320000,15.150000,15.290000,14.162179,413100
2017-07-19,15.350000,15.360000,15.260000,15.310000,14.180704,340100
2017-07-20,15.310000,15.310000,15.000000,15.010000,13.902833,418000
2017-07-21,15.170000,15.170000,14.780000,14.790000,13.699061,662700
2017-07-24,14.770000,15.010000,14.720000,14.940000,13.837995,558000
2017-07-25,15.040000,15.170000,15.010000,15.060000,13.949143,488800
2017-07-26,15.200000,15.225000,15.070000,15.120000,14.004719,842800
2017-07-27,15.150000,15.150000,14.800000,14.860000,13.763896,558800
2017-07-28,14.840000,14.900000,14.750000,14.840000,13.745372,371900
2017-07-31,14.940000,15.190000,14.850000,15.070000,13.958405,860600
2017-08-01,15.140000,15.160000,14.900000,14.960000,13.856521,297100
2017-08-02,14.960000,14.960000,14.445000,14.550000,13.476763,745200
2017-08-03,14.560000,14.890000,14.250000,14.500000,13.430451,893500
2017-08-04,14.540000,14.600000,14.040000,14.290000,13.235941,874900
2017-08-07,14.290000,14.580000,14.155000,14.320000,13.263728,762100
2017-08-08,14.200000,14.320000,14.070000,14.260000,13.208155,904400
2017-08-09,14.160000,14.200000,13.860000,14.000000,12.967332,766800
2017-08-10,13.880000,13.910000,13.570000,13.650000,12.643148,605800
2017-08-11,13.560000,13.850000,13.410000,13.800000,12.782084,1237800
2017-08-14,13.900000,14.030000,13.730000,13.790000,12.772821,316200
2017-08-15,13.820000,13.930000,13.750000,13.770000,12.754297,384800
2017-08-16,13.830000,13.910000,13.690000,13.720000,12.707986,231400
2017-08-17,13.660000,13.740000,13.260000,13.260000,12.281917,548800
2017-08-18,13.250000,13.450000,13.200000,13.340000,12.356014,370100
2017-08-21,13.320000,13.630000,13.280000,13.570000,12.569049,483200
2017-08-22,13.590000,13.645000,13.430000,13.600000,12.596838,420000
2017-08-23,13.520000,13.620000,13.485000,13.520000,12.522738,293100
2017-08-24,13.550000,13.630000,13.430000,13.500000,12.504213,630300
2017-08-25,13.580000,13.660000,13.500000,13.550000,12.550525,298300
2017-08-28,13.620000,13.660000,13.480000,13.520000,12.522738,187300
2017-08-29,13.390000,13.530000,13.370000,13.490000,12.494950,272000
2017-08-30,13.480000,13.560000,13.440000,13.460000,12.467163,654100
2017-08-31,13.520000,14.140000,13.520000,14.130000,13.087742,1142700
2017-09-01,14.150000,14.150000,13.780000,13.980000,12.948807,501800
2017-09-05,13.900000,13.990000,13.460000,13.510000,12.513476,525000
2017-09-06,13.610000,13.660000,13.380000,13.520000,12.522738,587600
2017-09-07,13.520000,13.560000,13.350000,13.510000,12.513476,363100
2017-09-08,13.510000,13.600000,13.445000,13.520000,12.522738,361200
2017-09-11,13.690000,13.870000,13.560000,13.590000,12.587575,485400
2017-09-12,13.690000,13.960000,13.690000,13.890000,12.865447,479500
2017-09-13,13.850000,13.930000,13.770000,13.890000,12.865447,481900
2017-09-14,13.830000,13.830000,13.625000,13.640000,12.716282,450600
2017-09-15,13.650000,13.850000,13.510000,13.730000,12.800187,2564900
2017-09-18,13.720000,13.830000,13.650000,13.770000,12.837478,386500
2017-09-19,13.790000,13.930000,13.690000,13.700000,12.772219,518100
2017-09-20,13.750000,13.990000,13.635000,13.650000,12.725603,910800
2017-09-21,13.700000,13.780000,13.550000,13.700000,12.772219,400300
2017-09-22,13.710000,13.990000,13.670000,13.960000,13.014610,287600
2017-09-25,13.960000,14.195000,13.900000,14.170000,13.210388,291300
2017-09-26,14.210000,14.370000,14.160000,14.220000,13.257004,408400
2017-09-27,14.390000,14.560000,14.270000,14.460000,13.480751,451000
2017-09-28,14.520000,14.765000,14.410000,14.640000,13.648561,523400
2017-09-29,14.660000,14.960000,14.500000,14.920000,13.909597,1003000
2017-10-02,14.860000,14.860000,14.640000,14.800000,13.797725,582600
2017-10-03,14.830000,15.040000,14.730000,15.040000,14.021472,588300
2017-10-04,15.020000,15.050000,14.860000,14.890000,13.881630,454100
2017-10-05,14.900000,15.080000,14.850000,15.030000,14.012149,332600
2017-10-06,15.070000,15.110000,14.910000,15.000000,13.984180,232000
2017-10-09,15.170000,15.200000,15.040000,15.140000,14.114700,306900
2017-10-10,15.260000,15.370000,15.150000,15.280000,14.245219,723700
2017-10-11,15.310000,15.360000,15.180000,15.260000,14.226573,458800
2017-10-12,15.240000,15.500000,15.240000,15.410000,14.366415,313800
2017-10-13,15.450000,15.520000,15.360000,15.400000,14.357093,210600
2017-10-16,15.450000,15.540000,15.220000,15.280000,14.245219,256900
2017-10-17,15.320000,15.370000,15.070000,15.100000,14.077410,164700
2017-10-18,15.100000,15.310000,15.100000,15.220000,14.189282,175800
2017-10-19,15.210000,15.300000,15.100000,15.300000,14.263865,369300
2017-10-20,15.470000,15.625000,15.390000,15.580000,14.524902,692300
2017-10-23,15.600000,15.710000,15.530000,15.590000,14.534225,254300
2017-10-24,15.600000,15.690000,15.560000,15.610000,14.552871,292500
2017-10-25,15.600000,15.600000,15.330000,15.390000,14.347770,333400
2017-10-26,15.430000,15.710000,15.350000,15.660000,14.599485,251700
2017-10-27,15.640000,15.850000,15.480000,15.670000,14.608807,486400
2017-10-30,15.590000,15.590000,15.260000,15.420000,14.375740,402500
2017-10-31,15.420000,15.480000,15.260000,15.280000,14.245219,420300
2017-11-01,15.410000,15.580000,15.280000,15.390000,14.347770,540900
2017-11-02,15.380000,15.880000,15.240000,15.740000,14.674067,445100
2017-11-03,15.830000,15.930000,15.700000,15.750000,14.683390,355800
2017-11-06,15.720000,15.960000,15.660000,15.860000,14.785940,366000
2017-11-07,15.880000,15.990000,15.420000,15.460000,14.413030,349200
2017-11-08,15.380000,15.590000,15.380000,15.580000,14.524902,386000
2017-11-09,15.410000,15.570000,15.300000,15.550000,14.496934,533100
2017-11-10,15.590000,16.040001,15.580000,16.040001,14.953753,376500
2017-11-13,15.980000,16.139999,15.860000,16.070000,14.981717,784200
2017-11-14,16.000000,16.020000,15.770000,15.960000,14.879169,391600
2017-11-15,15.480000,15.840000,15.320000,15.610000,14.552871,2106800
2017-11-16,15.700000,15.830000,15.610000,15.760000,14.692714,1105500
2017-11-17,15.740000,16.070000,15.740000,15.920000,14.841877,945900
2017-11-20,15.890000,16.080000,15.860000,15.940000,14.860523,431600
2017-11-21,15.930000,16.110001,15.850000,16.000000,14.916460,430600
2017-11-22,16.070000,16.299999,15.950000,16.040001,14.953753,679900
2017-11-24,16.059999,16.080000,16.000000,16.040001,14.953753,127500
2017-11-27,16.059999,16.254999,16.004999,16.040001,14.953753,454600
2017-11-28,16.070000,16.270000,16.040001,16.090000,15.000364,1672700
2017-11-29,16.150000,16.684999,16.139999,16.450001,15.335986,946100
2017-11-30,16.590000,16.590000,16.270000,16.400000,15.289371,505100
2017-12-01,16.410000,16.600000,16.059999,16.469999,15.354630,910600
2017-12-04,16.700001,16.740000,16.385000,16.410000,15.298694,300500
2017-12-05,16.340000,16.420000,15.950000,15.980000,14.897813,602300
2017-12-06,16.049999,16.170000,15.930000,15.950000,14.869845,484200
2017-12-07,15.930000,16.110001,15.870000,15.960000,14.879169,340600
2017-12-08,16.070000,16.070000,15.840000,15.960000,14.879169,403300
2017-12-11,16.100000,16.260000,16.049999,16.100000,15.009686,589500
2017-12-12,16.129999,16.350000,16.090000,16.190001,15.093593,393000
2017-12-13,16.160000,16.295000,16.090000,16.209999,15.112238,438300
2017-12-14,16.180000,16.260000,16.070000,16.200001,15.187236,480000
2017-12-15,16.299999,16.920000,16.299999,16.730000,15.684102,996700
2017-12-18,16.900000,17.219999,16.900000,16.950001,15.890350,522700
2017-12-19,16.959999,17.080000,16.809999,16.850000,15.796603,337600
2017-12-20,16.980000,17.049999,16.879999,16.910000,15.852852,255100
2017-12-21,16.950001,17.080000,16.840000,16.850000,15.796603,210400
2017-12-22,16.980000,16.980000,16.740000,16.830000,15.777851,231900
2017-12-26,16.770000,16.959999,16.770000,16.850000,15.796603,166800
2017-12-27,16.860001,16.910000,16.740000,16.780001,15.730976,192200
2017-12-28,16.850000,16.870001,16.750000,16.850000,15.796603,187700
2017-12-29,16.850000,16.910000,16.520000,16.750000,15.702854,1119100
2018-01-02,16.840000,16.840000,16.510000,16.670000,15.627853,509100
2018-01-03,16.799999,16.980000,16.650000,16.879999,15.824725,547000
2018-01-04,16.940001,17.180000,16.805000,16.830000,15.777851,545000
2018-01-05,16.900000,16.975000,16.799999,16.950001,15.890350,459800
2018-01-08,17.000000,17.730000,17.000000,17.480000,16.387215,1135200
2018-01-09,17.610001,17.950001,17.610001,17.639999,16.537212,589600
2018-01-10,17.639999,17.870001,17.469999,17.490000,16.396591,502300
2018-01-11,17.590000,17.840000,17.469999,17.840000,16.724712,539100
2018-01-12,17.940001,18.370001,17.940001,18.340000,17.193451,417100
2018-01-16,18.459999,18.580000,18.139999,18.139999,17.005953,453400
2018-01-17,18.129999,18.450001,17.850000,18.309999,17.165325,592800
2018-01-18,18.280001,18.459999,18.100000,18.180000,17.043453,273000
2018-01-19,18.150000,18.469999,18.150000,18.360001,17.212204,647200
2018-01-22,18.440001,18.620001,18.330000,18.459999,17.305946,369400
2018-01-23,18.410000,18.580000,18.350000,18.440001,17.287201,421200
2018-01-24,18.510000,18.610001,18.305000,18.400000,17.249701,559000
2018-01-25,18.490000,18.537001,18.090000,18.170000,17.034079,396900
2018-01-26,18.240000,18.350000,18.030001,18.309999,17.165325,767000
2018-01-29,18.299999,18.370001,18.150000,18.190001,17.052828,509500
2018-01-30,18.000000,18.150000,17.840000,17.959999,16.837206,806900
2018-01-31,18.040001,18.040001,17.490000,17.889999,16.771584,1439800
2018-02-01,18.000000,18.000000,17.030001,17.660000,16.555960,1405100
2018-02-02,17.570000,17.730000,17.410000,17.500000,16.405966,685400
2018-02-05,17.299999,17.400000,16.150000,16.400000,15.374733,1665100
2018-02-06,16.000000,16.570000,15.960000,16.549999,15.515355,1989800
2018-02-07,16.469999,16.719999,16.400000,16.510000,15.477859,861300
2018-02-08,16.500000,16.566999,15.690000,15.690000,14.709120,1570800
2018-02-09,15.870000,15.910000,15.010000,15.370000,14.409124,1862500
2018-02-12,15.450000,15.703000,15.400000,15.510000,14.540372,1459700
2018-02-13,15.440000,15.800000,15.400000,15.770000,14.784120,872000
2018-02-14,15.620000,16.040001,15.350000,16.010000,15.009115,832900
2018-02-15,16.200001,16.200001,15.620000,15.700000,14.718495,1006900
2018-02-16,15.680000,15.940000,15.640000,15.780000,14.793493,859500
2018-02-20,15.740000,15.860000,15.470000,15.570000,14.596620,662300
2018-02-21,15.610000,16.049999,15.610000,15.690000,14.709120,567300
2018-02-22,15.770000,15.870000,15.490000,15.500000,14.530998,509300
2018-02-23,15.610000,15.780000,15.500000,15.590000,14.615372,592100
2018-02-26,15.700000,15.840000,15.560000,15.770000,14.784120,546800
2018-02-27,15.740000,15.960000,15.660000,15.680000,14.699745,969900
2018-02-28,15.760000,15.850000,15.320000,15.330000,14.371625,576300
2018-03-01,15.290000,15.360000,14.820000,14.940000,14.006007,739700
2018-03-02,14.840000,15.050000,14.520000,15.020000,14.081006,533200
2018-03-05,14.890000,15.040000,14.760000,14.960000,14.024757,447800
2018-03-06,15.060000,15.280000,14.960000,15.210000,14.259128,440700
2018-03-07,15.090000,15.390000,15.000000,15.360000,14.399750,894300
2018-03-08,15.430000,15.450000,15.200000,15.440000,14.474748,451800
2018-03-09,15.500000,15.985000,15.480000,15.950000,14.952865,682000
2018-03-12,16.040001,16.080000,15.860000,16.020000,15.018490,544200
2018-03-13,16.070000,16.190001,15.850000,15.920000,14.924741,1247700
2018-03-14,16.020000,16.070000,15.810000,15.960000,14.962240,1236900
2018-03-15,15.860000,15.860000,15.570000,15.670000,14.773679,584900
2018-03-16,15.720000,15.900000,15.580000,15.750000,14.849104,659600
2018-03-19,15.730000,15.750000,15.420000,15.650000,14.754824,622200
2018-03-20,15.790000,15.800000,15.600000,15.700000,14.801965,881400
2018-03-21,15.720000,16.020000,15.690000,15.870000,14.962239,641000
2018-03-22,15.710000,15.800000,15.460000,15.500000,14.613404,969100
2018-03-23,15.500000,15.570000,15.300000,15.350000,14.471985,1305900
2018-03-26,12.880000,16.000000,12.880000,15.740000,14.839675,482700
2018-03-27,15.850000,15.930000,15.640000,15.680000,14.783109,717800
2018-03-28,15.640000,15.820000,15.470000,15.520000,14.632260,762900
2018-03-29,15.560000,15.840000,15.450000,15.760000,14.858534,587300
2018-04-02,15.740000,15.910000,14.980000,15.070000,14.208000,641500
2018-04-03,15.110000,15.360000,15.090000,15.270000,14.396560,319100
2018-04-04,15.090000,15.570000,15.080000,15.530000,14.641687,357900
2018-04-05,15.530000,15.660000,15.290000,15.350000,14.471985,528100
2018-04-06,15.190000,15.310000,14.730000,14.840000,13.991157,549500
2018-04-09,14.920000,15.120000,14.700000,14.840000,13.991157,720100
2018-04-10,15.060000,15.080000,14.930000,14.950000,14.094864,484400
2018-04-11,14.790000,14.940000,14.725000,14.810000,13.962873,723400
2018-04-12,14.770000,15.040000,14.765000,14.890000,14.038296,817000
2018-04-13,14.890000,14.980000,14.560000,14.600000,13.764885,787900
2018-04-16,14.650000,14.790000,14.580000,14.680000,13.840308,1073200
2018-04-17,14.840000,15.030000,14.740000,14.960000,14.104292,588200
2018-04-18,15.030000,15.180000,14.965000,15.020000,14.160860,516400
2018-04-19,15.040000,15.180000,14.980000,15.040000,14.179715,217900
2018-04-20,15.020000,15.060000,14.830000,14.910000,14.057153,305700
2018-04-23,15.030000,15.030000,14.850000,14.920000,14.066579,428600
2018-04-24,15.000000,15.140000,14.820000,14.880000,14.028869,446000
2018-04-25,14.850000,15.060000,14.720000,14.910000,14.057153,279900
2018-04-26,14.910000,15.280000,14.725000,15.210000,14.339992,389100
2018-04-27,15.150000,15.180000,14.930000,15.010000,14.151432,349600
2018-04-30,15.380000,15.500000,15.160000,15.170000,14.302280,558000
2018-05-01,15.200000,15.200000,14.950000,15.060000,14.198572,292000
2018-05-02,15.030000,15.040000,14.730000,14.740000,13.896875,495200
2018-05-03,14.790000,15.390000,14.790000,15.040000,14.179715,779800
2018-05-04,15.020000,15.460000,14.860000,15.380000,14.500268,641800
2018-05-07,15.470000,15.500000,15.180000,15.440000,14.556834,504500
2018-05-08,15.410000,15.570000,15.300000,15.370000,14.490840,240100
2018-05-09,15.450000,15.590000,15.320000,15.490000,14.603977,387900
2018-05-10,15.490000,15.780000,15.490000,15.600000,14.707685,245400
2018-05-11,15.580000,15.690000,15.550000,15.660000,14.764253,326300
2018-05-14,15.620000,15.770000,15.490000,15.500000,14.613404,469100
2018-05-15,15.380000,15.540000,15.350000,15.480000,14.594547,325700
2018-05-16,15.530000,15.620000,15.390000,15.520000,14.632260,240500
2018-05-17,15.490000,15.685000,15.430000,15.660000,14.764253,357800
2018-05-18,15.740000,15.740000,15.545000,15.590000,14.698256,450800
2018-05-21,15.600000,15.760000,15.460000,15.580000,14.688828,243300
2018-05-22,15.610000,15.765000,15.560000,15.700000,14.801965,191900
2018-05-23,15.660000,15.660000,15.370000,15.490000,14.603977,271800
2018-05-24,15.400000,15.530000,15.290000,15.460000,14.575693,323000
2018-05-25,15.360000,15.600000,15.330000,15.550000,14.660543,248000
2018-05-29,15.390000,15.450000,14.930000,15.220000,14.349421,383600
2018-05-30,15.320000,15.560000,15.320000,15.490000,14.603977,361300
2018-05-31,15.480000,15.625000,15.393000,15.510000,14.622831,553200
2018-06-01,15.680000,15.850000,15.660000,15.800000,14.896243,398600
2018-06-04,15.840000,15.960000,15.790000,15.900000,14.990523,372700
2018-06-05,15.820000,15.880000,15.560000,15.640000,14.745396,312700
2018-06-06,15.620000,15.780000,15.610000,15.750000,14.849104,243300
2018-06-07,15.730000,15.805000,15.570000,15.710000,14.811392,307800
2018-06-08,15.720000,15.860000,15.570000,15.840000,14.933956,354100
2018-06-11,15.920000,16.340000,15.890000,16.240000,15.311078,546000
2018-06-12,16.230000,16.299999,16.010000,16.040001,15.122518,415900
2018-06-13,16.059999,16.150000,15.930000,16.040001,15.122518,534200
2018-06-14,16.030001,16.209999,15.940000,16.190001,15.359696,356800
2018-06-15,16.049999,16.309999,15.980000,16.270000,15.435593,858800
2018-06-18,16.080000,16.080000,15.690000,15.750000,14.942261,379300
2018-06-19,15.600000,15.670000,15.505000,15.650000,14.847388,319500
2018-06-20,15.790000,15.790000,15.460000,15.490000,14.695594,359200
2018-06-21,15.400000,15.400000,15.010000,15.070000,14.297133,556500
2018-06-22,15.230000,15.400000,15.085000,15.170000,14.392006,1731000
2018-06-25,15.130000,15.130000,14.610000,14.810000,14.050467,714800
2018-06-26,14.800000,14.830000,14.570000,14.620000,13.870211,399700
2018-06-27,14.580000,14.630000,14.425000,14.480000,13.737392,551400
2018-06-28,14.440000,14.600000,14.340000,14.340000,13.604572,424500
2018-06-29,14.420000,14.560000,14.260000,14.260000,13.528675,500300
2018-07-02,14.080000,14.430000,14.080000,14.390000,13.652007,508300
2018-07-03,14.440000,14.560000,14.430000,14.440000,13.699443,268500
2018-07-05,14.550000,14.640000,14.410000,14.640000,13.889187,496500
2018-07-06,14.590000,14.620000,14.450000,14.510000,13.765853,321100
2018-07-09,14.520000,14.700000,14.510000,14.650000,13.898674,298300
2018-07-10,14.660000,14.730000,14.600000,14.670000,13.917648,407000
2018-07-11,14.490000,14.620000,14.040000,14.050000,13.329446,738100
2018-07-12,14.020000,14.080000,13.560000,13.740000,13.035343,1603900
2018-07-13,13.630000,13.915000,13.590000,13.610000,12.912011,608100
2018-07-16,13.590000,13.780000,13.460000,13.750000,13.044830,762500
2018-07-17,13.740000,13.990000,13.740000,13.880000,13.168163,510200
2018-07-18,13.820000,14.040000,13.820000,13.990000,13.272521,928400
2018-07-19,13.980000,14.060000,13.905000,13.940000,13.225086,402600
2018-07-20,13.900000,13.990000,13.790000,13.790000,13.082779,731400
2018-07-23,13.770000,14.140000,13.770000,14.000000,13.282008,502100
2018-07-24,14.070000,14.270000,14.055000,14.110000,13.386368,499400
2018-07-25,14.050000,14.180000,14.050000,14.080000,13.357907,429700
2018-07-26,14.080000,14.240000,14.030000,14.080000,13.357907,244900
2018-07-27,14.050000,14.170000,14.000000,14.060000,13.338932,875100
2018-07-30,14.050000,14.190000,13.990000,14.140000,13.414829,1334800
2018-07-31,14.270000,14.370000,14.170000,14.250000,13.519188,1350600
2018-08-01,14.200000,14.250000,13.480000,13.800000,13.092266,954700
2018-08-02,13.600000,13.600000,12.360000,12.490000,11.849449,2046200
2018-08-03,12.390000,12.560000,12.220000,12.270000,11.640733,678000
2018-08-06,12.170000,12.440000,11.885000,12.380000,11.745090,1750800
2018-08-07,12.370000,12.755000,12.370000,12.540000,11.896886,716600
2018-08-08,12.580000,12.670000,12.420000,12.430000,11.792528,806800
2018-08-09,12.350000,12.530000,12.340000,12.470000,11.830476,523100
2018-08-10,12.320000,12.530000,12.220000,12.460000,11.820988,987100
2018-08-13,12.450000,12.500000,12.360000,12.390000,11.754577,864600
2018-08-14,12.380000,12.690000,12.380000,12.680000,12.029706,685000
2018-08-15,12.610000,12.760000,12.435000,12.590000,11.944321,683600
2018-08-16,12.560000,12.880000,12.560000,12.580000,11.934834,690000
2018-08-17,12.580000,12.750000,12.430000,12.540000,11.896886,541700
2018-08-20,12.540000,12.670000,12.440000,12.570000,11.925345,385700
2018-08-21,12.540000,12.800000,12.530000,12.710000,12.058167,463800
2018-08-22,12.600000,12.730000,12.550000,12.720000,12.067654,392600
2018-08-23,12.650000,12.730000,12.410000,12.440000,11.802012,306700
2018-08-24,12.490000,12.590000,12.350000,12.500000,11.858935,369700
2018-08-27,12.480000,12.840000,12.400000,12.760000,12.105603,412800
2018-08-28,12.760000,12.990000,12.700000,12.710000,12.058167,455300
2018-08-29,12.750000,12.990000,12.620000,12.940000,12.276371,725400
2018-08-30,12.840000,12.990000,12.610000,12.640000,11.991757,538200
2018-08-31,12.560000,12.710000,12.460000,12.690000,12.039192,337900
2018-09-04,12.650000,12.750000,12.590000,12.720000,12.067654,463600
2018-09-05,12.680000,12.770000,12.600000,12.730000,12.077140,218000
2018-09-06,12.680000,12.740000,12.570000,12.630000,11.982268,420600
2018-09-07,12.550000,12.670000,12.540000,12.660000,12.010732,536400
2018-09-10,12.680000,12.870000,12.630000,12.650000,12.001244,397000
2018-09-11,12.570000,12.610000,12.390000,12.490000,11.849449,495700
2018-09-12,12.420000,12.610000,12.420000,12.510000,11.868423,735300
2018-09-13,12.480000,12.550000,12.460000,12.530000,11.983187,314000
2018-09-14,12.450000,12.750000,12.450000,12.650000,12.097949,549300
2018-09-17,12.640000,12.720000,12.595000,12.650000,12.097949,309200
2018-09-18,12.590000,12.760000,12.590000,12.700000,12.145767,476300
2018-09-19,12.700000,12.950000,12.700000,12.850000,12.289222,323700
2018-09-20,12.880000,13.040000,12.865000,12.910000,12.346603,235600
2018-09-21,12.910000,12.990000,12.870000,12.980000,12.413548,728700
2018-09-24,12.920000,12.935000,12.650000,12.720000,12.164895,524300
2018-09-25,12.760000,12.790000,12.560000,12.600000,12.050132,449500
2018-09-26,12.560000,12.650000,12.515000,12.580000,12.031004,775300
2018-09-27,12.650000,12.650000,12.370000,12.460000,11.916242,976900
2018-09-28,12.380000,12.450000,12.270000,12.400000,11.858859,497200
2018-10-01,12.420000,12.530000,12.295000,12.300000,11.763225,445200
2018-10-02,12.220000,12.340000,12.040000,12.150000,11.619769,431700
2018-10-03,12.210000,12.390000,12.170000,12.280000,11.744097,337600
2018-10-04,12.190000,12.320000,12.080000,12.150000,11.619769,371600
2018-10-05,12.170000,12.525000,12.110000,12.500000,11.954495,2543100
2018-10-08,12.540000,12.945000,12.415000,12.930000,12.365731,764100
2018-10-09,13.010000,13.010000,12.720000,12.850000,12.289222,551700
2018-10-10,12.840000,13.090000,12.510000,12.520000,11.973623,933300
2018-10-11,12.520000,12.640000,12.120000,12.140000,11.610206,810400
2018-10-12,12.240000,12.300000,11.980000,12.150000,11.619769,682400
2018-10-15,12.100000,12.375000,12.080000,12.280000,11.744097,381900
2018-10-16,12.320000,12.440000,12.070000,12.390000,11.849296,372400
2018-10-17,12.280000,12.450000,12.160000,12.400000,11.858859,553700
2018-10-18,12.350000,12.380000,11.980000,12.000000,11.476316,351600
2018-10-19,11.970000,12.150000,11.880000,11.940000,11.418935,353400
2018-10-22,11.980000,12.000000,11.700000,11.810000,11.294608,398000
2018-10-23,11.590000,11.750000,11.440000,11.670000,11.160718,455500
2018-10-24,11.620000,11.740000,11.150000,11.160000,10.672974,414000
2018-10-25,11.240000,11.500000,11.190000,11.450000,10.950316,406000
2018-10-26,11.350000,11.460000,11.150000,11.320000,10.825992,483800
2018-10-29,11.490000,11.620000,11.350000,11.430000,10.931191,363300
2018-10-30,11.460000,11.480000,11.230000,11.380000,10.883373,767000
2018-10-31,11.540000,11.700000,11.340000,11.400000,10.902499,1147700
2018-11-01,11.490000,12.840000,11.490000,12.400000,11.858859,1189800
2018-11-02,12.390000,12.700000,12.045000,12.100000,11.571953,523400
2018-11-05,12.200000,12.780000,12.200000,12.760000,12.203150,551800
2018-11-06,12.780000,13.030000,12.710000,12.960000,12.394422,564800
2018-11-07,12.980000,13.280000,12.940000,13.220000,12.643075,1057700
2018-11-08,13.160000,13.260000,12.930000,12.980000,12.413548,735700
2018-11-09,12.910000,13.020000,12.580000,12.890000,12.327477,381700
2018-11-12,12.930000,13.000000,12.810000,12.830000,12.270094,269400
2018-11-13,12.930000,13.060000,12.780000,12.830000,12.270094,327900
2018-11-14,13.000000,13.000000,12.655000,12.800000,12.241404,339400
2018-11-15,12.640000,12.830000,12.410000,12.800000,12.241404,415300
2018-11-16,12.720000,12.850000,12.550000,12.760000,12.203150,465100
2018-11-19,13.010000,13.360000,12.710000,12.800000,12.241404,1293300
2018-11-20,12.690000,12.820000,12.450000,12.550000,12.002315,703300
2018-11-21,12.680000,12.990000,12.620000,12.890000,12.327477,516600
2018-11-23,12.650000,13.100000,12.650000,12.960000,12.394422,120100
2018-11-26,13.050000,13.290000,12.920000,12.980000,12.413548,285700
2018-11-27,12.870000,12.925000,12.610000,12.660000,12.107513,218600
2018-11-28,12.730000,13.060000,12.610000,13.050000,12.480494,670800
2018-11-29,12.950000,13.150000,12.930000,13.060000,12.490058,252000
2018-11-30,13.040000,13.170000,13.000000,13.170000,12.595258,382100
2018-12-03,13.310000,13.440000,13.130000,13.290000,12.710020,302600
2018-12-04,13.260000,13.260000,12.520000,12.680000,12.126641,1215000
2018-12-06,12.440000,12.450000,11.810000,12.000000,11.476316,659500
2018-12-07,11.950000,12.110000,11.660000,11.770000,11.256353,640400
2018-12-10,11.700000,11.750000,11.130000,11.360000,10.864246,947500
2018-12-11,11.520000,11.760000,11.310000,11.330000,10.835554,976500
2018-12-12,11.530000,11.820000,11.410000,11.600000,11.093774,301900
2018-12-13,11.570000,11.630000,11.290000,11.360000,10.958717,254500
2018-12-14,11.250000,11.415000,10.970000,11.010000,10.621080,462500
2018-12-17,11.000000,11.130000,10.740000,10.820000,10.437793,665700
2018-12-18,10.880000,11.040000,10.700000,10.810000,10.428146,504500
2018-12-19,10.750000,10.950000,10.480000,10.530000,10.158037,766000
2018-12-20,10.510000,10.680000,10.310000,10.360000,9.994041,886500
2018-12-21,10.340000,10.480000,10.110000,10.130000,9.772166,914700
2018-12-24,10.070000,10.430000,10.050000,10.130000,9.772166,372300
2018-12-26,10.200000,10.480000,10.040000,10.480000,10.109802,864700
2018-12-27,10.290000,10.680000,10.280000,10.560000,10.186976,627100
2018-12-28,10.620000,10.750000,10.510000,10.520000,10.148390,762000
2018-12-31,10.570000,10.930000,10.500000,10.680000,10.302738,689700
2019-01-02,10.510000,11.210000,10.500000,11.160000,10.765781,542600
2019-01-03,11.090000,11.395000,11.000000,11.140000,10.746490,570300
2019-01-04,11.210000,11.570000,11.050000,11.270000,10.871898,577100
2019-01-07,11.210000,11.595000,11.160000,11.460000,11.055185,491300
2019-01-08,11.550000,11.591000,11.240000,11.260000,10.862250,739100
2019-01-09,11.090000,11.320000,10.645000,11.100000,10.707902,665900
2019-01-10,11.020000,11.470000,11.010000,11.400000,10.997305,482600
2019-01-11,11.250000,11.525000,10.970000,11.330000,10.929778,663900
2019-01-14,11.160000,11.480000,10.980000,11.270000,10.871898,663300
2019-01-15,11.200000,11.370000,11.120000,11.360000,10.958717,598000
2019-01-16,11.380000,11.840000,11.380000,11.720000,11.306001,477700
2019-01-17,11.570000,11.760000,11.480000,11.600000,11.190240,608800
2019-01-18,11.660000,11.900000,11.660000,11.890000,11.469996,642700
2019-01-22,11.780000,12.080000,11.780000,12.040000,11.614697,844500
2019-01-23,12.150000,12.310000,12.090000,12.230000,11.797984,681800
2019-01-24,12.220000,12.530000,12.220000,12.330000,11.894454,446400
2019-01-25,12.340000,12.440000,12.260000,12.370000,11.933040,383600
2019-01-28,12.320000,12.610000,12.270000,12.360000,11.923392,597000
2019-01-29,12.420000,12.520000,12.230000,12.460000,12.019860,735200
2019-01-30,12.560000,12.570000,12.290000,12.380000,11.942687,577400
2019-01-31,12.270000,12.510000,12.015000,12.370000,11.933040,617100
2019-02-01,12.400000,12.615000,12.400000,12.440000,12.000567,548900
2019-02-04,12.450000,12.560000,12.370000,12.500000,12.058448,613000
2019-02-05,12.530000,12.555000,12.370000,12.400000,11.961980,678100
2019-02-06,12.420000,12.680000,12.290000,12.320000,11.884807,1620100
2019-02-07,12.200000,13.230000,12.010000,12.860000,12.405731,1121500
2019-02-08,12.990000,13.370000,12.945000,13.360000,12.888069,1269500
2019-02-11,13.440000,13.590000,13.340000,13.570000,13.090650,737800
2019-02-12,13.630000,14.110000,13.630000,14.070000,13.572989,729000
2019-02-13,14.090000,14.305000,14.040000,14.200000,13.698396,658100
2019-02-14,14.190000,14.290000,13.860000,13.870000,13.380054,752400
2019-02-15,13.900000,14.110000,13.800000,13.860000,13.370407,985800
2019-02-19,13.780000,13.890000,13.760000,13.770000,13.283587,813100
2019-02-20,13.770000,13.900000,13.700000,13.890000,13.399348,596400
2019-02-21,13.940000,14.100000,13.770000,13.970000,13.476521,523900
2019-02-22,14.000000,14.080000,13.900000,14.030000,13.534401,992400
2019-02-25,14.250000,14.540000,14.190000,14.190000,13.688749,1072000
2019-02-26,14.230000,14.280000,14.020000,14.160000,13.659809,878800
2019-02-27,14.140000,14.280000,14.110000,14.250000,13.746631,342400
2019-02-28,14.420000,14.570000,14.140000,14.150000,13.650162,597800
2019-03-01,14.220000,14.390000,14.040000,14.140000,13.640516,594500
2019-03-04,14.210000,14.370000,14.090000,14.190000,13.688749,825000
2019-03-05,14.290000,14.290000,14.030000,14.200000,13.698396,640200
2019-03-06,14.200000,14.210000,13.910000,13.950000,13.457228,301400
2019-03-07,13.920000,13.940000,13.600000,13.620000,13.138885,326900
2019-03-08,13.590000,13.670000,13.520000,13.560000,13.081004,333800
2019-03-11,13.660000,13.940000,13.550000,13.710000,13.225705,296100
2019-03-12,13.750000,13.765000,13.590000,13.680000,13.196766,538100
2019-03-13,13.690000,13.890000,13.620000,13.760000,13.273940,381600
2019-03-14,13.680000,13.790000,13.495000,13.530000,13.147614,264000
2019-03-15,13.490000,13.520000,13.360000,13.420000,13.040722,971800
2019-03-18,13.430000,13.840000,13.430000,13.830000,13.439135,764000
2019-03-19,13.930000,14.100000,13.610000,13.620000,13.235069,364000
2019-03-20,13.590000,13.630000,13.290000,13.320000,12.943548,336100
2019-03-21,13.250000,13.370000,13.170000,13.240000,12.865808,454600
2019-03-22,13.070000,13.115000,12.450000,12.540000,12.185593,514400
2019-03-25,12.560000,12.755000,12.510000,12.630000,12.273048,1177700
2019-03-26,12.700000,13.060000,12.700000,12.950000,12.584005,510100
2019-03-27,12.960000,13.150000,12.860000,13.000000,12.632592,1200600
2019-03-28,12.990000,13.310000,12.990000,13.300000,12.924114,608700
2019-03-29,13.410000,13.570000,13.310000,13.560000,13.176765,651200
2019-04-01,13.630000,13.820000,13.540000,13.820000,13.429418,646400
2019-04-02,13.810000,13.840000,13.635000,13.720000,13.332243,310500
2019-04-03,13.830000,13.940000,13.760000,13.850000,13.458570,286400
2019-04-04,13.860000,14.010000,13.832000,14.010000,13.614047,524300
2019-04-05,14.020000,14.070000,13.880000,14.050000,13.652917,468300
2019-04-08,13.990000,14.050000,13.885000,14.040000,13.643200,320000
2019-04-09,14.020000,14.020000,13.775000,13.970000,13.575178,399000
2019-04-10,13.970000,14.330000,13.920000,14.320000,13.915286,650200
2019-04-11,14.450000,14.640000,14.340000,14.600000,14.187373,683300
2019-04-12,14.100000,14.610000,14.100000,14.540000,14.129067,722900
2019-04-15,14.530000,14.642000,14.320000,14.400000,13.993025,358500
2019-04-16,14.450000,14.525000,14.370000,14.500000,14.090199,616800
2019-04-17,14.510000,14.620000,14.470000,14.550000,14.138786,372100
2019-04-18,14.470000,14.550000,14.395000,14.540000,14.129067,350600
2019-04-22,14.480000,14.550000,14.390000,14.450000,14.041612,225700
2019-04-23,14.480000,14.770000,14.440000,14.690000,14.274829,377000
2019-04-24,14.690000,14.720000,14.530000,14.590000,14.177654,193500
2019-04-25,14.560000,14.640000,14.320000,14.590000,14.177654,312100
2019-04-26,14.570000,14.670000,14.430000,14.670000,14.255394,238300
2019-04-29,14.630000,14.820000,14.630000,14.800000,14.381721,400200
2019-04-30,14.820000,14.870000,14.570000,14.660000,14.245676,362900
2019-05-01,14.670000,14.760000,14.490000,14.540000,14.129067,439400
2019-05-02,14.050000,14.450000,13.860000,13.990000,13.594613,746100
2019-05-03,13.840000,14.200000,13.620000,14.050000,13.652917,712700
2019-05-06,13.820000,13.990000,13.660000,13.880000,13.487721,474700
2019-05-07,13.690000,13.885000,13.690000,13.820000,13.429418,498800
2019-05-08,13.820000,13.890000,13.690000,13.800000,13.409983,321900
2019-05-09,13.670000,13.720000,13.520000,13.630000,13.244787,239700
2019-05-10,13.540000,13.650000,13.420000,13.600000,13.215635,499300
2019-05-13,13.340000,13.340000,12.340000,12.410000,12.059266,825600
2019-05-14,12.430000,12.690000,12.410000,12.450000,12.098136,864900
2019-05-15,12.410000,12.420000,12.055000,12.190000,11.845484,830500
2019-05-16,12.160000,12.410000,12.080000,12.300000,11.952376,1074200
2019-05-17,12.160000,12.390000,12.110000,12.110000,11.767745,452900
2019-05-20,12.000000,12.020000,11.835000,11.880000,11.544246,354500
2019-05-21,11.920000,12.100000,11.915000,11.950000,11.612267,315800
2019-05-22,11.900000,11.930000,11.710000,11.730000,11.398484,455900
2019-05-23,11.600000,11.660000,11.400000,11.520000,11.194420,404800
2019-05-24,11.560000,11.750000,11.530000,11.710000,11.379049,397600
2019-05-28,11.670000,11.810000,11.650000,11.710000,11.379049,563100
2019-05-29,11.650000,11.650000,11.320000,11.430000,11.106964,426400
2019-05-30,11.450000,11.600000,11.110000,11.130000,10.815442,961400
2019-05-31,10.970000,11.040000,10.725000,10.740000,10.436463,529600
2019-06-03,10.690000,12.120000,10.670000,11.090000,10.776573,997600
2019-06-04,11.190000,11.300000,11.030000,11.110000,10.796007,647400
2019-06-05,11.110000,11.120000,10.840000,10.880000,10.572508,422800
2019-06-06,10.840000,10.940000,10.620000,10.910000,10.601660,451800
2019-06-07,10.950000,11.060000,10.830000,10.990000,10.679399,341800
2019-06-10,11.060000,11.270000,11.060000,11.110000,10.796007,282000
2019-06-11,11.180000,11.306000,10.990000,11.040000,10.727986,355100
2019-06-12,11.000000,11.150000,10.980000,11.040000,10.727986,366800
2019-06-13,11.000000,11.090000,10.940000,10.980000,10.767211,339900
2019-06-14,11.000000,11.000000,10.740000,10.740000,10.531862,210700
2019-06-17,10.730000,10.810000,10.630000,10.710000,10.502443,285000
2019-06-18,10.760000,11.010000,10.740000,10.750000,10.541668,169500
2019-06-19,10.760000,11.010000,10.670000,10.980000,10.767211,590900
2019-06-20,11.140000,11.200000,11.010000,11.040000,10.826049,453600
2019-06-21,11.000000,11.033000,10.880000,10.900000,10.688762,523500
2019-06-24,10.870000,10.935000,10.560000,10.830000,10.620117,615800
2019-06-25,10.830000,10.930000,10.750000,10.890000,10.678955,457200
2019-06-26,10.890000,10.980000,10.820000,10.970000,10.757405,361700
2019-06-27,11.000000,11.130000,11.000000,11.110000,10.894691,520800
2019-06-28,11.210000,11.495000,11.210000,11.410000,11.188878,3203400
2019-07-01,11.590000,11.823000,11.590000,11.690000,11.463451,398900
2019-07-02,11.650000,11.720000,11.550000,11.680000,11.453646,268100
2019-07-03,11.700000,11.860000,11.580000,11.840000,11.610544,168400
2019-07-05,11.840000,11.975000,11.760000,11.960000,11.728219,278100
2019-07-08,11.880000,12.060000,11.820000,11.930000,11.698801,567800
2019-07-09,11.860000,11.970000,11.660000,11.950000,11.718413,500600
2019-07-10,11.910000,11.980000,11.585000,11.620000,11.394808,388500
2019-07-11,11.620000,11.620000,11.400000,11.490000,11.267327,344400
2019-07-12,11.450000,11.590000,11.420000,11.540000,11.316358,272100
2019-07-15,11.510000,11.600000,11.340000,11.570000,11.345777,352100
2019-07-16,11.650000,11.890000,11.467000,11.850000,11.620352,400600
2019-07-17,11.810000,11.810000,10.910000,11.090000,10.875079,615900
2019-07-18,11.020000,11.320000,11.020000,11.210000,10.992754,336700
2019-07-19,11.250000,11.430000,11.130000,11.130000,10.914304,336100
2019-07-22,11.060000,11.180000,10.730000,10.910000,10.698567,307200
2019-07-23,10.920000,11.135000,10.870000,11.040000,10.826049,285600
2019-07-24,10.940000,11.280000,10.940000,11.200000,10.982946,310400
2019-07-25,11.190000,11.220000,10.940000,10.990000,10.777017,277800
2019-07-26,10.990000,11.240000,10.900000,11.150000,10.933916,205800
2019-07-29,11.100000,11.160000,10.860000,10.900000,10.688762,266400
2019-07-30,10.780000,10.930000,10.740000,10.920000,10.708374,185700
2019-07-31,10.920000,11.000000,10.670000,10.700000,10.492638,359900
2019-08-01,10.640000,10.810000,9.940000,9.990000,9.796397,939500
2019-08-02,9.810000,9.920000,9.510000,9.740000,9.551241,591300
2019-08-05,9.530000,9.720000,9.210000,9.390000,9.208025,519500
2019-08-06,9.380000,9.490000,9.045000,9.200000,9.021707,639000
2019-08-07,9.070000,9.070000,8.760000,8.910000,8.737327,504700
2019-08-08,8.980000,9.210000,8.940000,9.000000,8.825583,311300
2019-08-09,9.080000,9.090000,8.810000,8.820000,8.649071,512000
2019-08-12,8.720000,8.860000,8.670000,8.830000,8.658876,348500
2019-08-13,8.750000,9.080000,8.740000,8.920000,8.747133,448800
2019-08-14,8.700000,8.735000,8.520000,8.530000,8.364692,580600
2019-08-15,8.550000,8.590000,8.400000,8.430000,8.266630,301300
2019-08-16,8.450000,8.690000,8.450000,8.590000,8.423529,550100
2019-08-19,8.710000,8.840000,8.630000,8.720000,8.551009,489900
2019-08-20,8.640000,8.780000,8.570000,8.710000,8.541203,389000
2019-08-21,8.780000,9.370000,8.770000,9.290000,9.109962,417000
2019-08-22,9.330000,9.470000,9.270000,9.290000,9.109962,405600
2019-08-23,9.150000,9.360000,8.860000,8.910000,8.737327,317300
2019-08-26,8.990000,9.140000,8.910000,8.950000,8.776551,434800
2019-08-27,9.040000,9.090000,8.680000,8.760000,8.590234,466500
2019-08-28,8.740000,9.045000,8.620000,8.850000,8.678490,380200
2019-08-29,8.970000,9.150000,8.940000,9.060000,8.884420,570700
2019-08-30,9.130000,9.225000,9.000000,9.090000,8.913838,610300
2019-09-03,9.030000,9.165000,8.860000,9.060000,8.884420,648200
2019-09-04,9.170000,9.260000,9.050000,9.060000,8.884420,418200
2019-09-05,9.230000,9.650000,9.170000,9.470000,9.286474,472400
2019-09-06,9.500000,9.610000,9.330000,9.350000,9.168800,4058600
2019-09-09,9.480000,10.480000,9.425000,10.150000,9.953296,1051900
2019-09-10,10.180000,10.520000,10.070000,10.340000,10.139614,618800
2019-09-11,10.400000,10.420000,10.000000,10.230000,10.031746,801600
2019-09-12,10.050000,10.430000,9.990000,10.370000,10.269418,690400
2019-09-13,10.470000,10.740000,10.400000,10.530000,10.427866,572200
2019-09-16,10.660000,10.770000,10.470000,10.540000,10.437769,764500
2019-09-17,10.420000,10.550000,10.280000,10.550000,10.447672,660000
2019-09-18,10.470000,10.680000,10.410000,10.540000,10.437769,935400
2019-09-19,10.500000,10.830000,10.490000,10.560000,10.457576,1309600
2019-09-20,10.550000,10.780000,10.240000,10.240000,10.140678,4769600
2019-09-23,10.140000,10.400000,10.010000,10.360000,10.259515,1060900
2019-09-24,10.400000,10.475000,10.245000,10.280000,10.180290,1134500
2019-09-25,10.220000,10.440000,10.090000,10.160000,10.061455,477200
2019-09-26,10.050000,10.115000,9.960000,9.980000,9.883200,372600
2019-09-27,9.970000,10.150000,9.900000,10.000000,9.903007,492600
2019-09-30,9.980000,10.000000,9.825000,9.910000,9.813879,483400
2019-10-01,10.000000,10.120000,9.345000,9.490000,9.397953,701800
2019-10-02,9.350000,9.450000,9.240000,9.340000,9.249409,721700
2019-10-03,9.300000,9.490000,9.170000,9.350000,9.259312,1079100
2019-10-04,9.270000,9.520000,9.250000,9.510000,9.417760,508500
2019-10-07,9.390000,9.540000,9.280000,9.430000,9.338535,551100
2019-10-08,9.270000,9.310000,9.050000,9.070000,8.982027,703800
2019-10-09,9.160000,9.230000,9.055000,9.080000,8.991930,732500
2019-10-10,9.130000,9.350000,9.090000,9.270000,9.180087,1198200
2019-10-11,9.500000,9.620000,9.370000,9.380000,9.289021,672100
2019-10-14,9.280000,9.390000,9.220000,9.270000,9.180087,513100
2019-10-15,9.330000,9.630000,9.270000,9.450000,9.358341,851800
2019-10-16,9.430000,9.550000,9.420000,9.480000,9.388050,450900
2019-10-17,9.550000,9.600000,9.460000,9.480000,9.388050,174100
2019-10-18,9.410000,9.590000,9.410000,9.540000,9.447468,377300
2019-10-21,9.710000,9.840000,9.623000,9.710000,9.615819,523300
2019-10-22,9.690000,9.720000,9.470000,9.490000,9.397953,257800
2019-10-23,9.420000,9.590000,9.390000,9.480000,9.388050,258800
2019-10-24,9.450000,9.530000,9.345000,9.380000,9.289021,554300
2019-10-25,9.320000,9.540000,9.320000,9.450000,9.358341,496600
2019-10-28,9.510000,9.730000,9.510000,9.690000,9.596013,382400
2019-10-29,9.720000,9.840000,9.640000,9.800000,9.704947,471800
2019-10-30,9.770000,10.120000,9.720000,10.020000,9.922813,605500
2019-10-31,9.970000,9.970000,9.680000,9.820000,9.724752,610000
2019-11-01,9.880000,10.170000,9.880000,10.050000,9.952521,618900
2019-11-04,10.160000,10.540000,10.160000,10.530000,10.427866,853700
2019-11-05,10.390000,10.425000,9.630000,10.030000,9.932715,905700
2019-11-06,9.970000,10.160000,9.880000,10.010000,9.912910,533200
2019-11-07,10.160000,10.305000,10.055000,10.100000,10.002037,318600
2019-11-08,10.060000,10.190000,10.030000,10.160000,10.061455,349900
2019-11-11,10.160000,10.160000,9.950000,10.000000,9.903007,144700
2019-11-12,9.970000,10.040000,9.955000,10.000000,9.903007,278100
2019-11-13,9.830000,9.875000,9.450000,9.470000,9.378147,415100
2019-11-14,9.370000,9.550000,9.363000,9.470000,9.378147,536900
2019-11-15,9.520000,9.550000,9.390000,9.480000,9.388050,825700
2019-11-18,9.580000,9.700000,9.430000,9.610000,9.516788,579400
2019-11-19,9.630000,9.710000,9.440000,9.620000,9.526692,253100
2019-11-20,9.520000,9.590000,9.350000,9.490000,9.397953,399000
2019-11-21,9.510000,9.530000,9.340000,9.450000,9.358341,426900
2019-11-22,9.480000,9.635000,9.475000,9.610000,9.516788,270300
2019-11-25,9.670000,9.740000,9.590000,9.710000,9.615819,298100
2019-11-26,9.660000,9.740000,9.440000,9.470000,9.378147,423700
2019-11-27,9.520000,9.610000,9.350000,9.400000,9.308825,421500
2019-11-29,9.440000,9.670000,9.410000,9.630000,9.536595,655100
2019-12-02,9.710000,9.830000,9.645000,9.730000,9.635625,1153500
2019-12-03,9.620000,9.670000,9.410000,9.420000,9.328632,674700
2019-12-04,9.500000,9.580000,9.460000,9.550000,9.457372,272200
2019-12-05,9.640000,9.750000,9.550000,9.560000,9.467275,233300
2019-12-06,9.740000,9.960000,9.700000,9.910000,9.813879,363300
2019-12-09,9.830000,10.190000,9.830000,10.120000,10.021843,492100
2019-12-10,10.050000,10.370000,10.000000,10.260000,10.160485,552400
2019-12-11,10.270000,10.440000,10.200000,10.310000,10.210000,537100
2019-12-12,10.240000,10.890000,10.240000,10.790000,10.790000,733500
2019-12-13,10.700000,10.790000,10.250000,10.290000,10.290000,320700
2019-12-16,10.280000,10.540000,9.980000,10.020000,10.020000,1362500
2019-12-17,10.040000,10.075000,9.920000,10.020000,10.020000,430100
2019-12-18,10.110000,10.205000,10.050000,10.060000,10.060000,510600
2019-12-19,10.150000,10.170000,10.045000,10.090000,10.090000,520600
2019-12-20,10.160000,10.210000,10.055000,10.200000,10.200000,1393800
2019-12-23,10.230000,10.290000,10.060000,10.100000,10.100000,300700
2019-12-24,10.140000,10.190000,10.080000,10.090000,10.090000,52100
2019-12-26,10.160000,10.200000,10.105000,10.190000,10.190000,126500
2019-12-27,10.250000,10.260000,10.090000,10.110000,10.110000,234000
2019-12-30,10.150000,10.150000,10.050000,10.070000,10.070000,283600
2019-12-31,10.570000,10.660000,10.190000,10.220000,10.220000,752300
2020-01-02,9.800000,10.000000,9.710000,9.860000,9.860000,686000
2020-01-03,9.640000,9.770000,9.530000,9.550000,9.550000,444800
2020-01-06,9.430000,9.590000,9.280000,9.470000,9.470000,337300
2020-01-07,9.450000,9.680000,9.340000,9.580000,9.580000,336600
2020-01-08,9.670000,9.860000,9.640000,9.780000,9.780000,406300
2020-01-09,9.860000,9.910000,9.750000,9.890000,9.890000,244400
2020-01-10,9.890000,10.040000,9.830000,10.040000,10.040000,343100
2020-01-13,10.030000,10.180000,9.990000,10.180000,10.180000,343700
2020-01-14,10.090000,10.160000,9.990000,10.060000,10.060000,278100
2020-01-15,9.950000,10.110000,9.950000,10.070000,10.070000,299600
2020-01-16,10.160000,10.250000,10.120000,10.220000,10.220000,323400
2020-01-17,10.300000,10.360000,10.140000,10.170000,10.170000,197200
2020-01-21,10.030000,10.100000,9.932000,10.000000,10.000000,383900
2020-01-22,10.030000,10.120000,9.900000,10.000000,10.000000,328500
2020-01-23,9.880000,9.940000,9.690000,9.710000,9.710000,335400
2020-01-24,9.710000,9.735000,9.390000,9.500000,9.500000,291400
2020-01-27,9.300000,9.350000,9.240000,9.270000,9.270000,269100
2020-01-28,9.260000,9.390000,9.220000,9.270000,9.270000,349500
2020-01-29,9.260000,9.540000,9.260000,9.450000,9.450000,383300
2020-01-30,9.350000,9.490000,9.260000,9.430000,9.430000,311200
2020-01-31,9.350000,9.420000,9.160000,9.210000,9.210000,351500
2020-02-03,9.240000,9.520000,9.200000,9.390000,9.390000,435700
2020-02-04,9.550000,10.040000,9.550000,9.940000,9.940000,460300
2020-02-05,10.110000,10.550000,10.090000,10.130000,10.130000,604400
2020-02-06,10.310000,10.450000,10.090000,10.310000,10.310000,347600
2020-02-07,10.340000,10.460000,9.880000,9.950000,9.950000,273400
2020-02-10,9.850000,10.150000,9.850000,10.080000,10.080000,392600
2020-02-11,10.160000,10.460000,10.080000,10.360000,10.360000,231400
2020-02-12,10.410000,10.560000,10.090000,10.220000,10.220000,409000
2020-02-13,10.180000,10.430000,10.020000,10.300000,10.300000,270900