Date,Open,High,Low,Close,Adj Close,Volume
2017-06-01,25.590000,25.590000,25.590000,25.590000,25.590000,0
2017-06-02,26.809999,27.865000,26.690001,27.049999,27.049999,5203000
2017-06-05,27.000000,27.990000,26.840000,27.889999,27.889999,2241500
2017-06-06,27.889999,29.469999,27.520000,29.139999,29.139999,3271400
2017-06-07,29.139999,29.325001,27.080000,27.150000,27.150000,4820300
2017-06-08,26.870001,27.200001,25.350000,25.809999,25.809999,6762200
2017-06-09,25.740000,26.200001,25.370001,25.809999,25.809999,3119100
2017-06-12,25.580000,26.450001,25.440001,25.940001,25.940001,2198600
2017-06-13,25.750000,26.219999,25.530001,25.870001,25.870001,1954500
2017-06-14,25.799999,26.020000,25.510000,25.590000,25.590000,1361300
2017-06-15,25.440001,25.610001,25.180000,25.340000,25.340000,1328400
2017-06-16,25.340000,26.200001,25.290001,26.160000,26.160000,2498300
2017-06-19,26.370001,27.290001,26.330000,27.000000,27.000000,2568000
2017-06-20,26.750000,27.240000,26.740000,26.900000,26.900000,1221200
2017-06-21,26.840000,27.190001,26.790001,27.049999,27.049999,1481000
2017-06-22,27.200001,27.700001,27.120001,27.580000,27.580000,1386700
2017-06-23,27.680000,28.309999,27.680000,28.200001,28.200001,8111100
2017-06-26,28.219999,28.350000,27.955000,28.209999,28.209999,1228600
2017-06-27,28.200001,28.240000,27.270000,27.549999,27.549999,1844000
2017-06-28,27.639999,27.850000,27.469999,27.559999,27.559999,1445500
2017-06-29,27.600000,27.600000,26.709999,26.870001,26.870001,958800
2017-06-30,26.860001,26.924999,26.450001,26.629999,26.629999,1143200
2017-07-03,26.629999,27.170000,26.549999,27.080000,27.080000,336900
2017-07-05,26.959999,27.209999,26.860001,27.040001,27.040001,1046900
2017-07-06,26.820000,26.820000,26.280001,26.379999,26.379999,699300
2017-07-07,26.500000,26.500000,25.780001,25.830000,25.830000,1514300
2017-07-10,25.620001,26.120001,25.504999,25.950001,25.950001,1081300
2017-07-11,26.010000,26.030001,25.165001,25.250000,25.250000,1172300
2017-07-12,25.440001,25.879999,24.844999,25.410000,25.410000,1671400
2017-07-13,25.320000,25.379999,24.980000,25.049999,25.049999,2319900
2017-07-14,25.100000,25.350000,24.010000,24.129999,24.129999,2079300
2017-07-17,24.160000,24.770000,24.000000,24.330000,24.330000,1124400
2017-07-18,24.290001,24.580000,23.934999,23.959999,23.959999,1116100
2017-07-19,24.059999,24.059999,23.209999,23.250000,23.250000,1882700
2017-07-20,23.430000,23.510000,23.100000,23.120001,23.120001,3528300
2017-07-21,23.250000,24.150000,22.950001,24.020000,24.020000,2545300
2017-07-24,24.170000,24.170000,23.420000,23.760000,23.760000,1252600
2017-07-25,23.780001,24.315001,23.570000,24.139999,24.139999,2062400
2017-07-26,24.219999,24.940001,24.030001,24.760000,24.760000,1090600
2017-07-27,24.790001,24.840000,23.799999,24.129999,24.129999,1200400
2017-07-28,23.980000,24.490000,23.980000,24.290001,24.290001,720700
2017-07-31,24.320000,24.584999,24.080000,24.299999,24.299999,1071000
2017-08-01,24.420000,24.700001,24.030001,24.559999,24.559999,1126100
2017-08-02,24.430000,24.639999,24.139999,24.219999,24.219999,3248600
2017-08-03,24.200001,24.799999,24.090000,24.709999,24.709999,1606200
2017-08-04,24.660000,24.660000,23.920000,24.629999,24.629999,867600
2017-08-07,24.670000,24.700001,24.410000,24.600000,24.600000,1803500
2017-08-08,24.450001,24.680000,24.100000,24.200001,24.200001,2449700
2017-08-09,24.100000,25.219999,24.080000,24.650000,24.650000,2135500
2017-08-10,24.700001,24.840000,24.340000,24.690001,24.690001,1813200
2017-08-11,24.690001,24.850000,24.430000,24.719999,24.719999,2036000
2017-08-14,24.920000,24.959999,24.530001,24.740000,24.740000,1862800
2017-08-15,25.150000,25.400000,24.650000,25.240000,25.240000,2406400
2017-08-16,25.360001,25.590000,25.240000,25.250000,25.250000,1382500
2017-08-17,25.110001,25.459999,24.730000,24.770000,24.770000,1193400
2017-08-18,24.629999,24.680000,24.299999,24.459999,24.459999,1024800
2017-08-21,24.480000,24.480000,24.070000,24.170000,24.170000,759500
2017-08-22,24.230000,24.400000,24.120001,24.190001,24.190001,904200
2017-08-23,24.190001,24.290001,24.100000,24.190001,24.190001,997300
2017-08-24,24.309999,24.315001,24.090000,24.200001,24.200001,1776900
2017-08-25,24.350000,25.360001,24.250000,25.340000,25.340000,1158800
2017-08-28,25.280001,26.299999,25.280001,26.190001,26.190001,1895900
2017-08-29,26.049999,26.510000,25.690001,26.270000,26.270000,1554500
2017-08-30,26.200001,26.260000,25.440001,25.920000,25.920000,1424400
2017-08-31,25.910000,26.170000,25.680000,25.860001,25.860001,907300
2017-09-01,25.900000,26.719999,25.860001,26.309999,26.309999,646500
2017-09-05,26.309999,26.650000,26.309999,26.590000,26.590000,1062600
2017-09-06,26.590000,27.400000,26.590000,27.200001,27.200001,1522800
2017-09-07,27.129999,27.629999,26.920000,27.420000,27.420000,790700
2017-09-08,27.379999,27.400000,26.770000,26.850000,26.850000,927500
2017-09-11,27.010000,27.240000,26.820000,27.000000,27.000000,572300
2017-09-12,27.080000,27.180000,26.750000,26.799999,26.799999,824800
2017-09-13,26.799999,27.180000,26.770000,27.020000,27.020000,888900
2017-09-14,26.910000,27.070000,26.570000,26.700001,26.700001,656300
2017-09-15,26.549999,26.730000,26.110001,26.129999,26.129999,1154500
2017-09-18,26.180000,26.389999,25.920000,25.980000,25.980000,635000
2017-09-19,25.980000,26.459999,25.790001,26.190001,26.190001,565900
2017-09-20,26.139999,26.250000,25.677000,25.870001,25.870001,1053000
2017-09-21,25.770000,25.809999,25.290001,25.549999,25.549999,1719900
2017-09-22,25.860001,27.430000,25.780001,26.440001,26.440001,2532300
2017-09-25,26.360001,26.510000,25.809999,25.990000,25.990000,690200
2017-09-26,26.000000,26.790001,25.879999,26.660000,26.660000,1695500
2017-09-27,26.709999,26.799999,25.990000,26.750000,26.750000,1153600
2017-09-28,26.680000,26.719999,26.330000,26.600000,26.600000,997400
2017-09-29,26.670000,27.299999,26.490000,26.610001,26.610001,1352800
2017-10-02,26.629999,26.920000,26.580000,26.790001,26.790001,1315800
2017-10-03,26.700001,27.590000,26.660000,27.440001,27.440001,1892200
2017-10-04,27.420000,28.245001,27.400000,28.040001,28.040001,1545500
2017-10-05,28.170000,28.740000,28.007999,28.650000,28.650000,1364100
2017-10-06,28.530001,28.879999,28.160000,28.709999,28.709999,1534800
2017-10-09,28.680000,28.760000,27.770000,27.830000,27.830000,959200
2017-10-10,27.930000,28.480000,27.450001,27.520000,27.520000,968800
2017-10-11,27.510000,27.860001,27.430000,27.740000,27.740000,481000
2017-10-12,27.879999,28.219999,27.350000,27.420000,27.420000,787300
2017-10-13,27.549999,27.780001,27.230000,27.230000,27.230000,840600
2017-10-16,27.240000,27.514999,26.840000,27.090000,27.090000,689300
2017-10-17,26.840000,26.980000,26.110001,26.590000,26.590000,1155500
2017-10-18,26.680000,27.040001,26.110001,26.200001,26.200001,1188700
2017-10-19,26.070000,26.299999,25.690001,25.709999,25.709999,1072100
2017-10-20,26.670000,26.799999,25.750000,25.830000,25.830000,767200
2017-10-23,25.780001,25.834999,24.969999,25.030001,25.030001,1126000
2017-10-24,25.020000,25.150000,24.570000,24.600000,24.600000,1128500
2017-10-25,24.559999,25.129999,24.240000,24.500000,24.500000,2335400
2017-10-26,24.299999,25.049999,24.299999,24.549999,24.549999,848500
2017-10-27,24.480000,24.655001,24.030001,24.049999,24.049999,880800
2017-10-30,24.000000,24.190001,23.850000,23.920000,23.920000,866300
2017-10-31,23.850000,24.065001,23.469999,23.820000,23.820000,1645000
2017-11-01,23.920000,24.270000,23.719999,23.790001,23.790001,907600
2017-11-02,23.770000,24.540001,23.610001,24.370001,24.370001,1252000
2017-11-03,24.490000,24.559999,23.959999,24.219999,24.219999,797100
2017-11-06,24.260000,24.709999,24.180000,24.700001,24.700001,628200
2017-11-07,24.450001,24.495001,22.980000,22.990000,22.990000,4814200
2017-11-08,21.000000,22.820000,20.940001,22.000000,22.000000,6649300
2017-11-09,21.950001,23.530001,21.860001,22.469999,22.469999,2399000
2017-11-10,22.389999,22.850000,22.250999,22.799999,22.799999,490300
2017-11-13,22.660000,22.940001,22.170000,22.740000,22.740000,914000
2017-11-14,22.690001,23.219999,22.559999,23.200001,23.200001,1982800
2017-11-15,23.240000,23.690001,22.820000,23.290001,23.290001,1408600
2017-11-16,23.290001,24.139999,23.230000,23.850000,23.850000,1331200
2017-11-17,23.750000,24.180000,23.680000,24.000000,24.000000,778100
2017-11-20,23.940001,24.330000,23.709999,24.299999,24.299999,854000
2017-11-21,24.330000,24.330000,23.959999,24.070000,24.070000,1632700
2017-11-22,24.080000,24.520000,23.920000,24.350000,24.350000,954800
2017-11-24,24.350000,24.350000,23.830000,24.110001,24.110001,468100
2017-11-27,24.150000,24.830000,23.950001,24.340000,24.340000,1090900
2017-11-28,24.299999,24.320000,23.725000,24.070000,24.070000,2178700
2017-11-29,24.070000,24.969999,23.850000,24.860001,24.860001,2857800
2017-11-30,24.889999,24.889999,23.840000,24.240000,24.240000,1353100
2017-12-01,24.110001,24.136999,23.440001,23.809999,23.809999,1279200
2017-12-04,23.920000,24.799999,23.799999,24.559999,24.559999,2512200
2017-12-05,24.549999,25.620001,24.440001,24.980000,24.980000,2231400
2017-12-06,24.900000,26.230000,24.900000,26.160000,26.160000,2542200
2017-12-07,26.129999,27.260000,25.709999,26.760000,26.760000,4271500
2017-12-08,26.770000,27.000000,26.160000,26.760000,26.760000,1247000
2017-12-11,26.790001,26.990000,26.490000,26.820000,26.820000,2089400
2017-12-12,26.740000,27.190001,26.580000,27.059999,27.059999,2939300
2017-12-13,26.980000,27.410000,26.959999,27.309999,27.309999,1911200
2017-12-14,27.309999,27.559999,27.120001,27.410000,27.410000,1239600
2017-12-15,27.430000,27.639999,27.200001,27.260000,27.260000,2748900
2017-12-18,27.400000,28.230000,27.299999,27.889999,27.889999,2079000
2017-12-19,29.879999,30.299999,28.670000,29.230000,29.230000,5115200
2017-12-20,29.320000,30.030001,29.280001,29.750000,29.750000,1767800
2017-12-21,29.709999,30.120001,29.620001,29.980000,29.980000,1620900
2017-12-22,30.000000,30.020000,29.500000,29.559999,29.559999,1003500
2017-12-26,29.500000,30.110001,29.370001,29.540001,29.540001,1270700
2017-12-27,29.520000,29.520000,28.879999,29.150000,29.150000,1045800
2017-12-28,29.160000,29.190001,28.730000,28.820000,28.820000,576400
2017-12-29,28.850000,29.049999,28.700001,28.840000,28.840000,685700
2018-01-02,28.969999,29.120001,28.700001,28.990000,28.990000,927000
2018-01-03,29.219999,29.430000,29.080000,29.200001,29.200001,1013700
2018-01-04,29.260000,30.049999,29.200001,29.980000,29.980000,850100
2018-01-05,30.250000,31.200001,30.120001,31.180000,31.180000,1188800
2018-01-08,31.150000,32.020000,30.740000,31.969999,31.969999,2070900
2018-01-09,31.959999,32.279999,31.230000,31.240000,31.240000,3381600
2018-01-10,31.030001,31.580000,30.650000,31.190001,31.190001,1013800
2018-01-11,31.219999,31.510000,30.940001,31.240000,31.240000,1386200
2018-01-12,31.080000,31.080000,28.879999,30.570000,30.570000,3325200
2018-01-16,30.590000,31.030001,30.450001,30.959999,30.959999,1102800
2018-01-17,31.020000,31.469999,30.469999,30.780001,30.780001,618300
2018-01-18,30.860001,30.920000,30.600000,30.680000,30.680000,503400
2018-01-19,30.639999,30.980000,30.299999,30.459999,30.459999,849100
2018-01-22,30.379999,30.525000,30.160000,30.160000,30.160000,1821300
2018-01-23,30.180000,30.924999,30.180000,30.379999,30.379999,2461900
2018-01-24,30.420000,30.420000,29.190001,29.639999,29.639999,3287400
2018-01-25,29.900000,30.000000,29.301001,29.740000,29.740000,1411400
2018-01-26,29.730000,29.900000,29.350000,29.730000,29.730000,722900
2018-01-29,29.700001,30.030001,29.600000,29.660000,29.660000,544100
2018-01-30,29.469999,30.000000,29.469999,29.680000,29.680000,2334600
2018-01-31,29.690001,29.860001,29.620001,29.690001,29.690001,1294400
2018-02-01,29.650000,29.770000,29.180000,29.230000,29.230000,1321400
2018-02-02,29.040001,29.059999,27.990000,28.059999,28.059999,1277300
2018-02-05,27.879999,28.209999,26.900000,26.900000,26.900000,912500
2018-02-06,26.330000,28.030001,26.240000,27.840000,27.840000,1704800
2018-02-07,27.690001,28.020000,27.570000,27.620001,27.620001,665800
2018-02-08,27.730000,27.900000,27.430000,27.459999,27.459999,1435300
2018-02-09,27.620001,27.730000,26.330000,27.219999,27.219999,949700
2018-02-12,27.209999,28.340000,27.059999,28.200001,28.200001,1115700
2018-02-13,28.180000,28.570000,27.850000,28.480000,28.480000,761700
2018-02-14,28.410000,28.881001,27.770000,28.500000,28.500000,2782500
2018-02-15,28.790001,29.090000,28.030001,28.940001,28.940001,1491900
2018-02-16,28.750000,29.469999,28.080000,29.270000,29.270000,2440200
2018-02-20,29.160000,30.020000,29.000000,29.389999,29.389999,1131700
2018-02-21,29.420000,29.920000,29.320000,29.410000,29.410000,635200
2018-02-22,29.450001,29.680000,28.959999,29.190001,29.190001,2781900
2018-02-23,29.389999,29.500000,29.055000,29.270000,29.270000,706200
2018-02-26,29.320000,29.400000,28.650000,29.070000,29.070000,1031700
2018-02-27,29.080000,29.080000,27.740000,27.809999,27.809999,869400
2018-02-28,27.889999,28.129999,27.370001,27.389999,27.389999,809600
2018-03-01,27.320000,27.600000,26.580000,26.889999,26.889999,1231000
2018-03-02,26.629999,28.150000,26.459999,27.980000,27.980000,1303000
2018-03-05,27.870001,28.500000,27.500000,28.290001,28.290001,885700
2018-03-06,29.700001,30.320000,28.660000,29.450001,29.450001,1728000
2018-03-07,29.049999,29.209999,27.850000,28.950001,28.950001,1052000
2018-03-08,29.110001,29.490000,28.940001,29.490000,29.490000,849200
2018-03-09,29.660000,30.030001,29.370001,29.780001,29.780001,2657500
2018-03-12,29.910000,30.000000,29.680000,29.799999,29.799999,1386400
2018-03-13,29.940001,30.180000,29.719999,29.959999,29.959999,1118900
2018-03-14,30.150000,30.150000,29.620001,29.719999,29.719999,971000
2018-03-15,29.820000,29.830000,29.510000,29.719999,29.719999,493200
2018-03-16,29.670000,30.160000,29.670000,29.750000,29.750000,2456000
2018-03-19,29.709999,29.940001,29.450001,29.780001,29.780001,858800
2018-03-20,29.740000,29.895000,29.410000,29.719999,29.719999,651500
2018-03-21,29.760000,29.920000,29.490000,29.730000,29.730000,321700
2018-03-22,30.049999,30.049999,29.629999,29.820000,29.820000,2925200
2018-03-23,29.780001,29.889999,27.500000,28.030001,28.030001,2920800
2018-03-26,28.309999,28.600000,27.780001,28.379999,28.379999,2041900
2018-03-27,28.389999,28.469999,27.870001,28.000000,28.000000,1438600
2018-03-28,27.920000,28.209999,27.500000,27.719999,27.719999,730100
2018-03-29,27.870001,28.440001,27.764999,28.330000,28.330000,719000
2018-04-02,28.290001,28.379999,27.430000,27.520000,27.520000,464300
2018-04-03,27.760000,28.049999,27.500000,27.950001,27.950001,547800
2018-04-04,27.930000,28.230000,27.719999,28.190001,28.190001,935000
2018-04-05,28.469999,28.570000,28.030001,28.540001,28.540001,510700
2018-04-06,28.309999,28.770000,28.309999,28.629999,28.629999,707300
2018-04-09,28.840000,29.195000,28.530001,28.750000,28.750000,1131200
2018-04-10,29.150000,29.360001,28.808001,29.180000,29.180000,520700
2018-04-11,29.049999,29.340000,28.809999,28.840000,28.840000,704600
2018-04-12,28.900000,29.059999,28.620001,28.650000,28.650000,712500
2018-04-13,28.709999,28.760000,27.950001,27.969999,27.969999,801500
2018-04-16,28.110001,28.870001,28.110001,28.309999,28.309999,1031800
2018-04-17,28.500000,28.940001,28.459999,28.820000,28.820000,923200
2018-04-18,28.820000,29.320000,28.520000,28.930000,28.930000,714600
2018-04-19,28.940001,29.000000,28.090000,28.160000,28.160000,749800
2018-04-20,28.090000,28.235001,27.440001,27.500000,27.500000,1072100
2018-04-23,27.570000,28.100000,27.570000,28.010000,28.010000,486600
2018-04-24,28.059999,28.180000,27.719999,28.049999,28.049999,498600
2018-04-25,27.990000,28.205000,27.920000,28.030001,28.030001,358700
2018-04-26,28.030001,28.580000,27.980000,28.240000,28.240000,415800
2018-04-27,28.270000,28.610001,28.240000,28.549999,28.549999,318900
2018-04-30,28.530001,28.910000,28.320000,28.480000,28.480000,600000
2018-05-01,28.330000,28.605000,28.049999,28.270000,28.270000,399300
2018-05-02,28.180000,28.420000,28.049999,28.139999,28.139999,489900
2018-05-03,28.120001,28.280001,27.160000,27.389999,27.389999,1127300
2018-05-04,27.250000,27.889999,27.250000,27.590000,27.590000,1079000
2018-05-07,27.760000,27.950001,27.540001,27.879999,27.879999,1057000
2018-05-08,27.910000,27.940001,27.469999,27.740000,27.740000,1004000
2018-05-09,27.030001,27.030001,24.959999,25.129999,25.129999,2675800
2018-05-10,25.129999,26.490000,25.090000,26.209999,26.209999,1636200
2018-05-11,26.250000,27.330000,25.969999,25.969999,25.969999,1303800
2018-05-14,26.090000,26.420000,25.610001,25.809999,25.809999,967900
2018-05-15,25.760000,25.820000,24.750000,25.059999,25.059999,1573600
2018-05-16,25.129999,26.030001,24.129999,24.170000,24.170000,2485900
2018-05-17,24.320000,24.816000,23.770000,24.010000,24.010000,2354400
2018-05-18,23.950001,25.020000,23.950001,24.420000,24.420000,1320600
2018-05-21,24.610001,24.770000,24.190001,24.490000,24.490000,1016400
2018-05-22,24.549999,24.879999,24.100000,24.290001,24.290001,1505100
2018-05-23,24.260000,24.799999,24.260000,24.680000,24.680000,1327200
2018-05-24,24.719999,25.080000,24.665001,24.709999,24.709999,619600
2018-05-25,24.670000,24.670000,24.059999,24.080000,24.080000,487400
2018-05-29,23.940001,24.520000,23.889999,24.440001,24.440001,562500
2018-05-30,24.629999,27.040001,24.430000,26.590000,26.590000,2708000
2018-05-31,26.650000,27.700001,25.200001,25.680000,25.680000,4296300
2018-06-01,25.760000,26.600000,25.410000,26.309999,26.309999,1289700
2018-06-04,26.400000,26.730000,26.110001,26.290001,26.290001,548000
2018-06-05,26.250000,26.559999,26.180000,26.500000,26.500000,612800
2018-06-06,26.480000,26.719999,26.250000,26.700001,26.700001,786100
2018-06-07,26.780001,27.650000,26.270000,27.549999,27.549999,2000100
2018-06-08,27.629999,28.030001,27.020000,27.600000,27.600000,1665400
2018-06-11,27.580000,28.594999,27.459999,28.450001,28.450001,1083100
2018-06-12,28.500000,29.690001,28.450001,29.610001,29.610001,1647500
2018-06-13,29.680000,30.219999,29.549999,29.770000,29.770000,1194700
2018-06-14,29.860001,30.129000,29.320000,29.660000,29.660000,928500
2018-06-15,29.469999,29.889999,28.980000,29.620001,29.620001,1614100
2018-06-18,29.379999,30.030001,29.230000,29.910000,29.910000,741500
2018-06-19,29.740000,30.059999,29.500000,29.990000,29.990000,864300
2018-06-20,30.100000,30.459999,29.650000,29.940001,29.940001,719000
2018-06-21,30.000000,30.011000,28.840000,28.870001,28.870001,809600
2018-06-22,29.030001,29.530001,28.750000,28.760000,28.760000,959200
2018-06-25,28.530001,28.889999,28.075001,28.250000,28.250000,1185200
2018-06-26,28.370001,28.549999,27.709999,28.450001,28.450001,1260300
2018-06-27,28.469999,29.049999,28.430000,28.570000,28.570000,1198200
2018-06-28,28.450001,28.799999,27.650000,28.350000,28.350000,1300900
2018-06-29,28.480000,29.049999,28.040001,28.389999,28.389999,567800
2018-07-02,28.209999,29.309999,27.799999,29.250000,29.250000,568000
2018-07-03,29.270000,29.639999,29.150000,29.469999,29.469999,369600
2018-07-05,29.629999,29.770000,29.180000,29.650000,29.650000,767400
2018-07-06,29.540001,30.000000,29.400000,29.900000,29.900000,796800
2018-07-09,30.000000,30.450001,29.700001,30.420000,30.420000,892300
2018-07-10,30.500000,30.510000,29.350000,29.620001,29.620001,880600
2018-07-11,29.500000,32.240002,29.000999,32.000000,32.000000,3752400
2018-07-12,32.279999,32.570000,31.510000,32.470001,32.470001,972700
2018-07-13,32.590000,32.939999,32.150002,32.209999,32.209999,933200
2018-07-16,32.279999,32.279999,31.360001,31.400000,31.400000,427800
2018-07-17,31.330000,31.770000,31.320000,31.360001,31.360001,426300
2018-07-18,31.340000,31.340000,30.490000,30.639999,30.639999,697900
2018-07-19,30.639999,31.209999,30.420000,30.879999,30.879999,596900
2018-07-20,30.990000,30.990000,30.465000,30.480000,30.480000,1002700
2018-07-23,30.410000,30.410000,29.510000,29.530001,29.530001,1322200
2018-07-24,29.709999,29.830000,28.340000,28.559999,28.559999,1002000
2018-07-25,28.700001,28.969999,28.469999,28.959999,28.959999,917500
2018-07-26,28.910000,29.090000,28.500000,28.799999,28.799999,1287500
2018-07-27,28.809999,29.010000,28.080000,28.330000,28.330000,485800
2018-07-30,28.260000,28.709999,28.139999,28.330000,28.330000,586800
2018-07-31,28.240000,28.695000,28.190001,28.370001,28.370001,733300
2018-08-01,28.250000,28.549999,27.809999,28.170000,28.170000,418400
2018-08-02,27.950001,28.260000,27.639999,27.799999,27.799999,740500
2018-08-03,27.790001,28.459999,27.790001,28.129999,28.129999,505900
2018-08-06,28.080000,28.580000,27.879999,28.430000,28.430000,405300
2018-08-07,28.440001,28.740000,27.940001,28.020000,28.020000,893800
2018-08-08,25.030001,29.540001,25.010000,27.290001,27.290001,3982200
2018-08-09,27.270000,27.959999,26.500000,27.920000,27.920000,1021700
2018-08-10,27.700001,28.230000,27.580000,28.000000,28.000000,1075100
2018-08-13,27.980000,28.260000,27.190001,27.240000,27.240000,632400
2018-08-14,27.260000,27.700001,27.250000,27.400000,27.400000,546200
2018-08-15,27.290001,27.325001,26.370001,26.650000,26.650000,1157000
2018-08-16,26.730000,27.219999,26.584999,26.940001,26.940001,727300
2018-08-17,26.910000,27.270000,26.830000,27.160000,27.160000,340200
2018-08-20,27.219999,27.299999,26.870001,27.139999,27.139999,360200
2018-08-21,27.120001,27.320000,26.809999,26.809999,26.809999,355200
2018-08-22,26.660000,26.920000,26.510000,26.719999,26.719999,435200
2018-08-23,26.680000,26.799999,26.440001,26.510000,26.510000,354500
2018-08-24,26.559999,26.959999,26.430000,26.590000,26.590000,580700
2018-08-27,26.760000,27.170000,26.690001,27.070000,27.070000,771300
2018-08-28,27.180000,27.180000,26.410000,26.709999,26.709999,628200
2018-08-29,26.760000,26.840000,26.349001,26.469999,26.469999,380300
2018-08-30,26.420000,26.830000,26.225000,26.719999,26.719999,413000
2018-08-31,26.620001,26.910000,26.549999,26.910000,26.910000,604800
2018-09-04,26.870001,27.430000,26.500000,27.010000,27.010000,830300
2018-09-05,26.850000,27.250000,25.950001,26.090000,26.090000,1051600
2018-09-06,26.059999,26.070000,25.680000,25.950001,25.950001,582400
2018-09-07,25.780001,26.270000,25.670000,26.150000,26.150000,566200
2018-09-10,26.180000,26.840000,26.150000,26.799999,26.799999,879000
2018-09-11,26.730000,26.830000,25.980000,26.340000,26.340000,537800
2018-09-12,26.250000,26.655001,26.010000,26.620001,26.620001,766300
2018-09-13,26.700001,26.879999,26.240000,26.570000,26.570000,663900
2018-09-14,26.559999,26.559999,25.959999,26.010000,26.010000,520100
2018-09-17,26.000000,26.252001,25.690001,25.809999,25.809999,721000
2018-09-18,25.889999,26.340000,25.680000,25.930000,25.930000,626200
2018-09-19,25.910000,25.959999,25.299999,25.450001,25.450001,596800
2018-09-20,25.540001,25.690001,25.160000,25.690001,25.690001,624700
2018-09-21,25.900000,26.930000,25.559999,26.459999,26.459999,3070400
2018-09-24,26.260000,26.780001,26.090000,26.750000,26.750000,778900
2018-09-25,26.760000,27.420000,26.330000,27.209999,27.209999,851800
2018-09-26,27.250000,27.809999,27.049999,27.070000,27.070000,725900
2018-09-27,27.100000,27.790001,26.860001,27.590000,27.590000,592800
2018-09-28,27.469999,27.900000,27.360001,27.610001,27.610001,891000
2018-10-01,27.650000,27.750000,26.920000,27.070000,27.070000,814900
2018-10-02,27.049999,27.330000,26.530001,26.900000,26.900000,788400
2018-10-03,27.000000,27.570000,26.790001,27.379999,27.379999,541100
2018-10-04,27.240000,27.250000,26.870001,26.990000,26.990000,534700
2018-10-05,27.200001,27.500000,26.780001,27.360001,27.360001,596100
2018-10-08,27.200001,27.400000,26.809999,26.940001,26.940001,921400
2018-10-09,26.799999,26.940001,25.650000,25.799999,25.799999,834200
2018-10-10,25.639999,25.795000,24.690001,25.230000,25.230000,1103300
2018-10-11,25.090000,25.400000,24.860001,24.900000,24.900000,596100
2018-10-12,25.400000,25.620001,25.020000,25.500000,25.500000,694100
2018-10-15,25.459999,25.959999,25.315001,25.700001,25.700001,461700
2018-10-16,25.889999,26.245001,25.610001,26.139999,26.139999,703800
2018-10-17,26.010000,26.180000,25.559999,25.799999,25.799999,449900
2018-10-18,25.780001,25.879999,25.080000,25.150000,25.150000,405400
2018-10-19,25.170000,25.790001,24.219999,24.469999,24.469999,1116400
2018-10-22,24.650000,25.389999,24.469999,25.020000,25.020000,989300
2018-10-23,24.650000,26.129999,24.490000,26.040001,26.040001,683900
2018-10-24,25.980000,26.879999,25.980000,26.120001,26.120001,1206700
2018-10-25,26.389999,26.799999,25.910000,26.379999,26.379999,1421100
2018-10-26,26.120001,26.580000,25.112000,25.500000,25.500000,673700
2018-10-29,25.809999,26.090000,24.879999,25.010000,25.010000,1091300
2018-10-30,25.010000,25.559999,24.730000,25.469999,25.469999,709700
2018-10-31,25.820000,26.209999,25.480000,26.110001,26.110001,588200
2018-11-01,26.280001,26.760000,26.110001,26.549999,26.549999,560500
2018-11-02,26.559999,26.850000,26.200001,26.360001,26.360001,512900
2018-11-05,26.299999,26.469999,26.000000,26.190001,26.190001,1213500
2018-11-06,26.160000,26.930000,26.059999,26.299999,26.299999,1238200
2018-11-07,26.299999,26.340000,24.860001,25.870001,25.870001,2295500
2018-11-08,25.540001,26.299999,25.465000,25.700001,25.700001,635800
2018-11-09,25.370001,26.100000,25.320000,25.670000,25.670000,560700
2018-11-12,25.690001,26.219999,25.600000,25.629999,25.629999,668500
2018-11-13,25.790001,26.389999,25.639999,25.650000,25.650000,841300
2018-11-14,25.850000,26.200001,25.120001,25.600000,25.600000,783300
2018-11-15,25.490000,25.745001,24.955000,25.459999,25.459999,732400
2018-11-16,25.250000,26.225000,25.070000,26.139999,26.139999,770000
2018-11-19,26.049999,26.320000,25.040001,25.100000,25.100000,404800
2018-11-20,24.650000,25.610001,24.650000,25.209999,25.209999,753600
2018-11-21,25.370001,25.610001,25.160000,25.330000,25.330000,455400
2018-11-23,25.190001,25.459999,25.170000,25.309999,25.309999,195900
2018-11-26,25.590000,25.760000,25.350000,25.650000,25.650000,793500
2018-11-27,25.520000,25.730000,24.969999,25.000000,25.000000,576300
2018-11-28,25.090000,25.780001,25.000000,25.690001,25.690001,910200
2018-11-29,25.639999,26.270000,25.559999,26.270000,26.270000,804400
2018-11-30,26.250000,26.400000,25.760000,25.870001,25.870001,1099700
2018-12-03,26.070000,26.070000,25.000000,25.320000,25.320000,711500
2018-12-04,25.350000,25.370001,24.540001,24.590000,24.590000,1031600
2018-12-06,24.270000,25.100000,23.990000,25.080000,25.080000,1397600
2018-12-07,24.969999,25.100000,23.690001,24.270000,24.270000,1323100
2018-12-10,24.309999,24.430000,23.799999,23.930000,23.930000,1033000
2018-12-11,24.280001,24.690001,23.830000,23.850000,23.850000,849500
2018-12-12,24.139999,25.459999,23.950001,25.309999,25.309999,831700
2018-12-13,25.530001,25.535000,23.299999,23.650000,23.650000,992300
2018-12-14,23.410000,24.320000,23.410000,23.629999,23.629999,1099500
2018-12-17,23.490000,23.760000,22.959999,23.150000,23.150000,1589000
2018-12-18,23.250000,23.650000,22.667999,23.180000,23.180000,795100
2018-12-19,23.280001,23.434999,22.340000,22.430000,22.430000,839800
2018-12-20,22.400000,22.459999,21.160000,21.600000,21.600000,1143100
2018-12-21,21.559999,21.610001,20.219999,20.900000,20.900000,1850100
2018-12-24,20.620001,20.790001,20.139999,20.139999,20.139999,569100
2018-12-26,20.340000,21.934999,20.170000,21.850000,21.850000,840100
2018-12-27,21.500000,21.900000,20.940001,21.889999,21.889999,1375400
2018-12-28,21.780001,22.219999,21.280001,21.330000,21.330000,766500
2018-12-31,21.530001,21.700001,21.020000,21.500000,21.500000,478000
2019-01-02,21.080000,22.160000,21.059999,22.040001,22.040001,588300
2019-01-03,21.860001,22.059999,21.370001,21.420000,21.420000,545300
2019-01-04,21.719999,22.459999,21.719999,22.250000,22.250000,389100
2019-01-07,22.170000,22.670000,22.080000,22.330000,22.330000,704100
2019-01-08,22.549999,22.990000,22.320000,22.820000,22.820000,551300
2019-01-09,23.000000,23.309999,22.730000,23.260000,23.260000,532700
2019-01-10,23.090000,23.240000,22.799999,23.020000,23.020000,302400
2019-01-11,23.040001,23.150000,22.805000,23.070000,23.070000,651300
2019-01-14,22.840000,22.900000,22.490000,22.549999,22.549999,519200
2019-01-15,22.860001,23.469999,22.650000,23.400000,23.400000,490200
2019-01-16,23.459999,23.660000,22.850000,23.160000,23.160000,722800
2019-01-17,25.900000,26.030001,24.090000,24.709999,24.709999,2961100
2019-01-18,24.900000,25.530001,24.530001,24.980000,24.980000,970900
2019-01-22,25.360001,25.459999,24.980000,25.180000,25.180000,1149000
2019-01-23,25.299999,25.700001,24.820000,25.230000,25.230000,1023900
2019-01-24,25.200001,25.469999,25.120001,25.340000,25.340000,284500
2019-01-25,25.469999,26.010000,25.400000,25.889999,25.889999,618300
2019-01-28,25.629999,26.469999,25.629999,26.180000,26.180000,782900
2019-01-29,26.209999,26.209999,25.740000,26.020000,26.020000,528500
2019-01-30,27.709999,28.500000,26.830000,26.990000,26.990000,2044300
2019-01-31,26.969999,27.440001,26.725000,27.309999,27.309999,853300
2019-02-01,27.280001,27.670000,27.070000,27.370001,27.370001,1198900
2019-02-04,27.320000,27.889999,27.049999,27.350000,27.350000,934400
2019-02-05,27.270000,27.469999,26.230000,26.820000,26.820000,2479100
2019-02-06,26.809999,27.299999,26.559999,26.580000,26.580000,699200
2019-02-07,26.559999,26.565001,26.160000,26.340000,26.340000,701400
2019-02-08,26.250000,26.469999,25.709999,26.000000,26.000000,843400
2019-02-11,26.150000,26.400000,25.510000,25.860001,25.860001,695400
2019-02-12,26.129999,26.469999,25.940001,26.450001,26.450001,669100
2019-02-13,26.480000,26.709999,25.660000,25.750000,25.750000,810800
2019-02-14,25.730000,26.190001,25.702999,25.760000,25.760000,658200
2019-02-15,25.940001,25.940001,25.100000,25.340000,25.340000,1066100
2019-02-19,25.309999,25.370001,24.700001,24.990000,24.990000,897400
2019-02-20,24.799999,25.320000,24.799999,25.080000,25.080000,799300
2019-02-21,25.010000,25.230000,24.719999,24.850000,24.850000,421900
2019-02-22,25.020000,25.299999,24.780001,25.160000,25.160000,730400
2019-02-25,25.480000,25.480000,24.790001,25.010000,25.010000,707800
2019-02-26,25.010000,25.120001,24.791000,24.830000,24.830000,735300
2019-02-27,24.709999,24.990000,24.641001,24.700001,24.700001,674000
2019-02-28,24.700001,24.719999,22.629999,23.540001,23.540001,3792100
2019-03-01,23.469999,25.020000,23.350000,24.020000,24.020000,2232300
2019-03-04,24.049999,24.049999,23.285000,23.959999,23.959999,1496600
2019-03-05,23.879999,24.010000,22.980000,23.090000,23.090000,2031800
2019-03-06,23.110001,23.450001,23.030001,23.209999,23.209999,1004200
2019-03-07,23.200001,23.440001,22.410000,22.459999,22.459999,900700
2019-03-08,22.400000,23.000000,22.139999,22.750000,22.750000,1106100
2019-03-11,22.860001,23.170000,22.790001,22.920000,22.920000,1192100
2019-03-12,22.910000,23.590000,22.910000,23.150000,23.150000,1400900
2019-03-13,23.170000,23.379999,22.260000,22.340000,22.340000,1084200
2019-03-14,22.340000,22.950001,22.155001,22.870001,22.870001,932900
2019-03-15,23.000000,23.190001,22.590000,22.719999,22.719999,1609100
2019-03-18,22.559999,23.049999,22.520000,22.870001,22.870001,788800
2019-03-19,22.940001,23.209999,22.770000,22.990000,22.990000,526400
2019-03-20,22.889999,23.809999,22.889999,23.230000,23.230000,1230800
2019-03-21,23.059999,24.430000,23.000000,23.299999,23.299999,2590300
2019-03-22,23.250000,23.250000,21.570000,21.799999,21.799999,1732700
2019-03-25,21.770000,22.600000,21.530001,22.030001,22.030001,751600
2019-03-26,22.200001,22.559999,21.885000,22.530001,22.530001,564200
2019-03-27,22.480000,23.180000,22.420000,22.770000,22.770000,1065800
2019-03-28,22.740000,22.959999,22.520000,22.740000,22.740000,445100
2019-03-29,22.910000,23.070000,22.750000,22.799999,22.799999,615100
2019-04-01,23.000000,23.469999,22.950001,23.059999,23.059999,575200
2019-04-02,23.070000,23.190001,22.820000,23.160000,23.160000,1207300
2019-04-03,23.400000,23.605000,22.959999,22.980000,22.980000,577200
2019-04-04,22.990000,23.299999,22.719999,22.870001,22.870001,845600
2019-04-05,22.980000,23.285000,22.600000,23.000000,23.000000,1358600
2019-04-08,22.980000,23.110001,22.730000,22.770000,22.770000,678300
2019-04-09,22.610001,23.070000,22.510000,22.790001,22.790001,593900
2019-04-10,22.799999,23.170000,22.799999,23.000000,23.000000,573100
2019-04-11,23.010000,23.045000,21.620001,21.719999,21.719999,1168100
2019-04-12,21.830000,21.844999,21.465000,21.530001,21.530001,1836800
2019-04-15,21.559999,21.750000,21.480000,21.670000,21.670000,1164200
2019-04-16,21.750000,22.250000,19.740000,20.270000,20.270000,1971600
2019-04-17,20.440001,21.719999,20.370001,21.570000,21.570000,3637500
2019-04-18,21.490000,21.740000,20.570000,20.700001,20.700001,1493200
2019-04-22,20.580000,21.120001,20.500000,20.700001,20.700001,1206300
2019-04-23,20.850000,20.950001,20.420000,20.430000,20.430000,851100
2019-04-24,20.389999,20.990000,20.139999,20.799999,20.799999,1446500
2019-04-25,20.709999,20.990000,20.330000,20.760000,20.760000,1099300
2019-04-26,20.770000,21.009001,20.549999,20.900000,20.900000,798800
2019-04-29,20.910000,21.059999,20.670000,20.910000,20.910000,1121800
2019-04-30,20.889999,20.969999,20.360001,20.809999,20.809999,968900
2019-05-01,20.809999,21.020000,20.370001,20.379999,20.379999,880300
2019-05-02,20.450001,20.780001,20.100000,20.400000,20.400000,1232500
2019-05-03,20.610001,21.490000,20.510000,21.400000,21.400000,1894000
2019-05-06,20.969999,21.379999,19.990000,21.230000,21.230000,1319600
2019-05-07,21.059999,21.309999,20.969999,21.270000,21.270000,682700
2019-05-08,21.290001,21.540001,21.049999,21.180000,21.180000,498900
2019-05-09,20.940001,21.090000,20.770000,20.820000,20.820000,940300
2019-05-10,21.500000,22.260000,21.059999,22.080000,22.080000,2213500
2019-05-13,21.610001,22.350000,21.209999,21.900000,21.900000,1108700
2019-05-14,22.030001,22.820000,21.910000,22.639999,22.639999,923600
2019-05-15,22.610001,23.059999,22.150000,22.750000,22.750000,998200
2019-05-16,22.850000,23.080000,22.510000,23.000000,23.000000,852800
2019-05-17,22.670000,23.030001,22.530001,22.740000,22.740000,1325700
2019-05-20,22.450001,22.480000,21.670000,22.000000,22.000000,907000
2019-05-21,22.139999,22.320000,21.820000,21.889999,21.889999,677900
2019-05-22,21.830000,22.090000,21.670000,21.730000,21.730000,629500
2019-05-23,21.410000,21.580000,21.110001,21.379999,21.379999,475500
2019-05-24,21.549999,21.799999,21.290001,21.700001,21.700001,474800
2019-05-28,21.700001,22.115000,21.219999,21.450001,21.450001,592700
2019-05-29,21.299999,21.480000,20.740000,21.110001,21.110001,610600
2019-05-30,21.129999,21.280001,20.889999,21.059999,21.059999,489200
2019-05-31,20.719999,21.215000,20.500000,21.170000,21.170000,748700
2019-06-03,21.139999,21.299999,19.049999,20.430000,20.430000,2331000
2019-06-04,20.680000,21.160000,20.514999,21.090000,21.090000,1295700
2019-06-05,21.150000,21.150000,20.170000,20.510000,20.510000,681400
2019-06-06,20.400000,20.400000,19.320000,20.040001,20.040001,948700
2019-06-07,20.030001,20.750000,19.980000,20.600000,20.600000,976200
2019-06-10,20.730000,20.850000,20.320000,20.629999,20.629999,441000
2019-06-11,20.809999,21.440001,20.715000,21.250000,21.250000,1212600
2019-06-12,21.180000,21.270000,20.584999,20.840000,20.840000,710600
2019-06-13,20.850000,21.469999,20.750000,21.459999,21.459999,639500
2019-06-14,21.469999,21.549999,20.840000,21.160000,21.160000,587900
2019-06-17,21.180000,21.629999,20.969999,21.420000,21.420000,503900
2019-06-18,21.510000,22.080000,21.450001,21.680000,21.680000,594700
2019-06-19,21.719999,21.750000,21.260000,21.730000,21.730000,544000
2019-06-20,22.100000,22.100000,21.469999,21.680000,21.680000,474800
2019-06-21,21.540001,21.850000,21.389999,21.440001,21.440001,1076100
2019-06-24,21.430000,21.430000,20.875000,20.950001,20.950001,591300
2019-06-25,20.959999,21.040001,19.290001,19.420000,19.420000,1222600
2019-06-26,19.510000,20.040001,19.080000,19.670000,19.670000,761400
2019-06-27,19.770000,19.990000,19.570000,19.830000,19.830000,570000
2019-06-28,19.850000,19.976000,19.540001,19.719999,19.719999,1113000
2019-07-01,20.059999,20.360001,19.809999,19.860001,19.860001,616400
2019-07-02,20.889999,21.410000,20.709999,21.080000,21.080000,2235100
2019-07-03,21.230000,22.250000,20.940001,21.160000,21.160000,953500
2019-07-05,20.959999,21.350000,20.570000,21.299999,21.299999,537400
2019-07-08,21.180000,21.340000,20.900000,21.010000,21.010000,471400
2019-07-09,20.879999,21.070000,20.559999,21.059999,21.059999,657100
2019-07-10,21.170000,21.370001,20.990000,21.190001,21.190001,298300
2019-07-11,21.200001,21.330000,20.900000,21.129999,21.129999,292500
2019-07-12,21.090000,21.730000,21.010000,21.680000,21.680000,426000
2019-07-15,21.680000,21.740000,21.469999,21.490000,21.490000,456900
2019-07-16,21.469999,21.469999,20.770000,20.799999,20.799999,499000
2019-07-17,20.900000,21.090000,20.360001,20.379999,20.379999,884200
2019-07-18,20.350000,20.440001,20.020000,20.150000,20.150000,903500
2019-07-19,20.160000,20.959999,20.000000,20.010000,20.010000,799300
2019-07-22,20.000000,20.620001,19.799999,20.570000,20.570000,821900
2019-07-23,20.650000,20.860001,20.370001,20.590000,20.590000,400900
2019-07-24,20.469999,20.629999,19.940001,20.520000,20.520000,1349500
2019-07-25,20.570000,20.680000,19.790001,20.090000,20.090000,489200
2019-07-26,20.200001,20.510000,19.959999,20.010000,20.010000,350400
2019-07-29,19.980000,20.025000,19.200001,19.320000,19.320000,660200
2019-07-30,19.200001,19.420000,19.010000,19.330000,19.330000,767600
2019-07-31,19.330000,19.379999,18.760000,19.000000,19.000000,1629200
2019-08-01,19.059999,19.209999,18.809999,18.870001,18.870001,1839600
2019-08-02,18.879999,18.879999,17.910000,18.040001,18.040001,2129200
2019-08-05,11.610000,12.310000,10.300000,11.820000,11.820000,15115400
2019-08-06,11.590000,11.610000,9.865000,10.400000,10.400000,7194100
2019-08-07,10.430000,10.467000,9.700000,9.880000,9.880000,5546700
2019-08-08,10.050000,10.055000,9.160000,9.200000,9.200000,7497200
2019-08-09,9.160000,9.290000,8.870000,9.030000,9.030000,7192000
2019-08-12,8.950000,9.275000,8.710000,9.240000,9.240000,2543500
2019-08-13,9.110000,9.700000,9.060000,9.510000,9.510000,2553900
2019-08-14,9.380000,9.460000,9.020000,9.040000,9.040000,3043900
2019-08-15,9.090000,9.275000,8.950000,9.030000,9.030000,1626500
2019-08-16,9.050000,9.190000,8.880000,9.000000,9.000000,1387500
2019-08-19,9.120000,9.220000,8.840000,8.850000,8.850000,1364700
2019-08-20,8.750000,8.940000,8.690000,8.900000,8.900000,1294500
2019-08-21,8.910000,9.120000,8.880000,9.050000,9.050000,1114400
2019-08-22,9.110000,9.140000,8.780000,8.880000,8.880000,1099900
2019-08-23,8.800000,8.920000,8.230000,8.280000,8.280000,1382500
2019-08-26,8.370000,8.650000,8.300000,8.640000,8.640000,1440200
2019-08-27,8.720000,9.060000,8.650000,8.910000,8.910000,1701600
2019-08-28,8.900000,9.010000,8.810000,8.920000,8.920000,1651100
2019-08-29,9.000000,9.340000,8.970000,9.110000,9.110000,1027500
2019-08-30,9.150000,9.165000,8.840000,8.910000,8.910000,1180200
2019-09-03,8.820000,8.930000,8.400000,8.850000,8.850000,1851100
2019-09-04,8.930000,9.120000,8.800000,8.970000,8.970000,935000
2019-09-05,9.100000,9.680000,9.100000,9.510000,9.510000,1019100
2019-09-06,9.530000,9.683000,9.390000,9.520000,9.520000,856000
2019-09-09,9.140000,9.265000,8.700000,8.940000,8.940000,1695500
2019-09-10,8.930000,9.400000,8.760000,9.280000,9.280000,1635600
2019-09-11,9.280000,9.740000,9.040000,9.720000,9.720000,1252300
2019-09-12,10.050000,10.240000,9.660000,10.000000,10.000000,2263600
2019-09-13,10.100000,11.210000,9.660000,10.940000,10.940000,7248900
2019-09-16,11.250000,11.290000,10.690000,11.020000,11.020000,3243600
2019-09-17,10.880000,10.905000,10.470000,10.670000,10.670000,1977700
2019-09-18,10.700000,10.700000,9.700000,10.000000,10.000000,1892100
2019-09-19,9.990000,10.330000,9.750000,9.800000,9.800000,1707200
2019-09-20,9.830000,9.875000,9.340000,9.460000,9.460000,9748800
2019-09-23,9.530000,9.600000,9.160000,9.180000,9.180000,1897700
2019-09-24,9.250000,9.300000,8.670000,8.760000,8.760000,1892300
2019-09-25,8.750000,9.090000,8.750000,9.000000,9.000000,1286700
2019-09-26,8.940000,9.040000,8.760000,8.910000,8.910000,1448700
2019-09-27,8.890000,9.100000,8.770000,8.830000,8.830000,1102100
2019-09-30,8.860000,9.000000,8.660000,8.980000,8.980000,1389800
2019-10-01,8.990000,9.380000,8.990000,9.320000,9.320000,1445800
2019-10-02,9.200000,9.350000,8.960000,9.240000,9.240000,1316700
2019-10-03,9.180000,9.270000,8.800000,9.190000,9.190000,1003600
2019-10-04,9.230000,9.320000,9.070000,9.270000,9.270000,733700
2019-10-07,9.170000,9.560000,9.090000,9.490000,9.490000,1175100
2019-10-08,9.390000,9.470000,9.260000,9.320000,9.320000,531100
2019-10-09,9.450000,9.510000,9.350000,9.410000,9.410000,1086200
2019-10-10,9.470000,9.780000,9.420000,9.740000,9.740000,2713700
2019-10-11,9.900000,10.250000,9.870000,10.110000,10.110000,1629700
2019-10-14,10.070000,10.330000,9.820000,10.320000,10.320000,786300
2019-10-15,10.260000,10.560000,10.070000,10.400000,10.400000,782000
2019-10-16,10.430000,10.650000,10.310000,10.630000,10.630000,704500
2019-10-17,10.650000,10.950000,10.580000,10.950000,10.950000,766300
2019-10-18,10.910000,11.000000,10.630000,10.690000,10.690000,889900
2019-10-21,10.780000,10.910000,10.410000,10.420000,10.420000,616900
2019-10-22,10.420000,10.780000,10.290000,10.730000,10.730000,1053200
2019-10-23,10.720000,10.780000,10.570000,10.730000,10.730000,543900
2019-10-24,10.740000,10.770000,10.470000,10.520000,10.520000,543600
2019-10-25,10.510000,11.140000,10.510000,11.070000,11.070000,1307900
2019-10-28,11.080000,11.475000,11.070000,11.350000,11.350000,709500
2019-10-29,11.300000,11.410000,11.080000,11.380000,11.380000,779800
2019-10-30,11.450000,11.450000,11.200000,11.320000,11.320000,1052300
2019-10-31,11.320000,11.370000,11.130000,11.310000,11.310000,960500
2019-11-01,11.340000,12.117000,11.340000,12.020000,12.020000,876600
2019-11-04,12.100000,12.350000,12.010000,12.050000,12.050000,1072100
2019-11-05,12.130000,12.350000,11.785000,11.850000,11.850000,1506400
2019-11-06,11.520000,12.615000,11.520000,12.140000,12.140000,2268200
2019-11-07,12.370000,12.920000,12.320000,12.740000,12.740000,2038200
2019-11-08,12.740000,12.830000,12.540000,12.590000,12.590000,2179400
2019-11-11,12.450000,12.650000,12.260000,12.590000,12.590000,580300
2019-11-12,12.580000,12.630000,12.330000,12.480000,12.480000,703600
2019-11-13,12.370000,12.370000,11.910000,12.080000,12.080000,695800
2019-11-14,12.040000,12.580000,11.800000,12.510000,12.510000,1053600
2019-11-15,12.630000,12.740000,12.360000,12.690000,12.690000,625700
2019-11-18,12.590000,12.600000,12.020000,12.210000,12.210000,944300
2019-11-19,12.290000,12.300000,12.000000,12.010000,12.010000,658800
2019-11-20,11.970000,12.860000,11.870000,12.820000,12.820000,1065400
2019-11-21,12.810000,13.040000,12.620000,12.840000,12.840000,796300
2019-11-22,12.900000,13.140000,12.780000,12.820000,12.820000,833000
2019-11-25,12.910000,13.345000,12.815000,13.260000,13.260000,505200
2019-11-26,13.200000,13.550000,12.990000,13.460000,13.460000,709400
2019-11-27,13.490000,13.527000,12.750000,12.750000,12.750000,431300
2019-11-29,12.660000,13.380000,12.592000,13.290000,13.290000,931200
2019-12-02,13.220000,13.260000,12.550000,12.610000,12.610000,616000
2019-12-03,12.500000,12.585000,12.240000,12.360000,12.360000,1061400
2019-12-04,12.520000,12.780000,12.320000,12.390000,12.390000,470900
2019-12-05,12.450000,12.575000,12.160000,12.530000,12.530000,638100
2019-12-06,12.680000,12.730000,12.380000,12.430000,12.430000,579500
2019-12-09,12.370000,12.900000,12.350000,12.610000,12.610000,590900
2019-12-10,12.510000,12.700000,12.420000,12.700000,12.700000,613600
2019-12-11,12.660000,12.840000,12.510000,12.520000,12.520000,483500
2019-12-12,12.490000,12.710000,12.400000,12.500000,12.500000,511800
2019-12-13,12.470000,12.840000,12.400000,12.410000,12.410000,493900
2019-12-16,12.440000,12.600000,12.235000,12.470000,12.470000,476500
2019-12-17,12.030000,12.180000,11.140000,11.970000,11.970000,1415900
2019-12-18,11.980000,12.155000,11.750000,12.100000,12.100000,604600
2019-12-19,12.150000,12.410000,11.980000,12.390000,12.390000,1034000
2019-12-20,12.450000,12.660000,12.185000,12.200000,12.200000,1133500
2019-12-23,12.220000,12.280000,11.800000,12.250000,12.250000,809200
2019-12-24,12.170000,12.270000,12.100000,12.110000,12.110000,200600
2019-12-26,12.120000,12.230000,12.050000,12.100000,12.100000,396600
2019-12-27,12.180000,12.180000,11.855000,11.900000,11.900000,344200
2019-12-30,11.850000,12.240000,11.780000,11.910000,11.910000,701300
2019-12-31,11.890000,12.300000,11.730000,12.220000,12.220000,832200
2020-01-02,12.400000,12.420000,11.910000,12.100000,12.100000,733700
2020-01-03,11.880000,12.075000,11.800000,11.860000,11.860000,656400
2020-01-06,11.710000,11.850000,11.530000,11.700000,11.700000,828000
2020-01-07,11.720000,12.030000,11.230000,11.980000,11.980000,1352200
2020-01-08,11.930000,11.970000,11.350000,11.490000,11.490000,1776800
2020-01-09,11.510000,11.700000,11.380000,11.510000,11.510000,924500
2020-01-10,11.490000,11.500000,11.240000,11.260000,11.260000,844200
2020-01-13,11.260000,11.380000,11.060000,11.340000,11.340000,781000
2020-01-14,11.210000,11.650000,11.110000,11.500000,11.500000,807000
2020-01-15,11.510000,12.180000,11.500000,11.990000,11.990000,814800
2020-01-16,12.100000,12.910000,12.000000,12.900000,12.900000,935600
2020-01-17,12.980000,13.039000,12.740000,12.960000,12.960000,761000
2020-01-21,12.940000,13.260000,12.810000,13.110000,13.110000,655200
2020-01-22,13.140000,13.180000,12.590000,12.610000,12.610000,720500
2020-01-23,12.550000,12.810000,12.080000,12.670000,12.670000,771700
2020-01-24,12.730000,12.810000,11.830000,12.240000,12.240000,875800
2020-01-27,11.880000,12.120000,11.620000,12.110000,12.110000,1011300
2020-01-28,12.250000,12.410000,12.160000,12.370000,12.370000,619500
2020-01-29,12.390000,12.430000,11.900000,12.250000,12.250000,816200
2020-01-30,12.060000,12.330000,11.915000,12.150000,12.150000,627700
2020-01-31,12.100000,12.100000,11.410000,11.670000,11.670000,822900
2020-02-03,11.780000,12.480000,11.780000,12.470000,12.470000,750000
2020-02-04,12.700000,13.100000,12.530000,12.620000,12.620000,867300
2020-02-05,12.780000,13.190000,12.780000,13.150000,13.150000,919100
2020-02-06,13.240000,13.470000,13.070000,13.310000,13.310000,629600
2020-02-07,13.200000,13.310000,12.880000,12.920000,12.920000,573700
2020-02-10,12.830000,12.920000,12.320000,12.470000,12.470000,485000
2020-02-11,12.610000,13.080000,12.460000,12.770000,12.770000,812300
2020-02-12,12.870000,13.063000,12.260000,12.400000,12.400000,675400
2020-02-13,12.300000,12.380000,11.440000,11.490000,11.490000,1199300