Date,Open,High,Low,Close,Adj Close,Volume
2017-01-03,9.950000,9.950000,9.950000,9.950000,9.950000,0
2017-01-04,9.925000,9.925000,9.925000,9.925000,9.925000,500
2017-01-05,10.000000,10.000000,10.000000,10.000000,10.000000,100000
2017-01-06,10.000000,10.000000,10.000000,10.000000,10.000000,0
2017-01-09,10.000000,10.000000,10.000000,10.000000,10.000000,0
2017-01-10,10.000000,10.000000,10.000000,10.000000,10.000000,0
2017-01-11,10.000000,10.000000,10.000000,10.000000,10.000000,0
2017-01-12,9.950000,9.950000,9.950000,9.950000,9.950000,600
2017-01-13,10.000000,10.000000,9.950000,9.950000,9.950000,300
2017-01-17,9.950000,9.950000,9.950000,9.950000,9.950000,0
2017-01-18,9.950000,9.950000,9.950000,9.950000,9.950000,0
2017-01-19,9.990000,9.990000,9.950000,9.950000,9.950000,3100
2017-01-20,10.000000,10.050000,10.000000,10.000000,10.000000,3300
2017-01-23,10.000000,10.000000,10.000000,10.000000,10.000000,0
2017-01-24,10.000000,10.000000,10.000000,10.000000,10.000000,0
2017-01-25,10.000000,10.000000,9.989000,10.000000,10.000000,9200
2017-01-26,10.000000,10.100000,10.000000,10.050000,10.050000,3600
2017-01-27,10.000000,10.000000,10.000000,10.000000,10.000000,3600
2017-01-30,10.000000,10.050000,10.000000,10.000000,10.000000,6800
2017-01-31,10.000000,10.050000,10.000000,10.050000,10.050000,9800
2017-02-01,10.050000,10.050000,10.050000,10.050000,10.050000,500
2017-02-02,10.050000,10.050000,10.050000,10.050000,10.050000,0
2017-02-03,10.050000,10.050000,10.050000,10.050000,10.050000,0
2017-02-06,10.000000,10.000000,10.000000,10.000000,10.000000,800
2017-02-07,10.025000,10.025000,10.000000,10.000000,10.000000,2000
2017-02-08,10.000000,10.000000,10.000000,10.000000,10.000000,0
2017-02-09,10.000000,10.000000,10.000000,10.000000,10.000000,0
2017-02-10,10.000000,10.000000,10.000000,10.000000,10.000000,0
2017-02-13,10.000000,10.000000,10.000000,10.000000,10.000000,0
2017-02-14,10.000000,10.000000,10.000000,10.000000,10.000000,0
2017-02-15,10.050000,10.050000,10.040000,10.040000,10.040000,5000
2017-02-16,10.000000,10.000000,10.000000,10.000000,10.000000,4600
2017-02-17,10.000000,10.025000,10.000000,10.000000,10.000000,1016300
2017-02-21,10.000000,10.000000,10.000000,10.000000,10.000000,0
2017-02-22,10.000000,10.000000,10.000000,10.000000,10.000000,0
2017-02-23,10.050000,10.050000,10.000000,10.000000,10.000000,735600
2017-02-24,10.000000,10.000000,10.000000,10.000000,10.000000,796800
2017-02-27,10.000000,10.000000,10.000000,10.000000,10.000000,0
2017-02-28,10.000000,10.000000,10.000000,10.000000,10.000000,0
2017-03-01,10.050000,10.050000,10.050000,10.050000,10.050000,700
2017-03-02,10.025000,10.050000,10.025000,10.050000,10.050000,94100
2017-03-03,10.050000,10.050000,10.050000,10.050000,10.050000,0
2017-03-06,10.050000,10.050000,10.050000,10.050000,10.050000,0
2017-03-07,10.050000,10.050000,10.050000,10.050000,10.050000,0
2017-03-08,10.050000,10.050000,10.050000,10.050000,10.050000,0
2017-03-09,10.050000,10.050000,10.050000,10.050000,10.050000,0
2017-03-10,10.050000,10.050000,10.050000,10.050000,10.050000,0
2017-03-13,10.050000,10.050000,10.000000,10.000000,10.000000,285100
2017-03-14,10.000000,10.000000,10.000000,10.000000,10.000000,800
2017-03-15,10.000000,10.000000,10.000000,10.000000,10.000000,1200
2017-03-16,10.000000,10.000000,10.000000,10.000000,10.000000,0
2017-03-17,10.000000,10.000000,10.000000,10.000000,10.000000,600
2017-03-20,10.100000,10.250000,10.100000,10.100000,10.100000,5350200
2017-03-21,10.200000,10.250000,10.150000,10.200000,10.200000,1371500
2017-03-22,10.200000,10.250000,10.200000,10.250000,10.250000,546900
2017-03-23,10.250000,10.300000,10.200000,10.300000,10.300000,2780500
2017-03-24,10.200000,10.450000,10.200000,10.400000,10.400000,1656100
2017-03-27,10.350000,10.500000,10.300000,10.450000,10.450000,1074600
2017-03-28,10.350000,10.500000,10.350000,10.450000,10.450000,1538300
2017-03-29,10.500000,10.500000,10.450000,10.500000,10.500000,963200
2017-03-30,10.400000,10.600000,10.400000,10.575000,10.575000,2194100
2017-03-31,10.550000,10.600000,10.500000,10.550000,10.550000,1780900
2017-04-03,10.600000,10.600000,10.550000,10.550000,10.550000,498000
2017-04-04,10.500000,10.800000,10.500000,10.800000,10.800000,2526700
2017-04-05,10.800000,10.850000,10.650000,10.700000,10.700000,564200
2017-04-06,10.650000,10.810000,10.550000,10.800000,10.800000,383400
2017-04-07,10.800000,10.850000,10.650000,10.850000,10.850000,317900
2017-04-10,10.850000,10.850000,10.650000,10.850000,10.850000,197100
2017-04-11,10.850000,10.850000,10.675000,10.700000,10.700000,110100
2017-04-12,10.600000,10.750000,10.600000,10.700000,10.700000,61400
2017-04-13,10.600000,10.600000,10.450000,10.600000,10.600000,134300
2017-04-17,10.650000,10.750000,10.650000,10.750000,10.750000,196300
2017-04-18,10.700000,10.750000,10.650000,10.700000,10.700000,188500
2017-04-19,10.750000,10.750000,10.650000,10.650000,10.650000,469200
2017-04-20,10.650000,10.750000,10.600000,10.750000,10.750000,473400
2017-04-21,10.700000,10.800000,10.700000,10.750000,10.750000,324600
2017-04-24,10.750000,10.750000,10.650000,10.700000,10.700000,163900
2017-04-25,10.750000,10.750000,10.500000,10.550000,10.550000,1616500
2017-04-26,10.550000,10.650000,10.450000,10.450000,10.450000,107400
2017-04-27,10.500000,10.600000,10.500000,10.500000,10.500000,29500
2017-04-28,10.550000,10.550000,10.490000,10.550000,10.550000,122900
2017-05-01,10.550000,10.600000,10.500000,10.600000,10.600000,682500
2017-05-02,10.600000,10.600000,10.500000,10.550000,10.550000,84800
2017-05-03,10.500000,10.550000,10.450000,10.500000,10.500000,76300
2017-05-04,10.500000,10.650000,10.500000,10.600000,10.600000,171000
2017-05-05,10.600000,10.600000,10.550000,10.550000,10.550000,27000
2017-05-08,10.600000,10.600000,10.500000,10.500000,10.500000,101700
2017-05-09,10.500000,10.550000,10.450000,10.550000,10.550000,69900
2017-05-10,10.600000,10.600000,10.500000,10.500000,10.500000,609000
2017-05-11,10.500000,10.600000,10.450000,10.500000,10.500000,139300
2017-05-12,10.500000,10.500000,10.400000,10.400000,10.400000,5900
2017-05-15,10.450000,10.500000,10.350000,10.350000,10.350000,16600
2017-05-16,10.400000,10.500000,10.400000,10.500000,10.500000,118200
2017-05-17,10.300000,10.500000,10.300000,10.500000,10.500000,444500
2017-05-18,10.400000,10.600000,10.400000,10.500000,10.500000,2510600
2017-05-19,10.500000,10.550000,10.450000,10.500000,10.500000,340700
2017-05-22,10.450000,10.500000,10.400000,10.450000,10.450000,525900
2017-05-23,10.450000,10.500000,10.400000,10.450000,10.450000,90900
2017-05-24,10.450000,10.450000,10.375000,10.400000,10.400000,402400
2017-05-25,10.450000,10.550000,10.350000,10.450000,10.450000,184500
2017-05-26,10.400000,10.400000,10.250000,10.300000,10.300000,20500
2017-05-30,10.300000,10.450000,10.300000,10.300000,10.300000,208600
2017-05-31,10.350000,10.400000,10.300000,10.350000,10.350000,55400
2017-06-01,10.050000,10.350000,10.050000,10.300000,10.300000,21200
2017-06-02,10.350000,10.450000,10.250000,10.250000,10.250000,8200
2017-06-05,10.250000,10.300000,10.200000,10.250000,10.250000,13900
2017-06-06,10.300000,10.350000,10.200000,10.300000,10.300000,523900
2017-06-07,10.300000,10.350000,10.050000,10.150000,10.150000,527800
2017-06-08,10.250000,10.250000,10.150000,10.150000,10.150000,116700
2017-06-09,10.150000,10.225000,10.150000,10.150000,10.150000,362300
2017-06-12,10.250000,10.250000,10.100000,10.100000,10.100000,168500
2017-06-13,10.100000,10.200000,10.100000,10.150000,10.150000,15700
2017-06-14,10.200000,10.250000,10.100000,10.100000,10.100000,226700
2017-06-15,10.150000,10.200000,10.150000,10.200000,10.200000,213400
2017-06-16,10.200000,10.200000,10.150000,10.200000,10.200000,45100
2017-06-19,10.200000,10.200000,10.150000,10.175000,10.175000,312900
2017-06-20,10.150000,10.150000,10.100000,10.150000,10.150000,103400
2017-06-21,10.150000,10.150000,10.100000,10.150000,10.150000,322600
2017-06-22,10.150000,10.150000,10.050000,10.050000,10.050000,678000
2017-06-23,10.100000,10.100000,10.040000,10.050000,10.050000,72500
2017-06-26,10.100000,10.100000,10.000000,10.000000,10.000000,951400
2017-06-27,10.000000,10.050000,10.000000,10.000000,10.000000,419700
2017-06-28,10.050000,10.100000,9.950000,9.950000,9.950000,867800
2017-06-29,10.050000,10.100000,9.900000,10.000000,10.000000,315900
2017-06-30,10.050000,10.360000,10.002000,10.290000,10.290000,1433100
2017-07-03,10.250000,10.400000,10.200000,10.390000,10.390000,391600
2017-07-05,10.400000,10.470000,10.270000,10.430000,10.430000,991600
2017-07-06,10.430000,11.013000,10.430000,10.950000,10.950000,2082700
2017-07-07,11.040000,11.160000,10.750000,11.120000,11.120000,855800
2017-07-10,11.150000,11.150000,10.940000,10.970000,10.970000,423000
2017-07-11,11.010000,11.020000,10.660000,10.870000,10.870000,731200
2017-07-12,10.850000,10.906000,10.670000,10.670000,10.670000,379400
2017-07-13,10.640000,10.880000,10.640000,10.720000,10.720000,157900
2017-07-14,10.780000,10.780000,10.750000,10.770000,10.770000,218800
2017-07-17,10.750000,10.920000,10.670000,10.800000,10.800000,234200
2017-07-18,10.750000,10.770000,10.550000,10.720000,10.720000,70300
2017-07-19,10.710000,11.070000,10.690000,10.950000,10.950000,267700
2017-07-20,11.220000,11.220000,10.940000,10.980000,10.980000,613700
2017-07-21,11.000000,11.070000,10.970000,11.010000,11.010000,206000
2017-07-24,10.940000,11.120000,10.880000,11.050000,11.050000,387700
2017-07-25,11.100000,11.100000,10.750000,10.780000,10.780000,117400
2017-07-26,10.750000,10.750000,10.600000,10.710000,10.710000,224500
2017-07-27,10.660000,10.710000,10.600000,10.680000,10.680000,161400
2017-07-28,10.750000,10.790000,10.600000,10.750000,10.750000,106700
2017-07-31,10.800000,11.135000,10.750000,11.050000,11.050000,299000
2017-08-01,11.000000,11.100000,10.970000,11.030000,11.030000,331700
2017-08-02,11.000000,11.000000,10.800000,10.900000,10.900000,30800
2017-08-03,10.900000,11.050000,10.840000,10.960000,10.960000,234500
2017-08-04,10.950000,11.000000,10.640000,10.830000,10.830000,53900
2017-08-07,11.000000,11.050000,10.660000,10.850000,10.850000,201200
2017-08-08,10.910000,10.930000,10.730000,10.810000,10.810000,68000
2017-08-09,10.770000,10.990000,10.700000,10.870000,10.870000,33600
2017-08-10,11.000000,11.280000,10.750000,11.120000,11.120000,220500
2017-08-11,11.060000,11.300000,11.040000,11.180000,11.180000,177200
2017-08-14,11.180000,11.280000,11.030000,11.220000,11.220000,131900
2017-08-15,11.200000,11.200000,11.050000,11.190000,11.190000,88100
2017-08-16,11.210000,11.300000,11.130000,11.210000,11.210000,193300
2017-08-17,11.200000,11.300000,11.080000,11.190000,11.190000,128400
2017-08-18,11.240000,11.460000,11.070000,11.280000,11.280000,224700
2017-08-21,11.300000,11.680000,11.110000,11.620000,11.620000,339000
2017-08-22,11.700000,11.960000,11.590000,11.690000,11.690000,134300
2017-08-23,11.690000,11.760000,11.480000,11.740000,11.740000,123900
2017-08-24,11.720000,11.860000,11.700000,11.750000,11.750000,86500
2017-08-25,11.770000,11.840000,11.550000,11.650000,11.650000,52000
2017-08-28,11.700000,11.830000,11.550000,11.800000,11.800000,128100
2017-08-29,11.710000,11.850000,11.530000,11.780000,11.780000,517400
2017-08-30,11.740000,12.000000,11.740000,11.970000,11.970000,157700
2017-08-31,11.990000,12.050000,11.830000,12.040000,12.040000,258600
2017-09-01,12.140000,12.200000,11.910000,12.140000,12.140000,182900
2017-09-05,12.050000,12.650000,12.050000,12.590000,12.590000,1017400
2017-09-06,12.530000,13.290000,12.530000,13.200000,13.200000,1158100
2017-09-07,13.170000,13.360000,12.910000,12.980000,12.980000,601500
2017-09-08,13.050000,13.100000,12.890000,12.990000,12.990000,265600
2017-09-11,13.100000,13.270000,12.970000,13.080000,13.080000,695200
2017-09-12,13.130000,13.130000,12.930000,12.990000,12.990000,193200
2017-09-13,13.000000,13.060000,12.890000,13.000000,13.000000,953400
2017-09-14,13.110000,13.140000,12.920000,12.940000,12.940000,949000
2017-09-15,13.030000,13.060000,12.650000,12.650000,12.650000,1818700
2017-09-18,12.640000,12.880000,12.610000,12.730000,12.730000,516600
2017-09-19,12.860000,12.940000,12.600000,12.710000,12.710000,590300
2017-09-20,12.690000,12.810000,12.600000,12.700000,12.700000,630900
2017-09-21,12.600000,12.720000,12.580000,12.660000,12.660000,169700
2017-09-22,12.650000,12.810000,12.620000,12.780000,12.780000,76300
2017-09-25,12.880000,13.020000,12.800000,12.930000,12.930000,473500
2017-09-26,12.990000,13.080000,12.860000,12.990000,12.990000,114500
2017-09-27,13.000000,13.080000,12.695000,12.930000,12.930000,282900
2017-09-28,12.950000,13.020000,12.880000,12.950000,12.950000,152700
2017-09-29,12.980000,13.110000,12.950000,13.020000,13.020000,184200
2017-10-02,13.100000,13.480000,13.100000,13.410000,13.410000,521700
2017-10-03,13.440000,13.566000,13.300000,13.340000,13.340000,205300
2017-10-04,13.240000,13.420000,13.200000,13.370000,13.370000,99300
2017-10-05,13.390000,13.490000,13.330000,13.420000,13.420000,111500
2017-10-06,13.450000,13.450000,13.200000,13.410000,13.410000,67200
2017-10-09,13.500000,13.680000,13.250000,13.360000,13.360000,177000
2017-10-10,13.430000,13.500000,13.260000,13.360000,13.360000,175700
2017-10-11,13.390000,13.400000,13.200000,13.350000,13.350000,57800
2017-10-12,13.340000,13.440000,13.230000,13.320000,13.320000,55000
2017-10-13,13.400000,13.400000,13.040000,13.240000,13.240000,121400
2017-10-16,13.240000,13.240000,12.990000,13.230000,13.230000,102900
2017-10-17,13.200000,13.240000,13.070000,13.190000,13.190000,65000
2017-10-18,13.170000,13.240000,13.100000,13.210000,13.210000,118200
2017-10-19,13.140000,13.240000,13.020000,13.230000,13.230000,87300
2017-10-20,13.210000,13.350000,13.200000,13.320000,13.320000,91800
2017-10-23,13.390000,13.390000,13.130000,13.220000,13.220000,93900
2017-10-24,13.270000,13.310000,13.130000,13.150000,13.150000,71900
2017-10-25,13.130000,13.340000,12.890000,12.930000,12.930000,244200
2017-10-26,12.980000,13.050000,12.780000,12.990000,12.990000,184400
2017-10-27,13.080000,13.120000,12.850000,13.090000,13.090000,44600
2017-10-30,13.090000,13.155000,12.990000,13.080000,13.080000,73700
2017-10-31,13.140000,13.230000,13.050000,13.200000,13.200000,79800
2017-11-01,13.310000,13.399000,12.930000,12.950000,12.950000,92100
2017-11-02,13.010000,13.169000,12.910000,12.950000,12.950000,89600
2017-11-03,12.930000,12.950000,12.110000,12.830000,12.830000,218100
2017-11-06,12.800000,12.980000,12.740000,12.880000,12.880000,104400
2017-11-07,12.820000,12.970000,12.380000,12.530000,12.530000,204500
2017-11-08,12.450000,12.450000,11.841000,12.400000,12.400000,340700
2017-11-09,12.210000,12.240000,11.450000,11.520000,11.520000,792400
2017-11-10,11.440000,11.630000,11.370000,11.500000,11.500000,176500
2017-11-13,11.580000,11.580000,11.210000,11.320000,11.320000,131000
2017-11-14,11.310000,11.480000,11.240000,11.290000,11.290000,174400
2017-11-15,11.250000,11.301000,11.130000,11.190000,11.190000,124700
2017-11-16,11.190000,11.430000,11.190000,11.280000,11.280000,83700
2017-11-17,11.190000,11.310000,11.140000,11.270000,11.270000,162600
2017-11-20,11.400000,11.500000,11.320000,11.460000,11.460000,147500
2017-11-21,11.500000,11.680000,11.490000,11.670000,11.670000,187600
2017-11-22,11.650000,12.000000,11.550000,11.720000,11.720000,247900
2017-11-24,11.700000,11.850000,11.660000,11.720000,11.720000,50000
2017-11-27,11.780000,11.950000,11.600000,11.680000,11.680000,216800
2017-11-28,11.720000,12.040000,11.700000,11.870000,11.870000,277500
2017-11-29,11.890000,11.960000,11.679000,11.760000,11.760000,152400
2017-11-30,11.860000,11.940000,11.630000,11.700000,11.700000,603800
2017-12-01,11.640000,11.860000,11.520000,11.730000,11.730000,149500
2017-12-04,11.820000,11.890000,11.710000,11.740000,11.740000,150500
2017-12-05,11.740000,11.760000,11.545000,11.620000,11.620000,289700
2017-12-06,11.540000,11.840000,11.540000,11.690000,11.690000,72200
2017-12-07,11.800000,11.800000,11.610000,11.700000,11.700000,99700
2017-12-08,11.770000,11.940000,11.650000,11.760000,11.760000,292900
2017-12-11,11.680000,11.860000,11.660000,11.720000,11.720000,120200
2017-12-12,11.730000,11.915000,11.700000,11.800000,11.800000,92600
2017-12-13,11.820000,11.950000,11.750000,11.850000,11.850000,58500
2017-12-14,11.880000,12.050000,11.840000,11.900000,11.900000,129100
2017-12-15,11.930000,12.115000,11.930000,12.030000,12.030000,264000
2017-12-18,12.030000,12.240000,11.990000,12.020000,12.020000,144900
2017-12-19,12.020000,12.080000,11.850000,11.900000,11.900000,111400
2017-12-20,11.890000,12.150000,11.830000,11.890000,11.890000,97600
2017-12-21,11.940000,12.060000,11.810000,11.930000,11.930000,108600
2017-12-22,11.980000,12.120000,11.850000,11.900000,11.900000,197400
2017-12-26,11.930000,12.005000,11.790000,11.830000,11.830000,43100
2017-12-27,11.860000,12.000000,11.760000,11.840000,11.840000,53900
2017-12-28,11.850000,11.900000,11.720000,11.830000,11.830000,67700
2017-12-29,11.850000,12.090000,11.800000,11.870000,11.870000,126900
2018-01-02,11.960000,12.200000,11.934000,12.130000,12.130000,235200
2018-01-03,12.170000,12.185000,11.990000,12.030000,12.030000,99400
2018-01-04,12.000000,12.070000,11.910000,12.000000,12.000000,106800
2018-01-05,12.040000,12.090000,11.970000,12.000000,12.000000,55000
2018-01-08,12.000000,12.081000,11.915000,11.950000,11.950000,74400
2018-01-09,11.950000,11.950000,11.306000,11.640000,11.640000,332100
2018-01-10,11.610000,11.780000,11.450000,11.700000,11.700000,342200
2018-01-11,11.730000,11.840000,11.540000,11.690000,11.690000,187600
2018-01-12,11.680000,11.690000,11.540000,11.590000,11.590000,183500
2018-01-16,11.640000,11.760000,11.340000,11.420000,11.420000,66200
2018-01-17,11.460000,11.465000,11.300000,11.340000,11.340000,65700
2018-01-18,11.330000,11.510000,11.330000,11.470000,11.470000,530200
2018-01-19,11.470000,11.800000,11.460000,11.660000,11.660000,384600
2018-01-22,11.660000,11.700000,11.510000,11.620000,11.620000,137900
2018-01-23,11.590000,11.620000,11.400000,11.500000,11.500000,189100
2018-01-24,11.530000,11.590000,11.240000,11.420000,11.420000,224300
2018-01-25,11.510000,11.580000,11.260000,11.410000,11.410000,181800
2018-01-26,11.480000,11.530000,11.320000,11.400000,11.400000,351900
2018-01-29,11.620000,12.550000,11.620000,12.440000,12.440000,767900
2018-01-30,12.310000,12.520000,12.181000,12.210000,12.210000,184700
2018-01-31,12.220000,12.350000,11.830000,11.890000,11.890000,284400
2018-02-01,11.860000,11.960000,11.690000,11.910000,11.910000,199500
2018-02-02,11.890000,12.180000,11.690000,11.930000,11.930000,182500
2018-02-05,11.830000,12.120000,11.780000,11.850000,11.850000,235000
2018-02-06,11.690000,11.970000,11.690000,11.790000,11.790000,268600
2018-02-07,12.020000,12.110000,11.730000,11.880000,11.880000,146700
2018-02-08,11.840000,12.040000,11.750000,11.790000,11.790000,408800
2018-02-09,11.850000,11.900000,11.590000,11.870000,11.870000,178700
2018-02-12,11.920000,12.140000,11.720000,11.860000,11.860000,242200
2018-02-13,11.860000,12.000000,11.710000,11.890000,11.890000,115300
2018-02-14,11.820000,12.030000,11.810000,11.960000,11.960000,81600
2018-02-15,12.010000,12.120000,11.890000,12.050000,12.050000,154500
2018-02-16,12.030000,12.300000,11.910000,11.960000,11.960000,143300
2018-02-20,11.960000,12.170000,11.830000,11.970000,11.970000,125100
2018-02-21,11.940000,12.080000,11.860000,11.880000,11.880000,78000
2018-02-22,11.920000,12.080000,11.730000,11.920000,11.920000,142000
2018-02-23,11.990000,12.120000,11.990000,12.040000,12.040000,317300
2018-02-26,12.100000,12.230000,12.020000,12.130000,12.130000,129600
2018-02-27,12.130000,12.130000,11.890000,12.070000,12.070000,72200
2018-02-28,12.100000,12.280000,12.010000,12.040000,12.040000,165500
2018-03-01,12.060000,12.110000,11.860000,11.950000,11.950000,110500
2018-03-02,11.840000,12.180000,11.840000,12.130000,12.130000,135000
2018-03-05,12.170000,12.340000,12.070000,12.150000,12.150000,226000
2018-03-06,12.150000,12.260000,12.020000,12.060000,12.060000,214600
2018-03-07,11.940000,12.070000,11.940000,12.070000,12.070000,134900
2018-03-08,12.080000,12.300000,11.845000,11.940000,11.940000,205600
2018-03-09,12.290000,12.290000,11.930000,12.100000,12.100000,1207200
2018-03-12,12.100000,12.290000,12.100000,12.280000,12.280000,363800
2018-03-13,12.300000,12.480000,12.300000,12.420000,12.420000,605600
2018-03-14,12.420000,12.540000,12.310000,12.450000,12.450000,407700
2018-03-15,12.530000,12.550000,12.460000,12.460000,12.460000,168900
2018-03-16,12.480000,12.680000,12.450000,12.670000,12.670000,820600
2018-03-19,12.450000,12.450000,11.710000,11.880000,11.880000,905700
2018-03-20,11.610000,11.660000,11.340000,11.420000,11.420000,976500
2018-03-21,11.350000,12.000000,11.350000,11.860000,11.860000,4757200
2018-03-22,11.920000,11.950000,11.720000,11.760000,11.760000,587800
2018-03-23,11.810000,11.970000,11.750000,11.760000,11.760000,467500
2018-03-26,11.880000,11.930000,11.710000,11.810000,11.810000,429700
2018-03-27,11.850000,11.870000,11.500000,11.640000,11.640000,406100
2018-03-28,11.510000,11.620000,11.370000,11.510000,11.510000,362000
2018-03-29,11.590000,11.660000,11.340000,11.570000,11.570000,362800
2018-04-02,11.640000,11.640000,11.370000,11.420000,11.420000,326800
2018-04-03,11.480000,11.530000,11.180000,11.320000,11.320000,354800
2018-04-04,11.270000,11.350000,11.160000,11.290000,11.290000,214300
2018-04-05,11.350000,11.690000,11.200000,11.620000,11.620000,825100
2018-04-06,11.510000,11.760000,11.510000,11.730000,11.730000,475100
2018-04-09,11.750000,11.870000,11.600000,11.640000,11.640000,544100
2018-04-10,11.670000,11.920000,11.670000,11.850000,11.850000,387000
2018-04-11,11.790000,11.920000,11.770000,11.870000,11.870000,425800
2018-04-12,11.890000,12.380000,11.800000,12.280000,12.280000,724500
2018-04-13,12.280000,12.340000,12.120000,12.230000,12.230000,206200
2018-04-16,12.290000,12.520000,12.130000,12.490000,12.490000,633100
2018-04-17,12.670000,13.650000,12.670000,13.370000,13.370000,1590000
2018-04-18,13.360000,13.810000,13.320000,13.780000,13.780000,649000
2018-04-19,13.700000,14.190000,13.700000,13.930000,13.930000,712500
2018-04-20,13.960000,14.100000,13.890000,14.000000,14.000000,362300
2018-04-23,14.070000,14.100000,13.880000,13.900000,13.900000,336200
2018-04-24,13.900000,13.990000,13.680000,13.770000,13.770000,308600
2018-04-25,13.780000,13.850000,13.680000,13.690000,13.690000,249100
2018-04-26,13.780000,13.810000,13.530000,13.620000,13.620000,295500
2018-04-27,13.610000,13.640000,13.330000,13.420000,13.420000,492200
2018-04-30,13.350000,13.490000,13.340000,13.390000,13.390000,251800
2018-05-01,13.350000,13.430000,13.280000,13.370000,13.370000,341400
2018-05-02,13.410000,13.580000,13.350000,13.460000,13.460000,282600
2018-05-03,13.440000,13.550000,13.310000,13.510000,13.510000,274100
2018-05-04,13.440000,13.660000,13.440000,13.570000,13.570000,160300
2018-05-07,13.660000,13.720000,13.535000,13.630000,13.630000,120200
2018-05-08,13.630000,13.790000,13.630000,13.720000,13.720000,172700
2018-05-09,13.720000,13.780000,13.140000,13.470000,13.470000,350600
2018-05-10,13.470000,13.590000,13.390000,13.480000,13.480000,349700
2018-05-11,13.850000,13.980000,13.550000,13.650000,13.650000,251100
2018-05-14,13.570000,13.650000,13.400000,13.410000,13.410000,360600
2018-05-15,13.310000,13.810000,13.288000,13.760000,13.760000,484400
2018-05-16,13.730000,14.060000,13.710000,13.750000,13.750000,295000
2018-05-17,13.780000,13.860000,13.410000,13.420000,13.420000,185700
2018-05-18,13.450000,13.760000,13.290000,13.760000,13.760000,149900
2018-05-21,14.000000,14.410000,13.830000,14.210000,14.210000,470700
2018-05-22,14.210000,14.330000,14.080000,14.240000,14.240000,305100
2018-05-23,14.150000,14.660000,14.150000,14.620000,14.620000,370800
2018-05-24,14.620000,14.710000,14.540000,14.630000,14.630000,221400
2018-05-25,14.680000,14.818000,14.600000,14.700000,14.700000,318300
2018-05-29,14.890000,15.100000,14.600000,14.970000,14.970000,564100
2018-05-30,14.980000,15.120000,14.790000,14.890000,14.890000,494000
2018-05-31,14.830000,14.890000,14.560000,14.740000,14.740000,420600
2018-06-01,14.850000,15.080000,14.750000,15.010000,15.010000,584400
2018-06-04,15.480000,15.690000,15.000000,15.530000,15.530000,652800
2018-06-05,16.030001,16.090000,15.640000,16.049999,16.049999,588100
2018-06-06,16.010000,16.400000,16.010000,16.270000,16.270000,436300
2018-06-07,16.340000,16.400000,16.139999,16.209999,16.209999,225700
2018-06-08,16.230000,16.340000,16.000000,16.280001,16.280001,222800
2018-06-11,16.350000,16.535000,16.190001,16.450001,16.450001,278200
2018-06-12,16.510000,16.780001,16.507000,16.740000,16.740000,258600
2018-06-13,16.770000,17.070000,16.652000,16.830000,16.830000,506300
2018-06-14,15.990000,16.049999,15.150000,15.740000,15.740000,1085600
2018-06-15,14.920000,15.350000,14.850000,15.010000,15.010000,7772500
2018-06-18,15.000000,15.260000,15.000000,15.180000,15.180000,876100
2018-06-19,15.300000,15.350000,15.000000,15.030000,15.030000,879300
2018-06-20,15.050000,15.295000,15.000000,15.150000,15.150000,912800
2018-06-21,15.170000,15.450000,14.740000,15.040000,15.040000,933600
2018-06-22,15.050000,15.190000,14.640000,14.950000,14.950000,5066100
2018-06-25,15.000000,15.060000,14.490000,14.560000,14.560000,766500
2018-06-26,14.950000,15.020000,14.545000,14.920000,14.920000,771500
2018-06-27,14.880000,14.890000,14.450000,14.450000,14.450000,949700
2018-06-28,14.440000,14.700000,14.420000,14.690000,14.690000,527000
2018-06-29,15.000000,15.130000,14.850000,14.950000,14.950000,1210200
2018-07-02,14.780000,15.110000,14.780000,14.960000,14.960000,441000
2018-07-03,15.060000,15.390000,15.010000,15.260000,15.260000,578000
2018-07-05,15.410000,15.480000,15.210000,15.370000,15.370000,930100
2018-07-06,15.300000,15.430000,15.280000,15.390000,15.390000,1014600
2018-07-09,16.250000,16.299999,15.670000,15.990000,15.990000,828800
2018-07-10,15.900000,16.030001,15.670000,15.900000,15.900000,566700
2018-07-11,14.680000,15.865000,14.680000,15.700000,15.700000,224900
2018-07-12,15.690000,16.030001,15.550000,16.030001,16.030001,659200
2018-07-13,16.200001,16.370001,16.120001,16.250000,16.250000,358500
2018-07-16,16.240000,16.250000,16.049999,16.230000,16.230000,241600
2018-07-17,16.139999,16.340000,16.139999,16.219999,16.219999,228200
2018-07-18,16.200001,16.430000,16.124001,16.340000,16.340000,425500
2018-07-19,16.280001,16.330000,16.139000,16.219999,16.219999,154500
2018-07-20,16.230000,16.510000,16.170000,16.500000,16.500000,451300
2018-07-23,16.440001,16.549999,16.330000,16.360001,16.360001,302800
2018-07-24,16.410000,16.430000,15.960000,16.129999,16.129999,372100
2018-07-25,16.190001,16.385000,16.080000,16.360001,16.360001,394400
2018-07-26,16.330000,16.410000,16.100000,16.129999,16.129999,306700
2018-07-27,16.150000,16.150000,15.570000,15.740000,15.740000,390600
2018-07-30,15.730000,16.010000,14.880000,15.070000,15.070000,443600
2018-07-31,15.080000,15.195000,14.900000,15.080000,15.080000,321600
2018-08-01,15.080000,15.500000,15.080000,15.410000,15.410000,406800
2018-08-02,15.710000,15.930000,15.510000,15.700000,15.700000,420400
2018-08-03,15.830000,15.830000,15.380000,15.420000,15.420000,179400
2018-08-06,15.420000,15.690000,15.365000,15.610000,15.610000,183100
2018-08-07,15.630000,15.900000,15.630000,15.780000,15.780000,251300
2018-08-08,15.840000,15.940000,15.660000,15.700000,15.700000,215400
2018-08-09,16.150000,16.440001,14.150000,15.490000,15.490000,786500
2018-08-10,16.150000,16.150000,15.270000,15.900000,15.900000,301500
2018-08-13,15.860000,16.420000,15.820000,16.379999,16.379999,425400
2018-08-14,16.459999,16.459999,16.049999,16.260000,16.260000,376900
2018-08-15,16.520000,16.790001,16.150000,16.730000,16.730000,474700
2018-08-16,16.900000,17.280001,16.700001,16.730000,16.730000,437500
2018-08-17,16.629999,16.740000,16.500000,16.620001,16.620001,160000
2018-08-20,16.650000,16.660000,16.379999,16.580000,16.580000,261600
2018-08-21,16.610001,16.870001,16.610001,16.709999,16.709999,249800
2018-08-22,16.629999,17.003000,16.629999,16.950001,16.950001,246500
2018-08-23,16.959999,17.410000,16.940001,17.240000,17.240000,345100
2018-08-24,17.350000,17.740000,17.260000,17.670000,17.670000,374100
2018-08-27,17.750000,18.129999,17.600000,17.770000,17.770000,275100
2018-08-28,17.770000,17.959999,17.690001,17.920000,17.920000,239500
2018-08-29,17.910000,18.250000,17.900000,18.020000,18.020000,312300
2018-08-30,17.940001,18.280001,17.840000,18.180000,18.180000,298200
2018-08-31,18.180000,18.280001,18.070000,18.110001,18.110001,230000
2018-09-04,18.059999,18.059999,17.670000,17.850000,17.850000,301100
2018-09-05,17.820000,17.820000,17.270000,17.570000,17.570000,379900
2018-09-06,17.650000,17.860001,17.420000,17.850000,17.850000,286100
2018-09-07,17.750000,17.889999,17.510000,17.600000,17.600000,293100
2018-09-10,17.690001,18.049999,17.639999,17.900000,17.900000,279000
2018-09-11,17.850000,18.260000,17.760000,17.990000,17.990000,348300
2018-09-12,17.760000,17.760000,16.285000,16.420000,16.420000,976400
2018-09-13,15.990000,16.270000,15.650000,15.920000,15.920000,6027200
2018-09-14,16.010000,16.450001,15.955000,15.980000,15.980000,1185600
2018-09-17,15.990000,16.270000,15.810000,15.980000,15.980000,767200
2018-09-18,15.850000,16.110001,15.840000,16.040001,16.040001,1256600
2018-09-19,16.059999,16.520000,16.000000,16.410000,16.410000,722200
2018-09-20,16.389999,16.610001,16.254999,16.360001,16.360001,756600
2018-09-21,16.430000,16.555000,16.290001,16.350000,16.350000,2621500
2018-09-24,16.270000,17.030001,16.270000,16.980000,16.980000,605600
2018-09-25,17.000000,17.250000,16.990000,17.139999,17.139999,550600
2018-09-26,17.110001,17.309999,17.000000,17.170000,17.170000,615600
2018-09-27,17.209999,17.360001,16.760000,16.809999,16.809999,347800
2018-09-28,16.770000,17.010000,16.690001,16.799999,16.799999,768600
2018-10-01,16.870001,17.049999,16.469999,16.600000,16.600000,536300
2018-10-02,16.700001,16.700001,16.421000,16.629999,16.629999,639400
2018-10-03,16.700001,16.760000,16.350000,16.459999,16.459999,576600
2018-10-04,16.440001,16.480000,15.950000,16.049999,16.049999,629800
2018-10-05,16.040001,16.250000,15.870000,16.139999,16.139999,860300
2018-10-08,16.080000,16.209999,15.900000,15.920000,15.920000,1417400
2018-10-09,14.460000,16.129999,14.460000,16.010000,16.010000,871500
2018-10-10,15.970000,16.080000,15.410000,15.460000,15.460000,986900
2018-10-11,15.350000,15.700000,15.330000,15.670000,15.670000,604700
2018-10-12,15.980000,16.100000,15.400000,15.560000,15.560000,452100
2018-10-15,15.520000,15.630000,15.200000,15.420000,15.420000,342400
2018-10-16,15.570000,15.730000,15.310000,15.650000,15.650000,534200
2018-10-17,15.580000,15.600000,15.160000,15.480000,15.480000,573300
2018-10-18,15.370000,15.530000,15.040000,15.310000,15.310000,286900
2018-10-19,15.320000,15.480000,14.760000,14.760000,14.760000,271700
2018-10-22,14.840000,15.130000,14.770000,14.780000,14.780000,389200
2018-10-23,14.630000,14.980000,14.190000,14.830000,14.830000,576600
2018-10-24,14.790000,14.910000,14.560000,14.560000,14.560000,458000
2018-10-25,14.610000,14.930000,14.590000,14.920000,14.920000,450700
2018-10-26,14.710000,14.760000,14.330000,14.370000,14.370000,354800
2018-10-29,14.580000,14.700000,13.950000,14.160000,14.160000,262500
2018-10-30,14.120000,14.540000,13.990000,14.520000,14.520000,242000
2018-10-31,14.700000,14.975000,14.450000,14.790000,14.790000,389800
2018-11-01,14.890000,15.090000,14.710000,15.040000,15.040000,355300
2018-11-02,15.110000,15.240000,14.740000,14.780000,14.780000,194300
2018-11-05,14.780000,14.890000,14.390000,14.630000,14.630000,209800
2018-11-06,14.600000,14.850000,14.290000,14.450000,14.450000,156200
2018-11-07,14.490000,15.240000,14.490000,15.140000,15.140000,301400
2018-11-08,15.440000,15.760000,14.650000,14.780000,14.780000,373400
2018-11-09,14.580000,14.580000,13.870000,14.070000,14.070000,309700
2018-11-12,14.010000,14.010000,13.480000,13.720000,13.720000,270100
2018-11-13,13.790000,13.950000,13.230000,13.350000,13.350000,416400
2018-11-14,13.470000,13.510000,12.900000,13.220000,13.220000,350700
2018-11-15,13.150000,13.320000,13.040000,13.310000,13.310000,269600
2018-11-16,13.180000,13.310000,13.040000,13.040000,13.040000,378600
2018-11-19,13.020000,13.040000,12.690000,12.720000,12.720000,330700
2018-11-20,12.470000,12.840000,12.300000,12.420000,12.420000,383000
2018-11-21,12.550000,12.860000,12.450000,12.590000,12.590000,184800
2018-11-23,12.460000,12.650000,12.230000,12.270000,12.270000,180600
2018-11-26,12.400000,13.070000,12.240000,12.980000,12.980000,497800
2018-11-27,12.870000,12.930000,12.605000,12.730000,12.730000,405700
2018-11-28,12.800000,13.180000,12.790000,13.060000,13.060000,443200
2018-11-29,12.560000,12.750000,11.840000,12.180000,12.180000,1694600
2018-11-30,12.040000,12.610000,11.850000,12.520000,12.520000,2079000
2018-12-03,12.750000,12.800000,12.161000,12.370000,12.370000,625500
2018-12-04,12.330000,12.480000,11.720000,11.740000,11.740000,377100
2018-12-06,11.500000,12.130000,11.380000,12.080000,12.080000,1042500
2018-12-07,12.050000,12.200000,11.890000,12.060000,12.060000,559100
2018-12-10,12.010000,12.250000,11.630000,12.010000,12.010000,897100
2018-12-11,12.170000,12.350000,12.020000,12.100000,12.100000,633000
2018-12-12,12.190000,12.340000,12.090000,12.150000,12.150000,755400
2018-12-13,12.170000,12.240000,12.050000,12.180000,12.180000,741400
2018-12-14,12.010000,12.200000,11.960000,12.000000,12.000000,454700
2018-12-17,11.910000,12.080000,11.600000,11.680000,11.680000,848600
2018-12-18,11.760000,12.020000,11.750000,11.900000,11.900000,745100
2018-12-19,11.890000,12.000000,11.440000,11.610000,11.610000,796200
2018-12-20,11.590000,11.720000,11.220000,11.400000,11.400000,914900
2018-12-21,11.450000,11.500000,11.130000,11.310000,11.310000,2443600
2018-12-24,11.210000,11.290000,10.950000,10.990000,10.990000,365300
2018-12-26,11.090000,11.390000,10.860000,11.390000,11.390000,560800
2018-12-27,11.180000,11.420000,10.990000,11.420000,11.420000,590900
2018-12-28,11.430000,11.760000,11.400000,11.620000,11.620000,423900
2018-12-31,11.680000,11.860000,11.450000,11.700000,11.700000,966300
2019-01-02,11.540000,11.815000,11.480000,11.810000,11.810000,521700
2019-01-03,11.590000,11.665000,11.020000,11.320000,11.320000,887100
2019-01-04,11.480000,12.100000,11.360000,12.020000,12.020000,627500
2019-01-07,12.080000,12.350000,12.000000,12.260000,12.260000,459700
2019-01-08,12.410000,12.480000,12.180000,12.470000,12.470000,539900
2019-01-09,12.340000,12.550000,12.340000,12.450000,12.450000,491500
2019-01-10,12.400000,12.630000,12.310000,12.540000,12.540000,367600
2019-01-11,12.450000,12.600000,12.380000,12.530000,12.530000,184400
2019-01-14,12.390000,12.400000,12.180000,12.340000,12.340000,400900
2019-01-15,12.340000,12.590000,12.251000,12.590000,12.590000,388500
2019-01-16,12.670000,12.780000,12.585000,12.750000,12.750000,336600
2019-01-17,12.670000,12.840000,12.670000,12.800000,12.800000,366400
2019-01-18,12.850000,12.870000,12.510000,12.570000,12.570000,206300
2019-01-22,12.460000,12.595000,12.240000,12.340000,12.340000,220100
2019-01-23,12.490000,12.520000,12.045000,12.190000,12.190000,246000
2019-01-24,12.120000,12.310000,11.950000,12.070000,12.070000,323400
2019-01-25,12.090000,12.790000,12.090000,12.690000,12.690000,353500
2019-01-28,12.530000,12.570000,12.210000,12.310000,12.310000,334200
2019-01-29,12.370000,12.370000,11.880000,11.910000,11.910000,233900
2019-01-30,12.010000,12.080000,11.890000,12.000000,12.000000,220800
2019-01-31,11.930000,12.430000,11.930000,12.400000,12.400000,368500
2019-02-01,12.350000,12.560000,12.250000,12.540000,12.540000,258700
2019-02-04,12.480000,12.910000,12.480000,12.770000,12.770000,411400
2019-02-05,12.780000,12.900000,12.760000,12.850000,12.850000,298600
2019-02-06,12.820000,12.880000,12.720000,12.810000,12.810000,279800
2019-02-07,12.620000,12.660000,12.390000,12.500000,12.500000,310500
2019-02-08,12.390000,12.640000,12.390000,12.540000,12.540000,532000
2019-02-11,12.610000,12.970000,12.290000,12.360000,12.360000,750700
2019-02-12,12.490000,12.920000,12.470000,12.880000,12.880000,341600
2019-02-13,12.870000,12.925000,12.650000,12.850000,12.850000,280400
2019-02-14,12.760000,12.910000,12.670000,12.760000,12.760000,249200
2019-02-15,12.860000,12.885000,12.690000,12.830000,12.830000,248600
2019-02-19,12.810000,12.850000,12.650000,12.800000,12.800000,259000
2019-02-20,12.790000,12.840000,12.480000,12.620000,12.620000,367200
2019-02-21,12.560000,12.750000,12.420000,12.620000,12.620000,299400
2019-02-22,12.710000,13.080000,12.600000,12.970000,12.970000,439400
2019-02-25,13.040000,13.180000,12.860000,12.880000,12.880000,261700
2019-02-26,12.860000,12.920000,12.670000,12.830000,12.830000,195100
2019-02-27,12.750000,12.990000,12.720000,12.990000,12.990000,328800
2019-02-28,12.960000,13.140000,12.880000,13.020000,13.020000,400200
2019-03-01,13.020000,13.390000,12.840000,13.080000,13.080000,346900
2019-03-04,13.090000,14.550000,12.960000,13.840000,13.840000,1445800
2019-03-05,13.910000,14.040000,13.550000,13.630000,13.630000,963400
2019-03-06,13.550000,13.630000,13.070000,13.090000,13.090000,765200
2019-03-07,13.100000,13.350000,13.060000,13.110000,13.110000,369300
2019-03-08,13.070000,13.070000,12.880000,12.990000,12.990000,394300
2019-03-11,13.050000,13.450000,13.020000,13.130000,13.130000,593800
2019-03-12,13.110000,13.340000,12.950000,13.230000,13.230000,320900
2019-03-13,13.270000,13.490000,13.220000,13.330000,13.330000,472400
2019-03-14,13.300000,13.450000,13.240000,13.260000,13.260000,392100
2019-03-15,13.330000,13.700000,13.190000,13.630000,13.630000,1113200
2019-03-18,13.600000,13.990000,13.580000,13.940000,13.940000,689000
2019-03-19,13.980000,14.520000,13.690000,13.980000,13.980000,1370900
2019-03-20,13.930000,14.240000,13.830000,14.120000,14.120000,465100
2019-03-21,14.090000,14.470000,14.090000,14.410000,14.410000,663700
2019-03-22,14.280000,14.290000,13.830000,13.840000,13.840000,397000
2019-03-25,13.860000,13.860000,13.590000,13.700000,13.700000,285900
2019-03-26,13.830000,13.945000,13.600000,13.740000,13.740000,245800
2019-03-27,13.720000,13.820000,13.460000,13.640000,13.640000,216900
2019-03-28,13.690000,14.030000,13.610000,13.810000,13.810000,326600
2019-03-29,13.930000,13.930000,13.650000,13.770000,13.770000,401800
2019-04-01,13.870000,13.910000,13.570000,13.680000,13.680000,280000
2019-04-02,13.640000,13.690000,13.500000,13.650000,13.650000,473300
2019-04-03,13.800000,13.800000,13.510000,13.580000,13.580000,408500
2019-04-04,13.530000,13.730000,13.390000,13.570000,13.570000,663300
2019-04-05,13.630000,13.830000,13.540000,13.830000,13.830000,1234400
2019-04-08,13.770000,14.010000,13.660000,13.760000,13.760000,767600
2019-04-09,13.600000,13.880000,13.210000,13.710000,13.710000,353700
2019-04-10,13.720000,13.770000,13.580000,13.640000,13.640000,675300
2019-04-11,13.660000,13.660000,13.110000,13.290000,13.290000,1387600
2019-04-12,13.400000,13.400000,12.890000,12.960000,12.960000,566900
2019-04-15,12.970000,13.140000,12.440000,12.540000,12.540000,951900
2019-04-16,12.620000,12.630000,12.360000,12.530000,12.530000,1379100
2019-04-17,12.610000,12.620000,12.000000,12.360000,12.360000,3356100
2019-04-18,12.320000,12.360000,12.180000,12.260000,12.260000,890100
2019-04-22,12.150000,12.280000,11.950000,12.030000,12.030000,804300
2019-04-23,12.010000,12.100000,11.670000,11.790000,11.790000,1709800
2019-04-24,11.790000,12.050000,11.670000,12.020000,12.020000,1311100
2019-04-25,12.070000,12.140000,11.710000,11.950000,11.950000,1293700
2019-04-26,11.930000,12.170000,11.880000,12.120000,12.120000,716500
2019-04-29,12.120000,12.220000,12.090000,12.150000,12.150000,395900
2019-04-30,12.140000,12.190000,11.960000,12.060000,12.060000,660900
2019-05-01,12.070000,12.190000,11.880000,11.890000,11.890000,557200
2019-05-02,11.820000,11.910000,11.620000,11.670000,11.670000,349700
2019-05-03,11.730000,12.020000,11.690000,12.000000,12.000000,620600
2019-05-06,11.740000,11.980000,11.680000,11.950000,11.950000,403400
2019-05-07,11.800000,11.860000,11.660000,11.710000,11.710000,465300
2019-05-08,11.660000,11.770000,11.510000,11.720000,11.720000,572300
2019-05-09,11.590000,11.770000,11.390000,11.610000,11.610000,471900
2019-05-10,11.550000,11.960000,11.300000,11.550000,11.550000,742500
2019-05-13,11.250000,11.340000,10.900000,11.100000,11.100000,729600
2019-05-14,11.140000,11.410000,11.100000,11.390000,11.390000,545600
2019-05-15,11.270000,11.660000,11.270000,11.510000,11.510000,988100
2019-05-16,11.520000,11.820000,11.520000,11.730000,11.730000,773600
2019-05-17,11.630000,11.780000,11.420000,11.560000,11.560000,486300
2019-05-20,11.380000,11.610000,11.330000,11.410000,11.410000,360100
2019-05-21,11.520000,11.610000,11.350000,11.400000,11.400000,353200
2019-05-22,11.340000,11.460000,11.330000,11.400000,11.400000,326300
2019-05-23,11.260000,11.270000,10.800000,10.900000,10.900000,416300
2019-05-24,10.960000,11.070000,10.790000,10.950000,10.950000,460200
2019-05-28,11.000000,11.160000,10.790000,10.820000,10.820000,1044600
2019-05-29,10.700000,10.880000,10.570000,10.690000,10.690000,612300
2019-05-30,10.750000,10.750000,10.500000,10.580000,10.580000,1281600
2019-05-31,10.400000,11.070000,10.400000,10.980000,10.980000,1971200
2019-06-03,11.020000,11.180000,10.890000,11.040000,11.040000,801900
2019-06-04,11.120000,11.220000,10.930000,11.200000,11.200000,424800
2019-06-05,11.230000,11.270000,10.890000,11.210000,11.210000,568800
2019-06-06,11.190000,11.350000,11.160000,11.300000,11.300000,403200
2019-06-07,11.300000,11.510000,11.300000,11.480000,11.480000,522500
2019-06-10,11.550000,11.710000,11.280000,11.320000,11.320000,422500
2019-06-11,11.430000,11.441000,11.090000,11.140000,11.140000,423400
2019-06-12,11.170000,11.410000,11.050000,11.400000,11.400000,325600
2019-06-13,11.440000,11.490000,11.230000,11.470000,11.470000,329400
2019-06-14,11.390000,11.535000,11.280000,11.500000,11.500000,330200
2019-06-17,11.550000,11.620000,11.315000,11.440000,11.440000,461700
2019-06-18,11.540000,11.695000,11.400000,11.430000,11.430000,378600
2019-06-19,11.430000,11.570000,11.250000,11.470000,11.470000,416300
2019-06-20,11.580000,11.660000,11.440000,11.630000,11.630000,497200
2019-06-21,11.550000,11.760000,11.485000,11.690000,11.690000,528100
2019-06-24,11.660000,11.700000,11.010000,11.010000,11.010000,738100
2019-06-25,11.010000,11.170000,10.925000,11.080000,11.080000,566000
2019-06-26,11.130000,11.215000,10.850000,10.960000,10.960000,680800
2019-06-27,10.960000,11.330000,10.960000,11.320000,11.320000,470500
2019-06-28,11.380000,11.765000,11.260000,11.730000,11.730000,4398800
2019-07-01,11.900000,11.910000,11.400000,11.400000,11.400000,521600
2019-07-02,11.340000,11.400000,11.150000,11.190000,11.190000,349200
2019-07-03,11.260000,11.260000,11.020000,11.020000,11.020000,196200
2019-07-05,10.950000,11.070000,10.850000,11.060000,11.060000,205600
2019-07-08,11.000000,11.050000,10.715000,10.790000,10.790000,431100
2019-07-09,10.740000,10.870000,10.615000,10.840000,10.840000,297500
2019-07-10,10.860000,11.060000,10.860000,10.950000,10.950000,351500
2019-07-11,11.000000,11.000000,10.890000,10.980000,10.980000,324800
2019-07-12,11.000000,11.070000,10.830000,10.920000,10.920000,339800
2019-07-15,10.920000,11.000000,10.830000,11.000000,11.000000,363600
2019-07-16,10.990000,11.020000,10.860000,10.910000,10.910000,352200
2019-07-17,10.880000,10.920000,10.690000,10.820000,10.820000,409700
2019-07-18,10.790000,10.840000,10.500000,10.580000,10.580000,446700
2019-07-19,10.570000,10.620000,10.450000,10.460000,10.460000,195500
2019-07-22,10.450000,10.500000,10.090000,10.100000,10.100000,290800
2019-07-23,10.140000,10.270000,9.960000,10.250000,10.250000,588900
2019-07-24,10.230000,10.580000,10.170000,10.560000,10.560000,419600
2019-07-25,10.580000,10.580000,10.400000,10.490000,10.490000,256700
2019-07-26,10.510000,10.750000,10.480000,10.650000,10.650000,224700
2019-07-29,10.620000,10.690000,10.445000,10.660000,10.660000,291200
2019-07-30,10.540000,10.755000,10.519000,10.610000,10.610000,523700
2019-07-31,10.630000,10.960000,10.370000,10.390000,10.390000,888200
2019-08-01,10.390000,10.570000,10.090000,10.110000,10.110000,376000
2019-08-02,10.000000,10.035000,9.830000,9.990000,9.990000,394200
2019-08-05,9.780000,9.920000,9.675000,9.780000,9.780000,435100
2019-08-06,9.790000,9.960000,9.760000,9.810000,9.810000,443600
2019-08-07,9.650000,9.730000,9.440000,9.550000,9.550000,526500
2019-08-08,9.620000,9.960000,9.440000,9.850000,9.850000,605900
2019-08-09,8.620000,8.687000,6.650000,6.650000,6.650000,6223600
2019-08-12,6.840000,7.150000,6.480000,6.700000,6.700000,2333600
2019-08-13,6.650000,6.940000,6.600000,6.660000,6.660000,1194300
2019-08-14,6.570000,6.577000,6.160000,6.210000,6.210000,1376500
2019-08-15,6.230000,6.360000,6.020000,6.250000,6.250000,1912000
2019-08-16,6.290000,6.505000,6.290000,6.410000,6.410000,704900
2019-08-19,6.450000,6.500000,6.310000,6.450000,6.450000,587000
2019-08-20,6.400000,6.480000,6.290000,6.440000,6.440000,416200
2019-08-21,6.510000,6.585000,6.420000,6.560000,6.560000,535200
2019-08-22,6.610000,6.990000,6.400000,6.850000,6.850000,1434700
2019-08-23,6.780000,6.870000,6.640000,6.700000,6.700000,1213800
2019-08-26,6.770000,7.110000,6.710000,6.910000,6.910000,1637400
2019-08-27,6.990000,7.000000,6.625000,6.660000,6.660000,965700
2019-08-28,6.580000,6.820000,6.420000,6.810000,6.810000,1376900
2019-08-29,6.900000,7.040000,6.780000,6.940000,6.940000,312700
2019-08-30,6.990000,7.070000,6.820000,6.920000,6.920000,826300
2019-09-03,6.820000,6.940000,6.750000,6.770000,6.770000,370000
2019-09-04,6.810000,6.900000,6.740000,6.750000,6.750000,493500
2019-09-05,6.840000,7.180000,6.800000,7.150000,7.150000,430400
2019-09-06,7.130000,7.270000,7.010000,7.140000,7.140000,231600
2019-09-09,7.190000,7.460000,7.160000,7.440000,7.440000,362900
2019-09-10,7.410000,7.740000,7.320000,7.700000,7.700000,430500
2019-09-11,7.770000,7.860000,7.690000,7.740000,7.740000,747600
2019-09-12,7.740000,7.915000,7.570000,7.870000,7.870000,443600
2019-09-13,7.890000,8.050000,7.830000,7.960000,7.960000,511800
2019-09-16,7.890000,8.040000,7.840000,7.900000,7.900000,544800
2019-09-17,7.860000,7.860000,7.500000,7.540000,7.540000,420100
2019-09-18,7.540000,7.640000,7.290000,7.420000,7.420000,655000
2019-09-19,7.450000,7.675000,7.440000,7.440000,7.440000,252000
2019-09-20,7.450000,7.660000,7.370000,7.410000,7.410000,1100500
2019-09-23,7.400000,7.400000,6.980000,7.290000,7.290000,385000
2019-09-24,7.330000,7.510000,7.250000,7.400000,7.400000,1105500
2019-09-25,7.410000,7.550000,7.190000,7.510000,7.510000,617200
2019-09-26,7.530000,7.590000,7.300000,7.470000,7.470000,319200
2019-09-27,7.480000,7.715000,7.390000,7.470000,7.470000,892600
2019-09-30,7.490000,7.740000,7.381000,7.690000,7.690000,975500
2019-10-01,7.730000,7.910000,7.290000,7.440000,7.440000,753700
2019-10-02,7.350000,7.350000,6.970000,7.230000,7.230000,613600
2019-10-03,7.180000,7.470000,7.090000,7.400000,7.400000,733700
2019-10-04,7.440000,7.570000,7.330000,7.530000,7.530000,691600
2019-10-07,7.550000,7.770000,7.470000,7.730000,7.730000,615100
2019-10-08,7.630000,7.700000,7.290000,7.500000,7.500000,850800
2019-10-09,7.610000,7.735000,7.540000,7.690000,7.690000,631400
2019-10-10,7.780000,8.000000,7.740000,7.980000,7.980000,1013500
2019-10-11,8.140000,8.350000,8.040000,8.200000,8.200000,1132000
2019-10-14,8.150000,8.350000,8.150000,8.260000,8.260000,567600
2019-10-15,8.280000,8.550000,8.180000,8.480000,8.480000,772600
2019-10-16,8.450000,8.760000,8.390000,8.750000,8.750000,1493500
2019-10-17,8.790000,8.890000,8.680000,8.850000,8.850000,644000
2019-10-18,8.780000,8.795000,8.360000,8.390000,8.390000,686800
2019-10-21,8.480000,8.530000,8.330000,8.450000,8.450000,661400
2019-10-22,9.970000,10.110000,9.920000,10.070000,10.070000,22362700
2019-10-23,10.050000,10.170000,10.050000,10.090000,10.090000,13274200
2019-10-24,10.120000,10.120000,10.040000,10.070000,10.070000,7729700
2019-10-25,10.080000,10.110000,10.040000,10.090000,10.090000,4303900
2019-10-28,10.070000,10.110000,10.050000,10.070000,10.070000,2355700
2019-10-29,10.070000,10.080000,10.050000,10.070000,10.070000,2351600
2019-10-30,10.080000,10.140000,10.050000,10.100000,10.100000,2027100
2019-10-31,10.090000,10.100000,10.050000,10.070000,10.070000,1657700
2019-11-01,10.090000,10.110000,10.050000,10.060000,10.060000,1209800
2019-11-04,10.070000,10.095000,10.050000,10.050000,10.050000,3293700
2019-11-05,10.070000,10.160000,10.060000,10.130000,10.130000,2512600
2019-11-06,10.120000,10.130000,10.040000,10.060000,10.060000,3418000
2019-11-07,10.090000,10.110000,9.970000,10.090000,10.090000,2343300
2019-11-08,10.080000,10.240000,10.070000,10.100000,10.100000,1444100
2019-11-11,10.110000,10.110000,9.970000,10.020000,10.020000,3358900
2019-11-12,10.010000,10.045000,10.010000,10.020000,10.020000,1806900
2019-11-13,10.020000,10.390000,10.010000,10.200000,10.200000,2740200
2019-11-14,10.110000,10.240000,10.030000,10.230000,10.230000,1665200
2019-11-15,10.250000,10.275000,10.140000,10.200000,10.200000,1438300
2019-11-18,10.150000,10.200000,10.130000,10.190000,10.190000,1360700
2019-11-19,10.180000,10.230000,10.120000,10.200000,10.200000,1653800
2019-11-20,10.170000,10.180000,10.020000,10.120000,10.120000,2067100
2019-11-21,10.150000,10.195000,10.110000,10.180000,10.180000,1271000
2019-11-22,9.990000,10.000000,9.900000,9.930000,9.930000,2784400
2019-11-25,9.980000,9.980000,9.935000,9.950000,9.950000,5134700
2019-11-26,9.940000,9.960000,9.920000,9.940000,9.940000,1770000
2019-11-27,9.950000,9.960000,9.930000,9.960000,9.960000,2164500
2019-11-29,9.950000,9.960000,9.930000,9.940000,9.940000,678900
2019-12-02,9.950000,9.970000,9.930000,9.960000,9.960000,1816000
2019-12-03,9.940000,9.970000,9.940000,9.960000,9.960000,2298200
2019-12-04,9.960000,9.960000,9.940000,9.950000,9.950000,1261700
2019-12-05,9.950000,9.960000,9.940000,9.950000,9.950000,5411500
2019-12-06,9.960000,10.010000,9.950000,9.980000,9.980000,565000
2019-12-09,9.970000,9.990000,9.950000,9.950000,9.950000,520000
2019-12-10,9.960000,9.970000,9.950000,9.970000,9.970000,2472600
2019-12-11,9.980000,9.980000,9.950000,9.970000,9.970000,465500
2019-12-12,9.960000,9.980000,9.960000,9.980000,9.980000,294100
2019-12-13,9.960000,9.980000,9.950000,9.960000,9.960000,343100
2019-12-16,9.970000,9.970000,9.950000,9.960000,9.960000,2410800
2019-12-17,9.970000,9.970000,9.950000,9.960000,9.960000,1884200
2019-12-18,9.960000,9.980000,9.950000,9.980000,9.980000,912000
2019-12-19,9.970000,9.970000,9.960000,9.970000,9.970000,789600
2019-12-20,9.980000,9.980000,9.950000,9.960000,9.960000,3101900
2019-12-23,9.970000,9.970000,9.960000,9.970000,9.970000,6272100
2019-12-24,9.970000,9.970000,9.960000,9.970000,9.970000,431700
2019-12-26,9.960000,9.970000,9.960000,9.970000,9.970000,820300
2019-12-27,9.970000,9.970000,9.960000,9.970000,9.970000,661200
2019-12-30,9.970000,9.980000,9.960000,9.980000,9.980000,1800500
2019-12-31,9.970000,9.980000,9.960000,9.970000,9.970000,1334900
2020-01-02,9.980000,9.980000,9.950000,9.960000,9.960000,3464000
2020-01-03,9.950000,9.970000,9.950000,9.960000,9.960000,2483800
2020-01-06,9.950000,9.980000,9.950000,9.960000,9.960000,3133600
2020-01-07,9.970000,9.980000,9.960000,9.970000,9.970000,2315700
2020-01-08,9.970000,9.990000,9.970000,9.970000,9.970000,3744700
2020-01-09,9.990000,9.990000,9.970000,9.970000,9.970000,3926500
2020-01-10,9.980000,9.990000,9.970000,9.980000,9.980000,2624900
2020-01-13,9.980000,9.985000,9.970000,9.970000,9.970000,4568100
2020-01-14,9.970000,9.980000,9.970000,9.970000,9.970000,3461700
2020-01-15,9.970000,9.990000,9.970000,9.990000,9.990000,1891600
2020-01-16,9.990000,9.990000,9.980000,9.990000,9.990000,305900
2020-01-17,9.990000,10.000000,9.980000,9.990000,9.990000,378000
2020-01-21,9.990000,10.000000,9.980000,9.990000,9.990000,617500
2020-01-22,10.000000,10.000000,9.980000,9.980000,9.980000,821000
2020-01-23,9.980000,9.990000,9.980000,9.990000,9.990000,2741600
2020-01-24,9.990000,10.000000,9.985000,9.990000,9.990000,1647533
2020-01-27,9.990000,10.000000,9.990000,9.990000,9.990000,1943200
2020-01-28,10.000000,10.000000,9.990000,10.000000,10.000000,268800
2020-01-29,9.990000,10.000000,9.990000,10.000000,10.000000,392400
2020-01-30,9.990000,10.000000,9.990000,9.990000,9.990000,855000
2020-01-31,9.990000,9.990000,9.990000,9.990000,9.990000,0
