Date,Open,High,Low,Close,Adj Close,Volume
2014-09-25,28.500000,30.400000,26.799999,30.400000,20.926977,14251400
2014-09-26,29.709999,29.900000,29.120001,29.520000,20.321196,936400
2014-09-29,28.990000,29.250000,28.719999,28.719999,19.770481,417200
2014-09-30,28.750000,28.790001,27.990000,28.100000,19.343683,719800
2014-10-01,28.100000,29.400000,28.100000,28.940001,19.921932,300100
2014-10-02,28.709999,28.940001,27.500000,28.620001,19.701647,282800
2014-10-03,28.750000,28.750000,27.730000,28.000000,19.274845,87500
2014-10-06,27.990000,28.500000,27.799999,28.040001,19.302380,87900
2014-10-07,27.990000,28.370001,27.820000,28.100000,19.343683,165500
2014-10-08,27.920000,28.174000,27.750000,27.920000,19.219772,242600
2014-10-09,27.719999,28.080000,27.500000,27.620001,19.013262,126800
2014-10-10,27.500000,27.940001,26.520000,26.969999,18.565809,419600
2014-10-13,26.840000,26.840000,25.757999,26.110001,17.973795,325700
2014-10-14,26.100000,26.490000,25.500000,25.870001,17.808582,283700
2014-10-15,25.870001,26.000000,24.547001,25.930000,17.849888,215600
2014-10-16,25.500000,27.660000,25.000000,26.950001,18.552042,130700
2014-10-17,27.340000,27.480000,26.000000,27.030001,18.607111,108300
2014-10-20,26.879999,27.700001,26.000000,27.590000,18.992607,134500
2014-10-21,27.690001,29.230000,27.690001,28.660000,19.729185,122600
2014-10-22,28.840000,29.950001,28.393999,28.400000,19.550200,280700
2014-10-23,28.690001,29.240000,28.250000,28.540001,19.646572,208500
2014-10-24,28.740000,28.950001,28.020000,28.400000,19.550200,98000
2014-10-27,28.180000,28.750000,27.160000,28.370001,19.529554,154700
2014-10-28,28.660000,29.459999,28.049999,29.080000,20.018307,135100
2014-10-29,29.170000,29.270000,28.299999,29.260000,20.142216,116300
2014-10-30,28.700001,30.250000,28.459999,30.000000,20.651621,72000
2014-10-31,30.490000,30.500000,29.591999,30.260000,20.830606,155900
2014-11-03,30.160000,31.730000,29.990000,31.049999,21.374424,101000
2014-11-04,30.799999,31.028000,29.160000,29.860001,20.555246,111100
2014-11-05,29.670000,30.940001,29.500000,30.180000,20.775534,104900
2014-11-06,30.020000,30.400000,29.719999,30.400000,20.926977,42200
2014-11-07,30.450001,32.400002,29.760000,30.360001,20.899445,227300
2014-11-10,30.309999,31.670000,29.580000,29.639999,20.403801,49000
2014-11-11,29.600000,30.415001,29.600000,30.360001,20.899445,55100
2014-11-12,30.309999,30.639999,30.000000,30.500000,20.995815,32000
2014-11-13,30.930000,31.618000,30.510000,30.799999,21.202332,104400
2014-11-14,30.990000,31.299999,29.809999,29.830000,20.534594,31600
2014-11-17,29.969999,30.379999,29.730000,30.219999,20.803070,156600
2014-11-18,30.129999,30.500000,29.760000,29.969999,20.630970,68000
2014-11-19,29.870001,30.000000,28.500000,29.910000,20.589668,80600
2014-11-20,29.709999,29.940001,29.110001,29.940001,20.610317,55400
2014-11-21,29.990000,29.990000,29.000000,29.510000,20.314316,107900
2014-11-24,29.389999,29.580000,28.000000,28.379999,19.536430,191400
2014-11-25,28.379999,29.750000,27.559999,28.469999,19.598389,130200
2014-11-26,28.570000,28.740000,27.760000,28.110001,19.350571,44600
2014-11-28,28.389999,28.389999,26.110001,27.459999,18.903114,85000
2014-12-01,27.309999,27.459999,25.459999,26.500000,18.242268,388000
2014-12-02,26.590000,27.580000,26.000000,26.719999,18.393709,115900
2014-12-03,26.870001,28.980000,26.700001,28.000000,19.274845,148800
2014-12-04,27.980000,28.950001,26.500000,26.500000,18.242268,77200
2014-12-05,26.719999,27.181000,26.600000,26.910000,18.524508,103800
2014-12-08,26.660000,26.969999,24.750000,25.530001,17.574530,169100
2014-12-09,25.500000,26.190001,25.170000,25.559999,17.595184,281800
2014-12-10,25.559999,26.010000,23.080000,24.309999,16.734701,379000
2014-12-11,24.500000,26.900000,24.500000,25.219999,17.361130,199500
2014-12-12,25.076000,25.969999,24.360001,25.639999,17.650255,55000
2014-12-15,25.719999,26.500000,24.004999,25.840000,17.787930,86300
2014-12-16,25.500000,26.434000,24.100000,24.670000,16.982519,211200
2014-12-17,24.750000,25.650000,23.639999,24.750000,17.037592,191600
2014-12-18,25.010000,25.500000,24.000000,24.629999,16.954981,62300
2014-12-19,24.740000,24.740000,23.860001,23.910000,16.459341,82100
2014-12-22,23.850000,24.299999,22.200001,24.059999,16.562601,204500
2014-12-23,24.180000,24.190001,22.730000,23.969999,16.500647,134300
2014-12-24,23.879999,23.879999,23.350000,23.559999,16.218407,85100
2014-12-26,23.379999,23.379999,23.070000,23.230000,15.991239,136100
2014-12-29,23.180000,24.000000,22.500000,23.160000,15.943051,192400
2014-12-30,23.330000,25.020000,23.150000,24.430000,16.817301,82400
2014-12-31,24.340000,25.980000,23.879999,24.120001,16.603905,454600
2015-01-02,24.320000,25.889999,23.799999,25.410000,17.491926,44200
2015-01-05,25.340000,25.340000,23.150000,23.150000,15.936169,100900
2015-01-06,23.070000,23.420000,22.549999,22.690001,15.619509,149100
2015-01-07,22.430000,23.010000,21.580000,22.889999,15.757183,415900
2015-01-08,22.930000,23.309999,21.990000,22.309999,15.357922,56000
2015-01-09,22.250000,22.459999,21.715000,22.230000,15.302851,87700
2015-01-12,22.000000,22.139000,21.155001,21.370001,14.710841,87400
2015-01-13,21.360001,22.120001,20.440001,21.000000,14.456135,131700
2015-01-14,20.510000,20.875000,19.219999,20.330000,13.994918,250900
2015-01-15,20.490000,21.080000,19.525000,20.049999,13.802167,380800
2015-01-16,19.840000,20.400000,19.780001,19.980000,13.753978,105600
2015-01-20,19.830000,20.270000,19.059999,19.340000,13.313411,176700
2015-01-21,19.240000,20.570000,18.900000,19.690001,13.554348,342500
2015-01-22,19.750000,20.396000,19.459999,20.010000,13.774632,83500
2015-01-23,19.950001,20.430000,19.610001,20.230000,13.926079,148200
2015-01-26,20.150000,21.700001,19.379999,19.969999,13.747100,137400
2015-01-27,19.790001,21.799999,19.790001,21.230000,14.614467,113700
2015-01-28,21.000000,21.690001,20.580000,20.680000,14.235849,57800
2015-01-29,20.750000,21.350000,20.200001,20.610001,14.187666,60600
2015-01-30,20.530001,21.280001,20.059999,20.870001,14.366649,45400
2015-02-02,20.600000,21.570000,20.200001,21.260000,14.787312,91700
2015-02-03,21.200001,21.889999,21.100000,21.500000,14.954241,83500
2015-02-04,21.400000,21.990000,20.719999,20.799999,14.467359,64100
2015-02-05,20.840000,21.219999,20.320000,20.510000,14.265656,76400
2015-02-06,20.580000,21.920000,20.549999,21.770000,15.142039,106400
2015-02-09,21.530001,22.500000,21.063999,22.320000,15.524590,98200
2015-02-10,22.360001,22.639999,21.700001,22.549999,15.684564,37600
2015-02-11,22.639999,22.639999,21.900000,21.900000,15.232466,27000
2015-02-12,21.950001,22.299999,21.549999,21.860001,15.204639,29600
2015-02-13,21.790001,23.000000,21.790001,22.910000,15.934959,53400
2015-02-17,23.090000,24.100000,22.780001,24.040001,16.720930,37200
2015-02-18,24.209999,24.340000,23.620001,24.059999,16.734838,137500
2015-02-19,24.049999,24.120001,23.500000,23.850000,16.588776,65000
2015-02-20,23.930000,24.270000,23.620001,24.049999,16.727888,41000
2015-02-23,23.690001,25.480000,23.580000,24.040001,16.720930,80200
2015-02-24,24.209999,24.209999,23.500000,24.010000,16.700066,38500
2015-02-25,23.959999,24.139999,23.209999,23.209999,16.143627,57100
2015-02-26,26.020000,26.020000,22.549999,22.910000,15.934959,63800
2015-02-27,22.500000,22.726000,21.250000,21.870001,15.211594,360700
2015-03-02,21.530001,22.049999,21.000000,21.940001,15.260283,102000
2015-03-03,21.760000,22.240000,21.340000,21.600000,15.023798,131800
2015-03-04,21.610001,22.219999,21.110001,21.750000,15.128127,111300
2015-03-05,21.709999,22.100000,21.299999,21.580000,15.009887,61200
2015-03-06,21.950001,22.100000,20.049000,20.340000,14.147407,121400
2015-03-09,20.510000,20.510000,19.799999,20.180000,14.036121,179700
2015-03-10,20.020000,20.160000,19.270000,19.580000,13.618794,52600
2015-03-11,19.480000,20.120001,19.480000,19.850000,13.806590,59000
2015-03-12,19.955999,19.955999,19.010000,19.049999,13.250154,80400
2015-03-13,19.059999,19.177999,18.360001,18.820000,13.090177,96800
2015-03-16,18.730000,19.174999,17.870001,17.920000,12.464187,115800
2015-03-17,17.830000,18.000000,17.250000,17.950001,12.485054,99900
2015-03-18,17.719999,18.670000,17.719999,18.309999,12.735449,134800
2015-03-19,18.309999,19.100000,18.299999,18.350000,12.763270,30600
2015-03-20,18.379999,18.709999,18.320000,18.500000,12.867604,22700
2015-03-23,18.469999,18.840000,18.290001,18.670000,12.985845,37800
2015-03-24,18.750000,19.115000,18.559999,18.850000,13.111047,16000
2015-03-25,18.940001,19.080000,18.315001,18.559999,12.909338,57000
2015-03-26,18.530001,18.639999,17.709999,17.969999,12.498963,27700
2015-03-27,17.750000,18.340000,17.600000,18.230000,12.679806,47100
2015-03-30,18.360001,18.570000,17.299999,17.469999,12.151192,50600
2015-03-31,17.379999,17.719999,17.250000,17.410000,12.109458,39200
2015-04-01,17.379999,18.290001,17.330000,18.270000,12.707624,19100
2015-04-02,18.020000,18.320000,17.370001,18.160000,12.631119,42700
2015-04-06,18.219999,18.790001,18.219999,18.440001,12.825871,24200
2015-04-07,18.469999,18.889999,18.280001,18.320000,12.742404,56100
2015-04-08,18.400000,18.750000,18.129999,18.129999,12.610249,11100
2015-04-09,18.110001,18.350000,17.559999,17.750000,12.345943,36700
2015-04-10,17.809999,18.000000,17.549999,17.549999,12.206834,16900
2015-04-13,17.680000,17.850000,17.260000,17.280001,12.019039,84800
2015-04-14,17.250000,17.750000,17.250000,17.520000,12.185969,639800
2015-04-15,17.610001,17.799999,17.299999,17.389999,12.095546,165400
2015-04-16,17.410000,17.709999,17.330000,17.540001,12.199881,74700
2015-04-17,17.330000,17.540001,17.330000,17.360001,12.074682,51400
2015-04-20,17.420000,17.680000,17.420000,17.540001,12.199881,33700
2015-04-21,17.530001,17.580000,17.150000,17.150000,11.928616,58500
2015-04-22,17.250000,17.565001,17.100000,17.280001,12.019039,78000
2015-04-23,17.139999,17.483999,17.110001,17.200001,11.963394,80200
2015-04-24,17.150000,17.400000,17.150000,17.160000,11.935570,42100
2015-04-27,17.200001,17.670000,17.049999,17.129999,11.914704,341300
2015-04-28,17.230000,17.254999,17.080000,17.120001,11.907752,206300
2015-04-29,17.120001,17.340000,17.100000,17.280001,12.019039,172300
2015-04-30,17.340000,18.150000,17.160000,18.049999,12.554605,157000
2015-05-01,17.959999,18.570000,17.860001,18.370001,12.929399,170800
2015-05-04,18.370001,18.969999,18.120001,18.820000,13.246123,75600
2015-05-05,18.358000,18.510000,18.090000,18.150000,12.774555,202100
2015-05-06,18.170000,18.677999,17.799999,18.000000,12.668981,108200
2015-05-07,18.090000,18.090000,17.650000,17.950001,12.633792,793700
2015-05-08,18.000000,18.030001,17.650000,17.750000,12.493024,77900
2015-05-11,17.760000,18.610001,17.760000,18.049999,12.704172,334200
2015-05-12,18.049999,18.809999,17.969999,18.549999,13.056088,507800
2015-05-13,19.000000,20.590000,18.750000,19.850000,13.971071,568500
2015-05-14,20.020000,20.959999,19.850000,20.490000,14.421524,392400
2015-05-15,20.400000,20.559999,20.240000,20.400000,14.358177,162500
2015-05-18,20.860001,20.990000,20.410000,20.450001,14.393372,198900
2015-05-19,20.389999,20.620001,20.389999,20.410000,14.365217,132100
2015-05-20,20.559999,20.590000,20.400000,20.410000,14.365217,42100
2015-05-21,20.480000,20.780001,20.420000,20.590000,14.491907,115800
2015-05-22,20.820000,20.900000,20.444000,20.500000,14.428560,80700
2015-05-26,20.629999,20.809999,20.110001,20.170000,14.196295,158600
2015-05-27,20.129999,20.240000,19.610001,19.750000,13.900689,112800
2015-05-28,19.610001,20.070000,19.610001,19.680000,13.851416,114700
2015-05-29,19.750000,19.858999,19.379999,19.510000,13.731768,64400
2015-06-01,19.620001,20.010000,19.510000,19.590000,13.788076,68900
2015-06-02,19.500000,20.219999,19.500000,20.219999,14.231486,321100
2015-06-03,20.059999,20.215000,19.451000,19.790001,13.928843,89500
2015-06-04,19.900000,20.139999,19.798000,20.040001,14.104799,236700
2015-06-05,20.040001,20.190001,19.600000,19.680000,13.851416,96600
2015-06-08,19.750000,19.990000,19.350000,19.350000,13.619152,70300
2015-06-09,19.420000,19.730000,19.000000,19.219999,13.527657,72500
2015-06-10,19.219999,19.990000,19.100000,19.520000,13.738808,174200
2015-06-11,19.500000,19.754999,19.150000,19.260000,13.555811,93700
2015-06-12,19.309999,19.510000,18.850000,18.870001,13.281317,121700
2015-06-15,18.860001,19.010000,18.620001,18.840000,13.260201,109800
2015-06-16,18.980000,18.980000,18.709999,18.889999,13.295392,105800
2015-06-17,19.115000,19.231001,18.809999,18.969999,13.351695,84100
2015-06-18,19.260000,19.260000,18.730000,19.209999,13.520618,47900
2015-06-19,19.230000,19.230000,18.879999,18.910000,13.309466,35200
2015-06-22,18.920000,18.920000,18.510000,18.549999,13.056088,46800
2015-06-23,18.660000,19.010000,18.620001,18.690001,13.154627,22700
2015-06-24,18.799999,18.930000,18.250000,18.400000,12.950514,67800
2015-06-25,18.440001,18.770000,18.340000,18.350000,12.915326,38300
2015-06-26,18.316000,18.540001,17.719999,17.969999,12.647869,79800
2015-06-29,18.059999,18.320000,17.750000,17.889999,12.591558,74000
2015-06-30,17.900000,18.340000,17.610001,17.700001,12.457830,162200
2015-07-01,17.750000,18.145000,17.190001,17.360001,12.218530,55300
2015-07-02,17.500000,17.610001,17.170000,17.430000,12.267798,44000
2015-07-06,17.350000,17.580000,17.240000,17.520000,12.331141,40000
2015-07-07,17.930000,17.980000,17.180000,17.500000,12.317063,96900
2015-07-08,17.469999,17.750000,17.330000,17.510000,12.324102,65800
2015-07-09,17.830000,17.980000,17.200001,17.420000,12.260758,140000
2015-07-10,17.559999,17.840000,17.395000,17.680000,12.443755,77600
2015-07-13,17.870001,17.940001,17.280001,17.530001,12.338181,62300
2015-07-14,17.610001,17.820000,17.510000,17.520000,12.331141,101400
2015-07-15,17.590000,17.670000,17.240000,17.559999,12.359294,46500
2015-07-16,17.559999,17.570000,17.150000,17.200001,12.105915,51700
2015-07-17,17.440001,17.450001,17.059999,17.139999,12.063685,160000
2015-07-20,17.150000,17.180000,15.840000,16.440001,11.571004,80500
2015-07-21,16.290001,16.670000,15.780000,15.780000,11.106472,100500
2015-07-22,15.710000,15.860000,14.950000,15.180000,10.684174,299500
2015-07-23,15.180000,15.350000,14.360000,14.490000,10.198531,248200
2015-07-24,14.560000,14.880000,14.250000,14.730000,10.367449,54400
2015-07-27,14.660000,15.405000,14.530000,15.405000,10.842535,35700
2015-07-28,15.420000,15.440000,14.500000,15.200000,10.698253,60100
2015-07-29,15.310000,15.810000,15.064000,15.680000,11.036091,55800
2015-07-30,15.660000,16.195000,15.240000,16.170000,11.380967,69000
2015-07-31,16.309999,16.309999,15.800000,15.990000,11.254278,48500
2015-08-03,15.820000,15.820000,15.250000,15.500000,11.061592,76900
2015-08-04,15.500000,15.750000,14.690000,14.990000,10.697632,61900
2015-08-05,14.770000,15.240000,13.500000,13.590000,9.698518,79200
2015-08-06,13.540000,14.300000,13.050000,14.190000,10.126709,133500
2015-08-07,14.190000,14.190000,13.690000,13.840000,9.876932,74900
2015-08-10,13.790000,13.890000,13.000000,13.460000,9.605745,311500
2015-08-11,13.010000,13.620000,12.950000,13.600000,9.705656,119100
2015-08-12,13.620000,14.100000,13.230000,13.980000,9.976843,123500
2015-08-13,13.890000,14.300000,13.170000,13.515000,9.644996,43400
2015-08-14,13.610000,13.650000,12.890000,12.980000,9.263193,89600
2015-08-17,13.050000,13.250000,12.750000,13.000000,9.277465,103800
2015-08-18,13.000000,13.000000,12.810000,12.860000,9.177555,64600
2015-08-19,12.930000,12.970000,12.390000,12.500000,8.920637,102600
2015-08-20,12.680000,12.680000,11.900000,12.100000,8.635180,123000
2015-08-21,12.180000,12.180000,11.480000,11.680000,8.335444,131200
2015-08-24,11.380000,11.500000,11.200000,11.490000,8.199852,151200
2015-08-25,11.700000,11.700000,11.350000,11.440000,8.164168,315400
2015-08-26,11.490000,11.620000,11.160000,11.370000,8.114213,102500
2015-08-27,11.610000,11.940000,11.350000,11.400000,8.135625,177000
2015-08-28,11.400000,11.840000,11.270000,11.330000,8.085667,148100
2015-08-31,11.340000,11.690000,11.250000,11.430000,8.157031,117500
2015-09-01,11.400000,11.600000,11.260000,11.260000,8.035713,98000
2015-09-02,11.370000,11.600000,11.150000,11.520000,8.221261,84900
2015-09-03,11.680000,12.090000,11.520000,11.520000,8.221261,109900
2015-09-04,11.310000,11.890000,11.310000,11.660000,8.321173,139300
2015-09-08,11.860000,11.970000,11.360000,11.650000,8.314034,202200
2015-09-09,11.710000,11.850000,11.270000,11.410000,8.142757,184100
2015-09-10,11.550000,11.550000,11.250000,11.460000,8.178441,267500
2015-09-11,11.340000,11.430000,11.250000,11.390000,8.128487,214700
2015-09-14,11.360000,11.360000,10.750000,10.960000,7.821616,195200
2015-09-15,11.000000,11.070000,10.640000,10.750000,7.671749,188000
2015-09-16,10.860000,10.950000,10.540000,10.800000,7.707433,216200
2015-09-17,10.820000,11.140000,10.710000,11.140000,7.950074,103000
2015-09-18,11.080000,11.250000,10.910000,11.150000,7.957211,187800
2015-09-21,11.390000,11.390000,10.980000,11.070000,7.900117,127100
2015-09-22,11.060000,11.290000,10.880000,11.150000,7.957211,94300
2015-09-23,11.120000,11.160000,10.660000,10.830000,7.728841,98700
2015-09-24,10.750000,10.840000,10.010000,10.300000,7.350606,256600
2015-09-25,10.270000,10.400000,10.060000,10.310000,7.357743,111000
2015-09-28,10.290000,10.310000,9.660000,9.770000,6.972372,84700
2015-09-29,9.810000,9.850000,9.020000,9.100000,6.494225,163000
2015-09-30,9.210000,9.930000,9.210000,9.930000,7.086555,202800
2015-10-01,9.920000,10.170000,9.750000,10.150000,7.243558,61100
2015-10-02,10.040000,10.450000,9.650000,10.400000,7.421973,136700
2015-10-05,10.560000,10.680000,10.340000,10.530000,7.514747,136700
2015-10-06,10.500000,10.640000,10.230000,10.450000,7.457654,178500
2015-10-07,10.590000,11.330000,10.590000,11.160000,7.964347,155400
2015-10-08,10.940000,11.240000,10.630000,11.000000,7.850162,92400
2015-10-09,10.900000,10.945000,10.700000,10.870000,7.757387,41900
2015-10-12,10.760000,10.780000,10.500000,10.710000,7.643203,85700
2015-10-13,10.590000,10.680000,10.250000,10.430000,7.443381,146000
2015-10-14,10.480000,10.480000,9.900000,10.030000,7.157921,110300
2015-10-15,9.970000,10.840000,9.970000,10.460000,7.464789,157800
2015-10-16,10.480000,10.540000,10.040000,10.280000,7.336333,112200
2015-10-19,10.230000,10.620000,10.020000,10.240000,7.307787,128900
2015-10-20,10.270000,10.400000,10.090000,10.170000,7.257831,144700
2015-10-21,10.150000,10.320000,9.900000,10.060000,7.179329,97900
2015-10-22,10.160000,10.160000,9.540000,9.580000,6.836777,178800
2015-10-23,9.780000,9.820000,9.220000,9.460000,6.751139,137700
2015-10-26,9.360000,9.360000,8.920000,9.080000,6.479953,189200
2015-10-27,9.050000,9.050000,8.580000,8.840000,6.308677,371200
2015-10-28,8.960000,9.085000,8.750000,8.900000,6.351496,155200
2015-10-29,8.900000,9.100000,8.850000,8.920000,6.365768,107200
2015-10-30,9.370000,10.200000,9.110000,9.930000,7.086555,249200
2015-11-02,9.990000,10.400000,9.870000,10.090000,7.200741,127900
2015-11-03,10.940000,13.280000,10.650000,12.800000,9.134734,807300
2015-11-04,12.850000,14.280000,12.840000,14.020000,10.005390,414800
2015-11-05,13.850000,13.890000,12.880000,12.980000,9.416325,169200
2015-11-06,12.750000,12.960000,12.321000,12.750000,9.249472,83500
2015-11-09,12.920000,12.920000,12.570000,12.860000,9.329270,109400
2015-11-10,12.780000,13.680000,12.540000,13.580000,9.851595,246400
2015-11-11,13.630000,13.680000,12.280000,12.530000,9.089874,201500
2015-11-12,12.370000,12.560000,11.790000,11.950000,8.669110,84900
2015-11-13,12.070000,12.210000,11.670000,11.920000,8.647348,46200
2015-11-16,11.960000,12.560000,11.890000,12.410000,9.002817,41300
2015-11-17,12.460000,12.460000,11.590000,12.260000,8.894001,129200
2015-11-18,12.350000,12.450000,11.790000,12.010000,8.712639,27400
2015-11-19,11.840000,11.990000,11.680000,11.820000,8.574804,36600
2015-11-20,11.850000,12.400000,11.600000,11.820000,8.574804,98700
2015-11-23,11.740000,11.880000,11.570000,11.830000,8.582059,59500
2015-11-24,11.780000,11.950000,11.520000,11.570000,8.393440,68300
2015-11-25,11.500000,11.560000,11.430000,11.500000,8.342660,112600
2015-11-27,11.500000,11.570000,11.370000,11.450000,8.306388,13800
2015-11-30,11.370000,11.380000,11.100000,11.290000,8.190315,73200
2015-12-01,11.250000,11.310000,11.100000,11.180000,8.110517,50800
2015-12-02,11.240000,11.270000,10.910000,11.040000,8.008955,115100
2015-12-03,11.070000,11.340000,10.860000,11.020000,7.994445,203500
2015-12-04,10.950000,10.960000,10.400000,10.530000,7.638975,99700
2015-12-07,10.500000,10.500000,9.650000,10.000000,7.254488,335400
2015-12-08,9.950000,10.290000,9.887000,10.070000,7.305270,116700
2015-12-09,10.220000,11.126000,10.050000,10.530000,7.638975,315200
2015-12-10,10.570000,10.930000,10.390000,10.450000,7.580939,242700
2015-12-11,10.400000,10.430000,9.850000,9.990000,7.247234,95700
2015-12-14,9.930000,10.310000,9.472000,10.190000,7.392323,191500
2015-12-15,10.390000,10.460000,9.670000,9.780000,7.094888,118000
2015-12-16,9.910000,9.910000,9.510000,9.700000,7.036852,210800
2015-12-17,9.830000,9.890000,9.320000,9.350000,6.782947,189300
2015-12-18,9.430000,9.540000,9.280000,9.320000,6.761181,134400
2015-12-21,9.320000,9.500000,9.170000,9.400000,6.819219,258400
2015-12-22,9.500000,9.880000,9.420000,9.670000,7.015088,457100
2015-12-23,9.880000,10.140000,9.710000,9.970000,7.232724,578900
2015-12-24,10.020000,10.150000,9.710000,9.960000,7.225469,125300
2015-12-28,9.970000,9.970000,9.520000,9.760000,7.080381,215600
2015-12-29,9.840000,9.910000,9.530000,9.890000,7.174688,336600
2015-12-30,9.790000,9.920000,9.500000,9.720000,7.051361,206300
2015-12-31,9.760000,9.900000,9.580000,9.850000,7.145669,198100
2016-01-04,9.930000,10.955000,9.830000,10.750000,7.798575,426900
2016-01-05,10.900000,10.950000,10.410000,10.450000,7.580939,284100
2016-01-06,10.420000,10.428000,10.100000,10.240000,7.428594,220800
2016-01-07,10.080000,10.690000,10.010000,10.150000,7.363304,357400
2016-01-08,10.210000,10.800000,10.090000,10.760000,7.805829,210600
2016-01-11,10.850000,10.850000,10.100000,10.380000,7.530157,137500
2016-01-12,10.420000,10.552000,9.930000,10.150000,7.363304,211900
2016-01-13,10.230000,10.380000,9.510000,9.610000,6.971562,189800
2016-01-14,9.600000,9.730000,9.100000,9.700000,7.036852,405100
2016-01-15,9.150000,9.670000,9.080000,9.660000,7.007834,182300
2016-01-19,9.880000,9.880000,9.020000,9.280000,6.732164,399900
2016-01-20,9.200000,9.200000,8.700000,8.820000,6.398458,451300
2016-01-21,8.920000,9.350000,8.800000,9.140000,6.630601,276000
2016-01-22,9.290000,10.030000,9.210000,9.970000,7.232724,234400
2016-01-25,9.800000,9.900000,9.140000,9.220000,6.688637,125100
2016-01-26,9.420000,9.780000,9.250000,9.500000,6.891763,182800
2016-01-27,9.520000,9.729000,9.200000,9.300000,6.746673,121100
2016-01-28,9.470000,9.860000,9.260000,9.530000,6.913526,489100
2016-01-29,9.640000,9.960000,9.480000,9.870000,7.160177,353900
2016-02-01,9.870000,9.880000,9.300000,9.600000,6.964308,254500
2016-02-02,9.280000,9.290000,9.010000,9.200000,6.842482,168400
2016-02-03,9.220000,9.310000,8.870000,9.040000,6.723482,343200
2016-02-04,9.180000,9.310000,9.000000,9.020000,6.708607,92600
2016-02-05,9.000000,9.060000,8.860000,8.900000,6.619358,92600
2016-02-08,8.760000,8.850000,8.390000,8.530000,6.344170,306600
2016-02-09,8.410000,8.480000,7.770000,8.130000,6.046670,411600
2016-02-10,8.010000,8.084000,7.800000,7.900000,5.875609,136300
2016-02-11,7.790000,7.790000,7.550000,7.750000,5.764046,348500
2016-02-12,7.840000,7.990000,7.800000,7.950000,5.912796,104000
2016-02-16,8.060000,8.300000,7.910000,8.290000,6.165671,253100
2016-02-17,8.200000,9.280000,8.200000,9.230000,6.864793,381000
2016-02-18,9.460000,10.375000,9.130000,10.280000,7.645730,685700
2016-02-19,10.070000,10.170000,9.720000,9.900000,7.363104,301600
2016-02-22,10.100000,10.470000,9.907000,10.310000,7.668043,129600
2016-02-23,10.400000,10.400000,9.880000,10.050000,7.474668,101600
2016-02-24,9.630000,10.370000,9.610000,10.220000,7.601105,188800
2016-02-25,10.100000,10.530000,9.820000,10.440000,7.764729,188100
2016-02-26,10.670000,11.490000,10.380000,11.040000,8.210979,239000
2016-02-29,11.120000,11.690000,10.550000,10.740000,7.987853,593800
2016-03-01,11.000000,11.280000,10.860000,11.050000,8.218415,341100
2016-03-02,11.080000,11.260000,10.887000,11.090000,8.248164,283000
2016-03-03,11.030000,11.480000,10.870000,11.390000,8.471289,402100
2016-03-04,11.360000,11.369000,11.070000,11.160000,8.300227,145200
2016-03-07,11.180000,12.120000,11.180000,12.000000,8.924976,379100
2016-03-08,11.980000,12.110000,11.370000,11.460000,8.523351,129100
2016-03-09,11.570000,11.815000,11.370000,11.440000,8.508476,96800
2016-03-10,11.410000,11.610000,11.240000,11.600000,8.627477,276700
2016-03-11,11.740000,12.000000,11.300000,11.440000,8.508476,200100
2016-03-14,11.290000,11.580000,11.161000,11.310000,8.411790,378400
2016-03-15,11.310000,11.460000,10.950000,10.990000,8.173790,191900
2016-03-16,11.120000,11.805000,11.120000,11.730000,8.724164,331900
2016-03-17,11.750000,11.965000,11.590000,11.930000,8.872914,238300
2016-03-18,11.930000,12.070000,11.560000,11.720000,8.716728,107000
2016-03-21,11.700000,11.700000,11.130000,11.300000,8.404353,158000
2016-03-22,11.220000,11.790000,11.110000,11.610000,8.634914,145800
2016-03-23,11.590000,11.650000,11.450000,11.560000,8.597729,96900
2016-03-24,11.390000,11.650000,11.000000,11.600000,8.627477,142200
2016-03-28,11.720000,11.794000,11.470000,11.710000,8.709290,42800
2016-03-29,11.710000,12.270000,11.570000,12.230000,9.096039,40700
2016-03-30,12.410000,12.730000,12.230000,12.620000,9.386099,195500
2016-03-31,12.680000,12.990000,12.500000,12.510000,9.304288,106000
2016-04-01,12.490000,12.730000,12.190000,12.470000,9.274538,131600
2016-04-04,12.600000,12.900000,12.470000,12.680000,9.430725,55600
2016-04-05,12.580000,12.780000,12.354000,12.490000,9.289412,118400
2016-04-06,12.520000,13.230000,12.455000,13.150000,9.780285,197800
2016-04-07,13.030000,13.465000,12.890000,13.390000,9.958788,104000
2016-04-08,13.570000,13.660000,13.100000,13.200000,9.817472,27100
2016-04-11,13.300000,13.480000,12.380000,12.760000,9.490224,126100
2016-04-12,12.780000,13.490000,12.619000,13.360000,9.936472,119900
2016-04-13,13.330000,13.690000,13.180000,13.400000,9.966223,218300
2016-04-14,13.430000,13.430000,13.000000,13.000000,9.668723,127700
2016-04-15,13.000000,13.450000,13.000000,13.080000,9.728224,189200
2016-04-18,13.030000,14.250000,13.000000,13.750000,10.226535,168900
2016-04-19,13.980000,14.120000,13.580000,13.950000,10.375283,170100
2016-04-20,14.040000,14.180000,13.660000,13.990000,10.405035,191400
2016-04-21,14.180000,14.250000,13.820000,13.930000,10.360410,222700
2016-04-22,14.050000,14.300000,13.780000,14.250000,10.598410,175800
2016-04-25,14.300000,14.300000,13.350000,14.010000,10.419909,260800
2016-04-26,14.220000,14.230000,13.890000,14.070000,10.464534,153300
2016-04-27,14.030000,14.210000,13.800000,13.880000,10.323223,72500
2016-04-28,13.940000,14.250000,13.750000,14.130000,10.509158,119000
2016-04-29,14.180000,14.250000,13.800000,14.160000,10.531471,70500
2016-05-02,13.950000,14.280000,13.745000,14.220000,10.762309,117700
2016-05-03,14.040000,14.045000,13.710000,13.770000,10.421730,59500
2016-05-04,13.840000,14.000000,13.600000,13.990000,10.588235,97400
2016-05-05,14.250000,15.650000,14.250000,15.200000,11.504015,191500
2016-05-06,15.950000,15.990000,14.980000,15.140000,11.458605,118300
2016-05-09,15.180000,15.600000,14.670000,15.490000,11.723497,89100
2016-05-10,15.490000,15.910000,15.352000,15.670000,11.859732,200900
2016-05-11,15.680000,16.309999,15.310000,15.390000,11.647815,160700
2016-05-12,15.620000,15.750000,15.151000,15.420000,11.670521,167300
2016-05-13,15.480000,15.800000,15.100000,15.140000,11.458605,243200
2016-05-16,15.540000,15.680000,15.160000,15.290000,11.572131,143600
2016-05-17,15.460000,15.660000,15.200000,15.370000,11.632679,120000
2016-05-18,15.400000,15.430000,14.860000,15.000000,11.352648,65200
2016-05-19,15.000000,15.300000,14.600000,14.960000,11.322373,111300
2016-05-20,15.010000,15.400000,14.750000,15.280000,11.564563,39800
2016-05-23,15.150000,15.450000,14.960000,15.330000,11.602406,86700
2016-05-24,15.530000,15.850000,15.290000,15.770000,11.935414,83600
2016-05-25,15.960000,16.250000,15.330000,15.650000,11.844595,156300
2016-05-26,15.760000,15.950000,15.250000,15.510000,11.738636,185000
2016-05-27,15.520000,15.706000,15.380000,15.500000,11.731067,56500
2016-05-31,15.560000,16.040001,15.400000,15.500000,11.731067,190000
2016-06-01,15.500000,16.200001,15.500000,15.920000,12.048944,75300
2016-06-02,15.880000,16.250000,15.550000,15.920000,12.048944,58600
2016-06-03,15.920000,15.967000,15.310000,15.770000,11.935414,126100
2016-06-06,15.900000,16.360001,15.770000,16.360001,12.381954,209400
2016-06-07,16.650000,17.240000,16.559999,16.980000,12.851196,131700
2016-06-08,17.150000,17.400000,17.000000,17.240000,13.047977,146200
2016-06-09,17.219999,17.775000,16.900000,17.700001,13.396124,152900
2016-06-10,17.440001,17.580000,17.230000,17.559999,13.290162,111200
2016-06-13,17.480000,17.690001,16.790001,17.240000,13.047977,148700
2016-06-14,16.980000,17.454000,16.629999,17.000000,12.866332,139200
2016-06-15,16.879999,17.629999,16.862000,17.379999,13.153933,121500
2016-06-16,17.150000,17.209999,16.870001,16.990000,12.858766,82700
2016-06-17,17.100000,17.240999,16.860001,17.150000,12.979860,88100
2016-06-20,17.450001,17.650000,17.205000,17.350000,13.131229,107400
2016-06-21,17.520000,17.520000,17.219999,17.450001,13.206913,108800
2016-06-22,17.650000,17.780001,17.500000,17.750000,13.433964,51100
2016-06-23,17.780001,18.430000,17.520000,17.730000,13.418828,217100
2016-06-24,17.070000,18.160000,16.830000,17.309999,13.100952,225000
2016-06-27,17.270000,17.549999,16.080000,16.590000,12.556026,322000
2016-06-28,16.690001,17.549999,16.690001,17.190001,13.010135,295500
2016-06-29,17.500000,18.190001,17.299999,17.500000,13.244755,67100
2016-06-30,17.420000,17.580999,17.000000,17.340000,13.123657,115300
2016-07-01,17.290001,17.379999,16.620001,17.080000,12.926881,79200
2016-07-05,16.920000,17.020000,16.612000,16.760000,12.684691,77600
2016-07-06,16.650000,16.889999,16.240000,16.480000,12.472772,135800
2016-07-07,16.389999,17.170000,16.180000,16.190001,12.253289,125000
2016-07-08,16.260000,16.770000,16.240000,16.580000,12.548458,80500
2016-07-11,16.760000,17.580000,16.580000,16.740000,12.669554,168000
2016-07-12,17.059999,17.590000,16.740000,17.139999,12.972290,144700
2016-07-13,17.490000,17.719999,17.000000,17.090000,12.934449,112400
2016-07-14,17.219999,17.570000,17.059999,17.389999,13.161501,67200
2016-07-15,17.549999,17.549999,16.750000,16.820000,12.730102,68700
2016-07-18,16.900000,17.110001,16.820000,16.889999,12.783081,67400
2016-07-19,16.830000,17.049999,16.605000,17.000000,12.866332,70900
2016-07-20,16.889999,17.750000,16.745001,17.639999,13.350713,83800
2016-07-21,17.549999,17.639999,17.131001,17.320000,13.108523,61600
2016-07-22,17.430000,17.709999,17.260000,17.379999,13.153933,54000
2016-07-25,17.389999,17.570000,17.030001,17.209999,13.025270,72200
2016-07-26,17.120001,17.690001,17.120001,17.549999,13.282596,131600
2016-07-27,17.559999,17.889999,17.510000,17.670000,13.373416,80600
2016-07-28,17.580000,17.884001,17.110001,17.530001,13.267459,40300
2016-07-29,17.469999,17.700001,17.235001,17.500000,13.244755,36000
2016-08-01,17.600000,17.610001,16.756001,16.969999,12.843627,105900
2016-08-02,16.750000,16.948999,16.110001,16.299999,12.523995,125800
2016-08-03,16.209999,17.309999,16.030001,17.020000,13.077204,128000
2016-08-04,17.129999,17.389000,16.510000,16.830000,12.931219,182100
2016-08-05,16.879999,17.120001,16.719999,17.080000,13.123303,50400
2016-08-08,17.250000,17.440001,17.000000,17.180000,13.200138,102200
2016-08-09,17.240000,17.379999,17.030001,17.129999,13.161719,47300
2016-08-10,17.150000,17.340000,17.000000,17.040001,13.092571,36200
2016-08-11,17.160000,17.290001,17.070000,17.209999,13.223188,32000
2016-08-12,17.299999,17.520000,17.160000,17.450001,13.407592,37700
2016-08-15,17.540001,18.209999,17.540001,18.010000,13.837862,110000
2016-08-16,18.020000,18.299999,17.978001,18.180000,13.968482,76300
2016-08-17,18.309999,18.350000,18.100000,18.219999,13.999214,27200
2016-08-18,18.299999,18.620001,18.000000,18.030001,13.853230,66900
2016-08-19,18.200001,18.379999,17.629999,18.219999,13.999214,49200
2016-08-22,18.219999,18.219999,17.660000,17.990000,13.822495,44200
2016-08-23,17.920000,18.080000,17.700001,17.780001,13.661143,33800
2016-08-24,17.709999,17.969999,17.389999,17.809999,13.684196,107100
2016-08-25,17.690001,18.430000,17.520000,18.370001,14.114468,89200
2016-08-26,18.400000,19.365000,18.400000,18.980000,14.583158,114800
2016-08-29,18.610001,19.145000,18.610001,18.680000,14.352655,144400
2016-08-30,18.879999,19.290001,18.410000,18.500000,14.214353,217500
2016-08-31,18.500000,18.599001,18.049999,18.250000,14.022265,82000
2016-09-01,18.700001,18.860001,18.309999,18.450001,14.175934,95200
2016-09-02,18.830000,19.000000,18.608999,18.920000,14.537056,105300
2016-09-06,19.139999,19.590000,19.000000,19.400000,14.905860,184900
2016-09-07,19.600000,19.836000,19.420000,19.450001,14.944279,101600
2016-09-08,19.500000,19.860001,19.500000,19.660000,15.105629,117800
2016-09-09,19.590000,19.590000,18.820000,19.250000,14.790608,228300
2016-09-12,19.180000,19.250000,18.819000,18.959999,14.567789,52300
2016-09-13,18.500000,18.511999,17.750000,18.090000,13.899330,229600
2016-09-14,18.090000,18.469999,18.000000,18.230000,14.006898,47700
2016-09-15,18.459999,18.459999,17.799999,18.100000,13.907013,76000
2016-09-16,18.100000,18.250000,17.860001,18.000000,13.830178,70800
2016-09-19,18.200001,18.214001,17.930000,18.030001,13.853230,31700
2016-09-20,18.040001,18.169001,17.820000,17.920000,13.768712,53400
2016-09-21,18.010000,18.500000,17.969999,18.430000,14.160567,70400
2016-09-22,18.719999,18.719999,18.000000,18.020000,13.845549,171100
2016-09-23,18.120001,18.246000,18.020000,18.170000,13.960798,75900
2016-09-26,18.120001,18.372000,17.806999,18.000000,13.830178,113100
2016-09-27,17.969999,18.101000,17.620001,17.850000,13.714928,142000
2016-09-28,18.020000,18.653000,17.889999,18.290001,14.052999,143000
2016-09-29,18.420000,18.610001,17.889999,17.990000,13.822495,122300
2016-09-30,18.209999,18.209999,17.870001,18.100000,13.907013,212200
2016-10-03,18.020000,18.360001,17.889999,18.290001,14.052999,71700
2016-10-04,18.260000,18.379999,18.040001,18.299999,14.060683,64400
2016-10-05,18.600000,19.431000,18.440001,19.250000,14.790608,206300
2016-10-06,19.490000,19.760000,19.260000,19.510000,14.990377,173800
2016-10-07,19.639999,19.740000,19.260000,19.440001,14.936593,110400
2016-10-10,19.510000,19.739000,19.250000,19.299999,14.829022,132400
2016-10-11,19.400000,19.410000,19.110001,19.270000,14.805978,115500
2016-10-12,19.230000,19.410000,18.860001,19.370001,14.882812,54600
2016-10-13,19.230000,20.100000,19.200001,20.100000,15.443703,78600
2016-10-14,20.129999,20.299999,19.730000,20.090000,15.436018,133200
2016-10-17,20.090000,20.280001,19.930000,20.280001,15.582003,98500
2016-10-18,20.299999,20.350000,19.910000,19.980000,15.351498,56600
2016-10-19,20.180000,20.209999,19.559999,19.910000,15.297717,115200
2016-10-20,19.980000,20.049999,19.480000,19.480000,14.967327,114300
2016-10-21,20.160000,21.240000,20.160000,20.799999,15.981541,567900
2016-10-24,21.280001,21.577999,20.959999,21.000000,16.135216,339400
2016-10-25,21.180000,21.240000,20.927000,20.969999,16.112156,133500
2016-10-26,20.940001,21.110001,20.600000,21.090000,16.204361,182800
2016-10-27,21.379999,21.590000,21.030001,21.059999,16.181311,128900
2016-10-28,21.170000,21.420000,20.799999,20.850000,16.019958,124100
2016-10-31,21.250000,21.250000,20.990000,21.110001,16.219728,111400
2016-11-01,21.200001,21.327000,20.799999,20.910000,16.066053,167100
2016-11-02,20.740000,21.379999,20.350000,21.120001,16.434116,200400
2016-11-03,21.250000,21.879000,21.030001,21.420000,16.667553,179700
2016-11-04,21.860001,22.447001,19.781000,20.309999,15.803828,331800
2016-11-07,20.559999,20.980000,19.330000,19.549999,15.212449,285300
2016-11-08,19.430000,19.730000,19.200001,19.200001,14.940106,142600
2016-11-09,19.200001,20.768999,19.200001,20.129999,15.663766,203100
2016-11-10,20.309999,20.469000,19.500000,19.530001,15.196888,247600
2016-11-11,19.680000,20.125000,19.420000,19.980000,15.547047,163900
2016-11-14,20.440001,21.160000,20.250000,20.850000,16.224020,251600
2016-11-15,21.200001,21.750000,21.108000,21.360001,16.620867,257500
2016-11-16,22.180000,22.450001,21.389999,22.389999,17.422342,170100
2016-11-17,22.600000,22.966999,20.900000,21.629999,16.830959,298800
2016-11-18,21.820000,22.110001,21.664000,21.840000,16.994370,138000
2016-11-21,22.500000,22.500000,21.820000,21.930000,17.064400,129200
2016-11-22,22.000000,22.000000,21.750000,22.000000,17.118866,135200
2016-11-23,22.000000,22.000000,21.420000,21.809999,16.971024,169400
2016-11-25,21.590000,21.850000,21.350000,21.610001,16.815401,52100
2016-11-28,21.790001,21.797001,21.000000,21.400000,16.651991,119300
2016-11-29,21.030001,21.379999,20.549999,21.379999,16.636431,128900
2016-11-30,21.850000,22.980000,21.490000,22.299999,17.352310,425600
2016-12-01,22.570000,22.868999,21.209999,21.440001,16.683115,244300
2016-12-02,21.320000,21.969999,20.860001,21.049999,16.379644,186400
2016-12-05,21.290001,21.400000,20.650000,20.750000,16.146208,154800
2016-12-06,20.610001,21.170000,20.510000,21.030001,16.364086,155200
2016-12-07,21.219999,21.590000,21.030001,21.530001,16.753147,80800
2016-12-08,21.639999,22.000000,21.100000,21.480000,16.714243,284700
2016-12-09,21.580000,21.580000,21.160000,21.330000,16.597523,155100
2016-12-12,21.650000,21.816999,21.100000,21.260000,16.543051,212700
2016-12-13,21.219999,21.889999,21.090000,21.510000,16.737587,192400
2016-12-14,21.580000,21.799999,21.200001,21.290001,16.566395,153800
2016-12-15,21.209999,21.688999,21.153000,21.500000,16.729803,87600
2016-12-16,21.690001,22.500000,21.622999,22.240000,17.305620,153100
2016-12-19,22.490000,22.500000,22.049999,22.299999,17.352310,199800
2016-12-20,22.299999,23.490000,22.299999,23.219999,18.068188,201600
2016-12-21,23.250000,23.707001,22.950001,23.290001,18.122656,132400
2016-12-22,23.350000,23.926001,23.315001,23.469999,18.262718,105900
2016-12-23,23.459999,23.724001,23.049999,23.080000,17.959249,94100
2016-12-27,23.360001,24.240000,23.360001,23.620001,18.379442,134200
2016-12-28,23.809999,23.975000,23.121000,23.250000,18.091534,102200
2016-12-29,23.480000,23.850000,23.282000,23.719999,18.457256,106700
2016-12-30,23.860001,23.900000,23.200001,23.549999,18.324970,127100
2017-01-03,23.670000,24.714001,23.670000,24.030001,18.698479,263300
2017-01-04,24.320000,24.480000,23.809999,23.910000,18.605101,165800
2017-01-05,23.920000,24.002001,22.620001,23.049999,17.935907,222200
2017-01-06,23.049999,23.860001,23.049999,23.690001,18.433908,106200
2017-01-09,23.719999,23.770000,23.420000,23.610001,18.371660,88400
2017-01-10,23.580000,23.900000,23.400000,23.799999,18.519503,110900
2017-01-11,23.780001,23.799999,23.590000,23.600000,18.363880,34700
2017-01-12,23.590000,23.709999,23.100000,23.209999,18.060408,52300
2017-01-13,23.209999,23.455000,23.139999,23.379999,18.192690,74400
2017-01-17,23.530001,23.589001,23.280001,23.410000,18.216032,78700
2017-01-18,23.379999,23.490000,23.080000,23.450001,18.247160,73200
2017-01-19,23.450001,24.250000,23.327999,24.059999,18.721815,172700
2017-01-20,24.250000,24.799999,24.209999,24.270000,18.885227,273200
2017-01-23,24.600000,24.700001,24.257999,24.440001,19.017508,272400
2017-01-24,24.639999,25.030001,24.450001,24.600000,19.142008,209500
2017-01-25,24.950001,25.559999,24.280001,24.280001,18.893003,233400
2017-01-26,24.420000,24.906000,24.040001,24.760000,19.266508,248400
2017-01-27,24.879999,25.090000,24.150000,24.400000,18.986382,158900
2017-01-30,24.410000,24.618000,23.750000,23.910000,18.605101,112000
2017-01-31,23.910000,24.145000,23.510000,23.570000,18.340534,102000
2017-02-01,23.600000,24.740000,23.600000,24.650000,19.180912,145900
2017-02-02,24.690001,25.238001,24.427999,24.750000,19.473928,152400
2017-02-03,24.969999,24.969999,24.020000,24.070000,18.938889,135400
2017-02-06,24.240000,24.305000,23.370001,23.639999,18.600554,242800
2017-02-07,23.639999,24.018999,23.040001,23.049999,18.136328,136600
2017-02-08,23.049999,23.440001,22.549999,23.180000,18.238613,183400
2017-02-09,23.379999,23.520000,23.100000,23.219999,18.270086,159500
2017-02-10,23.160000,23.799999,23.000000,23.480000,18.474659,276200
2017-02-13,23.750000,23.820000,23.299999,23.410000,18.419584,206800
2017-02-14,23.620001,23.620001,23.070000,23.139999,18.207138,150700
2017-02-15,23.120001,24.110001,23.110001,23.700001,18.647766,163500
2017-02-16,23.700001,24.280001,23.299999,23.980000,18.868073,177700
2017-02-17,24.010000,24.480000,23.650000,24.330000,19.143465,107600
2017-02-21,24.350000,24.500000,23.610001,23.719999,18.663498,284400
2017-02-22,23.719999,24.049999,23.280001,23.680000,18.632027,212700
2017-02-23,23.709999,23.900000,23.049999,23.120001,18.191404,310700
2017-02-24,23.059999,23.205999,20.750000,21.330000,16.782986,1137200
2017-02-27,21.330000,22.350000,20.580000,22.309999,17.554075,625700
2017-02-28,22.389999,23.350000,22.010000,23.170000,18.230745,528300
2017-03-01,23.170000,23.590000,22.100000,23.330000,18.356638,373000
2017-03-02,23.430000,23.698000,23.240000,23.400000,18.411713,237000
2017-03-03,23.500000,23.940001,23.450001,23.719999,18.663498,154100
2017-03-06,23.809999,24.200001,23.336000,24.200001,19.041178,168100
2017-03-07,24.129999,24.200001,23.750000,23.840000,18.757917,110200
2017-03-08,23.760000,23.832001,22.450001,22.590000,17.774384,207900
2017-03-09,22.549999,22.549999,20.870001,22.049999,17.349499,550100
2017-03-10,21.709999,21.980000,20.900000,21.770000,17.129190,431900
2017-03-13,21.750000,21.969999,21.209999,21.570000,16.971823,155700
2017-03-14,21.500000,21.532000,20.799999,21.200001,16.680698,169100
2017-03-15,21.400000,22.100000,20.860001,22.030001,17.333765,270600
2017-03-16,22.030001,22.450001,21.610001,22.160000,17.436050,108200
2017-03-17,22.150000,22.309999,21.719999,22.309999,17.554075,211800
2017-03-20,22.290001,22.360001,21.570000,21.920000,17.247213,153700
2017-03-21,21.879999,22.108999,21.139999,21.430000,16.861670,152800
2017-03-22,21.110001,21.340000,20.340000,20.850000,16.405310,339900
2017-03-23,20.680000,21.080000,20.389999,20.809999,16.373835,220900
2017-03-24,20.850000,21.090000,20.532000,21.000000,16.523333,74600
2017-03-27,20.750000,21.430000,20.299999,21.180000,16.664961,146800
2017-03-28,21.090000,21.486000,21.010000,21.070000,16.578409,78600
2017-03-29,21.000000,22.030001,20.809999,21.870001,17.207869,197000
2017-03-30,21.780001,22.500000,21.490000,22.340000,17.577679,169500
2017-03-31,22.430000,23.980000,22.231001,23.610001,18.576948,449500
2017-04-03,23.639999,23.780001,22.900000,23.410000,18.419584,116400
2017-04-04,23.370001,23.420000,22.930000,23.230000,18.277952,84600
2017-04-05,23.299999,23.700001,22.674999,23.090000,18.167803,136200
2017-04-06,23.129999,23.240000,22.780001,23.090000,18.167803,111400
2017-04-07,23.080000,23.260000,22.620001,22.690001,17.853065,97400
2017-04-10,22.629999,23.021999,22.610001,22.650000,17.821592,65200
2017-04-11,22.549999,22.660000,22.200001,22.299999,17.546204,128700
2017-04-12,22.379999,22.450001,21.660000,21.719999,17.089846,149000
2017-04-13,21.620001,21.930000,20.990000,21.010000,16.531204,134100
2017-04-17,21.010000,21.200001,20.850000,21.040001,16.554808,80200
2017-04-18,21.049999,21.709999,21.000000,21.580000,16.979691,60700
2017-04-19,21.750000,22.010000,21.600000,21.709999,17.081978,52000
2017-04-20,21.780001,22.020000,21.542999,21.790001,17.144926,85000
2017-04-21,21.860001,21.969999,21.129999,21.250000,16.720041,222000
2017-04-24,21.490000,21.680000,21.250000,21.530001,16.940350,85500
2017-04-25,21.600000,22.180000,21.430000,22.090000,17.380974,81400
2017-04-26,22.049999,22.900000,21.799999,21.809999,17.160662,164000
2017-04-27,21.830000,22.138000,21.450001,21.900000,17.231478,55500
2017-04-28,22.129999,22.910000,21.743999,22.520000,17.719307,99000
2017-05-01,22.690001,22.830000,22.000000,22.799999,17.939621,157900
2017-05-02,22.400000,22.740000,22.020000,22.200001,17.686352,271800
2017-05-03,22.070000,22.070000,21.059999,21.129999,16.833904,272400
2017-05-04,21.059999,21.391001,19.530001,20.309999,16.180624,299400
2017-05-05,20.309999,21.031000,20.040001,20.700001,16.491329,208800
2017-05-08,20.490000,21.090000,20.000000,20.500000,16.331991,228700
2017-05-09,20.370001,20.490000,20.011000,20.379999,16.236391,232300
2017-05-10,20.410000,21.610001,20.389999,21.209999,16.897633,530600
2017-05-11,21.250000,21.549999,20.770000,21.400000,17.049006,147200
2017-05-12,21.219999,21.690001,20.799999,21.350000,17.009174,221900
2017-05-15,21.450001,21.930000,21.219999,21.379999,17.033072,113700
2017-05-16,21.420000,21.590000,20.830000,21.360001,17.017141,118300
2017-05-17,21.180000,21.309999,20.730000,20.950001,16.690502,172000
2017-05-18,18.930000,21.620001,18.930000,21.250000,16.929508,289700
2017-05-19,21.250000,21.930000,21.033001,21.610001,17.216311,58200
2017-05-22,22.180000,22.350000,21.360001,21.639999,17.240211,238900
2017-05-23,21.879999,21.893000,21.500000,21.620001,17.224276,104500
2017-05-24,21.469999,21.969999,21.190001,21.299999,16.969337,102100
2017-05-25,21.290001,21.510000,20.700001,21.040001,16.762203,97900
2017-05-26,21.059999,21.440001,20.614000,21.299999,16.969337,85500
2017-05-30,21.049999,21.100000,20.530001,21.059999,16.778135,89600
2017-05-31,20.969999,21.389999,20.500000,21.230000,16.913572,104000
2017-06-01,21.250000,22.040001,20.704000,21.910000,17.455317,140400
2017-06-02,21.910000,22.000000,20.780001,21.040001,16.762203,149000
2017-06-05,21.059999,21.440001,20.660000,21.290001,16.961372,71200
2017-06-06,21.139999,21.670000,20.841999,21.230000,16.913572,87500
2017-06-07,21.160000,21.452999,20.830000,20.980000,16.714397,56400
2017-06-08,20.770000,20.969999,20.299999,20.549999,16.371824,130200
2017-06-09,20.510000,20.760000,20.000000,20.450001,16.292162,115700
2017-06-12,20.510000,20.780001,20.200001,20.540001,16.363861,91300
2017-06-13,20.580000,20.969999,20.299999,20.389999,16.244356,128400
2017-06-14,20.400000,20.520000,20.049999,20.059999,15.981453,62800
2017-06-15,20.030001,20.183001,19.600000,19.660000,15.662778,66600
2017-06-16,19.680000,20.100000,18.440001,18.440001,14.690828,962500
2017-06-19,18.650000,19.100000,17.129999,18.070000,14.396054,523300
2017-06-20,17.790001,18.610001,17.719999,18.370001,14.635058,275400
2017-06-21,18.389999,18.590000,17.850000,17.950001,14.300456,261300
2017-06-22,17.750000,18.570000,17.610001,18.270000,14.555392,190300
2017-06-23,18.160000,18.450001,18.048000,18.290001,14.571322,172500
2017-06-26,18.290001,18.650000,17.910000,18.530001,14.762527,84800
2017-06-27,18.490000,18.690001,18.059999,18.120001,14.435890,102300
2017-06-28,18.049999,18.680000,18.000000,18.549999,14.778461,78500
2017-06-29,18.629999,18.799999,18.429001,18.700001,14.897964,68900
2017-06-30,18.730000,19.235001,18.700001,18.950001,15.097137,58200
2017-07-03,19.000000,19.730000,19.000000,19.070000,15.192737,96100
2017-07-05,19.070000,19.330000,18.370001,18.459999,14.706759,200100
2017-07-06,18.420000,18.625999,18.230000,18.290001,14.571322,98800
2017-07-07,18.250000,18.540001,18.020000,18.530001,14.762527,155400
2017-07-10,18.469999,18.917999,18.270000,18.719999,14.913897,103800
2017-07-11,18.709999,18.959999,18.500000,18.870001,15.033399,67500
2017-07-12,19.000000,19.379999,18.910000,19.100000,15.216635,135400
2017-07-13,19.150000,19.730000,19.150000,19.580000,15.599047,144100
2017-07-14,19.650000,19.889999,19.440001,19.670000,15.670745,95500
2017-07-17,19.670000,20.090000,19.670000,19.910000,15.861953,50700
2017-07-18,20.090000,20.330000,19.809999,19.940001,15.885851,83300
2017-07-19,19.950001,20.230000,19.950001,20.080000,15.997385,84500
2017-07-20,20.139999,20.264999,19.950001,20.000000,15.933653,52700
2017-07-21,19.840000,20.110001,19.719999,19.900000,15.853983,45500
2017-07-24,19.969999,20.240000,19.968000,20.080000,15.997385,38700
2017-07-25,20.350000,20.459999,20.100000,20.180000,16.077055,38800
2017-07-26,20.260000,20.350000,19.860001,19.940001,15.885851,49100
2017-07-27,19.969999,20.400000,19.850000,19.920000,15.869916,103500
2017-07-28,19.920000,20.429001,19.900000,20.170000,16.069088,60300
2017-07-31,20.270000,21.000000,19.830000,21.000000,16.730337,112500
2017-08-01,20.990000,20.990000,20.025000,20.580000,16.395727,89400
2017-08-02,20.129999,20.263000,19.680000,20.000000,16.163136,121200
2017-08-03,19.950001,19.950001,18.660000,18.750000,15.152943,176100
2017-08-04,18.780001,19.110001,18.000000,18.080000,14.611478,304400
2017-08-07,18.049999,18.780001,17.900000,17.959999,14.514500,196300
2017-08-08,17.760000,18.290001,17.700001,17.870001,14.441766,128800
2017-08-09,17.760000,18.320000,17.740000,18.120001,14.643807,128100
2017-08-10,18.120001,18.181999,17.629999,17.910000,14.474092,417600
2017-08-11,17.799999,18.629999,17.510000,18.350000,14.829682,182000
2017-08-14,18.440001,18.660000,18.100000,18.410000,14.878173,69400
2017-08-15,18.500000,18.610001,17.500000,17.570000,14.199318,147300
2017-08-16,17.520000,17.900000,17.209999,17.230000,13.924544,88900
2017-08-17,17.219999,17.320000,16.709999,16.780001,13.560876,176300
2017-08-18,16.889999,17.430000,16.750000,17.219999,13.916462,125500
2017-08-21,17.200001,17.232000,16.575001,16.639999,13.447732,116900
2017-08-22,16.639999,17.090000,16.549999,16.920000,13.674016,188200
2017-08-23,16.879999,17.090000,16.750000,16.980000,13.722506,123600
2017-08-24,17.059999,17.320000,16.940001,16.980000,13.722506,59500
2017-08-25,17.129999,17.129999,16.650000,16.719999,13.512384,106200
2017-08-28,16.730000,16.990000,16.301001,16.379999,13.237611,132000
2017-08-29,16.240000,16.980000,16.240000,16.549999,13.375000,100500
2017-08-30,16.530001,17.099001,16.440001,16.920000,13.674016,84400
2017-08-31,17.000000,17.620001,16.827000,17.430000,14.086176,102200
2017-09-01,17.450001,17.650000,17.299999,17.540001,14.175076,65400
2017-09-05,17.480000,17.610001,17.190001,17.190001,13.892221,130900
2017-09-06,17.250000,17.889999,17.250000,17.660000,14.272051,56100
2017-09-07,17.629999,17.872000,17.346001,17.799999,14.385194,112900
2017-09-08,17.780001,17.799999,17.462999,17.540001,14.175076,84000
2017-09-11,17.559999,17.889999,17.500000,17.760000,14.352869,39500
2017-09-12,17.760000,18.200001,17.757999,17.900000,14.466010,120200
2017-09-13,17.950001,18.139999,17.830000,17.900000,14.466010,48800
2017-09-14,18.059999,18.150000,17.556000,18.110001,14.635723,46400
2017-09-15,17.990000,18.129999,17.840000,17.840000,14.417521,101900
2017-09-18,17.860001,18.034000,17.809999,17.900000,14.466010,81700
2017-09-19,17.840000,18.030001,17.535000,17.620001,14.239726,70800
2017-09-20,17.680000,17.965000,17.540001,17.639999,14.255887,67400
2017-09-21,17.750000,17.750000,17.180000,17.320000,13.997279,48800
2017-09-22,17.299999,17.730000,17.230000,17.340000,14.013440,63000
2017-09-25,17.320000,17.850000,17.200001,17.420000,14.078096,378500
2017-09-26,17.480000,17.530001,17.020000,17.260000,13.948790,154600
2017-09-27,17.410000,17.459999,17.000000,17.250000,13.940708,86200
2017-09-28,17.160000,17.490000,16.299999,16.650000,13.455814,393800
2017-09-29,16.719999,16.940001,15.820000,15.840000,12.801208,542900
2017-10-02,15.830000,16.219999,15.770000,16.219999,13.108306,210600
2017-10-03,16.250000,16.450001,16.110001,16.340000,13.205286,175500
2017-10-04,16.299999,16.500000,16.150000,16.469999,13.310345,89600
2017-10-05,16.480000,16.750000,16.350000,16.700001,13.496222,78300
2017-10-06,16.480000,16.546000,16.180000,16.400000,13.253774,220000
2017-10-09,16.309999,16.700001,16.309999,16.500000,13.334591,200700
2017-10-10,16.629999,16.750000,16.520000,16.629999,13.439651,82200
2017-10-11,16.690001,16.716000,16.379999,16.510000,13.342673,100100
2017-10-12,16.400000,16.671000,16.309999,16.530001,13.358835,106700
2017-10-13,16.750000,16.750000,16.393999,16.650000,13.455814,159800
2017-10-16,16.670000,16.670000,16.299999,16.459999,13.302263,162200
2017-10-17,16.400000,16.450001,16.020000,16.250000,13.132553,240300
2017-10-18,16.180000,16.299999,15.480000,15.850000,12.809288,490200
2017-10-19,15.670000,16.000000,15.670000,15.970000,12.906267,154000
2017-10-20,16.090000,16.143000,15.810000,15.840000,12.801208,186900
2017-10-23,15.790000,15.990000,15.580000,15.630000,12.631493,157900
2017-10-24,15.630000,15.780000,15.500000,15.710000,12.696148,157400
2017-10-25,15.560000,15.890000,15.250000,15.580000,12.591086,337200
2017-10-26,15.690000,15.970000,15.600000,15.820000,12.785044,116200
2017-10-27,15.820000,16.590000,15.733000,16.250000,13.132553,176000
2017-10-30,16.400000,16.969999,15.960000,16.059999,12.979000,306600
2017-10-31,15.950000,16.719999,15.950000,16.549999,13.375000,182200
2017-11-01,16.520000,16.850000,16.500000,16.719999,13.512384,194000
2017-11-02,16.570000,17.250000,16.450001,17.049999,14.032963,407100
2017-11-03,17.049999,17.219999,16.790001,16.900000,13.909505,180000
2017-11-06,16.900000,17.160000,16.809999,16.860001,13.876584,216400
2017-11-07,16.770000,17.000000,16.575001,16.940001,13.942430,159100
2017-11-08,16.900000,17.000000,16.650000,16.750000,13.786045,85900
2017-11-09,16.610001,16.940001,16.600000,16.639999,13.695513,69700
2017-11-10,16.750000,16.790001,16.520000,16.719999,13.761355,107900
2017-11-13,16.750000,16.900000,16.590000,16.740000,13.777817,155800
2017-11-14,16.770000,17.049999,16.629999,16.920000,13.925966,169300
2017-11-15,16.910000,17.059999,16.620001,17.000000,13.991809,104400
2017-11-16,17.110001,17.139999,16.820000,17.010000,14.000041,137300
2017-11-17,17.010000,17.129999,16.760000,16.900000,13.909505,142000
2017-11-20,16.940001,17.110001,16.600000,17.000000,13.991809,116000
2017-11-21,17.090000,17.090000,16.629999,16.950001,13.950658,180900
2017-11-22,17.010000,17.344999,17.010000,17.160000,14.123498,64400
2017-11-24,17.129999,17.245001,16.670000,16.740000,13.777817,95700
2017-11-27,16.629999,16.690001,16.350000,16.410000,13.506211,94400
2017-11-28,16.520000,16.520000,16.299999,16.410000,13.506211,71000
2017-11-29,16.379999,16.400000,16.100000,16.240000,13.366294,92300
2017-11-30,16.370001,16.910000,16.285999,16.879999,13.893043,84900
2017-12-01,16.959999,17.469999,16.955000,17.340000,14.271647,108300
2017-12-04,17.469999,17.469999,16.959999,16.990000,13.983582,73400
2017-12-05,16.910000,17.155001,16.690001,16.780001,13.810740,59800
2017-12-06,16.700001,16.799999,16.350000,16.480000,13.563826,101000
2017-12-07,16.389999,17.040001,16.389999,16.969999,13.967117,76500
2017-12-08,17.090000,17.379999,16.980000,17.000000,13.991809,70600
2017-12-11,17.000000,17.100000,16.920000,17.000000,13.991809,187000
2017-12-12,17.110001,17.158001,16.639999,16.781000,13.811563,154300
2017-12-13,16.790001,17.030001,16.670000,16.700001,13.744895,124300
2017-12-14,16.700001,17.153999,16.700001,16.920000,13.925966,133200
2017-12-15,17.150000,17.350000,17.045000,17.160000,14.123498,216500
2017-12-18,17.160000,17.760000,17.160000,17.350000,14.279876,168200
2017-12-19,17.500000,17.549999,17.100000,17.240000,14.189342,115100
2017-12-20,17.290001,17.290001,16.690001,16.850000,13.868353,149600
2017-12-21,16.920000,17.100000,16.745001,16.799999,13.827201,156600
2017-12-22,16.750000,16.900000,16.600000,16.730000,13.769588,99200
2017-12-26,16.700001,16.860001,16.549999,16.799999,13.827201,167000
2017-12-27,16.860001,16.879999,16.610001,16.740000,13.777817,134800
2017-12-28,16.740000,17.080000,16.650000,16.959999,13.958886,85700
2017-12-29,16.980000,16.980000,16.730000,16.770000,13.802508,143900
2018-01-02,16.830000,17.200001,16.820000,17.090000,14.065885,84000
2018-01-03,17.200001,17.400000,17.090000,17.150000,14.115269,85800
2018-01-04,18.799999,19.500000,17.750000,18.500000,15.226382,326700
2018-01-05,18.889999,18.889999,18.319000,18.530001,15.251071,287000
2018-01-08,18.600000,18.940001,18.500000,18.670000,15.366299,103300
2018-01-09,18.820000,19.240000,18.629999,19.100000,15.720212,183700
2018-01-10,19.000000,19.600000,18.520000,19.600000,16.131733,286200
2018-01-11,19.610001,19.930000,19.417999,19.910000,16.386879,117900
2018-01-12,20.049999,21.049999,20.000000,20.059999,16.510338,206600
2018-01-16,20.370001,20.370001,19.760000,20.010000,16.469183,127200
2018-01-17,20.290001,20.290001,19.500000,19.600000,16.131733,86500
2018-01-18,19.600000,19.799999,19.180000,19.299999,15.884821,170800
2018-01-19,19.400000,19.514999,19.120001,19.139999,15.753133,117800
2018-01-22,19.209999,19.561001,19.160000,19.520000,16.065891,230600
2018-01-23,19.600000,19.948999,19.389999,19.750000,16.255190,210400
2018-01-24,19.879999,20.120001,19.750000,19.840000,16.329266,94100
2018-01-25,20.000000,20.180000,19.770000,19.969999,16.436260,116500
2018-01-26,20.150000,20.400000,20.051001,20.219999,16.642025,62300
2018-01-29,20.200001,20.219999,19.690001,19.770000,16.271652,87700
2018-01-30,18.830000,20.200001,17.930000,19.820000,16.312805,333300
2018-01-31,19.870001,20.340000,19.690001,20.240000,16.658484,125500
2018-02-01,20.100000,20.969999,20.000000,20.799999,17.119390,214500
2018-02-02,20.480000,20.730000,20.059999,20.170000,16.854746,327700
2018-02-05,20.129999,20.440001,19.600000,19.950001,16.670904,189000
2018-02-06,19.590000,19.980000,19.410000,19.690001,16.453640,380100
2018-02-07,19.610001,20.200001,19.240000,19.469999,16.269800,220900
2018-02-08,19.469999,19.790001,18.990000,19.290001,16.119387,382800
2018-02-09,19.370001,19.650000,18.330000,18.629999,15.567868,110600
2018-02-12,18.860001,19.389999,18.788000,19.100000,15.960618,63000
2018-02-13,19.010000,19.150000,18.900000,18.900000,15.793491,63900
2018-02-14,18.850000,19.270000,18.790001,19.129999,15.985685,141000
2018-02-15,19.219999,19.370001,19.049999,19.219999,16.060892,123900
2018-02-16,19.209999,19.430000,18.799999,19.100000,15.960618,109400
2018-02-20,18.950001,19.270000,18.760000,18.959999,15.843627,138400
2018-02-21,18.980000,19.100000,18.330000,18.520000,15.475951,472600
2018-02-22,18.510000,18.510000,17.940001,17.940001,14.991281,138600
2018-02-23,18.110001,18.320000,17.870001,18.240000,15.241973,91900
2018-02-26,18.389999,18.389999,18.040001,18.100000,15.124984,80500
2018-02-27,18.219999,18.375000,17.820000,17.850000,14.916075,79000
2018-02-28,17.910000,17.924000,17.410000,17.410000,14.548397,132100
2018-03-01,17.459999,18.200001,17.405001,18.000000,15.041421,67000
2018-03-02,18.040001,18.160000,17.671000,18.020000,15.058132,65300
2018-03-05,18.020000,18.540001,18.020000,18.500000,15.459235,71000
2018-03-06,18.549999,18.620001,18.200001,18.590000,15.534446,68300
2018-03-07,18.600000,18.760000,18.389999,18.580000,15.526086,81600
2018-03-08,18.650000,18.780001,18.139999,18.200001,15.208549,57800
2018-03-09,18.320000,18.840000,18.219999,18.590000,15.534446,546500
2018-03-12,18.760000,18.930000,18.190001,18.320000,15.308822,109900
2018-03-13,18.549999,18.969999,18.311001,18.850000,15.751709,143900
2018-03-14,18.840000,19.340000,18.622000,18.930000,15.818558,133600
2018-03-15,18.969999,19.400000,18.139999,19.010000,15.885409,259900
2018-03-16,18.980000,20.100000,18.980000,19.860001,16.595699,294600
2018-03-19,19.959999,19.959999,18.905001,19.080000,15.943903,155200
2018-03-20,19.110001,19.190001,18.600000,19.010000,15.885409,70200
2018-03-21,19.049999,19.520000,18.309999,19.450001,16.253090,247400
2018-03-22,19.350000,19.350000,18.565001,19.059999,15.927188,142900
2018-03-23,19.190001,19.223000,18.510000,18.700001,15.626364,137000
2018-03-26,18.910000,18.910000,18.290001,18.580000,15.526086,121800
2018-03-27,18.670000,18.910000,17.980000,18.180000,15.191833,134100
2018-03-28,18.219999,18.459999,17.895000,18.280001,15.275400,76100
2018-03-29,18.270000,18.650000,18.160000,18.389999,15.367316,139000
2018-04-02,18.360001,18.440001,17.879999,18.059999,15.091558,55900
2018-04-03,18.139999,18.350000,17.900000,18.090000,15.116623,104100
2018-04-04,17.950001,18.243000,17.799999,18.049999,15.083200,75900
2018-04-05,18.070000,18.299999,17.940001,18.059999,15.091558,112200
2018-04-06,18.049999,18.230000,17.510000,17.799999,14.874291,81900
2018-04-09,17.969999,18.080000,17.160000,17.490000,14.615245,128100
2018-04-10,17.559999,17.980000,17.370001,17.850000,14.916075,63300
2018-04-11,17.750000,18.400000,17.730000,18.100000,15.124984,105900
2018-04-12,18.100000,18.139999,17.610001,17.670000,14.765660,103900
2018-04-13,17.740000,18.030001,17.580000,17.760000,14.840868,123400
2018-04-16,17.870001,18.820000,17.690001,18.610001,15.551156,110500
2018-04-17,18.590000,19.080000,18.270000,19.020000,15.893767,96700
2018-04-18,19.059999,19.180000,18.629999,18.940001,15.826916,128600
2018-04-19,18.840000,19.059999,18.370001,18.450001,15.417454,90500
2018-04-20,18.260000,18.830000,18.230000,18.469999,15.434167,109600
2018-04-23,18.530001,19.000000,18.530001,18.740000,15.659788,50500
2018-04-24,18.809999,18.850000,18.180000,18.410000,15.384032,53700
2018-04-25,18.440001,18.530001,18.219999,18.500000,15.459235,25800
2018-04-26,18.480000,18.780001,18.480000,18.719999,15.643075,39000
2018-04-27,18.709999,19.010000,18.629999,18.920000,15.810203,39400
2018-04-30,18.910000,19.320000,18.590000,19.030001,15.902124,88200
2018-05-01,19.070000,19.070000,18.530001,18.900000,15.793491,57100
2018-05-02,19.010000,19.340000,18.620001,18.690001,15.618008,107500
2018-05-03,18.750000,18.980000,18.254999,18.950001,16.115065,124300
2018-05-04,18.940001,19.160000,18.549999,18.930000,16.098057,43200
2018-05-07,18.980000,19.327000,18.870001,18.969999,16.132072,77200
2018-05-08,18.850000,19.389999,18.549999,19.299999,16.412704,80700
2018-05-09,19.190001,19.555000,19.190001,19.389999,16.489239,57200
2018-05-10,19.520000,19.750000,19.520000,19.660000,16.718847,99700
2018-05-11,19.709999,19.820000,19.459999,19.600000,16.667826,98300
2018-05-14,19.600000,19.650000,19.299999,19.450001,16.540266,91400
2018-05-15,19.450001,19.500000,19.230000,19.330000,16.438219,31400
2018-05-16,19.320000,19.450001,19.219999,19.379999,16.480736,42400
2018-05-17,19.379999,19.600000,19.240000,19.309999,16.421209,34700
2018-05-18,19.400000,19.400000,19.020000,19.110001,16.251131,55500
2018-05-21,19.240000,19.361000,18.893000,19.070000,16.217115,114600
2018-05-22,19.080000,19.110001,18.709999,18.830000,16.013018,77800
2018-05-23,18.760000,19.110001,18.629999,18.969999,16.132072,99000
2018-05-24,18.920000,19.000000,18.636999,18.670000,15.876956,36100
2018-05-25,18.600000,18.809999,18.200001,18.780001,15.970498,52100
2018-05-29,18.730000,18.849001,18.379999,18.490000,15.723884,51600
2018-05-30,18.510000,18.688999,18.344999,18.629999,15.842938,74000
2018-05-31,18.629999,18.799999,18.530001,18.740000,15.936481,45800
2018-06-01,18.760000,18.879999,18.370001,18.809999,15.996010,47600
2018-06-04,18.820000,19.010000,18.750000,18.770000,15.961993,94500
2018-06-05,18.730000,19.049999,18.709999,18.889999,16.064041,60000
2018-06-06,18.820000,18.879999,18.434999,18.629999,15.842938,71600
2018-06-07,18.580000,18.719999,18.570000,18.639999,15.851441,39300
2018-06-08,18.600000,18.600000,18.299999,18.510000,15.740888,45900
2018-06-11,18.500000,19.129999,18.500000,19.100000,16.242626,46000
2018-06-12,19.100000,19.430000,19.100000,19.370001,16.472235,76700
2018-06-13,19.370001,19.370001,18.889999,19.070000,16.217115,92000
2018-06-14,19.080000,19.350000,18.985001,19.049999,16.200106,138600
2018-06-15,19.020000,19.940001,18.770000,19.940001,16.956961,1388000
2018-06-18,19.879999,20.049999,19.660000,19.990000,16.999481,529200
2018-06-19,19.959999,20.200001,19.820000,20.059999,17.059008,57600
2018-06-20,20.010000,20.622999,20.010000,20.500000,17.433184,120200
2018-06-21,20.490000,20.770000,20.360001,20.500000,17.433184,107600
2018-06-22,20.530001,21.000000,20.059999,20.980000,17.841375,206200
2018-06-25,20.930000,20.950001,20.440001,20.450001,17.390663,111500
2018-06-26,20.469999,20.830000,20.320000,20.780001,17.671299,86200
2018-06-27,18.549999,19.180000,18.500000,18.799999,15.987506,2895100
2018-06-28,18.799999,19.330000,18.799999,19.160000,16.293648,363400
2018-06-29,19.290001,19.490000,18.559999,19.389999,16.489239,651700
2018-07-02,19.299999,19.490000,19.000000,19.360001,16.463730,219300
2018-07-03,19.430000,19.500000,19.070000,19.420000,16.514753,116100
2018-07-05,19.459999,19.459999,19.150000,19.240000,16.361681,187500
2018-07-06,19.340000,19.469999,19.254999,19.440001,16.531763,35200
2018-07-09,19.549999,19.990000,19.440001,19.820000,16.854908,223400
2018-07-10,19.820000,19.940001,19.379999,19.400000,16.497746,141800
2018-07-11,19.480000,19.480000,19.129999,19.270000,16.387192,82600
2018-07-12,19.430000,19.430000,19.120001,19.299999,16.412704,90200
2018-07-13,19.350000,19.400000,19.150000,19.350000,16.455227,75200
2018-07-16,19.360001,19.360001,19.020000,19.170000,16.302153,68400
2018-07-17,19.219999,19.320000,19.105000,19.219999,16.344673,71300
2018-07-18,19.200001,19.480000,19.090000,19.400000,16.497746,118200
2018-07-19,19.530001,19.884001,19.530001,19.610001,16.676329,70900
2018-07-20,19.629999,19.629999,19.160000,19.170000,16.302153,145100
2018-07-23,19.250000,19.440001,19.090000,19.290001,16.404200,526400
2018-07-24,19.299999,19.450001,19.174999,19.260000,16.378691,78400
2018-07-25,19.240000,19.760000,19.240000,19.719999,16.769875,130100
2018-07-26,19.620001,20.049999,19.480000,19.879999,16.905937,100900
2018-07-27,19.889999,19.950001,19.469999,19.530001,16.608297,74400
2018-07-30,19.650000,19.799999,19.389999,19.540001,16.616802,86000
2018-07-31,19.620001,19.969999,19.573000,19.629999,16.693336,118800
2018-08-01,19.780001,20.400000,19.700001,20.139999,17.127043,218500
2018-08-02,20.250000,20.320000,20.000999,20.219999,17.195072,342600
2018-08-03,20.250000,20.610001,20.030001,20.400000,17.348145,406100
2018-08-06,20.190001,20.440001,20.000000,20.100000,17.379358,165100
2018-08-07,20.170000,20.350000,19.639999,20.000000,17.292892,209400
2018-08-08,19.860001,20.250000,19.830000,20.240000,17.500408,352100
2018-08-09,20.129999,20.450001,20.129999,20.250000,17.509056,203300
2018-08-10,20.240000,20.770000,20.180000,20.670000,17.872206,214900
2018-08-13,20.600000,20.740000,20.280001,20.400000,17.638752,103700
2018-08-14,20.510000,20.799999,20.450001,20.680000,17.880852,97400
2018-08-15,20.559999,20.780001,20.025000,20.680000,17.880852,164900
2018-08-16,20.760000,20.760000,20.440001,20.469999,17.699276,48400
2018-08-17,20.360001,20.629999,20.305000,20.450001,17.681984,34800
2018-08-20,20.350000,20.860001,20.350000,20.590000,17.803036,60000
2018-08-21,20.700001,20.700001,20.260000,20.350000,17.595522,140800
2018-08-22,20.340000,20.625000,20.340000,20.500000,17.725214,45600
2018-08-23,20.450001,20.780001,20.430000,20.700001,17.898148,58100
2018-08-24,20.950001,20.950001,20.500000,20.610001,17.820328,74100
2018-08-27,20.750000,20.955000,20.600000,20.740000,17.932730,83100
2018-08-28,20.740000,20.860001,20.400000,20.590000,17.803036,92700
2018-08-29,20.600000,20.600000,20.090000,20.090000,17.370714,159200
2018-08-30,20.100000,20.120001,19.469999,19.850000,17.163198,78500
2018-08-31,19.700001,19.903000,19.240000,19.600000,16.947035,89200
2018-09-04,19.590000,19.910000,19.480000,19.809999,17.128611,139900
2018-09-05,19.629999,19.750000,19.351999,19.650000,16.990267,97300
2018-09-06,19.690001,19.690001,19.160000,19.209999,16.609823,65900
2018-09-07,19.170000,19.535000,19.059999,19.170000,16.575239,103600
2018-09-10,19.219999,19.320000,19.040001,19.299999,16.687639,65200
2018-09-11,19.280001,19.600000,19.110001,19.500000,16.860573,62100
2018-09-12,19.510000,19.697001,19.430000,19.430000,16.800045,59700
2018-09-13,19.500000,19.590000,19.330000,19.450001,16.817339,95800
2018-09-14,19.350000,19.448000,19.129999,19.150000,16.557947,79900
2018-09-17,19.200001,19.879999,19.200001,19.740000,17.068085,354600
2018-09-18,19.750000,19.889999,19.610001,19.790001,17.111320,275600
2018-09-19,19.799999,19.957001,19.559999,19.809999,17.128611,142200
2018-09-20,19.889999,19.889999,19.709999,19.820000,17.137255,143600
2018-09-21,19.820000,19.820000,19.500000,19.549999,16.903803,202300
2018-09-24,19.490000,19.780001,19.360001,19.620001,16.964331,170500
2018-09-25,19.620001,19.620001,19.170000,19.299999,16.687639,178000
2018-09-26,19.299999,19.410000,19.250000,19.260000,16.653055,201500
2018-09-27,19.299999,19.400000,19.260000,19.299999,16.687639,83300
2018-09-28,19.250000,19.299999,19.080000,19.250000,16.644411,230600
2018-10-01,19.320000,19.500000,19.247999,19.400000,16.774105,63400
2018-10-02,19.440001,19.440001,19.049999,19.299999,16.687639,388300
2018-10-03,19.290001,19.591000,19.290001,19.469999,16.834631,225700
2018-10-04,19.520000,19.770000,19.445000,19.540001,16.895159,205800
2018-10-05,19.700001,19.990000,19.580000,19.920000,17.223722,204800
2018-10-08,20.000000,20.000000,19.830000,19.860001,17.171843,145100
2018-10-09,19.809999,20.049999,19.750000,19.990000,17.284246,114300
2018-10-10,19.930000,19.969999,19.615000,19.700001,17.033503,152200
2018-10-11,19.580000,19.688000,19.260000,19.260000,16.653055,97600
2018-10-12,19.450001,19.465000,18.740000,18.920000,16.359077,173600
2018-10-15,19.070000,19.129999,18.780001,18.940001,16.376371,143700
2018-10-16,19.000000,19.250000,18.840000,19.100000,16.514713,132300
2018-10-17,19.150000,19.150000,18.870001,18.969999,16.402309,48600
2018-10-18,18.940001,19.090000,18.559999,18.639999,16.116974,224900
2018-10-19,18.750000,18.870001,18.500000,18.730000,16.194794,218000
2018-10-22,18.850000,19.000000,18.549999,18.600000,16.082390,128200
2018-10-23,18.459999,18.511999,18.200001,18.340000,15.857581,217700
2018-10-24,18.299999,18.400000,18.080000,18.250000,15.779765,226300
2018-10-25,18.320000,18.320000,18.000000,18.010000,15.572248,157800
2018-10-26,17.900000,18.290001,17.809999,18.139999,15.684651,93800
2018-10-29,18.270000,18.430000,17.674999,17.910000,15.485787,97200
2018-10-30,18.350000,18.350000,17.889999,18.209999,15.745177,105100
2018-10-31,18.420000,18.600000,18.129999,18.250000,15.779765,218300
2018-11-01,18.299999,18.540001,17.920000,18.080000,15.632773,555800
2018-11-02,17.799999,18.129999,17.750000,18.030001,15.895407,246500
2018-11-05,18.200001,18.900000,18.049999,18.139999,15.992384,368000
2018-11-06,18.250000,18.250000,17.760000,18.049999,15.913036,86700
2018-11-07,18.250000,18.440001,18.049999,18.120001,15.974754,123900
2018-11-08,18.240000,18.440001,18.000000,18.059999,15.921855,223200
2018-11-09,18.000000,18.135000,17.790001,18.059999,15.921855,274000
2018-11-12,18.180000,18.180000,17.760000,17.820000,15.710270,155200
2018-11-13,17.930000,17.930000,17.580000,17.629999,15.542764,156000
2018-11-14,17.719999,17.944000,17.559999,17.730000,15.630924,273300
2018-11-15,17.570000,17.700001,17.450001,17.650000,15.560395,294800
2018-11-16,17.740000,17.930000,17.379999,17.559999,15.481052,143600
2018-11-19,17.690001,17.840000,17.620001,17.790001,15.683822,160400
2018-11-20,17.780001,17.780001,17.100000,17.260000,15.216570,241200
2018-11-21,17.340000,17.586000,17.180000,17.400000,15.339993,108500
2018-11-23,17.559999,17.559999,17.110001,17.240000,15.198936,37600
2018-11-26,17.480000,17.680000,17.270000,17.330000,15.278281,125600
2018-11-27,17.330000,17.600000,17.309999,17.420000,15.357626,75900
2018-11-28,17.430000,18.020000,17.340000,18.000000,15.868958,212700
2018-11-29,17.980000,18.610001,17.934000,18.430000,16.248053,313200
2018-11-30,18.400000,18.400000,17.870001,18.100000,15.957123,216600
2018-12-03,18.280001,18.920000,18.200001,18.840000,16.609512,338100
2018-12-04,18.840000,18.840000,18.500000,18.590000,16.389109,480600
2018-12-06,18.520000,18.760000,17.990000,18.760000,16.538982,430200
2018-12-07,18.780001,18.850000,18.559999,18.600000,16.397923,186000
2018-12-10,18.629999,18.650000,18.110001,18.230000,16.071728,248500
2018-12-11,18.400000,18.790001,18.190001,18.459999,16.274500,167200
2018-12-12,18.500000,18.889999,18.500000,18.680000,16.468454,136500
2018-12-13,18.680000,18.959999,18.520000,18.600000,16.397923,83700
2018-12-14,18.559999,18.830000,17.910000,18.000000,15.868958,215300
2018-12-17,18.000000,18.125000,16.860001,16.920000,14.916821,517600
2018-12-18,16.920000,17.430000,16.610001,16.790001,14.802215,371400
2018-12-19,16.799999,17.230000,16.650000,16.940001,14.934455,260100
2018-12-20,16.940001,16.940001,15.870000,16.230000,14.308512,582500
2018-12-21,16.230000,16.299999,15.780000,15.900000,14.017580,2580500
2018-12-24,16.010000,16.209999,15.300000,15.320000,13.506248,243000
2018-12-26,15.380000,16.400000,15.250000,16.389999,14.449569,279700
2018-12-27,16.049999,16.389999,15.630000,16.370001,14.431938,270500
2018-12-28,16.400000,16.500000,15.740000,15.970000,14.079295,310600
2018-12-31,15.940000,16.280001,15.760000,16.280001,14.352593,248500
2019-01-02,16.150000,16.704000,16.059999,16.400000,14.458385,416100
2019-01-03,16.299999,16.490000,16.170000,16.330000,14.396672,298700
2019-01-04,16.549999,17.323999,16.549999,17.260000,15.216570,334000
2019-01-07,17.350000,17.870001,17.270000,17.549999,15.472237,517700
2019-01-08,17.629999,17.940001,17.600000,17.830000,15.719085,346000
2019-01-09,18.000000,18.309999,17.830000,18.309999,16.142258,366600
2019-01-10,18.139999,18.240000,17.709999,17.840000,15.727903,161100
2019-01-11,17.780001,17.850000,17.459999,17.490000,15.419336,162000
2019-01-14,17.459999,17.586000,17.200001,17.250000,15.207752,128200
2019-01-15,17.299999,17.629999,17.215000,17.469999,15.401706,248800
2019-01-16,17.510000,17.799999,17.410000,17.549999,15.472237,147600
2019-01-17,17.559999,17.799999,17.360001,17.570000,15.489868,356900
2019-01-18,17.760000,17.820000,17.636999,17.740000,15.639741,154900
2019-01-22,17.690001,17.709999,16.940001,16.990000,14.978536,237500
2019-01-23,17.049999,17.170000,16.830000,16.920000,14.916821,143700
2019-01-24,16.959999,17.160000,16.790001,17.040001,15.022615,137500
2019-01-25,17.160000,17.299999,17.059999,17.080000,15.057879,228300
2019-01-28,17.120001,17.250000,16.870001,16.990000,14.978536,221100
2019-01-29,17.090000,17.320000,16.924999,17.120001,15.093143,422500
2019-01-30,17.200001,17.540001,17.181999,17.490000,15.419336,235500
2019-01-31,17.440001,17.440001,15.670000,15.960000,14.070477,1706300
2019-02-01,16.000000,16.230000,15.755000,16.040001,14.141006,1486500
2019-02-04,15.990000,16.245001,15.767000,16.000000,14.429873,487100
2019-02-05,15.810000,15.985000,15.770000,15.820000,14.267537,302800
2019-02-06,15.760000,15.895000,15.330000,15.510000,13.987960,268100
2019-02-07,15.500000,15.500000,15.070000,15.080000,13.600156,242700
2019-02-08,15.080000,15.111000,14.700000,15.040000,13.564082,274600
2019-02-11,15.000000,15.220000,14.902000,15.150000,13.663287,210400
2019-02-12,15.320000,15.770000,15.250000,15.760000,14.213427,298500
2019-02-13,15.820000,15.885000,15.560000,15.850000,14.294594,387200
2019-02-14,15.920000,16.150000,15.857000,16.030001,14.456931,226500
2019-02-15,16.219999,16.225000,15.910000,16.030001,14.456931,251700
2019-02-19,16.030001,16.386999,15.980000,16.049999,14.474967,310400
2019-02-20,16.170000,16.170000,15.730000,15.950000,14.384780,171500
2019-02-21,15.910000,16.100000,15.650000,16.000000,14.429873,418400
2019-02-22,16.120001,16.340000,16.070000,16.129999,14.547116,189100
2019-02-25,16.270000,16.278999,15.900000,16.110001,14.529079,229700
2019-02-26,16.209999,16.410000,15.790000,15.900000,14.339687,291400
2019-02-27,16.000000,16.049999,15.600000,15.600000,14.069127,247600
2019-02-28,15.610000,15.610000,15.170000,15.510000,13.987960,355700
2019-03-01,15.590000,15.750000,15.505000,15.710000,14.168332,187800
2019-03-04,15.720000,15.940000,15.662000,15.800000,14.249502,410400
2019-03-05,15.790000,15.824000,15.450000,15.480000,13.960902,158900
2019-03-06,15.490000,15.590000,15.200000,15.240000,13.744455,152900
2019-03-07,15.040000,15.320000,15.020000,15.290000,13.789549,403900
2019-03-08,15.180000,15.220000,14.840000,15.010000,13.537025,399500
2019-03-11,15.090000,15.370000,15.065000,15.130000,13.645250,439800
2019-03-12,15.150000,15.298000,14.850000,14.980000,13.509971,306800
2019-03-13,15.040000,15.230000,14.945000,14.950000,13.482913,174300
2019-03-14,14.960000,15.060000,14.590000,14.690000,13.248428,1225500
2019-03-15,14.730000,14.950000,14.580000,14.610000,13.176279,832000
2019-03-18,14.610000,15.160000,14.610000,15.130000,13.645250,248000
2019-03-19,15.000000,15.170000,14.920000,15.000000,13.528007,148700
2019-03-20,14.950000,15.080000,14.860000,15.030000,13.555063,95300
2019-03-21,15.050000,15.130000,14.890000,14.950000,13.482913,106500
2019-03-22,14.830000,14.922000,14.400000,14.430000,13.013943,300400
2019-03-25,14.430000,14.480000,13.860000,14.320000,12.914737,556300
2019-03-26,14.440000,14.590000,13.960000,14.400000,12.986887,932900
2019-03-27,14.380000,14.830000,14.120000,14.330000,12.923757,897700
2019-03-28,14.380000,14.990000,14.380000,14.970000,13.500952,425400
2019-03-29,15.090000,15.330000,15.020000,15.210000,13.717400,443600
2019-04-01,15.360000,15.454000,15.187000,15.240000,13.744455,196000
2019-04-02,15.270000,15.335000,14.970000,14.970000,13.500952,104300
2019-04-03,15.040000,15.150000,14.800000,14.860000,13.401745,117300
2019-04-04,14.840000,14.970000,14.790000,14.900000,13.437819,167000
2019-04-05,14.930000,15.100000,14.880000,15.020000,13.546044,215900
2019-04-08,15.080000,15.240000,15.015000,15.230000,13.735436,164800
2019-04-09,15.250000,15.250000,15.000000,15.110000,13.627212,155900
2019-04-10,15.110000,15.170000,14.930000,14.940000,13.473895,276000
2019-04-11,14.980000,15.140000,14.960000,15.110000,13.627212,166400
2019-04-12,15.240000,15.330000,15.120000,15.330000,13.825623,400500
2019-04-15,15.390000,15.500000,15.210000,15.260000,13.762493,205100
2019-04-16,15.300000,15.327000,15.060000,15.100000,13.618195,147900
2019-04-17,15.180000,15.310000,14.900000,15.050000,13.573101,233200
2019-04-18,15.130000,15.370000,15.050000,15.330000,13.825623,229000
2019-04-22,15.480000,15.970000,15.480000,15.950000,14.384780,506000
2019-04-23,16.000000,16.110001,15.760000,15.760000,14.213427,372900
2019-04-24,15.750000,15.800000,15.550000,15.730000,14.186370,326100
2019-04-25,15.650000,15.790000,15.568000,15.720000,14.177352,128900
2019-04-26,15.700000,15.710000,15.420000,15.490000,13.969921,167700
2019-04-29,15.500000,15.595000,15.370000,15.530000,14.005997,212600
2019-04-30,15.730000,15.730000,15.250000,15.510000,13.987960,308400
2019-05-01,15.510000,15.570000,15.400000,15.440000,13.924829,197400
2019-05-02,15.350000,15.480000,15.030000,15.300000,13.798567,380900
2019-05-03,14.920000,15.050000,14.750000,14.920000,13.792096,217000
2019-05-06,14.760000,15.050000,14.750000,14.970000,13.838317,193200
2019-05-07,14.950000,15.050000,14.700000,14.890000,13.764364,156800
2019-05-08,14.920000,14.996000,14.720000,14.750000,13.634949,208000
2019-05-09,14.670000,14.780000,14.470000,14.600000,13.496287,180100
2019-05-10,14.660000,15.040000,14.530000,15.020000,13.884537,170900
2019-05-13,14.970000,15.070000,14.850000,15.000000,13.866048,392300
2019-05-14,15.140000,15.290000,15.050000,15.240000,14.087906,287300
2019-05-15,15.300000,15.490000,15.100000,15.380000,14.217322,273100
2019-05-16,15.410000,15.540000,15.150000,15.210000,14.060173,164500
2019-05-17,15.230000,15.230000,14.880000,14.890000,13.764364,196200
2019-05-20,15.020000,15.051000,14.890000,14.900000,13.773607,150700
2019-05-21,14.900000,15.150000,14.800000,14.860000,13.736632,241800
2019-05-22,14.860000,14.970000,14.700000,14.860000,13.736632,105400
2019-05-23,14.750000,14.750000,14.530000,14.580000,13.477799,200600
2019-05-24,14.740000,14.750000,14.450000,14.660000,13.551752,186700
2019-05-28,14.660000,14.660000,14.320000,14.380000,13.292919,180400
2019-05-29,14.350000,14.600000,14.105000,14.600000,13.496287,237500
2019-05-30,14.660000,14.790000,14.370000,14.730000,13.616459,405800
2019-05-31,14.630000,14.800000,14.555000,14.660000,13.551752,604200
2019-06-03,14.720000,14.990000,14.720000,14.800000,13.681168,208700
2019-06-04,14.900000,15.260000,14.860000,15.180000,14.032442,225600
2019-06-05,15.240000,15.370000,14.970000,15.000000,13.866048,459200
2019-06-06,15.030000,15.130000,14.970000,14.980000,13.847561,84000
2019-06-07,15.010000,15.144000,14.740000,14.750000,13.634949,143000
2019-06-10,14.750000,14.805000,14.600000,14.640000,13.533264,149900
2019-06-11,14.690000,14.780000,14.520000,14.680000,13.570239,272000
2019-06-12,14.580000,14.770000,14.500000,14.500000,13.403847,120400
2019-06-13,14.680000,14.740000,14.500000,14.710000,13.597971,148600
2019-06-14,14.790000,14.790000,13.480000,13.690000,12.655080,897500
2019-06-17,13.740000,13.796000,13.430000,13.780000,12.738276,510400
2019-06-18,13.820000,14.130000,13.750000,13.780000,12.738276,340100
2019-06-19,13.790000,14.050000,13.660000,14.000000,12.941646,120300
2019-06-20,14.130000,14.230000,14.000000,14.020000,12.960134,75200
2019-06-21,14.020000,14.170000,14.000000,14.170000,13.098794,193600
2019-06-24,14.150000,14.250000,14.030000,14.040000,12.978621,93100
2019-06-25,14.040000,14.120000,13.730000,13.730000,12.692056,199000
2019-06-26,13.880000,14.037000,13.780000,13.830000,12.784497,204200
2019-06-27,13.850000,13.940000,13.780000,13.820000,12.775252,77600
2019-06-28,13.820000,14.090000,13.800000,14.050000,12.987866,177800
2019-07-01,14.180000,14.420000,14.060000,14.130000,13.061818,167000
2019-07-02,14.130000,14.187000,13.880000,13.890000,12.839961,262200
2019-07-03,13.970000,14.050000,13.850000,13.900000,12.849204,105200
2019-07-05,13.900000,14.270000,13.890000,14.270000,13.191234,305200
2019-07-08,14.270000,14.330000,14.000000,14.030000,12.969378,161100
2019-07-09,13.970000,14.020000,13.890000,13.930000,12.876937,93700
2019-07-10,14.010000,14.200000,14.010000,14.140000,13.071062,364700
2019-07-11,14.210000,14.400000,14.190000,14.330000,13.246698,219400
2019-07-12,14.320000,14.660000,14.310000,14.660000,13.551752,201400
2019-07-15,14.730000,14.750000,14.620000,14.680000,13.570239,123900
2019-07-16,14.660000,14.750000,14.500000,14.560000,13.459311,112300
2019-07-17,14.550000,14.715000,14.370000,14.540000,13.440824,267600
2019-07-18,14.510000,14.550000,14.280000,14.500000,13.403847,219000
2019-07-19,14.540000,14.540000,14.210000,14.290000,13.209723,130500
2019-07-22,14.370000,14.920000,14.330000,14.880000,13.755120,261600
2019-07-23,14.890000,15.034000,14.710000,14.750000,13.634949,144100
2019-07-24,14.750000,14.900000,14.650000,14.750000,13.634949,119800
2019-07-25,14.790000,14.930000,14.707000,14.880000,13.755120,282800
2019-07-26,14.850000,14.990000,14.350000,14.500000,13.403847,386600
2019-07-29,14.540000,14.615000,14.210000,14.290000,13.209723,368400
2019-07-30,14.840000,15.335000,14.550000,15.170000,14.023197,1015500
2019-07-31,15.370000,15.910000,15.280000,15.680000,14.494643,866500
2019-08-01,15.710000,15.720000,15.200000,15.430000,14.263542,302700
2019-08-02,15.520000,15.530000,14.560000,15.380000,14.217322,499100
2019-08-05,14.940000,15.040000,14.550000,14.610000,13.854137,470800
2019-08-06,14.670000,14.750000,14.350000,14.550000,13.797242,243800
2019-08-07,14.370000,14.450000,14.080000,14.180000,13.446384,288700
2019-08-08,14.220000,14.320000,14.080000,14.090000,13.361040,239100
2019-08-09,14.160000,14.410000,14.080000,14.220000,13.484314,387700
2019-08-12,14.250000,14.270000,13.970000,14.010000,13.285179,690200
2019-08-13,14.000000,14.200000,13.960000,14.050000,13.323110,348100
2019-08-14,14.040000,14.050000,13.630000,13.910000,13.190352,394700
2019-08-15,13.930000,13.980000,13.750000,13.820000,13.105008,249700
2019-08-16,13.860000,14.280000,13.860000,14.280000,13.541209,193800
2019-08-19,14.520000,14.570000,14.260000,14.510000,13.759311,610800
2019-08-20,14.560000,14.580000,14.390000,14.400000,13.655002,205000
2019-08-21,14.540000,14.620000,14.270000,14.320000,13.579141,334200
2019-08-22,14.410000,14.480000,14.040000,14.070000,13.342073,416200
2019-08-23,14.020000,14.110000,13.810000,13.840000,13.123974,195500
2019-08-26,13.950000,14.000000,13.780000,13.880000,13.161904,190800
2019-08-27,13.880000,13.950000,13.730000,13.760000,13.048113,173700
2019-08-28,13.850000,14.130000,13.790000,13.960000,13.237765,282000
2019-08-29,14.050000,14.360000,14.050000,14.290000,13.550693,165500
2019-08-30,14.360000,14.400000,14.100000,14.150000,13.417935,102400
2019-09-03,14.100000,14.100000,13.970000,13.980000,13.256731,213300
2019-09-04,14.060000,14.140000,13.900000,14.010000,13.285179,591700
2019-09-05,14.090000,14.200000,14.000000,14.020000,13.294662,136300
2019-09-06,13.960000,13.965000,13.790000,13.850000,13.133457,201400
2019-09-09,13.850000,14.300000,13.850000,14.290000,13.550693,256600
2019-09-10,14.370000,14.490000,14.220000,14.270000,13.531728,498500
2019-09-11,14.310000,14.480000,14.100000,14.230000,13.493796,156400
2019-09-12,14.150000,14.280000,13.950000,13.990000,13.266213,170500
2019-09-13,13.970000,14.670000,13.970000,14.600000,13.844655,254100
2019-09-16,14.870000,14.905000,14.500000,14.790000,14.024824,268200
2019-09-17,14.900000,14.970000,14.690000,14.820000,14.053272,270400
2019-09-18,15.000000,15.162000,14.750000,15.100000,14.318787,491000
2019-09-19,15.180000,15.204000,14.790000,14.800000,14.034307,304800
2019-09-20,14.890000,15.120000,14.720000,14.800000,14.034307,759100
2019-09-23,14.950000,15.065000,14.870000,14.910000,14.138617,340600
2019-09-24,14.930000,14.970000,14.520000,14.520000,13.768794,253200
2019-09-25,14.520000,14.560000,14.220000,14.380000,13.636037,268000
2019-09-26,14.380000,14.460000,14.250000,14.260000,13.522245,189200
2019-09-27,14.260000,14.450000,14.100000,14.110000,13.380005,315900
2019-09-30,14.150000,14.250000,14.000000,14.100000,13.370522,326600
2019-10-01,14.190000,14.240000,14.000000,14.000000,13.275696,154700
2019-10-02,13.940000,14.030000,13.810000,13.830000,13.114491,492700
2019-10-03,13.880000,13.960000,13.710000,13.830000,13.114491,339600
2019-10-04,13.830000,14.050000,13.830000,14.000000,13.275696,149300
2019-10-07,13.960000,14.070000,13.780000,13.780000,13.067079,151000
2019-10-08,13.750000,13.920000,13.630000,13.850000,13.133457,228100
2019-10-09,13.950000,13.950000,13.650000,13.650000,12.943803,138800
2019-10-10,13.650000,13.656000,13.400000,13.400000,12.706738,484600
2019-10-11,13.480000,13.530000,13.400000,13.400000,12.706738,257500
2019-10-14,13.400000,13.464000,13.120000,13.160000,12.479154,277400
2019-10-15,13.170000,13.340000,12.950000,13.030000,12.355880,432800
2019-10-16,13.050000,13.140000,12.970000,12.980000,12.308467,324100
2019-10-17,13.070000,13.370000,13.030000,13.310000,12.621394,255600
2019-10-18,13.320000,13.460000,13.140000,13.140000,12.460190,317800
2019-10-21,13.200000,13.450000,13.200000,13.430000,12.735187,331100
2019-10-22,13.500000,13.680000,13.469000,13.620000,12.915356,194100
2019-10-23,13.650000,13.730000,13.510000,13.730000,13.019664,125300
2019-10-24,13.740000,14.100000,13.520000,13.580000,12.877425,420700
2019-10-25,13.550000,13.790000,13.540000,13.730000,13.019664,150300
2019-10-28,13.770000,13.950000,13.540000,13.590000,12.886908,278900
2019-10-29,14.090000,14.645000,13.660000,14.580000,13.825689,639200
2019-10-30,14.740000,15.330000,14.730000,14.940000,14.167064,560900
2019-10-31,14.930000,15.390000,14.800000,15.330000,14.536887,674000
2019-11-01,15.330000,15.707000,15.300000,15.630000,14.821366,591600
2019-11-04,15.290000,15.460000,14.800000,14.870000,14.471025,561700
2019-11-05,14.970000,14.980000,14.600000,14.760000,14.363976,316900
2019-11-06,14.750000,14.880000,14.450000,14.800000,14.402904,304400
2019-11-07,14.830000,14.920000,14.370000,14.440000,14.052562,259900
2019-11-08,14.360000,14.570000,14.250000,14.340000,13.955246,231700
2019-11-11,14.400000,14.440000,14.090000,14.110000,13.731417,338800
2019-11-12,14.190000,14.320000,13.930000,13.970000,13.595173,311600
2019-11-13,13.920000,14.170000,13.780000,13.790000,13.420003,343000
2019-11-14,13.800000,13.940000,13.650000,13.730000,13.361612,415200
2019-11-15,13.800000,14.100000,13.730000,14.050000,13.673027,464000
2019-11-18,14.190000,14.290000,13.800000,13.800000,13.429734,406100
2019-11-19,13.835000,13.980000,13.540000,13.540000,13.176710,545300
2019-11-20,13.510000,13.690000,13.330000,13.650000,13.283758,394800
2019-11-21,13.700000,13.860000,13.500000,13.850000,13.478393,293700
2019-11-22,13.880000,14.035000,13.660000,13.910000,13.536782,352200
2019-11-25,13.920000,14.110000,13.910000,13.980000,13.604904,396400
2019-11-26,13.950000,14.210000,13.930000,14.170000,13.789807,558400
2019-11-27,14.200000,14.460000,14.070000,14.270000,13.887124,1022500
2019-11-29,14.290000,14.950000,14.270000,14.500000,14.110952,531900
2019-12-02,14.550000,14.580000,14.360000,14.480000,14.091489,641800
2019-12-03,14.400000,14.511000,14.200000,14.280000,13.896855,583000
2019-12-04,14.280000,14.400000,14.110000,14.190000,13.809270,253500
2019-12-05,14.170000,14.240000,14.050000,14.050000,13.673027,235600
2019-12-06,14.090000,14.290000,14.045000,14.050000,13.673027,275800
2019-12-09,14.080000,14.350000,14.010000,14.350000,13.964977,519000
2019-12-10,14.340000,14.855000,14.300000,14.770000,14.373709,479100
2019-12-11,14.810000,14.970000,14.720000,14.950000,14.548879,417200
2019-12-12,14.940000,15.100000,14.810000,14.830000,14.432098,261100
2019-12-13,14.830000,14.920000,14.710000,14.790000,14.393171,353800
2019-12-16,14.700000,15.250000,14.700000,15.140000,14.733781,593700
2019-12-17,15.140000,15.540000,15.140000,15.230000,14.821365,339000
2019-12-18,15.240000,15.520000,15.240000,15.500000,15.084122,551600
2019-12-19,15.510000,15.900000,15.470000,15.880000,15.453926,503500
2019-12-20,15.880000,15.910000,15.660000,15.890000,15.463658,564100
2019-12-23,15.850000,16.000000,15.750000,15.950000,15.522048,405900
2019-12-24,16.000000,16.209999,15.870000,16.170000,15.736145,201400
2019-12-26,16.190001,16.610001,16.158001,16.610001,16.164341,344900
2019-12-27,16.629999,16.650000,16.020000,16.040001,15.609634,333800
2019-12-30,16.049999,16.370001,16.000000,16.190001,15.755609,280900
2019-12-31,16.180000,16.549999,16.180000,16.459999,16.018364,505700
2020-01-02,16.549999,16.700001,16.485001,16.690001,16.242193,321600
2020-01-03,16.750000,16.930000,16.540001,16.639999,16.193535,341600
2020-01-06,16.650000,16.870001,16.650000,16.820000,16.368704,473000
2020-01-07,16.600000,16.799999,16.440001,16.500000,16.057291,536800
2020-01-08,16.490000,16.610001,15.960000,16.320000,15.882120,799900
2020-01-09,16.320000,16.459999,16.059999,16.430000,15.989169,259400
2020-01-10,16.400000,16.500000,16.259001,16.450001,16.008633,390800
2020-01-13,16.500000,16.730000,16.320000,16.670000,16.222731,437600
2020-01-14,16.580000,16.778000,16.492001,16.700001,16.251926,398100
2020-01-15,16.600000,16.770000,16.490000,16.719999,16.271387,390000
2020-01-16,16.740000,16.900000,16.670000,16.870001,16.417364,416300
2020-01-17,16.920000,16.940001,16.360001,16.520000,16.076756,365700
2020-01-21,16.459999,16.459999,15.800000,15.880000,15.453926,670000
2020-01-22,15.870000,15.927000,15.560000,15.610000,15.191170,436600
2020-01-23,15.580000,15.730000,15.314000,15.540000,15.123049,466500
2020-01-24,15.590000,15.670000,15.290000,15.340000,14.928415,462300
2020-01-27,15.110000,15.410000,14.635000,15.330000,14.918683,362000
2020-01-28,15.360000,15.515000,15.200000,15.270000,14.860293,341300
2020-01-29,15.100000,15.150000,14.750000,14.840000,14.441831,333500
2020-01-30,15.340000,15.770000,15.090000,15.390000,14.977074,761900
2020-01-31,15.370000,15.490000,15.030000,15.390000,14.977074,489000
2020-02-03,15.500000,15.532000,15.210000,15.430000,15.016000,625500
2020-02-04,15.080000,15.270000,14.760000,14.950000,14.950000,514000
2020-02-05,15.140000,15.190000,14.770000,14.820000,14.820000,555600
2020-02-06,14.800000,14.890000,14.240000,14.260000,14.260000,555600
2020-02-07,14.230000,14.380000,14.097000,14.190000,14.190000,406500
2020-02-10,14.200000,14.290000,13.880000,13.880000,13.880000,493200
2020-02-11,14.000000,14.200000,14.000000,14.120000,14.120000,414600
2020-02-12,14.240000,14.500000,14.060000,14.360000,14.360000,471800
2020-02-13,14.410000,14.550000,14.120000,14.250000,14.250000,329000