Date,Open,High,Low,Close,Adj Close,Volume
2018-01-19,17.500000,18.000000,17.049999,17.770000,16.817507,18176900
2018-01-22,17.889999,18.000000,17.559999,17.790001,16.836433,2261600
2018-01-23,17.950001,17.950001,17.410000,17.639999,16.694473,2391200
2018-01-24,17.830000,17.830000,17.540001,17.629999,16.685011,1419900
2018-01-25,17.600000,18.049999,17.309999,17.750000,16.798576,3198700
2018-01-26,17.809999,17.889999,17.650000,17.750000,16.798576,562100
2018-01-29,17.610001,17.990000,17.580000,17.950001,16.987860,947300
2018-01-30,17.920000,17.969999,17.590000,17.910000,16.949999,925600
2018-01-31,17.910000,18.350000,17.830000,18.280001,17.300171,1161100
2018-02-01,18.270000,18.410000,18.120001,18.270000,17.290705,974300
2018-02-02,18.230000,18.290001,17.850000,18.180000,17.205528,1226100
2018-02-05,18.120001,18.290001,17.799999,17.940001,16.978395,613400
2018-02-06,17.840000,17.990000,17.250000,17.799999,16.845898,1929500
2018-02-07,17.740000,18.100000,17.650000,18.020000,17.054104,510500
2018-02-08,17.940001,18.020000,17.660000,17.680000,16.732330,484600
2018-02-09,17.709999,17.950001,16.129999,17.790001,16.836433,1018700
2018-02-12,17.570000,17.930000,17.350000,17.530001,16.590372,559500
2018-02-13,17.650000,18.090000,17.610001,17.959999,16.997318,334500
2018-02-14,17.940001,18.010000,17.700001,17.980000,17.016249,391900
2018-02-15,18.000000,18.080000,17.889999,17.920000,16.959467,393900
2018-02-16,17.930000,18.070000,17.830000,17.980000,17.016249,341800
2018-02-20,18.000000,18.030001,17.900000,17.969999,17.006783,390900
2018-02-21,18.000000,18.020000,17.780001,17.900000,16.940538,641400
2018-02-22,17.850000,17.950001,17.660000,17.850000,16.893219,564400
2018-02-23,17.809999,18.250000,17.799999,18.219999,17.243385,747700
2018-02-26,18.270000,18.370001,18.080000,18.090000,17.120354,330900
2018-02-27,18.170000,18.250000,17.920000,18.000000,17.035177,718600
2018-02-28,18.000000,18.059999,17.900000,18.000000,17.035177,720200
2018-03-01,18.000000,18.260000,17.860001,17.910000,16.949999,733100
2018-03-02,17.820000,18.100000,17.180000,17.900000,16.940538,563600
2018-03-05,17.910000,17.950001,17.700001,17.760000,16.808039,377400
2018-03-06,17.799999,18.150000,17.750000,17.770000,16.817507,266700
2018-03-07,17.780001,17.930000,17.719999,17.740000,16.789114,257700
2018-03-08,17.879999,18.000000,17.780001,17.860001,16.902683,249600
2018-03-09,17.950001,18.049999,17.809999,17.969999,17.006783,471500
2018-03-12,18.330000,18.340000,17.930000,18.129999,17.158209,364900
2018-03-13,18.049999,18.209999,17.750000,17.910000,16.949999,256100
2018-03-14,17.900000,18.059999,17.770000,17.940001,16.978395,456300
2018-03-15,17.980000,18.420000,17.980000,18.330000,17.347488,493300
2018-03-16,18.320000,18.670000,18.110001,18.670000,17.669266,7694500
2018-03-19,18.670000,18.790001,18.480000,18.700001,17.697655,740800
2018-03-20,18.780001,18.780001,18.459999,18.719999,17.716587,451200
2018-03-21,18.600000,19.129999,18.549999,18.879999,17.868008,970600
2018-03-22,18.760000,18.950001,18.730000,18.850000,17.839615,368300
2018-03-23,18.830000,18.950001,18.570000,18.660000,17.659801,563700
2018-03-26,18.840000,18.900000,18.520000,18.650000,17.650337,885900
2018-03-27,18.750000,18.799999,18.450001,18.469999,17.479984,259200
2018-03-28,18.379999,18.700001,18.299999,18.629999,17.765665,759300
2018-03-29,18.549999,19.280001,18.549999,19.080000,18.194786,726000
2018-04-02,19.000000,19.219999,18.570000,18.580000,17.717985,529200
2018-04-03,18.790001,18.790001,18.530001,18.650000,17.784739,569800
2018-04-04,18.500000,18.969999,18.436001,18.820000,17.946852,552900
2018-04-05,18.799999,18.875000,18.650000,18.840000,17.965923,555200
2018-04-06,18.760000,18.940001,18.690001,18.830000,17.956387,195500
2018-04-09,18.969999,19.260000,18.709999,19.059999,18.175714,651000
2018-04-10,19.190001,19.209999,19.010000,19.100000,18.213861,529200
2018-04-11,19.059999,19.559999,19.000000,19.459999,18.557156,716300
2018-04-12,19.540001,19.629999,19.290001,19.290001,18.395046,578700
2018-04-13,19.400000,19.400000,19.020000,19.020000,18.137569,301600
2018-04-16,19.059999,19.370001,18.910000,19.360001,18.461800,252200
2018-04-17,19.370001,19.660000,19.360001,19.480000,18.576229,298400
2018-04-18,19.530001,19.830000,19.240000,19.719999,18.805098,266400
2018-04-19,19.610001,19.770000,19.504999,19.719999,18.805098,441200
2018-04-20,19.730000,20.070000,19.719999,19.850000,18.929062,469100
2018-04-23,19.860001,20.110001,19.851000,19.980000,19.053032,566600
2018-04-24,20.049999,20.110001,19.940001,20.080000,19.148390,575200
2018-04-25,20.170000,20.260000,19.969999,20.200001,19.262829,191000
2018-04-26,20.350000,20.500000,20.230000,20.330000,19.386793,256200
2018-04-27,20.340000,21.049999,20.340000,20.820000,19.854059,350400
2018-04-30,20.820000,21.129999,20.530001,20.610001,19.653803,580200
2018-05-01,20.600000,20.639999,20.299999,20.610001,19.653803,707000
2018-05-02,20.549999,20.920000,20.500000,20.510000,19.558445,732400
2018-05-03,20.510000,20.790001,20.320000,20.719999,19.758699,222100
2018-05-04,20.719999,20.920000,20.639999,20.740000,19.777773,318000
2018-05-07,20.870001,21.040001,20.643000,20.990000,20.016172,197300
2018-05-08,20.920000,21.160000,20.690001,21.139999,20.159214,381300
2018-05-09,21.200001,21.530001,21.040001,21.490000,20.492975,351700
2018-05-10,21.719999,22.059999,21.350000,21.430000,20.435760,805400
2018-05-11,23.190001,23.540001,21.719999,22.299999,21.265396,2001700
2018-05-14,22.299999,22.389999,21.230000,21.420000,20.426224,622600
2018-05-15,21.389999,21.740000,20.750000,21.030001,20.054321,1317500
2018-05-16,21.070000,21.490000,20.900000,21.410000,20.416689,933800
2018-05-17,21.440001,22.070000,21.110001,21.850000,20.836273,1642000
2018-05-18,21.950001,22.030001,21.700001,21.850000,20.836273,526000
2018-05-21,21.850000,22.100000,21.770000,21.889999,20.874420,467800
2018-05-22,21.750000,22.010000,21.250000,21.420000,20.426224,739700
2018-05-23,21.520000,21.990000,21.280001,21.639999,20.636017,876700
2018-05-24,21.709999,21.799999,21.450001,21.680000,20.674162,312700
2018-05-25,21.750000,21.830000,21.424999,21.610001,20.607410,283700
2018-05-29,21.500000,21.674999,21.350000,21.430000,20.435760,771900
2018-05-30,21.510000,21.820000,21.450001,21.760000,20.750450,434900
2018-05-31,21.780001,21.780001,20.450001,20.600000,19.644268,3858800
2018-06-01,21.000000,21.620001,20.770000,21.350000,20.359472,1360800
2018-06-04,21.299999,22.139999,21.260000,22.000000,20.979317,1872200
2018-06-05,21.940001,22.030001,21.340000,21.520000,20.521584,1049000
2018-06-06,21.530001,21.799999,21.240000,21.700001,20.693233,756500
2018-06-07,21.719999,21.860001,21.658001,21.740000,20.731377,1104200
2018-06-08,21.760000,21.865000,21.610001,21.700001,20.693233,817600
2018-06-11,21.750000,21.750000,21.389999,21.620001,20.616947,409000
2018-06-12,21.629999,21.940001,21.559999,21.700001,20.693233,1035400
2018-06-13,21.870001,21.910000,21.575001,21.700001,20.693233,1448500
2018-06-14,21.830000,21.940001,21.670000,21.670000,20.664625,701200
2018-06-15,21.650000,21.709999,21.240000,21.500000,20.502512,2579900
2018-06-18,21.389999,21.830000,21.389999,21.719999,20.712307,961900
2018-06-19,21.650000,22.049999,21.450001,21.750000,20.740911,1260100
2018-06-20,21.950001,22.160000,21.820000,22.120001,21.093748,875100
2018-06-21,22.120001,22.320000,21.900000,22.250000,21.217720,604500
2018-06-22,22.240000,22.450001,22.059999,22.260000,21.227251,1436100
2018-06-25,22.260000,22.559999,22.100000,22.540001,21.494265,339000
2018-06-26,22.590000,22.780001,22.379999,22.660000,21.608696,399500
2018-06-27,22.639999,22.639999,22.010000,22.120001,21.093748,430400
2018-06-28,22.000000,22.323000,21.860001,22.250000,21.399109,264800
2018-06-29,22.440001,22.440001,21.870001,22.020000,21.177900,564600
2018-07-02,21.920000,22.030001,21.750000,21.870001,21.033636,285200
2018-07-03,21.900000,22.059999,21.840000,22.040001,21.197136,287400
2018-07-05,22.110001,22.350000,21.920000,22.209999,21.360636,714000
2018-07-06,22.230000,22.430000,22.184999,22.299999,21.447195,578500
2018-07-09,22.299999,22.430000,21.389999,21.500000,20.677788,1816800
2018-07-10,21.520000,21.915001,21.430000,21.620001,20.793200,876300
2018-07-11,21.530001,21.670000,21.440001,21.440001,20.620081,410600
2018-07-12,21.610001,21.709999,21.379999,21.540001,20.716261,437000
2018-07-13,21.500000,21.777000,21.500000,21.719999,20.889376,399200
2018-07-16,21.790001,21.900000,21.500000,21.639999,20.812431,400200
2018-07-17,21.590000,21.715000,21.250000,21.290001,20.475821,760700
2018-07-18,21.260000,21.559999,21.110001,21.250000,20.437347,694100
2018-07-19,21.250000,21.459999,21.150000,21.440001,20.620081,959300
2018-07-20,21.340000,21.469999,21.170000,21.360001,20.543144,481100
2018-07-23,21.420000,21.420000,21.059999,21.290001,20.475821,777700
2018-07-24,21.290001,21.639999,21.160000,21.500000,20.677788,468500
2018-07-25,21.389999,21.660000,21.299999,21.620001,20.793200,1112900
2018-07-26,21.660000,21.830000,21.559999,21.590000,20.764345,566400
2018-07-27,21.590000,21.610001,21.170000,21.240000,20.427731,517000
2018-07-30,21.340000,21.549999,21.120001,21.320000,20.504669,632100
2018-07-31,21.400000,21.719999,21.275000,21.510000,20.687407,896200
2018-08-01,21.480000,21.545000,21.280001,21.410000,20.591228,403800
2018-08-02,21.370001,21.593000,21.250000,21.540001,20.716261,426400
2018-08-03,21.610001,21.690001,21.504999,21.680000,20.850904,401100
2018-08-06,21.740000,21.840000,21.549999,21.670000,20.841286,296900
2018-08-07,21.600000,21.650000,21.270000,21.490000,20.668169,410500
2018-08-08,21.469999,21.500000,21.299999,21.370001,20.552759,753800
2018-08-09,21.389999,21.549999,21.250000,21.500000,20.677788,403700
2018-08-10,23.040001,23.320000,21.450001,23.139999,22.255068,1753600
2018-08-13,23.290001,23.500000,22.760000,22.980000,22.101187,623700
2018-08-14,22.900000,23.510000,22.709999,23.120001,22.235834,822500
2018-08-15,23.139999,23.309999,22.889999,23.120001,22.235834,414900
2018-08-16,23.200001,23.600000,22.920000,23.530001,22.630156,551400
2018-08-17,23.610001,24.160000,23.400000,23.870001,22.957153,522100
2018-08-20,24.040001,24.120001,23.790001,23.990000,23.072563,370000
2018-08-21,24.070000,24.389999,23.780001,24.100000,23.178360,499700
2018-08-22,24.100000,24.290001,23.670000,23.770000,22.860979,325200
2018-08-23,23.770000,23.870001,23.570000,23.850000,22.937920,369000
2018-08-24,23.900000,24.059999,23.809999,24.049999,23.130268,432500
2018-08-27,24.180000,24.320000,23.940001,24.200001,23.274534,453100
2018-08-28,24.230000,24.430000,24.030001,24.370001,23.438032,546300
2018-08-29,24.450001,24.690001,24.340000,24.639999,23.697704,425400
2018-08-30,24.610001,24.900000,24.370001,24.520000,23.582296,514200
2018-08-31,24.459999,24.950001,24.233000,24.900000,23.947762,541300
2018-09-04,24.850000,25.150000,24.745001,24.879999,23.928528,787200
2018-09-05,24.830000,25.010000,24.670000,24.879999,23.928528,369800
2018-09-06,24.879999,24.930000,24.650000,24.730000,23.784266,327100
2018-09-07,24.700001,24.940001,24.540001,24.680000,23.736179,468700
2018-09-10,24.809999,24.910000,24.610001,24.760000,23.813116,604300
2018-09-11,24.740000,24.930000,24.700001,24.820000,23.870821,506700
2018-09-12,23.969999,24.700001,23.871000,24.639999,23.697704,1462600
2018-09-13,24.780001,25.379999,24.730000,25.180000,24.217056,1459100
2018-09-14,25.000000,25.200001,24.870001,24.910000,23.957380,13019400
2018-09-17,24.780001,25.940001,24.780001,25.690001,24.707552,3490700
2018-09-18,25.840000,25.930000,25.270000,25.590000,24.611376,3111100
2018-09-19,25.690001,26.080000,25.270000,25.270000,24.303612,1807300
2018-09-20,25.250000,25.459999,25.110001,25.270000,24.303612,1081300
2018-09-21,25.320000,25.440001,25.110001,25.379999,24.409407,5927500
2018-09-24,25.400000,25.480000,25.180000,25.250000,24.284380,1151900
2018-09-25,25.299999,25.490000,25.040001,25.190001,24.226675,1144300
2018-09-26,25.170000,25.400000,24.900000,24.980000,24.024706,946300
2018-09-27,24.900000,25.090000,24.620001,24.840000,24.070732,688500
2018-09-28,24.840000,25.020000,24.750000,25.020000,24.245157,1041700
2018-10-01,25.110001,25.200001,24.879999,24.930000,24.157946,615200
2018-10-02,24.920000,25.260000,24.830000,25.020000,24.245157,643500
2018-10-03,24.520000,25.270000,24.520000,25.020000,24.245157,964000
2018-10-04,24.799999,25.190001,24.610001,24.620001,23.857548,968000
2018-10-05,24.660000,24.950001,24.469999,24.879999,24.109491,538700
2018-10-08,24.879999,25.174999,24.844999,25.120001,24.342060,524900
2018-10-09,24.650000,25.410000,24.580000,25.219999,24.438965,578600
2018-10-10,24.440001,25.540001,24.440001,24.770000,24.002901,837600
2018-10-11,24.760000,24.940001,24.150000,24.299999,23.547455,676600
2018-10-12,24.049999,24.570000,23.600000,24.129999,23.382721,717300
2018-10-15,23.670000,24.379999,23.280001,24.260000,23.508696,428300
2018-10-16,24.299999,24.620001,24.236000,24.540001,23.780025,688300
2018-10-17,24.520000,24.660000,24.389999,24.549999,23.789713,903200
2018-10-18,24.459999,24.520000,24.190001,24.190001,23.440863,524000
2018-10-19,24.190001,24.655001,24.190001,24.430000,23.673429,696800
2018-10-22,24.510000,24.820000,24.450001,24.500000,23.741264,480500
2018-10-23,24.430000,24.500000,24.070000,24.360001,23.605598,652800
2018-10-24,24.410000,24.850000,24.379999,24.490000,23.731573,777500
2018-10-25,24.570000,25.030001,24.525000,24.750000,23.983519,570800
2018-10-26,24.740000,24.860001,24.290001,24.709999,23.944759,583900
2018-10-29,24.740000,25.129999,24.690001,24.820000,24.051352,462200
2018-10-30,24.879999,25.430000,24.620001,24.780001,24.012590,1186000
2018-10-31,24.879999,24.980000,24.500000,24.750000,23.983519,712700
2018-11-01,24.790001,24.969999,24.670000,24.770000,24.002901,617000
2018-11-02,24.850000,24.969999,24.370001,24.440001,23.683121,1036700
2018-11-05,24.480000,24.965000,24.469999,24.840000,24.070732,499500
2018-11-06,24.809999,24.975000,24.705000,24.750000,23.983519,467700
2018-11-07,24.740000,25.209999,24.700001,24.940001,24.167637,1246200
2018-11-08,24.900000,25.070000,24.620001,24.900000,24.128872,696200
2018-11-09,24.879999,26.459999,24.450001,26.360001,25.543661,1930600
2018-11-12,26.350000,26.790001,26.110001,26.160000,25.349855,1122000
2018-11-13,26.299999,26.430000,25.700001,25.969999,25.165737,1491900
2018-11-14,26.000000,26.969999,25.980000,26.530001,25.708397,2191200
2018-11-15,26.400000,26.469999,25.691999,26.299999,25.485518,1030500
2018-11-16,26.260000,26.680000,26.090000,26.680000,25.853750,1241400
2018-11-19,26.740000,26.910000,26.270000,26.400000,25.582420,701300
2018-11-20,26.299999,26.360001,25.879999,26.120001,25.311094,849100
2018-11-21,26.299999,26.820000,26.230000,26.709999,25.882820,1306000
2018-11-23,26.730000,27.209999,26.490000,26.950001,26.115389,715100
2018-11-26,27.030001,27.030001,26.260000,26.309999,25.495207,894000
2018-11-27,26.280001,26.750000,26.250000,26.500000,25.679325,1894600
2018-11-28,26.530001,26.969999,26.500000,26.740000,25.911892,2348400
2018-11-29,26.629999,27.000000,26.629999,26.959999,26.125078,1510600
2018-11-30,26.820000,27.150000,26.629999,26.799999,25.970034,6432100
2018-12-03,26.940001,26.969999,26.570000,26.930000,26.096008,809000
2018-12-04,26.950001,27.280001,26.899000,26.959999,26.125078,1407000
2018-12-06,26.820000,27.730000,26.750000,27.700001,26.842161,1225300
2018-12-07,27.730000,28.010000,27.510000,27.860001,26.997208,948900
2018-12-10,27.600000,27.920000,27.450001,27.780001,26.919685,900000
2018-12-11,27.920000,28.040001,27.330000,27.580000,26.725876,593400
2018-12-12,27.740000,27.799999,27.200001,27.250000,26.406099,482300
2018-12-13,27.250000,27.660000,27.200001,27.600000,26.745260,14099000
2018-12-14,27.490000,27.750000,27.000000,27.100000,26.260746,1287800
2018-12-17,27.250000,27.450001,26.340000,26.350000,25.533972,1188300
2018-12-18,26.549999,26.750000,26.379999,26.660000,25.834370,918600
2018-12-19,26.700001,26.770000,26.110001,26.230000,25.417686,804700
2018-12-20,26.190001,26.240000,25.700001,26.200001,25.388617,883400
2018-12-21,26.150000,26.959999,25.430000,25.450001,24.661844,1570600
2018-12-24,25.389999,25.420000,24.270000,24.270000,23.518387,373000
2018-12-26,24.290001,25.270000,24.290001,25.240000,24.458345,1450700
2018-12-27,25.160000,25.209999,24.370001,25.200001,24.419586,1256000
2018-12-28,25.180000,25.320000,24.840000,25.160000,24.563589,584000
2018-12-31,25.250000,25.580000,24.860001,25.540001,24.934580,815500
2019-01-02,25.280001,25.280001,24.520000,24.920000,24.329279,1080300
2019-01-03,24.889999,25.320000,24.570000,25.080000,24.485483,718100
2019-01-04,25.299999,25.809999,25.219999,25.450001,24.846714,1312300
2019-01-07,25.540001,26.049999,25.440001,25.670000,25.061497,939100
2019-01-08,25.920000,26.549999,25.639999,26.430000,25.803482,846100
2019-01-09,26.490000,26.490000,26.030001,26.370001,25.744904,705600
2019-01-10,26.420000,27.139999,26.270000,27.120001,26.477125,800200
2019-01-11,27.170000,27.510000,27.010000,27.450001,26.799305,771500
2019-01-14,27.430000,27.610001,27.190001,27.459999,26.809065,1467900
2019-01-15,27.540001,27.830000,27.400000,27.750000,27.092192,1250200
2019-01-16,27.889999,28.010000,27.559999,27.760000,27.101954,1522600
2019-01-17,27.680000,28.080000,27.680000,28.080000,27.414368,842000
2019-01-18,28.180000,28.309999,28.000000,28.260000,27.590103,633600
2019-01-22,28.150000,28.420000,27.950001,28.309999,27.638914,1055900
2019-01-23,28.370001,28.850000,28.163000,28.280001,27.609627,1102900
2019-01-24,28.280001,28.360001,27.730000,27.770000,27.111719,546700
2019-01-25,27.760000,28.180000,27.740000,27.930000,27.267925,993100
2019-01-28,27.799999,28.410000,27.750000,28.200001,27.531525,1225200
2019-01-29,28.230000,28.469999,28.080000,28.280001,27.609627,1303500
2019-01-30,28.360001,29.010000,28.250000,28.680000,28.000147,1739600
2019-01-31,28.709999,29.500000,28.530001,29.320000,28.624975,1607000
2019-02-01,29.410000,29.570000,28.629999,29.150000,28.459005,1287400
2019-02-04,29.120001,29.209999,28.809999,29.059999,28.371138,453600
2019-02-05,29.120001,29.510000,28.780001,29.440001,28.742130,639900
2019-02-06,29.379999,29.590000,28.900000,28.920000,28.234457,664700
2019-02-07,28.809999,29.254999,28.620001,29.120001,28.429718,879600
2019-02-08,29.010000,29.209999,28.840000,29.040001,28.351612,942500
2019-02-11,29.040001,29.230000,28.737000,28.799999,28.117300,972100
2019-02-12,28.930000,28.930000,28.445000,28.660000,27.980621,926400
2019-02-13,28.639999,28.709999,28.330000,28.629999,27.951332,813300
2019-02-14,28.629999,28.830000,28.250000,28.770000,28.088013,542300
2019-02-15,28.889999,28.900000,28.670000,28.750000,28.068485,456900
2019-02-19,28.780001,29.230000,28.700001,28.930000,28.244221,1180500
2019-02-20,28.920000,29.090000,28.549999,28.590000,27.912279,1020800
2019-02-21,28.459999,28.760000,28.320000,28.540001,27.863466,1173500
2019-02-22,28.790001,29.680000,28.639999,29.440001,28.742130,2382100
2019-02-25,29.610001,29.665001,28.250000,28.570000,27.892754,1738700
2019-02-26,28.650000,28.709999,28.059999,28.469999,27.795124,1260200
2019-02-27,28.389999,28.660000,27.969999,28.059999,27.394844,1439600
2019-02-28,28.080000,28.980000,27.959999,28.750000,28.068485,3503400
2019-03-01,28.700001,28.940001,28.340000,28.770000,28.088013,20210500
2019-03-04,28.889999,29.510000,28.809999,29.190001,28.498058,5923300
2019-03-05,29.190001,29.879999,29.049999,29.879999,29.171700,13262300
2019-03-06,30.150000,30.150000,29.440001,29.920000,29.210752,2654600
2019-03-07,29.920000,30.059999,29.209999,29.389999,28.693316,2546200
2019-03-08,29.330000,29.610001,29.330000,29.600000,28.898340,1352800
2019-03-11,29.629999,30.379999,29.629999,30.370001,29.650085,3361500
2019-03-12,30.400000,30.400000,29.830000,29.910000,29.200989,1934200
2019-03-13,30.030001,30.370001,29.997999,30.129999,29.415773,1867700
2019-03-14,30.260000,30.570000,30.139999,30.290001,29.571981,2013800
2019-03-15,30.340000,30.530001,30.070000,30.530001,29.806293,7569200
2019-03-18,30.459999,30.540001,30.160000,30.500000,29.777004,1540200
2019-03-19,30.590000,30.813000,30.010000,30.100000,29.386486,1207800
2019-03-20,30.030001,30.129999,29.660000,29.860001,29.152176,1160600
2019-03-21,29.780001,30.410000,29.780001,30.309999,29.591507,1431800
2019-03-22,30.299999,30.510000,30.040001,30.250000,29.532932,1610500
2019-03-25,30.280001,30.600000,30.240000,30.530001,29.806293,1358100
2019-03-26,30.730000,30.760000,30.469999,30.680000,29.952736,926000
2019-03-27,30.639999,30.665001,30.139999,30.379999,29.659847,1171200
2019-03-28,30.200001,30.750000,30.150000,30.730000,30.200369,1228600
2019-03-29,30.780001,30.850000,30.450001,30.510000,29.984161,1426800
2019-04-01,30.620001,30.799999,30.070000,30.480000,29.954678,1124300
2019-04-02,30.580000,30.799999,30.360001,30.719999,30.190540,1952400
2019-04-03,30.809999,30.990000,30.580000,30.809999,30.278990,654100
2019-04-04,30.780001,30.850000,30.250000,30.480000,29.954678,538200
2019-04-05,30.469999,30.780001,30.469999,30.770000,30.239679,738100
2019-04-08,30.690001,30.770000,30.420000,30.469999,29.944849,459800
2019-04-09,30.430000,30.469999,30.200001,30.379999,29.856400,774900
2019-04-10,30.490000,31.139999,30.424999,31.080000,30.544336,1236500
2019-04-11,31.100000,31.170000,30.930000,31.100000,30.563993,1096000
2019-04-12,31.090000,31.160000,30.730000,31.059999,30.524679,704800
2019-04-15,31.040001,31.100000,30.549999,30.700001,30.170885,669000
2019-04-16,30.620001,31.459999,29.690001,30.000000,29.482950,4123200
2019-04-17,30.150000,30.709999,29.700001,30.420000,29.895712,23627200
2019-04-18,30.480000,31.004999,30.360001,30.930000,30.396921,7359200
2019-04-22,30.900000,31.360001,30.660000,31.360001,30.819511,10963000
2019-04-23,31.590000,31.719999,31.290001,31.719999,31.173306,4059900
2019-04-24,31.700001,31.959999,31.559999,31.930000,31.379686,2767300
2019-04-25,31.860001,32.000000,31.655001,32.000000,31.448479,2210500
2019-04-26,32.080002,32.349998,32.020000,32.310001,31.753139,3916800
2019-04-29,32.349998,32.400002,31.600000,31.809999,31.261755,1846900
2019-04-30,31.830000,32.160000,31.540001,32.009998,31.458307,1604500
2019-05-01,32.070000,32.389999,31.959999,32.150002,31.595898,2350200
2019-05-02,32.169998,32.560001,31.879999,32.119999,31.566410,1733700
2019-05-03,32.189999,32.470001,31.980000,32.419998,31.861242,1987800
2019-05-06,32.200001,32.500000,32.080002,32.349998,31.792448,1217600
2019-05-07,32.189999,32.299999,31.570000,31.780001,31.232271,2559300
2019-05-08,31.500000,31.500000,30.670000,30.830000,30.298645,3840100
2019-05-09,30.719999,30.850000,30.250000,30.740000,30.210197,3293300
2019-05-10,30.740000,31.020000,30.500000,30.870001,30.337957,2481800
2019-05-13,30.570000,30.820000,30.254999,30.440001,29.915367,2730600
2019-05-14,30.480000,31.059999,30.350000,30.950001,30.416578,3574800
2019-05-15,30.920000,31.180000,30.684999,31.030001,30.495199,2550700
2019-05-16,31.059999,31.330000,31.040001,31.170000,30.632784,1719000
2019-05-17,30.990000,31.139999,30.830000,31.129999,30.593475,2479400
2019-05-20,31.020000,31.100000,30.660000,30.770000,30.239679,1981100
2019-05-21,30.950001,31.450001,30.870001,31.350000,30.809683,1697400
2019-05-22,31.330000,31.639999,31.219999,31.549999,31.006235,1456800
2019-05-23,31.360001,31.809999,31.330000,31.500000,30.957098,2154000
2019-05-24,31.629999,32.130001,31.629999,31.840000,31.291237,2353800
2019-05-28,31.959999,32.209999,31.889999,32.009998,31.458307,2233700
2019-05-29,31.820000,31.889999,31.160000,31.320000,30.780199,1962300
2019-05-30,31.299999,31.600000,31.045000,31.389999,30.848993,1260300
2019-05-31,31.129999,31.480000,31.030001,31.299999,30.760544,2367300
2019-06-03,31.389999,31.490000,30.980000,31.250000,30.711407,1267500
2019-06-04,31.350000,31.440001,30.520000,30.790001,30.259336,2703800
2019-06-05,31.120001,31.559999,31.040001,31.500000,30.957098,3461900
2019-06-06,31.610001,31.693001,31.190001,31.670000,31.124166,1838700
2019-06-07,31.740000,32.080002,31.690001,31.719999,31.173306,1461200
2019-06-10,31.780001,32.029999,31.459999,31.930000,31.379686,1715300
2019-06-11,31.980000,32.244999,31.780001,32.230000,31.674517,1909200
2019-06-12,32.220001,32.860001,32.215000,32.660000,32.097107,2530100
2019-06-13,32.759998,33.169998,32.669998,33.169998,32.598312,2830500
2019-06-14,33.200001,33.384998,32.980000,33.049999,32.480381,1252600
2019-06-17,33.130001,33.549999,33.049999,33.500000,32.922626,1887300
2019-06-18,33.650002,33.779999,33.340000,33.410000,32.834179,1394600
2019-06-19,33.320000,33.639999,33.230000,33.470001,32.893147,1743600
2019-06-20,34.040001,34.169998,33.549999,34.130001,33.541771,3393600
2019-06-21,34.049999,34.099998,33.669998,33.980000,33.394356,3430200
2019-06-24,34.070000,34.240002,33.689999,33.790001,33.207630,2223200
2019-06-25,33.889999,34.040001,33.220001,33.299999,32.726074,2418700
2019-06-26,33.279999,33.299999,32.320000,32.419998,31.861242,2687300
2019-06-27,32.330002,32.660000,32.195000,32.419998,32.059013,1678700
2019-06-28,32.570000,32.799999,32.270000,32.419998,32.059013,16249500
2019-07-01,32.919998,33.540001,32.419998,33.360001,32.988548,4578700
2019-07-02,33.330002,34.139999,33.330002,34.139999,33.759865,1657800
2019-07-03,34.200001,34.459999,34.084999,34.400002,34.016968,1108100
2019-07-05,34.200001,34.494999,33.750000,34.480000,34.096077,1210000
2019-07-08,34.529999,34.689999,34.205002,34.299999,33.918079,1470300
2019-07-09,34.279999,34.580002,34.169998,34.509998,34.125740,1633100
2019-07-10,34.680000,34.889999,34.380001,34.849998,34.461956,1549400
2019-07-11,34.830002,34.910000,34.080002,34.410000,34.026855,1416500
2019-07-12,34.459999,34.459999,33.924999,34.270000,33.888412,1406000
2019-07-15,34.310001,34.400002,33.959999,34.090000,33.710419,1471500
2019-07-16,33.950001,34.099998,33.810001,33.930000,33.552200,1472700
2019-07-17,34.009998,34.119999,33.380001,33.680000,33.304985,1249400
2019-07-18,33.529999,33.810001,33.330002,33.619999,33.245651,1703300
2019-07-19,33.630001,33.889999,33.115002,33.180000,32.810551,1855100
2019-07-22,33.230000,33.279999,32.770000,33.000000,32.632557,1574800
2019-07-23,33.169998,33.639999,32.860001,33.500000,33.126987,2658600
2019-07-24,33.540001,33.570000,32.970001,33.099998,32.731441,1716400
2019-07-25,33.389999,33.459999,32.990002,33.080002,32.711670,1571000
2019-07-26,33.040001,33.700001,33.040001,33.599998,33.225876,2309600
2019-07-29,33.740002,33.880001,33.549999,33.730000,33.354427,1513400
2019-07-30,33.660000,34.009998,33.410000,33.610001,33.235767,1485700
2019-07-31,33.560001,33.959999,33.330002,33.529999,33.156654,2247000
2019-08-01,33.590000,33.735001,33.220001,33.430000,33.057770,2305800
2019-08-02,33.400002,33.794998,33.279999,33.700001,33.324760,2099800
2019-08-05,33.360001,33.419998,32.720001,33.169998,32.800659,2815400
2019-08-06,33.250000,33.610001,33.000000,33.439999,33.067657,1391100
2019-08-07,33.330002,34.099998,33.040001,33.880001,33.502758,1452500
2019-08-08,33.880001,34.759998,33.520000,34.500000,34.115856,3063500
2019-08-09,34.750000,35.509998,34.349998,35.369999,34.976166,2091400
2019-08-12,35.320000,35.900002,35.099998,35.450001,35.055275,2702800
2019-08-13,35.470001,35.610001,35.099998,35.430000,35.035500,966300
2019-08-14,35.070000,35.400002,34.849998,34.990002,34.600399,1674600
2019-08-15,35.180000,35.599998,35.110001,35.400002,35.005833,1558400
2019-08-16,35.779999,36.009998,35.380001,35.930000,35.529930,1450300
2019-08-19,36.070000,36.480000,35.770000,36.299999,35.895813,999400
2019-08-20,36.439999,36.459999,35.970001,36.040001,35.638706,789900
2019-08-21,35.939999,36.549999,35.860001,36.270000,35.866146,989700
2019-08-22,36.340000,36.730000,36.083000,36.669998,36.261692,818600
2019-08-23,36.610001,36.830002,36.310001,36.400002,35.994698,1287000
2019-08-26,36.660000,36.700001,36.160000,36.470001,36.063919,930700
2019-08-27,36.619999,36.750000,36.009998,36.139999,35.737595,1429000
2019-08-28,36.119999,36.419998,35.907001,36.160000,35.757370,987400
2019-08-29,36.360001,36.450001,36.119999,36.169998,35.767258,777500
2019-08-30,36.369999,36.490002,36.049999,36.419998,36.014473,836800
2019-09-03,36.320000,37.240002,36.200001,36.980000,36.568237,1697700
2019-09-04,37.160000,37.340000,36.970001,37.330002,36.914345,1034300
2019-09-05,37.259998,37.389999,36.779999,37.150002,36.736347,833100
2019-09-06,37.200001,37.279999,36.700001,36.840000,36.429802,1116400
2019-09-09,36.910000,36.939999,36.250000,36.520000,36.113361,1655500
2019-09-10,36.340000,36.340000,35.259998,35.529999,35.134384,2505500
2019-09-11,35.450001,35.599998,34.959999,35.200001,34.808064,1853400
2019-09-12,35.520000,35.910000,35.310001,35.650002,35.253052,1852500
2019-09-13,35.660000,35.869999,35.209999,35.259998,34.867393,1504100
2019-09-16,35.259998,36.360001,35.209999,36.150002,35.747482,2494400
2019-09-17,36.180000,36.669998,36.119999,36.459999,36.054028,1490300
2019-09-18,36.250000,36.470001,35.400002,35.830002,35.431046,2148300
2019-09-19,35.900002,36.900002,35.900002,36.650002,36.241917,2298600
2019-09-20,36.740002,37.060001,36.599998,36.860001,36.449577,10442200
2019-09-23,36.849998,36.959999,36.540001,36.580002,36.172695,2348700
2019-09-24,36.860001,36.860001,36.220001,36.299999,35.895813,892600
2019-09-25,36.220001,36.950001,36.220001,36.910000,36.499020,1492700
2019-09-26,37.080002,37.240002,36.919998,37.000000,36.588017,948100
2019-09-27,36.810001,36.842999,36.200001,36.799999,36.588017,2772000
2019-09-30,36.799999,37.360001,36.799999,37.070000,36.856464,1745100
2019-10-01,37.130001,37.250000,36.720001,37.000000,36.786865,2411900
2019-10-02,36.930000,37.009998,36.630001,36.740002,36.528366,1898000
2019-10-03,36.790001,37.580002,36.740002,37.560001,37.343643,1962400
2019-10-04,37.599998,37.880001,37.500000,37.639999,37.423180,1361600
2019-10-07,37.459999,37.810001,37.230000,37.759998,37.542488,956200
2019-10-08,37.610001,37.759998,37.220001,37.480000,37.264099,1706300
2019-10-09,37.650002,37.724998,37.430000,37.470001,37.254162,1645400
2019-10-10,37.470001,37.630001,37.230000,37.389999,37.174618,1659400
2019-10-11,37.700001,37.700001,37.200001,37.299999,37.085136,1179600
2019-10-14,37.400002,37.419998,37.070000,37.380001,37.164677,1088800
2019-10-15,37.400002,37.570000,37.060001,37.500000,37.283985,1444900
2019-10-16,37.450001,37.755001,37.060001,37.700001,37.482834,1144900
2019-10-17,37.660000,37.948002,37.599998,37.900002,37.681683,1307800
2019-10-18,37.990002,38.130001,37.810001,38.119999,37.900414,856600
2019-10-21,38.070000,38.400002,37.980000,38.310001,38.089321,903200
2019-10-22,38.400002,38.549999,38.110001,38.270000,38.049553,1332500
2019-10-23,38.299999,38.680000,38.139999,38.669998,38.447243,1547300
2019-10-24,38.720001,39.255001,38.520000,38.990002,38.765404,1669300
2019-10-25,38.799999,39.119999,38.630001,39.049999,38.825058,828200
2019-10-28,39.049999,39.279999,38.740002,39.200001,38.974194,1481700
2019-10-29,39.180000,39.849998,39.090000,39.689999,39.461369,1671400
2019-10-30,39.810001,40.230000,39.529999,40.119999,39.888893,1149600
2019-10-31,40.169998,40.270000,39.950001,40.090000,39.859066,1477600
2019-11-01,40.240002,40.419998,39.330002,39.490002,39.262524,1731800
2019-11-04,39.410000,39.410000,38.380001,38.580002,38.357765,1670700
2019-11-05,38.450001,38.509998,37.509998,37.669998,37.453007,1973900
2019-11-06,37.709999,38.209999,37.689999,38.060001,37.840763,1196100
2019-11-07,37.950001,38.200001,37.279999,37.439999,37.224331,1376200
2019-11-08,36.410000,36.610001,34.849998,35.349998,35.146370,5221600
2019-11-11,35.439999,35.700001,34.910000,35.150002,34.947525,1879900
2019-11-12,35.209999,35.520000,34.880001,35.220001,35.017120,1688700
2019-11-13,35.180000,35.650002,35.180000,35.209999,35.007175,1511500
2019-11-14,35.290001,36.160000,35.250000,36.099998,35.892048,2267300
2019-11-15,36.139999,36.549999,36.000000,36.450001,36.240036,1357400
2019-11-18,36.480000,37.779999,36.480000,37.759998,37.542488,3149000
2019-11-19,37.790001,38.150002,37.470001,37.759998,37.542488,1168100
2019-11-20,37.700001,38.146000,37.700001,37.730000,37.512661,1709900
2019-11-21,37.639999,37.990002,36.869999,36.970001,36.757042,1413600
2019-11-22,37.080002,37.160000,36.049999,36.459999,36.249977,1453400
2019-11-25,36.500000,37.220001,36.310001,37.090000,36.876347,1608000
2019-11-26,37.180000,37.855000,37.169998,37.680000,37.462948,1530500
2019-11-27,37.689999,38.090000,37.500000,37.860001,37.641914,960300
2019-11-29,37.919998,38.029999,37.520000,37.619999,37.403294,538600
2019-12-02,37.500000,37.740002,37.089001,37.290001,37.075195,876600
2019-12-03,37.080002,37.605999,37.060001,37.310001,37.095081,778500
2019-12-04,37.459999,37.759998,37.290001,37.500000,37.283985,717900
2019-12-05,37.480000,37.820000,37.320000,37.430000,37.214390,845700
2019-12-06,37.450001,37.740002,36.959999,37.090000,36.876347,1302000
2019-12-09,36.709999,36.779999,36.060001,36.169998,35.961647,2483400
2019-12-10,36.250000,36.549999,35.349998,35.669998,35.464527,2617800
2019-12-11,35.619999,35.930000,34.810001,35.029999,34.828213,1818700
2019-12-12,34.910000,35.160000,33.389999,33.840000,33.645069,3168900
2019-12-13,33.990002,34.000000,32.320000,33.060001,32.869564,4823300
2019-12-16,33.110001,33.150002,32.240002,32.950001,32.760197,3895000
2019-12-17,33.130001,33.450001,32.410000,33.150002,32.959045,4552600
2019-12-18,33.720001,34.410000,33.560001,33.619999,33.426334,3000500
2019-12-19,33.570000,34.130001,33.250000,34.070000,33.873745,2547800
2019-12-20,34.130001,34.570000,34.020000,34.310001,34.112362,1942400
2019-12-23,34.360001,34.730000,34.230000,34.279999,34.082535,1484800
2019-12-24,34.130001,34.410000,34.020000,34.250000,34.052708,240000
2019-12-26,34.270000,34.700001,34.160000,34.520000,34.321152,876000
2019-12-27,34.689999,35.009998,34.480000,34.720001,34.520000,1112800
2019-12-30,34.520000,34.735001,34.320000,34.580002,34.580002,1495600
2019-12-31,34.810001,35.150002,34.750000,35.060001,35.060001,1698400
2020-01-02,35.310001,35.450001,33.974998,34.340000,34.340000,1678000
2020-01-03,34.200001,34.790001,34.105000,34.750000,34.750000,1208200
2020-01-06,34.610001,35.200001,34.500000,34.889999,34.889999,2086400
2020-01-07,34.610001,34.919998,34.009998,34.160000,34.160000,1324700
2020-01-08,34.110001,34.459999,33.810001,34.259998,34.259998,1389200
2020-01-09,34.310001,34.389999,33.855000,33.880001,33.880001,1413400
2020-01-10,34.009998,34.669998,33.910000,34.580002,34.580002,1382600
2020-01-13,34.599998,35.180000,34.580002,34.990002,34.990002,1023100
2020-01-14,35.000000,35.169998,34.799999,35.029999,35.029999,1839800
2020-01-15,35.070000,35.759998,34.980000,35.369999,35.369999,1122100
2020-01-16,35.380001,35.779999,35.310001,35.490002,35.490002,973600
2020-01-17,35.500000,35.619999,35.360001,35.419998,35.419998,1328300
2020-01-21,35.470001,36.130001,35.410000,35.950001,35.950001,1561500
2020-01-22,35.959999,36.430000,34.965000,35.200001,35.200001,1870500
2020-01-23,35.180000,35.959999,35.040001,35.730000,35.730000,2043700
2020-01-24,35.810001,35.900002,35.209999,35.250000,35.250000,867800
2020-01-27,35.020000,35.320000,34.840000,35.040001,35.040001,1844900
2020-01-28,35.139999,35.404999,34.790001,35.090000,35.090000,1902900
2020-01-29,35.320000,35.494999,35.000000,35.049999,35.049999,1155500
2020-01-30,35.000000,35.480000,35.000000,35.139999,35.139999,1515700
2020-01-31,35.139999,35.220001,34.430000,34.470001,34.470001,1535100
2020-02-03,34.549999,34.930000,34.250000,34.349998,34.349998,1094000
2020-02-04,34.410000,34.880001,34.410000,34.509998,34.509998,1126000
2020-02-05,34.529999,34.695000,34.430000,34.549999,34.549999,832500
2020-02-06,34.590000,35.330002,34.500000,34.900002,34.900002,816200
2020-02-07,35.040001,35.349998,34.930000,35.099998,35.099998,981800
2020-02-10,35.209999,35.500000,35.029999,35.330002,35.330002,1323000
2020-02-11,35.360001,35.759998,35.360001,35.660000,35.660000,1119800
2020-02-12,35.630001,36.570000,35.619999,36.560001,36.560001,1600600
2020-02-13,36.520000,37.569000,36.430000,37.299999,37.299999,1424900
