Date,Open,High,Low,Close,Adj Close,Volume
2018-06-01,28.000000,28.299999,26.879999,27.530001,24.829353,2156200
2018-06-04,27.530001,27.930000,26.760000,27.000000,24.351341,874800
2018-06-05,27.080000,27.465000,26.620001,26.820000,24.189001,1159700
2018-06-06,27.000000,27.000000,26.420000,26.660000,24.044697,1410100
2018-06-07,26.520000,26.670000,25.920000,26.059999,23.503555,1500000
2018-06-08,25.930000,26.230000,25.740000,25.950001,23.404346,569800
2018-06-11,25.900000,26.420000,25.740000,26.230000,23.656878,685300
2018-06-12,26.340000,26.450001,25.680000,25.990000,23.440420,1832700
2018-06-13,26.070000,26.160000,25.750000,25.820000,23.287096,530700
2018-06-14,25.920000,26.230000,25.780001,26.190001,23.620800,616700
2018-06-15,26.180000,26.459999,25.770000,25.889999,23.350231,530800
2018-06-18,25.889999,25.990000,25.370001,25.500000,22.998491,580400
2018-06-19,25.510000,25.790001,25.280001,25.700001,23.178871,809900
2018-06-20,25.980000,26.299999,25.580000,26.139999,23.575708,2129700
2018-06-21,26.200001,26.360001,25.900000,26.330000,23.747068,1042400
2018-06-22,26.290001,26.860001,26.250000,26.650000,24.035675,1109200
2018-06-25,26.650000,26.950001,25.959999,26.230000,23.656878,613200
2018-06-26,26.230000,26.270000,25.639999,26.209999,23.638840,483400
2018-06-27,26.330000,26.355000,25.760000,25.950001,23.404346,787600
2018-06-28,26.049999,26.070000,25.650000,25.910000,23.368269,458300
2018-06-29,25.889999,26.110001,25.750000,25.900000,23.359251,311600
2018-07-02,25.830000,25.910000,25.040001,25.459999,22.962414,615000
2018-07-03,25.450001,25.889999,25.330000,25.750000,23.223967,196400
2018-07-05,25.790001,26.250000,25.690001,26.250000,23.674917,166900
2018-07-06,26.260000,26.559999,25.830000,26.500000,23.900391,328900
2018-07-09,26.520000,26.809999,26.280001,26.590000,23.981562,963600
2018-07-10,26.540001,26.639999,26.100000,26.320000,23.738049,576400
2018-07-11,26.209999,26.330000,25.870001,26.100000,23.539633,1770500
2018-07-12,26.129999,26.415001,26.025000,26.299999,23.720011,209100
2018-07-13,26.290001,26.573000,26.160000,26.270000,23.692955,110300
2018-07-16,26.330000,26.330000,25.830000,26.020000,23.467480,121900
2018-07-17,26.000000,26.020000,25.639999,25.730000,23.205927,315600
2018-07-18,25.650000,25.740000,25.410000,25.430000,22.935358,359300
2018-07-19,25.440001,25.850000,25.250000,25.670000,23.151814,433700
2018-07-20,25.660000,25.910000,25.500000,25.700001,23.178871,193700
2018-07-23,25.770000,26.000000,25.410000,25.889999,23.350231,916700
2018-07-24,25.900000,26.000000,25.520000,25.700001,23.178871,423500
2018-07-25,25.580000,25.920000,25.400000,25.650000,23.133776,1241000
2018-07-26,25.700001,25.820000,25.459999,25.670000,23.151814,128600
2018-07-27,25.650000,25.650999,25.070000,25.170000,22.700861,212700
2018-07-30,25.150000,25.270000,24.850000,25.000000,22.547537,202000
2018-07-31,25.049999,25.400000,24.950001,25.260000,22.782032,181900
2018-08-01,25.270000,25.530001,25.209999,25.500000,22.998491,378300
2018-08-02,25.379999,25.639999,25.330000,25.510000,23.007509,106100
2018-08-03,25.549999,25.600000,25.260000,25.379999,22.890261,178400
2018-08-06,25.340000,25.400000,25.129999,25.370001,22.881243,190900
2018-08-07,25.320000,25.400000,24.900000,25.010000,22.556557,172900
2018-08-08,25.049999,25.410000,25.049999,25.299999,22.818108,655700
2018-08-09,25.379999,25.510000,25.139999,25.340000,22.854183,291800
2018-08-10,25.260000,25.370001,25.129999,25.160000,22.691845,462300
2018-08-13,25.160000,25.350000,25.080000,25.219999,22.745956,350400
2018-08-14,25.100000,25.209999,22.920000,22.940001,20.689621,2050100
2018-08-15,22.900000,22.950001,21.190001,21.580000,19.463034,1856200
2018-08-16,21.770000,22.219999,21.770000,22.030001,19.868895,928300
2018-08-17,22.010000,22.680000,22.010000,22.480000,20.274746,531000
2018-08-20,22.330000,22.860001,21.900000,22.000000,19.841835,413700
2018-08-21,21.990000,22.280001,21.799999,21.900000,19.751646,490300
2018-08-22,21.809999,21.969999,21.770000,21.860001,19.715567,360000
2018-08-23,21.830000,21.895000,21.230000,21.240000,19.156387,235400
2018-08-24,21.200001,21.360001,20.780001,20.840000,18.795628,291900
2018-08-27,20.850000,20.980000,20.580000,20.629999,18.606230,364900
2018-08-28,20.650000,20.663000,20.360001,20.610001,18.588194,325200
2018-08-29,20.570000,21.469999,20.549999,21.170000,19.155527,878400
2018-08-30,21.139999,21.190001,20.709999,20.930000,18.938366,194300
2018-08-31,20.860001,21.030001,20.750000,20.850000,18.865978,485200
2018-09-04,20.830000,20.830000,20.330000,20.559999,18.603575,229800
2018-09-05,20.469999,20.889999,20.440001,20.830000,18.847881,586100
2018-09-06,20.629999,21.004999,20.629999,20.790001,18.811687,645200
2018-09-07,20.690001,20.870001,20.639999,20.750000,18.775494,326400
2018-09-10,20.850000,20.870001,20.309999,20.430000,18.485945,832100
2018-09-11,20.400000,20.680000,20.150000,20.260000,18.332123,699900
2018-09-12,20.230000,20.320000,20.020000,20.240000,18.314024,699300
2018-09-13,20.330000,20.650000,20.320000,20.490000,18.540234,378800
2018-09-14,20.469999,20.690001,20.389999,20.530001,18.576429,317800
2018-09-17,20.559999,20.820000,20.049999,20.120001,18.205444,570700
2018-09-18,20.180000,20.235001,20.030001,20.129999,18.214491,463700
2018-09-19,20.080000,20.480000,20.010000,20.209999,18.286879,408400
2018-09-20,20.280001,20.340000,19.990000,20.139999,18.223539,347900
2018-09-21,20.250000,20.480000,20.080000,20.219999,18.295925,512600
2018-09-24,20.219999,20.260000,19.840000,19.950001,18.051622,248400
2018-09-25,19.990000,20.180000,19.840000,19.990000,18.087812,161400
2018-09-26,19.959999,20.219999,19.610001,19.629999,17.762066,248800
2018-09-27,19.600000,19.760000,19.400000,19.420000,17.572050,284900
2018-09-28,19.230000,19.480000,19.049999,19.450001,17.782331,401400
2018-10-01,19.490000,19.570000,19.170000,19.350000,17.690908,207400
2018-10-02,19.389999,19.629999,18.879999,18.990000,17.361773,165900
2018-10-03,19.010000,19.209999,18.820000,19.080000,17.444056,246500
2018-10-04,19.040001,19.186001,18.750000,18.799999,17.188063,315200
2018-10-05,18.860001,18.950001,18.620001,18.680000,17.078354,141900
2018-10-08,18.660000,18.747999,18.410000,18.530001,16.941216,219800
2018-10-09,18.490000,18.629999,18.340000,18.410000,16.831499,208800
2018-10-10,18.400000,18.580000,17.950001,17.959999,16.420086,365700
2018-10-11,17.860001,17.950001,17.540001,17.650000,16.136663,282700
2018-10-12,17.770000,17.809999,17.510000,17.559999,16.054384,422000
2018-10-15,17.309999,17.490000,16.820000,17.010000,15.551540,712500
2018-10-16,17.030001,17.600000,16.610001,17.500000,15.999529,667700
2018-10-17,17.440001,17.580000,17.170000,17.400000,15.908102,503600
2018-10-18,17.290001,17.309999,16.750000,16.889999,15.441831,1473000
2018-10-19,16.860001,17.049999,16.750000,16.799999,15.359545,1083500
2018-10-22,16.809999,16.959999,16.549999,16.790001,15.350405,616400
2018-10-23,16.610001,16.709999,16.320000,16.620001,15.194981,304900
2018-10-24,16.629999,16.629999,15.820000,15.860000,14.500142,336300
2018-10-25,15.930000,16.209999,15.790000,16.110001,14.728708,254700
2018-10-26,16.059999,16.370001,15.750000,16.059999,14.682994,438800
2018-10-29,16.209999,16.389999,15.770000,15.860000,14.500142,245700
2018-10-30,15.870000,16.240000,15.730000,16.070000,14.692137,728300
2018-10-31,16.100000,16.680000,16.100000,16.370001,14.966416,418400
2018-11-01,16.459999,16.860001,16.400000,16.790001,15.350405,292800
2018-11-02,16.850000,16.920000,16.620001,16.870001,15.423544,483800
2018-11-05,16.889999,17.570000,16.770000,17.559999,16.054384,391100
2018-11-06,17.990000,17.990000,15.750000,15.970000,14.600711,1186000
2018-11-07,15.980000,16.309999,15.640000,16.230000,14.838417,396900
2018-11-08,16.160000,16.160000,15.860000,16.049999,14.673852,413900
2018-11-09,15.980000,16.020000,15.440000,15.660000,14.317290,356600
2018-11-12,15.670000,15.700000,15.130000,15.160000,13.860162,317700
2018-11-13,15.250000,15.250000,14.830000,14.880000,13.604170,420100
2018-11-14,15.000000,15.150000,14.520000,14.570000,13.320749,347200
2018-11-15,14.500000,14.700000,14.150000,14.270000,13.046472,1131600
2018-11-16,14.240000,14.355000,13.980000,14.240000,13.019044,604500
2018-11-19,14.230000,14.580000,14.050000,14.260000,13.037330,496000
2018-11-20,14.250000,14.400000,13.910000,14.020000,12.817906,175800
2018-11-21,14.050000,14.544000,14.050000,14.270000,13.046472,191400
2018-11-23,14.130000,14.220000,13.960000,13.990000,12.790480,56100
2018-11-26,13.880000,14.340000,13.700000,13.840000,12.653340,265700
2018-11-27,13.750000,13.880000,13.520000,13.620000,12.452204,354100
2018-11-28,13.630000,14.020000,13.440000,13.940000,12.744767,478400
2018-11-29,13.880000,14.160000,13.560000,14.150000,12.936760,283900
2018-11-30,14.040000,14.100000,13.840000,14.070000,12.863620,288100
2018-12-03,14.210000,14.270000,13.680000,14.100000,12.891048,239800
2018-12-04,14.070000,14.120000,13.290000,13.460000,12.305922,281100
2018-12-06,13.290000,13.370000,12.985000,13.340000,12.196211,250900
2018-12-07,13.340000,13.460000,13.180000,13.300000,12.159642,359700
2018-12-10,13.270000,13.410000,12.935000,13.210000,12.077357,372500
2018-12-11,13.320000,13.460000,12.980000,13.050000,11.931076,328400
2018-12-12,13.200000,13.435000,12.760000,12.790000,11.693369,440200
2018-12-13,12.770000,12.930000,12.410000,12.430000,11.364236,195000
2018-12-14,12.370000,12.450000,11.745000,11.800000,10.788253,451600
2018-12-17,12.150000,12.220000,11.570000,11.580000,10.587116,990600
2018-12-18,11.660000,12.340000,11.660000,12.160000,11.117386,844300
2018-12-19,12.170000,12.600000,11.950000,12.150000,11.108243,574400
2018-12-20,12.110000,12.400000,11.740000,12.000000,10.971104,798000
2018-12-21,12.020000,12.370000,11.830000,11.970000,10.943677,2467500
2018-12-24,11.960000,12.000000,11.800000,11.830000,10.815681,157200
2018-12-26,11.890000,12.020000,11.430000,11.990000,10.961963,348400
2018-12-27,11.840000,12.000000,11.630000,11.980000,10.952820,231800
2018-12-28,11.870000,12.350000,11.870000,12.100000,11.250349,217100
2018-12-31,12.160000,12.260000,11.958000,12.250000,11.389816,232100
2019-01-02,12.090000,12.340000,11.800000,12.280000,11.417709,201200
2019-01-03,12.230000,12.430000,11.995000,12.150000,11.296838,185000
2019-01-04,12.290000,12.860000,12.290000,12.760000,11.864005,266100
2019-01-07,12.760000,12.860000,12.390000,12.730000,11.836110,153000
2019-01-08,12.860000,13.190000,12.750000,13.180000,12.254513,211700
2019-01-09,13.770000,13.770000,12.940000,13.050000,12.133641,285900
2019-01-10,12.920000,13.180000,12.730000,13.170000,12.245215,186300
2019-01-11,13.050000,13.190000,12.940000,12.980000,12.068556,425300
2019-01-14,12.990000,12.990000,12.550000,12.560000,11.678049,198500
2019-01-15,12.610000,12.662000,12.320000,12.430000,11.557177,160000
2019-01-16,12.460000,12.766000,12.340000,12.400000,11.529284,229700
2019-01-17,12.350000,12.430000,12.250000,12.340000,11.473496,233300
2019-01-18,12.360000,12.490000,12.090000,12.400000,11.529284,234500
2019-01-22,12.380000,12.400000,12.070000,12.300000,11.436305,190400
2019-01-23,12.340000,12.480000,12.070000,12.130000,11.278243,199500
2019-01-24,12.110000,12.260000,12.040000,12.120000,11.268945,155000
2019-01-25,12.190000,12.325000,12.010000,12.070000,11.222456,110100
2019-01-28,11.980000,12.260000,11.840000,12.030000,11.185265,218500
2019-01-29,12.030000,12.190000,12.010000,12.080000,11.231754,153500
2019-01-30,12.170000,12.230000,12.040000,12.130000,11.278243,120800
2019-01-31,12.090000,12.250000,12.060000,12.240000,11.380519,528700
2019-02-01,12.250000,12.740000,12.090000,12.680000,11.789622,1070100
2019-02-04,12.640000,12.809000,12.580000,12.700000,11.808219,443400
2019-02-05,12.740000,12.920000,12.390000,12.500000,11.622261,304400
2019-02-06,12.520000,12.650000,12.390000,12.470000,11.594369,325800
2019-02-07,12.400000,12.485000,12.065000,12.240000,11.380519,407600
2019-02-08,12.180000,12.400000,12.000000,12.250000,11.389816,426800
2019-02-11,12.310000,12.710000,12.310000,12.530000,11.650154,316300
2019-02-12,12.550000,12.690000,12.390000,12.570000,11.687346,187500
2019-02-13,12.750000,13.140000,12.710000,13.060000,12.142940,333400
2019-02-14,13.060000,13.090000,12.870000,12.970000,12.059258,161300
2019-02-15,13.060000,13.160000,12.870000,12.940000,12.031364,206600
2019-02-19,12.960000,13.520000,12.960000,13.510000,12.561340,462000
2019-02-20,13.480000,14.070000,13.480000,14.060000,13.072720,429400
2019-02-21,14.050000,14.320000,13.950000,14.230000,13.230782,399700
2019-02-22,14.300000,14.450000,14.180000,14.240000,13.240080,228500
2019-02-25,14.350000,14.410000,14.150000,14.200000,13.202889,498400
2019-02-26,14.230000,14.350000,14.000000,14.020000,13.035528,184100
2019-02-27,14.030000,14.140000,13.710000,14.010000,13.026230,136100
2019-02-28,13.980000,14.080000,13.820000,13.970000,12.989040,182600
2019-03-01,13.930000,14.380000,13.930000,14.320000,13.314463,283000
2019-03-04,14.270000,14.620000,14.220000,14.500000,13.481824,939900
2019-03-05,14.500000,14.930000,14.500000,14.560000,13.537611,432300
2019-03-06,14.560000,14.690000,14.270000,14.400000,13.388845,249100
2019-03-07,14.460000,14.460000,13.920000,14.010000,13.026230,337000
2019-03-08,13.940000,14.060000,13.660000,13.670000,12.710106,231500
2019-03-11,13.760000,14.153000,13.690000,14.080000,13.091316,262000
2019-03-12,14.130000,14.170000,13.805000,13.860000,12.886764,345500
2019-03-13,13.910000,14.000000,13.800000,13.900000,12.923954,310700
2019-03-14,13.940000,14.000000,13.770000,13.880000,12.905360,336500
2019-03-15,13.900000,13.910000,13.790000,13.870000,12.896061,630400
2019-03-18,13.960000,13.980000,13.680000,13.850000,12.877466,561800
2019-03-19,13.940000,13.940000,13.680000,13.760000,12.793785,378700
2019-03-20,13.760000,13.823000,13.620000,13.630000,12.672915,501900
2019-03-21,13.680000,14.230000,13.500000,14.130000,13.137804,579900
2019-03-22,13.070000,13.240000,10.250000,10.500000,9.762700,4035500
2019-03-25,10.450000,10.540000,10.160000,10.320000,9.595338,2064200
2019-03-26,10.330000,10.560000,10.250000,10.480000,9.744103,787400
2019-03-27,10.550000,10.910000,10.400000,10.520000,9.781296,4251700
2019-03-28,10.570000,11.030000,10.570000,11.000000,10.227589,752500
2019-03-29,11.110000,11.450000,11.020000,11.170000,10.385653,1182800
2019-04-01,11.110000,11.710000,11.050000,11.550000,10.934757,1168600
2019-04-02,11.540000,11.865000,11.415000,11.840000,11.209311,952700
2019-04-03,11.950000,12.180000,11.880000,12.100000,11.455461,790000
2019-04-04,12.180000,12.250000,12.051000,12.220000,11.569069,657300
2019-04-05,12.280000,12.620000,12.220000,12.590000,11.919360,616800
2019-04-08,12.750000,12.990000,12.390000,12.500000,11.834154,747800
2019-04-09,12.460000,12.660000,12.210000,12.240000,11.588003,489700
2019-04-10,12.380000,12.729000,12.340000,12.600000,11.928827,316900
2019-04-11,12.690000,12.763000,12.580000,12.640000,11.966696,303400
2019-04-12,12.730000,12.800000,12.550000,12.610000,11.938294,375600
2019-04-15,12.650000,12.730000,12.490000,12.550000,11.881491,198900
2019-04-16,12.600000,12.690000,12.420000,12.500000,11.834154,341800
2019-04-17,12.550000,12.750000,12.330000,12.400000,11.739480,543500
2019-04-18,12.340000,12.450000,12.020000,12.330000,11.673208,422900
2019-04-22,12.300000,12.330000,11.990000,12.260000,11.606938,1345800
2019-04-23,12.320000,12.380000,12.130000,12.230000,11.578535,359100
2019-04-24,12.270000,12.380000,12.150000,12.240000,11.588003,528700
2019-04-25,12.220000,12.370000,12.040000,12.250000,11.597470,456600
2019-04-26,12.380000,12.640000,12.320000,12.500000,11.834154,792400
2019-04-29,12.600000,12.810000,12.580000,12.700000,12.023500,266700
2019-04-30,12.680000,12.870000,12.445000,12.500000,11.834154,599700
2019-05-01,12.580000,12.820000,12.470000,12.580000,11.909892,1088300
2019-05-02,12.580000,12.910000,12.520000,12.900000,12.212846,445900
2019-05-03,12.960000,13.470000,12.950000,13.380000,12.667278,589400
2019-05-06,13.240000,13.650000,13.210000,13.590000,12.866092,341400
2019-05-07,13.500000,13.560000,13.300000,13.430000,12.714615,280700
2019-05-08,13.600000,13.700000,13.340000,13.350000,12.638876,252100
2019-05-09,13.300000,13.300000,12.960000,13.170000,12.468464,215100
2019-05-10,13.120000,13.300000,13.010000,13.300000,12.591539,246400
2019-05-13,13.130000,13.360000,12.930000,13.300000,12.591539,341200
2019-05-14,13.370000,13.850000,13.370000,13.810000,13.074373,562300
2019-05-15,13.530000,13.720000,12.770000,12.900000,12.212846,866800
2019-05-16,12.950000,13.270000,12.950000,13.200000,12.496865,277200
2019-05-17,13.160000,13.250000,12.800000,12.850000,12.165510,322500
2019-05-20,12.710000,12.900000,12.570000,12.710000,12.032968,189600
2019-05-21,12.800000,12.980000,12.675000,12.860000,12.174976,487400
2019-05-22,12.820000,12.900000,12.650000,12.670000,11.995098,244700
2019-05-23,12.630000,12.730000,12.450000,12.510000,11.843621,538000
2019-05-24,12.590000,12.810000,12.530000,12.760000,12.080305,187900
2019-05-28,12.780000,12.875000,12.520000,12.550000,11.881491,231200
2019-05-29,12.440000,12.510000,12.320000,12.410000,11.748947,235700
2019-05-30,12.460000,12.590000,12.260000,12.340000,11.682677,337700
2019-05-31,12.200000,12.350000,12.060000,12.120000,11.474395,633200
2019-06-03,12.210000,12.235000,11.880000,12.090000,11.445993,252500
2019-06-04,12.120000,12.350000,12.000000,12.330000,11.673208,468900
2019-06-05,12.410000,12.410000,12.100000,12.300000,11.644808,367900
2019-06-06,12.290000,12.550000,12.090000,12.360000,11.701611,607100
2019-06-07,12.360000,12.940000,12.300000,12.830000,12.146575,505500
2019-06-10,12.890000,12.970000,12.700000,12.810000,12.127642,399600
2019-06-11,12.870000,12.990000,12.720000,12.850000,12.165510,681100
2019-06-12,12.810000,13.060000,12.700000,12.760000,12.080305,577200
2019-06-13,12.850000,13.100000,12.780000,12.980000,12.288584,495600
2019-06-14,12.970000,13.020000,12.885000,12.900000,12.212846,338000
2019-06-17,12.920000,13.050000,12.800000,12.900000,12.212846,460900
2019-06-18,12.920000,13.130000,12.800000,12.980000,12.288584,227400
2019-06-19,13.020000,13.070000,12.850000,13.050000,12.354856,508400
2019-06-20,13.150000,13.420000,13.040000,13.270000,12.563138,422300
2019-06-21,13.170000,13.235000,12.810000,12.900000,12.212846,541300
2019-06-24,12.970000,12.970000,12.660000,12.710000,12.032968,341100
2019-06-25,12.710000,12.860000,12.510000,12.610000,11.938294,249700
2019-06-26,12.660000,12.660000,12.370000,12.400000,11.739480,263100
2019-06-27,12.200000,12.400000,12.170000,12.200000,11.739480,309000
2019-06-28,12.170000,12.430000,12.145000,12.390000,11.922309,442300
2019-07-01,12.570000,12.630000,12.310000,12.560000,12.085892,279800
2019-07-02,12.590000,12.980000,12.590000,12.950000,12.461169,304500
2019-07-03,12.940000,13.150000,12.940000,13.000000,12.509282,152200
2019-07-05,13.000000,13.080000,12.900000,13.000000,12.509282,190200
2019-07-08,12.970000,13.090000,12.850000,12.900000,12.413056,190700
2019-07-09,12.280000,12.650000,12.040000,12.300000,11.835706,674600
2019-07-10,12.310000,12.400000,12.225000,12.320000,11.854950,268500
2019-07-11,12.300000,12.300000,11.950000,12.000000,11.547029,319600
2019-07-12,12.000000,12.140000,11.950000,12.020000,11.566275,347700
2019-07-15,12.000000,12.090000,11.850000,12.040000,11.585520,187300
2019-07-16,11.970000,12.430000,11.900000,12.350000,11.883819,361200
2019-07-17,12.400000,12.540000,12.220000,12.450000,11.980043,438600
2019-07-18,12.440000,12.440000,12.145000,12.270000,11.806838,306700
2019-07-19,12.240000,12.350000,11.940000,12.060000,11.604765,617400
2019-07-22,12.110000,12.110000,11.840000,11.970000,11.518162,222500
2019-07-23,11.990000,12.070000,11.920000,11.990000,11.537407,305500
2019-07-24,11.960000,12.150000,11.930000,12.050000,11.595142,552700
2019-07-25,12.070000,12.120000,11.750000,11.980000,11.527784,822700
2019-07-26,12.020000,12.250000,11.930000,12.020000,11.566275,199400
2019-07-29,12.000000,12.080000,11.890000,12.000000,11.547029,206600
2019-07-30,11.930000,12.034000,11.850000,11.940000,11.489294,268500
2019-07-31,12.000000,12.180000,11.680000,11.730000,11.287221,371800
2019-08-01,11.730000,11.830000,11.440000,11.460000,11.027412,266300
2019-08-02,11.400000,11.550000,11.170000,11.410000,10.979300,238900
2019-08-05,11.200000,11.200000,10.780000,11.030000,10.613645,342700
2019-08-06,11.030000,11.210000,10.900000,11.030000,10.613645,194200
2019-08-07,10.920000,11.000000,10.600000,10.910000,10.498175,393300
2019-08-08,10.960000,11.250000,10.900000,11.020000,10.604023,458300
2019-08-09,11.010000,11.060000,10.870000,10.940000,10.527041,367000
2019-08-12,10.900000,10.938000,10.670000,10.860000,10.450062,224700
2019-08-13,10.870000,10.970000,10.740000,10.900000,10.488552,443700
2019-08-14,7.570000,9.170000,7.250000,9.100000,8.756497,4923500
2019-08-15,9.060000,9.110000,8.640000,8.920000,8.583292,1031000
2019-08-16,8.950000,9.690000,8.950000,9.420000,9.064419,609800
2019-08-19,9.600000,9.610000,9.160000,9.240000,8.891212,518500
2019-08-20,9.370000,9.370000,8.940000,8.950000,8.612160,263200
2019-08-21,9.030000,9.155000,8.940000,8.960000,8.621782,502500
2019-08-22,8.980000,9.060000,8.820000,8.880000,8.544802,213800
2019-08-23,8.820000,9.220000,8.695000,8.830000,8.496689,531400
2019-08-26,8.870000,8.980000,8.790000,8.850000,8.515935,283500
2019-08-27,8.870000,8.920000,8.709000,8.730000,8.400463,526000
2019-08-28,8.740000,9.173000,8.700000,8.990000,8.650649,296100
2019-08-29,9.050000,9.220000,9.010000,9.070000,8.727630,194200
2019-08-30,9.090000,9.150000,8.960000,9.100000,8.756497,145700
2019-09-03,9.030000,9.290000,8.950000,9.190000,8.843100,217600
2019-09-04,9.250000,9.470000,9.180000,9.210000,8.862346,206700
2019-09-05,9.300000,9.710000,9.240000,9.560000,9.199134,264500
2019-09-06,9.580000,9.850000,9.430000,9.750000,9.381962,533600
2019-09-09,9.750000,10.360000,9.735000,10.250000,9.863088,341500
2019-09-10,10.240000,10.400000,10.150000,10.310000,9.920823,332700
2019-09-11,10.320000,10.750000,10.290000,10.650000,10.247989,399300
2019-09-12,10.720000,10.740000,10.370000,10.530000,10.132518,336400
2019-09-13,10.690000,10.890000,10.540000,10.730000,10.324968,493000
2019-09-16,10.770000,10.880000,10.670000,10.790000,10.382704,377100
2019-09-17,10.790000,10.820000,10.620000,10.660000,10.257611,159800
2019-09-18,10.640000,10.655000,10.270000,10.380000,9.988180,293900
2019-09-19,10.420000,10.530000,10.300000,10.340000,9.949691,330300
2019-09-20,10.340000,10.640000,10.279000,10.490000,10.094028,620100
2019-09-23,10.470000,10.910000,10.450000,10.560000,10.161386,311200
2019-09-24,10.600000,10.630000,10.460000,10.470000,10.074783,360000
2019-09-25,10.490000,10.585000,10.300000,10.360000,9.968935,209100
2019-09-26,10.340000,10.370000,10.140000,10.290000,9.901578,225700
2019-09-27,10.110000,10.280000,10.000000,10.130000,9.940831,199500
2019-09-30,10.090000,10.220000,10.010000,10.110000,9.921205,170000
2019-10-01,10.170000,10.270000,9.980000,10.110000,9.921205,167400
2019-10-02,10.050000,10.100000,9.860000,10.030000,9.842698,248400
2019-10-03,10.030000,10.140000,9.760000,9.940000,9.754378,205800
2019-10-04,9.910000,10.010000,9.830000,9.950000,9.764193,152000
2019-10-07,9.890000,10.050000,9.830000,9.920000,9.734753,160100
2019-10-08,9.870000,9.920000,9.630000,9.650000,9.469794,276700
2019-10-09,9.650000,9.800000,9.530000,9.740000,9.558114,234200
2019-10-10,9.780000,10.030000,9.650000,9.720000,9.538487,129000
2019-10-11,9.830000,10.070000,9.760000,9.790000,9.607181,202100
2019-10-14,9.720000,9.910000,9.575000,9.780000,9.597366,188800
2019-10-15,9.800000,9.940000,9.700000,9.780000,9.597366,141100
2019-10-16,9.740000,9.893000,9.620000,9.690000,9.509048,155900
2019-10-17,9.700000,9.780000,9.610000,9.720000,9.538487,127500
2019-10-18,9.680000,9.850000,9.600000,9.690000,9.509048,164500
2019-10-21,9.790000,10.040000,9.780000,9.820000,9.636620,220100
2019-10-22,9.820000,9.970000,9.750000,9.960000,9.774006,291300
2019-10-23,9.960000,10.170000,9.860000,10.000000,9.813259,223600
2019-10-24,10.020000,10.090000,9.820000,10.000000,9.813259,176500
2019-10-25,9.940000,10.010000,9.770000,9.890000,9.705313,238300
2019-10-28,9.900000,10.030000,9.860000,9.910000,9.724939,197500
2019-10-29,9.850000,9.870000,9.720000,9.810000,9.626807,205700
2019-10-30,9.830000,9.960000,9.770000,9.850000,9.666060,262600
2019-10-31,9.830000,9.880000,9.760000,9.850000,9.666060,223800
2019-11-01,9.770000,10.150000,9.770000,10.130000,9.940831,240000
2019-11-04,10.150000,10.370000,10.140000,10.270000,10.078218,354000
2019-11-05,10.270000,10.540000,10.245000,10.390000,10.195976,351700
2019-11-06,10.480000,10.520000,10.190000,10.230000,10.038963,252900
2019-11-07,10.270000,10.420000,9.760000,9.830000,9.646433,222900
2019-11-08,9.620000,9.930000,9.620000,9.800000,9.616994,192300
2019-11-11,9.790000,9.900000,9.731000,9.890000,9.705313,259700
2019-11-12,9.940000,9.960000,9.800000,9.800000,9.616994,256300
2019-11-13,9.800000,9.890000,9.750000,9.840000,9.656246,382700
2019-11-14,10.310000,10.650000,10.040000,10.390000,10.195976,482700
2019-11-15,10.370000,10.370000,10.190000,10.320000,10.127283,255500
2019-11-18,10.320000,10.390000,10.000000,10.040000,9.852511,191400
2019-11-19,10.040000,10.050000,9.890000,10.000000,9.813259,185300
2019-11-20,9.990000,10.060000,9.810000,9.870000,9.685686,241000
2019-11-21,9.930000,10.040000,9.720000,9.950000,9.764193,170700
2019-11-22,9.950000,10.100000,9.900000,10.010000,9.823072,190700
2019-11-25,10.080000,10.200000,9.940000,10.100000,9.911391,267100
2019-11-26,10.060000,10.250000,10.020000,10.030000,9.842698,398000
2019-11-27,10.080000,10.180000,10.040000,10.150000,9.960457,152300
2019-11-29,10.110000,10.110000,10.010000,10.110000,9.921205,49600
2019-12-02,10.100000,10.160000,9.870000,9.940000,9.754378,201300
2019-12-03,9.900000,10.017000,9.800000,9.930000,9.744566,168400
2019-12-04,9.980000,10.040000,9.860000,9.950000,9.764193,159600
2019-12-05,9.950000,10.060000,9.910000,10.020000,9.832886,556000
2019-12-06,10.110000,10.200000,10.012000,10.150000,9.960457,226900
2019-12-09,10.140000,10.280000,10.140000,10.200000,10.009523,232800
2019-12-10,10.220000,10.270000,9.980000,10.030000,9.842698,722900
2019-12-11,10.070000,10.300000,9.940000,9.980000,9.793632,287700
2019-12-12,10.040000,10.370000,9.990000,10.310000,10.117470,571300
2019-12-13,10.310000,10.540000,10.190000,10.310000,10.117470,205100
2019-12-16,10.430000,11.135000,10.430000,10.880000,10.676826,457800
2019-12-17,10.900000,10.920000,10.670000,10.860000,10.657199,313700
2019-12-18,10.800000,10.920000,10.570000,10.730000,10.529626,290400
2019-12-19,10.730000,10.740000,10.460000,10.500000,10.303922,275400
2019-12-20,10.560000,10.730000,10.430000,10.630000,10.431494,1487000
2019-12-23,10.630000,10.750000,10.500000,10.600000,10.402055,227500
2019-12-24,10.610000,10.670000,10.553000,10.610000,10.411867,40700
2019-12-26,10.610000,10.770000,10.590000,10.710000,10.510000,205800
2019-12-27,10.430000,10.590000,10.430000,10.520000,10.520000,225200
2019-12-30,10.520000,10.580000,10.350000,10.560000,10.560000,234200
2019-12-31,10.550000,10.700000,10.500000,10.680000,10.680000,339200
2020-01-02,10.670000,10.740000,10.495000,10.640000,10.640000,392400
2020-01-03,10.590000,10.700000,10.530000,10.550000,10.550000,401100
2020-01-06,10.460000,10.517000,10.320000,10.390000,10.390000,193800
2020-01-07,10.300000,10.347000,9.860000,9.940000,9.940000,276800
2020-01-08,9.930000,10.050000,9.720000,10.040000,10.040000,296400
2020-01-09,10.030000,10.100000,9.870000,9.910000,9.910000,164900
2020-01-10,9.880000,9.950000,9.810000,9.870000,9.870000,198100
2020-01-13,9.800000,9.920000,9.780000,9.910000,9.910000,159500
2020-01-14,9.880000,9.960000,9.750000,9.950000,9.950000,189400
2020-01-15,9.900000,10.250000,9.900000,10.250000,10.250000,196200
2020-01-16,10.380000,10.455000,10.210000,10.270000,10.270000,125100
2020-01-17,10.520000,10.680000,10.500000,10.560000,10.560000,255700
2020-01-21,10.590000,10.660000,10.300000,10.330000,10.330000,140500
2020-01-22,10.370000,10.390000,10.050000,10.150000,10.150000,212400
2020-01-23,10.100000,10.100000,9.940000,9.950000,9.950000,143000
2020-01-24,9.930000,9.990000,9.440000,9.480000,9.480000,200200
2020-01-27,9.320000,9.340000,9.100000,9.110000,9.110000,213400
2020-01-28,9.090000,9.370000,9.080000,9.360000,9.360000,280200
2020-01-29,9.360000,9.440000,9.255000,9.290000,9.290000,420200
2020-01-30,9.210000,9.380000,9.170000,9.320000,9.320000,239400
2020-01-31,9.220000,9.240000,9.010000,9.150000,9.150000,355900
2020-02-03,9.110000,9.370000,9.110000,9.300000,9.300000,175600
2020-02-04,9.350000,9.640000,9.320000,9.550000,9.550000,188900
2020-02-05,9.630000,10.020000,9.600000,9.890000,9.890000,295300
2020-02-06,9.950000,10.050000,9.830000,9.840000,9.840000,191300
2020-02-07,9.810000,9.830000,9.620000,9.640000,9.640000,104900
2020-02-10,9.640000,9.740000,9.610000,9.710000,9.710000,81400
2020-02-11,9.730000,9.860000,9.730000,9.750000,9.750000,109500
2020-02-12,9.870000,10.000000,9.840000,9.930000,9.930000,115900
2020-02-13,9.880000,10.050000,9.830000,9.970000,9.970000,289800
