Date,Open,High,Low,Close,Adj Close,Volume
2016-08-18,16.875000,16.875000,16.875000,16.875000,16.875000,100
2016-08-19,16.875000,16.875000,16.875000,16.875000,16.875000,0
2016-08-22,16.875000,16.875000,16.875000,16.875000,16.875000,0
2016-08-23,16.875000,16.875000,16.875000,16.875000,16.875000,0
2016-08-24,16.875000,16.875000,16.875000,16.875000,16.875000,0
2016-08-25,16.875000,16.875000,16.875000,16.875000,16.875000,0
2016-08-26,16.875000,16.875000,16.875000,16.875000,16.875000,0
2016-08-29,16.875000,16.875000,16.875000,16.875000,16.875000,0
2016-08-30,16.875000,16.875000,16.875000,16.875000,16.875000,0
2016-08-31,16.875000,16.875000,16.875000,16.875000,16.875000,0
2016-09-01,16.875000,16.875000,16.875000,16.875000,16.875000,0
2016-09-02,16.875000,16.875000,16.875000,16.875000,16.875000,0
2016-09-06,16.875000,16.875000,16.875000,16.875000,16.875000,0
2016-09-07,16.875000,16.875000,16.875000,16.875000,16.875000,0
2016-09-08,16.875000,16.875000,16.875000,16.875000,16.875000,0
2016-09-09,23.000000,23.200001,23.000000,23.000000,23.000000,20000
2016-09-12,23.000000,23.000000,23.000000,23.000000,23.000000,0
2016-09-13,23.000000,23.000000,23.000000,23.000000,23.000000,0
2016-09-14,23.000000,23.000000,23.000000,23.000000,23.000000,0
2016-09-15,23.000000,23.000000,23.000000,23.000000,23.000000,0
2016-09-16,23.000000,23.000000,23.000000,23.000000,23.000000,0
2016-09-19,23.000000,23.000000,23.000000,23.000000,23.000000,0
2016-09-20,32.599998,32.799999,32.599998,32.799999,32.799999,20000
2016-09-21,33.000000,33.250000,33.000000,33.250000,33.250000,290000
2016-09-22,36.049999,38.450001,36.049999,38.400002,38.400002,260000
2016-09-23,38.450001,38.650002,38.450001,38.650002,38.650002,30000
2016-09-26,39.700001,39.900002,39.599998,39.599998,39.599998,55000
2016-09-27,39.599998,39.599998,39.599998,39.599998,39.599998,0
2016-09-28,40.000000,40.000000,39.700001,39.799999,39.799999,50000
2016-09-29,40.000000,41.500000,40.000000,41.500000,41.500000,125000
2016-09-30,42.000000,42.000000,41.650002,41.750000,41.750000,200000
2016-10-03,42.000000,42.000000,42.000000,42.000000,42.000000,1000
2016-10-04,42.000000,42.299999,42.000000,42.299999,42.299999,84000
2016-10-05,45.000000,52.000000,45.000000,51.650002,51.650002,146300
2016-10-06,53.299999,54.000000,52.849998,53.750000,53.750000,72300
2016-10-07,55.000000,60.000000,54.000000,60.000000,60.000000,70300
2016-10-10,61.000000,61.000000,59.000000,60.000000,60.000000,54900
2016-10-11,61.500000,61.500000,60.849998,60.900002,60.900002,68600
2016-10-12,61.000000,61.000000,60.000000,61.000000,61.000000,8500
2016-10-13,61.000000,61.000000,59.500000,60.000000,60.000000,136300
2016-10-14,60.000000,60.000000,59.500000,59.799999,59.799999,71700
2016-10-17,60.099998,60.099998,59.750000,60.000000,60.000000,85700
2016-10-18,62.000000,62.000000,59.900002,59.990002,59.990002,208500
2016-10-19,60.099998,61.000000,59.799999,59.950001,59.950001,443200
2016-10-20,60.500000,60.750000,60.000000,60.750000,60.750000,592100
2016-10-21,61.000000,71.000000,60.750000,70.250000,70.250000,472800
2016-10-24,70.500000,72.000000,70.250000,72.000000,72.000000,334700
2016-10-25,73.250000,74.000000,72.000000,72.500000,72.500000,309600
2016-10-26,72.000000,72.000000,71.000000,71.000000,71.000000,154700
2016-10-27,70.000000,70.000000,68.000000,68.000000,68.000000,2200
2016-10-28,72.000000,72.250000,66.000000,69.000000,69.000000,10900
2016-10-31,70.000000,71.000000,66.250000,66.250000,66.250000,9400
2016-11-01,71.500000,71.500000,69.000000,69.000000,69.000000,10200
2016-11-02,68.000000,68.000000,66.000000,66.000000,66.000000,7100
2016-11-03,67.000000,67.000000,64.500000,64.500000,64.500000,15600
2016-11-04,65.000000,65.000000,64.000000,64.099998,64.099998,14600
2016-11-07,66.000000,70.000000,64.500000,67.000000,67.000000,53800
2016-11-08,67.000000,67.000000,66.199997,66.500000,66.500000,271800
2016-11-09,75.000000,78.000000,74.900002,75.900002,75.900002,37000
2016-11-10,76.000000,79.000000,76.000000,76.500000,76.500000,92700
2016-11-11,76.000000,77.000000,76.000000,76.000000,76.000000,1600
2016-11-14,77.000000,78.000000,76.900002,77.000000,77.000000,81800
2016-11-15,77.000000,77.000000,76.000000,76.000000,76.000000,36400
2016-11-16,76.500000,77.000000,75.000000,75.250000,75.250000,84200
2016-11-17,70.500000,71.000000,64.000000,68.000000,68.000000,38300
2016-11-18,70.000000,71.000000,69.000000,69.500000,69.500000,394400
2016-11-21,70.000000,70.000000,69.000000,69.000000,69.000000,3100
2016-11-22,71.000000,71.000000,68.000000,68.000000,68.000000,16100
2016-11-23,67.000000,67.019997,66.000000,67.000000,67.000000,4400
2016-11-25,66.000000,66.000000,66.000000,66.000000,66.000000,300
2016-11-28,70.250000,70.250000,70.250000,70.250000,70.250000,1900
2016-11-29,69.125000,69.250000,68.250000,68.550003,68.550003,180900
2016-11-30,69.000000,70.500000,69.000000,69.000000,69.000000,243400
2016-12-01,70.050003,70.050003,69.000000,69.000000,69.000000,414800
2016-12-02,68.750000,69.000000,68.750000,68.750000,68.750000,93600
2016-12-05,70.000000,71.000000,70.000000,70.000000,70.000000,195100
2016-12-06,70.500000,71.000000,68.879997,70.300003,70.300003,321300
2016-12-07,71.000000,71.449997,70.000000,71.449997,71.449997,234600
2016-12-08,71.400002,71.699997,71.400002,71.699997,71.699997,41500
2016-12-09,72.000000,72.000000,71.750000,71.800003,71.800003,189400
2016-12-12,71.500000,72.500000,71.500000,72.250000,72.250000,203000
2016-12-13,73.000000,73.000000,72.000000,72.449997,72.449997,89700
2016-12-14,72.750000,72.750000,71.000000,71.750000,71.750000,24700
2016-12-15,71.750000,71.750000,69.750000,70.250000,70.250000,43900
2016-12-16,69.500000,77.000000,68.000000,77.000000,77.000000,20200
2016-12-19,72.849998,72.849998,72.300003,72.300003,72.300003,6100
2016-12-20,72.349998,72.400002,71.949997,72.000000,72.000000,5400
2016-12-21,71.500000,72.000000,69.050003,72.000000,72.000000,20800
2016-12-22,72.400002,72.400002,72.000000,72.000000,72.000000,1800
2016-12-23,72.500000,73.000000,72.500000,72.800003,72.800003,20900
2016-12-27,73.000000,73.500000,72.550003,72.599998,72.599998,16900
2016-12-28,70.000000,73.000000,70.000000,72.000000,72.000000,32000
2016-12-29,71.150002,71.150002,71.000000,71.000000,71.000000,1500
2016-12-30,71.000000,72.199997,69.750000,71.000000,71.000000,87600
2017-01-03,69.500000,71.250000,69.500000,71.000000,71.000000,3900
2017-01-04,71.000000,71.000000,70.000000,70.000000,70.000000,27700
2017-01-05,70.000000,70.000000,69.000000,69.000000,69.000000,56100
2017-01-06,69.000000,69.000000,65.000000,66.000000,66.000000,25800
2017-01-09,67.000000,67.000000,62.500000,63.500000,63.500000,24500
2017-01-10,63.500000,64.000000,58.000000,62.099998,62.099998,51300
2017-01-11,63.000000,63.000000,62.099998,62.400002,62.400002,96200
2017-01-12,63.000000,63.000000,62.000000,63.000000,63.000000,7100
2017-01-13,64.000000,67.500000,64.000000,65.000000,65.000000,72300
2017-01-17,65.000000,67.000000,65.000000,66.000000,66.000000,41800
2017-01-18,67.500000,67.500000,66.250000,66.500000,66.500000,33900
2017-01-19,66.500000,66.900002,66.500000,66.500000,66.500000,146500
2017-01-20,67.500000,67.500000,66.000000,66.250000,66.250000,6600
2017-01-23,66.000000,67.000000,66.000000,67.000000,67.000000,8200
2017-01-24,66.010002,68.000000,66.010002,68.000000,68.000000,46600
2017-01-25,67.199997,69.820000,67.000000,69.000000,69.000000,8600
2017-01-26,68.000000,69.500000,68.000000,69.500000,69.500000,8200
2017-01-27,70.000000,70.000000,69.000000,69.650002,69.650002,5800
2017-01-30,69.500000,69.500000,68.050003,69.000000,69.000000,10300
2017-01-31,69.150002,69.150002,67.000000,67.250000,67.250000,5300
2017-02-01,67.010002,67.599998,66.500000,67.599998,67.599998,5200
2017-02-02,67.500000,67.500000,64.000000,64.250000,64.250000,16000
2017-02-03,65.000000,65.750000,65.000000,65.750000,65.750000,2000
2017-02-06,68.000000,68.000000,68.000000,68.000000,68.000000,11800
2017-02-07,69.000000,69.000000,66.500000,66.750000,66.750000,17300
2017-02-08,69.000000,69.000000,65.500000,65.500000,65.500000,11900
2017-02-09,66.000000,66.000000,65.970001,66.000000,66.000000,5300
2017-02-10,65.599998,65.599998,62.990002,65.250000,65.250000,45500
2017-02-13,65.000000,65.000000,65.000000,65.000000,65.000000,5700
2017-02-14,64.000000,64.000000,61.799999,63.500000,63.500000,6300
2017-02-15,64.250000,64.250000,61.799999,63.000000,63.000000,28000
2017-02-16,63.000000,63.000000,60.500000,61.750000,61.750000,18600
2017-02-17,63.500000,63.500000,62.950001,63.500000,63.500000,96000
2017-02-21,69.000000,69.500000,64.000000,64.000000,64.000000,62300
2017-02-22,69.000000,69.000000,63.500000,65.000000,65.000000,4900
2017-02-23,65.050003,68.000000,65.050003,67.500000,67.500000,18800
2017-02-24,67.500000,67.849998,66.699997,66.750000,66.750000,108500
2017-02-27,67.110001,67.110001,66.440002,66.440002,66.440002,1400
2017-02-28,66.440002,66.989998,66.440002,66.589996,66.589996,1800
2017-03-01,66.000000,66.519997,65.000000,66.000000,66.000000,62400
2017-03-02,66.199997,66.199997,66.000000,66.000000,66.000000,16200
2017-03-03,66.000000,66.000000,65.949997,66.000000,66.000000,5500
2017-03-06,66.000000,66.000000,65.989998,65.989998,65.989998,1500
2017-03-07,65.500000,66.250000,65.000000,65.500000,65.500000,86700
2017-03-08,66.000000,66.000000,66.000000,66.000000,66.000000,300
2017-03-09,64.250000,65.120003,64.250000,65.120003,65.120003,1000
2017-03-10,63.000000,63.250000,62.299999,62.500000,62.500000,35400
2017-03-13,62.000000,62.500000,62.000000,62.250000,62.250000,16300
2017-03-14,62.000000,62.000000,62.000000,62.000000,62.000000,8300
2017-03-15,63.000000,63.689999,62.950001,63.250000,63.250000,60800
2017-03-16,63.000000,65.000000,62.750000,65.000000,65.000000,8500
2017-03-17,65.000000,65.500000,65.000000,65.099998,65.099998,26500
2017-03-20,65.000000,65.250000,65.000000,65.000000,65.000000,8400
2017-03-21,64.510002,65.000000,64.029999,64.029999,64.029999,123100
2017-03-22,65.000000,65.000000,63.000000,63.000000,63.000000,207500
2017-03-23,63.000000,63.250000,62.049999,62.299999,62.299999,38000
2017-03-24,62.299999,62.299999,62.299999,62.299999,62.299999,0
2017-03-27,61.500000,64.000000,61.500000,63.650002,63.650002,45500
2017-03-28,64.250000,66.500000,63.599998,66.500000,66.500000,38800
2017-03-29,65.500000,66.750000,65.500000,66.500000,66.500000,44100
2017-03-30,66.300003,66.500000,66.250000,66.489998,66.489998,90100
2017-03-31,66.449997,66.500000,66.000000,66.400002,66.400002,37500
2017-04-03,67.000000,68.000000,66.989998,67.800003,67.800003,162700
2017-04-04,67.849998,69.250000,67.750000,68.750000,68.750000,86300
2017-04-05,69.250000,72.500000,69.250000,69.449997,69.449997,31700
2017-04-06,70.000000,71.750000,70.000000,71.750000,71.750000,3200
2017-04-07,71.500000,71.500000,68.949997,69.750000,69.750000,15500
2017-04-10,71.750000,71.750000,70.000000,70.500000,70.500000,7500
2017-04-11,70.750000,71.949997,69.250000,69.250000,69.250000,60700
2017-04-12,69.599998,69.599998,68.500000,68.500000,68.500000,2600
2017-04-13,69.000000,69.000000,68.500000,68.500000,68.500000,800
2017-04-17,70.500000,71.000000,69.800003,69.800003,69.800003,17600
2017-04-18,69.750000,70.000000,69.000000,69.370003,69.370003,13300
2017-04-19,69.370003,70.000000,69.370003,69.699997,69.699997,53900
2017-04-20,69.750000,69.800003,69.500000,69.800003,69.800003,108100
2017-04-21,69.750000,69.800003,69.650002,69.699997,69.699997,32200
2017-04-24,69.750000,69.900002,69.650002,69.650002,69.650002,1100
2017-04-25,69.650002,70.000000,69.650002,70.000000,70.000000,900
2017-04-26,69.750000,69.750000,68.739998,68.750000,68.750000,7100
2017-04-27,68.940002,68.940002,66.500000,68.000000,68.000000,6000
2017-04-28,68.500000,68.500000,68.500000,68.500000,68.500000,1400
2017-05-01,68.000000,68.500000,68.000000,68.300003,68.300003,5800
2017-05-02,68.300003,70.500000,68.300003,70.500000,70.500000,2300
2017-05-03,70.510002,70.510002,69.500000,69.500000,69.500000,101300
2017-05-04,68.410004,68.430000,66.000000,67.250000,67.250000,8100
2017-05-05,68.000000,68.000000,67.500000,67.500000,67.500000,5900
2017-05-08,67.500000,69.000000,67.500000,69.000000,69.000000,6600
2017-05-09,70.500000,71.000000,69.800003,71.000000,71.000000,90500
2017-05-10,70.900002,71.250000,70.300003,70.300003,70.300003,900
2017-05-11,71.500000,71.500000,70.300003,71.500000,71.500000,4000
2017-05-12,71.500000,71.500000,71.000000,71.500000,71.500000,11600
2017-05-15,72.000000,78.000000,72.000000,78.000000,78.000000,19700
2017-05-16,78.000000,78.000000,78.000000,78.000000,78.000000,0
2017-05-17,77.500000,77.900002,74.000000,75.389999,75.389999,3800
2017-05-18,74.000000,74.500000,74.000000,74.500000,74.500000,2100
2017-05-19,74.790001,75.000000,74.500000,74.500000,74.500000,11600
2017-05-22,74.500000,74.500000,74.500000,74.500000,74.500000,0
2017-05-23,72.550003,74.000000,72.500000,74.000000,74.000000,5000
2017-05-24,74.000000,74.000000,73.500000,73.500000,73.500000,16200
2017-05-25,73.500000,73.500000,73.000000,73.500000,73.500000,26900
2017-05-26,73.500000,73.500000,73.500000,73.500000,73.500000,0
2017-05-30,72.010002,72.099998,72.000000,72.000000,72.000000,3700
2017-05-31,73.500000,74.500000,73.000000,74.000000,74.000000,4300
2017-06-01,74.500000,74.500000,70.750000,74.000000,74.000000,33400
2017-06-02,74.000000,74.000000,73.260002,74.000000,74.000000,27300
2017-06-05,74.000000,74.000000,73.099998,73.250000,73.250000,17200
2017-06-06,73.000000,74.000000,73.000000,73.250000,73.250000,6000
2017-06-07,73.000000,74.000000,73.000000,73.000000,73.000000,6800
2017-06-08,73.500000,73.500000,73.500000,73.500000,73.500000,200
2017-06-09,73.250000,73.250000,73.000000,73.000000,73.000000,11200
2017-06-12,72.500000,73.635002,72.500000,73.635002,73.635002,15900
2017-06-13,72.889999,73.589996,72.889999,73.589996,73.589996,1400
2017-06-14,73.599998,73.599998,73.500000,73.500000,73.500000,900
2017-06-15,73.000000,73.000000,73.000000,73.000000,73.000000,9800
2017-06-16,72.800003,73.000000,71.900002,71.949997,71.949997,15400
2017-06-19,75.000000,75.000000,72.250000,72.250000,72.250000,2100
2017-06-20,72.250000,77.900002,72.250000,74.000000,74.000000,31300
2017-06-21,74.339996,74.750000,74.339996,74.550003,74.550003,2500
2017-06-22,74.970001,75.599998,74.000000,74.000000,74.000000,27300
2017-06-23,75.000000,75.000000,74.000000,74.500000,74.500000,5800
2017-06-26,75.000000,75.300003,74.500000,74.500000,74.500000,9200
2017-06-27,75.000000,75.949997,73.650002,73.650002,73.650002,33300
2017-06-28,75.750000,75.750000,74.470001,74.500000,74.500000,29600
2017-06-29,75.000000,75.000000,73.750000,74.000000,74.000000,51800
2017-06-30,69.000000,69.000000,65.050003,65.500000,65.500000,21300
2017-07-03,64.510002,68.500000,64.510002,68.500000,68.500000,5400
2017-07-05,68.000000,69.500000,66.000000,69.000000,69.000000,5300
2017-07-06,64.510002,68.989998,55.000000,68.000000,68.000000,10800
2017-07-07,68.500000,68.500000,63.000000,68.250000,68.250000,5600
2017-07-10,67.500000,68.199997,65.000000,66.000000,66.000000,6600
2017-07-11,66.000000,68.000000,65.000000,66.989998,66.989998,48000
2017-07-12,70.000000,70.000000,67.500000,68.000000,68.000000,2500
2017-07-13,68.000000,68.000000,66.050003,68.000000,68.000000,7500
2017-07-14,68.000000,68.000000,67.000000,67.000000,67.000000,2300
2017-07-17,68.000000,68.000000,65.500000,67.000000,67.000000,40700
2017-07-18,66.500000,67.000000,66.000000,67.000000,67.000000,7900
2017-07-19,67.000000,67.000000,65.750000,67.000000,67.000000,13900
2017-07-20,66.900002,67.000000,66.900002,67.000000,67.000000,200
2017-07-21,67.000000,68.000000,66.699997,67.750000,67.750000,13800
2017-07-24,67.449997,67.449997,66.699997,67.449997,67.449997,11200
2017-07-25,67.449997,68.000000,67.449997,68.000000,68.000000,6100
2017-07-26,68.980003,69.000000,67.000000,68.000000,68.000000,45000
2017-07-27,68.000000,68.050003,65.059998,67.269997,67.269997,9900
2017-07-28,67.300003,67.300003,67.000000,67.050003,67.050003,22600
2017-07-31,60.000000,69.500000,60.000000,69.400002,69.400002,3900
2017-08-01,69.500000,70.000000,69.500000,69.849998,69.849998,5000
2017-08-02,69.699997,69.900002,69.500000,69.500000,69.500000,2700
2017-08-03,69.449997,69.449997,69.000000,69.400002,69.400002,6400
2017-08-04,69.000000,69.800003,68.750000,69.500000,69.500000,57200
2017-08-07,69.000000,69.000000,68.500000,69.000000,69.000000,19600
2017-08-08,68.500000,68.750000,68.000000,68.250000,68.250000,26000
2017-08-09,67.150002,68.500000,65.050003,65.500000,65.500000,26100
2017-08-10,65.000000,65.000000,65.000000,65.000000,65.000000,300
2017-08-11,63.049999,66.000000,63.049999,65.000000,65.000000,29500
2017-08-14,65.000000,65.000000,63.500000,63.500000,63.500000,1200
2017-08-15,63.500000,64.849998,62.849998,62.849998,62.849998,3900
2017-08-16,61.000000,65.000000,61.000000,61.000000,61.000000,3700
2017-08-17,63.950001,63.950001,60.500000,63.450001,63.450001,3500
2017-08-18,65.000000,65.000000,60.000000,61.000000,61.000000,900
2017-08-21,64.500000,64.500000,61.000000,61.500000,61.500000,2000
2017-08-22,62.000000,62.000000,61.000000,61.549999,61.549999,6100
2017-08-23,61.750000,61.750000,61.000000,61.250000,61.250000,25300
2017-08-24,61.000000,63.500000,61.000000,63.500000,63.500000,8800
2017-08-25,62.500000,64.300003,62.500000,63.000000,63.000000,19700
2017-08-28,64.750000,64.750000,62.750000,63.000000,63.000000,3100
2017-08-29,63.500000,63.500000,62.750000,63.000000,63.000000,8000
2017-08-30,63.000000,63.000000,62.000000,62.000000,62.000000,800
2017-08-31,62.000000,62.500000,62.000000,62.500000,62.500000,65900
2017-09-01,62.000000,62.900002,62.000000,62.700001,62.700001,88700
2017-09-05,61.650002,63.400002,61.400002,61.750000,61.750000,59400
2017-09-06,61.500000,62.000000,61.000000,61.250000,61.250000,72200
2017-09-07,62.500000,62.549999,60.610001,62.549999,62.549999,3000
2017-09-08,60.029999,65.000000,60.000000,61.250000,61.250000,6800
2017-09-11,61.250000,62.000000,60.250000,61.000000,61.000000,12200
2017-09-12,60.009998,61.000000,60.000000,61.000000,61.000000,18300
2017-09-13,60.009998,61.500000,60.000000,61.000000,61.000000,7000
2017-09-14,58.000000,61.240002,58.000000,60.939999,60.939999,223500
2017-09-15,61.000000,61.000000,60.500000,60.500000,60.500000,300
2017-09-18,60.000000,60.299999,59.000000,60.000000,60.000000,13100
2017-09-19,60.000000,60.349998,59.750000,60.000000,60.000000,123900
2017-09-20,60.500000,60.500000,60.400002,60.500000,60.500000,7400
2017-09-21,61.000000,61.000000,59.500000,60.900002,60.900002,4000
2017-09-22,59.990002,60.000000,59.250000,60.000000,60.000000,2100
2017-09-25,60.000000,60.000000,59.950001,59.980000,59.980000,1400
2017-09-26,59.950001,60.720001,58.849998,60.000000,60.000000,38200
2017-09-27,60.160000,60.400002,59.980000,60.000000,60.000000,21700
2017-09-28,60.000000,60.000000,59.500000,59.799999,59.799999,40400
2017-09-29,59.880001,59.880001,59.250000,59.279999,59.279999,5700
2017-10-02,59.349998,59.500000,58.880001,59.299999,59.299999,44700
2017-10-03,59.000000,59.400002,59.000000,59.299999,59.299999,12100
2017-10-04,59.299999,59.500000,59.250000,59.250000,59.250000,4700
2017-10-05,59.500000,59.599998,59.500000,59.500000,59.500000,10400
2017-10-06,59.500000,60.000000,59.200001,59.990002,59.990002,14000
2017-10-09,60.000000,60.040001,59.500000,59.720001,59.720001,10800
2017-10-10,59.720001,59.980000,59.720001,59.980000,59.980000,6700
2017-10-11,59.720001,59.720001,59.700001,59.700001,59.700001,12600
2017-10-12,59.599998,60.750000,59.500000,60.000000,60.000000,11700
2017-10-13,60.000000,60.000000,59.500000,59.700001,59.700001,8700
2017-10-16,59.599998,60.520000,59.500000,60.000000,60.000000,39500
2017-10-17,59.599998,60.240002,59.599998,60.230000,60.230000,42300
2017-10-18,60.160000,60.250000,59.650002,60.000000,60.000000,34200
2017-10-19,60.000000,60.099998,59.900002,60.000000,60.000000,7000
2017-10-20,60.000000,60.049999,59.900002,60.000000,60.000000,23200
2017-10-23,59.910000,61.099998,59.910000,60.130001,60.130001,12200
2017-10-24,60.099998,60.500000,59.500000,59.669998,59.669998,11800
2017-10-25,58.000000,61.500000,58.000000,59.500000,59.500000,23000
2017-10-26,60.000000,60.000000,59.049999,59.049999,59.049999,3000
2017-10-27,59.500000,60.000000,58.750000,58.900002,58.900002,7400
2017-10-30,59.900002,59.900002,59.000000,59.799999,59.799999,1100
2017-10-31,59.750000,59.799999,59.099998,59.099998,59.099998,2100
2017-11-01,59.389999,59.500000,58.750000,59.099998,59.099998,5100
2017-11-02,59.000000,59.500000,58.750000,59.500000,59.500000,4600
2017-11-03,58.900002,59.700001,58.900002,59.500000,59.500000,5200
2017-11-06,59.500000,59.700001,58.549999,59.599998,59.599998,15200
2017-11-07,59.500000,59.500000,59.500000,59.500000,59.500000,1100
2017-11-08,59.500000,59.500000,59.450001,59.500000,59.500000,2000
2017-11-09,59.150002,59.150002,58.700001,58.750000,58.750000,3100
2017-11-10,59.000000,59.000000,58.700001,58.700001,58.700001,2900
2017-11-13,58.799999,58.799999,58.500000,58.750000,58.750000,2000
2017-11-14,58.500000,58.500000,58.000000,58.000000,58.000000,1100
2017-11-15,58.009998,58.500000,57.500000,58.000000,58.000000,2400
2017-11-16,57.529999,57.529999,54.000000,57.250000,57.250000,15100
2017-11-17,57.490002,57.490002,57.000000,57.000000,57.000000,1200
2017-11-20,57.500000,57.500000,57.000000,57.000000,57.000000,2600
2017-11-21,57.000000,57.000000,55.750000,56.150002,56.150002,20900
2017-11-22,56.000000,56.099998,55.799999,56.000000,56.000000,10000
2017-11-24,56.049999,57.000000,56.000000,57.000000,57.000000,5100
2017-11-27,57.000000,57.000000,56.990002,56.990002,56.990002,1600
2017-11-28,57.490002,59.000000,57.490002,59.000000,59.000000,14700
2017-11-29,59.200001,59.200001,58.549999,59.000000,59.000000,9400
2017-11-30,59.000000,59.500000,58.549999,59.500000,59.500000,10600
2017-12-01,59.500000,59.549999,58.900002,59.099998,59.099998,5700
2017-12-04,59.400002,59.799999,59.250000,59.410000,59.410000,2300
2017-12-05,59.500000,59.549999,59.480000,59.480000,59.480000,1900
2017-12-06,59.000000,59.200001,59.000000,59.200001,59.200001,1100
2017-12-07,58.599998,59.349998,58.599998,59.200001,59.200001,7200
2017-12-08,59.099998,59.349998,58.880001,58.880001,58.880001,1500
2017-12-11,59.000000,60.000000,58.750000,59.000000,59.000000,71400
2017-12-12,59.000000,59.200001,58.599998,58.599998,58.599998,39400
2017-12-13,58.650002,58.900002,58.369999,58.500000,58.500000,36600
2017-12-14,58.700001,58.700001,58.400002,58.500000,58.500000,27600
2017-12-15,58.500000,58.500000,57.950001,58.000000,58.000000,41400
2017-12-18,59.209999,60.000000,59.200001,59.700001,59.700001,4700
2017-12-19,59.099998,59.500000,59.099998,59.500000,59.500000,3100
2017-12-20,59.500000,59.900002,59.400002,59.900002,59.900002,10900
2017-12-21,59.099998,59.799999,59.000000,59.099998,59.099998,4600
2017-12-22,59.750000,59.980000,59.500000,59.980000,59.980000,36100
2017-12-26,59.950001,60.000000,59.099998,60.000000,60.000000,104800
2017-12-27,59.500000,60.110001,59.500000,59.750000,59.750000,10600
2017-12-28,59.750000,60.049999,59.750000,59.750000,59.750000,12200
2017-12-29,60.110001,60.110001,59.200001,59.380001,59.380001,30100
2018-01-02,61.900002,65.000000,61.000000,63.110001,63.110001,15300
2018-01-03,63.500000,63.799999,63.000000,63.250000,63.250000,14100
2018-01-04,61.250000,64.000000,61.250000,64.000000,64.000000,23600
2018-01-05,64.440002,67.750000,64.440002,66.000000,66.000000,13200
2018-01-08,65.000000,65.000000,62.500000,64.000000,64.000000,14700
2018-01-09,65.000000,65.000000,64.000000,64.650002,64.650002,11100
2018-01-10,64.199997,64.500000,64.199997,64.400002,64.400002,7300
2018-01-11,65.449997,66.500000,65.449997,66.000000,66.000000,6900
2018-01-12,64.699997,67.440002,64.599998,67.440002,67.440002,22600
2018-01-16,64.500000,67.250000,64.500000,66.699997,66.699997,19500
2018-01-17,66.010002,66.750000,65.000000,66.750000,66.750000,3400
2018-01-18,65.000000,65.500000,65.000000,65.000000,65.000000,48900
2018-01-19,65.949997,66.000000,64.000000,64.500000,64.500000,22500
2018-01-22,64.500000,67.000000,64.500000,64.500000,64.500000,16100
2018-01-23,66.000000,66.500000,66.000000,66.000000,66.000000,10100
2018-01-24,64.500000,67.099998,64.500000,67.099998,67.099998,2200
2018-01-25,67.099998,68.000000,66.000000,68.000000,68.000000,30300
2018-01-26,65.000000,68.500000,65.000000,67.750000,67.750000,3800
2018-01-29,67.750000,67.750000,67.750000,67.750000,67.750000,500
2018-01-30,68.449997,68.449997,65.650002,67.750000,67.750000,4500
2018-01-31,68.000000,68.000000,65.599998,68.000000,68.000000,3400
2018-02-01,68.400002,68.400002,65.650002,68.000000,68.000000,2600
2018-02-02,68.000000,68.000000,66.000000,68.000000,68.000000,3300
2018-02-05,68.000000,68.500000,62.000000,67.750000,67.750000,7800
2018-02-06,67.739998,67.739998,67.400002,67.400002,67.400002,900
2018-02-07,63.000000,67.000000,63.000000,67.000000,67.000000,1800
2018-02-08,63.250000,66.500000,63.250000,66.500000,66.500000,800
2018-02-09,62.000000,66.500000,62.000000,65.000000,65.000000,6900
2018-02-12,66.480003,67.000000,63.650002,66.500000,66.500000,13500
2018-02-13,66.400002,67.000000,66.000000,67.000000,67.000000,10400
2018-02-14,67.000000,67.099998,66.250000,66.250000,66.250000,33300
2018-02-15,65.510002,68.000000,65.500000,68.000000,68.000000,10900
2018-02-16,67.500000,67.500000,65.500000,67.000000,67.000000,1600
2018-02-20,65.500000,67.000000,65.500000,66.800003,66.800003,4100
2018-02-21,67.000000,67.000000,67.000000,67.000000,67.000000,100
2018-02-22,66.000000,67.000000,66.000000,66.500000,66.500000,800
2018-02-23,66.949997,66.949997,66.800003,66.949997,66.949997,600
2018-02-26,66.500000,66.750000,66.500000,66.750000,66.750000,1900
2018-02-27,66.750000,66.750000,66.750000,66.750000,66.750000,2800
2018-02-28,65.599998,68.000000,65.599998,68.000000,68.000000,4600
2018-03-01,68.000000,68.000000,68.000000,68.000000,68.000000,1000
2018-03-02,66.150002,68.000000,66.150002,67.500000,67.500000,1500
2018-03-05,66.699997,68.000000,66.699997,68.000000,68.000000,700
2018-03-06,68.000000,68.000000,68.000000,68.000000,68.000000,3000
2018-03-07,68.500000,68.500000,68.000000,68.500000,68.500000,5300
2018-03-08,68.250000,68.250000,68.250000,68.250000,68.250000,100
2018-03-09,66.750000,68.250000,66.750000,68.250000,68.250000,18700
2018-03-12,68.250000,68.250000,68.250000,68.250000,68.250000,900
2018-03-13,67.050003,68.000000,67.000000,68.000000,68.000000,500
2018-03-14,66.250000,68.500000,66.199997,68.500000,68.500000,700
2018-03-15,68.400002,68.400002,67.110001,67.900002,67.900002,1400
2018-03-16,67.900002,67.900002,67.000000,67.000000,67.000000,6900
2018-03-19,67.000000,67.099998,64.099998,66.000000,66.000000,5100
2018-03-20,69.000000,69.000000,66.099998,66.099998,66.099998,12500
2018-03-21,65.879997,66.000000,64.750000,66.000000,66.000000,5800
2018-03-22,65.000000,65.400002,64.800003,64.800003,64.800003,17000
2018-03-23,64.199997,64.449997,63.750000,64.449997,64.449997,12700
2018-03-26,67.800003,67.800003,61.080002,65.000000,65.000000,1800
2018-03-27,64.000000,65.000000,62.049999,63.500000,63.500000,10500
2018-03-28,65.000000,65.000000,63.950001,63.950001,63.950001,3200
2018-03-29,65.050003,67.000000,64.599998,67.000000,67.000000,7900
2018-04-02,65.000000,65.000000,64.000000,64.800003,64.800003,6300
2018-04-03,66.250000,66.250000,65.000000,65.699997,65.699997,17200
2018-04-04,65.699997,65.699997,65.699997,65.699997,65.699997,0
2018-04-05,65.250000,67.000000,64.000000,66.849998,66.849998,5600
2018-04-06,66.849998,66.849998,66.000000,66.000000,66.000000,1700
2018-04-09,66.000000,67.000000,66.000000,66.000000,66.000000,8300
2018-04-10,64.300003,66.000000,64.300003,66.000000,66.000000,2300
2018-04-11,66.000000,66.000000,66.000000,66.000000,66.000000,300
2018-04-12,66.000000,66.000000,66.000000,66.000000,66.000000,0
2018-04-13,65.500000,65.500000,65.000000,65.000000,65.000000,7000
2018-04-16,65.000000,67.000000,64.199997,65.000000,65.000000,39000
2018-04-17,65.000000,65.300003,65.000000,65.000000,65.000000,4400
2018-04-18,64.500000,65.000000,62.250000,64.699997,64.699997,39700
2018-04-19,65.000000,65.000000,63.049999,64.000000,64.000000,21500
2018-04-20,64.989998,65.949997,64.949997,65.949997,65.949997,7800
2018-04-23,66.000000,69.750000,65.000000,67.989998,67.989998,36900
2018-04-24,69.000000,69.000000,68.500000,68.769997,68.769997,31500
2018-04-25,68.820000,68.820000,67.000000,68.449997,68.449997,10300
2018-04-26,68.000000,68.000000,66.239998,66.239998,66.239998,28500
2018-04-27,66.500000,67.699997,66.500000,66.500000,66.500000,6700
2018-04-30,69.000000,69.000000,66.500000,66.949997,66.949997,175100
2018-05-01,70.000000,70.000000,64.550003,64.970001,64.970001,96800
2018-05-02,65.500000,65.500000,64.000000,64.000000,64.000000,40600
2018-05-03,64.500000,67.000000,62.500000,64.000000,64.000000,14700
2018-05-04,64.000000,65.500000,64.000000,65.500000,65.500000,100700
2018-05-07,67.000000,67.000000,64.050003,66.500000,66.500000,15100
2018-05-08,65.000000,66.500000,63.599998,65.500000,65.500000,9300
2018-05-09,66.000000,66.000000,65.949997,66.000000,66.000000,18600
2018-05-10,65.760002,66.000000,65.400002,66.000000,66.000000,9800
2018-05-11,66.000000,66.000000,65.599998,66.000000,66.000000,8000
2018-05-14,66.000000,66.000000,65.500000,65.500000,65.500000,6400
2018-05-15,65.550003,65.550003,65.500000,65.500000,65.500000,4900
2018-05-16,64.500000,66.000000,64.099998,65.750000,65.750000,40600
2018-05-17,64.500000,65.500000,64.500000,65.000000,65.000000,6900
2018-05-18,64.699997,65.750000,64.199997,65.500000,65.500000,3000
2018-05-21,65.550003,66.000000,65.050003,65.500000,65.500000,15200
2018-05-22,65.250000,65.500000,64.900002,65.500000,65.500000,62200
2018-05-23,65.300003,65.500000,64.900002,65.500000,65.500000,15600
2018-05-24,66.500000,67.000000,66.500000,66.949997,66.949997,173900
2018-05-25,67.000000,67.000000,66.750000,66.800003,66.800003,8400
2018-05-29,66.750000,66.760002,65.000000,66.699997,66.699997,13600
2018-05-30,66.900002,68.099998,66.800003,68.099998,68.099998,107400
2018-05-31,67.250000,68.150002,67.000000,68.150002,68.150002,15700
2018-06-01,66.000000,69.000000,66.000000,69.000000,69.000000,92600
2018-06-04,69.010002,70.250000,69.010002,69.820000,69.820000,35000
2018-06-05,70.300003,70.300003,69.070000,70.000000,70.000000,8700
2018-06-06,70.099998,70.099998,69.019997,70.000000,70.000000,34200
2018-06-07,71.660004,71.660004,69.699997,70.000000,70.000000,32100
2018-06-08,70.000000,70.199997,70.000000,70.000000,70.000000,68800
2018-06-11,70.199997,80.000000,70.199997,71.000000,71.000000,4400
2018-06-12,75.000000,75.000000,71.000000,71.550003,71.550003,2700
2018-06-13,72.500000,72.510002,71.500000,71.500000,71.500000,7600
2018-06-14,73.000000,73.000000,72.500000,73.000000,73.000000,2100
2018-06-15,74.000000,74.000000,72.400002,72.400002,72.400002,4600
2018-06-18,74.000000,74.000000,72.000000,74.000000,74.000000,12000
2018-06-19,73.949997,73.949997,72.050003,73.900002,73.900002,1100
2018-06-20,73.050003,73.750000,72.500000,73.500000,73.500000,9900
2018-06-21,74.000000,74.000000,73.500000,73.500000,73.500000,700
2018-06-22,74.500000,74.500000,72.010002,73.449997,73.449997,6000
2018-06-25,72.000000,74.500000,71.750000,73.500000,73.500000,37000
2018-06-26,73.500000,74.800003,73.500000,73.750000,73.750000,3800
2018-06-27,74.000000,74.500000,73.000000,73.750000,73.750000,16800
2018-06-28,72.500000,73.949997,72.000000,73.250000,73.250000,4700
2018-06-29,72.500000,73.500000,70.250000,72.699997,72.699997,20000
2018-07-02,72.500000,75.000000,70.849998,73.330002,73.330002,36500
2018-07-03,73.150002,73.250000,72.000000,73.000000,73.000000,19500
2018-07-05,73.500000,73.500000,72.599998,73.000000,73.000000,39800
2018-07-06,73.050003,73.050003,72.900002,72.900002,72.900002,100500
2018-07-09,73.050003,73.050003,72.500000,73.000000,73.000000,89700
2018-07-10,73.000000,73.000000,71.099998,73.000000,73.000000,6700
2018-07-11,73.500000,74.500000,72.550003,72.550003,72.550003,11900
2018-07-12,72.565002,73.000000,71.000000,73.000000,73.000000,19000
2018-07-13,72.250000,73.000000,71.800003,72.000000,72.000000,145000
2018-07-16,73.000000,73.000000,69.500000,71.000000,71.000000,23200
2018-07-17,69.510002,71.099998,69.500000,70.099998,70.099998,51500
2018-07-18,70.099998,70.250000,70.099998,70.199997,70.199997,11800
2018-07-19,70.000000,71.150002,69.800003,69.900002,69.900002,6900
2018-07-20,70.000000,70.000000,69.599998,69.599998,69.599998,1100
2018-07-23,69.150002,70.000000,69.150002,70.000000,70.000000,1200
2018-07-24,70.000000,70.500000,69.250000,70.000000,70.000000,16300
2018-07-25,69.699997,69.949997,69.000000,69.949997,69.949997,8300
2018-07-26,70.000000,70.000000,70.000000,70.000000,70.000000,800
2018-07-27,69.500000,69.550003,69.050003,69.550003,69.550003,1400
2018-07-30,69.875000,70.000000,67.010002,67.010002,67.010002,9100
2018-07-31,69.949997,69.949997,68.750000,68.750000,68.750000,24800
2018-08-01,68.750000,68.769997,67.500000,67.500000,67.500000,13100
2018-08-02,68.050003,68.500000,68.000000,68.500000,68.500000,1500
2018-08-03,67.099998,68.750000,67.099998,68.500000,68.500000,1900
2018-08-06,67.099998,68.699997,67.099998,68.699997,68.699997,5500
2018-08-07,68.699997,68.699997,68.699997,68.699997,68.699997,200
2018-08-08,68.000000,68.500000,67.500000,68.449997,68.449997,2400
2018-08-09,67.500000,68.449997,67.000000,68.449997,68.449997,13900
2018-08-10,67.750000,67.750000,66.099998,66.989998,66.989998,5800
2018-08-13,66.250000,66.860001,66.000000,66.099998,66.099998,12700
2018-08-14,67.050003,68.400002,66.400002,66.449997,66.449997,1600
2018-08-15,68.400002,68.400002,68.400002,68.400002,68.400002,600
2018-08-16,68.250000,71.050003,68.250000,69.199997,69.199997,44400
2018-08-17,69.099998,70.500000,68.989998,70.050003,70.050003,41100
2018-08-20,70.500000,71.750000,70.500000,71.000000,71.000000,23600
2018-08-21,71.500000,74.949997,71.500000,73.000000,73.000000,26300
2018-08-22,74.000000,79.500000,74.000000,75.800003,75.800003,303700
2018-08-23,76.250000,76.400002,75.500000,76.000000,76.000000,53600
2018-08-24,76.000000,76.099998,75.849998,76.000000,76.000000,64600
2018-08-27,76.500000,79.790001,76.000000,76.629997,76.629997,31700
2018-08-28,77.099998,77.099998,76.250000,77.000000,77.000000,33800
2018-08-29,77.099998,77.099998,76.800003,77.000000,77.000000,13200
2018-08-30,76.900002,77.000000,75.000000,75.750000,75.750000,20500
2018-08-31,75.750000,77.000000,75.000000,76.949997,76.949997,4100
2018-09-04,77.000000,77.000000,76.199997,76.500000,76.500000,277500
2018-09-05,76.250000,77.000000,76.250000,77.000000,77.000000,10700
2018-09-06,76.900002,77.000000,76.500000,76.989998,76.989998,9300
2018-09-07,76.000000,77.000000,76.000000,76.500000,76.500000,6700
2018-09-10,77.000000,78.500000,76.750000,78.000000,78.000000,75400
2018-09-11,78.199997,79.250000,77.800003,79.000000,79.000000,50500
2018-09-12,78.900002,79.790001,78.500000,78.500000,78.500000,63900
2018-09-13,78.500000,78.500000,77.430000,78.000000,78.000000,15700
2018-09-14,78.000000,78.000000,74.750000,75.160004,75.160004,83600
2018-09-17,75.250000,75.250000,72.500000,73.500000,73.500000,57900
2018-09-18,73.250000,73.250000,71.510002,71.599998,71.599998,72200
2018-09-19,74.120003,76.250000,72.000000,76.250000,76.250000,32300
2018-09-20,78.000000,78.000000,74.000000,74.000000,74.000000,11600
2018-09-21,74.500000,76.500000,74.500000,75.000000,75.000000,3300
2018-09-24,76.500000,77.250000,74.250000,74.250000,74.250000,19200
2018-09-25,73.500000,76.000000,73.500000,74.050003,74.050003,17300
2018-09-26,74.000000,77.099998,73.500000,77.000000,77.000000,16700
2018-09-27,77.300003,81.000000,77.300003,79.000000,79.000000,71800
2018-09-28,78.000000,80.000000,78.000000,79.250000,79.250000,4000
2018-10-01,75.000000,80.000000,75.000000,78.500000,78.500000,7700
2018-10-02,79.000000,79.510002,78.500000,79.250000,79.250000,6900
2018-10-03,79.099998,79.199997,78.900002,79.000000,79.000000,17800
2018-10-04,78.989998,79.000000,77.000000,78.250000,78.250000,14400
2018-10-05,71.550003,78.010002,71.550003,78.000000,78.000000,11000
2018-10-08,77.000000,77.000000,76.000000,77.000000,77.000000,4800
2018-10-09,71.099998,77.970001,71.099998,77.970001,77.970001,13300
2018-10-10,75.019997,77.000000,75.000000,76.000000,76.000000,9300
2018-10-11,74.000000,75.000000,73.000000,73.500000,73.500000,40700
2018-10-12,74.000000,75.750000,73.500000,74.449997,74.449997,31700
2018-10-15,72.500000,77.250000,72.500000,74.599998,74.599998,10700
2018-10-16,74.010002,77.000000,74.010002,77.000000,77.000000,3300
2018-10-17,77.000000,79.000000,76.949997,78.750000,78.750000,12000
2018-10-18,78.000000,78.000000,77.500000,78.000000,78.000000,42700
2018-10-19,77.500000,77.500000,75.000000,76.000000,76.000000,16700
2018-10-22,73.125000,76.500000,73.125000,76.500000,76.500000,54000
2018-10-23,76.000000,76.000000,73.019997,75.000000,75.000000,8500
2018-10-24,73.269997,75.000000,73.000000,73.269997,73.269997,8000
2018-10-25,73.500000,75.800003,72.000000,72.500000,72.500000,29200
2018-10-26,72.000000,72.000000,69.500000,72.000000,72.000000,20000
2018-10-29,71.949997,72.000000,69.949997,71.000000,71.000000,10400
2018-10-30,71.000000,71.470001,71.000000,71.470001,71.470001,400
2018-10-31,72.949997,73.000000,72.000000,72.949997,72.949997,388400
2018-11-01,73.099998,75.000000,73.099998,74.000000,74.000000,22700
2018-11-02,73.199997,74.000000,73.199997,74.000000,74.000000,900
2018-11-05,75.900002,75.900002,75.000000,75.000000,75.000000,2800
2018-11-06,75.000000,75.000000,73.250000,74.500000,74.500000,2700
2018-11-07,75.000000,76.750000,73.250000,76.750000,76.750000,8500
2018-11-08,76.900002,79.000000,76.800003,77.010002,77.010002,8700
2018-11-09,79.000000,79.000000,75.000000,75.000000,75.000000,9000
2018-11-12,76.500000,76.500000,72.510002,75.080002,75.080002,8200
2018-11-13,73.110001,75.470001,73.000000,74.449997,74.449997,11800
2018-11-14,74.019997,74.470001,71.500000,73.000000,73.000000,25800
2018-11-15,72.949997,73.900002,71.500000,71.669998,71.669998,100400
2018-11-16,71.500000,71.500000,70.120003,70.500000,70.500000,63200
2018-11-19,69.550003,70.989998,66.383003,68.459999,68.459999,77300
2018-11-20,67.949997,68.250000,64.550003,65.250000,65.250000,106300
2018-11-21,64.860001,68.176003,64.169998,65.209999,65.209999,72400
2018-11-23,65.000000,65.000000,62.250000,64.000000,64.000000,52700
2018-11-26,65.059998,65.334999,63.014999,63.500000,63.500000,51100
2018-11-27,63.139999,63.139999,61.020000,62.000000,62.000000,119600
2018-11-28,62.000000,62.490002,60.779999,62.000000,62.000000,131000
2018-11-29,61.529999,64.620003,60.869999,63.900002,63.900002,89500
2018-11-30,64.209999,64.500000,62.139999,64.199997,64.199997,121700
2018-12-03,64.019997,66.150002,63.880001,64.940002,64.940002,108900
2018-12-04,64.839996,65.949997,64.290001,64.680000,64.680000,84600
2018-12-06,64.290001,64.320000,60.759998,64.320000,64.320000,259800
2018-12-07,64.690002,65.000000,64.139999,65.000000,65.000000,93800
2018-12-10,64.760002,65.500000,64.610001,65.250000,65.250000,196700
2018-12-11,65.139999,67.635002,65.139999,67.260002,67.260002,183700
2018-12-12,67.459999,69.000000,67.459999,68.160004,68.160004,225900
2018-12-13,68.989998,69.000000,67.945000,68.389999,68.389999,141100
2018-12-14,68.000000,69.290001,67.809998,68.239998,68.239998,115900
2018-12-17,68.500000,68.720001,66.959999,67.970001,67.970001,352500
2018-12-18,68.000000,68.250000,65.750000,66.839996,66.839996,364800
2018-12-19,66.779999,68.949997,66.730003,67.500000,67.500000,466800
2018-12-20,67.320000,68.610001,65.870003,66.400002,66.400002,445300
2018-12-21,66.400002,66.599998,64.269997,64.269997,64.269997,508000
2018-12-24,63.790001,65.800003,63.790001,64.730003,64.730003,40000
2018-12-26,64.809998,65.900002,64.696999,65.900002,65.900002,39800
2018-12-27,65.239998,66.250000,65.029999,65.750000,65.750000,46000
2018-12-28,65.459999,66.000000,65.385002,65.480003,65.480003,80000
2018-12-31,65.550003,66.000000,64.849998,65.739998,65.739998,60900
2019-01-02,64.980003,66.000000,64.190002,65.980003,65.980003,56600
2019-01-03,65.940002,66.000000,64.470001,64.519997,64.519997,17200
2019-01-04,65.160004,65.750000,64.239998,64.980003,64.980003,72500
2019-01-07,65.330002,65.330002,64.349998,64.989998,64.989998,50200
2019-01-08,64.989998,65.394997,63.435001,64.220001,64.220001,46400
2019-01-09,64.379997,65.000000,63.575001,64.919998,64.919998,86300
2019-01-10,64.260002,65.004997,63.259998,64.470001,64.470001,85900
2019-01-11,64.110001,64.500000,62.950001,63.759998,63.759998,58100
2019-01-14,63.180000,63.709999,62.110001,63.049999,63.049999,35600
2019-01-15,63.000000,63.049999,62.742001,62.880001,62.880001,45800
2019-01-16,62.900002,64.300003,62.900002,64.300003,64.300003,88500
2019-01-17,64.010002,64.720001,63.529999,63.950001,63.950001,76100
2019-01-18,64.589996,65.290001,64.209999,64.750000,64.750000,76300
2019-01-22,64.063004,65.209999,63.400002,64.860001,64.860001,115600
2019-01-23,64.949997,65.279999,64.160004,64.160004,64.160004,91200
2019-01-24,64.370003,64.377998,62.500000,63.880001,63.880001,91200
2019-01-25,64.269997,65.000000,63.680000,64.989998,64.989998,90100
2019-01-28,64.620003,65.110001,64.065002,64.540001,64.540001,95800
2019-01-29,64.800003,65.000000,64.449997,64.739998,64.739998,60600
2019-01-30,64.980003,64.989998,63.840000,64.150002,64.150002,25400
2019-01-31,63.889999,64.550003,63.889999,64.379997,64.379997,54500
2019-02-01,64.440002,64.750000,64.209999,64.599998,64.599998,48000
2019-02-04,64.580002,64.580002,64.010002,64.330002,64.330002,40400
2019-02-05,64.169998,64.250000,63.525002,63.970001,63.970001,52200
2019-02-06,63.820000,64.150002,63.500000,63.750000,63.750000,43100
2019-02-07,63.750000,63.869999,62.185001,62.849998,62.849998,27000
2019-02-08,63.099998,63.099998,60.549999,61.270000,61.270000,76200
2019-02-11,61.330002,61.330002,58.869999,60.279999,60.279999,66800
2019-02-12,60.259998,61.930000,60.259998,61.150002,61.150002,54300
2019-02-13,61.240002,63.410000,61.160000,62.000000,62.000000,72500
2019-02-14,62.880001,62.950001,61.580002,61.630001,61.630001,51300
2019-02-15,61.450001,62.990002,61.279999,62.990002,62.990002,48500
2019-02-19,62.990002,64.559998,62.369999,62.639999,62.639999,75700
2019-02-20,62.000000,63.630001,61.775002,63.380001,63.380001,91500
2019-02-21,63.220001,63.299999,62.035000,62.230000,62.230000,57400
2019-02-22,62.400002,62.880001,61.450001,62.549999,62.549999,42300
2019-02-25,62.700001,62.700001,60.060001,61.400002,61.400002,66300
2019-02-26,61.270000,62.000000,61.180000,61.400002,61.400002,119700
2019-02-27,61.430000,61.980000,61.009998,61.599998,61.599998,63100
2019-02-28,61.647999,61.950001,60.520000,61.599998,61.599998,42000
2019-03-01,61.580002,61.820000,60.720001,61.410000,61.410000,54500
2019-03-04,61.459999,61.730000,59.639999,59.639999,59.639999,61100
2019-03-05,59.759998,60.790001,59.450001,60.000000,60.000000,73000
2019-03-06,60.000000,60.169998,57.189999,57.500000,57.500000,67900
2019-03-07,57.520000,58.150002,55.889999,57.740002,57.740002,74800
2019-03-08,57.360001,57.950001,56.000000,56.779999,56.779999,89700
2019-03-11,56.660000,58.099998,56.380001,57.099998,57.099998,58000
2019-03-12,56.860001,58.169998,56.860001,57.709999,57.709999,53700
2019-03-13,58.500000,58.500000,57.080002,57.599998,57.599998,51000
2019-03-14,57.340000,57.605000,56.000000,56.200001,56.200001,93400
2019-03-15,55.500000,56.740002,55.470001,56.639999,56.639999,195900
2019-03-18,56.650002,57.220001,56.650002,56.880001,56.880001,77200
2019-03-19,56.790001,57.750000,56.160000,56.250000,56.250000,144200
2019-03-20,55.889999,55.910000,55.009998,55.240002,55.240002,207600
2019-03-21,55.230000,55.619999,54.625000,54.939999,54.939999,92500
2019-03-22,54.549999,55.580002,54.549999,54.970001,54.970001,45900
2019-03-25,54.900002,55.259998,54.209999,55.220001,55.220001,62100
2019-03-26,55.430000,56.880001,55.150002,56.380001,56.380001,73900
2019-03-27,56.139999,56.748001,55.919998,56.580002,56.580002,67900
2019-03-28,56.400002,57.000000,56.090000,56.520000,56.520000,62600
2019-03-29,56.430000,58.950001,56.430000,57.919998,57.919998,108300
2019-04-01,61.000000,61.869999,56.549999,58.790001,58.790001,171500
2019-04-02,59.180000,60.720001,58.250000,59.970001,59.970001,184800
2019-04-03,60.419998,60.740002,59.450001,60.279999,60.279999,98500
2019-04-04,59.880001,60.340000,59.165001,59.430000,59.430000,98100
2019-04-05,59.709999,60.830002,59.310001,60.160000,60.160000,180800
2019-04-08,60.189999,61.139999,59.630001,59.950001,59.950001,155000
2019-04-09,60.000000,60.310001,59.490002,59.779999,59.779999,334900
2019-04-10,60.000000,60.009998,57.840000,59.130001,59.130001,162500
2019-04-11,59.189999,59.189999,57.810001,58.099998,58.099998,193800
2019-04-12,58.619999,58.685001,56.680000,56.700001,56.700001,172500
2019-04-15,56.869999,56.869999,55.759998,56.049999,56.049999,186300
2019-04-16,56.250000,56.950001,56.000000,56.849998,56.849998,164900
2019-04-17,56.990002,57.290001,55.775002,56.349998,56.349998,157000
2019-04-18,56.119999,56.340000,55.459999,55.770000,55.770000,215000
2019-04-22,55.459999,56.320000,55.279999,56.320000,56.320000,61400
2019-04-23,55.930000,56.775002,54.880001,54.900002,54.900002,340000
2019-04-24,54.799999,55.189999,54.500000,54.720001,54.720001,129000
2019-04-25,54.720001,54.900002,53.220001,54.009998,54.009998,88300
2019-04-26,53.869999,55.505001,53.715000,55.299999,55.299999,148400
2019-04-29,55.200001,57.435001,55.200001,57.009998,57.009998,176200
2019-04-30,56.770000,57.735001,56.105000,56.349998,56.349998,377100
2019-05-01,56.150002,57.419998,56.080002,56.590000,56.590000,110400
2019-05-02,56.459999,57.014999,56.459999,56.630001,56.630001,165100
2019-05-03,57.049999,59.700001,57.049999,59.009998,59.009998,134800
2019-05-06,58.279999,60.389999,58.189999,59.889999,59.889999,206800
2019-05-07,59.619999,59.660000,58.514000,59.240002,59.240002,217200
2019-05-08,59.009998,59.715000,58.459999,59.340000,59.340000,231900
2019-05-09,58.779999,59.599998,58.459999,59.529999,59.529999,138000
2019-05-10,59.029999,59.639999,57.924999,58.560001,58.560001,313500
2019-05-13,57.849998,58.380001,55.619999,55.860001,55.860001,122600
2019-05-14,56.009998,57.369999,54.470001,55.480000,55.480000,142000
2019-05-15,53.500000,56.849998,52.299999,56.150002,56.150002,221400
2019-05-16,56.220001,58.459999,56.169998,57.000000,57.000000,176000
2019-05-17,56.279999,57.020000,55.220001,55.500000,55.500000,148900
2019-05-20,55.060001,56.599998,53.919998,56.009998,56.009998,165100
2019-05-21,56.450001,57.000000,55.689999,56.240002,56.240002,117100
2019-05-22,55.900002,56.950001,55.060001,55.650002,55.650002,92500
2019-05-23,55.590000,55.590000,54.150002,54.750000,54.750000,104900
2019-05-24,54.900002,55.470001,54.320000,54.959999,54.959999,154400
2019-05-28,54.740002,56.000000,54.740002,55.889999,55.889999,328400
2019-05-29,55.500000,55.709999,54.125000,54.820000,54.820000,195600
2019-05-30,54.910000,55.230000,53.599998,53.900002,53.900002,137100
2019-05-31,53.259998,53.259998,52.049999,52.650002,52.650002,124400
2019-06-03,52.669998,53.150002,52.380001,52.830002,52.830002,133100
2019-06-04,52.840000,53.733002,52.779999,53.380001,53.380001,128600
2019-06-05,53.430000,53.430000,52.480000,52.849998,52.849998,111300
2019-06-06,53.060001,53.450001,52.570000,52.790001,52.790001,106900
2019-06-07,53.029999,54.750000,52.700001,53.779999,53.779999,210600
2019-06-10,54.020000,54.369999,52.560001,52.680000,52.680000,183200
2019-06-11,52.820000,53.580002,52.180000,52.680000,52.680000,158300
2019-06-12,51.889999,53.500000,51.330002,52.669998,52.669998,171700
2019-06-13,52.930000,53.150002,52.500000,52.689999,52.689999,198700
2019-06-14,52.709999,53.270000,52.099998,52.689999,52.689999,137500
2019-06-17,52.689999,53.910000,52.549999,52.990002,52.990002,231600
2019-06-18,53.599998,54.790001,52.689999,53.060001,53.060001,147100
2019-06-19,53.080002,53.939999,52.990002,53.090000,53.090000,103800
2019-06-20,53.820000,54.790001,52.990002,53.660000,53.660000,300100
2019-06-21,54.080002,54.240002,53.080002,53.689999,53.689999,174500
2019-06-24,53.750000,53.970001,52.459999,53.000000,53.000000,194600
2019-06-25,53.000000,53.049999,49.615002,49.860001,49.860001,389400
2019-06-26,50.020000,51.459999,49.750000,50.419998,50.419998,245300
2019-06-27,50.610001,51.110001,50.099998,50.470001,50.470001,206600
2019-06-28,50.500000,52.009998,50.209999,51.900002,51.900002,2576800
2019-07-01,51.914001,52.709999,50.695000,51.220001,51.220001,237900
2019-07-02,51.250000,51.445000,48.029999,48.740002,48.740002,205200
2019-07-03,48.900002,49.959999,48.279999,49.880001,49.880001,106600
2019-07-05,49.410000,50.110001,48.290001,49.110001,49.110001,122800
2019-07-08,48.759998,50.340000,48.759998,49.930000,49.930000,139000
2019-07-09,49.450001,50.000000,47.790001,48.639999,48.639999,237200
2019-07-10,48.689999,50.169998,48.570000,49.820000,49.820000,152200
2019-07-11,49.580002,49.779999,48.220001,48.299999,48.299999,106600
2019-07-12,48.160000,49.139999,46.580002,47.200001,47.200001,162200
2019-07-15,47.270000,47.270000,42.700001,43.080002,43.080002,275900
2019-07-16,42.790001,43.410000,41.500000,42.540001,42.540001,395900
2019-07-17,42.419998,42.580002,40.790001,41.049999,41.049999,203500
2019-07-18,40.889999,40.900002,37.689999,38.450001,38.450001,283600
2019-07-19,38.410000,39.255001,37.619999,39.139999,39.139999,226800
2019-07-22,39.259998,39.419998,38.270000,38.770000,38.770000,150000
2019-07-23,39.049999,39.180000,38.009998,38.110001,38.110001,142000
2019-07-24,37.959999,39.910000,37.650002,39.419998,39.419998,399800
2019-07-25,39.400002,39.630001,37.549999,37.680000,37.680000,239700
2019-07-26,37.750000,39.080002,36.950001,38.290001,38.290001,323400
2019-07-29,38.270000,38.639999,36.450001,36.830002,36.830002,212900
2019-07-30,36.840000,36.990002,35.310001,36.169998,36.169998,291800
2019-07-31,36.060001,36.619999,35.189999,35.830002,35.830002,284200
2019-08-01,35.630001,35.630001,32.945000,33.169998,33.169998,497900
2019-08-02,32.990002,33.459999,31.830000,32.189999,32.189999,412100
2019-08-05,31.750000,32.139999,30.360001,31.780001,31.780001,360800
2019-08-06,31.690001,32.380001,31.150000,31.330000,31.330000,284100
2019-08-07,30.950001,31.219999,30.080000,31.010000,31.010000,328900
2019-08-08,31.180000,31.853001,30.990000,31.230000,31.230000,300000
2019-08-09,31.080000,31.590000,30.450001,30.450001,30.450001,248100
2019-08-12,30.230000,30.670000,29.740000,30.360001,30.360001,153300
2019-08-13,30.260000,32.090000,29.969999,30.639999,30.639999,239100
2019-08-14,29.879999,32.209999,29.448000,31.410000,31.410000,397300
2019-08-15,31.559999,32.619999,30.850000,30.940001,30.940001,281600
2019-08-16,31.170000,31.370001,30.045000,30.969999,30.969999,193900
2019-08-19,31.150000,31.639999,30.690001,31.110001,31.110001,141300
2019-08-20,30.860001,31.110001,29.850000,30.090000,30.090000,118300
2019-08-21,30.400000,30.879999,29.180000,30.110001,30.110001,134900
2019-08-22,30.120001,30.120001,28.190001,28.270000,28.270000,166800
2019-08-23,27.799999,28.160000,26.740000,27.110001,27.110001,250100
2019-08-26,27.290001,27.290001,26.230000,27.000000,27.000000,129100
2019-08-27,27.170000,27.320000,25.709999,25.820000,25.820000,213500
2019-08-28,25.750000,26.680000,25.370001,25.780001,25.780001,166600
2019-08-29,26.040001,27.200001,26.040001,26.930000,26.930000,155800
2019-08-30,28.030001,30.200001,27.309999,28.799999,28.799999,259000
2019-09-03,28.430000,29.290001,27.780001,29.070000,29.070000,246000
2019-09-04,29.250000,30.620001,29.240000,30.170000,30.170000,207400
2019-09-05,30.559999,31.750000,29.910000,31.190001,31.190001,240000
2019-09-06,31.110001,32.049999,30.500000,30.870001,30.870001,206500
2019-09-09,31.059999,33.040001,30.790001,32.759998,32.759998,299800
2019-09-10,32.950001,33.439999,32.590000,32.910000,32.910000,281000
2019-09-11,33.099998,34.490002,32.669998,33.389999,33.389999,244200
2019-09-12,32.930000,33.299999,32.209999,32.380001,32.380001,163300
2019-09-13,32.570000,33.790001,32.450001,33.590000,33.590000,175900
2019-09-16,34.400002,35.330002,32.880001,33.480000,33.480000,167300
2019-09-17,33.389999,33.794998,32.060001,32.669998,32.669998,156800
2019-09-18,32.279999,32.669998,31.375000,31.709999,31.709999,317100
2019-09-19,31.930000,32.919998,31.639999,32.860001,32.860001,252500
2019-09-20,32.779999,33.340000,31.530001,31.629999,31.629999,1100100
2019-09-23,31.180000,31.580000,30.809999,31.080000,31.080000,293800
2019-09-24,30.799999,30.950001,27.160000,27.570000,27.570000,468500
2019-09-25,27.420000,29.165001,27.200001,28.820000,28.820000,224000
2019-09-26,28.629999,29.219999,27.889999,28.180000,28.180000,148500
2019-09-27,28.010000,28.660000,27.750000,28.150000,28.150000,109500
2019-09-30,27.990000,28.480000,27.610001,27.959999,27.959999,140800
2019-10-01,28.120001,28.120001,25.190001,25.200001,25.200001,144100
2019-10-02,24.930000,25.459999,24.080000,24.860001,24.860001,160500
2019-10-03,24.590000,24.830000,23.860001,24.559999,24.559999,206800
2019-10-04,24.559999,24.830000,22.959999,23.350000,23.350000,162900
2019-10-07,23.230000,24.110001,22.709999,23.820000,23.820000,274200
2019-10-08,23.480000,23.799999,22.860001,23.160000,23.160000,107000
2019-10-09,23.270000,23.495001,21.809999,22.110001,22.110001,136500
2019-10-10,22.240000,22.549999,21.690001,22.340000,22.340000,146200
2019-10-11,22.570000,23.815001,22.010000,22.809999,22.809999,185100
2019-10-14,22.610001,22.879999,21.840000,22.719999,22.719999,88100
2019-10-15,22.650000,23.110001,22.330000,22.730000,22.730000,211600
2019-10-16,22.580000,23.389999,21.990000,22.110001,22.110001,96400
2019-10-17,22.110001,22.719999,21.790001,22.440001,22.440001,103100
2019-10-18,22.320000,22.770000,22.129999,22.260000,22.260000,82400
2019-10-21,22.520000,23.660000,22.469999,23.030001,23.030001,156200
2019-10-22,22.920000,24.070000,22.605000,23.850000,23.850000,184400
2019-10-23,23.799999,24.629999,23.270000,24.469999,24.469999,188700
2019-10-24,24.620001,24.700001,23.650000,24.070000,24.070000,108000
2019-10-25,24.020000,25.110001,23.709999,24.790001,24.790001,117200
2019-10-28,24.889999,25.629999,24.530001,24.790001,24.790001,93500
2019-10-29,24.740000,24.879999,23.610001,24.299999,24.299999,260900
2019-10-30,24.290001,24.290001,23.429001,23.690001,23.690001,85300
2019-10-31,23.500000,23.500000,22.850000,22.940001,22.940001,115400
2019-11-01,23.190001,23.629999,22.660000,23.240000,23.240000,142900
2019-11-04,23.600000,23.740000,23.059999,23.230000,23.230000,114100
2019-11-05,23.350000,24.250000,23.200001,23.230000,23.230000,117900
2019-11-06,23.219999,23.290001,21.879999,21.930000,21.930000,291300
2019-11-07,22.260000,22.490000,21.280001,21.389999,21.389999,199800
2019-11-08,21.090000,21.250000,20.549999,20.850000,20.850000,230300
2019-11-11,20.600000,20.840000,20.049999,20.340000,20.340000,107300
2019-11-12,20.290001,20.290001,18.930000,18.990000,18.990000,125700
2019-11-13,18.709999,19.110001,17.920000,18.240000,18.240000,157700
2019-11-14,13.890000,14.780000,9.320000,9.380000,9.380000,1725300
2019-11-15,9.600000,9.710000,7.780000,9.040000,9.040000,1555200
2019-11-18,8.840000,9.300000,8.146000,8.270000,8.270000,555900
2019-11-19,8.310000,8.357000,6.985000,7.430000,7.430000,921900
2019-11-20,7.380000,7.430000,6.770000,6.910000,6.910000,980000
2019-11-21,6.860000,7.600000,6.610000,7.130000,7.130000,516600
2019-11-22,7.120000,7.590000,6.650000,7.550000,7.550000,614300
2019-11-25,7.500000,8.050000,7.500000,7.580000,7.580000,1070000
2019-11-26,7.640000,7.720000,6.810000,6.860000,6.860000,402700
2019-11-27,6.870000,7.130000,6.790000,6.800000,6.800000,305700
2019-11-29,6.770000,6.770000,6.448000,6.670000,6.670000,210900
2019-12-02,6.620000,6.710000,6.030000,6.050000,6.050000,504200
2019-12-03,5.960000,6.270000,5.895000,6.150000,6.150000,401100
2019-12-04,6.300000,6.300000,5.870000,5.950000,5.950000,410200
2019-12-05,6.040000,6.046000,5.700000,5.900000,5.900000,363700
2019-12-06,5.960000,6.230000,5.960000,6.100000,6.100000,281400
2019-12-09,6.100000,6.350000,6.030000,6.260000,6.260000,272900
2019-12-10,6.300000,6.580000,6.155000,6.550000,6.550000,294600
2019-12-11,6.550000,7.130000,6.550000,6.740000,6.740000,506400
2019-12-12,6.740000,7.080000,6.590000,6.900000,6.900000,258500
2019-12-13,6.900000,6.950000,6.570000,6.800000,6.800000,269800
2019-12-16,6.850000,7.610000,6.850000,7.580000,7.580000,489400
2019-12-17,7.600000,7.900000,7.430000,7.820000,7.820000,550400
2019-12-18,7.800000,8.415000,7.720000,8.140000,8.140000,442900
2019-12-19,8.150000,8.540000,8.148000,8.450000,8.450000,407100
2019-12-20,8.440000,8.720000,8.230000,8.390000,8.390000,631400
2019-12-23,8.410000,8.870000,8.000000,8.810000,8.810000,390900
2019-12-24,8.890000,9.200000,8.780000,8.860000,8.860000,263000
2019-12-26,8.870000,9.180000,8.700000,8.900000,8.900000,267200
2019-12-27,8.910000,9.250000,8.878000,9.080000,9.080000,243500
2019-12-30,9.110000,9.470000,9.045000,9.380000,9.380000,276500
2019-12-31,9.330000,9.450000,8.990000,9.050000,9.050000,289300
2020-01-02,9.010000,9.150000,8.630000,8.840000,8.840000,298500
2020-01-03,8.990000,9.050000,8.600000,8.650000,8.650000,192900
2020-01-06,8.610000,9.110000,8.500000,8.800000,8.800000,243600
2020-01-07,8.750000,8.970000,8.290000,8.400000,8.400000,209900
2020-01-08,8.400000,8.570000,7.550000,7.570000,7.570000,286600
2020-01-09,7.610000,7.760000,7.170000,7.350000,7.350000,270900
2020-01-10,7.360000,7.550000,7.010000,7.240000,7.240000,168300
2020-01-13,7.250000,7.880000,6.968000,7.640000,7.640000,261400
2020-01-14,7.620000,8.720000,7.620000,8.290000,8.290000,209700
2020-01-15,8.280000,8.440000,7.960000,8.130000,8.130000,125100
2020-01-16,8.140000,8.390000,8.080000,8.150000,8.150000,148400
2020-01-17,8.200000,8.270000,7.390000,7.490000,7.490000,224700
2020-01-21,7.490000,7.500000,7.060000,7.080000,7.080000,170300
2020-01-22,7.060000,7.100000,6.875000,7.010000,7.010000,186400
2020-01-23,7.050000,7.060000,6.660000,6.820000,6.820000,161800
2020-01-24,6.830000,6.900000,6.310000,6.500000,6.500000,223000
2020-01-27,6.320000,6.350000,5.960000,6.160000,6.160000,231700
2020-01-28,6.220000,6.590000,6.160000,6.390000,6.390000,100000
2020-01-29,6.400000,6.436000,6.040000,6.180000,6.180000,206100
2020-01-30,6.100000,6.247000,5.930000,6.110000,6.110000,139400
2020-01-31,5.980000,6.110000,5.700000,5.790000,5.790000,200600
2020-02-03,5.750000,5.800000,5.460000,5.770000,5.770000,152600
2020-02-04,5.820000,7.190000,5.790000,6.730000,6.730000,350900
2020-02-05,6.860000,7.580000,6.700000,7.460000,7.460000,316200
2020-02-06,7.560000,7.670000,6.820000,6.860000,6.860000,236200
2020-02-07,6.790000,6.806000,6.250000,6.410000,6.410000,211300
2020-02-10,6.370000,6.370000,5.105000,5.670000,5.670000,515300
2020-02-11,5.730000,6.520000,5.602000,6.030000,6.030000,286100
2020-02-12,6.150000,6.330000,5.880000,6.060000,6.060000,217400
2020-02-13,6.020000,6.520000,5.940000,6.140000,6.140000,130200
