Date,Open,High,Low,Close,Adj Close,Volume
2017-04-28,13.500000,13.940000,10.700000,11.100000,11.100000,11297800
2017-05-01,11.600000,11.730000,10.700000,10.770000,10.770000,1291300
2017-05-02,10.950000,10.950000,10.000000,10.100000,10.100000,991500
2017-05-03,10.180000,10.180000,8.180000,8.720000,8.720000,3356500
2017-05-04,8.590000,10.040000,8.140000,9.980000,9.980000,1840200
2017-05-05,10.150000,11.050000,9.750000,10.920000,10.920000,1691900
2017-05-08,11.040000,11.140000,10.500000,10.800000,10.800000,580000
2017-05-09,10.800000,11.090000,10.400000,10.550000,10.550000,547400
2017-05-10,10.560000,10.740000,9.610000,10.740000,10.740000,672600
2017-05-11,10.620000,11.350000,10.400000,11.000000,11.000000,429200
2017-05-12,11.030000,11.470000,10.600000,11.350000,11.350000,361700
2017-05-15,11.450000,11.700000,11.353000,11.520000,11.520000,430200
2017-05-16,11.700000,11.820000,11.487000,11.760000,11.760000,335500
2017-05-17,11.680000,11.870000,10.910000,11.660000,11.660000,449900
2017-05-18,11.500000,11.880000,11.240000,11.520000,11.520000,404800
2017-05-19,11.620000,11.713000,11.261000,11.400000,11.400000,221300
2017-05-22,12.390000,12.390000,10.990000,11.080000,11.080000,913000
2017-05-23,11.630000,11.740000,10.310000,10.810000,10.810000,1054600
2017-05-24,11.070000,11.590000,10.830000,10.910000,10.910000,721800
2017-05-25,11.050000,11.080000,10.580000,10.650000,10.650000,437700
2017-05-26,10.730000,10.878000,10.490000,10.730000,10.730000,612000
2017-05-30,10.790000,10.875000,10.000000,10.180000,10.180000,651300
2017-05-31,10.180000,10.435000,9.390000,10.050000,10.050000,927600
2017-06-01,10.040000,10.300000,9.030000,9.330000,9.330000,745000
2017-06-02,9.330000,9.600000,9.260000,9.530000,9.530000,652700
2017-06-05,9.570000,9.720000,8.845000,9.000000,9.000000,630300
2017-06-06,9.240000,9.810000,9.060000,9.530000,9.530000,1470000
2017-06-07,10.940000,12.830000,10.500000,12.660000,12.660000,6085100
2017-06-08,13.120000,14.500000,12.860000,13.200000,13.200000,3613400
2017-06-09,13.320000,13.700000,12.980000,13.300000,13.300000,760600
2017-06-12,13.530000,14.080000,12.130000,14.000000,14.000000,1351000
2017-06-13,14.330000,15.490000,14.060000,15.110000,15.110000,833900
2017-06-14,15.390000,16.837999,15.380000,16.700001,16.700001,1466600
2017-06-15,16.410000,17.940001,16.020000,17.680000,17.680000,986300
2017-06-16,17.600000,19.799999,17.600000,19.309999,19.309999,2568700
2017-06-19,19.750000,20.430000,18.809999,19.540001,19.540001,1173200
2017-06-20,19.660000,19.780001,18.370001,18.910000,18.910000,733900
2017-06-21,19.139999,20.000000,19.139999,19.530001,19.530001,468900
2017-06-22,19.700001,22.799999,19.379999,21.139999,21.139999,1686400
2017-06-23,21.719999,21.719999,19.820000,21.430000,21.430000,2735700
2017-06-26,21.500000,23.700001,21.329000,23.389999,23.389999,1252000
2017-06-27,23.590000,23.590000,21.750000,22.170000,22.170000,994400
2017-06-28,22.070000,22.275000,20.360001,20.660000,20.660000,933200
2017-06-29,20.730000,21.150000,20.270000,20.600000,20.600000,452800
2017-06-30,20.660000,20.799999,20.200001,20.469999,20.469999,170800
2017-07-03,20.420000,20.459999,18.934000,19.209999,19.209999,292400
2017-07-05,19.000000,21.500000,18.629999,21.180000,21.180000,630900
2017-07-06,21.030001,21.070000,19.290001,20.180000,20.180000,665000
2017-07-07,20.150000,21.200001,19.600000,21.000000,21.000000,491100
2017-07-10,21.000000,22.250000,20.330000,21.990000,21.990000,603100
2017-07-11,22.010000,22.100000,20.629999,21.559999,21.559999,522600
2017-07-12,21.660000,22.670000,21.660000,22.400000,22.400000,626300
2017-07-13,22.350000,23.520000,22.040001,22.980000,22.980000,801400
2017-07-14,22.980000,23.129999,22.549999,22.930000,22.930000,215600
2017-07-17,23.209999,23.361000,21.639999,21.799999,21.799999,394300
2017-07-18,21.620001,21.920000,21.090000,21.530001,21.530001,306500
2017-07-19,21.549999,22.400000,21.299999,22.260000,22.260000,255900
2017-07-20,22.420000,22.420000,21.500000,21.600000,21.600000,280800
2017-07-21,21.660000,22.100000,21.232000,21.400000,21.400000,522100
2017-07-24,21.440001,21.750000,20.030001,21.620001,21.620001,519400
2017-07-25,21.420000,21.480000,20.600000,20.870001,20.870001,394800
2017-07-26,20.780001,21.379999,20.549999,21.350000,21.350000,252600
2017-07-27,21.190001,21.621000,20.806000,20.990000,20.990000,291000
2017-07-28,20.600000,21.240000,20.389999,20.410000,20.410000,223600
2017-07-31,20.250000,20.250000,18.950001,19.520000,19.520000,667800
2017-08-01,19.440001,19.636999,18.660000,18.709999,18.709999,477200
2017-08-02,18.650000,19.530001,18.530001,19.059999,19.059999,458700
2017-08-03,19.059999,19.159000,16.879999,17.410000,17.410000,1071600
2017-08-04,17.200001,18.030001,16.200001,18.020000,18.020000,796300
2017-08-07,18.030001,19.000000,17.760000,18.570000,18.570000,460300
2017-08-08,18.750000,19.850000,18.559999,19.230000,19.230000,965100
2017-08-09,18.309999,18.980000,16.500000,18.090000,18.090000,1752700
2017-08-10,17.900000,17.969999,16.700001,17.209999,17.209999,892200
2017-08-11,16.530001,17.650000,16.250000,16.330000,16.330000,800700
2017-08-14,16.370001,16.600000,14.800000,15.370000,15.370000,1472900
2017-08-15,15.310000,15.540000,14.380000,14.790000,14.790000,1371000
2017-08-16,14.720000,15.870000,14.606000,15.150000,15.150000,890400
2017-08-17,14.910000,15.430000,14.800000,15.180000,15.180000,606700
2017-08-18,14.980000,15.200000,13.820000,14.210000,14.210000,1894600
2017-08-21,13.880000,14.730000,13.440000,14.620000,14.620000,874100
2017-08-22,14.450000,15.600000,14.260000,15.510000,15.510000,671700
2017-08-23,15.380000,18.040001,15.250000,15.940000,15.940000,1576200
2017-08-24,16.080000,16.527000,15.540000,15.920000,15.920000,1248400
2017-08-25,16.129999,16.440001,14.790000,14.840000,14.840000,748400
2017-08-28,14.800000,15.590000,14.600000,15.500000,15.500000,424000
2017-08-29,15.380000,15.830000,14.900000,15.740000,15.740000,469500
2017-08-30,15.850000,17.940001,15.550000,17.530001,17.530001,1247200
2017-08-31,17.820000,19.190001,17.660000,17.850000,17.850000,1107400
2017-09-01,17.889999,17.889999,16.340000,17.340000,17.340000,568900
2017-09-05,17.219999,17.379999,16.120001,16.740000,16.740000,422000
2017-09-06,16.850000,17.900000,16.639999,17.870001,17.870001,482300
2017-09-07,18.250000,18.870001,18.190001,18.750000,18.750000,571900
2017-09-08,18.730000,19.150000,17.660000,18.400000,18.400000,394000
2017-09-11,18.490000,18.700001,17.750000,18.430000,18.430000,316300
2017-09-12,18.340000,19.360001,18.139999,18.520000,18.520000,424800
2017-09-13,18.490000,19.049999,17.910000,18.049999,18.049999,404200
2017-09-14,18.000000,18.427999,17.639999,18.139999,18.139999,378000
2017-09-15,18.120001,18.528999,17.510000,17.660000,17.660000,643200
2017-09-18,17.639999,17.959000,16.299999,16.330000,16.330000,658700
2017-09-19,16.350000,17.174999,16.100000,16.690001,16.690001,305400
2017-09-20,16.740000,17.740000,16.510000,17.590000,17.590000,655000
2017-09-21,17.410000,17.889999,16.549999,16.809999,16.809999,464300
2017-09-22,15.870000,16.709999,15.870000,16.170000,16.170000,942200
2017-09-25,16.010000,16.780001,16.000000,16.500000,16.500000,544300
2017-09-26,16.389999,16.705000,15.600000,16.020000,16.020000,559200
2017-09-27,16.040001,16.250000,15.360000,15.500000,15.500000,375500
2017-09-28,15.500000,15.715000,14.550000,14.900000,14.900000,706200
2017-09-29,14.910000,15.125000,14.140000,14.680000,14.680000,794700
2017-10-02,14.890000,15.880000,14.660000,15.650000,15.650000,697800
2017-10-03,15.750000,15.990000,15.320000,15.430000,15.430000,690400
2017-10-04,15.450000,15.630000,14.620000,15.380000,15.380000,679100
2017-10-05,15.380000,15.940000,15.140000,15.450000,15.450000,325200
2017-10-06,15.310000,15.710000,15.170000,15.260000,15.260000,328700
2017-10-09,15.220000,15.505000,14.560000,14.810000,14.810000,293700
2017-10-10,14.750000,14.900000,13.860000,13.900000,13.900000,662900
2017-10-11,13.890000,14.260000,13.580000,14.250000,14.250000,448800
2017-10-12,14.110000,14.110000,13.660000,14.010000,14.010000,237600
2017-10-13,13.860000,14.410000,13.820000,14.020000,14.020000,214700
2017-10-16,14.020000,14.350000,13.750000,14.000000,14.000000,336700
2017-10-17,13.900000,14.325000,13.801000,13.990000,13.990000,271400
2017-10-18,13.880000,14.290000,13.880000,13.990000,13.990000,277300
2017-10-19,13.900000,14.150000,13.380000,13.460000,13.460000,581800
2017-10-20,13.480000,13.610000,12.950000,13.340000,13.340000,789300
2017-10-23,13.340000,13.369000,12.750000,13.030000,13.030000,329300
2017-10-24,12.940000,13.650000,12.860000,13.640000,13.640000,389100
2017-10-25,13.530000,13.860000,12.950000,13.030000,13.030000,492000
2017-10-26,12.970000,13.590000,12.530000,12.650000,12.650000,477600
2017-10-27,12.610000,12.950000,12.500000,12.760000,12.760000,235000
2017-10-30,12.610000,12.785000,12.170000,12.500000,12.500000,247500
2017-10-31,12.430000,14.590000,12.430000,14.180000,14.180000,1234000
2017-11-01,14.390000,14.470000,13.530000,14.010000,14.010000,367600
2017-11-02,14.000000,14.280000,13.790000,14.000000,14.000000,264800
2017-11-03,14.040000,14.250000,13.870000,14.060000,14.060000,162200
2017-11-06,14.060000,16.459999,14.060000,16.360001,16.360001,779300
2017-11-07,16.420000,16.469999,14.780000,15.150000,15.150000,988800
2017-11-08,12.900000,15.060000,12.870000,14.660000,14.660000,1405800
2017-11-09,14.580000,14.620000,13.750000,13.860000,13.860000,471800
2017-11-10,13.600000,14.300000,13.580000,14.190000,14.190000,289500
2017-11-13,14.130000,15.300000,13.910000,15.030000,15.030000,424100
2017-11-14,15.010000,15.570000,14.620000,15.130000,15.130000,572500
2017-11-15,14.980000,15.170000,14.690000,14.950000,14.950000,307400
2017-11-16,15.080000,15.470000,14.930000,15.400000,15.400000,416900
2017-11-17,15.400000,15.760000,15.270000,15.500000,15.500000,529400
2017-11-20,15.660000,15.710000,14.632000,14.940000,14.940000,313000
2017-11-21,15.040000,15.560000,14.267000,14.670000,14.670000,365500
2017-11-22,14.690000,15.460000,14.525000,15.320000,15.320000,253700
2017-11-24,15.520000,15.560000,15.200000,15.430000,15.430000,113900
2017-11-27,15.400000,15.849000,15.400000,15.740000,15.740000,228900
2017-11-28,15.510000,16.690001,15.430000,16.540001,16.540001,472500
2017-11-29,16.580000,17.059999,15.360000,15.590000,15.590000,439400
2017-11-30,15.760000,16.740000,15.620000,16.209999,16.209999,740100
2017-12-01,16.100000,18.719999,16.020000,17.910000,17.910000,922900
2017-12-04,18.620001,20.910000,18.340000,20.209999,20.209999,1351700
2017-12-05,20.650000,20.650000,19.010000,20.430000,20.430000,453000
2017-12-06,20.330000,21.469999,20.260000,20.549999,20.549999,648400
2017-12-07,20.500000,22.540001,20.490000,22.020000,22.020000,407800
2017-12-08,20.809999,21.809999,20.000000,21.240000,21.240000,603600
2017-12-11,21.370001,21.370001,20.370001,20.670000,20.670000,324700
2017-12-12,20.750000,21.660000,20.670000,21.299999,21.299999,268800
2017-12-13,21.250000,23.450001,20.959999,22.080000,22.080000,702800
2017-12-14,22.020000,23.670000,22.020000,23.240000,23.240000,409500
2017-12-15,23.510000,24.889999,21.500000,21.870001,21.870001,1279800
2017-12-18,22.350000,22.580000,21.090000,21.530001,21.530001,420200
2017-12-19,21.610001,21.860001,20.100000,20.280001,20.280001,656900
2017-12-20,20.240000,21.389999,20.070000,20.990000,20.990000,813200
2017-12-21,21.010000,21.540001,21.010000,21.230000,21.230000,511600
2017-12-22,21.250000,21.440001,21.040001,21.250000,21.250000,339100
2017-12-26,21.250000,21.709999,20.885000,21.230000,21.230000,239400
2017-12-27,21.139999,21.200001,20.077999,20.280001,20.280001,262400
2017-12-28,20.150000,20.250000,19.459999,19.629999,19.629999,346200
2017-12-29,19.430000,19.900000,19.080000,19.120001,19.120001,236600
2018-01-02,19.160000,19.299999,18.219999,18.309999,18.309999,421800
2018-01-03,18.170000,18.400000,17.745001,18.370001,18.370001,720300
2018-01-04,18.240000,18.934999,17.820000,18.750000,18.750000,704100
2018-01-05,18.840000,19.920000,18.790001,19.709999,19.709999,578900
2018-01-08,19.700001,20.400000,19.230000,20.049999,20.049999,241000
2018-01-09,20.129999,20.219999,19.900000,20.170000,20.170000,196700
2018-01-10,19.959999,21.059999,19.740000,21.040001,21.040001,234900
2018-01-11,21.150000,21.820000,20.120001,20.570000,20.570000,297400
2018-01-12,20.570000,21.000000,20.490000,20.950001,20.950001,165000
2018-01-16,20.950001,21.639999,20.325001,20.510000,20.510000,202300
2018-01-17,20.650000,21.049999,20.155001,20.379999,20.379999,141500
2018-01-18,20.320000,20.440001,19.760000,20.240000,20.240000,162900
2018-01-19,20.180000,20.965000,20.145000,20.860001,20.860001,199200
2018-01-22,20.850000,21.350000,20.190001,20.350000,20.350000,210600
2018-01-23,20.240000,21.090000,20.080000,21.020000,21.020000,165000
2018-01-24,21.100000,21.358000,20.240000,20.750000,20.750000,298500
2018-01-25,20.889999,20.889999,20.160000,20.340000,20.340000,617900
2018-01-26,20.350000,20.520000,19.570000,19.740000,19.740000,239200
2018-01-29,19.520000,19.520000,18.610001,18.809999,18.809999,276200
2018-01-30,18.730000,19.100000,18.510000,19.000000,19.000000,196300
2018-01-31,19.150000,19.680000,18.969999,19.090000,19.090000,213000
2018-02-01,19.000000,19.070000,18.280001,18.490000,18.490000,182100
2018-02-02,18.299999,18.676001,18.041000,18.299999,18.299999,153600
2018-02-05,18.100000,18.389999,17.500000,17.570000,17.570000,477200
2018-02-06,17.139999,18.510000,16.860001,18.480000,18.480000,445200
2018-02-07,18.350000,19.590000,18.231001,18.490000,18.490000,536100
2018-02-08,18.559999,18.950001,17.600000,17.660000,17.660000,586300
2018-02-09,17.840000,18.170000,16.580000,18.100000,18.100000,420300
2018-02-12,18.209999,19.740000,17.840000,19.639999,19.639999,317400
2018-02-13,19.600000,20.870001,19.346001,20.459999,20.459999,446200
2018-02-14,20.389999,21.480000,19.879999,20.900000,20.900000,308500
2018-02-15,21.070000,23.090000,20.799999,21.860001,21.860001,452200
2018-02-16,21.940001,22.180000,20.639999,21.420000,21.420000,276900
2018-02-20,21.150000,21.780001,21.150000,21.480000,21.480000,164600
2018-02-21,21.370001,21.600000,20.080000,20.629999,20.629999,264900
2018-02-22,20.629999,20.980000,20.450001,20.980000,20.980000,106300
2018-02-23,21.000000,21.679001,20.895000,21.379999,21.379999,502400
2018-02-26,21.570000,22.620001,21.511999,21.879999,21.879999,450000
2018-02-27,21.860001,22.100000,20.600000,20.719999,20.719999,337000
2018-02-28,20.879999,21.190001,19.980000,20.040001,20.040001,526300
2018-03-01,20.170000,20.275000,19.000000,19.129999,19.129999,755900
2018-03-02,19.020000,19.257999,18.580000,18.730000,18.730000,459700
2018-03-05,18.540001,18.865000,17.910000,18.629999,18.629999,707000
2018-03-06,18.809999,18.920000,18.010000,18.680000,18.680000,1077900
2018-03-07,16.249001,18.370001,16.020000,17.459999,17.459999,2984100
2018-03-08,17.660000,17.660000,16.510000,17.010000,17.010000,1047000
2018-03-09,18.240000,18.620001,17.889999,18.030001,18.030001,707200
2018-03-12,18.049999,18.969999,18.037001,18.490000,18.490000,419500
2018-03-13,18.620001,18.900000,18.290001,18.870001,18.870001,319200
2018-03-14,18.900000,21.959999,18.900000,21.240000,21.240000,1086700
2018-03-15,21.240000,21.330000,19.850000,20.020000,20.020000,626300
2018-03-16,20.160000,21.325001,20.120001,20.980000,20.980000,415800
2018-03-19,20.900000,20.990000,19.200001,20.370001,20.370001,429200
2018-03-20,20.070000,20.480000,19.610001,20.260000,20.260000,250000
2018-03-21,20.219999,21.740000,20.070000,20.850000,20.850000,431500
2018-03-22,20.570000,21.480000,20.451000,20.930000,20.930000,328200
2018-03-23,21.049999,21.559000,20.645000,20.959999,20.959999,265400
2018-03-26,21.270000,22.440001,21.010000,22.330000,22.330000,358500
2018-03-27,22.410000,23.200001,21.719999,22.270000,22.270000,797400
2018-03-28,22.250000,22.780001,21.889999,22.610001,22.610001,414300
2018-03-29,22.740000,23.500000,22.680000,22.930000,22.930000,328800
2018-04-02,22.889999,23.480000,21.764000,22.590000,22.590000,919400
2018-04-03,22.790001,22.910000,22.365000,22.709999,22.709999,467500
2018-04-04,22.330000,22.709999,21.799999,22.379999,22.379999,377100
2018-04-05,22.620001,23.480000,22.290001,23.320000,23.320000,289700
2018-04-06,23.020000,23.587999,22.469999,22.910000,22.910000,209900
2018-04-09,23.129999,25.225000,23.049999,23.740000,23.740000,659900
2018-04-10,24.049999,24.580000,23.309000,23.980000,23.980000,270600
2018-04-11,23.900000,24.160000,22.309999,22.680000,22.680000,494500
2018-04-12,22.760000,23.740000,22.643999,23.219999,23.219999,166100
2018-04-13,23.420000,23.830000,23.010000,23.400000,23.400000,173900
2018-04-16,23.740000,27.170000,23.440001,27.030001,27.030001,1258100
2018-04-17,27.260000,31.180000,27.260000,30.100000,30.100000,2191000
2018-04-18,30.340000,31.350000,29.100000,29.780001,29.780001,953400
2018-04-19,29.549999,30.830000,29.500999,29.690001,29.690001,453000
2018-04-20,29.760000,30.120001,29.000000,29.370001,29.370001,220300
2018-04-23,29.530001,30.863001,29.400999,29.959999,29.959999,506000
2018-04-24,28.120001,29.620001,27.820000,28.080000,28.080000,1888200
2018-04-25,27.850000,29.500000,27.700001,29.260000,29.260000,1436900
2018-04-26,27.049999,28.000000,26.760000,27.480000,27.480000,5793200
2018-04-27,27.620001,27.958000,27.129999,27.450001,27.450001,2205900
2018-04-30,27.719999,27.737000,25.950001,26.209999,26.209999,1827400
2018-05-01,26.280001,27.250000,25.719999,26.990000,26.990000,561000
2018-05-02,27.080000,27.379999,26.230000,26.700001,26.700001,797900
2018-05-03,26.549999,27.480000,25.950001,26.180000,26.180000,633900
2018-05-04,26.209999,26.777000,25.350000,25.469999,25.469999,1165500
2018-05-07,25.500000,25.820000,24.760000,25.240000,25.240000,1173600
2018-05-08,25.000000,25.760000,24.870001,24.969999,24.969999,968300
2018-05-09,24.910000,25.260000,24.030001,24.760000,24.760000,2251300
2018-05-10,29.000000,29.000000,26.750000,26.780001,26.780001,3708600
2018-05-11,26.850000,27.850000,26.090000,27.500000,27.500000,932000
2018-05-14,27.690001,28.500000,27.150000,27.180000,27.180000,1022100
2018-05-15,27.070000,27.070000,25.049999,26.469999,26.469999,1723900
2018-05-16,26.299999,27.719999,26.120001,26.770000,26.770000,810000
2018-05-17,26.629999,27.219999,26.150000,26.780001,26.780001,686100
2018-05-18,26.719999,27.420000,26.410000,26.760000,26.760000,617800
2018-05-21,27.000000,27.299000,26.280001,26.719999,26.719999,503200
2018-05-22,26.950001,27.170000,26.520000,26.709999,26.709999,562800
2018-05-23,26.540001,27.639999,26.120001,26.180000,26.180000,819200
2018-05-24,26.180000,26.500000,25.000000,25.760000,25.760000,885800
2018-05-25,25.820000,26.420000,25.000000,25.100000,25.100000,973800
2018-05-29,24.980000,27.639999,24.362000,27.110001,27.110001,1216700
2018-05-30,27.420000,28.667000,26.849001,28.309999,28.309999,873000
2018-05-31,28.719999,29.219999,28.190001,28.850000,28.850000,903200
2018-06-01,28.889999,29.740000,27.510000,28.170000,28.170000,1048200
2018-06-04,28.160000,29.770000,28.055000,29.730000,29.730000,940200
2018-06-05,29.670000,31.940001,29.150000,31.059999,31.059999,1311800
2018-06-06,31.160000,33.290001,31.100000,32.910000,32.910000,1214100
2018-06-07,32.930000,35.430000,32.919998,35.349998,35.349998,1594300
2018-06-08,35.000000,36.549999,34.259998,36.040001,36.040001,1257500
2018-06-11,36.180000,37.189999,35.939999,36.759998,36.759998,769800
2018-06-12,37.150002,39.480000,36.921001,38.930000,38.930000,2168200
2018-06-13,38.930000,39.480000,35.880001,37.090000,37.090000,1276500
2018-06-14,37.369999,41.130001,37.323002,40.389999,40.389999,3375700
2018-06-15,40.000000,44.119999,39.660000,42.820000,42.820000,2093300
2018-06-18,42.320000,45.209999,41.310001,43.189999,43.189999,1344000
2018-06-19,42.389999,44.310001,42.099998,43.680000,43.680000,1156600
2018-06-20,44.340000,44.340000,38.709999,38.720001,38.720001,2299300
2018-06-21,39.000000,39.840000,36.500000,37.930000,37.930000,1321800
2018-06-22,38.450001,41.130001,38.320000,40.360001,40.360001,1925600
2018-06-25,40.000000,40.276001,38.000000,39.680000,39.680000,765900
2018-06-26,39.849998,40.770000,39.230000,40.500000,40.500000,876000
2018-06-27,40.590000,43.849998,40.549999,41.470001,41.470001,1159200
2018-06-28,41.110001,42.387001,40.730000,41.790001,41.790001,609200
2018-06-29,42.160000,43.330002,41.279999,41.599998,41.599998,898300
2018-07-02,41.259998,42.810001,39.810001,42.650002,42.650002,937900
2018-07-03,42.639999,43.169998,41.345001,41.730000,41.730000,506100
2018-07-05,42.090000,45.500000,41.439999,44.980000,44.980000,967300
2018-07-06,44.900002,47.360001,44.900002,47.169998,47.169998,1121600
2018-07-09,48.740002,49.869999,43.900002,44.820000,44.820000,1678300
2018-07-10,44.650002,44.889999,43.500000,44.139999,44.139999,788900
2018-07-11,43.400002,44.630001,43.384998,43.970001,43.970001,609600
2018-07-12,44.320000,46.009998,43.740002,45.560001,45.560001,697500
2018-07-13,45.919998,46.415001,43.828999,44.099998,44.099998,606500
2018-07-16,44.189999,45.400002,43.452999,45.169998,45.169998,560000
2018-07-17,45.130001,46.040001,44.299999,45.900002,45.900002,878900
2018-07-18,45.439999,47.080002,44.529999,46.830002,46.830002,750200
2018-07-19,46.580002,48.000000,45.090000,45.340000,45.340000,817700
2018-07-20,45.250000,46.320000,44.119999,44.189999,44.189999,480200
2018-07-23,44.000000,44.449001,42.740002,43.360001,43.360001,438700
2018-07-24,43.930000,44.889999,42.974998,43.830002,43.830002,439600
2018-07-25,43.689999,45.709999,43.311001,45.500000,45.500000,586500
2018-07-26,45.080002,45.770000,44.900002,45.340000,45.340000,923300
2018-07-27,45.110001,45.189999,43.509998,44.209999,44.209999,517400
2018-07-30,44.119999,44.119999,40.130001,41.119999,41.119999,1125900
2018-07-31,41.169998,43.389999,40.200001,43.000000,43.000000,654100
2018-08-01,42.700001,44.150002,42.459999,43.740002,43.740002,683600
2018-08-02,43.830002,44.419998,43.099998,43.419998,43.419998,733000
2018-08-03,43.830002,45.880001,43.250000,45.080002,45.080002,658400
2018-08-06,45.250000,47.470001,44.770000,46.900002,46.900002,1066200
2018-08-07,45.250000,47.599998,45.250000,47.150002,47.150002,1341300
2018-08-08,47.119999,49.200001,46.630001,47.060001,47.060001,2009300
2018-08-09,53.230000,56.099998,48.700001,51.110001,51.110001,3799700
2018-08-10,50.810001,55.943001,50.367001,54.060001,54.060001,1511100
2018-08-13,54.060001,55.389999,53.297001,53.639999,53.639999,1022500
2018-08-14,53.849998,55.959999,53.299999,54.799999,54.799999,908400
2018-08-15,53.930000,54.610001,52.400002,53.340000,53.340000,713500
2018-08-16,53.980000,54.619999,52.910000,54.380001,54.380001,628300
2018-08-17,54.669998,55.500000,53.349998,55.419998,55.419998,688200
2018-08-20,55.860001,58.730000,55.790001,58.529999,58.529999,1044400
2018-08-21,58.849998,60.450001,57.779999,58.380001,58.380001,1209700
2018-08-22,58.000000,59.189999,57.060001,57.970001,57.970001,919500
2018-08-23,58.090000,59.049999,56.080002,57.639999,57.639999,896800
2018-08-24,57.680000,60.859001,57.680000,60.080002,60.080002,1068700
2018-08-27,60.299999,62.889999,60.240002,62.389999,62.389999,1109700
2018-08-28,63.000000,63.432999,62.040001,63.020000,63.020000,862900
2018-08-29,63.139999,63.750000,61.500000,63.040001,63.040001,634800
2018-08-30,62.860001,63.880001,61.849998,62.090000,62.090000,1007900
2018-08-31,61.840000,64.800003,61.500000,64.739998,64.739998,807100
2018-09-04,64.959999,67.540001,63.561001,67.339996,67.339996,1627400
2018-09-05,66.860001,67.980003,60.580002,62.150002,62.150002,1741300
2018-09-06,62.630001,63.500000,58.009998,58.959999,58.959999,1175900
2018-09-07,58.259998,63.340000,57.240002,61.500000,61.500000,1387200
2018-09-10,62.259998,68.339996,61.890999,68.279999,68.279999,1575100
2018-09-11,68.690002,71.239998,65.919998,70.820000,70.820000,1925100
2018-09-12,70.470001,72.589996,67.000000,67.430000,67.430000,1604600
2018-09-13,66.290001,66.720001,59.700001,64.010002,64.010002,3383700
2018-09-14,62.490002,63.840000,61.360001,63.430000,63.430000,1328300
2018-09-17,63.490002,63.490002,58.570000,60.270000,60.270000,1999700
2018-09-18,60.119999,62.389999,58.550999,59.270000,59.270000,1288200
2018-09-19,60.000000,60.910000,58.529999,58.950001,58.950001,1191600
2018-09-20,59.000000,61.749001,58.567001,60.049999,60.049999,1347000
2018-09-21,60.000000,60.490002,58.580002,60.009998,60.009998,2020500
2018-09-24,59.500000,59.599998,56.869999,59.540001,59.540001,1031600
2018-09-25,59.720001,60.959999,58.860001,59.330002,59.330002,1226000
2018-09-26,59.520000,63.950001,59.520000,61.150002,61.150002,1833000
2018-09-27,61.570000,61.980000,59.000000,60.000000,60.000000,1276100
2018-09-28,59.730000,60.849998,58.759998,59.090000,59.090000,797400
2018-10-01,59.810001,60.490002,57.099998,57.470001,57.470001,1267400
2018-10-02,58.230000,59.750000,52.369999,54.459999,54.459999,2038500
2018-10-03,54.459999,55.480000,52.930000,54.549999,54.549999,1330800
2018-10-04,54.490002,55.009998,51.549999,53.310001,53.310001,1634600
2018-10-05,52.639999,54.419998,51.130001,53.869999,53.869999,1428300
2018-10-08,53.220001,53.680000,50.779999,52.660000,52.660000,1335800
2018-10-09,52.349998,54.790001,49.580002,51.240002,51.240002,1741900
2018-10-10,51.240002,51.240002,46.384998,46.570000,46.570000,2593200
2018-10-11,46.000000,47.759998,43.849998,43.900002,43.900002,2783000
2018-10-12,45.430000,48.349998,45.029999,46.900002,46.900002,2455600
2018-10-15,46.580002,46.580002,42.709999,43.650002,43.650002,2105000
2018-10-16,43.990002,45.880001,43.490002,45.650002,45.650002,1470300
2018-10-17,45.459999,45.551998,43.744999,44.830002,44.830002,949200
2018-10-18,44.720001,44.720001,40.639999,42.759998,42.759998,1402300
2018-10-19,43.000000,44.115002,40.049999,40.169998,40.169998,1366300
2018-10-22,40.480000,42.080002,40.480000,41.590000,41.590000,1141800
2018-10-23,40.509998,42.549999,39.116001,41.630001,41.630001,1680400
2018-10-24,41.880001,42.450001,38.119999,38.540001,38.540001,1473000
2018-10-25,38.919998,41.270000,38.919998,40.459999,40.459999,1018600
2018-10-26,39.220001,40.389999,38.250000,38.720001,38.720001,1120200
2018-10-29,39.330002,40.430000,37.009998,37.750000,37.750000,1280000
2018-10-30,36.810001,39.110001,35.009998,37.680000,37.680000,2449200
2018-10-31,39.110001,39.959999,38.369999,38.750000,38.750000,1942100
2018-11-01,39.200001,45.020000,39.168999,44.389999,44.389999,2298000
2018-11-02,44.549999,46.759998,43.980000,46.330002,46.330002,1695500
2018-11-05,46.160000,46.689999,43.259998,46.439999,46.439999,1383600
2018-11-06,46.250000,46.250000,44.334999,45.049999,45.049999,1560300
2018-11-07,45.770000,46.570000,42.810001,46.169998,46.169998,2674000
2018-11-08,54.889999,54.980000,49.240002,51.470001,51.470001,3636400
2018-11-09,49.939999,50.926998,47.570000,48.900002,48.900002,1777000
2018-11-12,48.290001,49.200001,43.620998,44.009998,44.009998,1729300
2018-11-13,44.950001,46.150002,43.000000,45.529999,45.529999,1471900
2018-11-14,45.990002,48.189999,44.970001,45.250000,45.250000,1348400
2018-11-15,45.669998,48.688999,43.779999,47.849998,47.849998,986900
2018-11-16,46.810001,48.939999,44.580002,46.040001,46.040001,1148800
2018-11-19,45.610001,46.029999,41.360001,42.380001,42.380001,1399400
2018-11-20,40.810001,42.660999,39.805000,41.220001,41.220001,1571800
2018-11-21,41.770000,43.860001,41.000000,41.680000,41.680000,1141400
2018-11-23,41.459999,44.290001,41.330002,42.660000,42.660000,566000
2018-11-26,43.340000,45.380001,42.450001,45.070000,45.070000,1000300
2018-11-27,45.720001,47.619999,45.160000,46.029999,46.029999,846200
2018-11-28,46.459999,47.658001,44.325001,47.419998,47.419998,1891700
2018-11-29,47.939999,49.810001,45.615002,47.259998,47.259998,2355800
2018-11-30,46.990002,47.849998,42.900002,43.290001,43.290001,2011200
2018-12-03,44.070000,44.830002,39.480000,42.860001,42.860001,2267200
2018-12-04,39.270000,40.240002,37.939999,38.400002,38.400002,4104700
2018-12-06,36.709999,38.580002,36.310001,38.580002,38.580002,2114800
2018-12-07,38.790001,39.040001,34.279999,35.709999,35.709999,2914700
2018-12-10,35.169998,36.389999,33.439999,35.470001,35.470001,1411800
2018-12-11,36.549999,37.400002,33.610001,33.820000,33.820000,3464400
2018-12-12,34.380001,36.970001,33.987999,35.759998,35.759998,2220600
2018-12-13,35.840000,36.919998,33.439999,33.540001,33.540001,1432200
2018-12-14,33.000000,33.855000,31.820000,32.150002,32.150002,1467500
2018-12-17,31.410000,34.139999,30.650000,32.770000,32.770000,1606300
2018-12-18,33.230000,34.955002,32.950001,34.750000,34.750000,2088700
2018-12-19,34.700001,35.840000,32.060001,32.560001,32.560001,2053600
2018-12-20,33.240002,33.900002,29.500000,31.400000,31.400000,3391000
2018-12-21,31.090000,31.360001,28.440001,29.840000,29.840000,2019900
2018-12-24,29.590000,32.310001,28.930000,30.809999,30.809999,991000
2018-12-26,30.820000,34.099998,30.341000,33.740002,33.740002,1717100
2018-12-27,32.470001,33.330002,31.110001,33.320000,33.320000,1275000
2018-12-28,33.590000,33.821999,31.530001,31.790001,31.790001,1494500
2018-12-31,32.299999,33.650002,31.719999,32.709999,32.709999,1219200
2019-01-02,31.680000,33.340000,30.760000,32.259998,32.259998,1397500
2019-01-03,31.750000,31.860001,28.770000,30.190001,30.190001,2111900
2019-01-04,31.219999,32.259998,30.389999,30.780001,30.780001,1432800
2019-01-07,31.059999,34.840000,30.891001,33.169998,33.169998,2044200
2019-01-08,33.570000,35.750000,33.250000,35.599998,35.599998,1908700
2019-01-09,35.570000,37.119999,34.599998,34.970001,34.970001,1246500
2019-01-10,34.500000,34.500000,32.580002,34.150002,34.150002,1792300
2019-01-11,34.020000,36.965000,33.599998,36.799999,36.799999,1598200
2019-01-14,34.549999,35.500000,33.590000,35.500000,35.500000,3800000
2019-01-15,35.049999,35.779999,34.040001,35.560001,35.560001,2326300
2019-01-16,35.939999,37.400002,35.099998,35.369999,35.369999,1227700
2019-01-17,35.209999,36.439999,34.779999,35.810001,35.810001,1265300
2019-01-18,36.220001,37.270000,36.160000,36.910000,36.910000,1309800
2019-01-22,36.660000,36.980000,34.380001,35.650002,35.650002,1243100
2019-01-23,35.869999,37.139999,35.494999,37.040001,37.040001,1457200
2019-01-24,37.230000,39.070000,37.130001,38.400002,38.400002,1200500
2019-01-25,38.660000,40.580002,38.400002,39.799999,39.799999,1382800
2019-01-28,39.299999,39.950001,38.299999,39.709999,39.709999,850300
2019-01-29,39.410000,39.650002,37.000000,37.060001,37.060001,1442400
2019-01-30,37.259998,38.119999,36.599998,37.310001,37.310001,1140800
2019-01-31,37.310001,38.750000,36.965000,37.150002,37.150002,1249300
2019-02-01,37.220001,37.439999,34.820000,35.279999,35.279999,1617400
2019-02-04,35.250000,36.439999,35.020000,36.209999,36.209999,833700
2019-02-05,36.279999,36.560001,32.529999,34.369999,34.369999,3992300
2019-02-06,33.759998,34.060001,33.240002,33.410000,33.410000,1587700
2019-02-07,33.020000,33.150002,31.420000,33.020000,33.020000,1932300
2019-02-08,32.619999,32.755001,31.559999,32.180000,32.180000,1394400
2019-02-11,32.310001,32.775002,31.610001,31.980000,31.980000,2021100
2019-02-12,30.420000,35.320000,29.750000,35.090000,35.090000,8569000
2019-02-13,34.880001,36.270000,32.980000,33.130001,33.130001,1897800
2019-02-14,32.939999,34.889999,32.421001,34.299999,34.299999,1084400
2019-02-15,34.160000,35.810001,34.160000,35.349998,35.349998,1156500
2019-02-19,35.430000,37.910000,35.430000,36.730000,36.730000,1969500
2019-02-20,37.000000,38.000000,35.820000,36.139999,36.139999,1163400
2019-02-21,36.200001,36.529999,34.310001,34.770000,34.770000,1164800
2019-02-22,34.730000,38.090000,34.730000,38.000000,38.000000,1981500
2019-02-25,38.240002,39.730000,37.837002,38.490002,38.490002,2366100
2019-02-26,38.389999,40.669998,38.099998,40.500000,40.500000,2834000
2019-02-27,40.189999,43.400002,39.139999,41.820000,41.820000,4424400
2019-02-28,45.070000,45.959999,41.160000,44.860001,44.860001,6683900
2019-03-01,45.090000,45.500000,43.400002,43.619999,43.619999,1826600
2019-03-04,43.570000,44.360001,40.910000,42.070000,42.070000,2062500
2019-03-05,42.689999,48.540001,42.009998,47.980000,47.980000,3492900
2019-03-06,47.939999,51.470001,47.400002,50.599998,50.599998,3033300
2019-03-07,50.009998,52.599998,48.630001,49.480000,49.480000,2424100
2019-03-08,48.730000,50.520000,48.270000,49.599998,49.599998,1167700
2019-03-11,49.860001,53.459999,49.860001,52.139999,52.139999,2487800
2019-03-12,53.049999,56.389999,51.520000,53.099998,53.099998,2702700
2019-03-13,53.689999,58.480000,53.369999,55.970001,55.970001,3771400
2019-03-14,55.180000,56.220001,54.610001,55.799999,55.799999,1898300
2019-03-15,55.779999,56.950001,55.279999,56.680000,56.680000,2476200
2019-03-18,56.830002,58.610001,54.529999,56.860001,56.860001,1905300
2019-03-19,57.619999,59.000000,57.326000,57.990002,57.990002,866300
2019-03-20,57.880001,59.778000,56.770000,57.970001,57.970001,1552400
2019-03-21,58.000000,58.950001,57.099998,57.990002,57.990002,1509500
2019-03-22,58.270000,58.270000,54.410000,55.619999,55.619999,1190500
2019-03-25,55.369999,57.250000,54.810001,56.340000,56.340000,1077900
2019-03-26,57.500000,59.599998,57.080002,57.990002,57.990002,2499800
2019-03-27,58.000000,59.095001,56.630001,58.150002,58.150002,1713200
2019-03-28,58.500000,59.000000,56.459999,57.849998,57.849998,1470500
2019-03-29,57.889999,58.590000,57.410000,58.060001,58.060001,1468700
2019-04-01,58.740002,59.919998,57.639999,58.939999,58.939999,1511900
2019-04-02,58.939999,63.660000,58.209999,62.820000,62.820000,2794500
2019-04-03,61.500000,63.660000,60.009998,62.000000,62.000000,1728900
2019-04-04,62.060001,63.000000,59.035000,59.939999,59.939999,1406000
2019-04-05,60.130001,61.049999,57.900002,60.509998,60.509998,898000
2019-04-08,60.320000,60.610001,58.049999,58.799999,58.799999,824900
2019-04-09,58.259998,60.910000,58.245998,60.090000,60.090000,810000
2019-04-10,60.080002,62.959999,60.080002,62.950001,62.950001,997600
2019-04-11,62.939999,63.889999,62.419998,63.549999,63.549999,1131800
2019-04-12,64.470001,66.410004,63.090000,66.000000,66.000000,1122200
2019-04-15,65.860001,66.236000,62.340000,64.379997,64.379997,1804700
2019-04-16,64.070000,65.710999,62.580002,64.599998,64.599998,934300
2019-04-17,64.970001,64.970001,61.240002,63.200001,63.200001,945300
2019-04-18,63.209999,63.330002,61.134998,62.980000,62.980000,650600
2019-04-22,62.590000,66.250000,61.849998,65.400002,65.400002,1359300
2019-04-23,65.980003,67.209999,65.410004,66.589996,66.589996,1344200
2019-04-24,66.790001,67.410004,64.070000,66.540001,66.540001,877300
2019-04-25,66.139999,67.134003,65.014999,66.040001,66.040001,679900
2019-04-26,66.660004,70.000000,66.150002,69.580002,69.580002,1222900
2019-04-29,70.000000,70.790001,68.500000,70.370003,70.370003,1515800
2019-04-30,70.540001,73.599998,69.500000,71.559998,71.559998,1491000
2019-05-01,71.720001,72.040001,69.250000,70.690002,70.690002,1307000
2019-05-02,70.730003,71.300003,68.447998,70.440002,70.440002,791400
2019-05-03,70.500000,72.470001,70.306000,72.180000,72.180000,883400
2019-05-06,69.959999,72.750000,69.599998,72.040001,72.040001,1036800
2019-05-07,72.000000,74.165001,70.239998,71.040001,71.040001,1101400
2019-05-08,70.620003,73.870003,70.500000,71.650002,71.650002,1802100
2019-05-09,72.099998,76.849998,67.139999,75.230003,75.230003,3115200
2019-05-10,74.410004,74.500000,64.760002,66.760002,66.760002,3246200
2019-05-13,64.650002,65.610001,60.950001,62.240002,62.240002,3026900
2019-05-14,62.549999,66.099998,61.330002,65.680000,65.680000,1191100
2019-05-15,64.779999,65.839996,63.000000,65.480003,65.480003,1087300
2019-05-16,66.040001,69.699997,66.040001,69.339996,69.339996,1536100
2019-05-17,67.940002,69.139999,66.324997,68.129997,68.129997,923900
2019-05-20,67.559998,67.910004,65.509003,67.180000,67.180000,980500
2019-05-21,65.250000,69.489998,65.250000,67.029999,67.029999,1808900
2019-05-22,65.349998,66.239998,64.800003,65.110001,65.110001,4734700
2019-05-23,64.699997,65.349998,62.270000,63.279999,63.279999,2057100
2019-05-24,63.400002,64.209000,58.520000,59.389999,59.389999,2387200
2019-05-28,59.230000,61.185001,59.230000,60.139999,60.139999,2098400
2019-05-29,59.570000,59.570000,56.480000,57.959999,57.959999,1786000
2019-05-30,58.330002,59.459999,58.169998,58.750000,58.750000,933500
2019-05-31,57.689999,59.400002,56.580002,57.880001,57.880001,1391100
2019-06-03,57.500000,59.000000,55.880001,58.320000,58.320000,1099800
2019-06-04,59.549999,61.340000,59.180000,61.299999,61.299999,1194100
2019-06-05,62.099998,62.099998,57.959999,59.669998,59.669998,1213200
2019-06-06,59.470001,60.180000,56.790001,60.099998,60.099998,1113200
2019-06-07,61.000000,64.820000,60.935001,63.200001,63.200001,1476500
2019-06-10,63.580002,64.180000,61.250000,61.340000,61.340000,1235800
2019-06-11,62.119999,62.900002,60.070000,61.279999,61.279999,890300
2019-06-12,61.139999,61.939999,60.500000,61.250000,61.250000,765000
2019-06-13,61.790001,62.990002,61.445000,61.779999,61.779999,723100
2019-06-14,61.779999,62.285000,59.450001,59.980000,59.980000,690900
2019-06-17,60.000000,64.650002,59.900002,63.639999,63.639999,1273700
2019-06-18,64.739998,69.249001,64.739998,65.970001,65.970001,1941700
2019-06-19,65.550003,66.272003,60.720001,63.500000,63.500000,1917000
2019-06-20,65.000000,67.620003,64.209999,66.900002,66.900002,1323900
2019-06-21,66.910004,67.540001,66.058998,67.050003,67.050003,944000
2019-06-24,66.739998,67.195000,61.450001,61.480000,61.480000,2320700
2019-06-25,62.520000,63.389999,59.369999,60.310001,60.310001,1388700
2019-06-26,60.939999,61.669998,58.900002,59.070000,59.070000,958200
2019-06-27,59.459999,62.279999,59.459999,61.980000,61.980000,893400
2019-06-28,61.990002,63.470001,61.599998,62.590000,62.590000,4044300
2019-07-01,63.740002,65.900002,62.174999,65.610001,65.610001,1359900
2019-07-02,66.330002,67.223000,64.180000,64.699997,64.699997,929500
2019-07-03,64.739998,65.109001,63.070000,64.169998,64.169998,512000
2019-07-05,63.650002,66.070000,63.375999,65.790001,65.790001,560300
2019-07-08,65.370003,67.180000,65.019997,66.610001,66.610001,1028700
2019-07-09,66.410004,67.830002,65.339996,66.120003,66.120003,1107200
2019-07-10,66.980003,68.120003,66.776001,67.650002,67.650002,2116200
2019-07-11,67.440002,67.650002,64.019997,64.589996,64.589996,1941400
2019-07-12,64.599998,68.080002,64.599998,67.309998,67.309998,908600
2019-07-15,67.300003,67.779999,65.449997,65.900002,65.900002,1159200
2019-07-16,65.730003,66.500000,61.090000,62.009998,62.009998,1991600
2019-07-17,62.119999,62.599998,60.450001,60.919998,60.919998,1523000
2019-07-18,60.380001,60.450001,58.756001,59.639999,59.639999,1486600
2019-07-19,59.639999,60.630001,57.810001,57.910000,57.910000,1448200
2019-07-22,58.240002,59.349998,57.403000,58.450001,58.450001,1106700
2019-07-23,58.840000,62.709999,58.840000,62.630001,62.630001,1651700
2019-07-24,62.450001,65.650002,62.299999,65.160004,65.160004,1868800
2019-07-25,64.730003,65.870003,64.099998,65.629997,65.629997,1378600
2019-07-26,65.949997,67.790001,63.209999,66.449997,66.449997,1184900
2019-07-29,65.980003,66.305000,63.529999,65.540001,65.540001,864500
2019-07-30,64.730003,64.785004,61.900002,62.340000,62.340000,1589800
2019-07-31,62.310001,64.750000,62.020000,63.560001,63.560001,1157600
2019-08-01,63.459999,65.650002,62.320000,62.810001,62.810001,924900
2019-08-02,62.410000,62.790001,59.919998,62.389999,62.389999,1108100
2019-08-05,60.160000,61.459999,59.305000,60.970001,60.970001,1020200
2019-08-06,61.830002,62.970001,57.889999,59.779999,59.779999,2106300
2019-08-07,59.110001,59.299999,57.200001,57.910000,57.910000,2386800
2019-08-08,71.190002,73.500000,67.669998,72.470001,72.470001,7740400
2019-08-09,71.870003,79.250000,71.760002,78.099998,78.099998,3737300
2019-08-12,77.260002,79.949997,76.489998,78.349998,78.349998,2393500
2019-08-13,77.639999,81.279999,77.639999,80.430000,80.430000,2566800
2019-08-14,78.010002,81.370003,77.809998,78.889999,78.889999,2110500
2019-08-15,79.000000,79.533997,77.559998,78.919998,78.919998,1321200
2019-08-16,79.620003,80.690002,78.940002,79.449997,79.449997,1696800
2019-08-19,80.500000,80.660004,74.760002,77.150002,77.150002,1774400
2019-08-20,76.709999,77.239998,75.029999,76.620003,76.620003,1280500
2019-08-21,77.430000,83.769997,77.260002,83.089996,83.089996,2861200
2019-08-22,83.129997,83.379997,79.599998,79.919998,79.919998,1499700
2019-08-23,79.699997,81.839996,78.160004,78.599998,78.599998,1646800
2019-08-26,79.949997,81.199997,77.349998,80.940002,80.940002,1194300
2019-08-27,82.070000,84.598000,79.739998,80.150002,80.150002,953500
2019-08-28,80.250000,82.750000,78.635002,81.959999,81.959999,991800
2019-08-29,82.989998,83.540001,81.410004,82.459999,82.459999,1107100
2019-08-30,83.110001,83.110001,79.370003,81.160004,81.160004,922400
2019-09-03,79.959999,82.800003,78.500000,79.620003,79.620003,1229800
2019-09-04,80.790001,83.440002,80.400002,81.779999,81.779999,1195000
2019-09-05,82.510002,85.029999,82.510002,84.610001,84.610001,1403100
2019-09-06,84.610001,84.919998,83.389999,83.610001,83.610001,1410600
2019-09-09,84.150002,85.070000,81.300003,83.000000,83.000000,1427900
2019-09-10,82.360001,82.440002,76.129997,77.510002,77.510002,2682800
2019-09-11,77.599998,79.040001,76.190002,77.970001,77.970001,1210000
2019-09-12,79.540001,81.510002,78.449997,80.410004,80.410004,929500
2019-09-13,79.919998,81.379997,78.650002,80.279999,80.279999,719300
2019-09-16,79.559998,81.860001,77.940002,81.529999,81.529999,823200
2019-09-17,81.379997,82.150002,79.639999,80.860001,80.860001,840700
2019-09-18,81.250000,81.550003,72.760002,77.410004,77.410004,2798100
2019-09-19,77.360001,78.900002,75.410004,76.559998,76.559998,1262500
2019-09-20,76.809998,78.099998,74.769997,75.510002,75.510002,3073500
2019-09-23,75.019997,75.900002,73.540001,74.639999,74.639999,1167300
2019-09-24,74.720001,74.849998,69.610001,70.459999,70.459999,2483400
2019-09-25,69.970001,71.009003,68.320000,70.519997,70.519997,1602500
2019-09-26,70.080002,70.350998,67.180000,68.309998,68.309998,1816000
2019-09-27,68.209999,68.925003,64.800003,66.080002,66.080002,1834500
2019-09-30,65.779999,66.269997,63.400002,66.000000,66.000000,2095300
2019-10-01,66.099998,68.129997,65.000000,67.040001,67.040001,2566500
2019-10-02,66.080002,66.080002,63.110001,64.220001,64.220001,2295500
2019-10-03,64.209999,67.519997,63.450001,67.279999,67.279999,1514800
2019-10-04,67.750000,68.279999,65.430000,67.809998,67.809998,1162700
2019-10-07,67.279999,67.720001,65.970001,66.129997,66.129997,1420500
2019-10-08,65.010002,67.459999,64.449997,66.389999,66.389999,1006200
2019-10-09,67.500000,69.949997,66.879997,69.139999,69.139999,793200
2019-10-10,69.269997,69.589996,68.120003,69.260002,69.260002,1003000
2019-10-11,70.650002,73.750000,70.430000,72.260002,72.260002,1624200
2019-10-14,72.260002,74.550003,71.788002,74.349998,74.349998,1186800
2019-10-15,74.879997,78.839996,74.800003,77.830002,77.830002,2128200
2019-10-16,77.290001,77.440002,75.980003,76.550003,76.550003,1108000
2019-10-17,76.820000,77.763000,75.930000,77.110001,77.110001,1304100
2019-10-18,76.800003,77.570000,73.510002,73.849998,73.849998,2432300
2019-10-21,74.720001,77.430000,74.720001,77.260002,77.260002,1116000
2019-10-22,77.570000,79.300003,75.620003,75.800003,75.800003,1665500
2019-10-23,75.500000,77.169998,74.629997,76.959999,76.959999,658900
2019-10-24,77.519997,79.639999,77.519997,78.519997,78.519997,1124800
2019-10-25,78.059998,80.370003,78.029999,79.230003,79.230003,695300
2019-10-28,79.849998,84.000000,79.849998,82.769997,82.769997,1776500
2019-10-29,82.760002,85.970001,82.650002,84.690002,84.690002,2038800
2019-10-30,84.620003,84.690002,81.360001,82.480003,82.480003,1063400
2019-10-31,82.360001,82.519997,80.230003,81.080002,81.080002,637500
2019-11-01,82.330002,84.190002,81.860001,82.730003,82.730003,1141000
2019-11-04,82.870003,83.650002,81.519997,82.980003,82.980003,1426400
2019-11-05,83.699997,83.750000,79.760002,81.519997,81.519997,1458300
2019-11-06,81.320000,81.719002,78.500000,79.080002,79.080002,2002000
2019-11-07,74.129997,78.180000,70.860001,73.120003,73.120003,5095100
2019-11-08,73.010002,78.230003,72.389999,77.959999,77.959999,1734400
2019-11-11,77.019997,77.550003,74.160004,77.489998,77.489998,1507100
2019-11-12,77.830002,80.680000,77.209999,78.199997,78.199997,1667100
2019-11-13,77.610001,78.080002,74.855003,75.190002,75.190002,1263900
2019-11-14,74.959999,78.330002,74.959999,78.000000,78.000000,1139400
2019-11-15,78.889999,81.629997,77.629997,81.570000,81.570000,1337600
2019-11-18,81.309998,85.596001,80.519997,84.830002,84.830002,1964200
2019-11-19,84.529999,88.529999,84.400002,88.339996,88.339996,1683800
2019-11-20,88.500000,90.230003,87.050003,88.980003,88.980003,2141400
2019-11-21,89.720001,90.099998,88.660004,89.190002,89.190002,1410600
2019-11-22,89.199997,91.095001,88.910004,89.779999,89.779999,1472100
2019-11-25,90.309998,91.610001,89.839996,91.059998,91.059998,1268200
2019-11-26,91.419998,94.849998,91.373001,92.839996,92.839996,1785100
2019-11-27,93.470001,95.000000,92.750000,94.980003,94.980003,835400
2019-11-29,94.430000,96.440002,94.290001,95.320000,95.320000,381400
2019-12-02,95.989998,96.290001,90.889999,92.000000,92.000000,1849300
2019-12-03,90.000000,92.480003,89.400002,91.959999,91.959999,1296700
2019-12-04,92.750000,93.730003,91.639999,92.360001,92.360001,1122100
2019-12-05,92.660004,93.220001,87.714996,87.910004,87.910004,1280200
2019-12-06,89.320000,90.000000,86.290001,86.419998,86.419998,1140400
2019-12-09,86.000000,89.970001,84.889999,89.330002,89.330002,1777000
2019-12-10,88.629997,92.129997,87.199997,92.080002,92.080002,1247300
2019-12-11,92.080002,94.849998,91.559998,94.750000,94.750000,1033700
2019-12-12,94.519997,97.059998,94.070000,97.000000,97.000000,2405300
2019-12-13,96.580002,96.830002,90.320000,91.889999,91.889999,1542900
2019-12-16,92.500000,95.980003,92.000000,95.419998,95.419998,1017400
2019-12-17,95.000000,95.269997,91.089996,94.680000,94.680000,864700
2019-12-18,94.959999,95.660004,92.919998,93.370003,93.370003,678200
2019-12-19,95.989998,99.190002,94.110001,96.269997,96.269997,2078600
2019-12-20,97.250000,97.250000,94.150002,95.910004,95.910004,1478500
2019-12-23,96.370003,97.339996,94.349998,95.230003,95.230003,779800
2019-12-24,94.989998,96.379997,94.400002,96.379997,96.379997,257100
2019-12-26,96.860001,98.660004,96.120003,98.440002,98.440002,895900
2019-12-27,98.669998,98.669998,96.573997,97.820000,97.820000,1504600
2019-12-30,97.400002,97.430000,92.099998,92.279999,92.279999,1121900
2019-12-31,91.790001,92.419998,90.709999,92.050003,92.050003,1055500
2020-01-02,93.209999,96.980003,92.510002,96.949997,96.949997,1221300
2020-01-03,95.620003,97.129997,92.334999,92.750000,92.750000,984400
2020-01-06,91.440002,93.129997,90.879997,92.339996,92.339996,834900
2020-01-07,93.019997,93.019997,90.769997,90.910004,90.910004,733500
2020-01-08,90.750000,91.157997,88.440002,89.129997,89.129997,1471600
2020-01-09,89.370003,89.769997,85.489998,86.570000,86.570000,1494300
2020-01-10,86.809998,88.209999,85.760002,87.610001,87.610001,1870400
2020-01-13,88.480003,93.849998,87.610001,92.870003,92.870003,2515300
2020-01-14,92.139999,92.190002,84.059998,86.019997,86.019997,4238200
2020-01-15,85.760002,86.849998,83.410004,86.769997,86.769997,1520500
2020-01-16,87.440002,88.077003,86.235001,87.209999,87.209999,2240600
2020-01-17,87.690002,87.910004,84.000000,84.000000,84.000000,1341500
2020-01-21,83.500000,84.120003,81.879997,83.529999,83.529999,2404000
2020-01-22,83.910004,85.320000,82.629997,83.720001,83.720001,1162600
2020-01-23,83.209999,83.699997,81.800003,82.940002,82.940002,612900
2020-01-24,83.389999,84.040001,81.779999,83.110001,83.110001,641300
2020-01-27,80.110001,85.150002,80.110001,84.699997,84.699997,1379900
2020-01-28,85.379997,85.650002,83.430000,84.940002,84.940002,1174100
2020-01-29,85.500000,86.400002,81.620003,81.750000,81.750000,1271900
2020-01-30,80.550003,80.860001,78.589996,79.879997,79.879997,2313900
2020-01-31,80.050003,80.050003,76.800003,79.250000,79.250000,1571400
2020-02-03,80.220001,86.309998,79.870003,86.250000,86.250000,2337600
2020-02-04,87.279999,91.899002,86.620003,91.300003,91.300003,2340700
2020-02-05,92.459999,92.459999,84.839996,89.750000,89.750000,2031000
2020-02-06,90.099998,93.320000,89.389999,91.059998,91.059998,1143000
2020-02-07,90.050003,90.370003,87.910004,88.860001,88.860001,951000
2020-02-10,88.370003,90.809998,87.720001,89.440002,89.440002,1685600
2020-02-11,89.790001,90.239998,84.239998,85.800003,85.800003,1524500
2020-02-12,86.610001,87.430000,85.074997,86.650002,86.650002,961400
2020-02-13,86.000000,88.059998,85.580002,87.400002,87.400002,802000
