Date,Open,High,Low,Close,Adj Close,Volume
2016-08-17,24.086378,24.363234,23.809525,23.809525,23.809525,137600
2016-08-18,24.363234,24.363234,23.532669,23.671097,23.671097,895700
2016-08-19,23.643412,24.086378,23.615725,24.086378,24.086378,2400300
2016-08-22,23.809525,25.249170,23.588039,24.169436,24.169436,1138300
2016-08-23,24.224806,25.415283,24.086378,24.916943,24.916943,751600
2016-08-24,27.685493,27.685493,24.972315,25.249170,25.249170,1280200
2016-08-25,25.609081,25.609081,24.972315,25.143965,25.143965,188300
2016-08-26,25.442968,25.442968,25.188261,25.332226,25.332226,113200
2016-08-29,25.359911,26.024363,25.359911,25.636766,25.636766,704500
2016-08-30,25.609081,25.885935,24.667774,25.000000,25.000000,2435300
2016-08-31,24.778517,24.972315,24.363234,24.739756,24.739756,4578700
2016-09-01,26.328903,26.328903,24.086378,24.086378,24.086378,4585900
2016-09-02,24.313400,24.313400,23.643412,23.798450,23.798450,4119100
2016-09-06,23.947950,25.609081,23.266888,25.166113,25.166113,28543400
2016-09-07,24.955704,27.342194,24.928019,26.578074,26.578074,74965600
2016-09-08,26.827242,28.178295,26.805094,27.857143,27.857143,20861200
2016-09-09,27.591362,27.779623,26.650055,27.176079,27.176079,13491100
2016-09-12,26.611296,27.519381,26.417498,27.353268,27.353268,7090300
2016-09-13,26.650055,27.486156,26.583611,26.854929,26.854929,9146300
2016-09-14,26.794020,26.921373,26.578074,26.771872,26.771872,8722000
2016-09-15,26.644518,27.148394,26.589148,27.070875,27.070875,8721800
2016-09-16,26.926910,27.126245,26.644518,26.838316,26.838316,9015000
2016-09-19,26.710964,27.070875,26.666666,26.998892,26.998892,8243400
2016-09-20,26.960133,27.098560,26.672203,26.982281,26.982281,6082600
2016-09-21,26.788483,27.131783,26.727575,26.810631,26.810631,7544500
2016-09-22,26.849390,26.993355,26.528238,26.594685,26.594685,8643800
2016-09-23,26.506090,26.838316,26.478405,26.583611,26.583611,3775600
2016-09-26,26.423035,26.611296,26.400887,26.517164,26.517164,5133500
2016-09-27,26.456257,26.566999,26.384275,26.461794,26.461794,4982900
2016-09-28,26.511627,26.638981,26.317829,26.500553,26.500553,4061600
2016-09-29,26.362125,26.539314,26.306755,26.339977,26.339977,2996500
2016-09-30,26.456257,26.633444,26.334440,26.467331,26.467331,3125100
2016-10-03,26.373201,26.605759,26.351051,26.539314,26.539314,2709500
2016-10-04,26.483942,26.578074,26.367662,26.500553,26.500553,3037500
2016-10-05,26.434109,27.054264,26.301218,26.838316,26.838316,3355900
2016-10-06,26.838316,26.893688,26.561462,26.794020,26.794020,2604700
2016-10-07,26.794020,26.838316,26.544851,26.616833,26.616833,1781600
2016-10-10,26.616833,26.799557,26.218163,26.312292,26.312292,2747200
2016-10-11,26.112957,26.428572,26.002214,26.101883,26.101883,3166400
2016-10-12,26.002214,26.273533,25.891474,26.085272,26.085272,2965800
2016-10-13,25.968992,26.273533,25.825027,26.096346,26.096346,2424300
2016-10-14,26.151716,26.362125,26.018826,26.157253,26.157253,2763900
2016-10-17,26.168327,26.389812,26.040974,26.240311,26.240311,2439500
2016-10-18,26.328903,26.467331,26.024363,26.400887,26.400887,2720100
2016-10-19,26.328903,26.600222,26.312292,26.417498,26.417498,2256500
2016-10-20,26.279070,26.489479,26.262459,26.411961,26.411961,1950800
2016-10-21,26.279070,26.367662,26.068661,26.157253,26.157253,1754300
2016-10-24,26.356588,26.633444,26.284607,26.544851,26.544851,1835400
2016-10-25,26.428572,26.544851,25.930233,26.018826,26.018826,2736200
2016-10-26,25.941307,26.218163,25.825027,25.869324,25.869324,2990700
2016-10-27,27.364342,27.547066,26.600222,26.760798,26.760798,12710800
2016-10-28,26.638981,27.225914,26.572536,27.059801,27.059801,6904300
2016-10-31,27.131783,27.403101,27.032116,27.181618,27.181618,6165300
2016-11-01,27.203766,27.397564,26.716501,26.838316,26.838316,4038200
2016-11-02,26.710964,27.187155,26.683277,27.131783,27.131783,3323500
2016-11-03,27.109634,27.369879,26.843853,27.004429,27.004429,2414400
2016-11-04,26.921373,27.253599,26.854929,26.921373,26.921373,3196900
2016-11-07,27.070875,27.685493,27.070875,27.419712,27.419712,2314500
2016-11-08,27.419712,27.652269,27.397564,27.508307,27.508307,1684000
2016-11-09,26.915836,27.619047,26.832779,27.336655,27.336655,2960200
2016-11-10,27.331118,27.713179,26.904762,27.275747,27.275747,3026400
2016-11-11,27.242525,27.380953,27.037653,27.214840,27.214840,1602600
2016-11-14,27.209303,27.436323,26.782946,27.126245,27.126245,1776300
2016-11-15,27.148394,27.868217,27.032116,27.729790,27.729790,3543500
2016-11-16,27.613510,28.145071,27.530455,28.045404,28.045404,2532300
2016-11-17,28.001108,28.875969,27.962347,28.682171,28.682171,2902200
2016-11-18,28.671097,28.981174,28.626799,28.787374,28.787374,2129200
2016-11-21,28.737541,29.186047,28.737541,29.036545,29.036545,1596100
2016-11-22,29.125139,29.263565,28.543743,28.842747,28.842747,1447800
2016-11-23,28.682171,28.981174,28.449612,28.538206,28.538206,1515900
2016-11-25,28.466223,29.025471,28.433001,28.898117,28.898117,458700
2016-11-28,28.792913,29.014397,28.682171,28.870432,28.870432,1336900
2016-11-29,28.803988,29.612404,28.803988,29.496124,29.496124,2418200
2016-11-30,29.651163,29.734219,29.446291,29.656700,29.656700,2576000
2016-12-01,29.651163,29.706533,28.383167,28.726467,28.726467,4062700
2016-12-02,28.621262,29.341085,28.250277,29.208195,29.208195,2416600
2016-12-05,29.246954,29.584717,29.086378,29.379845,29.379845,3238600
2016-12-06,29.246954,29.623478,29.186047,29.551495,29.551495,2996500
2016-12-07,29.468439,29.988926,29.274641,29.844961,29.844961,4969300
2016-12-08,29.772980,30.398670,29.512735,29.856035,29.856035,4194000
2016-12-09,29.811739,30.177187,29.667774,29.883720,29.883720,3030100
2016-12-12,29.900331,30.027685,29.390919,29.844961,29.844961,2964500
2016-12-13,29.817276,30.177187,29.728682,29.772980,29.772980,2218100
2016-12-14,29.712070,30.155039,29.640089,30.016611,30.016611,3318100
2016-12-15,30.177187,31.561462,30.105206,31.428572,31.428572,6510800
2016-12-16,31.362125,31.472868,30.880398,31.251385,31.251385,10792200
2016-12-19,31.090809,31.400887,30.913622,31.223700,31.223700,2203600
2016-12-20,31.334440,31.694353,31.284607,31.589148,31.589148,2661600
2016-12-21,31.445183,31.921373,31.262459,31.722038,31.722038,1925500
2016-12-22,31.589148,31.589148,30.714285,30.919159,30.919159,2841700
2016-12-23,30.764120,31.118494,30.730898,31.057587,31.057587,1076100
2016-12-27,31.057587,31.251385,30.957918,31.035437,31.035437,1816400
2016-12-28,31.029900,31.124031,30.492802,30.642303,30.642303,2385000
2016-12-29,30.492802,30.775194,30.254707,30.598007,30.598007,1505400
2016-12-30,30.564785,30.620155,30.315615,30.437431,30.437431,1453100
2017-01-03,30.498339,30.598007,29.977852,30.215946,30.215946,2941900
2017-01-04,30.299004,30.686600,30.299004,30.454042,30.454042,3794200
2017-01-05,30.343300,30.769657,30.343300,30.603544,30.603544,1498200
2017-01-06,30.753046,31.539314,30.653378,31.445183,31.445183,2405200
2017-01-09,31.240311,31.362125,30.813953,31.279070,31.279070,2538500
2017-01-10,31.229237,31.932447,31.190475,31.555925,31.555925,3007100
2017-01-11,31.688814,31.921373,31.578074,31.882614,31.882614,1621700
2017-01-12,31.672203,31.982281,31.439646,31.915836,31.915836,1537900
2017-01-13,31.843853,32.264675,31.838316,32.209301,32.209301,2994700
2017-01-17,32.165005,32.657806,31.926910,32.081947,32.081947,2499800
2017-01-18,32.009968,32.447399,31.915836,32.430786,32.430786,1260700
2017-01-19,32.320045,32.884827,32.165005,32.563675,32.563675,2318500
2017-01-20,32.552601,32.929127,32.535992,32.812847,32.812847,2007100
2017-01-23,32.691029,32.801773,31.915836,32.270210,32.270210,1982200
2017-01-24,32.447399,33.178295,32.325581,33.095238,33.095238,3639000
2017-01-25,33.222591,33.405315,32.967884,33.255814,33.255814,2967200
2017-01-26,33.355480,33.355480,32.945736,33.006645,33.006645,2872400
2017-01-27,34.036545,34.883720,33.887043,34.634552,34.634552,5428200
2017-01-30,34.385384,34.640087,34.147285,34.573643,34.573643,2691100
2017-01-31,34.385384,34.883720,34.274639,34.878185,34.878185,2473300
2017-02-01,34.784054,35.049835,34.440754,34.939091,34.939091,2618100
2017-02-02,34.767441,35.492802,34.629013,35.415283,35.415283,1985800
2017-02-03,35.188263,35.791805,35.188263,35.631229,35.631229,1187800
2017-02-06,35.454041,35.946842,35.437431,35.786266,35.786266,2546600
2017-02-07,35.913620,36.068661,35.686600,35.913620,35.913620,1662000
2017-02-08,35.847176,36.046513,35.714287,35.902546,35.902546,2273000
2017-02-09,35.924694,36.423035,35.775192,35.991142,35.991142,1891200
2017-02-10,36.096344,36.251385,35.786266,35.841640,35.841640,1870800
2017-02-13,35.913620,36.334442,35.869324,35.897011,35.897011,2313800
2017-02-14,35.852715,36.151718,35.753044,35.908085,35.908085,2014400
2017-02-15,35.869324,36.162792,35.813953,36.057587,36.057587,1196200
2017-02-16,36.101883,36.423035,35.825027,36.057587,36.057587,2343800
2017-02-17,35.996677,36.140644,35.753044,35.764118,35.764118,2524400
2017-02-21,35.741970,36.151718,35.741970,36.046513,36.046513,1839500
2017-02-22,35.908085,36.140644,35.797340,35.863789,35.863789,1937200
2017-02-23,35.930233,35.991142,35.382061,35.503876,35.503876,1850900
2017-02-24,35.271317,35.614616,35.160576,35.570320,35.570320,1550200
2017-02-27,35.426357,35.537098,35.299004,35.459579,35.459579,3223800
2017-02-28,35.238094,35.415283,35.049835,35.155037,35.155037,2179100
2017-03-01,35.155037,35.708748,35.143963,35.481728,35.481728,2532900
2017-03-02,35.326691,35.708748,35.105206,35.143963,35.143963,1276100
2017-03-03,34.972313,35.127354,34.745293,35.127354,35.127354,1573000
2017-03-06,34.955704,35.066444,34.584717,34.723145,34.723145,2402800
2017-03-07,34.723145,35.138428,34.706535,34.911407,34.911407,1569900
2017-03-08,34.961239,35.415283,34.916943,35.171650,35.171650,2246300
2017-03-09,35.060909,35.132889,34.712070,34.955704,34.955704,1678100
2017-03-10,35.105206,35.343300,34.833885,35.149502,35.149502,1462300
2017-03-13,35.049835,35.348839,34.955704,35.160576,35.160576,2706200
2017-03-14,35.166115,35.243633,34.795128,35.155037,35.155037,1568600
2017-03-15,35.193798,35.498341,35.044296,35.287930,35.287930,1599700
2017-03-16,35.326691,35.564785,35.083057,35.437431,35.437431,2091800
2017-03-17,35.620155,35.852715,35.426357,35.542637,35.542637,1682800
2017-03-20,35.470654,35.592468,35.249168,35.476189,35.476189,1225300
2017-03-21,35.575859,35.653378,34.462902,34.573643,34.573643,2154500
2017-03-22,34.584717,34.994461,34.518272,34.872646,34.872646,1316200
2017-03-23,34.867111,35.243633,34.623478,34.928017,34.928017,1442800
2017-03-24,35.127354,35.492802,34.833885,35.088593,35.088593,1375000
2017-03-27,34.756367,35.254707,34.512733,35.088593,35.088593,1504500
2017-03-28,35.000000,35.498341,35.000000,35.199337,35.199337,2609300
2017-03-29,35.138428,35.442966,35.033222,35.382061,35.382061,2508500
2017-03-30,35.382061,36.146179,35.271317,35.431892,35.431892,4669200
2017-03-31,35.415283,35.658916,35.287930,35.481728,35.481728,3183700
2017-04-03,35.431892,35.946842,35.182724,35.354374,35.354374,3086400
2017-04-04,35.293465,35.769657,35.265781,35.537098,35.537098,2878900
2017-04-05,35.681065,35.952381,35.348839,35.448505,35.448505,3932700
2017-04-06,35.503876,35.708748,35.354374,35.548172,35.548172,3422100
2017-04-07,35.614616,35.968994,35.548172,35.919159,35.919159,2912500
2017-04-10,35.924694,36.135105,35.797340,35.941307,35.941307,3625500
2017-04-11,35.952381,36.101883,35.625690,36.052048,36.052048,2686000
2017-04-12,35.775192,35.946842,35.282391,35.382061,35.382061,2330600
2017-04-13,35.343300,35.697674,35.276855,35.393135,35.393135,1916300
2017-04-17,35.415283,35.625690,35.415283,35.575859,35.575859,1163200
2017-04-18,35.448505,35.797340,35.304539,35.653378,35.653378,1505600
2017-04-19,35.825027,35.825027,35.664452,35.730896,35.730896,1264700
2017-04-20,35.747509,36.007751,35.509415,35.935768,35.935768,1703900
2017-04-21,36.007751,36.007751,35.559246,35.669991,35.669991,3021600
2017-04-24,35.991142,36.677742,35.946842,36.644520,36.644520,4090200
2017-04-25,36.904762,37.070873,36.688816,36.738647,36.738647,3881200
2017-04-26,36.738647,37.397564,36.738647,37.131783,37.131783,2752800
2017-04-27,37.375416,37.425251,37.131783,37.336655,37.336655,1578400
2017-04-28,37.353268,37.513844,36.893688,37.159470,37.159470,1574800
2017-05-01,37.342194,37.491695,37.120708,37.414173,37.414173,3122500
2017-05-02,37.414173,37.541527,36.926910,37.059799,37.059799,2056400
2017-05-03,37.004429,37.004429,36.544849,36.638981,36.638981,1569000
2017-05-04,36.644520,36.838318,36.478405,36.722038,36.722038,1585400
2017-05-05,36.733112,37.308971,36.694351,37.259136,37.259136,2552400
2017-05-08,37.314507,37.646732,37.131783,37.447399,37.447399,3751200
2017-05-09,37.430786,37.790699,37.126247,37.231449,37.231449,2254400
2017-05-10,37.181618,37.331120,36.860466,37.087486,37.087486,2018700
2017-05-11,36.816170,36.888149,36.489479,36.600220,36.600220,2530200
2017-05-12,36.600220,36.755260,35.963455,35.963455,35.963455,10793500
2017-05-15,36.007751,36.854927,35.913620,36.688816,36.688816,2538800
2017-05-16,36.771870,37.076412,36.755260,36.843853,36.843853,2123800
2017-05-17,36.406422,36.622372,35.913620,35.930233,35.930233,2074900
2017-05-18,35.730896,35.908085,35.415283,35.802879,35.802879,2537600
2017-05-19,35.885937,36.351051,35.874863,35.946842,35.946842,1275000
2017-05-22,36.223698,37.375416,36.140644,37.308971,37.308971,4271700
2017-05-23,37.574749,37.641197,37.098560,37.308971,37.308971,2558500
2017-05-24,37.425251,37.718716,37.303432,37.691029,37.691029,2138800
2017-05-25,37.807308,38.250278,37.751938,38.017719,38.017719,3043600
2017-05-26,37.945736,38.250278,37.823921,38.095238,38.095238,1580900
2017-05-30,38.095238,38.394241,37.962349,38.067554,38.067554,4089800
2017-05-31,38.233665,38.421928,37.530453,38.421928,38.421928,16978000
2017-06-01,38.482834,38.604652,38.050941,38.361019,38.361019,4430800
2017-06-02,37.879292,38.228130,36.910297,37.790699,37.790699,4046100
2017-06-05,37.729790,37.763012,36.777409,36.882614,36.882614,4618400
2017-06-06,36.937984,37.270210,36.688816,37.170544,37.170544,2661100
2017-06-07,37.170544,37.580288,37.098560,37.558140,37.558140,2886300
2017-06-08,36.915836,37.364342,35.271317,36.046513,36.046513,6518000
2017-06-09,35.991142,36.101883,34.252491,34.640087,34.640087,6723000
2017-06-12,34.501659,34.678848,34.091915,34.462902,34.462902,4629500
2017-06-13,34.534885,34.983387,34.291252,34.784054,34.784054,3096500
2017-06-14,35.022148,35.055370,34.152824,34.424141,34.424141,2060600
2017-06-15,34.197121,34.285713,33.648949,34.246956,34.246956,3584100
2017-06-16,34.246956,34.507198,34.246956,34.396458,34.396458,3248600
2017-06-19,34.606865,34.977852,34.496124,34.700996,34.700996,1418900
2017-06-20,34.734219,34.811737,34.396458,34.457363,34.457363,1603300
2017-06-21,34.734219,35.188263,34.706535,35.060909,35.060909,1938000
2017-06-22,35.188263,35.498341,35.060909,35.193798,35.193798,1537800
2017-06-23,35.116280,35.625690,35.066444,35.227020,35.227020,11672300
2017-06-26,35.321152,35.631229,35.049835,35.132889,35.132889,1798700
2017-06-27,35.077518,35.105206,34.296787,34.318935,34.318935,2991800
2017-06-28,34.496124,34.828350,34.291252,34.717609,34.717609,2936000
2017-06-29,34.490585,34.579182,33.372093,33.665558,33.665558,3267900
2017-06-30,33.676632,34.008858,33.660023,33.837208,33.837208,1419600
2017-07-03,33.848282,34.313400,33.421928,33.421928,33.421928,1215200
2017-07-05,33.377628,33.776302,33.183830,33.665558,33.665558,1683900
2017-07-06,33.399780,33.726467,33.316723,33.687706,33.687706,2381300
2017-07-07,33.748615,34.186047,33.698780,34.058693,34.058693,1007000
2017-07-10,34.086380,34.169434,33.803986,34.053158,34.053158,1256600
2017-07-11,34.025471,34.324474,33.842747,34.064232,34.064232,1935100
2017-07-12,34.291252,34.291252,33.942413,34.102989,34.102989,1856900
2017-07-13,34.102989,34.180508,33.831673,33.942413,33.942413,1391500
2017-07-14,33.953487,34.053158,33.831673,33.887043,33.887043,754500
2017-07-17,33.942413,34.889259,33.765228,34.833885,34.833885,2028600
2017-07-18,34.712070,34.833885,34.540421,34.734219,34.734219,1474000
2017-07-19,34.795128,35.265781,34.717609,35.232559,35.232559,3412600
2017-07-20,35.415283,35.454041,35.171650,35.404209,35.404209,1419300
2017-07-21,35.409744,35.459579,35.088593,35.232559,35.232559,1112800
2017-07-24,35.215946,35.354374,35.110741,35.254707,35.254707,1038600
2017-07-25,35.287930,35.542637,35.049835,35.276855,35.276855,1109200
2017-07-26,35.470654,35.548172,35.276855,35.448505,35.448505,1634200
2017-07-27,35.548172,35.548172,34.889259,35.177189,35.177189,1133000
2017-07-28,35.055370,35.348839,34.905869,35.282391,35.282391,807100
2017-07-31,35.437431,35.736435,35.382061,35.586933,35.586933,1254600
2017-08-01,35.736435,35.786266,35.415283,35.697674,35.697674,1040400
2017-08-02,35.708748,35.708748,35.121815,35.354374,35.354374,1347600
2017-08-03,35.265781,35.503876,35.138428,35.442966,35.442966,663500
2017-08-04,35.553711,35.736435,35.470654,35.653378,35.653378,792800
2017-08-07,35.553711,35.819492,35.415283,35.686600,35.686600,742900
2017-08-08,35.559246,35.874863,35.398670,35.686600,35.686600,938000
2017-08-09,35.354374,35.620155,35.215946,35.503876,35.503876,950600
2017-08-10,35.382061,35.437431,34.944630,34.977852,34.977852,869500
2017-08-11,34.839424,35.066444,34.734219,34.905869,34.905869,1422700
2017-08-14,35.935768,37.735325,35.935768,37.508305,37.508305,5160200
2017-08-15,37.519379,37.607975,36.644520,36.661129,36.661129,1484700
2017-08-16,36.666668,37.419712,36.638981,37.220375,37.220375,1059700
2017-08-17,37.004429,37.452934,36.755260,36.766335,36.766335,836100
2017-08-18,36.683277,37.093021,36.506092,36.993355,36.993355,692200
2017-08-21,36.965672,37.209301,36.589146,37.137321,37.137321,1472200
2017-08-22,37.674419,38.189369,37.558140,38.045403,38.045403,1975200
2017-08-23,37.729790,38.333332,37.729790,38.316723,38.316723,1547200
2017-08-24,38.333332,38.820599,38.333332,38.715393,38.715393,1523700
2017-08-25,39.324474,40.199337,39.230343,39.723145,39.723145,4350200
2017-08-28,39.700996,40.509415,39.584717,40.310078,40.310078,1800000
2017-08-29,40.077518,40.575859,39.529346,40.387596,40.387596,1354500
2017-08-30,40.470654,41.140644,40.415283,41.101883,41.101883,1830500
2017-08-31,41.229237,41.528240,41.135105,41.489479,41.489479,2223000
2017-09-01,41.517166,41.566998,41.223698,41.395348,41.395348,2462400
2017-09-05,41.179401,41.583611,40.924694,41.417496,41.417496,2688200
2017-09-06,41.528240,41.605759,41.339977,41.351051,41.351051,3790600
2017-09-07,41.251385,41.716499,41.129570,41.234772,41.234772,3710200
2017-09-08,41.184940,41.672203,41.085270,41.118492,41.118492,2144800
2017-09-11,41.594685,41.866001,41.450718,41.782948,41.782948,2712700
2017-09-12,41.805096,42.231449,41.683277,42.220375,42.220375,2057700
2017-09-13,42.225914,42.596901,42.159470,42.486156,42.486156,2380400
2017-09-14,42.480621,43.017719,42.403099,42.834995,42.834995,2820000
2017-09-15,42.779625,42.868217,42.547066,42.624584,42.624584,6240800
2017-09-18,42.541527,42.873753,42.408638,42.552601,42.552601,1781900
2017-09-19,42.624584,42.768551,42.297897,42.535992,42.535992,1699000
2017-09-20,42.519379,42.718716,42.375416,42.541527,42.541527,2886500
2017-09-21,42.403099,42.702103,41.915836,42.414173,42.414173,1349600
2017-09-22,42.436325,42.641197,42.325581,42.641197,42.641197,1595700
2017-09-25,42.480621,42.607975,41.849392,42.043190,42.043190,2629300
2017-09-26,42.358803,42.403099,42.043190,42.148396,42.148396,4095100
2017-09-27,42.364342,42.934662,42.364342,42.702103,42.702103,2340500
2017-09-28,42.691029,42.823921,42.397564,42.718716,42.718716,1991600
2017-09-29,42.807308,42.967884,42.668880,42.751938,42.751938,2041500
2017-10-02,42.768551,43.427464,42.763012,43.156147,43.156147,2588900
2017-10-03,43.183830,43.565891,43.133999,43.338871,43.338871,2179800
2017-10-04,43.344406,43.433002,43.034328,43.311184,43.311184,2093300
2017-10-05,43.466225,43.842747,43.327797,43.765228,43.765228,2435900
2017-10-06,43.549282,43.776302,43.377628,43.765228,43.765228,2449400
2017-10-09,43.815060,44.031006,43.743080,43.887043,43.887043,1326300
2017-10-10,44.042084,44.191582,43.671097,43.787376,43.787376,1714900
2017-10-11,43.792912,44.019932,43.671097,43.942413,43.942413,2131200
2017-10-12,44.008858,44.551495,43.986710,44.457363,44.457363,2078700
2017-10-13,44.584717,44.828350,44.462902,44.673309,44.673309,1657100
2017-10-16,44.723145,45.121815,44.678848,44.905869,44.905869,2080500
2017-10-17,44.933556,45.099667,44.745293,44.844963,44.844963,1670300
2017-10-18,44.928017,45.238094,44.905869,45.044296,45.044296,3984200
2017-10-19,45.000000,45.265781,44.806202,45.204872,45.204872,2846900
2017-10-20,45.404209,45.681065,45.304539,45.537098,45.537098,2068200
2017-10-23,45.636765,46.052048,45.625690,45.797340,45.797340,2072500
2017-10-24,45.775192,46.096344,45.697674,46.096344,46.096344,1869700
2017-10-25,45.863789,46.151718,45.465115,45.736435,45.736435,2419300
2017-10-26,45.819492,46.068661,45.747509,45.941307,45.941307,1433400
2017-10-27,46.101883,46.500553,45.880398,46.445183,46.445183,1754100
2017-10-30,46.406422,46.445183,45.908085,46.040974,46.040974,1391100
2017-10-31,46.074196,46.135105,45.636765,45.830566,45.830566,3705100
2017-11-01,46.135105,46.135105,45.426357,45.625690,45.625690,2009700
2017-11-02,45.514950,45.531563,44.972313,45.326691,45.326691,1901800
2017-11-03,45.227020,45.321152,44.551495,44.778515,44.778515,1755400
2017-11-06,44.850498,45.531563,44.795128,45.138428,45.138428,2382200
2017-11-07,45.271317,45.780731,45.254707,45.669991,45.669991,1706400
2017-11-08,45.454041,45.863789,45.332226,45.575859,45.575859,1543900
2017-11-09,45.088593,45.509415,44.662235,45.337765,45.337765,2196000
2017-11-10,45.221485,45.736435,45.193798,45.725361,45.725361,1387700
2017-11-13,45.343300,45.631229,45.094131,45.299004,45.299004,1906200
2017-11-14,45.182724,45.365448,45.016613,45.121815,45.121815,2055200
2017-11-15,44.806202,44.922482,44.119602,44.446289,44.446289,2809500
2017-11-16,44.717609,45.404209,44.673309,45.033222,45.033222,2282200
2017-11-17,44.950165,45.343300,44.789589,45.121815,45.121815,2021400
2017-11-20,45.116280,45.531563,44.966778,44.994461,44.994461,2250000
2017-11-21,44.994461,45.891472,44.844963,45.531563,45.531563,3370100
2017-11-22,45.470654,45.625690,44.673309,44.734219,44.734219,2676100
2017-11-24,44.739758,45.066444,44.246956,44.822811,44.822811,1517000
2017-11-27,44.916943,45.487267,44.822811,45.354374,45.354374,2913400
2017-11-28,45.487267,45.891472,45.393135,45.714287,45.714287,4107700
2017-11-29,45.653378,45.653378,42.547066,43.183830,43.183830,4304700
2017-11-30,43.493908,43.665558,42.414173,43.322258,43.322258,15288600
2017-12-01,42.967884,45.365448,42.801773,44.274639,44.274639,6995100
2017-12-04,44.401993,44.435215,41.339977,41.467331,41.467331,4315000
2017-12-05,41.290142,41.982281,40.730896,41.234772,41.234772,3106500
2017-12-06,40.974529,41.794022,40.836102,41.561462,41.561462,3967900
2017-12-07,41.982281,42.619049,41.838318,42.021042,42.021042,3630700
2017-12-08,42.541527,43.017719,42.048725,42.774086,42.774086,5191100
2017-12-11,42.890366,43.931339,42.691029,43.903656,43.903656,2195500
2017-12-12,43.765228,44.296787,43.394241,43.881508,43.881508,3856500
2017-12-13,44.053158,44.723145,43.853821,44.401993,44.401993,2950600
2017-12-14,44.745293,44.939091,44.141750,44.163898,44.163898,1961300
2017-12-15,44.418606,44.911407,43.947952,44.844963,44.844963,2869000
2017-12-18,45.116280,46.937984,44.944630,46.937984,46.937984,3800100
2017-12-19,46.777409,46.777409,45.863789,46.146179,46.146179,4245900
2017-12-20,46.456257,46.589146,45.791805,46.151718,46.151718,2864800
2017-12-21,46.140644,46.306755,45.625690,45.703213,45.703213,1527600
2017-12-22,45.609081,45.957916,45.287930,45.448505,45.448505,1856000
2017-12-26,45.293465,45.343300,44.916943,45.060909,45.060909,2712600
2017-12-27,44.977852,45.304539,44.789589,44.994461,44.994461,2083000
2017-12-28,45.038761,45.221485,44.629013,44.867111,44.867111,2524600
2017-12-29,45.049835,45.132889,44.706535,45.005539,45.005539,1593000
2018-01-02,45.143963,45.692139,45.127354,45.642303,45.642303,1202000
2018-01-03,45.719822,46.528240,45.658916,46.124031,46.124031,2888500
2018-01-04,46.184940,47.037651,46.107418,46.943523,46.943523,2504500
2018-01-05,47.065338,47.430786,46.954597,47.286823,47.286823,1254400
2018-01-08,47.115173,47.325581,46.926910,47.275749,47.275749,1876400
2018-01-09,47.342194,47.342194,46.638981,46.666668,46.666668,1403400
2018-01-10,46.400887,46.854927,46.173866,46.849392,46.849392,1225300
2018-01-11,47.347729,48.084164,47.231449,48.078629,48.078629,1649700
2018-01-12,48.100777,48.355480,47.718716,48.034328,48.034328,2777900
2018-01-16,48.300110,48.582504,47.585827,47.668880,47.668880,1252800
2018-01-17,48.073090,48.970100,47.668880,48.787376,48.787376,1386100
2018-01-18,48.765228,49.014397,48.521595,48.942413,48.942413,1735200
2018-01-19,48.875969,49.252491,48.781837,48.997784,48.997784,1553500
2018-01-22,49.036545,49.523811,48.582504,49.241417,49.241417,2406600
2018-01-23,49.097454,49.557034,49.019932,49.341084,49.341084,1501300
2018-01-24,49.280178,49.767441,48.593578,48.931339,48.931339,1430500
2018-01-25,49.163898,49.390919,48.599113,48.970100,48.970100,1399800
2018-01-26,50.625690,51.162792,42.375416,45.813953,45.813953,64480700
2018-01-29,46.511627,47.641197,39.988926,41.417496,41.417496,33350100
2018-01-30,40.642303,40.719822,38.394241,38.803986,38.803986,10927900
2018-01-31,39.241417,40.625690,38.970100,39.700996,39.700996,10807800
2018-02-01,39.440754,40.083057,38.660023,38.898117,38.898117,8460500
2018-02-02,39.291252,40.060909,38.045403,39.258030,39.258030,9875500
2018-02-05,38.848282,39.562569,37.342194,37.419712,37.419712,5958500
2018-02-06,36.544849,37.906979,36.162792,37.225914,37.225914,5635200
2018-02-07,37.159470,38.189369,36.971207,36.971207,36.971207,3641900
2018-02-08,36.965672,37.502769,36.196014,36.334442,36.334442,6213900
2018-02-09,36.849392,37.613510,35.968994,37.264675,37.264675,4668300
2018-02-12,37.419712,38.067554,37.115173,37.668880,37.668880,4135700
2018-02-13,37.375416,38.073090,37.153931,37.818382,37.818382,3234900
2018-02-14,37.602436,38.787376,37.513844,38.687706,38.687706,3162800
2018-02-15,38.981174,39.031006,37.868217,38.222591,38.222591,2280200
2018-02-16,38.205978,39.125137,38.078629,38.643410,38.643410,2158800
2018-02-20,38.338871,38.815060,38.111851,38.660023,38.660023,2686200
2018-02-21,38.759689,39.368771,38.632336,38.715393,38.715393,2342500
2018-02-22,38.936878,39.424141,38.648949,39.069767,39.069767,2852500
2018-02-23,39.385384,39.944630,39.191582,39.745293,39.745293,2375200
2018-02-26,39.939091,40.359913,39.667774,40.083057,40.083057,1492100
2018-02-27,40.227020,40.531563,39.966778,40.276855,40.276855,2019100
2018-02-28,40.902546,41.760796,40.847176,41.135105,41.135105,3525300
2018-03-01,41.018826,42.868217,39.734219,41.733112,41.733112,10307900
2018-03-02,40.332226,41.024364,38.931339,40.786266,40.786266,4363400
2018-03-05,40.564785,41.112957,40.016613,40.974529,40.974529,3404300
2018-03-06,41.151718,41.971207,41.151718,41.860466,41.860466,3129200
2018-03-07,41.605759,42.929127,41.589146,42.801773,42.801773,3936300
2018-03-08,42.923588,44.208195,42.646732,42.868217,42.868217,3589200
2018-03-09,42.929127,43.543743,42.508305,43.455151,43.455151,2311300
2018-03-12,43.576965,43.887043,42.862679,43.067554,43.067554,2433500
2018-03-13,43.139534,43.189369,42.464008,42.823921,42.823921,2565700
2018-03-14,42.912514,43.244740,42.535992,43.089703,43.089703,1662700
2018-03-15,43.189369,43.255814,42.674419,42.978958,42.978958,2078800
2018-03-16,43.133999,43.466225,42.956810,43.167221,43.167221,2218300
2018-03-19,42.945736,43.244740,42.441860,43.172756,43.172756,2080300
2018-03-20,42.918053,43.776302,42.918053,43.322258,43.322258,1563400
2018-03-21,43.294575,43.294575,42.026577,42.081947,42.081947,2113000
2018-03-22,41.771870,41.899223,41.168327,41.229237,41.229237,2652600
2018-03-23,41.207088,42.220375,40.415283,40.498341,40.498341,3585800
2018-03-26,41.173866,41.744186,40.730896,41.600220,41.600220,2014500
2018-03-27,41.871540,42.181618,40.542637,40.797340,40.797340,2164300
2018-03-28,40.786266,40.891472,39.700996,39.922482,39.922482,2750300
2018-03-29,39.961239,40.764118,39.734219,40.537098,40.537098,2602600
2018-04-02,40.586933,40.891472,39.230343,40.177189,40.177189,2077800
2018-04-03,40.282391,40.526024,39.629013,40.321152,40.321152,1587600
2018-04-04,39.700996,40.548172,39.457363,40.404209,40.404209,1231300
2018-04-05,40.714287,40.941307,39.950165,40.315613,40.315613,1387700
2018-04-06,40.077518,40.370987,39.158360,39.473976,39.473976,1466400
2018-04-09,39.590256,40.614616,39.523811,39.811737,39.811737,1303200
2018-04-10,40.448505,40.664452,39.900333,40.304539,40.304539,1318100
2018-04-11,40.177189,40.431892,39.723145,39.828350,39.828350,818800
2018-04-12,39.966778,40.465115,39.867111,40.243633,40.243633,1122200
2018-04-13,40.431892,40.631229,39.883720,40.365448,40.365448,1474000
2018-04-16,41.638981,41.915836,40.121815,41.168327,41.168327,4320100
2018-04-17,41.362125,41.949059,41.068661,41.744186,41.744186,4311400
2018-04-18,42.452934,42.580288,41.722038,41.965672,41.965672,3190800
2018-04-19,41.677742,41.893688,40.714287,40.919159,40.919159,1979500
2018-04-20,40.642303,41.013290,39.800663,40.238094,40.238094,3461500
2018-04-23,40.343300,40.581394,40.049835,40.470654,40.470654,2004600
2018-04-24,40.636765,40.974529,39.889259,40.105206,40.105206,2189200
2018-04-25,39.889259,40.260242,39.263565,39.745293,39.745293,1209400
2018-04-26,39.905869,40.559246,39.772980,40.404209,40.404209,1086600
2018-04-27,40.586933,40.891472,40.171650,40.210411,40.210411,1272600
2018-04-30,40.232559,40.448505,39.318935,39.739758,39.739758,1943600
2018-05-01,39.568108,39.911407,39.130676,39.540421,39.540421,1857100
2018-05-02,39.468437,39.590256,38.970100,39.147285,39.147285,2085000
2018-05-03,39.191582,39.490585,38.277962,39.424141,39.424141,2534700
2018-05-04,39.241417,40.725361,39.080841,40.393135,40.393135,1518600
2018-05-07,40.420818,41.029900,40.038761,40.138428,40.138428,1042900
2018-05-08,40.155037,40.155037,39.335548,39.872646,39.872646,2706600
2018-05-09,40.022148,40.780731,39.905869,40.265781,40.265781,2751200
2018-05-10,40.370987,41.755260,40.343300,41.356590,41.356590,2372900
2018-05-11,41.334442,41.351051,40.891472,41.151718,41.151718,1729200
2018-05-14,41.356590,41.555923,40.426357,40.786266,40.786266,1538100
2018-05-15,40.370987,41.118492,40.160576,40.930233,40.930233,1579700
2018-05-16,40.974529,41.423035,40.470654,41.096344,41.096344,1500600
2018-05-17,40.775192,41.788483,40.775192,41.151718,41.151718,1647200
2018-05-18,42.153931,44.651161,42.037651,43.637875,43.637875,11856900
2018-05-21,43.809525,44.800663,43.466225,44.557034,44.557034,6976500
2018-05-22,44.429680,44.817276,43.565891,44.723145,44.723145,3281100
2018-05-23,44.540421,45.404209,44.191582,45.343300,45.343300,4074300
2018-05-24,45.382061,45.897011,45.005539,45.775192,45.775192,2508300
2018-05-25,45.741970,45.919159,45.348839,45.415283,45.415283,1783700
2018-05-29,45.293465,45.293465,44.529346,44.601330,44.601330,2479600
2018-05-30,44.955704,45.182724,44.252491,44.872646,44.872646,3495500
2018-05-31,44.889259,45.011074,44.302326,44.662235,44.662235,6935200
2018-06-01,45.686600,47.552601,45.686600,46.982281,46.982281,6836600
2018-06-04,47.392025,47.884827,45.924694,47.081947,47.081947,3840800
2018-06-05,47.198227,48.045403,46.794022,47.978958,47.978958,3697700
2018-06-06,48.023254,48.438538,47.890366,48.366554,48.366554,3838100
2018-06-07,48.383167,48.770763,48.006645,48.759689,48.759689,2611600
2018-06-08,48.726467,49.102989,48.128460,48.909191,48.909191,2463500
2018-06-11,48.892582,48.892582,48.233665,48.527130,48.527130,1315300
2018-06-12,48.527130,48.709858,47.751938,48.012180,48.012180,1695100
2018-06-13,48.172756,48.975636,47.751938,48.676632,48.676632,3358000
2018-06-14,48.809525,49.457363,48.255814,48.676632,48.676632,2237400
2018-06-15,48.527130,49.197121,48.255814,48.942413,48.942413,2714500
2018-06-18,48.444077,49.617939,48.172756,49.595791,49.595791,2404500
2018-06-19,48.959026,49.335548,48.383167,49.280178,49.280178,1545700
2018-06-20,49.335548,50.310078,49.335548,49.390919,49.390919,2202500
2018-06-21,49.468437,49.640087,48.792912,49.330009,49.330009,3067100
2018-06-22,49.147285,49.900333,48.073090,49.158360,49.158360,5832400
2018-06-25,49.019932,49.152824,47.126247,47.596901,47.596901,1591400
2018-06-26,47.691029,48.084164,47.380951,47.873753,47.873753,1917000
2018-06-27,48.050941,48.133999,46.472870,46.511627,46.511627,1474900
2018-06-28,46.483944,47.358803,46.240311,47.214840,47.214840,1972100
2018-06-29,47.336655,47.967884,46.832779,46.832779,46.832779,1471300
2018-07-02,52.430786,52.452934,49.867111,51.052048,51.052048,29201300
2018-07-03,51.561462,52.702103,51.450718,52.508305,52.508305,8479700
2018-07-05,52.602436,52.602436,51.760796,51.965672,51.965672,6477500
2018-07-06,51.949059,52.043190,51.362125,51.683277,51.683277,2446400
2018-07-09,52.275749,52.286823,51.384274,51.843853,51.843853,4536800
2018-07-10,52.375416,53.239204,51.782948,52.253597,52.253597,5187000
2018-07-11,51.771870,52.297897,51.766335,52.098560,52.098560,2554900
2018-07-12,52.236988,52.807308,52.148396,52.668880,52.668880,1865200
2018-07-13,52.668880,52.785160,52.131783,52.547066,52.547066,1836700
2018-07-16,52.729790,52.967884,52.414173,52.480621,52.480621,2227100
2018-07-17,52.104099,52.685493,52.087486,52.524918,52.524918,2534300
2018-07-18,52.524918,52.674419,52.347729,52.641197,52.641197,2611400
2018-07-19,52.519379,52.602436,52.104099,52.458473,52.458473,2039800
2018-07-20,52.480621,52.541527,52.209301,52.225914,52.225914,2342700
2018-07-23,52.120708,52.170544,51.605759,51.838318,51.838318,3111000
2018-07-24,51.987820,52.142857,51.284607,51.550388,51.550388,2003000
2018-07-25,51.600220,51.937984,51.411961,51.937984,51.937984,943000
2018-07-26,51.461796,52.392025,51.445183,52.270210,52.270210,2848000
2018-07-27,52.065338,52.231449,51.744186,51.866001,51.866001,2313800
2018-07-30,51.705425,51.810631,50.980068,51.334442,51.334442,3145800
2018-07-31,51.339977,51.677742,51.090809,51.229237,51.229237,2753900
2018-08-01,51.229237,51.710964,51.173866,51.339977,51.339977,2923300
2018-08-02,51.218163,51.644520,51.218163,51.517166,51.517166,1634000
2018-08-03,51.583611,51.705425,51.157253,51.544849,51.544849,2012200
2018-08-06,51.417496,51.910297,51.417496,51.738647,51.738647,1672100
2018-08-07,52.065338,52.364342,51.633446,51.882614,51.882614,1818100
2018-08-08,51.971207,52.231449,51.733112,52.131783,52.131783,1440800
2018-08-09,52.314507,52.696568,52.109634,52.452934,52.452934,1074000
2018-08-10,51.954597,52.657806,51.877075,52.342194,52.342194,1248300
2018-08-13,52.314507,52.641197,51.893688,52.048725,52.048725,1578800
2018-08-14,52.104099,52.585827,51.949059,52.524918,52.524918,1350100
2018-08-15,52.292358,52.635658,52.048725,52.425251,52.425251,2515900
2018-08-16,52.951275,53.172756,52.524918,52.923588,52.923588,2704400
2018-08-17,52.751938,53.089703,52.541527,52.607975,52.607975,1509400
2018-08-20,52.630123,52.834995,52.502769,52.619049,52.619049,2038900
2018-08-21,52.740864,52.951275,52.558140,52.657806,52.657806,2497100
2018-08-22,52.713177,53.117386,52.657806,53.006645,53.006645,4578500
2018-08-23,53.062016,53.183830,52.707642,52.774086,52.774086,4004600
2018-08-24,52.674419,53.084164,52.369877,52.790699,52.790699,3742700
2018-08-27,53.156147,53.200443,52.713177,52.829456,52.829456,2247900
2018-08-28,52.918053,52.956810,52.286823,52.746403,52.746403,2483000
2018-08-29,52.857143,53.416389,52.785160,53.194904,53.194904,2540600
2018-08-30,52.978958,53.676632,52.929127,53.504982,53.504982,1679700
2018-08-31,53.399780,53.765228,53.056477,53.250278,53.250278,1666500
2018-09-04,53.194904,53.433002,52.663345,53.239204,53.239204,2633300
2018-09-05,53.056477,53.482834,52.646732,52.984497,52.984497,2005900
2018-09-06,52.984497,53.588039,52.857143,53.089703,53.089703,2195700
2018-09-07,52.879292,53.405315,52.718716,53.300110,53.300110,2021000
2018-09-10,53.488373,53.709858,53.228130,53.626801,53.626801,2762600
2018-09-11,53.438538,53.754154,53.311184,53.543743,53.543743,1846800
2018-09-12,53.433002,54.025471,53.205978,53.837208,53.837208,2604000
2018-09-13,53.687706,54.086380,53.516056,53.903656,53.903656,5723900
2018-09-14,53.959026,54.828350,53.931339,54.623478,54.623478,2521700
2018-09-17,54.562569,54.695461,53.798450,53.887043,53.887043,2287100
2018-09-18,53.776302,54.413067,53.361019,53.366554,53.366554,3257800
2018-09-19,53.421928,53.421928,52.502769,52.857143,52.857143,2898000
2018-09-20,53.067554,53.255814,52.713177,53.133999,53.133999,2280900
2018-09-21,53.433002,53.433002,52.923588,53.266888,53.266888,4621000
2018-09-24,53.100777,53.311184,52.170544,53.266888,53.266888,5587200
2018-09-25,53.538204,53.709858,53.294575,53.682171,53.682171,3067800
2018-09-26,53.776302,53.864895,53.261353,53.493908,53.493908,2444000
2018-09-27,53.433002,53.870430,53.361019,53.848282,53.848282,2256400
2018-09-28,53.732006,53.914730,53.460686,53.776302,53.776302,2388600
2018-10-01,53.809525,54.174973,53.466225,53.549282,53.549282,1287600
2018-10-02,53.560356,53.859356,53.333332,53.576965,53.576965,3348300
2018-10-03,53.770763,53.986710,53.156147,53.493908,53.493908,2591900
2018-10-04,53.826134,53.826134,53.111851,53.538204,53.538204,3574600
2018-10-05,53.809525,54.202660,52.962349,53.687706,53.687706,4725700
2018-10-08,53.333332,53.765228,52.535992,52.906979,52.906979,3729500
2018-10-09,52.757477,53.205978,51.633446,52.369877,52.369877,7319800
2018-10-10,52.447399,52.447399,51.007751,51.201550,51.201550,4839800
2018-10-11,51.201550,51.600220,50.321152,50.797340,50.797340,3628700
2018-10-12,51.661129,52.386490,51.262459,52.325581,52.325581,3063300
2018-10-15,53.156147,53.676632,52.347729,52.602436,52.602436,4747600
2018-10-16,52.829456,53.300110,52.486156,52.967884,52.967884,2765700
2018-10-17,53.117386,53.156147,52.187153,52.657806,52.657806,2306400
2018-10-18,52.591362,52.751938,52.070873,52.320045,52.320045,3124500
2018-10-19,52.425251,52.740864,51.683277,51.926910,51.926910,3492800
2018-10-22,52.176079,52.823921,51.832779,52.441860,52.441860,2650400
2018-10-23,51.777409,51.971207,50.836102,51.423035,51.423035,2476200
2018-10-24,51.262459,51.411961,49.750832,49.750832,49.750832,4276200
2018-10-25,50.243633,50.736435,49.750832,50.304539,50.304539,2189700
2018-10-26,49.307861,49.916943,48.726467,48.986710,48.986710,2948100
2018-10-29,49.778515,50.382061,47.480621,48.039867,48.039867,2205600
2018-10-30,48.172756,49.180508,48.045403,49.102989,49.102989,1902200
2018-10-31,49.728683,50.498341,49.728683,50.049835,50.049835,2300800
2018-11-01,50.326691,51.184940,50.110741,50.476189,50.476189,3505000
2018-11-02,50.747509,50.858250,49.562569,50.487267,50.487267,1399600
2018-11-05,50.753044,50.863789,49.595791,50.780731,50.780731,1941800
2018-11-06,50.725361,51.345516,50.448505,50.996677,50.996677,890500
2018-11-07,52.602436,54.595791,52.292358,54.186047,54.186047,4673700
2018-11-08,54.208195,55.038761,53.909191,54.772980,54.772980,1782500
2018-11-09,54.446289,54.739758,53.588039,54.291252,54.291252,2432600
2018-11-12,54.280178,54.822811,53.233665,54.540421,54.540421,2502200
2018-11-13,54.695461,57.364342,54.346622,56.240311,56.240311,7859100
2018-11-14,57.142857,58.720932,55.952381,58.521595,58.521595,10980800
2018-11-15,59.042084,59.368771,57.862679,58.172756,58.172756,25505900
2018-11-16,58.289036,58.383167,57.807308,57.846069,57.846069,8098600
2018-11-19,57.840530,58.078629,56.866001,57.198227,57.198227,8313700
2018-11-20,56.550388,57.159470,56.284607,56.832779,56.832779,5566900
2018-11-21,57.098560,57.270210,56.373199,57.026577,57.026577,3044000
2018-11-23,56.644520,57.912514,56.638981,57.541527,57.541527,3166000
2018-11-26,58.100777,58.521595,58.089703,58.488373,58.488373,7039700
2018-11-27,58.305649,58.399780,57.840530,57.951275,57.951275,3224600
2018-11-28,58.338871,59.169434,57.967884,59.025471,59.025471,7001800
2018-11-29,58.477299,59.158360,58.139534,58.693245,58.693245,5877800
2018-11-30,59.246956,59.291252,57.901440,58.405315,58.405315,11128700
2018-12-03,58.881508,59.080841,57.990032,58.433002,58.433002,6424600
2018-12-04,58.139534,58.344406,57.259136,57.840530,57.840530,6375900
2018-12-06,57.502769,58.521595,57.281284,58.477299,58.477299,8668800
2018-12-07,58.333332,58.593578,57.308971,57.585827,57.585827,6578700
2018-12-10,57.718716,58.039867,56.926910,57.646732,57.646732,6236400
2018-12-11,58.305649,58.693245,57.547066,57.990032,57.990032,7337500
2018-12-12,58.803986,58.826134,58.001106,58.145073,58.145073,7212200
2018-12-13,58.250278,58.682171,57.956810,58.416389,58.416389,6851600
2018-12-14,58.084164,58.643410,58.084164,58.576965,58.576965,7095000
2018-12-17,58.471760,58.543743,58.034328,58.183830,58.183830,8284400
2018-12-18,58.416389,58.964561,58.084164,58.615726,58.615726,10356100
2018-12-19,58.693245,59.191582,57.923588,58.056477,58.056477,10930200
2018-12-20,58.189369,58.493908,56.644520,57.259136,57.259136,10987800
2018-12-21,57.297897,57.541527,55.542637,56.882614,56.882614,15194400
2018-12-24,45.127354,45.703213,41.583611,44.573643,44.573643,3756200
2018-12-26,43.870430,44.950165,43.665558,44.922482,44.922482,2836100
2018-12-27,44.601330,45.182724,43.881508,44.296787,44.296787,3467300
2018-12-28,46.000000,46.500000,44.770000,45.430000,45.430000,4501300
2018-12-31,45.500000,48.869999,45.500000,48.869999,48.869999,5818500
2019-01-02,48.230000,49.099998,46.060001,47.119999,47.119999,6108700
2019-01-03,46.560001,47.000000,44.779999,45.130001,45.130001,6902600
2019-01-04,45.660000,46.959999,44.860001,46.020000,46.020000,8906800
2019-01-07,45.930000,47.380001,45.529999,46.320000,46.320000,4925800
2019-01-08,47.139999,47.820000,46.389999,46.869999,46.869999,7286300
2019-01-09,47.070000,47.389999,46.779999,46.939999,46.939999,3299500
2019-01-10,46.939999,47.389999,44.900002,45.189999,45.189999,3563500
2019-01-11,44.950001,45.720001,44.400002,44.470001,44.470001,2699900
2019-01-14,44.070000,44.250000,42.759998,42.799999,42.799999,3665700
2019-01-15,43.049999,43.700001,42.480000,43.009998,43.009998,2828800
2019-01-16,42.799999,43.209999,42.020000,42.619999,42.619999,2457800
2019-01-17,42.709999,43.720001,42.570000,43.709999,43.709999,3542400
2019-01-18,43.779999,43.790001,43.110001,43.349998,43.349998,3256500
2019-01-22,43.880001,44.650002,43.310001,44.060001,44.060001,3170900
2019-01-23,45.180000,45.889999,44.419998,44.619999,44.619999,3151600
2019-01-24,44.910000,45.139999,44.209999,44.959999,44.959999,3551900
2019-01-25,45.230000,46.000000,45.220001,45.910000,45.910000,2618200
2019-01-28,45.900002,47.389999,45.619999,46.900002,46.900002,5951200
2019-01-29,47.099998,47.330002,46.500000,46.849998,46.849998,3558700
2019-01-30,47.349998,48.000000,47.160000,48.000000,48.000000,3981600
2019-01-31,47.830002,49.500000,47.709999,48.590000,48.590000,3741100
2019-02-01,48.980000,49.750000,48.500000,49.650002,49.650002,1816200
2019-02-04,50.009998,51.810001,50.009998,50.830002,50.830002,3190400
2019-02-05,51.270000,51.599998,50.639999,51.070000,51.070000,2754700
2019-02-06,51.150002,51.910000,50.840000,50.939999,50.939999,2836200
2019-02-07,50.599998,50.810001,49.779999,50.439999,50.439999,1782400
2019-02-08,50.049999,51.590000,49.650002,51.490002,51.490002,1793800
2019-02-11,51.869999,52.070000,51.049999,52.020000,52.020000,2720100
2019-02-12,52.419998,53.790001,52.209999,53.599998,53.599998,3379000
2019-02-13,53.900002,54.619999,53.380001,53.950001,53.950001,1776100
2019-02-14,53.680000,54.590000,53.520000,54.380001,54.380001,2599100
2019-02-15,54.790001,55.889999,54.000000,55.000000,55.000000,2295800
2019-02-19,55.090000,55.480000,54.549999,55.040001,55.040001,1257400
2019-02-20,55.270000,55.799999,54.630001,55.540001,55.540001,1382100
2019-02-21,55.560001,56.080002,55.279999,55.540001,55.540001,1943300
2019-02-22,55.830002,56.180000,55.549999,56.180000,56.180000,1847300
2019-02-25,56.459999,56.910000,56.310001,56.639999,56.639999,2337600
2019-02-26,56.299999,57.110001,55.619999,56.730000,56.730000,2341200
2019-02-27,56.540001,56.799999,56.189999,56.250000,56.250000,1690800
2019-02-28,56.200001,56.500000,55.169998,55.820000,55.820000,4132100
2019-03-01,57.680000,58.990002,56.189999,56.650002,56.650002,3514800
2019-03-04,57.070000,57.139999,54.500000,55.340000,55.340000,2978200
2019-03-05,55.250000,55.840000,54.459999,55.119999,55.119999,2788800
2019-03-06,54.820000,54.820000,52.849998,53.730000,53.730000,2515300
2019-03-07,53.619999,54.410000,52.820000,53.130001,53.130001,1851100
2019-03-08,52.580002,52.790001,51.580002,52.349998,52.349998,1914200
2019-03-11,52.400002,54.230000,52.259998,54.150002,54.150002,1782500
2019-03-12,54.240002,55.450001,54.180000,54.700001,54.700001,2481500
2019-03-13,55.150002,55.560001,54.759998,54.950001,54.950001,2069900
2019-03-14,56.000000,58.000000,55.689999,57.180000,57.180000,3869000
2019-03-15,57.930000,60.270000,57.900002,60.230000,60.230000,5696300
2019-03-18,60.349998,61.160000,59.740002,60.490002,60.490002,2664300
2019-03-19,61.000000,61.180000,60.320000,60.439999,60.439999,2018100
2019-03-20,60.380001,60.759998,59.250000,59.630001,59.630001,2600600
2019-03-21,59.490002,60.939999,59.400002,60.709999,60.709999,1650800
2019-03-22,59.900002,61.169998,59.509998,59.549999,59.549999,1505500
2019-03-25,59.500000,59.500000,57.119999,57.290001,57.290001,1880300
2019-03-26,57.919998,58.980000,57.380001,58.889999,58.889999,1788100
2019-03-27,59.009998,59.889999,57.430000,57.540001,57.540001,1839200
2019-03-28,57.459999,57.889999,56.660000,56.919998,56.919998,1724900
2019-03-29,57.220001,58.790001,57.150002,58.689999,58.689999,1899100
2019-04-01,59.779999,60.439999,59.520000,60.430000,60.430000,1785800
2019-04-02,60.209999,61.310001,59.740002,61.270000,61.270000,2355600
2019-04-03,61.259998,61.650002,60.650002,61.590000,61.590000,2100200
2019-04-04,61.520000,61.590000,59.220001,60.340000,60.340000,2160000
2019-04-05,60.439999,62.389999,60.439999,62.200001,62.200001,2204600
2019-04-08,62.160000,62.660000,61.459999,62.490002,62.490002,1336800
2019-04-09,62.290001,62.400002,61.310001,61.730000,61.730000,1282600
2019-04-10,61.779999,63.630001,61.740002,63.290001,63.290001,1678200
2019-04-11,63.470001,63.869999,62.759998,63.860001,63.860001,1947900
2019-04-12,64.040001,64.580002,63.169998,63.509998,63.509998,1205500
2019-04-15,63.599998,63.970001,63.070000,63.880001,63.880001,1161200
2019-04-16,64.360001,64.449997,62.680000,62.790001,62.790001,1125600
2019-04-17,63.110001,63.500000,62.509998,62.750000,62.750000,1033800
2019-04-18,62.740002,62.990002,61.919998,62.849998,62.849998,1047600
2019-04-22,62.779999,63.250000,62.520000,63.250000,63.250000,1080700
2019-04-23,63.220001,65.239998,63.090000,65.000000,65.000000,1540500
2019-04-24,64.980003,66.449997,64.760002,66.250000,66.250000,1549900
2019-04-25,66.199997,67.209999,65.620003,67.000000,67.000000,1617200
2019-04-26,66.059998,66.650002,64.779999,65.360001,65.360001,1529700
2019-04-29,65.400002,65.779999,65.019997,65.550003,65.550003,1241300
2019-04-30,65.650002,67.500000,65.650002,67.410004,67.410004,1209200
2019-05-01,67.900002,69.199997,67.410004,68.580002,68.580002,2084500
2019-05-02,68.440002,68.949997,66.440002,68.139999,68.139999,1964500
2019-05-03,68.730003,69.300003,68.250000,68.699997,68.699997,942800
2019-05-06,67.239998,68.510002,67.089996,68.190002,68.190002,674700
2019-05-07,67.550003,68.279999,66.220001,67.489998,67.489998,1419300
2019-05-08,67.040001,67.300003,66.510002,67.099998,67.099998,1024900
2019-05-09,66.050003,67.290001,65.650002,67.089996,67.089996,1386900
2019-05-10,66.769997,67.389999,65.550003,67.160004,67.160004,715700
2019-05-13,65.089996,65.900002,63.700001,64.040001,64.040001,2626100
2019-05-14,64.260002,66.730003,64.099998,66.150002,66.150002,992600
2019-05-15,65.660004,68.269997,65.500000,67.900002,67.900002,1039700
2019-05-16,68.050003,70.230003,67.910004,69.800003,69.800003,1034900
2019-05-17,68.989998,70.550003,68.510002,69.430000,69.430000,1489300
2019-05-20,68.589996,68.959999,67.080002,68.000000,68.000000,1343200
2019-05-21,68.919998,70.150002,68.419998,69.650002,69.650002,1176900
2019-05-22,70.260002,70.389999,68.669998,69.000000,69.000000,1567300
2019-05-23,67.639999,67.639999,64.550003,65.699997,65.699997,3143700
2019-05-24,66.019997,67.190002,65.300003,66.120003,66.120003,1893400
2019-05-28,66.180000,67.870003,66.000000,66.410004,66.410004,1789600
2019-05-29,65.779999,66.220001,64.699997,66.199997,66.199997,2412400
2019-05-30,66.519997,67.309998,65.519997,66.410004,66.410004,2084700
2019-05-31,60.660000,62.160000,57.110001,59.549999,59.549999,7917000
2019-06-03,59.400002,59.529999,55.450001,55.860001,55.860001,3226400
2019-06-04,56.990002,57.759998,55.930000,57.680000,57.680000,2573500
2019-06-05,57.790001,58.049999,53.759998,54.500000,54.500000,3744700
2019-06-06,54.950001,55.029999,52.119999,53.230000,53.230000,3874500
2019-06-07,53.400002,55.150002,53.009998,54.299999,54.299999,2291200
2019-06-10,54.810001,55.529999,54.029999,54.200001,54.200001,1854800
2019-06-11,54.470001,54.889999,53.590000,54.340000,54.340000,1776700
2019-06-12,54.209999,54.919998,52.950001,53.029999,53.029999,1280800
2019-06-13,52.990002,54.020000,52.520000,53.830002,53.830002,2066800
2019-06-14,52.950001,53.509998,50.759998,51.320000,51.320000,1842100
2019-06-17,51.490002,51.669998,50.570000,50.630001,50.630001,1671800
2019-06-18,51.200001,52.650002,50.910000,51.509998,51.509998,2276200
2019-06-19,52.009998,53.549999,51.549999,53.419998,53.419998,2112300
2019-06-20,55.000000,57.259998,53.320000,54.410000,54.410000,2503500
2019-06-21,54.070000,54.610001,53.500000,53.990002,53.990002,2521000
2019-06-24,53.990002,54.299999,53.060001,53.299999,53.299999,1816900
2019-06-25,53.299999,53.869999,52.200001,52.310001,52.310001,2297100
2019-06-26,52.959999,53.750000,52.779999,53.230000,53.230000,965800
2019-06-27,52.450001,52.860001,50.570000,52.209999,52.209999,4849800
2019-06-28,52.660000,52.759998,50.650002,50.799999,50.799999,7041900
2019-07-01,52.209999,52.240002,51.240002,51.560001,51.560001,3539500
2019-07-02,51.220001,52.189999,50.599998,52.180000,52.180000,2521000
2019-07-03,51.869999,52.959999,51.230000,52.919998,52.919998,2605400
2019-07-05,52.130001,52.650002,51.790001,52.369999,52.369999,2093700
2019-07-08,51.799999,52.080002,50.980000,51.290001,51.290001,3000100
2019-07-09,50.959999,51.330002,50.630001,51.099998,51.099998,2685500
2019-07-10,51.529999,53.000000,51.139999,52.290001,52.290001,4608300
2019-07-11,52.259998,53.480000,52.169998,53.480000,53.480000,2988000
2019-07-12,53.849998,54.330002,53.230000,53.779999,53.779999,3657900
2019-07-15,54.000000,55.279999,53.950001,55.220001,55.220001,4029900
2019-07-16,55.520000,56.990002,55.130001,56.009998,56.009998,3607900
2019-07-17,56.000000,56.520000,55.369999,56.500000,56.500000,1801500
2019-07-18,56.240002,57.790001,55.759998,57.389999,57.389999,2211400
2019-07-19,57.950001,59.169998,56.599998,56.799999,56.799999,2994700
2019-07-22,57.060001,57.380001,56.389999,56.419998,56.419998,1657300
2019-07-23,56.700001,56.700001,54.639999,55.459999,55.459999,2300600
2019-07-24,55.169998,56.330002,55.169998,56.220001,56.220001,1450000
2019-07-25,56.320000,56.660000,54.770000,55.070000,55.070000,1872200
2019-07-26,55.130001,55.490002,54.790001,55.279999,55.279999,1656700
2019-07-29,55.820000,56.240002,54.450001,55.970001,55.970001,1942700
2019-07-30,55.730000,57.389999,55.480000,57.230000,57.230000,2043300
2019-07-31,57.279999,57.990002,56.570000,57.740002,57.740002,2731600
2019-08-01,57.939999,59.150002,57.299999,57.689999,57.689999,2519300
2019-08-02,54.849998,55.500000,51.450001,52.410000,52.410000,10527200
2019-08-05,51.009998,51.090000,48.279999,50.419998,50.419998,5672900
2019-08-06,50.910000,51.520000,49.450001,50.770000,50.770000,3671800
2019-08-07,49.889999,50.580002,49.270000,50.380001,50.380001,1851800
2019-08-08,50.619999,52.040001,50.619999,51.330002,51.330002,2424500
2019-08-09,51.290001,51.290001,49.799999,50.430000,50.430000,1278100
2019-08-12,50.049999,50.240002,49.180000,49.509998,49.509998,1435300
2019-08-13,49.250000,50.910000,48.720001,49.520000,49.520000,3558000
2019-08-14,48.689999,48.990002,46.959999,48.599998,48.599998,4092200
2019-08-15,48.139999,48.369999,46.240002,46.900002,46.900002,2902900
2019-08-16,47.389999,49.189999,47.250000,48.430000,48.430000,2488200
2019-08-19,49.310001,49.630001,48.779999,49.049999,49.049999,2006700
2019-08-20,48.720001,49.299999,48.189999,48.470001,48.470001,1842700
2019-08-21,48.669998,49.740002,48.549999,48.980000,48.980000,1389500
2019-08-22,49.430000,49.560001,48.419998,49.040001,49.040001,1619800
2019-08-23,47.750000,47.939999,45.730000,45.810001,45.810001,3670700
2019-08-26,46.000000,47.080002,45.950001,46.410000,46.410000,2040900
2019-08-27,46.950001,47.169998,45.270000,45.599998,45.599998,1952400
2019-08-28,45.520000,45.619999,44.349998,45.299999,45.299999,1886800
2019-08-29,45.750000,46.930000,45.650002,46.770000,46.770000,3275000
2019-08-30,50.849998,53.200001,49.650002,51.529999,51.529999,16009600
2019-09-03,51.029999,51.880001,50.599998,51.070000,51.070000,4175300
2019-09-04,51.500000,51.880001,50.270000,51.200001,51.200001,2793400
2019-09-05,51.560001,53.500000,51.110001,52.919998,52.919998,4559000
2019-09-06,53.000000,53.790001,52.259998,53.360001,53.360001,3462400
2019-09-09,54.000000,54.450001,53.139999,54.290001,54.290001,3633200
2019-09-10,53.880001,55.849998,53.250000,55.480000,55.480000,3192300
2019-09-11,55.119999,55.500000,54.700001,55.299999,55.299999,2998600
2019-09-12,55.549999,55.930000,54.049999,54.150002,54.150002,2868600
2019-09-13,54.049999,54.650002,53.439999,53.509998,53.509998,1411700
2019-09-16,53.000000,54.549999,52.880001,54.099998,54.099998,1531200
2019-09-17,54.000000,54.099998,53.110001,53.849998,53.849998,1430100
2019-09-18,53.930000,53.930000,52.009998,52.799999,52.799999,1905500
2019-09-19,52.759998,53.650002,52.560001,53.040001,53.040001,2499700
2019-09-20,53.189999,53.340000,51.709999,51.849998,51.849998,3042300
2019-09-23,51.810001,53.000000,51.020000,52.939999,52.939999,2484900
2019-09-24,53.060001,53.650002,51.660000,52.200001,52.200001,3348200
2019-09-25,52.189999,54.020000,52.049999,53.740002,53.740002,3069500
2019-09-26,53.000000,53.000000,51.320000,52.150002,52.150002,3072100
2019-09-27,52.419998,52.880001,50.389999,50.950001,50.950001,2220700
2019-09-30,50.950001,52.029999,50.869999,51.860001,51.860001,1327700
2019-10-01,52.130001,52.889999,51.400002,51.639999,51.639999,1935700
2019-10-02,51.500000,51.509998,50.160000,50.779999,50.779999,1593300
2019-10-03,50.810001,51.369999,49.389999,51.060001,51.060001,1348600
2019-10-04,51.230000,51.500000,50.200001,50.270000,50.270000,1937600
2019-10-07,50.099998,51.070000,49.990002,50.520000,50.520000,1588900
2019-10-08,50.189999,50.369999,48.790001,48.810001,48.810001,1529200
2019-10-09,49.139999,49.730000,48.750000,49.459999,49.459999,1320800
2019-10-10,49.410000,49.590000,48.889999,49.000000,49.000000,2264400
2019-10-11,49.869999,51.380001,49.770000,50.299999,50.299999,1528000
2019-10-14,50.250000,50.750000,50.110001,50.680000,50.680000,786200
2019-10-15,50.500000,51.740002,50.349998,51.130001,51.130001,1044700
2019-10-16,50.919998,50.930000,50.169998,50.540001,50.540001,1003600
2019-10-17,50.840000,51.250000,50.310001,50.369999,50.369999,1006500
2019-10-18,50.360001,50.439999,49.500000,49.869999,49.869999,1728400
2019-10-21,49.900002,50.509998,49.590000,49.990002,49.990002,1202100
2019-10-22,50.310001,50.630001,49.779999,49.980000,49.980000,1038400
2019-10-23,49.889999,50.410000,49.259998,50.299999,50.299999,1251500
2019-10-24,50.660000,51.250000,49.930000,51.009998,51.009998,1529900
2019-10-25,51.110001,52.320000,50.950001,51.680000,51.680000,1616800
2019-10-28,51.930000,52.450001,51.470001,51.590000,51.590000,1579900
2019-10-29,51.650002,53.270000,51.560001,53.250000,53.250000,2648800
2019-10-30,53.209999,54.150002,52.730000,53.750000,53.750000,1627400
2019-10-31,53.650002,53.799999,52.110001,52.889999,52.889999,1537100
2019-11-01,53.180000,53.389999,52.790001,53.240002,53.240002,1215900
2019-11-04,53.849998,54.130001,53.480000,53.840000,53.840000,1003500
2019-11-05,53.910000,54.849998,53.540001,54.430000,54.430000,2067500
2019-11-06,55.000000,55.000000,53.700001,54.330002,54.330002,1414600
2019-11-07,54.770000,54.950001,54.130001,54.310001,54.310001,1474000
2019-11-08,54.360001,54.590000,53.549999,54.310001,54.310001,994600
2019-11-11,53.820000,54.869999,53.650002,54.520000,54.520000,928000
2019-11-12,54.790001,55.779999,54.650002,55.430000,55.430000,2769100
2019-11-13,55.000000,55.400002,54.540001,54.779999,54.779999,1100800
2019-11-14,54.400002,56.189999,54.169998,55.049999,55.049999,1701500
2019-11-15,55.650002,55.849998,55.160000,55.639999,55.639999,1418800
2019-11-18,55.650002,55.889999,55.070000,55.570000,55.570000,979100
2019-11-19,55.660000,56.680000,55.279999,56.209999,56.209999,1425000
2019-11-20,55.820000,56.279999,54.939999,55.270000,55.270000,1435500
2019-11-21,55.240002,55.599998,53.689999,53.709999,53.709999,1608400
2019-11-22,53.700001,54.000000,53.000000,53.610001,53.610001,1444900
2019-11-25,54.000000,55.610001,54.000000,55.060001,55.060001,1897900
2019-11-26,55.669998,55.939999,53.150002,53.189999,53.189999,4422600
2019-11-27,51.049999,52.160000,49.750000,50.320000,50.320000,13123600
2019-11-29,50.299999,50.459999,48.439999,48.490002,48.490002,3235100
2019-12-02,48.349998,48.669998,47.330002,47.720001,47.720001,3726300
2019-12-03,46.799999,47.490002,46.430000,47.400002,47.400002,3914000
2019-12-04,47.900002,48.099998,47.540001,47.680000,47.680000,2094700
2019-12-05,47.610001,47.730000,46.619999,47.340000,47.340000,2064100
2019-12-06,47.500000,48.700001,47.029999,47.119999,47.119999,3008500
2019-12-09,46.820000,47.970001,46.450001,47.650002,47.650002,3776500
2019-12-10,47.410000,47.980000,47.130001,47.360001,47.360001,3099600
2019-12-11,47.320000,47.750000,46.900002,47.709999,47.709999,2216400
2019-12-12,47.320000,49.660000,47.080002,49.500000,49.500000,2641600
2019-12-13,49.430000,50.080002,49.029999,49.349998,49.349998,2642000
2019-12-16,49.990002,50.150002,49.270000,49.490002,49.490002,3364800
2019-12-17,49.720001,50.209999,49.560001,49.930000,49.930000,2366600
2019-12-18,50.000000,50.590000,49.619999,50.000000,50.000000,2302800
2019-12-19,50.060001,50.330002,49.779999,49.889999,49.889999,1518000
2019-12-20,50.299999,50.549999,49.509998,49.619999,49.619999,2704500
2019-12-23,49.660000,51.180000,49.619999,50.459999,50.459999,1628600
2019-12-24,50.450001,51.330002,50.250000,50.830002,50.830002,958900
2019-12-26,51.259998,52.279999,51.110001,52.009998,52.009998,1538000
2019-12-27,52.200001,52.200001,50.700001,50.980000,50.980000,1575100
2019-12-30,50.880001,51.560001,50.500000,50.910000,50.910000,1329200
2019-12-31,50.799999,51.900002,50.549999,51.389999,51.389999,1653900
2020-01-02,52.060001,52.619999,51.549999,52.290001,52.290001,2168400
2020-01-03,51.400002,51.980000,50.419998,50.570000,50.570000,2254000
2020-01-06,50.090000,51.290001,50.090000,51.080002,51.080002,2525800
2020-01-07,51.040001,51.310001,49.570000,49.799999,49.799999,3109900
2020-01-08,49.500000,50.040001,49.150002,50.000000,50.000000,3514600
2020-01-09,50.200001,50.259998,49.020000,49.619999,49.619999,3628400
2020-01-10,49.619999,49.939999,49.410000,49.509998,49.509998,2466100
2020-01-13,49.689999,49.990002,48.680000,49.830002,49.830002,3414300
2020-01-14,49.830002,51.529999,49.810001,50.860001,50.860001,3322600
2020-01-15,50.709999,51.139999,50.400002,50.599998,50.599998,1979800
2020-01-16,51.009998,51.730000,50.689999,51.340000,51.340000,2253400
2020-01-17,51.500000,51.500000,50.049999,50.340000,50.340000,3295700
2020-01-21,50.150002,50.169998,48.900002,49.290001,49.290001,2735500
2020-01-22,49.500000,50.119999,49.500000,49.939999,49.939999,1371100
2020-01-23,50.020000,50.470001,49.369999,50.369999,50.369999,1108900
2020-01-24,50.549999,51.040001,49.529999,49.980000,49.980000,2001100
2020-01-27,48.660000,48.889999,47.970001,48.150002,48.150002,3113600
2020-01-28,48.509998,49.200001,48.349998,48.680000,48.680000,2141600
2020-01-29,48.950001,49.200001,48.540001,48.950001,48.950001,1413500
2020-01-30,48.400002,49.470001,48.160000,49.380001,49.380001,2403800
2020-01-31,49.130001,49.250000,48.150002,48.770000,48.770000,2345600
2020-02-03,48.790001,49.400002,48.610001,49.180000,49.180000,1654900
2020-02-04,50.000000,51.480000,49.439999,51.029999,51.029999,2962800
2020-02-05,51.480000,52.389999,50.599998,50.790001,50.790001,3719000
2020-02-06,51.160000,52.930000,51.060001,52.849998,52.849998,3335800
2020-02-07,52.500000,52.500000,51.000000,51.619999,51.619999,4722800
2020-02-10,51.000000,52.169998,50.560001,52.110001,52.110001,2700000
2020-02-11,52.099998,53.099998,52.000000,52.259998,52.259998,4402400
2020-02-12,52.730000,53.520000,52.580002,53.299999,53.299999,3484100
2020-02-13,51.950001,52.830002,51.430000,52.549999,52.549999,3426500
