Date,Open,High,Low,Close,Adj Close,Volume
2018-09-20,32.250000,36.009998,32.049999,36.000000,36.000000,40182700
2018-09-21,34.560001,35.490002,33.880001,34.099998,34.099998,9269500
2018-09-24,34.099998,35.650002,33.700001,34.900002,34.900002,2769100
2018-09-25,34.759998,34.990002,34.060001,34.580002,34.580002,3152200
2018-09-26,34.349998,35.980000,34.250000,35.500000,35.500000,5835600
2018-09-27,37.610001,37.610001,35.669998,36.189999,36.189999,2949700
2018-09-28,36.000000,36.209999,34.750000,34.889999,34.889999,1321500
2018-10-01,35.480000,35.480000,32.709999,33.730000,33.730000,4374400
2018-10-02,33.639999,34.349998,32.889999,33.419998,33.419998,2128000
2018-10-03,33.400002,34.299999,32.750000,34.250000,34.250000,1116500
2018-10-04,34.209999,35.410000,33.040001,34.020000,34.020000,1226700
2018-10-05,34.139999,34.500000,33.250000,34.340000,34.340000,1488700
2018-10-08,34.000000,34.639999,33.849998,34.009998,34.009998,963200
2018-10-09,34.009998,34.950001,33.549999,34.320000,34.320000,1131500
2018-10-10,34.450001,34.480000,33.250000,33.529999,33.529999,1610300
2018-10-11,33.509998,33.759998,31.760000,32.389999,32.389999,1504200
2018-10-12,32.660000,33.860001,32.000000,32.580002,32.580002,1324800
2018-10-15,32.490002,32.490002,31.500000,32.459999,32.459999,2530000
2018-10-16,32.540001,32.799999,32.009998,32.610001,32.610001,892500
2018-10-17,32.490002,32.930000,31.440001,32.930000,32.930000,721300
2018-10-18,32.500000,32.750000,31.400000,31.799999,31.799999,1102900
2018-10-19,31.870001,32.380001,31.330000,31.610001,31.610001,890100
2018-10-22,31.540001,32.240002,31.200001,31.879999,31.879999,747100
2018-10-23,31.799999,32.880001,31.270000,32.439999,32.439999,1717700
2018-10-24,32.439999,33.410000,31.620001,31.740000,31.740000,1596600
2018-10-25,31.740000,32.509998,31.309999,31.959999,31.959999,927400
2018-10-26,31.730000,32.869999,31.600000,32.430000,32.430000,861100
2018-10-29,32.419998,32.889999,30.590000,30.910000,30.910000,1612000
2018-10-30,30.600000,31.070000,30.100000,30.850000,30.850000,1496900
2018-10-31,31.320000,31.500000,30.270000,30.480000,30.480000,1229100
2018-11-01,31.170000,32.160000,30.590000,31.879999,31.879999,2148100
2018-11-02,32.650002,33.139999,31.940001,33.099998,33.099998,1714700
2018-11-05,33.299999,33.500000,32.139999,33.240002,33.240002,1651300
2018-11-06,34.299999,34.650002,33.250000,33.810001,33.810001,2084400
2018-11-07,34.259998,34.520000,33.660000,34.459999,34.459999,976200
2018-11-08,34.700001,34.700001,33.490002,33.820000,33.820000,653300
2018-11-09,33.730000,34.500000,33.169998,34.459999,34.459999,751200
2018-11-12,34.250000,34.689999,33.980000,34.160000,34.160000,1012700
2018-11-13,34.290001,34.849998,33.919998,34.500000,34.500000,615000
2018-11-14,34.529999,34.919998,33.849998,34.009998,34.009998,362900
2018-11-15,33.759998,34.290001,32.810001,33.090000,33.090000,988300
2018-11-16,33.000000,34.230000,32.820000,34.000000,34.000000,409800
2018-11-19,33.830002,34.169998,33.540001,33.799999,33.799999,516000
2018-11-20,32.970001,33.689999,32.520000,33.130001,33.130001,594400
2018-11-21,33.529999,33.549999,32.889999,33.160000,33.160000,413300
2018-11-23,33.139999,33.930000,32.980000,33.610001,33.610001,183600
2018-11-26,33.680000,33.779999,32.740002,33.000000,33.000000,771300
2018-11-27,32.750000,33.150002,32.750000,32.950001,32.950001,395700
2018-11-28,33.209999,33.889999,33.009998,33.480000,33.480000,994500
2018-11-29,33.490002,34.529999,32.880001,33.480000,33.480000,1962100
2018-11-30,33.480000,33.790001,32.950001,33.410000,33.410000,1325900
2018-12-03,33.709999,34.660000,33.599998,33.750000,33.750000,1226600
2018-12-04,33.669998,34.060001,32.970001,33.070000,33.070000,648200
2018-12-06,32.580002,32.759998,31.879999,32.599998,32.599998,839700
2018-12-07,32.470001,33.650002,32.410000,33.570000,33.570000,1087200
2018-12-10,33.709999,34.099998,32.700001,33.380001,33.380001,982900
2018-12-11,33.500000,33.900002,32.910000,32.959999,32.959999,405900
2018-12-12,33.119999,33.730000,32.849998,32.869999,32.869999,915600
2018-12-13,33.090000,33.299999,32.450001,32.540001,32.540001,479500
2018-12-14,32.500000,32.700001,31.940001,32.369999,32.369999,607400
2018-12-17,32.070000,32.299999,31.240000,31.760000,31.760000,2133000
2018-12-18,32.259998,33.709999,30.190001,31.100000,31.100000,1698600
2018-12-19,30.650000,31.990000,30.650000,31.639999,31.639999,1979200
2018-12-20,31.490000,31.809999,30.799999,31.330000,31.330000,2465500
2018-12-21,31.370001,31.980000,29.590000,30.000000,30.000000,7853900
2018-12-24,29.430000,29.770000,28.850000,29.629999,29.629999,468900
2018-12-26,29.780001,30.790001,29.400000,30.730000,30.730000,1398500
2018-12-27,30.440001,31.299999,29.879999,31.190001,31.190001,756900
2018-12-28,31.290001,31.660000,30.440001,31.320000,31.320000,1805000
2018-12-31,31.450001,32.020000,31.070000,31.530001,31.530001,611900
2019-01-02,31.480000,32.060001,31.200001,31.799999,31.799999,761000
2019-01-03,31.500000,31.980000,31.010000,31.090000,31.090000,1041000
2019-01-04,31.240000,32.150002,31.170000,31.830000,31.830000,649800
2019-01-07,31.830000,32.880001,31.639999,32.650002,32.650002,738800
2019-01-08,32.869999,33.200001,32.279999,32.509998,32.509998,865900
2019-01-09,32.750000,33.349998,32.169998,32.549999,32.549999,1614200
2019-01-10,32.310001,32.439999,31.250000,31.590000,31.590000,1378800
2019-01-11,31.400000,32.060001,31.120001,31.959999,31.959999,1506100
2019-01-14,31.799999,31.930000,31.170000,31.559999,31.559999,2540500
2019-01-15,31.660000,32.029999,31.080000,31.709999,31.709999,2067600
2019-01-16,31.750000,31.950001,31.150000,31.559999,31.559999,1645700
2019-01-17,31.559999,31.940001,31.330000,31.750000,31.750000,511900
2019-01-18,31.840000,32.020000,30.799999,31.520000,31.520000,2547400
2019-01-22,31.309999,31.790001,30.950001,30.980000,30.980000,2107900
2019-01-23,30.530001,30.930000,29.780001,30.379999,30.379999,3009000
2019-01-24,30.190001,30.590000,29.959999,30.230000,30.230000,1774500
2019-01-25,30.600000,30.780001,30.020000,30.600000,30.600000,1439600
2019-01-28,30.650000,30.719999,30.260000,30.500000,30.500000,1267700
2019-01-29,30.360001,30.660000,30.120001,30.500000,30.500000,1858200
2019-01-30,30.650000,30.840000,30.110001,30.160000,30.160000,2236300
2019-01-31,30.030001,30.240000,28.879999,29.180000,29.180000,3093600
2019-02-01,29.240000,29.590000,28.920000,29.450001,29.450001,4237100
2019-02-04,29.750000,29.910000,29.160000,29.650000,29.650000,1906400
2019-02-05,29.209999,30.379999,28.500000,30.219999,30.219999,2183800
2019-02-06,28.000000,29.600000,28.000000,29.010000,29.010000,6545600
2019-02-07,28.900000,29.690001,28.780001,29.500000,29.500000,4958600
2019-02-08,28.750000,30.290001,28.730000,29.690001,29.690001,9957100
2019-02-11,29.750000,30.360001,29.350000,29.709999,29.709999,9173500
2019-02-12,29.750000,29.850000,28.889999,29.299999,29.299999,9604100
2019-02-13,29.270000,29.530001,28.940001,29.420000,29.420000,7078500
2019-02-14,29.510000,29.950001,29.160000,29.340000,29.340000,8316900
2019-02-15,29.629999,29.740000,29.200001,29.600000,29.600000,7325500
2019-02-19,29.600000,29.760000,29.160000,29.160000,29.160000,6942300
2019-02-20,29.260000,29.639999,29.000000,29.330000,29.330000,12650600
2019-02-21,29.580000,29.580000,28.900000,29.040001,29.040001,10923100
2019-02-22,29.230000,29.360001,28.990000,29.190001,29.190001,9724800
2019-02-25,29.450001,29.500000,28.879999,29.000000,29.000000,10242200
2019-02-26,28.950001,29.260000,28.840000,29.049999,29.049999,13069200
2019-02-27,29.100000,29.950001,28.940001,29.719999,29.719999,14707400
2019-02-28,29.799999,30.590000,29.709999,30.240000,30.240000,20033500
2019-03-01,30.200001,31.510000,30.139999,31.030001,31.030001,23160100
2019-03-04,31.100000,31.190001,30.320000,31.000000,31.000000,30316900
2019-03-05,30.990000,31.040001,30.230000,30.459999,30.459999,22779200
2019-03-06,30.250000,30.440001,29.280001,29.700001,29.700001,26709100
2019-03-07,29.400000,29.590000,29.049999,29.280001,29.280001,17538500
2019-03-08,29.150000,29.400000,28.889999,29.400000,29.400000,14068400
2019-03-11,30.629999,31.299999,30.250000,30.700001,30.700001,62959400
2019-03-12,30.750000,32.060001,30.670000,31.639999,31.639999,21203800
2019-03-13,31.080000,31.670000,30.950001,31.580000,31.580000,18804000
2019-03-14,31.650000,31.900000,30.250000,30.309999,30.309999,29569900
2019-03-15,30.320000,30.690001,30.059999,30.639999,30.639999,30687200
2019-03-18,30.700001,31.870001,30.629999,31.639999,31.639999,26440300
2019-03-19,32.110001,33.220001,31.879999,32.830002,32.830002,16426200
2019-03-20,32.330002,33.380001,32.080002,32.830002,32.830002,8119500
2019-03-21,32.610001,32.950001,32.009998,32.480000,32.480000,10187400
2019-03-22,32.430000,33.040001,31.799999,32.720001,32.720001,21385000
2019-03-25,32.599998,32.869999,32.230000,32.599998,32.599998,5050800
2019-03-26,32.660000,33.139999,32.509998,32.740002,32.740002,4001200
2019-03-27,32.570000,32.939999,32.240002,32.689999,32.689999,5445700
2019-03-28,32.779999,32.919998,32.430000,32.500000,32.500000,2223200
2019-03-29,32.450001,32.619999,31.700001,32.070000,32.070000,4066000
2019-04-01,32.509998,32.599998,32.099998,32.169998,32.169998,4624400
2019-04-02,32.169998,32.970001,32.090000,32.439999,32.439999,4867000
2019-04-03,32.599998,33.459999,32.580002,32.830002,32.830002,7161400
2019-04-04,32.730000,33.160000,32.730000,32.980000,32.980000,2864300
2019-04-05,33.200001,33.470001,33.029999,33.119999,33.119999,3704000
2019-04-08,33.200001,33.450001,32.799999,33.419998,33.419998,2068100
2019-04-09,33.200001,33.259998,32.720001,32.759998,32.759998,2995200
2019-04-10,32.889999,32.990002,32.470001,32.549999,32.549999,3306200
2019-04-11,32.709999,32.950001,32.060001,32.340000,32.340000,3255400
2019-04-12,32.520000,32.779999,32.389999,32.570000,32.570000,3751000
2019-04-15,32.650002,32.759998,31.990000,32.139999,32.139999,2943400
2019-04-16,32.349998,32.500000,31.709999,31.780001,31.780001,2453200
2019-04-17,31.780001,32.000000,30.930000,31.180000,31.180000,4064300
2019-04-18,31.330000,31.520000,30.750000,31.110001,31.110001,6101800
2019-04-22,31.030001,31.320000,30.820000,31.150000,31.150000,4760500
2019-04-23,31.120001,31.719999,31.070000,31.629999,31.629999,3652500
2019-04-24,31.590000,32.340000,31.410000,32.070000,32.070000,3288400
2019-04-25,32.070000,32.570000,31.809999,32.389999,32.389999,2610800
2019-04-26,31.629999,32.730000,31.400000,32.720001,32.720001,5052700
2019-04-29,32.580002,32.779999,32.169998,32.279999,32.279999,3952400
2019-04-30,32.189999,32.200001,31.450001,31.500000,31.500000,5158800
2019-05-01,31.510000,31.780001,31.370001,31.440001,31.440001,2200400
2019-05-02,31.000000,31.379999,30.600000,31.360001,31.360001,4774700
2019-05-03,31.549999,32.150002,31.490000,32.130001,32.130001,3542800
2019-05-06,31.709999,32.200001,31.500000,32.169998,32.169998,1494300
2019-05-07,31.930000,31.930000,30.629999,31.120001,31.120001,4073200
2019-05-08,31.219999,31.410000,30.930000,31.389999,31.389999,4245100
2019-05-09,32.070000,33.849998,32.070000,32.959999,32.959999,6249900
2019-05-10,32.869999,33.439999,32.500000,33.299999,33.299999,3686500
2019-05-13,32.810001,32.860001,31.790001,32.150002,32.150002,2522100
2019-05-14,32.520000,32.779999,32.110001,32.599998,32.599998,2952600
2019-05-15,32.279999,32.959999,32.060001,32.750000,32.750000,1979900
2019-05-16,33.259998,33.580002,32.990002,33.000000,33.000000,3057500
2019-05-17,32.759998,33.410000,32.549999,33.040001,33.040001,2287900
2019-05-20,32.980000,33.020000,32.549999,32.650002,32.650002,1054900
2019-05-21,32.849998,32.930000,32.410000,32.740002,32.740002,2847800
2019-05-22,32.419998,32.730000,31.709999,32.290001,32.290001,3517400
2019-05-23,32.150002,32.549999,31.889999,32.389999,32.389999,2358600
2019-05-24,32.669998,32.689999,31.700001,32.099998,32.099998,3704100
2019-05-28,32.119999,32.540001,31.670000,31.969999,31.969999,4649400
2019-05-29,31.799999,31.959999,31.260000,31.740000,31.740000,5402700
2019-05-30,31.820000,32.020000,31.190001,31.510000,31.510000,1337200
2019-05-31,31.020000,31.440001,30.870001,31.280001,31.280001,2096900
2019-06-03,31.350000,31.969999,31.100000,31.930000,31.930000,1729400
2019-06-04,32.259998,32.880001,32.080002,32.730000,32.730000,2090300
2019-06-05,32.880001,33.160000,32.509998,32.900002,32.900002,2162100
2019-06-06,32.770000,32.869999,32.230000,32.500000,32.500000,3602700
2019-06-07,32.740002,33.009998,32.470001,32.689999,32.689999,1626900
2019-06-10,33.000000,33.020000,32.340000,32.450001,32.450001,1915000
2019-06-11,32.549999,33.320000,32.340000,32.570000,32.570000,1582800
2019-06-12,32.840000,33.419998,32.630001,33.180000,33.180000,1173200
2019-06-13,33.099998,33.270000,32.450001,32.549999,32.549999,1724800
2019-06-14,32.599998,32.599998,31.879999,31.950001,31.950001,3199800
2019-06-17,32.070000,32.200001,31.490000,31.490000,31.490000,3279700
2019-06-18,31.799999,32.880001,31.780001,32.779999,32.779999,2494600
2019-06-19,32.860001,33.389999,32.810001,33.119999,33.119999,2005900
2019-06-20,33.279999,33.860001,32.930000,32.930000,32.930000,3078700
2019-06-21,33.250000,33.799999,32.990002,33.730000,33.730000,4703200
2019-06-24,33.689999,33.689999,33.160000,33.529999,33.529999,1601800
2019-06-25,33.730000,34.910000,33.650002,34.790001,34.790001,6721100
2019-06-26,34.910000,35.459999,34.049999,34.290001,34.290001,2971900
2019-06-27,34.430000,34.849998,33.720001,34.259998,34.259998,2543600
2019-06-28,34.259998,34.520000,33.799999,33.799999,33.799999,6069000
2019-07-01,34.270000,34.990002,34.139999,34.959999,34.959999,2443900
2019-07-02,34.980000,35.080002,33.779999,33.990002,33.990002,2245400
2019-07-03,34.040001,34.790001,33.860001,34.750000,34.750000,1800200
2019-07-05,34.560001,34.590000,34.029999,34.189999,34.189999,1056400
2019-07-08,34.200001,34.290001,32.380001,33.360001,33.360001,4185000
2019-07-09,33.220001,35.230000,32.959999,34.070000,34.070000,10117400
2019-07-10,34.119999,34.240002,32.779999,33.160000,33.160000,2752400
2019-07-11,33.090000,33.869999,33.090000,33.860001,33.860001,1582000
2019-07-12,33.830002,33.939999,32.669998,33.310001,33.310001,1847800
2019-07-15,33.259998,33.840000,33.049999,33.680000,33.680000,2373600
2019-07-16,33.680000,33.900002,33.250000,33.349998,33.349998,1664000
2019-07-17,33.349998,33.590000,33.070000,33.180000,33.180000,2615100
2019-07-18,33.290001,33.380001,32.720001,32.840000,32.840000,1442100
2019-07-19,33.049999,33.259998,32.430000,32.500000,32.500000,2475100
2019-07-22,32.549999,32.669998,32.139999,32.189999,32.189999,1442800
2019-07-23,32.340000,33.220001,32.060001,33.009998,33.009998,2261000
2019-07-24,32.830002,33.450001,32.709999,33.400002,33.400002,1501500
2019-07-25,33.299999,33.480000,32.630001,32.910000,32.910000,2893500
2019-07-26,32.900002,33.320000,32.900002,33.160000,33.160000,1412100
2019-07-29,33.200001,33.580002,32.990002,33.009998,33.009998,2839300
2019-07-30,32.930000,33.509998,32.740002,33.349998,33.349998,1327700
2019-07-31,33.369999,33.619999,32.959999,32.959999,32.959999,1774400
2019-08-01,33.099998,33.570000,32.509998,33.060001,33.060001,2021600
2019-08-02,33.240002,33.279999,32.450001,32.889999,32.889999,1145600
2019-08-05,32.490002,32.650002,31.440001,31.809999,31.809999,1395800
2019-08-06,32.000000,32.910000,31.959999,32.840000,32.840000,1815800
2019-08-07,32.509998,33.919998,30.990000,31.469999,31.469999,6355800
2019-08-08,31.570000,31.900000,30.950001,31.330000,31.330000,5602500
2019-08-09,31.170000,31.389999,30.219999,30.650000,30.650000,4429600
2019-08-12,30.600000,30.600000,29.680000,29.680000,29.680000,3066800
2019-08-13,29.610001,30.830000,28.600000,29.850000,29.850000,6486700
2019-08-14,29.040001,29.540001,28.500000,28.510000,28.510000,4904200
2019-08-15,28.889999,29.450001,28.420000,29.190001,29.190001,3972400
2019-08-16,29.430000,29.520000,29.000000,29.360001,29.360001,3469800
2019-08-19,29.570000,29.950001,29.379999,29.809999,29.809999,1422900
2019-08-20,27.930000,28.750000,26.809999,27.260000,27.260000,16782600
2019-08-21,27.459999,27.480000,26.200001,26.389999,26.389999,10385400
2019-08-22,26.610001,27.250000,26.340000,27.049999,27.049999,4225400
2019-08-23,27.100000,27.780001,26.379999,26.410000,26.410000,5059300
2019-08-26,26.719999,26.780001,25.670000,25.879999,25.879999,5610600
2019-08-27,26.200001,26.459999,25.510000,25.620001,25.620001,8977000
2019-08-28,25.639999,25.969999,25.510000,25.780001,25.780001,2476300
2019-08-29,25.770000,26.260000,25.540001,25.930000,25.930000,3808800
2019-08-30,26.139999,26.480000,25.950001,26.020000,26.020000,2127100
2019-09-03,25.760000,26.059999,25.670000,26.040001,26.040001,4812500
2019-09-04,26.080000,26.799999,26.059999,26.360001,26.360001,4234400
2019-09-05,26.950001,27.090000,26.420000,26.490000,26.490000,2570700
2019-09-06,26.670000,27.930000,26.670000,27.350000,27.350000,6931600
2019-09-09,27.469999,27.480000,26.620001,26.990000,26.990000,6200400
2019-09-10,27.000000,27.950001,26.629999,27.910000,27.910000,3260500
2019-09-11,27.770000,28.830000,27.670000,28.740000,28.740000,4615100
2019-09-12,28.760000,28.879999,28.379999,28.379999,28.379999,2862200
2019-09-13,28.450001,28.790001,28.020000,28.680000,28.680000,5541000
2019-09-16,28.490000,28.980000,28.219999,28.320000,28.320000,3310200
2019-09-17,28.200001,28.330000,27.980000,28.080000,28.080000,1727900
2019-09-18,27.940001,28.070000,27.290001,27.480000,27.480000,4260900
2019-09-19,27.650000,27.940001,27.040001,27.129999,27.129999,3285800
2019-09-20,27.150000,27.860001,26.889999,27.530001,27.530001,13023000
2019-09-23,27.740000,28.370001,27.600000,28.070000,28.070000,6488700
2019-09-24,28.230000,28.379999,27.360001,27.549999,27.549999,5114500
2019-09-25,27.629999,27.740000,26.639999,26.980000,26.980000,7541900
2019-09-26,27.020000,27.160000,26.469999,26.700001,26.700001,3065300
2019-09-27,26.719999,26.959999,26.280001,26.400000,26.400000,1782300
2019-09-30,26.540001,26.730000,26.200001,26.590000,26.590000,1874300
2019-10-01,26.700001,26.879999,25.889999,26.170000,26.170000,3987800
2019-10-02,25.900000,26.180000,25.620001,25.950001,25.950001,2889400
2019-10-03,25.840000,26.860001,25.840000,26.850000,26.850000,3784400
2019-10-04,26.790001,27.139999,26.600000,26.780001,26.780001,5870700
2019-10-07,26.700001,26.980000,26.520000,26.639999,26.639999,2450100
2019-10-08,26.330000,27.059999,26.200001,26.680000,26.680000,2678100
2019-10-09,26.740000,27.110001,26.660000,26.820000,26.820000,1855800
2019-10-10,26.840000,27.020000,26.430000,26.549999,26.549999,2001700
2019-10-11,26.799999,27.290001,26.709999,26.889999,26.889999,2024800
2019-10-14,26.830000,26.930000,26.559999,26.639999,26.639999,1265600
2019-10-15,26.799999,27.250000,26.510000,27.110001,27.110001,2029300
2019-10-16,27.059999,27.400000,26.969999,27.070000,27.070000,1915200
2019-10-17,27.160000,27.280001,26.360001,26.469999,26.469999,4305300
2019-10-18,26.430000,26.740000,26.090000,26.230000,26.230000,2419200
2019-10-21,26.389999,26.760000,25.969999,26.360001,26.360001,3000900
2019-10-22,26.370001,26.590000,25.809999,26.040001,26.040001,2721100
2019-10-23,26.150000,26.180000,25.799999,26.170000,26.170000,1951700
2019-10-24,26.180000,26.440001,25.950001,26.299999,26.299999,1876000
2019-10-25,26.270000,27.020000,26.219999,26.870001,26.870001,2661900
2019-10-28,26.830000,27.230000,26.830000,27.150000,27.150000,1429900
2019-10-29,27.040001,27.309999,26.799999,27.180000,27.180000,1568300
2019-10-30,27.160000,27.290001,26.990000,27.129999,27.129999,1246200
2019-10-31,27.120001,27.379999,26.940001,27.020000,27.020000,2274400
2019-11-01,27.219999,27.799999,27.110001,27.400000,27.400000,2189500
2019-11-04,27.709999,27.709999,27.260000,27.280001,27.280001,2252400
2019-11-05,27.410000,27.780001,27.209999,27.430000,27.430000,2791900
2019-11-06,27.000000,27.000000,25.990000,26.680000,26.680000,5224500
2019-11-07,27.110001,27.770000,26.520000,26.920000,26.920000,4584500
2019-11-08,26.879999,27.350000,26.620001,27.230000,27.230000,3690800
2019-11-11,27.059999,27.160000,26.480000,26.570000,26.570000,3654400
2019-11-12,26.760000,26.980000,26.129999,26.209999,26.209999,7950700
2019-11-13,26.209999,26.430000,26.000000,26.000000,26.000000,11728100
2019-11-14,26.180000,26.360001,25.250000,25.290001,25.290001,6155800
2019-11-15,25.530001,26.320000,25.500000,26.110001,26.110001,5279900
2019-11-18,25.950001,26.320000,25.500000,25.540001,25.540001,4302900
2019-11-19,25.709999,26.639999,25.480000,26.270000,26.270000,6848300
2019-11-20,26.209999,26.959999,26.129999,26.350000,26.350000,4484300
2019-11-21,26.629999,27.000000,26.360001,26.400000,26.400000,5575700
2019-11-22,26.410000,26.950001,26.350000,26.790001,26.790001,2890600
2019-11-25,26.879999,27.959999,26.809999,27.809999,27.809999,5437900
2019-11-26,27.980000,28.040001,27.340000,27.660000,27.660000,3011700
2019-11-27,27.629999,28.070000,27.360001,27.870001,27.870001,2067600
2019-11-29,27.700001,27.990000,27.660000,27.709999,27.709999,1401300
2019-12-02,27.770000,27.980000,27.480000,27.620001,27.620001,2721500
2019-12-03,27.190001,27.480000,27.000000,27.299999,27.299999,1472300
2019-12-04,27.450001,27.530001,27.170000,27.170000,27.170000,1509500
2019-12-05,27.160000,27.240000,26.740000,27.160000,27.160000,1838700
2019-12-06,27.309999,27.530001,27.030001,27.090000,27.090000,1801900
2019-12-09,27.080000,27.260000,26.840000,26.850000,26.850000,3288700
2019-12-10,26.770000,26.780001,26.080000,26.459999,26.459999,4661200
2019-12-11,26.270000,26.860001,26.260000,26.790001,26.790001,2431300
2019-12-12,26.860001,27.620001,26.639999,27.480000,27.480000,1887500
2019-12-13,27.500000,27.780001,27.299999,27.780001,27.780001,3248200
2019-12-16,27.910000,28.530001,27.790001,28.309999,28.309999,5532700
2019-12-17,28.290001,28.780001,28.129999,28.760000,28.760000,3609700
2019-12-18,28.330000,28.860001,28.000000,28.190001,28.190001,7467300
2019-12-19,29.639999,29.920000,28.600000,28.950001,28.950001,6296400
2019-12-20,28.900000,29.090000,28.680000,28.799999,28.799999,5499500
2019-12-23,28.920000,29.200001,28.730000,29.070000,29.070000,2107200
2019-12-24,29.049999,29.450001,29.010000,29.430000,29.430000,839700
2019-12-26,29.500000,29.570000,29.020000,29.160000,29.160000,1490200
2019-12-27,29.240000,29.440001,29.059999,29.340000,29.340000,1614500
2019-12-30,29.330000,29.730000,29.170000,29.290001,29.290001,1232100
2019-12-31,29.110001,29.459999,29.020000,29.450001,29.450001,1210300
2020-01-02,29.670000,29.760000,29.299999,29.469999,29.469999,1664700
2020-01-03,29.030001,29.590000,29.000000,29.100000,29.100000,4342300
2020-01-06,29.000000,29.040001,28.700001,28.830000,28.830000,5715300
2020-01-07,28.850000,28.870001,28.450001,28.709999,28.709999,3147700
2020-01-08,28.740000,28.959999,28.480000,28.559999,28.559999,3899400
2020-01-09,28.530001,28.549999,27.610001,28.040001,28.040001,14582100
2020-01-10,28.500000,29.059999,28.320000,28.730000,28.730000,19853200
2020-01-13,28.809999,28.809999,27.889999,28.410000,28.410000,5892900
2020-01-14,28.270000,29.540001,28.139999,29.280001,29.280001,8520200
2020-01-15,29.330000,30.969999,29.290001,30.840000,30.840000,13167700
2020-01-16,30.950001,30.969999,30.070000,30.610001,30.610001,3302400
2020-01-17,30.610001,30.700001,29.910000,30.000000,30.000000,5121700
2020-01-21,30.000000,30.930000,29.969999,30.620001,30.620001,5789200
2020-01-22,31.000000,32.349998,30.930000,32.230000,32.230000,10633000
2020-01-23,32.529999,32.660000,32.200001,32.250000,32.250000,23874900
2020-01-24,32.400002,32.560001,31.420000,31.570000,31.570000,10904200
2020-01-27,31.020000,31.450001,30.730000,31.139999,31.139999,8684000
2020-01-28,31.240000,31.830000,31.040001,31.559999,31.559999,3938700
2020-01-29,31.760000,31.980000,31.129999,31.740000,31.740000,3965700
2020-01-30,31.340000,31.790001,31.299999,31.719999,31.719999,3997500
2020-01-31,31.660000,31.750000,30.719999,30.900000,30.900000,6828400
2020-02-03,31.020000,31.330000,30.639999,31.299999,31.299999,5029000
2020-02-04,31.600000,32.000000,31.490000,31.660000,31.660000,3502100
2020-02-05,31.870001,32.380001,31.540001,31.629999,31.629999,3872600
2020-02-06,31.639999,31.959999,31.440001,31.680000,31.680000,2246000
2020-02-07,31.600000,31.860001,31.379999,31.389999,31.389999,1949500
2020-02-10,31.350000,31.750000,31.000000,31.490000,31.490000,2191800
2020-02-11,31.440001,31.760000,31.040001,31.750000,31.750000,2883500
2020-02-12,31.920000,32.119999,31.290001,31.360001,31.360001,3277900
2020-02-13,31.190001,31.730000,31.070000,31.120001,31.120001,2917700
