Date,Open,High,Low,Close,Adj Close,Volume
2018-10-31,18.500000,19.500000,18.500000,19.500000,16.592091,54700
2018-11-01,19.500000,19.799999,19.500000,19.600000,16.677177,382400
2018-11-02,21.000000,21.000000,19.000000,19.299999,16.421915,227200
2018-11-05,19.400000,19.799999,19.400000,19.510000,16.600601,349500
2018-11-06,19.500000,19.650000,19.360001,19.500000,16.592091,386300
2018-11-07,20.000000,20.000000,19.230000,19.500000,16.592091,379000
2018-11-08,20.000000,20.350000,19.500000,19.500000,16.592091,835600
2018-11-09,19.639999,20.200001,19.500000,19.500000,16.592091,707400
2018-11-12,19.500000,20.120001,19.420000,19.730000,16.787792,722100
2018-11-13,19.850000,22.139999,19.500000,20.889999,17.774809,17098500
2018-11-14,21.309999,22.809999,21.309999,22.200001,18.889458,10201300
2018-11-15,22.200001,23.049999,21.120001,21.990000,18.710773,5732100
2018-11-16,21.500000,21.780001,20.620001,20.879999,17.766300,6130400
2018-11-19,20.879999,21.340000,19.940001,20.549999,17.485510,6920200
2018-11-20,20.270000,20.870001,19.559999,20.590000,17.519545,6319800
2018-11-21,20.420000,21.770000,20.040001,21.309999,18.132175,3910500
2018-11-23,20.610001,21.469999,20.559999,21.230000,18.064106,2284000
2018-11-26,21.490000,21.920000,21.299999,21.629999,18.404457,4378100
2018-11-27,21.480000,22.490000,21.440001,22.030001,18.744810,3294000
2018-11-28,21.950001,22.500000,21.750000,22.459999,19.110683,4238400
2018-11-29,22.350000,23.299999,22.240000,23.000000,19.570158,4347000
2018-11-30,23.000000,23.469999,22.010000,22.320000,18.991562,4810600
2018-12-03,22.320000,23.110001,21.459999,23.010000,19.578669,8201700
2018-12-04,22.600000,22.950001,21.950001,22.129999,18.829895,3123500
2018-12-06,21.770000,22.230000,20.870001,22.090000,18.795862,3670700
2018-12-07,22.230000,22.549999,21.850000,21.889999,18.625687,3025300
2018-12-10,21.650000,21.889999,21.090000,21.500000,18.293844,2634300
2018-12-11,21.760000,22.139999,21.559999,21.709999,18.472528,3699900
2018-12-12,22.049999,22.160000,21.309999,21.510000,18.302351,3599200
2018-12-13,21.549999,21.870001,21.059999,21.219999,18.055599,3854600
2018-12-14,21.120001,21.860001,20.660000,21.320000,18.140686,3195200
2018-12-17,20.910000,21.520000,20.520000,20.570000,17.502527,2820300
2018-12-18,20.639999,20.790001,19.770000,20.110001,17.111126,3461200
2018-12-19,20.000000,21.100000,19.780001,20.350000,17.315336,3233800
2018-12-20,20.240000,20.540001,19.570000,19.920000,16.949459,2631000
2018-12-21,20.040001,20.500000,19.559999,19.670000,16.736740,7577300
2018-12-24,19.420000,20.160000,18.250000,18.490000,15.732705,913800
2018-12-26,18.719999,19.610001,18.379999,19.559999,16.643141,1894800
2018-12-27,19.260000,19.639999,18.799999,19.639999,16.711214,1824100
2018-12-28,19.600000,20.040001,19.330000,19.490000,16.583582,2021900
2018-12-31,19.500000,20.040001,19.320000,20.020000,17.034548,1403500
2019-01-02,19.799999,20.389999,19.379999,20.010000,17.026039,1862400
2019-01-03,19.920000,20.190001,19.389999,20.010000,17.026039,2732800
2019-01-04,19.969999,20.820000,19.740000,20.740000,17.647179,2664200
2019-01-07,20.680000,20.750000,20.389999,20.600000,17.528055,2847100
2019-01-08,20.780001,20.900000,20.410000,20.730000,17.638668,3157800
2019-01-09,21.000000,21.530001,20.670000,21.299999,18.123667,2750700
2019-01-10,21.240000,21.350000,20.830000,21.100000,17.953495,1739400
2019-01-11,21.090000,21.459999,20.809999,21.010000,17.876913,2190700
2019-01-14,20.920000,21.090000,20.410000,20.940001,17.817354,2383000
2019-01-15,21.059999,21.530001,20.900000,21.010000,17.876913,1854900
2019-01-16,21.170000,21.469999,20.950001,21.200001,18.038582,1626500
2019-01-17,21.129999,21.389999,20.990000,21.049999,17.910948,2436500
2019-01-18,21.080000,21.270000,20.879999,20.969999,17.842878,1747800
2019-01-22,20.780001,20.910000,20.610001,20.680000,17.596125,2260500
2019-01-23,20.809999,20.900000,20.580000,20.879999,17.766300,1241000
2019-01-24,20.780001,21.059999,20.549999,20.860001,17.749283,1008800
2019-01-25,20.900000,21.230000,20.690001,20.940001,17.817354,1643000
2019-01-28,20.600000,20.930000,20.400000,20.610001,17.536564,1668600
2019-01-29,20.629999,20.940001,20.510000,20.700001,17.613144,1797400
2019-01-30,20.670000,21.059999,20.469999,20.770000,17.672703,1641800
2019-01-31,20.730000,20.860001,20.600000,20.820000,17.715248,1371600
2019-02-01,20.780001,21.000000,20.610001,20.790001,17.689722,2203900
2019-02-04,20.750000,21.090000,20.600000,20.750000,17.655685,1225700
2019-02-05,20.709999,20.930000,20.309999,20.360001,17.323847,1192600
2019-02-06,20.219999,20.410000,19.350000,19.440001,16.541037,1752900
2019-02-07,19.290001,19.570000,19.070000,19.270000,16.396389,2296800
2019-02-08,19.290001,19.389999,18.730000,18.959999,16.132616,1742800
2019-02-11,19.080000,19.240000,18.719999,18.820000,16.013494,1376400
2019-02-12,19.010000,19.280001,18.750000,19.260000,16.387880,1604500
2019-02-13,19.340000,19.750000,19.150000,19.660000,16.728231,2832300
2019-02-14,19.430000,20.170000,18.790001,19.520000,16.962860,3998600
2019-02-15,19.660000,19.969999,19.299999,19.520000,16.962860,2584300
2019-02-19,19.520000,20.070000,19.410000,19.959999,17.345221,1744800
2019-02-20,19.969999,20.080000,19.770000,19.809999,17.214870,1647800
2019-02-21,19.680000,19.910000,19.520000,19.650000,17.075832,1780900
2019-02-22,19.770000,19.910000,19.549999,19.830000,17.232250,1312300
2019-02-25,19.889999,20.000000,19.700001,20.000000,17.379980,1145300
2019-02-26,19.830000,19.830000,18.430000,18.490000,16.067791,3035800
2019-02-27,18.490000,18.709999,18.240000,18.389999,15.980892,2675900
2019-02-28,18.469999,18.500000,17.629999,17.639999,15.329143,1990300
2019-03-01,17.650000,18.090000,17.650000,18.059999,15.694122,1827800
2019-03-04,18.090000,18.440001,18.020000,18.440001,16.024343,1479400
2019-03-05,18.430000,18.730000,18.250000,18.660000,16.215523,3334100
2019-03-06,18.600000,18.600000,18.299999,18.379999,15.972201,2017900
2019-03-07,18.360001,19.160000,18.219999,18.980000,16.493601,3023200
2019-03-08,19.010000,19.010000,18.540001,18.690001,16.241592,1597200
2019-03-11,18.700001,19.030001,18.670000,19.000000,16.510983,1908200
2019-03-12,19.000000,19.459999,18.969999,19.350000,16.815132,1235100
2019-03-13,19.530001,19.730000,19.280001,19.680000,17.101900,2144800
2019-03-14,19.500000,19.950001,19.120001,19.879999,17.275700,1994100
2019-03-15,19.879999,20.190001,19.700001,20.190001,17.545090,3751600
2019-03-18,20.129999,20.379999,19.910000,20.150000,17.510330,1505400
2019-03-19,20.270000,20.500000,20.129999,20.250000,17.597231,1304400
2019-03-20,20.200001,20.639999,20.080000,20.370001,17.701509,1235500
2019-03-21,20.240000,20.820000,20.240000,20.530001,17.840551,1152800
2019-03-22,20.590000,20.660000,20.080000,20.280001,17.623301,2948400
2019-03-25,20.280001,20.440001,20.180000,20.309999,17.649370,1803000
2019-03-26,20.600000,20.850000,20.250000,20.299999,17.640678,2944900
2019-03-27,20.320000,20.540001,20.219999,20.350000,17.684130,1962200
2019-03-28,20.450001,20.879999,20.330000,20.820000,18.092560,2841300
2019-03-29,20.930000,22.040001,20.930000,21.780001,18.926800,3749300
2019-04-01,21.870001,22.080000,21.700001,21.889999,19.022388,1715200
2019-04-02,21.879999,21.920000,21.490000,21.559999,18.735619,1483200
2019-04-03,21.670000,21.670000,21.450001,21.540001,18.718241,1830200
2019-04-04,21.580000,21.580000,21.200001,21.290001,18.500988,1549500
2019-04-05,21.370001,21.549999,21.170000,21.549999,18.726929,2862400
2019-04-08,21.500000,21.580000,21.250000,21.309999,18.518368,1527600
2019-04-09,21.200001,21.520000,21.010000,21.110001,18.344570,2542500
2019-04-10,21.230000,21.459999,21.040001,21.379999,18.579197,1370200
2019-04-11,21.430000,21.490000,21.219999,21.230000,18.448849,790100
2019-04-12,21.490000,21.889999,21.170000,21.299999,18.509680,1259900
2019-04-15,21.219999,21.459999,21.010000,21.209999,18.431469,1207000
2019-04-16,21.299999,21.520000,21.110001,21.490000,18.674789,1238300
2019-04-17,21.510000,21.780001,21.320000,21.770000,18.918110,1536300
2019-04-18,21.740000,21.860001,21.540001,21.639999,18.805138,1445800
2019-04-22,21.809999,21.990000,21.639999,21.900000,19.031076,896900
2019-04-23,21.959999,21.990000,21.530001,21.580000,18.752998,1850400
2019-04-24,21.670000,21.990000,21.450001,21.629999,18.796450,1477000
2019-04-25,21.580000,21.730000,21.309999,21.480000,18.666100,1837900
2019-04-26,21.420000,21.540001,21.200001,21.530001,18.709549,1036200
2019-04-29,21.590000,21.690001,21.370001,21.580000,18.752998,801800
2019-04-30,21.750000,21.870001,20.740000,20.830000,18.101250,2039800
2019-05-01,20.780001,21.290001,20.680000,21.129999,18.361950,1129900
2019-05-02,21.000000,21.040001,20.290001,20.629999,17.927448,1748100
2019-05-03,20.730000,21.270000,20.639999,21.200001,18.422781,1704200
2019-05-06,21.010000,21.170000,20.830000,20.940001,18.196838,1912400
2019-05-07,20.790001,20.860001,20.510000,20.540001,17.849241,1178300
2019-05-08,20.500000,20.740000,20.459999,20.610001,17.910069,1134400
2019-05-09,20.549999,20.670000,20.059999,20.139999,17.501638,1409900
2019-05-10,20.160000,21.049999,20.000000,21.040001,18.283741,1527200
2019-05-13,20.600000,20.700001,20.389999,20.610001,18.301498,1123000
2019-05-14,20.629999,21.309999,20.629999,21.270000,18.887573,1726200
2019-05-15,21.219999,21.490000,21.090000,21.400000,19.003012,1319200
2019-05-16,21.719999,22.290001,21.430000,22.040001,19.571327,1653200
2019-05-17,21.879999,21.990000,21.650000,21.670000,19.242769,1166300
2019-05-20,21.469999,21.709999,21.330000,21.480000,19.074051,1103600
2019-05-21,21.650000,22.129999,21.480000,21.510000,19.100691,1559700
2019-05-22,21.450001,21.540001,21.180000,21.270000,18.887573,1302200
2019-05-23,21.000000,21.020000,20.480000,20.690001,18.372540,1436800
2019-05-24,20.799999,20.930000,20.570000,20.870001,18.532377,609100
2019-05-28,20.920000,20.990000,20.290001,20.299999,18.026220,1020900
2019-05-29,20.059999,20.709999,20.000000,20.600000,18.292620,1252300
2019-05-30,20.620001,20.799999,20.170000,20.240000,17.972942,1159500
2019-05-31,20.000000,20.160000,19.709999,19.860001,17.635506,2410200
2019-06-03,20.049999,20.240000,19.670000,19.790001,17.573345,1293600
2019-06-04,19.840000,20.360001,19.770000,20.280001,18.008463,1253500
2019-06-05,20.230000,20.230000,19.290001,19.360001,17.191511,1409100
2019-06-06,19.400000,19.570000,19.330000,19.410000,17.235909,1029300
2019-06-07,19.500000,19.790001,19.430000,19.549999,17.360228,996700
2019-06-10,19.580000,20.000000,19.450001,19.590000,17.395748,1356100
2019-06-11,19.750000,19.980000,19.549999,19.650000,17.449028,832100
2019-06-12,19.650000,19.770000,19.389999,19.770000,17.555588,1283000
2019-06-13,20.059999,20.059999,19.600000,19.799999,17.582226,876700
2019-06-14,19.830000,19.900000,19.120001,19.240000,17.084951,1474900
2019-06-17,19.660000,19.790001,19.280001,19.459999,17.280308,2449100
2019-06-18,19.500000,19.809999,19.299999,19.719999,17.511187,1996100
2019-06-19,19.700001,20.450001,19.690001,20.280001,18.008463,3159500
2019-06-20,20.629999,21.010000,20.440001,20.480000,18.186060,2354200
2019-06-21,20.420000,21.049999,20.240000,21.040001,18.683336,3424000
2019-06-24,21.030001,21.170000,20.690001,20.830000,18.496857,1825100
2019-06-25,20.879999,20.900000,20.080000,20.129999,17.875263,1896200
2019-06-26,20.309999,20.320000,19.910000,19.950001,17.715425,1850400
2019-06-27,20.040001,20.120001,19.559999,19.760000,17.546707,2275300
2019-06-28,19.750000,20.100000,19.600000,19.709999,17.502304,3831900
2019-07-01,19.940001,20.049999,19.219999,19.420000,17.244787,1841200
2019-07-02,19.330000,19.410000,18.870001,19.020000,16.889593,2078600
2019-07-03,19.070000,19.490000,18.940001,19.379999,17.209269,1445700
2019-07-05,19.350000,19.379999,19.030001,19.190001,17.040552,1803300
2019-07-08,19.059999,19.200001,19.000000,19.150000,17.005032,1311600
2019-07-09,19.100000,19.100000,18.559999,19.000000,16.871834,3803400
2019-07-10,19.100000,19.250000,18.809999,19.150000,17.005032,3481400
2019-07-11,19.180000,19.209999,18.950001,18.969999,16.845192,1470500
2019-07-12,19.010000,19.240000,18.799999,18.969999,16.845192,2217500
2019-07-15,19.040001,19.190001,18.450001,18.559999,16.481115,1975500
2019-07-16,18.469999,18.540001,18.200001,18.309999,16.259119,1593200
2019-07-17,18.270000,18.270000,17.780001,18.090000,16.063763,3434600
2019-07-18,18.040001,18.190001,17.350000,17.559999,15.593127,2436000
2019-07-19,17.540001,17.620001,17.420000,17.530001,15.566487,2120700
2019-07-22,17.620001,17.889999,17.530001,17.799999,15.806244,2252900
2019-07-23,17.850000,17.930000,17.629999,17.750000,15.761846,2278000
2019-07-24,17.799999,18.200001,17.549999,18.129999,16.099279,3601500
2019-07-25,18.180000,18.530001,17.680000,18.100000,16.072641,3911300
2019-07-26,18.110001,18.110001,17.320000,17.680000,15.699685,4613600
2019-07-29,17.650000,17.950001,17.350000,17.940001,15.930562,4796900
2019-07-30,17.280001,17.920000,16.900000,17.150000,15.229049,3686600
2019-07-31,17.150000,17.180000,16.330000,16.590000,14.731774,3393400
2019-08-01,16.559999,16.610001,15.630000,16.150000,14.341058,4468100
2019-08-02,16.379999,16.559999,16.170000,16.290001,14.465378,2484900
2019-08-05,16.070000,16.170000,15.190000,15.350000,13.630665,2839400
2019-08-06,15.400000,15.470000,14.430000,14.870000,13.204430,4423100
2019-08-07,14.620000,14.670000,13.910000,14.590000,12.955791,4764100
2019-08-08,14.730000,15.030000,14.610000,15.010000,13.328749,2564900
2019-08-09,15.010000,15.010000,14.530000,14.570000,12.938031,2960000
2019-08-12,14.050000,14.050000,13.230000,13.450000,12.324118,3023800
2019-08-13,13.360000,13.960000,13.130000,13.680000,12.534864,2832400
2019-08-14,13.420000,13.420000,12.940000,13.090000,11.994253,2621700
2019-08-15,13.100000,13.700000,13.030000,13.530000,12.397420,2685300
2019-08-16,13.640000,13.920000,13.440000,13.800000,12.644819,2031700
2019-08-19,13.940000,14.050000,13.800000,13.990000,12.818914,2542100
2019-08-20,13.940000,14.210000,13.930000,13.960000,12.791426,2103100
2019-08-21,14.080000,14.250000,13.950000,14.040000,12.864729,2666400
2019-08-22,14.050000,14.140000,13.630000,13.750000,12.599005,3860300
2019-08-23,13.600000,13.850000,13.300000,13.330000,12.214163,5817100
2019-08-26,13.520000,13.520000,13.260000,13.260000,12.150023,2704500
2019-08-27,13.360000,13.360000,12.790000,12.800000,11.728528,2338500
2019-08-28,12.820000,13.360000,12.730000,13.280000,12.168347,3507800
2019-08-29,13.350000,13.590000,13.230000,13.470000,12.342443,1477400
2019-08-30,13.490000,13.620000,13.400000,13.490000,12.360768,2848600
2019-09-03,13.380000,13.380000,12.600000,12.700000,11.636898,3844800
2019-09-04,12.900000,13.150000,12.720000,13.040000,11.948438,2764700
2019-09-05,13.180000,13.620000,13.040000,13.080000,11.985089,3646300
2019-09-06,13.050000,13.050000,12.310000,12.420000,11.380338,3012800
2019-09-09,12.490000,13.120000,12.370000,12.990000,11.902622,5846600
2019-09-10,13.000000,13.820000,13.000000,13.370000,12.250813,5080800
2019-09-11,13.480000,13.640000,13.190000,13.430000,12.305792,2634000
2019-09-12,13.280000,13.350000,12.950000,13.300000,12.186673,2268400
2019-09-13,13.400000,13.600000,13.300000,13.390000,12.269140,2651700
2019-09-16,14.200000,14.270000,13.650000,13.670000,12.525702,2248900
2019-09-17,13.510000,13.850000,13.360000,13.600000,12.461561,2537900
2019-09-18,13.520000,13.670000,13.390000,13.610000,12.470723,2759400
2019-09-19,13.750000,13.820000,13.440000,13.520000,12.388257,2456800
2019-09-20,13.570000,13.980000,13.440000,13.640000,12.498212,3723000
2019-09-23,13.510000,13.890000,13.510000,13.780000,12.626493,2650800
2019-09-24,13.790000,13.920000,13.700000,13.880000,12.718122,3981000
2019-09-25,13.810000,14.210000,13.720000,14.120000,12.938032,3884700
2019-09-26,14.210000,14.490000,14.010000,14.250000,13.057150,3479500
2019-09-27,14.190000,14.450000,14.090000,14.370000,13.167105,1992700
2019-09-30,14.380000,14.580000,14.200000,14.550000,13.332037,2300700
2019-10-01,14.620000,14.730000,14.300000,14.420000,13.212919,3280700
2019-10-02,14.310000,14.400000,13.910000,13.970000,12.800589,3666000
2019-10-03,13.870000,14.130000,13.660000,14.100000,12.919707,2912400
2019-10-04,14.080000,14.630000,14.040000,14.350000,13.148780,4195900
2019-10-07,14.380000,14.450000,14.130000,14.210000,13.020498,2853600
2019-10-08,14.060000,14.210000,13.880000,13.950000,12.782262,3056000
2019-10-09,14.110000,14.110000,13.790000,13.840000,12.681471,1479500
2019-10-10,13.890000,14.020000,13.600000,13.910000,12.745611,1922100
2019-10-11,14.090000,14.450000,14.000000,14.330000,13.130453,1910900
2019-10-14,14.200000,14.440000,14.040000,14.420000,13.212919,1559500
2019-10-15,14.420000,14.780000,14.310000,14.510000,13.295386,1995100
2019-10-16,14.450000,14.960000,14.410000,14.790000,13.551947,1902700
2019-10-17,14.900000,15.070000,14.690000,14.950000,13.698554,1868500
2019-10-18,14.950000,15.160000,14.870000,14.990000,13.735206,2405700
2019-10-21,15.110000,15.200000,14.880000,15.080000,13.817672,2655000
2019-10-22,15.080000,15.240000,14.670000,14.920000,13.671065,4028400
2019-10-23,14.920000,14.950000,14.600000,14.790000,13.551947,2749500
2019-10-24,14.880000,15.000000,14.690000,14.750000,13.515296,1748400
2019-10-25,14.700000,14.840000,14.470000,14.700000,13.469481,2895000
2019-10-28,14.750000,15.000000,14.380000,14.410000,13.203757,2594300
2019-10-29,14.360000,14.540000,14.160000,14.340000,13.139617,2313700
2019-10-30,14.310000,14.390000,13.990000,14.160000,12.974684,2393200
2019-10-31,14.100000,14.160000,13.520000,13.920000,12.754774,3884800
2019-11-01,13.970000,14.190000,13.890000,14.150000,12.965521,1424000
2019-11-04,14.300000,14.650000,14.270000,14.500000,13.286222,2413400
2019-11-05,14.490000,14.500000,12.860000,12.920000,11.838483,5144700
2019-11-06,13.110000,13.200000,12.640000,12.880000,11.801831,3316200
2019-11-07,12.950000,13.170000,12.210000,12.310000,11.279546,4133100
2019-11-08,12.190000,12.310000,11.530000,12.300000,11.270383,5522000
2019-11-11,12.300000,12.380000,11.690000,11.750000,10.766422,4229700
2019-11-12,11.310000,11.480000,11.090000,11.120000,10.594921,5169900
2019-11-13,11.050000,11.180000,10.850000,10.920000,10.404366,2625400
2019-11-14,10.870000,11.240000,10.670000,10.710000,10.204282,2526800
2019-11-15,10.750000,10.930000,10.590000,10.830000,10.318615,3083500
2019-11-18,10.790000,10.830000,10.110000,10.160000,9.680252,3076600
2019-11-19,10.100000,10.140000,9.800000,9.840000,9.375362,3673100
2019-11-20,9.910000,9.930000,9.590000,9.680000,9.222918,4336800
2019-11-21,9.710000,9.950000,9.540000,9.820000,9.356306,2164100
2019-11-22,9.770000,10.030000,9.710000,9.870000,9.403946,2107500
2019-11-25,10.100000,10.370000,9.920000,10.310000,9.823170,2422800
2019-11-26,10.290000,10.290000,9.850000,9.870000,9.403946,2800800
2019-11-27,9.870000,10.030000,9.710000,10.000000,9.527807,1692100
2019-11-29,9.950000,10.110000,9.870000,9.970000,9.499224,1125400
2019-12-02,10.010000,10.110000,9.460000,9.530000,9.080000,2451800
2019-12-03,9.400000,9.590000,9.170000,9.500000,9.051416,2789700
2019-12-04,9.580000,9.720000,9.480000,9.500000,9.051416,2295000
2019-12-05,9.590000,9.650000,9.200000,9.240000,8.803694,5001400
2019-12-06,9.300000,9.540000,9.270000,9.490000,9.041889,2629600
2019-12-09,9.450000,10.070000,9.320000,9.910000,9.442057,4609800
2019-12-10,9.920000,10.510000,9.840000,10.450000,9.956558,6748500
2019-12-11,10.450000,10.880000,10.380000,10.810000,10.299560,4919300
2019-12-12,10.820000,11.300000,10.710000,10.990000,10.471060,6969200
2019-12-13,11.020000,11.130000,10.820000,10.870000,10.356727,5274200
2019-12-16,11.030000,11.490000,10.960000,11.350000,10.814061,3776600
2019-12-17,11.390000,12.050000,11.320000,11.800000,11.242813,4527400
2019-12-18,12.010000,12.310000,11.890000,12.260000,11.681092,4498000
2019-12-19,12.220000,12.390000,12.050000,12.100000,11.528647,2764300
2019-12-20,12.200000,12.430000,12.120000,12.260000,11.681092,10679100
2019-12-23,12.270000,12.850000,12.230000,12.850000,12.243233,4997800
2019-12-24,12.900000,13.060000,12.770000,12.900000,12.290871,1628100
2019-12-26,12.970000,13.120000,12.860000,13.020000,12.405206,1717800
2019-12-27,13.020000,13.260000,12.960000,13.060000,12.443316,3247200
2019-12-30,13.040000,13.290000,12.990000,13.030000,12.414733,5183000
2019-12-31,12.950000,13.410000,12.930000,13.360000,12.729150,3853200
2020-01-02,13.500000,13.530000,13.240000,13.420000,12.786318,3285200
2020-01-03,13.420000,13.480000,13.260000,13.410000,12.776790,3138700
2020-01-06,13.360000,13.740000,13.360000,13.730000,13.081679,2845600
2020-01-07,13.660000,13.820000,13.300000,13.740000,13.091207,3238800
2020-01-08,13.740000,13.740000,12.940000,13.040000,12.424260,3498500
2020-01-09,13.050000,13.100000,12.320000,12.480000,11.890703,6599600
2020-01-10,12.500000,12.500000,12.080000,12.150000,11.576285,3979700
2020-01-13,12.170000,12.760000,12.030000,12.680000,12.081260,3835300
2020-01-14,12.710000,13.160000,12.610000,12.980000,12.367093,3089300
2020-01-15,12.910000,13.210000,12.800000,13.140000,12.519539,2023300
2020-01-16,13.240000,13.570000,12.870000,13.380000,12.748206,2339900
2020-01-17,13.440000,13.490000,13.130000,13.350000,12.719623,3610700
2020-01-21,13.290000,13.300000,12.330000,12.370000,11.785897,3465900
2020-01-22,12.440000,12.440000,11.730000,11.840000,11.280924,3202600
2020-01-23,11.710000,11.710000,11.180000,11.380000,10.842645,5910400
2020-01-24,11.330000,11.400000,10.600000,10.770000,10.261449,4330300
2020-01-27,10.500000,10.570000,10.230000,10.280000,9.794585,3796900
2020-01-28,10.330000,10.480000,10.000000,10.070000,9.594501,5468900
2020-01-29,10.150000,10.290000,9.860000,9.890000,9.423001,3054200
2020-01-30,9.760000,10.050000,9.660000,9.820000,9.356306,3688200
2020-01-31,9.710000,9.840000,9.390000,9.670000,9.213389,4492700
2020-02-03,9.670000,10.060000,9.630000,9.960000,9.489697,2455900
2020-02-04,10.150000,10.620000,10.060000,10.090000,9.613558,4073600
2020-02-05,10.280000,10.530000,10.090000,10.250000,9.766003,3553300
2020-02-06,10.310000,10.400000,9.570000,9.580000,9.127639,4650800
2020-02-07,9.550000,9.780000,9.400000,9.530000,9.080000,2674100
2020-02-10,9.080000,9.150000,8.780000,9.010000,9.010000,2508300
2020-02-11,9.110000,9.240000,8.850000,8.940000,8.940000,5098600
2020-02-12,9.100000,9.250000,8.870000,8.930000,8.930000,4525700
2020-02-13,8.860000,9.100000,8.580000,8.700000,8.700000,3973200