Date,Open,High,Low,Close,Adj Close,Volume
2017-02-10,15.800000,16.000000,15.120000,15.500000,15.500000,5375500
2017-02-13,15.050000,16.139999,15.050000,16.000000,16.000000,567300
2017-02-14,16.080000,16.170000,15.990000,16.000000,16.000000,285500
2017-02-15,16.049999,16.200001,15.770000,15.820000,15.820000,218500
2017-02-16,15.870000,15.880000,15.260000,15.560000,15.560000,100500
2017-02-17,15.530000,15.600000,15.350000,15.520000,15.520000,72900
2017-02-21,15.880000,15.940000,15.450000,15.500000,15.500000,266700
2017-02-22,15.330000,15.770000,15.070000,15.200000,15.200000,403100
2017-02-23,15.270000,15.580000,15.060000,15.500000,15.500000,514400
2017-02-24,15.320000,15.990000,15.315000,15.920000,15.920000,159300
2017-02-27,15.750000,16.330000,15.615000,16.219999,16.219999,382500
2017-02-28,16.270000,16.465000,16.160000,16.340000,16.340000,348500
2017-03-01,16.389999,17.610001,15.970000,17.020000,17.020000,632200
2017-03-02,17.049999,17.362000,16.639999,16.730000,16.730000,344600
2017-03-03,16.809999,16.950001,16.507000,16.590000,16.590000,92000
2017-03-06,16.690001,16.995001,16.299999,16.510000,16.510000,70600
2017-03-07,16.700001,17.000000,16.301001,16.480000,16.480000,214000
2017-03-08,16.650000,16.959999,16.039000,16.230000,16.230000,194200
2017-03-09,16.309999,16.323000,15.630000,15.950000,15.950000,465500
2017-03-10,15.770000,16.120001,15.670000,15.930000,15.930000,290900
2017-03-13,15.960000,16.650000,15.860000,16.340000,16.340000,312000
2017-03-14,16.299999,16.580000,15.110000,15.440000,15.440000,470300
2017-03-15,15.400000,15.940000,15.330000,15.750000,15.750000,142600
2017-03-16,15.690000,16.209999,15.690000,16.170000,16.170000,104500
2017-03-17,16.270000,16.930000,16.129999,16.160000,16.160000,593600
2017-03-20,16.309999,16.430000,15.990000,16.190001,16.190001,169600
2017-03-21,16.180000,16.400000,15.830000,16.059999,16.059999,151200
2017-03-22,15.880000,16.570000,15.650000,16.549999,16.549999,53300
2017-03-23,16.480000,17.299999,16.150000,17.200001,17.200001,136200
2017-03-24,17.290001,17.910000,16.530001,16.770000,16.770000,456200
2017-03-27,16.540001,16.719999,15.875000,16.049999,16.049999,650200
2017-03-28,16.100000,16.410000,15.860000,16.020000,16.020000,317600
2017-03-29,15.920000,15.950000,15.250000,15.560000,15.560000,602800
2017-03-30,15.550000,16.420000,15.470000,16.350000,16.350000,478900
2017-03-31,16.250000,16.360001,15.670000,15.970000,15.970000,1435000
2017-04-03,16.030001,16.059999,15.590000,15.670000,15.670000,307800
2017-04-04,15.600000,15.650000,15.250000,15.620000,15.620000,258100
2017-04-05,15.610000,16.049999,15.360000,15.730000,15.730000,328800
2017-04-06,15.730000,16.030001,15.610000,16.020000,16.020000,207000
2017-04-07,16.030001,16.350000,15.950000,16.200001,16.200001,151000
2017-04-10,16.230000,16.590000,16.020000,16.469999,16.469999,162400
2017-04-11,16.400000,16.500000,16.014999,16.360001,16.360001,138200
2017-04-12,16.299999,16.305000,15.950000,16.020000,16.020000,177700
2017-04-13,15.950000,16.120001,15.830000,15.940000,15.940000,137800
2017-04-17,15.900000,16.230000,15.790000,16.230000,16.230000,73600
2017-04-18,16.080000,16.290001,16.020000,16.139999,16.139999,82300
2017-04-19,16.150000,16.160000,15.910000,16.100000,16.100000,47500
2017-04-20,16.020000,16.379999,16.010000,16.150000,16.150000,81800
2017-04-21,16.150000,16.290001,16.000000,16.110001,16.110001,71100
2017-04-24,16.219999,16.360001,16.059999,16.070000,16.070000,154600
2017-04-25,16.230000,16.330000,16.030001,16.219999,16.219999,103900
2017-04-26,16.129999,16.555000,16.000000,16.379999,16.379999,210100
2017-04-27,16.410000,16.570000,16.129999,16.270000,16.270000,66600
2017-04-28,16.389999,16.434999,16.000000,16.190001,16.190001,108000
2017-05-01,16.280001,16.730000,16.184999,16.559999,16.559999,184300
2017-05-02,16.570000,17.000000,16.280001,16.309999,16.309999,134000
2017-05-03,16.230000,16.430000,16.000000,16.090000,16.090000,154400
2017-05-04,16.200001,16.340000,16.000000,16.180000,16.180000,100600
2017-05-05,16.240000,16.280001,16.000000,16.209999,16.209999,64600
2017-05-08,16.129999,16.170000,15.820000,16.070000,16.070000,192000
2017-05-09,16.040001,16.879999,15.890000,16.379999,16.379999,257800
2017-05-10,16.430000,16.549999,15.670000,15.830000,15.830000,579300
2017-05-11,15.800000,15.809000,15.520000,15.650000,15.650000,159600
2017-05-12,15.660000,15.780000,15.120000,15.280000,15.280000,212100
2017-05-15,15.390000,15.470000,15.050000,15.280000,15.280000,347900
2017-05-16,15.340000,15.530000,14.890000,15.100000,15.100000,182500
2017-05-17,15.050000,15.240000,14.280000,14.470000,14.470000,277700
2017-05-18,14.420000,14.550000,14.020000,14.410000,14.410000,284500
2017-05-19,14.500000,14.545000,14.080000,14.180000,14.180000,610000
2017-05-22,14.290000,14.500000,13.835000,14.180000,14.180000,364900
2017-05-23,14.330000,14.620000,14.030000,14.230000,14.230000,234100
2017-05-24,14.200000,14.280000,13.790000,14.040000,14.040000,351600
2017-05-25,14.060000,14.220000,13.850000,14.040000,14.040000,244000
2017-05-26,14.040000,14.070000,13.760000,14.000000,14.000000,243400
2017-05-30,13.970000,14.090000,13.780000,13.810000,13.810000,173500
2017-05-31,13.790000,13.790000,13.450000,13.500000,13.500000,241400
2017-06-01,13.660000,13.790000,13.500000,13.600000,13.600000,536200
2017-06-02,13.620000,14.000000,13.600000,13.820000,13.820000,514700
2017-06-05,13.820000,13.930000,13.650000,13.690000,13.690000,652500
2017-06-06,13.590000,14.040000,13.590000,13.960000,13.960000,171500
2017-06-07,13.990000,14.540000,13.930000,14.320000,14.320000,198000
2017-06-08,14.250000,14.420000,14.190000,14.300000,14.300000,180400
2017-06-09,14.300000,14.540000,13.970000,14.150000,14.150000,180100
2017-06-12,14.160000,14.240000,13.980000,14.130000,14.130000,99000
2017-06-13,14.160000,14.470000,14.030000,14.230000,14.230000,363500
2017-06-14,14.260000,14.625000,14.100000,14.250000,14.250000,180100
2017-06-15,14.240000,14.270000,13.890000,14.000000,14.000000,180200
2017-06-16,13.950000,14.150000,13.390000,13.750000,13.750000,685300
2017-06-19,13.850000,13.880000,13.660000,13.830000,13.830000,199600
2017-06-20,13.770000,13.910000,13.625000,13.880000,13.880000,98000
2017-06-21,13.880000,13.890000,13.550000,13.620000,13.620000,198400
2017-06-22,13.600000,13.690000,13.530000,13.640000,13.640000,110800
2017-06-23,13.620000,13.810000,13.310000,13.790000,13.790000,345100
2017-06-26,13.840000,13.970000,13.570000,13.850000,13.850000,163900
2017-06-27,13.790000,13.990000,13.590000,13.700000,13.700000,150900
2017-06-28,13.790000,14.160000,13.790000,14.120000,14.120000,187700
2017-06-29,14.220000,14.280000,12.990000,13.030000,13.030000,522100
2017-06-30,13.060000,13.180000,12.700000,12.860000,12.860000,187200
2017-07-03,12.860000,13.100000,12.750000,12.880000,12.880000,71500
2017-07-05,12.890000,12.890000,12.330000,12.390000,12.390000,366700
2017-07-06,12.340000,12.490000,11.935000,11.950000,11.950000,162800
2017-07-07,11.920000,12.300000,11.860000,11.970000,11.970000,201600
2017-07-10,11.890000,12.130000,11.640000,11.810000,11.810000,166500
2017-07-11,11.670000,11.825000,11.220000,11.760000,11.760000,381400
2017-07-12,11.740000,12.300000,11.740000,12.030000,12.030000,347600
2017-07-13,12.000000,12.210000,12.000000,12.200000,12.200000,222100
2017-07-14,12.180000,12.390000,12.030000,12.220000,12.220000,109300
2017-07-17,12.170000,12.530000,12.160000,12.330000,12.330000,634600
2017-07-18,12.280000,12.350000,12.000000,12.080000,12.080000,241200
2017-07-19,12.030000,12.240000,12.000000,12.030000,12.030000,116600
2017-07-20,11.980000,12.270000,11.920000,12.130000,12.130000,115800
2017-07-21,12.230000,12.230000,11.720000,11.920000,11.920000,202000
2017-07-24,11.930000,11.930000,11.670000,11.820000,11.820000,274100
2017-07-25,11.880000,12.190000,11.800000,12.140000,12.140000,505400
2017-07-26,12.110000,12.110000,11.765000,12.010000,12.010000,171400
2017-07-27,12.010000,12.150000,11.900000,12.090000,12.090000,101400
2017-07-28,12.030000,12.170000,12.000000,12.110000,12.110000,80100
2017-07-31,12.090000,12.090000,11.860000,12.060000,12.060000,85000
2017-08-01,12.090000,12.295000,11.810000,12.020000,12.020000,317200
2017-08-02,11.970000,12.100000,11.700000,12.030000,12.030000,323500
2017-08-03,11.960000,12.040000,11.124000,11.860000,11.860000,275200
2017-08-04,11.880000,11.960000,11.532000,11.870000,11.870000,274000
2017-08-07,11.780000,11.860000,11.460000,11.760000,11.760000,210300
2017-08-08,11.710000,12.040000,11.510000,11.550000,11.550000,250000
2017-08-09,11.380000,11.970000,11.348000,11.960000,11.960000,218400
2017-08-10,11.840000,11.940000,11.510000,11.740000,11.740000,167900
2017-08-11,11.460000,11.910000,11.460000,11.870000,11.870000,111800
2017-08-14,11.980000,12.060000,11.810000,11.990000,11.990000,196600
2017-08-15,12.000000,12.120000,11.700000,12.010000,12.010000,159700
2017-08-16,11.990000,12.110000,11.750000,11.920000,11.920000,197600
2017-08-17,11.830000,11.850000,11.610000,11.710000,11.710000,262900
2017-08-18,11.580000,11.610000,11.230000,11.280000,11.280000,170500
2017-08-21,11.260000,11.350000,11.030000,11.270000,11.270000,172000
2017-08-22,11.310000,11.640000,11.260000,11.600000,11.600000,159900
2017-08-23,11.500000,11.580000,11.330000,11.430000,11.430000,140800
2017-08-24,11.490000,11.760000,11.410000,11.660000,11.660000,211400
2017-08-25,11.670000,12.000000,11.650000,11.880000,11.880000,180300
2017-08-28,11.900000,12.290000,11.900000,12.200000,12.200000,144900
2017-08-29,12.140000,12.855000,12.000000,12.500000,12.500000,200400
2017-08-30,12.500000,12.790000,12.400000,12.690000,12.690000,187700
2017-08-31,12.780000,13.110000,12.600000,13.060000,13.060000,303200
2017-09-01,13.050000,13.500000,13.010000,13.480000,13.480000,171400
2017-09-05,13.500000,13.670000,12.990000,13.010000,13.010000,232100
2017-09-06,13.160000,13.850000,13.160000,13.550000,13.550000,375800
2017-09-07,13.610000,13.660000,13.320000,13.480000,13.480000,191900
2017-09-08,13.550000,13.640000,13.320000,13.340000,13.340000,241200
2017-09-11,13.480000,13.710000,13.255000,13.340000,13.340000,127800
2017-09-12,13.420000,13.630000,13.260000,13.450000,13.450000,131500
2017-09-13,13.490000,13.680000,13.400000,13.590000,13.590000,324500
2017-09-14,13.520000,13.575000,13.130000,13.230000,13.230000,120000
2017-09-15,13.170000,13.170000,12.790000,12.810000,12.810000,308200
2017-09-18,12.820000,13.160000,12.320000,12.790000,12.790000,184600
2017-09-19,12.830000,12.930000,12.410000,12.520000,12.520000,135100
2017-09-20,12.530000,13.230000,12.470000,13.130000,13.130000,254600
2017-09-21,13.100000,13.260000,13.030000,13.080000,13.080000,103000
2017-09-22,13.050000,13.380000,13.050000,13.360000,13.360000,171000
2017-09-25,13.360000,13.760000,13.360000,13.700000,13.700000,314200
2017-09-26,13.660000,13.850000,13.440000,13.580000,13.580000,138300
2017-09-27,13.670000,14.280000,13.500000,14.070000,14.070000,252500
2017-09-28,13.950000,14.310000,13.940000,14.290000,14.290000,200600
2017-09-29,14.250000,14.420000,14.100000,14.140000,14.140000,125200
2017-10-02,14.110000,14.615000,13.940000,14.450000,14.450000,163800
2017-10-03,14.460000,14.520000,14.220000,14.440000,14.440000,124100
2017-10-04,14.440000,14.440000,14.320000,14.400000,14.400000,145300
2017-10-05,14.440000,14.520000,14.350000,14.380000,14.380000,54100
2017-10-06,14.180000,14.415000,14.180000,14.400000,14.400000,40900
2017-10-09,14.490000,14.510000,14.230000,14.280000,14.280000,41900
2017-10-10,14.390000,14.390000,14.100000,14.160000,14.160000,32400
2017-10-11,14.230000,14.280000,14.010000,14.210000,14.210000,134400
2017-10-12,13.740000,13.810000,13.030000,13.290000,13.290000,675500
2017-10-13,13.510000,13.730000,13.090000,13.480000,13.480000,159400
2017-10-16,13.470000,13.670000,13.360000,13.500000,13.500000,117400
2017-10-17,13.590000,13.660000,13.310000,13.380000,13.380000,150500
2017-10-18,13.450000,13.450000,12.980000,13.120000,13.120000,200700
2017-10-19,13.180000,13.400000,12.970000,13.080000,13.080000,127200
2017-10-20,13.220000,13.530000,12.970000,13.480000,13.480000,278200
2017-10-23,13.550000,13.550000,13.260000,13.270000,13.270000,58100
2017-10-24,13.280000,13.500000,13.180000,13.350000,13.350000,233500
2017-10-25,13.320000,13.320000,12.780000,13.070000,13.070000,229100
2017-10-26,13.100000,13.440000,13.090000,13.240000,13.240000,43600
2017-10-27,13.210000,13.430000,13.010000,13.410000,13.410000,63500
2017-10-30,13.300000,13.490000,13.220000,13.320000,13.320000,56800
2017-10-31,13.400000,13.530000,13.400000,13.450000,13.450000,47600
2017-11-01,13.600000,13.600000,13.240000,13.420000,13.420000,46000
2017-11-02,13.470000,13.740000,13.305000,13.730000,13.730000,88000
2017-11-03,13.730000,13.945000,13.370000,13.430000,13.430000,68900
2017-11-06,13.380000,13.705000,13.380000,13.520000,13.520000,63500
2017-11-07,13.590000,14.250000,13.541000,13.940000,13.940000,155500
2017-11-08,13.840000,13.880000,13.190000,13.490000,13.490000,141100
2017-11-09,13.360000,13.910000,13.260000,13.880000,13.880000,67500
2017-11-10,13.790000,14.090000,13.635000,13.950000,13.950000,117100
2017-11-13,13.920000,14.030000,13.710000,13.750000,13.750000,94900
2017-11-14,13.630000,13.840000,13.455000,13.710000,13.710000,103300
2017-11-15,13.600000,13.910000,13.360000,13.600000,13.600000,92800
2017-11-16,13.650000,14.100000,13.600000,13.910000,13.910000,108800
2017-11-17,13.850000,14.330000,13.630000,14.230000,14.230000,117500
2017-11-20,14.220000,14.400000,14.190000,14.370000,14.370000,219200
2017-11-21,14.500000,14.640000,14.270000,14.400000,14.400000,155100
2017-11-22,14.480000,14.840000,14.430000,14.430000,14.430000,73700
2017-11-24,14.490000,14.710000,14.210000,14.510000,14.510000,26100
2017-11-27,14.510000,14.640000,14.265000,14.270000,14.270000,80400
2017-11-28,14.260000,14.880000,14.240000,14.860000,14.860000,175600
2017-11-29,14.850000,15.085000,14.750000,14.910000,14.910000,86700
2017-11-30,15.060000,15.320000,14.860000,15.210000,15.210000,229700
2017-12-01,15.210000,15.390000,14.710000,15.260000,15.260000,91300
2017-12-04,15.360000,15.680000,15.130000,15.140000,15.140000,126400
2017-12-05,15.200000,15.200000,14.430000,14.440000,14.440000,136600
2017-12-06,14.430000,14.640000,14.190000,14.210000,14.210000,78300
2017-12-07,14.260000,14.750000,14.029000,14.740000,14.740000,226500
2017-12-08,14.880000,15.080000,14.770000,15.000000,15.000000,134900
2017-12-11,15.020000,15.145000,14.660000,14.740000,14.740000,229500
2017-12-12,14.880000,15.100000,14.700000,14.730000,14.730000,167000
2017-12-13,14.690000,14.950000,14.190000,14.200000,14.200000,632300
2017-12-14,14.280000,14.400000,14.010000,14.090000,14.090000,56100
2017-12-15,14.170000,14.490000,14.170000,14.360000,14.360000,129100
2017-12-18,14.630000,15.020000,14.590000,14.910000,14.910000,226000
2017-12-19,14.940000,15.035000,14.630000,14.710000,14.710000,57300
2017-12-20,14.850000,15.040000,14.650000,14.860000,14.860000,72900
2017-12-21,14.860000,15.240000,14.860000,14.910000,14.910000,58900
2017-12-22,14.970000,14.970000,14.630000,14.880000,14.880000,126300
2017-12-26,14.870000,15.090000,14.780000,14.900000,14.900000,93900
2017-12-27,14.920000,14.980000,14.800000,14.900000,14.900000,107000
2017-12-28,14.970000,15.100000,14.770000,14.980000,14.980000,165200
2017-12-29,15.050000,15.170000,14.780000,14.790000,14.790000,151600
2018-01-02,14.930000,15.000000,14.840000,14.940000,14.940000,43700
2018-01-03,14.930000,15.130000,14.820000,15.040000,15.040000,56000
2018-01-04,15.090000,15.790000,14.960000,15.640000,15.640000,220500
2018-01-05,15.770000,16.190001,15.680000,16.070000,16.070000,283000
2018-01-08,16.090000,16.400000,15.960000,16.190001,16.190001,136900
2018-01-09,16.219999,16.309999,15.810000,15.810000,15.810000,73500
2018-01-10,15.720000,15.730000,15.390000,15.510000,15.510000,83700
2018-01-11,15.510000,16.280001,15.510000,16.000000,16.000000,125000
2018-01-12,16.010000,16.243000,15.850000,15.950000,15.950000,43900
2018-01-16,16.170000,16.170000,15.550000,15.620000,15.620000,47100
2018-01-17,15.680000,15.860000,15.440000,15.640000,15.640000,113400
2018-01-18,15.670000,15.860000,15.550000,15.580000,15.580000,80400
2018-01-19,15.510000,15.750000,15.450000,15.630000,15.630000,47600
2018-01-22,15.410000,15.520000,15.320000,15.500000,15.500000,28800
2018-01-23,15.450000,15.480000,15.140000,15.370000,15.370000,40500
2018-01-24,15.510000,15.700000,15.200000,15.600000,15.600000,131400
2018-01-25,15.660000,15.780000,15.400000,15.630000,15.630000,32700
2018-01-26,15.670000,15.920000,15.450000,15.820000,15.820000,52700
2018-01-29,15.700000,15.700000,15.330000,15.360000,15.360000,29800
2018-01-30,15.200000,15.860000,15.130000,15.590000,15.590000,91000
2018-01-31,15.710000,15.965000,14.110000,14.830000,14.830000,241600
2018-02-01,14.710000,15.180000,14.610000,14.840000,14.840000,92400
2018-02-02,14.740000,14.940000,14.380000,14.500000,14.500000,101100
2018-02-05,14.370000,14.620000,14.030000,14.220000,14.220000,91000
2018-02-06,13.740000,14.500000,13.620000,14.200000,14.200000,81700
2018-02-07,14.180000,14.325000,14.050000,14.260000,14.260000,62100
2018-02-08,14.810000,14.930000,14.150000,14.150000,14.150000,148600
2018-02-09,14.330000,14.340000,13.490000,13.920000,13.920000,175900
2018-02-12,14.020000,14.410000,13.958000,14.280000,14.280000,108100
2018-02-13,14.230000,14.730000,14.210000,14.670000,14.670000,101400
2018-02-14,14.500000,14.860000,14.350000,14.490000,14.490000,82500
2018-02-15,14.590000,14.620000,14.330000,14.540000,14.540000,50900
2018-02-16,14.450000,14.450000,14.030000,14.060000,14.060000,122200
2018-02-20,14.060000,14.090000,13.840000,13.900000,13.900000,215600
2018-02-21,13.970000,14.100000,13.830000,13.840000,13.840000,107600
2018-02-22,13.910000,13.955000,13.480000,13.560000,13.560000,103900
2018-02-23,13.670000,13.980000,13.560000,13.720000,13.720000,121500
2018-02-26,13.750000,13.790000,13.627000,13.710000,13.710000,113400
2018-02-27,14.280000,14.780000,14.170000,14.170000,14.170000,356400
2018-02-28,14.080000,14.330000,13.670000,13.690000,13.690000,194700
2018-03-01,13.610000,14.560000,13.460000,14.300000,14.300000,265800
2018-03-02,14.210000,14.713000,13.930000,14.470000,14.470000,230600
2018-03-05,14.480000,14.890000,14.430000,14.880000,14.880000,206400
2018-03-06,14.870000,15.210000,14.680000,15.020000,15.020000,145400
2018-03-07,14.840000,15.608000,14.840000,15.400000,15.400000,127700
2018-03-08,15.390000,15.580000,15.140000,15.530000,15.530000,143800
2018-03-09,15.620000,15.950000,15.485000,15.940000,15.940000,154800
2018-03-12,16.000000,16.000000,15.270000,15.470000,15.470000,253800
2018-03-13,15.480000,15.850000,15.190000,15.710000,15.710000,225500
2018-03-14,15.770000,15.960000,15.400000,15.520000,15.520000,141800
2018-03-15,15.590000,15.695000,15.200000,15.440000,15.440000,179600
2018-03-16,15.490000,15.870000,15.460000,15.540000,15.540000,176800
2018-03-19,15.400000,15.510000,15.110000,15.400000,15.400000,73500
2018-03-20,15.440000,15.460000,15.150000,15.180000,15.180000,45600
2018-03-21,15.200000,15.520000,15.200000,15.310000,15.310000,87500
2018-03-22,15.160000,15.400000,14.830000,14.860000,14.860000,118700
2018-03-23,14.820000,14.965000,14.470000,14.470000,14.470000,140200
2018-03-26,14.630000,14.920000,14.580000,14.900000,14.900000,148400
2018-03-27,14.880000,14.950000,14.590000,14.680000,14.680000,83400
2018-03-28,14.670000,14.880000,14.600000,14.710000,14.710000,73100
2018-03-29,14.830000,15.010000,14.760000,14.910000,14.910000,424500
2018-04-02,14.960000,14.960000,14.130000,14.510000,14.510000,117600
2018-04-03,14.570000,14.660000,14.430000,14.600000,14.600000,72000
2018-04-04,14.400000,14.700000,14.390000,14.620000,14.620000,71200
2018-04-05,14.800000,14.980000,14.650000,14.950000,14.950000,141400
2018-04-06,14.820000,14.930000,14.440000,14.600000,14.600000,72600
2018-04-09,14.760000,14.984000,14.530000,14.570000,14.570000,151300
2018-04-10,14.770000,14.780000,14.490000,14.570000,14.570000,91300
2018-04-11,14.430000,14.560000,14.280000,14.440000,14.440000,50100
2018-04-12,14.530000,14.650000,14.380000,14.520000,14.520000,51900
2018-04-13,14.590000,14.637000,14.270000,14.380000,14.380000,49300
2018-04-16,14.430000,14.730000,14.200000,14.590000,14.590000,79000
2018-04-17,14.660000,14.830000,14.460000,14.610000,14.610000,154700
2018-04-18,14.670000,15.030000,14.410000,14.760000,14.760000,305800
2018-04-19,14.740000,14.840000,14.510000,14.780000,14.780000,82600
2018-04-20,14.700000,14.900000,14.560000,14.580000,14.580000,82600
2018-04-23,14.570000,14.660000,14.330000,14.350000,14.350000,42900
2018-04-24,14.480000,14.570000,14.225000,14.350000,14.350000,63900
2018-04-25,14.350000,14.430000,14.190000,14.340000,14.340000,68600
2018-04-26,14.440000,14.450000,14.231000,14.410000,14.410000,110900
2018-04-27,14.390000,14.480000,14.300000,14.380000,14.380000,59100
2018-04-30,14.380000,14.450000,13.930000,14.050000,14.050000,53300
2018-05-01,14.020000,14.220000,13.730000,14.000000,14.000000,167700
2018-05-02,13.970000,14.160000,13.810000,13.840000,13.840000,52200
2018-05-03,13.830000,13.940000,13.520000,13.800000,13.800000,72100
2018-05-04,13.720000,14.160000,13.700000,14.110000,14.110000,89300
2018-05-07,14.120000,14.300000,13.880000,14.200000,14.200000,65700
2018-05-08,14.170000,14.800000,14.170000,14.680000,14.680000,119900
2018-05-09,14.000000,14.112000,13.420000,13.940000,13.940000,211800
2018-05-10,13.890000,14.570000,13.890000,14.560000,14.560000,132800
2018-05-11,14.490000,14.590000,14.290000,14.470000,14.470000,128800
2018-05-14,14.490000,14.530000,14.070000,14.130000,14.130000,93600
2018-05-15,14.060000,14.230000,13.855000,14.070000,14.070000,121800
2018-05-16,14.130000,14.270000,13.940000,14.190000,14.190000,141400
2018-05-17,14.230000,14.730000,14.200000,14.680000,14.680000,116300
2018-05-18,14.710000,14.880000,14.570000,14.630000,14.630000,60700
2018-05-21,14.650000,14.740000,14.490000,14.600000,14.600000,35000
2018-05-22,14.670000,14.720000,14.470000,14.530000,14.530000,113500
2018-05-23,14.510000,14.660000,14.410000,14.510000,14.510000,131600
2018-05-24,14.500000,14.830000,14.460000,14.800000,14.800000,53500
2018-05-25,14.750000,15.140000,14.750000,15.070000,15.070000,40600
2018-05-29,15.100000,15.390000,14.995000,15.310000,15.310000,119100
2018-05-30,15.370000,15.580000,15.270000,15.350000,15.350000,124800
2018-05-31,15.360000,15.480000,15.170000,15.350000,15.350000,115500
2018-06-01,15.480000,15.700000,15.380000,15.510000,15.510000,187800
2018-06-04,15.620000,15.710000,15.410000,15.470000,15.470000,114900
2018-06-05,15.460000,15.650000,15.370000,15.540000,15.540000,131200
2018-06-06,15.560000,15.610000,15.310000,15.510000,15.510000,87100
2018-06-07,15.510000,15.640000,15.360000,15.390000,15.390000,202500
2018-06-08,15.410000,15.670000,15.340000,15.560000,15.560000,159300
2018-06-11,15.620000,15.750000,15.520000,15.680000,15.680000,63300
2018-06-12,15.650000,15.740000,15.500000,15.680000,15.680000,104000
2018-06-13,15.740000,15.750000,15.450000,15.560000,15.560000,52300
2018-06-14,15.600000,15.700000,15.370000,15.610000,15.610000,50800
2018-06-15,15.750000,16.030001,15.665000,15.890000,15.890000,149200
2018-06-18,15.780000,15.960000,15.590000,15.850000,15.850000,158500
2018-06-19,15.760000,15.860000,15.480000,15.690000,15.690000,109500
2018-06-20,15.690000,16.090000,15.495000,15.860000,15.860000,134200
2018-06-21,15.890000,16.000000,15.710000,15.800000,15.800000,104400
2018-06-22,15.880000,15.880000,15.450000,15.790000,15.790000,215200
2018-06-25,15.730000,15.960000,15.550000,15.890000,15.890000,174600
2018-06-26,15.880000,16.290001,15.760000,16.290001,16.290001,58200
2018-06-27,16.309999,16.320000,15.830000,15.970000,15.970000,110700
2018-06-28,16.299999,16.315001,14.840000,15.040000,15.040000,340300
2018-06-29,14.980000,15.460000,14.964000,15.380000,15.380000,130500
2018-07-02,15.340000,15.640000,15.230000,15.620000,15.620000,55400
2018-07-03,15.600000,15.730000,15.535000,15.580000,15.580000,23900
2018-07-05,15.710000,15.730000,15.470000,15.710000,15.710000,42100
2018-07-06,15.720000,15.950000,15.670000,15.850000,15.850000,77200
2018-07-09,15.930000,16.000000,15.710000,15.880000,15.880000,77400
2018-07-10,15.910000,15.925000,15.600000,15.620000,15.620000,37700
2018-07-11,15.570000,15.660000,15.390000,15.400000,15.400000,44700
2018-07-12,15.500000,15.500000,15.000000,15.040000,15.040000,84400
2018-07-13,15.000000,15.210000,15.000000,15.080000,15.080000,31400
2018-07-16,15.080000,15.080000,14.640000,14.690000,14.690000,68700
2018-07-17,14.610000,14.785000,14.440000,14.780000,14.780000,80800
2018-07-18,14.780000,14.970000,14.650000,14.790000,14.790000,69300
2018-07-19,14.780000,15.170000,14.735000,15.070000,15.070000,56500
2018-07-20,15.100000,15.100000,14.800000,14.810000,14.810000,28000
2018-07-23,14.830000,14.850000,14.300000,14.320000,14.320000,119200
2018-07-24,14.400000,14.580000,14.240000,14.560000,14.560000,115300
2018-07-25,14.530000,14.530000,14.140000,14.400000,14.400000,61300
2018-07-26,14.360000,14.500000,14.255000,14.500000,14.500000,35200
2018-07-27,14.510000,14.569000,14.190000,14.330000,14.330000,63900
2018-07-30,14.270000,14.570000,14.170000,14.490000,14.490000,55700
2018-07-31,14.430000,14.585000,14.390000,14.490000,14.490000,96100
2018-08-01,14.550000,14.550000,14.155000,14.200000,14.200000,80900
2018-08-02,14.110000,14.290000,13.960000,14.000000,14.000000,64300
2018-08-03,14.080000,14.080000,13.170000,13.230000,13.230000,110700
2018-08-06,13.260000,13.650000,13.260000,13.500000,13.500000,197400
2018-08-07,13.560000,13.840000,13.430000,13.470000,13.470000,105600
2018-08-08,13.530000,13.530000,12.770000,12.900000,12.900000,99700
2018-08-09,13.000000,13.390000,12.090000,13.340000,13.340000,391300
2018-08-10,13.250000,13.250000,12.980000,13.180000,13.180000,151500
2018-08-13,13.420000,13.420000,13.020000,13.180000,13.180000,151400
2018-08-14,13.190000,13.490000,13.180000,13.450000,13.450000,73700
2018-08-15,13.340000,13.610000,13.260000,13.600000,13.600000,97400
2018-08-16,13.620000,13.920000,13.550000,13.800000,13.800000,248100
2018-08-17,13.760000,13.760000,13.420000,13.530000,13.530000,115700
2018-08-20,13.600000,13.835000,13.600000,13.600000,13.600000,78900
2018-08-21,13.630000,14.050000,13.630000,14.010000,14.010000,79900
2018-08-22,14.060000,14.220000,13.940000,14.090000,14.090000,75900
2018-08-23,14.100000,14.100000,13.810000,13.840000,13.840000,33200
2018-08-24,13.850000,13.900000,13.720000,13.790000,13.790000,43900
2018-08-27,13.820000,14.160000,13.820000,14.000000,14.000000,40100
2018-08-28,13.990000,14.050000,13.510000,13.580000,13.580000,46400
2018-08-29,13.600000,13.900000,13.540000,13.780000,13.780000,36000
2018-08-30,13.800000,14.060000,13.690000,14.030000,14.030000,33500
2018-08-31,13.990000,14.015000,13.630000,13.810000,13.810000,138000
2018-09-04,13.790000,14.160000,13.790000,14.120000,14.120000,61100
2018-09-05,14.070000,14.110000,13.890000,13.990000,13.990000,73800
2018-09-06,14.000000,14.090000,13.780000,13.800000,13.800000,51800
2018-09-07,13.780000,13.890000,13.440000,13.620000,13.620000,60400
2018-09-10,13.690000,14.210000,13.690000,14.090000,14.090000,78300
2018-09-11,14.080000,14.300000,14.055000,14.190000,14.190000,64100
2018-09-12,14.140000,14.200000,13.965000,14.110000,14.110000,54800
2018-09-13,14.180000,14.195000,13.190000,13.220000,13.220000,78300
2018-09-14,13.210000,13.321000,13.015000,13.150000,13.150000,39300
2018-09-17,13.110000,13.271000,13.050000,13.080000,13.080000,105500
2018-09-18,13.080000,13.340000,12.980000,13.200000,13.200000,75200
2018-09-19,13.180000,13.460000,13.180000,13.190000,13.190000,59600
2018-09-20,13.220000,13.340000,13.060000,13.110000,13.110000,151400
2018-09-21,13.120000,13.160000,12.880000,12.900000,12.900000,369900
2018-09-24,12.900000,13.100000,12.810000,13.080000,13.080000,102700
2018-09-25,13.070000,13.080000,12.490000,12.700000,12.700000,108300
2018-09-26,12.690000,12.920000,12.450000,12.700000,12.700000,217800
2018-09-27,12.700000,13.490000,12.678000,13.190000,13.190000,214600
2018-09-28,13.070000,13.240000,12.460000,12.470000,12.470000,142900
2018-10-01,12.590000,12.690000,12.040000,12.180000,12.180000,75100
2018-10-02,12.250000,12.300000,11.840000,11.990000,11.990000,123000
2018-10-03,12.010000,12.320000,11.780000,12.290000,12.290000,73800
2018-10-04,12.300000,12.530000,12.290000,12.490000,12.490000,81900
2018-10-05,12.470000,12.630000,12.410000,12.560000,12.560000,78500
2018-10-08,12.660000,13.050000,12.480000,12.950000,12.950000,132700
2018-10-09,12.950000,13.000000,12.720000,12.780000,12.780000,104700
2018-10-10,12.720000,12.790000,12.630000,12.660000,12.660000,92700
2018-10-11,12.650000,12.650000,11.800000,11.820000,11.820000,185300
2018-10-12,11.990000,12.020000,11.480000,11.520000,11.520000,82600
2018-10-15,11.430000,11.510000,11.140000,11.290000,11.290000,65900
2018-10-16,11.340000,11.610000,11.090000,11.520000,11.520000,40900
2018-10-17,11.470000,11.470000,11.020000,11.370000,11.370000,53100
2018-10-18,11.360000,11.360000,10.990000,11.050000,11.050000,64000
2018-10-19,11.040000,11.150000,10.750000,10.940000,10.940000,65500
2018-10-22,10.990000,11.040000,10.840000,10.950000,10.950000,34500
2018-10-23,10.780000,10.890000,10.650000,10.710000,10.710000,135100
2018-10-24,10.660000,10.660000,10.030000,10.070000,10.070000,120600
2018-10-25,10.130000,10.365000,10.060000,10.240000,10.240000,76800
2018-10-26,10.090000,10.090000,9.740000,9.770000,9.770000,49800
2018-10-29,9.800000,9.895000,9.288000,9.390000,9.390000,40700
2018-10-30,9.360000,9.650000,9.260000,9.620000,9.620000,131400
2018-10-31,9.810000,9.810000,9.300000,9.530000,9.530000,73900
2018-11-01,10.520000,11.570000,10.380000,10.920000,10.920000,145300
2018-11-02,10.750000,10.940000,10.569000,10.750000,10.750000,81900
2018-11-05,10.740000,10.860000,10.160000,10.220000,10.220000,142000
2018-11-06,10.230000,10.350000,9.800000,9.850000,9.850000,55800
2018-11-07,9.770000,10.020000,9.740000,9.960000,9.960000,49100
2018-11-08,9.880000,9.960000,9.685000,9.850000,9.850000,40500
2018-11-09,9.800000,9.870000,9.650000,9.650000,9.650000,81600
2018-11-12,9.640000,9.700000,9.390000,9.440000,9.440000,51600
2018-11-13,9.570000,9.890000,9.500000,9.760000,9.760000,78000
2018-11-14,9.890000,10.000000,9.560000,9.640000,9.640000,82100
2018-11-15,9.580000,9.870000,9.560000,9.830000,9.830000,46700
2018-11-16,9.740000,9.990000,9.690000,9.980000,9.980000,44100
2018-11-19,9.940000,10.060000,9.690000,9.720000,9.720000,38100
2018-11-20,9.510000,9.770000,9.360000,9.580000,9.580000,48900
2018-11-21,9.680000,9.990000,9.680000,9.750000,9.750000,24600
2018-11-23,9.600000,9.700000,9.480000,9.520000,9.520000,18300
2018-11-26,9.590000,9.850000,9.590000,9.730000,9.730000,25100
2018-11-27,9.750000,9.820000,9.595000,9.620000,9.620000,21500
2018-11-28,9.660000,10.090000,9.530000,9.980000,9.980000,59900
2018-11-29,9.950000,10.000000,9.770000,9.820000,9.820000,41000
2018-11-30,9.810000,9.920000,9.630000,9.780000,9.780000,69700
2018-12-03,9.930000,9.930000,9.590000,9.790000,9.790000,57100
2018-12-04,9.820000,9.830000,9.100000,9.190000,9.190000,99800
2018-12-06,8.870000,9.400000,8.830000,8.850000,8.850000,96200
2018-12-07,8.880000,9.120000,8.530000,8.640000,8.640000,100700
2018-12-10,8.670000,8.670000,8.250000,8.300000,8.300000,57000
2018-12-11,8.490000,8.490000,7.980000,8.200000,8.200000,102500
2018-12-12,8.200000,8.460000,8.000000,8.030000,8.030000,125700
2018-12-13,8.010000,8.140000,7.810000,8.030000,8.030000,274800
2018-12-14,8.030000,8.230000,7.790000,7.980000,7.980000,224800
2018-12-17,7.880000,8.341000,7.880000,8.130000,8.130000,114700
2018-12-18,8.220000,8.360000,8.070000,8.230000,8.230000,123900
2018-12-19,8.230000,8.370000,7.780000,7.950000,7.950000,184400
2018-12-20,7.950000,8.050000,7.750000,7.850000,7.850000,146900
2018-12-21,7.900000,7.920000,7.650000,7.760000,7.760000,138600
2018-12-24,7.710000,8.100000,7.620000,7.830000,7.830000,42100
2018-12-26,7.930000,8.170000,7.730000,8.160000,8.160000,95000
2018-12-27,8.010000,8.320000,8.010000,8.270000,8.270000,76500
2018-12-28,8.260000,8.359000,8.120000,8.210000,8.210000,39400
2018-12-31,8.300000,8.320000,8.005000,8.310000,8.310000,68600
2019-01-02,8.170000,8.930000,8.140000,8.910000,8.910000,80600
2019-01-03,8.830000,9.058000,8.570000,8.960000,8.960000,63800
2019-01-04,9.110000,9.360000,9.050000,9.360000,9.360000,61600
2019-01-07,9.310000,9.700000,9.140000,9.670000,9.670000,79100
2019-01-08,9.830000,9.830000,9.320000,9.680000,9.680000,82200
2019-01-09,9.740000,9.750000,9.570000,9.750000,9.750000,38700
2019-01-10,9.660000,9.760000,9.550000,9.750000,9.750000,61400
2019-01-11,9.570000,9.613000,9.210000,9.380000,9.380000,64600
2019-01-14,9.280000,9.290000,8.920000,9.120000,9.120000,99000
2019-01-15,9.130000,9.460000,9.030000,9.440000,9.440000,68000
2019-01-16,9.450000,9.670000,9.390000,9.440000,9.440000,54900
2019-01-17,9.390000,9.550000,9.390000,9.470000,9.470000,42200
2019-01-18,9.540000,9.750000,9.520000,9.750000,9.750000,57700
2019-01-22,9.660000,9.750000,9.300000,9.310000,9.310000,56900
2019-01-23,9.360000,9.370000,9.190000,9.330000,9.330000,63500
2019-01-24,9.310000,9.480000,9.270000,9.380000,9.380000,23400
2019-01-25,9.490000,9.690000,9.360000,9.490000,9.490000,36200
2019-01-28,9.370000,9.640000,9.370000,9.450000,9.450000,30000
2019-01-29,9.350000,9.530000,9.280000,9.330000,9.330000,48300
2019-01-30,9.250000,9.355000,9.120000,9.200000,9.200000,75000
2019-01-31,9.340000,9.340000,9.090000,9.140000,9.140000,35000
2019-02-01,9.140000,9.300000,9.040000,9.290000,9.290000,28500
2019-02-04,9.250000,9.350000,9.230000,9.310000,9.310000,77400
2019-02-05,9.320000,9.440000,9.070000,9.130000,9.130000,44800
2019-02-06,9.110000,9.180000,8.850000,9.000000,9.000000,89400
2019-02-07,8.970000,9.100000,8.870000,8.950000,8.950000,29100
2019-02-08,8.910000,9.050000,8.730000,8.740000,8.740000,34100
2019-02-11,8.780000,9.000000,8.780000,8.860000,8.860000,39100
2019-02-12,9.300000,9.300000,8.930000,8.950000,8.950000,78000
2019-02-13,9.080000,9.190000,8.885000,9.010000,9.010000,54100
2019-02-14,9.040000,9.260000,8.970000,8.990000,8.990000,71500
2019-02-15,9.090000,9.430000,9.090000,9.210000,9.210000,196700
2019-02-19,9.190000,9.690000,9.190000,9.440000,9.440000,161500
2019-02-20,9.460000,9.970000,9.460000,9.900000,9.900000,175100
2019-02-21,9.880000,9.930000,9.650000,9.850000,9.850000,36300
2019-02-22,9.870000,9.890000,9.460000,9.510000,9.510000,53900
2019-02-25,9.610000,9.840000,9.400000,9.460000,9.460000,125400
2019-02-26,9.640000,10.960000,9.390000,10.520000,10.520000,481400
2019-02-27,10.530000,11.230000,10.431000,10.930000,10.930000,249300
2019-02-28,10.900000,11.340000,10.820000,11.120000,11.120000,151900
2019-03-01,11.150000,11.150000,10.750000,10.800000,10.800000,73500
2019-03-04,10.840000,11.140000,10.830000,11.070000,11.070000,80600
2019-03-05,11.060000,11.090000,10.800000,10.870000,10.870000,68600
2019-03-06,10.890000,10.980000,10.340000,10.370000,10.370000,90100
2019-03-07,10.360000,10.390000,10.090000,10.200000,10.200000,46300
2019-03-08,10.160000,10.600000,10.140000,10.400000,10.400000,68200
2019-03-11,10.450000,10.750000,10.430000,10.560000,10.560000,89000
2019-03-12,10.660000,10.690000,10.410000,10.530000,10.530000,52300
2019-03-13,10.570000,10.610000,10.150000,10.310000,10.310000,72400
2019-03-14,10.330000,10.410000,10.140000,10.190000,10.190000,89200
2019-03-15,10.180000,10.530000,10.180000,10.510000,10.510000,210700
2019-03-18,10.500000,10.510000,10.235000,10.270000,10.270000,119500
2019-03-19,10.350000,10.350000,10.170000,10.250000,10.250000,99400
2019-03-20,10.250000,10.250000,9.730000,9.750000,9.750000,50400
2019-03-21,9.710000,10.020000,9.710000,9.840000,9.840000,67600
2019-03-22,9.760000,9.810000,9.450000,9.530000,9.530000,76700
2019-03-25,9.510000,9.620000,9.210000,9.510000,9.510000,80400
2019-03-26,9.690000,9.740000,9.400000,9.640000,9.640000,84700
2019-03-27,9.640000,9.700000,9.260000,9.650000,9.650000,94100
2019-03-28,9.650000,9.995000,9.520000,9.860000,9.860000,66600
2019-03-29,9.790000,10.030000,9.560000,9.840000,9.840000,296400
2019-04-01,10.000000,10.270000,9.900000,9.980000,9.980000,184100
2019-04-02,9.980000,10.020000,9.820000,10.000000,10.000000,96700
2019-04-03,10.050000,10.220000,9.870000,9.980000,9.980000,181300
2019-04-04,10.000000,10.670000,9.994000,10.620000,10.620000,79400
2019-04-05,10.620000,11.090000,10.620000,10.990000,10.990000,118100
2019-04-08,11.070000,11.100000,10.950000,11.090000,11.090000,56700
2019-04-09,11.100000,11.180000,10.810000,10.870000,10.870000,221000
2019-04-10,10.920000,11.690000,10.920000,11.380000,11.380000,133700
2019-04-11,11.440000,11.940000,11.440000,11.760000,11.760000,197300
2019-04-12,11.870000,12.270000,11.790000,12.260000,12.260000,196100
2019-04-15,12.240000,12.690000,12.150000,12.640000,12.640000,191800
2019-04-16,12.720000,12.800000,12.330000,12.540000,12.540000,157400
2019-04-17,12.500000,12.970000,12.358000,12.720000,12.720000,149700
2019-04-18,12.690000,13.110000,12.670000,13.100000,13.100000,164900
2019-04-22,13.040000,13.060000,12.810000,13.000000,13.000000,76900
2019-04-23,13.070000,13.575000,12.965000,13.350000,13.350000,133700
2019-04-24,13.450000,13.510000,13.195000,13.310000,13.310000,118000
2019-04-25,13.220000,13.520000,12.790000,13.310000,13.310000,90200
2019-04-26,13.330000,13.450000,13.150000,13.310000,13.310000,119000
2019-04-29,13.330000,13.640000,13.330000,13.480000,13.480000,93200
2019-04-30,13.500000,13.820000,13.475000,13.590000,13.590000,177800
2019-05-01,13.670000,13.870000,13.630000,13.760000,13.760000,109800
2019-05-02,13.850000,13.870000,13.520000,13.600000,13.600000,141600
2019-05-03,13.680000,13.960000,13.680000,13.900000,13.900000,134700
2019-05-06,13.780000,14.420000,13.722000,14.200000,14.200000,168300
2019-05-07,14.740000,14.850000,14.170000,14.420000,14.420000,281400
2019-05-08,14.440000,15.555000,14.440000,15.440000,15.440000,253400
2019-05-09,15.320000,15.710000,15.165000,15.550000,15.550000,336100
2019-05-10,15.550000,16.049999,15.480000,15.700000,15.700000,249400
2019-05-13,15.700000,15.700000,15.230000,15.390000,15.390000,281500
2019-05-14,15.500000,15.850000,15.250000,15.310000,15.310000,238900
2019-05-15,15.130000,15.970000,14.870000,15.850000,15.850000,252400
2019-05-16,15.940000,15.970000,15.650000,15.870000,15.870000,195800
2019-05-17,15.700000,15.950000,15.650000,15.720000,15.720000,134700
2019-05-20,15.590000,15.860000,15.500000,15.630000,15.630000,193100
2019-05-21,15.690000,15.880000,15.570000,15.720000,15.720000,369500
2019-05-22,15.610000,15.780000,15.320000,15.490000,15.490000,221700
2019-05-23,15.320000,15.500000,15.210000,15.300000,15.300000,228100
2019-05-24,15.350000,15.460000,15.240000,15.330000,15.330000,202000
2019-05-28,15.310000,15.680000,14.930000,15.550000,15.550000,261500
2019-05-29,15.420000,15.550000,15.180000,15.180000,15.180000,161000
2019-05-30,15.260000,15.420000,15.070000,15.090000,15.090000,191300
2019-05-31,14.920000,15.310000,14.830000,15.170000,15.170000,240600
2019-06-03,15.120000,15.200000,14.812000,15.100000,15.100000,158100
2019-06-04,15.250000,15.400000,15.040000,15.160000,15.160000,261900
2019-06-05,15.160000,15.700000,15.090000,15.390000,15.390000,439100
2019-06-06,15.390000,15.640000,15.300000,15.350000,15.350000,272300
2019-06-07,15.410000,15.570000,15.040000,15.380000,15.380000,182000
2019-06-10,15.480000,15.620000,15.270000,15.450000,15.450000,282600
2019-06-11,15.490000,15.690000,15.250000,15.500000,15.500000,377400
2019-06-12,15.550000,15.600000,15.290000,15.390000,15.390000,263200
2019-06-13,15.470000,16.049999,15.350000,15.880000,15.880000,308700
2019-06-14,15.890000,15.890000,15.630000,15.740000,15.740000,118200
2019-06-17,15.740000,16.000000,15.600000,15.830000,15.830000,213800
2019-06-18,16.000000,16.650000,15.830000,16.360001,16.360001,518600
2019-06-19,16.360001,16.430000,15.780000,15.850000,15.850000,156600
2019-06-20,15.970000,16.260000,15.870000,16.200001,16.200001,145900
2019-06-21,16.120001,16.370001,16.035000,16.209999,16.209999,129800
2019-06-24,16.230000,16.309999,16.030001,16.219999,16.219999,136800
2019-06-25,16.299999,16.580000,16.110001,16.500000,16.500000,192300
2019-06-26,16.540001,16.959999,16.350000,16.690001,16.690001,502300
2019-06-27,16.700001,16.700001,16.340000,16.690001,16.690001,181700
2019-06-28,16.740000,17.780001,16.635000,17.780001,17.780001,473000
2019-07-01,18.100000,18.209999,17.370001,17.450001,17.450001,331900
2019-07-02,17.469999,17.590000,17.090000,17.400000,17.400000,227400
2019-07-03,17.400000,17.600000,17.184999,17.370001,17.370001,60800
2019-07-05,17.290001,17.490000,16.959999,17.340000,17.340000,101500
2019-07-08,17.299999,17.309999,17.129999,17.260000,17.260000,145400
2019-07-09,17.200001,17.330000,16.969999,17.100000,17.100000,225200
2019-07-10,17.190001,17.299999,16.959999,17.230000,17.230000,346400
2019-07-11,17.340000,17.700001,17.240000,17.559999,17.559999,221200
2019-07-12,17.670000,17.840000,17.510000,17.549999,17.549999,130500
2019-07-15,17.520000,17.583000,17.280001,17.500000,17.500000,125500
2019-07-16,17.520000,17.700001,17.340000,17.490000,17.490000,156300
2019-07-17,17.500000,17.549999,17.139999,17.240000,17.240000,202500
2019-07-18,17.180000,17.180000,16.629999,16.860001,16.860001,220900
2019-07-19,16.930000,17.200001,16.660000,16.680000,16.680000,152900
2019-07-22,16.690001,16.690001,16.370001,16.600000,16.600000,230600
2019-07-23,16.629999,16.680000,16.270000,16.580000,16.580000,183900
2019-07-24,16.540001,17.490000,16.540001,17.480000,17.480000,233100
2019-07-25,17.430000,17.879999,17.430000,17.620001,17.620001,222000
2019-07-26,17.650000,17.850000,17.350000,17.500000,17.500000,118700
2019-07-29,17.490000,17.590000,17.174999,17.230000,17.230000,194200
2019-07-30,17.100000,17.580000,17.100000,17.379999,17.379999,169400
2019-07-31,17.370001,17.500000,17.120001,17.209999,17.209999,191800
2019-08-01,17.200001,17.350000,16.719999,16.750000,16.750000,200800
2019-08-02,16.670000,16.959999,16.320000,16.940001,16.940001,268800
2019-08-05,16.570000,16.790001,16.115000,16.350000,16.350000,149800
2019-08-06,16.870001,17.420000,16.420000,16.950001,16.950001,1178300
2019-08-07,16.889999,17.889999,16.879999,17.700001,17.700001,1083200
2019-08-08,17.920000,19.742001,17.900000,19.340000,19.340000,796800
2019-08-09,19.290001,19.480000,18.450001,18.719999,18.719999,629800
2019-08-12,18.750000,18.870001,18.420000,18.490000,18.490000,277700
2019-08-13,18.510000,18.620001,17.580000,17.940001,17.940001,359500
2019-08-14,17.670000,18.010000,17.590000,17.900000,17.900000,301300
2019-08-15,17.910000,18.065001,17.790001,17.959999,17.959999,223000
2019-08-16,18.049999,18.160000,17.299999,17.330000,17.330000,304200
2019-08-19,17.570000,17.950001,17.080000,17.110001,17.110001,486600
2019-08-20,17.120001,17.959999,17.080000,17.930000,17.930000,384100
2019-08-21,18.139999,18.360001,17.896999,18.340000,18.340000,321900
2019-08-22,18.400000,18.820000,18.190001,18.219999,18.219999,270300
2019-08-23,18.150000,18.360001,17.719999,17.930000,17.930000,283700
2019-08-26,18.110001,18.180000,17.639999,17.780001,17.780001,187900
2019-08-27,17.850000,17.850000,17.200001,17.240000,17.240000,221500
2019-08-28,17.200001,17.209999,16.700001,16.990000,16.990000,210600
2019-08-29,17.139999,17.489000,17.080000,17.129999,17.129999,159200
2019-08-30,17.209999,17.270000,16.850000,17.129999,17.129999,172800
2019-09-03,17.040001,17.070000,16.299999,16.450001,16.450001,271700
2019-09-04,16.600000,16.680000,16.180000,16.350000,16.350000,346200
2019-09-05,16.620001,17.059999,16.549999,16.830000,16.830000,258200
2019-09-06,16.790001,17.170000,16.790001,16.940001,16.940001,200900
2019-09-09,17.000000,17.570000,16.639999,17.490000,17.490000,225700
2019-09-10,17.610001,18.340000,17.266001,18.030001,18.030001,349500
2019-09-11,18.049999,18.480000,17.799999,18.459999,18.459999,339600
2019-09-12,18.410000,18.790001,18.219999,18.510000,18.510000,298700
2019-09-13,18.670000,18.764999,18.160000,18.260000,18.260000,136100
2019-09-16,18.209999,18.750000,18.209999,18.500000,18.500000,207200
2019-09-17,18.370001,19.000000,18.250000,18.889999,18.889999,222200
2019-09-18,18.900000,19.004999,18.549999,18.940001,18.940001,128700
2019-09-19,17.860001,18.190001,16.379999,17.469999,17.469999,1269900
2019-09-20,17.770000,18.070000,16.400000,16.500000,16.500000,4100600
2019-09-23,16.480000,16.790001,16.301001,16.440001,16.440001,315300
2019-09-24,16.469999,16.620001,15.860000,15.930000,15.930000,750800
2019-09-25,15.990000,16.330000,15.770000,16.230000,16.230000,675100
2019-09-26,16.139999,16.180000,15.460000,15.970000,15.970000,732800
2019-09-27,16.010000,16.020000,15.280000,15.330000,15.330000,317600
2019-09-30,15.340000,15.540000,15.070000,15.490000,15.490000,395900
2019-10-01,15.540000,15.730000,15.020000,15.140000,15.140000,444200
2019-10-02,15.220000,15.310000,14.950000,15.000000,15.000000,527400
2019-10-03,14.960000,15.690000,14.710000,15.670000,15.670000,476600
2019-10-04,15.640000,15.970000,15.375000,15.940000,15.940000,436300
2019-10-07,15.930000,16.620001,15.930000,16.250000,16.250000,338500
2019-10-08,16.219999,16.830000,16.049999,16.620001,16.620001,363300
2019-10-09,16.620001,16.889999,16.510000,16.620001,16.620001,230900
2019-10-10,16.660000,16.903000,16.600000,16.680000,16.680000,333100
2019-10-11,17.190001,17.420000,16.962000,17.100000,17.100000,1069000
2019-10-14,17.150000,17.580000,17.080000,17.420000,17.420000,503000
2019-10-15,17.490000,17.870001,17.371000,17.540001,17.540001,390100
2019-10-16,18.110001,18.209999,17.680000,17.760000,17.760000,607900
2019-10-17,17.770000,18.459999,17.760000,18.129999,18.129999,443900
2019-10-18,18.020000,18.570000,18.020000,18.270000,18.270000,216400
2019-10-21,18.420000,18.709999,18.110001,18.190001,18.190001,384700
2019-10-22,18.160000,18.500000,17.915001,18.400000,18.400000,314900
2019-10-23,18.350000,18.549999,18.070000,18.340000,18.340000,275100
2019-10-24,18.430000,18.709999,18.252001,18.700001,18.700001,309100
2019-10-25,18.620001,19.180000,18.530001,18.850000,18.850000,314100
2019-10-28,18.820000,19.091999,18.764999,18.850000,18.850000,200400
2019-10-29,18.709999,19.010000,18.709999,18.790001,18.790001,215500
2019-10-30,18.700001,18.790001,17.950001,18.459999,18.459999,234000
2019-10-31,18.400000,18.629999,18.270000,18.590000,18.590000,267900
2019-11-01,18.639999,19.230000,18.570000,19.040001,19.040001,227300
2019-11-04,19.150000,19.593000,19.150000,19.500000,19.500000,309300
2019-11-05,20.000000,21.709999,19.680000,20.700001,20.700001,1099500
2019-11-06,20.719999,21.930000,20.610001,21.700001,21.700001,895700
2019-11-07,21.930000,22.139999,20.740000,20.840000,20.840000,632100
2019-11-08,20.840000,21.540001,20.820000,21.260000,21.260000,330300
2019-11-11,21.139999,21.420000,20.850000,21.059999,21.059999,288700
2019-11-12,21.139999,21.389999,20.889999,21.190001,21.190001,260300
2019-11-13,21.030001,21.760000,21.000000,21.549999,21.549999,234300
2019-11-14,21.340000,21.590000,21.250000,21.469999,21.469999,449600
2019-11-15,21.420000,21.600000,21.190001,21.230000,21.230000,236200
2019-11-18,21.170000,21.400000,21.010000,21.139999,21.139999,209900
2019-11-19,21.270000,21.290001,20.510000,20.600000,20.600000,352000
2019-11-20,20.610001,21.170000,20.469999,20.790001,20.790001,317500
2019-11-21,20.840000,20.889999,20.610001,20.730000,20.730000,210800
2019-11-22,20.780001,20.850000,20.200001,20.559999,20.559999,255600
2019-11-25,20.670000,21.170000,20.670000,20.900000,20.900000,233100
2019-11-26,20.780001,21.049999,20.520000,20.860001,20.860001,301400
2019-11-27,21.010000,21.160000,20.850000,20.920000,20.920000,178700
2019-11-29,20.900000,20.900000,20.320000,20.440001,20.440001,85300
2019-12-02,20.600000,20.750000,20.309999,20.580000,20.580000,332500
2019-12-03,20.350000,20.700001,20.240000,20.549999,20.549999,268600
2019-12-04,20.700001,20.830000,20.360001,20.760000,20.760000,251000
2019-12-05,20.770000,20.969999,19.799999,20.150000,20.150000,492700
2019-12-06,20.440001,20.525999,20.129999,20.150000,20.150000,282300
2019-12-09,20.030001,20.280001,19.930000,20.040001,20.040001,479800
2019-12-10,20.020000,20.190001,19.825001,20.000000,20.000000,315400
2019-12-11,19.940001,20.068001,19.450001,19.590000,19.590000,438000
2019-12-12,19.540001,19.760000,19.110001,19.260000,19.260000,267400
2019-12-13,19.139999,19.459999,18.889999,19.040001,19.040001,204600
2019-12-16,19.129999,19.340000,19.010000,19.129999,19.129999,211300
2019-12-17,19.070000,19.471001,19.059999,19.160000,19.160000,265100
2019-12-18,19.150000,19.299999,18.879999,19.180000,19.180000,190900
2019-12-19,19.080000,19.125000,18.780001,18.900000,18.900000,357400
2019-12-20,18.930000,19.110001,18.520000,18.730000,18.730000,1106100
2019-12-23,18.860001,19.105000,18.610001,18.650000,18.650000,187100
2019-12-24,18.660000,19.030001,18.450001,18.840000,18.840000,69800
2019-12-26,18.830000,19.059999,18.600000,18.910000,18.910000,240000
2019-12-27,20.700001,21.620001,20.190001,20.209999,20.209999,1949700
2019-12-30,20.170000,20.247000,19.299999,19.400000,19.400000,1112300
2019-12-31,19.250000,19.590000,18.959999,19.350000,19.350000,4286300
2020-01-02,19.330000,19.719999,19.209999,19.570000,19.570000,582100
2020-01-03,19.330000,19.799999,19.270000,19.670000,19.670000,477300
2020-01-06,19.080000,19.580000,19.049999,19.070000,19.070000,560300
2020-01-07,18.930000,19.090000,18.180000,18.750000,18.750000,647900
2020-01-08,18.750000,19.350000,18.559999,19.070000,19.070000,430900
2020-01-09,19.170000,19.250000,18.830000,18.850000,18.850000,241200
2020-01-10,18.840000,19.190001,18.680000,19.000000,19.000000,312300
2020-01-13,19.010000,19.340000,18.860001,19.299999,19.299999,315100
2020-01-14,19.200001,19.209999,18.785000,18.950001,18.950001,495500
2020-01-15,18.840000,19.459999,18.750000,19.450001,19.450001,410300
2020-01-16,19.559999,19.969999,19.559999,19.629999,19.629999,190600
2020-01-17,19.760000,19.830000,19.260000,19.309999,19.309999,158900
2020-01-21,19.160000,19.430000,19.100000,19.410000,19.410000,270700
2020-01-22,19.440001,19.549999,18.910000,18.990000,18.990000,313300
2020-01-23,19.030001,19.180000,18.790001,19.030001,19.030001,213200
2020-01-24,18.980000,19.020000,18.405001,18.750000,18.750000,273300
2020-01-27,18.389999,18.680000,18.350000,18.469999,18.469999,173400
2020-01-28,18.549999,18.650000,18.323000,18.440001,18.440001,339800
2020-01-29,18.540001,18.969999,18.540001,18.840000,18.840000,303400
2020-01-30,18.629999,18.920000,18.350000,18.620001,18.620001,199100
2020-01-31,18.430000,18.510000,17.809999,17.830000,17.830000,273500
2020-02-03,17.830000,18.059999,17.260000,17.459999,17.459999,434700
2020-02-04,17.639999,17.730000,17.340000,17.690001,17.690001,490900
2020-02-05,17.870001,18.180000,17.690001,18.110001,18.110001,238000
2020-02-06,18.080000,18.245001,17.799999,17.820000,17.820000,227000
2020-02-07,17.740000,17.790001,17.280001,17.400000,17.400000,458000
2020-02-10,17.330000,17.820000,17.330000,17.740000,17.740000,153200
2020-02-11,17.760000,18.059999,17.700001,17.940001,17.940001,661500
2020-02-12,18.160000,18.350000,18.000000,18.230000,18.230000,152200
2020-02-13,18.200001,18.639999,18.150000,18.350000,18.350000,184700