Date,Open,High,Low,Close,Adj Close,Volume
2015-09-25,20.000000,20.250000,20.000000,20.010000,13.265687,1483900
2015-09-28,20.020000,20.186001,20.000000,20.000000,13.259054,83400
2015-09-29,20.000000,20.010000,20.000000,20.004999,13.262365,46100
2015-09-30,20.010000,20.150000,20.000000,20.000000,13.259054,62000
2015-10-01,20.000000,20.049999,20.000000,20.000000,13.259054,31800
2015-10-02,20.000000,20.040001,20.000000,20.030001,13.278941,25300
2015-10-05,20.000000,20.879999,20.000000,20.500000,13.590528,219000
2015-10-06,20.170000,20.500000,20.000000,20.000000,13.259054,130000
2015-10-07,20.030001,20.080000,20.000000,20.000000,13.259054,41600
2015-10-08,20.020000,20.469999,20.010000,20.100000,13.325344,109700
2015-10-09,20.100000,20.459999,20.030001,20.030001,13.278941,172300
2015-10-12,20.040001,20.240000,20.040001,20.049999,13.292200,15700
2015-10-13,20.049999,20.150000,20.000000,20.000000,13.259054,112800
2015-10-14,20.030001,20.030001,20.000000,20.000000,13.259054,74900
2015-10-15,20.010000,20.160000,20.000000,20.010000,13.265687,78400
2015-10-16,20.240000,20.240000,20.000000,20.000000,13.259054,51400
2015-10-19,20.129999,20.270000,20.010000,20.049999,13.292200,105200
2015-10-20,20.049999,20.049999,20.000000,20.000000,13.259054,65500
2015-10-21,20.020000,20.072001,20.000000,20.010000,13.265687,38300
2015-10-22,20.020000,20.020000,20.000000,20.000000,13.259054,51900
2015-10-23,20.049999,20.120001,20.000000,20.000000,13.259054,57400
2015-10-26,20.010000,20.260000,20.000000,20.150000,13.358499,33700
2015-10-27,20.135000,20.270000,20.010000,20.120001,13.338610,21100
2015-10-28,20.030001,20.209999,20.000000,20.200001,13.391644,83500
2015-10-29,20.070000,20.350000,20.070000,20.350000,13.491083,35300
2015-10-30,20.200001,20.290001,20.000000,20.000000,13.259054,124900
2015-11-02,20.000000,20.290001,20.000000,20.000000,13.259054,734500
2015-11-03,20.020000,20.040001,20.000000,20.000000,13.259054,81900
2015-11-04,20.000000,20.010000,20.000000,20.000000,13.259054,69500
2015-11-05,20.000000,20.030001,20.000000,20.000000,13.259054,60500
2015-11-06,19.959999,20.080000,19.959999,20.000000,13.259054,171100
2015-11-09,19.600000,19.870001,18.530001,18.719999,12.410473,119700
2015-11-10,18.370001,18.690001,18.370001,18.639999,12.357435,55500
2015-11-11,18.650000,19.104000,18.650000,18.870001,12.509915,41000
2015-11-12,18.860001,19.200001,18.860001,18.930000,12.549691,61600
2015-11-13,18.920000,19.785000,18.360001,18.420000,12.290147,89800
2015-11-16,18.500000,19.440001,18.500000,19.180000,12.797228,45200
2015-11-17,19.131001,19.177000,18.850000,19.000000,12.677127,32400
2015-11-18,18.860001,19.000000,18.570000,18.950001,12.643773,44700
2015-11-19,18.700001,18.809999,18.440001,18.559999,12.383554,44700
2015-11-20,18.799999,18.924000,18.500000,18.650000,12.443604,41800
2015-11-23,18.879999,18.879999,18.000000,18.290001,12.203405,53100
2015-11-24,18.490000,18.490000,18.020000,18.129999,12.096653,82000
2015-11-25,18.500000,18.500000,18.120001,18.160000,12.116670,53700
2015-11-27,18.090000,18.120001,18.000000,18.030001,12.029930,23800
2015-11-30,18.040001,18.049999,17.250000,17.541000,11.703659,210400
2015-12-01,17.600000,17.930000,17.455000,17.930000,11.963210,68600
2015-12-02,17.969999,18.166000,17.629999,17.750000,11.843108,88900
2015-12-03,17.700001,17.900000,17.572001,17.740000,11.836439,39000
2015-12-04,17.559999,19.000000,17.559999,18.230000,12.163373,101100
2015-12-07,18.080000,18.120001,17.860001,18.120001,12.089979,20500
2015-12-08,17.980000,18.120001,17.750000,17.870001,11.923176,54400
2015-12-09,17.629999,17.900000,17.620001,17.700001,11.809749,45600
2015-12-10,17.900000,17.940001,17.709999,17.850000,11.909830,51800
2015-12-11,17.690001,17.719999,17.000000,17.260000,11.516174,75200
2015-12-14,17.129999,17.370001,16.219999,16.830000,11.229270,87800
2015-12-15,17.035999,17.059999,16.719999,16.809999,11.215923,122200
2015-12-16,16.620001,17.070000,16.620001,17.010000,11.349369,96200
2015-12-17,17.059999,17.150000,17.000000,17.100000,11.409420,132100
2015-12-18,17.000000,17.209999,16.850000,17.010000,11.349369,104800
2015-12-21,17.030001,17.709999,16.719999,16.760000,11.182565,206600
2015-12-22,16.450001,16.840000,16.400000,16.752001,11.177225,143400
2015-12-23,16.799999,17.080000,16.799999,17.080000,11.396075,156700
2015-12-24,17.090000,17.510000,17.020000,17.250000,11.509501,33900
2015-12-28,17.150000,17.510000,17.049999,17.129999,11.429435,282100
2015-12-29,17.150000,17.469999,17.110001,17.180000,11.462799,290300
2015-12-30,17.100000,17.389999,17.100000,17.219999,11.489482,205400
2015-12-31,17.176001,17.250000,17.150000,17.160000,11.449453,103100
2016-01-04,16.990000,17.020000,16.580000,16.830000,11.309011,37200
2016-01-05,16.889999,16.950001,16.834999,16.940001,11.382928,37100
2016-01-06,16.840000,16.900000,16.680000,16.840000,11.315736,49800
2016-01-07,16.600000,16.780001,16.510000,16.580000,11.141026,31900
2016-01-08,16.600000,16.600000,16.190001,16.250000,10.919277,45200
2016-01-11,16.250000,16.320000,15.760000,15.780000,10.603461,78900
2016-01-12,15.880000,16.049999,15.850000,15.920000,10.697532,61100
2016-01-13,16.000000,16.000000,15.820000,15.830000,10.637054,73500
2016-01-14,15.755000,15.800000,15.525000,15.690000,10.542982,119400
2016-01-15,15.660000,15.660000,15.190000,15.500000,10.415312,161300
2016-01-19,15.550000,15.600000,15.230000,15.410000,10.354834,101500
2016-01-20,15.260000,15.300000,14.500000,14.590000,9.803829,208000
2016-01-21,14.590000,14.890000,14.500000,14.600000,9.810551,117000
2016-01-22,14.720000,15.130000,14.720000,15.070000,10.126370,65300
2016-01-25,15.110000,15.150000,14.950000,14.970000,10.059175,64800
2016-01-26,14.880000,15.230000,14.880000,15.100000,10.146533,139800
2016-01-27,14.990000,15.270000,14.990000,15.080000,10.133090,63700
2016-01-28,15.250000,15.390000,15.060000,15.320000,10.294359,81100
2016-01-29,15.340000,15.700000,15.340000,15.590000,10.475785,75600
2016-02-01,15.420000,15.940000,15.320000,15.850000,10.733808,65300
2016-02-02,15.650000,15.709000,15.250000,15.290000,10.354568,84700
2016-02-03,15.170000,15.530000,15.170000,15.430000,10.449375,35800
2016-02-04,15.320000,15.540000,15.320000,15.410000,10.435835,101000
2016-02-05,15.460000,15.470000,15.210000,15.230000,10.313935,27200
2016-02-08,14.970000,15.000000,14.550000,14.720000,9.968558,51400
2016-02-09,14.520000,14.540000,14.260000,14.300000,9.684125,176200
2016-02-10,14.250000,14.490000,14.250000,14.300000,9.684125,158800
2016-02-11,13.890000,14.170000,13.890000,14.110000,9.555456,105500
2016-02-12,13.930000,14.330000,13.930000,14.260000,9.657039,95800
2016-02-16,14.800000,14.800000,14.360000,14.480000,9.806025,37700
2016-02-17,14.690000,15.260000,14.690000,14.970000,10.137859,43500
2016-02-18,14.910000,15.140000,14.910000,14.990000,10.151404,44300
2016-02-19,14.950000,15.300000,14.890000,15.240000,10.320706,72700
2016-02-22,15.271000,15.350000,15.080000,15.110000,10.232671,77300
2016-02-23,15.000000,15.190000,15.000000,15.080000,10.212353,85200
2016-02-24,15.050000,15.100000,14.650000,15.100000,10.225898,98100
2016-02-25,15.180000,15.300000,15.100000,15.280000,10.347795,58600
2016-02-26,15.260000,15.480000,15.116000,15.220000,10.307165,42400
2016-02-29,15.130000,15.192000,15.050000,15.050000,10.192034,90200
2016-03-01,15.010000,15.400000,15.010000,15.350000,10.479452,38100
2016-03-02,15.360000,15.389000,15.300000,15.330000,10.465799,37500
2016-03-03,15.220000,15.550000,15.205000,15.330000,10.465799,36700
2016-03-04,15.250000,15.500000,15.250000,15.380000,10.499933,23400
2016-03-07,15.393000,15.500000,15.270000,15.500000,10.581858,56200
2016-03-08,15.393000,15.570000,15.340000,15.520000,10.595513,44000
2016-03-09,15.480000,15.752000,15.390000,15.670000,10.697918,97600
2016-03-10,15.660000,15.980000,15.466000,15.690000,10.711571,31600
2016-03-11,15.900000,16.219999,15.650000,16.080000,10.977826,21900
2016-03-14,15.895000,16.180000,15.808000,15.990000,10.916382,40100
2016-03-15,15.990000,16.198999,15.810000,15.810000,10.793497,34100
2016-03-16,15.760000,15.990000,15.570000,15.840000,10.813976,50100
2016-03-17,15.900000,16.190001,15.820000,15.980000,10.909551,36100
2016-03-18,15.850000,16.400000,15.850000,16.200001,11.059749,35900
2016-03-21,15.660000,16.040001,15.620000,15.830000,10.807151,50600
2016-03-22,15.820000,16.100000,15.630000,16.070000,10.970997,73100
2016-03-23,16.049999,16.160000,15.750000,16.120001,11.005133,55100
2016-03-24,15.890000,16.070000,15.750000,16.010000,10.930034,64300
2016-03-28,16.120001,16.379999,15.920000,15.970000,10.902729,64200
2016-03-29,16.049999,16.150000,15.760000,16.030001,10.943689,67700
2016-03-30,16.020000,16.360001,16.020000,16.330000,11.148499,55000
2016-03-31,16.410000,17.099001,16.410000,16.680000,11.387444,310800
2016-04-01,16.510000,16.510000,15.940000,16.170000,11.119934,75500
2016-04-04,16.010000,16.250000,16.010000,16.059999,11.044283,37900
2016-04-05,15.890000,16.250000,15.270000,15.650000,10.762334,58700
2016-04-06,15.760000,16.230000,15.350000,15.830000,10.886120,42900
2016-04-07,15.800000,15.800000,15.450000,15.460000,10.631672,74400
2016-04-08,15.670000,15.990000,15.670000,15.750000,10.831103,49200
2016-04-11,15.800000,16.000000,15.640000,15.690000,10.789842,54500
2016-04-12,15.810000,16.080000,15.680000,15.860000,10.906747,51600
2016-04-13,16.030001,16.299999,15.960000,16.160000,11.113055,44700
2016-04-14,16.264999,16.360001,16.173000,16.299999,11.209332,56400
2016-04-15,16.469999,17.191000,16.150000,16.309999,11.216211,55900
2016-04-18,16.590000,16.590000,16.240000,16.520000,11.360623,32000
2016-04-19,16.480000,17.256001,15.750000,16.620001,11.429395,73100
2016-04-20,16.500000,16.570000,16.260000,16.559999,11.388131,44000
2016-04-21,16.450001,16.754999,16.260000,16.309999,11.216211,86100
2016-04-22,16.430000,16.430000,16.063999,16.260000,11.181825,30200
2016-04-25,16.340000,16.385000,16.110001,16.139999,11.099304,40900
2016-04-26,16.070000,16.275999,16.070000,16.180000,11.126813,88100
2016-04-27,16.280001,16.290001,16.049999,16.180000,11.126813,46700
2016-04-28,16.021999,16.309999,16.020000,16.059999,11.044283,64900
2016-04-29,16.000000,16.139999,16.000000,16.059999,11.044283,50500
2016-05-02,15.960000,16.129999,15.930000,16.040001,11.114271,33300
2016-05-03,15.810000,15.950000,15.800000,15.840000,10.975691,70600
2016-05-04,15.700000,15.800000,15.690000,15.730000,10.899469,60200
2016-05-05,15.690000,15.890000,15.624000,15.730000,10.899469,71700
2016-05-06,15.879000,15.900000,15.640000,15.670000,10.857895,37700
2016-05-09,15.992000,15.992000,15.650000,15.650000,10.844035,46500
2016-05-10,15.680000,15.840000,15.680000,15.710000,10.885611,99700
2016-05-11,15.630000,15.786000,15.630000,15.720000,10.892540,67200
2016-05-12,15.720000,15.938000,15.720000,15.720000,10.892540,89400
2016-05-13,15.700000,15.830000,15.670000,15.730000,10.899469,38700
2016-05-16,15.800000,15.910000,15.700000,15.910000,11.024191,96700
2016-05-17,15.750000,15.940000,15.710000,15.750000,10.913326,106200
2016-05-18,15.740000,15.870000,15.660000,15.670000,10.857895,77000
2016-05-19,15.720000,15.750000,15.500000,15.630000,10.830176,112700
2016-05-20,15.790000,15.820000,15.580000,15.690000,10.871751,61100
2016-05-23,15.620000,15.703000,15.620000,15.630000,10.830176,62800
2016-05-24,15.750000,16.049999,15.750000,15.970000,11.065769,111200
2016-05-25,16.100000,16.190001,15.920000,16.080000,11.141989,90900
2016-05-26,16.129999,16.139999,16.040001,16.080000,11.141989,89200
2016-05-27,16.049999,16.200001,16.010000,16.200001,11.225138,63800
2016-05-31,16.219999,16.370001,16.000000,16.100000,11.155846,302800
2016-06-01,16.049999,16.056999,15.930000,16.056999,11.210301,29200
2016-06-02,16.063999,16.100000,15.940000,16.090000,11.233341,128100
2016-06-03,16.100000,16.120001,15.960000,16.000000,11.170507,98100
2016-06-06,16.010000,16.180000,16.010000,16.150000,11.275230,61900
2016-06-07,16.150000,16.299999,16.150000,16.260000,11.352029,79700
2016-06-08,16.299999,16.410000,16.230000,16.260000,11.352029,76200
2016-06-09,16.340000,16.340000,16.059999,16.240000,11.338066,64800
2016-06-10,16.219999,16.219999,15.640000,15.740000,10.988988,63400
2016-06-13,15.610000,15.760000,15.470000,15.570000,10.870302,82900
2016-06-14,15.418000,15.430000,15.010000,15.070000,10.521221,189500
2016-06-15,15.240000,15.340000,15.111000,15.270000,10.660852,65600
2016-06-16,15.200000,15.292000,14.980000,15.200000,10.611983,78700
2016-06-17,15.190000,15.380000,15.190000,15.340000,10.709723,66500
2016-06-20,15.560000,15.800000,15.560000,15.746000,10.993179,66700
2016-06-21,15.850000,16.040001,15.800000,15.870000,11.079748,113100
2016-06-22,15.960000,16.070000,15.900000,15.970000,11.149564,86900
2016-06-23,16.070000,16.700001,16.070000,16.639999,11.617327,100800
2016-06-24,15.550000,16.250000,15.020000,15.210000,10.618964,380200
2016-06-27,15.040000,15.050000,14.310000,14.530000,10.144219,275100
2016-06-28,14.780000,16.379999,14.660000,15.180000,10.598019,200800
2016-06-29,15.200000,15.940000,15.200000,15.520000,10.835395,145900
2016-06-30,15.690000,15.980000,15.600000,15.980000,11.156542,163100
2016-07-01,15.798000,15.950000,15.770000,15.810000,11.122074,27100
2016-07-05,15.800000,15.860000,15.450000,15.550000,10.939170,90700
2016-07-06,15.350000,15.470000,15.230000,15.380000,10.819575,146800
2016-07-07,15.380000,15.460000,15.350000,15.440000,10.861787,42000
2016-07-08,15.680000,15.770000,15.630000,15.660000,11.016554,30400
2016-07-11,15.750000,16.129999,15.750000,15.870000,11.164283,81800
2016-07-12,15.900000,16.150000,15.610000,15.990000,11.248701,50900
2016-07-13,16.100000,16.111000,15.866000,16.000000,11.255735,77700
2016-07-14,16.059999,16.240000,15.940000,16.230000,11.417537,93400
2016-07-15,16.410000,16.440001,16.009001,16.160000,11.368292,108300
2016-07-18,16.120001,16.389999,16.020000,16.209999,11.403467,85300
2016-07-19,16.209999,16.405001,15.990000,16.290001,11.459747,106400
2016-07-20,16.309999,16.500000,16.200001,16.459999,11.579338,48900
2016-07-21,16.450001,16.695000,16.450001,16.570000,11.656721,70200
2016-07-22,16.580000,16.629999,16.549000,16.580000,11.663758,37100
2016-07-25,16.611000,16.611000,16.320000,16.389999,11.530091,82300
2016-07-26,16.389999,16.400000,16.170000,16.170000,11.375328,81700
2016-07-27,16.340000,16.340000,16.170000,16.180000,11.382364,59900
2016-07-28,16.170000,16.309999,16.150000,16.150000,11.361256,77500
2016-07-29,16.230000,16.389999,16.160000,16.350000,11.501954,43600
2016-08-01,16.180000,16.209999,16.100000,16.150000,11.445968,66600
2016-08-02,16.090000,16.090000,15.920000,16.059999,11.382177,50400
2016-08-03,15.980000,16.100000,15.980000,16.040001,11.368003,23500
2016-08-04,16.115999,16.115999,16.040001,16.080000,11.396353,20900
2016-08-05,16.219999,16.568001,16.120001,16.120001,11.424705,48700
2016-08-08,16.150000,16.180000,16.083000,16.120001,11.424705,37900
2016-08-09,16.256001,16.370001,16.256001,16.330000,11.573535,30500
2016-08-10,16.420000,16.420000,16.230000,16.250000,11.516838,104900
2016-08-11,16.250000,16.420000,16.250000,16.260000,11.523925,51900
2016-08-12,16.299999,16.379999,16.250000,16.260000,11.523925,27900
2016-08-15,16.379999,16.410000,16.290001,16.320000,11.566447,41400
2016-08-16,16.309999,16.330000,16.240999,16.330000,11.573535,42500
2016-08-17,16.250000,16.290001,16.160000,16.260000,11.523925,52600
2016-08-18,16.230000,16.410000,16.219999,16.340000,11.580620,65300
2016-08-19,16.330000,16.360001,16.240000,16.350000,11.587712,42200
2016-08-22,16.299999,16.360001,16.250000,16.309999,11.559360,56200
2016-08-23,16.389999,16.660000,16.290001,16.590000,11.757805,105400
2016-08-24,16.600000,16.830999,16.490000,16.799999,11.906637,55700
2016-08-25,16.820000,16.820000,16.690001,16.750000,11.871204,40000
2016-08-26,16.709999,17.219999,16.629999,16.860001,11.949162,68100
2016-08-29,16.761000,16.830000,16.590000,16.650000,11.800331,35200
2016-08-30,16.730000,16.740000,16.570000,16.600000,11.764891,42200
2016-08-31,16.629999,16.660000,16.520000,16.629999,11.786157,60100
2016-09-01,16.610001,16.610001,16.440001,16.510000,11.786870,36000
2016-09-02,16.570000,16.600000,16.379999,16.480000,11.765454,45700
2016-09-06,16.500000,16.660000,16.500000,16.580000,11.836846,27100
2016-09-07,16.520000,16.660000,16.379999,16.459999,11.751173,102000
2016-09-08,16.450001,17.010000,16.430000,16.709999,11.929655,52900
2016-09-09,16.520000,17.134001,16.370001,16.370001,11.686923,73800
2016-09-12,16.330000,16.540001,16.250000,16.360001,11.679782,97200
2016-09-13,16.290001,16.440001,16.090000,16.100000,11.494164,55500
2016-09-14,16.040001,16.180000,15.977000,16.059999,11.465602,68300
2016-09-15,16.129999,16.263000,16.031000,16.190001,11.558414,66000
2016-09-16,16.110001,16.379999,16.040001,16.129999,11.515577,80300
2016-09-19,16.190001,16.240000,16.049999,16.110001,11.501301,43200
2016-09-20,16.209999,16.320000,15.890000,16.120001,11.508440,60200
2016-09-21,16.129999,16.280001,16.020000,16.280001,11.622667,80800
2016-09-22,16.400000,16.540001,16.216999,16.299999,11.636945,67800
2016-09-23,16.110001,16.190001,16.040001,16.040001,11.451326,46500
2016-09-26,15.920000,16.000000,15.722000,15.870000,11.329959,118400
2016-09-27,15.710000,15.898000,15.618000,15.780000,11.265706,104500
2016-09-28,15.885000,15.990000,15.790000,15.990000,11.415631,61200
2016-09-29,16.040001,16.040001,15.700000,15.760000,11.251426,158000
2016-09-30,15.760000,16.000000,15.660000,15.720000,11.222869,173700
2016-10-03,15.600000,15.690000,15.560000,15.670000,11.273952,39300
2016-10-04,15.630000,15.770000,15.620000,15.660000,11.266756,44600
2016-10-05,15.750000,15.800000,15.700000,15.720000,11.309924,27200
2016-10-06,15.630000,15.767000,15.630000,15.650000,11.259562,42500
2016-10-07,15.570000,15.590000,15.440000,15.500000,11.151643,49400
2016-10-10,15.470000,15.640000,15.450000,15.520000,11.166036,44300
2016-10-11,15.510000,15.550000,15.220000,15.320000,11.022140,62500
2016-10-12,15.330000,15.360000,15.200000,15.340000,11.036529,60000
2016-10-13,15.220000,15.220000,15.030000,15.110000,10.871053,96300
2016-10-14,15.140000,15.250000,15.080000,15.100000,10.863860,103600
2016-10-17,15.100000,15.141000,14.950000,14.960000,10.763135,52500
2016-10-18,15.130000,15.130000,14.940000,15.070000,10.842276,149900
2016-10-19,15.130000,15.390000,15.120000,15.280000,10.993361,95800
2016-10-20,15.180000,15.340000,15.180000,15.300000,11.007751,40700
2016-10-21,15.280000,15.280000,15.010000,15.190000,10.928614,82800
2016-10-24,15.280000,15.368000,15.110000,15.150000,10.899831,103000
2016-10-25,15.117000,15.210000,15.040000,15.050000,10.827888,101900
2016-10-26,15.030000,15.190000,14.980000,15.040000,10.820693,117200
2016-10-27,15.110000,15.170000,15.070000,15.130000,10.885442,56200
2016-10-28,15.200000,15.383000,15.080000,15.200000,10.935804,75900
2016-10-31,15.203000,15.310000,15.170000,15.180000,10.921418,74900
2016-11-01,15.130000,15.230000,15.060000,15.140000,10.980161,42000
2016-11-02,15.020000,15.170000,14.850000,15.010000,10.885880,175800
2016-11-03,15.070000,15.140000,14.930000,15.010000,10.885880,90100
2016-11-04,14.860000,15.058000,14.860000,14.880000,10.791599,87800
2016-11-07,14.980000,15.050000,14.810000,14.920000,10.820610,99400
2016-11-08,14.923000,15.040000,14.890000,14.960000,10.849616,60100
2016-11-09,14.800000,15.130000,14.800000,15.080000,10.936646,62100
2016-11-10,15.170000,15.290000,15.070000,15.120000,10.965658,61600
2016-11-11,15.000000,15.160000,14.990000,15.150000,10.987411,62900
2016-11-14,14.970000,15.110000,14.855000,15.020000,10.893133,51600
2016-11-15,15.090000,15.320000,14.980000,15.280000,11.081695,86100
2016-11-16,15.240000,15.250000,14.870000,14.880000,10.791599,68900
2016-11-17,14.880000,15.100000,14.820000,14.820000,10.748082,88300
2016-11-18,14.840000,15.068000,14.700000,14.740000,10.690064,50300
2016-11-21,14.750000,14.900000,14.750000,14.850000,10.769839,84400
2016-11-22,14.840000,15.050000,14.750000,14.910000,10.813354,96400
2016-11-23,14.820000,14.940000,14.710000,14.790000,10.726327,92500
2016-11-25,14.882000,14.960000,14.720000,14.780000,10.719073,61700
2016-11-28,14.750000,14.834000,14.670000,14.670000,10.639295,118500
2016-11-29,14.690000,14.880000,14.680000,14.820000,10.748082,174600
2016-11-30,14.810000,15.050000,14.810000,14.850000,10.769839,132300
2016-12-01,14.910000,14.910000,14.650000,14.710000,10.755948,85000
2016-12-02,14.663000,14.830000,14.663000,14.690000,10.741323,75000
2016-12-05,14.834000,14.891000,14.790000,14.870000,10.872938,68400
2016-12-06,14.820000,14.920000,14.740000,14.860000,10.865625,78800
2016-12-07,14.930000,15.130000,14.930000,15.080000,11.026492,102500
2016-12-08,15.090000,15.300000,15.050000,15.130000,11.063049,120600
2016-12-09,15.160000,15.260000,15.080000,15.230000,11.136169,61200
2016-12-12,15.200000,15.265000,15.180000,15.210000,11.121545,67500
2016-12-13,15.320000,15.435000,15.200000,15.290000,11.180040,161100
2016-12-14,15.260000,15.390000,15.250000,15.270000,11.165419,151900
2016-12-15,15.220000,15.280000,15.140000,15.140000,11.070362,187500
2016-12-16,15.130000,15.270000,15.130000,15.170000,11.092299,167900
2016-12-19,15.260000,15.320000,15.200000,15.230000,11.136169,191100
2016-12-20,15.230000,15.350000,15.230000,15.290000,11.180040,135000
2016-12-21,15.250000,15.410000,15.250000,15.370000,11.238542,122600
2016-12-22,15.310000,15.420000,15.310000,15.350000,11.223914,114900
2016-12-23,15.380000,15.479000,15.380000,15.440000,11.289722,76100
2016-12-27,15.390000,15.484000,15.390000,15.430000,11.282412,62100
2016-12-28,15.390000,15.470000,15.390000,15.450000,11.297037,168100
2016-12-29,15.540000,15.540000,15.400000,15.450000,11.297037,182300
2016-12-30,15.450000,15.583000,15.450000,15.520000,11.348221,209000
2017-01-03,15.550000,15.620000,15.490000,15.620000,11.511084,77900
2017-01-04,15.610000,15.740000,15.580000,15.710000,11.577409,60000
2017-01-05,15.710000,15.994000,15.710000,15.980000,11.776385,105200
2017-01-06,16.000000,16.200001,15.927000,16.120001,11.879557,100400
2017-01-09,16.150000,16.150000,16.000000,16.070000,11.842710,80300
2017-01-10,16.020000,16.059999,15.924000,16.020000,11.805862,93000
2017-01-11,16.030001,16.030001,15.750000,15.950000,11.754276,84800
2017-01-12,16.000000,16.077000,15.985000,16.030001,11.813230,61500
2017-01-13,16.027000,16.027000,15.950000,15.970000,11.769013,49600
2017-01-17,16.020000,16.040001,15.860000,15.970000,11.769013,88900
2017-01-18,15.940000,15.950000,15.830000,15.870000,11.695318,94300
2017-01-19,15.910000,15.910000,15.780000,15.870000,11.695318,76800
2017-01-20,15.860000,15.890000,15.770000,15.850000,11.680584,56400
2017-01-23,15.780000,15.890000,15.780000,15.850000,11.680584,114800
2017-01-24,15.850000,15.980000,15.845000,15.940000,11.746906,95500
2017-01-25,16.020000,16.139999,16.000000,16.080000,11.850080,106200
2017-01-26,16.120001,16.160000,15.963000,16.049999,11.827970,109200
2017-01-27,15.990000,16.059999,15.910000,16.049999,11.827970,99600
2017-01-30,16.000000,16.020000,15.765000,15.990000,11.783755,154100
2017-01-31,15.920000,16.180000,15.920000,16.129999,11.886926,149700
2017-02-01,16.010000,16.117001,15.930000,16.020000,11.895094,133000
2017-02-02,16.020000,16.110001,16.020000,16.090000,11.947069,41400
2017-02-03,16.090000,16.170000,16.049999,16.170000,12.006471,107100
2017-02-06,16.090000,16.230000,15.960000,16.230000,12.051021,76500
2017-02-07,16.180000,16.219999,16.120001,16.180000,12.013895,71100
2017-02-08,16.180000,16.570000,16.120001,16.219999,12.043595,124500
2017-02-09,16.260000,16.407000,16.230000,16.379999,12.162395,77200
2017-02-10,16.350000,16.639999,16.320000,16.639999,12.355451,155000
2017-02-13,16.670000,16.750000,16.480000,16.510000,12.258926,60400
2017-02-14,16.490999,16.490999,16.389999,16.459999,12.221802,50100
2017-02-15,16.379999,16.570000,16.320000,16.530001,12.273777,52600
2017-02-16,16.530001,16.639999,16.420000,16.513000,12.261153,100100
2017-02-17,16.430000,16.639999,16.400000,16.520000,12.266352,63600
2017-02-21,16.590000,16.709999,16.500999,16.700001,12.400004,45900
2017-02-22,16.580000,16.860001,16.580000,16.860001,12.518806,82600
2017-02-23,16.870001,16.870001,16.650000,16.820000,12.489105,72700
2017-02-24,16.790001,16.830000,16.620001,16.830000,12.496531,41600
2017-02-27,16.819000,16.850000,16.752001,16.820000,12.489105,45300
2017-02-28,16.840000,16.840000,16.600000,16.660000,12.370303,63200
2017-03-01,16.709999,16.709999,16.572001,16.580000,12.400968,71500
2017-03-02,16.540001,16.660000,16.520000,16.540001,12.371052,74200
2017-03-03,16.639999,16.700001,16.570999,16.670000,12.468286,54900
2017-03-06,16.520000,16.709999,16.520000,16.690001,12.483244,32100
2017-03-07,16.650000,16.700001,16.590000,16.700001,12.490721,102000
2017-03-08,16.719999,16.719999,16.629999,16.719999,12.505678,93200
2017-03-09,16.719999,16.719999,16.551001,16.639999,12.445848,109000
2017-03-10,16.730000,16.789000,16.530001,16.570000,12.393488,83700
2017-03-13,16.549999,16.850000,16.549999,16.730000,12.513164,66700
2017-03-14,16.610001,16.662001,16.580000,16.650000,12.453326,41900
2017-03-15,16.709999,16.860001,16.627001,16.809999,12.572995,52000
2017-03-16,16.670000,16.840000,16.660000,16.830000,12.587955,220500
2017-03-17,16.900000,16.990000,16.850000,16.990000,12.707626,90200
2017-03-20,16.937000,17.090000,16.937000,17.000000,12.715107,36500
2017-03-21,17.120001,17.184000,16.952999,17.000000,12.715107,72200
2017-03-22,16.940001,16.950001,16.740000,16.809999,12.572995,65000
2017-03-23,16.780001,17.049999,16.780001,17.049999,12.752501,54900
2017-03-24,16.930000,17.120001,16.760000,17.090000,12.782421,89400
2017-03-27,17.020000,17.240000,17.020000,17.170000,12.842260,39200
2017-03-28,17.180000,17.330000,17.160000,17.250000,12.902098,52700
2017-03-29,17.230000,17.375000,17.120001,17.270000,12.917048,100500
2017-03-30,17.230000,17.250000,17.139999,17.250000,12.902098,58600
2017-03-31,17.280001,17.280001,17.174000,17.260000,12.909573,97300
2017-04-03,17.180000,17.290001,17.010000,17.100000,12.880197,34500
2017-04-04,17.020000,17.104000,16.879999,16.969999,12.782277,66800
2017-04-05,16.990000,17.080000,16.920000,16.990000,12.797341,72700
2017-04-06,17.059999,17.170000,16.959999,17.160000,12.925392,69400
2017-04-07,17.070000,17.138000,17.040001,17.100000,12.880197,46500
2017-04-10,17.100000,17.110001,16.990000,17.020000,12.819939,60100
2017-04-11,17.020000,17.090000,16.940001,17.010000,12.812407,56800
2017-04-12,17.059999,17.139999,17.049999,17.139999,12.910324,41000
2017-04-13,17.129999,17.170000,17.049999,17.170000,12.932926,58400
2017-04-17,17.070000,17.243000,17.070000,17.230000,12.978115,67900
2017-04-18,17.180000,17.202999,17.010000,17.150000,12.917859,96500
2017-04-19,17.150000,17.170000,17.080000,17.100000,12.880197,60100
2017-04-20,17.250000,17.250000,17.031000,17.139999,12.910324,79000
2017-04-21,17.090000,17.129999,16.930000,17.129999,12.902790,72100
2017-04-24,17.350000,17.745001,17.250000,17.590000,13.249280,75800
2017-04-25,17.730000,17.940001,17.636999,17.920000,13.497844,131400
2017-04-26,17.820000,17.950001,17.780001,17.860001,13.452647,65600
2017-04-27,17.920000,17.920000,17.770000,17.820000,13.422521,80900
2017-04-28,17.799999,17.950001,17.750000,17.870001,13.460182,80900
2017-05-01,17.809999,18.469999,17.709999,17.920000,13.589864,62200
2017-05-02,17.809999,17.990000,17.795000,17.940001,13.605031,78300
2017-05-03,17.969999,18.049999,17.930000,18.049999,13.688449,73100
2017-05-04,18.110001,18.160000,17.969999,18.129999,13.749116,79000
2017-05-05,18.110001,18.400000,18.110001,18.290001,13.870458,96400
2017-05-08,18.160000,18.330000,18.160000,18.320000,13.893208,110000
2017-05-09,18.370001,18.400000,18.209999,18.250000,13.840121,128100
2017-05-10,18.370001,18.400000,18.230000,18.379999,13.938705,76000
2017-05-11,18.440001,18.440001,18.334999,18.350000,13.915959,69500
2017-05-12,18.412001,18.500000,18.398001,18.490000,14.022128,94100
2017-05-15,18.730000,18.920000,18.596001,18.770000,14.234472,109500
2017-05-16,18.900000,19.000000,18.809999,19.000000,14.408896,140600
2017-05-17,18.900000,18.969999,18.850000,18.900000,14.333061,110600
2017-05-18,18.760000,19.020000,18.750000,18.820000,14.272388,113000
2017-05-19,19.040001,19.040001,18.820000,18.879999,14.317887,88800
2017-05-22,18.910000,18.930000,18.860001,18.920000,14.348228,71700
2017-05-23,18.930000,19.080000,18.850000,18.969999,14.386143,138300
2017-05-24,18.940001,18.950001,18.670000,18.809999,14.264805,159500
2017-05-25,18.809999,19.181999,18.809999,19.120001,14.499901,187100
2017-05-26,19.190001,19.240000,19.010000,19.219999,14.575732,98300
2017-05-30,19.340000,19.392000,19.230000,19.290001,14.628819,82200
2017-05-31,19.379999,19.379999,19.150000,19.280001,14.621231,92600
2017-06-01,19.139999,19.181000,18.940001,19.000000,14.499895,102400
2017-06-02,19.030001,19.122000,18.969999,19.100000,14.576210,137000
2017-06-05,19.000000,19.150000,19.000000,19.150000,14.614367,78900
2017-06-06,19.080000,19.150000,19.049999,19.070000,14.553311,87300
2017-06-07,19.129999,19.469999,19.129999,19.299999,14.728840,168900
2017-06-08,19.219999,19.450001,19.219999,19.400000,14.805155,165800
2017-06-09,19.540001,19.680000,19.420000,19.580000,14.942524,269200
2017-06-12,19.549999,19.620001,19.440001,19.490000,14.873841,111600
2017-06-13,19.530001,19.590000,19.420000,19.510000,14.889104,77500
2017-06-14,19.690001,19.700001,19.384001,19.490000,14.873841,110400
2017-06-15,19.379999,19.389999,19.209999,19.270000,14.705948,69200
2017-06-16,19.230000,19.350000,19.209999,19.270000,14.705948,91400
2017-06-19,19.330000,19.430000,19.330000,19.400000,14.805155,65700
2017-06-20,19.450001,19.469999,19.250000,19.280001,14.713572,93900
2017-06-21,19.290001,19.309999,19.045000,19.170000,14.629631,108100
2017-06-22,19.160000,19.200001,19.035000,19.080000,14.560949,77100
2017-06-23,19.070000,19.120001,19.030001,19.040001,14.530421,83200
2017-06-26,19.150000,19.370001,19.150000,19.320000,14.744104,136200
2017-06-27,19.299999,19.400000,19.170000,19.170000,14.629631,145800
2017-06-28,19.270000,19.290001,18.879999,19.190001,14.644897,137800
2017-06-29,19.180000,19.180000,18.870001,18.950001,14.461737,87300
2017-06-30,18.910000,18.910000,18.740000,18.809999,14.354896,94400
2017-07-03,18.490000,18.650000,18.490000,18.590000,14.460685,24600
2017-07-05,18.530001,18.660000,18.530001,18.580000,14.452909,52300
2017-07-06,18.620001,18.698000,18.500000,18.650000,14.507358,71700
2017-07-07,18.629999,18.655001,18.559000,18.610001,14.476244,53600
2017-07-10,18.610001,18.690001,18.500000,18.540001,14.421793,72600
2017-07-11,18.549999,18.610001,18.530001,18.600000,14.468463,80900
2017-07-12,18.540001,18.702000,18.540001,18.540001,14.421793,121900
2017-07-13,18.680000,18.700001,18.625000,18.660000,14.515139,99100
2017-07-14,18.730000,18.840000,18.680000,18.840000,14.655154,92200
2017-07-17,18.799999,18.870001,18.760000,18.860001,14.670713,131100
2017-07-18,18.889999,18.969999,18.801001,18.900000,14.701831,88600
2017-07-19,18.870001,19.010000,18.870001,18.990000,14.771839,41300
2017-07-20,19.049999,19.100000,19.011999,19.100000,14.857403,63000
2017-07-21,19.070000,19.070000,18.889999,18.959999,14.748500,71000
2017-07-24,18.900000,18.990000,18.900000,18.920000,14.717386,77400
2017-07-25,19.049999,19.049999,18.959999,19.000000,14.779614,70300
2017-07-26,19.070000,19.070000,19.010000,19.070000,14.834066,78800
2017-07-27,19.190001,19.190001,18.959999,18.959999,14.748500,92900
2017-07-28,18.900000,18.990999,18.889999,18.920000,14.717386,58400
2017-07-31,18.959999,18.969999,18.899000,18.950001,14.740725,41300
2017-08-01,18.860001,18.969999,18.860001,18.969999,14.851105,56800
2017-08-02,19.030001,19.030001,18.860001,18.879999,14.780648,83900
2017-08-03,18.910000,19.049999,18.889999,18.959999,14.843275,46200
2017-08-04,19.000000,19.160000,18.969999,18.990000,14.866764,91000
2017-08-07,19.049999,19.049999,18.997999,19.040001,14.905902,75200
2017-08-08,18.969999,19.059999,18.900000,18.959999,14.843275,61200
2017-08-09,18.850000,18.969000,18.809999,18.809999,14.725847,55100
2017-08-10,18.780001,18.840000,18.010000,18.020000,14.107376,106000
2017-08-11,17.889999,18.193001,17.840000,18.120001,14.185664,53100
2017-08-14,18.230000,18.410000,18.219999,18.340000,14.357894,44900
2017-08-15,18.389999,18.469999,18.309999,18.370001,14.381386,62800
2017-08-16,18.469999,18.590000,18.469999,18.520000,14.498817,45800
2017-08-17,18.510000,18.700001,18.510000,18.549999,14.522300,92100
2017-08-18,18.459999,18.620001,18.417000,18.520000,14.498817,60500
2017-08-21,18.559999,18.590000,18.389999,18.459999,14.451841,36100
2017-08-22,18.440001,18.497000,18.360001,18.450001,14.444012,56700
2017-08-23,18.475000,18.650000,18.475000,18.540001,14.514470,58200
2017-08-24,18.530001,18.600000,18.379999,18.379999,14.389210,44900
2017-08-25,18.370001,18.469999,18.370001,18.400000,14.404867,39700
2017-08-28,18.440001,18.520000,18.389999,18.520000,14.498817,36100
2017-08-29,18.379999,18.620001,18.379999,18.520000,14.498817,68500
2017-08-30,18.420000,18.510000,18.400000,18.410000,14.412701,55600
2017-08-31,18.590000,18.590000,18.360001,18.450001,14.444012,57800
2017-09-01,18.400000,18.680000,18.360001,18.620001,14.673332,37000
2017-09-05,18.576000,18.620001,18.500000,18.590000,14.649688,46000
2017-09-06,18.540001,18.639999,18.539000,18.610001,14.665451,21600
2017-09-07,18.690001,18.750000,18.639999,18.680000,14.720614,30600
2017-09-08,18.700001,18.806000,18.650000,18.650000,14.696974,33400
2017-09-11,18.870001,18.870001,18.722000,18.780001,14.799421,22800
2017-09-12,18.809999,18.830000,18.781000,18.820000,14.830939,45100
2017-09-13,18.820000,18.983000,18.820000,18.950001,14.933385,26900
2017-09-14,18.900000,19.000000,18.875000,18.959999,14.941268,31900
2017-09-15,19.010000,19.040001,18.820999,18.950001,14.933385,60400
2017-09-18,18.950001,19.080000,18.940001,19.010000,14.980669,66600
2017-09-19,19.030001,19.150000,19.030001,19.120001,15.067358,43600
2017-09-20,19.120001,19.160000,19.010000,19.150000,15.090990,38400
2017-09-21,19.110001,19.150000,19.087999,19.150000,15.090990,46500
2017-09-22,19.240000,19.330000,19.219999,19.290001,15.201322,54900
2017-09-25,19.190001,19.270000,19.190001,19.230000,15.154038,52600
2017-09-26,19.250000,19.250000,19.103001,19.180000,15.114635,69900
2017-09-27,19.230000,19.250000,19.142000,19.160000,15.098869,49800
2017-09-28,19.240000,19.240000,19.193001,19.219999,15.146154,75400
2017-09-29,19.260000,19.490000,19.254999,19.420000,15.303766,72900
2017-10-02,19.049999,19.450001,19.049999,19.320000,15.487339,23600
2017-10-03,19.330000,19.350000,19.250999,19.299999,15.471305,41200
2017-10-04,19.400000,19.400000,19.230000,19.270000,15.447258,92500
2017-10-05,19.240000,19.275000,19.011000,19.270000,15.447258,38700
2017-10-06,19.389999,19.389999,19.239000,19.299999,15.471305,36000
2017-10-09,19.299999,19.330999,19.238001,19.290001,15.463289,40900
2017-10-10,19.320000,19.379999,19.290001,19.320000,15.487339,45900
2017-10-11,19.320000,19.350000,19.320000,19.340000,15.503374,31800
2017-10-12,19.330000,19.400000,19.270000,19.379999,15.535434,38800
2017-10-13,19.360001,19.400000,19.260000,19.389999,15.543448,49000
2017-10-16,19.450001,19.469999,19.350000,19.400000,15.551467,69200
2017-10-17,19.400000,19.459999,19.260000,19.379999,15.535434,166900
2017-10-18,19.410000,19.430000,19.396999,19.400000,15.551467,56100
2017-10-19,19.340000,19.389000,19.014999,19.209999,15.399158,81300
2017-10-20,19.280001,19.320000,18.879999,19.020000,15.246852,64800
2017-10-23,19.070999,19.160000,19.031000,19.059999,15.278914,29400
2017-10-24,19.100000,19.150000,19.030001,19.070000,15.286930,69100
2017-10-25,19.090000,19.090000,18.951000,19.049999,15.270897,34700
2017-10-26,19.010000,19.010000,18.820000,18.900000,15.150660,66000
2017-10-27,18.920000,18.980000,18.858000,18.910000,15.158675,29200
2017-10-30,18.940001,18.969999,18.889999,18.959999,15.198750,35600
2017-10-31,19.030001,19.120001,19.000000,19.030001,15.254866,49200
2017-11-01,18.969999,18.969999,18.856001,18.950001,15.287946,34900
2017-11-02,18.870001,18.930000,18.860001,18.879999,15.231472,24300
2017-11-03,18.889999,19.177999,18.750999,18.850000,15.207267,43700
2017-11-06,18.930000,18.940001,18.711000,18.850000,15.207267,43600
2017-11-07,18.799999,18.870001,18.760000,18.860001,15.215342,56500
2017-11-08,18.840000,18.840000,18.780001,18.840000,15.199203,35700
2017-11-09,18.750000,18.799999,18.670000,18.750000,15.126590,45600
2017-11-10,18.730000,18.730000,18.559999,18.600000,15.005577,55300
2017-11-13,18.530001,18.594999,18.365000,18.510000,14.932974,58600
2017-11-14,18.500000,18.510000,16.459999,17.790001,14.352114,310900
2017-11-15,17.719999,17.959999,17.570000,17.690001,14.271437,167500
2017-11-16,17.780001,18.160000,17.780001,18.010000,14.529595,95300
2017-11-17,17.990000,18.100000,17.900000,18.040001,14.553803,55300
2017-11-20,18.100000,18.459999,18.100000,18.370001,14.820031,80400
2017-11-21,18.420000,18.510000,18.350000,18.459999,14.892632,53800
2017-11-22,18.566000,18.570000,18.437000,18.559999,14.973308,41300
2017-11-24,18.580000,18.709999,18.580000,18.650000,15.045918,22200
2017-11-27,18.580000,18.799999,18.559999,18.612000,15.015264,52900
2017-11-28,18.639000,18.652000,18.549999,18.559999,14.973308,68300
2017-11-29,18.719999,18.719999,18.577000,18.660000,15.053985,46800
2017-11-30,19.000000,19.000000,18.709999,18.730000,15.110458,46400
2017-12-01,18.650000,18.664000,18.530001,18.590000,15.095028,24700
2017-12-04,18.709999,18.709999,18.450001,18.450001,14.981352,64100
2017-12-05,18.542999,18.607000,18.480000,18.559999,15.070669,41500
2017-12-06,18.510000,18.700001,18.510000,18.610001,15.111270,17500
2017-12-07,18.680000,18.700001,18.605000,18.650000,15.143749,41800
2017-12-08,18.709999,18.709999,18.340000,18.350000,14.900150,60400
2017-12-11,18.480000,18.930000,18.480000,18.730000,15.208709,178400
2017-12-12,18.780001,18.799999,18.620001,18.780001,15.249313,77500
2017-12-13,18.879999,18.969999,18.820000,18.969999,15.403586,110200
2017-12-14,18.900000,18.980000,18.690001,18.900000,15.346749,111200
2017-12-15,18.980000,18.980000,18.750000,18.760000,15.233068,62600
2017-12-18,18.900000,18.990000,18.870001,18.900000,15.346749,85100
2017-12-19,18.950001,18.990000,18.840000,18.959999,15.395471,33100
2017-12-20,19.049999,19.049999,18.700001,18.799999,15.265553,100200
2017-12-21,18.750000,18.900000,18.750000,18.900000,15.346749,60900
2017-12-22,18.920000,19.020000,18.816000,18.950001,15.387347,35800
2017-12-26,18.760000,18.990000,18.760000,18.959999,15.395471,53100
2017-12-27,19.010000,19.020000,18.860001,19.020000,15.444186,74600
2017-12-28,18.990000,19.020000,18.910000,18.930000,15.371112,63100
2017-12-29,19.020000,19.030001,18.820000,18.830000,15.289909,114300
2018-01-02,18.930000,18.930000,18.620001,18.730000,15.307072,58000
2018-01-03,18.650000,18.980000,18.650000,18.980000,15.511388,63100
2018-01-04,19.010000,19.209999,19.010000,19.200001,15.691176,62000
2018-01-05,19.250000,19.330000,19.226999,19.309999,15.781076,81800
2018-01-08,19.389999,19.400000,19.280001,19.350000,15.813765,52500
2018-01-09,19.370001,19.410000,19.309999,19.400000,15.854628,86900
2018-01-10,19.420000,19.420000,19.280001,19.350000,15.813765,87400
2018-01-11,19.379999,19.549999,19.350000,19.520000,15.952698,116500
2018-01-12,19.530001,19.709999,19.500000,19.700001,16.099802,131000
2018-01-16,19.840000,19.879999,19.753000,19.820000,16.197874,99800
2018-01-17,19.900000,19.900000,19.830000,19.879999,16.246910,55000
2018-01-18,19.900000,19.900000,19.760000,19.870001,16.238733,43500
2018-01-19,19.900000,19.900000,19.809999,19.870001,16.238733,90700
2018-01-22,19.900000,19.920000,19.830000,19.889999,16.255077,76400
2018-01-23,19.920000,19.990000,19.920000,19.959999,16.312286,70900
2018-01-24,20.030001,20.200001,19.995001,20.010000,16.353153,49800
2018-01-25,20.090000,20.107000,19.879999,19.940001,16.295942,68200
2018-01-26,20.049999,20.049999,19.881001,20.030001,16.369499,47000
2018-01-29,19.930000,20.070000,19.910000,20.020000,16.361324,90400
2018-01-30,19.910000,19.969999,19.850000,19.900000,16.263258,120200
2018-01-31,19.930000,19.930000,19.799999,19.799999,16.181532,41700
2018-02-01,19.750000,19.982000,19.750000,19.850000,16.322136,49800
2018-02-02,19.770000,19.770000,19.311001,19.389999,15.943888,77300
2018-02-05,19.350000,19.350000,18.020000,18.139999,14.916046,111900
2018-02-06,18.100000,18.700001,16.740000,18.690001,15.368301,179000
2018-02-07,18.700001,18.770000,18.680000,18.760000,15.425858,69300
2018-02-08,18.790001,18.790001,18.340000,18.340000,15.080500,49800
2018-02-09,18.340000,18.410000,17.620001,18.000000,14.800931,88800
2018-02-12,18.040001,18.389999,17.933001,18.370001,15.105174,63000
2018-02-13,18.389999,18.750000,18.388000,18.709999,15.384745,61000
2018-02-14,18.520000,18.650000,18.520000,18.639999,15.327184,68900
2018-02-15,18.840000,18.969999,18.740000,18.820000,15.475196,70900
2018-02-16,18.730000,19.000000,18.730000,18.879999,15.524529,56600
2018-02-20,18.850000,18.850000,18.719999,18.730000,15.401189,37900
2018-02-21,18.780001,18.870001,18.740000,18.780001,15.442306,55800
2018-02-22,18.750000,18.780001,18.701000,18.709999,15.384745,43700
2018-02-23,18.709999,18.780001,18.700001,18.740000,15.409417,52700
2018-02-26,18.820000,19.049999,18.820000,19.010000,15.631428,39200
2018-02-27,18.870001,18.930000,18.719999,18.719999,15.392969,30800
2018-02-28,18.760000,18.780001,18.700001,18.719999,15.392969,28500
2018-03-01,18.570000,18.600000,18.129999,18.200001,15.062748,62900
2018-03-02,18.110001,18.110001,17.900000,18.020000,14.913770,51800
2018-03-05,17.900000,17.969000,17.680000,17.860001,14.781354,129900
2018-03-06,17.980000,18.070000,17.945999,17.959999,14.864117,41100
2018-03-07,17.879999,18.020000,17.730000,18.010000,14.905495,58700
2018-03-08,18.080000,18.290001,18.080000,18.270000,15.120676,44900
2018-03-09,18.320000,18.530001,18.320000,18.450001,15.269650,43700
2018-03-12,18.490000,18.490000,18.350000,18.389999,15.219992,45800
2018-03-13,18.490000,18.490000,18.299999,18.330000,15.170334,32200
2018-03-14,18.459999,18.750000,18.254999,18.280001,15.128958,22400
2018-03-15,18.260000,18.379999,18.209999,18.240000,15.095851,43300
2018-03-16,18.260000,18.427000,18.208000,18.290001,15.137230,46700
2018-03-19,18.209999,18.290001,18.138000,18.230000,15.087572,22900
2018-03-20,18.180000,18.349001,18.100000,18.100000,14.979985,26900
2018-03-21,18.030001,18.100000,18.010000,18.080000,14.963429,27100
2018-03-22,18.000000,18.000000,17.680000,17.690001,14.640658,38400
2018-03-23,17.680000,17.950001,17.559999,17.559999,14.533068,120700
2018-03-26,17.690001,18.020000,17.690001,18.010000,14.905495,65800
2018-03-27,17.969999,18.030001,17.590000,17.620001,14.582723,88800
2018-03-28,17.690001,18.207001,17.559999,18.200001,15.062748,60900
2018-03-29,18.090000,18.157000,17.905001,17.980000,14.880672,48000
2018-04-02,17.959999,17.983000,17.530001,17.570000,14.639868,29700
2018-04-03,17.559999,17.680000,17.480000,17.580000,14.648195,47200
2018-04-04,17.379999,17.538000,17.010000,17.250000,14.373231,56800
2018-04-05,17.299999,17.660000,17.299999,17.420000,14.514881,165700
2018-04-06,17.320000,17.440001,17.270000,17.330000,14.439890,131500
2018-04-09,17.360001,17.600000,17.360001,17.450001,14.539880,42200
2018-04-10,17.540001,17.754000,17.540001,17.730000,14.773180,42100
2018-04-11,17.643000,17.780001,17.643000,17.700001,14.748182,62100
2018-04-12,17.760000,17.809999,17.662001,17.760000,14.798179,42500
2018-04-13,17.761000,17.820000,17.639999,17.760000,14.798179,46000
2018-04-16,17.920000,17.990000,17.639999,17.660000,14.714854,76300
2018-04-17,17.690001,17.940001,17.690001,17.820000,14.848173,44400
2018-04-18,17.799999,18.030001,17.799999,18.010000,15.006483,39400
2018-04-19,17.990000,17.990000,17.760000,17.870001,14.889834,56100
2018-04-20,17.780001,17.900000,17.730000,17.879999,14.898164,34600
2018-04-23,17.930000,17.930000,17.767000,17.850000,14.873165,32400
2018-04-24,17.959999,17.959999,17.767000,17.850000,14.873165,60400
2018-04-25,17.780001,17.830000,17.650000,17.677999,14.729853,75000
2018-04-26,17.719999,17.780001,17.670000,17.670000,14.723188,87100
2018-04-27,17.709999,17.760000,17.559999,17.760000,14.798179,92900
2018-04-30,17.700001,17.850000,17.700001,17.719999,14.764848,41400
2018-05-01,17.639999,17.639999,17.500000,17.570000,14.740521,32200
2018-05-02,17.590000,17.700001,17.490000,17.510000,14.690185,59700
2018-05-03,17.559999,17.600000,17.502001,17.559999,14.732132,36700
2018-05-04,17.450001,17.600000,17.410000,17.500000,14.681792,83000
2018-05-07,17.480000,17.610001,17.480000,17.500000,14.681792,50200
2018-05-08,17.590000,17.650000,17.440001,17.600000,14.765688,77800
2018-05-09,17.520000,17.610001,17.511000,17.540001,14.715351,38000
2018-05-10,17.620001,17.620001,17.570000,17.590000,14.757297,79600
2018-05-11,17.590000,17.600000,17.573000,17.590000,14.757297,58400
2018-05-14,17.680000,17.700001,17.590000,17.700001,14.849581,75600
2018-05-15,17.580000,17.700001,17.530001,17.680000,14.832808,76300
2018-05-16,17.580000,17.600000,17.450001,17.469999,14.656624,86800
2018-05-17,17.430000,17.549999,17.430000,17.520000,14.698571,37100
2018-05-18,17.480000,17.570000,17.469999,17.469999,14.656624,76500
2018-05-21,17.580000,17.670000,17.520000,17.520000,14.698571,53300
2018-05-22,17.500000,17.620001,17.500000,17.500000,14.681792,53200
2018-05-23,17.400000,17.415001,17.240000,17.249001,14.471215,107100
2018-05-24,17.200001,17.250000,17.120001,17.219999,14.446885,47300
2018-05-25,17.000000,17.082001,16.930000,16.959999,14.228754,52600
2018-05-29,16.850000,16.850000,16.480000,16.490000,13.834444,110800
2018-05-30,16.540001,16.805000,16.540001,16.709999,14.019012,114800
2018-05-31,16.740000,16.750000,16.590000,16.719999,14.027402,65200
2018-06-01,16.610001,16.730000,16.577999,16.590000,14.019798,77600
2018-06-04,16.639999,16.750000,16.639999,16.639999,14.062051,98300
2018-06-05,16.600000,16.740000,16.520000,16.570000,14.002896,228900
2018-06-06,16.610001,16.680000,16.530001,16.680000,14.095857,87500
2018-06-07,16.600000,16.649000,16.440001,16.520000,13.960645,103600
2018-06-08,16.639999,16.700001,16.535000,16.650000,14.070502,82100
2018-06-11,16.590000,16.763000,16.590000,16.639999,14.062051,67300
2018-06-12,16.660000,16.700001,16.590000,16.670000,14.087404,78600
2018-06-13,16.690001,16.789000,16.639999,16.719999,14.129656,52500
2018-06-14,16.760000,16.910000,16.760000,16.870001,14.256419,106300
2018-06-15,16.730000,16.799999,16.700001,16.709999,14.121204,80800
2018-06-18,16.549999,16.559999,16.440001,16.469999,13.918390,99800
2018-06-19,16.360001,16.400000,16.235001,16.250000,13.732473,80500
2018-06-20,16.270000,16.320000,16.233999,16.309999,13.783179,93900
2018-06-21,16.170000,16.260000,16.150000,16.170000,13.664865,88500
2018-06-22,16.389999,16.389999,16.260000,16.350000,13.816981,72900
2018-06-25,16.270000,16.320000,16.079000,16.230000,13.715571,205500
2018-06-26,16.260000,16.260000,16.129999,16.180000,13.673317,59000
2018-06-27,16.180000,16.230000,16.000000,16.030001,13.546556,76800
2018-06-28,16.010000,16.059999,15.940000,15.980000,13.504301,152300
2018-06-29,16.030001,16.209999,16.030001,16.139999,13.639514,119300
2018-07-02,15.940000,15.940000,15.790000,15.840000,13.487103,99700
2018-07-03,15.970000,16.000000,15.890000,15.890000,13.529677,31300
2018-07-05,16.000000,16.290001,16.000000,16.240000,13.827688,70200
2018-07-06,16.240000,16.280001,16.129999,16.129999,13.734026,76800
2018-07-09,16.240000,16.340000,16.200001,16.290001,13.870260,85300
2018-07-10,16.299999,16.410000,16.299999,16.330000,13.904318,78200
2018-07-11,16.209999,16.309999,16.070000,16.070000,13.682939,72200
2018-07-12,16.170000,16.170000,16.059999,16.090000,13.699969,52800
2018-07-13,16.090000,16.120001,16.070000,16.100000,13.708483,52100
2018-07-16,16.110001,16.139999,16.077000,16.129999,13.734026,61700
2018-07-17,16.059999,16.230000,16.059999,16.230000,13.819171,86800
2018-07-18,16.129999,16.250000,16.129999,16.219999,13.810656,56900
2018-07-19,16.120001,16.230000,16.110001,16.190001,13.785113,58900
2018-07-20,16.190001,16.280001,16.190001,16.270000,13.853230,39600
2018-07-23,16.250000,16.350000,16.209999,16.350000,13.921347,32000
2018-07-24,16.410000,16.440001,16.270000,16.340000,13.912831,62300
2018-07-25,16.290001,16.490000,16.290001,16.480000,14.032035,32500
2018-07-26,16.480000,16.480000,16.250000,16.260000,13.844717,74800
2018-07-27,16.219999,16.360001,16.219999,16.320000,13.895802,57400
2018-07-30,16.430000,16.450001,16.370001,16.400000,13.963919,20400
2018-07-31,16.530001,16.530001,16.400000,16.400000,13.963919,50900
2018-08-01,16.270000,16.270000,16.129999,16.219999,13.913308,43300
2018-08-02,16.010000,16.100000,16.010000,16.059999,13.776063,66500
2018-08-03,16.000000,16.110001,15.920000,16.110001,13.818954,90600
2018-08-06,16.040001,16.139999,16.030001,16.110001,13.818954,114400
2018-08-07,16.209999,16.260000,16.150999,16.209999,13.904733,41800
2018-08-08,16.200001,16.230000,16.170000,16.230000,13.921887,31600
2018-08-09,16.230000,16.250000,16.209999,16.209999,13.904733,32500
2018-08-10,15.960000,16.007999,15.900000,15.970000,13.698865,89500
2018-08-13,15.930000,15.980000,15.720000,15.760000,13.518727,122900
2018-08-14,15.750000,15.770000,15.650000,15.670000,13.441527,130900
2018-08-15,15.410000,15.510000,15.300000,15.450000,13.252814,103600
2018-08-16,15.650000,15.720000,15.597000,15.720000,13.484417,80300
2018-08-17,15.630000,15.760000,15.620000,15.750000,13.510150,91000
2018-08-20,15.850000,15.850000,15.710000,15.810000,13.561618,68500
2018-08-21,15.900000,15.908000,15.850000,15.850000,13.595930,66900
2018-08-22,15.940000,15.955000,15.720000,15.860000,13.604506,124700
2018-08-23,15.740000,15.810000,15.730000,15.740000,13.501573,47500
2018-08-24,15.810000,15.920000,15.780000,15.910000,13.647397,54900
2018-08-27,15.930000,15.980000,15.890000,15.920000,13.655974,102600
2018-08-28,16.049999,16.049999,15.930000,15.970000,13.698865,91200
2018-08-29,15.930000,16.070000,15.930000,16.049999,13.767485,65700
2018-08-30,15.920000,15.990000,15.868000,15.880000,13.621662,90000
2018-08-31,15.810000,15.850000,15.760000,15.830000,13.578772,46600
2018-09-04,15.580000,15.700000,15.483000,15.600000,13.484555,72100
2018-09-05,15.600000,15.600000,15.490000,15.540000,13.432690,61300
2018-09-06,15.550000,15.550000,15.376000,15.450000,13.354894,103000
2018-09-07,15.320000,15.347000,15.210000,15.250000,13.182015,132100
2018-09-10,15.320000,15.461000,15.310000,15.330000,13.251166,74900
2018-09-11,15.350000,15.450000,15.281000,15.390000,13.303033,59500
2018-09-12,15.400000,15.490000,15.350000,15.450000,13.354894,41600
2018-09-13,15.490000,15.600000,15.490000,15.530000,13.424046,41600
2018-09-14,15.500000,15.530000,15.410000,15.440000,13.346251,60400
2018-09-17,15.500000,15.580000,15.435000,15.500000,13.398115,81400
2018-09-18,15.570000,15.600000,15.532000,15.600000,13.484555,67800
2018-09-19,15.520000,15.550000,15.490000,15.490000,13.389470,83300
2018-09-20,15.590000,15.755000,15.590000,15.700000,13.570992,83000
2018-09-21,15.780000,15.820000,15.689000,15.820000,13.674719,41600
2018-09-24,15.795000,15.795000,15.750000,15.770000,13.631502,53200
2018-09-25,15.820000,15.860000,15.770000,15.860000,13.709298,40400
2018-09-26,15.990000,16.000000,15.854000,15.960000,13.795737,76100
2018-09-27,15.970000,16.040001,15.860000,15.910000,13.752517,92200
2018-09-28,15.860000,15.880000,15.610000,15.780000,13.640146,66300
2018-10-01,15.680000,15.696000,15.560000,15.580000,13.571333,71400
2018-10-02,15.580000,15.580000,15.460000,15.490000,13.492931,45000
2018-10-03,15.490000,15.590000,15.490000,15.530000,13.527778,62400
2018-10-04,15.480000,15.530000,15.240000,15.250000,13.283875,65700
2018-10-05,15.360000,15.360000,15.040000,15.120000,13.170637,80900
2018-10-08,15.000000,15.021000,14.690000,14.890000,12.970289,76100
2018-10-09,14.800000,14.930000,14.768000,14.860000,12.944158,71000
2018-10-10,14.840000,14.840000,14.480000,14.550000,12.674124,124600
2018-10-11,14.490000,14.600000,14.310000,14.320000,12.473778,134100
2018-10-12,14.500000,14.500000,14.210000,14.340000,12.491199,104800
2018-10-15,14.370000,14.371000,14.320000,14.320000,12.473778,58700
2018-10-16,14.500000,14.660000,14.470000,14.660000,12.769942,88100
2018-10-17,14.560000,14.570000,14.480000,14.550000,12.674124,33100
2018-10-18,14.540000,14.540000,14.280000,14.360000,12.508620,55200
2018-10-19,14.390000,14.467000,14.380000,14.380000,12.526039,32000
2018-10-22,14.450000,14.450000,14.250000,14.280000,12.438935,32400
2018-10-23,14.190000,14.270000,14.050000,14.200000,12.369250,95600
2018-10-24,14.130000,14.170000,13.900000,13.900000,12.107927,120400
2018-10-25,13.860000,14.186000,13.841000,14.050000,12.238586,68700
2018-10-26,13.890000,14.014000,13.780000,13.950000,12.151479,51800
2018-10-29,14.070000,14.100000,13.810000,13.830000,12.046951,43700
2018-10-30,13.900000,13.920000,13.810000,13.870000,12.081796,63900
2018-10-31,13.900000,14.100000,13.900000,14.040000,12.229877,56700
2018-11-01,13.980000,14.150000,13.980000,14.120000,12.406484,67900
2018-11-02,14.160000,14.330000,14.110000,14.200000,12.476779,107300
2018-11-05,14.250000,14.340000,14.240000,14.310000,12.573428,71800
2018-11-06,14.230000,14.380000,14.200000,14.360000,12.617362,66000
2018-11-07,14.470000,14.560000,14.410000,14.560000,12.793089,87600
2018-11-08,14.450000,14.940000,14.450000,14.500000,12.740371,80700
2018-11-09,14.470000,14.675000,14.300000,14.310000,12.573428,69800
2018-11-12,14.310000,14.310000,14.000000,14.060000,12.353767,65000
2018-11-13,14.120000,14.300000,14.050000,14.150000,12.432843,58700
2018-11-14,14.300000,14.300000,14.150000,14.170000,12.450418,41500
2018-11-15,14.180000,14.180000,14.000000,14.100000,12.388913,80800
2018-11-16,14.090000,14.090000,13.950000,14.060000,12.353767,82000
2018-11-19,14.030000,14.053000,13.920000,13.960000,12.265902,117100
2018-11-20,13.700000,13.900000,13.630000,13.710000,12.046241,108300
2018-11-21,13.710000,13.870000,13.710000,13.820000,12.142892,61800
2018-11-23,13.750000,13.780000,13.710000,13.780000,12.107744,38400
2018-11-26,13.840000,13.991000,13.840000,13.960000,12.265902,87000
2018-11-27,13.910000,13.950000,13.850000,13.950000,12.257113,57700
2018-11-28,14.050000,14.154000,13.960000,14.140000,12.424057,155500
2018-11-29,14.080000,14.140000,14.070000,14.100000,12.388913,77300
2018-11-30,14.050000,14.132000,13.980000,14.130000,12.415271,77800
2018-12-03,14.150000,14.200000,14.030000,14.130000,12.522506,63600
2018-12-04,14.110000,14.140000,13.760000,13.800000,12.230048,115600
2018-12-06,13.470000,13.800000,13.310000,13.430000,11.902143,180200
2018-12-07,13.512000,13.540000,13.430000,13.430000,11.902143,177700
2018-12-10,13.340000,13.370000,13.140000,13.200000,11.698308,100800
2018-12-11,13.360000,13.375000,13.150000,13.180000,11.680583,152500
2018-12-12,13.300000,13.427000,13.269000,13.340000,11.822381,106100
2018-12-13,13.350000,13.370000,13.310000,13.330000,11.813516,94900
2018-12-14,13.284000,13.290000,13.210000,13.210000,11.707168,135300
2018-12-17,13.280000,13.390000,13.030000,13.040000,11.556511,160600
2018-12-18,13.090000,13.250000,13.070000,13.080000,11.591960,158500
2018-12-19,12.950000,13.180000,12.950000,13.120000,11.627409,174100
2018-12-20,13.030000,13.120000,12.730000,12.790000,11.334949,247700
2018-12-21,12.750000,12.810000,12.560000,12.600000,11.166567,255100
2018-12-24,12.450000,12.550000,12.410000,12.500000,11.077941,101500
2018-12-26,12.600000,12.740000,12.500000,12.740000,11.290638,118600
2018-12-27,12.520000,12.710000,12.510000,12.660000,11.219739,170700
2018-12-28,12.590000,12.660000,12.380000,12.660000,11.219739,199000
2018-12-31,12.680000,12.881000,12.640000,12.640000,11.202015,435700
2019-01-02,12.510000,12.840000,12.450000,12.840000,11.489246,54300
2019-01-03,12.840000,12.840000,12.720000,12.740000,11.399766,76700
2019-01-04,12.880000,13.150000,12.880000,13.050000,11.677155,78300
2019-01-07,13.090000,13.290000,13.082000,13.270000,11.874011,55000
2019-01-08,13.310000,13.399000,13.250000,13.300000,11.900856,185000
2019-01-09,13.500000,13.570000,13.475000,13.540000,12.115605,45400
2019-01-10,13.600000,13.650000,13.520000,13.650000,12.214035,33200
2019-01-11,13.650000,13.670000,13.560000,13.660000,12.222983,71400
2019-01-14,13.600000,13.680000,13.510000,13.570000,12.142452,32300
2019-01-15,13.610000,13.640000,13.510000,13.640000,12.205087,54900
2019-01-16,13.650000,13.750000,13.610000,13.700000,12.258775,51700
2019-01-17,13.660000,13.790000,13.660000,13.780000,12.330358,50400
2019-01-18,13.850000,13.940000,13.820000,13.820000,12.366151,31600
2019-01-22,13.830000,13.930000,13.690000,13.690000,12.249827,38700
2019-01-23,13.750000,13.819000,13.690000,13.710000,12.267722,29600
2019-01-24,13.690000,13.760000,13.690000,13.700000,12.258775,51000
2019-01-25,13.750000,13.880000,13.750000,13.840000,12.384048,47400
2019-01-28,13.800000,13.920000,13.750000,13.920000,12.455630,61100
2019-01-29,13.886000,13.990000,13.886000,13.940000,12.473527,70500
2019-01-30,14.010000,14.150000,13.980000,14.130000,12.643540,74900
2019-01-31,14.080000,14.210000,14.080000,14.180000,12.688280,61900
2019-02-01,14.070000,14.070000,13.968000,14.020000,12.653084,52400
2019-02-04,14.000000,14.050000,13.930000,14.000000,12.635033,25400
2019-02-05,14.020000,14.100000,13.990000,13.990000,12.626008,56600
2019-02-06,14.010000,14.100000,13.930000,14.100000,12.725283,43100
2019-02-07,14.050000,14.050000,13.950000,14.000000,12.635033,90400
2019-02-08,13.920000,13.950000,13.860000,13.880000,12.526732,39600
2019-02-11,13.870000,13.900000,13.840000,13.870000,12.517705,73500
2019-02-12,14.030000,14.140000,13.914000,14.110000,12.734307,71300
2019-02-13,14.210000,14.250000,14.121000,14.190000,12.806507,51600
2019-02-14,14.220000,14.750000,14.134000,14.650000,13.221659,103600
2019-02-15,14.800000,14.917000,14.510000,14.590000,13.167509,63100
2019-02-19,14.520000,14.680000,14.520000,14.600000,13.176533,59600
2019-02-20,14.610000,14.710000,14.560000,14.620000,13.194584,50700
2019-02-21,14.540000,14.566000,14.440000,14.450000,13.041158,41300
2019-02-22,14.420000,14.500000,14.410000,14.430000,13.023109,35700
2019-02-25,14.430000,14.620000,14.370000,14.370000,12.968958,58100
2019-02-26,14.460000,14.470000,14.350000,14.450000,13.041158,64100
2019-02-27,14.420000,14.720000,14.420000,14.680000,13.248733,43900
2019-02-28,14.690000,14.698000,14.570000,14.590000,13.167509,42800
2019-03-01,14.540000,14.730000,14.400000,14.450000,13.150216,89400
2019-03-04,14.480000,14.570000,14.440000,14.450000,13.150216,28100
2019-03-05,14.470000,14.480000,14.410000,14.450000,13.150216,29500
2019-03-06,14.410000,14.469000,14.380000,14.380000,13.086513,45400
2019-03-07,14.380000,14.409000,14.210000,14.210000,12.931805,45700
2019-03-08,14.160000,14.182000,14.000000,14.000000,12.740696,47000
2019-03-11,14.090000,14.120000,14.007000,14.100000,12.831701,46200
2019-03-12,14.150000,14.219000,14.120000,14.120000,12.849900,35100
2019-03-13,14.130000,14.270000,14.130000,14.210000,12.931805,30300
2019-03-14,14.260000,14.400000,14.250000,14.400000,13.104714,33800
2019-03-15,14.510000,14.520000,14.440000,14.480000,13.177520,47800
2019-03-18,14.530000,14.710000,14.495000,14.496000,13.192080,50800
2019-03-19,14.580000,14.720000,14.580000,14.720000,13.395930,38600
2019-03-20,14.660000,14.713000,14.591000,14.630000,13.314026,64000
2019-03-21,14.550000,14.800000,14.550000,14.620000,13.304926,61500
2019-03-22,14.520000,14.520000,14.391000,14.410000,13.113816,24800
2019-03-25,14.384000,14.384000,14.200000,14.210000,12.931805,54000
2019-03-26,14.220000,14.293000,14.195000,14.250000,12.968207,91800
2019-03-27,14.280000,14.290000,14.230000,14.230000,12.950006,40200
2019-03-28,14.250000,14.290000,14.170000,14.280000,12.995508,91200
2019-03-29,14.220000,14.340000,14.220000,14.340000,13.050113,75700
2019-04-01,14.340000,14.439000,14.270000,14.380000,13.197876,74400
2019-04-02,14.450000,14.450000,14.312000,14.350000,13.170341,54600
2019-04-03,14.470000,14.540000,14.410000,14.540000,13.344724,116900
2019-04-04,14.540000,14.550000,14.440000,14.440000,13.252943,40700
2019-04-05,14.500000,14.500000,14.380000,14.380000,13.197876,50100
2019-04-08,14.400000,14.470000,14.270000,14.420000,13.234589,40300
2019-04-09,14.340000,14.380000,14.310000,14.310000,13.133630,49800
2019-04-10,14.370000,14.420000,14.330000,14.420000,13.234589,52100
2019-04-11,14.430000,14.490000,14.400000,14.490000,13.298834,42200
2019-04-12,14.550000,14.600000,14.450000,14.500000,13.308013,74500
2019-04-15,14.610000,14.610000,14.515000,14.570000,13.372257,46300
2019-04-16,14.690000,14.700000,14.550000,14.590000,13.390613,50200
2019-04-17,14.620000,14.710000,14.600000,14.690000,13.482391,20600
2019-04-18,14.730000,14.730000,14.400000,14.670000,13.464036,25600
2019-04-22,14.600000,14.620000,14.600000,14.620000,13.418148,50900
2019-04-23,14.600000,14.650000,14.500000,14.510000,13.317188,70300
2019-04-24,14.500000,14.650000,14.410000,14.650000,13.445682,57200
2019-04-25,14.500000,14.570000,14.420000,14.480000,13.289656,132100
2019-04-26,14.520000,14.800000,14.460000,14.800000,13.583351,74100
2019-04-29,14.790000,14.790000,14.620000,14.690000,13.482391,47800
2019-04-30,14.790000,14.810000,14.620000,14.810000,13.592526,67400
2019-05-01,14.650000,14.740000,14.630000,14.720000,13.621214,32100
2019-05-02,14.650000,14.786000,14.620000,14.630000,13.537932,19100
2019-05-03,14.700000,14.700000,14.510000,14.620000,13.528680,26500
2019-05-06,14.300000,14.560000,14.300000,14.490000,13.408382,35400
2019-05-07,14.300000,14.460000,14.150000,14.250000,13.186296,42900
2019-05-08,14.190000,14.300000,14.140000,14.150000,13.093760,46800
2019-05-09,14.110000,14.110000,13.980000,14.010000,12.964211,43400
2019-05-10,14.000000,14.047000,13.820000,13.920000,12.880930,54700
2019-05-13,13.870000,13.870000,13.690000,13.720000,12.695859,36200
2019-05-14,13.800000,13.830000,13.640000,13.800000,12.769888,68700
2019-05-15,13.720000,13.910000,13.690000,13.870000,12.834662,34800
2019-05-16,13.900000,14.020000,13.900000,13.930000,12.890182,52500
2019-05-17,13.830000,14.000000,13.800000,13.940000,12.899436,25700
2019-05-20,13.900000,13.950000,13.800000,13.830000,12.797648,30500
2019-05-21,13.840000,13.857000,13.720000,13.790000,12.760633,94700
2019-05-22,13.790000,13.790000,13.720000,13.750000,12.723619,38100
2019-05-23,13.720000,13.720000,13.440000,13.510000,12.501534,67800
2019-05-24,13.480000,13.620000,13.480000,13.550000,12.538548,66000
2019-05-28,13.570000,13.640000,13.390000,13.395000,12.395119,193700
2019-05-29,13.230000,13.279000,13.110000,13.270000,12.279449,177800
2019-05-30,13.180000,13.258000,13.180000,13.230000,12.242435,60800
2019-05-31,13.120000,13.150000,13.060000,13.130000,12.149901,49400
2019-06-03,13.130000,13.169000,13.080000,13.130000,12.262911,82900
2019-06-04,13.210000,13.326000,13.210000,13.320000,12.440362,31900
2019-06-05,13.380000,13.410000,13.270000,13.350000,12.468381,59500
2019-06-06,13.330000,13.360000,13.295000,13.350000,12.468381,24300
2019-06-07,13.430000,13.655000,13.430000,13.520000,12.627154,35400
2019-06-10,13.540000,13.640000,13.530000,13.630000,12.729890,32500
2019-06-11,13.730000,13.750000,13.650000,13.740000,12.832625,34000
2019-06-12,13.800000,14.067000,13.700000,13.740000,12.832625,46400
2019-06-13,13.740000,13.780000,13.650000,13.680000,12.776587,37400
2019-06-14,13.700000,13.700000,13.600000,13.680000,12.776587,32600
2019-06-17,13.600000,13.870000,13.600000,13.640000,12.739228,29400
2019-06-18,13.820000,13.949000,13.771000,13.810000,12.898004,68100
2019-06-19,13.910000,13.914000,13.762000,13.815000,12.902672,79800
2019-06-20,13.980000,14.000000,13.840000,13.900000,12.982059,48300
2019-06-21,13.840000,14.130000,13.838000,14.100000,13.168853,70500
2019-06-24,13.990000,14.037000,13.890000,13.890000,12.972719,57000
2019-06-25,13.870000,13.900000,13.735000,13.780000,12.869984,46300
2019-06-26,13.770000,13.880000,13.769000,13.820000,12.907342,28500
2019-06-27,13.800000,13.930000,13.800000,13.880000,12.963380,52100
2019-06-28,13.940000,14.020000,13.820000,14.020000,13.094134,100100
2019-07-01,13.980000,14.050000,13.863000,13.960000,13.151603,59400
2019-07-02,13.950000,14.040000,13.950000,14.000000,13.189286,31600
2019-07-03,14.070000,14.190000,14.010000,14.178000,13.356978,25200
2019-07-05,14.000000,14.270000,14.000000,14.165000,13.344731,39500
2019-07-08,14.090000,14.220000,14.060000,14.090000,13.274076,42300
2019-07-09,14.020000,14.110000,14.020000,14.080000,13.264654,24900
2019-07-10,14.045000,14.170000,14.010000,14.080000,13.264654,36800
2019-07-11,14.050000,14.190000,14.050000,14.100000,13.283497,60800
2019-07-12,14.140000,14.140000,13.960000,13.990000,13.179864,40100
2019-07-15,14.180000,14.190000,14.000000,14.070000,13.255231,73500
2019-07-16,14.020000,14.180000,14.000000,14.060000,13.245812,67500
2019-07-17,14.069000,14.090000,14.003000,14.040000,13.226971,32000
2019-07-18,14.070000,14.110000,13.960000,14.060000,13.245812,39000
2019-07-19,14.100000,14.170000,14.050000,14.100000,13.283497,47200
2019-07-22,14.050000,14.110000,14.041000,14.060000,13.245812,21700
2019-07-23,14.100000,14.320000,14.098000,14.200000,13.377703,95500
2019-07-24,14.210000,14.320000,14.130000,14.240000,13.415387,78500
2019-07-25,14.250000,14.280000,14.088000,14.150000,13.330599,89900
2019-07-26,14.200000,14.283000,14.093000,14.190000,13.368282,65400
2019-07-29,14.230000,14.370000,14.140000,14.300000,13.471913,129300
2019-07-30,14.230000,14.370000,14.060000,14.120000,13.302338,131200
2019-07-31,14.110000,14.230000,13.860000,14.100000,13.283497,115700
2019-08-01,13.930000,14.090000,13.724000,13.910000,13.217928,78700
2019-08-02,13.850000,13.993000,13.746000,13.770000,13.084894,26000
2019-08-05,13.550000,13.550000,13.160000,13.410000,12.742805,147200
2019-08-06,13.360000,13.500000,13.300000,13.420000,12.752308,77000
2019-08-07,13.320000,13.460000,13.270000,13.440000,12.771313,27400
2019-08-08,13.400000,13.540000,13.240000,13.390000,12.723801,66000
2019-08-09,13.480000,13.620000,13.410000,13.590000,12.913849,21200
2019-08-12,13.410000,13.450000,13.200000,13.270000,12.609771,40200
2019-08-13,13.240000,13.440000,13.210000,13.230000,12.571760,62300
2019-08-14,13.070000,13.112000,12.880000,12.940000,12.296189,58100
2019-08-15,13.140000,13.160000,12.870000,12.900000,12.258180,84000
2019-08-16,12.890000,13.020000,12.870000,12.920000,12.277185,64200
2019-08-19,12.980000,13.250000,12.980000,13.180000,12.524249,52200
2019-08-20,13.110000,13.290000,13.110000,13.290000,12.628775,44000
2019-08-21,13.390000,13.490000,13.340000,13.450000,12.780815,56300
2019-08-22,13.480000,13.480000,13.300000,13.340000,12.676288,34700
2019-08-23,13.320000,13.410000,13.200000,13.260000,12.600268,35700
2019-08-26,13.260000,13.293000,13.130000,13.230000,12.571760,43700
2019-08-27,13.270000,13.378000,13.110000,13.150000,12.495741,34200
2019-08-28,13.160000,13.208000,13.080000,13.160000,12.505245,64700
2019-08-29,13.220000,13.220000,13.090000,13.120000,12.467235,60200
2019-08-30,13.220000,13.220000,13.020000,13.110000,12.457731,44400
2019-09-03,12.980000,13.070000,12.923000,12.960000,12.429917,28600
2019-09-04,13.030000,13.170000,13.030000,13.090000,12.554600,46500
2019-09-05,13.160000,13.350000,13.160000,13.210000,12.669692,100400
2019-09-06,13.320000,13.370000,13.260000,13.280000,12.736829,25300
2019-09-09,13.270000,13.360000,13.270000,13.330000,12.784782,35500
2019-09-10,13.300000,13.450000,13.300000,13.380000,12.832739,90800
2019-09-11,13.391000,13.420000,13.338000,13.410000,12.861511,99300
2019-09-12,13.500000,13.560000,13.485000,13.540000,12.986194,50900
2019-09-13,13.510000,13.730000,13.510000,13.730000,13.168422,64700
2019-09-16,13.730000,13.730000,13.530000,13.540000,12.986194,81900
2019-09-17,13.460000,13.760000,13.460000,13.730000,13.168422,95800
2019-09-18,13.720000,13.850000,13.720000,13.810000,13.245152,50100
2019-09-19,13.870000,13.890000,13.800000,13.870000,13.302696,40400
2019-09-20,13.880000,14.000000,13.750000,13.790000,13.225968,68800
2019-09-23,13.690000,13.720000,13.620000,13.680000,13.120469,61100
2019-09-24,13.670000,13.741000,13.600000,13.640000,13.082106,68300
2019-09-25,13.600000,13.610000,13.470000,13.560000,13.005377,46500
2019-09-26,13.640000,13.660000,13.370000,13.540000,12.986194,82800
2019-09-27,13.520000,13.550000,13.450000,13.500000,12.947831,63700
2019-09-30,13.510000,13.690000,13.510000,13.570000,13.014967,63700
2019-10-01,13.500000,13.600000,13.450000,13.470000,13.035290,82300
2019-10-02,13.350000,13.350000,13.170000,13.280000,12.851421,42700
2019-10-03,13.230000,13.320000,13.150000,13.280000,12.851421,49800
2019-10-04,13.280000,13.310000,13.183000,13.250000,12.822390,41400
2019-10-07,13.300000,13.357000,13.220000,13.280000,12.851421,58600
2019-10-08,13.270000,13.280000,13.180000,13.220000,12.793358,90100
2019-10-09,13.230000,13.350000,13.230000,13.350000,12.919162,54400
2019-10-10,13.380000,13.700000,13.288000,13.670000,13.228835,66000
2019-10-11,13.750000,14.190000,13.742000,13.900000,13.451413,71400
2019-10-14,13.940000,13.975000,13.740000,13.960000,13.509476,44300
2019-10-15,14.060000,14.150000,14.000000,14.090000,13.635281,39600
2019-10-16,14.120000,14.250000,14.102000,14.150000,13.693345,45700
2019-10-17,14.220000,14.270000,14.180000,14.270000,13.809473,34100
2019-10-18,14.300000,14.300000,14.050000,14.080000,13.625604,39300
2019-10-21,14.190000,14.300000,14.190000,14.300000,13.838503,34100
2019-10-22,14.290000,14.620000,14.236000,14.460000,13.993340,156200
2019-10-23,14.420000,14.620000,14.420000,14.540000,14.070759,281000
2019-10-24,14.650000,14.670000,14.392000,14.600000,14.128822,80300
2019-10-25,14.640000,14.687000,14.570000,14.660000,14.186885,62300
2019-10-28,14.770000,14.770000,14.700000,14.730000,14.254625,72200
2019-10-29,14.720000,14.780000,14.600000,14.750000,14.273981,118200
2019-10-30,14.660000,14.760000,14.610000,14.720000,14.244949,87400
2019-10-31,14.600000,14.710000,14.570000,14.710000,14.235273,76600
2019-11-01,14.690000,14.690000,14.420000,14.660000,14.304549,53100
2019-11-04,14.680000,14.800000,14.480000,14.750000,14.392367,49300
2019-11-05,14.710000,14.740000,14.630000,14.730000,14.372852,44700
2019-11-06,14.780000,14.790000,14.680000,14.700000,14.343580,36800
2019-11-07,14.770000,14.880000,14.700000,14.750000,14.392367,27600
2019-11-08,14.780000,14.780000,14.650000,14.740000,14.382610,32300
2019-11-11,14.750000,14.790000,14.671000,14.790000,14.431397,67700
2019-11-12,14.770000,14.790000,14.710000,14.750000,14.392367,68700
2019-11-13,14.730000,14.780000,14.690000,14.780000,14.421641,43300
2019-11-14,14.670000,14.750000,14.670000,14.730000,14.372852,48200
2019-11-15,14.730000,14.795000,14.714000,14.780000,14.421641,85600
2019-11-18,14.770000,14.780000,14.650000,14.770000,14.411883,69600
2019-11-19,14.830000,14.830000,14.700000,14.780000,14.421641,47800
2019-11-20,14.740000,14.760000,14.550000,14.700000,14.343580,54300
2019-11-21,14.660000,14.700000,14.430000,14.500000,14.148430,78900
2019-11-22,14.450000,14.650000,14.450000,14.620000,14.265520,41600
2019-11-25,14.650000,14.760000,14.622000,14.730000,14.372852,47600
2019-11-26,14.720000,14.790000,14.626000,14.740000,14.382610,56000
2019-11-27,14.670000,14.760000,14.600000,14.730000,14.372852,41400
2019-11-29,14.680000,14.790000,14.680000,14.790000,14.431397,11100
2019-12-02,14.610000,14.610000,14.480000,14.490000,14.255298,47500
2019-12-03,14.310000,14.500000,14.230000,14.410000,14.176593,95500
2019-12-04,14.480000,14.760000,14.441000,14.680000,14.442220,68500
2019-12-05,14.700000,14.700000,14.460000,14.610000,14.373354,37600
2019-12-06,14.590000,14.740000,14.590000,14.660000,14.422544,36600
2019-12-09,14.680000,14.750000,14.640000,14.650000,14.412705,36600
2019-12-10,14.610000,14.670000,14.600000,14.670000,14.432383,51400
2019-12-11,14.710000,14.749000,14.630000,14.730000,14.491409,34300
2019-12-12,14.760000,14.980000,14.590000,14.730000,14.491409,96200
2019-12-13,14.780000,14.850000,14.683000,14.790000,14.550438,74100
2019-12-16,15.000000,15.362000,14.860000,14.910000,14.668494,170400
2019-12-17,14.870000,15.260000,14.800000,15.140000,14.894770,120000
2019-12-18,15.070000,15.070000,14.994000,15.030000,14.786551,46300
2019-12-19,14.980000,15.110000,14.900000,15.050000,14.806228,100000
2019-12-20,15.150000,15.220000,15.100000,15.200000,14.953796,113500
2019-12-23,15.170000,15.170000,14.926000,15.000000,14.757037,109800
2019-12-24,15.000000,15.004000,14.730000,14.870000,14.629143,72600
2019-12-26,14.850000,14.930000,14.710000,14.860000,14.619304,86000
2019-12-27,14.770000,15.120000,14.770000,14.920000,14.678333,97700
2019-12-30,14.900000,15.080000,14.770000,14.800000,14.560277,120600
2019-12-31,14.690000,15.010000,14.660000,14.930000,14.688170,405100
2020-01-02,14.880000,15.220000,14.880000,15.170000,15.046226,72800
2020-01-03,14.930000,15.200000,14.930000,15.150000,15.026388,59900
2020-01-06,15.150000,15.150000,15.000000,15.100000,14.976797,59700
2020-01-07,15.090000,15.149000,14.750000,14.890000,14.768511,81000
2020-01-08,14.840000,15.209000,14.840000,15.010000,14.887531,63700
2020-01-09,15.030000,15.150000,15.030000,15.140000,15.016471,51800
2020-01-10,15.140000,15.160000,15.070000,15.105000,14.981755,36400
2020-01-13,15.160000,15.160000,15.080000,15.120000,14.996634,47300
2020-01-14,15.080000,15.210000,15.080000,15.210000,15.085899,59000
2020-01-15,15.260000,15.350000,15.210000,15.260000,15.135491,95000
2020-01-16,15.270000,15.300000,15.260000,15.300000,15.175165,46500
2020-01-17,15.270000,15.340000,15.130000,15.330000,15.204920,45500
2020-01-21,15.260000,15.312000,15.120000,15.280000,15.155328,63600
2020-01-22,15.310000,15.310000,15.260000,15.310000,15.185083,69300
2020-01-23,15.290000,15.330000,15.180000,15.250000,15.125573,63800
2020-01-24,15.320000,15.340000,15.250000,15.280000,15.155328,94000
2020-01-27,15.200000,15.200000,14.940000,14.990000,14.867694,61200
2020-01-28,15.130000,15.130000,14.980000,15.010000,14.887531,39300
2020-01-29,15.080000,15.130000,15.040000,15.110000,14.986714,55000
2020-01-30,15.100000,15.100000,14.960000,15.030000,14.907368,44900
2020-01-31,15.000000,15.010000,14.830000,14.830000,14.709000,127000
2020-02-03,14.680000,14.789000,14.660000,14.660000,14.660000,80900
2020-02-04,14.670000,15.069000,14.670000,14.960000,14.960000,39900
2020-02-05,15.070000,15.130000,15.050000,15.080000,15.080000,29500
2020-02-06,15.100000,15.250000,15.031000,15.230000,15.230000,39700
2020-02-07,15.140000,15.214000,15.010000,15.020000,15.020000,46300
2020-02-10,14.990000,15.060000,14.931000,15.040000,15.040000,40100
2020-02-11,14.960000,15.090000,14.960000,15.020000,15.020000,31300
2020-02-12,15.140000,15.260000,15.071000,15.170000,15.170000,37700
2020-02-13,15.070000,15.310000,15.070000,15.260000,15.260000,73200
