Date,Open,High,Low,Close,Adj Close,Volume
2015-06-17,20.000000,20.000000,20.000000,20.000000,20.000000,0
2015-06-18,30.400000,31.900000,29.500000,29.680000,29.680000,52076000
2015-06-19,31.160000,33.950001,30.330000,32.500000,32.500000,25871400
2015-06-22,35.650002,40.450001,35.000000,37.060001,37.060001,33816800
2015-06-23,39.840000,40.380001,37.099998,37.880001,37.880001,20986400
2015-06-24,36.520000,36.750000,35.250000,36.009998,36.009998,13661800
2015-06-25,37.520000,37.549999,36.110001,36.590000,36.590000,7786800
2015-06-26,36.900002,36.930000,33.650002,34.750000,34.750000,7374600
2015-06-29,33.099998,34.400002,32.500000,33.279999,33.279999,5568200
2015-06-30,35.049999,38.230000,34.500000,38.230000,38.230000,12506600
2015-07-01,39.290001,42.380001,38.380001,42.380001,42.380001,27215100
2015-07-02,41.820000,44.380001,41.490002,42.240002,42.240002,17679300
2015-07-06,41.150002,43.000000,39.750000,40.189999,40.189999,9343300
2015-07-07,42.360001,42.980000,39.000000,42.150002,42.150002,20890700
2015-07-08,41.369999,42.930000,40.610001,41.740002,41.740002,10754800
2015-07-09,43.230000,44.000000,42.200001,42.250000,42.250000,10483800
2015-07-10,43.259998,43.599998,41.880001,42.099998,42.099998,7193700
2015-07-13,43.290001,44.590000,42.750000,43.480000,43.480000,14892500
2015-07-14,44.700001,46.000000,43.759998,46.000000,46.000000,14656800
2015-07-15,46.869999,48.978001,45.259998,47.290001,47.290001,18440300
2015-07-16,47.849998,48.000000,46.009998,47.779999,47.779999,9294600
2015-07-17,47.240002,47.400002,46.250000,47.169998,47.169998,6670400
2015-07-20,45.900002,47.200001,43.070000,44.470001,44.470001,13186100
2015-07-21,43.950001,47.029999,43.509998,46.869999,46.869999,7239500
2015-07-22,46.099998,47.430000,45.020000,45.529999,45.529999,5160300
2015-07-23,46.709999,47.250000,45.830002,46.200001,46.200001,4668700
2015-07-24,46.700001,46.700001,45.180000,45.540001,45.540001,3305800
2015-07-27,45.000000,45.230000,41.700001,43.930000,43.930000,7137200
2015-07-28,44.310001,45.820000,43.400002,45.470001,45.470001,3738800
2015-07-29,45.400002,45.650002,43.779999,44.070000,44.070000,2711100
2015-07-30,44.290001,45.419998,42.639999,45.189999,45.189999,2980900
2015-07-31,45.000000,47.840000,44.450001,47.599998,47.599998,5661000
2015-08-03,49.139999,50.990002,48.049999,48.959999,48.959999,15411200
2015-08-04,50.000000,50.637001,48.250000,49.689999,49.689999,7803700
2015-08-05,50.349998,51.900002,49.470001,51.639999,51.639999,20018400
2015-08-06,46.639999,47.900002,43.560001,44.599998,44.599998,22572800
2015-08-07,45.080002,45.509998,41.500000,42.680000,42.680000,9449900
2015-08-10,43.209999,44.400002,42.509998,43.150002,43.150002,6029000
2015-08-11,42.900002,44.099998,42.250000,42.930000,42.930000,3392800
2015-08-12,41.759998,42.410000,39.200001,41.180000,41.180000,7352500
2015-08-13,42.250000,42.990002,41.509998,42.250000,42.250000,3396900
2015-08-14,43.090000,44.980000,42.820000,44.650002,44.650002,5351500
2015-08-17,44.639999,45.250000,43.709999,44.930000,44.930000,3287800
2015-08-18,44.549999,44.889999,42.660000,43.770000,43.770000,3472400
2015-08-19,43.130001,43.720001,42.790001,43.099998,43.099998,1954800
2015-08-20,41.880001,42.500000,41.000000,41.410000,41.410000,3656000
2015-08-21,38.549999,40.400002,37.689999,38.650002,38.650002,6946900
2015-08-24,32.290001,37.360001,30.510000,37.360001,37.360001,8051100
2015-08-25,40.080002,40.080002,36.529999,36.770000,36.770000,3220700
2015-08-26,38.160000,38.500000,36.250000,38.400002,38.400002,2905200
2015-08-27,39.790001,40.000000,33.540001,34.970001,34.970001,8588700
2015-08-28,34.320000,35.000000,33.259998,33.799999,33.799999,4249200
2015-08-31,34.240002,35.500000,33.750000,34.490002,34.490002,4630800
2015-09-01,33.099998,34.090000,32.400002,32.889999,32.889999,2785100
2015-09-02,33.410000,33.599998,32.680000,33.570000,33.570000,1774600
2015-09-03,33.599998,34.250000,32.521999,33.049999,33.049999,2058300
2015-09-04,32.250000,32.700001,31.250000,31.879999,31.879999,1795900
2015-09-08,34.730000,35.889999,34.099998,35.459999,35.459999,6704000
2015-09-09,36.689999,37.389999,35.310001,35.950001,35.950001,4585200
2015-09-10,35.560001,35.990002,33.799999,34.230000,34.230000,3044600
2015-09-11,33.799999,34.000000,31.280001,32.400002,32.400002,4948300
2015-09-14,33.130001,33.200001,31.709999,32.000000,32.000000,2215100
2015-09-15,33.250000,33.990002,32.410000,33.040001,33.040001,5245900
2015-09-16,34.610001,38.450001,33.849998,37.099998,37.099998,10125400
2015-09-17,36.459999,40.898998,36.099998,39.880001,39.880001,18266700
2015-09-18,39.250000,42.040001,38.599998,40.720001,40.720001,13693400
2015-09-21,41.750000,41.919998,37.750000,38.090000,38.090000,8257800
2015-09-22,36.990002,39.889999,36.730000,39.490002,39.490002,5301100
2015-09-23,39.930000,40.367001,38.650002,39.110001,39.110001,3037100
2015-09-24,38.299999,38.950001,37.000000,38.790001,38.790001,2766400
2015-09-25,39.700001,40.240002,37.299999,37.599998,37.599998,3207400
2015-09-28,36.919998,37.160000,35.259998,36.049999,36.049999,2802100
2015-09-29,36.040001,36.270000,34.259998,35.299999,35.299999,2651300
2015-09-30,35.590000,37.689999,34.709999,37.689999,37.689999,5896100
2015-10-01,37.240002,38.529999,36.310001,38.049999,38.049999,2506500
2015-10-02,37.150002,38.400002,37.000000,37.299999,37.299999,2106900
2015-10-05,37.849998,38.970001,37.320000,38.099998,38.099998,3231600
2015-10-06,38.009998,38.099998,35.830002,36.400002,36.400002,2675900
2015-10-07,36.700001,36.880001,33.660000,35.250000,35.250000,3506200
2015-10-08,34.790001,35.770000,33.430000,34.669998,34.669998,2678700
2015-10-09,35.099998,36.099998,34.650002,35.360001,35.360001,1829100
2015-10-12,36.020000,36.480000,35.750000,36.099998,36.099998,1284300
2015-10-13,36.320000,37.880001,34.759998,36.169998,36.169998,3128400
2015-10-14,36.250000,36.313000,34.950001,35.599998,35.599998,1241000
2015-10-15,35.500000,37.110001,35.439999,37.099998,37.099998,1357300
2015-10-16,37.259998,37.599998,36.529999,36.900002,36.900002,1215700
2015-10-19,36.750000,38.980000,36.549999,37.410000,37.410000,2893800
2015-10-20,39.209999,41.110001,38.099998,38.500000,38.500000,6884500
2015-10-21,39.189999,39.500000,35.419998,36.820000,36.820000,3102800
2015-10-22,37.599998,38.060001,35.820000,37.090000,37.090000,2095100
2015-10-23,37.820000,38.599998,37.500000,38.470001,38.470001,2055700
2015-10-26,38.180000,38.779999,37.250000,37.369999,37.369999,1688400
2015-10-27,37.250000,37.900002,36.889999,37.669998,37.669998,1042000
2015-10-28,38.299999,39.410000,37.820000,39.090000,39.090000,2262700
2015-10-29,38.209999,38.700001,37.000000,37.570000,37.570000,3482800
2015-10-30,38.200001,40.779999,37.660000,40.540001,40.540001,5732200
2015-11-02,41.529999,41.970001,39.930000,40.799999,40.799999,12417100
2015-11-03,38.000000,39.130001,37.169998,37.310001,37.310001,14193400
2015-11-04,37.980000,38.439999,37.500000,37.820000,37.820000,4835400
2015-11-05,37.549999,37.740002,36.599998,36.860001,36.860001,3092100
2015-11-06,36.860001,37.950001,36.020000,37.919998,37.919998,4283900
2015-11-09,37.799999,38.150002,36.599998,37.459999,37.459999,2460200
2015-11-10,37.080002,38.139999,35.560001,35.919998,35.919998,4465100
2015-11-11,36.040001,36.340000,34.209999,34.310001,34.310001,2691800
2015-11-12,33.730000,34.000000,31.500000,31.680000,31.680000,7115800
2015-11-13,29.020000,29.400000,26.799999,27.860001,27.860001,30545600
2015-11-16,28.000000,28.850000,27.549999,28.760000,28.760000,6350900
2015-11-17,29.410000,30.020000,28.260000,28.730000,28.730000,10054100
2015-11-18,28.820000,28.900000,27.500000,28.670000,28.670000,6065200
2015-11-19,29.139999,29.400000,28.709999,29.010000,29.010000,5388600
2015-11-20,29.230000,29.250000,27.570000,27.590000,27.590000,7429900
2015-11-23,27.889999,27.980000,26.462000,27.030001,27.030001,8393100
2015-11-24,26.820000,27.480000,26.610001,26.870001,26.870001,3886300
2015-11-25,26.959999,28.559999,26.660000,27.990000,27.990000,4834900
2015-11-27,28.260000,28.549999,27.629999,27.840000,27.840000,2070000
2015-11-30,29.090000,29.219999,28.450001,28.719999,28.719999,6908800
2015-12-01,29.190001,29.850000,27.930000,29.219999,29.219999,7264100
2015-12-02,29.299999,29.809999,28.570000,29.370001,29.370001,4883200
2015-12-03,29.980000,30.840000,29.450001,30.139999,30.139999,6884200
2015-12-04,30.500000,33.369999,30.330000,33.369999,33.369999,9524600
2015-12-07,33.990002,34.680000,32.610001,34.099998,34.099998,9306100
2015-12-08,33.189999,33.990002,32.279999,32.340000,32.340000,5084200
2015-12-09,32.400002,33.349998,30.770000,31.250000,31.250000,4645000
2015-12-10,31.309999,31.850000,30.600000,30.770000,30.770000,3487600
2015-12-11,30.690001,30.879999,29.230000,29.500000,29.500000,4438500
2015-12-14,29.230000,29.750000,27.670000,29.150000,29.150000,3690400
2015-12-15,29.049999,30.790001,28.240000,29.840000,29.840000,6587100
2015-12-16,30.299999,30.540001,29.049999,29.469999,29.469999,3868600
2015-12-17,29.700001,29.750000,27.639999,27.809999,27.809999,5676200
2015-12-18,28.129999,28.209999,27.070000,27.730000,27.730000,4677900
2015-12-21,29.090000,29.450001,28.020000,29.100000,29.100000,7395500
2015-12-22,29.100000,29.200001,28.260000,28.660000,28.660000,3503200
2015-12-23,28.920000,28.920000,28.260000,28.629999,28.629999,3628200
2015-12-24,28.379999,29.200001,28.360001,28.910000,28.910000,1603600
2015-12-28,30.219999,30.650000,29.559999,29.860001,29.860001,8024900
2015-12-29,30.500000,30.750000,29.100000,29.350000,29.350000,5978400
2015-12-30,29.000000,29.740000,28.740000,29.629999,29.629999,3414300
2015-12-31,29.090000,30.000000,29.000000,29.590000,29.590000,3725700
2016-01-04,28.650000,29.990000,28.120001,29.760000,29.760000,4567000
2016-01-05,30.209999,30.959999,24.030001,24.299999,24.299999,30670400
2016-01-06,23.730000,24.180000,22.639999,22.900000,22.900000,13673000
2016-01-07,22.160000,23.280001,20.250000,21.500000,21.500000,17043600
2016-01-08,22.200001,22.590000,21.360001,21.520000,21.520000,6441900
2016-01-11,21.430000,21.620001,18.350000,18.850000,18.850000,13868000
2016-01-12,19.360001,19.750000,18.900000,19.629999,19.629999,5176900
2016-01-13,19.650000,20.480000,19.170000,19.850000,19.850000,5863000
2016-01-14,19.200001,19.417000,17.770000,18.870001,18.870001,7268000
2016-01-15,17.570000,18.340000,17.299999,17.969999,17.969999,5383800
2016-01-19,18.320000,18.790001,17.250000,17.660000,17.660000,4529300
2016-01-20,16.850000,18.280001,15.524000,17.790001,17.790001,7861800
2016-01-21,18.580000,18.620001,17.297001,18.190001,18.190001,5743200
2016-01-22,18.500000,19.344999,18.209999,18.809999,18.809999,3433700
2016-01-25,18.580000,18.724001,17.150000,17.290001,17.290001,4026100
2016-01-26,17.330000,17.669001,16.670000,16.770000,16.770000,4297000
2016-01-27,17.290001,17.290001,16.010000,16.049999,16.049999,5306700
2016-01-28,16.260000,16.645000,15.600000,15.690000,15.690000,4196600
2016-01-29,15.790000,16.680000,15.710000,16.600000,16.600000,4443400
2016-02-01,16.500000,17.049999,16.020000,16.709999,16.709999,4275800
2016-02-02,16.920000,17.040001,16.000000,16.090000,16.090000,3806700
2016-02-03,16.450001,16.573000,15.600000,16.040001,16.040001,4454500
2016-02-04,16.030001,17.250000,15.980000,16.930000,16.930000,5713000
2016-02-05,16.950001,16.965000,15.680000,15.730000,15.730000,6141400
2016-02-08,15.420000,15.420000,14.160000,14.380000,14.380000,5787600
2016-02-09,14.030000,15.580000,13.990000,14.300000,14.300000,6984300
2016-02-10,14.820000,15.880000,14.310000,14.680000,14.680000,6349500
2016-02-11,14.000000,14.184000,12.900000,13.780000,13.780000,13818900
2016-02-12,14.180000,14.490000,13.800000,13.940000,13.940000,4665400
2016-02-16,14.390000,15.090000,13.810000,14.900000,14.900000,5082500
2016-02-17,15.200000,16.440001,14.800000,15.890000,15.890000,7753800
2016-02-18,16.150000,16.350000,15.610000,16.000000,16.000000,5240000
2016-02-19,15.800000,15.960000,15.550000,15.600000,15.600000,5837800
2016-02-22,15.950000,16.750000,15.600000,16.520000,16.520000,22222200
2016-02-23,14.030000,14.300000,12.970000,13.080000,13.080000,40612200
2016-02-24,12.740000,12.740000,11.910000,12.330000,12.330000,16943600
2016-02-25,12.170000,12.770000,12.050000,12.260000,12.260000,13067400
2016-02-26,12.410000,12.550000,12.140000,12.150000,12.150000,7201700
2016-02-29,12.380000,12.380000,12.000000,12.230000,12.230000,9949100
2016-03-01,12.350000,12.480000,12.100000,12.410000,12.410000,9012700
2016-03-02,12.470000,13.050000,12.360000,12.870000,12.870000,10259300
2016-03-03,12.820000,12.850000,12.260000,12.470000,12.470000,11315000
2016-03-04,12.530000,13.180000,12.470000,12.860000,12.860000,11833800
2016-03-07,12.860000,13.300000,12.770000,13.030000,13.030000,7295800
2016-03-08,13.190000,13.850000,12.950000,13.050000,13.050000,18447200
2016-03-09,13.170000,13.270000,12.515000,13.220000,13.220000,12095300
2016-03-10,13.350000,13.790000,13.230000,13.530000,13.530000,9039600
2016-03-11,13.650000,14.610000,13.570000,14.510000,14.510000,14229700
2016-03-14,14.490000,14.800000,14.270000,14.470000,14.470000,6662600
2016-03-15,14.430000,14.450000,13.570000,13.930000,13.930000,7378800
2016-03-16,14.170000,14.490000,13.940000,14.320000,14.320000,5594300
2016-03-17,14.230000,14.790000,14.110000,14.470000,14.470000,5770500
2016-03-18,14.400000,14.618000,14.130000,14.380000,14.380000,6594300
2016-03-21,14.330000,14.900000,14.250000,14.900000,14.900000,6453100
2016-03-22,14.800000,15.910000,14.780000,15.280000,15.280000,11900100
2016-03-23,15.280000,15.580000,14.540000,14.550000,14.550000,7652600
2016-03-24,14.370000,14.630000,14.140000,14.580000,14.580000,5351200
2016-03-28,14.530000,14.549000,13.360000,13.550000,13.550000,10160700
2016-03-29,13.480000,14.120000,13.310000,14.010000,14.010000,6298700
2016-03-30,14.000000,14.000000,12.930000,13.400000,13.400000,16561400
2016-03-31,14.060000,15.230000,13.820000,15.150000,15.150000,21246800
2016-04-01,14.900000,15.720000,14.710000,14.920000,14.920000,14749400
2016-04-04,15.000000,15.750000,14.750000,15.510000,15.510000,10429000
2016-04-05,15.300000,15.570000,15.030000,15.100000,15.100000,6583800
2016-04-06,15.260000,15.680000,15.200000,15.480000,15.480000,5292800
2016-04-07,15.360000,15.720000,14.810000,14.860000,14.860000,6914700
2016-04-08,15.110000,15.220000,14.400000,14.500000,14.500000,7373800
2016-04-11,14.850000,15.520000,14.770000,14.840000,14.840000,8962500
2016-04-12,14.930000,15.360000,14.890000,15.150000,15.150000,4982100
2016-04-13,15.900000,17.188000,15.750000,17.010000,17.010000,22044900
2016-04-14,16.969999,17.090000,16.270000,16.330000,16.330000,11613000
2016-04-15,16.370001,17.450001,16.370001,17.200001,17.200001,12381500
2016-04-18,17.000000,17.500000,16.969999,17.040001,17.040001,9337100
2016-04-19,17.230000,17.500000,16.809999,17.340000,17.340000,7646000
2016-04-20,17.420000,18.190001,17.340000,17.690001,17.690001,10621800
2016-04-21,17.990000,18.280001,17.111000,17.459999,17.459999,7683100
2016-04-22,17.350000,17.650000,17.209999,17.580000,17.580000,4610300
2016-04-25,17.510000,17.780001,16.950001,17.410000,17.410000,10539600
2016-04-26,17.410000,17.500000,17.160000,17.389999,17.389999,4459100
2016-04-27,17.250000,17.950001,17.129999,17.879999,17.879999,8231800
2016-04-28,18.500000,18.850000,17.920000,18.100000,18.100000,8983600
2016-04-29,18.190001,18.280001,17.750000,18.250000,18.250000,7937900
2016-05-02,18.389999,18.389999,17.719999,18.370001,18.370001,6859100
2016-05-03,17.945000,18.000000,16.950001,17.180000,17.180000,16133800
2016-05-04,17.020000,17.480000,16.440001,17.100000,17.100000,16100500
2016-05-05,14.860000,15.200000,13.870000,13.880000,13.880000,31925900
2016-05-06,13.830000,13.950000,12.960000,13.620000,13.620000,18637900
2016-05-09,13.770000,14.120000,13.600000,13.900000,13.900000,8581900
2016-05-10,13.930000,14.020000,13.440000,14.020000,14.020000,8518000
2016-05-11,13.880000,14.390000,13.700000,13.920000,13.920000,7247900
2016-05-12,14.020000,14.090000,13.340000,13.520000,13.520000,6337200
2016-05-13,13.530000,13.970000,13.450000,13.770000,13.770000,5299200
2016-05-16,13.550000,14.090000,13.550000,14.050000,14.050000,4844600
2016-05-17,14.050000,14.390000,13.980000,14.170000,14.170000,5062700
2016-05-18,14.250000,14.430000,14.040000,14.130000,14.130000,4660300
2016-05-19,13.740000,14.090000,13.510000,13.990000,13.990000,7964600
2016-05-20,14.000000,14.600000,14.000000,14.600000,14.600000,6643900
2016-05-23,14.520000,14.730000,14.423000,14.570000,14.570000,5684400
2016-05-24,14.620000,14.660000,13.806000,13.900000,13.900000,10732500
2016-05-25,14.140000,14.150000,13.600000,14.060000,14.060000,8943200
2016-05-26,14.310000,14.574000,14.120000,14.160000,14.160000,6048200
2016-05-27,14.200000,14.420000,14.100000,14.320000,14.320000,4566500
2016-05-31,14.300000,14.350000,14.030000,14.180000,14.180000,6241900
2016-06-01,14.000000,14.510000,13.910000,14.510000,14.510000,4544200
2016-06-02,14.300000,14.790000,14.260000,14.760000,14.760000,4775900
2016-06-03,14.560000,14.750000,14.440000,14.630000,14.630000,3723000
2016-06-06,14.480000,14.600000,14.170000,14.360000,14.360000,8938200
2016-06-07,14.300000,14.440000,14.210000,14.310000,14.310000,4925700
2016-06-08,14.260000,14.500000,14.080000,14.100000,14.100000,5352500
2016-06-09,14.340000,14.670000,14.180000,14.550000,14.550000,8276800
2016-06-10,14.410000,14.420000,14.000000,14.100000,14.100000,7253700
2016-06-13,14.060000,14.320000,13.790000,13.820000,13.820000,4968600
2016-06-14,13.700000,13.830000,12.970000,13.010000,13.010000,12948400
2016-06-15,13.100000,13.570000,13.080000,13.240000,13.240000,8196300
2016-06-16,13.140000,13.210000,12.360000,12.710000,12.710000,11439000
2016-06-17,12.730000,13.000000,12.660000,12.830000,12.830000,10055500
2016-06-20,13.070000,13.560000,13.050000,13.180000,13.180000,6962900
2016-06-21,13.250000,13.580000,13.240000,13.500000,13.500000,6500600
2016-06-22,13.400000,13.410000,12.720000,12.790000,12.790000,11663200
2016-06-23,12.950000,13.390000,12.810000,13.290000,13.290000,10273700
2016-06-24,12.500000,13.035000,12.500000,12.710000,12.710000,13667500
2016-06-27,12.600000,12.650000,11.850000,11.890000,11.890000,10049900
2016-06-28,12.250000,12.430000,11.800000,12.000000,12.000000,10139800
2016-06-29,12.200000,12.235000,11.650000,12.130000,12.130000,8059500
2016-06-30,12.010000,12.270000,11.700000,12.220000,12.220000,7851100
2016-07-01,12.150000,12.600000,12.130000,12.480000,12.480000,6720000
2016-07-05,12.370000,12.400000,12.050000,12.310000,12.310000,6515300
2016-07-06,12.200000,12.540000,12.060000,12.510000,12.510000,7739100
2016-07-07,12.630000,13.300000,12.600000,13.070000,13.070000,9390800
2016-07-08,13.300000,13.690000,13.180000,13.430000,13.430000,9538700
2016-07-11,13.570000,13.830000,13.550000,13.680000,13.680000,5186100
2016-07-12,13.390000,13.750000,13.200000,13.510000,13.510000,7741200
2016-07-13,13.510000,13.800000,13.420000,13.560000,13.560000,4866900
2016-07-14,13.750000,13.910000,13.620000,13.770000,13.770000,5328100
2016-07-15,13.760000,13.770000,13.100000,13.150000,13.150000,7323100
2016-07-18,13.200000,13.580000,13.110000,13.380000,13.380000,6419300
2016-07-19,13.320000,13.465000,12.850000,12.860000,12.860000,6803100
2016-07-20,13.000000,13.070000,12.630000,12.980000,12.980000,10749300
2016-07-21,12.920000,13.040000,12.790000,12.800000,12.800000,5036000
2016-07-22,12.800000,12.930000,12.660000,12.820000,12.820000,5817100
2016-07-25,12.790000,13.050000,12.755000,13.020000,13.020000,4239200
2016-07-26,12.980000,13.390000,12.950000,13.230000,13.230000,6053900
2016-07-27,13.450000,13.500000,13.230000,13.320000,13.320000,4968800
2016-07-28,13.430000,13.630000,13.210000,13.580000,13.580000,7603800
2016-07-29,13.600000,13.720000,13.430000,13.660000,13.660000,5349700
2016-08-01,13.700000,13.870000,13.480000,13.690000,13.690000,8479400
2016-08-02,13.780000,13.975000,13.030000,13.160000,13.160000,20077500
2016-08-03,14.110000,15.220000,13.920000,14.930000,14.930000,37562400
2016-08-04,15.210000,15.730000,15.130000,15.430000,15.430000,19325700
2016-08-05,15.470000,15.590000,15.023000,15.400000,15.400000,11092200
2016-08-08,15.400000,16.040001,15.250000,15.690000,15.690000,10758400
2016-08-09,15.770000,15.960000,15.590000,15.650000,15.650000,6998700
2016-08-10,15.500000,15.540000,14.860000,15.040000,15.040000,10312600
2016-08-11,15.040000,15.180000,14.890000,14.900000,14.900000,4817000
2016-08-12,14.870000,15.100000,14.850000,14.970000,14.970000,3810600
2016-08-15,14.990000,15.880000,14.980000,15.650000,15.650000,11029400
2016-08-16,15.650000,16.000000,15.255000,15.410000,15.410000,7583500
2016-08-17,15.310000,15.340000,14.700000,14.780000,14.780000,9095800
2016-08-18,14.770000,14.940000,14.520000,14.570000,14.570000,5276000
2016-08-19,14.500000,14.740000,14.360000,14.530000,14.530000,4516000
2016-08-22,14.410000,14.750000,14.400000,14.440000,14.440000,4653200
2016-08-23,14.820000,15.130000,14.800000,14.880000,14.880000,7813000
2016-08-24,15.300000,15.310000,14.720000,14.810000,14.810000,9103000
2016-08-25,14.700000,15.020000,14.700000,14.790000,14.790000,4525200
2016-08-26,14.730000,14.940000,14.470000,14.670000,14.670000,6227300
2016-08-29,14.720000,15.060000,14.480000,14.940000,14.940000,8727400
2016-08-30,15.130000,15.540000,15.030000,15.370000,15.370000,10353400
2016-08-31,15.550000,15.800000,15.350000,15.480000,15.480000,9591900
2016-09-01,15.480000,15.510000,14.680000,14.950000,14.950000,13782700
2016-09-02,15.020000,15.150000,14.820000,14.960000,14.960000,5810400
2016-09-06,15.040000,15.350000,14.923000,15.110000,15.110000,7806900
2016-09-07,15.000000,15.380000,14.690000,14.800000,14.800000,11748200
2016-09-08,14.660000,14.840000,14.460000,14.720000,14.720000,7910400
2016-09-09,14.630000,14.820000,14.422000,14.570000,14.570000,8148400
2016-09-12,14.400000,15.140000,14.352000,14.850000,14.850000,7854900
2016-09-13,14.800000,15.000000,14.600000,14.700000,14.700000,6938700
2016-09-14,14.700000,14.921000,14.650000,14.760000,14.760000,5353100
2016-09-15,14.840000,16.045000,14.840000,16.030001,16.030001,15509100
2016-09-16,15.900000,16.100000,15.730000,15.950000,15.950000,11588900
2016-09-19,16.090000,16.760000,16.090000,16.309999,16.309999,11916800
2016-09-20,16.260000,16.299999,15.800000,15.940000,15.940000,6067000
2016-09-21,16.049999,16.370001,15.850000,16.270000,16.270000,5861700
2016-09-22,16.500000,16.850000,16.410000,16.760000,16.760000,7689400
2016-09-23,16.740000,17.180000,16.730000,16.980000,16.980000,8349800
2016-09-26,16.830000,16.969999,16.320000,16.480000,16.480000,6751700
2016-09-27,16.530001,16.820000,16.209999,16.530001,16.530001,5803500
2016-09-28,16.580000,16.785000,16.420000,16.700001,16.700001,4132100
2016-09-29,15.790000,15.810000,14.781000,14.820000,14.820000,24561900
2016-09-30,15.100000,15.190000,14.800000,14.840000,14.840000,8003400
2016-10-03,14.880000,15.030000,14.600000,14.780000,14.780000,6367700
2016-10-04,14.800000,15.080000,14.700000,14.720000,14.720000,5772200
2016-10-05,14.770000,15.050000,14.708000,14.770000,14.770000,6476200
2016-10-06,14.900000,14.940000,14.460000,14.610000,14.610000,6691300
2016-10-07,14.480000,14.610000,14.000000,14.040000,14.040000,10246100
2016-10-10,14.140000,14.190000,13.760000,13.900000,13.900000,8871500
2016-10-11,13.930000,14.000000,13.335000,13.490000,13.490000,10831000
2016-10-12,13.470000,13.620000,13.220000,13.420000,13.420000,6280100
2016-10-13,13.260000,13.480000,13.140000,13.340000,13.340000,5895300
2016-10-14,13.380000,13.530000,13.035000,13.100000,13.100000,8493100
2016-10-17,13.280000,13.310000,12.980000,13.100000,13.100000,4736000
2016-10-18,13.200000,13.580000,13.130000,13.540000,13.540000,5368500
2016-10-19,13.540000,14.160000,13.460000,14.060000,14.060000,7625400
2016-10-20,13.990000,14.270000,13.920000,14.150000,14.150000,5872300
2016-10-21,14.090000,14.260000,13.951000,14.200000,14.200000,4714700
2016-10-24,14.200000,14.240000,13.840000,13.850000,13.850000,4636000
2016-10-25,13.840000,13.850000,13.630000,13.780000,13.780000,4185500
2016-10-26,13.700000,14.190000,13.700000,14.100000,14.100000,5969700
2016-10-27,14.260000,14.260000,13.740000,13.780000,13.780000,4791000
2016-10-28,13.730000,14.010000,13.470000,13.490000,13.490000,7291800
2016-10-31,13.490000,13.520000,13.070000,13.260000,13.260000,6833800
2016-11-01,13.220000,13.320000,12.920000,13.060000,13.060000,7595400
2016-11-02,13.050000,13.390000,12.670000,12.810000,12.810000,17609400
2016-11-03,12.810000,12.810000,8.370000,8.510000,8.510000,72925800
2016-11-04,8.510000,9.000000,8.390000,8.710000,8.710000,19301100
2016-11-07,8.900000,8.930000,8.530000,8.690000,8.690000,11304000
2016-11-08,8.560000,8.780000,8.470000,8.700000,8.700000,9235400
2016-11-09,8.430000,8.650000,8.325000,8.550000,8.550000,14223400
2016-11-10,8.550000,9.275000,8.400000,8.860000,8.860000,25190700
2016-11-11,8.970000,9.310000,8.680000,9.220000,9.220000,10533700
2016-11-14,9.480000,9.630000,9.330000,9.420000,9.420000,7976400
2016-11-15,9.590000,9.610000,9.430000,9.560000,9.560000,5759200
2016-11-16,9.730000,9.750000,9.400000,9.460000,9.460000,8099200
2016-11-17,9.420000,9.420000,8.730000,8.820000,8.820000,15437100
2016-11-18,8.750000,8.830000,8.620000,8.750000,8.750000,8202000
2016-11-21,8.760000,9.050000,8.660000,8.690000,8.690000,11145500
2016-11-22,8.750000,8.780000,8.371000,8.580000,8.580000,14070500
2016-11-23,8.650000,8.720000,8.420000,8.680000,8.680000,8623600
2016-11-25,8.690000,8.730000,8.480000,8.510000,8.510000,4275600
2016-11-28,8.500000,8.540000,8.365000,8.400000,8.400000,6674400
2016-11-29,8.450000,8.490000,8.200000,8.280000,8.280000,8462700
2016-11-30,8.310000,8.430000,8.265000,8.360000,8.360000,7484400
2016-12-01,8.400000,8.590000,8.350000,8.420000,8.420000,8985500
2016-12-02,8.400000,8.450000,8.120000,8.140000,8.140000,8951900
2016-12-05,8.180000,8.300000,7.980000,8.030000,8.030000,12727900
2016-12-06,7.970000,8.000000,7.810000,7.980000,7.980000,11449800
2016-12-07,8.210000,8.240000,7.960000,7.970000,7.970000,8468900
2016-12-08,7.840000,7.990000,7.760000,7.920000,7.920000,10890200
2016-12-09,7.950000,7.990000,7.700000,7.820000,7.820000,10916800
2016-12-12,7.800000,7.890000,7.600000,7.730000,7.730000,9778200
2016-12-13,7.790000,7.875000,7.620000,7.650000,7.650000,7853400
2016-12-14,7.660000,7.670000,7.480000,7.500000,7.500000,8882500
2016-12-15,7.500000,7.686000,7.440000,7.590000,7.590000,8733500
2016-12-16,7.600000,7.690000,7.420000,7.480000,7.480000,13787000
2016-12-19,7.500000,7.550000,7.420000,7.490000,7.490000,9056300
2016-12-20,7.500000,7.570000,7.420000,7.440000,7.440000,7213400
2016-12-21,7.420000,7.490000,7.300000,7.360000,7.360000,11697400
2016-12-22,7.310000,7.420000,7.310000,7.350000,7.350000,8888900
2016-12-23,7.250000,7.360000,7.200000,7.290000,7.290000,7710300
2016-12-27,7.350000,7.970000,7.290000,7.830000,7.830000,16056200
2016-12-28,8.020000,8.080000,7.350000,7.430000,7.430000,18734400
2016-12-29,7.410000,7.490000,7.315000,7.400000,7.400000,11099300
2016-12-30,7.410000,7.490000,7.280000,7.320000,7.320000,11253400
2017-01-03,7.440000,8.060000,7.400000,7.940000,7.940000,18495400
2017-01-04,7.950000,8.400000,7.950000,8.120000,8.120000,21870200
2017-01-05,8.200000,8.230000,7.840000,7.860000,7.860000,20728800
2017-01-06,7.890000,8.030000,7.710000,7.900000,7.900000,12272700
2017-01-09,7.970000,8.040000,7.760000,7.790000,7.790000,8703700
2017-01-10,7.740000,7.740000,7.300000,7.330000,7.330000,21914100
2017-01-11,7.380000,7.470000,7.310000,7.460000,7.460000,11136100
2017-01-12,7.470000,7.490000,7.310000,7.460000,7.460000,11400300
2017-01-13,7.460000,7.620000,7.440000,7.440000,7.440000,8424000
2017-01-17,7.420000,7.590000,7.330000,7.370000,7.370000,11496300
2017-01-18,7.360000,7.370000,7.120000,7.240000,7.240000,11661700
2017-01-19,7.200000,7.260000,7.010000,7.050000,7.050000,10727000
2017-01-20,7.070000,7.140000,6.970000,7.130000,7.130000,9999800
2017-01-23,7.140000,7.200000,7.020000,7.100000,7.100000,6871100
2017-01-24,7.070000,7.290000,7.070000,7.240000,7.240000,11393700
2017-01-25,7.260000,7.330000,7.130000,7.300000,7.300000,9253800
2017-01-26,7.310000,7.470000,7.300000,7.410000,7.410000,8462400
2017-01-27,7.390000,7.390000,7.150000,7.210000,7.210000,6570400
2017-01-30,7.210000,7.210000,5.900000,6.060000,6.060000,48169500
2017-01-31,5.970000,6.040000,5.910000,6.010000,6.010000,12600400
2017-02-01,5.980000,6.010000,5.810000,5.940000,5.940000,11336800
2017-02-02,6.000000,6.190000,5.910000,6.130000,6.130000,13138400
2017-02-03,6.110000,6.150000,6.000000,6.090000,6.090000,7914600
2017-02-06,6.060000,6.090000,5.940000,5.950000,5.950000,10232700
2017-02-07,5.960000,6.000000,5.750000,5.780000,5.780000,8383300
2017-02-08,5.790000,5.830000,5.690000,5.810000,5.810000,7993600
2017-02-09,5.810000,5.810000,5.620000,5.770000,5.770000,8634500
2017-02-10,5.750000,5.950000,5.750000,5.860000,5.860000,5640200
2017-02-13,5.910000,5.910000,5.720000,5.730000,5.730000,7011300
2017-02-14,5.750000,5.940000,5.750000,5.860000,5.860000,6423100
2017-02-15,5.900000,5.955000,5.860000,5.930000,5.930000,6606400
2017-02-16,5.950000,6.130000,5.900000,6.060000,6.060000,12384300
2017-02-17,6.080000,6.090000,5.910000,5.960000,5.960000,6654400
2017-02-21,6.000000,6.090000,5.979000,6.040000,6.040000,6894500
2017-02-22,6.110000,6.140000,5.800000,5.880000,5.880000,12318800
2017-02-23,5.920000,6.090000,5.720000,6.070000,6.070000,14400600
2017-02-24,5.970000,6.170000,5.750000,6.150000,6.150000,16425900
2017-02-27,6.150000,6.480000,6.050000,6.380000,6.380000,12318900
2017-02-28,6.320000,6.390000,6.200000,6.210000,6.210000,8058600
2017-03-01,6.250000,6.400000,6.200000,6.250000,6.250000,7811200
2017-03-02,6.160000,6.280000,6.041000,6.140000,6.140000,11631200
2017-03-03,6.160000,6.240000,6.070000,6.070000,6.070000,6471800
2017-03-06,6.070000,6.200000,5.910000,6.000000,6.000000,8494000
2017-03-07,6.070000,6.135000,5.840000,5.890000,5.890000,7559400
2017-03-08,5.910000,6.000000,5.840000,5.860000,5.860000,6008600
2017-03-09,5.900000,5.920000,5.760000,5.850000,5.850000,7103400
2017-03-10,5.890000,5.950000,5.820000,5.860000,5.860000,6784700
2017-03-13,5.780000,5.800000,5.550000,5.640000,5.640000,15606100
2017-03-14,5.600000,5.610000,5.450000,5.540000,5.540000,8916900
2017-03-15,5.530000,5.755000,5.460000,5.700000,5.700000,8805200
2017-03-16,5.750000,6.180000,5.730000,6.100000,6.100000,14368300
2017-03-17,6.100000,6.100000,5.660000,5.680000,5.680000,19987900
2017-03-20,5.780000,5.840000,5.650000,5.740000,5.740000,9186000
2017-03-21,5.750000,5.900000,5.560000,5.600000,5.600000,16525700
2017-03-22,5.670000,5.670000,5.380000,5.470000,5.470000,10988700
2017-03-23,5.430000,5.530000,5.380000,5.390000,5.390000,7079600
2017-03-24,5.410000,5.470000,5.330000,5.400000,5.400000,3911500
2017-03-27,5.330000,5.740000,5.310000,5.690000,5.690000,9502400
2017-03-28,5.660000,5.790000,5.640000,5.750000,5.750000,5110000
2017-03-29,5.750000,5.960000,5.750000,5.870000,5.870000,5921200
2017-03-30,5.860000,5.930000,5.820000,5.840000,5.840000,4184200
2017-03-31,5.850000,5.980000,5.850000,5.920000,5.920000,5268500
2017-04-03,5.930000,5.940000,5.730000,5.820000,5.820000,8461200
2017-04-04,5.790000,5.820000,5.600000,5.660000,5.660000,5605300
2017-04-05,5.720000,5.845000,5.660000,5.710000,5.710000,8175600
2017-04-06,5.670000,5.750000,5.570000,5.660000,5.660000,6270600
2017-04-07,5.630000,5.695000,5.500000,5.510000,5.510000,7475300
2017-04-10,5.530000,5.790000,5.490000,5.770000,5.770000,7029800
2017-04-11,5.730000,5.790000,5.560000,5.580000,5.580000,7599200
2017-04-12,5.560000,5.650000,5.420000,5.480000,5.480000,6217500
2017-04-13,5.450000,5.460000,5.320000,5.370000,5.370000,7362600
2017-04-17,5.370000,5.500000,5.370000,5.480000,5.480000,4139800
2017-04-18,5.460000,5.600000,5.410000,5.570000,5.570000,4903100
2017-04-19,5.640000,5.770000,5.630000,5.700000,5.700000,6977900
2017-04-20,5.720000,5.750000,5.660000,5.720000,5.720000,3342700
2017-04-21,5.720000,5.740000,5.610000,5.610000,5.610000,2875600
2017-04-24,5.590000,5.730000,5.570000,5.660000,5.660000,4891900
2017-04-25,5.780000,5.810000,5.710000,5.790000,5.790000,4862600
2017-04-26,5.800000,5.990000,5.770000,5.900000,5.900000,6240200
2017-04-27,5.930000,5.960000,5.780000,5.930000,5.930000,4350700
2017-04-28,5.850000,5.920000,5.710000,5.720000,5.720000,5134400
2017-05-01,5.720000,5.770000,5.640000,5.690000,5.690000,5127900
2017-05-02,5.710000,5.840000,5.700000,5.810000,5.810000,4250300
2017-05-03,5.810000,5.860000,5.580000,5.680000,5.680000,10752200
2017-05-04,6.110000,6.800000,6.070000,6.370000,6.370000,35057900
2017-05-05,6.240000,6.250000,6.010000,6.150000,6.150000,20674500
2017-05-08,6.150000,6.550000,6.140000,6.340000,6.340000,10198200
2017-05-09,6.330000,6.350000,6.110000,6.240000,6.240000,11158600
2017-05-10,6.230000,6.250000,6.050000,6.130000,6.130000,8504200
2017-05-11,6.100000,6.110000,5.960000,5.980000,5.980000,6177300
2017-05-12,5.980000,6.000000,5.750000,5.750000,5.750000,7159900
2017-05-15,5.770000,5.950000,5.770000,5.900000,5.900000,5255400
2017-05-16,5.770000,5.870000,5.730000,5.740000,5.740000,7319000
2017-05-17,5.680000,5.719000,5.500000,5.560000,5.560000,7322400
2017-05-18,5.520000,5.610000,5.380000,5.410000,5.410000,8791800
2017-05-19,5.440000,5.550000,5.410000,5.500000,5.500000,7156400
2017-05-22,5.500000,5.690000,5.460000,5.610000,5.610000,4300600
2017-05-23,5.640000,5.680000,5.560000,5.560000,5.560000,4168700
2017-05-24,5.580000,5.635000,5.450000,5.490000,5.490000,5894000
2017-05-25,5.520000,5.545000,5.380000,5.390000,5.390000,4969000
2017-05-26,5.460000,5.490000,5.280000,5.310000,5.310000,6423500
2017-05-30,5.280000,5.430000,5.245000,5.320000,5.320000,5996600
2017-05-31,5.330000,5.350000,5.035000,5.230000,5.230000,9616300
2017-06-01,5.260000,5.700000,5.220000,5.570000,5.570000,11903500
2017-06-02,5.550000,5.550000,5.420000,5.510000,5.510000,5760000
2017-06-05,5.470000,5.510000,5.370000,5.420000,5.420000,4553400
2017-06-06,5.270000,5.440000,5.270000,5.340000,5.340000,4449100
2017-06-07,5.400000,5.490000,5.235000,5.260000,5.260000,6378400
2017-06-08,5.290000,5.410000,5.230000,5.320000,5.320000,4638600
2017-06-09,5.330000,5.350000,5.120000,5.150000,5.150000,7796800
2017-06-12,5.150000,5.310000,5.140000,5.240000,5.240000,5547900
2017-06-13,5.250000,5.290000,5.169000,5.220000,5.220000,3745900
2017-06-14,5.220000,5.260000,5.120000,5.140000,5.140000,4436800
2017-06-15,5.120000,5.170000,5.080000,5.110000,5.110000,3632400
2017-06-16,5.090000,5.120000,4.990000,5.060000,5.060000,7144500
2017-06-19,5.100000,5.160000,5.000000,5.150000,5.150000,4519000
2017-06-20,5.110000,5.200000,5.000000,5.020000,5.020000,5093500
2017-06-21,5.010000,5.090000,4.970000,4.990000,4.990000,5686400
2017-06-22,4.980000,5.150000,4.900000,5.090000,5.090000,6166400
2017-06-23,5.160000,5.170000,5.020000,5.160000,5.160000,20386500
2017-06-26,5.190000,5.500000,5.130000,5.440000,5.440000,10918200
2017-06-27,5.460000,5.580000,5.290000,5.310000,5.310000,7333300
2017-06-28,5.330000,5.470000,5.270000,5.300000,5.300000,4840400
2017-06-29,5.320000,5.460000,5.260000,5.400000,5.400000,4957000
2017-06-30,5.400000,5.400000,5.230000,5.310000,5.310000,5127000
2017-07-03,5.320000,5.380000,5.250000,5.320000,5.320000,2561100
2017-07-05,5.310000,5.360000,5.210000,5.320000,5.320000,4726800
2017-07-06,5.310000,5.370000,5.200000,5.220000,5.220000,5461200
2017-07-07,5.230000,5.340000,5.180000,5.240000,5.240000,3904200
2017-07-10,5.260000,5.300000,5.150000,5.230000,5.230000,4609000
2017-07-11,5.170000,5.240000,5.120000,5.240000,5.240000,4664000
2017-07-12,5.240000,5.430000,5.222000,5.360000,5.360000,6701200
2017-07-13,5.320000,5.785000,5.300000,5.690000,5.690000,10636100
2017-07-14,5.670000,5.770000,5.550000,5.770000,5.770000,4712900
2017-07-17,5.760000,5.940000,5.670000,5.720000,5.720000,5088500
2017-07-18,5.710000,5.770000,5.510000,5.670000,5.670000,7603400
2017-07-19,5.670000,5.780000,5.620000,5.770000,5.770000,3039300
2017-07-20,5.750000,5.840000,5.713000,5.760000,5.760000,3272500
2017-07-21,5.780000,5.810000,5.590000,5.610000,5.610000,3641500
2017-07-24,5.620000,5.670000,5.520000,5.630000,5.630000,3409400
2017-07-25,5.600000,5.790000,5.590000,5.770000,5.770000,4092400
2017-07-26,5.710000,5.755000,5.390000,5.400000,5.400000,7822300
2017-07-27,5.420000,5.420000,5.170000,5.270000,5.270000,8687100
2017-07-28,5.230000,5.320000,5.210000,5.220000,5.220000,3845800
2017-07-31,5.240000,5.260000,5.100000,5.160000,5.160000,4103800
2017-08-01,5.160000,5.210000,5.020000,5.080000,5.080000,6013000
2017-08-02,5.100000,5.140000,5.000000,5.070000,5.070000,11130000
2017-08-03,5.400000,5.900000,5.300000,5.840000,5.840000,24466700
2017-08-04,5.820000,5.890000,5.610000,5.630000,5.630000,11167300
2017-08-07,5.610000,5.810000,5.570000,5.730000,5.730000,5767500
2017-08-08,5.670000,6.090000,5.670000,5.890000,5.890000,11080700
2017-08-09,5.840000,6.050000,5.780000,5.930000,5.930000,5807600
2017-08-10,5.870000,6.010000,5.600000,5.640000,5.640000,7642800
2017-08-11,5.620000,5.690000,5.480000,5.570000,5.570000,5625700
2017-08-14,5.630000,5.800000,5.580000,5.690000,5.690000,5619800
2017-08-15,5.690000,5.810000,5.510000,5.520000,5.520000,5245700
2017-08-16,5.520000,5.580000,5.400000,5.480000,5.480000,5038700
2017-08-17,5.430000,5.505000,5.230000,5.260000,5.260000,6878800
2017-08-18,5.220000,5.310000,5.190000,5.230000,5.230000,4346700
2017-08-21,5.250000,5.310000,5.040000,5.060000,5.060000,7607500
2017-08-22,5.200000,5.365000,5.170000,5.320000,5.320000,6589500
2017-08-23,5.280000,5.510000,5.200000,5.490000,5.490000,4528400
2017-08-24,5.480000,5.770000,5.480000,5.660000,5.660000,6029700
2017-08-25,5.700000,5.830000,5.600000,5.730000,5.730000,5340500
2017-08-28,5.750000,6.170000,5.740000,5.940000,5.940000,13491700
2017-08-29,5.950000,6.070000,5.920000,5.930000,5.930000,9041900
2017-08-30,5.950000,6.040000,5.810000,5.970000,5.970000,5297100
2017-08-31,6.030000,6.100000,5.980000,6.030000,6.030000,4597500
2017-09-01,6.040000,6.080000,5.860000,5.890000,5.890000,4697600
2017-09-05,5.800000,5.880000,5.690000,5.870000,5.870000,4549100
2017-09-06,5.910000,6.020000,5.840000,5.910000,5.910000,3758100
2017-09-07,6.160000,6.780000,6.140000,6.490000,6.490000,20996000
2017-09-08,6.640000,6.770000,6.270000,6.290000,6.290000,10496800
2017-09-11,6.360000,6.420000,6.200000,6.260000,6.260000,6225700
2017-09-12,6.200000,6.470000,6.090000,6.260000,6.260000,9442100
2017-09-13,6.220000,6.750000,6.220000,6.650000,6.650000,10587700
2017-09-14,6.750000,6.900000,6.570000,6.880000,6.880000,10519900
2017-09-15,6.870000,6.870000,6.500000,6.590000,6.590000,10684600
2017-09-18,6.610000,6.680000,6.505000,6.560000,6.560000,4622000
2017-09-19,6.510000,6.560000,6.210000,6.240000,6.240000,7987200
2017-09-20,6.230000,6.350000,6.200000,6.270000,6.270000,5804300
2017-09-21,6.290000,6.430000,6.231000,6.290000,6.290000,4919500
2017-09-22,6.260000,6.410000,6.230000,6.310000,6.310000,3451000
2017-09-25,6.340000,6.570000,6.340000,6.440000,6.440000,5322600
2017-09-26,6.440000,6.590000,6.434000,6.570000,6.570000,6169900
2017-09-27,6.650000,7.090000,6.640000,6.980000,6.980000,10356200
2017-09-28,7.050000,7.060000,6.800000,6.910000,6.910000,6445400
2017-09-29,6.930000,6.980000,6.800000,6.960000,6.960000,6067000
2017-10-02,6.940000,6.950000,6.800000,6.900000,6.900000,4640000
2017-10-03,6.710000,6.855000,6.560000,6.660000,6.660000,9016400
2017-10-04,6.670000,6.718000,6.500000,6.520000,6.520000,4889700
2017-10-05,6.530000,6.600000,6.400000,6.460000,6.460000,5362700
2017-10-06,6.460000,6.570000,6.420000,6.510000,6.510000,3247900
2017-10-09,6.520000,6.700000,6.509000,6.590000,6.590000,4793500
2017-10-10,6.600000,6.640000,6.500000,6.610000,6.610000,3393100
2017-10-11,6.610000,6.630000,6.530000,6.560000,6.560000,2500500
2017-10-12,6.560000,6.795000,6.550000,6.690000,6.690000,5786500
2017-10-13,6.740000,6.760000,6.610000,6.620000,6.620000,3121900
2017-10-16,6.650000,6.740000,6.510000,6.520000,6.520000,4408200
2017-10-17,6.540000,6.630000,6.350000,6.420000,6.420000,5191500
2017-10-18,6.450000,6.525000,6.320000,6.350000,6.350000,5290300
2017-10-19,6.290000,6.350000,6.090000,6.110000,6.110000,6682600
2017-10-20,6.220000,6.310000,6.120000,6.120000,6.120000,6009400
2017-10-23,6.150000,6.170000,6.040000,6.070000,6.070000,3742500
2017-10-24,6.110000,6.220000,6.030000,6.060000,6.060000,4746100
2017-10-25,6.100000,6.130000,5.880000,6.110000,6.110000,5343400
2017-10-26,6.100000,6.120000,5.960000,6.030000,6.030000,3463400
2017-10-27,6.030000,6.160000,6.020000,6.060000,6.060000,4573000
2017-10-30,6.040000,6.210000,6.030000,6.100000,6.100000,3669700
2017-10-31,6.110000,6.240000,6.110000,6.140000,6.140000,5549200
2017-11-01,6.250000,6.380000,6.200000,6.250000,6.250000,10553100
2017-11-02,6.080000,6.080000,5.610000,5.970000,5.970000,11551200
2017-11-03,5.970000,6.070000,5.950000,6.020000,6.020000,4369500
2017-11-06,6.000000,6.090000,5.970000,6.060000,6.060000,4562400
2017-11-07,6.110000,6.150000,6.000000,6.070000,6.070000,4715900
2017-11-08,6.030000,6.050000,5.860000,5.880000,5.880000,4937100
2017-11-09,5.870000,5.930000,5.790000,5.810000,5.810000,5875300
2017-11-10,5.810000,5.980000,5.800000,5.930000,5.930000,4000700
2017-11-13,5.900000,6.000000,5.820000,5.980000,5.980000,3187600
2017-11-14,5.910000,6.020000,5.840000,6.000000,6.000000,3464700
2017-11-15,5.920000,6.250000,5.920000,6.130000,6.130000,6042000
2017-11-16,6.040000,6.160000,5.995000,6.030000,6.030000,4260100
2017-11-17,6.000000,6.280000,5.990000,6.230000,6.230000,5313500
2017-11-20,6.250000,6.400000,6.225000,6.370000,6.370000,4838700
2017-11-21,6.380000,6.540000,6.370000,6.480000,6.480000,4226300
2017-11-22,6.490000,6.740000,6.450000,6.650000,6.650000,6209300
2017-11-24,6.690000,6.775000,6.650000,6.710000,6.710000,1973300
2017-11-27,6.710000,6.730000,6.550000,6.620000,6.620000,4046200
2017-11-28,6.630000,6.750000,6.570000,6.740000,6.740000,2802600
2017-11-29,6.780000,6.950000,6.630000,6.740000,6.740000,5168900
2017-11-30,6.780000,6.950000,6.740000,6.860000,6.860000,4786800
2017-12-01,6.840000,6.930000,6.710000,6.770000,6.770000,4741800
2017-12-04,6.840000,6.900000,6.630000,6.690000,6.690000,3953800
2017-12-05,6.825000,6.849000,6.660000,6.660000,6.660000,3766700
2017-12-06,6.640000,6.790000,6.550000,6.780000,6.780000,2952800
2017-12-07,6.740000,6.930000,6.730000,6.780000,6.780000,3191800
2017-12-08,6.830000,6.990000,6.770000,6.970000,6.970000,4598100
2017-12-11,7.010000,7.320000,6.930000,7.140000,7.140000,7104100
2017-12-12,7.180000,7.221000,6.930000,6.990000,6.990000,4568600
2017-12-13,7.000000,7.170000,6.960000,7.020000,7.020000,2627200
2017-12-14,7.000000,7.120000,6.810000,6.820000,6.820000,4648700
2017-12-15,6.380000,6.430000,6.060000,6.300000,6.300000,14843000
2017-12-18,6.280000,6.430000,6.250000,6.390000,6.390000,4369100
2017-12-19,6.390000,6.450000,6.100000,6.180000,6.180000,7276500
2017-12-20,6.220000,6.229000,6.080000,6.190000,6.190000,3106900
2017-12-21,6.180000,6.200000,6.050000,6.060000,6.060000,5047500
2017-12-22,6.020000,6.050000,5.920000,6.010000,6.010000,5367600
2017-12-26,6.010000,6.070000,5.920000,5.970000,5.970000,2957600
2017-12-27,5.950000,6.055000,5.870000,5.890000,5.890000,4979100
2017-12-28,5.880000,5.950000,5.830000,5.910000,5.910000,3326400
2017-12-29,5.920000,5.940000,5.700000,5.710000,5.710000,5496300
2018-01-02,5.780000,6.040000,5.740000,6.010000,6.010000,6280600
2018-01-03,6.000000,6.220000,5.960000,6.130000,6.130000,5007300
2018-01-04,6.160000,6.190000,5.930000,5.980000,5.980000,5327900
2018-01-05,6.120000,6.120000,5.850000,5.900000,5.900000,8222700
2018-01-08,5.900000,5.960000,5.585000,5.650000,5.650000,10760400
2018-01-09,5.680000,5.700000,5.500000,5.660000,5.660000,5955900
2018-01-10,5.610000,5.655000,5.540000,5.590000,5.590000,4027000
2018-01-11,5.610000,5.740000,5.550000,5.720000,5.720000,5937100
2018-01-12,5.740000,5.790000,5.600000,5.640000,5.640000,6743400
2018-01-16,5.690000,5.690000,5.480000,5.510000,5.510000,5166600
2018-01-17,5.520000,5.680000,5.480000,5.630000,5.630000,6768900
2018-01-18,5.620000,5.620000,5.510000,5.530000,5.530000,3653900
2018-01-19,5.520000,5.595000,5.470000,5.560000,5.560000,5310000
2018-01-22,5.510000,5.600000,5.370000,5.600000,5.600000,7160600
2018-01-23,5.580000,5.650000,5.490000,5.550000,5.550000,5382400
2018-01-24,5.550000,5.615000,5.450000,5.490000,5.490000,4574300
2018-01-25,5.530000,5.530000,5.360000,5.420000,5.420000,4342200
2018-01-26,5.430000,5.440000,5.230000,5.280000,5.280000,6400200
2018-01-29,5.260000,5.284000,5.150000,5.200000,5.200000,5944800
2018-01-30,5.190000,5.280000,5.080000,5.200000,5.200000,6282800
2018-01-31,5.330000,5.351000,5.110000,5.150000,5.150000,5612800
2018-02-01,5.130000,5.250000,5.080000,5.200000,5.200000,4198000
2018-02-02,5.170000,5.300000,5.090000,5.200000,5.200000,4658100
2018-02-05,5.160000,5.280000,5.030000,5.030000,5.030000,5335200
2018-02-06,5.000000,5.230000,4.930000,5.210000,5.210000,5050900
2018-02-07,5.210000,5.290000,5.179000,5.250000,5.250000,3107600
2018-02-08,5.260000,5.300000,5.085000,5.100000,5.100000,4279200
2018-02-09,5.160000,5.210000,4.900000,5.140000,5.140000,8393300
2018-02-12,5.180000,5.200000,5.030000,5.180000,5.180000,4269900
2018-02-13,5.130000,5.210000,5.060000,5.110000,5.110000,5138900
2018-02-14,5.240000,5.690000,5.150000,5.590000,5.590000,12145600
2018-02-15,5.610000,5.630000,5.370000,5.410000,5.410000,4979600
2018-02-16,5.380000,5.480000,5.350000,5.470000,5.470000,3724600
2018-02-20,5.440000,5.540000,5.410000,5.440000,5.440000,3317500
2018-02-21,5.470000,5.550000,5.400000,5.410000,5.410000,3164300
2018-02-22,5.430000,5.460000,5.190000,5.200000,5.200000,4545200
2018-02-23,5.240000,5.330000,5.220000,5.280000,5.280000,4484300
2018-02-26,5.380000,5.610000,5.350000,5.540000,5.540000,16186900
2018-02-27,4.800000,5.090000,4.670000,4.860000,4.860000,38413500
2018-02-28,4.820000,4.890000,4.750000,4.780000,4.780000,9636900
2018-03-01,4.780000,4.830000,4.680000,4.800000,4.800000,7295000
2018-03-02,4.730000,5.000000,4.710000,4.970000,4.970000,7107900
2018-03-05,4.890000,5.195000,4.890000,5.130000,5.130000,7155200
2018-03-06,5.140000,5.290000,5.130000,5.240000,5.240000,6153900
2018-03-07,5.180000,5.270000,5.120000,5.260000,5.260000,3650900
2018-03-08,5.240000,5.300000,5.030000,5.120000,5.120000,4601400
2018-03-09,5.130000,5.210000,5.070000,5.190000,5.190000,3891000
2018-03-12,5.230000,5.350000,5.200000,5.310000,5.310000,4881600
2018-03-13,5.340000,5.460000,5.320000,5.390000,5.390000,6593400
2018-03-14,5.410000,5.450000,5.300000,5.310000,5.310000,3279300
2018-03-15,5.330000,5.330000,5.155000,5.250000,5.250000,2992300
2018-03-16,5.250000,5.290000,5.170000,5.260000,5.260000,2890000
2018-03-19,5.410000,5.430000,5.260000,5.370000,5.370000,4329700
2018-03-20,5.380000,5.410000,5.260000,5.280000,5.280000,3225200
2018-03-21,5.320000,5.370000,5.210000,5.270000,5.270000,3165600
2018-03-22,5.180000,5.240000,5.080000,5.110000,5.110000,3205600
2018-03-23,5.120000,5.190000,4.910000,4.940000,4.940000,4957900
2018-03-26,5.080000,5.100000,4.860000,4.950000,4.950000,4023500
2018-03-27,5.000000,5.060000,4.870000,4.880000,4.880000,3265800
2018-03-28,4.890000,5.000000,4.870000,4.910000,4.910000,3310400
2018-03-29,4.950000,5.180000,4.940000,5.100000,5.100000,4907300
2018-04-02,4.830000,4.850000,4.510000,4.620000,4.620000,15570700
2018-04-03,4.580000,4.660000,4.515000,4.640000,4.640000,5118300
2018-04-04,4.550000,4.810000,4.520000,4.780000,4.780000,4838000
2018-04-05,4.800000,4.920000,4.770000,4.910000,4.910000,2989400
2018-04-06,4.880000,4.990000,4.720000,4.790000,4.790000,2960500
2018-04-09,4.820000,4.860000,4.750000,4.830000,4.830000,2244000
2018-04-10,4.870000,4.995000,4.850000,4.960000,4.960000,2875500
2018-04-11,4.850000,5.180000,4.840000,5.170000,5.170000,3309400
2018-04-12,5.200000,5.340000,5.165000,5.320000,5.320000,3171800
2018-04-13,5.320000,5.440000,5.300000,5.340000,5.340000,4127900
2018-04-16,5.350000,5.430000,5.285000,5.320000,5.320000,4904900
2018-04-17,5.380000,5.430000,5.260000,5.270000,5.270000,3352300
2018-04-18,5.300000,5.340000,5.170000,5.280000,5.280000,2937800
2018-04-19,5.260000,5.320000,5.160000,5.190000,5.190000,2232800
2018-04-20,5.190000,5.210000,5.100000,5.110000,5.110000,2141700
2018-04-23,5.130000,5.170000,5.050000,5.120000,5.120000,1967100
2018-04-24,5.150000,5.260000,5.110000,5.250000,5.250000,2378000
2018-04-25,5.270000,5.330000,5.180000,5.230000,5.230000,2530600
2018-04-26,5.240000,5.370000,5.200000,5.360000,5.360000,2310300
2018-04-27,5.340000,5.359000,5.250000,5.300000,5.300000,2063700
2018-04-30,5.580000,5.820000,5.480000,5.550000,5.550000,10729800
2018-05-01,5.510000,5.530000,5.340000,5.500000,5.500000,3412900
2018-05-02,5.510000,5.750000,5.440000,5.500000,5.500000,8928400
2018-05-03,5.220000,5.270000,4.830000,4.840000,4.840000,14762500
2018-05-04,4.890000,5.015000,4.830000,4.950000,4.950000,5260400
2018-05-07,4.970000,4.990000,4.870000,4.980000,4.980000,4906200
2018-05-08,4.960000,5.120000,4.920000,5.080000,5.080000,4148800
2018-05-09,5.060000,5.370000,5.030000,5.360000,5.360000,4670200
2018-05-10,5.340000,5.440000,5.280000,5.290000,5.290000,3033900
2018-05-11,5.290000,5.340000,5.150000,5.210000,5.210000,3407000
2018-05-14,5.230000,5.350000,5.120000,5.190000,5.190000,3567500
2018-05-15,5.140000,5.260000,5.120000,5.260000,5.260000,2609000
2018-05-16,5.180000,5.320000,5.170000,5.200000,5.200000,2986900
2018-05-17,5.210000,5.280000,5.170000,5.190000,5.190000,2247500
2018-05-18,5.210000,5.210000,5.150000,5.190000,5.190000,2132600
2018-05-21,5.210000,5.270000,5.180000,5.250000,5.250000,2120500
2018-05-22,5.250000,5.300000,5.220000,5.230000,5.230000,1789500
2018-05-23,5.230000,5.280000,5.160000,5.220000,5.220000,2647100
2018-05-24,5.210000,5.270000,5.170000,5.250000,5.250000,3949900
2018-05-25,5.240000,5.520000,5.232000,5.510000,5.510000,4415600
2018-05-29,5.480000,5.500000,5.240000,5.400000,5.400000,3414900
2018-05-30,5.430000,5.490000,5.360000,5.390000,5.390000,2404800
2018-05-31,5.400000,5.510000,5.370000,5.430000,5.430000,2216100
2018-06-01,5.480000,5.560000,5.435000,5.520000,5.520000,3121400
2018-06-04,5.670000,5.870000,5.520000,5.860000,5.860000,6720100
2018-06-05,5.890000,6.380000,5.870000,6.250000,6.250000,11567800
2018-06-06,6.160000,6.550000,5.810000,6.390000,6.390000,15926300
2018-06-07,6.390000,6.660000,6.360000,6.510000,6.510000,11428500
2018-06-08,6.510000,6.670000,6.120000,6.350000,6.350000,13604800
2018-06-11,6.430000,7.590000,6.250000,7.280000,7.280000,56876200
2018-06-12,7.350000,7.790000,7.150000,7.590000,7.590000,31243500
2018-06-13,7.670000,7.700000,7.275000,7.390000,7.390000,18368500
2018-06-14,7.370000,7.580000,7.160000,7.420000,7.420000,12589900
2018-06-15,7.330000,7.380000,7.140000,7.210000,7.210000,8218000
2018-06-18,7.210000,7.420000,7.200000,7.230000,7.230000,7322200
2018-06-19,7.130000,7.230000,7.030000,7.190000,7.190000,5413000
2018-06-20,7.230000,7.450000,7.190000,7.430000,7.430000,7603200
2018-06-21,7.450000,7.450000,7.110000,7.120000,7.120000,6379300
2018-06-22,7.200000,7.225000,6.900000,7.010000,7.010000,9468400
2018-06-25,6.910000,6.930000,6.670000,6.770000,6.770000,7778200
2018-06-26,6.890000,6.950000,6.750000,6.830000,6.830000,4810300
2018-06-27,6.830000,6.890000,6.470000,6.560000,6.560000,5963900
2018-06-28,6.540000,6.670000,6.420000,6.620000,6.620000,4174800
2018-06-29,6.660000,6.740000,6.530000,6.530000,6.530000,3063900
2018-07-02,6.500000,6.620000,6.330000,6.610000,6.610000,5650300
2018-07-03,6.610000,6.650000,6.500000,6.540000,6.540000,1947400
2018-07-05,6.590000,6.620000,6.510000,6.610000,6.610000,4321200
2018-07-06,6.610000,6.870000,6.600000,6.860000,6.860000,4304000
2018-07-09,6.960000,7.110000,6.860000,7.050000,7.050000,4843600
2018-07-10,7.050000,7.120000,6.880000,6.930000,6.930000,3130700
2018-07-11,6.860000,6.925000,6.580000,6.600000,6.600000,4284700
2018-07-12,6.660000,6.700000,6.540000,6.650000,6.650000,2925600
2018-07-13,6.640000,6.780000,6.575000,6.650000,6.650000,2949600
2018-07-16,6.640000,6.690000,6.545000,6.670000,6.670000,2269400
2018-07-17,6.630000,6.790000,6.600000,6.740000,6.740000,3240400
2018-07-18,6.730000,6.750000,6.620000,6.650000,6.650000,2644000
2018-07-19,6.640000,6.640000,6.510000,6.520000,6.520000,3686300
2018-07-20,6.520000,6.520000,6.050000,6.070000,6.070000,8313800
2018-07-23,6.100000,6.140000,5.940000,6.020000,6.020000,6255300
2018-07-24,6.030000,6.170000,5.930000,6.000000,6.000000,4774500
2018-07-25,5.990000,6.085000,5.950000,5.970000,5.970000,3921700
2018-07-26,5.960000,6.070000,5.860000,5.980000,5.980000,4157300
2018-07-27,5.980000,6.030000,5.700000,5.750000,5.750000,5709200
2018-07-30,5.730000,5.870000,5.670000,5.720000,5.720000,4597700
2018-07-31,5.720000,6.030000,5.710000,5.930000,5.930000,5781500
2018-08-01,6.050000,6.070000,5.780000,5.920000,5.920000,14457300
2018-08-02,6.100000,6.140000,5.300000,5.450000,5.450000,20489800
2018-08-03,5.470000,5.582000,5.440000,5.460000,5.460000,4297500
2018-08-06,5.470000,5.540000,5.330000,5.450000,5.450000,7134200
2018-08-07,5.450000,5.580000,5.400000,5.560000,5.560000,4946100
2018-08-08,5.590000,5.790000,5.550000,5.600000,5.600000,4831400
2018-08-09,5.600000,5.745000,5.553000,5.620000,5.620000,3023300
2018-08-10,5.570000,5.630000,5.520000,5.520000,5.520000,2652600
2018-08-13,5.540000,5.590000,5.380000,5.400000,5.400000,3750600
2018-08-14,5.410000,5.490000,5.390000,5.420000,5.420000,2584600
2018-08-15,5.390000,5.410000,5.160000,5.280000,5.280000,6111100
2018-08-16,5.320000,5.490000,5.320000,5.460000,5.460000,2984900
2018-08-17,5.450000,5.750000,5.380000,5.700000,5.700000,3795900
2018-08-20,5.720000,6.050000,5.720000,6.010000,6.010000,6626600
2018-08-21,6.020000,6.200000,5.940000,6.080000,6.080000,6367700
2018-08-22,6.070000,6.180000,6.050000,6.060000,6.060000,3085300
2018-08-23,6.060000,6.140000,6.030000,6.070000,6.070000,3686000
2018-08-24,6.060000,6.100000,5.950000,6.040000,6.040000,4213700
2018-08-27,6.020000,6.370000,6.000000,6.240000,6.240000,9878000
2018-08-28,6.270000,6.380000,6.230000,6.260000,6.260000,2501800
2018-08-29,6.260000,6.310000,6.090000,6.290000,6.290000,4910500
2018-08-30,6.270000,6.270000,5.970000,6.060000,6.060000,5208000
2018-08-31,6.060000,6.110000,5.900000,6.020000,6.020000,7963300
2018-09-04,6.100000,6.125000,5.780000,5.830000,5.830000,4801800
2018-09-05,5.830000,5.960000,5.800000,5.880000,5.880000,3915900
2018-09-06,5.880000,5.940000,5.770000,5.840000,5.840000,3085200
2018-09-07,5.790000,5.970000,5.770000,5.870000,5.870000,2315700
2018-09-10,5.910000,5.990000,5.880000,5.920000,5.920000,3332700
2018-09-11,5.890000,5.950000,5.770000,5.940000,5.940000,2999400
2018-09-12,5.930000,6.030000,5.510000,5.530000,5.530000,8900200
2018-09-13,5.620000,5.700000,5.510000,5.640000,5.640000,6019700
2018-09-14,5.590000,5.595000,5.400000,5.510000,5.510000,6188000
2018-09-17,5.480000,5.540000,5.320000,5.450000,5.450000,6283600
2018-09-18,5.450000,5.850000,5.445000,5.800000,5.800000,5154300
2018-09-19,6.160000,6.260000,5.820000,6.110000,6.110000,11634300
2018-09-20,6.130000,6.190000,6.000000,6.080000,6.080000,6183100
2018-09-21,6.070000,6.110000,5.910000,5.940000,5.940000,5706700
2018-09-24,5.900000,5.910000,5.630000,5.660000,5.660000,4998500
2018-09-25,5.660000,5.780000,5.610000,5.690000,5.690000,4134400
2018-09-26,5.710000,5.740000,5.500000,5.510000,5.510000,4532300
2018-09-27,5.520000,5.610000,5.450000,5.550000,5.550000,3582300
2018-09-28,5.530000,5.580000,5.350000,5.350000,5.350000,5334500
2018-10-01,5.400000,5.420000,5.280000,5.350000,5.350000,6025800
2018-10-02,5.340000,5.400000,5.110000,5.110000,5.110000,5782400
2018-10-03,5.160000,5.220000,5.020000,5.140000,5.140000,8358700
2018-10-04,5.160000,5.200000,4.930000,5.000000,5.000000,6198000
2018-10-05,5.020000,5.210000,4.992000,5.040000,5.040000,6331700
2018-10-08,5.040000,5.180000,4.930000,5.070000,5.070000,4926900
2018-10-09,5.050000,5.170000,4.930000,4.940000,4.940000,4498900
2018-10-10,4.930000,5.000000,4.650000,4.650000,4.650000,7606600
2018-10-11,4.610000,4.750000,4.460000,4.500000,4.500000,11718700
2018-10-12,4.830000,4.890000,4.530000,4.620000,4.620000,9363100
2018-10-15,4.600000,5.050000,4.600000,4.840000,4.840000,7920300
2018-10-16,4.880000,5.080000,4.790000,5.080000,5.080000,6439400
2018-10-17,5.060000,5.060000,4.885000,4.980000,4.980000,4597500
2018-10-18,4.950000,4.995000,4.800000,4.840000,4.840000,3425700
2018-10-19,4.860000,4.900000,4.720000,4.750000,4.750000,3518200
2018-10-22,4.790000,4.830000,4.630000,4.820000,4.820000,3588300
2018-10-23,4.700000,4.870000,4.600000,4.810000,4.810000,4237400
2018-10-24,4.800000,4.850000,4.570000,4.580000,4.580000,5520100
2018-10-25,4.620000,4.710000,4.530000,4.670000,4.670000,3697400
2018-10-26,4.590000,4.680000,4.400000,4.560000,4.560000,6306400
2018-10-29,4.620000,4.720000,4.230000,4.330000,4.330000,8974900
2018-10-30,4.310000,4.500000,4.260000,4.420000,4.420000,6041000
2018-10-31,4.530000,4.830000,4.530000,4.730000,4.730000,10885000
2018-11-01,5.480000,6.200000,5.450000,5.950000,5.950000,48953800
2018-11-02,5.970000,6.200000,5.790000,6.100000,6.100000,16717300
2018-11-05,6.070000,6.150000,5.760000,5.900000,5.900000,9872000
2018-11-06,5.890000,6.270000,5.860000,6.240000,6.240000,9789800
2018-11-07,6.280000,6.400000,6.160000,6.310000,6.310000,6002400
2018-11-08,6.260000,6.460000,6.170000,6.360000,6.360000,5426300
2018-11-09,6.280000,6.310000,5.900000,5.960000,5.960000,7689400
2018-11-12,5.920000,5.950000,5.620000,5.740000,5.740000,6228500
2018-11-13,5.750000,5.950000,5.680000,5.760000,5.760000,5733600
2018-11-14,5.860000,5.930000,5.600000,5.610000,5.610000,5033000
2018-11-15,5.610000,5.670000,5.415000,5.660000,5.660000,4779500
2018-11-16,5.590000,5.690000,5.510000,5.610000,5.610000,3926800
2018-11-19,5.570000,5.580000,5.310000,5.310000,5.310000,5255500
2018-11-20,5.210000,5.315000,5.100000,5.120000,5.120000,6097900
2018-11-21,5.200000,5.450000,5.180000,5.330000,5.330000,3363600
2018-11-23,5.300000,5.480000,5.300000,5.380000,5.380000,1931200
2018-11-26,5.450000,5.500000,5.380000,5.470000,5.470000,2814700
2018-11-27,5.410000,5.470000,5.290000,5.340000,5.340000,3175600
2018-11-28,5.370000,5.440000,5.260000,5.410000,5.410000,4352900
2018-11-29,5.400000,5.490000,5.360000,5.380000,5.380000,2399000
2018-11-30,5.370000,5.510000,5.315000,5.510000,5.510000,3560000
2018-12-03,5.660000,5.710000,5.470000,5.540000,5.540000,5374100
2018-12-04,5.520000,5.650000,5.175000,5.210000,5.210000,5701600
2018-12-06,5.120000,5.170000,4.930000,5.150000,5.150000,6664400
2018-12-07,5.120000,5.265000,4.950000,4.980000,4.980000,4191700
2018-12-10,4.950000,5.020000,4.760000,4.970000,4.970000,5495400
2018-12-11,5.070000,5.140000,4.870000,4.960000,4.960000,5624400
2018-12-12,5.040000,5.135000,4.960000,5.000000,5.000000,7026500
2018-12-13,5.010000,5.030000,4.710000,4.790000,4.790000,6998100
2018-12-14,4.780000,4.980000,4.700000,4.900000,4.900000,4818500
2018-12-17,4.870000,5.030000,4.810000,4.830000,4.830000,4712400
2018-12-18,4.870000,5.120000,4.865000,5.080000,5.080000,6313200
2018-12-19,5.100000,5.290000,5.060000,5.100000,5.100000,6560700
2018-12-20,5.050000,5.240000,4.870000,4.990000,4.990000,5584700
2018-12-21,5.005000,5.040000,4.730000,4.800000,4.800000,8165500
2018-12-24,4.720000,4.800000,4.620000,4.620000,4.620000,3308300
2018-12-26,4.690000,4.990000,4.585000,4.980000,4.980000,5186800
2018-12-27,4.880000,4.983000,4.750000,4.940000,4.940000,5031400
2018-12-28,4.950000,5.180000,4.925000,5.030000,5.030000,4326300
2018-12-31,5.070000,5.120000,4.930000,4.970000,4.970000,3496800
2019-01-02,4.870000,5.430000,4.810000,5.370000,5.370000,5689900
2019-01-03,5.300000,5.380000,5.140000,5.180000,5.180000,4910400
2019-01-04,5.330000,5.560000,5.300000,5.430000,5.430000,5545900
2019-01-07,5.480000,5.570000,5.390000,5.570000,5.570000,4942300
2019-01-08,5.600000,5.710000,5.520000,5.680000,5.680000,4504500
2019-01-09,5.700000,5.810000,5.630000,5.680000,5.680000,3984900
2019-01-10,5.630000,5.730000,5.560000,5.720000,5.720000,2386100
2019-01-11,5.700000,6.110000,5.660000,5.990000,5.990000,6639000
2019-01-14,5.920000,5.990000,5.820000,5.910000,5.910000,3431200
2019-01-15,5.910000,6.070000,5.870000,6.060000,6.060000,3917000
2019-01-16,6.060000,6.150000,6.010000,6.030000,6.030000,3601500
2019-01-17,5.980000,6.120000,5.940000,6.110000,6.110000,3551900
2019-01-18,6.130000,6.190000,6.020000,6.050000,6.050000,4695300
2019-01-22,6.020000,6.135000,5.970000,6.060000,6.060000,3737100
2019-01-23,6.080000,6.150000,6.000000,6.050000,6.050000,2157500
2019-01-24,6.060000,6.272000,6.050000,6.190000,6.190000,3065000
2019-01-25,6.230000,6.280000,6.120000,6.220000,6.220000,2730600
2019-01-28,6.130000,6.270000,6.088000,6.180000,6.180000,2515800
2019-01-29,6.190000,6.200000,5.980000,6.000000,6.000000,2460800
2019-01-30,6.110000,6.130000,5.960000,6.100000,6.100000,3171300
2019-01-31,6.080000,6.250000,6.080000,6.170000,6.170000,4203100
2019-02-01,6.180000,6.230000,6.100000,6.200000,6.200000,3117500
2019-02-04,6.210000,6.250000,6.130000,6.170000,6.170000,2545600
2019-02-05,6.150000,6.500000,6.110000,6.350000,6.350000,9903200
2019-02-06,6.360000,6.480000,6.210000,6.430000,6.430000,4831500
2019-02-07,6.380000,6.480000,6.265000,6.450000,6.450000,3199100
2019-02-08,6.390000,6.510000,6.340000,6.490000,6.490000,3004100
2019-02-11,6.510000,6.690000,6.450000,6.660000,6.660000,4950000
2019-02-12,6.700000,6.730000,6.610000,6.670000,6.670000,3872600
2019-02-13,6.670000,6.700000,6.430000,6.450000,6.450000,4860400
2019-02-14,6.400000,6.550000,6.240000,6.470000,6.470000,3981900
2019-02-15,6.510000,6.510000,6.390000,6.410000,6.410000,3195700
2019-02-19,6.380000,6.540000,6.360000,6.380000,6.380000,4039000
2019-02-20,6.400000,6.710000,6.390000,6.640000,6.640000,6329100
2019-02-21,6.650000,6.690000,6.550000,6.630000,6.630000,4222500
2019-02-22,6.510000,6.730000,6.360000,6.700000,6.700000,4749500
2019-02-25,6.720000,6.820000,6.560000,6.560000,6.560000,7365600
2019-02-26,6.500000,6.720000,6.410000,6.610000,6.610000,8337700
2019-02-27,6.700000,6.960000,6.630000,6.870000,6.870000,17805400
2019-02-28,5.900000,6.050000,5.680000,5.920000,5.920000,22409600
2019-03-01,5.990000,6.230000,5.960000,6.140000,6.140000,9606300
2019-03-04,6.180000,6.215000,5.880000,5.940000,5.940000,8744000
2019-03-05,5.940000,6.035000,5.870000,5.920000,5.920000,5987300
2019-03-06,5.950000,6.200000,5.950000,6.030000,6.030000,7496800
2019-03-07,6.030000,6.110000,5.700000,5.750000,5.750000,7461900
2019-03-08,5.700000,5.760000,5.590000,5.680000,5.680000,4825300
2019-03-11,5.670000,5.920000,5.670000,5.900000,5.900000,5865400
2019-03-12,5.900000,5.960000,5.800000,5.850000,5.850000,3330100
2019-03-13,5.870000,5.920000,5.780000,5.920000,5.920000,3853600
2019-03-14,5.890000,5.970000,5.850000,5.870000,5.870000,2996800
2019-03-15,5.880000,5.910000,5.820000,5.900000,5.900000,4166100
2019-03-18,5.870000,5.950000,5.830000,5.900000,5.900000,3710600
2019-03-19,5.910000,5.980000,5.860000,5.930000,5.930000,2739600
2019-03-20,5.920000,6.080000,5.910000,5.980000,5.980000,5230400
2019-03-21,5.970000,6.090000,5.935000,6.060000,6.060000,5304200
2019-03-22,6.050000,6.063000,5.810000,5.830000,5.830000,4151400
2019-03-25,5.840000,5.900000,5.670000,5.740000,5.740000,4608400
2019-03-26,5.760000,5.900000,5.760000,5.800000,5.800000,3213900
2019-03-27,5.810000,5.850000,5.650000,5.800000,5.800000,3204800
2019-03-28,5.790000,5.880000,5.730000,5.860000,5.860000,2923200
2019-03-29,5.890000,5.945000,5.830000,5.920000,5.920000,5209800
2019-04-01,5.940000,5.970000,5.820000,5.850000,5.850000,4008700
2019-04-02,5.850000,5.950000,5.821000,5.880000,5.880000,3161900
2019-04-03,5.900000,6.020000,5.900000,5.980000,5.980000,2902800
2019-04-04,5.970000,6.020000,5.890000,5.970000,5.970000,2662000
2019-04-05,5.970000,6.020000,5.900000,5.970000,5.970000,2982400
2019-04-08,5.970000,6.010000,5.930000,5.970000,5.970000,2414300
2019-04-09,5.930000,6.020000,5.800000,5.840000,5.840000,4326700
2019-04-10,5.850000,5.900000,5.800000,5.880000,5.880000,2950800
2019-04-11,5.880000,5.920000,5.770000,5.800000,5.800000,2570700
2019-04-12,5.830000,5.890000,5.680000,5.710000,5.710000,3297100
2019-04-15,5.710000,5.730000,5.410000,5.570000,5.570000,6337600
2019-04-16,5.610000,5.630000,5.460000,5.500000,5.500000,3686000
2019-04-17,5.520000,5.540000,5.350000,5.380000,5.380000,4085900
2019-04-18,5.380000,5.440000,5.330000,5.380000,5.380000,3603600
2019-04-22,5.370000,5.460000,5.260000,5.410000,5.410000,4201500
2019-04-23,5.430000,5.530000,5.390000,5.500000,5.500000,3634900
2019-04-24,5.500000,5.590000,5.460000,5.460000,5.460000,2672800
2019-04-25,5.460000,5.485000,5.320000,5.330000,5.330000,3824200
2019-04-26,5.310000,5.390000,5.280000,5.360000,5.360000,2336200
2019-04-29,5.370000,5.465000,5.340000,5.390000,5.390000,2729700
2019-04-30,5.360000,5.430000,5.220000,5.280000,5.280000,5239300
2019-05-01,5.300000,5.435000,5.220000,5.370000,5.370000,9593900
2019-05-02,5.410000,5.460000,4.925000,4.960000,4.960000,17897400
2019-05-03,4.970000,5.160000,4.970000,5.090000,5.090000,8512200
2019-05-06,4.980000,5.220000,4.960000,5.160000,5.160000,6900100
2019-05-07,5.100000,5.100000,4.980000,5.030000,5.030000,7567400
2019-05-08,5.030000,5.100000,5.005000,5.030000,5.030000,3662800
2019-05-09,5.030000,5.040000,4.900000,4.990000,4.990000,5403100
2019-05-10,5.000000,5.090000,4.895000,5.030000,5.030000,6168400
2019-05-13,4.950000,4.980000,4.850000,4.920000,4.920000,6827900
2019-05-14,4.970000,5.140000,4.950000,5.110000,5.110000,5432000
2019-05-15,5.050000,5.120000,5.030000,5.080000,5.080000,4257300
2019-05-16,5.080000,5.160000,4.980000,5.040000,5.040000,5279400
2019-05-17,4.990000,5.050000,4.900000,4.910000,4.910000,5498200
2019-05-20,4.920000,4.980000,4.850000,4.920000,4.920000,4064600
2019-05-21,4.980000,5.045000,4.970000,5.040000,5.040000,3663600
2019-05-22,5.010000,5.050000,4.900000,4.940000,4.940000,5046800
2019-05-23,4.870000,4.900000,4.800000,4.860000,4.860000,4104100
2019-05-24,4.910000,4.945000,4.865000,4.890000,4.890000,3378700
2019-05-28,4.910000,4.920000,4.810000,4.880000,4.880000,4935200
2019-05-29,4.820000,4.835000,4.710000,4.740000,4.740000,6027900
2019-05-30,4.750000,4.770000,4.620000,4.700000,4.700000,5410300
2019-05-31,4.640000,4.730000,4.630000,4.630000,4.630000,4239600
2019-06-03,4.620000,4.620000,4.440000,4.510000,4.510000,5720900
2019-06-04,4.590000,4.600000,4.500000,4.580000,4.580000,5727600
2019-06-05,4.600000,4.640000,4.435000,4.470000,4.470000,4424700
2019-06-06,4.470000,4.470000,4.360000,4.430000,4.430000,4463700
2019-06-07,4.410000,4.490000,4.320000,4.460000,4.460000,3870100
2019-06-10,4.480000,4.560000,4.430000,4.450000,4.450000,4125600
2019-06-11,4.500000,4.550000,4.470000,4.540000,4.540000,3203800
2019-06-12,4.510000,4.540000,4.470000,4.520000,4.520000,2910300
2019-06-13,4.540000,4.550000,4.430000,4.510000,4.510000,3773500
2019-06-14,4.490000,4.490000,4.420000,4.460000,4.460000,2878500
2019-06-17,4.480000,4.580000,4.450000,4.540000,4.540000,2139300
2019-06-18,4.580000,4.640000,4.520000,4.610000,4.610000,2215800
2019-06-19,4.620000,4.690000,4.580000,4.640000,4.640000,2393700
2019-06-20,4.700000,4.720000,4.485000,4.560000,4.560000,3656800
2019-06-21,4.560000,4.560000,4.450000,4.480000,4.480000,2964500
2019-06-24,4.500000,4.590000,4.405000,4.420000,4.420000,2974800
2019-06-25,4.440000,4.570000,4.400000,4.400000,4.400000,3245800
2019-06-26,4.430000,4.490000,4.310000,4.320000,4.320000,5294200
2019-06-27,4.360000,4.360000,4.210000,4.340000,4.340000,6472000
2019-06-28,4.370000,4.460000,4.340000,4.400000,4.400000,7820600
2019-07-01,4.500000,4.530000,4.320000,4.400000,4.400000,5476800
2019-07-02,4.400000,4.430000,4.300000,4.300000,4.300000,4269200
2019-07-03,4.320000,4.390000,4.310000,4.360000,4.360000,1756300
2019-07-05,4.340000,4.400000,4.320000,4.390000,4.390000,1894100
2019-07-08,4.380000,4.390000,4.250000,4.300000,4.300000,4142100
2019-07-09,4.280000,4.380000,4.265000,4.370000,4.370000,3197100
2019-07-10,4.390000,4.440000,4.320000,4.380000,4.380000,3948000
2019-07-11,4.410000,4.440000,4.330000,4.380000,4.380000,2520600
2019-07-12,4.390000,4.490000,4.380000,4.460000,4.460000,2330900
2019-07-15,4.470000,4.490000,4.400000,4.450000,4.450000,2834300
2019-07-16,4.450000,4.500000,4.420000,4.450000,4.450000,2158100
2019-07-17,4.450000,4.465000,4.360000,4.390000,4.390000,3722500
2019-07-18,4.380000,4.400000,4.270000,4.310000,4.310000,3382300
2019-07-19,4.310000,4.425000,4.310000,4.330000,4.330000,2655400
2019-07-22,4.350000,4.390000,4.290000,4.310000,4.310000,1864600
2019-07-23,4.330000,4.338000,4.230000,4.260000,4.260000,2851700
2019-07-24,4.230000,4.350000,4.220000,4.340000,4.340000,2262500
2019-07-25,4.330000,4.410000,4.300000,4.330000,4.330000,3832100
2019-07-26,4.390000,4.395000,4.330000,4.350000,4.350000,3196600
2019-07-29,4.360000,4.400000,4.340000,4.380000,4.380000,2869600
2019-07-30,4.370000,4.400000,4.310000,4.330000,4.330000,4658800
2019-07-31,4.360000,4.380000,4.090000,4.200000,4.200000,13877500
2019-08-01,3.400000,3.500000,3.240000,3.310000,3.310000,30806700
2019-08-02,3.280000,3.300000,3.200000,3.290000,3.290000,10807100
2019-08-05,3.210000,3.250000,3.150000,3.200000,3.200000,9234500
2019-08-06,3.190000,3.240000,3.100000,3.210000,3.210000,8276300
2019-08-07,3.170000,3.250000,3.100000,3.230000,3.230000,5281700
2019-08-08,3.240000,3.340000,3.200000,3.330000,3.330000,4975200
2019-08-09,3.310000,3.480000,3.260000,3.430000,3.430000,7559900
2019-08-12,3.400000,3.400000,3.170000,3.180000,3.180000,5510100
2019-08-13,3.200000,3.350000,3.120000,3.290000,3.290000,5686200
2019-08-14,3.220000,3.250000,3.060000,3.100000,3.100000,5489800
2019-08-15,3.120000,3.120000,2.850000,2.890000,2.890000,7775100
2019-08-16,2.940000,3.010000,2.890000,2.990000,2.990000,4280300
2019-08-19,3.030000,3.034000,2.920000,2.940000,2.940000,4033300
2019-08-20,2.920000,2.960000,2.875000,2.950000,2.950000,3199500
2019-08-21,3.100000,3.240000,3.010000,3.020000,3.020000,7648300
2019-08-22,3.040000,3.150000,3.000000,3.140000,3.140000,3983400
2019-08-23,3.110000,3.215000,3.020000,3.030000,3.030000,4607700
2019-08-26,3.070000,3.080000,2.890000,2.940000,2.940000,3991000
2019-08-27,2.960000,2.960000,2.830000,2.850000,2.850000,4217700
2019-08-28,2.860000,3.030000,2.810000,3.020000,3.020000,5502700
2019-08-29,3.060000,3.140000,3.050000,3.080000,3.080000,3396100
2019-08-30,3.100000,3.128000,3.050000,3.090000,3.090000,2340400
2019-09-03,3.070000,3.080000,2.970000,2.980000,2.980000,3573300
2019-09-04,3.010000,3.120000,3.000000,3.120000,3.120000,3841500
2019-09-05,3.150000,3.340000,3.130000,3.300000,3.300000,7088000
2019-09-06,3.300000,3.550000,3.230000,3.470000,3.470000,7664700
2019-09-09,3.480000,3.530000,3.370000,3.490000,3.490000,4556500
2019-09-10,3.480000,3.580000,3.440000,3.510000,3.510000,4644900
2019-09-11,3.540000,3.680000,3.470000,3.640000,3.640000,5400000
2019-09-12,3.610000,3.850000,3.600000,3.800000,3.800000,6602500
2019-09-13,3.840000,3.880000,3.620000,3.750000,3.750000,6598500
2019-09-16,3.700000,3.830000,3.680000,3.760000,3.760000,3800800
2019-09-17,3.730000,3.770000,3.650000,3.750000,3.750000,3564900
2019-09-18,3.750000,3.820000,3.670000,3.770000,3.770000,4366000
2019-09-19,3.750000,3.820000,3.660000,3.670000,3.670000,3189700
2019-09-20,3.660000,4.520000,3.640000,4.100000,4.100000,27303200
2019-09-23,4.270000,4.370000,4.010000,4.100000,4.100000,12734800
2019-09-24,4.100000,4.200000,3.880000,3.930000,3.930000,7166200
2019-09-25,3.960000,4.045000,3.900000,3.960000,3.960000,3890400
2019-09-26,3.960000,3.980000,3.800000,3.830000,3.830000,3493500
2019-09-27,3.850000,3.945000,3.830000,3.900000,3.900000,3693600
2019-09-30,3.930000,3.930000,3.780000,3.810000,3.810000,2784700
2019-10-01,3.860000,3.940000,3.730000,3.750000,3.750000,4306700
2019-10-02,3.710000,3.750000,3.650000,3.660000,3.660000,2508800
2019-10-03,3.630000,3.810000,3.570000,3.790000,3.790000,5054400
2019-10-04,3.810000,4.025000,3.680000,3.940000,3.940000,7496700
2019-10-07,3.920000,3.970000,3.755000,3.820000,3.820000,4293600
2019-10-08,3.780000,3.870000,3.610000,3.690000,3.690000,4860000
2019-10-09,3.750000,3.800000,3.580000,3.690000,3.690000,4533600
2019-10-10,3.690000,3.700000,3.300000,3.560000,3.560000,7640600
2019-10-11,3.590000,3.700000,3.540000,3.670000,3.670000,4308400
2019-10-14,3.660000,3.665000,3.560000,3.640000,3.640000,2692700
2019-10-15,3.650000,3.660000,3.420000,3.450000,3.450000,6468100
2019-10-16,3.450000,3.860000,3.450000,3.740000,3.740000,8803900
2019-10-17,3.800000,4.070000,3.690000,3.980000,3.980000,10410000
2019-10-18,4.030000,4.060000,3.805000,3.860000,3.860000,4956000
2019-10-21,3.920000,4.210000,3.890000,4.170000,4.170000,9271300
2019-10-22,4.180000,4.450000,4.050000,4.380000,4.380000,13495600
2019-10-23,4.380000,4.530000,4.290000,4.490000,4.490000,7805900
2019-10-24,4.530000,4.530000,4.325000,4.380000,4.380000,6296700
2019-10-25,4.370000,4.420000,4.240000,4.310000,4.310000,4914400
2019-10-28,4.290000,6.090000,4.280000,5.640000,5.640000,65070400
2019-10-29,5.550000,6.300000,5.270000,6.050000,6.050000,40676800
2019-10-30,6.170000,6.370000,5.510000,5.860000,5.860000,33143800
2019-10-31,5.850000,6.370000,5.760000,6.180000,6.180000,27994800
2019-11-01,7.250000,7.260000,7.080000,7.140000,7.140000,206593100
2019-11-04,7.140000,7.170000,7.020000,7.040000,7.040000,52579300
2019-11-05,7.030000,7.080000,7.010000,7.060000,7.060000,22711500
2019-11-06,7.030000,7.080000,7.000000,7.030000,7.030000,22627000
2019-11-07,7.020000,7.040000,6.930000,6.980000,6.980000,22587700
2019-11-08,6.960000,7.080000,6.940000,7.080000,7.080000,13930100
2019-11-11,7.020000,7.080000,6.850000,7.000000,7.000000,17541400
2019-11-12,6.990000,7.010000,6.950000,6.960000,6.960000,13397800
2019-11-13,6.930000,6.930000,6.840000,6.860000,6.860000,20063500
2019-11-14,6.840000,6.870000,6.760000,6.800000,6.800000,12938500
2019-11-15,6.780000,6.890000,6.760000,6.800000,6.800000,10392100
2019-11-18,6.800000,6.820000,6.730000,6.750000,6.750000,7926500
2019-11-19,6.750000,6.760000,6.670000,6.700000,6.700000,7550400
2019-11-20,6.700000,6.720000,6.620000,6.690000,6.690000,8300400
2019-11-21,6.700000,6.745000,6.650000,6.680000,6.680000,4859700
2019-11-22,6.710000,6.900000,6.690000,6.860000,6.860000,9076400
2019-11-25,6.850000,6.860000,6.745000,6.780000,6.780000,6045300
2019-11-26,7.010000,7.060000,6.810000,6.890000,6.890000,58175700
2019-11-27,6.900000,7.080000,6.870000,7.070000,7.070000,18629400
2019-11-29,7.010000,7.040000,6.930000,6.960000,6.960000,3788300
2019-12-02,6.930000,6.950000,6.850000,6.870000,6.870000,8951700
2019-12-03,6.850000,6.880000,6.840000,6.860000,6.860000,4243200
2019-12-04,6.880000,6.900000,6.810000,6.870000,6.870000,10336800
2019-12-05,6.860000,6.895000,6.750000,6.770000,6.770000,8018400
2019-12-06,6.820000,6.830000,6.710000,6.740000,6.740000,7475900
2019-12-09,6.740000,6.740000,6.690000,6.710000,6.710000,7173600
2019-12-10,6.720000,6.810000,6.600000,6.780000,6.780000,11440800
2019-12-11,6.740000,6.775000,6.710000,6.730000,6.730000,4024100
2019-12-12,6.730000,6.750000,6.660000,6.660000,6.660000,5036700
2019-12-13,6.660000,6.700000,6.550000,6.590000,6.590000,7446900
2019-12-16,6.600000,6.650000,6.560000,6.630000,6.630000,14495800
2019-12-17,6.630000,6.650000,6.600000,6.620000,6.620000,6815200
2019-12-18,6.640000,6.650000,6.590000,6.610000,6.610000,7407300
2019-12-19,6.580000,6.600000,6.555000,6.560000,6.560000,6723400
2019-12-20,6.560000,6.570000,6.530000,6.540000,6.540000,4732800
2019-12-23,6.540000,6.600000,6.490000,6.490000,6.490000,4783500
2019-12-24,6.490000,6.510000,6.420000,6.470000,6.470000,3216700
2019-12-26,6.490000,6.670000,6.490000,6.640000,6.640000,4454400
2019-12-27,6.640000,6.650000,6.410000,6.480000,6.480000,5370000
2019-12-30,6.460000,6.495000,6.410000,6.440000,6.440000,4542700
2019-12-31,6.410000,6.580000,6.410000,6.570000,6.570000,4963800
2020-01-02,6.540000,6.620000,6.450000,6.460000,6.460000,6598000
2020-01-03,6.430000,6.475000,6.400000,6.440000,6.440000,7387300
2020-01-06,6.410000,6.510000,6.400000,6.500000,6.500000,7883600
2020-01-07,6.460000,6.590000,6.400000,6.550000,6.550000,9759700
2020-01-08,6.550000,6.610000,6.520000,6.610000,6.610000,3823300
2020-01-09,6.590000,6.650000,6.560000,6.640000,6.640000,3570900
2020-01-10,6.650000,6.650000,6.530000,6.560000,6.560000,4385700
2020-01-13,6.600000,6.610000,6.490000,6.510000,6.510000,7710700
2020-01-14,6.530000,6.690000,6.480000,6.580000,6.580000,4151600
2020-01-15,6.570000,6.620000,6.540000,6.570000,6.570000,4846600
2020-01-16,6.560000,6.660000,6.560000,6.590000,6.590000,4067600
2020-01-17,6.630000,6.700000,6.600000,6.680000,6.680000,5415600
2020-01-21,6.660000,6.710000,6.650000,6.660000,6.660000,6147400
2020-01-22,6.680000,6.700000,6.590000,6.590000,6.590000,3997200
2020-01-23,6.580000,6.750000,6.560000,6.680000,6.680000,3612300
2020-01-24,6.710000,6.720000,6.660000,6.690000,6.690000,3579500
2020-01-27,6.610000,6.730000,6.600000,6.700000,6.700000,3823500
2020-01-28,6.710000,6.726000,6.620000,6.620000,6.620000,7857400
2020-01-29,6.630000,6.660000,6.560000,6.580000,6.580000,5317100
2020-01-30,6.570000,6.610000,6.550000,6.580000,6.580000,4393200
2020-01-31,6.580000,6.601000,6.510000,6.520000,6.520000,4151300
2020-02-03,6.580000,6.600000,6.520000,6.530000,6.530000,5773800
2020-02-04,6.580000,6.600000,6.510000,6.520000,6.520000,3118800
2020-02-05,6.570000,6.610000,6.510000,6.600000,6.600000,3757500
2020-02-06,6.630000,6.720000,6.560000,6.640000,6.640000,3360800
2020-02-07,6.640000,6.660000,6.600000,6.640000,6.640000,2377600
2020-02-10,6.650000,6.660000,6.590000,6.600000,6.600000,4894400
2020-02-11,6.640000,6.650000,6.520000,6.560000,6.560000,6323600
2020-02-12,6.590000,6.620000,6.460000,6.500000,6.500000,8744100
2020-02-13,6.500000,6.525000,6.440000,6.500000,6.500000,4270100
