Date,Open,High,Low,Close,Adj Close,Volume
2014-07-14,0.488000,0.488000,0.488000,0.488000,0.484337,0
2014-07-15,0.481000,0.481000,0.481000,0.481000,0.477390,0
2014-07-16,0.480000,0.480000,0.480000,0.480000,0.476397,0
2014-07-17,0.481000,0.481000,0.481000,0.481000,0.477390,0
2014-07-18,0.477000,0.477000,0.477000,0.477000,0.473420,0
2014-07-21,0.484000,0.484000,0.484000,0.484000,0.480367,0
2014-07-22,0.484000,0.484000,0.484000,0.484000,0.480367,0
2014-07-23,0.495000,0.495000,0.495000,0.495000,0.491285,0
2014-07-24,0.535000,0.535000,0.535000,0.535000,0.530984,0
2014-07-25,0.532000,0.532000,0.532000,0.532000,0.528007,0
2014-07-28,0.568000,0.568000,0.568000,0.568000,0.563737,0
2014-07-29,0.568000,0.568000,0.568000,0.568000,0.563737,0
2014-07-30,0.575000,0.575000,0.575000,0.575000,0.570684,0
2014-07-31,0.568000,0.568000,0.568000,0.568000,0.563737,0
2014-08-01,0.552000,0.552000,0.552000,0.552000,0.547857,0
2014-08-04,0.564000,0.564000,0.564000,0.564000,0.559767,0
2014-08-05,0.568000,0.568000,0.568000,0.568000,0.563737,0
2014-08-06,0.568000,0.568000,0.568000,0.568000,0.563737,0
2014-08-07,0.566000,0.566000,0.566000,0.566000,0.561752,0
2014-08-08,0.542000,0.542000,0.542000,0.542000,0.537932,0
2014-08-11,0.554000,0.554000,0.554000,0.554000,0.549842,0
2014-08-12,0.565000,0.565000,0.565000,0.565000,0.560759,0
2014-08-13,0.580000,0.580000,0.580000,0.580000,0.575647,0
2014-08-14,0.577000,0.577000,0.577000,0.577000,0.572669,0
2014-08-15,0.582000,0.582000,0.582000,0.582000,0.577632,0
2014-08-18,0.598000,0.598000,0.598000,0.598000,0.593512,0
2014-08-19,0.598000,0.598000,0.598000,0.598000,0.593512,0
2014-08-20,0.598000,0.598000,0.598000,0.598000,0.593512,0
2014-08-21,0.710000,0.710000,0.710000,0.710000,0.704671,0
2014-08-22,0.690000,0.690000,0.690000,0.690000,0.684821,0
2014-08-25,0.690000,0.690000,0.690000,0.690000,0.684821,0
2014-08-26,0.676000,0.676000,0.676000,0.676000,0.670926,0
2014-08-27,0.687000,0.687000,0.687000,0.687000,0.681844,0
2014-08-28,0.681000,0.681000,0.681000,0.681000,0.675889,0
2014-08-29,0.682000,0.682000,0.682000,0.682000,0.676881,0
2014-09-02,0.645000,0.645000,0.645000,0.645000,0.640159,0
2014-09-03,0.650000,0.650000,0.650000,0.650000,0.645121,0
2014-09-04,0.644000,0.644000,0.644000,0.644000,0.639166,0
2014-09-05,0.666000,0.666000,0.666000,0.666000,0.661001,0
2014-09-08,0.677000,0.677000,0.677000,0.677000,0.671919,0
2014-09-09,0.658000,0.658000,0.658000,0.658000,0.653061,0
2014-09-10,0.642000,0.642000,0.642000,0.642000,0.637181,0
2014-09-11,0.641000,0.641000,0.641000,0.641000,0.636189,0
2014-09-12,0.638000,0.638000,0.638000,0.638000,0.633211,0
2014-09-15,0.620000,0.620000,0.620000,0.620000,0.615346,0
2014-09-16,0.627000,0.627000,0.627000,0.627000,0.622294,0
2014-09-17,0.620000,0.620000,0.620000,0.620000,0.615346,0
2014-09-18,0.631000,0.631000,0.631000,0.631000,0.626264,0
2014-09-19,0.620000,0.620000,0.620000,0.620000,0.615346,0
2014-09-22,0.590000,0.590000,0.590000,0.590000,0.585572,0
2014-09-23,0.584000,0.584000,0.584000,0.584000,0.579617,0
2014-09-24,0.578000,0.578000,0.578000,0.578000,0.573662,0
2014-09-25,0.576000,0.576000,0.576000,0.576000,0.571677,0
2014-09-26,0.567000,0.567000,0.567000,0.567000,0.562744,0
2014-09-29,0.572000,0.572000,0.572000,0.572000,0.567707,0
2014-09-30,0.581000,0.581000,0.581000,0.581000,0.576639,0
2014-10-01,0.597000,0.597000,0.597000,0.597000,0.592519,0
2014-10-02,0.587000,0.587000,0.587000,0.587000,0.582594,0
2014-10-03,0.573000,0.573000,0.573000,0.573000,0.568699,0
2014-10-06,0.573000,0.573000,0.573000,0.573000,0.568699,0
2014-10-07,0.567000,0.567000,0.567000,0.567000,0.562744,0
2014-10-08,0.567000,0.567000,0.567000,0.567000,0.562744,0
2014-10-09,0.568000,0.568000,0.568000,0.568000,0.563737,0
2014-10-10,0.546000,0.546000,0.546000,0.546000,0.541902,0
2014-10-13,0.551000,0.551000,0.551000,0.551000,0.546864,0
2014-10-14,0.544000,0.544000,0.544000,0.544000,0.539917,0
2014-10-15,0.554000,0.554000,0.554000,0.554000,0.549842,0
2014-10-16,0.551000,0.551000,0.551000,0.551000,0.546864,0
2014-10-17,0.544000,0.544000,0.544000,0.544000,0.539917,0
2014-10-20,0.556000,0.556000,0.556000,0.556000,0.551827,0
2014-10-21,0.547000,0.547000,0.547000,0.547000,0.542894,0
2014-10-22,0.549000,0.549000,0.549000,0.549000,0.544879,0
2014-10-23,0.548000,0.548000,0.548000,0.548000,0.543887,0
2014-10-24,0.565000,0.565000,0.565000,0.565000,0.560759,0
2014-10-27,0.564000,0.564000,0.564000,0.564000,0.559767,0
2014-10-28,0.564000,0.564000,0.564000,0.564000,0.559767,0
2014-10-29,0.574000,0.574000,0.574000,0.574000,0.569692,0
2014-10-30,0.573000,0.573000,0.573000,0.573000,0.568699,0
2014-10-31,0.586000,0.586000,0.586000,0.586000,0.581602,0
2014-11-03,0.589000,0.589000,0.589000,0.589000,0.584579,0
2014-11-04,0.587000,0.587000,0.587000,0.587000,0.582594,0
2014-11-05,0.586000,0.586000,0.586000,0.586000,0.581602,0
2014-11-06,0.567000,0.567000,0.567000,0.567000,0.562744,0
2014-11-07,0.576000,0.576000,0.576000,0.576000,0.571677,0
2014-11-10,0.576000,0.576000,0.576000,0.576000,0.571677,0
2014-11-11,0.573000,0.573000,0.573000,0.573000,0.568699,0
2014-11-12,0.556000,0.556000,0.556000,0.556000,0.551827,0
2014-11-13,0.559000,0.559000,0.559000,0.559000,0.554804,0
2014-11-14,0.591000,0.591000,0.591000,0.591000,0.586564,0
2014-11-17,0.566000,0.566000,0.566000,0.566000,0.561752,0
2014-11-18,0.565000,0.565000,0.565000,0.565000,0.560759,0
2014-11-19,0.559000,0.559000,0.559000,0.559000,0.554804,0
2014-11-20,0.548000,0.548000,0.548000,0.548000,0.543887,0
2014-11-21,0.550000,0.550000,0.550000,0.550000,0.545872,0
2014-11-24,0.560000,0.560000,0.560000,0.560000,0.555797,0
2014-11-25,0.553000,0.553000,0.553000,0.553000,0.548849,0
2014-11-26,0.559000,0.559000,0.559000,0.559000,0.554804,0
2014-11-28,0.568000,0.568000,0.568000,0.568000,0.563737,0
2014-12-01,0.557000,0.557000,0.557000,0.557000,0.552819,0
2014-12-02,0.560000,0.560000,0.560000,0.560000,0.555797,0
2014-12-03,0.583000,0.583000,0.583000,0.583000,0.578624,0
2014-12-04,0.586000,0.586000,0.586000,0.586000,0.581602,0
2014-12-05,0.564000,0.564000,0.564000,0.564000,0.559767,0
2014-12-08,0.550000,0.550000,0.550000,0.550000,0.545872,0
2014-12-09,0.530000,0.530000,0.530000,0.530000,0.526022,0
2014-12-10,0.537000,0.537000,0.537000,0.537000,0.532969,0
2014-12-11,0.524000,0.524000,0.524000,0.524000,0.520067,0
2014-12-12,0.511000,0.511000,0.511000,0.511000,0.507164,0
2014-12-15,null,null,null,null,null,null
2014-12-16,null,null,null,null,null,null
2014-12-17,null,null,null,null,null,null
2014-12-18,null,null,null,null,null,null
2014-12-19,null,null,null,null,null,null
2014-12-22,null,null,null,null,null,null
2014-12-23,null,null,null,null,null,null
2014-12-24,null,null,null,null,null,null
2014-12-26,0.514000,0.514000,0.514000,0.514000,0.510142,0
2014-12-29,0.516000,0.516000,0.516000,0.516000,0.512127,0
2014-12-30,0.527000,0.527000,0.527000,0.527000,0.523045,0
2014-12-31,0.527000,0.527000,0.527000,0.527000,0.523045,0
2015-01-02,0.528000,0.528000,0.528000,0.528000,0.524037,0
2015-01-05,0.542000,0.542000,0.542000,0.542000,0.537932,0
2015-01-06,0.533000,0.533000,0.533000,0.533000,0.528999,0
2015-01-07,0.515000,0.515000,0.515000,0.515000,0.511135,0
2015-01-08,0.519000,0.519000,0.519000,0.519000,0.515105,0
2015-01-09,0.516000,0.516000,0.516000,0.516000,0.512127,0
2015-01-12,0.509000,0.509000,0.509000,0.509000,0.505180,0
2015-01-13,0.506000,0.506000,0.506000,0.506000,0.502202,0
2015-01-14,0.508000,0.508000,0.508000,0.508000,0.504187,0
2015-01-15,0.510000,0.510000,0.510000,0.510000,0.506172,0
2015-01-16,0.512000,0.512000,0.512000,0.512000,0.508157,0
2015-01-20,0.523000,0.523000,0.523000,0.523000,0.519074,0
2015-01-21,0.556000,0.556000,0.556000,0.556000,0.551827,0
2015-01-22,0.526000,0.526000,0.526000,0.526000,0.522052,0
2015-01-23,0.521000,0.521000,0.521000,0.521000,0.517089,0
2015-01-26,0.613000,0.613000,0.613000,0.613000,0.608399,0
2015-01-27,0.529000,0.529000,0.529000,0.529000,0.525029,0
2015-01-28,0.528000,0.528000,0.528000,0.528000,0.524037,0
2015-01-29,0.523000,0.523000,0.523000,0.523000,0.519074,0
2015-01-30,0.514000,0.514000,0.514000,0.514000,0.510142,0
2015-02-02,0.514000,0.514000,0.514000,0.514000,0.510142,0
2015-02-03,0.517000,0.517000,0.517000,0.517000,0.513120,0
2015-02-04,0.525000,0.525000,0.525000,0.525000,0.521059,0
2015-02-05,0.524000,0.524000,0.524000,0.524000,0.520067,0
2015-02-06,0.523000,0.523000,0.523000,0.523000,0.519074,0
2015-02-09,0.524000,0.524000,0.524000,0.524000,0.520067,0
2015-02-10,0.529000,0.529000,0.529000,0.529000,0.525029,0
2015-02-11,0.520000,0.520000,0.520000,0.520000,0.516097,0
2015-02-12,0.518000,0.518000,0.518000,0.518000,0.514112,0
2015-02-13,0.521000,0.521000,0.521000,0.521000,0.517089,0
2015-02-17,0.520000,0.520000,0.520000,0.520000,0.516097,0
2015-02-18,0.534000,0.534000,0.534000,0.534000,0.529992,0
2015-02-19,0.534000,0.534000,0.534000,0.534000,0.529992,0
2015-02-20,0.535000,0.535000,0.535000,0.535000,0.530984,0
2015-02-23,null,null,null,null,null,null
2015-02-24,null,null,null,null,null,null
2015-02-25,null,null,null,null,null,null
2015-02-26,null,null,null,null,null,null
2015-02-27,null,null,null,null,null,null
2015-03-02,null,null,null,null,null,null
2015-03-03,null,null,null,null,null,null
2015-03-04,null,null,null,null,null,null
2015-03-05,0.682000,0.682000,0.682000,0.682000,0.676881,0
2015-03-06,0.678000,0.678000,0.678000,0.678000,0.672911,0
2015-03-09,0.676000,0.676000,0.676000,0.676000,0.670926,0
2015-03-10,0.662000,0.662000,0.662000,0.662000,0.657031,0
2015-03-11,0.641000,0.641000,0.641000,0.641000,0.636189,0
2015-03-12,0.689000,0.689000,0.689000,0.689000,0.683829,0
2015-03-13,0.689000,0.689000,0.689000,0.689000,0.683829,0
2015-03-16,0.689000,0.689000,0.689000,0.689000,0.683829,0
2015-03-17,0.701000,0.701000,0.701000,0.701000,0.695738,0
2015-03-18,0.700000,0.700000,0.700000,0.700000,0.694746,0
2015-03-19,0.684000,0.684000,0.684000,0.684000,0.678866,0
2015-03-20,0.740000,0.740000,0.740000,0.740000,0.734446,0
2015-03-23,0.744000,0.744000,0.744000,0.744000,0.738416,0
2015-03-24,22.400000,24.000000,22.400000,24.000000,23.819862,1100
2015-03-25,24.000000,24.000000,24.000000,24.000000,23.819862,300
2015-03-26,21.000000,21.180000,20.750000,21.000000,20.842379,910100
2015-03-27,21.000000,21.070000,20.750000,21.000000,20.842379,168100
2015-03-30,21.100000,21.100000,20.950001,21.000000,20.842379,38300
2015-03-31,21.059999,21.059999,20.860001,21.000000,20.842379,62900
2015-04-01,21.000000,21.000000,20.900000,21.000000,20.842379,44000
2015-04-02,20.950001,21.000000,20.900000,21.000000,20.842379,17300
2015-04-06,21.000000,21.000000,20.930000,21.000000,20.842379,58800
2015-04-07,20.950001,20.971001,20.910000,20.950001,20.792755,51100
2015-04-08,20.950001,21.000000,20.900000,21.000000,20.842379,53000
2015-04-09,21.000000,21.000000,20.950001,21.000000,20.842379,32300
2015-04-10,20.950001,21.000000,20.950001,21.000000,20.842379,33400
2015-04-13,21.000000,21.000000,20.910000,21.000000,20.842379,30600
2015-04-14,20.990000,21.000000,20.910000,21.000000,20.842379,55300
2015-04-15,20.959999,21.000000,20.900000,21.000000,20.842379,41600
2015-04-16,20.950001,21.000000,20.910000,21.000000,20.842379,39100
2015-04-17,20.950001,21.000000,20.950001,21.000000,20.842379,21800
2015-04-20,21.100000,21.100000,20.969999,21.000000,20.842379,40500
2015-04-21,21.280001,21.280001,20.920000,20.950001,20.792755,36200
2015-04-22,20.980000,20.990000,20.260000,20.420000,20.266733,32900
2015-04-23,20.320000,20.900000,20.320000,20.750000,20.594255,25100
2015-04-24,20.830000,20.980000,20.799999,20.900000,20.743128,19200
2015-04-27,20.990000,21.100000,20.799999,20.850000,20.693504,60900
2015-04-28,20.889999,20.900000,20.639999,20.670000,20.514854,27300
2015-04-29,20.600000,20.799999,20.575001,20.690001,20.534708,16100
2015-04-30,19.959999,20.820000,19.959999,20.540001,20.385832,24700
2015-05-01,20.480000,20.480000,19.250000,19.940001,19.790337,67800
2015-05-04,19.799999,19.879999,19.709999,19.790001,19.641462,15100
2015-05-05,19.760000,19.760000,19.650000,19.670000,19.522362,11200
2015-05-06,19.680000,19.840000,19.650000,19.700001,19.552135,18600
2015-05-07,19.299999,19.700001,19.299999,19.660000,19.512436,48200
2015-05-08,19.780001,20.160000,19.780001,20.150000,19.998756,167000
2015-05-11,20.000000,20.299999,19.950001,20.230000,20.078157,61900
2015-05-12,20.450001,20.670000,20.450001,20.500000,20.346130,16300
2015-05-13,20.400000,20.879999,19.860001,20.809999,20.653805,32500
2015-05-14,20.730000,20.900000,20.690001,20.900000,20.743128,62800
2015-05-15,20.900000,22.000000,20.850000,21.690001,21.527201,77200
2015-05-18,21.790001,22.100000,21.540001,21.760000,21.596676,99000
2015-05-19,21.830000,21.840000,21.320000,21.590000,21.427952,33000
2015-05-20,21.430000,21.930000,21.430000,21.879999,21.715771,67500
2015-05-21,21.930000,22.000000,21.620001,21.950001,21.785248,57300
2015-05-22,21.770000,22.400000,21.770000,22.080000,21.914272,70000
2015-05-26,22.010000,22.115000,21.860001,21.969999,21.805099,89200
2015-05-27,22.049999,22.160000,21.639999,21.969999,21.805099,51000
2015-05-28,21.870001,22.010000,21.830000,21.990000,21.824947,36200
2015-05-29,22.000000,22.020000,21.900000,22.020000,21.854723,38500
2015-06-01,22.020000,22.020000,21.420000,21.900000,21.735624,69700
2015-06-02,21.780001,22.000000,21.690001,21.900000,21.735624,41300
2015-06-03,21.840000,21.990000,21.825001,21.900000,21.735624,32000
2015-06-04,21.920000,21.969999,21.740000,21.870001,21.705849,21500
2015-06-05,21.770000,22.000000,21.490000,22.000000,21.834873,22900
2015-06-08,21.900000,22.100000,21.860001,22.030001,21.864649,65800
2015-06-09,22.030001,22.100000,22.000000,22.070000,21.904348,57100
2015-06-10,22.100000,22.250000,22.070000,22.170000,22.003599,100400
2015-06-11,22.170000,22.350000,22.170000,22.340000,22.172321,47800
2015-06-12,22.014000,23.100000,22.014000,23.040001,22.867067,49500
2015-06-15,23.000000,23.100000,22.469999,22.530001,22.360893,70900
2015-06-16,22.459999,22.860001,22.459999,22.639999,22.470070,26500
2015-06-17,22.600000,22.670000,22.410000,22.480000,22.311270,121000
2015-06-18,22.480000,22.639999,22.459999,22.469999,22.301346,37900
2015-06-19,22.580000,23.000000,21.670000,21.770000,21.606602,243200
2015-06-22,21.520000,22.740000,21.379999,22.370001,22.202097,40400
2015-06-23,22.250000,22.680000,21.879999,22.430000,22.261646,63800
2015-06-24,22.250000,22.940001,22.240000,22.580000,22.410519,64700
2015-06-25,22.940001,22.940001,22.600000,22.709999,22.539543,83300
2015-06-26,22.549999,22.900000,22.440001,22.750000,22.579245,434800
2015-06-29,22.559999,22.670000,22.540001,22.580000,22.410519,40000
2015-06-30,22.690001,22.950001,22.655001,22.940001,22.767817,22800
2015-07-01,23.000000,23.000000,22.799999,22.990000,22.817444,21100
2015-07-02,22.930000,23.660000,22.930000,23.290001,23.115191,98600
2015-07-06,23.350000,23.740000,23.000000,23.309999,23.135038,94800
2015-07-07,23.440001,23.440001,22.790001,22.889999,22.718193,70000
2015-07-08,22.850000,23.290001,22.719999,23.250000,23.075489,64900
2015-07-09,23.520000,23.520000,23.000000,23.090000,22.916693,28000
2015-07-10,23.090000,23.260000,23.000000,23.129999,22.956390,58500
2015-07-13,23.250000,23.730000,23.250000,23.520000,23.343466,41700
2015-07-14,23.730000,23.799999,23.580000,23.799999,23.621365,24000
2015-07-15,23.750000,23.750000,23.540001,23.719999,23.541962,38100
2015-07-16,23.840000,23.990000,23.716999,23.940001,23.760311,76300
2015-07-17,23.980000,24.020000,23.850000,24.020000,23.839714,23100
2015-07-20,23.990000,26.400000,23.822001,24.100000,23.919111,69000
2015-07-21,24.040001,24.150000,23.955000,24.040001,23.859564,35800
2015-07-22,24.160000,24.570000,24.000000,24.520000,24.335958,59200
2015-07-23,24.450001,24.629999,24.146999,24.379999,24.197010,58800
2015-07-24,24.400000,24.520000,23.830000,24.080000,23.899261,43300
2015-07-27,23.860001,24.049999,23.580000,23.900000,23.720612,21800
2015-07-28,24.020000,24.090000,23.670000,23.980000,23.800011,45800
2015-07-29,23.920000,24.100000,23.879999,24.000000,23.819862,45900
2015-07-30,24.030001,24.900000,23.520000,24.830000,24.643631,44700
2015-07-31,24.780001,25.260000,24.385000,25.240000,25.050554,51000
2015-08-03,25.160000,25.160000,23.350000,23.750000,23.571737,26100
2015-08-04,23.680000,24.820000,23.680000,24.180000,23.998510,27300
2015-08-05,24.309999,24.830000,23.780001,24.080000,23.899261,49100
2015-08-06,23.940001,24.400000,23.837999,23.959999,23.780161,36600
2015-08-07,23.820000,24.230000,23.440001,24.020000,23.839714,27500
2015-08-10,23.969999,24.115000,23.889999,24.030001,23.849636,28000
2015-08-11,23.870001,24.000000,23.540001,24.000000,23.819862,23800
2015-08-12,23.610001,23.980000,23.610001,23.830000,23.651136,33500
2015-08-13,23.480000,24.090000,23.230000,23.980000,23.800011,16600
2015-08-14,24.049999,24.049999,23.139999,23.959999,23.780161,8000
2015-08-17,23.950001,24.100000,23.320000,24.000000,23.819862,25200
2015-08-18,24.000000,24.000000,23.670000,23.980000,23.800011,19300
2015-08-19,23.600000,23.820000,23.280001,23.280001,23.105267,21900
2015-08-20,23.350000,23.350000,22.580000,22.920000,22.747967,31300
2015-08-21,22.000000,24.000000,21.500000,23.959999,23.780161,63800
2015-08-24,22.000000,24.000000,21.500000,23.020000,22.847219,25100
2015-08-25,23.440001,23.670000,22.100000,22.200001,22.033373,30100
2015-08-26,22.540001,22.540001,22.231001,22.500000,22.331120,15800
2015-08-27,22.680000,22.850000,22.440001,22.690001,22.519693,21100
2015-08-28,22.660000,23.309999,22.660000,23.280001,23.105267,8100
2015-08-31,23.010000,24.000000,23.010000,23.680000,23.502262,26600
2015-09-01,23.299999,23.344000,22.100000,22.219999,22.053223,42700
2015-09-02,22.530001,22.760000,22.270000,22.459999,22.291420,15800
2015-09-03,22.549999,22.790001,22.260000,22.330000,22.162395,12000
2015-09-04,22.350000,22.485001,22.120001,22.200001,22.033373,13100
2015-09-08,22.430000,22.430000,22.200001,22.430000,22.261646,28100
2015-09-09,22.430000,22.600000,22.299999,22.480000,22.311270,64400
2015-09-10,22.219999,22.420000,22.160000,22.379999,22.212019,24700
2015-09-11,22.309999,22.600000,22.100000,22.570000,22.400597,33400
2015-09-14,22.549999,22.610001,22.209999,22.500000,22.331120,10200
2015-09-15,22.410000,22.980000,22.190001,22.879999,22.708265,22700
2015-09-16,22.600000,23.450001,22.600000,23.320000,23.144964,80600
2015-09-17,23.517000,23.530001,22.799999,22.920000,22.747967,18800
2015-09-18,22.700001,23.049999,22.700001,23.000000,22.827368,23200
2015-09-21,22.889999,23.000000,22.830000,22.850000,22.678493,6700
2015-09-22,22.799999,22.910000,22.450001,22.660000,22.489918,10400
2015-09-23,22.750000,23.430000,22.610001,22.790001,22.618944,16400
2015-09-24,23.049999,23.330000,22.379999,23.020000,22.847219,18300
2015-09-25,23.180000,23.450001,22.520000,22.590000,22.420446,17500
2015-09-28,22.719999,22.820000,22.260000,22.480000,22.311270,13600
2015-09-29,22.790001,22.870001,22.420000,22.600000,22.430370,13700
2015-09-30,22.719999,22.719999,22.059999,22.350000,22.182247,27600
2015-10-01,22.180000,22.879999,21.790001,22.610001,22.440296,17800
2015-10-02,22.330000,22.400000,22.049999,22.280001,22.112772,10200
2015-10-05,22.370001,22.790001,22.299999,22.770000,22.599094,10400
2015-10-06,22.350000,23.370001,22.350000,23.129999,22.956390,27100
2015-10-07,23.080000,23.879999,23.080000,23.590000,23.412939,17000
2015-10-08,23.639999,23.690001,22.900000,23.150000,22.976240,19300
2015-10-09,23.190001,23.469999,23.170000,23.290001,23.115191,8500
2015-10-12,23.320000,23.469999,23.090000,23.309999,23.135038,21400
2015-10-13,23.270000,23.459999,23.059999,23.340000,23.164816,76400
2015-10-14,23.309999,23.490000,23.125000,23.180000,23.006016,2400
2015-10-15,23.180000,23.490000,23.000000,23.480000,23.303764,35500
2015-10-16,23.469999,23.535999,22.980000,23.459999,23.283913,18300
2015-10-19,23.200001,23.500000,23.030001,23.400000,23.224365,20000
2015-10-20,23.240000,23.719999,23.150000,23.580000,23.403013,31300
2015-10-21,23.709999,23.709999,23.450001,23.450001,23.273993,7000
2015-10-22,23.600000,23.680000,23.340000,23.600000,23.422867,9700
2015-10-23,23.639999,23.924999,23.330000,23.730000,23.551888,58400
2015-10-26,23.809999,23.980000,23.740000,23.940001,23.760311,44800
2015-10-27,23.900000,24.299999,23.680000,23.850000,23.670986,46900
2015-10-28,24.480000,26.180000,24.480000,26.090000,25.894175,221200
2015-10-29,26.170000,26.950001,26.170000,26.680000,26.479748,116300
2015-10-30,26.500000,27.000000,26.500000,26.809999,26.608770,78500
2015-11-02,27.000000,28.309999,26.830000,28.170000,27.958563,148400
2015-11-03,28.180000,29.700001,28.080000,28.490000,28.276159,86200
2015-11-04,28.410000,29.070000,28.188000,28.260000,28.047888,40500
2015-11-05,28.400000,28.860001,28.260000,28.709999,28.494509,43400
2015-11-06,28.709999,29.990000,28.709999,29.930000,29.705353,49800
2015-11-09,30.000000,30.889999,29.600000,29.620001,29.397680,91500
2015-11-10,29.480000,29.799999,29.370001,29.480000,29.258730,29000
2015-11-11,29.620001,30.000000,29.620001,29.959999,29.735128,174700
2015-11-12,29.889999,29.915001,29.299999,29.520000,29.298429,47200
2015-11-13,29.370001,29.600000,29.000000,29.030001,28.812109,26400
2015-11-16,28.910000,29.650000,28.410000,29.590000,29.367903,41900
2015-11-17,28.910000,29.969999,28.910000,29.450001,29.228958,56900
2015-11-18,29.629999,29.990000,29.209999,29.980000,29.754976,44400
2015-11-19,30.000000,30.000000,29.559999,29.780001,29.556479,23600
2015-11-20,29.959999,29.990000,29.450001,29.969999,29.745049,56800
2015-11-23,29.740000,31.160000,29.622999,31.000000,30.767321,154900
2015-11-24,31.000000,31.709999,31.000000,31.540001,31.303268,66500
2015-11-25,31.750000,33.220001,31.559999,32.830002,32.583588,107800
2015-11-27,33.009998,33.258999,32.340000,32.759998,32.514111,46800
2015-11-30,32.840000,32.840000,32.119999,32.500000,32.256062,30300
2015-12-01,32.459999,32.459999,31.520000,32.000000,31.759815,72600
2015-12-02,32.049999,32.049999,31.500000,31.950001,31.710190,41800
2015-12-03,31.780001,32.090000,31.270000,31.340000,31.104769,37700
2015-12-04,31.370001,31.750000,31.059999,31.200001,30.965822,46000
2015-12-07,31.309999,31.400000,29.799999,30.260000,30.032877,69000
2015-12-08,30.090000,30.570000,29.830000,30.110001,29.884003,24100
2015-12-09,29.370001,30.600000,29.370001,30.280001,30.052727,46200
2015-12-10,30.200001,30.844999,30.049999,30.320000,30.092424,19000
2015-12-11,29.879999,30.170000,28.680000,29.129999,28.911356,58900
2015-12-14,28.610001,29.299999,28.610001,29.209999,28.990755,67700
2015-12-15,29.580000,33.250000,29.570000,31.700001,31.462069,98500
2015-12-16,31.639999,32.740002,31.427000,32.320000,32.077415,69600
2015-12-17,32.340000,32.340000,31.212000,31.830000,31.591093,66300
2015-12-18,31.840000,31.980000,31.000000,31.020000,30.787170,44300
2015-12-21,31.020000,31.780001,30.940001,31.660000,31.422369,20100
2015-12-22,31.940001,31.940001,30.905001,31.320000,31.084919,36600
2015-12-23,31.510000,31.780001,30.809999,30.969999,30.737545,45400
2015-12-24,31.000000,31.150000,30.799999,31.040001,30.807022,23200
2015-12-28,30.830000,31.018000,30.670000,30.990000,30.757395,12800
2015-12-29,30.879999,32.080002,30.879999,31.940001,31.700266,62600
2015-12-30,31.690001,32.950001,31.541000,32.830002,32.583588,50200
2015-12-31,32.830002,32.830002,31.150000,31.379999,31.144468,26600
2016-01-04,30.840000,31.620001,29.540001,30.860001,30.628372,52200
2016-01-05,30.900000,31.000000,29.570000,30.830000,30.598598,44000
2016-01-06,30.139999,30.770000,29.900000,30.650000,30.419949,17600
2016-01-07,30.000000,30.400000,29.000000,29.610001,29.387756,56900
2016-01-08,29.809999,29.840000,27.660000,27.969999,27.760063,62700
2016-01-11,27.799999,28.790001,27.610001,28.700001,28.484585,49400
2016-01-12,28.910000,29.230000,28.570999,29.170000,28.951056,45300
2016-01-13,29.170000,29.360001,27.500000,28.049999,27.839464,51200
2016-01-14,28.790001,28.790001,27.836000,27.990000,27.779911,18900
2016-01-15,27.309999,28.018999,26.889999,27.430000,27.224119,41700
2016-01-19,27.459999,27.459999,26.500000,27.090000,26.886669,30800
2016-01-20,26.590000,28.340000,26.590000,28.209999,27.998260,48600
2016-01-21,28.350000,28.900000,27.670000,28.620001,28.405188,56600
2016-01-22,29.000000,29.170000,28.180000,28.549999,28.335711,36800
2016-01-25,28.500000,28.809999,28.190001,28.510000,28.296011,55100
2016-01-26,28.730000,29.000000,28.309999,28.590000,28.375408,32200
2016-01-27,28.500000,28.610001,25.770000,26.620001,26.420197,110000
2016-01-28,26.850000,27.572001,26.510000,26.830000,26.628622,65900
2016-01-29,26.730000,27.850000,26.730000,27.820000,27.611191,28400
2016-02-01,27.510000,27.719999,26.959999,27.090000,26.886669,44800
2016-02-02,26.790001,26.790001,26.219999,26.230000,26.033121,50000
2016-02-03,26.510000,26.687000,25.549999,25.570000,25.378077,43500
2016-02-04,25.570000,26.459999,25.570000,25.950001,25.755226,62900
2016-02-05,25.950001,25.950001,24.719999,24.830000,24.643631,22500
2016-02-08,24.760000,24.760000,23.910000,24.330000,24.147383,72000
2016-02-09,24.160000,24.790001,24.065001,24.510000,24.326035,19200
2016-02-10,24.770000,27.000000,24.730000,26.990000,26.787420,90500
2016-02-11,26.450001,26.450001,24.360001,25.309999,25.120028,49100
2016-02-12,25.420000,25.940001,22.830000,25.400000,25.209356,42700
2016-02-16,25.639999,26.730000,25.520000,25.600000,25.407856,21700
2016-02-17,25.930000,25.930000,25.450001,25.570000,25.378077,15200
2016-02-18,25.430000,25.629999,24.700001,24.850000,24.663483,28500
2016-02-19,24.690001,25.900000,24.559999,25.719999,25.526951,47400
2016-02-22,25.969999,26.315001,25.514000,26.070000,25.874325,34800
2016-02-23,26.110001,26.110001,25.170000,25.530001,25.338377,27500
2016-02-24,25.190001,25.639999,24.610001,25.620001,25.427704,27000
2016-02-25,25.500000,25.670000,25.231001,25.660000,25.467402,11300
2016-02-26,25.389999,27.150000,25.160000,27.120001,26.916443,38200
2016-02-29,27.170000,27.600000,27.049999,27.469999,27.263815,47800
2016-03-01,27.459999,27.995001,27.299999,27.860001,27.650888,24500
2016-03-02,27.690001,28.080000,27.110001,27.820000,27.611191,29400
2016-03-03,27.650000,28.110001,27.650000,27.980000,27.769987,36700
2016-03-04,27.950001,28.209999,27.510000,27.730000,27.521866,54700
2016-03-07,27.600000,28.250000,27.469999,27.900000,27.690588,38500
2016-03-08,27.209999,27.653999,26.490000,26.940001,26.737795,31500
2016-03-09,26.940001,27.049999,26.379999,26.950001,26.747721,22900
2016-03-10,26.950001,27.100000,26.059999,26.490000,26.291172,11100
2016-03-11,26.780001,27.040001,26.490000,26.830000,26.628622,16200
2016-03-14,26.818001,26.818001,26.360001,26.620001,26.420197,7400
2016-03-15,26.680000,26.680000,25.770000,25.969999,25.775074,18600
2016-03-16,25.950001,26.490000,25.950001,26.230000,26.033121,23100
2016-03-17,26.049999,26.730000,25.900000,26.620001,26.420197,38700
2016-03-18,26.740000,27.150000,26.740000,27.150000,26.946218,27400
2016-03-21,27.000000,27.100000,26.367001,26.860001,26.658394,15500
2016-03-22,26.600000,28.670000,26.600000,28.299999,28.087587,84400
2016-03-23,28.020000,28.020000,26.799999,26.910000,26.708019,39500
2016-03-24,26.280001,27.160000,26.190001,27.040001,26.837046,28900
2016-03-28,27.299999,28.000000,26.969999,27.860001,27.650888,35100
2016-03-29,27.410000,28.469999,27.410000,28.350000,28.137211,25700
2016-03-30,28.350000,29.030001,27.000000,27.120001,26.916443,41700
2016-03-31,27.280001,27.299999,26.110001,27.000000,26.797346,46900
2016-04-01,26.900000,27.129999,26.459999,26.969999,26.767567,11500
2016-04-04,26.980000,27.780001,26.690001,27.459999,27.253891,41100
2016-04-05,27.690001,27.690001,26.690001,26.809999,26.608770,36900
2016-04-06,26.780001,27.020000,25.750000,25.910000,25.715525,25500
2016-04-07,25.680000,25.680000,24.802000,25.070000,24.881830,25700
2016-04-08,25.340000,25.410000,25.010000,25.100000,24.911606,18600
2016-04-11,25.160000,26.250000,25.160000,26.080000,25.884247,32500
2016-04-12,25.870001,26.900000,25.770000,26.670000,26.469822,37200
2016-04-13,26.799999,27.500000,26.299999,27.250000,27.045467,30200
2016-04-14,27.299999,27.950001,27.059999,27.270000,27.065319,23700
2016-04-15,27.360001,27.690001,27.049999,27.370001,27.164568,25400
2016-04-18,27.000000,27.750000,26.980000,27.469999,27.263815,41800
2016-04-19,27.370001,28.000000,27.370001,27.750000,27.541714,23900
2016-04-20,27.920000,27.969999,27.351000,27.700001,27.492092,18800
2016-04-21,27.840000,27.940001,27.320000,27.500000,27.293592,17200
2016-04-22,27.530001,28.299999,27.370001,28.170000,27.958563,21600
2016-04-25,28.120001,28.280001,27.601999,28.100000,27.889088,19800
2016-04-26,28.150000,28.410000,27.799999,27.860001,27.650888,38500
2016-04-27,28.049999,30.990000,28.010000,30.959999,30.727621,142100
2016-04-28,30.590000,30.799999,29.990000,30.129999,29.903851,55900
2016-04-29,30.100000,30.600000,29.500000,30.340000,30.112274,66800
2016-05-02,30.510000,30.790001,30.340000,30.480000,30.251225,62900
2016-05-03,30.299999,30.700001,30.250000,30.290001,30.062651,32800
2016-05-04,30.180000,30.629999,29.605000,29.799999,29.576326,23900
2016-05-05,29.820000,29.820000,29.379999,29.530001,29.308357,35500
2016-05-06,29.600000,30.280001,29.600000,29.830000,29.606104,17500
2016-05-09,31.299999,32.349998,30.209999,31.969999,31.730040,127400
2016-05-10,32.250000,32.250000,31.888000,31.969999,31.730040,41800
2016-05-11,31.950001,31.964001,30.000000,30.150000,29.923700,121400
2016-05-12,30.150000,30.906000,29.850000,30.010000,29.784752,104300
2016-05-13,30.040001,30.299999,29.940001,30.000000,29.774828,62300
2016-05-16,30.250000,30.500000,29.920000,30.000000,29.774828,97000
2016-05-17,29.990000,30.170000,28.750000,29.010000,28.792259,50900
2016-05-18,28.920000,30.000000,28.920000,29.940001,29.715277,42800
2016-05-19,29.830000,30.070000,29.030001,29.990000,29.764902,33000
2016-05-20,30.070000,30.340000,29.420000,30.180000,29.953476,131700
2016-05-23,30.480000,30.740000,30.020000,30.110001,29.884003,99600
2016-05-24,30.250000,31.240000,30.190001,31.010000,30.777246,65200
2016-05-25,31.000000,32.000000,29.990000,31.990000,31.749887,70500
2016-05-26,32.000000,32.000000,31.010000,31.129999,30.896345,27300
2016-05-27,31.299999,31.430000,30.809999,31.000000,30.767321,53800
2016-05-31,31.000000,31.459999,30.629999,31.000000,30.767321,61200
2016-06-01,30.900000,31.230000,30.809999,31.000000,30.767321,74400
2016-06-02,30.840000,31.475000,30.799999,31.360001,31.124620,109200
2016-06-03,31.120001,31.530001,30.400000,31.160000,30.926121,49100
2016-06-06,31.330000,32.740002,31.330000,32.169998,31.928537,76700
2016-06-07,32.290001,32.610001,32.005001,32.049999,31.809441,45100
2016-06-08,32.180000,32.659000,31.870001,32.490002,32.246140,37000
2016-06-09,32.209999,32.549999,31.969999,32.369999,32.127033,27600
2016-06-10,32.160000,32.529999,32.040001,32.080002,31.839216,29100
2016-06-13,31.719999,32.005001,31.139000,31.280001,31.045221,31400
2016-06-14,31.000000,31.580000,31.000000,31.430000,31.194094,55500
2016-06-15,31.450001,31.910000,31.080000,31.629999,31.392591,56900
2016-06-16,31.410000,31.850000,31.000000,31.790001,31.551392,46100
2016-06-17,31.879999,32.476002,31.360001,31.570000,31.333042,69400
2016-06-20,32.139999,32.590000,31.684999,31.860001,31.620869,43600
2016-06-21,31.860001,33.169998,31.264999,32.700001,32.454563,175900
2016-06-22,32.910000,33.000000,32.259998,32.290001,32.047638,73000
2016-06-23,32.950001,33.529999,32.731998,33.139999,32.891254,120000
2016-06-24,31.750000,32.970001,31.750000,32.410000,32.166737,517600
2016-06-27,32.410000,32.470001,31.270000,31.680000,31.442217,107700
2016-06-28,32.290001,32.490002,31.840000,32.270000,32.027794,65200
2016-06-29,31.809999,32.189999,30.360001,30.450001,30.221451,108800
2016-06-30,30.430000,31.360001,30.430000,31.360001,31.124620,76800
2016-07-01,31.400000,31.750000,30.770000,30.940001,30.707771,74700
2016-07-05,31.150000,31.333000,29.900000,30.230000,30.003101,62900
2016-07-06,29.980000,30.480000,29.980000,30.209999,29.983250,38100
2016-07-07,30.270000,30.559999,29.965000,30.230000,30.003101,49100
2016-07-08,30.670000,31.490000,30.670000,31.420000,31.184166,70500
2016-07-11,31.870001,32.209999,31.400000,31.889999,31.650640,70100
2016-07-12,32.009998,32.889999,31.992001,32.500000,32.256062,57200
2016-07-13,32.509998,32.860001,32.070000,32.439999,32.196507,63500
2016-07-14,32.889999,33.000000,32.476002,32.810001,32.563736,50500
2016-07-15,33.049999,33.150002,32.669998,32.840000,32.593510,28300
2016-07-18,32.959999,33.240002,32.610001,32.709999,32.464481,27900
2016-07-19,32.529999,32.860001,32.220001,32.860001,32.613358,27600
2016-07-20,32.900002,33.130001,32.209999,32.349998,32.107193,58300
2016-07-21,32.500000,32.500000,31.700001,31.959999,31.720116,27900
2016-07-22,32.139999,32.418999,31.790001,32.200001,31.958319,36300
2016-07-25,32.330002,32.578999,31.910000,32.130001,31.888844,50800
2016-07-26,32.220001,32.740002,31.680000,31.809999,31.571239,90800
2016-07-27,33.000000,34.404999,33.000000,34.000000,33.744801,258200
2016-07-28,33.799999,34.099998,33.450001,33.599998,33.347805,99700
2016-07-29,33.709999,34.099998,33.599998,33.880001,33.625706,91200
2016-08-01,33.889999,33.889999,32.680000,32.860001,32.613358,67100
2016-08-02,32.970001,32.970001,32.180000,32.490002,32.246140,49900
2016-08-03,32.590000,32.650002,32.139999,32.270000,32.027794,36300
2016-08-04,32.270000,32.860001,32.040001,32.410000,32.166737,53400
2016-08-05,32.730000,33.500000,32.730000,33.490002,33.238632,28300
2016-08-08,33.500000,33.779999,33.230000,33.340000,33.089756,35100
2016-08-09,33.290001,33.750000,32.930000,33.560001,33.308105,32700
2016-08-10,33.490002,33.759998,33.020000,33.619999,33.367657,44000
2016-08-11,33.610001,33.759998,33.400002,33.509998,33.258480,26200
2016-08-12,33.340000,33.340000,32.660000,33.060001,32.811863,16500
2016-08-15,33.110001,33.389999,32.660000,33.139999,32.891254,54200
2016-08-16,33.000000,33.380001,32.840000,33.220001,32.970657,26000
2016-08-17,33.340000,33.888000,33.006001,33.389999,33.139385,22800
2016-08-18,33.520000,33.520000,32.950001,33.000000,32.752308,17500
2016-08-19,33.009998,33.039001,32.695000,32.779999,32.533955,24800
2016-08-22,32.919998,32.950001,32.410999,32.630001,32.385090,24900
2016-08-23,32.840000,32.840000,32.310001,32.360001,32.117111,22100
2016-08-24,32.349998,33.389999,32.160000,32.889999,32.643135,66800
2016-08-25,32.910000,33.500000,32.720001,33.470001,33.218784,26900
2016-08-26,33.439999,33.610001,33.160000,33.580002,33.327957,27200
2016-08-29,33.570000,34.595001,33.570000,34.419998,34.161648,58200
2016-08-30,34.500000,35.000000,34.450001,34.950001,34.687675,43400
2016-08-31,34.990002,34.990002,34.560001,34.750000,34.489178,21300
2016-09-01,34.720001,35.000000,34.169998,34.509998,34.250973,20900
2016-09-02,34.466000,34.970001,34.466000,34.970001,34.707523,20200
2016-09-06,35.000000,36.424999,34.799999,36.240002,35.967995,172700
2016-09-07,36.240002,36.790001,36.090000,36.650002,36.374916,129300
2016-09-08,36.779999,37.340000,36.436001,37.250000,36.970409,75600
2016-09-09,37.029999,37.500000,37.000000,37.250000,36.970409,99600
2016-09-12,37.189999,37.790001,36.880001,37.750000,37.466656,59000
2016-09-13,37.270000,37.445000,36.639999,36.709999,36.434464,49700
2016-09-14,36.779999,37.160000,36.340000,36.500000,36.226036,37600
2016-09-15,36.500000,37.209999,36.009998,36.849998,36.573414,80700
2016-09-16,36.900002,37.560001,36.389999,36.900002,36.623035,224800
2016-09-19,37.160000,37.320000,36.660000,36.759998,36.484085,25500
2016-09-20,36.980000,37.029999,36.450001,36.549999,36.275665,23200
2016-09-21,36.580002,37.060001,36.430000,36.720001,36.444389,22900
2016-09-22,36.720001,37.139999,36.595001,37.119999,36.841385,36200
2016-09-23,36.880001,37.279999,36.840000,37.209999,36.930706,20400
2016-09-26,36.930000,37.049999,36.490002,36.639999,36.364986,27200
2016-09-27,36.570000,37.209999,36.490002,37.009998,36.732212,35900
2016-09-28,37.110001,37.480000,37.009998,37.349998,37.069656,44000
2016-09-29,37.349998,37.529999,36.430000,36.820000,36.543636,33100
2016-09-30,37.049999,37.770000,36.889999,37.400002,37.119289,51100
2016-10-03,37.400002,37.660000,36.709999,36.959999,36.682583,37900
2016-10-04,37.189999,37.529999,36.700001,36.939999,36.662735,41500
2016-10-05,36.919998,37.689999,36.880001,37.599998,37.317780,70100
2016-10-06,37.680000,37.688999,36.759998,36.980000,36.702435,33500
2016-10-07,37.099998,37.230000,36.549999,36.880001,36.603188,53200
2016-10-10,37.020000,37.360001,36.709999,37.000000,36.722290,58500
2016-10-11,36.970001,37.209999,36.569000,36.910000,36.632957,52500
2016-10-12,36.830002,37.189999,36.529999,36.860001,36.583340,34600
2016-10-13,36.520000,36.540001,35.759998,35.810001,35.541222,51400
2016-10-14,36.130001,36.259998,35.790001,35.860001,35.590847,35100
2016-10-17,35.849998,35.950001,35.450001,35.549999,35.283169,47200
2016-10-18,35.799999,35.849998,35.049999,35.500000,35.233543,29900
2016-10-19,34.650002,35.450001,32.950001,34.000000,33.744801,141800
2016-10-20,33.849998,33.849998,32.400002,32.599998,32.355309,142000
2016-10-21,32.349998,32.549999,31.750000,31.799999,31.561316,85600
2016-10-24,30.250000,32.400002,29.850000,32.349998,32.107193,165300
2016-10-25,32.250000,32.494999,32.049999,32.250000,32.007942,30000
2016-10-26,32.049999,33.703999,32.049999,32.750000,32.504185,92200
2016-10-27,33.150002,33.240002,32.005001,32.099998,31.859064,101200
2016-10-28,32.150002,32.150002,31.250000,31.650000,31.412443,65600
2016-10-31,31.700001,32.849998,31.650000,32.599998,32.355309,65000
2016-11-01,32.750000,32.750000,31.400000,31.600000,31.362816,51100
2016-11-02,31.600000,31.605000,30.700001,30.700001,30.469576,47700
2016-11-03,30.600000,31.400000,30.600000,31.299999,31.065069,54000
2016-11-04,31.150000,31.600000,31.049999,31.049999,30.816948,32400
2016-11-07,31.450001,31.650000,31.049999,31.549999,31.313192,62400
2016-11-08,31.400000,31.400000,30.600000,30.900000,30.668072,59000
2016-11-09,30.650000,32.849998,30.650000,32.849998,32.603432,70400
2016-11-10,32.950001,35.500000,32.900002,35.400002,35.134296,82700
2016-11-11,35.200001,35.900002,33.950001,34.000000,33.744801,132100
2016-11-14,34.400002,35.000000,33.875000,34.700001,34.439548,91400
2016-11-15,34.400002,36.000000,34.400002,35.950001,35.680172,72700
2016-11-16,33.049999,34.099998,32.599998,33.799999,33.546307,833900
2016-11-17,33.500000,34.799999,33.150002,34.500000,34.241051,182900
2016-11-18,33.750000,34.599998,33.750000,34.349998,34.092178,150000
2016-11-21,34.400002,35.000000,34.299999,35.000000,34.737301,130900
2016-11-22,35.000000,36.700001,35.000000,36.150002,35.878670,194500
2016-11-23,36.250000,37.750000,36.000000,37.500000,37.218533,160500
2016-11-25,37.450001,38.000000,37.099998,37.099998,36.821533,114300
2016-11-28,37.000000,37.549999,36.849998,37.450001,37.168911,101700
2016-11-29,37.400002,38.250000,37.349998,37.650002,37.367413,135900
2016-11-30,37.900002,38.099998,37.450001,37.750000,37.466656,124800
2016-12-01,38.049999,38.849998,37.450001,37.750000,37.466656,149800
2016-12-02,37.700001,37.750000,37.060001,37.549999,37.268162,72700
2016-12-05,37.799999,38.099998,37.599998,37.950001,37.665157,65300
2016-12-06,38.000000,38.799999,37.950001,38.750000,38.459152,82500
2016-12-07,39.000000,39.174999,38.465000,38.950001,38.657650,46300
2016-12-08,39.200001,39.950001,38.513000,39.900002,39.600525,72700
2016-12-09,39.750000,40.250000,39.450001,40.049999,39.749397,101300
2016-12-12,40.000000,40.000000,38.849998,39.200001,38.905777,72000
2016-12-13,39.200001,40.450001,38.305000,39.700001,39.402020,155800
2016-12-14,39.099998,39.549999,38.105000,38.950001,38.657650,88000
2016-12-15,39.099998,40.650002,38.799999,39.950001,39.650146,140600
2016-12-16,39.950001,40.200001,39.200001,39.299999,39.005020,383100
2016-12-19,39.299999,39.950001,39.250000,39.650002,39.352398,75700
2016-12-20,40.000000,40.500000,39.250000,40.200001,39.898270,203900
2016-12-21,40.250000,41.549999,39.599998,41.000000,40.692261,167700
2016-12-22,40.650002,41.250000,40.555000,41.000000,40.692261,76700
2016-12-23,41.049999,41.250000,40.650002,40.849998,40.543385,111400
2016-12-27,40.650002,42.150002,40.650002,42.049999,41.734383,92100
2016-12-28,42.099998,42.549999,41.500000,42.400002,42.081757,84900
2016-12-29,42.349998,42.799999,41.549999,41.849998,41.535885,72300
2016-12-30,41.650002,42.049999,41.575001,41.849998,41.535885,47300
2017-01-03,42.599998,42.599998,41.099998,41.549999,41.238132,141700
2017-01-04,41.599998,41.799999,41.250000,41.500000,41.188511,69000
2017-01-05,41.400002,41.750000,39.750000,40.849998,40.543385,54300
2017-01-06,40.950001,41.099998,40.549999,41.049999,40.741894,42800
2017-01-09,40.549999,40.849998,39.200001,40.150002,39.848640,134600
2017-01-10,40.000000,40.950001,40.000000,40.849998,40.543385,71900
2017-01-11,40.700001,41.099998,39.522999,41.099998,40.791512,47600
2017-01-12,40.700001,40.849998,39.549999,40.299999,39.997513,34700
2017-01-13,40.599998,41.049999,40.299999,40.599998,40.295265,41200
2017-01-17,40.049999,40.049999,39.049999,39.599998,39.302769,76200
2017-01-18,39.849998,40.250000,39.200001,39.950001,39.650146,18100
2017-01-19,39.900002,40.500000,39.750000,40.000000,39.699764,60900
2017-01-20,40.000000,40.400002,39.200001,40.250000,39.947895,88600
2017-01-23,39.750000,40.549999,39.750000,40.500000,40.196014,60700
2017-01-24,40.700001,41.450001,40.400002,41.299999,40.990009,67000
2017-01-25,40.900002,41.950001,39.075001,40.150002,39.848640,218700
2017-01-26,40.200001,40.352001,39.599998,40.200001,39.898270,101100
2017-01-27,40.150002,40.150002,39.250000,39.349998,39.054649,103500
2017-01-30,38.849998,39.599998,37.700001,38.200001,37.913277,96200
2017-01-31,38.200001,39.000000,38.200001,38.549999,38.260651,86600
2017-02-01,38.750000,39.349998,38.099998,38.349998,38.062157,57700
2017-02-02,38.049999,38.299999,37.099998,37.549999,37.268162,42800
2017-02-03,38.049999,38.500000,37.849998,38.400002,38.111778,32500
2017-02-06,37.950001,38.450001,37.599998,37.650002,37.367413,23400
2017-02-07,37.849998,38.099998,37.410000,37.799999,37.516277,54100
2017-02-08,37.599998,37.750000,37.404999,37.549999,37.268162,77700
2017-02-09,37.549999,38.445000,37.450001,37.799999,37.516277,35900
2017-02-10,37.849998,38.450001,37.700001,38.450001,38.161404,38000
2017-02-13,38.650002,39.244999,38.650002,38.950001,38.657650,34700
2017-02-14,39.049999,39.750000,38.849998,39.599998,39.302769,85300
2017-02-15,39.599998,39.700001,39.150002,39.650002,39.352398,38100
2017-02-16,39.599998,39.900002,39.450001,39.799999,39.501266,30200
2017-02-17,39.450001,39.700001,39.355000,39.549999,39.253147,33800
2017-02-21,39.700001,39.750000,39.099998,39.250000,38.955399,42500
2017-02-22,39.250000,39.549999,39.000000,39.400002,39.104271,27000
2017-02-23,39.500000,39.500000,38.692001,39.200001,38.905777,28200
2017-02-24,38.799999,39.349998,38.750000,39.049999,38.756905,38500
2017-02-27,39.099998,39.650002,39.099998,39.450001,39.153900,32300
2017-02-28,39.349998,39.500000,39.150002,39.400002,39.104271,52600
2017-03-01,39.750000,40.286999,39.599998,40.200001,39.898270,83600
2017-03-02,40.150002,40.299999,39.174999,39.250000,38.955399,46200
2017-03-03,39.250000,39.450001,38.849998,39.099998,38.806522,20100
2017-03-06,38.700001,38.950001,38.299999,38.450001,38.161404,31200
2017-03-07,38.400002,38.400002,38.000000,38.000000,37.714783,21100
2017-03-08,38.400002,38.778999,38.250000,38.299999,38.012527,38700
2017-03-09,38.349998,38.750000,37.950001,38.000000,37.714783,20800
2017-03-10,38.250000,38.250000,37.099998,37.750000,37.466656,36400
2017-03-13,37.700001,38.250000,37.599998,37.599998,37.317780,16600
2017-03-14,37.500000,37.549999,37.005001,37.299999,37.020035,28800
2017-03-15,37.500000,37.799999,37.099998,37.650002,37.367413,31100
2017-03-16,37.750000,38.200001,37.750000,38.099998,37.814026,30900
2017-03-17,38.099998,38.500000,37.805000,38.500000,38.211029,125000
2017-03-20,38.349998,38.450001,38.000000,38.150002,37.863659,26600
2017-03-21,38.349998,38.349998,36.549999,36.750000,36.474163,65900
2017-03-22,36.700001,36.700001,35.849998,36.049999,35.779415,69800
2017-03-23,36.000000,36.799999,35.849998,36.299999,36.027542,31900
2017-03-24,36.400002,36.950001,35.750000,36.849998,36.573414,51000
2017-03-27,36.299999,37.200001,36.005001,36.799999,36.523785,66000
2017-03-28,36.750000,37.549999,36.750000,37.349998,37.069656,48300
2017-03-29,37.200001,37.799999,37.200001,37.500000,37.218533,37300
2017-03-30,37.500000,38.849998,37.500000,38.750000,38.459152,33700
2017-03-31,38.750000,38.950001,38.500000,38.750000,38.459152,57800
2017-04-03,39.000000,39.000000,38.099998,38.650002,38.359905,41100
2017-04-04,38.349998,38.799999,37.900002,38.700001,38.409527,52200
2017-04-05,38.700001,39.400002,37.400002,37.599998,37.317780,87600
2017-04-06,37.700001,38.799999,37.500000,38.700001,38.409527,70000
2017-04-07,38.349998,38.849998,38.174999,38.450001,38.161404,45200
2017-04-10,38.450001,38.650002,37.799999,37.950001,37.665157,47000
2017-04-11,37.799999,38.625000,37.799999,38.500000,38.211029,45700
2017-04-12,38.349998,38.400002,37.500000,37.849998,37.565910,40300
2017-04-13,37.700001,38.200001,37.250000,37.349998,37.069656,41400
2017-04-17,37.500000,37.950001,37.049999,37.849998,37.565910,46800
2017-04-18,37.549999,38.250000,37.299999,38.099998,37.814026,45500
2017-04-19,38.250000,38.500000,37.799999,37.849998,37.565910,69300
2017-04-20,38.200001,38.549999,37.400002,38.000000,37.714783,91900
2017-04-21,37.849998,38.575001,37.799999,38.400002,38.111778,40800
2017-04-24,39.299999,39.799999,38.250000,39.049999,38.756905,58500
2017-04-25,39.400002,39.750000,38.849998,38.900002,38.608025,53000
2017-04-26,38.799999,39.299999,38.200001,38.500000,38.211029,110100
2017-04-27,38.599998,40.000000,38.599998,39.599998,39.302769,82500
2017-04-28,39.799999,40.900002,39.750000,40.549999,40.245640,114200
2017-05-01,40.700001,43.750000,40.500000,43.299999,42.974998,167500
2017-05-02,43.299999,43.500000,42.400002,43.250000,42.925377,160900
2017-05-03,43.049999,43.349998,42.549999,42.750000,42.429127,134900
2017-05-04,42.900002,43.200001,42.650002,42.849998,42.528378,72100
2017-05-05,42.950001,43.500000,42.400002,43.400002,43.074249,82300
2017-05-08,43.400002,43.849998,43.150002,43.750000,43.421619,62000
2017-05-09,43.750000,44.299999,42.950001,43.299999,42.974998,63300
2017-05-10,43.200001,43.299999,41.950001,42.000000,41.684757,48000
2017-05-11,41.849998,41.849998,40.860001,41.549999,41.238132,59000
2017-05-12,41.299999,41.299999,40.599998,40.750000,40.444145,88800
2017-05-15,40.750000,41.200001,40.349998,40.799999,40.493763,72500
2017-05-16,40.950001,41.125000,39.950001,41.000000,40.692261,78700
2017-05-17,40.250000,40.299999,39.200001,39.900002,39.600525,75400
2017-05-18,39.900002,40.650002,39.900002,40.200001,39.898270,42400
2017-05-19,40.400002,40.900002,40.000000,40.200001,39.898270,73700
2017-05-22,40.150002,40.500000,40.150002,40.299999,39.997513,23100
2017-05-23,40.500000,40.900002,40.200001,40.599998,40.295265,29600
2017-05-24,40.599998,41.099998,39.650002,40.000000,39.699764,31800
2017-05-25,40.400002,40.500000,39.500000,39.799999,39.501266,19200
2017-05-26,40.000000,40.000000,39.150002,39.700001,39.402020,44800
2017-05-30,39.549999,39.599998,38.849998,39.299999,39.005020,31600
2017-05-31,39.349998,39.469002,38.349998,39.000000,38.707275,133300
2017-06-01,39.049999,40.099998,38.799999,40.099998,39.799015,46200
2017-06-02,39.900002,41.150002,39.900002,40.250000,39.947895,74600
2017-06-05,40.150002,40.500000,39.799999,40.200001,39.898270,35500
2017-06-06,39.849998,40.250000,39.650002,39.799999,39.501266,30600
2017-06-07,39.799999,40.380001,39.750000,40.200001,39.898270,19500
2017-06-08,40.049999,41.500000,39.950001,40.549999,40.245640,61500
2017-06-09,40.700001,42.000000,40.650002,41.799999,41.486256,88800
2017-06-12,41.950001,42.500000,41.299999,41.700001,41.387009,95000
2017-06-13,42.000000,42.099998,41.599998,41.700001,41.387009,52400
2017-06-14,41.299999,42.099998,40.799999,42.000000,41.684757,62800
2017-06-15,41.849998,42.650002,41.650002,41.950001,41.635136,31300
2017-06-16,41.549999,41.849998,41.250000,41.349998,41.039635,80100
2017-06-19,41.650002,41.750000,41.200001,41.450001,41.138889,24200
2017-06-20,41.049999,41.150002,40.650002,40.650002,40.344894,28900
2017-06-21,40.650002,40.650002,40.000000,40.000000,39.699764,31500
2017-06-22,40.000000,40.150002,39.450001,39.650002,39.352398,138400
2017-06-23,39.650002,39.950001,39.400002,39.650002,39.352398,82600
2017-06-26,39.650002,40.349998,39.400002,40.349998,40.047142,37700
2017-06-27,40.549999,40.950001,40.174999,40.500000,40.196014,30300
2017-06-28,40.799999,41.400002,40.500000,41.049999,40.741894,46200
2017-06-29,41.750000,42.099998,41.099998,41.950001,41.635136,49200
2017-06-30,42.099998,42.200001,40.950001,41.250000,40.940388,33600
2017-07-03,41.299999,42.150002,41.299999,41.900002,41.585510,16800
2017-07-05,41.849998,42.049999,41.150002,41.849998,41.535885,40800
2017-07-06,41.799999,41.849998,40.950001,41.049999,40.741894,30600
2017-07-07,41.299999,41.849998,40.950001,41.700001,41.387009,29300
2017-07-10,41.450001,41.450001,40.450001,40.500000,40.196014,46500
2017-07-11,40.650002,40.700001,39.250000,39.500000,39.203522,134100
2017-07-12,39.299999,40.150002,38.549999,39.200001,38.905777,77800
2017-07-13,39.150002,39.400002,38.599998,39.200001,38.905777,62500
2017-07-14,38.950001,39.750000,38.849998,39.599998,39.302769,82500
2017-07-17,39.450001,40.099998,39.025002,39.900002,39.600525,67800
2017-07-18,39.799999,40.099998,39.700001,40.000000,39.699764,35900
2017-07-19,39.950001,40.611000,39.849998,40.150002,39.848640,43600
2017-07-20,40.150002,40.700001,39.549999,39.799999,39.501266,18800
2017-07-21,40.250000,40.250000,39.299999,39.349998,39.054649,28300
2017-07-24,39.450001,39.605999,39.000000,39.049999,38.756905,44300
2017-07-25,39.500000,39.945000,39.400002,39.549999,39.253147,33200
2017-07-26,39.549999,39.650002,39.099998,39.549999,39.253147,35700
2017-07-27,38.599998,39.049999,36.049999,36.150002,35.878670,188400
2017-07-28,35.950001,35.950001,34.200001,34.799999,34.538799,212600
2017-07-31,34.750000,35.000000,34.450001,34.549999,34.290672,91300
2017-08-01,34.650002,34.900002,34.349998,34.700001,34.439548,97000
2017-08-02,34.700001,34.900002,34.099998,34.500000,34.241051,72900
2017-08-03,34.349998,34.474998,34.000000,34.099998,33.844051,70400
2017-08-04,34.099998,35.400002,34.099998,35.250000,34.985424,60500
2017-08-07,35.650002,35.950001,34.900002,35.000000,34.737301,91900
2017-08-08,35.000000,35.599998,34.299999,34.400002,34.141804,102800
2017-08-09,34.099998,34.299999,33.299999,33.400002,33.149311,65700
2017-08-10,33.150002,33.200001,32.150002,32.250000,32.007942,204300
2017-08-11,32.000000,32.950001,31.750000,32.299999,32.057560,75800
2017-08-14,32.750000,33.750000,32.700001,33.700001,33.447052,39700
2017-08-15,33.900002,33.900002,33.000000,33.099998,32.851559,32400
2017-08-16,33.150002,34.016998,32.900002,33.250000,33.000435,57700
2017-08-17,33.000000,33.299999,32.200001,32.299999,32.057560,44100
2017-08-18,32.000000,32.750000,32.000000,32.299999,32.057560,44400
2017-08-21,32.150002,32.599998,31.750000,32.349998,32.107193,41900
2017-08-22,32.450001,32.599998,32.200001,32.250000,32.007942,36000
2017-08-23,32.049999,32.799999,32.049999,32.500000,32.256062,45000
2017-08-24,32.549999,32.849998,32.349998,32.750000,32.504185,48700
2017-08-25,32.799999,33.450001,32.674999,33.299999,33.050053,46500
2017-08-28,33.250000,33.250000,32.299999,32.349998,32.107193,46200
2017-08-29,32.049999,32.599998,31.900000,32.299999,32.057560,93700
2017-08-30,32.400002,32.549999,32.150002,32.349998,32.107193,58600
2017-08-31,32.400002,32.950001,32.250000,32.700001,32.454563,103000
2017-09-01,32.700001,33.450001,32.599998,33.150002,32.901184,54900
2017-09-05,32.799999,33.000000,31.700001,31.750000,31.511692,46500
2017-09-06,32.000000,32.549999,31.799999,31.900000,31.660566,79400
2017-09-07,31.900000,31.900000,30.299999,30.600000,30.370323,97200
2017-09-08,30.549999,31.500000,30.549999,31.200001,30.965822,40400
2017-09-11,31.650000,33.200001,31.350000,33.000000,32.752308,178400
2017-09-12,34.750000,35.000000,33.750000,34.000000,33.744801,183800
2017-09-13,34.200001,34.299999,33.500000,33.650002,33.397434,53100
2017-09-14,33.900002,33.900002,33.200001,33.450001,33.198933,53800
2017-09-15,33.299999,33.549999,32.799999,33.000000,32.752308,141800
2017-09-18,33.200001,33.849998,32.950001,33.650002,33.397434,49800
2017-09-19,33.650002,33.799999,33.000000,33.299999,33.050053,59300
2017-09-20,34.400002,35.000000,34.049999,34.549999,34.290672,198600
2017-09-21,34.650002,35.250000,34.400002,34.500000,34.241051,130900
2017-09-22,34.549999,35.549999,34.299999,34.950001,34.687675,56800
2017-09-25,34.950001,35.200001,34.700001,35.150002,34.886177,51000
2017-09-26,35.200001,35.250000,34.650002,34.750000,34.489178,93000
2017-09-27,35.250000,36.250000,34.849998,35.950001,35.680172,72800
2017-09-28,36.049999,36.150002,35.400002,36.000000,35.729794,52100
2017-09-29,35.900002,36.599998,35.549999,35.650002,35.382420,67300
2017-10-02,35.700001,36.400002,35.400002,36.299999,36.027542,70600
2017-10-03,35.049999,35.849998,34.500000,35.400002,35.134296,183500
2017-10-04,35.150002,35.750000,34.549999,34.650002,34.389931,66600
2017-10-05,34.450001,35.700001,34.349998,35.099998,34.836548,84700
2017-10-06,35.549999,35.575001,34.799999,34.950001,34.687675,70100
2017-10-09,35.150002,35.150002,34.549999,34.650002,34.389931,71400
2017-10-10,34.650002,34.875000,33.950001,34.000000,33.744801,156100
2017-10-11,33.900002,34.950001,33.799999,34.200001,33.943302,84800
2017-10-12,34.250000,34.250000,33.799999,34.049999,33.794430,59300
2017-10-13,34.049999,34.599998,33.950001,34.299999,34.042553,88400
2017-10-16,34.299999,35.044998,34.299999,34.450001,34.191429,45200
2017-10-17,34.450001,34.799999,34.299999,34.400002,34.141804,52400
2017-10-18,34.500000,35.150002,34.349998,34.849998,34.588421,97900
2017-10-19,34.900002,34.900002,34.349998,34.700001,34.439548,46600
2017-10-20,35.200001,35.200001,34.509998,34.799999,34.538799,51200
2017-10-23,34.799999,34.849998,34.000000,34.349998,34.092178,113800
2017-10-24,34.400002,34.755001,34.099998,34.250000,33.992931,75400
2017-10-25,34.250000,34.750000,33.900002,34.450001,34.191429,67900
2017-10-26,34.349998,36.099998,34.349998,36.049999,35.779415,167300
2017-10-27,36.049999,36.200001,35.450001,36.099998,35.829041,114000
2017-10-30,35.849998,35.950001,34.799999,34.849998,34.588421,71500
2017-10-31,34.650002,35.200001,34.250000,34.299999,34.042553,65200
2017-11-01,34.450001,35.000000,34.099998,34.200001,33.943302,56500
2017-11-02,34.099998,34.599998,33.849998,34.450001,34.191429,107800
2017-11-03,34.450001,34.450001,33.700001,33.799999,33.546307,57600
2017-11-06,33.750000,33.950001,33.500000,33.700001,33.447052,60300
2017-11-07,33.700001,33.750000,32.049999,32.400002,32.156815,152900
2017-11-08,32.200001,32.500000,31.799999,31.950001,31.710190,155800
2017-11-09,31.650000,32.299999,31.500000,32.000000,31.759815,72000
2017-11-10,32.186001,32.875000,32.000000,32.150002,31.908689,62200
2017-11-13,32.000000,32.380001,31.725000,32.250000,32.007942,58500
2017-11-14,32.200001,32.900002,32.099998,32.799999,32.553810,64400
2017-11-15,32.349998,33.250000,32.200001,33.000000,32.752308,56900
2017-11-16,33.150002,33.150002,32.849998,33.000000,32.752308,41300
2017-11-17,32.799999,33.200001,32.500000,33.150002,32.901184,39000
2017-11-20,33.150002,33.750000,32.924999,33.750000,33.496681,55300
2017-11-21,34.000000,34.650002,33.450001,34.349998,34.092178,112700
2017-11-22,34.549999,34.549999,34.049999,34.200001,33.943302,70500
2017-11-24,34.299999,34.299999,33.599998,33.750000,33.496681,35400
2017-11-27,33.750000,34.450001,33.549999,34.099998,33.844051,70700
2017-11-28,34.250000,34.400002,33.750000,34.250000,33.992931,69800
2017-11-29,34.500000,35.450001,34.500000,35.099998,34.836548,111800
2017-11-30,35.400002,35.400002,34.799999,34.950001,34.687675,86100
2017-12-01,35.049999,35.049999,33.400002,34.700001,34.439548,55300
2017-12-04,35.299999,35.612999,34.450001,34.549999,34.290672,71500
2017-12-05,34.599998,34.599998,34.150002,34.250000,33.992931,70900
2017-12-06,34.200001,34.400002,33.500000,33.549999,33.298183,65300
2017-12-07,33.500000,33.694000,33.049999,33.450001,33.198933,73400
2017-12-08,33.599998,33.900002,33.099998,33.700001,33.447052,70900
2017-12-11,33.700001,34.000000,33.174999,33.599998,33.347805,91700
2017-12-12,33.700001,34.195000,33.650002,34.000000,33.744801,43200
2017-12-13,33.950001,34.700001,33.674999,33.900002,33.645557,79400
2017-12-14,33.950001,34.700001,33.549999,34.000000,33.744801,131400
2017-12-15,34.049999,35.500000,34.049999,35.099998,34.836548,534800
2017-12-18,35.450001,35.900002,34.549999,35.000000,34.737301,56800
2017-12-19,35.049999,35.099998,34.450001,34.750000,34.489178,51900
2017-12-20,35.000000,35.075001,34.200001,34.750000,34.489178,34500
2017-12-21,34.799999,35.150002,34.349998,34.799999,34.538799,39200
2017-12-22,34.750000,34.950001,34.099998,34.250000,33.992931,53100
2017-12-26,34.150002,34.250000,33.700001,33.900002,33.645557,50400
2017-12-27,33.750000,34.299999,33.555000,34.000000,33.744801,48200
2017-12-28,34.049999,34.450001,33.771999,34.200001,33.943302,43900
2017-12-29,34.200001,34.474998,33.900002,34.099998,33.844051,92900
2018-01-02,34.349998,34.450001,33.599998,33.799999,33.546307,99200
2018-01-03,33.799999,34.000000,33.500000,33.799999,33.546307,114400
2018-01-04,33.950001,34.349998,33.750000,33.950001,33.695183,149000
2018-01-05,34.400002,35.500000,34.349998,35.250000,34.985424,252300
2018-01-08,35.299999,35.299999,34.450001,34.849998,34.588421,102600
2018-01-09,34.849998,35.299999,34.450001,34.500000,34.241051,63500
2018-01-10,34.450001,35.549999,34.200001,35.299999,35.035046,91300
2018-01-11,35.450001,36.349998,35.349998,36.200001,35.928291,112600
2018-01-12,36.200001,36.950001,35.849998,36.400002,36.126793,67800
2018-01-16,36.500000,36.650002,36.299999,36.400002,36.126793,102400
2018-01-17,36.549999,37.195000,36.000000,37.049999,36.771912,61900
2018-01-18,37.099998,37.099998,36.325001,36.849998,36.573414,73800
2018-01-19,36.849998,37.799999,36.849998,37.700001,37.417034,74900
2018-01-22,37.549999,37.900002,37.450001,37.750000,37.466656,67500
2018-01-23,37.599998,37.950001,37.020000,37.349998,37.069656,38600
2018-01-24,37.599998,37.599998,37.250000,37.349998,37.069656,55900
2018-01-25,36.400002,36.400002,33.500000,34.049999,33.794430,382600
2018-01-26,33.799999,33.849998,32.700001,33.150002,32.901184,421300
2018-01-29,32.950001,33.099998,32.549999,32.599998,32.355309,139900
2018-01-30,32.450001,32.849998,32.250000,32.599998,32.355309,113100
2018-01-31,32.599998,32.799999,32.099998,32.250000,32.007942,161300
2018-02-01,32.250000,33.150002,32.049999,33.099998,32.851559,77200
2018-02-02,33.099998,33.450001,32.849998,33.049999,32.801941,132000
2018-02-05,32.599998,33.150002,32.000000,32.000000,31.759815,221900
2018-02-06,31.350000,32.794998,31.350000,31.700001,31.462069,324000
2018-02-07,31.500000,31.950001,31.299999,31.799999,31.561316,74300
2018-02-08,31.799999,31.799999,31.150000,31.200001,30.965822,98800
2018-02-09,31.400000,32.049999,30.850000,31.650000,31.412443,92100
2018-02-12,31.799999,31.900000,31.400000,31.600000,31.362816,146000
2018-02-13,31.549999,31.950001,31.200001,31.400000,31.164318,124300
2018-02-14,31.350000,31.799999,31.139000,31.500000,31.263569,92300
2018-02-15,31.799999,31.799999,31.000000,31.400000,31.164318,120000
2018-02-16,31.450001,32.750000,31.450001,32.599998,32.355309,139400
2018-02-20,32.549999,32.650002,31.600000,31.750000,31.511692,41200
2018-02-21,31.950001,33.049999,31.950001,32.500000,32.256062,50200
2018-02-22,32.549999,32.700001,31.799999,31.900000,31.660566,33100
2018-02-23,32.049999,32.049999,31.650000,31.900000,31.660566,34100
2018-02-26,32.000000,32.049999,31.655001,32.049999,31.809441,67500
2018-02-27,32.000000,32.549999,31.750000,31.799999,31.561316,87400
2018-02-28,31.799999,31.799999,31.000000,31.049999,30.816948,77100
2018-03-01,31.000000,31.350000,30.799999,31.100000,30.866570,47500
2018-03-02,31.000000,32.099998,30.799999,31.900000,31.660566,42500
2018-03-05,31.799999,32.650002,31.275000,32.049999,31.809441,84000
2018-03-06,32.200001,32.549999,31.700001,32.500000,32.256062,53600
2018-03-07,32.250000,33.599998,32.055000,33.299999,33.050053,48500
2018-03-08,33.349998,33.450001,32.625000,32.950001,32.702686,28300
2018-03-09,33.000000,33.549999,32.900002,33.349998,33.099682,38900
2018-03-12,33.450001,33.950001,33.189999,33.750000,33.496681,47000
2018-03-13,33.900002,33.900002,33.299999,33.549999,33.298183,54400
2018-03-14,33.700001,33.700001,32.599998,32.799999,32.553810,51200
2018-03-15,32.750000,32.849998,32.200001,32.849998,32.603432,46000
2018-03-16,32.799999,33.450001,32.700001,33.150002,32.901184,154400
2018-03-19,33.099998,33.750000,32.750000,33.599998,33.347805,66800
2018-03-20,33.700001,33.700001,33.049999,33.349998,33.099682,46400
2018-03-21,33.349998,33.799999,33.200001,33.400002,33.149311,34600
2018-03-22,33.099998,33.299999,32.500000,32.549999,32.305691,48000
2018-03-23,32.650002,32.650002,31.450001,31.500000,31.263569,73900
2018-03-26,31.950001,33.099998,31.750000,32.849998,32.603432,66000
2018-03-27,32.900002,33.299999,32.049999,32.250000,32.007942,60700
2018-03-28,32.299999,32.549999,31.850000,32.299999,32.057560,269200
2018-03-29,32.549999,33.549999,32.474998,32.599998,32.355309,67200
2018-04-02,32.599998,32.849998,31.549999,32.150002,31.908689,45300
2018-04-03,32.299999,32.599998,31.950001,32.450001,32.206436,47500
2018-04-04,32.099998,32.799999,32.099998,32.700001,32.454563,39800
2018-04-05,32.900002,33.299999,32.500000,32.700001,32.454563,46100
2018-04-06,32.549999,32.900002,31.750000,32.099998,31.859064,43900
2018-04-09,32.250000,32.724998,31.900000,32.000000,31.759815,38900
2018-04-10,32.250000,32.549999,32.099998,32.349998,32.107193,69700
2018-04-11,32.200001,32.549999,32.200001,32.349998,32.107193,23500
2018-04-12,32.450001,33.150002,32.400002,32.849998,32.603432,125500
2018-04-13,33.049999,33.299999,32.599998,32.950001,32.702686,55900
2018-04-16,33.000000,33.450001,32.862000,33.099998,32.851559,56300
2018-04-17,33.299999,33.500000,32.549999,32.750000,32.504185,55800
2018-04-18,32.950001,33.650002,32.849998,33.049999,32.801941,57100
2018-04-19,33.049999,33.599998,32.900002,33.500000,33.248558,80300
2018-04-20,33.500000,34.150002,33.500000,33.900002,33.645557,50500
2018-04-23,34.000000,34.200001,33.799999,34.099998,33.844051,34400
2018-04-24,34.250000,34.400002,33.750000,34.099998,33.844051,41900
2018-04-25,34.099998,34.349998,33.750000,34.000000,33.744801,43100
2018-04-26,34.349998,36.750000,33.849998,34.299999,34.042553,217100
2018-04-27,34.450001,35.049999,34.200001,34.299999,34.042553,100800
2018-04-30,34.599998,34.599998,33.400002,33.700001,33.447052,75600
2018-05-01,33.700001,33.900002,32.900002,33.849998,33.595928,29600
2018-05-02,33.950001,34.450001,33.750000,33.950001,33.695183,33500
2018-05-03,33.950001,34.049999,33.150002,33.200001,32.950813,31200
2018-05-04,33.150002,34.500000,33.049999,34.000000,33.744801,43300
2018-05-07,34.049999,34.450001,33.750000,34.150002,33.893677,29100
2018-05-08,34.200001,34.450001,34.000000,34.450001,34.191429,33800
2018-05-09,34.500000,35.000000,34.099998,34.849998,34.588421,35200
2018-05-10,34.900002,34.900002,34.400002,34.549999,34.290672,26800
2018-05-11,34.500000,34.900002,34.400002,34.549999,34.290672,27500
2018-05-14,34.549999,34.750000,34.049999,34.150002,33.893677,33700
2018-05-15,34.049999,34.549999,34.049999,34.349998,34.092178,37600
2018-05-16,34.650002,35.299999,34.349998,35.099998,34.836548,49600
2018-05-17,34.849998,35.500000,34.849998,35.150002,34.886177,51500
2018-05-18,35.299999,35.299999,35.000000,35.000000,34.737301,32800
2018-05-21,35.150002,35.900002,35.099998,35.750000,35.481667,38500
2018-05-22,35.799999,36.500000,35.799999,36.150002,35.878670,37700
2018-05-23,36.099998,36.200001,35.750000,36.000000,35.729794,29400
2018-05-24,35.799999,36.099998,35.299999,36.000000,35.729794,31400
2018-05-25,35.950001,36.150002,35.750000,35.950001,35.680172,28600
2018-05-29,35.750000,36.099998,35.299999,35.950001,35.680172,46500
2018-05-30,36.250000,36.950001,36.200001,36.500000,36.226036,45700
2018-05-31,36.400002,36.849998,36.099998,36.549999,36.275665,106200
2018-06-01,36.700001,37.099998,35.900002,36.049999,35.779415,52400
2018-06-04,35.900002,36.049999,35.299999,35.950001,35.680172,96200
2018-06-05,35.950001,36.599998,35.950001,36.549999,36.275665,52800
2018-06-06,36.549999,37.099998,36.500000,37.000000,36.722290,72800
2018-06-07,37.700001,37.799999,37.099998,37.500000,37.218533,79300
2018-06-08,37.500000,37.950001,37.049999,37.500000,37.218533,97400
2018-06-11,39.599998,40.299999,39.200001,39.400002,39.104271,615300
2018-06-12,38.700001,39.500000,38.049999,38.200001,37.913277,404500
2018-06-13,38.200001,38.400002,37.900002,38.349998,38.062157,337400
2018-06-14,37.849998,38.349998,37.400002,37.950001,37.665157,352900
2018-06-15,37.849998,38.224998,37.349998,37.950001,37.665157,2147700
2018-06-18,37.549999,38.474998,37.400002,38.099998,37.814026,222800
2018-06-19,37.700001,39.000000,37.700001,38.900002,38.608025,288200
2018-06-20,38.900002,39.700001,38.775002,38.950001,38.657650,192500
2018-06-21,38.900002,39.000000,38.099998,38.150002,37.863659,165800
2018-06-22,38.400002,38.950001,37.974998,38.799999,38.508774,334800
2018-06-25,38.650002,39.250000,38.150002,38.700001,38.409527,206400
2018-06-26,38.900002,38.950001,38.150002,38.500000,38.211029,139100
2018-06-27,38.549999,38.650002,38.049999,38.250000,37.962906,157500
2018-06-28,38.200001,38.500000,37.950001,38.000000,37.714783,114300
2018-06-29,38.099998,38.299999,37.549999,37.599998,37.317780,130800
2018-07-02,37.400002,38.950001,37.349998,38.849998,38.558399,121000
2018-07-03,38.900002,39.000000,38.200001,38.349998,38.062157,64400
2018-07-05,38.549999,38.599998,38.200001,38.450001,38.161404,107000
2018-07-06,38.349998,38.650002,38.299999,38.450001,38.161404,146000
2018-07-09,38.650002,38.750000,38.500000,38.750000,38.459152,186800
2018-07-10,38.799999,38.849998,38.099998,38.400002,38.111778,97300
2018-07-11,38.349998,38.349998,37.849998,37.900002,37.615532,83800
2018-07-12,38.250000,38.250000,36.750000,36.849998,36.573414,234800
2018-07-13,36.849998,37.000000,36.200001,36.250000,35.977921,133400
2018-07-16,36.299999,36.500000,36.049999,36.400002,36.126793,95300
2018-07-17,36.349998,36.650002,35.900002,36.000000,35.729794,104400
2018-07-18,36.200001,36.700001,35.735001,36.650002,36.374916,177100
2018-07-19,36.650002,36.799999,36.349998,36.549999,36.275665,66600
2018-07-20,36.549999,36.750000,36.400002,36.700001,36.424541,58600
2018-07-23,36.750000,37.500000,36.700001,37.200001,36.920784,124300
2018-07-24,37.349998,37.349998,36.599998,37.049999,36.771912,76300
2018-07-25,36.950001,37.099998,36.599998,37.049999,36.771912,98700
2018-07-26,37.500000,38.200001,36.605000,37.750000,37.466656,167600
2018-07-27,38.049999,38.549999,37.650002,38.400002,38.111778,191700
2018-07-30,38.450001,39.250000,38.400002,38.599998,38.310272,144900
2018-07-31,38.750000,39.250000,38.349998,39.150002,38.856152,135900
2018-08-01,39.299999,39.544998,38.849998,39.450001,39.153900,174600
2018-08-02,39.250000,39.599998,39.200001,39.299999,39.005020,98000
2018-08-03,39.450001,39.549999,38.250000,38.349998,38.062157,81900
2018-08-06,38.349998,38.450001,38.099998,38.250000,37.962906,50000
2018-08-07,38.349998,38.549999,38.099998,38.349998,38.062157,67200
2018-08-08,38.250000,38.875000,38.200001,38.700001,38.409527,132500
2018-08-09,38.700001,38.799999,38.250000,38.299999,38.012527,59200
2018-08-10,38.150002,38.400002,37.849998,38.250000,37.962906,105000
2018-08-13,38.349998,38.400002,37.950001,38.150002,37.863659,113300
2018-08-14,38.099998,39.099998,38.099998,39.000000,38.707275,69900
2018-08-15,38.900002,39.150002,38.450001,38.500000,38.211029,64000
2018-08-16,38.349998,39.125000,38.349998,38.849998,38.558399,62600
2018-08-17,38.700001,39.299999,38.650002,39.250000,38.955399,60000
2018-08-20,39.299999,39.599998,38.299999,38.400002,38.111778,103200
2018-08-21,38.500000,39.200001,38.500000,38.849998,38.558399,151300
2018-08-22,38.750000,38.849998,38.349998,38.700001,38.409527,128100
2018-08-23,38.750000,38.799999,38.400002,38.500000,38.211029,104700
2018-08-24,38.500000,38.650002,38.250000,38.349998,38.062157,114900
2018-08-27,38.500000,38.700001,38.049999,38.250000,37.962906,82500
2018-08-28,38.200001,38.599998,38.150002,38.450001,38.161404,83400
2018-08-29,38.450001,38.450001,38.049999,38.150002,37.863659,120400
2018-08-30,38.099998,39.200001,38.049999,38.750000,38.459152,105600
2018-08-31,38.599998,38.849998,38.500000,38.650002,38.359905,81200
2018-09-04,38.700001,39.049999,38.450001,39.000000,38.707275,80500
2018-09-05,38.950001,39.500000,38.849998,38.900002,38.608025,65200
2018-09-06,38.900002,39.400002,38.900002,39.299999,39.005020,79900
2018-09-07,39.299999,39.799999,39.099998,39.799999,39.501266,89400
2018-09-10,39.900002,40.000000,39.549999,39.849998,39.550892,72200
2018-09-11,39.750000,40.349998,39.650002,40.099998,39.799015,75700
2018-09-12,40.000000,40.200001,39.849998,40.000000,39.699764,131300
2018-09-13,40.150002,40.150002,39.900002,40.049999,39.749397,142100
2018-09-14,40.049999,40.400002,39.849998,40.400002,40.096767,75500
2018-09-17,40.299999,40.799999,39.900002,40.150002,39.848640,81300
2018-09-18,40.250000,40.450001,39.950001,40.250000,39.947895,55700
2018-09-19,40.200001,40.900002,40.200001,40.500000,40.196014,77900
2018-09-20,40.750000,41.150002,40.750000,41.099998,40.791512,80400
2018-09-21,41.200001,41.500000,40.700001,41.200001,40.890762,455200
2018-09-24,41.299999,41.400002,39.950001,40.200001,39.898270,84700
2018-09-25,40.400002,40.400002,39.950001,40.250000,39.947895,42400
2018-09-26,40.299999,40.400002,39.349998,39.500000,39.203522,107500
2018-09-27,39.599998,39.650002,38.849998,38.950001,38.657650,67900
2018-09-28,38.849998,39.250000,38.799999,39.099998,38.806522,66900
2018-10-01,39.250000,39.299999,37.669998,37.959999,37.675083,64700
2018-10-02,37.910000,38.215000,37.261002,37.820000,37.536133,73300
2018-10-03,38.000000,39.009998,37.630001,38.880001,38.588177,71800
2018-10-04,38.910000,39.334999,38.470001,38.650002,38.359905,43100
2018-10-05,38.660000,38.669998,38.080002,38.369999,38.082001,41400
2018-10-08,38.419998,39.160000,38.169998,39.060001,38.766827,59100
2018-10-09,39.090000,39.689999,38.509998,39.490002,39.193604,80900
2018-10-10,39.450001,40.525002,39.250000,39.490002,39.193604,119100
2018-10-11,39.349998,39.577999,37.869999,37.980000,37.694931,92500
2018-10-12,38.509998,38.509998,35.580002,36.779999,36.503941,103400
2018-10-15,36.680000,37.689999,36.580002,37.410000,37.129215,65200
2018-10-16,37.650002,38.090000,36.840000,37.980000,37.694931,55400
2018-10-17,37.910000,38.570000,37.320000,38.410000,38.121708,68200
2018-10-18,38.270000,38.654999,37.610001,37.669998,37.387253,41500
2018-10-19,37.580002,38.220001,37.099998,37.180000,36.900940,86300
2018-10-22,37.130001,37.240002,35.660000,35.820000,35.551144,96900
2018-10-23,35.389999,36.098000,35.169998,35.900002,35.630543,119500
2018-10-24,35.849998,35.955002,33.610001,33.849998,33.595928,67000
2018-10-25,34.150002,34.230000,32.580002,33.099998,32.851559,176800
2018-10-26,32.700001,33.849998,32.450001,33.119999,32.871410,163300
2018-10-29,33.470001,34.799999,33.470001,34.450001,34.191429,144600
2018-10-30,34.430000,34.980000,33.660000,34.200001,33.943302,56100
2018-10-31,34.480000,34.730000,33.180000,33.900002,33.645557,80000
2018-11-01,33.970001,34.299999,33.560001,33.599998,33.347805,53200
2018-11-02,33.689999,34.070000,33.480000,33.970001,33.715031,54100
2018-11-05,33.900002,34.270000,33.490002,33.750000,33.496681,48800
2018-11-06,33.540001,33.889999,33.419998,33.830002,33.576088,130600
2018-11-07,34.060001,34.340000,33.160000,33.700001,33.447052,81800
2018-11-08,33.660000,34.900002,33.529999,34.610001,34.350227,73800
2018-11-09,34.410000,35.020000,33.680000,34.020000,33.764656,46600
2018-11-12,34.160000,34.730000,33.779999,34.150002,33.893677,69700
2018-11-13,34.090000,34.990002,33.889999,34.200001,33.943302,60800
2018-11-14,34.439999,34.939999,33.490002,33.590000,33.337883,70400
2018-11-15,33.529999,34.160000,33.130001,33.849998,33.595928,100100
2018-11-16,33.740002,34.310001,33.330002,34.180000,33.923458,83400
2018-11-19,34.150002,34.910000,33.930000,34.279999,34.022705,98200
2018-11-20,33.990002,34.240002,32.810001,33.029999,32.782085,96900
2018-11-21,33.110001,33.590000,32.400002,33.130001,32.881340,75000
2018-11-23,33.000000,33.450001,32.750000,33.220001,32.970657,39100
2018-11-26,33.389999,34.150002,33.160000,33.759998,33.506607,80800
2018-11-27,33.610001,33.660000,32.310001,33.560001,33.308105,138200
2018-11-28,33.720001,34.500000,32.919998,34.369999,34.112026,85600
2018-11-29,34.310001,34.310001,33.730000,33.779999,33.526451,44100
2018-11-30,33.650002,34.029999,33.389999,33.700001,33.447052,112600
2018-12-03,33.849998,33.924999,32.660000,33.009998,32.762230,70200
2018-12-04,32.619999,32.990002,29.940001,30.070000,29.844303,187600
2018-12-06,29.760000,29.980000,29.000000,29.520000,29.298429,179300
2018-12-07,29.469999,29.750000,28.730000,29.200001,28.980831,217500
2018-12-10,29.230000,29.230000,28.230000,28.969999,28.752558,95700
2018-12-11,29.240000,29.320000,28.410000,28.639999,28.425034,61100
2018-12-12,28.969999,29.570000,28.315001,29.200001,28.980831,91000
2018-12-13,29.280001,29.430000,28.110001,28.180000,27.968487,49500
2018-12-14,27.830000,28.410000,27.240000,27.299999,27.095093,63400
2018-12-17,27.290001,28.080000,27.212000,27.760000,27.551640,69000
2018-12-18,27.840000,28.250000,27.260000,27.290001,27.085167,118700
2018-12-19,27.230000,27.379999,25.920000,26.030001,25.834625,92500
2018-12-20,26.000000,26.490000,25.898001,26.150000,25.953722,79000
2018-12-21,26.180000,26.650000,25.629999,25.860001,25.665901,248300
2018-12-24,25.700001,26.240000,25.459999,25.549999,25.358227,32200
2018-12-26,25.549999,26.820000,25.500000,26.770000,26.569069,105200
2018-12-27,26.469999,26.780001,25.245001,26.250000,26.052975,99600
2018-12-28,26.400000,27.030001,26.311001,26.580000,26.380495,159200
2018-12-31,26.770000,26.770000,26.059999,26.370001,26.172073,105500
2019-01-02,25.940001,27.245001,25.940001,26.990000,26.787420,96600
2019-01-03,26.990000,27.850000,26.690001,27.350000,27.144720,135500
2019-01-04,27.850000,28.530001,27.450001,28.440001,28.226538,98200
2019-01-07,28.340000,28.590000,28.080000,28.330000,28.117361,53000
2019-01-08,28.590000,28.590000,28.010000,28.559999,28.345634,44600
2019-01-09,28.410000,28.500000,27.870001,28.370001,28.157061,54600
2019-01-10,28.320000,28.440001,27.830000,27.959999,27.750135,76900
2019-01-11,27.809999,27.993000,27.490000,27.910000,27.700514,50100
2019-01-14,27.780001,28.120001,27.680000,27.719999,27.511940,49100
2019-01-15,27.809999,27.980000,27.440001,27.950001,27.740215,42100
2019-01-16,28.120001,29.049999,28.010000,28.980000,28.762482,121000
2019-01-17,28.820000,28.879999,28.170000,28.330000,28.117361,67400
2019-01-18,28.450001,28.670000,28.250000,28.530001,28.315861,54500
2019-01-22,28.240000,28.940001,27.950001,28.110001,27.899012,64800
2019-01-23,28.110001,28.309999,27.544001,27.780001,27.571491,37600
2019-01-24,28.020000,30.209999,27.900000,29.750000,29.526705,342700
2019-01-25,30.280001,30.790001,29.469999,30.250000,30.022951,167800
2019-01-28,30.590000,32.000000,30.370001,31.990000,31.749887,110300
2019-01-29,32.150002,33.200001,32.070000,32.779999,32.533955,118700
2019-01-30,33.410000,33.430000,32.349998,32.580002,32.335464,86600
2019-01-31,32.450001,32.505001,31.100000,31.870001,31.630793,98700
2019-02-01,31.930000,32.090000,31.719999,31.950001,31.710190,83000
2019-02-04,32.279999,32.770000,32.009998,32.490002,32.246140,117400
2019-02-05,32.570000,32.619999,32.000000,32.150002,31.908689,73200
2019-02-06,32.119999,32.264999,31.950001,32.020000,31.779665,69400
2019-02-07,32.139999,32.360001,31.910000,32.240002,31.998014,137000
2019-02-08,32.080002,32.395000,31.719999,32.070000,31.829290,91100
2019-02-11,32.060001,32.700001,31.879999,32.660000,32.414864,45900
2019-02-12,32.770000,33.180000,32.759998,33.110001,32.861485,61000
2019-02-13,33.110001,33.619999,33.110001,33.380001,33.129456,64100
2019-02-14,33.020000,33.500000,32.959999,33.230000,33.020153,76700
2019-02-15,33.509998,34.270000,33.400002,34.130001,33.914471,84300
2019-02-19,34.389999,35.169998,34.200001,34.619999,34.401371,96800
2019-02-20,34.650002,34.680000,34.090000,34.560001,34.341755,140000
2019-02-21,34.369999,34.650002,33.849998,33.970001,33.755482,55700
2019-02-22,34.049999,34.049999,33.509998,33.980000,33.765415,72200
2019-02-25,34.209999,34.290001,33.520000,33.540001,33.328197,31900
2019-02-26,33.480000,33.689999,32.990002,33.000000,32.791603,46800
2019-02-27,32.980000,33.105000,32.790001,32.889999,32.682301,78200
2019-02-28,32.930000,33.064999,32.700001,32.799999,32.592869,70400
2019-03-01,32.980000,33.340000,32.689999,33.279999,33.069836,80800
2019-03-04,33.119999,33.389999,32.590000,32.610001,32.404068,48300
2019-03-05,32.599998,33.130001,32.220001,32.869999,32.662430,57500
2019-03-06,32.779999,32.820000,31.650000,31.650000,31.450129,53200
2019-03-07,31.270000,31.750000,31.049999,31.180000,30.983099,45400
2019-03-08,31.010000,31.320000,30.924999,31.110001,30.913542,46300
2019-03-11,30.950001,30.950001,29.500000,29.990000,29.800615,231200
2019-03-12,30.209999,30.305000,29.750000,30.090000,29.899981,139900
2019-03-13,30.280001,30.860001,30.080000,30.709999,30.516068,105900
2019-03-14,30.740000,31.000000,30.650000,30.900000,30.704866,44500
2019-03-15,30.920000,31.180000,30.764999,30.870001,30.675056,122700
2019-03-18,30.910000,31.250000,30.870001,31.139999,30.943350,54100
2019-03-19,31.320000,31.320000,29.820000,29.950001,29.760868,41800
2019-03-20,29.760000,30.010000,29.240000,29.240000,29.055349,96500
2019-03-21,29.100000,29.459999,28.620001,28.730000,28.548571,111000
2019-03-22,28.450001,28.459999,27.250000,27.490000,27.316402,72300
2019-03-25,27.469999,27.969999,27.180000,27.650000,27.475389,43900
2019-03-26,27.790001,28.889999,27.700001,28.709999,28.528696,73700
2019-03-27,28.500000,29.270000,28.330000,29.090000,28.906296,67900
2019-03-28,29.150000,29.370001,28.770000,29.230000,29.045414,38000
2019-03-29,29.540001,29.610001,28.726000,29.010000,28.826803,51900
2019-04-01,29.290001,29.920000,29.000000,29.879999,29.691307,90800
2019-04-02,29.870001,30.110001,29.549999,29.600000,29.413076,40200
2019-04-03,29.889999,29.940001,29.459999,29.549999,29.363392,31200
2019-04-04,29.450001,30.230000,29.420000,30.150000,29.959602,39300
2019-04-05,30.129999,30.480000,29.860001,30.250000,30.058971,47300
2019-04-08,30.000000,30.120001,27.400000,27.750000,27.574759,358100
2019-04-09,27.639999,28.510000,27.049999,27.639999,27.465452,250300
2019-04-10,27.490000,27.730000,26.719999,27.389999,27.217030,165100
2019-04-11,27.350000,28.160000,27.350000,28.110001,27.932486,80200
2019-04-12,28.340000,28.549999,27.590000,27.889999,27.713875,67200
2019-04-15,27.840000,27.879999,27.150000,27.520000,27.346212,53000
2019-04-16,27.520000,28.340000,27.490999,28.160000,27.982170,61100
2019-04-17,28.290001,28.540001,27.770000,28.290001,28.111349,89200
2019-04-18,28.139999,28.230000,27.855000,27.990000,27.813244,70500
2019-04-22,27.760000,28.010000,27.760000,27.840000,27.664190,78600
2019-04-23,27.799999,28.389999,27.709999,28.230000,28.051729,66800
2019-04-24,28.139999,28.440001,27.760000,28.360001,28.180908,55800
2019-04-25,27.820000,28.600000,27.820000,28.410000,28.230589,128300
2019-04-26,28.250000,29.000000,28.250000,28.930000,28.747309,67400
2019-04-29,28.799999,29.629999,28.799999,29.090000,28.906296,65100
2019-04-30,28.980000,29.000000,27.580000,27.650000,27.475389,122600
2019-05-01,27.719999,27.930000,27.049999,27.490000,27.316402,154200
2019-05-02,27.469999,28.180000,27.360001,28.080000,27.902676,60200
2019-05-03,28.120001,28.980000,28.090000,28.870001,28.687689,44800
2019-05-06,28.450001,29.080000,28.360001,28.860001,28.677750,42600
2019-05-07,28.580000,28.632999,27.790001,27.910000,27.733749,48600
2019-05-08,27.690001,28.100000,27.420000,27.450001,27.276655,51600
2019-05-09,27.500000,28.215000,27.340000,27.860001,27.684065,72600
2019-05-10,27.700001,27.820000,27.250000,27.790001,27.614508,45800
2019-05-13,27.299999,27.350000,26.091000,26.219999,26.054420,67400
2019-05-14,26.250000,26.990000,26.150000,26.910000,26.780920,53800
2019-05-15,26.740000,27.030001,26.309999,26.969999,26.840633,56200
2019-05-16,27.049999,27.254999,27.000000,27.180000,27.049625,57100
2019-05-17,27.940001,28.177000,27.530001,27.770000,27.636795,111800
2019-05-20,27.680000,27.990000,27.580000,27.700001,27.567133,80700
2019-05-21,27.879999,28.030001,27.745001,27.969999,27.835835,46500
2019-05-22,27.809999,27.990000,27.719999,27.889999,27.756220,43400
2019-05-23,27.520000,27.570000,27.280001,27.540001,27.407898,83800
2019-05-24,27.709999,28.120001,27.660000,28.049999,27.915451,38600
2019-05-28,28.139999,28.139999,27.559999,27.670000,27.537275,88800
2019-05-29,27.500000,27.930000,27.040001,27.799999,27.666649,50000
2019-05-30,27.799999,27.847000,26.980000,27.180000,27.049625,75400
2019-05-31,26.760000,26.858999,26.129999,26.250000,26.124086,64300
2019-06-03,26.250000,26.639999,26.059999,26.379999,26.253462,76900
2019-06-04,26.719999,27.330000,26.660000,27.299999,27.169048,57400
2019-06-05,27.209999,27.690001,26.740000,27.260000,27.129242,56000
2019-06-06,27.260000,27.490000,27.090000,27.250000,27.119289,52500
2019-06-07,27.230000,27.360001,27.056999,27.160000,27.029722,32900
2019-06-10,27.309999,27.799999,27.209999,27.250000,27.119289,32700
2019-06-11,27.410000,27.770000,27.155001,27.340000,27.208858,45800
2019-06-12,27.250000,27.459999,26.969999,27.010000,26.880442,62200
2019-06-13,27.090000,27.280001,26.809999,27.020000,26.890392,82500
2019-06-14,27.020000,27.350000,26.950001,27.040001,26.910299,62900
2019-06-17,27.040001,27.280001,26.920000,27.020000,26.890392,69700
2019-06-18,27.020000,27.868999,27.020000,27.450001,27.318331,39300
2019-06-19,27.480000,27.969999,27.120001,27.230000,27.099386,33400
2019-06-20,27.480000,27.480000,26.969999,27.250000,27.119289,27100
2019-06-21,27.049999,27.459999,26.959999,27.020000,26.890392,59200
2019-06-24,26.950001,27.459999,26.950001,27.100000,26.970009,124700
2019-06-25,27.080000,27.730000,26.950001,27.549999,27.417850,48500
2019-06-26,27.570000,27.850000,27.209999,27.240000,27.109335,53700
2019-06-27,27.209999,27.650000,27.180000,27.629999,27.497465,40200
2019-06-28,27.799999,28.150000,27.680000,27.860001,27.726364,130600
2019-07-01,28.049999,28.450001,27.719999,28.379999,28.243870,55800
2019-07-02,28.379999,28.379999,27.790001,28.010000,27.875645,47400
2019-07-03,28.059999,28.450001,28.049999,28.190001,28.054781,25900
2019-07-05,28.360001,28.670000,28.160000,28.650000,28.512575,35400
2019-07-08,28.480000,28.549999,28.030001,28.180000,28.044828,38100
2019-07-09,28.100000,28.180000,27.790001,28.129999,27.995068,22200
2019-07-10,28.139999,28.139999,27.431999,27.709999,27.577082,52400
2019-07-11,27.740000,28.070000,27.719999,27.969999,27.835835,46300
2019-07-12,27.930000,28.650000,27.870001,28.549999,28.413054,64900
2019-07-15,28.520000,28.520000,27.840000,27.940001,27.805981,45100
2019-07-16,27.980000,28.230000,27.875000,27.990000,27.855740,55200
2019-07-17,27.959999,28.160000,27.775000,27.990000,27.855740,59800
2019-07-18,27.980000,28.629999,27.980000,28.299999,28.164251,23000
2019-07-19,28.209999,28.465000,27.900000,28.000000,27.865690,74700
2019-07-22,27.950001,27.950001,26.870001,27.290001,27.159098,90100
2019-07-23,27.299999,27.559999,27.250000,27.400000,27.268570,34100
2019-07-24,27.200001,28.510000,27.200001,28.209999,28.074686,85400
2019-07-25,28.500000,29.170000,28.200001,28.200001,28.064734,42400
2019-07-26,28.780001,29.440001,28.665001,29.240000,29.099743,79700
2019-07-29,29.049999,29.049999,28.639999,28.730000,28.592190,86800
2019-07-30,28.530001,29.680000,28.530001,29.490000,29.348543,68000
2019-07-31,29.500000,29.910000,29.295000,29.500000,29.358498,77300
2019-08-01,29.350000,29.870001,28.799999,28.980000,28.840990,153000
2019-08-02,28.760000,28.760000,28.180000,28.690001,28.552383,81800
2019-08-05,28.100000,28.170000,27.600000,27.950001,27.815931,142800
2019-08-06,28.090000,28.100000,27.549999,27.940001,27.805981,69400
2019-08-07,27.459999,27.840000,27.250000,27.600000,27.467611,56500
2019-08-08,27.750000,28.530001,27.750000,28.389999,28.253820,59300
2019-08-09,28.270000,28.540001,28.030001,28.350000,28.214014,59700
2019-08-12,28.020000,28.049999,27.900000,27.930000,27.796028,37400
2019-08-13,27.900000,28.499001,27.900000,28.070000,27.935354,35700
2019-08-14,27.580000,27.639999,27.190001,27.400000,27.307484,101100
2019-08-15,27.490000,27.510000,26.980000,27.309999,27.217787,56200
2019-08-16,27.400000,28.290001,27.400000,28.139999,28.044985,52300
2019-08-19,28.549999,28.799999,28.299999,28.469999,28.373871,45100
2019-08-20,28.340000,28.690001,28.290001,28.410000,28.314074,33100
2019-08-21,28.590000,28.660000,28.309999,28.510000,28.413736,31400
2019-08-22,28.620001,28.620001,28.209999,28.400000,28.304108,62300
2019-08-23,28.270000,28.600000,27.850000,27.910000,27.815762,142400
2019-08-26,28.240000,28.580000,27.900000,28.469999,28.373871,51000
2019-08-27,28.600000,28.600000,27.860001,27.870001,27.775898,58700
2019-08-28,27.750000,28.575001,27.750000,28.219999,28.124714,42300
2019-08-29,28.570000,28.965000,28.400000,28.610001,28.513399,69600
2019-08-30,28.799999,29.150000,28.590000,28.930000,28.832317,90300
2019-09-03,28.660000,28.660000,27.990000,28.330000,28.234344,55300
2019-09-04,28.549999,28.610001,28.110001,28.209999,28.114748,47600
2019-09-05,28.490000,29.600000,28.490000,29.030001,28.931980,59700
2019-09-06,29.020000,29.270000,28.790001,28.809999,28.712723,36500
2019-09-09,29.000000,30.370001,29.000000,30.230000,30.127928,107500
2019-09-10,30.370001,30.950001,30.025000,30.840000,30.735868,62100
2019-09-11,31.100000,31.670000,30.760000,31.670000,31.563066,87100
2019-09-12,31.480000,32.080002,31.030001,31.870001,31.762392,72700
2019-09-13,31.860001,32.130001,31.500000,31.879999,31.772356,86800
2019-09-16,31.590000,32.000000,31.245001,31.459999,31.353775,76100
2019-09-17,31.379999,31.379999,30.809999,30.910000,30.805632,65200
2019-09-18,30.840000,31.320000,30.530001,31.129999,31.024889,39000
2019-09-19,30.879999,31.660000,30.629999,30.670000,30.566442,59900
2019-09-20,30.660000,31.235001,30.459999,30.590000,30.486713,197600
2019-09-23,30.260000,31.170000,30.200001,30.950001,30.845499,71700
2019-09-24,30.830000,30.930000,30.299999,30.350000,30.247524,50600
2019-09-25,30.290001,31.129999,30.290001,31.040001,30.935194,55400
2019-09-26,30.980000,31.059999,30.445000,30.490000,30.387051,27900
2019-09-27,30.860001,31.070000,30.510000,30.610001,30.506645,51600
2019-09-30,30.610001,30.670000,30.065001,30.209999,30.107996,70700
2019-10-01,30.330000,30.790001,29.209999,29.620001,29.519989,88200
2019-10-02,29.330000,29.639999,29.105000,29.549999,29.450224,50100
2019-10-03,29.410000,29.850000,29.309999,29.670000,29.569820,116400
2019-10-04,29.600000,30.150000,29.540001,29.980000,29.878773,63600
2019-10-07,29.990000,30.000000,29.770000,29.830000,29.729279,50400
2019-10-08,29.559999,29.690001,28.900000,28.959999,28.862215,35000
2019-10-09,29.309999,29.490000,29.100000,29.290001,29.191103,72200
2019-10-10,29.430000,29.600000,29.280001,29.309999,29.211035,54400
2019-10-11,29.889999,29.990000,29.480000,29.639999,29.539919,118200
2019-10-14,29.549999,30.010000,29.400000,29.990000,29.888739,39200
2019-10-15,30.000000,30.510000,30.000000,30.219999,30.117960,75200
2019-10-16,30.139999,30.340000,29.850000,29.900000,29.799042,50400
2019-10-17,29.879999,30.020000,29.680000,29.940001,29.838907,55800
2019-10-18,29.760000,30.270000,29.760000,30.230000,30.127928,55000
2019-10-21,30.639999,31.230000,30.639999,31.080000,30.975058,43000
2019-10-22,31.000000,31.430000,30.879999,30.910000,30.805632,41700
2019-10-23,31.000000,31.129999,30.545000,31.090000,30.985025,75500
2019-10-24,31.219999,34.580002,31.219999,33.750000,33.636044,256100
2019-10-25,33.209999,33.500000,32.820000,32.930000,32.818810,141300
2019-10-28,33.200001,34.000000,33.200001,33.959999,33.845333,93300
2019-10-29,33.669998,34.669998,33.669998,34.650002,34.533005,107100
2019-10-30,34.650002,34.669998,34.044998,34.430000,34.313747,81200
2019-10-31,34.160000,34.509998,32.860001,33.270000,33.157665,57900
2019-11-01,33.549999,33.709999,32.919998,33.639999,33.526417,55700
2019-11-04,33.880001,34.000000,33.250000,33.730000,33.616108,51500
2019-11-05,33.730000,34.220001,33.560001,33.720001,33.606144,57000
2019-11-06,33.689999,34.090000,33.549999,33.740002,33.626080,71900
2019-11-07,33.980000,34.330002,33.740002,34.180000,34.064590,57400
2019-11-08,34.259998,34.340000,33.630001,33.730000,33.616108,31900
2019-11-11,33.430000,33.900002,33.430000,33.730000,33.616108,25100
2019-11-12,33.820000,33.970001,33.689999,33.840000,33.725739,28800
2019-11-13,33.480000,33.590000,33.310001,33.380001,33.267292,58400
2019-11-14,33.240002,33.485001,33.240002,33.360001,33.307232,33100
2019-11-15,33.619999,33.619999,32.980000,33.369999,33.317211,34100
2019-11-18,33.290001,33.430000,33.090000,33.369999,33.317211,55700
2019-11-19,33.480000,33.660000,33.415001,33.500000,33.447006,64200
2019-11-20,33.380001,33.730000,33.230000,33.509998,33.456989,61700
2019-11-21,33.700001,33.720001,33.160000,33.340000,33.287262,57500
2019-11-22,33.470001,33.500000,33.224998,33.330002,33.277279,28200
2019-11-25,33.599998,34.209999,33.400002,34.110001,34.056046,54300
2019-11-26,34.169998,34.320000,33.949001,34.119999,34.066025,27400
2019-11-27,34.099998,34.490002,33.855000,34.180000,34.125935,31100
2019-11-29,34.000000,34.299999,34.000000,34.139999,34.085995,14300
2019-12-02,34.250000,34.520000,33.700001,33.830002,33.776489,36200
2019-12-03,33.509998,33.689999,33.240002,33.570000,33.516895,41500
2019-12-04,33.750000,34.389999,33.639999,33.680000,33.626724,47000
2019-12-05,33.820000,34.060001,33.689999,33.919998,33.866341,33700
2019-12-06,33.959999,34.759998,33.860001,34.540001,34.485363,106900
2019-12-09,34.380001,34.470001,34.169998,34.310001,34.255730,45700
2019-12-10,34.380001,34.590000,34.310001,34.450001,34.395508,27500
2019-12-11,34.439999,34.500000,34.070000,34.200001,34.145901,33000
2019-12-12,34.290001,35.080002,34.235001,34.650002,34.595192,53600
2019-12-13,34.820000,34.820000,34.189999,34.459999,34.405487,31600
2019-12-16,34.849998,35.000000,34.500000,34.680000,34.625141,66500
2019-12-17,34.779999,35.310001,34.500000,35.189999,35.134335,61600
2019-12-18,35.259998,35.490002,34.639999,34.740002,34.685047,74700
2019-12-19,34.869999,34.959999,34.599998,34.790001,34.734970,36600
2019-12-20,34.990002,35.009998,34.430000,34.560001,34.505333,167700
2019-12-23,34.599998,34.740002,34.110001,34.279999,34.225773,58900
2019-12-24,34.200001,34.630001,34.020000,34.529999,34.475376,40600
2019-12-26,34.529999,34.840000,34.209999,34.400002,34.345585,35900
2019-12-27,34.470001,34.500000,34.000000,34.009998,33.956200,40100
2019-12-30,34.020000,34.450001,33.939999,34.209999,34.155884,63500
2019-12-31,34.139999,34.580002,34.099998,34.330002,34.275696,44900
2020-01-02,34.490002,34.490002,33.930000,34.160000,34.105965,57500
2020-01-03,33.730000,34.169998,33.584999,33.880001,33.826408,49900
2020-01-06,33.500000,33.889999,33.450001,33.779999,33.726563,38100
2020-01-07,33.930000,33.939999,33.369999,33.430000,33.377121,55800
2020-01-08,33.520000,33.959999,33.520000,33.830002,33.776489,36400
2020-01-09,34.000000,34.297001,33.720001,33.779999,33.726563,22900
2020-01-10,33.779999,33.779999,33.209999,33.410000,33.357151,33100
2020-01-13,33.430000,33.849998,33.240002,33.660000,33.606754,50400
2020-01-14,33.500000,33.810001,33.380001,33.799999,33.746532,61400
2020-01-15,33.650002,33.709999,33.180000,33.630001,33.576805,43400
2020-01-16,33.799999,34.270000,33.799999,34.209999,34.155884,49600
2020-01-17,34.450001,34.630001,34.020000,34.459999,34.405487,101500
2020-01-21,34.160000,34.340000,33.869999,34.150002,34.095982,62400
2020-01-22,36.930000,38.540001,36.930000,38.520000,38.459068,931400
2020-01-23,38.279999,39.000000,38.099998,39.000000,38.938309,369100
2020-01-24,38.820000,39.000000,38.375000,39.000000,38.938309,168700
2020-01-27,38.330002,38.810001,37.880001,38.020000,37.959858,247200
2020-01-28,38.200001,38.470001,37.630001,37.639999,37.580460,189300
2020-01-29,37.619999,37.880001,36.849998,37.000000,36.941471,160300
2020-01-30,36.680000,37.380001,36.430000,37.360001,37.300903,118000
2020-01-31,37.040001,37.450001,36.424999,36.869999,36.811676,171900
2020-02-03,36.959999,37.230000,36.509998,37.000000,36.941471,106300
2020-02-04,37.639999,37.820000,37.119999,37.240002,37.181095,176700
2020-02-05,37.570000,38.400002,37.349998,38.150002,38.089653,272600
2020-02-06,38.389999,38.549999,37.720001,37.980000,37.919922,74400
2020-02-07,37.630001,37.959999,37.330002,37.509998,37.450665,143000
2020-02-10,37.509998,37.660000,37.290001,37.410000,37.350822,105300
2020-02-11,37.680000,38.235001,37.660000,37.950001,37.889969,76700
2020-02-12,38.150002,38.150002,37.880001,37.930000,37.869999,62900
2020-02-13,37.759998,38.040001,37.700001,38.040001,38.040001,76700
