Date,Open,High,Low,Close,Adj Close,Volume
2014-07-15,210.000000,210.000000,210.000000,210.000000,200.205231,125000
2014-07-16,210.500000,212.500000,210.000000,212.500000,202.588623,375000
2014-07-17,215.500000,215.500000,212.500000,215.000000,204.972015,166300
2014-07-18,215.000000,215.000000,215.000000,215.000000,204.972015,0
2014-07-21,216.000000,216.000000,215.000000,215.000000,204.972015,15200
2014-07-22,216.000000,216.000000,214.500000,214.500000,204.495346,1000
2014-07-23,214.500000,214.500000,214.500000,214.500000,204.495346,10000
2014-07-24,214.500000,214.500000,214.500000,214.500000,204.495346,0
2014-07-25,215.000000,217.500000,213.000000,213.000000,203.065308,67700
2014-07-28,213.000000,213.000000,213.000000,213.000000,203.065308,188000
2014-07-29,215.000000,215.000000,215.000000,215.000000,204.972015,200
2014-07-30,213.000000,213.000000,213.000000,213.000000,203.065308,49800
2014-07-31,210.000000,215.000000,210.000000,215.000000,204.972015,200600
2014-08-01,215.000000,215.000000,215.000000,215.000000,204.972015,0
2014-08-04,210.000000,215.000000,210.000000,215.000000,204.972015,48300
2014-08-05,215.000000,215.000000,215.000000,215.000000,204.972015,4000
2014-08-06,215.000000,215.000000,215.000000,215.000000,204.972015,0
2014-08-07,205.000000,215.000000,205.000000,215.000000,204.972015,240400
2014-08-08,215.000000,215.000000,215.000000,215.000000,204.972015,400
2014-08-11,215.000000,215.000000,215.000000,215.000000,204.972015,0
2014-08-12,205.000000,215.000000,205.000000,205.000000,195.438431,3200
2014-08-13,215.000000,215.000000,215.000000,215.000000,204.972015,11300
2014-08-14,215.000000,215.000000,215.000000,215.000000,204.972015,0
2014-08-15,215.000000,215.000000,215.000000,215.000000,204.972015,0
2014-08-18,210.000000,210.000000,210.000000,210.000000,200.205231,100000
2014-08-19,215.000000,215.000000,215.000000,215.000000,204.972015,0
2014-08-20,215.000000,215.000000,215.000000,215.000000,204.972015,200
2014-08-21,215.000000,215.000000,215.000000,215.000000,204.972015,500
2014-08-22,215.000000,215.000000,215.000000,215.000000,204.972015,0
2014-08-25,215.000000,215.000000,215.000000,215.000000,204.972015,1000
2014-08-26,215.000000,215.000000,215.000000,215.000000,204.972015,0
2014-08-27,213.000000,213.000000,213.000000,213.000000,203.065308,1300
2014-08-28,213.000000,213.000000,213.000000,213.000000,203.065308,0
2014-08-29,210.000000,210.000000,210.000000,210.000000,200.205231,17600
2014-09-02,210.000000,210.500000,210.000000,210.500000,200.681915,50000
2014-09-03,215.000000,215.000000,213.000000,213.000000,203.065308,2500
2014-09-04,215.000000,215.000000,215.000000,215.000000,204.972015,4500
2014-09-05,215.000000,215.000000,215.000000,215.000000,204.972015,0
2014-09-08,213.000000,213.000000,213.000000,213.000000,203.065308,200
2014-09-09,210.000000,212.500000,210.000000,210.000000,200.205231,50300
2014-09-10,210.000000,210.000000,210.000000,210.000000,200.205231,0
2014-09-11,212.500000,212.500000,211.000000,211.000000,201.158585,2100
2014-09-12,210.000000,210.000000,210.000000,210.000000,200.205231,100
2014-09-15,211.000000,211.000000,211.000000,211.000000,201.158585,500
2014-09-16,211.000000,211.000000,211.000000,211.000000,201.158585,0
2014-09-17,211.000000,211.000000,210.500000,210.500000,200.681915,1000
2014-09-18,210.000000,210.000000,210.000000,210.000000,200.205231,100
2014-09-19,210.000000,210.000000,210.000000,210.000000,200.205231,0
2014-09-22,209.500000,210.000000,208.500000,210.000000,200.205231,2600
2014-09-23,208.000000,208.000000,205.500000,205.500000,195.915115,900
2014-09-24,205.500000,205.500000,205.500000,205.500000,195.915115,0
2014-09-25,205.500000,205.500000,205.500000,205.500000,195.915115,0
2014-09-26,205.500000,205.500000,205.000000,205.000000,195.438431,400
2014-09-29,205.000000,205.000000,200.000000,200.000000,190.671646,800
2014-09-30,200.000000,200.000000,200.000000,200.000000,190.671646,1000
2014-10-01,198.500000,198.500000,192.500000,192.500000,183.521454,1700
2014-10-02,192.500000,192.500000,178.500000,185.000000,176.371277,1400
2014-10-03,177.500000,177.500000,177.500000,177.500000,169.221085,100
2014-10-06,177.500000,177.500000,177.500000,177.500000,169.221085,0
2014-10-07,177.500000,177.500000,177.500000,177.500000,169.221085,0
2014-10-08,177.500000,177.500000,177.500000,177.500000,169.221085,0
2014-10-09,177.500000,177.500000,177.500000,177.500000,169.221085,0
2014-10-10,177.500000,177.500000,177.500000,177.500000,169.221085,0
2014-10-13,175.100006,175.100006,175.100006,175.100006,166.933029,200
2014-10-14,175.100006,175.100006,165.000000,175.000000,166.837692,1600
2014-10-15,150.000000,150.000000,150.000000,150.000000,143.003738,500
2014-10-16,150.000000,150.000000,150.000000,150.000000,143.003738,500
2014-10-17,150.000000,150.000000,150.000000,150.000000,143.003738,0
2014-10-20,150.000000,150.000000,150.000000,150.000000,143.003738,0
2014-10-21,150.000000,150.000000,150.000000,150.000000,143.003738,0
2014-10-22,150.000000,150.000000,150.000000,150.000000,143.003738,0
2014-10-23,155.000000,160.000000,150.000000,155.000000,147.770523,257600
2014-10-24,156.199997,156.500000,155.500000,155.500000,148.247208,592500
2014-10-27,155.000000,155.000000,155.000000,155.000000,147.770523,300
2014-10-28,154.500000,154.600006,154.100006,154.500000,147.293854,12100
2014-10-29,154.500000,154.500000,154.500000,154.500000,147.293854,0
2014-10-30,155.500000,157.000000,155.500000,156.500000,149.200562,5000
2014-10-31,156.500000,156.500000,156.500000,156.500000,149.200562,0
2014-11-03,156.500000,156.500000,156.500000,156.500000,149.200562,0
2014-11-04,156.500000,156.500000,156.500000,156.500000,149.200562,0
2014-11-05,156.000000,158.000000,155.000000,158.000000,150.630600,139200
2014-11-06,162.500000,162.500000,155.500000,162.500000,154.920715,401000
2014-11-07,156.500000,156.500000,156.000000,156.000000,148.723877,4000
2014-11-10,156.500000,158.500000,155.500000,158.000000,150.630600,352500
2014-11-11,158.500000,158.500000,158.000000,158.000000,150.630600,49100
2014-11-12,158.000000,158.000000,158.000000,158.000000,150.630600,100
2014-11-13,158.000000,158.000000,157.000000,157.000000,149.677246,800
2014-11-14,155.500000,157.000000,155.000000,157.000000,149.677246,800
2014-11-17,157.000000,157.000000,157.000000,157.000000,149.677246,0
2014-11-18,157.000000,157.000000,157.000000,157.000000,149.677246,0
2014-11-19,156.000000,156.000000,156.000000,156.000000,148.723877,2000
2014-11-20,156.000000,156.000000,156.000000,156.000000,148.723877,2500
2014-11-21,156.000000,156.000000,156.000000,156.000000,148.723877,0
2014-11-24,154.500000,154.500000,154.000000,154.000000,146.817169,600
2014-11-25,154.000000,154.000000,154.000000,154.000000,146.817169,0
2014-11-26,153.699997,153.699997,153.000000,153.000000,145.863815,2800
2014-11-28,153.000000,153.000000,153.000000,153.000000,145.863815,0
2014-12-01,153.199997,153.199997,153.199997,153.199997,146.054474,100
2014-12-02,153.000000,153.000000,150.000000,150.000000,143.003738,51500
2014-12-03,150.000000,150.000000,149.000000,149.000000,142.050369,2100
2014-12-04,147.500000,147.500000,147.500000,147.500000,140.620346,102500
2014-12-05,145.500000,145.500000,145.000000,145.500000,138.713623,800
2014-12-08,144.000000,144.000000,144.000000,144.000000,137.283585,200
2014-12-09,143.000000,143.000000,142.000000,142.500000,135.853546,400
2014-12-10,142.500000,142.500000,142.500000,142.500000,135.853546,0
2014-12-11,141.500000,141.500000,140.000000,140.000000,133.470154,900
2014-12-12,140.000000,140.000000,140.000000,140.000000,133.470154,500
2014-12-15,138.500000,138.500000,138.500000,138.500000,132.040115,100
2014-12-16,138.500000,138.500000,138.500000,138.500000,132.040115,0
2014-12-17,137.500000,137.500000,132.500000,132.500000,126.319969,2200
2014-12-18,133.000000,133.000000,132.500000,132.500000,126.319969,1000
2014-12-19,132.500000,132.500000,130.000000,130.000000,123.936569,1400
2014-12-22,128.500000,128.500000,128.500000,128.500000,122.506531,200
2014-12-23,128.500000,128.500000,128.500000,128.500000,122.506531,0
2014-12-24,128.500000,128.500000,128.500000,128.500000,122.506531,500
2014-12-26,128.500000,128.500000,128.500000,128.500000,122.506531,100
2014-12-29,128.500000,128.500000,128.500000,128.500000,122.506531,0
2014-12-30,130.000000,130.000000,130.000000,130.000000,123.936569,400
2014-12-31,130.000000,135.000000,130.000000,135.000000,128.703354,1400
2015-01-02,135.000000,135.000000,135.000000,135.000000,128.703354,0
2015-01-05,134.000000,134.000000,132.000000,132.000000,125.843285,400
2015-01-06,129.000000,129.000000,128.000000,128.000000,122.029854,600
2015-01-07,128.000000,128.000000,128.000000,128.000000,122.029854,100
2015-01-08,127.500000,127.900002,127.500000,127.500000,121.553177,800
2015-01-09,127.500000,127.500000,127.500000,127.500000,121.553177,100
2015-01-12,127.500000,127.500000,127.500000,127.500000,121.553177,0
2015-01-13,128.500000,128.500000,127.500000,127.500000,121.553177,600
2015-01-14,127.000000,127.000000,127.000000,127.000000,121.076492,300
2015-01-15,127.000000,127.000000,126.000000,126.000000,120.123138,500
2015-01-16,126.000000,126.000000,126.000000,126.000000,120.123138,400
2015-01-20,126.000000,126.000000,126.000000,126.000000,120.123138,0
2015-01-21,125.000000,125.000000,125.000000,125.000000,119.169777,300
2015-01-22,125.000000,125.000000,124.000000,124.000000,118.216423,3200
2015-01-23,124.000000,124.000000,124.000000,124.000000,118.216423,0
2015-01-26,124.000000,124.500000,123.000000,123.199997,117.453728,4200
2015-01-27,123.199997,123.199997,123.199997,123.199997,117.453728,0
2015-01-28,122.599998,122.599998,120.000000,120.000000,114.402985,3200
2015-01-29,120.000000,120.000000,117.500000,117.500000,112.019592,500
2015-01-30,116.000000,116.000000,116.000000,116.000000,110.589554,300
2015-02-02,116.000000,116.000000,116.000000,116.000000,110.589554,0
2015-02-03,116.000000,116.000000,116.000000,116.000000,110.589554,200
2015-02-04,116.000000,116.000000,116.000000,116.000000,110.589554,0
2015-02-05,114.500000,114.500000,113.000000,113.000000,107.729477,500
2015-02-06,112.500000,112.500000,112.500000,112.500000,107.252800,100
2015-02-09,112.500000,112.500000,110.500000,112.500000,107.252800,1500
2015-02-10,112.500000,112.500000,112.500000,112.500000,107.252800,0
2015-02-11,110.000000,110.000000,110.000000,110.000000,104.869408,300
2015-02-12,110.000000,110.000000,110.000000,110.000000,104.869408,0
2015-02-13,108.500000,108.500000,106.000000,106.000000,101.055969,2400
2015-02-17,105.500000,105.500000,105.500000,105.500000,100.579292,100
2015-02-18,102.500000,102.500000,102.500000,102.500000,97.719215,300
2015-02-19,101.000000,101.500000,100.000000,101.500000,96.765862,1900
2015-02-20,101.500000,101.500000,101.500000,101.500000,96.765862,0
2015-02-23,97.500000,97.500000,97.500000,97.500000,92.952431,200
2015-02-24,97.500000,97.500000,97.500000,97.500000,92.952431,1200
2015-02-25,97.500000,97.500000,96.500000,96.500000,91.999069,3600
2015-02-26,96.800003,97.500000,96.800003,97.500000,92.952431,5200
2015-02-27,97.500000,99.500000,97.500000,99.500000,94.859146,1100
2015-03-02,98.000000,98.000000,98.000000,98.000000,93.429108,200
2015-03-03,98.000000,98.000000,97.500000,97.500000,92.952431,1200
2015-03-04,97.000000,97.000000,94.000000,97.000000,92.475746,1000
2015-03-05,99.000000,99.000000,97.500000,97.500000,92.952431,6200
2015-03-06,97.500000,97.500000,97.500000,97.500000,92.952431,0
2015-03-09,96.500000,97.500000,96.500000,97.500000,92.952431,1000
2015-03-10,95.000000,95.000000,94.500000,94.500000,90.092354,200
2015-03-11,94.000000,94.500000,94.000000,94.500000,90.092354,600
2015-03-12,94.500000,94.500000,94.500000,94.500000,90.092354,0
2015-03-13,94.500000,94.500000,94.500000,94.500000,90.092354,0
2015-03-16,93.000000,93.000000,90.000000,90.000000,85.802238,400
2015-03-17,90.500000,90.500000,88.500000,88.500000,84.372200,1700
2015-03-18,88.500000,88.500000,88.500000,88.500000,84.372200,0
2015-03-19,86.000000,88.000000,86.000000,88.000000,83.895523,3000
2015-03-20,88.000000,88.000000,88.000000,88.000000,83.895523,0
2015-03-23,88.000000,88.000000,88.000000,88.000000,83.895523,0
2015-03-24,85.000000,88.500000,82.500000,88.500000,84.372200,1800
2015-03-25,88.500000,88.500000,88.500000,88.500000,84.372200,0
2015-03-26,88.500000,88.500000,88.500000,88.500000,84.372200,0
2015-03-27,86.000000,88.500000,86.000000,88.500000,84.372200,1000
2015-03-30,86.000000,88.500000,86.000000,88.500000,84.372200,200
2015-03-31,87.000000,87.000000,87.000000,87.000000,82.942169,300
2015-04-01,87.000000,87.000000,87.000000,87.000000,82.942169,0
2015-04-02,86.000000,86.000000,71.000000,80.000000,76.268661,105400
2015-04-06,80.000000,80.000000,71.000000,74.000000,70.548508,27000
2015-04-07,74.000000,74.000000,74.000000,74.000000,70.548508,0
2015-04-08,78.599998,80.000000,67.500000,70.000000,66.735077,18600
2015-04-09,70.000000,70.500000,67.000000,67.500000,64.351677,3400
2015-04-10,68.500000,68.500000,67.000000,67.000000,63.875000,6100
2015-04-13,67.900002,67.900002,67.900002,67.900002,64.733025,1000
2015-04-14,66.599998,67.699997,66.500000,67.699997,64.542351,2000
2015-04-15,67.400002,67.400002,67.000000,67.000000,63.875000,3100
2015-04-16,67.000000,67.000000,67.000000,67.000000,63.875000,0
2015-04-17,67.800003,70.000000,67.800003,70.000000,66.735077,2100
2015-04-20,70.000000,70.500000,70.000000,70.500000,67.211754,500
2015-04-21,70.500000,70.500000,70.500000,70.500000,67.211754,0
2015-04-22,72.500000,72.500000,70.000000,71.000000,67.688431,56400
2015-04-23,71.000000,72.400002,71.000000,71.500000,68.165115,112900
2015-04-24,71.599998,72.000000,71.000000,71.000000,67.688431,11300
2015-04-27,71.500000,71.500000,70.699997,70.699997,67.402428,1300
2015-04-28,70.870003,70.870003,69.599998,70.500000,67.211754,1500
2015-04-29,69.000000,69.000000,68.000000,69.000000,65.781715,3300
2015-04-30,68.000000,70.000000,67.500000,69.500000,66.258400,2001000
2015-05-01,69.000000,69.000000,69.000000,69.000000,65.781715,500
2015-05-04,69.000000,69.000000,69.000000,69.000000,65.781715,0
2015-05-05,68.500000,68.500000,68.500000,68.500000,65.305038,1000700
2015-05-06,68.500000,68.500000,68.500000,68.500000,65.305038,191000
2015-05-07,70.000000,70.000000,70.000000,70.000000,66.735077,301300
2015-05-08,68.500000,68.500000,68.500000,68.500000,65.305038,40000
2015-05-11,70.000000,70.000000,69.500000,69.500000,66.258400,152000
2015-05-12,68.949997,70.000000,68.949997,70.000000,66.735077,3500
2015-05-13,69.500000,69.500000,69.500000,69.500000,66.258400,1000
2015-05-14,68.500000,71.400002,68.500000,71.000000,67.688431,1534900
2015-05-15,71.000000,71.250000,71.000000,71.000000,67.688431,54200
2015-05-18,70.900002,70.900002,70.500000,70.500000,67.211754,900
2015-05-19,70.300003,70.300003,69.000000,69.000000,65.781715,10800
2015-05-20,69.000000,69.500000,69.000000,69.500000,66.258400,800
2015-05-21,69.000000,69.500000,69.000000,69.000000,65.781715,5700
2015-05-22,69.199997,70.800003,69.199997,70.500000,67.211754,21900
2015-05-26,70.000000,71.000000,70.000000,70.900002,67.593102,74000
2015-05-27,71.400002,72.000000,71.400002,72.000000,68.641792,7100
2015-05-28,71.500000,72.000000,71.500000,71.500000,68.165115,5900
2015-05-29,71.500000,71.800003,71.500000,71.800003,68.451126,3600
2015-06-01,71.800003,71.800003,71.199997,71.400002,68.069778,14600
2015-06-02,71.199997,71.800003,71.000000,71.800003,68.451126,6000
2015-06-03,71.800003,72.300003,71.800003,72.300003,68.927803,200
2015-06-04,72.000000,72.500000,71.000000,71.400002,68.069778,12400
2015-06-05,71.050003,71.500000,71.050003,71.500000,68.165115,300
2015-06-08,71.500000,71.500000,71.500000,71.500000,68.165115,0
2015-06-09,71.500000,71.500000,71.500000,71.500000,68.165115,0
2015-06-10,71.000000,71.000000,71.000000,71.000000,67.688431,1500
2015-06-11,71.000000,71.000000,71.000000,71.000000,67.688431,0
2015-06-12,71.000000,71.000000,71.000000,71.000000,67.688431,0
2015-06-15,71.000000,71.000000,71.000000,71.000000,67.688431,0
2015-06-16,71.000000,71.000000,71.000000,71.000000,67.688431,900
2015-06-17,72.000000,72.500000,71.000000,72.000000,68.641792,128500
2015-06-18,72.000000,72.000000,72.000000,72.000000,68.641792,1600
2015-06-19,71.750000,71.750000,71.500000,71.500000,68.165115,300
2015-06-22,72.000000,72.000000,71.699997,71.699997,68.355782,900
2015-06-23,71.949997,72.000000,71.949997,72.000000,68.641792,1700
2015-06-24,72.000000,73.199997,72.000000,73.199997,69.785820,32700
2015-06-25,73.000000,73.000000,72.199997,72.800003,69.404480,57500
2015-06-26,73.500000,73.500000,72.500000,72.500000,69.118469,9800
2015-06-29,72.599998,72.599998,72.500000,72.500000,69.118469,200
2015-06-30,73.000000,73.000000,72.000000,72.000000,68.641792,58200
2015-07-01,73.000000,73.000000,72.500000,72.500000,69.118469,37200
2015-07-02,72.500000,72.500000,72.500000,72.500000,69.118469,100
2015-07-06,72.000000,72.500000,72.000000,72.500000,69.118469,900
2015-07-07,72.000000,72.000000,70.000000,70.500000,67.211754,8800
2015-07-08,69.500000,69.500000,69.199997,69.199997,65.972389,1700
2015-07-09,70.000000,70.000000,68.500000,68.500000,65.305038,31200
2015-07-10,68.500000,70.000000,68.000000,70.000000,66.735077,13400
2015-07-13,70.000000,70.000000,70.000000,70.000000,66.735077,300
2015-07-14,70.000000,70.000000,69.699997,69.699997,66.449066,3500
2015-07-15,70.000000,72.000000,69.599998,71.500000,68.165115,2800
2015-07-16,72.500000,72.500000,72.000000,72.000000,68.641792,5400
2015-07-17,73.000000,76.199997,73.000000,73.000000,69.595154,29200
2015-07-20,72.000000,77.500000,68.500000,74.500000,71.025185,90600
2015-07-21,78.000000,78.500000,74.550003,75.199997,71.692535,127000
2015-07-22,76.500000,76.750000,73.000000,75.400002,71.883209,138600
2015-07-23,76.900002,76.900002,74.300003,75.199997,71.692535,52200
2015-07-24,75.599998,75.900002,71.099998,71.099998,67.783768,146900
2015-07-27,72.000000,74.099998,71.000000,72.500000,69.118469,83500
2015-07-28,74.500000,74.500000,71.000000,71.099998,67.783768,65700
2015-07-29,71.900002,72.500000,71.230003,71.500000,68.165115,75000
2015-07-30,72.000000,72.400002,70.500000,71.400002,68.069778,53400
2015-07-31,70.699997,73.500000,70.699997,72.699997,69.309143,43000
2015-08-03,71.900002,72.699997,71.099998,71.800003,68.451126,40700
2015-08-04,73.900002,73.900002,71.199997,71.500000,68.165115,24100
2015-08-05,69.500000,77.000000,69.500000,73.900002,70.453178,117400
2015-08-06,74.699997,76.000000,72.199997,74.300003,70.834518,55000
2015-08-07,75.000000,75.000000,71.000000,71.900002,68.546455,36600
2015-08-10,71.900002,73.599998,71.599998,72.400002,69.023140,13600
2015-08-11,70.900002,73.400002,70.900002,71.500000,68.165115,42900
2015-08-12,70.900002,71.300003,69.500000,69.900002,66.639740,100700
2015-08-13,68.800003,71.940002,68.099998,69.500000,66.258400,92400
2015-08-14,70.000000,70.199997,68.500000,69.400002,66.163063,12700
2015-08-17,69.500000,69.500000,66.800003,66.900002,63.779667,54000
2015-08-18,65.900002,66.879997,62.400002,63.000000,60.061569,28800
2015-08-19,63.500000,63.900002,59.400002,59.799999,57.010822,4700
2015-08-20,60.000000,63.599998,60.000000,61.299999,58.440861,32400
2015-08-21,61.000000,61.099998,59.000000,59.000000,56.248135,27300
2015-08-24,50.000000,60.000000,50.000000,56.000000,53.388062,163700
2015-08-25,57.299999,57.299999,52.599998,53.799999,51.290672,89400
2015-08-26,53.520000,55.299999,52.400002,54.400002,51.862690,46800
2015-08-27,56.000000,56.000000,53.900002,54.299999,51.767353,33400
2015-08-28,54.900002,56.200001,54.900002,55.099998,52.530037,27000
2015-08-31,54.599998,57.000000,52.799999,56.299999,53.674068,73600
2015-09-01,55.200001,55.900002,54.200001,55.500000,52.911381,25000
2015-09-02,55.299999,56.099998,51.000000,55.700001,53.102055,139400
2015-09-03,55.700001,56.000000,53.700001,55.000000,52.434704,86100
2015-09-04,55.000000,55.500000,53.700001,55.000000,52.434704,73700
2015-09-08,53.500000,54.900002,51.000000,52.000000,49.574627,83100
2015-09-09,52.799999,53.500000,51.400002,52.700001,50.241982,82900
2015-09-10,52.400002,52.500000,51.099998,51.599998,49.193283,70800
2015-09-11,51.900002,52.000000,48.000000,49.099998,46.809887,109300
2015-09-14,48.700001,49.900002,48.000000,48.900002,46.619221,58500
2015-09-15,49.500000,49.799999,47.099998,47.500000,45.284515,38900
2015-09-16,47.500000,49.099998,46.299999,47.799999,45.570522,55300
2015-09-17,48.900002,49.599998,47.200001,47.599998,45.379852,57900
2015-09-18,48.000000,48.799999,47.000000,47.500000,45.284515,118900
2015-09-21,48.599998,48.900002,47.000000,47.400002,45.189182,46700
2015-09-22,47.799999,48.099998,46.000000,47.099998,44.903172,44700
2015-09-23,47.099998,47.099998,44.200001,44.799999,42.710449,69600
2015-09-24,43.799999,45.700001,43.099998,45.700001,43.568474,46000
2015-09-25,45.200001,45.200001,42.400002,43.700001,41.661755,86900
2015-09-28,43.599998,43.599998,38.200001,39.500000,37.657650,55500
2015-09-29,39.099998,40.500000,39.000000,39.099998,37.276306,48400
2015-09-30,39.099998,40.400002,39.000000,39.099998,37.276306,96700
2015-10-01,39.400002,39.700001,36.900002,36.900002,35.178921,54400
2015-10-02,36.900002,37.599998,32.000000,35.299999,33.653545,317800
2015-10-05,34.500000,37.400002,34.400002,37.000000,35.274254,152300
2015-10-06,36.599998,37.349998,35.099998,35.700001,34.034889,154300
2015-10-07,35.500000,37.000000,34.000000,34.900002,33.272205,78300
2015-10-08,34.400002,35.000000,34.000000,34.700001,33.081532,465700
2015-10-09,35.099998,35.639999,34.700001,35.000000,33.367538,101400
2015-10-12,34.200001,34.900002,32.700001,33.400002,31.842167,94400
2015-10-13,32.500000,34.099998,32.299999,32.500000,30.984142,97900
2015-10-14,33.099998,34.799999,32.500000,34.500000,32.890858,103600
2015-10-15,34.900002,35.200001,32.700001,34.299999,32.700188,78600
2015-10-16,34.900002,35.000000,32.599998,33.000000,31.460821,99000
2015-10-19,33.000000,33.099998,32.000000,32.200001,30.698135,56000
2015-10-20,32.000000,32.500000,31.000000,31.600000,30.126120,8700
2015-10-21,31.500000,31.600000,31.000000,31.100000,29.649441,61500
2015-10-22,31.100000,31.200001,27.900000,29.799999,28.410074,519700
2015-10-23,29.600000,29.600000,28.000000,28.900000,27.552053,93700
2015-10-26,28.900000,29.750000,24.400000,26.600000,25.359329,487600
2015-10-27,26.700001,27.000000,24.000000,24.400000,23.261940,137800
2015-10-28,24.100000,25.900000,23.000000,25.500000,24.310635,396300
2015-10-29,25.100000,25.400000,24.100000,24.600000,23.452614,543400
2015-10-30,24.500000,25.000000,23.500000,24.000000,22.880598,203000
2015-11-02,23.600000,25.000000,23.299999,24.600000,23.452614,265000
2015-11-03,24.500000,24.500000,23.799999,24.100000,22.975933,75300
2015-11-04,24.200001,24.200001,19.110001,21.600000,20.592539,360400
2015-11-05,21.600000,21.600000,18.000000,19.900000,18.971828,1507700
2015-11-06,19.900000,20.879999,19.200001,19.500000,18.590485,408200
2015-11-09,18.799999,19.500000,17.500000,17.600000,16.779106,1864300
2015-11-10,17.299999,17.299999,15.750000,16.100000,15.349068,1971600
2015-11-11,16.000000,17.400000,14.900000,16.600000,15.825747,162600
2015-11-12,16.700001,17.299999,16.299999,17.100000,16.302425,1671100
2015-11-13,17.000000,17.000000,16.320000,16.600000,15.825747,255300
2015-11-16,16.799999,18.400000,16.299999,18.299999,17.446455,180100
2015-11-17,18.100000,21.500000,17.000000,21.299999,20.306530,198300
2015-11-18,21.400000,21.500000,18.900000,19.000000,18.113806,357400
2015-11-19,19.000000,19.200001,16.100000,17.299999,16.493097,128700
2015-11-20,17.200001,17.500000,16.200001,16.600000,15.825747,252300
2015-11-23,16.400000,17.000000,15.600000,16.100000,15.349068,215200
2015-11-24,15.900000,16.600000,15.700000,16.500000,15.730411,76800
2015-11-25,16.500000,16.700001,16.200001,16.700001,15.921083,66700
2015-11-27,16.700001,17.500000,16.700001,16.900000,16.111753,24900
2015-11-30,16.900000,17.000000,15.000000,15.800000,15.063060,314700
2015-12-01,16.700001,17.799999,15.400000,16.700001,15.921083,189300
2015-12-02,16.900000,16.900000,15.800000,16.200001,15.444404,95700
2015-12-03,16.100000,16.900000,16.000000,16.900000,16.111753,139500
2015-12-04,16.700001,16.700001,15.890000,16.299999,15.539739,82900
2015-12-07,16.100000,16.500000,15.700000,16.000000,15.253732,118600
2015-12-08,15.800000,16.000000,15.700000,15.700000,14.967724,155100
2015-12-09,15.700000,16.299999,15.700000,16.200001,15.444404,302300
2015-12-10,16.299999,16.299999,15.800000,16.200001,15.444404,9900
2015-12-11,16.200001,16.200001,15.400000,15.600000,14.872389,59900
2015-12-14,15.500000,15.600000,14.360000,14.900000,14.205037,174900
2015-12-15,14.400000,14.500000,13.300000,14.400000,13.728358,254500
2015-12-16,13.900000,13.900000,12.900000,13.100000,12.488994,100800
2015-12-17,13.000000,13.000000,11.600000,11.800000,11.249627,159700
2015-12-18,12.000000,12.000000,11.200000,11.500000,10.963619,112100
2015-12-21,11.400000,11.800000,11.200000,11.400000,10.868283,36100
2015-12-22,11.400000,11.900000,11.400000,11.700000,11.154291,91500
2015-12-23,11.900000,12.100000,11.500000,12.100000,11.535635,263900
2015-12-24,12.100000,15.500000,12.100000,15.300000,14.586381,170200
2015-12-28,15.100000,17.799999,14.200000,14.500000,13.823694,204600
2015-12-29,14.200000,14.200000,13.600000,14.100000,13.442351,49600
2015-12-30,14.600000,15.000000,14.000000,14.100000,13.442351,62000
2015-12-31,14.200000,14.900000,14.200000,14.900000,14.205037,7900
2016-01-04,15.200000,15.500000,14.500000,14.900000,14.205037,61000
2016-01-05,14.700000,15.300000,14.200000,15.300000,14.586381,38000
2016-01-06,15.500000,15.500000,13.800000,14.000000,13.347015,64300
2016-01-07,13.700000,13.700000,11.700000,11.800000,11.249627,101300
2016-01-08,12.100000,12.600000,11.890000,12.600000,12.012314,125700
2016-01-11,12.700000,12.700000,11.100000,11.900000,11.344963,34500
2016-01-12,11.500000,11.790000,11.200000,11.300000,10.772948,68200
2016-01-13,11.500000,11.500000,10.300000,10.600000,10.105597,64600
2016-01-14,10.500000,12.200000,10.000000,11.000000,10.486940,136700
2016-01-15,11.000000,11.400000,9.020000,10.100000,9.628919,35200
2016-01-19,10.400000,10.500000,10.000000,10.300000,9.819590,30600
2016-01-20,9.600000,11.800000,9.550000,11.500000,10.963619,94000
2016-01-21,11.600000,12.700000,11.500000,12.100000,11.535635,66800
2016-01-22,11.900000,12.700000,11.600000,12.000000,11.440299,32800
2016-01-25,12.100000,12.900000,10.900000,11.400000,10.868283,132800
2016-01-26,11.300000,11.350000,9.600000,9.940000,9.476380,141400
2016-01-27,10.300000,10.300000,9.610000,10.000000,9.533583,74500
2016-01-28,10.000000,10.490000,9.690000,10.100000,9.628919,57000
2016-01-29,10.000000,10.300000,9.650000,10.100000,9.628919,51700
2016-02-01,10.000000,10.100000,9.800000,9.900000,9.438246,38900
2016-02-02,9.900000,9.900000,9.300000,9.360000,8.923432,57000
2016-02-03,9.850000,10.000000,9.120000,9.340000,8.904366,47300
2016-02-04,9.300000,9.350000,8.860000,8.860000,8.446754,104400
2016-02-05,8.900000,9.100000,8.000000,8.500000,8.103545,42700
2016-02-08,8.000000,8.070000,6.750000,7.300000,6.959515,59000
2016-02-09,6.900000,7.400000,5.800000,5.900000,5.624814,135100
2016-02-10,5.660000,5.680000,4.850000,4.900000,4.671455,204900
2016-02-11,5.150000,5.150000,4.900000,4.990000,4.757257,64800
2016-02-12,5.000000,5.000000,4.520000,4.710000,4.490317,31200
2016-02-16,4.900000,5.100000,4.900000,4.930000,4.700056,32300
2016-02-17,5.000000,5.690000,4.900000,5.190000,4.947929,220400
2016-02-18,5.500000,5.590000,5.000000,5.050000,4.814459,132500
2016-02-19,5.470000,5.470000,4.970000,5.010000,4.776325,31700
2016-02-22,4.790000,5.250000,4.790000,5.100000,4.862127,97400
2016-02-23,5.100000,5.100000,5.000000,5.100000,4.862127,22900
2016-02-24,5.100000,5.100000,5.000000,5.090000,4.852593,72800
2016-02-25,5.100000,5.100000,4.800000,5.000000,4.766791,126800
2016-02-26,5.100000,6.000000,5.090000,6.000000,5.720150,194900
2016-02-29,6.100000,7.500000,5.800000,7.020000,6.692575,82100
2016-03-01,7.500000,7.500000,6.190000,6.310000,6.015690,97300
2016-03-02,6.430000,6.690000,5.500000,6.500000,6.196828,103200
2016-03-03,6.500000,7.300000,6.300000,6.840000,6.520970,172400
2016-03-04,7.200000,8.700000,6.650000,8.000000,7.626866,564500
2016-03-07,7.970000,13.000000,7.970000,12.200000,11.630970,901000
2016-03-08,13.000000,17.400000,11.000000,11.600000,11.058956,1160700
2016-03-09,11.400000,12.500000,9.390000,10.000000,9.533583,411400
2016-03-10,10.000000,10.800000,9.330000,9.400000,8.961567,136800
2016-03-11,9.440000,9.680000,8.000000,8.390000,7.998676,125600
2016-03-14,9.120000,9.390000,8.200000,8.750000,8.341885,44600
2016-03-15,8.850000,9.100000,7.700000,8.120000,7.741269,96800
2016-03-16,8.500000,8.500000,7.760000,7.880000,7.512463,58400
2016-03-17,7.800000,7.800000,7.100000,7.220000,6.883246,23600
2016-03-18,7.500000,7.500000,6.400000,7.000000,6.673508,164700
2016-03-21,6.500000,7.000000,6.500000,7.000000,6.673508,48100
2016-03-22,6.700000,6.990000,6.500000,6.520000,6.215896,42100
2016-03-23,6.700000,6.800000,6.000000,6.280000,5.987090,78700
2016-03-24,6.500000,6.500000,5.810000,6.070000,5.786885,119600
2016-03-28,6.280000,6.300000,5.700000,5.900000,5.624814,37300
2016-03-29,6.000000,6.000000,5.500000,5.700000,5.434142,99200
2016-03-30,5.700000,6.400000,5.600000,6.180000,5.891754,255400
2016-03-31,6.420000,6.500000,6.110000,6.400000,6.101493,204600
2016-04-01,6.100000,6.300000,5.610000,5.820000,5.548545,49500
2016-04-04,5.650000,6.000000,5.260000,5.260000,5.014665,336400
2016-04-05,5.460000,5.700000,5.130000,5.600000,5.338806,45400
2016-04-06,5.600000,5.600000,5.300000,5.340000,5.090933,40100
2016-04-07,5.300000,6.090000,5.100000,5.600000,5.338806,182000
2016-04-08,5.540000,5.700000,5.200000,5.600000,5.338806,1124700
2016-04-11,5.700000,6.300000,5.700000,5.990000,5.710616,1459700
2016-04-12,6.400000,6.500000,5.500000,5.950000,5.672482,1211000
2016-04-13,5.950000,6.300000,5.600000,5.850000,5.577146,549700
2016-04-14,6.000000,6.150000,5.850000,6.100000,5.815485,448700
2016-04-15,6.070000,6.900000,6.010000,6.410000,6.111026,976400
2016-04-18,6.590000,7.500000,6.590000,7.100000,6.768843,93400
2016-04-19,7.200000,7.500000,6.850000,6.850000,6.530504,1504500
2016-04-20,7.110000,7.300000,6.900000,7.000000,6.673508,669300
2016-04-21,7.200000,7.200000,6.500000,6.870000,6.549571,584700
2016-04-22,6.690000,7.100000,6.600000,6.800000,6.482836,228300
2016-04-25,6.700000,7.400000,6.700000,7.300000,6.959515,262000
2016-04-26,7.330000,7.700000,6.870000,7.000000,6.673508,298000
2016-04-27,7.100000,7.490000,6.900000,7.400000,7.054851,205300
2016-04-28,7.500000,11.800000,7.310000,9.000000,8.580224,3205700
2016-04-29,10.800000,12.000000,9.300000,10.300000,9.819590,1483400
2016-05-02,10.000000,10.000000,8.500000,8.500000,8.103545,358900
2016-05-03,8.120000,8.570000,7.760000,7.790000,7.426661,59900
2016-05-04,7.900000,8.500000,7.750000,7.840000,7.474329,172000
2016-05-05,8.030000,8.500000,7.800000,7.800000,7.436194,84900
2016-05-06,7.900000,8.190000,7.500000,7.700000,7.340858,6100
2016-05-09,7.700000,7.880000,6.500000,6.540000,6.234963,276000
2016-05-10,6.000000,6.300000,5.520000,6.000000,5.720150,273200
2016-05-11,6.100000,6.100000,5.500000,5.900000,5.624814,161700
2016-05-12,6.000000,6.030000,5.500000,5.500000,5.243470,152000
2016-05-13,5.600000,5.780000,4.900000,5.000000,4.766791,1787000
2016-05-16,5.000000,5.000000,4.800000,4.900000,4.671455,132100
2016-05-17,4.900000,5.790000,4.800000,5.250000,5.005131,1014200
2016-05-18,5.250000,5.700000,5.010000,5.100000,4.862127,250700
2016-05-19,5.100000,5.890000,5.100000,5.200000,4.957463,663800
2016-05-20,5.250000,5.500000,4.800000,4.910000,4.680989,335100
2016-05-23,5.200000,5.200000,4.850000,5.000000,4.766791,225000
2016-05-24,5.100000,5.200000,4.500000,4.900000,4.671455,188800
2016-05-25,4.800000,5.100000,4.500000,5.100000,4.862127,192200
2016-05-26,4.800000,6.450000,4.800000,6.190000,5.901288,944400
2016-05-27,6.190000,6.200000,5.700000,5.900000,5.624814,28800
2016-05-31,5.900000,5.900000,5.700000,5.740000,5.472276,139300
2016-06-01,5.800000,5.800000,5.250000,5.400000,5.148135,256200
2016-06-02,5.300000,5.540000,5.100000,5.500000,5.243470,80600
2016-06-03,5.400000,5.500000,5.140000,5.280000,5.033731,11100
2016-06-06,5.400000,5.600000,5.200000,5.300000,5.052799,148000
2016-06-07,5.400000,5.500000,4.600000,5.100000,4.862127,231000
2016-06-08,5.200000,5.400000,5.000000,5.200000,4.957463,112300
2016-06-09,4.800000,5.760000,4.800000,5.400000,5.148135,111000
2016-06-10,6.320000,7.200000,5.500000,5.900000,5.624814,919500
2016-06-13,6.000000,6.200000,5.500000,5.900000,5.624814,298700
2016-06-14,5.500000,5.780000,5.500000,5.700000,5.434142,17800
2016-06-15,5.600000,5.700000,5.200000,5.400000,5.148135,103500
2016-06-16,5.650000,5.650000,5.100000,5.300000,5.052799,23400
2016-06-17,5.200000,5.500000,5.000000,5.500000,5.243470,229800
2016-06-20,5.600000,5.970000,5.300000,5.500000,5.243470,251400
2016-06-21,5.400000,5.830000,5.340000,5.700000,5.434142,170000
2016-06-22,5.850000,6.100000,5.660000,5.700000,5.434142,147700
2016-06-23,5.600000,6.400000,5.600000,6.000000,5.720150,224200
2016-06-24,6.000000,6.050000,5.530000,5.770000,5.500877,154200
2016-06-27,5.900000,5.900000,5.150000,5.150000,4.909795,70900
2016-06-28,5.300000,5.580000,5.210000,5.510000,5.253004,38400
2016-06-29,5.510000,5.570000,5.190000,5.380000,5.129067,83700
2016-06-30,5.200000,5.970000,5.200000,5.700000,5.434142,129900
2016-07-01,5.800000,7.340000,5.700000,6.820000,6.501904,293600
2016-07-05,6.100000,6.100000,5.670000,5.670000,5.405541,589100
2016-07-06,5.890000,5.890000,5.200000,5.300000,5.052799,410000
2016-07-07,5.200000,5.600000,5.200000,5.300000,5.052799,222600
2016-07-08,5.050000,6.438000,5.030000,5.860000,5.586679,144200
2016-07-11,6.090000,6.390000,5.810000,6.020000,5.739216,66900
2016-07-12,6.250000,7.220000,6.250000,6.700000,6.387500,69300
2016-07-13,6.720000,7.000000,6.670000,6.770000,6.454235,92900
2016-07-14,6.686000,6.750000,6.530000,6.560000,6.254030,28700
2016-07-15,6.620000,6.626000,6.050000,6.050000,5.767817,16300
2016-07-18,6.010000,6.479000,6.000000,6.000000,5.720150,52200
2016-07-19,5.960000,6.329000,5.960000,6.290000,5.996623,21000
2016-07-20,6.190000,6.260000,6.150000,6.150000,5.863153,15700
2016-07-21,6.260000,7.490000,6.210000,7.050000,6.721176,270800
2016-07-22,7.100000,7.379000,6.680000,6.880000,6.559105,58700
2016-07-25,6.930000,6.930000,6.110000,6.350000,6.053825,43100
2016-07-26,6.240000,6.256000,6.020000,6.170000,5.882220,30600
2016-07-27,6.040000,6.180000,6.000000,6.150000,5.863153,18900
2016-07-28,6.040000,6.120000,5.950000,5.990000,5.710616,48400
2016-07-29,5.990000,5.990000,5.800000,5.870000,5.596213,19400
2016-08-01,5.880000,6.040000,5.600000,5.690000,5.424608,47100
2016-08-02,5.700000,6.365000,5.640000,5.830000,5.558078,107300
2016-08-03,5.750000,5.849000,5.600000,5.755000,5.486577,18900
2016-08-04,5.600000,5.704000,5.110000,5.140000,4.900261,39400
2016-08-05,5.190000,5.370000,5.160000,5.330000,5.081399,19700
2016-08-08,5.300000,5.300000,5.120000,5.120000,4.881194,18100
2016-08-09,5.280000,5.295000,5.110000,5.130000,4.890728,29100
2016-08-10,5.190000,5.210000,5.110000,5.150000,4.909795,21800
2016-08-11,5.150000,5.290000,5.000000,5.000000,4.766791,29500
2016-08-12,5.040000,5.070000,4.900000,4.940000,4.709590,21400
2016-08-15,4.900000,5.030000,4.600000,4.768000,4.545612,38300
2016-08-16,4.760000,4.760000,4.050000,4.160000,3.965970,102400
2016-08-17,4.190000,4.200000,3.770000,3.920000,3.737164,55000
2016-08-18,3.940000,4.173000,3.940000,4.050000,3.861101,8300
2016-08-19,4.110000,4.159000,3.820000,4.050000,3.861101,21400
2016-08-22,4.020000,4.020000,3.622000,3.770000,3.594161,21900
2016-08-23,3.860000,3.970000,3.770000,3.970000,3.784832,9600
2016-08-24,3.850000,4.200000,3.850000,4.000000,3.813433,43500
2016-08-25,3.990000,4.390000,3.990000,4.150000,3.956437,37800
2016-08-26,4.170000,5.450000,4.170000,4.910000,4.680989,678100
2016-08-29,4.920000,5.162000,4.500000,4.700000,4.480783,83500
2016-08-30,4.750000,4.790000,4.471000,4.560000,4.347313,26100
2016-08-31,4.590000,4.820000,4.390000,4.570000,4.356847,48500
2016-09-01,4.700000,4.769000,3.920000,4.170000,3.975504,118300
2016-09-02,4.300000,4.350000,4.121000,4.310000,4.108974,6300
2016-09-06,4.460000,4.460000,4.230000,4.290000,4.089907,33000
2016-09-07,4.300000,4.820000,4.300000,4.650000,4.433116,57300
2016-09-08,4.730000,5.110000,4.676000,4.850000,4.623787,51600
2016-09-09,4.970000,4.980000,4.520000,4.760000,4.537985,42400
2016-09-12,4.640000,5.320000,4.575000,4.960000,4.728657,75400
2016-09-13,5.050000,5.080000,4.630000,4.630000,4.414049,49000
2016-09-14,4.490000,4.670000,4.403000,4.530000,4.318713,25300
2016-09-15,4.590000,4.590000,4.450000,4.520000,4.309179,15000
2016-09-16,4.420000,4.880000,4.357000,4.620000,4.404515,61900
2016-09-19,4.800000,5.124000,4.790000,4.960000,4.728657,95900
2016-09-20,5.020000,5.123000,4.700000,4.700000,4.480783,21600
2016-09-21,4.790000,5.101000,4.780000,5.000000,4.766791,47300
2016-09-22,5.050000,5.500000,4.800000,4.800000,4.576120,142600
2016-09-23,5.000000,5.133000,4.900000,4.900000,4.671455,49900
2016-09-26,4.920000,5.000000,4.730000,4.730000,4.509385,17800
2016-09-27,4.720000,5.020000,4.643000,4.800000,4.576120,18600
2016-09-28,4.840000,4.840000,4.250000,4.600000,4.385448,52600
2016-09-29,4.590000,4.668000,4.320000,4.500000,4.290112,68700
2016-09-30,4.580000,4.930000,4.520000,4.580000,4.366381,84900
2016-10-03,4.630000,4.630000,4.450000,4.480000,4.271045,29000
2016-10-04,4.510000,4.568000,4.356000,4.360000,4.156642,13700
2016-10-05,4.440000,4.634000,4.172000,4.510000,4.299646,49100
2016-10-06,4.800000,8.250000,4.700000,6.480000,6.177762,6988800
2016-10-07,6.000000,6.450000,5.880000,6.020000,5.739216,629700
2016-10-10,5.770000,5.900000,5.430000,5.590000,5.329273,231900
2016-10-11,5.380000,5.558000,5.380000,5.540000,5.281605,37800
2016-10-12,5.500000,5.721000,5.160000,5.350000,5.100466,28000
2016-10-13,5.050000,5.400000,5.000000,5.310000,5.062332,41300
2016-10-14,5.320000,5.400000,5.250000,5.360000,5.110000,35200
2016-10-17,5.350000,5.500000,5.350000,5.360000,5.110000,43500
2016-10-18,5.410000,5.602000,5.300000,5.460000,5.205336,52900
2016-10-19,5.400000,5.540000,5.380000,5.470000,5.214869,58100
2016-10-20,5.370000,5.600000,5.210000,5.260000,5.014665,116700
2016-10-21,5.500000,5.510000,5.310000,5.390000,5.138601,100600
2016-10-24,5.520000,6.295000,5.520000,5.650000,5.386474,168100
2016-10-25,5.670000,5.940000,5.650000,5.780000,5.510411,49700
2016-10-26,5.880000,6.320000,5.760000,6.050000,5.767817,107500
2016-10-27,6.250000,6.690000,6.150000,6.470000,6.168228,123700
2016-10-28,6.400000,6.660000,6.170000,6.190000,5.901288,115900
2016-10-31,6.520000,6.750000,6.230000,6.540000,6.234963,106800
2016-11-01,6.540000,6.694000,5.890000,5.890000,5.615280,142400
2016-11-02,5.820000,5.890000,5.520000,5.670000,5.405541,53700
2016-11-03,5.550000,5.870000,5.460000,5.520000,5.262537,77800
2016-11-04,5.560000,5.770000,5.490000,5.550000,5.291138,61500
2016-11-07,5.450000,5.810000,5.410000,5.580000,5.319739,153700
2016-11-08,5.560000,5.560000,5.420000,5.560000,5.300672,34300
2016-11-09,5.500000,5.900000,5.340000,5.810000,5.539011,61800
2016-11-10,5.860000,7.320000,5.860000,6.950000,6.625840,233000
2016-11-11,7.250000,7.500000,6.530000,6.950000,6.625840,248500
2016-11-14,6.880000,8.390000,6.810000,8.250000,7.865205,631400
2016-11-15,9.100000,11.210000,8.196000,10.350000,9.867258,1360800
2016-11-16,11.140000,14.750000,11.000000,11.550000,11.011288,1604100
2016-11-17,11.750000,12.000000,8.360000,8.690000,8.284682,762100
2016-11-18,8.640000,9.610000,8.300000,9.130000,8.704161,233400
2016-11-21,9.000000,9.130000,8.380000,9.010000,8.589758,134400
2016-11-22,8.750000,9.010000,8.010000,8.360000,7.970075,94100
2016-11-23,8.190000,8.960000,7.931000,8.300000,7.912874,98800
2016-11-25,8.220000,8.400000,7.900000,7.960000,7.588732,30700
2016-11-28,8.010000,8.617000,8.010000,8.180000,7.798470,81100
2016-11-29,8.090000,9.170000,8.061000,8.970000,8.551623,99300
2016-11-30,9.090000,9.190000,8.660000,8.800000,8.389553,77700
2016-12-01,8.910000,9.059000,8.680000,8.800000,8.389553,49700
2016-12-02,8.680000,9.009000,8.200000,8.400000,8.008209,40600
2016-12-05,8.320000,8.400000,7.710000,7.990000,7.617332,100800
2016-12-06,8.080000,8.080000,7.569000,7.680000,7.321791,51900
2016-12-07,7.690000,8.027000,7.643000,7.870000,7.502929,49600
2016-12-08,7.890000,8.019000,7.400000,7.450000,7.102519,108700
2016-12-09,7.260000,7.278000,6.371000,7.170000,6.835578,259000
2016-12-12,7.000000,7.369000,6.900000,7.070000,6.740243,36600
2016-12-13,7.110000,7.250000,6.820000,6.910000,6.587705,55700
2016-12-14,6.820000,6.980000,6.710000,6.760000,6.444702,65000
2016-12-15,6.840000,9.440000,6.750000,9.150000,8.723228,229500
2016-12-16,8.890000,9.222000,7.620000,8.350000,7.960542,146100
2016-12-19,8.350000,8.670000,7.920000,8.080000,7.703135,57300
2016-12-20,8.140000,8.288000,7.250000,7.530000,7.178788,84200
2016-12-21,7.590000,7.913000,7.200000,7.200000,6.864179,32000
2016-12-22,7.210000,7.389000,6.970000,7.070000,6.740243,73000
2016-12-23,7.110000,7.302000,6.900000,6.990000,6.663974,145200
2016-12-27,7.000000,7.243000,7.000000,7.170000,6.835578,18800
2016-12-28,7.160000,7.380000,7.010000,7.300000,6.959515,111200
2016-12-29,7.280000,7.370000,7.280000,7.300000,6.959515,8800
2016-12-30,7.310000,7.400000,7.200000,7.380000,7.035784,30600
2017-01-03,7.500000,8.100000,7.240000,7.650000,7.293190,149300
2017-01-04,7.670000,8.300000,7.550000,8.200000,7.817537,58800
2017-01-05,8.300000,8.690000,8.040000,8.330000,7.941474,134100
2017-01-06,8.000000,8.030000,7.680000,7.680000,7.321791,71300
2017-01-09,7.900000,8.000000,7.680000,7.770000,7.407593,53700
2017-01-10,7.810000,7.970000,7.490000,7.760000,7.398060,32800
2017-01-11,7.810000,8.230000,7.660000,8.000000,7.626866,55100
2017-01-12,8.070000,8.460000,8.020000,8.080000,7.703135,57600
2017-01-13,8.180000,9.490000,8.180000,8.880000,8.465821,146100
2017-01-17,8.870000,9.450000,8.870000,9.310000,8.875766,104100
2017-01-18,9.350000,10.980000,9.135000,9.710000,9.257109,284800
2017-01-19,9.880000,10.740000,9.880000,10.210000,9.733788,163500
2017-01-20,10.260000,11.350000,10.200000,10.730000,10.229533,252600
2017-01-23,11.200000,12.310000,11.100000,11.820000,11.268694,332100
2017-01-24,11.600000,11.600000,10.500000,10.780000,10.277202,192900
2017-01-25,10.750000,11.360000,10.290000,11.250000,10.725280,129000
2017-01-26,11.110000,11.470000,10.510000,10.640000,10.143732,206000
2017-01-27,10.620000,10.670000,9.080000,9.560000,9.114105,204900
2017-01-30,9.830000,9.940000,9.220000,9.280000,8.847164,76900
2017-01-31,9.500000,9.740000,9.200000,9.450000,9.009235,97000
2017-02-01,9.760000,9.760000,9.080000,9.210000,8.780429,101900
2017-02-02,9.200000,9.210000,9.090000,9.190000,8.761362,55500
2017-02-03,9.280000,9.490000,9.140000,9.390000,8.952034,153500
2017-02-06,9.410000,9.950000,8.711000,9.180000,8.751829,295300
2017-02-07,9.110000,9.270000,8.800000,8.940000,8.523023,65400
2017-02-08,8.930000,9.190000,8.590000,8.880000,8.465821,101800
2017-02-09,9.000000,9.440000,9.000000,9.140000,8.713695,65600
2017-02-10,9.200000,9.500000,9.200000,9.430000,8.990169,115000
2017-02-13,9.750000,9.920000,9.550000,9.890000,9.428713,381900
2017-02-14,10.070000,10.380000,9.670000,9.920000,9.457314,260300
2017-02-15,10.020000,10.100000,9.830000,9.860000,9.400112,119200
2017-02-16,9.880000,10.060000,9.620000,9.720000,9.266643,109600
2017-02-17,9.730000,9.960000,9.700000,9.870000,9.409646,116500
2017-02-21,9.850000,11.450000,9.850000,11.360000,10.830150,387400
2017-02-22,11.540000,11.920000,11.000000,11.880000,11.325896,216200
2017-02-23,12.000000,12.300000,11.330000,11.720000,11.173359,229900
2017-02-24,11.680000,11.800000,11.020000,11.360000,10.830150,212900
2017-02-27,11.190000,11.720000,11.070000,11.650000,11.106623,81200
2017-02-28,11.610000,11.650000,11.400000,11.580000,11.039888,139300
2017-03-01,11.700000,12.000000,11.558000,11.970000,11.411698,74400
2017-03-02,11.570000,11.896000,10.610000,11.630000,11.087556,129200
2017-03-03,11.860000,11.860000,11.600000,11.610000,11.068489,71700
2017-03-06,11.620000,12.180000,10.850000,11.030000,10.515541,80800
2017-03-07,11.010000,11.050000,10.270000,10.550000,10.057930,66000
2017-03-08,10.630000,10.650000,10.100000,10.240000,9.762388,47200
2017-03-09,10.250000,10.290000,10.000000,10.190000,9.714720,67400
2017-03-10,10.390000,10.700000,10.130000,10.670000,10.172333,75900
2017-03-13,10.550000,11.470000,10.550000,11.420000,10.887351,178300
2017-03-14,11.410000,11.590000,10.750000,11.460000,10.925486,102500
2017-03-15,11.570000,12.000000,11.450000,11.840000,11.287762,232300
2017-03-16,12.000000,12.600000,11.660000,11.900000,11.344963,249400
2017-03-17,11.880000,12.295000,11.230000,12.230000,11.659571,185600
2017-03-20,12.140000,12.700000,11.935000,12.490000,11.907444,192500
2017-03-21,12.590000,12.660000,10.490000,10.680000,10.181867,264800
2017-03-22,10.500000,11.380000,10.500000,10.780000,10.277202,137500
2017-03-23,10.660000,11.160000,10.660000,11.130000,10.610877,79500
2017-03-24,11.320000,11.550000,11.070000,11.240000,10.715746,72800
2017-03-27,11.030000,11.260000,10.701000,11.060000,10.544143,52500
2017-03-28,11.900000,12.360000,11.650000,12.080000,11.516567,217300
2017-03-29,12.130000,12.490000,12.130000,12.290000,11.716773,149300
2017-03-30,12.250000,13.130000,12.160000,12.770000,12.174385,272700
2017-03-31,12.600000,12.680000,12.310000,12.500000,11.916978,106700
2017-04-03,12.470000,12.470000,11.650000,11.910000,11.354496,109300
2017-04-04,11.930000,12.250000,11.710000,11.980000,11.421231,115700
2017-04-05,12.000000,12.250000,11.820000,12.030000,11.468900,107800
2017-04-06,12.040000,12.990000,11.720000,12.550000,11.964646,195600
2017-04-07,12.700000,14.480000,12.470000,14.400000,13.728358,415200
2017-04-10,14.500000,14.990000,14.190000,14.280000,13.613955,326100
2017-04-11,14.250000,14.560000,14.000000,14.030000,13.375616,95000
2017-04-12,13.990000,14.160000,12.870000,12.870000,12.269720,129500
2017-04-13,12.840000,13.250000,12.670000,13.090000,12.479460,73400
2017-04-17,13.070000,13.070000,12.310000,12.540000,11.955112,92500
2017-04-18,12.370000,12.590000,12.190000,12.510000,11.926512,75200
2017-04-19,12.510000,12.870000,11.810000,11.860000,11.306828,137000
2017-04-20,12.070000,12.070000,11.380000,11.440000,10.906418,130700
2017-04-21,11.450000,11.800000,11.180000,11.550000,11.011288,65000
2017-04-24,11.760000,11.850000,11.199000,11.630000,11.087556,68100
2017-04-25,11.630000,12.670000,11.520000,12.390000,11.812109,103700
2017-04-26,12.400000,12.470000,12.060000,12.150000,11.583302,34800
2017-04-27,12.150000,12.410000,11.660000,11.870000,11.316362,70800
2017-04-28,11.870000,11.990000,11.500000,11.520000,10.982687,58100
2017-05-01,11.680000,11.680000,11.010000,11.200000,10.677612,38500
2017-05-02,11.370000,11.370000,10.500000,10.890000,10.382071,131200
2017-05-03,10.840000,10.880000,10.330000,10.350000,9.867258,106500
2017-05-04,10.340000,10.850000,9.530000,9.710000,9.257109,201500
2017-05-05,9.760000,10.460000,9.760000,10.340000,9.857724,85000
2017-05-08,10.500000,10.700000,10.110000,10.280000,9.800523,80500
2017-05-09,9.800000,10.880000,9.780000,10.780000,10.277202,140100
2017-05-10,11.500000,11.660000,10.350000,10.720000,10.220000,105200
2017-05-11,10.810000,11.025000,10.210000,10.570000,10.076996,83000
2017-05-12,10.510000,10.640000,10.161000,10.380000,9.895859,53800
2017-05-15,10.450000,10.640000,10.080000,10.220000,9.743321,59400
2017-05-16,10.220000,10.350000,9.840000,10.060000,9.590784,59400
2017-05-17,9.960000,10.230000,9.580000,10.120000,9.647985,80900
2017-05-18,9.750000,10.200000,9.750000,9.840000,9.381045,69000
2017-05-19,10.000000,10.680000,9.961000,10.640000,10.143732,224500
2017-05-22,10.740000,10.740000,10.000000,10.250000,9.771922,61900
2017-05-23,10.310000,10.450000,9.930000,10.230000,9.752854,41300
2017-05-24,10.010000,10.500000,9.950000,10.050000,9.581250,100000
2017-05-25,10.180000,10.260000,9.540000,9.750000,9.295242,135500
2017-05-26,9.760000,10.320000,9.700000,10.320000,9.838656,52300
2017-05-30,10.050000,10.072000,9.210000,9.230000,8.799496,167300
2017-05-31,9.230000,9.561000,9.110000,9.370000,8.932966,63200
2017-06-01,9.240000,9.811000,9.240000,9.590000,9.142706,48800
2017-06-02,9.710000,9.910000,9.500000,9.640000,9.190373,65900
2017-06-05,9.640000,9.810000,9.410000,9.520000,9.075971,63000
2017-06-06,9.470000,10.000000,9.320000,9.790000,9.333377,52900
2017-06-07,9.780000,10.050000,9.600000,9.700000,9.247575,34200
2017-06-08,9.650000,9.943000,9.520000,9.800000,9.342911,80400
2017-06-09,9.770000,10.990000,9.770000,10.060000,9.590784,155200
2017-06-12,10.120000,10.480000,10.120000,10.340000,9.857724,86700
2017-06-13,10.260000,10.770000,10.120000,10.240000,9.762388,76800
2017-06-14,10.280000,10.300000,9.810000,9.850000,9.390579,92100
2017-06-15,9.750000,10.045000,9.430000,9.490000,9.047369,119800
2017-06-16,9.450000,9.570000,9.200000,9.410000,8.971101,86000
2017-06-19,9.500000,9.500000,9.021000,9.210000,8.780429,103700
2017-06-20,9.340000,9.360000,8.850000,9.000000,8.580224,90200
2017-06-21,9.150000,9.190000,8.470000,8.550000,8.151213,207600
2017-06-22,8.610000,8.940000,8.550000,8.770000,8.360952,113200
2017-06-23,8.770000,9.490000,8.770000,9.280000,8.847164,922700
2017-06-26,9.460000,9.490000,8.895000,9.250000,8.818563,109800
2017-06-27,9.290000,9.960000,9.180000,9.230000,8.799496,128700
2017-06-28,9.420000,9.450000,9.010000,9.120000,8.694627,69300
2017-06-29,9.130000,9.370000,9.010000,9.210000,8.780429,65400
2017-06-30,9.300000,9.610000,9.190000,9.470000,9.028303,72800
2017-07-03,9.500000,9.770000,9.480000,9.640000,9.190373,34900
2017-07-05,9.710000,9.740000,9.250000,9.550000,9.104571,102800
2017-07-06,9.520000,9.520000,8.940000,9.050000,8.627892,100700
2017-07-07,9.010000,9.090000,8.880000,9.060000,8.637426,72600
2017-07-10,8.950000,9.120000,8.830000,9.030000,8.608825,49800
2017-07-11,9.050000,9.510000,8.950000,9.370000,8.932966,105700
2017-07-12,9.520000,9.930000,9.500000,9.860000,9.400112,93900
2017-07-13,10.040000,10.870000,9.970000,10.470000,9.981661,123700
2017-07-14,10.630000,11.330000,10.240000,10.910000,10.401138,146500
2017-07-17,10.870000,11.230000,10.700000,10.820000,10.315336,57200
2017-07-18,10.980000,10.980000,10.100000,10.240000,9.762388,62200
2017-07-19,10.220000,10.650000,10.139000,10.540000,10.048396,44200
2017-07-20,10.790000,11.070000,10.350000,10.390000,9.905393,68200
2017-07-21,10.490000,10.490000,10.200000,10.270000,9.790990,54900
2017-07-24,10.330000,10.460000,10.010000,10.120000,9.647985,50700
2017-07-25,10.300000,11.090000,10.300000,10.450000,9.962593,134400
2017-07-26,10.500000,10.890000,10.000000,10.070000,9.600317,49000
2017-07-27,10.110000,10.200000,9.681000,9.830000,9.371511,52000
2017-07-28,9.820000,10.355000,9.740000,9.850000,9.390579,32400
2017-07-31,9.910000,10.280000,9.820000,10.180000,9.705187,40300
2017-08-01,10.220000,10.500000,10.124000,10.410000,9.924459,47500
2017-08-02,10.430000,10.430000,9.950000,10.130000,9.657519,58100
2017-08-03,10.150000,10.330000,9.810000,9.960000,9.495448,69900
2017-08-04,9.990000,10.490000,9.950000,10.260000,9.781456,85800
2017-08-07,10.750000,11.680000,10.710000,11.400000,10.868283,198900
2017-08-08,11.100000,11.300000,10.525000,10.900000,10.391604,182900
2017-08-09,10.900000,10.960000,10.540000,10.810000,10.305803,51000
2017-08-10,10.950000,11.610000,10.850000,11.090000,10.572743,112400
2017-08-11,11.090000,12.210000,11.090000,11.850000,11.297296,113800
2017-08-14,12.000000,12.690000,12.000000,12.590000,12.002780,106200
2017-08-15,12.660000,12.771000,12.220000,12.280000,11.707239,61000
2017-08-16,12.330000,12.880000,11.913000,12.420000,11.840710,130600
2017-08-17,12.420000,13.000000,12.100000,12.180000,11.611903,71300
2017-08-18,12.150000,12.400000,12.055000,12.390000,11.812109,49900
2017-08-21,12.500000,12.593000,11.650000,12.010000,11.449833,65500
2017-08-22,12.090000,12.535000,11.879000,12.510000,11.926512,66100
2017-08-23,12.440000,12.950000,12.190000,12.740000,12.145783,102000
2017-08-24,12.790000,12.950000,12.569000,12.840000,12.241119,67800
2017-08-25,12.900000,14.043000,12.724000,13.870000,13.223079,129400
2017-08-28,14.160000,14.590000,13.580000,13.700000,13.061007,79600
2017-08-29,13.570000,14.100000,13.170000,14.000000,13.347015,130200
2017-08-30,14.000000,14.000000,13.800000,13.930000,13.280280,57600
2017-08-31,14.030000,14.400000,13.770000,13.910000,13.261213,54500
2017-09-01,13.830000,14.150000,13.760000,14.000000,13.347015,36900
2017-09-05,14.210000,14.290000,13.300000,13.550000,12.918004,91300
2017-09-06,13.820000,14.115000,13.750000,13.870000,13.223079,60300
2017-09-07,14.050000,14.200000,13.666000,13.860000,13.213545,44200
2017-09-08,13.860000,14.030000,13.413000,13.690000,13.051474,47800
2017-09-11,13.600000,14.140000,13.600000,13.930000,13.280280,49400
2017-09-12,14.000000,14.000000,13.200000,13.310000,12.689198,58500
2017-09-13,13.200000,13.240000,12.660000,12.850000,12.250653,46700
2017-09-14,12.820000,13.000000,12.700000,12.860000,12.260186,38700
2017-09-15,12.890000,13.020000,12.680000,12.970000,12.365057,70700
2017-09-18,13.000000,13.450000,12.830000,13.210000,12.593863,29400
2017-09-19,13.310000,13.350000,12.930000,13.200000,12.584329,18300
2017-09-20,13.499000,13.730000,13.140000,13.210000,12.593863,52800
2017-09-21,13.250000,13.410000,12.540000,12.670000,12.079049,66600
2017-09-22,12.640000,13.149000,12.310000,12.560000,11.974180,86000
2017-09-25,12.470000,12.510000,11.460000,11.640000,11.097090,121900
2017-09-26,11.570000,11.850000,11.490000,11.730000,11.182892,66100
2017-09-27,11.790000,12.280000,11.760000,12.180000,11.611903,41800
2017-09-28,12.150000,12.306000,11.581000,11.760000,11.211493,45900
2017-09-29,11.730000,11.880000,11.520000,11.590000,11.049422,17600
2017-10-02,11.540000,11.740000,11.200000,11.540000,11.001754,46800
2017-10-03,11.490000,12.000000,11.460000,11.920000,11.364030,80700
2017-10-04,11.820000,12.230000,11.704000,11.860000,11.306828,32100
2017-10-05,11.870000,12.210000,11.830000,12.200000,11.630970,33100
2017-10-06,12.000000,12.210000,11.900000,12.040000,11.478433,89900
2017-10-09,12.000000,12.025000,11.430000,11.470000,10.935019,70500
2017-10-10,11.660000,12.330000,11.570000,12.090000,11.526101,84800
2017-10-11,12.250000,12.250000,11.860000,11.940000,11.383097,15900
2017-10-12,11.890000,12.158000,11.750000,11.790000,11.240093,29700
2017-10-13,11.970000,12.170000,11.930000,12.140000,11.573770,34000
2017-10-16,12.240000,12.899000,12.240000,12.370000,11.793041,58400
2017-10-17,12.500000,12.750000,12.200000,12.400000,11.821642,39400
2017-10-18,12.480000,12.890000,12.440000,12.740000,12.145783,56900
2017-10-19,12.600000,12.660000,12.240000,12.590000,12.002780,37600
2017-10-20,12.750000,13.350000,12.330000,13.010000,12.403191,116900
2017-10-23,12.940000,13.320000,12.520000,12.530000,11.945579,69800
2017-10-24,12.630000,12.860000,12.480000,12.530000,11.945579,33000
2017-10-25,12.340000,12.340000,11.255000,11.980000,11.421231,113800
2017-10-26,11.770000,12.430000,11.770000,12.060000,11.497500,59800
2017-10-27,12.050000,12.200000,11.720000,12.020000,11.459367,82500
2017-10-30,12.050000,12.168000,11.820000,11.960000,11.402164,46300
2017-10-31,11.930000,12.130000,11.730000,12.010000,11.449833,81700
2017-11-01,11.980000,12.120000,11.585000,12.020000,11.459367,81500
2017-11-02,11.430000,11.789000,11.327000,11.570000,11.030354,74700
2017-11-03,11.660000,11.770000,11.370000,11.530000,10.992220,70500
2017-11-06,11.600000,12.075000,11.600000,11.850000,11.297296,80300
2017-11-07,12.050000,12.050000,11.330000,11.380000,10.849216,81200
2017-11-08,11.410000,11.410000,11.020000,11.090000,10.572743,66900
2017-11-09,11.050000,11.410000,10.960000,11.310000,10.782482,76500
2017-11-10,11.190000,11.450000,10.901000,11.200000,10.677612,25600
2017-11-13,11.180000,11.225000,11.050000,11.070000,10.553676,41700
2017-11-14,11.060000,11.067000,9.940000,9.990000,9.524049,153300
2017-11-15,9.940000,10.610000,9.750000,10.480000,9.991194,104500
2017-11-16,10.490000,10.660000,9.950000,10.150000,9.676586,155500
2017-11-17,10.120000,10.830000,10.120000,10.660000,10.162799,64500
2017-11-20,11.270000,11.675000,10.650000,11.560000,11.020822,159100
2017-11-21,11.690000,11.874000,11.160000,11.240000,10.715746,73000
2017-11-22,11.290000,11.380000,11.140000,11.270000,10.744348,18700
2017-11-24,11.230000,11.460000,11.230000,11.390000,10.858750,18000
2017-11-27,11.420000,11.480000,11.070000,11.120000,10.601343,21300
2017-11-28,11.220000,11.480000,11.140000,11.350000,10.820617,37500
2017-11-29,11.480000,11.910000,11.460000,11.700000,11.154291,70100
2017-11-30,11.770000,11.900000,11.330000,11.370000,10.839683,170100
2017-12-01,11.660000,11.860000,11.250000,11.780000,11.230559,73900
2017-12-04,11.990000,12.120000,11.724000,12.080000,11.516567,84500
2017-12-05,12.130000,12.210000,11.390000,11.550000,11.011288,103100
2017-12-06,11.550000,11.810000,11.360000,11.550000,11.011288,90300
2017-12-07,11.520000,11.770000,11.160000,11.380000,10.849216,73100
2017-12-08,11.580000,11.640000,11.333000,11.560000,11.020822,79800
2017-12-11,11.660000,12.120000,11.660000,12.010000,11.449833,130700
2017-12-12,11.970000,13.732000,11.934000,13.510000,12.879870,715100
2017-12-13,13.410000,13.500000,12.680000,12.890000,12.288788,146800
2017-12-14,12.840000,13.160000,12.590000,12.680000,12.088583,88100
2017-12-15,12.740000,13.280000,12.610000,12.880000,12.279254,123100
2017-12-18,13.320000,13.400000,12.980000,13.150000,12.536660,123000
2017-12-19,13.230000,13.570000,12.870000,12.970000,12.365057,75800
2017-12-20,12.980000,13.290000,12.770000,13.000000,12.393657,53700
2017-12-21,13.090000,13.920000,13.030000,13.630000,12.994273,185800
2017-12-22,13.660000,13.720000,13.251000,13.300000,12.679665,40500
2017-12-26,13.260000,13.454000,12.960000,13.350000,12.727333,153500
2017-12-27,13.380000,13.880000,13.325000,13.540000,12.908470,76100
2017-12-28,13.570000,13.580000,13.260000,13.560000,12.927538,29800
2017-12-29,13.660000,13.660000,13.230000,13.320000,12.698731,39900
2018-01-02,13.330000,13.380000,12.960000,13.270000,12.651064,75900
2018-01-03,13.300000,13.810000,13.300000,13.480000,12.851269,64700
2018-01-04,13.510000,14.340000,13.400000,14.010000,13.356549,120600
2018-01-05,14.110000,14.275000,13.830000,13.870000,13.223079,70700
2018-01-08,13.960000,13.970000,13.480000,13.610000,12.975205,57300
2018-01-09,13.670000,13.760000,13.400000,13.460000,12.832202,62900
2018-01-10,13.420000,13.538000,13.200000,13.290000,12.670131,79700
2018-01-11,13.200000,13.440000,13.095000,13.120000,12.508060,69700
2018-01-12,13.500000,14.310000,13.440000,14.260000,13.594889,405000
2018-01-16,14.530000,15.170000,13.760000,13.970000,13.318415,383500
2018-01-17,14.060000,14.140000,13.440000,14.010000,13.356549,136000
2018-01-18,14.040000,14.430000,13.640000,13.740000,13.099142,90200
2018-01-19,13.700000,13.990000,13.410000,13.850000,13.204012,52300
2018-01-22,13.850000,14.610000,13.750000,14.480000,13.804626,58500
2018-01-23,14.450000,14.490000,13.920000,14.100000,13.442351,82200
2018-01-24,14.210000,14.630000,13.770000,13.960000,13.308881,68300
2018-01-25,14.110000,14.420000,13.910000,14.170000,13.509087,92500
2018-01-26,14.300000,14.300000,13.950000,14.230000,13.566287,68300
2018-01-29,14.190000,14.260000,13.560000,13.700000,13.061007,96200
2018-01-30,13.540000,13.860000,12.610000,12.810000,12.212520,169400
2018-01-31,12.900000,13.379000,12.740000,13.010000,12.403191,112200
2018-02-01,12.910000,13.220000,12.530000,12.980000,12.374589,70800
2018-02-02,12.800000,12.870000,12.440000,12.590000,12.002780,66100
2018-02-05,12.400000,12.950000,12.040000,12.100000,11.535635,88600
2018-02-06,11.650000,12.800000,11.650000,12.560000,11.974180,74300
2018-02-07,12.590000,12.870000,12.180000,12.500000,11.916978,59100
2018-02-08,12.460000,12.650000,12.190000,12.220000,11.650038,66900
2018-02-09,12.390000,12.550000,12.080000,12.440000,11.859776,168300
2018-02-12,12.600000,13.190000,12.580000,12.870000,12.269720,90900
2018-02-13,12.750000,13.000000,12.600000,12.870000,12.269720,61500
2018-02-14,12.800000,13.110000,12.641000,12.960000,12.355523,40200
2018-02-15,13.130000,13.369000,12.850000,13.330000,12.708265,61400
2018-02-16,13.260000,13.600000,13.260000,13.470000,12.841736,48300
2018-02-20,13.400000,14.080000,13.400000,13.830000,13.184944,61100
2018-02-21,13.880000,13.960000,13.530000,13.650000,13.013339,38800
2018-02-22,13.680000,13.959000,13.680000,13.730000,13.089608,30400
2018-02-23,13.840000,13.900000,13.320000,13.480000,12.851269,32800
2018-02-26,13.570000,13.770000,13.058000,13.750000,13.108676,37800
2018-02-27,13.710000,13.870000,13.620000,13.690000,13.051474,74500
2018-02-28,13.840000,14.780000,13.740000,13.760000,13.118210,148500
2018-03-01,13.760000,14.500000,13.360000,13.980000,13.327948,164200
2018-03-02,13.890000,14.400000,13.750000,14.330000,13.661623,80600
2018-03-05,14.300000,15.030000,14.280000,14.850000,14.157371,188400
2018-03-06,14.900000,15.190000,14.700000,14.960000,14.262239,116400
2018-03-07,14.800000,15.180000,14.420000,14.470000,13.795094,65300
2018-03-08,14.480000,14.830000,14.380000,14.760000,14.071568,52400
2018-03-09,14.920000,15.130000,14.510000,14.790000,14.100168,101000
2018-03-12,15.450000,15.990000,15.160000,15.790000,15.053527,411800
2018-03-13,15.940000,16.290001,15.250000,15.470000,14.748452,348800
2018-03-14,15.510000,16.070000,15.250000,15.790000,15.053527,267200
2018-03-15,15.800000,15.900000,15.080000,15.220000,14.510113,127800
2018-03-16,15.290000,15.690000,15.010000,15.350000,14.634049,183300
2018-03-19,15.370000,15.430000,14.920000,15.360000,14.643582,94900
2018-03-20,15.390000,15.500000,15.000000,15.090000,14.386176,88800
2018-03-21,15.090000,15.840000,15.090000,15.510000,14.786587,130700
2018-03-22,15.410000,15.710000,15.120000,15.180000,14.471978,127800
2018-03-23,15.240000,15.240000,14.640000,14.670000,13.985765,216100
2018-03-26,14.920000,15.090000,14.690000,15.000000,14.300373,140000
2018-03-27,14.920000,15.450000,14.770000,14.880000,14.185970,117600
2018-03-28,14.760000,14.810000,13.680000,13.840000,13.194478,231400
2018-03-29,14.330000,14.960000,14.120000,14.220000,13.556754,174600
2018-04-02,14.090000,14.650000,13.850000,14.570000,13.890429,128200
2018-04-03,14.560000,14.690000,14.095000,14.360000,13.690224,85500
2018-04-04,14.000000,14.360000,13.700000,14.270000,13.604423,143900
2018-04-05,14.230000,15.000000,14.150000,14.750000,14.062034,131300
2018-04-06,14.640000,14.890000,14.160000,14.330000,13.661623,74000
2018-04-09,14.340000,14.520000,14.070000,14.120000,13.461418,91700
2018-04-10,14.240000,14.900000,14.240000,14.690000,14.004832,148000
2018-04-11,14.520000,15.110000,14.520000,14.770000,14.081101,169600
2018-04-12,14.850000,15.340000,14.850000,15.270000,14.557780,196000
2018-04-13,15.380000,15.510000,15.300000,15.500000,14.777053,127100
2018-04-16,15.730000,15.860000,15.400000,15.800000,15.063060,189800
2018-04-17,15.770000,15.980000,15.750000,15.860000,15.120261,155100
2018-04-18,15.840000,16.980000,15.840000,16.760000,15.978284,218700
2018-04-19,16.610001,16.980000,16.580999,16.830000,16.045019,181400
2018-04-20,16.709999,17.004999,16.610001,16.740000,15.959217,179700
2018-04-23,16.830000,16.830000,16.090000,16.740000,15.959217,118400
2018-04-24,16.809999,17.250000,16.129999,16.280001,15.520673,134500
2018-04-25,16.280001,16.530001,16.000000,16.440001,15.673210,74000
2018-04-26,16.440001,16.809999,16.299999,16.490000,15.720877,87300
2018-04-27,16.510000,16.780001,16.469999,16.670000,15.892482,95000
2018-04-30,16.650000,16.650000,15.950000,16.000000,15.253732,96500
2018-05-01,15.980000,16.080000,15.640000,16.080000,15.330000,68700
2018-05-02,16.010000,16.629999,16.000000,16.340000,15.577873,84300
2018-05-03,16.389999,16.730000,16.280001,16.709999,15.930615,79800
2018-05-04,16.750000,17.000000,16.500000,16.549999,15.778078,99000
2018-05-07,16.620001,17.240000,16.580000,17.059999,16.264292,144200
2018-05-08,17.100000,17.379999,17.100000,17.270000,16.464497,165800
2018-05-09,17.450001,18.980000,17.450001,17.820000,16.988844,349400
2018-05-10,17.980000,18.110001,17.280001,17.440001,16.626568,146700
2018-05-11,17.480000,18.139999,17.291000,18.020000,17.179516,192700
2018-05-14,18.080000,18.249001,17.809999,17.920000,17.084179,118500
2018-05-15,17.860001,18.030001,17.450001,17.870001,17.036512,278200
2018-05-16,17.820000,17.820000,17.459999,17.600000,16.779106,146700
2018-05-17,17.620001,17.930000,17.561001,17.730000,16.903042,229000
2018-05-18,17.750000,17.850000,17.510000,17.709999,16.883974,120800
2018-05-21,17.830000,18.150000,17.639999,17.780001,16.950710,538400
2018-05-22,17.809999,18.871000,17.691000,18.750000,17.875467,768900
2018-05-23,18.670000,18.889999,18.420000,18.469999,17.608526,310000
2018-05-24,18.459999,19.599001,18.360001,19.120001,18.228210,497800
2018-05-25,19.000000,19.059999,18.209999,18.240000,17.389254,151700
2018-05-29,18.139999,18.139999,17.080000,17.459999,16.645634,286200
2018-05-30,17.540001,18.670000,17.540001,18.600000,17.732464,362700
2018-05-31,18.540001,18.730000,18.250000,18.330000,17.475056,182300
2018-06-01,18.420000,18.920000,18.370001,18.770000,17.894535,139800
2018-06-04,18.809999,19.160000,18.809999,19.030001,18.142408,126400
2018-06-05,19.030001,19.040001,18.750000,18.990000,18.104273,149900
2018-06-06,19.059999,19.490000,18.570000,18.690001,17.818266,167200
2018-06-07,18.709999,20.065001,18.709999,19.709999,18.790689,364700
2018-06-08,19.820000,19.940001,19.500000,19.770000,18.847893,189700
2018-06-11,19.770000,19.860001,19.299999,19.570000,18.657221,113200
2018-06-12,19.500000,19.520000,18.836000,18.910000,18.028004,235400
2018-06-13,18.870001,19.010000,17.879999,18.280001,17.427389,225600
2018-06-14,18.209999,18.889999,18.110001,18.170000,17.322519,251400
2018-06-15,16.850000,16.879999,16.336000,16.610001,15.835280,2171100
2018-06-18,16.639999,17.270000,16.639999,17.230000,16.426361,750100
2018-06-19,17.049999,17.500000,16.809999,17.469999,16.655169,466200
2018-06-20,17.450001,17.469999,17.049999,17.190001,16.388229,254700
2018-06-21,17.200001,17.200001,16.410000,16.680000,15.902016,254900
2018-06-22,16.860001,17.334999,16.860001,17.139999,16.340559,458000
2018-06-25,17.139999,17.139999,16.400000,16.570000,15.797146,292000
2018-06-26,16.600000,16.830000,16.400000,16.700001,15.921083,206100
2018-06-27,16.709999,16.879999,15.930000,15.990000,15.244198,345300
2018-06-28,15.980000,16.002001,15.490000,15.830000,15.091660,329100
2018-06-29,15.850000,15.950000,15.500000,15.500000,14.777053,442600
2018-07-02,15.380000,15.410000,14.960000,15.310000,14.595915,256600
2018-07-03,15.500000,16.315001,15.490000,15.870000,15.129795,200900
2018-07-05,15.940000,16.190001,15.410000,15.530000,14.805654,219100
2018-07-06,15.570000,15.720000,15.400000,15.470000,14.748452,261800
2018-07-09,15.550000,15.810000,15.360000,15.750000,15.015392,146900
2018-07-10,15.760000,16.090000,15.750000,15.940000,15.196529,410600
2018-07-11,15.810000,15.940000,15.430000,15.470000,14.748452,179800
2018-07-12,15.600000,15.600000,15.060000,15.180000,14.471978,260400
2018-07-13,15.170000,15.250000,14.800000,15.080000,14.376642,279300
2018-07-16,15.040000,15.120000,14.400000,14.510000,13.833228,232800
2018-07-17,14.440000,14.980000,14.400000,14.850000,14.157371,164000
2018-07-18,15.140000,15.950000,14.840000,15.780000,15.043993,319000
2018-07-19,15.740000,15.960000,15.530000,15.560000,14.834254,155000
2018-07-20,15.560000,15.560000,14.990000,15.020000,14.319441,174500
2018-07-23,15.030000,15.530000,14.940000,15.050000,14.348042,102000
2018-07-24,15.260000,15.370000,15.030000,15.060000,14.357575,153300
2018-07-25,15.050000,15.430000,14.920000,15.330000,14.614982,166000
2018-07-26,15.230000,15.230000,14.820000,15.060000,14.357575,173900
2018-07-27,14.960000,15.010000,14.710000,14.730000,14.042966,108300
2018-07-30,14.780000,15.000000,14.431000,14.520000,13.842762,118600
2018-07-31,14.600000,14.910000,14.520000,14.850000,14.157371,226000
2018-08-01,14.700000,14.850000,14.270000,14.710000,14.023900,279500
2018-08-02,14.570000,14.900000,14.480000,14.750000,14.062034,80000
2018-08-03,14.760000,14.820000,14.400000,14.570000,13.890429,149700
2018-08-06,14.590000,14.990000,14.500000,14.790000,14.100168,71700
2018-08-07,14.930000,14.960000,14.548000,14.740000,14.052500,140800
2018-08-08,14.800000,14.825000,14.431000,14.510000,13.833228,122200
2018-08-09,14.500000,14.910000,13.450000,13.880000,13.232613,510200
2018-08-10,13.760000,14.030000,13.390000,13.490000,12.860803,330800
2018-08-13,13.420000,13.480000,13.140000,13.190000,12.574795,157100
2018-08-14,13.260000,13.360000,13.025000,13.200000,12.584329,257700
2018-08-15,13.130000,13.370000,12.440000,12.600000,12.012314,324300
2018-08-16,12.630000,12.830000,12.480000,12.520000,11.936046,181500
2018-08-17,12.550000,13.120000,12.550000,13.050000,12.441325,258200
2018-08-20,13.050000,13.540000,13.050000,13.370000,12.746400,234100
2018-08-21,13.450000,13.980000,13.450000,13.900000,13.251679,214700
2018-08-22,13.980000,14.390000,13.980000,14.120000,13.461418,206700
2018-08-23,14.050000,14.109000,13.750000,13.850000,13.204012,154600
2018-08-24,13.910000,14.180000,13.910000,13.990000,13.337481,219800
2018-08-27,14.000000,14.250000,13.815000,14.050000,13.394683,253400
2018-08-28,14.160000,14.500000,14.151000,14.420000,13.747426,165900
2018-08-29,14.480000,14.530000,14.250000,14.370000,13.699758,113100
2018-08-30,14.300000,14.360000,13.830000,14.090000,13.432817,147500
2018-08-31,14.000000,14.150000,13.370000,13.730000,13.089608,203500
2018-09-04,13.660000,13.740000,13.280000,13.300000,12.679665,228700
2018-09-05,13.210000,13.330000,12.760000,12.800000,12.202986,175200
2018-09-06,12.800000,12.870000,12.400000,12.540000,11.955112,336400
2018-09-07,12.450000,12.760000,12.450000,12.480000,11.897910,294700
2018-09-10,12.600000,12.870000,12.580000,12.680000,12.088583,239000
2018-09-11,12.580000,13.059000,12.530000,12.950000,12.345989,185200
2018-09-12,12.930000,13.340000,12.700000,12.770000,12.174385,201300
2018-09-13,12.800000,12.865000,12.490000,12.550000,11.964646,126900
2018-09-14,12.680000,13.380000,12.670000,13.130000,12.517593,237300
2018-09-17,13.190000,13.280000,12.764000,12.920000,12.317389,116300
2018-09-18,12.880000,13.210000,12.880000,13.130000,12.517593,119800
2018-09-19,13.130000,13.490000,13.130000,13.300000,12.679665,130300
2018-09-20,13.390000,13.750000,13.220000,13.720000,13.080075,183900
2018-09-21,13.700000,13.720000,13.240000,13.620000,12.984739,362800
2018-09-24,13.720000,13.890000,13.540000,13.610000,12.975205,94800
2018-09-25,13.630000,13.960000,13.630000,13.700000,13.061007,80400
2018-09-26,13.660000,14.020000,13.200000,13.280000,12.660597,223500
2018-09-27,13.330000,13.660000,13.270000,13.540000,12.908470,109500
2018-09-28,13.460000,14.110000,13.460000,14.000000,13.347015,146200
2018-10-01,14.250000,14.630000,13.910000,14.630000,13.947631,319700
2018-10-02,14.660000,14.760000,14.230000,14.400000,13.728358,122200
2018-10-03,14.430000,14.690000,14.225000,14.650000,13.966698,93300
2018-10-04,14.900000,15.060000,14.330000,14.380000,13.709291,274000
2018-10-05,14.430000,14.470000,14.260000,14.430000,13.756960,312700
2018-10-08,14.390000,14.610000,14.020000,14.100000,13.442351,92700
2018-10-09,14.200000,14.650000,13.830000,13.910000,13.261213,213100
2018-10-10,13.850000,13.850000,12.890000,12.910000,12.307855,217200
2018-10-11,12.850000,12.850000,12.410000,12.450000,11.869309,215200
2018-10-12,12.830000,13.210000,12.630000,12.910000,12.307855,343600
2018-10-15,12.910000,12.915000,12.585000,12.760000,12.164851,90500
2018-10-16,12.810000,12.890000,12.545000,12.670000,12.079049,97200
2018-10-17,12.650000,12.650000,12.040000,12.180000,11.611903,190500
2018-10-18,12.300000,12.490000,12.250000,12.360000,11.783507,246200
2018-10-19,12.360000,12.550000,11.960000,12.170000,11.602369,237600
2018-10-22,12.160000,12.640000,11.950000,12.490000,11.907444,197900
2018-10-23,12.240000,12.310000,11.635000,11.790000,11.240093,287300
2018-10-24,11.790000,11.900000,10.720000,10.790000,10.286736,301000
2018-10-25,10.980000,11.190000,10.830000,11.110000,10.591809,350800
2018-10-26,10.850000,11.030000,10.690000,10.760000,10.258135,382800
2018-10-29,10.850000,11.400000,10.540000,10.740000,10.239067,392900
2018-10-30,10.740000,10.960000,10.290000,10.550000,10.057930,237000
2018-10-31,10.670000,11.100000,10.530000,11.020000,10.506008,307100
2018-11-01,11.090000,11.400000,11.060000,11.210000,10.687146,116300
2018-11-02,11.330000,11.430000,11.130000,11.310000,10.782482,124500
2018-11-05,11.310000,11.430000,10.830000,10.930000,10.420206,92800
2018-11-06,10.880000,10.990000,10.770000,10.980000,10.467873,148600
2018-11-07,11.040000,11.100000,10.420000,10.480000,9.991194,195300
2018-11-08,10.290000,10.550000,9.870000,10.270000,9.790990,568100
2018-11-09,10.100000,10.520000,10.090000,10.400000,9.914926,852000
2018-11-12,10.440000,10.580000,10.080000,10.100000,9.628919,640800
2018-11-13,10.110000,10.160000,9.280000,9.320000,8.885299,861700
2018-11-14,9.470000,9.700000,8.750000,8.860000,8.446754,770400
2018-11-15,8.850000,9.159000,8.600000,8.830000,8.418153,538800
2018-11-16,8.820000,9.080000,8.660000,8.970000,8.551623,355100
2018-11-19,8.890000,8.960000,8.610000,8.720000,8.313284,370800
2018-11-20,8.510000,8.570000,8.180000,8.260000,7.874739,490000
2018-11-21,8.350000,8.860000,8.350000,8.710000,8.303750,271400
2018-11-23,8.600000,8.600000,8.350000,8.370000,7.979609,130900
2018-11-26,8.520000,8.720000,8.260000,8.670000,8.265616,438100
2018-11-27,8.650000,9.330000,8.650000,9.040000,8.618359,364100
2018-11-28,9.050000,9.120000,8.580000,8.820000,8.408619,350900
2018-11-29,8.730000,8.850000,8.570000,8.660000,8.256083,208800
2018-11-30,8.600000,8.610000,8.110000,8.350000,7.960542,328000
2018-12-03,8.600000,9.040000,8.600000,8.860000,8.446754,228800
2018-12-04,8.720000,8.910000,8.420000,8.470000,8.074944,263700
2018-12-06,8.340000,8.370000,8.050000,8.220000,7.836605,416800
2018-12-07,8.300000,8.520000,8.070000,8.090000,7.712668,331100
2018-12-10,8.020000,8.170000,7.830000,8.150000,7.769869,221200
2018-12-11,8.300000,8.430000,8.120000,8.190000,7.808003,160600
2018-12-12,8.340000,8.400000,8.190000,8.210000,7.827071,269000
2018-12-13,8.300000,8.330000,8.140000,8.290000,7.903340,139300
2018-12-14,8.130000,8.310000,8.000000,8.020000,7.645934,153500
2018-12-17,7.970000,8.100000,7.803000,7.850000,7.483862,428200
2018-12-18,7.850000,8.025000,7.780000,7.890000,7.521996,238000
2018-12-19,7.890000,8.520000,7.890000,8.000000,7.626866,255300
2018-12-20,7.900000,8.005000,7.400000,7.430000,7.083451,296500
2018-12-21,7.400000,7.870000,7.370000,7.580000,7.226455,475700
2018-12-24,7.600000,7.800000,7.420000,7.540000,7.188321,276400
2018-12-26,7.650000,8.010000,7.280000,8.000000,7.626866,233400
2018-12-27,7.800000,7.960000,7.460000,7.750000,7.388526,205600
2018-12-28,7.750000,7.890000,7.603000,7.800000,7.436194,152600
2018-12-31,7.800000,7.890000,7.520000,7.890000,7.521996,212400
2019-01-02,7.730000,8.420000,7.690000,8.290000,7.903340,317700
2019-01-03,8.380000,8.790000,8.160000,8.390000,7.998676,251100
2019-01-04,8.610000,8.930000,8.550000,8.810000,8.399086,161200
2019-01-07,8.810000,9.405000,8.670000,9.280000,8.847164,234900
2019-01-08,9.440000,9.810000,9.440000,9.600000,9.152240,196400
2019-01-09,9.700000,9.730000,9.250000,9.290000,8.856698,176600
2019-01-10,9.190000,9.250000,8.730000,9.000000,8.580224,163700
2019-01-11,8.940000,8.960000,8.750000,8.840000,8.427687,78100
2019-01-14,8.750000,8.930000,8.570000,8.580000,8.179813,98500
2019-01-15,8.520000,8.550000,8.060000,8.300000,7.912874,177500
2019-01-16,8.200000,8.430000,8.100000,8.370000,7.979609,149200
2019-01-17,8.280000,8.650000,8.250000,8.460000,8.065411,108500
2019-01-18,8.560000,9.030000,8.450000,8.900000,8.484888,180700
2019-01-22,8.680000,8.900000,8.100000,8.260000,7.874739,385100
2019-01-23,8.440000,8.440000,8.100000,8.220000,7.836605,228700
2019-01-24,8.070000,8.480000,8.070000,8.410000,8.017742,140000
2019-01-25,8.370000,8.550000,8.160000,8.230000,7.846138,131900
2019-01-28,8.040000,8.060000,7.220000,7.540000,7.188321,381100
2019-01-29,7.520000,7.590000,7.230000,7.260000,6.921381,181500
2019-01-30,7.160000,7.640000,6.830000,7.510000,7.159720,535900
2019-01-31,7.510000,7.790000,7.320000,7.370000,7.026250,257900
2019-02-01,7.440000,7.580000,7.100000,7.550000,7.197855,273300
2019-02-04,7.520000,7.520000,7.245000,7.290000,6.949982,177700
2019-02-05,7.270000,7.560000,7.270000,7.440000,7.092985,125200
2019-02-06,7.400000,7.810000,7.330000,7.730000,7.369459,205000
2019-02-07,7.640000,7.705000,7.260000,7.310000,6.969049,172400
2019-02-08,7.260000,7.380000,7.160000,7.350000,7.007183,117500
2019-02-11,7.360000,7.460000,7.200000,7.440000,7.092985,132200
2019-02-12,7.490000,7.920000,7.470000,7.870000,7.502929,119400
2019-02-13,7.940000,7.950000,7.720000,7.860000,7.493396,95700
2019-02-14,7.820000,8.020000,7.820000,7.940000,7.569664,190500
2019-02-15,7.990000,8.340000,7.940000,8.280000,7.893806,244200
2019-02-19,8.290000,8.470000,7.950000,8.020000,7.645934,195900
2019-02-20,7.990000,8.060000,7.890000,7.930000,7.560131,101700
2019-02-21,8.000000,8.210000,8.000000,8.190000,7.808003,158500
2019-02-22,8.230000,8.480000,8.200000,8.410000,8.017742,234600
2019-02-25,8.500000,8.660000,8.260000,8.300000,7.912874,203700
2019-02-26,8.270000,8.500000,8.100000,8.390000,7.998676,240100
2019-02-27,8.370000,8.370000,8.120000,8.130000,7.750803,263300
2019-02-28,8.130000,8.210000,7.940000,8.140000,7.760336,252100
2019-03-01,8.170000,8.330000,8.110000,8.220000,7.836605,226500
2019-03-04,8.380000,8.470000,8.200000,8.390000,7.998676,294100
2019-03-05,8.950000,9.550000,8.680000,8.740000,8.332351,645200
2019-03-06,8.900000,8.900000,8.600000,8.610000,8.208414,303700
2019-03-07,8.500000,8.560000,8.160000,8.210000,7.827071,226400
2019-03-08,8.090000,8.140000,7.690000,7.850000,7.483862,373600
2019-03-11,7.900000,8.330000,7.830000,8.310000,7.922407,327700
2019-03-12,8.340000,8.630000,8.330000,8.580000,8.179813,179700
2019-03-13,8.620000,8.960000,8.560000,8.600000,8.198881,265700
2019-03-14,8.620000,8.730000,8.560000,8.630000,8.227482,82100
2019-03-15,8.650000,8.750000,8.520000,8.570000,8.170280,156800
2019-03-18,8.570000,8.730000,8.420000,8.560000,8.160747,301000
2019-03-19,8.600000,8.680000,8.500000,8.560000,8.160747,313200
2019-03-20,8.540000,8.650000,8.300000,8.360000,7.970075,148000
2019-03-21,8.270000,8.490000,8.170000,8.350000,7.960542,157200
2019-03-22,8.270000,8.270000,7.750000,7.770000,7.407593,224000
2019-03-25,7.750000,7.970000,7.410000,7.910000,7.541063,371700
2019-03-26,7.970000,8.068000,7.460000,7.470000,7.121586,155100
2019-03-27,7.470000,7.684000,7.180000,7.300000,6.959515,222400
2019-03-28,7.310000,7.460000,7.080000,7.350000,7.007183,183600
2019-03-29,7.420000,7.543000,7.320000,7.460000,7.112052,173900
2019-04-01,7.550000,7.910000,7.540000,7.880000,7.512463,151100
2019-04-02,7.950000,8.050000,7.640000,7.720000,7.359925,209200
2019-04-03,7.780000,7.920000,7.740000,7.890000,7.521996,143100
2019-04-04,7.910000,8.200000,7.860000,8.100000,7.722202,138400
2019-04-05,8.100000,8.345000,8.010000,8.290000,7.903340,130800
2019-04-08,8.300000,8.540000,8.210000,8.420000,8.027276,197800
2019-04-09,8.390000,8.560000,8.260000,8.500000,8.103545,189800
2019-04-10,8.500000,8.720000,8.310000,8.660000,8.256083,140400
2019-04-11,8.660000,8.970000,8.450000,8.540000,8.141679,143100
2019-04-12,8.690000,8.750000,8.410000,8.510000,8.113079,138600
2019-04-15,8.570000,8.600000,8.334000,8.460000,8.065411,77400
2019-04-16,8.520000,8.620000,8.300000,8.570000,8.170280,181900
2019-04-17,8.720000,8.870000,8.630000,8.740000,8.332351,166000
2019-04-18,8.750000,8.800000,8.484000,8.670000,8.265616,108800
2019-04-22,8.660000,8.850000,8.380000,8.810000,8.399086,132300
2019-04-23,8.860000,9.340000,8.690000,9.220000,8.789963,248500
2019-04-24,9.170000,9.320000,8.950000,9.020000,8.599292,201300
2019-04-25,8.960000,8.960000,8.540000,8.700000,8.294216,210900
2019-04-26,8.830000,8.990000,8.676000,8.870000,8.456287,143300
2019-04-29,9.010000,9.820000,8.997000,9.720000,9.266643,279400
2019-04-30,9.750000,10.170000,9.718000,10.100000,9.628919,280000
2019-05-01,10.430000,10.658000,10.270000,10.330000,9.848190,472000
2019-05-02,10.340000,10.640000,9.895000,9.950000,9.485914,236900
2019-05-03,10.030000,10.150000,9.770000,10.140000,9.667053,164500
2019-05-06,9.880000,10.035000,9.610000,9.780000,9.323843,216100
2019-05-07,9.640000,9.750000,8.800000,8.830000,8.418153,249400
2019-05-08,8.870000,9.450000,8.850000,9.310000,8.875766,251400
2019-05-09,8.850000,8.989000,8.250000,8.710000,8.303750,377800
2019-05-10,8.860000,9.090000,8.560000,9.070000,8.646959,290400
2019-05-13,8.770000,8.940000,8.370000,8.410000,8.017742,187700
2019-05-14,8.450000,8.530000,8.270000,8.300000,7.912874,184500
2019-05-15,8.320000,8.650000,8.080000,8.620000,8.217948,202400
2019-05-16,8.650000,8.780000,8.420000,8.490000,8.094011,112500
2019-05-17,8.360000,8.500000,8.111000,8.130000,7.750803,158600
2019-05-20,8.050000,8.090000,7.890000,7.940000,7.569664,164000
2019-05-21,7.990000,8.158000,7.845000,7.870000,7.502929,188600
2019-05-22,7.930000,8.140000,7.730000,7.740000,7.378993,110100
2019-05-23,7.610000,7.690000,7.215000,7.570000,7.216922,440500
2019-05-24,7.630000,7.770000,7.390000,7.430000,7.083451,160300
2019-05-28,7.430000,7.660000,7.250000,7.490000,7.140653,314800
2019-05-29,7.370000,7.500000,7.310000,7.450000,7.102519,209200
2019-05-30,7.470000,7.563000,7.320000,7.370000,7.026250,172700
2019-05-31,7.200000,7.283000,7.110000,7.230000,6.892780,151400
2019-06-03,7.210000,7.670000,7.200000,7.540000,7.188321,371100
2019-06-04,7.650000,7.770000,7.470000,7.720000,7.359925,225800
2019-06-05,7.720000,7.730000,7.410000,7.560000,7.207388,180500
2019-06-06,7.560000,7.630000,7.460000,7.530000,7.178788,209900
2019-06-07,7.570000,7.780000,7.450000,7.750000,7.388526,160700
2019-06-10,7.760000,7.860000,7.400000,7.460000,7.112052,256300
2019-06-11,7.590000,7.660000,7.330000,7.540000,7.188321,153500
2019-06-12,7.470000,7.520000,7.180000,7.220000,6.883246,157000
2019-06-13,7.300000,7.540000,7.286000,7.480000,7.131120,182100
2019-06-14,7.390000,7.460000,7.040000,7.180000,6.845112,249300
2019-06-17,7.170000,7.380000,7.100000,7.300000,6.959515,159200
2019-06-18,7.370000,7.860000,7.370000,7.730000,7.369459,199100
2019-06-19,7.760000,8.290000,7.725000,8.060000,7.684068,201100
2019-06-20,8.250000,8.280000,7.980000,8.060000,7.684068,115900
2019-06-21,8.010000,8.060000,7.830000,7.860000,7.493396,221800
2019-06-24,7.820000,7.940000,7.540000,7.610000,7.255056,141500
2019-06-25,7.600000,7.680000,7.540000,7.640000,7.283657,113300
2019-06-26,7.780000,8.020000,7.750000,7.800000,7.436194,171700
2019-06-27,7.880000,8.250000,7.880000,8.200000,7.817537,163600
2019-06-28,8.250000,8.630000,8.200000,8.440000,8.046343,692600
2019-07-01,8.700000,8.880000,8.630000,8.700000,8.294216,154300
2019-07-02,8.700000,8.770000,8.460000,8.590000,8.189347,125800
2019-07-03,8.630000,8.860000,8.600000,8.730000,8.322817,143800
2019-07-05,8.660000,9.890000,8.660000,9.870000,9.409646,467700
2019-07-08,9.910000,10.330000,9.830000,10.310000,9.829123,453700
2019-07-09,10.280000,10.740000,10.010000,10.620000,10.124664,314800
2019-07-10,10.700000,10.810000,10.440000,10.740000,10.239067,330500
2019-07-11,10.730000,10.880000,10.540000,10.730000,10.229533,186300
2019-07-12,10.750000,10.990000,10.650000,10.910000,10.401138,229400
2019-07-15,10.920000,11.000000,10.600000,10.660000,10.162799,176100
2019-07-16,10.650000,10.860000,10.430000,10.510000,10.019795,288000
2019-07-17,10.510000,10.510000,9.880000,9.990000,9.524049,329600
2019-07-18,9.970000,10.180000,9.840000,10.010000,9.543117,373000
2019-07-19,10.050000,10.480000,10.030000,10.410000,9.924459,196500
2019-07-22,10.570000,11.040000,10.500000,10.970000,10.458340,285000
2019-07-23,10.990000,11.060000,10.570000,10.700000,10.200933,194800
2019-07-24,10.670000,10.690000,10.179000,10.240000,9.762388,345300
2019-07-25,10.220000,10.370000,9.740000,9.850000,9.390579,229900
2019-07-26,9.850000,10.030000,9.680000,9.980000,9.514515,135600
2019-07-29,10.020000,10.036000,9.750000,9.760000,9.304776,219400
2019-07-30,9.660000,9.820000,9.370000,9.700000,9.247575,218700
2019-07-31,9.710000,9.880000,9.500000,9.620000,9.171306,218300
2019-08-01,9.560000,9.665000,9.220000,9.230000,8.799496,150700
2019-08-02,9.170000,9.220000,8.870000,9.110000,8.685093,192500
2019-08-05,8.850000,8.881000,8.370000,8.500000,8.103545,238200
2019-08-06,8.620000,8.740000,8.420000,8.740000,8.332351,195800
2019-08-07,8.550000,8.620000,8.380000,8.510000,8.113079,193100
2019-08-08,8.210000,8.730000,7.785000,8.460000,8.065411,384100
2019-08-09,8.310000,8.550000,8.050000,8.130000,7.750803,209600
2019-08-12,8.040000,8.080000,7.870000,7.980000,7.607799,145600
2019-08-13,7.900000,8.370000,7.880000,8.160000,7.779403,264400
2019-08-14,7.950000,8.050000,7.820000,7.980000,7.607799,180300
2019-08-15,8.030000,8.058000,7.830000,7.890000,7.521996,208000
2019-08-16,7.980000,8.140000,7.840000,8.060000,7.684068,178100
2019-08-19,8.250000,8.630000,8.170000,8.540000,8.141679,190000
2019-08-20,8.480000,8.660000,8.430000,8.580000,8.179813,108800
2019-08-21,8.690000,8.990000,8.540000,8.830000,8.418153,351900
2019-08-22,8.980000,8.980000,8.650000,8.770000,8.360952,159000
2019-08-23,8.630000,8.880000,8.350000,8.550000,8.151213,349900
2019-08-26,8.680000,8.870000,8.550000,8.660000,8.256083,276400
2019-08-27,8.750000,8.970000,8.460000,8.710000,8.303750,431100
2019-08-28,8.640000,8.870000,8.600000,8.710000,8.303750,280200
2019-08-29,8.820000,8.970000,8.680000,8.940000,8.523023,277300
2019-08-30,9.030000,9.705000,9.030000,9.560000,9.114105,385600
2019-09-03,9.750000,9.800000,9.309000,9.630000,9.180840,276000
2019-09-04,9.770000,9.890000,9.440000,9.790000,9.333377,183300
2019-09-05,9.930000,10.110000,9.780000,10.060000,9.590784,230900
2019-09-06,10.070000,10.210000,9.840000,10.010000,9.543117,213000
2019-09-09,10.090000,10.500000,10.020000,10.270000,9.790990,282600
2019-09-10,10.280000,10.650000,10.180000,10.310000,9.829123,284200
2019-09-11,10.250000,10.480000,9.900000,10.480000,9.991194,275600
2019-09-12,10.510000,10.600000,10.110000,10.570000,10.076996,172500
2019-09-13,10.660000,11.140000,10.660000,10.970000,10.458340,188200
2019-09-16,10.940000,11.130000,10.550000,10.590000,10.096064,167600
2019-09-17,10.560000,10.560000,10.080000,10.200000,9.724254,136600
2019-09-18,10.140000,10.240000,9.840000,10.120000,9.647985,132000
2019-09-19,10.120000,10.160000,9.720000,9.760000,9.304776,228700
2019-09-20,9.720000,9.830000,9.410000,9.560000,9.114105,195300
2019-09-23,9.450000,9.780000,9.450000,9.700000,9.247575,139500
2019-09-24,9.700000,9.820000,9.240000,9.410000,8.971101,188600
2019-09-25,9.320000,9.590000,9.250000,9.440000,8.999701,116300
2019-09-26,9.370000,9.370000,9.020000,9.160000,8.732761,150600
2019-09-27,9.180000,9.440000,9.120000,9.360000,8.923432,155800
2019-09-30,9.490000,9.490000,9.110000,9.200000,8.770896,136600
2019-10-01,9.340000,9.570000,8.880000,8.920000,8.503956,219600
2019-10-02,8.820000,8.940000,8.650000,8.750000,8.341885,122600
2019-10-03,8.700000,9.010000,8.610000,8.930000,8.513490,207700
2019-10-04,9.010000,9.440000,8.990000,9.420000,8.980635,101100
2019-10-07,9.400000,9.800000,9.400000,9.540000,9.095037,185000
2019-10-08,9.450000,9.524000,9.150000,9.290000,8.856698,178700
2019-10-09,9.420000,9.790000,9.360000,9.760000,9.304776,146100
2019-10-10,9.860000,10.290000,9.750000,10.270000,9.790990,261700
2019-10-11,10.530000,10.750000,10.260000,10.370000,9.886325,331300
2019-10-14,10.260000,10.370000,9.960000,10.110000,9.638452,208500
2019-10-15,10.150000,10.280000,9.870000,9.920000,9.457314,192600
2019-10-16,9.880000,10.330000,9.880000,10.200000,9.724254,182600
2019-10-17,10.260000,10.420000,10.160000,10.200000,9.724254,109800
2019-10-18,10.110000,10.350000,9.940000,10.040000,9.571716,202700
2019-10-21,10.100000,10.330000,9.940000,10.020000,9.552649,91500
2019-10-22,9.990000,10.000000,9.795000,9.950000,9.485914,140200
2019-10-23,10.030000,10.990000,10.030000,10.990000,10.477407,529500
2019-10-24,11.000000,11.530000,11.000000,11.100000,10.582276,479600
2019-10-25,11.010000,11.055000,10.490000,10.510000,10.019795,314600
2019-10-28,10.730000,11.050000,10.670000,10.740000,10.239067,261400
2019-10-29,10.660000,10.950000,10.470000,10.850000,10.343937,240800
2019-10-30,10.780000,10.840000,10.360000,10.450000,9.962593,189600
2019-10-31,10.460000,10.460000,9.780000,9.880000,9.419180,226800
2019-11-01,9.930000,10.230000,9.930000,10.220000,9.743321,129900
2019-11-04,10.360000,10.745000,10.330000,10.620000,10.124664,205400
2019-11-05,10.660000,10.942000,10.360000,10.410000,9.924459,242000
2019-11-06,10.370000,10.370000,9.640000,9.900000,9.438246,314800
2019-11-07,10.540000,11.231000,10.070000,10.870000,10.363004,730000
2019-11-08,10.930000,11.470000,10.630000,11.430000,10.896885,504400
2019-11-11,11.140000,11.180000,10.800000,11.140000,10.620411,298800
2019-11-12,11.120000,11.820000,10.980000,11.350000,10.820617,469400
2019-11-13,11.330000,11.362000,10.835000,10.890000,10.382071,286700
2019-11-14,10.840000,11.090000,10.810000,10.850000,10.343937,227300
2019-11-15,11.030000,11.140000,10.780000,10.890000,10.382071,196200
2019-11-18,10.930000,10.990000,10.790000,10.860000,10.353470,196100
2019-11-19,10.840000,10.900000,10.630000,10.720000,10.220000,331500
2019-11-20,10.210000,10.520000,9.930000,10.220000,10.220000,348700
2019-11-21,10.290000,10.410000,10.146000,10.350000,10.350000,167300
2019-11-22,10.390000,10.520000,10.190000,10.330000,10.330000,308900
2019-11-25,10.250000,10.400000,10.200000,10.320000,10.320000,287900
2019-11-26,10.330000,10.530000,10.225000,10.370000,10.370000,227700
2019-11-27,10.420000,10.550000,10.360000,10.510000,10.510000,295700
2019-11-29,10.500000,10.670000,10.480000,10.500000,10.500000,652300
2019-12-02,10.630000,10.680000,10.360000,10.400000,10.400000,243500
2019-12-03,10.230000,10.295000,9.760000,10.030000,10.030000,201200
2019-12-04,10.170000,10.340000,10.038000,10.170000,10.170000,203000
2019-12-05,10.220000,10.276000,9.980000,10.000000,10.000000,139600
2019-12-06,10.130000,10.380000,10.130000,10.200000,10.200000,152000
2019-12-09,10.190000,10.330000,10.120000,10.220000,10.220000,136300
2019-12-10,10.200000,10.550000,10.180000,10.440000,10.440000,259600
2019-12-11,10.420000,10.440000,10.170000,10.260000,10.260000,135200
2019-12-12,10.200000,10.300000,9.900000,9.950000,9.950000,164100
2019-12-13,9.970000,10.110000,9.650000,9.710000,9.710000,163900
2019-12-16,9.790000,10.000000,9.700000,9.710000,9.710000,192100
2019-12-17,9.750000,9.830000,9.610000,9.660000,9.660000,134100
2019-12-18,9.700000,10.100000,9.610000,10.080000,10.080000,428900
2019-12-19,10.170000,10.880000,10.170000,10.660000,10.660000,479300
2019-12-20,10.650000,10.770000,10.500000,10.720000,10.720000,287900
2019-12-23,10.750000,10.860000,10.700000,10.760000,10.760000,204800
2019-12-24,10.750000,10.940000,10.740000,10.760000,10.760000,196000
2019-12-26,10.820000,11.220000,10.740000,10.860000,10.860000,592300
2019-12-27,10.870000,10.950000,10.447000,10.600000,10.600000,295200
2019-12-30,10.500000,10.890000,10.500000,10.630000,10.630000,108000
2019-12-31,10.610000,10.769000,10.600000,10.620000,10.620000,120600
2020-01-02,10.790000,10.790000,10.325000,10.370000,10.370000,293900
2020-01-03,10.340000,10.530000,10.130000,10.300000,10.300000,269500
2020-01-06,10.150000,10.220000,9.760000,10.160000,10.160000,284000
2020-01-07,10.130000,10.470000,10.115000,10.440000,10.440000,137300
2020-01-08,10.440000,10.720000,10.230000,10.330000,10.330000,183200
2020-01-09,10.370000,10.393000,10.130000,10.150000,10.150000,121300
2020-01-10,10.140000,10.270000,9.930000,10.070000,10.070000,160000
2020-01-13,10.090000,10.090000,9.810000,9.880000,9.880000,191700
2020-01-14,9.900000,10.180000,9.810000,10.000000,10.000000,157800
2020-01-15,10.000000,10.040000,9.820000,9.880000,9.880000,113500
2020-01-16,9.980000,10.060000,9.770000,9.780000,9.780000,120000
2020-01-17,9.800000,10.030000,9.630000,9.740000,9.740000,201600
2020-01-21,9.760000,9.760000,9.250000,9.390000,9.390000,273000
2020-01-22,9.360000,9.480000,9.050000,9.140000,9.140000,204500
2020-01-23,8.990000,9.130000,8.525000,8.990000,8.990000,249200
2020-01-24,9.050000,9.050000,8.610000,8.730000,8.730000,188900
2020-01-27,8.400000,8.580000,8.090000,8.400000,8.400000,290500
2020-01-28,8.400000,8.570000,8.280000,8.310000,8.310000,242900
2020-01-29,8.570000,8.570000,8.210000,8.350000,8.350000,210100
2020-01-30,8.240000,8.350000,8.015000,8.220000,8.220000,179500
2020-01-31,8.110000,8.220000,7.810000,7.870000,7.870000,204100
2020-02-03,7.850000,7.860000,7.610000,7.640000,7.640000,178700
2020-02-04,7.800000,7.930000,7.780000,7.890000,7.890000,160000
2020-02-05,8.010000,8.175000,8.010000,8.120000,8.120000,261200
2020-02-06,8.120000,8.190000,7.780000,8.050000,8.050000,323800
2020-02-07,8.000000,8.000000,7.680000,7.690000,7.690000,233800
2020-02-10,7.700000,7.770000,7.330000,7.620000,7.620000,351200
2020-02-11,7.710000,8.420000,7.710000,8.280000,8.280000,413800
2020-02-12,8.450000,8.760000,8.250000,8.270000,8.270000,247800
2020-02-13,8.180000,8.240000,7.730000,7.810000,7.810000,294300
