Date,Open,High,Low,Close,Adj Close,Volume
2012-09-21,0.250000,0.250000,0.250000,0.250000,0.250000,0
2012-09-24,0.250000,0.250000,0.250000,0.250000,0.250000,50000
2012-09-25,0.300000,0.300000,0.300000,0.300000,0.300000,35000
2012-09-26,0.300000,0.300000,0.300000,0.300000,0.300000,30000
2012-09-27,0.290000,0.300000,0.200000,0.200000,0.200000,56331
2012-09-28,0.250000,0.250000,0.250000,0.250000,0.250000,8100
2012-10-01,0.270000,0.275000,0.200000,0.200000,0.200000,49369
2012-10-02,0.200000,0.200000,0.200000,0.200000,0.200000,675769
2012-10-03,0.200000,0.200000,0.200000,0.200000,0.200000,62769
2012-10-04,0.200000,0.200000,0.160000,0.160000,0.160000,10038
2012-10-05,0.160000,0.160000,0.160000,0.160000,0.160000,0
2012-10-08,0.160000,0.160000,0.160000,0.160000,0.160000,0
2012-10-09,0.160000,0.160000,0.160000,0.160000,0.160000,0
2012-10-10,0.210000,0.210000,0.210000,0.210000,0.210000,3000
2012-10-11,0.200000,0.200000,0.160000,0.180000,0.180000,823001
2012-10-12,0.180000,0.180000,0.180000,0.180000,0.180000,0
2012-10-15,0.190000,0.200000,0.170000,0.170000,0.170000,245524
2012-10-16,0.170000,0.170000,0.170000,0.170000,0.170000,8000
2012-10-17,0.170000,0.170000,0.170000,0.170000,0.170000,0
2012-10-18,0.170000,0.170000,0.170000,0.170000,0.170000,0
2012-10-19,0.170000,0.170000,0.170000,0.170000,0.170000,0
2012-10-22,0.170000,0.170000,0.170000,0.170000,0.170000,0
2012-10-23,0.160000,0.160000,0.135000,0.140000,0.140000,40300
2012-10-24,0.100000,0.100000,0.075000,0.075000,0.075000,58000
2012-10-25,0.140000,0.140000,0.100000,0.100000,0.100000,1023000
2012-10-26,0.085000,0.120000,0.085000,0.120000,0.120000,760100
2012-10-31,0.120000,0.120000,0.120000,0.120000,0.120000,6000
2012-11-01,0.120000,0.120000,0.120000,0.120000,0.120000,0
2012-11-02,0.120000,0.120000,0.120000,0.120000,0.120000,0
2012-11-05,0.125000,0.125000,0.100000,0.100000,0.100000,131000
2012-11-06,0.100000,0.100000,0.100000,0.100000,0.100000,10000
2012-11-07,0.090000,0.090000,0.090000,0.090000,0.090000,12500
2012-11-08,0.110000,0.110000,0.110000,0.110000,0.110000,100000
2012-11-09,0.110000,0.110000,0.110000,0.110000,0.110000,0
2012-11-12,0.110000,0.110000,0.110000,0.110000,0.110000,0
2012-11-13,0.110000,0.110000,0.110000,0.110000,0.110000,75000
2012-11-14,0.100000,0.100000,0.100000,0.100000,0.100000,10000
2012-11-15,0.100000,0.100000,0.100000,0.100000,0.100000,0
2012-11-16,0.100000,0.100000,0.100000,0.100000,0.100000,0
2012-11-19,0.090000,0.090000,0.090000,0.090000,0.090000,37500
2012-11-20,0.090000,0.090000,0.090000,0.090000,0.090000,0
2012-11-21,0.070000,0.070000,0.070000,0.070000,0.070000,5400
2012-11-23,0.090000,0.090000,0.090000,0.090000,0.090000,20000
2012-11-26,0.090000,0.090000,0.090000,0.090000,0.090000,25768
2012-11-27,0.090000,0.090000,0.090000,0.090000,0.090000,0
2012-11-28,0.090000,0.090000,0.090000,0.090000,0.090000,7000
2012-11-29,0.090000,0.090000,0.090000,0.090000,0.090000,0
2012-11-30,0.090000,0.090000,0.090000,0.090000,0.090000,0
2012-12-03,0.080000,0.080000,0.050000,0.050000,0.050000,21480
2012-12-04,0.050000,0.050000,0.050000,0.050000,0.050000,0
2012-12-05,0.050000,0.050000,0.050000,0.050000,0.050000,0
2012-12-06,0.060000,0.070000,0.060000,0.070000,0.070000,26000
2012-12-07,0.070000,0.070000,0.070000,0.070000,0.070000,0
2012-12-10,0.060000,0.060000,0.055000,0.055000,0.055000,69000
2012-12-11,0.055000,0.055000,0.055000,0.055000,0.055000,0
2012-12-12,0.070000,0.070000,0.070000,0.070000,0.070000,100000
2012-12-13,0.055000,0.060000,0.050000,0.060000,0.060000,303800
2012-12-14,0.050000,0.050000,0.045000,0.045000,0.045000,50000
2012-12-17,0.050000,0.050000,0.035000,0.035000,0.035000,93000
2012-12-18,0.040000,0.050000,0.040000,0.050000,0.050000,317000
2012-12-19,0.050000,0.050000,0.050000,0.050000,0.050000,151000
2012-12-20,0.055000,0.060000,0.055000,0.060000,0.060000,75000
2012-12-21,0.055000,0.055000,0.050000,0.050000,0.050000,17000
2012-12-24,0.050000,0.055000,0.050000,0.055000,0.055000,57000
2012-12-26,0.055000,0.055000,0.055000,0.055000,0.055000,0
2012-12-27,0.055000,0.055000,0.055000,0.055000,0.055000,0
2012-12-28,0.055000,0.055000,0.055000,0.055000,0.055000,0
2012-12-31,0.050000,0.050000,0.050000,0.050000,0.050000,2000
2013-01-02,0.050000,0.050000,0.050000,0.050000,0.050000,0
2013-01-03,0.055000,0.060000,0.055000,0.060000,0.060000,14000
2013-01-04,0.060000,0.060000,0.060000,0.060000,0.060000,0
2013-01-07,0.060000,0.060000,0.060000,0.060000,0.060000,0
2013-01-08,0.060000,0.060000,0.060000,0.060000,0.060000,0
2013-01-09,0.060000,0.060000,0.060000,0.060000,0.060000,0
2013-01-10,0.060000,0.060000,0.060000,0.060000,0.060000,0
2013-01-11,0.060000,0.060000,0.060000,0.060000,0.060000,0
2013-01-14,0.060000,0.060000,0.060000,0.060000,0.060000,0
2013-01-15,0.080000,0.080000,0.080000,0.080000,0.080000,10000
2013-01-16,0.065000,0.065000,0.065000,0.065000,0.065000,100418
2013-01-17,0.085000,0.085000,0.085000,0.085000,0.085000,1000
2013-01-18,0.085000,0.085000,0.085000,0.085000,0.085000,0
2013-01-22,0.080000,0.080000,0.065000,0.065000,0.065000,72000
2013-01-23,0.080000,0.080000,0.080000,0.080000,0.080000,11000
2013-01-24,0.080000,0.080000,0.080000,0.080000,0.080000,0
2013-01-25,0.080000,0.080000,0.080000,0.080000,0.080000,0
2013-01-28,0.080000,0.080000,0.080000,0.080000,0.080000,8500
2013-01-29,0.070000,0.070000,0.070000,0.070000,0.070000,16400
2013-01-30,0.070000,0.070000,0.070000,0.070000,0.070000,0
2013-01-31,0.070000,0.070000,0.070000,0.070000,0.070000,0
2013-02-01,0.070000,0.070000,0.070000,0.070000,0.070000,0
2013-02-04,0.070000,0.070000,0.070000,0.070000,0.070000,0
2013-02-05,0.070000,0.070000,0.070000,0.070000,0.070000,0
2013-02-06,0.070000,0.070000,0.070000,0.070000,0.070000,0
2013-02-07,0.070000,0.070000,0.070000,0.070000,0.070000,8000
2013-02-08,0.070000,0.070000,0.070000,0.070000,0.070000,0
2013-02-11,0.070000,0.070000,0.070000,0.070000,0.070000,0
2013-02-12,0.070000,0.070000,0.070000,0.070000,0.070000,0
2013-02-13,0.070000,0.070000,0.070000,0.070000,0.070000,0
2013-02-14,0.070000,0.070000,0.070000,0.070000,0.070000,0
2013-02-15,0.070000,0.070000,0.070000,0.070000,0.070000,0
2013-02-19,0.070000,0.070000,0.070000,0.070000,0.070000,0
2013-02-20,0.070000,0.070000,0.070000,0.070000,0.070000,0
2013-02-21,0.070000,0.070000,0.070000,0.070000,0.070000,0
2013-02-22,0.070000,0.070000,0.070000,0.070000,0.070000,0
2013-02-25,0.050000,0.050000,0.050000,0.050000,0.050000,15000
2013-02-26,0.050000,0.050000,0.050000,0.050000,0.050000,50000
2013-02-27,0.050000,0.050000,0.050000,0.050000,0.050000,200000
2013-02-28,0.050000,0.065000,0.050000,0.065000,0.065000,1196000
2013-03-01,0.055000,0.055000,0.055000,0.055000,0.055000,1003000
2013-03-04,0.050000,0.050000,0.045000,0.045000,0.045000,40500
2013-03-05,0.045000,0.045000,0.045000,0.045000,0.045000,0
2013-03-06,0.045000,0.045000,0.040000,0.045000,0.045000,110000
2013-03-07,0.045000,0.045000,0.045000,0.045000,0.045000,0
2013-03-08,0.045000,0.045000,0.045000,0.045000,0.045000,0
2013-03-11,0.045000,0.045000,0.045000,0.045000,0.045000,0
2013-03-12,0.045000,0.045000,0.045000,0.045000,0.045000,0
2013-03-13,0.045000,0.045000,0.045000,0.045000,0.045000,0
2013-03-14,0.045000,0.045000,0.045000,0.045000,0.045000,1000
2013-03-15,0.045000,0.045000,0.045000,0.045000,0.045000,0
2013-03-18,0.045000,0.045000,0.045000,0.045000,0.045000,0
2013-03-19,0.045000,0.045000,0.045000,0.045000,0.045000,0
2013-03-20,0.040000,0.040000,0.030000,0.030000,0.030000,200000
2013-03-21,0.030000,0.030000,0.030000,0.030000,0.030000,0
2013-03-22,0.035000,0.035000,0.030000,0.030000,0.030000,157857
2013-03-25,0.030000,0.030000,0.030000,0.030000,0.030000,200000
2013-03-26,0.030000,0.030000,0.030000,0.030000,0.030000,1000
2013-03-27,0.030000,0.030000,0.030000,0.030000,0.030000,0
2013-03-28,0.030000,0.030000,0.030000,0.030000,0.030000,0
2013-04-01,0.030000,0.030000,0.030000,0.030000,0.030000,0
2013-04-02,0.030000,0.030000,0.030000,0.030000,0.030000,0
2013-04-03,0.035000,0.080000,0.020000,0.050000,0.050000,5554400
2013-04-04,0.050000,0.050000,0.035000,0.035000,0.035000,425800
2013-04-05,0.035000,0.040000,0.035000,0.040000,0.040000,25000
2013-04-08,0.035000,0.035000,0.035000,0.035000,0.035000,101000
2013-04-09,0.035000,0.035000,0.035000,0.035000,0.035000,10000
2013-04-10,0.035000,0.035000,0.025000,0.030000,0.030000,188500
2013-04-11,0.030000,0.030000,0.030000,0.030000,0.030000,29000
2013-04-12,0.030000,0.030000,0.030000,0.030000,0.030000,13825
2013-04-15,0.025000,0.025000,0.025000,0.025000,0.025000,48800
2013-04-16,0.025000,0.025000,0.025000,0.025000,0.025000,200000
2013-04-17,0.025000,0.025000,0.025000,0.025000,0.025000,1000560
2013-04-18,0.020000,0.020000,0.020000,0.020000,0.020000,172236
2013-04-19,0.020000,0.020000,0.020000,0.020000,0.020000,0
2013-04-22,0.025000,0.025000,0.025000,0.025000,0.025000,111000
2013-04-23,0.025000,0.025000,0.025000,0.025000,0.025000,244130
2013-04-24,0.025000,0.030000,0.020000,0.030000,0.030000,375851
2013-04-25,0.035000,0.035000,0.030000,0.035000,0.035000,245250
2013-04-26,0.035000,0.035000,0.025000,0.025000,0.025000,80000
2013-04-29,0.025000,0.025000,0.025000,0.025000,0.025000,223000
2013-04-30,0.025000,0.025000,0.025000,0.025000,0.025000,0
2013-05-01,0.025000,0.025000,0.025000,0.025000,0.025000,0
2013-05-02,0.020000,0.020000,0.020000,0.020000,0.020000,153744
2013-05-03,0.015000,0.020000,0.015000,0.020000,0.020000,748011
2013-05-06,0.015000,0.025000,0.015000,0.025000,0.025000,1245300
2013-05-07,0.020000,0.020000,0.020000,0.020000,0.020000,425280
2013-05-08,0.025000,0.025000,0.020000,0.025000,0.025000,585640
2013-05-09,0.020000,0.020000,0.020000,0.020000,0.020000,964300
2013-05-10,0.020000,0.020000,0.020000,0.020000,0.020000,0
2013-05-13,0.020000,0.020000,0.020000,0.020000,0.020000,0
2013-05-14,0.020000,0.020000,0.020000,0.020000,0.020000,0
2013-05-15,0.020000,0.020000,0.020000,0.020000,0.020000,4000
2013-05-16,0.020000,0.020000,0.020000,0.020000,0.020000,50000
2013-05-17,0.020000,0.020000,0.020000,0.020000,0.020000,34000
2013-05-20,0.020000,0.020000,0.020000,0.020000,0.020000,0
2013-05-21,0.020000,0.020000,0.020000,0.020000,0.020000,0
2013-05-22,0.020000,0.020000,0.020000,0.020000,0.020000,0
2013-05-23,0.020000,0.020000,0.020000,0.020000,0.020000,0
2013-05-24,0.020000,0.020000,0.020000,0.020000,0.020000,268230
2013-05-28,0.030000,0.030000,0.030000,0.030000,0.030000,1500049
2013-05-29,0.030000,0.030000,0.025000,0.025000,0.025000,1309500
2013-05-30,0.025000,0.025000,0.020000,0.020000,0.020000,723714
2013-05-31,0.025000,0.025000,0.020000,0.020000,0.020000,341250
2013-06-03,0.020000,0.020000,0.020000,0.020000,0.020000,0
2013-06-04,0.020000,0.025000,0.020000,0.025000,0.025000,796535
2013-06-05,0.025000,0.030000,0.025000,0.025000,0.025000,422000
2013-06-06,0.025000,0.025000,0.025000,0.025000,0.025000,480000
2013-06-07,0.025000,0.030000,0.025000,0.025000,0.025000,209000
2013-06-10,0.025000,0.025000,0.025000,0.025000,0.025000,54280
2013-06-11,0.025000,0.025000,0.025000,0.025000,0.025000,0
2013-06-12,0.025000,0.025000,0.025000,0.025000,0.025000,0
2013-06-13,0.025000,0.025000,0.025000,0.025000,0.025000,0
2013-06-14,0.025000,0.025000,0.020000,0.020000,0.020000,622000
2013-06-17,0.020000,0.020000,0.020000,0.020000,0.020000,3000
2013-06-18,0.015000,0.025000,0.015000,0.025000,0.025000,20000
2013-06-19,0.020000,0.020000,0.020000,0.020000,0.020000,13000
2013-06-20,0.020000,0.020000,0.020000,0.020000,0.020000,97000
2013-06-21,0.020000,0.020000,0.020000,0.020000,0.020000,0
2013-06-24,0.020000,0.020000,0.020000,0.020000,0.020000,0
2013-06-25,0.015000,0.015000,0.015000,0.015000,0.015000,273000
2013-06-26,0.015000,0.015000,0.015000,0.015000,0.015000,65000
2013-06-27,0.015000,0.015000,0.015000,0.015000,0.015000,240000
2013-06-28,0.015000,0.015000,0.015000,0.015000,0.015000,0
2013-07-01,0.015000,0.015000,0.015000,0.015000,0.015000,0
2013-07-02,0.015000,0.015000,0.015000,0.015000,0.015000,86400
2013-07-03,0.010000,0.015000,0.010000,0.015000,0.015000,25546
2013-07-05,0.015000,0.015000,0.015000,0.015000,0.015000,0
2013-07-08,0.015000,0.015000,0.015000,0.015000,0.015000,5000
2013-07-09,0.015000,0.015000,0.015000,0.015000,0.015000,0
2013-07-10,0.015000,0.015000,0.015000,0.015000,0.015000,16000
2013-07-11,0.015000,0.015000,0.015000,0.015000,0.015000,37280
2013-07-12,0.020000,0.020000,0.015000,0.015000,0.015000,59070
2013-07-15,0.015000,0.015000,0.015000,0.015000,0.015000,5400
2013-07-16,0.015000,0.015000,0.015000,0.015000,0.015000,0
2013-07-17,0.015000,0.015000,0.015000,0.015000,0.015000,0
2013-07-18,0.015000,0.015000,0.015000,0.015000,0.015000,15666
2013-07-19,0.015000,0.015000,0.015000,0.015000,0.015000,0
2013-07-22,0.015000,0.015000,0.015000,0.015000,0.015000,0
2013-07-23,0.015000,0.015000,0.015000,0.015000,0.015000,0
2013-07-24,0.015000,0.015000,0.015000,0.015000,0.015000,0
2013-07-25,0.015000,0.015000,0.015000,0.015000,0.015000,48000
2013-07-26,0.015000,0.015000,0.015000,0.015000,0.015000,0
2013-07-29,0.020000,0.020000,0.015000,0.015000,0.015000,191120
2013-07-30,0.020000,0.020000,0.020000,0.020000,0.020000,5000
2013-07-31,0.020000,0.020000,0.020000,0.020000,0.020000,7500
2013-08-01,0.020000,0.020000,0.020000,0.020000,0.020000,0
2013-08-02,0.015000,0.015000,0.015000,0.015000,0.015000,35000
2013-08-05,0.015000,0.015000,0.015000,0.015000,0.015000,0
2013-08-06,0.015000,0.015000,0.015000,0.015000,0.015000,0
2013-08-07,0.015000,0.015000,0.015000,0.015000,0.015000,0
2013-08-08,0.015000,0.015000,0.015000,0.015000,0.015000,0
2013-08-09,0.015000,0.015000,0.015000,0.015000,0.015000,255000
2013-08-12,0.015000,0.015000,0.015000,0.015000,0.015000,0
2013-08-13,0.015000,0.015000,0.015000,0.015000,0.015000,15400
2013-08-14,0.015000,0.015000,0.015000,0.015000,0.015000,0
2013-08-15,0.015000,0.015000,0.015000,0.015000,0.015000,0
2013-08-16,0.015000,0.015000,0.015000,0.015000,0.015000,0
2013-08-19,0.015000,0.015000,0.015000,0.015000,0.015000,0
2013-08-20,0.015000,0.015000,0.015000,0.015000,0.015000,0
2013-08-21,0.015000,0.015000,0.015000,0.015000,0.015000,0
2013-08-22,0.015000,0.015000,0.015000,0.015000,0.015000,0
2013-08-23,0.010000,0.015000,0.010000,0.015000,0.015000,460000
2013-08-26,0.015000,0.020000,0.015000,0.020000,0.020000,40000
2013-08-27,0.020000,0.020000,0.020000,0.020000,0.020000,0
2013-08-28,0.020000,0.025000,0.020000,0.020000,0.020000,380000
2013-08-29,0.025000,0.030000,0.025000,0.030000,0.030000,798000
2013-08-30,0.030000,0.030000,0.025000,0.030000,0.030000,148000
2013-09-03,0.030000,0.030000,0.025000,0.025000,0.025000,133500
2013-09-04,0.025000,0.025000,0.020000,0.025000,0.025000,178000
2013-09-05,0.025000,0.025000,0.020000,0.025000,0.025000,93000
2013-09-06,0.025000,0.025000,0.020000,0.020000,0.020000,90000
2013-09-09,0.025000,0.035000,0.025000,0.025000,0.025000,325500
2013-09-10,0.025000,0.025000,0.025000,0.025000,0.025000,135000
2013-09-11,0.025000,0.030000,0.025000,0.030000,0.030000,130000
2013-09-12,0.025000,0.025000,0.025000,0.025000,0.025000,90000
2013-09-13,0.020000,0.025000,0.020000,0.025000,0.025000,171500
2013-09-16,0.025000,0.025000,0.025000,0.025000,0.025000,25000
2013-09-17,0.020000,0.020000,0.020000,0.020000,0.020000,193000
2013-09-18,0.025000,0.025000,0.025000,0.025000,0.025000,102000
2013-09-19,0.025000,0.025000,0.025000,0.025000,0.025000,0
2013-09-20,0.025000,0.025000,0.025000,0.025000,0.025000,0
2013-09-23,0.025000,0.025000,0.025000,0.025000,0.025000,0
2013-09-24,0.020000,0.020000,0.020000,0.020000,0.020000,93400
2013-09-25,0.020000,0.020000,0.020000,0.020000,0.020000,69200
2013-09-26,0.020000,0.020000,0.020000,0.020000,0.020000,63000
2013-09-27,0.020000,0.020000,0.020000,0.020000,0.020000,0
2013-09-30,0.020000,0.020000,0.020000,0.020000,0.020000,47000
2013-10-01,0.020000,0.020000,0.020000,0.020000,0.020000,20000
2013-10-02,0.020000,0.020000,0.020000,0.020000,0.020000,90000
2013-10-03,0.020000,0.020000,0.020000,0.020000,0.020000,0
2013-10-04,0.020000,0.020000,0.015000,0.020000,0.020000,221000
2013-10-07,0.020000,0.020000,0.015000,0.015000,0.015000,790000
2013-10-08,0.015000,0.015000,0.010000,0.010000,0.010000,1841974
2013-10-09,0.010000,0.015000,0.010000,0.015000,0.015000,1590333
2013-10-10,0.015000,0.015000,0.015000,0.015000,0.015000,0
2013-10-11,0.010000,0.015000,0.010000,0.015000,0.015000,1096670
2013-10-14,0.015000,0.015000,0.015000,0.015000,0.015000,0
2013-10-15,0.015000,0.020000,0.015000,0.015000,0.015000,1272000
2013-10-16,0.020000,0.025000,0.020000,0.025000,0.025000,499052
2013-10-17,0.025000,0.025000,0.020000,0.020000,0.020000,457000
2013-10-18,0.025000,0.025000,0.020000,0.020000,0.020000,346300
2013-10-21,0.020000,0.020000,0.015000,0.020000,0.020000,152600
2013-10-22,0.025000,0.025000,0.015000,0.015000,0.015000,3240570
2013-10-23,0.015000,0.015000,0.015000,0.015000,0.015000,146674
2013-10-24,0.015000,0.015000,0.010000,0.010000,0.010000,140000
2013-10-25,0.010000,0.015000,0.010000,0.015000,0.015000,105000
2013-10-28,0.015000,0.015000,0.010000,0.010000,0.010000,670000
2013-10-29,0.015000,0.015000,0.015000,0.015000,0.015000,276000
2013-10-30,0.015000,0.015000,0.015000,0.015000,0.015000,168500
2013-10-31,0.015000,0.015000,0.015000,0.015000,0.015000,74500
2013-11-01,0.015000,0.015000,0.015000,0.015000,0.015000,54000
2013-11-04,0.015000,0.015000,0.015000,0.015000,0.015000,0
2013-11-05,0.015000,0.015000,0.015000,0.015000,0.015000,50000
2013-11-06,0.020000,0.020000,0.020000,0.020000,0.020000,2177070
2013-11-07,0.025000,0.025000,0.020000,0.020000,0.020000,482000
2013-11-08,0.025000,0.025000,0.020000,0.025000,0.025000,203000
2013-11-11,0.020000,0.025000,0.020000,0.025000,0.025000,252050
2013-11-12,0.025000,0.025000,0.025000,0.025000,0.025000,981550
2013-11-13,0.025000,0.025000,0.025000,0.025000,0.025000,85580
2013-11-14,0.025000,0.025000,0.020000,0.020000,0.020000,340500
2013-11-15,0.025000,0.025000,0.020000,0.020000,0.020000,613500
2013-11-18,0.025000,0.025000,0.025000,0.025000,0.025000,46000
2013-11-19,0.030000,0.030000,0.030000,0.030000,0.030000,10980
2013-11-20,0.030000,0.030000,0.030000,0.030000,0.030000,31140
2013-11-21,0.025000,0.030000,0.025000,0.030000,0.030000,135400
2013-11-22,0.030000,0.030000,0.020000,0.020000,0.020000,703000
2013-11-25,0.020000,0.020000,0.020000,0.020000,0.020000,32500
2013-11-26,0.025000,0.025000,0.025000,0.025000,0.025000,55000
2013-11-27,0.020000,0.020000,0.020000,0.020000,0.020000,20000
2013-11-29,0.025000,0.025000,0.025000,0.025000,0.025000,0
2013-12-02,0.025000,0.025000,0.020000,0.020000,0.020000,157400
2013-12-03,0.020000,0.020000,0.020000,0.020000,0.020000,0
2013-12-04,0.025000,0.025000,0.025000,0.025000,0.025000,10000
2013-12-05,0.020000,0.020000,0.020000,0.020000,0.020000,60000
2013-12-06,0.020000,0.020000,0.020000,0.020000,0.020000,0
2013-12-09,0.020000,0.020000,0.020000,0.020000,0.020000,0
2013-12-10,0.030000,0.030000,0.020000,0.020000,0.020000,373000
2013-12-11,0.020000,0.020000,0.020000,0.020000,0.020000,50180
2013-12-12,0.025000,0.045000,0.025000,0.045000,0.045000,538000
2013-12-13,0.025000,0.025000,0.025000,0.025000,0.025000,7000
2013-12-16,0.035000,0.035000,0.035000,0.035000,0.035000,173000
2013-12-17,0.030000,0.035000,0.030000,0.030000,0.030000,92500
2013-12-18,0.030000,0.030000,0.025000,0.030000,0.030000,27000
2013-12-19,0.030000,0.030000,0.025000,0.025000,0.025000,24000
2013-12-20,0.025000,0.025000,0.025000,0.025000,0.025000,0
2013-12-23,0.035000,0.035000,0.035000,0.035000,0.035000,80000
2013-12-24,0.035000,0.040000,0.035000,0.035000,0.035000,207000
2013-12-26,0.035000,0.035000,0.035000,0.035000,0.035000,0
2013-12-27,0.025000,0.035000,0.020000,0.025000,0.025000,370920
2013-12-30,0.025000,0.025000,0.025000,0.025000,0.025000,43000
2013-12-31,0.025000,0.030000,0.025000,0.030000,0.030000,113500
2014-01-02,0.030000,0.030000,0.030000,0.030000,0.030000,2000
2014-01-03,0.030000,0.030000,0.030000,0.030000,0.030000,0
2014-01-06,0.030000,0.030000,0.030000,0.030000,0.030000,0
2014-01-07,0.030000,0.035000,0.030000,0.030000,0.030000,246000
2014-01-08,0.030000,0.040000,0.030000,0.040000,0.040000,295000
2014-01-09,0.030000,0.030000,0.030000,0.030000,0.030000,90502
2014-01-10,0.035000,0.035000,0.030000,0.030000,0.030000,259118
2014-01-13,0.035000,0.035000,0.030000,0.035000,0.035000,222500
2014-01-14,0.030000,0.030000,0.030000,0.030000,0.030000,7000
2014-01-15,0.035000,0.035000,0.025000,0.030000,0.030000,260000
2014-01-16,0.030000,0.030000,0.030000,0.030000,0.030000,165000
2014-01-17,0.030000,0.030000,0.030000,0.030000,0.030000,0
2014-01-21,0.030000,0.030000,0.030000,0.030000,0.030000,20000
2014-01-22,0.030000,0.030000,0.030000,0.030000,0.030000,56000
2014-01-23,0.025000,0.025000,0.025000,0.025000,0.025000,240000
2014-01-24,0.025000,0.025000,0.025000,0.025000,0.025000,30600
2014-01-27,0.030000,0.030000,0.030000,0.030000,0.030000,14600
2014-01-28,0.030000,0.030000,0.030000,0.030000,0.030000,32000
2014-01-29,0.030000,0.030000,0.030000,0.030000,0.030000,0
2014-01-30,0.025000,0.025000,0.025000,0.025000,0.025000,3000
2014-01-31,0.025000,0.025000,0.010000,0.015000,0.015000,3811500
2014-02-03,0.020000,0.020000,0.020000,0.020000,0.020000,365500
2014-02-04,0.020000,0.020000,0.020000,0.020000,0.020000,28000
2014-02-05,0.020000,0.020000,0.020000,0.020000,0.020000,0
2014-02-06,0.020000,0.020000,0.020000,0.020000,0.020000,0
2014-02-07,0.020000,0.020000,0.020000,0.020000,0.020000,0
2014-02-10,0.015000,0.015000,0.010000,0.015000,0.015000,1005333
2014-02-11,0.015000,0.015000,0.015000,0.015000,0.015000,340000
2014-02-12,0.015000,0.015000,0.015000,0.015000,0.015000,0
2014-02-13,0.015000,0.015000,0.015000,0.015000,0.015000,0
2014-02-14,0.010000,0.015000,0.010000,0.015000,0.015000,157400
2014-02-18,0.015000,0.015000,0.015000,0.015000,0.015000,631500
2014-02-19,0.015000,0.015000,0.015000,0.015000,0.015000,11400
2014-02-20,0.015000,0.015000,0.015000,0.015000,0.015000,81000
2014-02-21,0.010000,0.015000,0.010000,0.015000,0.015000,22000
2014-02-24,0.015000,0.020000,0.015000,0.015000,0.015000,1141000
2014-02-25,0.015000,0.015000,0.015000,0.015000,0.015000,0
2014-02-26,0.015000,0.015000,0.015000,0.015000,0.015000,30000
2014-02-27,0.015000,0.015000,0.015000,0.015000,0.015000,0
2014-02-28,0.015000,0.015000,0.015000,0.015000,0.015000,9000
2014-03-03,0.015000,0.020000,0.015000,0.020000,0.020000,470000
2014-03-04,0.020000,0.020000,0.015000,0.015000,0.015000,145500
2014-03-05,0.020000,0.020000,0.020000,0.020000,0.020000,618000
2014-03-06,0.020000,0.020000,0.020000,0.020000,0.020000,581100
2014-03-07,0.020000,0.020000,0.020000,0.020000,0.020000,127000
2014-03-10,0.020000,0.020000,0.020000,0.020000,0.020000,20000
2014-03-11,0.015000,0.015000,0.015000,0.015000,0.015000,2500
2014-03-12,0.020000,0.025000,0.020000,0.025000,0.025000,230500
2014-03-13,0.020000,0.020000,0.020000,0.020000,0.020000,20900
2014-03-14,0.020000,0.020000,0.020000,0.020000,0.020000,5000
2014-03-17,0.025000,0.025000,0.020000,0.020000,0.020000,120900
2014-03-18,0.020000,0.020000,0.020000,0.020000,0.020000,133000
2014-03-19,0.020000,0.020000,0.020000,0.020000,0.020000,65000
2014-03-20,0.020000,0.020000,0.020000,0.020000,0.020000,85000
2014-03-21,0.025000,0.025000,0.020000,0.020000,0.020000,140502
2014-03-24,0.020000,0.020000,0.020000,0.020000,0.020000,2000
2014-03-25,0.020000,0.020000,0.020000,0.020000,0.020000,0
2014-03-26,0.020000,0.020000,0.020000,0.020000,0.020000,185004
2014-03-27,0.020000,0.020000,0.020000,0.020000,0.020000,40000
2014-03-28,0.020000,0.025000,0.020000,0.025000,0.025000,30240
2014-03-31,0.025000,0.025000,0.025000,0.025000,0.025000,0
2014-04-01,0.025000,0.025000,0.025000,0.025000,0.025000,0
2014-04-02,0.025000,0.025000,0.025000,0.025000,0.025000,20000
2014-04-03,0.020000,0.020000,0.020000,0.020000,0.020000,100000
2014-04-04,0.020000,0.020000,0.020000,0.020000,0.020000,0
2014-04-07,0.020000,0.020000,0.020000,0.020000,0.020000,0
2014-04-08,0.020000,0.020000,0.020000,0.020000,0.020000,0
2014-04-09,0.020000,0.025000,0.020000,0.020000,0.020000,131500
2014-04-10,0.020000,0.020000,0.020000,0.020000,0.020000,0
2014-04-11,0.020000,0.020000,0.020000,0.020000,0.020000,62000
2014-04-14,0.020000,0.020000,0.020000,0.020000,0.020000,48000
2014-04-15,0.020000,0.020000,0.020000,0.020000,0.020000,43000
2014-04-16,0.020000,0.020000,0.020000,0.020000,0.020000,0
2014-04-17,0.020000,0.020000,0.020000,0.020000,0.020000,60000
2014-04-21,0.020000,0.020000,0.020000,0.020000,0.020000,0
2014-04-22,0.020000,0.020000,0.020000,0.020000,0.020000,0
2014-04-23,0.020000,0.020000,0.020000,0.020000,0.020000,0
2014-04-24,0.020000,0.020000,0.020000,0.020000,0.020000,0
2014-04-25,0.020000,0.020000,0.020000,0.020000,0.020000,12000
2014-04-28,0.020000,0.020000,0.020000,0.020000,0.020000,8000
2014-04-29,0.020000,0.020000,0.020000,0.020000,0.020000,0
2014-04-30,0.020000,0.020000,0.020000,0.020000,0.020000,30000
2014-05-01,0.020000,0.020000,0.020000,0.020000,0.020000,60000
2014-05-02,0.020000,0.020000,0.020000,0.020000,0.020000,0
2014-05-05,0.020000,0.020000,0.020000,0.020000,0.020000,0
2014-05-06,0.020000,0.020000,0.020000,0.020000,0.020000,0
2014-05-07,0.020000,0.020000,0.020000,0.020000,0.020000,40000
2014-05-08,0.020000,0.020000,0.020000,0.020000,0.020000,0
2014-05-09,0.020000,0.020000,0.020000,0.020000,0.020000,66333
2014-05-12,0.020000,0.020000,0.020000,0.020000,0.020000,44000
2014-05-13,0.020000,0.020000,0.020000,0.020000,0.020000,0
2014-05-14,0.020000,0.020000,0.020000,0.020000,0.020000,4500
2014-05-15,0.020000,0.020000,0.020000,0.020000,0.020000,0
2014-05-16,0.025000,0.025000,0.025000,0.025000,0.025000,211000
2014-05-19,0.025000,0.025000,0.025000,0.025000,0.025000,0
2014-05-20,0.025000,0.025000,0.020000,0.025000,0.025000,454500
2014-05-21,0.025000,0.025000,0.020000,0.020000,0.020000,335500
2014-05-22,0.020000,0.020000,0.020000,0.020000,0.020000,50000
2014-05-23,0.020000,0.020000,0.020000,0.020000,0.020000,2000
2014-05-27,0.020000,0.020000,0.020000,0.020000,0.020000,100000
2014-05-28,0.020000,0.020000,0.020000,0.020000,0.020000,0
2014-05-29,null,null,null,null,null,null
2014-05-30,null,null,null,null,null,null
2014-06-02,null,null,null,null,null,null
2014-06-03,null,null,null,null,null,null
2014-06-04,null,null,null,null,null,null
2014-06-05,null,null,null,null,null,null
2014-06-06,null,null,null,null,null,null
2014-06-09,null,null,null,null,null,null
2014-06-10,null,null,null,null,null,null
2014-06-11,null,null,null,null,null,null
2014-06-12,null,null,null,null,null,null
2014-06-13,null,null,null,null,null,null
2014-06-16,null,null,null,null,null,null
2014-06-17,null,null,null,null,null,null
2014-06-18,null,null,null,null,null,null
2014-06-19,null,null,null,null,null,null
2014-06-20,null,null,null,null,null,null
2014-06-23,null,null,null,null,null,null
2014-06-24,null,null,null,null,null,null
2014-06-25,null,null,null,null,null,null
2014-06-26,null,null,null,null,null,null
2014-06-27,null,null,null,null,null,null
2014-06-30,null,null,null,null,null,null
2014-07-01,null,null,null,null,null,null
2014-07-02,null,null,null,null,null,null
2014-07-03,null,null,null,null,null,null
2014-07-07,null,null,null,null,null,null
2014-07-08,null,null,null,null,null,null
2014-07-09,null,null,null,null,null,null
2014-07-10,null,null,null,null,null,null
2014-07-11,null,null,null,null,null,null
2014-07-14,null,null,null,null,null,null
2014-07-15,0.020000,0.020000,0.020000,0.020000,0.020000,0
2014-07-16,0.020000,0.020000,0.020000,0.020000,0.020000,0
2014-07-17,0.020000,0.020000,0.020000,0.020000,0.020000,10000
2014-07-18,0.020000,0.020000,0.020000,0.020000,0.020000,0
2014-07-21,0.020000,0.020000,0.020000,0.020000,0.020000,0
2014-07-22,0.020000,0.020000,0.020000,0.020000,0.020000,0
2014-07-23,0.020000,0.020000,0.020000,0.020000,0.020000,0
2014-07-24,0.020000,0.020000,0.020000,0.020000,0.020000,0
2014-07-25,0.020000,0.020000,0.020000,0.020000,0.020000,0
2014-07-28,0.020000,0.020000,0.020000,0.020000,0.020000,23000
2014-07-29,0.020000,0.020000,0.020000,0.020000,0.020000,0
2014-07-30,0.015000,0.015000,0.015000,0.015000,0.015000,5000
2014-07-31,0.015000,0.015000,0.015000,0.015000,0.015000,20000
2014-08-01,0.015000,0.015000,0.015000,0.015000,0.015000,0
2014-08-04,0.015000,0.015000,0.015000,0.015000,0.015000,0
2014-08-05,0.015000,0.015000,0.015000,0.015000,0.015000,0
2014-08-06,0.015000,0.015000,0.015000,0.015000,0.015000,0
2014-08-07,0.015000,0.015000,0.015000,0.015000,0.015000,0
2014-08-08,0.015000,0.015000,0.015000,0.015000,0.015000,0
2014-08-11,0.015000,0.015000,0.015000,0.015000,0.015000,0
2014-08-12,0.015000,0.015000,0.015000,0.015000,0.015000,0
2014-08-13,0.015000,0.015000,0.015000,0.015000,0.015000,15000
2014-08-14,0.015000,0.015000,0.015000,0.015000,0.015000,0
2014-08-15,0.015000,0.015000,0.015000,0.015000,0.015000,100000
2014-08-18,0.020000,0.020000,0.020000,0.020000,0.020000,148000
2014-08-19,0.020000,0.020000,0.020000,0.020000,0.020000,0
2014-08-20,0.020000,0.020000,0.020000,0.020000,0.020000,0
2014-08-21,0.020000,0.020000,0.020000,0.020000,0.020000,0
2014-08-22,0.015000,0.015000,0.015000,0.015000,0.015000,12000
2014-08-25,0.020000,0.020000,0.020000,0.020000,0.020000,50000
2014-08-26,0.020000,0.020000,0.020000,0.020000,0.020000,0
2014-08-27,0.015000,0.015000,0.010000,0.010000,0.010000,95236
2014-08-28,0.015000,0.015000,0.015000,0.015000,0.015000,88400
2014-08-29,0.015000,0.015000,0.015000,0.015000,0.015000,0
2014-09-02,0.015000,0.015000,0.015000,0.015000,0.015000,0
2014-09-03,0.015000,0.015000,0.015000,0.015000,0.015000,0
2014-09-04,0.015000,0.015000,0.015000,0.015000,0.015000,0
2014-09-05,0.020000,0.020000,0.020000,0.020000,0.020000,52000
2014-09-08,0.020000,0.020000,0.020000,0.020000,0.020000,0
2014-09-09,0.015000,0.015000,0.015000,0.015000,0.015000,20000
2014-09-10,0.015000,0.015000,0.015000,0.015000,0.015000,0
2014-09-11,0.015000,0.015000,0.015000,0.015000,0.015000,3000
2014-09-12,0.015000,0.015000,0.015000,0.015000,0.015000,0
2014-09-15,0.015000,0.015000,0.015000,0.015000,0.015000,0
2014-09-16,0.015000,0.015000,0.015000,0.015000,0.015000,0
2014-09-17,0.015000,0.015000,0.015000,0.015000,0.015000,0
2014-09-18,0.015000,0.015000,0.015000,0.015000,0.015000,0
2014-09-19,0.015000,0.015000,0.015000,0.015000,0.015000,0
2014-09-22,0.015000,0.015000,0.015000,0.015000,0.015000,4800
2014-09-23,0.015000,0.015000,0.015000,0.015000,0.015000,0
2014-09-24,0.015000,0.015000,0.015000,0.015000,0.015000,5000
2014-09-25,0.015000,0.015000,0.015000,0.015000,0.015000,0
2014-09-26,0.015000,0.015000,0.015000,0.015000,0.015000,22000
2014-09-29,0.015000,0.015000,0.015000,0.015000,0.015000,0
2014-09-30,0.010000,0.010000,0.010000,0.010000,0.010000,50000
2014-10-01,0.010000,0.010000,0.010000,0.010000,0.010000,1000
2014-10-02,0.010000,0.010000,0.010000,0.010000,0.010000,0
2014-10-03,0.010000,0.010000,0.010000,0.010000,0.010000,0
2014-10-06,0.010000,0.010000,0.010000,0.010000,0.010000,0
2014-10-07,0.010000,0.010000,0.010000,0.010000,0.010000,40000
2014-10-08,0.010000,0.010000,0.010000,0.010000,0.010000,0
2014-10-09,0.010000,0.010000,0.010000,0.010000,0.010000,10000
2014-10-10,0.010000,0.010000,0.010000,0.010000,0.010000,0
2014-10-13,0.010000,0.010000,0.010000,0.010000,0.010000,0
2014-10-14,0.010000,0.010000,0.010000,0.010000,0.010000,178000
2014-10-15,0.010000,0.010000,0.010000,0.010000,0.010000,201134
2014-10-16,0.010000,0.010000,0.010000,0.010000,0.010000,27000
2014-10-17,0.010000,0.010000,0.010000,0.010000,0.010000,10000
2014-10-20,0.010000,0.010000,0.010000,0.010000,0.010000,0
2014-10-21,0.015000,0.015000,0.015000,0.015000,0.015000,21600
2014-10-22,0.015000,0.015000,0.015000,0.015000,0.015000,0
2014-10-23,0.015000,0.015000,0.015000,0.015000,0.015000,0
2014-10-24,0.015000,0.015000,0.015000,0.015000,0.015000,0
2014-10-27,0.015000,0.015000,0.015000,0.015000,0.015000,0
2014-10-28,0.010000,0.010000,0.010000,0.010000,0.010000,63800
2014-10-29,0.010000,0.010000,0.010000,0.010000,0.010000,4000
2014-10-30,0.010000,0.010000,0.010000,0.010000,0.010000,0
2014-10-31,0.010000,0.010000,0.010000,0.010000,0.010000,0
2014-11-03,0.010000,0.010000,0.010000,0.010000,0.010000,0
2014-11-04,0.010000,0.010000,0.010000,0.010000,0.010000,0
2014-11-05,0.010000,0.010000,0.010000,0.010000,0.010000,0
2014-11-06,0.010000,0.010000,0.010000,0.010000,0.010000,0
2014-11-07,0.010000,0.010000,0.010000,0.010000,0.010000,200000
2014-11-10,0.010000,0.010000,0.010000,0.010000,0.010000,100000
2014-11-11,0.010000,0.010000,0.010000,0.010000,0.010000,0
2014-11-12,0.010000,0.010000,0.010000,0.010000,0.010000,0
2014-11-13,0.010000,0.010000,0.010000,0.010000,0.010000,0
2014-11-14,0.010000,0.010000,0.010000,0.010000,0.010000,0
2014-11-17,0.010000,0.010000,0.010000,0.010000,0.010000,100778
2014-11-18,0.010000,0.010000,0.010000,0.010000,0.010000,12000
2014-11-19,0.010000,0.010000,0.010000,0.010000,0.010000,0
2014-11-20,0.010000,0.010000,0.010000,0.010000,0.010000,0
2014-11-21,0.010000,0.010000,0.010000,0.010000,0.010000,0
2014-11-24,0.010000,0.010000,0.010000,0.010000,0.010000,0
2014-11-25,0.010000,0.010000,0.010000,0.010000,0.010000,0
2014-11-26,0.010000,0.010000,0.010000,0.010000,0.010000,0
2014-11-28,0.010000,0.010000,0.010000,0.010000,0.010000,0
2014-12-01,0.010000,0.010000,0.010000,0.010000,0.010000,0
2014-12-02,0.010000,0.010000,0.010000,0.010000,0.010000,0
2014-12-03,0.010000,0.010000,0.010000,0.010000,0.010000,0
2014-12-04,0.005000,0.005000,0.005000,0.005000,0.005000,18880
2014-12-05,0.005000,0.005000,0.005000,0.005000,0.005000,55000
2014-12-08,0.005000,0.005000,0.005000,0.005000,0.005000,0
2014-12-09,0.005000,0.005000,0.005000,0.005000,0.005000,200000
2014-12-10,0.005000,0.005000,0.005000,0.005000,0.005000,0
2014-12-11,0.005000,0.005000,0.005000,0.005000,0.005000,73700
2014-12-12,0.005000,0.005000,0.005000,0.005000,0.005000,0
2014-12-15,0.005000,0.005000,0.005000,0.005000,0.005000,200000
2014-12-16,0.005000,0.005000,0.005000,0.005000,0.005000,50000
2014-12-17,0.005000,0.005000,0.005000,0.005000,0.005000,0
2014-12-18,0.005000,0.005000,0.005000,0.005000,0.005000,0
2014-12-19,0.005000,0.005000,0.005000,0.005000,0.005000,0
2014-12-22,0.005000,0.005000,0.005000,0.005000,0.005000,0
2014-12-23,0.005000,0.005000,0.005000,0.005000,0.005000,0
2014-12-24,0.005000,0.005000,0.005000,0.005000,0.005000,0
2014-12-26,0.005000,0.005000,0.005000,0.005000,0.005000,0
2014-12-29,0.005000,0.005000,0.005000,0.005000,0.005000,0
2014-12-30,0.005000,0.005000,0.005000,0.005000,0.005000,10000
2014-12-31,0.005000,0.005000,0.005000,0.005000,0.005000,100000
2015-01-02,0.010000,0.010000,0.010000,0.010000,0.010000,104000
2015-01-05,0.010000,0.010000,0.010000,0.010000,0.010000,0
2015-01-06,null,null,null,null,null,null
2015-01-07,0.010000,0.010000,0.010000,0.010000,0.010000,0
2015-01-08,0.010000,0.010000,0.010000,0.010000,0.010000,0
2015-01-09,0.010000,0.010000,0.010000,0.010000,0.010000,0
2015-01-12,null,null,null,null,null,null
2015-01-13,null,null,null,null,null,null
2015-01-14,null,null,null,null,null,null
2015-01-15,null,null,null,null,null,null
2015-01-16,null,null,null,null,null,null
2015-01-20,null,null,null,null,null,null
2015-01-21,null,null,null,null,null,null
2015-01-22,null,null,null,null,null,null
2015-01-23,null,null,null,null,null,null
2015-01-26,null,null,null,null,null,null
2015-01-27,null,null,null,null,null,null
2015-01-28,null,null,null,null,null,null
2015-01-29,null,null,null,null,null,null
2015-01-30,null,null,null,null,null,null
2015-02-02,null,null,null,null,null,null
2015-02-03,null,null,null,null,null,null
2015-02-04,null,null,null,null,null,null
2015-02-05,null,null,null,null,null,null
2015-02-06,null,null,null,null,null,null
2015-02-09,null,null,null,null,null,null
2015-02-10,null,null,null,null,null,null
2015-02-11,null,null,null,null,null,null
2015-02-12,null,null,null,null,null,null
2015-02-13,null,null,null,null,null,null
2015-02-17,null,null,null,null,null,null
2015-02-18,null,null,null,null,null,null
2015-02-19,null,null,null,null,null,null
2015-02-20,null,null,null,null,null,null
2015-02-23,null,null,null,null,null,null
2015-02-24,null,null,null,null,null,null
2015-02-25,null,null,null,null,null,null
2015-02-26,null,null,null,null,null,null
2015-02-27,null,null,null,null,null,null
2015-03-02,0.010000,0.010000,0.010000,0.010000,0.010000,0
2015-03-03,0.010000,0.010000,0.010000,0.010000,0.010000,63000
2015-03-04,0.010000,0.010000,0.010000,0.010000,0.010000,0
2015-03-05,0.010000,0.010000,0.010000,0.010000,0.010000,0
2015-03-06,0.010000,0.010000,0.010000,0.010000,0.010000,0
2015-03-09,0.010000,0.010000,0.010000,0.010000,0.010000,0
2015-03-10,0.010000,0.010000,0.010000,0.010000,0.010000,0
2015-03-11,0.010000,0.010000,0.010000,0.010000,0.010000,10000
2015-03-12,0.010000,0.010000,0.010000,0.010000,0.010000,0
2015-03-13,0.010000,0.010000,0.010000,0.010000,0.010000,0
2015-03-16,0.015000,0.015000,0.015000,0.015000,0.015000,58500
2015-03-17,0.010000,0.010000,0.010000,0.010000,0.010000,60000
2015-03-18,0.010000,0.010000,0.010000,0.010000,0.010000,0
2015-03-19,0.010000,0.010000,0.010000,0.010000,0.010000,0
2015-03-20,0.010000,0.010000,0.010000,0.010000,0.010000,0
2015-03-23,0.010000,0.010000,0.010000,0.010000,0.010000,0
2015-03-24,0.010000,0.010000,0.010000,0.010000,0.010000,0
2015-03-25,0.010000,0.010000,0.010000,0.010000,0.010000,0
2015-03-26,0.010000,0.010000,0.010000,0.010000,0.010000,0
2015-03-27,0.010000,0.010000,0.010000,0.010000,0.010000,0
2015-03-30,0.010000,0.010000,0.010000,0.010000,0.010000,0
2015-03-31,0.010000,0.010000,0.010000,0.010000,0.010000,40000
2015-04-01,0.010000,0.010000,0.010000,0.010000,0.010000,0
2015-04-02,0.010000,0.010000,0.010000,0.010000,0.010000,0
2015-04-06,0.010000,0.010000,0.010000,0.010000,0.010000,0
2015-04-07,0.010000,0.010000,0.010000,0.010000,0.010000,0
2015-04-08,0.010000,0.010000,0.010000,0.010000,0.010000,0
2015-04-09,0.010000,0.010000,0.010000,0.010000,0.010000,0
2015-04-10,0.010000,0.010000,0.010000,0.010000,0.010000,0
2015-04-13,0.010000,0.010000,0.010000,0.010000,0.010000,0
2015-04-14,0.010000,0.010000,0.010000,0.010000,0.010000,0
2015-04-15,0.010000,0.010000,0.010000,0.010000,0.010000,0
2015-04-16,0.010000,0.010000,0.010000,0.010000,0.010000,0
2015-04-17,0.010000,0.010000,0.010000,0.010000,0.010000,0
2015-04-20,0.010000,0.010000,0.005000,0.005000,0.005000,4292000
2015-04-21,0.005000,0.005000,0.005000,0.005000,0.005000,560000
2015-04-22,0.005000,0.005000,0.005000,0.005000,0.005000,158400
2015-04-23,0.005000,0.005000,0.005000,0.005000,0.005000,0
2015-04-24,0.005000,0.005000,0.005000,0.005000,0.005000,0
2015-04-27,0.005000,0.005000,0.005000,0.005000,0.005000,100000
2015-04-28,0.005000,0.005000,0.005000,0.005000,0.005000,0
2015-04-29,0.005000,0.005000,0.005000,0.005000,0.005000,0
2015-04-30,0.005000,0.005000,0.005000,0.005000,0.005000,728000
2015-05-01,0.005000,0.005000,0.005000,0.005000,0.005000,0
2015-05-04,0.005000,0.005000,0.005000,0.005000,0.005000,0
2015-05-05,0.005000,0.005000,0.005000,0.005000,0.005000,0
2015-05-06,0.005000,0.005000,0.005000,0.005000,0.005000,0
2015-05-07,0.005000,0.005000,0.005000,0.005000,0.005000,0
2015-05-08,0.005000,0.005000,0.005000,0.005000,0.005000,28000
2015-05-11,0.005000,0.005000,0.005000,0.005000,0.005000,298000
2015-05-12,0.005000,0.005000,0.005000,0.005000,0.005000,0
2015-05-13,0.005000,0.005000,0.005000,0.005000,0.005000,0
2015-05-14,0.005000,0.005000,0.005000,0.005000,0.005000,3000
2015-05-15,0.005000,0.005000,0.005000,0.005000,0.005000,0
2015-05-18,null,null,null,null,null,null
2015-05-19,null,null,null,null,null,null
2015-05-20,null,null,null,null,null,null
2015-05-21,null,null,null,null,null,null
2015-05-22,null,null,null,null,null,null
2015-05-26,null,null,null,null,null,null
2015-05-27,null,null,null,null,null,null
2015-05-28,null,null,null,null,null,null
2015-05-29,null,null,null,null,null,null
2015-06-01,null,null,null,null,null,null
2015-06-02,null,null,null,null,null,null
2015-06-03,null,null,null,null,null,null
2015-06-04,null,null,null,null,null,null
2015-06-05,null,null,null,null,null,null
2015-06-08,0.005000,0.005000,0.005000,0.005000,0.005000,0
2015-06-09,0.005000,0.005000,0.005000,0.005000,0.005000,0
2015-06-10,0.005000,0.005000,0.005000,0.005000,0.005000,0
2015-06-11,0.005000,0.005000,0.005000,0.005000,0.005000,0
2015-06-12,0.005000,0.005000,0.005000,0.005000,0.005000,0
2015-06-15,0.005000,0.005000,0.005000,0.005000,0.005000,0
2015-06-16,0.005000,0.005000,0.005000,0.005000,0.005000,0
2015-06-17,0.005000,0.005000,0.005000,0.005000,0.005000,100000
2015-06-18,0.005000,0.005000,0.005000,0.005000,0.005000,128000
2015-06-19,0.005000,0.005000,0.005000,0.005000,0.005000,5000
2015-06-22,0.005000,0.005000,0.005000,0.005000,0.005000,0
2015-06-23,0.005000,0.005000,0.005000,0.005000,0.005000,250000
2015-06-24,0.005000,0.005000,0.005000,0.005000,0.005000,0
2015-06-25,0.005000,0.005000,0.005000,0.005000,0.005000,0
2015-06-26,0.005000,0.005000,0.005000,0.005000,0.005000,250000
2015-06-29,0.005000,0.005000,0.005000,0.005000,0.005000,0
2015-06-30,0.005000,0.005000,0.005000,0.005000,0.005000,0
2015-07-01,0.005000,0.005000,0.005000,0.005000,0.005000,0
2015-07-02,0.005000,0.005000,0.005000,0.005000,0.005000,2000
2015-07-06,0.005000,0.005000,0.005000,0.005000,0.005000,0
2015-07-07,0.005000,0.005000,0.005000,0.005000,0.005000,0
2015-07-08,0.005000,0.005000,0.005000,0.005000,0.005000,0
2015-07-09,0.005000,0.005000,0.005000,0.005000,0.005000,0
2015-07-10,0.005000,0.005000,0.005000,0.005000,0.005000,3000
2015-07-13,0.005000,0.005000,0.005000,0.005000,0.005000,0
2015-07-14,0.005000,0.005000,0.005000,0.005000,0.005000,0
2015-07-15,0.005000,0.005000,0.005000,0.005000,0.005000,0
2015-07-16,0.005000,0.005000,0.005000,0.005000,0.005000,0
2015-07-17,0.005000,0.005000,0.005000,0.005000,0.005000,0
2015-07-20,0.005000,0.005000,0.005000,0.005000,0.005000,0
2015-07-21,0.005000,0.005000,0.005000,0.005000,0.005000,0
2015-07-22,0.005000,0.005000,0.005000,0.005000,0.005000,0
2015-07-23,0.005000,0.005000,0.005000,0.005000,0.005000,0
2015-07-24,0.005000,0.005000,0.005000,0.005000,0.005000,5000
2015-07-27,0.005000,0.005000,0.005000,0.005000,0.005000,0
2015-07-28,0.005000,0.005000,0.005000,0.005000,0.005000,10000
2015-07-29,0.005000,0.005000,0.005000,0.005000,0.005000,40000
2015-07-30,0.005000,0.005000,0.005000,0.005000,0.005000,0
2015-07-31,0.005000,0.005000,0.005000,0.005000,0.005000,0
2015-08-03,0.005000,0.005000,0.005000,0.005000,0.005000,0
2015-08-04,0.005000,0.005000,0.005000,0.005000,0.005000,0
2015-08-05,0.005000,0.005000,0.005000,0.005000,0.005000,8000
2015-08-06,0.005000,0.005000,0.005000,0.005000,0.005000,0
2015-08-07,0.005000,0.005000,0.005000,0.005000,0.005000,0
2015-08-10,0.005000,0.005000,0.005000,0.005000,0.005000,0
2015-08-11,0.005000,0.005000,0.005000,0.005000,0.005000,0
2015-08-12,0.005000,0.005000,0.005000,0.005000,0.005000,0
2015-08-13,0.005000,0.005000,0.005000,0.005000,0.005000,0
2015-08-14,0.005000,0.005000,0.005000,0.005000,0.005000,0
2015-08-17,0.005000,0.005000,0.005000,0.005000,0.005000,0
2015-08-18,0.005000,0.005000,0.005000,0.005000,0.005000,2000
2015-08-19,0.005000,0.005000,0.005000,0.005000,0.005000,0
2015-08-20,0.005000,0.005000,0.005000,0.005000,0.005000,0
2015-08-21,0.005000,0.005000,0.005000,0.005000,0.005000,0
2015-08-24,0.005000,0.005000,0.005000,0.005000,0.005000,0
2015-08-25,0.005000,0.005000,0.005000,0.005000,0.005000,0
2015-08-26,0.005000,0.005000,0.005000,0.005000,0.005000,0
2015-08-27,0.005000,0.005000,0.005000,0.005000,0.005000,0
2015-08-28,0.005000,0.005000,0.005000,0.005000,0.005000,0
2015-08-31,0.005000,0.005000,0.005000,0.005000,0.005000,0
2015-09-01,0.005000,0.005000,0.005000,0.005000,0.005000,0
2015-09-02,0.005000,0.005000,0.005000,0.005000,0.005000,18000
2015-09-03,0.005000,0.005000,0.005000,0.005000,0.005000,10000
2015-09-04,0.005000,0.005000,0.005000,0.005000,0.005000,0
2015-09-08,0.005000,0.005000,0.005000,0.005000,0.005000,0
2015-09-09,0.005000,0.005000,0.005000,0.005000,0.005000,8000
2015-09-10,0.005000,0.005000,0.005000,0.005000,0.005000,14000
2015-09-11,0.005000,0.005000,0.005000,0.005000,0.005000,0
2015-09-14,0.005000,0.005000,0.005000,0.005000,0.005000,0
2015-09-15,0.005000,0.005000,0.005000,0.005000,0.005000,0
2015-09-16,0.005000,0.005000,0.005000,0.005000,0.005000,764000
2015-09-17,0.005000,0.005000,0.005000,0.005000,0.005000,0
2015-09-18,0.005000,0.005000,0.005000,0.005000,0.005000,0
2015-09-21,0.005000,0.005000,0.005000,0.005000,0.005000,0
2015-09-22,0.005000,0.005000,0.005000,0.005000,0.005000,0
2015-09-23,0.005000,0.005000,0.005000,0.005000,0.005000,0
2015-09-24,0.005000,0.005000,0.005000,0.005000,0.005000,0
2015-09-25,0.005000,0.005000,0.005000,0.005000,0.005000,5000
2015-09-28,0.005000,0.005000,0.005000,0.005000,0.005000,0
2015-09-29,0.005000,0.005000,0.005000,0.005000,0.005000,0
2015-09-30,0.005000,0.005000,0.005000,0.005000,0.005000,0
2015-10-01,0.005000,0.005000,0.005000,0.005000,0.005000,0
2015-10-02,0.005000,0.005000,0.005000,0.005000,0.005000,0
2015-10-05,0.005000,0.005000,0.005000,0.005000,0.005000,0
2015-10-06,0.005000,0.005000,0.005000,0.005000,0.005000,0
2015-10-07,0.005000,0.005000,0.005000,0.005000,0.005000,0
2015-10-08,0.005000,0.005000,0.005000,0.005000,0.005000,0
2015-10-09,0.005000,0.005000,0.005000,0.005000,0.005000,0
2015-10-12,0.005000,0.005000,0.005000,0.005000,0.005000,0
2015-10-13,0.005000,0.005000,0.005000,0.005000,0.005000,0
2015-10-14,0.005000,0.005000,0.005000,0.005000,0.005000,0
2015-10-15,0.005000,0.005000,0.005000,0.005000,0.005000,0
2015-10-16,0.005000,0.005000,0.005000,0.005000,0.005000,0
2015-10-19,0.005000,0.005000,0.005000,0.005000,0.005000,0
2015-10-20,0.005000,0.005000,0.005000,0.005000,0.005000,0
2015-10-21,0.005000,0.005000,0.005000,0.005000,0.005000,0
2015-10-22,0.005000,0.005000,0.005000,0.005000,0.005000,0
2015-10-23,0.005000,0.005000,0.005000,0.005000,0.005000,0
2015-10-26,0.005000,0.005000,0.005000,0.005000,0.005000,0
2015-10-27,0.005000,0.005000,0.005000,0.005000,0.005000,0
2015-10-28,0.005000,0.005000,0.005000,0.005000,0.005000,0
2015-10-29,0.005000,0.005000,0.005000,0.005000,0.005000,95000
2015-10-30,0.005000,0.005000,0.005000,0.005000,0.005000,0
2015-11-02,0.005000,0.005000,0.005000,0.005000,0.005000,0
2015-11-03,0.005000,0.005000,0.005000,0.005000,0.005000,0
2015-11-04,0.005000,0.005000,0.005000,0.005000,0.005000,0
2015-11-05,0.005000,0.005000,0.005000,0.005000,0.005000,0
2015-11-06,0.005000,0.005000,0.005000,0.005000,0.005000,0
2015-11-09,0.005000,0.005000,0.005000,0.005000,0.005000,0
2015-11-10,0.005000,0.005000,0.005000,0.005000,0.005000,0
2015-11-11,0.005000,0.005000,0.005000,0.005000,0.005000,0
2015-11-12,0.005000,0.005000,0.005000,0.005000,0.005000,0
2015-11-13,0.005000,0.005000,0.005000,0.005000,0.005000,0
2015-11-16,0.005000,0.005000,0.005000,0.005000,0.005000,0
2015-11-17,0.005000,0.005000,0.005000,0.005000,0.005000,0
2015-11-18,0.005000,0.005000,0.005000,0.005000,0.005000,0
2015-11-19,0.005000,0.005000,0.005000,0.005000,0.005000,0
2015-11-20,0.005000,0.005000,0.005000,0.005000,0.005000,0
2015-11-23,0.005000,0.005000,0.005000,0.005000,0.005000,0
2015-11-24,0.005000,0.005000,0.005000,0.005000,0.005000,0
2015-11-25,0.005000,0.005000,0.005000,0.005000,0.005000,0
2015-11-27,0.005000,0.005000,0.005000,0.005000,0.005000,0
2015-11-30,0.005000,0.005000,0.005000,0.005000,0.005000,0
2015-12-01,0.005000,0.005000,0.005000,0.005000,0.005000,0
2015-12-02,0.005000,0.005000,0.005000,0.005000,0.005000,0
2015-12-03,0.005000,0.005000,0.005000,0.005000,0.005000,0
2015-12-04,0.005000,0.005000,0.005000,0.005000,0.005000,0
2015-12-07,0.005000,0.005000,0.005000,0.005000,0.005000,0
2015-12-08,0.005000,0.005000,0.005000,0.005000,0.005000,0
2015-12-09,0.005000,0.005000,0.005000,0.005000,0.005000,0
2015-12-10,0.005000,0.005000,0.005000,0.005000,0.005000,0
2015-12-11,0.005000,0.005000,0.005000,0.005000,0.005000,0
2015-12-14,0.005000,0.005000,0.005000,0.005000,0.005000,0
2015-12-15,0.005000,0.005000,0.005000,0.005000,0.005000,0
2015-12-16,0.005000,0.005000,0.005000,0.005000,0.005000,0
2015-12-17,0.005000,0.005000,0.005000,0.005000,0.005000,0
2015-12-18,0.005000,0.005000,0.005000,0.005000,0.005000,0
2015-12-21,0.005000,0.005000,0.005000,0.005000,0.005000,0
2015-12-22,0.005000,0.005000,0.005000,0.005000,0.005000,0
2015-12-23,0.005000,0.005000,0.005000,0.005000,0.005000,0
2015-12-24,0.005000,0.005000,0.005000,0.005000,0.005000,0
2015-12-28,0.005000,0.005000,0.005000,0.005000,0.005000,0
2015-12-29,0.005000,0.005000,0.005000,0.005000,0.005000,0
2015-12-30,0.005000,0.005000,0.005000,0.005000,0.005000,0
2015-12-31,0.005000,0.005000,0.005000,0.005000,0.005000,0
2016-01-04,0.005000,0.005000,0.005000,0.005000,0.005000,0
2016-01-05,0.005000,0.005000,0.005000,0.005000,0.005000,0
2016-01-06,0.005000,0.005000,0.005000,0.005000,0.005000,200
2016-01-07,0.005000,0.005000,0.005000,0.005000,0.005000,0
2016-01-08,0.005000,0.005000,0.005000,0.005000,0.005000,0
2016-01-11,0.005000,0.005000,0.005000,0.005000,0.005000,0
2016-01-12,0.005000,0.005000,0.005000,0.005000,0.005000,0
2016-01-13,0.005000,0.005000,0.005000,0.005000,0.005000,0
2016-01-14,0.005000,0.005000,0.005000,0.005000,0.005000,0
2016-01-15,0.005000,0.005000,0.005000,0.005000,0.005000,0
2016-01-19,0.005000,0.005000,0.005000,0.005000,0.005000,0
2016-01-20,0.005000,0.005000,0.005000,0.005000,0.005000,0
2016-01-21,0.005000,0.005000,0.005000,0.005000,0.005000,0
2016-01-22,0.005000,0.005000,0.005000,0.005000,0.005000,0
2016-01-25,0.005000,0.005000,0.005000,0.005000,0.005000,0
2016-01-26,0.005000,0.005000,0.005000,0.005000,0.005000,0
2016-01-27,0.005000,0.005000,0.005000,0.005000,0.005000,0
2016-01-28,0.005000,0.005000,0.005000,0.005000,0.005000,0
2016-01-29,0.005000,0.005000,0.005000,0.005000,0.005000,0
2016-02-01,0.005000,0.005000,0.005000,0.005000,0.005000,0
2016-02-02,0.005000,0.005000,0.005000,0.005000,0.005000,0
2016-02-03,0.005000,0.005000,0.005000,0.005000,0.005000,0
2016-02-04,0.005000,0.005000,0.005000,0.005000,0.005000,0
2016-02-05,0.005000,0.005000,0.005000,0.005000,0.005000,0
2016-02-08,0.005000,0.005000,0.005000,0.005000,0.005000,0
2016-02-09,0.005000,0.005000,0.005000,0.005000,0.005000,0
2016-02-10,0.005000,0.005000,0.005000,0.005000,0.005000,0
2016-02-11,0.005000,0.005000,0.005000,0.005000,0.005000,0
2016-02-12,0.005000,0.005000,0.005000,0.005000,0.005000,0
2016-02-16,0.005000,0.005000,0.005000,0.005000,0.005000,0
2016-02-17,0.005000,0.005000,0.005000,0.005000,0.005000,0
2016-02-18,0.005000,0.005000,0.005000,0.005000,0.005000,0
2016-02-19,0.005000,0.005000,0.005000,0.005000,0.005000,0
2016-02-22,0.005000,0.005000,0.005000,0.005000,0.005000,0
2016-02-23,0.005000,0.005000,0.005000,0.005000,0.005000,0
2016-02-24,0.005000,0.005000,0.005000,0.005000,0.005000,0
2016-02-25,0.005000,0.005000,0.005000,0.005000,0.005000,0
2016-02-26,0.005000,0.005000,0.005000,0.005000,0.005000,0
2016-02-29,0.005000,0.005000,0.005000,0.005000,0.005000,0
2016-03-01,0.005000,0.005000,0.005000,0.005000,0.005000,0
2016-03-02,0.005000,0.005000,0.005000,0.005000,0.005000,0
2016-03-03,0.005000,0.005000,0.005000,0.005000,0.005000,20000
2016-03-04,0.005000,0.005000,0.005000,0.005000,0.005000,0
2016-03-07,0.005000,0.005000,0.005000,0.005000,0.005000,0
2016-03-08,0.005000,0.005000,0.005000,0.005000,0.005000,0
2016-03-09,0.005000,0.005000,0.005000,0.005000,0.005000,0
2016-03-10,0.005000,0.005000,0.005000,0.005000,0.005000,0
2016-03-11,0.005000,0.005000,0.005000,0.005000,0.005000,22000
2016-03-14,0.005000,0.005000,0.005000,0.005000,0.005000,0
2016-03-15,0.005000,0.005000,0.005000,0.005000,0.005000,0
2016-03-16,0.005000,0.005000,0.005000,0.005000,0.005000,0
2016-03-17,0.005000,0.005000,0.005000,0.005000,0.005000,0
2016-03-18,null,null,null,null,null,null
2016-03-21,null,null,null,null,null,null
2016-03-22,null,null,null,null,null,null
2016-03-23,null,null,null,null,null,null
2016-03-24,null,null,null,null,null,null
2016-03-28,null,null,null,null,null,null
2016-03-29,null,null,null,null,null,null
2016-03-30,null,null,null,null,null,null
2016-03-31,null,null,null,null,null,null
2016-04-01,null,null,null,null,null,null
2016-04-04,null,null,null,null,null,null
2016-04-05,null,null,null,null,null,null
2016-04-06,null,null,null,null,null,null
2016-04-07,null,null,null,null,null,null
2016-04-08,null,null,null,null,null,null
2016-04-11,null,null,null,null,null,null
2016-04-12,null,null,null,null,null,null
2016-04-13,null,null,null,null,null,null
2016-04-14,null,null,null,null,null,null
2016-04-15,null,null,null,null,null,null
2016-04-18,null,null,null,null,null,null
2016-04-19,null,null,null,null,null,null
2016-04-20,null,null,null,null,null,null
2016-04-21,null,null,null,null,null,null
2016-04-22,null,null,null,null,null,null
2016-04-25,null,null,null,null,null,null
2016-04-26,null,null,null,null,null,null
2016-04-27,null,null,null,null,null,null
2016-04-28,null,null,null,null,null,null
2016-04-29,null,null,null,null,null,null
2016-05-02,null,null,null,null,null,null
2016-05-03,null,null,null,null,null,null
2016-05-04,null,null,null,null,null,null
2016-05-05,null,null,null,null,null,null
2016-05-06,null,null,null,null,null,null
2016-05-09,null,null,null,null,null,null
2016-05-10,null,null,null,null,null,null
2016-05-11,null,null,null,null,null,null
2016-05-12,null,null,null,null,null,null
2016-05-13,null,null,null,null,null,null
2016-05-16,null,null,null,null,null,null
2016-05-17,null,null,null,null,null,null
2016-05-18,null,null,null,null,null,null
2016-05-19,null,null,null,null,null,null
2016-05-20,null,null,null,null,null,null
2016-05-23,null,null,null,null,null,null
2016-05-24,null,null,null,null,null,null
2016-05-25,null,null,null,null,null,null
2016-05-26,null,null,null,null,null,null
2016-05-27,null,null,null,null,null,null
2016-05-31,null,null,null,null,null,null
2016-06-01,null,null,null,null,null,null
2016-06-02,null,null,null,null,null,null
2016-06-03,null,null,null,null,null,null
2016-06-06,null,null,null,null,null,null
2016-06-07,null,null,null,null,null,null
2016-06-08,null,null,null,null,null,null
2016-06-09,null,null,null,null,null,null
2016-06-10,null,null,null,null,null,null
2016-06-13,null,null,null,null,null,null
2016-06-14,null,null,null,null,null,null
2016-06-15,null,null,null,null,null,null
2016-06-16,null,null,null,null,null,null
2016-06-17,null,null,null,null,null,null
2016-06-20,null,null,null,null,null,null
2016-06-21,null,null,null,null,null,null
2016-06-22,null,null,null,null,null,null
2016-06-23,null,null,null,null,null,null
2016-06-24,null,null,null,null,null,null
2016-06-27,null,null,null,null,null,null
2016-06-28,null,null,null,null,null,null
2016-06-29,null,null,null,null,null,null
2016-06-30,null,null,null,null,null,null
2016-07-01,null,null,null,null,null,null
2016-07-05,null,null,null,null,null,null
2016-07-06,null,null,null,null,null,null
2016-07-07,null,null,null,null,null,null
2016-07-08,null,null,null,null,null,null
2016-07-11,null,null,null,null,null,null
2016-07-12,null,null,null,null,null,null
2016-07-13,null,null,null,null,null,null
2016-07-14,null,null,null,null,null,null
2016-07-15,null,null,null,null,null,null
2016-07-18,null,null,null,null,null,null
2016-07-19,null,null,null,null,null,null
2016-07-20,null,null,null,null,null,null
2016-07-21,null,null,null,null,null,null
2016-07-22,null,null,null,null,null,null
2016-07-25,null,null,null,null,null,null
2016-07-26,null,null,null,null,null,null
2016-07-27,null,null,null,null,null,null
2016-07-28,null,null,null,null,null,null
2016-07-29,null,null,null,null,null,null
2016-08-01,null,null,null,null,null,null
2016-08-02,null,null,null,null,null,null
2016-08-03,null,null,null,null,null,null
2016-08-04,null,null,null,null,null,null
2016-08-05,null,null,null,null,null,null
2016-08-08,null,null,null,null,null,null
2016-08-09,null,null,null,null,null,null
2016-08-10,null,null,null,null,null,null
2016-08-11,null,null,null,null,null,null
2016-08-12,null,null,null,null,null,null
2016-08-15,null,null,null,null,null,null
2016-08-16,null,null,null,null,null,null
2016-08-17,null,null,null,null,null,null
2016-08-18,null,null,null,null,null,null
2016-08-19,null,null,null,null,null,null
2016-08-22,null,null,null,null,null,null
2016-08-23,null,null,null,null,null,null
2016-08-24,null,null,null,null,null,null
2016-08-25,null,null,null,null,null,null
2016-08-26,null,null,null,null,null,null
2016-08-29,null,null,null,null,null,null
2016-08-30,null,null,null,null,null,null
2016-08-31,null,null,null,null,null,null
2016-09-01,null,null,null,null,null,null
2016-09-02,null,null,null,null,null,null
2016-09-06,null,null,null,null,null,null
2016-09-07,null,null,null,null,null,null
2016-09-08,null,null,null,null,null,null
2016-09-09,null,null,null,null,null,null
2016-09-12,null,null,null,null,null,null
2016-09-13,null,null,null,null,null,null
2016-09-14,null,null,null,null,null,null
2016-09-15,null,null,null,null,null,null
2016-09-16,null,null,null,null,null,null
2016-09-19,null,null,null,null,null,null
2016-09-20,null,null,null,null,null,null
2016-09-21,null,null,null,null,null,null
2016-09-22,null,null,null,null,null,null
2016-09-23,null,null,null,null,null,null
2016-09-26,null,null,null,null,null,null
2016-09-27,null,null,null,null,null,null
2016-09-28,null,null,null,null,null,null
2016-09-29,null,null,null,null,null,null
2016-09-30,null,null,null,null,null,null
2016-10-03,null,null,null,null,null,null
2016-10-04,null,null,null,null,null,null
2016-10-05,null,null,null,null,null,null
2016-10-06,null,null,null,null,null,null
2016-10-07,null,null,null,null,null,null
2016-10-10,null,null,null,null,null,null
2016-10-11,null,null,null,null,null,null
2016-10-12,null,null,null,null,null,null
2016-10-13,null,null,null,null,null,null
2016-10-14,null,null,null,null,null,null
2016-10-17,null,null,null,null,null,null
2016-10-18,null,null,null,null,null,null
2016-10-19,null,null,null,null,null,null
2016-10-20,null,null,null,null,null,null
2016-10-21,null,null,null,null,null,null
2016-10-24,null,null,null,null,null,null
2016-10-25,null,null,null,null,null,null
2016-10-26,null,null,null,null,null,null
2016-10-27,null,null,null,null,null,null
2016-10-28,null,null,null,null,null,null
2016-10-31,null,null,null,null,null,null
2016-11-01,null,null,null,null,null,null
2016-11-02,null,null,null,null,null,null
2016-11-03,null,null,null,null,null,null
2016-11-04,null,null,null,null,null,null
2016-11-07,null,null,null,null,null,null
2016-11-08,null,null,null,null,null,null
2016-11-09,null,null,null,null,null,null
2016-11-10,null,null,null,null,null,null
2016-11-11,null,null,null,null,null,null
2016-11-14,null,null,null,null,null,null
2016-11-15,null,null,null,null,null,null
2016-11-16,null,null,null,null,null,null
2016-11-17,null,null,null,null,null,null
2016-11-18,null,null,null,null,null,null
2016-11-21,null,null,null,null,null,null
2016-11-22,null,null,null,null,null,null
2016-11-23,null,null,null,null,null,null
2016-11-25,null,null,null,null,null,null
2016-11-28,null,null,null,null,null,null
2016-11-29,null,null,null,null,null,null
2016-11-30,null,null,null,null,null,null
2016-12-01,null,null,null,null,null,null
2016-12-02,null,null,null,null,null,null
2016-12-05,null,null,null,null,null,null
2016-12-06,null,null,null,null,null,null
2016-12-07,null,null,null,null,null,null
2016-12-08,null,null,null,null,null,null
2016-12-09,null,null,null,null,null,null
2016-12-12,null,null,null,null,null,null
2016-12-13,null,null,null,null,null,null
2016-12-14,null,null,null,null,null,null
2016-12-15,null,null,null,null,null,null
2016-12-16,null,null,null,null,null,null
2016-12-19,null,null,null,null,null,null
2016-12-20,null,null,null,null,null,null
2016-12-21,null,null,null,null,null,null
2016-12-22,null,null,null,null,null,null
2016-12-23,null,null,null,null,null,null
2016-12-27,null,null,null,null,null,null
2016-12-28,null,null,null,null,null,null
2016-12-29,null,null,null,null,null,null
2016-12-30,null,null,null,null,null,null
2017-01-03,null,null,null,null,null,null
2017-01-04,null,null,null,null,null,null
2017-01-05,null,null,null,null,null,null
2017-01-06,null,null,null,null,null,null
2017-01-09,null,null,null,null,null,null
2017-01-10,null,null,null,null,null,null
2017-01-11,null,null,null,null,null,null
2017-01-12,null,null,null,null,null,null
2017-01-13,null,null,null,null,null,null
2017-01-17,null,null,null,null,null,null
2017-01-18,null,null,null,null,null,null
2017-01-19,null,null,null,null,null,null
2017-01-20,null,null,null,null,null,null
2017-01-23,null,null,null,null,null,null
2017-01-24,null,null,null,null,null,null
2017-01-25,null,null,null,null,null,null
2017-01-26,null,null,null,null,null,null
2017-01-27,null,null,null,null,null,null
2017-01-30,null,null,null,null,null,null
2017-01-31,null,null,null,null,null,null
2017-02-01,null,null,null,null,null,null
2017-02-02,null,null,null,null,null,null
2017-02-03,null,null,null,null,null,null
2017-02-06,null,null,null,null,null,null
2017-02-07,null,null,null,null,null,null
2017-02-08,null,null,null,null,null,null
2017-02-09,null,null,null,null,null,null
2017-02-10,null,null,null,null,null,null
2017-02-13,null,null,null,null,null,null
2017-02-14,null,null,null,null,null,null
2017-02-15,null,null,null,null,null,null
2017-02-16,null,null,null,null,null,null
2017-02-17,null,null,null,null,null,null
2017-02-21,null,null,null,null,null,null
2017-02-22,null,null,null,null,null,null
2017-02-23,null,null,null,null,null,null
2017-02-24,null,null,null,null,null,null
2017-02-27,null,null,null,null,null,null
2017-02-28,null,null,null,null,null,null
2017-03-01,null,null,null,null,null,null
2017-03-02,null,null,null,null,null,null
2017-03-03,null,null,null,null,null,null
2017-03-06,null,null,null,null,null,null
2017-03-07,null,null,null,null,null,null
2017-03-08,null,null,null,null,null,null
2017-03-09,null,null,null,null,null,null
2017-03-10,null,null,null,null,null,null
2017-03-13,null,null,null,null,null,null
2017-03-14,null,null,null,null,null,null
2017-03-15,null,null,null,null,null,null
2017-03-16,null,null,null,null,null,null
2017-03-17,null,null,null,null,null,null
2017-03-20,null,null,null,null,null,null
2017-03-21,null,null,null,null,null,null
2017-03-22,null,null,null,null,null,null
2017-03-23,null,null,null,null,null,null
2017-03-24,null,null,null,null,null,null
2017-03-27,null,null,null,null,null,null
2017-03-28,null,null,null,null,null,null
2017-03-29,null,null,null,null,null,null
2017-03-30,null,null,null,null,null,null
2017-03-31,null,null,null,null,null,null
2017-04-03,null,null,null,null,null,null
2017-04-04,null,null,null,null,null,null
2017-04-05,null,null,null,null,null,null
2017-04-06,null,null,null,null,null,null
2017-04-07,null,null,null,null,null,null
2017-04-10,null,null,null,null,null,null
2017-04-11,null,null,null,null,null,null
2017-04-12,null,null,null,null,null,null
2017-04-13,null,null,null,null,null,null
2017-04-17,null,null,null,null,null,null
2017-04-18,null,null,null,null,null,null
2017-04-19,null,null,null,null,null,null
2017-04-20,null,null,null,null,null,null
2017-04-21,null,null,null,null,null,null
2017-04-24,null,null,null,null,null,null
2017-04-25,null,null,null,null,null,null
2017-04-26,null,null,null,null,null,null
2017-04-27,null,null,null,null,null,null
2017-04-28,null,null,null,null,null,null
2017-05-01,null,null,null,null,null,null
2017-05-02,null,null,null,null,null,null
2017-05-03,null,null,null,null,null,null
2017-05-04,null,null,null,null,null,null
2017-05-05,null,null,null,null,null,null
2017-05-08,null,null,null,null,null,null
2017-05-09,null,null,null,null,null,null
2017-05-10,null,null,null,null,null,null
2017-05-11,null,null,null,null,null,null
2017-05-12,null,null,null,null,null,null
2017-05-15,null,null,null,null,null,null
2017-05-16,null,null,null,null,null,null
2017-05-17,null,null,null,null,null,null
2017-05-18,null,null,null,null,null,null
2017-05-19,null,null,null,null,null,null
2017-05-22,null,null,null,null,null,null
2017-05-23,null,null,null,null,null,null
2017-05-24,null,null,null,null,null,null
2017-05-25,null,null,null,null,null,null
2017-05-26,null,null,null,null,null,null
2017-05-30,null,null,null,null,null,null
2017-05-31,null,null,null,null,null,null
2017-06-01,null,null,null,null,null,null
2017-06-02,null,null,null,null,null,null
2017-06-05,null,null,null,null,null,null
2017-06-06,null,null,null,null,null,null
2017-06-07,null,null,null,null,null,null
2017-06-08,null,null,null,null,null,null
2017-06-09,null,null,null,null,null,null
2017-06-12,null,null,null,null,null,null
2017-06-13,null,null,null,null,null,null
2017-06-14,null,null,null,null,null,null
2017-06-15,null,null,null,null,null,null
2017-06-16,null,null,null,null,null,null
2017-06-19,null,null,null,null,null,null
2017-06-20,null,null,null,null,null,null
2017-06-21,null,null,null,null,null,null
2017-06-22,null,null,null,null,null,null
2017-06-23,null,null,null,null,null,null
2017-06-26,null,null,null,null,null,null
2017-06-27,null,null,null,null,null,null
2017-06-28,null,null,null,null,null,null
2017-06-29,null,null,null,null,null,null
2017-06-30,null,null,null,null,null,null
2017-07-03,null,null,null,null,null,null
2017-07-05,null,null,null,null,null,null
2017-07-06,null,null,null,null,null,null
2017-07-07,null,null,null,null,null,null
2017-07-10,null,null,null,null,null,null
2017-07-11,null,null,null,null,null,null
2017-07-12,null,null,null,null,null,null
2017-07-13,null,null,null,null,null,null
2017-07-14,null,null,null,null,null,null
2017-07-17,null,null,null,null,null,null
2017-07-18,null,null,null,null,null,null
2017-07-19,null,null,null,null,null,null
2017-07-20,null,null,null,null,null,null
2017-07-21,null,null,null,null,null,null
2017-07-24,null,null,null,null,null,null
2017-07-25,null,null,null,null,null,null
2017-07-26,null,null,null,null,null,null
2017-07-27,null,null,null,null,null,null
2017-07-28,null,null,null,null,null,null
2017-07-31,null,null,null,null,null,null
2017-08-01,null,null,null,null,null,null
2017-08-02,null,null,null,null,null,null
2017-08-03,null,null,null,null,null,null
2017-08-04,null,null,null,null,null,null
2017-08-07,null,null,null,null,null,null
2017-08-08,null,null,null,null,null,null
2017-08-09,null,null,null,null,null,null
2017-08-10,null,null,null,null,null,null
2017-08-11,null,null,null,null,null,null
2017-08-14,null,null,null,null,null,null
2017-08-15,null,null,null,null,null,null
2017-08-16,null,null,null,null,null,null
2017-08-17,null,null,null,null,null,null
2017-08-18,null,null,null,null,null,null
2017-08-21,null,null,null,null,null,null
2017-08-22,null,null,null,null,null,null
2017-08-23,null,null,null,null,null,null
2017-08-24,null,null,null,null,null,null
2017-08-25,null,null,null,null,null,null
2017-08-28,null,null,null,null,null,null
2017-08-29,null,null,null,null,null,null
2017-08-30,null,null,null,null,null,null
2017-08-31,null,null,null,null,null,null
2017-09-01,null,null,null,null,null,null
2017-09-05,null,null,null,null,null,null
2017-09-06,null,null,null,null,null,null
2017-09-07,null,null,null,null,null,null
2017-09-08,null,null,null,null,null,null
2017-09-11,null,null,null,null,null,null
2017-09-12,null,null,null,null,null,null
2017-09-13,null,null,null,null,null,null
2017-09-14,null,null,null,null,null,null
2017-09-15,null,null,null,null,null,null
2017-09-18,null,null,null,null,null,null
2017-09-19,null,null,null,null,null,null
2017-09-20,null,null,null,null,null,null
2017-09-21,null,null,null,null,null,null
2017-09-22,null,null,null,null,null,null
2017-09-25,null,null,null,null,null,null
2017-09-26,null,null,null,null,null,null
2017-09-27,null,null,null,null,null,null
2017-09-28,null,null,null,null,null,null
2017-09-29,null,null,null,null,null,null
2017-10-02,null,null,null,null,null,null
2017-10-03,null,null,null,null,null,null
2017-10-04,null,null,null,null,null,null
2017-10-05,null,null,null,null,null,null
2017-10-06,null,null,null,null,null,null
2017-10-09,null,null,null,null,null,null
2017-10-10,null,null,null,null,null,null
2017-10-11,null,null,null,null,null,null
2017-10-12,null,null,null,null,null,null
2017-10-13,null,null,null,null,null,null
2017-10-16,null,null,null,null,null,null
2017-10-17,null,null,null,null,null,null
2017-10-18,null,null,null,null,null,null
2017-10-19,null,null,null,null,null,null
2017-10-20,null,null,null,null,null,null
2017-10-23,null,null,null,null,null,null
2017-10-24,null,null,null,null,null,null
2017-10-25,null,null,null,null,null,null
2017-10-26,null,null,null,null,null,null
2017-10-27,null,null,null,null,null,null
2017-10-30,null,null,null,null,null,null
2017-10-31,null,null,null,null,null,null
2017-11-01,null,null,null,null,null,null
2017-11-02,null,null,null,null,null,null
2017-11-03,null,null,null,null,null,null
2017-11-06,null,null,null,null,null,null
2017-11-07,null,null,null,null,null,null
2017-11-08,null,null,null,null,null,null
2017-11-09,null,null,null,null,null,null
2017-11-10,null,null,null,null,null,null
2017-11-13,null,null,null,null,null,null
2017-11-14,null,null,null,null,null,null
2017-11-15,null,null,null,null,null,null
2017-11-16,null,null,null,null,null,null
2017-11-17,null,null,null,null,null,null
2017-11-20,null,null,null,null,null,null
2017-11-21,null,null,null,null,null,null
2017-11-22,null,null,null,null,null,null
2017-11-24,null,null,null,null,null,null
2017-11-27,null,null,null,null,null,null
2017-11-28,null,null,null,null,null,null
2017-11-29,null,null,null,null,null,null
2017-11-30,null,null,null,null,null,null
2017-12-01,null,null,null,null,null,null
2017-12-04,null,null,null,null,null,null
2017-12-05,null,null,null,null,null,null
2017-12-06,null,null,null,null,null,null
2017-12-07,null,null,null,null,null,null
2017-12-08,null,null,null,null,null,null
2017-12-11,null,null,null,null,null,null
2017-12-12,null,null,null,null,null,null
2017-12-13,null,null,null,null,null,null
2017-12-14,null,null,null,null,null,null
2017-12-15,null,null,null,null,null,null
2017-12-18,null,null,null,null,null,null
2017-12-19,null,null,null,null,null,null
2017-12-20,null,null,null,null,null,null
2017-12-21,null,null,null,null,null,null
2017-12-22,null,null,null,null,null,null
2017-12-26,null,null,null,null,null,null
2017-12-27,null,null,null,null,null,null
2017-12-28,null,null,null,null,null,null
2017-12-29,null,null,null,null,null,null
2018-01-02,null,null,null,null,null,null
2018-01-03,null,null,null,null,null,null
2018-01-04,null,null,null,null,null,null
2018-01-05,null,null,null,null,null,null
2018-01-08,null,null,null,null,null,null
2018-01-09,null,null,null,null,null,null
2018-01-10,null,null,null,null,null,null
2018-01-11,null,null,null,null,null,null
2018-01-12,null,null,null,null,null,null
2018-01-16,null,null,null,null,null,null
2018-01-17,null,null,null,null,null,null
2018-01-18,null,null,null,null,null,null
2018-01-19,null,null,null,null,null,null
2018-01-22,null,null,null,null,null,null
2018-01-23,null,null,null,null,null,null
2018-01-24,null,null,null,null,null,null
2018-01-25,null,null,null,null,null,null
2018-01-26,null,null,null,null,null,null
2018-01-29,null,null,null,null,null,null
2018-01-30,null,null,null,null,null,null
2018-01-31,null,null,null,null,null,null
2018-02-01,null,null,null,null,null,null
2018-02-02,null,null,null,null,null,null
2018-02-05,null,null,null,null,null,null
2018-02-06,null,null,null,null,null,null
2018-02-07,null,null,null,null,null,null
2018-02-08,null,null,null,null,null,null
2018-02-09,null,null,null,null,null,null
2018-02-12,null,null,null,null,null,null
2018-02-13,null,null,null,null,null,null
2018-02-14,null,null,null,null,null,null
2018-02-15,null,null,null,null,null,null
2018-02-16,null,null,null,null,null,null
2018-02-20,null,null,null,null,null,null
2018-02-21,null,null,null,null,null,null
2018-02-22,null,null,null,null,null,null
2018-02-23,null,null,null,null,null,null
2018-02-26,null,null,null,null,null,null
2018-02-27,null,null,null,null,null,null
2018-02-28,null,null,null,null,null,null
2018-03-01,null,null,null,null,null,null
2018-03-02,null,null,null,null,null,null
2018-03-05,null,null,null,null,null,null
2018-03-06,null,null,null,null,null,null
2018-03-07,null,null,null,null,null,null
2018-03-08,null,null,null,null,null,null
2018-03-09,null,null,null,null,null,null
2018-03-12,null,null,null,null,null,null
2018-03-13,null,null,null,null,null,null
2018-03-14,null,null,null,null,null,null
2018-03-15,null,null,null,null,null,null
2018-03-16,null,null,null,null,null,null
2018-03-19,null,null,null,null,null,null
2018-03-20,null,null,null,null,null,null
2018-03-21,null,null,null,null,null,null
2018-03-22,null,null,null,null,null,null
2018-03-23,null,null,null,null,null,null
2018-03-26,null,null,null,null,null,null
2018-03-27,null,null,null,null,null,null
2018-03-28,null,null,null,null,null,null
2018-03-29,null,null,null,null,null,null
2018-04-02,null,null,null,null,null,null
2018-04-03,null,null,null,null,null,null
2018-04-04,null,null,null,null,null,null
2018-04-05,null,null,null,null,null,null
2018-04-06,null,null,null,null,null,null
2018-04-09,null,null,null,null,null,null
2018-04-10,null,null,null,null,null,null
2018-04-11,null,null,null,null,null,null
2018-04-12,null,null,null,null,null,null
2018-04-13,null,null,null,null,null,null
2018-04-16,null,null,null,null,null,null
2018-04-17,null,null,null,null,null,null
2018-04-18,null,null,null,null,null,null
2018-04-19,null,null,null,null,null,null
2018-04-20,null,null,null,null,null,null
2018-04-23,null,null,null,null,null,null
2018-04-24,null,null,null,null,null,null
2018-04-25,null,null,null,null,null,null
2018-04-26,null,null,null,null,null,null
2018-04-27,null,null,null,null,null,null
2018-04-30,null,null,null,null,null,null
2018-05-01,null,null,null,null,null,null
2018-05-02,null,null,null,null,null,null
2018-05-03,null,null,null,null,null,null
2018-05-04,null,null,null,null,null,null
2018-05-07,null,null,null,null,null,null
2018-05-08,null,null,null,null,null,null
2018-05-09,null,null,null,null,null,null
2018-05-10,null,null,null,null,null,null
2018-05-11,null,null,null,null,null,null
2018-05-14,null,null,null,null,null,null
2018-05-15,null,null,null,null,null,null
2018-05-16,null,null,null,null,null,null
2018-05-17,null,null,null,null,null,null
2018-05-18,null,null,null,null,null,null
2018-05-21,null,null,null,null,null,null
2018-05-22,null,null,null,null,null,null
2018-05-23,null,null,null,null,null,null
2018-05-24,null,null,null,null,null,null
2018-05-25,null,null,null,null,null,null
2018-05-29,null,null,null,null,null,null
2018-05-30,null,null,null,null,null,null
2018-05-31,null,null,null,null,null,null
2018-06-01,null,null,null,null,null,null
2018-06-04,null,null,null,null,null,null
2018-06-05,null,null,null,null,null,null
2018-06-06,null,null,null,null,null,null
2018-06-07,null,null,null,null,null,null
2018-06-08,null,null,null,null,null,null
2018-06-11,null,null,null,null,null,null
2018-06-12,null,null,null,null,null,null
2018-06-13,null,null,null,null,null,null
2018-06-14,null,null,null,null,null,null
2018-06-15,null,null,null,null,null,null
2018-06-18,null,null,null,null,null,null
2018-06-19,null,null,null,null,null,null
2018-06-20,null,null,null,null,null,null
2018-06-21,null,null,null,null,null,null
2018-06-22,null,null,null,null,null,null
2018-06-25,null,null,null,null,null,null
2018-06-26,null,null,null,null,null,null
2018-06-27,null,null,null,null,null,null
2018-06-28,null,null,null,null,null,null
2018-06-29,null,null,null,null,null,null
2018-07-02,null,null,null,null,null,null
2018-07-03,null,null,null,null,null,null
2018-07-05,null,null,null,null,null,null
2018-07-06,null,null,null,null,null,null
2018-07-09,null,null,null,null,null,null
2018-07-10,null,null,null,null,null,null
2018-07-11,null,null,null,null,null,null
2018-07-12,null,null,null,null,null,null
2018-07-13,null,null,null,null,null,null
2018-07-16,null,null,null,null,null,null
2018-07-17,null,null,null,null,null,null
2018-07-18,null,null,null,null,null,null
2018-07-19,null,null,null,null,null,null
2018-07-20,null,null,null,null,null,null
2018-07-23,null,null,null,null,null,null
2018-07-24,null,null,null,null,null,null
2018-07-25,null,null,null,null,null,null
2018-07-26,null,null,null,null,null,null
2018-07-27,null,null,null,null,null,null
2018-07-30,null,null,null,null,null,null
2018-07-31,null,null,null,null,null,null
2018-08-01,null,null,null,null,null,null
2018-08-02,null,null,null,null,null,null
2018-08-03,null,null,null,null,null,null
2018-08-06,null,null,null,null,null,null
2018-08-07,null,null,null,null,null,null
2018-08-08,null,null,null,null,null,null
2018-08-09,null,null,null,null,null,null
2018-08-10,null,null,null,null,null,null
2018-08-13,null,null,null,null,null,null
2018-08-14,null,null,null,null,null,null
2018-08-15,null,null,null,null,null,null
2018-08-16,null,null,null,null,null,null
2018-08-17,null,null,null,null,null,null
2018-08-20,null,null,null,null,null,null
2018-08-21,null,null,null,null,null,null
2018-08-22,null,null,null,null,null,null
2018-08-23,null,null,null,null,null,null
2018-08-24,null,null,null,null,null,null
2018-08-27,null,null,null,null,null,null
2018-08-28,null,null,null,null,null,null
2018-08-29,null,null,null,null,null,null
2018-08-30,null,null,null,null,null,null
2018-08-31,null,null,null,null,null,null
2018-09-04,null,null,null,null,null,null
2018-09-05,null,null,null,null,null,null
2018-09-06,null,null,null,null,null,null
2018-09-07,null,null,null,null,null,null
2018-09-10,null,null,null,null,null,null
2018-09-11,null,null,null,null,null,null
2018-09-12,null,null,null,null,null,null
2018-09-13,null,null,null,null,null,null
2018-09-14,null,null,null,null,null,null
2018-09-17,null,null,null,null,null,null
2018-09-18,null,null,null,null,null,null
2018-09-19,null,null,null,null,null,null
2018-09-20,null,null,null,null,null,null
2018-09-21,null,null,null,null,null,null
2018-09-24,null,null,null,null,null,null
2018-09-25,null,null,null,null,null,null
2018-09-26,null,null,null,null,null,null
2018-09-27,null,null,null,null,null,null
2018-09-28,null,null,null,null,null,null
2018-10-01,null,null,null,null,null,null
2018-10-02,null,null,null,null,null,null
2018-10-03,null,null,null,null,null,null
2018-10-04,null,null,null,null,null,null
2018-10-05,null,null,null,null,null,null
2018-10-08,null,null,null,null,null,null
2018-10-09,null,null,null,null,null,null
2018-10-10,null,null,null,null,null,null
2018-10-11,null,null,null,null,null,null
2018-10-12,null,null,null,null,null,null
2018-10-15,null,null,null,null,null,null
2018-10-16,null,null,null,null,null,null
2018-10-17,null,null,null,null,null,null
2018-10-18,null,null,null,null,null,null
2018-10-19,null,null,null,null,null,null
2018-10-22,null,null,null,null,null,null
2018-10-23,null,null,null,null,null,null
2018-10-24,null,null,null,null,null,null
2018-10-25,null,null,null,null,null,null
2018-10-26,null,null,null,null,null,null
2018-10-29,null,null,null,null,null,null
2018-10-30,null,null,null,null,null,null
2018-10-31,null,null,null,null,null,null
2018-11-01,null,null,null,null,null,null
2018-11-02,null,null,null,null,null,null
2018-11-05,null,null,null,null,null,null
2018-11-06,null,null,null,null,null,null
2018-11-07,null,null,null,null,null,null
2018-11-08,null,null,null,null,null,null
2018-11-09,null,null,null,null,null,null
2018-11-12,null,null,null,null,null,null
2018-11-13,null,null,null,null,null,null
2018-11-14,null,null,null,null,null,null
2018-11-15,null,null,null,null,null,null
2018-11-16,null,null,null,null,null,null
2018-11-19,null,null,null,null,null,null
2018-11-20,null,null,null,null,null,null
2018-11-21,null,null,null,null,null,null
2018-11-23,null,null,null,null,null,null
2018-11-26,null,null,null,null,null,null
2018-11-27,null,null,null,null,null,null
2018-11-28,null,null,null,null,null,null
2018-11-29,null,null,null,null,null,null
2018-11-30,null,null,null,null,null,null
2018-12-03,null,null,null,null,null,null
2018-12-04,null,null,null,null,null,null
2018-12-06,null,null,null,null,null,null
2018-12-07,null,null,null,null,null,null
2018-12-10,null,null,null,null,null,null
2018-12-11,null,null,null,null,null,null
2018-12-12,null,null,null,null,null,null
2018-12-13,null,null,null,null,null,null
2018-12-14,null,null,null,null,null,null
2018-12-17,null,null,null,null,null,null
2018-12-18,null,null,null,null,null,null
2018-12-19,null,null,null,null,null,null
2018-12-20,null,null,null,null,null,null
2018-12-21,null,null,null,null,null,null
2018-12-24,null,null,null,null,null,null
2018-12-26,null,null,null,null,null,null
2018-12-27,null,null,null,null,null,null
2018-12-28,null,null,null,null,null,null
2018-12-31,null,null,null,null,null,null
2019-01-02,null,null,null,null,null,null
2019-01-03,null,null,null,null,null,null
2019-01-04,null,null,null,null,null,null
2019-01-07,null,null,null,null,null,null
2019-01-08,null,null,null,null,null,null
2019-01-09,null,null,null,null,null,null
2019-01-10,null,null,null,null,null,null
2019-01-11,null,null,null,null,null,null
2019-01-14,null,null,null,null,null,null
2019-01-15,null,null,null,null,null,null
2019-01-16,null,null,null,null,null,null
2019-01-17,null,null,null,null,null,null
2019-01-18,null,null,null,null,null,null
2019-01-22,null,null,null,null,null,null
2019-01-23,null,null,null,null,null,null
2019-01-24,null,null,null,null,null,null
2019-01-25,null,null,null,null,null,null
2019-01-28,null,null,null,null,null,null
2019-01-29,null,null,null,null,null,null
2019-01-30,null,null,null,null,null,null
2019-01-31,null,null,null,null,null,null
2019-02-01,null,null,null,null,null,null
2019-02-04,null,null,null,null,null,null
2019-02-05,null,null,null,null,null,null
2019-02-06,null,null,null,null,null,null
2019-02-07,null,null,null,null,null,null
2019-02-08,null,null,null,null,null,null
2019-02-11,null,null,null,null,null,null
2019-02-12,null,null,null,null,null,null
2019-02-13,null,null,null,null,null,null
2019-02-14,null,null,null,null,null,null
2019-02-15,null,null,null,null,null,null
2019-02-19,null,null,null,null,null,null
2019-02-20,null,null,null,null,null,null
2019-02-21,null,null,null,null,null,null
2019-02-22,null,null,null,null,null,null
2019-02-25,null,null,null,null,null,null
2019-02-26,null,null,null,null,null,null
2019-02-27,null,null,null,null,null,null
2019-02-28,null,null,null,null,null,null
2019-03-01,null,null,null,null,null,null
2019-03-04,null,null,null,null,null,null
2019-03-05,null,null,null,null,null,null
2019-03-06,null,null,null,null,null,null
2019-03-07,null,null,null,null,null,null
2019-03-08,null,null,null,null,null,null
2019-03-11,null,null,null,null,null,null
2019-03-12,null,null,null,null,null,null
2019-03-13,null,null,null,null,null,null
2019-03-14,null,null,null,null,null,null
2019-03-15,null,null,null,null,null,null
2019-03-18,null,null,null,null,null,null
2019-03-19,null,null,null,null,null,null
2019-03-20,null,null,null,null,null,null
2019-03-21,null,null,null,null,null,null
2019-03-22,null,null,null,null,null,null
2019-03-25,null,null,null,null,null,null
2019-03-26,null,null,null,null,null,null
2019-03-27,null,null,null,null,null,null
2019-03-28,null,null,null,null,null,null
2019-03-29,null,null,null,null,null,null
2019-04-01,null,null,null,null,null,null
2019-04-02,null,null,null,null,null,null
2019-04-03,null,null,null,null,null,null
2019-04-04,null,null,null,null,null,null
2019-04-05,null,null,null,null,null,null
2019-04-08,null,null,null,null,null,null
2019-04-09,null,null,null,null,null,null
2019-04-10,null,null,null,null,null,null
2019-04-11,null,null,null,null,null,null
2019-04-12,null,null,null,null,null,null
2019-04-15,null,null,null,null,null,null
2019-04-16,null,null,null,null,null,null
2019-04-17,null,null,null,null,null,null
2019-04-18,null,null,null,null,null,null
2019-04-22,null,null,null,null,null,null
2019-04-23,null,null,null,null,null,null
2019-04-24,null,null,null,null,null,null
2019-04-25,null,null,null,null,null,null
2019-04-26,null,null,null,null,null,null
2019-04-29,null,null,null,null,null,null
2019-04-30,null,null,null,null,null,null
2019-05-01,null,null,null,null,null,null
2019-05-02,null,null,null,null,null,null
2019-05-03,null,null,null,null,null,null
2019-05-06,null,null,null,null,null,null
2019-05-07,null,null,null,null,null,null
2019-05-08,null,null,null,null,null,null
2019-05-09,null,null,null,null,null,null
2019-05-10,null,null,null,null,null,null
2019-05-13,null,null,null,null,null,null
2019-05-14,null,null,null,null,null,null
2019-05-15,null,null,null,null,null,null
2019-05-16,null,null,null,null,null,null
2019-05-17,null,null,null,null,null,null
2019-05-20,null,null,null,null,null,null
2019-05-21,null,null,null,null,null,null
2019-05-22,null,null,null,null,null,null
2019-05-23,null,null,null,null,null,null
2019-05-24,null,null,null,null,null,null
2019-05-28,null,null,null,null,null,null
2019-05-29,null,null,null,null,null,null
2019-05-30,null,null,null,null,null,null
2019-05-31,null,null,null,null,null,null
2019-06-03,null,null,null,null,null,null
2019-06-04,null,null,null,null,null,null
2019-06-05,null,null,null,null,null,null
2019-06-06,12.100000,12.670000,9.620000,10.480000,10.480000,13675800
2019-06-07,10.070000,10.700000,8.530000,10.000000,10.000000,3697100
2019-06-10,9.690000,9.800000,9.320000,9.550000,9.550000,903600
2019-06-11,9.570000,9.710000,9.430000,9.520000,9.520000,401100
2019-06-12,9.520000,9.700000,9.425000,9.570000,9.570000,233100
2019-06-13,9.420000,9.750000,9.420000,9.560000,9.560000,227100
2019-06-14,9.550000,9.660000,9.300000,9.500000,9.500000,1167000
2019-06-17,9.600000,9.620000,9.400000,9.450000,9.450000,163600
2019-06-18,9.460000,9.648000,9.200000,9.410000,9.410000,723900
2019-06-19,9.420000,9.420000,9.261000,9.350000,9.350000,93900
2019-06-20,9.400000,9.420000,9.220000,9.370000,9.370000,424400
2019-06-21,9.500000,9.640000,9.291000,9.600000,9.600000,499400
2019-06-24,9.520000,9.600000,9.330000,9.360000,9.360000,90600
2019-06-25,9.270000,9.750000,9.270000,9.400000,9.400000,325400
2019-06-26,9.350000,9.700000,9.340000,9.420000,9.420000,533600
2019-06-27,9.310000,10.040000,9.310000,10.010000,10.010000,576300
2019-06-28,10.000000,10.830000,9.810000,10.790000,10.790000,1569000
2019-07-01,11.190000,11.230000,9.850000,9.920000,9.920000,1591600
2019-07-02,9.900000,10.490000,9.900000,10.150000,10.150000,555100
2019-07-03,10.150000,10.550000,10.010000,10.500000,10.500000,420600
2019-07-05,10.350000,10.930000,10.020000,10.600000,10.600000,1051800
2019-07-08,10.550000,10.600000,9.500000,9.570000,9.570000,1200100
2019-07-09,9.520000,9.890000,9.410000,9.510000,9.510000,746200
2019-07-10,9.550000,9.720000,8.860000,9.070000,9.070000,1774900
2019-07-11,9.150000,9.480000,8.830000,9.070000,9.070000,860300
2019-07-12,9.090000,9.400000,9.060000,9.120000,9.120000,331300
2019-07-15,9.070000,9.730000,9.070000,9.580000,9.580000,357900
2019-07-16,9.720000,10.400000,9.580000,10.120000,10.120000,1588900
2019-07-17,10.080000,10.780000,10.080000,10.400000,10.400000,843800
2019-07-18,10.470000,10.610000,10.010000,10.060000,10.060000,613800
2019-07-19,10.140000,10.420000,10.140000,10.340000,10.340000,59100
2019-07-22,10.250000,10.850000,10.250000,10.820000,10.820000,179000
2019-07-23,10.820000,11.480000,10.650000,11.270000,11.270000,241100
2019-07-24,11.170000,11.990000,11.060000,11.880000,11.880000,450000
2019-07-25,12.000000,13.500000,11.950000,12.740000,12.740000,1863400
2019-07-26,13.000000,13.990000,12.900000,13.000000,13.000000,1420700
2019-07-29,13.140000,13.590000,12.530000,13.300000,13.300000,798500
2019-07-30,13.380000,13.840000,12.978000,13.180000,13.180000,1105500
2019-07-31,13.240000,13.750000,12.870000,12.950000,12.950000,953900
2019-08-01,12.940000,13.490000,12.800000,12.900000,12.900000,960200
2019-08-02,12.940000,13.270000,12.420000,12.790000,12.790000,605700
2019-08-05,12.650000,13.000000,12.080000,12.540000,12.540000,1636900
2019-08-06,12.430000,12.900000,12.380000,12.600000,12.600000,884100
2019-08-07,12.550000,13.500000,12.370000,13.150000,13.150000,436000
2019-08-08,13.190000,13.660000,13.190000,13.280000,13.280000,817100
2019-08-09,13.160000,13.390000,13.100000,13.360000,13.360000,343900
2019-08-12,13.430000,15.370000,13.430000,14.670000,14.670000,1733200
2019-08-13,14.740000,14.980000,13.670000,14.240000,14.240000,1344100
2019-08-14,13.900000,14.390000,13.350000,13.400000,13.400000,655100
2019-08-15,13.400000,13.910000,13.300000,13.390000,13.390000,1295500
2019-08-16,13.530000,14.000000,13.250000,13.450000,13.450000,1005600
2019-08-19,13.550000,14.750000,13.550000,13.940000,13.940000,1993400
2019-08-20,14.070000,15.000000,14.060000,14.650000,14.650000,2368300
2019-08-21,15.000000,17.150000,15.000000,16.000000,16.000000,3562100
2019-08-22,17.430000,17.540001,14.500000,14.610000,14.610000,3390900
2019-08-23,13.750000,14.590000,13.340000,13.570000,13.570000,3121000
2019-08-26,13.780000,14.040000,12.400000,12.800000,12.800000,1112000
2019-08-27,13.000000,13.350000,12.510000,12.780000,12.780000,678300
2019-08-28,12.760000,13.870000,12.655000,13.730000,13.730000,825700
2019-08-29,13.900000,14.200000,13.500000,13.640000,13.640000,1204900
2019-08-30,13.800000,14.400000,13.200000,14.320000,14.320000,3780300
2019-09-03,14.000000,14.100000,13.560000,13.750000,13.750000,1321100
2019-09-04,13.750000,13.840000,13.010000,13.090000,13.090000,697100
2019-09-05,13.070000,13.110000,12.510000,12.820000,12.820000,681100
2019-09-06,12.930000,13.140000,11.720000,12.300000,12.300000,949500
2019-09-09,12.400000,12.900000,12.200000,12.460000,12.460000,599500
2019-09-10,12.280000,12.970000,12.050000,12.830000,12.830000,818300
2019-09-11,12.790000,12.970000,12.735000,12.930000,12.930000,1353800
2019-09-12,12.880000,12.990000,12.680000,12.950000,12.950000,1006500
2019-09-13,12.980000,13.470000,12.920000,13.440000,13.440000,419800
2019-09-16,13.270000,13.650000,13.070000,13.600000,13.600000,431500
2019-09-17,13.480000,13.756000,13.360000,13.700000,13.700000,309400
2019-09-18,13.490000,14.330000,13.490000,14.150000,14.150000,401200
2019-09-19,14.150000,14.440000,13.510000,14.290000,14.290000,399400
2019-09-20,14.170000,14.650000,14.048000,14.590000,14.590000,432100
2019-09-23,14.470000,14.650000,14.210000,14.590000,14.590000,318800
2019-09-24,14.470000,14.780000,14.010000,14.070000,14.070000,641300
2019-09-25,13.960000,14.860000,13.780000,14.860000,14.860000,473700
2019-09-26,14.780000,15.200000,14.220000,14.750000,14.750000,400700
2019-09-27,14.640000,15.360000,14.350000,15.020000,15.020000,2156600
2019-09-30,15.010000,15.310000,14.600000,15.310000,15.310000,1277000
2019-10-01,15.350000,15.350000,14.710000,15.150000,15.150000,1101800
2019-10-02,15.030000,15.030000,13.850000,14.080000,14.080000,725000
2019-10-03,13.980000,14.380000,13.700000,14.110000,14.110000,676400
2019-10-04,14.170000,14.700000,13.780000,14.700000,14.700000,522100
2019-10-07,14.510000,14.560000,14.110000,14.330000,14.330000,550500
2019-10-08,14.210000,14.210000,13.300000,13.880000,13.880000,1395400
2019-10-09,14.070000,14.630000,13.710000,14.490000,14.490000,273100
2019-10-10,14.490000,14.560000,13.820000,14.200000,14.200000,706900
2019-10-11,14.830000,15.750000,13.850000,14.310000,14.310000,740500
2019-10-14,14.190000,14.410000,14.020000,14.310000,14.310000,393300
2019-10-15,14.440000,14.440000,13.990000,14.010000,14.010000,392200
2019-10-16,13.890000,14.110000,13.620000,14.100000,14.100000,369300
2019-10-17,14.000000,14.636000,13.930000,14.610000,14.610000,438600
2019-10-18,14.610000,14.840000,14.020000,14.250000,14.250000,463500
2019-10-21,14.160000,14.600000,13.860000,13.990000,13.990000,432600
2019-10-22,14.090000,14.390000,14.050000,14.250000,14.250000,587600
2019-10-23,14.430000,14.520000,13.830000,14.330000,14.330000,324400
2019-10-24,14.220000,15.000000,14.030000,15.000000,15.000000,395900
2019-10-25,14.980000,15.600000,14.790000,15.410000,15.410000,564100
2019-10-28,15.670000,16.170000,14.820000,15.100000,15.100000,560600
2019-10-29,14.960000,15.490000,14.600000,15.390000,15.390000,771300
2019-10-30,15.390000,17.000000,15.211000,16.990000,16.990000,1241200
2019-10-31,16.709999,17.280001,16.520000,17.139999,17.139999,1403400
2019-11-01,17.070000,17.125000,16.100000,16.290001,16.290001,1109000
2019-11-04,16.190001,16.700001,16.150000,16.219999,16.219999,972500
2019-11-05,16.670000,16.969999,14.690000,16.020000,16.020000,2114400
2019-11-06,16.000000,16.170000,14.811000,15.250000,15.250000,863700
2019-11-07,15.010000,15.240000,14.610000,14.940000,14.940000,559500
2019-11-08,15.190000,15.370000,14.710000,15.310000,15.310000,427500
2019-11-11,15.160000,15.300000,14.440000,15.040000,15.040000,624200
2019-11-12,14.910000,15.500000,14.910000,15.090000,15.090000,689800
2019-11-13,15.000000,15.290000,14.965000,15.120000,15.120000,455700
2019-11-14,15.230000,15.230000,14.510000,14.580000,14.580000,578900
2019-11-15,14.700000,15.000000,14.640000,14.910000,14.910000,702900
2019-11-18,14.930000,16.889999,14.930000,16.750000,16.750000,1815100
2019-11-19,16.100000,16.850000,15.200000,15.500000,15.500000,1465900
2019-11-20,15.300000,15.680000,14.210000,14.570000,14.570000,1436400
2019-11-21,14.800000,16.670000,14.800000,16.200001,16.200001,12756900
2019-11-22,15.850000,19.290001,15.850000,18.570000,18.570000,3732700
2019-11-25,18.309999,19.299999,18.000000,18.950001,18.950001,1722900
2019-11-26,18.930000,19.010000,17.879999,18.330000,18.330000,1148900
2019-11-27,18.469999,18.549999,17.250000,17.580000,17.580000,2985400
2019-11-29,17.389999,18.250000,17.150000,17.590000,17.590000,778300
2019-12-02,17.740000,18.860001,17.580000,18.170000,18.170000,1574100
2019-12-03,18.040001,18.799999,17.822001,18.170000,18.170000,1765700
2019-12-04,18.309999,18.639999,17.745001,18.570000,18.570000,1265900
2019-12-05,18.719999,19.830000,18.680000,19.040001,19.040001,3915600
2019-12-06,19.040001,19.799999,19.040001,19.629999,19.629999,1625700
2019-12-09,19.950001,20.590000,19.530001,19.690001,19.690001,1998500
2019-12-10,19.690001,19.990000,19.350000,19.920000,19.920000,1254300
2019-12-11,20.000000,20.430000,19.920000,20.010000,20.010000,1407700
2019-12-12,20.010000,20.040001,19.410000,19.799999,19.799999,2524100
2019-12-13,19.750000,20.590000,19.549999,20.490000,20.490000,2675700
2019-12-16,20.600000,20.840000,20.270000,20.400000,20.400000,1302700
2019-12-17,20.400000,20.709999,19.910000,20.650000,20.650000,841800
2019-12-18,20.770000,21.280001,20.580000,20.690001,20.690001,1116000
2019-12-19,20.790001,21.129999,20.250000,20.530001,20.530001,1092800
2019-12-20,20.559999,21.200001,20.559999,20.930000,20.930000,2978000
2019-12-23,20.799999,21.639999,20.760000,21.559999,21.559999,1543300
2019-12-24,21.629999,22.360001,21.629999,21.980000,21.980000,459100
2019-12-26,22.150000,22.400000,21.350000,22.030001,22.030001,767400
2019-12-27,22.049999,22.080000,21.420000,21.910000,21.910000,1329400
2019-12-30,21.889999,21.889999,21.020000,21.379999,21.379999,695600
2019-12-31,21.450001,22.110001,21.230000,21.860001,21.860001,1741800
2020-01-02,22.700001,24.100000,22.700001,23.740000,23.740000,2094300
2020-01-03,23.379999,23.980000,23.330000,23.430000,23.430000,924700
2020-01-06,23.299999,24.090000,22.879999,23.750000,23.750000,1144100
2020-01-07,24.000000,25.660000,23.799999,24.750000,24.750000,2160200
2020-01-08,25.049999,25.200001,24.180000,24.459999,24.459999,1554800
2020-01-09,24.620001,25.680000,24.620001,25.260000,25.260000,1801400
2020-01-10,25.480000,27.100000,25.480000,26.840000,26.840000,1780200
2020-01-13,27.190001,28.059999,26.770000,27.650000,27.650000,1925500
2020-01-14,28.080000,28.870001,27.299999,28.660000,28.660000,2913000
2020-01-15,29.000000,30.379999,28.900000,29.420000,29.420000,3824300
2020-01-16,29.860001,31.959999,29.820000,30.400000,30.400000,5574800
2020-01-17,30.389999,32.970001,30.309999,32.910000,32.910000,3165700
2020-01-21,32.680000,34.849998,31.150000,34.610001,34.610001,3830200
2020-01-22,35.119999,36.290001,34.080002,35.250000,35.250000,3643100
2020-01-23,34.169998,34.599998,32.259998,32.730000,32.730000,3060800
2020-01-24,33.180000,33.369999,30.910000,31.219999,31.219999,2565700
2020-01-27,29.480000,34.900002,28.950001,34.279999,34.279999,3382000
2020-01-28,34.889999,36.446999,34.180000,35.119999,35.119999,2681700
2020-01-29,35.450001,37.470001,34.950001,37.230000,37.230000,2691600
2020-01-30,36.880001,37.000000,31.309999,32.349998,32.349998,4154200
2020-01-31,33.410000,33.808998,31.299999,32.689999,32.689999,2454900
2020-02-03,33.020000,35.119999,32.619999,35.049999,35.049999,3412200
2020-02-04,37.130001,39.880001,37.029999,38.549999,38.549999,6456900
2020-02-05,40.029999,40.380001,35.610001,37.360001,37.360001,2436900
2020-02-06,38.080002,39.240002,36.060001,39.240002,39.240002,1977000
2020-02-07,39.980000,40.259998,38.009998,39.919998,39.919998,2346900
2020-02-10,39.900002,42.070000,39.509998,41.740002,41.740002,2527800
2020-02-11,41.029999,41.029999,37.049999,37.230000,37.230000,3888200
2020-02-12,36.810001,37.099998,34.500000,36.209999,36.209999,4720600
2020-02-13,34.770000,37.490002,34.709999,36.959999,36.959999,2483000
