Date,Open,High,Low,Close,Adj Close,Volume
2018-01-25,19.049999,19.410000,18.250000,18.500000,18.500000,19855800
2018-01-26,18.500000,18.959999,18.450001,18.900000,18.900000,2516200
2018-01-29,18.940001,19.290001,18.799999,19.100000,19.100000,992500
2018-01-30,19.000000,19.280001,18.990000,19.190001,19.190001,3206200
2018-01-31,19.280001,19.740000,19.190001,19.600000,19.600000,4410300
2018-02-01,19.600000,20.000000,19.500000,19.719999,19.719999,1507100
2018-02-02,19.629999,19.690001,18.990000,18.990000,18.990000,740300
2018-02-05,18.780001,18.920000,17.870001,18.350000,18.350000,768900
2018-02-06,18.170000,18.490000,18.070999,18.340000,18.340000,453000
2018-02-07,18.360001,18.780001,18.020000,18.440001,18.440001,302500
2018-02-08,18.540001,18.980000,18.139999,18.139999,18.139999,1045600
2018-02-09,18.150000,18.190001,17.549999,17.940001,17.940001,607900
2018-02-12,18.000000,18.120001,17.940001,18.000000,18.000000,423900
2018-02-13,17.840000,18.434000,17.760000,18.379999,18.379999,201000
2018-02-14,18.420000,18.889999,18.280001,18.610001,18.610001,325600
2018-02-15,18.530001,18.600000,17.860001,18.379999,18.379999,522300
2018-02-16,18.500000,18.590000,18.100000,18.290001,18.290001,570300
2018-02-20,18.110001,18.490000,18.000000,18.080000,18.080000,739400
2018-02-21,18.090000,18.260000,17.660000,17.750000,17.750000,633900
2018-02-22,17.790001,17.940001,17.500000,17.639999,17.639999,524700
2018-02-23,17.730000,17.740000,16.601000,17.059999,17.059999,1156000
2018-02-26,17.120001,17.230000,16.889999,16.940001,16.940001,474100
2018-02-27,16.959999,17.545000,16.900000,17.440001,17.440001,564000
2018-02-28,17.420000,17.440001,17.160000,17.360001,17.360001,370600
2018-03-01,17.209999,17.459999,17.030001,17.170000,17.170000,571600
2018-03-02,17.040001,17.254999,16.950001,17.090000,17.090000,495000
2018-03-05,17.080000,17.790001,17.020000,17.690001,17.690001,845400
2018-03-06,17.830000,18.049999,17.480000,17.870001,17.870001,448600
2018-03-07,17.750000,18.010000,17.625000,17.750000,17.750000,398600
2018-03-08,17.879999,17.879999,17.570000,17.700001,17.700001,269600
2018-03-09,17.700001,17.870001,17.510000,17.719999,17.719999,248700
2018-03-12,17.700001,18.305000,17.700001,18.120001,18.120001,505100
2018-03-13,18.290001,18.330000,17.059999,17.950001,17.950001,1475500
2018-03-14,18.719999,18.719999,17.760000,18.010000,18.010000,2203700
2018-03-15,17.870001,18.100000,17.700001,18.080000,18.080000,686200
2018-03-16,18.379999,18.500000,17.959999,18.219999,18.219999,3766100
2018-03-19,18.260000,18.440001,17.889999,18.340000,18.340000,551300
2018-03-20,18.420000,18.520000,18.230000,18.330000,18.330000,395500
2018-03-21,18.280001,18.549999,17.959999,17.959999,17.959999,304600
2018-03-22,17.860001,18.020000,17.540001,17.570000,17.570000,411200
2018-03-23,17.549999,17.610001,16.850000,17.030001,17.030001,1174400
2018-03-26,17.270000,17.590000,17.129000,17.500000,17.500000,854300
2018-03-27,17.530001,17.530001,16.959999,17.000000,17.000000,687900
2018-03-28,17.020000,17.129999,16.910000,17.020000,17.020000,213100
2018-03-29,17.100000,17.620001,17.049999,17.510000,17.510000,399000
2018-04-02,17.490000,17.580000,16.600000,16.840000,16.840000,488000
2018-04-03,16.950001,17.120001,16.740000,17.090000,17.090000,335400
2018-04-04,16.959999,17.090000,16.650000,17.070000,17.070000,410000
2018-04-05,17.120001,17.440001,16.969999,17.260000,17.260000,475100
2018-04-06,17.100000,17.260000,16.660000,16.980000,16.980000,315800
2018-04-09,17.040001,17.270000,16.379999,16.540001,16.540001,336700
2018-04-10,16.680000,16.809999,16.344999,16.469999,16.469999,358700
2018-04-11,16.389999,16.570000,16.080000,16.110001,16.110001,272900
2018-04-12,16.180000,16.360001,16.150000,16.299999,16.299999,413200
2018-04-13,16.240000,16.280001,15.690000,15.760000,15.760000,464600
2018-04-16,15.860000,16.010000,15.740000,15.860000,15.860000,438900
2018-04-17,15.910000,16.059999,15.810000,15.960000,15.960000,523000
2018-04-18,15.980000,16.570000,15.850000,16.280001,16.280001,373000
2018-04-19,16.260000,16.440001,16.020000,16.250000,16.250000,114600
2018-04-20,16.139999,16.410000,16.020000,16.100000,16.100000,253100
2018-04-23,16.100000,16.190001,15.890000,16.180000,16.180000,142500
2018-04-24,16.280001,16.400000,15.610000,15.760000,15.760000,505500
2018-04-25,15.630000,16.025000,15.630000,15.890000,15.890000,188000
2018-04-26,15.880000,16.100000,15.760000,15.940000,15.940000,230100
2018-04-27,16.000000,16.260000,15.800000,15.910000,15.910000,298500
2018-04-30,15.990000,16.010000,15.630000,15.660000,15.660000,235500
2018-05-01,15.570000,15.640000,15.230000,15.500000,15.500000,283000
2018-05-02,15.440000,15.560000,15.290000,15.380000,15.380000,512500
2018-05-03,15.900000,16.150000,14.770000,14.970000,14.970000,494600
2018-05-04,14.980000,15.300000,14.790000,15.020000,15.020000,322400
2018-05-07,15.040000,15.200000,14.900000,14.960000,14.960000,456800
2018-05-08,14.950000,15.190000,14.880000,15.130000,15.130000,448400
2018-05-09,15.340000,15.560000,15.020000,15.500000,15.500000,616700
2018-05-10,15.610000,15.980000,15.535000,15.900000,15.900000,331900
2018-05-11,15.950000,16.025000,15.680000,15.770000,15.770000,121300
2018-05-14,15.850000,15.920000,15.550000,15.570000,15.570000,185700
2018-05-15,15.540000,15.610000,15.000000,15.180000,15.180000,2056400
2018-05-16,15.070000,15.320000,14.990000,15.240000,15.240000,375600
2018-05-17,15.180000,15.420000,15.085000,15.230000,15.230000,516300
2018-05-18,15.240000,15.570000,15.180000,15.510000,15.510000,204000
2018-05-21,15.510000,16.090000,15.370000,15.910000,15.910000,514500
2018-05-22,16.049999,16.100000,15.820000,15.920000,15.920000,275400
2018-05-23,15.760000,16.000000,15.760000,15.790000,15.790000,321000
2018-05-24,15.690000,15.810000,15.300000,15.410000,15.410000,310300
2018-05-25,15.290000,15.470000,15.260000,15.320000,15.320000,223700
2018-05-29,15.170000,15.410000,15.110000,15.330000,15.330000,229900
2018-05-30,15.470000,15.630000,15.270000,15.410000,15.410000,458900
2018-05-31,15.420000,15.440000,14.600000,14.860000,14.860000,764900
2018-06-01,14.820000,15.110000,14.760000,14.820000,14.820000,376100
2018-06-04,14.760000,14.930000,14.700000,14.820000,14.820000,316800
2018-06-05,14.820000,15.290000,14.760000,15.200000,15.200000,401600
2018-06-06,15.150000,15.530000,15.082000,15.470000,15.470000,479100
2018-06-07,15.480000,15.920000,15.480000,15.600000,15.600000,423700
2018-06-08,15.540000,15.800000,15.530000,15.720000,15.720000,564000
2018-06-11,15.920000,16.070000,15.750000,15.870000,15.870000,295800
2018-06-12,15.860000,16.020000,15.730000,15.970000,15.970000,454600
2018-06-13,16.070000,16.110001,15.590000,15.650000,15.650000,309800
2018-06-14,15.660000,15.990000,15.600000,15.880000,15.880000,366400
2018-06-15,15.880000,15.940000,15.540000,15.840000,15.840000,632700
2018-06-18,15.690000,15.970000,15.565000,15.940000,15.940000,387500
2018-06-19,15.780000,15.830000,15.400000,15.450000,15.450000,743600
2018-06-20,15.470000,15.790000,15.470000,15.680000,15.680000,296900
2018-06-21,15.590000,15.855000,15.400000,15.760000,15.760000,679900
2018-06-22,15.830000,15.985000,15.735000,15.910000,15.910000,690400
2018-06-25,15.800000,15.900000,15.605000,15.800000,15.800000,743100
2018-06-26,15.840000,16.309999,15.730000,16.270000,16.270000,1056300
2018-06-27,16.330000,16.690001,16.150000,16.360001,16.360001,552900
2018-06-28,16.400000,16.480000,15.810000,16.360001,16.360001,503600
2018-06-29,16.400000,16.530001,16.070000,16.270000,16.270000,644100
2018-07-02,16.160000,16.219999,15.890000,16.080000,16.080000,441300
2018-07-03,16.080000,16.320000,15.910000,16.020000,16.020000,513200
2018-07-05,16.160000,16.280001,15.950000,16.139999,16.139999,458100
2018-07-06,16.090000,16.250000,15.870000,16.000000,16.000000,343400
2018-07-09,16.129999,16.270000,15.940000,16.139999,16.139999,384000
2018-07-10,16.100000,16.219999,15.840000,16.020000,16.020000,649500
2018-07-11,15.800000,16.000000,15.730000,15.880000,15.880000,424800
2018-07-12,15.930000,16.000000,15.790000,15.850000,15.850000,493200
2018-07-13,15.820000,15.960000,15.730000,15.780000,15.780000,345400
2018-07-16,15.840000,15.840000,15.250000,15.370000,15.370000,299200
2018-07-17,15.260000,15.410000,15.200000,15.270000,15.270000,215000
2018-07-18,15.250000,15.490000,15.110000,15.390000,15.390000,418400
2018-07-19,15.400000,15.580000,15.330000,15.500000,15.500000,297000
2018-07-20,15.390000,15.540000,15.320000,15.440000,15.440000,222800
2018-07-23,15.440000,15.475000,14.950000,14.990000,14.990000,364000
2018-07-24,15.150000,15.450000,15.040000,15.310000,15.310000,469300
2018-07-25,15.400000,15.523000,15.320000,15.450000,15.450000,331200
2018-07-26,15.400000,15.710000,15.340000,15.350000,15.350000,315200
2018-07-27,15.350000,15.420000,15.180000,15.200000,15.200000,288100
2018-07-30,15.240000,15.600000,15.240000,15.390000,15.390000,575900
2018-07-31,15.360000,15.615000,15.340000,15.570000,15.570000,575400
2018-08-01,15.480000,15.590000,15.080000,15.230000,15.230000,927600
2018-08-02,16.000000,18.219999,15.950000,17.990000,17.990000,2757000
2018-08-03,17.790001,18.049999,17.200001,17.790001,17.790001,924500
2018-08-06,17.930000,18.360001,17.690001,18.000000,18.000000,859700
2018-08-07,18.180000,18.299999,17.879000,17.959999,17.959999,358600
2018-08-08,17.959999,17.959999,17.590000,17.620001,17.620001,231200
2018-08-09,17.570000,18.010000,17.555000,17.980000,17.980000,355500
2018-08-10,17.830000,17.910000,17.400000,17.700001,17.700001,172300
2018-08-13,17.820000,17.850000,17.450001,17.490000,17.490000,176200
2018-08-14,17.650000,17.750000,17.530001,17.690001,17.690001,102600
2018-08-15,17.600000,17.600000,17.250000,17.270000,17.270000,176900
2018-08-16,17.320000,17.690001,17.299999,17.500000,17.500000,106100
2018-08-17,17.510000,17.770000,17.490000,17.770000,17.770000,111600
2018-08-20,17.820000,18.250000,17.799999,18.020000,18.020000,501500
2018-08-21,18.209999,18.280001,17.940001,18.090000,18.090000,272800
2018-08-22,18.139999,18.139999,17.809999,18.000000,18.000000,104700
2018-08-23,18.080000,18.080000,17.500000,17.700001,17.700001,292100
2018-08-24,17.790001,17.850000,17.580000,17.610001,17.610001,102500
2018-08-27,17.690001,18.150000,17.620001,18.059999,18.059999,192900
2018-08-28,18.070000,18.389999,17.969999,18.090000,18.090000,273400
2018-08-29,18.209999,18.370001,17.959999,18.250000,18.250000,108900
2018-08-30,18.290001,18.309999,18.020000,18.240000,18.240000,133600
2018-08-31,18.139999,18.340000,18.080000,18.230000,18.230000,177000
2018-09-04,18.180000,18.400000,18.030001,18.330000,18.330000,176400
2018-09-05,18.320000,19.040001,18.320000,18.820000,18.820000,491300
2018-09-06,18.870001,18.969999,18.450001,18.480000,18.480000,416200
2018-09-07,18.379999,18.570000,18.250000,18.299999,18.299999,140600
2018-09-10,18.360001,19.430000,18.360001,19.370001,19.370001,487500
2018-09-11,19.299999,19.389999,18.820000,19.190001,19.190001,370600
2018-09-12,19.150000,19.290001,18.950001,19.240000,19.240000,272500
2018-09-13,19.350000,19.469999,19.120001,19.270000,19.270000,323700
2018-09-14,19.180000,19.459999,19.120001,19.180000,19.180000,151200
2018-09-17,19.219999,19.620001,19.219999,19.520000,19.520000,248100
2018-09-18,19.570000,19.620001,19.240000,19.520000,19.520000,242400
2018-09-19,19.450001,19.750000,19.410000,19.559999,19.559999,150000
2018-09-20,19.690001,19.969999,19.540001,19.670000,19.670000,398500
2018-09-21,19.760000,20.280001,19.629999,20.209999,20.209999,800500
2018-09-24,20.219999,20.290001,19.510000,19.559999,19.559999,532600
2018-09-25,19.580000,19.650000,19.290001,19.450001,19.450001,296500
2018-09-26,19.430000,19.440001,19.000000,19.230000,19.230000,211300
2018-09-27,19.230000,19.420000,19.014999,19.110001,19.110001,354200
2018-09-28,19.129999,19.520000,19.080000,19.500000,19.500000,438500
2018-10-01,19.600000,19.792000,19.020000,19.110001,19.110001,352200
2018-10-02,19.129999,19.150000,18.770000,18.940001,18.940001,281900
2018-10-03,19.010000,19.320000,18.860001,19.180000,19.180000,246600
2018-10-04,19.150000,19.190001,18.603001,18.700001,18.700001,262500
2018-10-05,18.780001,18.870001,18.490000,18.650000,18.650000,414600
2018-10-08,18.580000,18.740000,18.330000,18.590000,18.590000,240600
2018-10-09,18.500000,18.650000,17.975000,18.139999,18.139999,556700
2018-10-10,17.959999,17.959999,17.080000,17.100000,17.100000,436800
2018-10-11,17.020000,17.080000,16.290001,16.370001,16.370001,434200
2018-10-12,16.709999,16.770000,16.030001,16.270000,16.270000,416000
2018-10-15,16.160000,16.320000,16.000000,16.040001,16.040001,142600
2018-10-16,16.209999,16.820000,16.090000,16.750000,16.750000,503200
2018-10-17,16.719999,16.780001,16.059999,16.670000,16.670000,919100
2018-10-18,16.490000,16.629999,15.750000,15.760000,15.760000,700600
2018-10-19,15.800000,16.157000,15.440000,15.540000,15.540000,554800
2018-10-22,15.450000,15.610000,15.190000,15.270000,15.270000,342200
2018-10-23,14.900000,15.205000,14.750000,15.020000,15.020000,563700
2018-10-24,14.950000,15.150000,14.350000,14.350000,14.350000,406900
2018-10-25,14.460000,14.700000,14.430000,14.480000,14.480000,228500
2018-10-26,14.300000,14.670000,14.130000,14.450000,14.450000,518900
2018-10-29,14.740000,14.850000,14.080000,14.250000,14.250000,461500
2018-10-30,14.250000,14.560000,14.060000,14.470000,14.470000,588300
2018-10-31,14.730000,15.180000,14.730000,15.050000,15.050000,412200
2018-11-01,15.050000,15.465000,15.010000,15.450000,15.450000,455700
2018-11-02,15.590000,16.469999,14.700000,14.990000,14.990000,855500
2018-11-05,15.020000,15.020000,14.050000,14.350000,14.350000,476200
2018-11-06,14.330000,14.745000,14.180000,14.310000,14.310000,733500
2018-11-07,14.590000,15.590000,14.510000,15.500000,15.500000,645400
2018-11-08,15.510000,15.850000,15.240000,15.320000,15.320000,746800
2018-11-09,15.150000,15.360000,14.660000,14.790000,14.790000,258000
2018-11-12,14.700000,14.730000,14.380000,14.510000,14.510000,460400
2018-11-13,14.630000,15.040000,14.450000,14.910000,14.910000,289200
2018-11-14,15.150000,15.370000,15.000000,15.060000,15.060000,1272900
2018-11-15,14.890000,15.220000,14.860000,15.160000,15.160000,155400
2018-11-16,15.090000,15.310000,14.920000,15.250000,15.250000,209300
2018-11-19,15.130000,15.180000,14.700000,14.800000,14.800000,428300
2018-11-20,14.800000,14.870000,14.010000,14.150000,14.150000,2854500
2018-11-21,14.290000,14.760000,14.290000,14.440000,14.440000,377100
2018-11-23,14.380000,14.560000,14.070000,14.460000,14.460000,72300
2018-11-26,14.640000,14.750000,14.260000,14.540000,14.540000,311500
2018-11-27,14.440000,14.470000,14.140000,14.190000,14.190000,296000
2018-11-28,14.210000,14.610000,14.130000,14.610000,14.610000,616600
2018-11-29,14.640000,14.640000,14.320000,14.380000,14.380000,515700
2018-11-30,14.380000,14.730000,14.270000,14.730000,14.730000,307400
2018-12-03,15.320000,15.320000,14.700000,14.770000,14.770000,479500
2018-12-04,14.720000,14.720000,13.870000,13.920000,13.920000,1493600
2018-12-06,13.610000,14.050000,13.310000,14.020000,14.020000,664200
2018-12-07,14.010000,14.450000,13.730000,13.960000,13.960000,478300
2018-12-10,13.870000,14.220000,13.820000,14.100000,14.100000,281300
2018-12-11,14.400000,14.400000,13.890000,14.000000,14.000000,298900
2018-12-12,14.270000,14.350000,13.970000,14.020000,14.020000,171300
2018-12-13,14.070000,14.170000,13.960000,14.090000,14.090000,903300
2018-12-14,13.940000,14.315000,13.820000,13.970000,13.970000,575400
2018-12-17,13.840000,14.020000,13.235000,13.340000,13.340000,413700
2018-12-18,13.230000,13.675000,13.190000,13.430000,13.430000,663900
2018-12-19,13.410000,13.690000,12.750000,12.910000,12.910000,578600
2018-12-20,12.750000,13.100000,12.750000,12.960000,12.960000,971800
2018-12-21,12.960000,13.010000,12.620000,12.670000,12.670000,877100
2018-12-24,12.550000,12.820000,12.325000,12.580000,12.580000,194900
2018-12-26,12.700000,12.840000,12.195000,12.830000,12.830000,335000
2018-12-27,12.510000,13.300000,12.510000,13.290000,13.290000,350100
2018-12-28,13.330000,13.450000,13.100000,13.180000,13.180000,374700
2018-12-31,13.180000,13.500000,13.060000,13.240000,13.240000,226600
2019-01-02,12.960000,13.490000,12.720000,13.470000,13.470000,231200
2019-01-03,13.370000,13.430000,13.010000,13.050000,13.050000,333300
2019-01-04,13.320000,13.550000,13.160000,13.450000,13.450000,234200
2019-01-07,13.480000,13.881000,13.220000,13.720000,13.720000,198700
2019-01-08,13.980000,14.180000,13.910000,14.120000,14.120000,287600
2019-01-09,14.260000,14.830000,14.090000,14.720000,14.720000,330900
2019-01-10,14.480000,14.750000,14.480000,14.710000,14.710000,217600
2019-01-11,14.530000,14.740000,14.490000,14.660000,14.660000,372900
2019-01-14,14.470000,14.660000,14.340000,14.590000,14.590000,244400
2019-01-15,14.570000,14.644000,14.185000,14.270000,14.270000,221700
2019-01-16,14.280000,14.870000,14.180000,14.780000,14.780000,1421600
2019-01-17,14.760000,15.140000,14.710000,15.080000,15.080000,194800
2019-01-18,15.200000,15.430000,15.090000,15.100000,15.100000,221000
2019-01-22,14.880000,14.900000,14.000000,14.290000,14.290000,579500
2019-01-23,14.410000,14.720000,14.230000,14.390000,14.390000,394700
2019-01-24,14.390000,14.470000,14.090000,14.280000,14.280000,183200
2019-01-25,14.450000,14.820000,14.270000,14.550000,14.550000,523700
2019-01-28,14.380000,14.800000,14.210000,14.640000,14.640000,682800
2019-01-29,14.660000,14.940000,14.540000,14.610000,14.610000,338100
2019-01-30,14.750000,14.790000,14.510000,14.760000,14.760000,194800
2019-01-31,14.730000,15.000000,14.580000,14.910000,14.910000,327200
2019-02-01,14.860000,15.130000,14.800000,15.120000,15.120000,231800
2019-02-04,15.120000,15.220000,14.940000,15.010000,15.010000,288800
2019-02-05,15.020000,15.490000,15.020000,15.360000,15.360000,303000
2019-02-06,15.330000,15.650000,15.330000,15.530000,15.530000,580600
2019-02-07,15.360000,15.360000,14.850000,15.030000,15.030000,182300
2019-02-08,14.940000,15.280000,14.914000,15.100000,15.100000,290900
2019-02-11,15.130000,15.215000,14.910000,15.120000,15.120000,397300
2019-02-12,15.110000,15.420000,15.080000,15.380000,15.380000,624400
2019-02-13,16.340000,17.600000,15.910000,16.129999,16.129999,1354600
2019-02-14,16.110001,16.219999,15.510000,15.530000,15.530000,362900
2019-02-15,15.520000,15.980000,15.440000,15.880000,15.880000,371300
2019-02-19,15.740000,16.299999,15.680000,16.090000,16.090000,542700
2019-02-20,16.020000,16.209999,15.880000,15.930000,15.930000,141400
2019-02-21,15.790000,16.150000,15.790000,16.090000,16.090000,217600
2019-02-22,16.200001,16.549999,16.200001,16.459999,16.459999,708800
2019-02-25,16.559999,16.620001,16.209999,16.219999,16.219999,227500
2019-02-26,16.200001,16.350000,16.020000,16.100000,16.100000,416800
2019-02-27,16.059999,16.309999,15.950000,16.070000,16.070000,444400
2019-02-28,16.080000,16.115000,15.710000,16.100000,16.100000,364900
2019-03-01,16.180000,16.219999,15.910000,16.129999,16.129999,259600
2019-03-04,16.139999,16.360001,15.920000,16.030001,16.030001,265200
2019-03-05,16.070000,16.115000,15.800000,15.960000,15.960000,185100
2019-03-06,16.000000,16.040001,15.580000,15.610000,15.610000,168700
2019-03-07,15.590000,15.590000,15.270000,15.350000,15.350000,154900
2019-03-08,15.130000,15.160000,14.600000,15.140000,15.140000,273200
2019-03-11,15.080000,15.600000,15.080000,15.480000,15.480000,183600
2019-03-12,15.560000,15.560000,15.310000,15.340000,15.340000,136300
2019-03-13,15.360000,15.570000,15.340000,15.420000,15.420000,154300
2019-03-14,15.390000,15.510000,15.320000,15.320000,15.320000,122700
2019-03-15,15.360000,15.620000,15.300000,15.600000,15.600000,350700
2019-03-18,15.540000,15.780000,15.540000,15.590000,15.590000,166400
2019-03-19,15.750000,15.760000,15.250000,15.290000,15.290000,405100
2019-03-20,15.240000,15.580000,15.180000,15.370000,15.370000,224100
2019-03-21,15.330000,15.600000,15.330000,15.460000,15.460000,89800
2019-03-22,15.360000,15.360000,14.680000,14.710000,14.710000,177900
2019-03-25,14.620000,14.680000,14.310000,14.380000,14.380000,242700
2019-03-26,14.510000,14.665000,14.280000,14.400000,14.400000,145400
2019-03-27,14.390000,14.570000,14.120000,14.250000,14.250000,231400
2019-03-28,14.270000,14.620000,14.270000,14.520000,14.520000,338300
2019-03-29,14.640000,14.890000,14.300000,14.340000,14.340000,319000
2019-04-01,14.490000,15.905000,14.490000,15.760000,15.760000,612200
2019-04-02,15.720000,15.790000,15.410000,15.530000,15.530000,331000
2019-04-03,15.690000,15.760000,15.230000,15.290000,15.290000,209800
2019-04-04,15.330000,15.900000,15.270000,15.680000,15.680000,356500
2019-04-05,15.690000,15.770000,15.550000,15.760000,15.760000,173400
2019-04-08,15.570000,16.200001,15.570000,16.030001,16.030001,437900
2019-04-09,15.840000,16.250000,15.810000,16.000000,16.000000,366500
2019-04-10,16.030001,16.250000,16.004999,16.200001,16.200001,134400
2019-04-11,16.160000,16.530001,16.160000,16.440001,16.440001,148100
2019-04-12,16.610001,16.610001,16.375000,16.420000,16.420000,168400
2019-04-15,16.450001,16.450001,16.150000,16.299999,16.299999,187000
2019-04-16,16.389999,16.459999,16.163000,16.450001,16.450001,175900
2019-04-17,16.559999,16.600000,16.030001,16.160000,16.160000,474000
2019-04-18,16.190001,16.350000,16.100000,16.180000,16.180000,303500
2019-04-22,16.020000,16.070000,15.810000,15.940000,15.940000,180900
2019-04-23,16.000000,16.100000,15.790000,15.920000,15.920000,252400
2019-04-24,15.910000,16.160000,15.780000,15.970000,15.970000,131900
2019-04-25,15.860000,15.860000,15.390000,15.590000,15.590000,186100
2019-04-26,15.510000,16.219999,15.510000,16.070000,16.070000,204200
2019-04-29,16.059999,16.500000,15.900000,16.190001,16.190001,221400
2019-04-30,16.170000,16.209999,15.940000,16.080000,16.080000,93900
2019-05-01,16.110001,16.219999,15.870000,16.070000,16.070000,98700
2019-05-02,16.030001,16.030001,15.490000,15.970000,15.970000,249600
2019-05-03,16.080000,16.340000,15.910000,16.030001,16.030001,432300
2019-05-06,15.650000,16.240000,15.550000,16.049999,16.049999,259800
2019-05-07,15.860000,16.059999,15.540000,15.760000,15.760000,349800
2019-05-08,14.500000,14.900000,13.050000,13.480000,13.480000,1481000
2019-05-09,13.330000,13.540000,13.160000,13.450000,13.450000,262500
2019-05-10,13.280000,13.530000,13.180000,13.260000,13.260000,402600
2019-05-13,13.050000,13.240000,12.950000,13.140000,13.140000,760000
2019-05-14,13.310000,13.405000,12.760000,12.910000,12.910000,244900
2019-05-15,12.910000,13.010000,12.650000,12.950000,12.950000,306400
2019-05-16,12.990000,13.140000,12.680000,12.810000,12.810000,387200
2019-05-17,12.810000,12.810000,12.190000,12.220000,12.220000,280800
2019-05-20,12.080000,12.150000,11.890000,11.930000,11.930000,361200
2019-05-21,12.070000,12.240000,11.900000,12.090000,12.090000,350700
2019-05-22,12.080000,12.080000,11.850000,11.890000,11.890000,318800
2019-05-23,11.730000,11.730000,11.450000,11.690000,11.690000,277800
2019-05-24,11.780000,12.040000,11.670000,11.670000,11.670000,423800
2019-05-28,11.690000,11.905000,11.650000,11.660000,11.660000,659300
2019-05-29,11.650000,11.740000,11.520000,11.570000,11.570000,581800
2019-05-30,11.600000,11.680000,11.330000,11.390000,11.390000,227300
2019-05-31,11.240000,11.350000,11.020000,11.280000,11.280000,294200
2019-06-03,11.380000,11.470000,11.155000,11.270000,11.270000,297700
2019-06-04,11.380000,11.680000,11.380000,11.620000,11.620000,423100
2019-06-05,11.710000,11.750000,11.370000,11.520000,11.520000,490000
2019-06-06,11.510000,11.590000,11.145000,11.230000,11.230000,266700
2019-06-07,11.300000,11.320000,10.930000,11.110000,11.110000,284900
2019-06-10,11.160000,11.430000,11.080000,11.240000,11.240000,1020600
2019-06-11,11.350000,11.510000,11.110000,11.340000,11.340000,359400
2019-06-12,11.310000,11.390000,10.720000,10.910000,10.910000,644600
2019-06-13,10.940000,11.200000,10.940000,11.090000,11.090000,395400
2019-06-14,11.120000,11.120000,10.700000,10.870000,10.870000,428900
2019-06-17,10.890000,10.890000,10.660000,10.700000,10.700000,273900
2019-06-18,10.770000,10.970000,10.630000,10.640000,10.640000,1067500
2019-06-19,10.720000,10.730000,10.565000,10.590000,10.590000,615600
2019-06-20,10.730000,10.820000,10.540000,10.570000,10.570000,2881000
2019-06-21,10.590000,11.190000,10.440000,11.010000,11.010000,4387000
2019-06-24,11.030000,11.280000,10.790000,10.800000,10.800000,1612000
2019-06-25,12.520000,12.890000,10.980000,11.070000,11.070000,1808800
2019-06-26,11.090000,11.360000,10.900000,10.950000,10.950000,877600
2019-06-27,10.990000,11.490000,10.990000,11.340000,11.340000,616600
2019-06-28,11.350000,11.530000,11.320000,11.410000,11.410000,756300
2019-07-01,11.560000,11.650000,11.330000,11.480000,11.480000,540700
2019-07-02,11.460000,11.470000,11.270000,11.380000,11.380000,529200
2019-07-03,11.440000,11.510000,11.300000,11.500000,11.500000,239800
2019-07-05,11.450000,11.510000,11.180000,11.230000,11.230000,236200
2019-07-08,11.140000,11.190000,10.980000,11.000000,11.000000,298000
2019-07-09,10.900000,10.900000,10.670000,10.790000,10.790000,296300
2019-07-10,10.830000,10.900000,10.555000,10.630000,10.630000,300600
2019-07-11,10.560000,10.700000,10.300000,10.690000,10.690000,374600
2019-07-12,10.740000,11.295000,10.740000,11.220000,11.220000,654000
2019-07-15,11.230000,11.410000,10.930000,11.010000,11.010000,489200
2019-07-16,11.010000,11.200000,10.840000,11.000000,11.000000,291700
2019-07-17,11.020000,11.030000,10.460000,10.650000,10.650000,707400
2019-07-18,10.620000,10.700000,10.420000,10.470000,10.470000,449800
2019-07-19,10.530000,10.610000,10.430000,10.500000,10.500000,385000
2019-07-22,10.550000,10.790000,10.450000,10.640000,10.640000,789000
2019-07-23,10.720000,11.010000,10.720000,10.930000,10.930000,578100
2019-07-24,10.940000,11.360000,10.920000,11.350000,11.350000,352900
2019-07-25,11.330000,11.330000,10.850000,10.950000,10.950000,309500
2019-07-26,10.960000,10.965000,10.670000,10.780000,10.780000,243100
2019-07-29,10.750000,10.820000,10.650000,10.690000,10.690000,243000
2019-07-30,10.620000,11.115000,10.510000,11.000000,11.000000,301200
2019-07-31,11.060000,11.160000,10.810000,10.980000,10.980000,369400
2019-08-01,10.980000,10.995000,10.280000,10.330000,10.330000,438700
2019-08-02,10.250000,10.320000,10.120000,10.250000,10.250000,317600
2019-08-05,10.010000,10.150000,9.720000,9.780000,9.780000,637100
2019-08-06,9.800000,10.070000,9.800000,10.000000,10.000000,460500
2019-08-07,9.110000,9.240000,6.760000,7.890000,7.890000,2325000
2019-08-08,7.960000,8.140000,7.720000,7.830000,7.830000,1123400
2019-08-09,7.800000,7.970000,7.550000,7.910000,7.910000,704300
2019-08-12,7.790000,8.050000,7.650000,7.850000,7.850000,869400
2019-08-13,7.910000,8.090000,7.745000,8.030000,8.030000,1464600
2019-08-14,7.960000,8.080000,7.735000,7.800000,7.800000,1235700
2019-08-15,7.760000,8.010000,7.620000,7.930000,7.930000,1245400
2019-08-16,7.980000,8.030000,7.910000,8.000000,8.000000,409900
2019-08-19,8.090000,8.310000,7.940000,8.200000,8.200000,781700
2019-08-20,8.130000,8.240000,7.980000,8.150000,8.150000,849000
2019-08-21,8.210000,8.490000,8.170000,8.400000,8.400000,1236300
2019-08-22,8.470000,8.760000,8.400000,8.600000,8.600000,4203400
2019-08-23,8.480000,8.620000,8.290000,8.290000,8.290000,592400
2019-08-26,8.340000,8.430000,8.000000,8.140000,8.140000,486800
2019-08-27,8.270000,8.530000,8.200000,8.240000,8.240000,308600
2019-08-28,8.190000,8.370000,8.150000,8.350000,8.350000,258700
2019-08-29,8.440000,8.640000,8.410000,8.590000,8.590000,427400
2019-08-30,8.640000,8.830000,8.610000,8.700000,8.700000,417400
2019-09-03,8.540000,8.640000,8.360000,8.540000,8.540000,602400
2019-09-04,8.610000,9.020000,8.610000,8.950000,8.950000,377900
2019-09-05,9.120000,9.510000,9.050000,9.510000,9.510000,324700
2019-09-06,9.520000,9.640000,9.400000,9.550000,9.550000,889800
2019-09-09,9.620000,9.910000,9.550000,9.840000,9.840000,771600
2019-09-10,9.780000,10.345000,9.780000,10.270000,10.270000,623300
2019-09-11,10.240000,10.450000,9.920000,10.380000,10.380000,368200
2019-09-12,10.390000,10.470000,10.181000,10.350000,10.350000,294500
2019-09-13,10.430000,10.650000,10.340000,10.370000,10.370000,307700
2019-09-16,10.380000,10.480000,10.290000,10.380000,10.380000,336600
2019-09-17,10.360000,10.380000,10.070000,10.270000,10.270000,367200
2019-09-18,10.180000,10.320000,10.040000,10.280000,10.280000,746700
2019-09-19,10.380000,10.590000,10.280000,10.450000,10.450000,922200
2019-09-20,10.460000,10.560000,10.130000,10.200000,10.200000,865400
2019-09-23,10.060000,10.270000,10.060000,10.250000,10.250000,445500
2019-09-24,10.360000,10.360000,9.870000,9.890000,9.890000,453800
2019-09-25,9.920000,10.410000,9.780000,10.300000,10.300000,576500
2019-09-26,10.280000,10.350000,9.940000,9.990000,9.990000,238600
2019-09-27,10.040000,10.250000,9.950000,9.990000,9.990000,182200
2019-09-30,10.020000,10.130000,9.850000,10.070000,10.070000,256900
2019-10-01,10.150000,10.320000,9.625000,9.740000,9.740000,289700
2019-10-02,9.590000,9.780000,9.500000,9.630000,9.630000,198900
2019-10-03,9.650000,9.770000,9.500000,9.690000,9.690000,257500
2019-10-04,9.740000,9.780000,9.560000,9.700000,9.700000,294000
2019-10-07,9.720000,9.780000,9.530000,9.590000,9.590000,483600
2019-10-08,9.570000,9.690000,9.410000,9.490000,9.490000,452700
2019-10-09,9.250000,9.300000,8.710000,8.790000,8.790000,472800
2019-10-10,8.500000,8.880000,8.500000,8.530000,8.530000,300400
2019-10-11,8.530000,9.380000,8.530000,9.240000,9.240000,1173100
2019-10-14,9.140000,9.710000,9.140000,9.680000,9.680000,291600
2019-10-15,9.690000,9.815000,9.580000,9.730000,9.730000,255900
2019-10-16,9.710000,10.110000,9.710000,9.940000,9.940000,350500
2019-10-17,10.030000,10.070000,9.780000,9.860000,9.860000,270800
2019-10-18,9.890000,9.940000,9.740000,9.770000,9.770000,457200
2019-10-21,9.890000,10.160000,9.740000,9.930000,9.930000,663200
2019-10-22,10.010000,10.400000,9.858000,10.260000,10.260000,338800
2019-10-23,10.170000,10.320000,10.080000,10.200000,10.200000,310400
2019-10-24,10.290000,10.290000,9.940000,10.110000,10.110000,137000
2019-10-25,10.110000,10.235000,9.980000,10.100000,10.100000,260500
2019-10-28,10.100000,10.280000,10.030000,10.170000,10.170000,307300
2019-10-29,10.170000,10.350000,10.135000,10.250000,10.250000,377900
2019-10-30,10.310000,10.310000,9.980000,10.130000,10.130000,433200
2019-10-31,10.130000,10.160000,9.745000,10.000000,10.000000,251800
2019-11-01,10.140000,10.860000,10.115000,10.740000,10.740000,353700
2019-11-04,11.000000,11.225000,10.790000,11.150000,11.150000,270300
2019-11-05,11.160000,11.420000,11.060000,11.160000,11.160000,310200
2019-11-06,12.800000,12.800000,11.760000,12.040000,12.040000,755700
2019-11-07,12.320000,12.360000,11.840000,11.980000,11.980000,358100
2019-11-08,11.960000,12.150000,11.730000,12.050000,12.050000,311300
2019-11-11,11.970000,12.270000,11.960000,12.020000,12.020000,241800
2019-11-12,12.070000,12.190000,11.900000,12.050000,12.050000,277000
2019-11-13,11.880000,11.990000,11.770000,11.800000,11.800000,180700
2019-11-14,11.750000,11.930000,11.645000,11.710000,11.710000,287100
2019-11-15,11.840000,12.050000,11.840000,11.920000,11.920000,255000
2019-11-18,11.910000,11.910000,11.500000,11.700000,11.700000,238400
2019-11-19,11.680000,11.840000,11.590000,11.780000,11.780000,254100
2019-11-20,11.730000,11.850000,11.390000,11.400000,11.400000,275100
2019-11-21,11.500000,11.570000,11.300000,11.370000,11.370000,170100
2019-11-22,11.400000,11.520000,11.300000,11.440000,11.440000,159900
2019-11-25,11.450000,11.970000,11.290000,11.880000,11.880000,454000
2019-11-26,11.910000,11.910000,11.680000,11.850000,11.850000,238600
2019-11-27,11.840000,11.935000,11.745000,11.810000,11.810000,134200
2019-11-29,11.760000,12.070000,11.700000,11.890000,11.890000,114000
2019-12-02,11.900000,12.105000,11.760000,11.810000,11.810000,200500
2019-12-03,11.630000,11.800000,11.390000,11.640000,11.640000,175400
2019-12-04,11.710000,12.060000,11.710000,11.790000,11.790000,237900
2019-12-05,11.860000,12.000000,11.710000,11.840000,11.840000,133900
2019-12-06,12.020000,12.830000,11.910000,12.540000,12.540000,1137400
2019-12-09,12.560000,12.780000,12.460000,12.650000,12.650000,500800
2019-12-10,12.570000,12.750000,12.480000,12.490000,12.490000,372900
2019-12-11,12.410000,12.700000,12.290000,12.650000,12.650000,265200
2019-12-12,12.590000,13.180000,12.590000,13.140000,13.140000,422500
2019-12-13,13.010000,13.260000,12.760000,12.800000,12.800000,323900
2019-12-16,12.900000,13.020000,12.740000,12.950000,12.950000,285300
2019-12-17,12.940000,13.020000,12.770000,12.900000,12.900000,256900
2019-12-18,13.000000,13.140000,12.850000,13.070000,13.070000,293400
2019-12-19,13.060000,13.170000,12.920000,13.170000,13.170000,306900
2019-12-20,13.130000,13.310000,13.000000,13.290000,13.290000,740700
2019-12-23,13.420000,13.420000,13.090000,13.370000,13.370000,556000
2019-12-24,13.430000,13.640000,13.320000,13.460000,13.460000,465700
2019-12-26,13.520000,13.775000,13.430000,13.750000,13.750000,852100
2019-12-27,13.890000,13.910000,13.640000,13.710000,13.710000,612600
2019-12-30,13.680000,13.850000,13.560000,13.730000,13.730000,553100
2019-12-31,13.630000,14.200000,13.630000,13.760000,13.760000,403900
2020-01-02,13.820000,13.880000,13.675000,13.840000,13.840000,491700
2020-01-03,13.560000,13.820000,13.460000,13.790000,13.790000,583100
2020-01-06,13.620000,13.710000,13.410000,13.600000,13.600000,610500
2020-01-07,13.530000,13.630000,13.320000,13.360000,13.360000,423500
2020-01-08,13.380000,13.380000,12.990000,13.030000,13.030000,268100
2020-01-09,13.100000,13.130000,12.780000,12.870000,12.870000,163100
2020-01-10,12.900000,12.960000,12.560000,12.650000,12.650000,203700
2020-01-13,12.880000,13.140000,12.610000,13.060000,13.060000,261800
2020-01-14,12.990000,13.200000,12.900000,13.140000,13.140000,203600
2020-01-15,13.080000,13.280000,12.945000,12.990000,12.990000,181200
2020-01-16,13.080000,13.300000,12.820000,13.300000,13.300000,258800
2020-01-17,13.260000,13.450000,13.060000,13.240000,13.240000,188300
2020-01-21,13.080000,13.230000,12.890000,13.010000,13.010000,177600
2020-01-22,13.140000,13.290000,12.910000,12.930000,12.930000,202300
2020-01-23,12.900000,13.110000,12.760000,13.050000,13.050000,178900
2020-01-24,13.100000,13.180000,12.810000,12.910000,12.910000,187800
2020-01-27,12.470000,12.790000,12.450000,12.620000,12.620000,284400
2020-01-28,12.720000,12.880000,12.635000,12.790000,12.790000,163500
2020-01-29,12.790000,13.010000,12.710000,12.730000,12.730000,138600
2020-01-30,12.580000,12.960000,12.500000,12.830000,12.830000,296700
2020-01-31,12.770000,12.780000,12.440000,12.470000,12.470000,464000
2020-02-03,12.650000,12.860000,12.500000,12.650000,12.650000,312400
2020-02-04,12.870000,13.080000,12.600000,12.640000,12.640000,692300
2020-02-05,13.330000,14.300000,13.180000,13.620000,13.620000,823400
2020-02-06,13.700000,13.740000,13.160000,13.240000,13.240000,418800
2020-02-07,13.090000,13.142000,12.780000,12.820000,12.820000,417700
2020-02-10,12.790000,13.000000,12.730000,12.940000,12.940000,309000
2020-02-11,13.080000,13.340000,12.965000,13.010000,13.010000,650600
2020-02-12,13.170000,13.340000,12.900000,13.210000,13.210000,703100
2020-02-13,13.320000,13.800000,13.175000,13.250000,13.250000,371600