Date,Open,High,Low,Close,Adj Close,Volume
2018-09-17,22.000000,22.000000,17.559999,19.180000,19.180000,313400
2018-09-18,19.200001,19.500000,18.260000,18.260000,18.260000,148500
2018-09-19,18.059999,18.059999,16.760000,16.760000,16.760000,192200
2018-09-20,17.500000,17.500000,16.000000,16.250000,16.250000,727500
2018-09-21,16.400000,16.500000,15.770000,16.250000,16.250000,558300
2018-09-24,16.100000,16.299999,15.750000,15.900000,15.900000,100800
2018-09-25,15.930000,15.930000,15.000000,15.300000,15.300000,267700
2018-09-26,15.980000,16.250000,15.320000,15.580000,15.580000,645100
2018-09-27,15.990000,16.900000,15.710000,16.750000,16.750000,1663700
2018-09-28,16.990000,18.629999,16.580000,18.500000,18.500000,1914700
2018-10-01,17.600000,18.650000,16.860001,18.389999,18.389999,24931300
2018-10-02,17.580000,18.090000,16.860001,17.000000,17.000000,5927300
2018-10-03,16.830000,17.219999,16.459999,16.709999,16.709999,5540200
2018-10-04,16.100000,16.709999,16.090000,16.240000,16.240000,7557400
2018-10-05,16.150000,17.100000,15.730000,16.370001,16.370001,7559100
2018-10-08,16.299999,17.480000,15.900000,17.240000,17.240000,4530500
2018-10-09,17.280001,17.559999,15.910000,16.209999,16.209999,4515600
2018-10-10,16.010000,16.150000,15.020000,15.700000,15.700000,3851600
2018-10-11,15.650000,16.150000,15.230000,15.240000,15.240000,2450500
2018-10-12,15.510000,15.530000,15.100000,15.220000,15.220000,1443800
2018-10-15,15.240000,15.940000,15.120000,15.310000,15.310000,2202900
2018-10-16,15.390000,15.720000,15.240000,15.620000,15.620000,1565200
2018-10-17,15.460000,15.490000,14.850000,14.960000,14.960000,1572500
2018-10-18,14.810000,14.960000,14.440000,14.510000,14.510000,2282100
2018-10-19,14.410000,14.830000,13.330000,14.090000,14.090000,3265400
2018-10-22,13.930000,14.540000,13.710000,13.960000,13.960000,1467300
2018-10-23,13.680000,15.000000,13.330000,14.680000,14.680000,1545100
2018-10-24,14.510000,14.600000,13.330000,13.770000,13.770000,1548900
2018-10-25,13.730000,14.450000,13.720000,14.180000,14.180000,1058100
2018-10-26,13.810000,14.850000,13.700000,14.580000,14.580000,1374400
2018-10-29,15.240000,15.880000,14.360000,14.800000,14.800000,1076000
2018-10-30,14.560000,15.000000,14.400000,14.540000,14.540000,1292300
2018-10-31,14.680000,15.280000,14.360000,15.170000,15.170000,1329500
2018-11-01,15.350000,16.160000,15.280000,15.440000,15.440000,1348000
2018-11-02,14.750000,15.040000,14.250000,14.940000,14.940000,1291400
2018-11-05,14.930000,15.380000,14.650000,14.810000,14.810000,1409000
2018-11-06,15.080000,15.680000,14.750000,14.770000,14.770000,706600
2018-11-07,14.750000,14.760000,13.600000,14.000000,14.000000,2079300
2018-11-08,13.800000,14.190000,13.600000,13.870000,13.870000,2348300
2018-11-09,13.610000,13.690000,12.720000,13.010000,13.010000,1433300
2018-11-12,13.070000,13.870000,12.900000,13.560000,13.560000,1557600
2018-11-13,13.580000,14.050000,13.330000,13.850000,13.850000,1282400
2018-11-14,13.900000,14.250000,13.330000,13.500000,13.500000,995500
2018-11-15,13.330000,13.550000,12.270000,12.960000,12.960000,1138800
2018-11-16,12.730000,13.090000,12.000000,12.050000,12.050000,1907100
2018-11-19,12.000000,12.330000,11.810000,11.930000,11.930000,614700
2018-11-20,11.680000,12.080000,11.450000,11.760000,11.760000,952200
2018-11-21,11.740000,12.570000,11.670000,12.200000,12.200000,730400
2018-11-23,12.050000,12.200000,12.000000,12.120000,12.120000,131900
2018-11-26,12.160000,12.440000,12.000000,12.330000,12.330000,928100
2018-11-27,12.170000,12.250000,11.500000,11.530000,11.530000,1253700
2018-11-28,11.530000,11.840000,11.300000,11.760000,11.760000,1004200
2018-11-29,11.970000,12.250000,11.370000,11.550000,11.550000,1696000
2018-11-30,11.470000,11.640000,11.230000,11.500000,11.500000,964200
2018-12-03,11.850000,12.130000,11.320000,11.580000,11.580000,671200
2018-12-04,11.460000,11.820000,11.140000,11.430000,11.430000,1047600
2018-12-06,11.190000,11.860000,11.010000,11.560000,11.560000,1684500
2018-12-07,11.330000,11.840000,11.230000,11.630000,11.630000,2320900
2018-12-10,11.500000,11.710000,11.070000,11.630000,11.630000,1346800
2018-12-11,11.690000,12.460000,11.670000,11.850000,11.850000,1398400
2018-12-12,11.950000,12.100000,11.550000,12.040000,12.040000,1534500
2018-12-13,12.180000,12.340000,11.750000,12.020000,12.020000,976900
2018-12-14,11.820000,12.160000,11.600000,12.060000,12.060000,935000
2018-12-17,11.930000,12.160000,11.560000,12.120000,12.120000,767100
2018-12-18,12.030000,12.760000,12.030000,12.520000,12.520000,1208800
2018-12-19,12.440000,12.940000,12.160000,12.350000,12.350000,1141400
2018-12-20,12.250000,12.560000,12.020000,12.160000,12.160000,970000
2018-12-21,12.170000,12.460000,11.960000,12.040000,12.040000,2626600
2018-12-24,11.870000,12.510000,11.800000,12.360000,12.360000,517600
2018-12-26,12.430000,12.510000,12.030000,12.460000,12.460000,714100
2018-12-27,12.200000,12.400000,11.780000,12.070000,12.070000,378200
2018-12-28,12.040000,12.460000,11.970000,12.300000,12.300000,392300
2018-12-31,12.300000,12.480000,11.970000,12.340000,12.340000,750700
2019-01-02,12.130000,12.880000,12.030000,12.650000,12.650000,542200
2019-01-03,12.510000,12.510000,11.670000,11.720000,11.720000,508700
2019-01-04,11.850000,12.020000,11.550000,11.550000,11.550000,1050400
2019-01-07,11.590000,11.720000,11.360000,11.700000,11.700000,1115400
2019-01-08,11.840000,13.230000,11.750000,13.030000,13.030000,570500
2019-01-09,13.140000,13.700000,13.080000,13.220000,13.220000,1917800
2019-01-10,13.140000,13.170000,12.940000,13.120000,13.120000,1081600
2019-01-11,13.120000,13.450000,12.900000,13.250000,13.250000,859100
2019-01-14,13.170000,13.470000,12.920000,13.450000,13.450000,533100
2019-01-15,13.370000,13.620000,12.990000,13.490000,13.490000,773800
2019-01-16,13.480000,14.480000,13.480000,14.300000,14.300000,652600
2019-01-17,14.300000,15.550000,14.230000,15.250000,15.250000,946800
2019-01-18,15.400000,16.260000,15.400000,15.810000,15.810000,1235600
2019-01-22,15.780000,15.780000,15.090000,15.200000,15.200000,2148500
2019-01-23,15.510000,15.650000,14.810000,15.260000,15.260000,1233300
2019-01-24,15.060000,15.500000,14.920000,15.020000,15.020000,1317500
2019-01-25,15.010000,15.630000,14.950000,15.190000,15.190000,1250600
2019-01-28,15.040000,15.770000,14.850000,15.370000,15.370000,1503800
2019-01-29,15.250000,15.600000,15.000000,15.430000,15.430000,947000
2019-01-30,15.540000,15.910000,15.080000,15.860000,15.860000,991700
2019-01-31,15.700000,16.190001,15.410000,15.970000,15.970000,929500
2019-02-01,16.030001,16.469999,15.780000,16.160000,16.160000,668200
2019-02-04,16.000000,16.320000,15.800000,16.230000,16.230000,854000
2019-02-05,16.230000,16.250000,15.850000,16.139999,16.139999,364700
2019-02-06,16.150000,16.389999,15.850000,16.299999,16.299999,513200
2019-02-07,16.110001,16.110001,15.110000,15.290000,15.290000,1401700
2019-02-08,15.200000,15.260000,14.790000,14.890000,14.890000,582200
2019-02-11,14.900000,15.070000,14.660000,14.670000,14.670000,651000
2019-02-12,14.710000,15.020000,14.580000,15.000000,15.000000,532800
2019-02-13,14.910000,15.290000,14.910000,15.010000,15.010000,393400
2019-02-14,15.010000,15.510000,14.750000,15.480000,15.480000,588200
2019-02-15,15.610000,16.420000,15.610000,16.150000,16.150000,772100
2019-02-19,16.080000,16.400000,15.600000,16.299999,16.299999,719800
2019-02-20,16.500000,17.889999,16.469999,16.959999,16.959999,2040500
2019-02-21,16.930000,17.240000,15.660000,15.840000,15.840000,1203300
2019-02-22,15.970000,16.510000,15.850000,16.240000,16.240000,1409100
2019-02-25,16.360001,16.500000,15.940000,16.350000,16.350000,735400
2019-02-26,16.299999,17.150000,16.250000,16.910000,16.910000,726600
2019-02-27,16.809999,17.120001,16.450001,16.780001,16.780001,978600
2019-02-28,16.740000,16.780001,16.400000,16.740000,16.740000,425800
2019-03-01,16.750000,17.230000,16.670000,16.780001,16.780001,450500
2019-03-04,16.830000,16.900000,16.120001,16.170000,16.170000,498200
2019-03-05,16.030001,16.230000,15.950000,16.030001,16.030001,343400
2019-03-06,15.980000,15.980000,15.310000,15.330000,15.330000,512400
2019-03-07,15.300000,15.580000,15.010000,15.520000,15.520000,1079300
2019-03-08,15.350000,15.440000,14.880000,15.210000,15.210000,843000
2019-03-11,15.210000,15.390000,14.940000,15.240000,15.240000,671300
2019-03-12,15.280000,15.570000,15.170000,15.420000,15.420000,502600
2019-03-13,15.430000,15.700000,15.430000,15.450000,15.450000,469000
2019-03-14,15.410000,15.460000,14.480000,14.500000,14.500000,753400
2019-03-15,14.600000,14.790000,14.350000,14.760000,14.760000,1525800
2019-03-18,14.800000,14.960000,14.610000,14.880000,14.880000,659300
2019-03-19,14.980000,15.190000,14.670000,15.010000,15.010000,617000
2019-03-20,14.950000,14.990000,14.600000,14.620000,14.620000,1105600
2019-03-21,14.610000,15.250000,14.520000,15.180000,15.180000,404900
2019-03-22,14.980000,15.100000,14.670000,14.710000,14.710000,562300
2019-03-25,14.620000,14.990000,14.510000,14.810000,14.810000,542700
2019-03-26,14.790000,15.210000,14.650000,15.200000,15.200000,445800
2019-03-27,15.210000,15.420000,14.920000,15.140000,15.140000,438700
2019-03-28,15.100000,15.530000,14.960000,15.280000,15.280000,444000
2019-03-29,15.430000,15.430000,13.990000,14.730000,14.730000,1531800
2019-04-01,14.800000,15.580000,14.800000,15.530000,15.530000,786000
2019-04-02,15.580000,15.890000,15.420000,15.860000,15.860000,334500
2019-04-03,15.900000,16.320000,15.640000,15.810000,15.810000,777600
2019-04-04,15.930000,16.459999,15.640000,16.440001,16.440001,523800
2019-04-05,16.160000,16.480000,16.059999,16.340000,16.340000,244100
2019-04-08,16.340000,16.500000,16.160000,16.469999,16.469999,215100
2019-04-09,16.500000,16.660000,16.049999,16.209999,16.209999,374100
2019-04-10,16.219999,16.809999,16.180000,16.650000,16.650000,414200
2019-04-11,16.620001,16.940001,16.549999,16.709999,16.709999,543700
2019-04-12,16.930000,17.450001,16.920000,17.260000,17.260000,508000
2019-04-15,17.280001,17.730000,17.080000,17.730000,17.730000,441700
2019-04-16,17.719999,18.340000,17.629999,18.230000,18.230000,521600
2019-04-17,18.379999,19.139999,18.360001,19.110001,19.110001,828700
2019-04-18,19.170000,19.459999,18.400000,18.809999,18.809999,1077300
2019-04-22,18.930000,19.709999,18.799999,19.280001,19.280001,779700
2019-04-23,19.260000,19.530001,18.860001,19.330000,19.330000,438400
2019-04-24,19.350000,19.430000,18.730000,19.360001,19.360001,534000
2019-04-25,19.190001,19.330000,18.660000,18.799999,18.799999,466300
2019-04-26,18.830000,19.410000,18.820000,19.230000,19.230000,639700
2019-04-29,19.110001,19.260000,18.590000,18.850000,18.850000,615000
2019-04-30,18.719999,19.180000,18.680000,18.799999,18.799999,378000
2019-05-01,18.650000,18.799999,17.889999,18.000000,18.000000,932800
2019-05-02,17.870001,17.980000,17.410000,17.480000,17.480000,693700
2019-05-03,17.600000,18.500000,17.469999,18.430000,18.430000,303800
2019-05-06,17.990000,18.760000,17.780001,18.459999,18.459999,579900
2019-05-07,19.000000,19.250000,18.020000,19.049999,19.049999,1095100
2019-05-08,19.049999,19.120001,18.240000,18.320000,18.320000,321200
2019-05-09,18.129999,18.309999,17.500000,18.250000,18.250000,490700
2019-05-10,18.209999,18.610001,18.049999,18.280001,18.280001,862900
2019-05-13,17.920000,18.049999,17.559999,18.000000,18.000000,591300
2019-05-14,18.129999,18.129999,17.750000,18.080000,18.080000,1076100
2019-05-15,17.660000,18.379999,17.430000,18.299999,18.299999,591300
2019-05-16,18.389999,18.660000,18.110001,18.559999,18.559999,1081700
2019-05-17,18.400000,18.530001,18.030001,18.129999,18.129999,730600
2019-05-20,18.000000,18.129999,17.590000,17.820000,17.820000,960300
2019-05-21,17.940001,18.200001,17.670000,17.900000,17.900000,853900
2019-05-22,17.770000,17.840000,16.730000,17.049999,17.049999,742200
2019-05-23,16.809999,17.160000,16.400000,17.059999,17.059999,589600
2019-05-24,17.209999,17.410000,17.110001,17.129999,17.129999,370000
2019-05-28,17.250000,17.350000,16.840000,16.900000,16.900000,833800
2019-05-29,16.709999,16.830000,16.219999,16.290001,16.290001,431800
2019-05-30,16.360001,16.650000,15.970000,15.970000,15.970000,550500
2019-05-31,15.600000,15.820000,15.220000,15.380000,15.380000,517000
2019-06-03,15.350000,15.590000,15.190000,15.190000,15.190000,649800
2019-06-04,15.470000,16.320000,15.380000,16.080000,16.080000,562200
2019-06-05,16.250000,16.280001,15.260000,15.540000,15.540000,616500
2019-06-06,15.550000,15.860000,15.280000,15.780000,15.780000,920400
2019-06-07,15.890000,15.980000,15.410000,15.710000,15.710000,489500
2019-06-10,15.910000,16.129999,15.730000,16.000000,16.000000,495400
2019-06-11,16.100000,16.540001,16.000000,16.080000,16.080000,618400
2019-06-12,16.000000,16.129999,15.780000,16.070000,16.070000,658800
2019-06-13,16.090000,16.410000,15.900000,16.410000,16.410000,366800
2019-06-14,16.309999,16.309999,15.930000,16.000000,16.000000,482400
2019-06-17,16.059999,16.180000,15.370000,15.450000,15.450000,582800
2019-06-18,15.560000,15.800000,14.950000,15.070000,15.070000,756700
2019-06-19,15.130000,15.290000,14.810000,15.130000,15.130000,501200
2019-06-20,15.250000,15.400000,14.910000,15.290000,15.290000,503900
2019-06-21,15.290000,15.490000,14.850000,15.110000,15.110000,1387800
2019-06-24,15.060000,15.060000,14.400000,14.750000,14.750000,649000
2019-06-25,14.780000,14.790000,14.490000,14.520000,14.520000,663400
2019-06-26,14.550000,14.750000,14.500000,14.700000,14.700000,643500
2019-06-27,14.880000,15.560000,14.780000,15.520000,15.520000,944900
2019-06-28,15.540000,15.710000,15.000000,15.350000,15.350000,6271800
2019-07-01,15.640000,15.890000,15.020000,15.080000,15.080000,1286000
2019-07-02,15.010000,15.340000,14.870000,15.150000,15.150000,1302300
2019-07-03,15.150000,15.320000,15.100000,15.160000,15.160000,352600
2019-07-05,15.010000,15.090000,14.830000,15.090000,15.090000,524900
2019-07-08,14.900000,15.090000,14.700000,14.840000,14.840000,1038300
2019-07-09,14.640000,14.780000,13.910000,14.010000,14.010000,1922000
2019-07-10,13.990000,14.250000,13.610000,14.170000,14.170000,1012900
2019-07-11,14.120000,14.240000,13.940000,14.080000,14.080000,859800
2019-07-12,14.120000,14.830000,14.120000,14.550000,14.550000,574700
2019-07-15,14.550000,14.720000,14.320000,14.610000,14.610000,457000
2019-07-16,14.430000,14.800000,14.170000,14.540000,14.540000,384900
2019-07-17,14.340000,14.770000,14.100000,14.200000,14.200000,371000
2019-07-18,14.100000,14.260000,13.890000,14.030000,14.030000,448900
2019-07-19,14.010000,14.670000,13.880000,14.450000,14.450000,574800
2019-07-22,14.520000,14.710000,14.250000,14.390000,14.390000,279500
2019-07-23,14.510000,14.920000,14.400000,14.540000,14.540000,545900
2019-07-24,14.430000,14.870000,14.430000,14.800000,14.800000,489900
2019-07-25,14.660000,14.750000,14.040000,14.220000,14.220000,599200
2019-07-26,14.280000,14.920000,14.200000,14.790000,14.790000,460200
2019-07-29,14.770000,14.980000,14.570000,14.900000,14.900000,602200
2019-07-30,13.500000,13.830000,12.170000,13.710000,13.710000,2672800
2019-07-31,13.700000,14.520000,13.500000,14.170000,14.170000,2105300
2019-08-01,14.160000,14.170000,13.000000,13.500000,13.500000,1501800
2019-08-02,13.370000,13.370000,12.930000,12.940000,12.940000,837700
2019-08-05,12.940000,12.980000,12.400000,12.770000,12.770000,690300
2019-08-06,12.940000,12.990000,12.410000,12.750000,12.750000,993100
2019-08-07,12.540000,12.680000,12.310000,12.480000,12.480000,825300
2019-08-08,12.480000,12.790000,12.470000,12.610000,12.610000,533900
2019-08-09,12.500000,12.610000,11.960000,11.970000,11.970000,492700
2019-08-12,11.880000,11.970000,11.270000,11.480000,11.480000,314300
2019-08-13,11.500000,12.070000,11.410000,11.530000,11.530000,385800
2019-08-14,11.240000,11.310000,10.850000,11.260000,11.260000,668100
2019-08-15,11.200000,11.210000,10.820000,10.950000,10.950000,679900
2019-08-16,11.000000,11.530000,11.000000,11.450000,11.450000,540900
2019-08-19,11.700000,11.850000,11.400000,11.430000,11.430000,575100
2019-08-20,11.370000,11.390000,11.000000,11.180000,11.180000,445500
2019-08-21,11.350000,11.500000,11.070000,11.090000,11.090000,353000
2019-08-22,11.050000,11.330000,11.050000,11.110000,11.110000,240800
2019-08-23,11.000000,11.200000,10.580000,10.690000,10.690000,428300
2019-08-26,10.880000,11.070000,10.240000,10.330000,10.330000,752100
2019-08-27,10.430000,10.590000,9.770000,9.990000,9.990000,677000
2019-08-28,9.960000,10.160000,9.880000,9.920000,9.920000,775800
2019-08-29,10.250000,10.550000,9.810000,9.840000,9.840000,735200
2019-08-30,9.870000,10.230000,9.780000,9.840000,9.840000,451500
2019-09-03,9.770000,9.840000,9.310000,9.610000,9.610000,1167900
2019-09-04,9.810000,10.250000,9.720000,10.000000,10.000000,779300
2019-09-05,10.250000,11.060000,10.220000,10.260000,10.260000,2742600
2019-09-06,10.250000,10.480000,9.410000,10.100000,10.100000,2191800
2019-09-09,10.230000,10.530000,9.900000,10.440000,10.440000,1489000
2019-09-10,10.090000,10.770000,10.080000,10.770000,10.770000,1548500
2019-09-11,10.890000,11.490000,10.430000,11.470000,11.470000,1603900
2019-09-12,11.250000,12.000000,10.880000,11.840000,11.840000,1143100
2019-09-13,12.130000,12.640000,12.090000,12.310000,12.310000,1186500
2019-09-16,12.150000,12.590000,12.150000,12.280000,12.280000,657000
2019-09-17,12.130000,12.290000,11.760000,12.220000,12.220000,843800
2019-09-18,12.170000,12.200000,11.120000,11.520000,11.520000,645700
2019-09-19,11.560000,11.660000,11.190000,11.310000,11.310000,432700
2019-09-20,11.290000,11.500000,10.680000,10.830000,10.830000,914900
2019-09-23,10.660000,10.970000,10.510000,10.530000,10.530000,413400
2019-09-24,10.530000,10.760000,10.180000,10.310000,10.310000,734600
2019-09-25,10.300000,10.480000,9.970000,10.360000,10.360000,760300
2019-09-26,10.340000,10.340000,9.950000,9.960000,9.960000,414900
2019-09-27,9.990000,10.250000,9.770000,9.910000,9.910000,561800
2019-09-30,9.960000,10.070000,9.760000,9.960000,9.960000,633200
2019-10-01,10.000000,10.030000,9.630000,9.740000,9.740000,566400
2019-10-02,9.600000,9.750000,9.260000,9.490000,9.490000,784600
2019-10-03,9.410000,9.640000,9.090000,9.390000,9.390000,1032600
2019-10-04,9.400000,9.560000,8.990000,9.210000,9.210000,896400
2019-10-07,9.130000,9.370000,8.940000,9.140000,9.140000,477400
2019-10-08,9.000000,9.010000,8.640000,8.820000,8.820000,845300
2019-10-09,8.960000,9.040000,8.750000,8.960000,8.960000,354500
2019-10-10,9.050000,9.170000,8.900000,9.070000,9.070000,553500
2019-10-11,9.250000,9.630000,9.200000,9.600000,9.600000,541800
2019-10-14,9.510000,9.530000,9.000000,9.110000,9.110000,447600
2019-10-15,9.110000,9.540000,9.010000,9.380000,9.380000,353700
2019-10-16,9.330000,9.980000,9.330000,9.730000,9.730000,460700
2019-10-17,9.670000,10.030000,9.650000,9.770000,9.770000,410100
2019-10-18,9.720000,9.720000,9.240000,9.400000,9.400000,430900
2019-10-21,9.500000,9.780000,9.320000,9.520000,9.520000,400300
2019-10-22,9.530000,9.770000,9.390000,9.730000,9.730000,438300
2019-10-23,9.830000,9.830000,9.450000,9.730000,9.730000,396900
2019-10-24,9.750000,9.880000,9.240000,9.340000,9.340000,538900
2019-10-25,9.300000,9.970000,9.300000,9.960000,9.960000,792600
2019-10-28,9.990000,10.490000,9.970000,10.360000,10.360000,658500
2019-10-29,10.290000,10.490000,9.940000,10.010000,10.010000,651400
2019-10-30,9.990000,10.060000,9.650000,9.980000,9.980000,569700
2019-10-31,9.950000,10.180000,9.420000,9.500000,9.500000,888500
2019-11-01,9.590000,10.000000,9.520000,9.960000,9.960000,455300
2019-11-04,10.070000,10.600000,10.070000,10.590000,10.590000,542100
2019-11-05,10.620000,11.000000,10.380000,10.470000,10.470000,878800
2019-11-06,10.440000,10.440000,10.010000,10.090000,10.090000,426800
2019-11-07,10.220000,10.650000,10.220000,10.470000,10.470000,548700
2019-11-08,9.380000,10.700000,8.460000,9.950000,9.950000,973900
2019-11-11,10.000000,10.650000,9.600000,10.630000,10.630000,593100
2019-11-12,10.620000,10.770000,10.110000,10.210000,10.210000,756800
2019-11-13,10.190000,10.480000,10.010000,10.120000,10.120000,1022300
2019-11-14,10.160000,10.440000,10.060000,10.190000,10.190000,615200
2019-11-15,10.320000,10.620000,10.120000,10.570000,10.570000,684800
2019-11-18,10.540000,10.560000,10.110000,10.120000,10.120000,319100
2019-11-19,10.130000,10.790000,9.990000,10.770000,10.770000,714700
2019-11-20,10.640000,10.870000,10.270000,10.280000,10.280000,498100
2019-11-21,10.290000,10.350000,9.890000,10.210000,10.210000,560200
2019-11-22,10.350000,10.640000,10.250000,10.520000,10.520000,289500
2019-11-25,10.510000,10.790000,10.410000,10.750000,10.750000,314200
2019-11-26,10.740000,11.460000,10.550000,11.400000,11.400000,831500
2019-11-27,11.420000,11.650000,11.290000,11.620000,11.620000,818400
2019-11-29,11.500000,11.650000,11.230000,11.570000,11.570000,480900
2019-12-02,11.640000,12.110000,11.480000,12.100000,12.100000,965200
2019-12-03,11.920000,12.030000,11.400000,11.670000,11.670000,940500
2019-12-04,11.750000,12.200000,11.680000,11.920000,11.920000,698100
2019-12-05,11.900000,12.130000,11.480000,11.730000,11.730000,1090200
2019-12-06,11.910000,12.070000,11.550000,11.610000,11.610000,500100
2019-12-09,11.470000,11.520000,9.870000,10.050000,10.050000,2516600
2019-12-10,9.970000,10.070000,9.690000,9.900000,9.900000,1144900
2019-12-11,9.950000,10.140000,9.660000,9.730000,9.730000,712400
2019-12-12,9.780000,10.590000,9.730000,10.410000,10.410000,670000
2019-12-13,10.380000,10.490000,9.980000,10.170000,10.170000,552800
2019-12-16,10.190000,10.460000,10.130000,10.240000,10.240000,1798700
2019-12-17,10.250000,10.640000,10.120000,10.510000,10.510000,1550600
2019-12-18,10.600000,11.060000,10.500000,10.880000,10.880000,1516400
2019-12-19,10.850000,10.850000,10.440000,10.450000,10.450000,1918900
2019-12-20,10.510000,10.600000,9.840000,10.090000,10.090000,2274500
2019-12-23,10.020000,10.770000,9.900000,10.500000,10.500000,1429400
2019-12-24,10.590000,10.730000,10.240000,10.430000,10.430000,401300
2019-12-26,10.520000,10.640000,10.320000,10.370000,10.370000,274800
2019-12-27,10.340000,10.490000,10.180000,10.230000,10.230000,398500
2019-12-30,10.200000,10.300000,10.000000,10.050000,10.050000,389700
2019-12-31,10.010000,10.190000,9.910000,9.990000,9.990000,1015600
2020-01-02,10.130000,10.130000,9.570000,9.850000,9.850000,892400
2020-01-03,9.630000,9.810000,9.470000,9.570000,9.570000,716300
2020-01-06,9.490000,9.740000,9.410000,9.550000,9.550000,430500
2020-01-07,9.510000,9.630000,9.270000,9.460000,9.460000,537800
2020-01-08,9.400000,9.520000,9.020000,9.120000,9.120000,581600
2020-01-09,9.200000,9.230000,8.650000,8.680000,8.680000,725800
2020-01-10,8.840000,9.220000,8.720000,9.030000,9.030000,923100
2020-01-13,9.460000,10.130000,9.370000,9.950000,9.950000,1873900
2020-01-14,10.170000,10.620000,10.140000,10.320000,10.320000,1089400
2020-01-15,10.440000,10.690000,10.090000,10.210000,10.210000,900800
2020-01-16,10.200000,10.420000,10.100000,10.320000,10.320000,427800
2020-01-17,10.320000,10.450000,9.890000,10.000000,10.000000,412800
2020-01-21,10.170000,10.270000,9.660000,9.920000,9.920000,623700
2020-01-22,9.970000,10.090000,9.590000,9.660000,9.660000,534500
2020-01-23,9.600000,9.760000,9.200000,9.740000,9.740000,707400
2020-01-24,9.770000,9.810000,9.310000,9.420000,9.420000,364200
2020-01-27,9.190000,9.240000,8.980000,9.020000,9.020000,489500
2020-01-28,9.050000,9.110000,8.740000,8.910000,8.910000,706900
2020-01-29,8.930000,9.050000,8.360000,8.550000,8.550000,661200
2020-01-30,8.480000,8.720000,8.450000,8.600000,8.600000,441700
2020-01-31,8.600000,8.630000,8.310000,8.420000,8.420000,716700
2020-02-03,8.400000,8.680000,8.350000,8.650000,8.650000,890900
2020-02-04,8.860000,9.140000,8.770000,9.050000,9.050000,715600
2020-02-05,9.100000,9.490000,9.050000,9.190000,9.190000,616600
2020-02-06,9.310000,9.330000,8.880000,8.950000,8.950000,656900
2020-02-07,8.890000,8.940000,8.510000,8.790000,8.790000,865000
2020-02-10,8.700000,8.720000,8.520000,8.600000,8.600000,601900
2020-02-11,8.630000,8.840000,8.360000,8.740000,8.740000,1178800
2020-02-12,8.890000,9.060000,8.600000,8.620000,8.620000,659200
2020-02-13,8.520000,8.700000,8.390000,8.600000,8.600000,535000