Date,Open,High,Low,Close,Adj Close,Volume
2019-03-01,13.150000,13.600000,13.150000,13.430000,12.049319,28900
2019-03-04,13.420000,13.540000,12.600000,13.460000,12.076233,110300
2019-03-05,13.300000,13.408000,12.510000,13.155000,11.802591,111700
2019-03-06,12.920000,13.250000,12.850000,12.850000,11.528946,72200
2019-03-07,12.850000,12.999000,12.600000,12.780000,11.466142,92700
2019-03-08,12.880000,13.570000,12.750000,12.950000,11.618667,70000
2019-03-11,12.870000,13.244000,12.780000,13.160000,11.807078,56300
2019-03-12,13.200000,13.460000,12.750000,13.000000,11.663525,85300
2019-03-13,13.000000,13.149000,12.760000,12.950000,11.618667,142300
2019-03-14,12.820000,13.040000,12.802000,12.980000,11.645580,73600
2019-03-15,12.910000,13.100000,12.830000,12.850000,11.528946,108600
2019-03-18,12.950000,13.000000,12.770000,12.830000,11.511003,160700
2019-03-19,12.860000,13.050000,12.850000,12.900000,11.573807,123300
2019-03-20,12.930000,13.126000,12.770000,12.920000,11.591751,178400
2019-03-21,12.830000,13.000000,12.700000,12.940000,11.705732,123500
2019-03-22,12.930000,12.930000,12.750000,12.850000,11.624317,54500
2019-03-25,13.000000,13.000000,12.620000,12.760000,11.542903,105400
2019-03-26,12.770000,12.950000,12.750000,12.920000,11.687639,94300
2019-03-27,12.840000,13.050000,12.840000,12.990000,11.750963,56800
2019-03-28,12.950000,13.040000,12.890000,13.000000,11.760008,37400
2019-03-29,12.940000,13.086000,12.850000,12.920000,11.687639,51400
2019-04-01,12.950000,13.100000,12.900000,12.980000,11.741916,60700
2019-04-02,12.910000,12.982000,12.860000,12.950000,11.714778,73000
2019-04-03,12.990000,13.190000,12.980000,13.020000,11.778101,47500
2019-04-04,13.020000,13.120000,12.930000,12.980000,11.741916,68900
2019-04-05,12.970000,13.210000,12.950000,13.200000,11.940933,50800
2019-04-08,13.060000,13.237000,12.950000,13.130000,11.877608,72500
2019-04-09,13.070000,13.130000,12.810000,12.900000,11.669547,108600
2019-04-10,12.870000,12.990000,12.820000,12.970000,11.732870,58200
2019-04-11,12.910000,13.050000,12.910000,12.950000,11.714778,79800
2019-04-12,12.960000,12.960000,12.850000,12.880000,11.651455,73100
2019-04-15,12.880000,13.070000,12.600000,12.950000,11.714778,93600
2019-04-16,12.890000,12.990000,12.850000,12.920000,11.687639,81400
2019-04-17,12.880000,12.970000,12.700000,12.700000,11.488623,94400
2019-04-18,12.700000,12.817000,12.550000,12.650000,11.443393,106100
2019-04-22,12.550000,12.668000,12.460000,12.510000,11.412377,77500
2019-04-23,12.570000,12.630000,12.490000,12.530000,11.430622,59900
2019-04-24,12.540000,12.630000,12.450000,12.520000,11.421499,95300
2019-04-25,12.500000,12.600000,12.380000,12.410000,11.321150,74300
2019-04-26,12.380000,12.500000,12.310000,12.430000,11.339396,93500
2019-04-29,12.400000,12.570000,12.330000,12.430000,11.339396,62900
2019-04-30,12.420000,12.482000,12.190000,12.300000,11.220801,189000
2019-05-01,12.300000,12.400000,12.200000,12.339000,11.256378,80300
2019-05-02,12.270000,12.350000,12.140000,12.220000,11.147821,94700
2019-05-03,12.250000,12.450000,12.210000,12.360000,11.275536,53000
2019-05-06,12.220000,12.390000,12.220000,12.270000,11.193435,56500
2019-05-07,12.250000,12.340000,12.070000,12.110000,11.047471,65200
2019-05-08,12.220000,12.250000,12.180000,12.220000,11.147821,59700
2019-05-09,12.180000,12.180000,11.910000,12.010000,10.956247,106500
2019-05-10,12.000000,12.280000,12.000000,12.220000,11.147821,71600
2019-05-13,12.020000,12.040000,11.850000,11.900000,10.855897,44600
2019-05-14,11.992000,12.065000,11.920000,11.960000,10.910633,61200
2019-05-15,11.900000,12.140000,11.900000,12.090000,11.029227,40600
2019-05-16,12.050000,12.190000,12.050000,12.110000,11.047471,71100
2019-05-17,12.110000,12.110000,11.960000,12.000000,10.947123,57600
2019-05-20,11.950000,12.000000,11.900000,11.920000,10.874143,55900
2019-05-21,11.980000,12.050000,11.910000,12.020000,10.965367,90000
2019-05-22,11.910000,11.990000,11.860000,11.860000,10.915668,57300
2019-05-23,11.810000,11.939000,11.650000,11.780000,10.842039,65400
2019-05-24,11.780000,11.780000,11.650000,11.700000,10.768408,49500
2019-05-28,11.680000,11.750000,11.560000,11.600000,10.676371,46000
2019-05-29,11.580000,11.650000,11.194000,11.320000,10.418665,175600
2019-05-30,11.250000,11.340000,11.212000,11.230000,10.335831,120700
2019-05-31,11.220000,11.234000,10.680000,11.000000,10.124145,168300
2019-06-03,10.950000,11.103000,10.850000,10.920000,10.050513,95000
2019-06-04,11.000000,11.140000,10.940000,11.080000,10.197775,70200
2019-06-05,11.120000,11.310000,10.960000,11.000000,10.124145,115200
2019-06-06,11.000000,11.531000,10.975000,11.240000,10.345036,102300
2019-06-07,11.300000,11.410000,11.210000,11.390000,10.483092,79800
2019-06-10,11.300000,11.380000,11.240000,11.240000,10.345036,80000
2019-06-11,11.240000,11.510000,11.230000,11.280000,10.381850,83600
2019-06-12,11.390000,11.390000,11.050000,11.060000,10.179368,130800
2019-06-13,11.140000,11.230000,11.030000,11.130000,10.243793,127800
2019-06-14,11.180000,11.190000,11.050000,11.080000,10.197775,78600
2019-06-17,11.120000,11.140000,10.980000,11.020000,10.142551,87000
2019-06-18,11.100000,11.270000,11.050000,11.110000,10.225387,69600
2019-06-19,11.170000,11.170000,11.020000,11.150000,10.262200,97700
2019-06-20,11.070000,11.290000,11.010000,11.030000,10.249191,142200
2019-06-21,11.010000,11.379000,11.010000,11.230000,10.435032,93200
2019-06-24,11.250000,11.252000,11.070000,11.100000,10.314237,68000
2019-06-25,11.100000,11.180000,10.950000,10.980000,10.202732,83000
2019-06-26,11.100000,11.180000,10.920000,11.030000,10.249191,99900
2019-06-27,10.970000,11.090000,10.900000,10.910000,10.137686,72200
2019-06-28,10.990000,11.270000,10.920000,11.240000,10.444326,105400
2019-07-01,11.330000,11.600000,11.280000,11.530000,10.713797,104000
2019-07-02,11.450000,11.680000,11.410000,11.500000,10.685921,118700
2019-07-03,11.500000,11.790000,11.421000,11.700000,10.871761,78800
2019-07-05,11.520000,11.700000,11.330000,11.370000,10.565124,54500
2019-07-08,11.370000,11.450000,11.370000,11.370000,10.565124,83500
2019-07-09,11.320000,11.500000,11.320000,11.370000,10.565124,38000
2019-07-10,11.470000,11.517000,11.370000,11.410000,10.602291,42900
2019-07-11,11.440000,11.490000,11.350000,11.390000,10.583707,41300
2019-07-12,11.390000,11.455000,11.370000,11.390000,10.583707,43500
2019-07-15,11.450000,11.700000,11.400000,11.650000,10.825303,41900
2019-07-16,11.560000,11.699000,11.260000,11.290000,10.490786,98800
2019-07-17,11.290000,11.290000,11.080000,11.140000,10.351405,95500
2019-07-18,11.150000,11.200000,11.020000,11.170000,10.379280,128100
2019-07-19,11.160000,11.220000,11.066000,11.110000,10.323528,65500
2019-07-22,11.110000,11.190000,11.050000,11.090000,10.304945,72000
2019-07-23,11.000000,11.051000,10.840000,10.910000,10.235519,92900
2019-07-24,10.910000,11.010000,10.860000,10.930000,10.254282,82300
2019-07-25,10.920000,11.030000,10.870000,10.910000,10.235519,46800
2019-07-26,10.930000,10.950000,10.750000,10.840000,10.169847,64300
2019-07-29,10.880000,11.167000,10.770000,10.870000,10.197991,55400
2019-07-30,10.830000,10.850000,10.720000,10.750000,10.085411,75600
2019-07-31,10.850000,11.100000,10.760000,10.830000,10.160464,89000
2019-08-01,10.890000,10.900000,10.765000,10.820000,10.151082,36800
2019-08-02,10.770000,10.870000,10.730000,10.770000,10.104174,25700
2019-08-05,10.700000,10.800000,10.560000,10.710000,10.047884,78200
2019-08-06,10.710000,11.250000,10.710000,10.820000,10.151082,103100
2019-08-07,10.750000,10.940000,10.690000,10.700000,10.038502,45300
2019-08-08,10.730000,10.920000,10.730000,10.820000,10.151082,30700
2019-08-09,10.800000,11.110000,10.780000,10.810000,10.141702,54000
2019-08-12,10.820000,10.900000,10.700000,10.880000,10.207373,73600
2019-08-13,10.750000,10.782000,10.500000,10.570000,9.916538,76100
2019-08-14,10.450000,10.570000,10.070000,10.200000,9.569412,134900
2019-08-15,10.160000,10.290000,10.110000,10.260000,9.625704,65400
2019-08-16,10.260000,10.400000,10.010000,10.250000,9.616321,239200
2019-08-19,10.200000,10.350000,10.178000,10.320000,9.681993,94000
2019-08-20,10.290000,10.420000,10.220000,10.380000,9.738285,65800
2019-08-21,10.430000,10.550000,10.310000,10.530000,9.879011,64700
2019-08-22,10.500000,10.510000,10.250000,10.510000,9.960514,63100
2019-08-23,10.520000,10.530000,10.220000,10.350000,9.808881,66600
2019-08-26,10.370000,10.469000,10.180000,10.200000,9.666722,46500
2019-08-27,10.220000,10.251000,9.940000,10.010000,9.486656,64500
2019-08-28,10.080000,10.200000,9.990000,10.070000,9.543518,40000
2019-08-29,10.100000,10.100000,9.980000,10.010000,9.486656,66300
2019-08-30,10.090000,10.100000,10.002000,10.100000,9.571951,45100
2019-09-03,10.120000,10.120000,9.860000,9.950000,9.429792,92100
2019-09-04,9.970000,10.070000,9.900000,9.960000,9.439269,52200
2019-09-05,10.080000,10.080000,9.960000,10.050000,9.524565,39200
2019-09-06,10.010000,10.089000,9.930000,10.010000,9.486656,42700
2019-09-09,10.040000,10.084000,9.960000,10.060000,9.534041,54600
2019-09-10,10.080000,10.100000,9.980000,10.054000,9.528357,66300
2019-09-11,10.050000,10.288000,10.040000,10.210000,9.676199,60100
2019-09-12,10.230000,10.420000,10.150000,10.410000,9.865743,82200
2019-09-13,10.480000,10.600000,10.300000,10.430000,9.884698,76200
2019-09-16,10.390000,10.555000,10.390000,10.500000,9.951039,77700
2019-09-17,10.540000,10.540000,10.230000,10.440000,9.894174,60900
2019-09-18,10.320000,10.419000,10.270000,10.360000,9.818357,78300
2019-09-19,10.355000,10.680000,10.310000,10.680000,10.121627,62000
2019-09-20,10.660000,10.660000,10.279000,10.500000,10.050794,21400
2019-09-23,10.580000,10.619000,10.310000,10.430000,9.983788,39300
2019-09-24,10.400000,10.500000,10.190000,10.290000,9.849776,54200
2019-09-25,10.300000,10.347000,10.220000,10.320000,9.878492,31600
2019-09-26,10.350000,10.420000,10.170000,10.320000,9.878492,77100
2019-09-27,10.330000,10.380000,10.200000,10.280000,9.840205,34700
2019-09-30,10.340000,10.398000,10.070000,10.250000,9.811487,122000
2019-10-01,10.200000,10.290000,10.050000,10.050000,9.620045,79900
2019-10-02,10.040000,10.110000,9.950000,10.010000,9.581756,59700
2019-10-03,9.960000,10.040000,9.920000,10.020000,9.591329,180100
2019-10-04,10.010000,10.080000,9.920000,10.040000,9.610473,160600
2019-10-07,10.000000,10.050000,10.000000,10.030000,9.600900,124500
2019-10-08,10.000000,10.023000,9.950000,9.970000,9.543468,56300
2019-10-09,9.980000,10.036000,9.980000,10.020000,9.591329,46700
2019-10-10,10.000000,10.050000,9.980000,10.020000,9.591329,60900
2019-10-11,10.000000,10.140000,9.970000,10.070000,9.639188,99700
2019-10-14,10.070000,10.120000,10.030000,10.090000,9.658333,28200
2019-10-15,10.040000,10.320000,9.980000,10.180000,9.744482,115600
2019-10-16,10.050000,10.050000,9.340000,9.920000,9.495605,442600
2019-10-17,9.920000,9.920000,9.800000,9.840000,9.419028,71300
2019-10-18,9.890000,9.890000,9.750000,9.800000,9.380739,72000
2019-10-21,9.680000,9.750000,9.610000,9.660000,9.246729,132100
2019-10-22,9.630000,9.840000,9.595000,9.660000,9.246729,77700
2019-10-23,9.540000,9.739000,9.540000,9.720000,9.407391,90700
2019-10-24,9.660000,9.750000,9.600000,9.600000,9.291250,114100
2019-10-25,9.550000,9.619000,9.510000,9.570000,9.262214,152300
2019-10-28,9.500000,9.640000,9.500000,9.520000,9.213824,89400
2019-10-29,9.500000,9.550000,9.400000,9.430000,9.126718,156600
2019-10-30,9.443000,9.590000,9.410000,9.460000,9.155752,98500
2019-10-31,9.530000,9.546000,9.400000,9.450000,9.146074,47000
2019-11-01,9.400000,9.650000,9.360000,9.580000,9.271894,74600
2019-11-04,9.680000,9.740000,9.540000,9.580000,9.271894,110400
2019-11-05,9.510000,9.670000,9.500000,9.510000,9.204144,102100
2019-11-06,9.510000,9.560000,9.420000,9.450000,9.146074,54200
2019-11-07,9.410000,9.474000,9.370000,9.400000,9.097681,62800
2019-11-08,9.400000,9.480000,9.040000,9.110000,8.817009,188000
2019-11-11,9.120000,9.240000,9.060000,9.240000,8.942828,112900
2019-11-12,9.160000,9.270000,9.050000,9.200000,8.904115,112600
2019-11-13,9.200000,9.207000,8.890000,8.980000,8.691190,127000
2019-11-14,8.910000,9.000000,8.900000,8.980000,8.691190,88500
2019-11-15,8.920000,9.000000,8.730000,8.810000,8.526658,170800
2019-11-18,8.780000,8.980000,8.764000,8.830000,8.546014,121200
2019-11-19,8.780000,8.850000,8.670000,8.680000,8.400839,199600
2019-11-20,8.600000,8.641000,8.560000,8.600000,8.426313,100000
2019-11-21,8.650000,8.700000,8.590000,8.650000,8.475303,99000
2019-11-22,8.657000,8.782000,8.620000,8.670000,8.494900,88700
2019-11-25,8.630000,8.746000,8.630000,8.706000,8.530173,90800
2019-11-26,8.630000,8.790000,8.610000,8.620000,8.445909,108800
2019-11-27,8.620000,8.700000,8.610000,8.620000,8.445909,58300
2019-11-29,8.750000,8.890000,8.710000,8.830000,8.651668,75000
2019-12-02,8.790000,8.850000,8.788000,8.800000,8.622274,55900
2019-12-03,8.790000,8.793000,8.630000,8.740000,8.563486,128800
2019-12-04,8.710000,8.790000,8.650000,8.700000,8.524293,138100
2019-12-05,8.670000,8.700000,8.615000,8.680000,8.504698,80300
2019-12-06,8.660000,8.750000,8.660000,8.740000,8.563486,87800
2019-12-09,8.740000,8.830000,8.710000,8.820000,8.641870,112900
2019-12-10,8.760000,9.150000,8.760000,8.990000,8.808436,157900
2019-12-11,8.950000,9.080000,8.940000,9.070000,8.886821,170700
2019-12-12,9.050000,9.110000,8.981000,9.050000,8.867226,259000
2019-12-13,9.090000,9.150000,9.000000,9.040000,8.857427,97000
2019-12-16,9.040000,9.190000,9.040000,9.150000,8.965204,100200
2019-12-17,9.150000,9.490000,9.150000,9.210000,9.023993,239300
2019-12-18,9.160000,9.440000,9.160000,9.350000,9.161166,77000
2019-12-19,9.300000,9.450000,9.300000,9.450000,9.259147,105200
2019-12-20,9.290000,9.510000,9.290000,9.510000,9.423639,116000
2019-12-23,9.500000,9.500000,9.320000,9.460000,9.374093,98300
2019-12-24,9.460000,9.460000,9.370000,9.400000,9.314637,60500
2019-12-26,9.400000,9.450000,9.380000,9.400000,9.314637,117900
2019-12-27,9.410000,9.544000,9.410000,9.500000,9.413730,188600
2019-12-30,9.430000,9.460000,9.290000,9.360000,9.275001,159800
2019-12-31,9.430000,9.432000,9.250000,9.340000,9.255183,140300
2020-01-02,9.410000,9.660000,9.316000,9.470000,9.384003,115900
2020-01-03,9.370000,9.590000,9.358000,9.460000,9.374093,35800
2020-01-06,9.380000,9.510000,9.380000,9.500000,9.413730,220200
2020-01-07,9.450000,9.524000,9.370000,9.430000,9.344366,89300
2020-01-08,9.390000,9.427000,9.340000,9.390000,9.304729,61000
2020-01-09,9.340000,9.400000,9.170000,9.350000,9.265093,107400
2020-01-10,9.300000,9.410000,9.300000,9.400000,9.314637,58900
2020-01-13,9.360000,9.389000,9.300000,9.300000,9.215547,46200
2020-01-14,9.210000,9.420000,9.210000,9.360000,9.275001,38300
2020-01-15,9.300000,9.400000,9.300000,9.400000,9.314637,45600
2020-01-16,9.370000,9.476000,9.370000,9.420000,9.334456,92900
2020-01-17,9.420000,9.448000,9.350000,9.360000,9.275001,65100
2020-01-21,9.270000,9.337000,9.270000,9.270000,9.185819,117100
2020-01-22,9.280000,9.328000,9.240000,9.250000,9.166000,201500
2020-01-23,9.110000,9.270000,9.080000,9.210000,9.210000,240800
2020-01-24,9.220000,9.220000,9.120000,9.120000,9.120000,67300
2020-01-27,9.080000,9.090000,8.930000,8.970000,8.970000,97400
2020-01-28,8.950000,9.050000,8.932000,9.010000,9.010000,52500
2020-01-29,9.090000,9.090000,9.005000,9.060000,9.060000,103000
2020-01-30,9.000000,9.050000,9.000000,9.030000,9.030000,61500
2020-01-31,9.050000,9.055000,8.980000,9.020000,9.020000,84900
2020-02-03,8.980000,9.050000,8.980000,9.050000,9.050000,68100
2020-02-04,9.060000,9.090000,9.028000,9.030000,9.030000,73600
2020-02-05,9.010000,9.070000,9.010000,9.040000,9.040000,76800
2020-02-06,9.030000,9.050000,9.010000,9.020000,9.020000,63900
2020-02-07,8.980000,9.080000,8.830000,8.890000,8.890000,93300
2020-02-10,8.870000,9.080000,8.820000,8.960000,8.960000,80000
2020-02-11,8.920000,8.980000,8.892000,8.940000,8.940000,145100
2020-02-12,8.940000,8.945000,8.910000,8.910000,8.910000,75500
2020-02-13,8.900000,8.926000,8.860000,8.910000,8.910000,71800
