Date,Open,High,Low,Close,Adj Close,Volume
2017-11-30,10.000000,10.100000,10.000000,10.000000,8.822865,564600
2017-12-01,10.010000,10.015000,10.000000,10.000000,8.822865,122600
2017-12-04,10.022000,10.060000,10.022000,10.050000,8.866980,2900
2017-12-05,10.030000,10.030000,10.030000,10.030000,8.849333,1000
2017-12-06,10.030000,10.030000,10.030000,10.030000,8.849333,500
2017-12-07,10.030000,10.030000,10.013000,10.030000,8.849333,12100
2017-12-08,10.060000,10.060000,10.000000,10.000000,8.822865,14000
2017-12-11,10.000000,10.010000,10.000000,10.000000,8.822865,17500
2017-12-12,10.000000,10.010000,10.000000,10.010000,8.831690,4200
2017-12-13,10.000000,10.010000,10.000000,10.002000,8.824630,14500
2017-12-14,10.009000,10.009000,10.000000,10.000000,8.822865,14000
2017-12-15,10.010000,10.010000,10.010000,10.010000,8.831690,4400
2017-12-18,10.010000,10.010000,10.000000,10.000000,8.822865,6100
2017-12-19,10.010000,10.010000,10.000000,10.000000,8.822865,1500
2017-12-20,10.020000,10.020000,10.000000,10.020000,8.840512,2400
2017-12-21,10.020000,10.020000,10.020000,10.020000,8.840512,1200
2017-12-22,10.000000,10.000000,10.000000,10.000000,8.822865,900
2017-12-26,10.065000,10.100000,10.065000,10.070000,8.884626,3700
2017-12-27,10.060000,10.060000,10.060000,10.060000,8.875803,500
2017-12-28,10.120000,10.120000,10.120000,10.120000,8.928737,1000
2017-12-29,10.310000,10.310000,10.310000,10.310000,9.096374,1700
2018-01-02,10.301000,10.330000,10.301000,10.320000,9.105196,1200
2018-01-03,10.080000,10.150000,10.000000,10.000000,8.822865,54500
2018-01-04,10.000000,10.000000,10.000000,10.000000,8.822865,0
2018-01-05,10.000000,10.000000,10.000000,10.000000,8.822865,0
2018-01-08,10.040000,10.049000,10.020000,10.035000,8.853747,6500
2018-01-09,10.030000,10.040000,10.030000,10.034000,8.852865,2500
2018-01-10,10.050000,10.100000,10.030000,10.040000,8.858156,5900
2018-01-11,10.050000,10.050000,10.039000,10.050000,8.866980,3600
2018-01-12,10.050000,10.100000,10.010000,10.050000,8.866980,5800
2018-01-16,10.000000,10.050000,10.000000,10.050000,8.866980,3600
2018-01-17,10.040000,10.050000,10.010000,10.010000,8.831690,6100
2018-01-18,9.980000,10.000000,9.960000,9.990000,8.814041,13800
2018-01-19,9.991000,9.991000,9.939000,9.939000,8.769048,7500
2018-01-22,9.900000,9.921000,9.900000,9.921000,8.753164,500
2018-01-23,9.900000,9.900000,9.850000,9.860000,8.740754,14600
2018-01-24,9.900000,9.900000,9.860000,9.900000,8.776214,10500
2018-01-25,9.900000,9.900000,9.900000,9.900000,8.776214,0
2018-01-26,9.900000,9.900000,9.900000,9.900000,8.776214,0
2018-01-29,9.925000,9.925000,9.870000,9.870000,8.749619,1600
2018-01-30,9.900000,9.900000,9.885000,9.891000,8.768237,4200
2018-01-31,10.050000,10.050000,9.850000,9.860000,8.740754,11000
2018-02-01,9.880000,9.890000,9.770000,9.770000,8.660971,3700
2018-02-02,9.770000,9.770000,9.770000,9.770000,8.660971,0
2018-02-05,9.760000,9.760000,9.360000,9.450000,8.377293,5800
2018-02-06,9.400000,9.481000,9.400000,9.450000,8.377293,2800
2018-02-07,9.450000,9.460000,9.437000,9.440000,8.368427,8000
2018-02-08,9.450000,9.450000,9.380000,9.390000,8.324105,15600
2018-02-09,9.404000,9.529000,9.380000,9.529000,8.447329,17700
2018-02-12,9.475000,9.490000,9.475000,9.490000,8.412757,2900
2018-02-13,9.490000,9.490000,9.490000,9.490000,8.412757,0
2018-02-14,9.360000,9.453000,9.360000,9.430000,8.401173,1900
2018-02-15,9.440000,9.470000,9.420000,9.470000,8.436810,12100
2018-02-16,9.371000,9.399000,9.360000,9.360000,8.338810,9800
2018-02-20,9.410000,9.540000,9.370000,9.530000,8.490260,12200
2018-02-21,9.520000,9.520000,9.490000,9.490000,8.454627,1900
2018-02-22,9.513000,9.513000,9.484000,9.484000,8.449282,5800
2018-02-23,9.418000,9.510000,9.418000,9.510000,8.472447,2500
2018-02-26,9.519000,9.537000,9.400000,9.400000,8.374447,18000
2018-02-27,9.420000,9.422000,9.390000,9.390000,8.365536,3300
2018-02-28,9.430000,9.450000,8.280000,9.150000,8.151721,110100
2018-03-01,9.140000,9.170000,8.995000,9.010000,8.026996,59500
2018-03-02,9.010000,9.220000,9.010000,9.200000,8.196265,62200
2018-03-05,9.220000,9.250000,9.005000,9.090000,8.098267,41200
2018-03-06,9.108000,9.180000,9.108000,9.170000,8.169541,23000
2018-03-07,9.150000,9.150000,9.070000,9.100000,8.107179,86100
2018-03-08,9.119000,9.390000,9.112000,9.270000,8.258629,35800
2018-03-09,9.300000,9.313000,9.281000,9.300000,8.285357,4700
2018-03-12,9.330000,9.330000,9.251000,9.311000,8.295156,20800
2018-03-13,9.289000,9.289000,9.110000,9.140000,8.142814,25300
2018-03-14,9.120000,9.120000,9.070000,9.090000,8.140125,37100
2018-03-15,9.210000,9.250000,9.190000,9.250000,8.283406,13700
2018-03-16,9.230000,9.237000,9.120000,9.120000,8.166991,9700
2018-03-19,9.200000,9.200000,9.175000,9.175000,8.216243,4600
2018-03-20,9.180000,9.199000,9.170000,9.192000,8.231467,9400
2018-03-21,9.177000,9.180000,9.119000,9.149000,8.192958,18300
2018-03-22,9.126000,9.139000,9.080000,9.090000,8.140125,21200
2018-03-23,9.126000,9.139000,9.090000,9.100000,8.149083,7400
2018-03-26,9.150000,9.150000,9.120000,9.120000,8.166991,3900
2018-03-27,9.120000,9.140000,9.120000,9.120000,8.166991,3800
2018-03-28,9.140000,9.160000,9.140000,9.145000,8.189380,2900
2018-03-29,9.200000,9.310000,9.170000,9.194000,8.233259,12300
2018-04-02,9.280000,9.480000,9.280000,9.355000,8.377436,10200
2018-04-03,9.380000,9.600000,9.380000,9.400000,8.417732,27900
2018-04-04,9.400000,9.400000,9.350000,9.350000,8.372958,6000
2018-04-05,9.440000,9.480000,9.420000,9.480000,8.489371,21500
2018-04-06,9.420000,9.465000,9.420000,9.460000,8.471461,6300
2018-04-09,9.440000,9.440000,9.300000,9.350000,8.372958,9300
2018-04-10,9.350000,9.380000,9.250000,9.288000,8.317436,14600
2018-04-11,9.260000,9.330000,9.260000,9.330000,8.355046,9400
2018-04-12,9.330000,9.530000,9.330000,9.350000,8.372958,34300
2018-04-13,9.355000,9.360000,9.330000,9.330000,8.355046,12500
2018-04-16,9.300000,9.300000,9.237000,9.240000,8.316346,36600
2018-04-17,9.260000,9.280000,9.246000,9.259000,8.333444,6900
2018-04-18,9.280000,9.280000,9.200000,9.234000,8.310944,14200
2018-04-19,9.220000,9.220000,9.000000,9.040000,8.136337,45700
2018-04-20,9.040000,9.070000,8.977000,8.980000,8.082332,29600
2018-04-23,9.000000,9.060000,8.880000,8.890000,8.001330,46300
2018-04-24,8.900000,8.950000,8.750000,8.830000,7.947330,98800
2018-04-25,8.827000,8.900000,8.782000,8.900000,8.010334,67800
2018-04-26,8.920000,9.150000,8.920000,9.100000,8.190341,72900
2018-04-27,9.080000,9.088000,9.040000,9.080000,8.172338,16000
2018-04-30,9.100000,9.140000,9.070000,9.140000,8.226342,24200
2018-05-01,9.140000,9.140000,9.130000,9.140000,8.226342,13100
2018-05-02,9.170000,9.170000,9.140000,9.169000,8.252441,6900
2018-05-03,9.142000,9.150000,8.790000,9.090000,8.181340,105500
2018-05-04,9.050000,9.079000,9.050000,9.079000,8.171438,11000
2018-05-07,9.090000,9.130000,9.090000,9.130000,8.217340,37900
2018-05-08,9.130000,9.180000,9.090000,9.100000,8.190341,61600
2018-05-09,9.119000,9.268000,9.112000,9.240000,8.316346,44800
2018-05-10,9.234000,9.270000,9.220000,9.260000,8.334347,28400
2018-05-11,9.250000,9.275000,9.240000,9.240000,8.316346,5900
2018-05-14,9.205000,9.230000,9.110000,9.110000,8.241259,45200
2018-05-15,9.130000,9.169000,9.100000,9.140000,8.268401,54700
2018-05-16,9.140000,9.177000,9.140000,9.170000,8.295539,16200
2018-05-17,9.170000,9.178000,9.070000,9.095000,8.227690,44200
2018-05-18,9.120000,9.140000,9.050000,9.100000,8.232214,61800
2018-05-21,9.190000,9.190000,9.060000,9.090000,8.223168,41300
2018-05-22,9.090000,9.140000,9.090000,9.110000,8.241259,20800
2018-05-23,9.200000,9.200000,9.050000,9.102000,8.234025,60500
2018-05-24,9.110000,9.110000,9.010000,9.070000,8.205074,28100
2018-05-25,9.040000,9.060000,8.950000,9.000000,8.141748,174000
2018-05-29,9.040000,9.050000,8.990000,9.040000,8.177935,72000
2018-05-30,9.000000,9.050000,8.980000,9.050000,8.186982,157000
2018-05-31,9.050000,9.050000,8.950000,9.050000,8.186982,138900
2018-06-01,9.020000,9.060000,9.010000,9.060000,8.196028,23800
2018-06-04,9.060000,9.190000,9.060000,9.140000,8.268401,59300
2018-06-05,9.160000,9.200000,9.160000,9.200000,8.322676,13700
2018-06-06,9.210000,9.220000,9.160000,9.160000,8.286490,61200
2018-06-07,9.160000,9.160000,9.094000,9.100000,8.232214,69600
2018-06-08,9.110000,9.140000,9.100000,9.100000,8.232214,11500
2018-06-11,9.100000,9.130000,9.100000,9.110000,8.241259,5900
2018-06-12,9.110000,9.110000,9.050000,9.050000,8.229442,19600
2018-06-13,9.060000,9.120000,9.060000,9.120000,8.293092,7200
2018-06-14,9.110000,9.220000,9.100000,9.140000,8.311279,36100
2018-06-15,9.180000,9.180000,9.144000,9.160000,8.329463,4500
2018-06-18,9.159000,9.160000,9.120000,9.130000,8.302184,18100
2018-06-19,9.130000,9.140000,9.000000,9.020000,8.202159,59900
2018-06-20,9.010000,9.030000,8.995000,9.005000,8.188519,62300
2018-06-21,9.030000,9.055000,9.013000,9.050000,8.229442,28900
2018-06-22,9.060000,9.090000,9.000000,9.060000,8.238531,44500
2018-06-25,9.050000,9.080000,9.040000,9.080000,8.256719,21800
2018-06-26,9.080000,9.100000,9.080000,9.094000,8.269450,18600
2018-06-27,9.090000,9.120000,9.083000,9.120000,8.293092,24800
2018-06-28,9.130000,9.190000,9.113000,9.190000,8.356745,31300
2018-06-29,9.190000,9.200000,9.150000,9.160000,8.329463,38000
2018-07-02,9.140000,9.170000,9.140000,9.160000,8.329463,39600
2018-07-03,9.180000,9.180000,9.180000,9.180000,8.347651,1000
2018-07-05,9.163000,9.167000,9.140000,9.140000,8.311279,4100
2018-07-06,9.130000,9.340000,9.130000,9.290000,8.447678,39700
2018-07-09,9.240000,9.240000,9.220000,9.240000,8.402211,27500
2018-07-10,9.240000,9.340000,9.234000,9.280000,8.438585,24000
2018-07-11,9.350000,9.350000,9.250000,9.259000,8.419490,10600
2018-07-12,9.260000,9.260000,9.190000,9.238000,8.400393,24800
2018-07-13,9.237000,9.241000,9.204000,9.210000,8.374931,30600
2018-07-16,9.200000,9.352000,9.190000,9.280000,8.481869,21900
2018-07-17,9.270000,9.270000,9.200000,9.200000,8.408749,40400
2018-07-18,9.200000,9.220000,9.190000,9.200000,8.408749,10800
2018-07-19,9.202000,9.230000,9.188000,9.220000,8.427029,14500
2018-07-20,9.220000,9.230000,9.200000,9.220000,8.427029,25200
2018-07-23,9.220000,9.220000,9.195000,9.200000,8.408749,8900
2018-07-24,9.190000,9.220000,9.150000,9.150000,8.363049,41200
2018-07-25,9.170000,9.190000,9.130000,9.140000,8.353911,14500
2018-07-26,9.130000,9.150000,9.130000,9.140000,8.353911,10800
2018-07-27,9.158000,9.190000,9.140000,9.190000,8.399609,22000
2018-07-30,9.190000,9.210000,9.090000,9.160000,8.372189,34800
2018-07-31,9.180000,9.390000,9.150000,9.230000,8.436171,64900
2018-08-01,9.260000,9.330000,9.240000,9.240000,8.445310,30400
2018-08-02,9.261000,9.290000,9.240000,9.280000,8.481869,3000
2018-08-03,9.261000,9.300000,9.261000,9.280000,8.481869,15500
2018-08-06,9.330000,9.330000,9.300000,9.300000,8.500150,7200
2018-08-07,9.330000,9.330000,9.270000,9.330000,8.527569,13600
2018-08-08,9.310000,9.365000,9.300000,9.303000,8.502892,33200
2018-08-09,9.280000,9.310000,9.280000,9.301000,8.501062,4500
2018-08-10,9.320000,9.320000,9.280000,9.287000,8.488266,14500
2018-08-13,9.260000,9.280000,9.260000,9.264000,8.510313,7400
2018-08-14,9.300000,9.358000,9.295000,9.309000,8.551652,64200
2018-08-15,9.330000,9.330000,9.280000,9.297000,8.540630,60400
2018-08-16,9.310000,9.430000,9.310000,9.430000,8.662809,17800
2018-08-17,9.449000,9.500000,9.449000,9.460000,8.690370,31200
2018-08-20,9.500000,9.500000,9.420000,9.460000,8.690370,21600
2018-08-21,9.500000,9.500000,9.360000,9.500000,8.727115,28500
2018-08-22,9.500000,9.720000,9.470000,9.680000,8.892469,36700
2018-08-23,9.680000,9.700000,9.660000,9.700000,8.910842,9600
2018-08-24,9.750000,9.850000,9.686000,9.750000,8.956774,10500
2018-08-27,9.750000,9.750000,9.650000,9.670000,8.883284,11900
2018-08-28,9.670000,9.690000,9.400000,9.450000,8.681182,47700
2018-08-29,9.450000,9.550000,9.450000,9.550000,8.773046,18300
2018-08-30,9.537000,9.550000,9.520000,9.550000,8.773046,900
2018-08-31,9.590000,9.600000,9.565000,9.600000,8.818976,2800
2018-09-04,9.590000,9.640000,9.590000,9.610000,8.828164,9600
2018-09-05,9.600000,9.600000,9.520000,9.520000,8.745488,31700
2018-09-06,9.530000,9.545000,9.388000,9.500000,8.727115,47700
2018-09-07,9.490000,9.500000,9.490000,9.500000,8.727115,1100
2018-09-10,9.490000,9.490000,9.450000,9.450000,8.681182,5400
2018-09-11,9.472000,9.500000,9.391000,9.395000,8.630658,78300
2018-09-12,9.350000,9.412000,9.340000,9.400000,8.635248,74700
2018-09-13,9.380000,9.420000,9.360000,9.411000,8.688797,23400
2018-09-14,9.390000,9.390000,9.340000,9.340000,8.623248,15800
2018-09-17,9.340000,9.370000,9.150000,9.300000,8.586315,45300
2018-09-18,9.280000,9.310000,9.280000,9.290000,8.577082,36700
2018-09-19,9.300000,9.320000,9.300000,9.320000,8.604780,13100
2018-09-20,9.340000,9.370000,9.330000,9.370000,8.650944,12600
2018-09-21,9.350000,9.440000,9.345000,9.400000,8.678642,10400
2018-09-24,9.394000,9.460000,9.380000,9.430000,8.706341,11900
2018-09-25,9.450000,9.600000,9.420000,9.420000,8.697108,26000
2018-09-26,9.480000,9.520000,9.290000,9.290000,8.577082,54600
2018-09-27,9.310000,9.330000,9.250000,9.250000,8.540154,25300
2018-09-28,9.300000,9.300000,9.250000,9.290000,8.577082,15400
2018-10-01,9.330000,9.350000,9.310000,9.350000,8.632481,28500
2018-10-02,9.344000,9.349000,9.310000,9.320000,8.604780,20700
2018-10-03,9.340000,9.370000,9.320000,9.370000,8.650944,17300
2018-10-04,9.350000,9.350000,9.320000,9.348000,8.630633,43700
2018-10-05,9.250000,9.339000,9.250000,9.290000,8.577082,6700
2018-10-08,9.300000,9.320000,9.270000,9.290000,8.577082,5400
2018-10-09,9.300000,9.350000,9.280000,9.350000,8.632481,19600
2018-10-10,9.342000,9.400000,9.320000,9.400000,8.678642,16800
2018-10-11,9.420000,9.470000,9.390000,9.470000,8.743272,8200
2018-10-12,9.470000,9.540000,9.451000,9.540000,8.807899,26300
2018-10-15,9.520000,9.520000,9.460000,9.467000,8.783777,5400
2018-10-16,9.490000,9.510000,9.430000,9.510000,8.823672,15000
2018-10-17,9.510000,9.510000,9.460000,9.500000,8.814394,3700
2018-10-18,9.490000,9.500000,9.390000,9.414000,8.734601,30100
2018-10-19,9.400000,9.411000,9.400000,9.411000,8.731817,2000
2018-10-22,9.400000,9.416000,9.300000,9.300000,8.628827,6200
2018-10-23,9.280000,9.300000,9.250000,9.270000,8.600993,22900
2018-10-24,9.269000,9.280000,9.261000,9.270000,8.600993,12700
2018-10-25,9.260000,9.300000,9.250000,9.290000,8.619549,15600
2018-10-26,9.260000,9.262000,9.220000,9.220000,8.554598,15900
2018-10-29,9.290000,9.290000,9.180000,9.200000,8.536043,29800
2018-10-30,9.180000,9.260000,9.160000,9.260000,8.591716,39600
2018-10-31,9.280000,9.280000,9.210000,9.210000,8.545323,23000
2018-11-01,9.270000,9.307000,9.220000,9.290000,8.619549,23500
2018-11-02,9.302000,9.310000,9.267000,9.290000,8.619549,19300
2018-11-05,9.280000,9.370000,9.280000,9.360000,8.684498,19900
2018-11-06,9.280000,9.410000,9.280000,9.400000,8.721609,9200
2018-11-07,9.370000,9.410000,9.370000,9.380000,8.703054,5500
2018-11-08,9.392000,9.430000,9.392000,9.430000,8.749445,3000
2018-11-09,9.380000,9.380000,9.354000,9.354000,8.722404,1200
2018-11-12,9.270000,9.380000,9.270000,9.360000,8.727999,8500
2018-11-13,9.350000,9.350000,9.270000,9.323000,8.693497,11600
2018-11-14,9.280000,9.285000,9.160000,9.160000,8.541502,46600
2018-11-15,9.180000,9.220000,9.160000,9.160000,8.541502,45500
2018-11-16,9.190000,9.190000,9.130000,9.130000,8.513528,8800
2018-11-19,9.113000,9.139000,9.080000,9.090000,8.476231,47700
2018-11-20,9.090000,9.270000,9.072000,9.270000,8.644074,30300
2018-11-21,9.260000,9.320000,9.260000,9.320000,8.690699,6100
2018-11-23,9.330000,9.351000,9.328000,9.351000,8.719606,3300
2018-11-26,9.330000,9.348000,9.300000,9.300000,8.672050,25900
2018-11-27,9.329000,9.390000,9.310000,9.370000,8.737323,9300
2018-11-28,9.370000,9.397000,9.352000,9.380000,8.746648,14000
2018-11-29,9.400000,9.440000,9.380000,9.440000,8.802599,18000
2018-11-30,9.470000,9.470000,9.310000,9.310000,8.681373,53500
2018-12-03,9.330000,9.411000,9.320000,9.350000,8.718675,29800
2018-12-04,9.470000,9.490000,9.420000,9.420000,8.783949,51200
2018-12-06,9.450000,9.450000,9.360000,9.390000,8.755973,17500
2018-12-07,9.383000,9.500000,9.371000,9.500000,8.858546,26500
2018-12-10,9.470000,9.500000,9.436000,9.500000,8.858546,29400
2018-12-11,9.500000,9.520000,9.480000,9.480000,8.839894,41500
2018-12-12,9.450000,9.520000,9.400000,9.486000,8.845490,22500
2018-12-13,9.450000,9.590000,9.340000,9.500000,8.905485,64800
2018-12-14,9.519000,9.600000,9.485000,9.570000,8.971104,38000
2018-12-17,9.530000,9.530000,9.390000,9.470000,8.877361,43200
2018-12-18,9.461000,9.461000,9.270000,9.350000,8.764874,35500
2018-12-19,9.310000,9.375000,9.010000,9.300000,8.718001,59400
2018-12-20,9.279000,9.410000,9.150000,9.150000,8.577390,33600
2018-12-21,9.141000,9.180000,9.010000,9.040000,8.474273,66400
2018-12-24,9.300000,9.329000,9.170000,9.170000,8.596137,25100
2018-12-26,9.200000,9.215000,9.030000,9.060000,8.493021,47500
2018-12-27,9.130000,9.450000,9.050000,9.450000,8.858613,47400
2018-12-28,9.420000,9.420000,9.070000,9.160000,8.586762,76100
2018-12-31,9.310000,9.310000,8.870000,8.990000,8.427403,118400
2019-01-02,8.880000,9.070000,8.880000,9.010000,8.446149,35600
2019-01-03,9.020000,9.350000,9.020000,9.350000,8.764874,32600
2019-01-04,9.366000,9.370000,9.303000,9.350000,8.764874,10000
2019-01-07,9.340000,9.400000,9.331000,9.400000,8.811743,28400
2019-01-08,9.430000,9.440000,9.350000,9.400000,8.811743,17700
2019-01-09,9.440000,9.450000,9.380000,9.400000,8.811743,38300
2019-01-10,9.430000,9.440000,9.375000,9.420000,8.830490,20900
2019-01-11,9.410000,9.500000,9.363000,9.500000,8.905485,12300
2019-01-14,9.530000,9.550000,9.500000,9.550000,8.952356,7300
2019-01-15,9.540000,9.990000,9.250000,9.385000,8.841196,72800
2019-01-16,9.370000,9.430000,9.320000,9.430000,8.883585,33500
2019-01-17,9.429000,9.490000,9.350000,9.430000,8.883585,21200
2019-01-18,9.420000,9.420000,9.380000,9.380000,8.836482,13700
2019-01-22,9.360000,9.450000,9.360000,9.450000,8.902426,11500
2019-01-23,9.430000,9.500000,9.430000,9.500000,8.949530,17300
2019-01-24,9.453000,9.460000,9.393000,9.411000,8.865687,8300
2019-01-25,9.410000,9.500000,9.400000,9.471000,8.922212,65100
2019-01-28,9.470000,9.490000,9.451000,9.490000,8.940108,20500
2019-01-29,9.490000,9.500000,9.370000,9.445000,8.897717,24000
2019-01-30,9.480000,9.480000,9.400000,9.470000,8.921268,21200
2019-01-31,9.490000,9.500000,9.460000,9.460000,8.911849,24500
2019-02-01,9.500000,9.640000,9.490000,9.640000,9.081418,24700
2019-02-04,9.640000,9.660000,9.571000,9.571000,9.016416,29700
2019-02-05,9.593000,9.593000,9.470000,9.510000,8.958950,15000
2019-02-06,9.526000,9.590000,9.510000,9.510000,8.958950,15400
2019-02-07,9.521000,9.565000,9.470000,9.500000,8.949530,10800
2019-02-08,9.560000,9.580000,9.470000,9.500000,8.949530,15300
2019-02-11,9.545000,9.710000,9.510000,9.710000,9.147361,24600
2019-02-12,9.680000,9.842000,9.650000,9.842000,9.316810,34200
2019-02-13,9.750000,9.750000,9.460000,9.550000,9.040392,46500
2019-02-14,9.559000,9.610000,9.555000,9.610000,9.097187,10100
2019-02-15,9.614000,9.630000,9.580000,9.580000,9.068790,20800
2019-02-19,9.650000,9.700000,9.590000,9.630000,9.116121,43300
2019-02-20,9.690000,9.750000,9.660000,9.745000,9.224986,21000
2019-02-21,9.750000,9.810000,9.730000,9.730000,9.210786,44200
2019-02-22,9.740000,9.760000,9.590000,9.760000,9.239187,36400
2019-02-25,9.733000,9.740000,9.650000,9.700000,9.182386,6600
2019-02-26,9.690000,9.770000,9.530000,9.530000,9.021459,70900
2019-02-27,9.580000,9.580000,9.550000,9.560000,9.049858,13800
2019-02-28,9.570000,9.590000,9.509000,9.590000,9.078258,96500
2019-03-01,9.540000,9.650000,9.510000,9.630000,9.116121,32200
2019-03-04,9.631000,9.680000,9.561000,9.670000,9.153987,56400
2019-03-05,9.660000,9.830000,9.641000,9.830000,9.305449,38500
2019-03-06,9.850000,9.904000,9.830000,9.850000,9.324383,38700
2019-03-07,9.890000,9.900000,9.840000,9.899000,9.370768,25600
2019-03-08,9.845000,9.880000,9.832000,9.870000,9.343316,6500
2019-03-11,9.860000,9.990000,9.860000,9.990000,9.456912,26600
2019-03-12,9.951000,9.980000,9.940000,9.940000,9.454059,10100
2019-03-13,9.931000,9.931000,9.750000,9.800000,9.320903,20400
2019-03-14,9.970000,9.970000,9.850000,9.850000,9.368460,6000
2019-03-15,9.860000,9.900000,9.820000,9.820000,9.339927,10300
2019-03-18,9.800000,9.830000,9.690000,9.730000,9.254325,18800
2019-03-19,9.739000,9.800000,9.700000,9.720000,9.244814,34400
2019-03-20,9.740000,9.750000,9.700000,9.705000,9.230547,11900
2019-03-21,9.727000,9.770000,9.727000,9.730000,9.254325,13400
2019-03-22,9.790000,9.790000,9.760000,9.760000,9.282860,19700
2019-03-25,9.710000,9.740000,9.676000,9.700000,9.225791,10000
2019-03-26,9.720000,10.000000,9.720000,9.940000,9.454059,58700
2019-03-27,9.950000,9.950000,9.900000,9.920000,9.435038,7500
2019-03-28,9.904000,9.904000,9.816000,9.850000,9.368460,11500
2019-03-29,9.920000,9.920000,9.891000,9.891000,9.407456,7400
2019-04-01,9.913000,10.000000,9.913000,10.000000,9.511126,15400
2019-04-02,9.990000,9.990000,9.880000,9.899000,9.415063,18300
2019-04-03,9.884000,9.950000,9.884000,9.900000,9.416015,19000
2019-04-04,9.990000,9.990000,9.870000,9.920000,9.435038,12100
2019-04-05,9.900000,9.920000,9.820000,9.890000,9.406503,11100
2019-04-08,9.914000,9.920000,9.900000,9.920000,9.435038,8100
2019-04-09,9.820000,9.950000,9.820000,9.900000,9.416015,27100
2019-04-10,9.960000,9.990000,9.900000,9.925000,9.439794,19000
2019-04-11,9.882000,9.990000,9.882000,9.968000,9.525800,31200
2019-04-12,9.930000,9.980000,9.930000,9.974000,9.531534,3400
2019-04-15,9.970000,9.970000,9.950000,9.950000,9.508599,4300
2019-04-16,9.920000,9.944000,9.900000,9.900000,9.460815,5700
2019-04-17,9.929000,9.990000,9.929000,9.980000,9.537267,19300
2019-04-18,9.968000,9.990000,9.900000,9.900000,9.460815,22800
2019-04-22,9.900000,9.943000,9.900000,9.910000,9.470371,8000
2019-04-23,9.980000,10.100000,9.850000,9.876000,9.437881,14300
2019-04-24,9.875000,9.950000,9.875000,9.920000,9.479930,8200
2019-04-25,9.930000,9.960000,9.850000,9.960000,9.518156,69500
2019-04-26,9.950000,10.000000,9.950000,10.000000,9.556380,3400
2019-04-29,10.000000,10.000000,9.910000,9.910000,9.470371,12000
2019-04-30,9.970000,9.970000,9.945000,9.960000,9.518156,2400
2019-05-01,9.972000,10.080000,9.960000,10.080000,9.632832,15100
2019-05-02,9.980000,10.000000,9.980000,10.000000,9.556380,2600
2019-05-03,9.950000,9.983000,9.950000,9.960000,9.518156,3600
2019-05-06,9.967000,10.070000,9.967000,10.070000,9.623275,2500
2019-05-07,10.000000,10.040000,9.996000,10.023000,9.578360,8400
2019-05-08,10.080000,10.080000,9.985000,10.080000,9.632832,1900
2019-05-09,10.075000,10.204000,10.075000,10.100000,9.651943,14400
2019-05-10,10.092000,10.100000,10.079000,10.079000,9.631877,12100
2019-05-13,10.099000,10.130000,10.019000,10.060000,9.613720,8800
2019-05-14,10.001000,10.030000,9.981000,9.991000,9.592597,7000
2019-05-15,9.980000,10.000000,9.970000,9.980000,9.582034,4900
2019-05-16,9.980000,10.000000,9.820000,9.820000,9.428415,44400
2019-05-17,9.870000,9.910000,9.857000,9.880000,9.486024,39400
2019-05-20,9.880000,9.880000,9.850000,9.850000,9.457220,13300
2019-05-21,9.860000,9.950000,9.820000,9.860000,9.466820,14300
2019-05-22,9.890000,9.970000,9.877000,9.920000,9.524427,38200
2019-05-23,9.901000,9.990000,9.900000,9.990000,9.591636,10200
2019-05-24,10.000000,10.190000,9.940000,10.100000,9.697250,30400
2019-05-28,10.184000,10.190000,10.111000,10.125000,9.721252,9100
2019-05-29,10.150000,10.150000,10.020000,10.049000,9.648282,16600
2019-05-30,10.021000,10.060000,10.021000,10.060000,9.658846,12100
2019-05-31,10.060000,10.060000,9.980000,10.010000,9.610837,15800
2019-06-03,9.960000,10.060000,9.960000,10.060000,9.658846,12700
2019-06-04,10.060000,10.060000,9.990000,10.020000,9.620440,46600
2019-06-05,10.050000,10.360000,10.050000,10.220000,9.812464,46200
2019-06-06,10.270000,10.280000,10.180000,10.190000,9.783661,21800
2019-06-07,10.220000,10.220000,10.100000,10.140000,9.735655,17700
2019-06-10,10.136000,10.155000,10.090000,10.130000,9.726054,7000
2019-06-11,10.170000,12.300000,10.100000,12.300000,11.809522,25500
2019-06-12,10.600000,10.600000,10.100000,10.200000,9.793261,19300
2019-06-13,10.190000,10.300000,10.180000,10.300000,9.935055,24900
2019-06-14,10.350000,10.371000,10.200000,10.360000,9.992928,24200
2019-06-17,10.380000,10.420000,10.070000,10.080000,9.722849,41800
2019-06-18,10.140000,10.250000,10.100000,10.100000,9.742141,18900
2019-06-19,10.140000,10.140000,10.055000,10.070000,9.713202,48200
2019-06-20,10.140000,10.210000,10.140000,10.145000,9.785548,20700
2019-06-21,10.165000,10.170000,10.150000,10.157000,9.797120,8200
2019-06-24,10.190000,10.200000,10.150000,10.200000,9.838596,1200
2019-06-25,10.200000,10.210000,10.167000,10.209000,9.847279,19100
2019-06-26,10.250000,10.250000,10.100000,10.177000,9.816413,24100
2019-06-27,10.190000,10.214000,10.120000,10.120000,9.761432,18200
2019-06-28,10.190000,10.190000,10.120000,10.160000,9.800014,15200
2019-07-01,10.190000,10.400000,10.100000,10.350000,9.983283,80700
2019-07-02,10.340000,10.499000,10.340000,10.366000,9.998716,55000
2019-07-03,10.490000,10.490000,10.380000,10.380000,10.012218,12000
2019-07-05,10.300000,10.321000,10.200000,10.200000,9.838596,28800
2019-07-08,10.220000,10.250000,10.116000,10.140000,9.780724,26100
2019-07-09,10.150000,10.190000,10.150000,10.190000,9.828949,2400
2019-07-10,10.202000,10.260000,10.202000,10.260000,9.896472,7500
2019-07-11,10.350000,10.350000,10.300000,10.300000,9.935055,43700
2019-07-12,10.250000,10.300000,10.250000,10.281000,9.916727,10600
2019-07-15,10.400000,10.400000,10.180000,10.180000,9.819306,21100
2019-07-16,10.200000,10.250000,10.200000,10.204000,9.888108,9100
2019-07-17,10.200000,10.210000,10.179000,10.180000,9.864852,37500
2019-07-18,10.200000,10.220000,10.170000,10.200000,9.884232,11600
2019-07-19,10.200000,10.242000,10.200000,10.219000,9.902644,7800
2019-07-22,10.212000,10.244000,10.190000,10.190000,9.874539,14400
2019-07-23,10.280000,10.340000,10.190000,10.300000,9.981136,27800
2019-07-24,10.350000,10.360000,10.200000,10.200000,9.884232,10200
2019-07-25,10.290000,10.309000,10.215000,10.309000,9.989858,7600
2019-07-26,10.340000,10.390000,10.230000,10.230000,9.913302,14400
2019-07-29,10.340000,10.380000,10.230000,10.250000,9.932683,19300
2019-07-30,10.271000,10.280000,10.160000,10.200000,9.884232,68700
2019-07-31,10.210000,10.236000,10.200000,10.210000,9.893923,6700
2019-08-01,10.250000,10.250000,10.186000,10.230000,9.913302,6900
2019-08-02,10.250000,10.290000,10.180000,10.240000,9.922993,28100
2019-08-05,10.280000,10.341000,10.250000,10.341000,10.020866,31500
2019-08-06,10.330000,10.400000,10.260000,10.380000,10.058659,23400
2019-08-07,10.290000,10.360000,10.290000,10.330000,10.010207,3900
2019-08-08,10.320000,10.350000,10.300000,10.300000,9.981136,10700
2019-08-09,10.300000,10.390000,10.300000,10.370000,10.048968,3200
2019-08-12,10.310000,10.400000,10.310000,10.350000,10.029589,18100
2019-08-13,10.380000,10.400000,10.280000,10.320000,10.046137,19200
2019-08-14,10.340000,10.400000,10.306000,10.400000,10.124014,8500
2019-08-15,10.400000,10.450000,10.369000,10.390000,10.114279,27400
2019-08-16,10.480000,10.480000,10.369000,10.450000,10.172686,9600
2019-08-19,10.560000,10.560000,10.327000,10.400000,10.124014,11700
2019-08-20,10.450000,10.450000,10.350000,10.350000,10.075340,16200
2019-08-21,10.400000,10.430000,10.320000,10.320000,10.046137,16300
2019-08-22,10.400000,10.400000,10.300000,10.350000,10.075340,5500
2019-08-23,10.400000,10.400000,10.321000,10.400000,10.124014,2400
2019-08-26,10.400000,10.400000,10.220000,10.250000,9.977994,10900
2019-08-27,10.250000,10.300000,10.250000,10.270000,9.997464,14600
2019-08-28,10.320000,10.320000,10.200000,10.230000,9.958526,45800
2019-08-29,10.330000,10.440000,10.251000,10.380000,10.104545,40700
2019-08-30,10.400000,10.400000,10.330000,10.330000,10.055872,11200
2019-09-03,10.390000,10.390000,10.270000,10.350000,10.075340,24600
2019-09-04,10.350000,10.400000,10.310000,10.400000,10.124014,47000
2019-09-05,10.350000,10.600000,10.350000,10.600000,10.318707,70100
2019-09-06,10.450000,10.450000,10.300000,10.300000,10.026669,29200
2019-09-09,10.360000,10.380000,10.310000,10.350000,10.075340,11300
2019-09-10,10.372000,10.440000,10.350000,10.350000,10.075340,11600
2019-09-11,10.340000,10.340000,10.300000,10.300000,10.026669,8300
2019-09-12,10.340000,10.427000,10.300000,10.427000,10.150297,57500
2019-09-13,10.440000,10.440000,10.370000,10.370000,10.094810,15500
2019-09-16,10.440000,10.440000,10.320000,10.360000,10.085076,2500
2019-09-17,10.380000,10.390000,10.310000,10.310000,10.082142,9100
2019-09-18,10.330000,10.330000,10.270000,10.295000,10.067473,15800
2019-09-19,10.330000,10.360000,10.270000,10.270000,10.043026,28400
2019-09-20,10.420000,10.420000,10.271000,10.310000,10.082142,6300
2019-09-23,10.410000,10.440000,10.310000,10.310000,10.082142,16400
2019-09-24,10.350000,10.420000,10.320000,10.320000,10.091921,31900
2019-09-25,10.340000,10.350000,10.290000,10.310000,10.082142,20400
2019-09-26,10.310000,10.400000,10.310000,10.370000,10.140815,7900
2019-09-27,10.400000,10.448000,10.360000,10.440000,10.209268,8000
2019-09-30,10.430000,10.440000,10.310000,10.400000,10.170152,12900
2019-10-01,10.389000,10.440000,10.378000,10.440000,10.209268,9600
2019-10-02,10.440000,10.440000,10.360000,10.400000,10.170152,11400
2019-10-03,10.330000,10.420000,10.270000,10.420000,10.189711,18400
2019-10-04,10.410000,10.420000,10.350000,10.420000,10.189711,7700
2019-10-07,10.340000,10.410000,10.340000,10.400000,10.170152,3900
2019-10-08,10.440000,10.440000,10.310000,10.330000,10.101700,20800
2019-10-09,10.400000,10.430000,10.400000,10.410000,10.179932,9100
2019-10-10,10.440000,10.450000,10.400000,10.403000,10.173086,9000
2019-10-11,10.440000,10.440000,10.400000,10.405000,10.175041,9100
2019-10-14,10.364000,10.390000,10.330000,10.367000,10.137881,13300
2019-10-15,10.430000,10.430000,10.395000,10.430000,10.245941,36100
2019-10-16,10.410000,10.540000,10.400000,10.460000,10.275411,31000
2019-10-17,10.443000,10.443000,10.340000,10.420000,10.236116,34200
2019-10-18,10.430000,10.450000,10.399000,10.450000,10.265587,4300
2019-10-21,10.440000,10.440000,10.380000,10.430000,10.245941,7200
2019-10-22,10.430000,10.520000,10.430000,10.501000,10.315688,40500
2019-10-23,10.480000,10.550000,10.430000,10.440000,10.255763,30100
2019-10-24,10.466000,10.520000,10.370000,10.440000,10.255763,29900
2019-10-25,10.420000,10.450000,10.390000,10.400000,10.216470,18800
2019-10-28,10.380000,10.400000,10.370000,10.390000,10.206647,13300
2019-10-29,10.400000,10.400000,10.370000,10.391000,10.207629,16500
2019-10-30,10.450000,10.515000,10.400000,10.500000,10.314706,22100
2019-10-31,10.400000,10.470000,10.370000,10.370000,10.186998,50200
2019-11-01,10.400000,10.400000,10.360000,10.400000,10.216470,36600
2019-11-04,10.400000,10.428000,10.400000,10.400000,10.216470,7700
2019-11-05,10.400000,10.500000,10.400000,10.500000,10.314706,27000
2019-11-06,10.550000,10.550000,10.450000,10.480000,10.295058,74600
2019-11-07,10.410000,10.700000,10.410000,10.680000,10.491529,67500
2019-11-08,10.650000,10.700000,10.450000,10.520000,10.334352,60000
2019-11-11,10.520000,10.520000,10.420000,10.440000,10.255763,12600
2019-11-12,10.410000,10.449000,10.310000,10.338000,10.201491,77000
2019-11-13,10.355000,10.440000,10.330000,10.410000,10.272540,15600
2019-11-14,10.430000,10.430000,10.380000,10.380000,10.242936,5300
2019-11-15,10.400000,10.450000,10.400000,10.425000,10.287343,9000
2019-11-18,10.410000,10.490000,10.410000,10.450000,10.312012,5800
2019-11-19,10.466000,10.480000,10.430000,10.450000,10.312012,24200
2019-11-20,10.436000,10.490000,10.420000,10.420000,10.282408,8400
2019-11-21,10.408000,10.450000,10.408000,10.445000,10.307077,6200
2019-11-22,10.440000,10.510000,10.410000,10.500000,10.361352,16100
2019-11-25,10.490000,10.500000,10.461000,10.500000,10.361352,4800
2019-11-26,10.484000,10.500000,10.440000,10.440000,10.302142,4400
2019-11-27,10.450000,10.480000,10.450000,10.480000,10.341616,9100
2019-11-29,10.490000,10.500000,10.475000,10.490000,10.351483,1700
2019-12-02,10.500000,10.520000,10.460000,10.520000,10.381088,12000
2019-12-03,10.450000,10.499000,10.430000,10.450000,10.312012,32600
2019-12-04,10.463000,10.463000,10.429000,10.435000,10.297210,27600
2019-12-05,10.430000,10.431000,10.400000,10.431000,10.293262,12900
2019-12-06,10.420000,10.476000,10.400000,10.476000,10.337668,16700
2019-12-09,10.480000,10.520000,10.473000,10.520000,10.381088,25100
2019-12-10,10.520000,10.520000,10.480000,10.490000,10.351483,8800
2019-12-11,10.500000,10.500000,10.450000,10.460000,10.321879,17000
2019-12-12,10.400000,10.510000,10.360000,10.500000,10.408118,45900
2019-12-13,10.459000,10.570000,10.450000,10.501000,10.409110,55300
2019-12-16,10.600000,10.600000,10.423000,10.550000,10.457682,22400
2019-12-17,10.537000,10.537000,10.410000,10.465000,10.373425,8100
2019-12-18,10.520000,10.520000,10.420000,10.420000,10.328818,10300
2019-12-19,10.430000,10.480000,10.400000,10.440000,10.348642,10300
2019-12-20,10.474000,10.474000,10.300000,10.300000,10.209869,112400
2019-12-23,10.310000,10.430000,10.300000,10.430000,10.338731,41500
2019-12-24,10.430000,10.440000,10.430000,10.440000,10.348642,5800
2019-12-26,10.420000,10.440000,10.409000,10.440000,10.348642,12200
2019-12-27,10.440000,10.440000,10.420000,10.440000,10.348642,18000
2019-12-30,10.440000,10.440000,10.420000,10.430000,10.338731,20600
2019-12-31,10.440000,10.440000,10.400000,10.431000,10.339722,11700
2020-01-02,10.440000,10.440000,10.400000,10.430000,10.338731,21100
2020-01-03,10.420000,10.460000,10.420000,10.460000,10.368468,13100
2020-01-06,10.470000,10.530000,10.470000,10.530000,10.437855,5100
2020-01-07,10.540000,10.631000,10.510000,10.572000,10.479488,68600
2020-01-08,10.567000,10.567000,10.527000,10.527000,10.434882,1600
2020-01-09,10.540000,10.540000,10.518000,10.536000,10.443804,10600
2020-01-10,10.540000,10.570000,10.535000,10.566000,10.473541,22400
2020-01-13,10.582000,10.640000,10.570000,10.595000,10.502287,12400
2020-01-14,10.490000,10.700000,10.485000,10.670000,10.623758,12400
2020-01-15,10.590000,10.700000,10.508000,10.670000,10.623758,40000
2020-01-16,10.660000,10.700000,10.540000,10.550000,10.504279,21700
2020-01-17,10.540000,10.690000,10.540000,10.650000,10.603845,12300
2020-01-21,10.690000,10.690000,10.570000,10.660000,10.613802,8100
2020-01-22,10.634000,10.700000,10.634000,10.700000,10.653628,1200
2020-01-23,10.700000,10.700000,10.619000,10.680000,10.633716,29300
2020-01-24,10.740000,10.740000,10.620000,10.650000,10.603845,4900
2020-01-27,10.650000,10.699000,10.650000,10.690000,10.643671,14100
2020-01-28,10.640000,10.652000,10.620000,10.620000,10.573975,23800
2020-01-29,10.700000,10.700000,10.620000,10.660000,10.613802,4500
2020-01-30,10.670000,10.677000,10.650000,10.650000,10.603845,7500
2020-01-31,10.680000,10.700000,10.598000,10.670000,10.623758,37100
2020-02-03,10.630000,10.710000,10.630000,10.690000,10.643671,19300
2020-02-04,10.690000,10.755000,10.675000,10.755000,10.708390,5000
2020-02-05,10.779000,10.890000,10.766000,10.820000,10.773108,17900
2020-02-06,10.940000,10.940000,10.792000,10.800000,10.753195,13300
2020-02-07,10.800000,10.800000,10.800000,10.800000,10.753195,0
2020-02-10,10.820000,10.860000,10.820000,10.855000,10.807956,3600
2020-02-11,10.800000,10.980000,10.780000,10.980000,10.932414,8000
2020-02-12,10.960000,10.960000,10.845000,10.845000,10.798000,8600
2020-02-13,10.730000,10.750000,10.630000,10.630000,10.630000,19300
