Date,Open,High,Low,Close,Adj Close,Volume
2016-11-16,9.040000,9.900000,9.000000,9.900000,9.900000,2600
2016-11-17,9.020000,15.790000,9.020000,15.314000,15.314000,7400
2016-11-18,14.340000,14.340000,13.000000,13.950000,13.950000,700
2016-11-21,14.060000,14.060000,14.060000,14.060000,14.060000,200
2016-11-22,15.460000,15.460000,15.460000,15.460000,15.460000,100
2016-11-23,16.059999,16.110001,15.890000,16.000000,16.000000,1100
2016-11-25,16.000000,16.000000,16.000000,16.000000,16.000000,0
2016-11-28,15.484000,15.870000,15.484000,15.870000,15.870000,700
2016-11-29,15.870000,15.870000,15.870000,15.870000,15.870000,0
2016-11-30,15.490000,15.490000,15.000000,15.000000,15.000000,1500
2016-12-01,14.350000,16.690001,12.565000,12.950000,12.950000,382700
2016-12-02,12.850000,12.900000,11.030000,11.580000,11.580000,329600
2016-12-05,11.280000,11.280000,10.360000,10.640000,10.640000,325483
2016-12-06,10.660000,12.270000,10.660000,12.000000,12.000000,216100
2016-12-07,12.000000,12.930000,11.990000,12.520000,12.520000,194600
2016-12-08,12.710000,14.450000,12.710000,13.540000,13.540000,351500
2016-12-09,13.900000,14.440000,13.824000,14.360000,14.360000,192200
2016-12-12,14.610000,15.000000,14.407000,14.880000,14.880000,224400
2016-12-13,14.880000,15.000000,14.181000,14.240000,14.240000,229900
2016-12-14,14.210000,14.530000,13.525000,13.820000,13.820000,182000
2016-12-15,13.790000,14.170000,13.600000,13.720000,13.720000,197300
2016-12-16,13.770000,14.210000,13.720000,14.040000,14.040000,494500
2016-12-19,13.990000,14.260000,13.830000,13.950000,13.950000,105500
2016-12-20,13.970000,14.070000,13.550000,13.690000,13.690000,94200
2016-12-21,13.600000,13.790000,13.070000,13.300000,13.300000,121400
2016-12-22,13.370000,13.370000,12.590000,13.010000,13.010000,84700
2016-12-23,13.310000,14.100000,13.310000,14.000000,14.000000,390400
2016-12-27,14.100000,14.340000,13.724000,13.900000,13.900000,288400
2016-12-28,14.000000,14.050000,13.770000,13.930000,13.930000,174700
2016-12-29,14.010000,14.060000,13.800000,13.850000,13.850000,64100
2016-12-30,13.840000,14.090000,13.750000,14.040000,14.040000,109000
2017-01-03,14.140000,14.850000,14.140000,14.390000,14.390000,317900
2017-01-04,14.450000,15.010000,14.450000,14.800000,14.800000,337500
2017-01-05,15.020000,15.100000,14.730000,15.030000,15.030000,463500
2017-01-06,15.070000,15.390000,14.820000,15.330000,15.330000,172500
2017-01-09,15.330000,16.139999,15.050000,15.890000,15.890000,91500
2017-01-10,15.980000,16.180000,15.660000,15.840000,15.840000,153300
2017-01-11,15.900000,16.094999,15.210000,15.750000,15.750000,120600
2017-01-12,15.740000,16.000000,15.730000,15.870000,15.870000,181500
2017-01-13,15.900000,16.129999,15.820000,15.970000,15.970000,74100
2017-01-17,16.110001,16.600000,15.895000,16.559999,16.559999,101100
2017-01-18,16.600000,17.340000,16.469999,17.040001,17.040001,155800
2017-01-19,17.100000,17.350000,16.959999,17.070000,17.070000,144500
2017-01-20,17.080000,17.299999,16.641001,17.170000,17.170000,92200
2017-01-23,17.160000,17.299999,17.030001,17.090000,17.090000,106900
2017-01-24,17.190001,17.980000,17.190001,17.940001,17.940001,85100
2017-01-25,17.950001,18.167999,17.950001,18.110001,18.110001,76400
2017-01-26,18.049999,18.090000,17.799999,17.980000,17.980000,138400
2017-01-27,17.959999,18.230000,17.940001,18.100000,18.100000,138900
2017-01-30,17.980000,18.230000,17.745001,17.780001,17.780001,228100
2017-01-31,17.700001,17.860001,17.260000,17.379999,17.379999,92400
2017-02-01,17.570000,17.719999,17.231001,17.459999,17.459999,80800
2017-02-02,17.500000,17.500000,17.070000,17.090000,17.090000,99600
2017-02-03,17.209999,17.440001,17.049999,17.400000,17.400000,70200
2017-02-06,17.400000,17.709999,17.379999,17.400000,17.400000,90300
2017-02-07,17.490000,17.629999,17.110001,17.280001,17.280001,151400
2017-02-08,17.190001,17.700001,16.820000,17.580000,17.580000,352500
2017-02-09,17.660000,17.879999,17.650000,17.799999,17.799999,88600
2017-02-10,17.799999,18.000000,17.730000,17.790001,17.790001,112300
2017-02-13,17.860001,18.000000,17.750000,17.969999,17.969999,115800
2017-02-14,17.940001,18.320000,17.940001,18.209999,18.209999,94500
2017-02-15,18.330000,18.360001,18.120001,18.250000,18.250000,97000
2017-02-16,18.219999,18.440001,18.180000,18.309999,18.309999,118800
2017-02-17,18.430000,18.590000,18.309999,18.510000,18.510000,91700
2017-02-21,18.600000,18.700001,18.520000,18.670000,18.670000,83900
2017-02-22,18.709999,18.770000,18.520000,18.770000,18.770000,110700
2017-02-23,18.780001,19.030001,18.709999,18.870001,18.870001,87900
2017-02-24,18.690001,19.299999,18.639999,19.090000,19.090000,109100
2017-02-27,19.090000,19.350000,19.000000,19.059999,19.059999,816200
2017-02-28,18.969999,19.100000,18.680000,18.750000,18.750000,317900
2017-03-01,18.760000,19.020000,18.629999,18.700001,18.700001,434700
2017-03-02,18.700001,18.900000,18.660000,18.799999,18.799999,157100
2017-03-03,18.850000,18.980000,18.670000,18.700001,18.700001,83700
2017-03-06,18.719999,18.990000,18.559999,18.760000,18.760000,224200
2017-03-07,18.930000,18.990000,18.049999,18.450001,18.450001,280100
2017-03-08,18.490000,18.670000,18.280001,18.280001,18.280001,78000
2017-03-09,18.379999,18.490000,18.129999,18.299999,18.299999,83900
2017-03-10,18.459999,18.545000,18.360001,18.480000,18.480000,115600
2017-03-13,18.570000,18.850000,18.570000,18.760000,18.760000,632000
2017-03-14,18.650000,18.879999,18.530001,18.570000,18.570000,285200
2017-03-15,18.580000,18.870001,18.559999,18.870001,18.870001,323700
2017-03-16,18.950001,19.035000,18.820000,18.969999,18.969999,168300
2017-03-17,18.889999,19.190001,18.680000,18.900000,18.900000,706900
2017-03-20,18.879999,19.195000,18.879999,19.059999,19.059999,108300
2017-03-21,19.100000,19.750000,19.049999,19.690001,19.690001,194500
2017-03-22,19.610001,19.870001,19.480000,19.850000,19.850000,104000
2017-03-23,19.830000,19.950001,19.480000,19.840000,19.840000,92300
2017-03-24,19.850000,19.959999,19.750000,19.850000,19.850000,57400
2017-03-27,19.670000,19.889999,19.350000,19.840000,19.840000,98900
2017-03-28,19.830000,20.450001,19.690001,20.410000,20.410000,211800
2017-03-29,19.010000,19.525000,18.270000,19.129999,19.129999,482800
2017-03-30,19.020000,19.230000,18.895000,19.209999,19.209999,138500
2017-03-31,19.180000,19.209999,18.889999,19.120001,19.120001,144700
2017-04-03,19.100000,19.230000,18.750000,19.170000,19.170000,212300
2017-04-04,19.150000,19.200001,18.575001,18.820000,18.820000,240200
2017-04-05,18.730000,19.000000,18.639999,18.719999,18.719999,206800
2017-04-06,18.700001,19.010000,18.660000,18.980000,18.980000,153500
2017-04-07,19.020000,19.020000,18.770000,18.860001,18.860001,100200
2017-04-10,18.770000,19.350000,18.770000,19.170000,19.170000,102900
2017-04-11,19.170000,19.355000,19.120001,19.200001,19.200001,122300
2017-04-12,19.129999,19.129999,18.770000,18.799999,18.799999,72700
2017-04-13,18.680000,18.820000,18.450001,18.629999,18.629999,72900
2017-04-17,18.700001,19.020000,18.700001,18.879999,18.879999,69100
2017-04-18,18.799999,19.115000,18.709999,19.000000,19.000000,367100
2017-04-19,18.980000,19.080000,18.879999,18.950001,18.950001,67300
2017-04-20,18.950001,19.570000,18.850000,18.990000,18.990000,255400
2017-04-21,18.920000,19.200001,18.900000,19.139999,19.139999,135100
2017-04-24,19.250000,19.299999,19.100000,19.190001,19.190001,114800
2017-04-25,19.320000,19.600000,19.219999,19.410000,19.410000,122700
2017-04-26,19.340000,19.639999,19.340000,19.570000,19.570000,92700
2017-04-27,19.559999,19.600000,19.500000,19.540001,19.540001,45800
2017-04-28,19.600000,19.600000,19.309999,19.330000,19.330000,109200
2017-05-01,19.450001,19.540001,19.420000,19.480000,19.480000,51500
2017-05-02,19.480000,20.010000,19.480000,19.750000,19.750000,100600
2017-05-03,19.650000,19.870001,19.540001,19.629999,19.629999,52800
2017-05-04,19.629999,20.040001,19.629999,19.820000,19.820000,148700
2017-05-05,19.850000,20.020000,19.759001,19.950001,19.950001,68800
2017-05-08,19.870001,20.049999,19.730000,19.790001,19.790001,54300
2017-05-09,19.809999,20.030001,19.670000,19.870001,19.870001,110500
2017-05-10,20.500000,21.844999,20.500000,21.110001,21.110001,255400
2017-05-11,20.950001,21.115000,20.639999,21.000000,21.000000,59300
2017-05-12,21.020000,21.260000,20.400000,20.430000,20.430000,40500
2017-05-15,20.549999,20.670000,19.959999,19.959999,19.959999,64700
2017-05-16,20.010000,20.480000,19.940001,19.980000,19.980000,110900
2017-05-17,19.930000,20.500000,19.469999,20.389999,20.389999,108100
2017-05-18,20.389999,20.844999,20.389999,20.639999,20.639999,117200
2017-05-19,20.540001,21.000000,20.540001,20.920000,20.920000,88300
2017-05-22,20.840000,20.879999,20.480000,20.660000,20.660000,94900
2017-05-23,20.580000,20.580000,20.299999,20.320000,20.320000,52300
2017-05-24,20.309999,20.580000,20.000000,20.100000,20.100000,45100
2017-05-25,20.080000,20.270000,20.080000,20.180000,20.180000,74100
2017-05-26,20.080000,20.639999,20.080000,20.559999,20.559999,93300
2017-05-30,20.440001,20.440001,19.959999,19.969999,19.969999,119500
2017-05-31,20.000000,20.000000,19.690001,19.780001,19.780001,178000
2017-06-01,19.700001,20.020000,19.575001,19.799999,19.799999,87700
2017-06-02,19.820000,19.940001,19.690001,19.850000,19.850000,95100
2017-06-05,19.770000,19.930000,19.690001,19.860001,19.860001,53200
2017-06-06,19.790001,19.990000,19.350000,19.870001,19.870001,105300
2017-06-07,19.920000,20.090000,19.698000,20.000000,20.000000,92900
2017-06-08,19.879999,20.150000,19.730000,20.030001,20.030001,83600
2017-06-09,19.990000,20.049999,19.730000,19.830000,19.830000,146400
2017-06-12,19.879999,20.250000,19.879999,19.950001,19.950001,132200
2017-06-13,20.430000,20.889999,20.000000,20.559999,20.559999,215300
2017-06-14,20.450001,20.700001,20.049999,20.129999,20.129999,362600
2017-06-15,19.990000,20.250000,19.254999,19.600000,19.600000,440600
2017-06-16,19.430000,20.070000,19.430000,19.889999,19.889999,365400
2017-06-19,19.940001,20.549999,19.785000,20.450001,20.450001,223000
2017-06-20,20.309999,20.905001,20.309999,20.580000,20.580000,161800
2017-06-21,20.580000,20.870001,20.200001,20.420000,20.420000,145300
2017-06-22,20.450001,20.650000,20.309999,20.450001,20.450001,81500
2017-06-23,20.510000,20.950001,20.370001,20.889999,20.889999,1558200
2017-06-26,20.870001,21.510000,20.670000,21.160000,21.160000,211400
2017-06-27,21.270000,21.500000,21.070000,21.240000,21.240000,144800
2017-06-28,21.360001,21.480000,21.190001,21.280001,21.280001,116500
2017-06-29,21.350000,21.639999,21.000000,21.620001,21.620001,142400
2017-06-30,21.750000,21.950001,21.570000,21.670000,21.670000,162800
2017-07-03,21.690001,21.980000,21.690001,21.889999,21.889999,113300
2017-07-05,21.850000,22.110001,21.790001,22.100000,22.100000,193900
2017-07-06,22.080000,22.080000,21.709999,21.780001,21.780001,107600
2017-07-07,21.860001,21.860001,21.370001,21.600000,21.600000,159600
2017-07-10,21.709999,21.750000,21.430000,21.510000,21.510000,151400
2017-07-11,21.520000,22.020000,21.370001,21.980000,21.980000,159400
2017-07-12,22.160000,22.575001,22.150000,22.350000,22.350000,161700
2017-07-13,22.299999,22.540001,22.250000,22.330000,22.330000,122300
2017-07-14,22.400000,22.400000,22.080000,22.100000,22.100000,67300
2017-07-17,22.020000,22.485001,21.889999,22.190001,22.190001,208400
2017-07-18,22.129999,22.430000,21.934999,22.200001,22.200001,236200
2017-07-19,22.290001,22.795000,22.290001,22.510000,22.510000,335300
2017-07-20,22.389999,22.930000,22.389999,22.650000,22.650000,114300
2017-07-21,22.950001,23.430000,22.680000,22.730000,22.730000,383400
2017-07-24,22.780001,22.959999,22.440001,22.629999,22.629999,193700
2017-07-25,22.799999,23.049999,22.690001,23.020000,23.020000,322200
2017-07-26,23.059999,23.139999,22.889999,22.900000,22.900000,141000
2017-07-27,22.889999,23.129999,22.770000,22.959999,22.959999,161100
2017-07-28,22.870001,23.344999,22.490000,22.490000,22.490000,158500
2017-07-31,22.490000,23.030001,22.430000,22.809999,22.809999,147600
2017-08-01,22.920000,22.950001,22.740000,22.820000,22.820000,113000
2017-08-02,22.840000,22.879999,22.299999,22.480000,22.480000,145100
2017-08-03,22.559999,22.799999,22.299999,22.420000,22.420000,187600
2017-08-04,22.420000,22.580000,22.340000,22.450001,22.450001,119000
2017-08-07,22.379999,22.580000,22.139999,22.209999,22.209999,128600
2017-08-08,22.250000,22.430000,21.955000,22.020000,22.020000,272900
2017-08-09,21.000000,22.764999,20.450001,21.490000,21.490000,283500
2017-08-10,21.459999,21.705000,21.170000,21.340000,21.340000,155800
2017-08-11,21.180000,21.670000,20.600000,20.990000,20.990000,321300
2017-08-14,21.030001,21.270000,20.600000,20.670000,20.670000,110500
2017-08-15,20.600000,20.600000,19.379999,19.379999,19.379999,161300
2017-08-16,19.370001,19.799999,19.309999,19.510000,19.510000,136600
2017-08-17,19.379999,19.410000,18.540001,18.549999,18.549999,183300
2017-08-18,18.379999,18.870001,18.330000,18.750000,18.750000,140900
2017-08-21,18.780001,18.780001,17.980000,18.180000,18.180000,105900
2017-08-22,18.299999,18.420000,18.110001,18.240000,18.240000,84500
2017-08-23,18.150000,18.540001,18.059999,18.400000,18.400000,165000
2017-08-24,18.410000,19.170000,18.299999,18.770000,18.770000,391100
2017-08-25,18.809999,19.090000,18.500000,18.809999,18.809999,109000
2017-08-28,18.830000,18.985001,18.139999,18.250000,18.250000,260600
2017-08-29,18.290001,18.930000,18.120001,18.870001,18.870001,190000
2017-08-30,18.809999,18.885000,18.260000,18.320000,18.320000,160200
2017-08-31,18.440001,18.549999,18.209999,18.440001,18.440001,141600
2017-09-01,18.379999,18.520000,18.260000,18.420000,18.420000,75500
2017-09-05,18.450001,18.549999,18.070000,18.420000,18.420000,338300
2017-09-06,18.430000,18.745001,18.170000,18.230000,18.230000,189600
2017-09-07,18.260000,18.530001,17.969999,18.129999,18.129999,150800
2017-09-08,18.100000,18.200001,17.830000,17.990000,17.990000,229900
2017-09-11,18.100000,18.320000,17.980000,18.100000,18.100000,149400
2017-09-12,18.200001,18.584999,18.090000,18.400000,18.400000,135700
2017-09-13,18.410000,18.410000,18.129999,18.200001,18.200001,150700
2017-09-14,18.200001,18.415001,18.160000,18.299999,18.299999,158500
2017-09-15,18.360001,18.410000,18.170000,18.290001,18.290001,307700
2017-09-18,18.290001,18.639999,18.200001,18.600000,18.600000,166300
2017-09-19,18.559999,19.150000,18.520000,18.830000,18.830000,251400
2017-09-20,18.799999,20.315001,18.799999,19.639999,19.639999,272400
2017-09-21,19.559999,19.900000,19.250000,19.270000,19.270000,140900
2017-09-22,19.219999,19.990000,19.219999,19.920000,19.920000,156100
2017-09-25,19.950001,20.785000,19.950001,20.250000,20.250000,213900
2017-09-26,20.219999,20.389999,19.799999,19.850000,19.850000,136800
2017-09-27,19.860001,20.230000,19.590000,20.100000,20.100000,117100
2017-09-28,20.080000,20.080000,19.580000,19.680000,19.680000,98800
2017-09-29,19.820000,19.940001,19.520000,19.700001,19.700001,332000
2017-10-02,19.820000,20.139999,19.570000,19.910000,19.910000,110800
2017-10-03,19.900000,20.320000,19.830000,20.160000,20.160000,108300
2017-10-04,20.240000,20.650000,19.719999,19.900000,19.900000,184800
2017-10-05,19.940001,20.320000,19.879999,20.299999,20.299999,108200
2017-10-06,20.170000,20.410000,20.120001,20.190001,20.190001,53400
2017-10-09,20.309999,20.680000,20.209999,20.360001,20.360001,156500
2017-10-10,20.530001,20.650000,20.120001,20.260000,20.260000,75500
2017-10-11,20.360001,20.629999,20.240000,20.410000,20.410000,62400
2017-10-12,20.410000,20.580000,20.150000,20.340000,20.340000,99200
2017-10-13,20.469999,20.600000,20.280001,20.379999,20.379999,203500
2017-10-16,20.530001,21.020000,20.379999,20.480000,20.480000,118000
2017-10-17,20.530001,20.924999,20.400000,20.600000,20.600000,118600
2017-10-18,20.600000,20.600000,19.820000,20.260000,20.260000,746400
2017-10-19,20.070000,20.385000,19.840000,20.209999,20.209999,129300
2017-10-20,20.379999,20.530001,20.040001,20.160000,20.160000,133500
2017-10-23,20.180000,20.240000,19.830000,19.850000,19.850000,79100
2017-10-24,19.840000,20.100000,19.730000,19.760000,19.760000,86100
2017-10-25,19.750000,19.959999,19.423000,19.840000,19.840000,125100
2017-10-26,19.889999,20.170000,19.818001,19.840000,19.840000,111000
2017-10-27,19.740000,20.190001,19.719999,20.090000,20.090000,138800
2017-10-30,20.000000,20.209999,19.725000,20.010000,20.010000,186900
2017-10-31,20.120001,20.270000,19.940001,20.139999,20.139999,148800
2017-11-01,20.340000,20.600000,19.990000,20.240000,20.240000,166000
2017-11-02,20.200001,20.440001,20.100000,20.309999,20.309999,184200
2017-11-03,20.410000,21.000000,20.240000,20.719999,20.719999,194600
2017-11-06,20.690001,20.730000,20.350000,20.459999,20.459999,139200
2017-11-07,20.450001,20.549999,19.730000,20.190001,20.190001,157300
2017-11-08,20.070000,20.930000,19.940001,20.879999,20.879999,159100
2017-11-09,19.000000,20.110001,18.730000,19.299999,19.299999,320800
2017-11-10,19.120001,19.230000,18.639999,18.980000,18.980000,294400
2017-11-13,18.850000,19.010000,18.360001,18.370001,18.370001,231400
2017-11-14,18.230000,18.260000,17.440001,17.500000,17.500000,294900
2017-11-15,17.330000,17.330000,16.809999,17.010000,17.010000,567000
2017-11-16,17.000000,17.395000,16.959999,17.160000,17.160000,276100
2017-11-17,17.100000,17.350000,16.969999,17.170000,17.170000,126300
2017-11-20,17.219999,17.299999,16.990000,17.240000,17.240000,182000
2017-11-21,17.370001,17.520000,17.100000,17.200001,17.200001,168700
2017-11-22,17.209999,17.655001,17.170000,17.250000,17.250000,105500
2017-11-24,17.340000,17.469999,17.230000,17.400000,17.400000,73100
2017-11-27,17.469999,17.475000,16.959999,17.020000,17.020000,308100
2017-11-28,16.990000,17.260000,16.940001,17.219999,17.219999,212300
2017-11-29,17.209999,17.450001,16.690001,16.889999,16.889999,230400
2017-11-30,16.930000,17.170000,16.420000,16.990000,16.990000,378100
2017-12-01,17.020000,17.200001,16.370001,16.750000,16.750000,215200
2017-12-04,16.879999,17.250000,16.879999,17.129999,17.129999,205600
2017-12-05,17.170000,17.260000,16.889999,16.920000,16.920000,241600
2017-12-06,16.959999,17.110001,16.549999,16.680000,16.680000,206000
2017-12-07,16.629999,16.990000,16.570000,16.700001,16.700001,266600
2017-12-08,16.750000,16.969999,16.559999,16.719999,16.719999,173400
2017-12-11,16.670000,17.030001,16.639999,16.770000,16.770000,211700
2017-12-12,16.860001,17.330000,16.799999,17.070000,17.070000,170400
2017-12-13,17.030001,17.330000,17.010000,17.110001,17.110001,132400
2017-12-14,17.020000,17.250000,16.959999,17.049999,17.049999,127100
2017-12-15,17.150000,18.120001,17.150000,17.850000,17.850000,379300
2017-12-18,17.820000,18.500000,17.790001,17.809999,17.809999,199200
2017-12-19,17.889999,18.205000,17.270000,17.309999,17.309999,155400
2017-12-20,17.440001,17.629999,17.280001,17.379999,17.379999,159400
2017-12-21,17.459999,19.090000,17.459999,18.830000,18.830000,320400
2017-12-22,18.809999,20.510000,18.809999,19.530001,19.530001,448500
2017-12-26,19.500000,19.500000,18.719999,18.870001,18.870001,105300
2017-12-27,18.850000,18.940001,18.520000,18.610001,18.610001,80300
2017-12-28,18.600000,18.750000,18.510000,18.660000,18.660000,76800
2017-12-29,18.639999,18.858999,18.320000,18.459999,18.459999,99400
2018-01-02,18.440001,19.120001,18.440001,19.120001,19.120001,232800
2018-01-03,19.200001,19.209999,18.719999,19.000000,19.000000,101500
2018-01-04,19.120001,19.290001,18.959999,19.200001,19.200001,149200
2018-01-05,19.230000,19.250000,18.770000,18.840000,18.840000,142800
2018-01-08,18.760000,18.760000,18.010000,18.059999,18.059999,223300
2018-01-09,18.120001,18.250000,17.860001,18.200001,18.200001,213500
2018-01-10,18.290001,18.500000,18.250000,18.389999,18.389999,87300
2018-01-11,18.450001,19.000000,18.379999,18.719999,18.719999,68700
2018-01-12,18.830000,18.930000,18.559999,18.700001,18.700001,73400
2018-01-16,19.150000,19.930000,18.799999,18.930000,18.930000,284300
2018-01-17,18.870001,19.000000,18.129999,18.570000,18.570000,234000
2018-01-18,18.950001,18.950001,18.320000,18.420000,18.420000,203800
2018-01-19,18.299999,18.590000,18.209999,18.469999,18.469999,180900
2018-01-22,18.480000,18.549999,18.010000,18.250000,18.250000,126900
2018-01-23,18.299999,18.530001,18.049999,18.190001,18.190001,130500
2018-01-24,18.309999,18.469999,18.070000,18.070000,18.070000,152100
2018-01-25,18.110001,18.110001,17.709999,17.820000,17.820000,192700
2018-01-26,17.889999,17.889999,17.430000,17.549999,17.549999,157300
2018-01-29,17.510000,17.570000,17.010000,17.200001,17.200001,330400
2018-01-30,17.120001,17.275000,16.770000,16.990000,16.990000,211000
2018-01-31,17.000000,17.049999,16.400000,16.690001,16.690001,321400
2018-02-01,16.629999,17.010000,16.480000,16.650000,16.650000,260300
2018-02-02,16.559999,16.930000,16.500000,16.629999,16.629999,195300
2018-02-05,16.480000,16.920000,16.000000,16.020000,16.020000,297600
2018-02-06,15.790000,16.520000,15.685000,16.260000,16.260000,250100
2018-02-07,16.170000,16.410000,16.120001,16.219999,16.219999,143100
2018-02-08,16.209999,16.264999,15.600000,15.670000,15.670000,221500
2018-02-09,15.900000,15.900000,15.230000,15.700000,15.700000,209800
2018-02-12,15.790000,16.110001,15.740000,16.000000,16.000000,166000
2018-02-13,15.910000,16.139999,15.850000,16.059999,16.059999,153400
2018-02-14,15.900000,16.330000,15.870000,16.260000,16.260000,102900
2018-02-15,16.270000,17.070000,16.270000,16.860001,16.860001,237600
2018-02-16,16.750000,16.985001,16.459999,16.780001,16.780001,88900
2018-02-20,16.750000,17.090000,16.680000,16.680000,16.680000,188900
2018-02-21,16.750000,17.235001,16.750000,16.879999,16.879999,134000
2018-02-22,16.820000,17.090000,16.629999,16.670000,16.670000,109000
2018-02-23,16.760000,16.799999,16.270000,16.430000,16.430000,100100
2018-02-26,16.450001,16.670000,16.309999,16.580000,16.580000,88800
2018-02-27,16.620001,16.780001,16.570000,16.620001,16.620001,81700
2018-02-28,16.660000,16.700001,16.250000,16.270000,16.270000,201900
2018-03-01,16.209999,16.450001,16.145000,16.260000,16.260000,149400
2018-03-02,16.129999,16.690001,16.129999,16.680000,16.680000,100300
2018-03-05,16.580000,17.459999,16.580000,17.370001,17.370001,221100
2018-03-06,17.360001,17.500000,16.900000,17.450001,17.450001,157600
2018-03-07,17.000000,17.650000,16.770000,16.850000,16.850000,188800
2018-03-08,16.850000,17.620001,16.799999,17.570000,17.570000,147500
2018-03-09,17.650000,18.670000,17.385000,18.549999,18.549999,263500
2018-03-12,18.610001,19.250000,18.200001,19.209999,19.209999,407500
2018-03-13,19.330000,19.440001,18.930000,18.990000,18.990000,84900
2018-03-14,19.110001,19.285000,18.600000,18.700001,18.700001,95000
2018-03-15,18.719999,19.080000,17.719999,18.100000,18.100000,836100
2018-03-16,18.180000,19.129999,17.709999,19.059999,19.059999,329700
2018-03-19,18.920000,18.920000,18.330000,18.780001,18.780001,149600
2018-03-20,18.740000,19.110001,18.200001,18.240000,18.240000,151400
2018-03-21,18.120001,18.870001,18.030001,18.639999,18.639999,94200
2018-03-22,18.450001,18.885000,17.840000,17.920000,17.920000,257900
2018-03-23,18.030001,18.600000,18.030001,18.070000,18.070000,189100
2018-03-26,18.330000,18.629999,18.150000,18.200001,18.200001,162500
2018-03-27,18.309999,18.600000,17.780001,17.830000,17.830000,128200
2018-03-28,17.840000,17.889999,17.264999,17.370001,17.370001,116600
2018-03-29,17.430000,17.830000,17.340000,17.600000,17.600000,134800
2018-04-02,17.629999,17.990000,16.889999,17.090000,17.090000,83600
2018-04-03,17.120001,17.350000,16.900000,17.120001,17.120001,131700
2018-04-04,16.950001,17.500000,16.840000,17.459999,17.459999,122400
2018-04-05,17.500000,18.280001,17.500000,18.180000,18.180000,174200
2018-04-06,18.000000,18.570000,18.000000,18.410000,18.410000,146400
2018-04-09,18.490000,18.705000,18.270000,18.450001,18.450001,110200
2018-04-10,18.709999,19.120001,18.559999,19.059999,19.059999,177900
2018-04-11,19.020000,19.790001,19.020000,19.639999,19.639999,154000
2018-04-12,19.660000,19.900000,19.660000,19.830000,19.830000,64100
2018-04-13,19.889999,19.910000,19.760000,19.900000,19.900000,113500
2018-04-16,19.950001,20.030001,19.680000,19.969999,19.969999,69300
2018-04-17,20.020000,20.360001,19.879999,20.080000,20.080000,114600
2018-04-18,20.209999,20.440001,20.100000,20.389999,20.389999,133900
2018-04-19,20.379999,20.730000,20.240000,20.330000,20.330000,94600
2018-04-20,20.639999,20.860001,20.450001,20.760000,20.760000,123500
2018-04-23,20.840000,21.049999,20.754999,20.879999,20.879999,137400
2018-04-24,20.900000,21.075001,20.790001,20.959999,20.959999,129900
2018-04-25,20.900000,20.980000,20.660000,20.780001,20.780001,92800
2018-04-26,20.790001,21.010000,20.620001,20.660000,20.660000,90100
2018-04-27,20.809999,20.860001,19.950001,20.040001,20.040001,84000
2018-04-30,20.070000,20.270000,19.820000,20.129999,20.129999,98100
2018-05-01,20.100000,20.100000,19.690001,19.910000,19.910000,56100
2018-05-02,19.889999,20.405001,19.889999,20.350000,20.350000,128800
2018-05-03,20.209999,20.389999,19.959999,20.120001,20.120001,153800
2018-05-04,19.420000,20.070000,18.777000,19.350000,19.350000,222500
2018-05-07,19.410000,19.830000,19.270000,19.590000,19.590000,124300
2018-05-08,19.670000,20.070000,19.610001,19.980000,19.980000,107900
2018-05-09,20.049999,20.410000,19.860001,19.870001,19.870001,87500
2018-05-10,19.980000,19.980000,19.379999,19.540001,19.540001,135700
2018-05-11,19.549999,19.780001,19.549999,19.750000,19.750000,92600
2018-05-14,19.879999,19.900000,19.600000,19.620001,19.620001,70000
2018-05-15,19.600000,19.639999,19.000000,19.030001,19.030001,87600
2018-05-16,19.150000,19.200001,18.980000,19.150000,19.150000,134100
2018-05-17,19.170000,19.440001,18.719999,18.760000,18.760000,83800
2018-05-18,18.840000,18.950001,18.290001,18.389999,18.389999,77800
2018-05-21,18.459999,19.260000,18.400000,19.240000,19.240000,115900
2018-05-22,19.260000,19.760000,19.115000,19.700001,19.700001,150900
2018-05-23,19.639999,19.870001,19.420000,19.690001,19.690001,237900
2018-05-24,19.559999,19.600000,18.820000,18.879999,18.879999,130500
2018-05-25,18.809999,18.889999,18.290001,18.620001,18.620001,98300
2018-05-29,18.430000,19.480000,18.430000,19.379999,19.379999,114900
2018-05-30,19.400000,20.430000,19.389999,20.350000,20.350000,186000
2018-05-31,20.430000,20.940001,20.065001,20.900000,20.900000,249400
2018-06-01,20.959999,21.500000,20.379999,20.440001,20.440001,150500
2018-06-04,20.340000,20.620001,19.865000,19.959999,19.959999,96300
2018-06-05,20.180000,20.230000,19.629999,19.760000,19.760000,248100
2018-06-06,19.840000,20.620001,19.830000,20.549999,20.549999,330300
2018-06-07,20.670000,21.170000,20.650000,21.110001,21.110001,90800
2018-06-08,21.150000,21.570000,20.940001,21.500000,21.500000,141100
2018-06-11,21.459999,21.830000,21.299999,21.790001,21.790001,242600
2018-06-12,21.799999,21.799999,21.180000,21.510000,21.510000,328100
2018-06-13,21.480000,21.480000,20.382999,20.420000,20.420000,156200
2018-06-14,20.420000,20.549999,19.799999,20.040001,20.040001,124400
2018-06-15,19.990000,20.040001,19.100000,19.700001,19.700001,302700
2018-06-18,19.700001,21.320000,19.700001,20.760000,20.760000,207200
2018-06-19,20.580000,21.340000,20.475000,21.219999,21.219999,235200
2018-06-20,21.309999,21.740000,21.309999,21.540001,21.540001,186500
2018-06-21,21.610001,21.719999,21.415001,21.610001,21.610001,172100
2018-06-22,21.799999,24.120001,21.799999,23.740000,23.740000,1540500
2018-06-25,23.770000,24.500000,23.180000,24.410000,24.410000,291700
2018-06-26,24.430000,24.475000,23.850000,24.360001,24.360001,174900
2018-06-27,24.340000,24.780001,23.620001,24.110001,24.110001,204900
2018-06-28,24.190001,24.370001,23.820000,23.889999,23.889999,236700
2018-06-29,23.889999,24.030001,23.049999,23.139999,23.139999,103200
2018-07-02,23.040001,23.450001,22.840000,23.270000,23.270000,73300
2018-07-03,23.049999,23.740000,23.049999,23.469999,23.469999,63400
2018-07-05,23.580000,23.719999,23.379999,23.570000,23.570000,71800
2018-07-06,23.660000,23.740000,23.370001,23.650000,23.650000,74500
2018-07-09,23.700001,23.820000,23.570000,23.740000,23.740000,121600
2018-07-10,23.790001,24.090000,23.684999,23.959999,23.959999,272600
2018-07-11,23.790001,24.150000,22.670000,22.709999,22.709999,138100
2018-07-12,22.750000,23.070000,22.030001,22.260000,22.260000,106200
2018-07-13,22.180000,22.430000,21.780001,21.830000,21.830000,60600
2018-07-16,21.719999,21.719999,20.750000,21.320000,21.320000,111100
2018-07-17,21.320000,21.610001,21.270000,21.410000,21.410000,104000
2018-07-18,21.340000,21.709999,21.200001,21.540001,21.540001,75800
2018-07-19,21.530001,22.080000,21.500000,21.620001,21.620001,87900
2018-07-20,21.709999,21.709999,21.230000,21.459999,21.459999,128500
2018-07-23,21.570000,21.639999,21.010000,21.040001,21.040001,108100
2018-07-24,20.990000,21.280001,20.790001,20.879999,20.879999,92400
2018-07-25,20.910000,21.580000,20.735001,21.540001,21.540001,107800
2018-07-26,21.520000,22.410000,21.469999,22.389999,22.389999,113300
2018-07-27,22.350000,22.379999,21.780001,21.809999,21.809999,101900
2018-07-30,21.809999,22.049999,21.540001,21.549999,21.549999,79400
2018-07-31,21.600000,22.340000,21.600000,21.770000,21.770000,95800
2018-08-01,21.690001,21.740000,21.209999,21.620001,21.620001,61900
2018-08-02,21.510000,22.120001,21.320000,22.059999,22.059999,75700
2018-08-03,22.100000,22.309999,21.340000,21.520000,21.520000,69700
2018-08-06,21.530001,21.620001,21.299999,21.530001,21.530001,52100
2018-08-07,21.680000,21.825001,21.190001,21.420000,21.420000,68000
2018-08-08,21.340000,22.500000,20.916000,21.070000,21.070000,102900
2018-08-09,21.059999,21.410000,20.510000,20.520000,20.520000,54800
2018-08-10,20.350000,20.879999,20.230000,20.750000,20.750000,79600
2018-08-13,20.730000,20.750000,20.170000,20.260000,20.260000,48900
2018-08-14,20.209999,20.420000,19.879999,19.980000,19.980000,46000
2018-08-15,19.860001,19.980000,19.250000,19.660000,19.660000,96500
2018-08-16,19.730000,19.750000,19.280001,19.410000,19.410000,97300
2018-08-17,19.469999,19.809999,19.190001,19.370001,19.370001,131900
2018-08-20,19.459999,19.900000,19.230000,19.870001,19.870001,69900
2018-08-21,19.900000,20.480000,19.893000,20.370001,20.370001,59900
2018-08-22,20.459999,20.995001,20.459999,20.950001,20.950001,103400
2018-08-23,20.990000,21.250000,20.750000,20.860001,20.860001,79200
2018-08-24,20.969999,21.170000,20.690001,21.120001,21.120001,62000
2018-08-27,21.170000,21.370001,20.840000,20.969999,20.969999,61300
2018-08-28,20.930000,21.240000,20.870001,21.100000,21.100000,36300
2018-08-29,21.139999,21.340000,20.950001,21.040001,21.040001,52300
2018-08-30,21.049999,21.250000,20.885000,21.230000,21.230000,44400
2018-08-31,21.049999,21.062000,20.190001,20.520000,20.520000,70000
2018-09-04,20.559999,20.559999,19.610001,19.660000,19.660000,96800
2018-09-05,19.600000,19.600000,18.889999,18.990000,18.990000,217000
2018-09-06,18.990000,19.010000,18.160000,18.200001,18.200001,111700
2018-09-07,18.120001,18.660000,18.073999,18.610001,18.610001,74400
2018-09-10,18.730000,19.100000,18.730000,19.000000,19.000000,104900
2018-09-11,18.959999,19.100000,18.844999,18.900000,18.900000,147800
2018-09-12,18.860001,19.000000,18.549999,18.780001,18.780001,215200
2018-09-13,18.879999,19.049999,18.500000,18.540001,18.540001,63800
2018-09-14,18.500000,18.650000,18.150000,18.209999,18.209999,276700
2018-09-17,18.250000,18.500000,18.100000,18.160000,18.160000,83800
2018-09-18,18.209999,18.750000,18.209999,18.690001,18.690001,89700
2018-09-19,18.620001,19.600000,18.559999,19.430000,19.430000,128700
2018-09-20,19.600000,19.750000,19.379999,19.490000,19.490000,81500
2018-09-21,19.500000,20.219999,19.434999,20.150000,20.150000,247300
2018-09-24,20.139999,20.709999,19.790001,19.940001,19.940001,120800
2018-09-25,21.799999,21.799999,20.379999,20.469999,20.469999,136200
2018-09-26,20.570000,20.570000,19.469999,19.530001,19.530001,102400
2018-09-27,19.510000,19.770000,19.250000,19.629999,19.629999,64500
2018-09-28,19.590000,20.030001,19.410000,20.020000,20.020000,83500
2018-10-01,20.639999,21.790001,20.549999,21.549999,21.549999,207300
2018-10-02,21.719999,22.360001,21.620001,21.900000,21.900000,236100
2018-10-03,21.980000,22.280001,21.775000,22.110001,22.110001,168400
2018-10-04,22.010000,22.230000,21.459999,21.520000,21.520000,74400
2018-10-05,21.379999,21.490000,21.090000,21.430000,21.430000,63100
2018-10-08,21.430000,21.620001,21.188000,21.559999,21.559999,53300
2018-10-09,21.559999,22.000000,21.559999,21.910000,21.910000,74200
2018-10-10,21.840000,22.000000,21.160000,21.180000,21.180000,118500
2018-10-11,20.980000,21.115000,20.480000,20.530001,20.530001,103400
2018-10-12,20.870001,21.326000,20.350000,20.570000,20.570000,77800
2018-10-15,20.570000,20.969999,20.350000,20.840000,20.840000,66400
2018-10-16,21.010000,21.620001,20.760000,21.440001,21.440001,84100
2018-10-17,21.430000,21.750000,21.049999,21.639999,21.639999,64800
2018-10-18,21.490000,21.820000,21.030001,21.040001,21.040001,54500
2018-10-19,21.250000,21.590000,20.975000,21.510000,21.510000,153600
2018-10-22,21.389999,21.424999,21.049999,21.270000,21.270000,88100
2018-10-23,20.900000,21.110001,20.379999,21.020000,21.020000,98700
2018-10-24,21.120001,21.120001,19.740000,19.770000,19.770000,71000
2018-10-25,19.930000,20.478001,19.750000,19.790001,19.790001,84600
2018-10-26,19.700001,20.559999,19.639999,20.440001,20.440001,96700
2018-10-29,20.799999,22.170000,20.780001,21.670000,21.670000,221400
2018-10-30,21.750000,21.990000,21.320000,21.750000,21.750000,103100
2018-10-31,21.750000,21.750000,21.420000,21.510000,21.510000,85400
2018-11-01,21.660000,22.200001,21.510000,21.750000,21.750000,248700
2018-11-02,21.750000,22.340000,21.620001,21.750000,21.750000,201800
2018-11-05,21.750000,21.850000,21.549999,21.740000,21.740000,124300
2018-11-06,21.700001,22.280001,21.629999,22.270000,22.270000,286600
2018-11-07,21.100000,21.209999,19.469999,19.610001,19.610001,301900
2018-11-08,19.600000,19.600000,18.665001,18.809999,18.809999,193500
2018-11-09,18.500000,18.500000,17.530001,17.790001,17.790001,212000
2018-11-12,17.709999,17.740000,17.330000,17.410000,17.410000,130300
2018-11-13,17.549999,17.910000,16.959999,17.090000,17.090000,132600
2018-11-14,17.230000,17.490000,16.950001,17.219999,17.219999,96900
2018-11-15,17.160000,17.459999,17.090000,17.400000,17.400000,66100
2018-11-16,17.260000,17.480000,16.889999,17.059999,17.059999,155200
2018-11-19,16.959999,17.209999,16.495001,16.680000,16.680000,104800
2018-11-20,16.500000,16.500000,15.610000,16.100000,16.100000,427800
2018-11-21,16.200001,17.190001,16.100000,16.889999,16.889999,157300
2018-11-23,16.690001,17.350000,16.629999,17.170000,17.170000,51700
2018-11-26,17.330000,17.480000,17.090000,17.440001,17.440001,122500
2018-11-27,17.420000,19.209999,17.420000,19.190001,19.190001,97700
2018-11-28,19.180000,19.280001,18.420000,19.090000,19.090000,458800
2018-11-29,19.110001,20.240000,19.110001,19.219999,19.219999,194200
2018-11-30,19.090000,19.450001,18.709999,19.280001,19.280001,143800
2018-12-03,19.590000,19.760000,19.129999,19.450001,19.450001,95100
2018-12-04,19.000000,19.400000,18.190001,18.350000,18.350000,180100
2018-12-06,18.250000,18.459999,17.857000,18.450001,18.450001,144800
2018-12-07,18.700001,19.000000,18.299999,18.370001,18.370001,113200
2018-12-10,18.129999,18.240000,17.629999,18.020000,18.020000,86100
2018-12-11,18.350000,18.530001,18.020000,18.150000,18.150000,88300
2018-12-12,18.510000,19.000000,18.350000,18.620001,18.620001,86800
2018-12-13,18.770000,19.440001,18.502001,18.920000,18.920000,151700
2018-12-14,18.660000,18.875000,18.240000,18.340000,18.340000,189600
2018-12-17,18.440001,18.670000,17.670000,17.760000,17.760000,97400
2018-12-18,18.000000,18.145000,16.990000,17.170000,17.170000,116600
2018-12-19,17.180000,17.820000,16.940001,17.110001,17.110001,171300
2018-12-20,17.139999,17.420000,16.780001,16.840000,16.840000,109900
2018-12-21,16.840000,17.400000,16.690001,16.709999,16.709999,258700
2018-12-24,16.510000,17.129999,16.430000,16.740000,16.740000,85200
2018-12-26,16.799999,17.610001,16.780001,17.580000,17.580000,68700
2018-12-27,17.350000,17.350000,16.299999,16.900000,16.900000,147500
2018-12-28,16.969999,17.385000,16.629999,16.790001,16.790001,72000
2018-12-31,16.959999,16.959999,16.500000,16.840000,16.840000,74400
2019-01-02,16.740000,17.775000,16.610001,17.700001,17.700001,116300
2019-01-03,17.730000,18.049999,17.420000,17.790001,17.790001,81500
2019-01-04,18.030001,18.760000,18.030001,18.760000,18.760000,86100
2019-01-07,18.799999,19.379999,18.799999,19.110001,19.110001,94400
2019-01-08,19.379999,19.400000,18.850000,18.969999,18.969999,87000
2019-01-09,19.040001,19.410000,18.365000,18.420000,18.420000,95400
2019-01-10,18.240000,18.299999,17.440001,17.500000,17.500000,129800
2019-01-11,17.330000,17.680000,17.235001,17.530001,17.530001,102500
2019-01-14,17.480000,17.590000,17.205000,17.480000,17.480000,80000
2019-01-15,17.510000,17.785000,17.270000,17.520000,17.520000,30500
2019-01-16,17.570000,17.969999,17.490000,17.840000,17.840000,39500
2019-01-17,17.690001,18.049999,17.684999,17.959999,17.959999,58200
2019-01-18,18.100000,18.490000,17.959999,18.469999,18.469999,76100
2019-01-22,18.240000,18.440001,17.530001,17.670000,17.670000,81600
2019-01-23,17.440001,17.510000,16.900000,16.980000,16.980000,70600
2019-01-24,17.059999,17.110001,16.809999,17.010000,17.010000,92700
2019-01-25,17.190001,17.500000,17.010000,17.440001,17.440001,54200
2019-01-28,17.100000,17.480000,16.934999,17.430000,17.430000,57000
2019-01-29,17.459999,17.530001,17.170000,17.430000,17.430000,50300
2019-01-30,17.530001,17.980000,17.360001,17.889999,17.889999,48600
2019-01-31,17.900000,18.200001,17.837999,18.120001,18.120001,70000
2019-02-01,18.129999,18.170000,17.920000,18.000000,18.000000,52100
2019-02-04,17.980000,18.200001,17.959999,18.160000,18.160000,86000
2019-02-05,18.139999,18.200001,17.410000,17.469999,17.469999,59900
2019-02-06,17.440001,17.480000,17.030001,17.120001,17.120001,48400
2019-02-07,17.030001,17.049999,16.450001,16.520000,16.520000,56000
2019-02-08,16.450001,16.570000,15.980000,16.430000,16.430000,75200
2019-02-11,16.410000,16.500000,16.100000,16.469999,16.469999,107400
2019-02-12,16.559999,17.580000,16.559999,17.510000,17.510000,122700
2019-02-13,17.500000,17.600000,17.010000,17.129999,17.129999,70100
2019-02-14,17.100000,17.379999,17.030001,17.120001,17.120001,93300
2019-02-15,17.230000,17.820000,17.230000,17.709999,17.709999,93200
2019-02-19,17.709999,18.700001,17.665001,18.260000,18.260000,242600
2019-02-20,18.290001,18.299999,17.219999,17.260000,17.260000,118100
2019-02-21,17.260000,17.378000,17.040001,17.330000,17.330000,107900
2019-02-22,17.420000,18.330000,17.320000,18.110001,18.110001,118800
2019-02-25,18.139999,18.290001,17.490000,17.490000,17.490000,74100
2019-02-26,17.510000,17.580000,17.070000,17.219999,17.219999,94400
2019-02-27,17.240000,17.260000,16.760000,16.969999,16.969999,102800
2019-02-28,16.980000,17.000000,16.480000,16.639999,16.639999,95200
2019-03-01,16.780001,16.990000,16.570000,16.660000,16.660000,68100
2019-03-04,16.750000,17.200001,16.730000,17.080000,17.080000,136800
2019-03-05,17.200001,17.530001,17.200001,17.440001,17.440001,117200
2019-03-06,17.420000,17.420000,16.760000,16.920000,16.920000,89300
2019-03-07,16.910000,16.930000,16.660000,16.780001,16.780001,62200
2019-03-08,16.700001,16.879999,16.299999,16.780001,16.780001,179800
2019-03-11,16.870001,17.440001,16.870001,17.350000,17.350000,445700
2019-03-12,18.900000,19.610001,18.690001,18.900000,18.900000,469300
2019-03-13,19.049999,19.250000,18.540001,18.650000,18.650000,496400
2019-03-14,18.680000,18.680000,18.110001,18.370001,18.370001,156400
2019-03-15,18.370001,18.760000,18.350000,18.590000,18.590000,456300
2019-03-18,18.610001,19.480000,18.610001,18.900000,18.900000,282000
2019-03-19,18.889999,18.965000,18.385000,18.480000,18.480000,191400
2019-03-20,18.440001,18.680000,18.340000,18.480000,18.480000,414500
2019-03-21,18.480000,18.530001,18.230000,18.299999,18.299999,188900
2019-03-22,18.000000,18.020000,17.150000,17.580000,17.580000,244100
2019-03-25,17.490000,18.459999,17.490000,18.150000,18.150000,205200
2019-03-26,18.280001,18.462999,17.840000,18.000000,18.000000,116600
2019-03-27,17.920000,18.020000,17.530001,17.750000,17.750000,94600
2019-03-28,17.700001,17.840000,17.139999,17.360001,17.360001,70100
2019-03-29,17.540001,17.540001,17.080000,17.139999,17.139999,74000
2019-04-01,17.260000,17.469999,17.120001,17.290001,17.290001,72500
2019-04-02,17.280001,17.405001,17.000000,17.150000,17.150000,147200
2019-04-03,17.290001,17.389999,16.700001,17.120001,17.120001,248200
2019-04-04,17.139999,17.200001,16.930000,17.040001,17.040001,67500
2019-04-05,17.059999,17.245001,16.940001,17.209999,17.209999,228500
2019-04-08,17.360001,18.150000,17.299999,17.549999,17.549999,400000
2019-04-09,17.549999,18.340000,17.420000,18.139999,18.139999,299800
2019-04-10,18.280001,18.799999,18.280001,18.740000,18.740000,450600
2019-04-11,18.889999,19.350000,18.770000,19.190001,19.190001,364200
2019-04-12,19.309999,20.070000,19.309999,19.889999,19.889999,309700
2019-04-15,19.950001,20.010000,19.780001,19.840000,19.840000,149400
2019-04-16,19.879999,20.000000,19.280001,19.500000,19.500000,127800
2019-04-17,19.570000,19.850000,19.490000,19.840000,19.840000,106700
2019-04-18,19.820000,20.090000,19.230000,19.250000,19.250000,169800
2019-04-22,19.299999,19.650000,19.129999,19.480000,19.480000,277000
2019-04-23,19.459999,19.500000,18.870001,18.889999,18.889999,176100
2019-04-24,18.840000,20.000000,18.650000,19.400000,19.400000,197500
2019-04-25,19.280001,19.280001,18.340000,18.420000,18.420000,219200
2019-04-26,18.459999,18.480000,17.840000,18.120001,18.120001,174400
2019-04-29,18.230000,18.350000,18.000000,18.100000,18.100000,141800
2019-04-30,18.230000,18.250000,17.670000,17.820000,17.820000,195200
2019-05-01,17.780001,18.170000,17.719999,17.900000,17.900000,191400
2019-05-02,17.780001,18.150000,17.750000,17.870001,17.870001,369000
2019-05-03,17.959999,18.580000,17.959999,18.389999,18.389999,158600
2019-05-06,18.290001,18.440001,17.879999,18.360001,18.360001,144300
2019-05-07,18.209999,18.400000,17.959999,18.360001,18.360001,201500
2019-05-08,18.340000,18.830000,18.260000,18.709999,18.709999,116600
2019-05-09,18.610001,19.577000,18.559999,19.430000,19.430000,208200
2019-05-10,19.430000,20.290001,19.430000,20.040001,20.040001,219400
2019-05-13,19.860001,20.200001,19.629999,19.730000,19.730000,160000
2019-05-14,19.900000,20.200001,19.889999,20.139999,20.139999,100400
2019-05-15,20.129999,20.459999,19.980000,20.150000,20.150000,420800
2019-05-16,20.190001,20.410000,20.059999,20.200001,20.200001,599900
2019-05-17,20.070000,20.290001,19.400000,19.430000,19.430000,104800
2019-05-20,19.430000,20.040001,19.370001,19.799999,19.799999,122200
2019-05-21,19.430000,19.969999,19.430000,19.680000,19.680000,121400
2019-05-22,19.600000,19.709999,19.480000,19.600000,19.600000,103100
2019-05-23,19.320000,19.615000,18.730000,18.980000,18.980000,147500
2019-05-24,19.190001,19.190001,18.520000,18.590000,18.590000,81800
2019-05-28,18.639999,18.705000,18.190001,18.240000,18.240000,105400
2019-05-29,18.020000,18.219999,17.780001,18.160000,18.160000,179100
2019-05-30,18.150000,18.450001,17.510000,17.639999,17.639999,135400
2019-05-31,17.469999,17.799999,17.280001,17.799999,17.799999,144800
2019-06-03,17.540001,17.990000,17.540001,17.820000,17.820000,104300
2019-06-04,17.950001,18.360001,17.809999,18.299999,18.299999,155900
2019-06-05,18.299999,18.340000,17.895000,18.100000,18.100000,149800
2019-06-06,18.209999,18.389999,17.867001,18.000000,18.000000,110000
2019-06-07,18.070000,18.430000,18.070000,18.309999,18.309999,102400
2019-06-10,18.410000,18.410000,17.680000,17.799999,17.799999,209000
2019-06-11,18.040001,18.469999,17.892000,18.170000,18.170000,137500
2019-06-12,18.020000,18.030001,17.170000,17.219999,17.219999,172800
2019-06-13,17.430000,17.450001,17.180000,17.360001,17.360001,262400
2019-06-14,17.370001,17.490000,17.167999,17.280001,17.280001,126500
2019-06-17,17.270000,17.670000,17.219999,17.660000,17.660000,89200
2019-06-18,17.790001,18.040001,17.709999,17.750000,17.750000,199100
2019-06-19,17.790001,18.100000,17.790001,17.879999,17.879999,167200
2019-06-20,18.299999,18.610001,18.110001,18.480000,18.480000,178100
2019-06-21,18.410000,18.615000,18.020000,18.120001,18.120001,184500
2019-06-24,18.110001,18.250000,17.629999,17.809999,17.809999,120500
2019-06-25,17.760000,18.170000,17.754999,18.160000,18.160000,74800
2019-06-26,18.260000,18.719999,18.260000,18.650000,18.650000,91000
2019-06-27,18.690001,19.070000,18.690001,19.000000,19.000000,125300
2019-06-28,19.090000,19.410000,18.910000,19.000000,19.000000,766300
2019-07-01,19.200001,19.879999,19.139999,19.370001,19.370001,247600
2019-07-02,19.370001,19.540001,18.870001,19.000000,19.000000,154200
2019-07-03,19.139999,19.139999,18.490000,18.580000,18.580000,51100
2019-07-05,18.590000,19.059999,18.480000,19.040001,19.040001,83600
2019-07-08,19.150000,19.200001,18.900000,18.980000,18.980000,108600
2019-07-09,18.959999,19.010000,18.770000,19.000000,19.000000,88900
2019-07-10,19.180000,19.530001,19.049999,19.110001,19.110001,268100
2019-07-11,19.240000,19.389999,19.090000,19.200001,19.200001,196400
2019-07-12,19.219999,19.655001,19.010000,19.459999,19.459999,256800
2019-07-15,19.459999,19.459999,18.709999,18.760000,18.760000,146000
2019-07-16,18.700001,19.090000,18.540001,18.900000,18.900000,91200
2019-07-17,18.889999,19.010000,17.750000,17.770000,17.770000,127100
2019-07-18,17.820000,17.820000,17.260000,17.639999,17.639999,189200
2019-07-19,17.750000,17.850000,17.495001,17.580000,17.580000,187700
2019-07-22,17.570000,17.629999,17.090000,17.330000,17.330000,167200
2019-07-23,17.459999,17.580000,17.270000,17.540001,17.540001,139300
2019-07-24,17.570000,17.910000,17.459999,17.889999,17.889999,115800
2019-07-25,17.930000,17.930000,17.200001,17.320000,17.320000,112300
2019-07-26,17.379999,17.450001,17.174999,17.400000,17.400000,110700
2019-07-29,17.400000,17.510000,16.840000,16.920000,16.920000,130500
2019-07-30,16.830000,17.070000,16.610001,16.969999,16.969999,113200
2019-07-31,16.969999,17.469999,16.969999,17.010000,17.010000,189900
2019-08-01,16.809999,17.075001,16.430000,16.469999,16.469999,194400
2019-08-02,16.469999,16.555000,15.880000,15.990000,15.990000,159700
2019-08-05,15.760000,15.760000,15.220000,15.340000,15.340000,177500
2019-08-06,15.420000,15.770000,15.390000,15.760000,15.760000,177200
2019-08-07,15.580000,15.820000,15.250000,15.610000,15.610000,150200
2019-08-08,15.610000,16.145000,15.150000,15.940000,15.940000,409600
2019-08-09,15.960000,16.129999,15.640000,15.880000,15.880000,202700
2019-08-12,15.760000,16.020000,15.490000,15.770000,15.770000,193100
2019-08-13,15.710000,16.219999,15.680000,16.209999,16.209999,125500
2019-08-14,15.900000,16.049999,15.720000,16.000000,16.000000,216700
2019-08-15,15.950000,16.076000,15.660000,15.940000,15.940000,157100
2019-08-16,16.000000,16.320000,15.990000,16.030001,16.030001,126000
2019-08-19,16.270000,16.629999,16.080000,16.580000,16.580000,105100
2019-08-20,16.549999,16.670000,16.400000,16.590000,16.590000,80400
2019-08-21,16.770000,16.959999,16.660000,16.910000,16.910000,57000
2019-08-22,16.990000,17.340000,16.895000,17.070000,17.070000,135900
2019-08-23,16.860001,17.100000,16.530001,16.620001,16.620001,112900
2019-08-26,16.680000,16.920000,16.639999,16.840000,16.840000,89000
2019-08-27,16.969999,17.670000,16.650000,16.959999,16.959999,261000
2019-08-28,16.980000,17.250000,16.900000,17.059999,17.059999,78600
2019-08-29,17.219999,17.549999,17.110001,17.219999,17.219999,78900
2019-08-30,17.350000,17.465000,17.120001,17.219999,17.219999,86100
2019-09-03,16.920000,17.389999,16.754999,17.299999,17.299999,144600
2019-09-04,17.490000,17.809999,17.370001,17.700001,17.700001,106400
2019-09-05,17.900000,18.440001,17.850000,17.930000,17.930000,136900
2019-09-06,17.959999,18.285000,17.809999,17.950001,17.950001,53600
2019-09-09,18.120001,18.719999,17.950001,18.320000,18.320000,123300
2019-09-10,18.420000,19.150000,18.340000,18.889999,18.889999,206500
2019-09-11,18.980000,19.280001,18.549999,18.889999,18.889999,158300
2019-09-12,18.780001,19.200001,18.490000,19.000000,19.000000,181900
2019-09-13,19.100000,19.200001,18.875000,19.010000,19.010000,273100
2019-09-16,19.200001,19.740000,18.809999,18.980000,18.980000,403800
2019-09-17,18.930000,19.145000,18.360001,18.660000,18.660000,157800
2019-09-18,18.559999,18.680000,18.299999,18.370001,18.370001,123000
2019-09-19,18.389999,18.559999,18.219999,18.379999,18.379999,126600
2019-09-20,18.500000,18.639999,18.110001,18.270000,18.270000,328100
2019-09-23,18.150000,18.440001,18.115000,18.370001,18.370001,116300
2019-09-24,18.370001,18.459999,17.770000,17.930000,17.930000,276300
2019-09-25,17.889999,18.670000,17.709999,18.670000,18.670000,176000
2019-09-26,18.680000,19.330000,18.670000,19.139999,19.139999,265300
2019-09-27,19.070000,19.379999,18.855000,19.139999,19.139999,241100
2019-09-30,19.440001,19.459999,19.090000,19.260000,19.260000,364800
2019-10-01,19.490000,20.389999,19.299999,19.790001,19.790001,319600
2019-10-02,19.590000,19.770000,19.139999,19.719999,19.719999,222700
2019-10-03,19.700001,19.930000,19.260000,19.700001,19.700001,191000
2019-10-04,19.799999,21.430000,19.799999,20.750000,20.750000,437600
2019-10-07,22.920000,23.930000,22.230000,23.830000,23.830000,913000
2019-10-08,23.719999,24.820000,23.506001,24.219999,24.219999,543600
2019-10-09,24.680000,25.330000,23.510000,23.990000,23.990000,461300
2019-10-10,23.840000,24.500000,23.170000,24.420000,24.420000,543700
2019-10-11,25.389999,26.320000,25.245001,25.459999,25.459999,613700
2019-10-14,25.670000,26.500000,25.620001,25.879999,25.879999,424400
2019-10-15,25.750000,25.910000,24.740000,24.799999,24.799999,301400
2019-10-16,24.700001,25.660000,24.700001,25.120001,25.120001,217900
2019-10-17,25.260000,25.674999,24.940001,25.049999,25.049999,273200
2019-10-18,25.000000,25.639999,25.000000,25.360001,25.360001,198200
2019-10-21,25.540001,25.790001,24.547001,24.629999,24.629999,198200
2019-10-22,24.650000,25.219999,24.540001,24.780001,24.780001,291100
2019-10-23,25.110001,26.830000,25.000000,26.520000,26.520000,405400
2019-10-24,26.879999,26.879999,25.500000,26.180000,26.180000,409500
2019-10-25,26.090000,26.809999,25.709999,26.340000,26.340000,202300
2019-10-28,26.500000,27.010000,26.150000,26.209999,26.209999,142400
2019-10-29,26.000000,26.139999,25.665001,25.850000,25.850000,141500
2019-10-30,25.860001,26.020000,25.440001,25.980000,25.980000,183300
2019-10-31,26.000000,26.150000,25.010000,25.139999,25.139999,154000
2019-11-01,25.120001,25.459999,25.000000,25.290001,25.290001,378500
2019-11-04,25.500000,25.750000,25.375000,25.660000,25.660000,213400
2019-11-05,26.170000,26.350000,25.230000,25.290001,25.290001,312000
2019-11-06,25.250000,25.469999,23.870001,24.090000,24.090000,351900
2019-11-07,24.230000,25.098000,23.059999,23.400000,23.400000,345500
2019-11-08,23.400000,24.580000,23.230000,24.350000,24.350000,252600
2019-11-11,24.070000,25.100000,23.820000,25.100000,25.100000,258100
2019-11-12,25.120001,26.110001,25.094999,25.590000,25.590000,218600
2019-11-13,25.480000,25.770000,25.070000,25.129999,25.129999,126000
2019-11-14,25.110001,25.840000,25.084999,25.809999,25.809999,216000
2019-11-15,26.000000,26.436001,25.629999,26.129999,26.129999,173200
2019-11-18,26.020000,26.030001,25.389999,25.719999,25.719999,99300
2019-11-19,25.620001,26.270000,25.379999,26.049999,26.049999,140000
2019-11-20,26.150000,27.020000,26.059999,26.760000,26.760000,240500
2019-11-21,26.790001,27.180000,26.120001,27.030001,27.030001,216300
2019-11-22,27.100000,27.275999,26.389999,26.980000,26.980000,227100
2019-11-25,27.150000,27.670000,27.010000,27.600000,27.600000,200500
2019-11-26,27.530001,27.530001,26.570000,26.940001,26.940001,207000
2019-11-27,27.049999,27.150000,25.780001,26.440001,26.440001,132700
2019-11-29,26.459999,26.695000,26.120001,26.480000,26.480000,83900
2019-12-02,26.440001,26.520000,25.940001,26.240000,26.240000,167100
2019-12-03,26.090000,26.090000,25.590000,25.990000,25.990000,321800
2019-12-04,26.080000,26.778999,25.969999,26.360001,26.360001,275600
2019-12-05,26.400000,27.150000,26.219999,26.830000,26.830000,136900
2019-12-06,26.990000,27.820000,26.840000,27.730000,27.730000,359500
2019-12-09,27.700001,28.000000,27.129999,27.639999,27.639999,184500
2019-12-10,27.639999,28.160000,27.590000,27.740000,27.740000,238600
2019-12-11,27.950001,28.025000,27.600000,27.660000,27.660000,131000
2019-12-12,27.600000,28.129999,27.403999,27.559999,27.559999,203700
2019-12-13,27.570000,27.900000,27.309999,27.850000,27.850000,113400
2019-12-16,27.959999,28.412001,27.959999,28.129999,28.129999,383300
2019-12-17,28.139999,28.790001,27.920000,28.190001,28.190001,205400
2019-12-18,28.240000,28.530001,28.000000,28.400000,28.400000,174200
2019-12-19,28.370001,30.150000,28.370001,30.040001,30.040001,227700
2019-12-20,29.620001,30.180000,29.030001,29.059999,29.059999,420700
2019-12-23,28.959999,29.670000,28.629999,29.400000,29.400000,175100
2019-12-24,29.430000,29.889999,29.150000,29.240000,29.240000,58600
2019-12-26,29.120001,30.025000,29.120001,29.290001,29.290001,179200
2019-12-27,29.379999,29.469999,28.900000,28.959999,28.959999,145200
2019-12-30,28.910000,29.590000,28.910000,29.379999,29.379999,285700
2019-12-31,29.280001,29.969999,29.120001,29.760000,29.760000,292700
2020-01-02,29.799999,29.965000,29.510000,29.820000,29.820000,244200
2020-01-03,29.879999,30.559999,29.580000,30.000000,30.000000,429800
2020-01-06,30.080000,30.340000,29.670000,29.959999,29.959999,350100
2020-01-07,29.959999,30.750000,29.770000,30.629999,30.629999,603800
2020-01-08,31.170000,31.389999,29.420000,29.670000,29.670000,563200
2020-01-09,29.730000,30.200001,29.459999,29.780001,29.780001,570700
2020-01-10,29.830000,29.910000,28.900000,29.080000,29.080000,443500
2020-01-13,29.190001,29.510000,28.410000,29.020000,29.020000,369700
2020-01-14,29.080000,29.350000,28.230000,28.320000,28.320000,394000
2020-01-15,28.200001,28.370001,26.950001,27.309999,27.309999,835800
2020-01-16,27.549999,27.667999,26.129999,27.059999,27.059999,596400
2020-01-17,27.180000,27.730000,26.389999,26.549999,26.549999,421200
2020-01-21,26.590000,27.200001,26.500000,26.799999,26.799999,402100
2020-01-22,26.790001,26.820000,26.070000,26.309999,26.309999,344500
2020-01-23,26.059999,26.389999,25.049999,25.969999,25.969999,500400
2020-01-24,25.959999,26.230000,24.420000,24.600000,24.600000,417000
2020-01-27,24.240000,24.520000,23.500000,24.110001,24.110001,287900
2020-01-28,24.160000,24.410000,23.969999,24.120001,24.120001,359100
2020-01-29,24.000000,24.225000,23.540001,23.580000,23.580000,293700
2020-01-30,23.370001,23.370001,21.879999,22.370001,22.370001,454500
2020-01-31,22.160000,22.434999,21.730000,22.260000,22.260000,475100
2020-02-03,22.260000,22.410000,21.780001,21.950001,21.950001,330100
2020-02-04,22.290001,22.870001,22.080000,22.330000,22.330000,352800
2020-02-05,22.559999,23.059999,22.559999,22.940001,22.940001,319900
2020-02-06,22.860001,22.860001,22.330000,22.360001,22.360001,922500
2020-02-07,22.059999,22.059999,20.360001,20.469999,20.469999,443300
2020-02-10,20.299999,20.690001,20.040001,20.299999,20.299999,252400
2020-02-11,20.510000,21.250000,20.510000,21.200001,21.200001,334900
2020-02-12,21.500000,22.150000,21.375000,21.730000,21.730000,311500
2020-02-13,21.620001,21.920000,21.160000,21.260000,21.260000,192500