Date,Open,High,Low,Close,Adj Close,Volume
2020-01-06,20.600000,20.730000,19.059999,19.459999,19.459999,9007000
2020-01-07,19.360001,19.959999,19.170000,19.790001,19.790001,9452400
2020-01-08,20.250000,20.705000,19.660000,20.110001,20.110001,8623400
2020-01-09,20.170000,20.450001,19.840000,20.209999,20.209999,5800700
2020-01-10,21.219999,21.330000,20.500000,20.530001,20.530001,6245500
2020-01-13,21.059999,21.129999,20.870001,21.030001,21.030001,2335300
2020-01-14,20.889999,21.360001,20.840000,21.360001,21.360001,1577100
2020-01-15,21.170000,21.400000,20.950001,21.139999,21.139999,801700
2020-01-16,21.400000,21.520000,20.870001,21.400000,21.400000,2352700
2020-01-17,22.250000,22.260000,21.530001,21.940001,21.940001,1405300
2020-01-21,22.170000,22.320000,21.770000,21.780001,21.780001,1410000
2020-01-22,22.160000,22.980000,22.150000,22.690001,22.690001,1178400
2020-01-23,22.520000,23.500000,22.400000,23.430000,23.430000,460700
2020-01-24,23.500000,23.900000,23.370001,23.450001,23.450001,730100
2020-01-27,22.760000,22.950001,21.889999,22.299999,22.299999,791800
2020-01-28,22.730000,23.493000,22.549999,23.260000,23.260000,682500
2020-01-29,23.250000,23.309999,22.690001,22.719999,22.719999,430100
2020-01-30,22.080000,22.860001,21.600000,22.740000,22.740000,1438000
2020-01-31,22.740000,22.850000,21.809999,21.879999,21.879999,1125600
2020-02-03,22.750000,23.010000,22.290001,22.400000,22.400000,278400
2020-02-04,22.959999,23.195999,22.389999,22.719999,22.719999,937800
2020-02-05,23.139999,23.280001,22.299999,22.600000,22.600000,475400
2020-02-06,23.000000,23.010000,21.750000,21.980000,21.980000,534100
2020-02-07,21.580000,21.580000,20.809999,21.120001,21.120001,1176600
2020-02-10,20.959999,21.070000,20.100000,20.549999,20.549999,1047400
2020-02-11,21.200001,22.040001,21.030001,21.940001,21.940001,1024100
2020-02-12,22.139999,23.040001,22.030001,22.480000,22.480000,790500
2020-02-13,22.420000,22.549999,22.200001,22.360001,22.360001,348900
2020-02-14,22.920000,23.660000,22.549999,23.490000,23.490000,566452
