Date,Open,High,Low,Close,Adj Close,Volume
2018-03-13,9.570000,9.570000,9.570000,9.570000,9.570000,6000
2018-03-14,9.570000,9.570000,9.570000,9.570000,9.570000,0
2018-03-15,9.560000,9.600000,9.560000,9.600000,9.600000,33200
2018-03-16,9.600000,9.600000,9.600000,9.600000,9.600000,0
2018-03-19,9.570000,9.590000,9.570000,9.590000,9.590000,3200
2018-03-20,9.590000,9.590000,9.590000,9.590000,9.590000,1200
2018-03-21,9.580000,9.580000,9.570000,9.570000,9.570000,3600
2018-03-22,9.570000,9.570000,9.560000,9.570000,9.570000,8400
2018-03-23,9.580000,9.580000,9.580000,9.580000,9.580000,2600
2018-03-26,9.580000,9.600000,9.580000,9.600000,9.600000,5000
2018-03-27,9.580000,9.600000,9.580000,9.600000,9.600000,13900
2018-03-28,9.600000,9.600000,9.600000,9.600000,9.600000,0
2018-03-29,9.610000,9.650000,9.550000,9.550000,9.550000,14500
2018-04-02,9.550000,9.550000,9.550000,9.550000,9.550000,0
2018-04-03,9.650000,9.650000,9.630000,9.630000,9.630000,400
2018-04-04,9.650000,9.650000,9.650000,9.650000,9.650000,100
2018-04-05,9.650000,9.650000,9.650000,9.650000,9.650000,0
2018-04-06,9.600000,9.600000,9.600000,9.600000,9.600000,300000
2018-04-09,9.650000,9.650000,9.650000,9.650000,9.650000,800
2018-04-10,9.620000,9.640000,9.600000,9.600000,9.600000,375800
2018-04-11,9.650000,9.650000,9.600000,9.640000,9.640000,101000
2018-04-12,9.590000,9.600000,9.590000,9.600000,9.600000,128400
2018-04-13,9.600000,9.600000,9.600000,9.600000,9.600000,0
2018-04-16,9.600000,9.600000,9.490000,9.600000,9.600000,26800
2018-04-17,9.600000,9.600000,9.600000,9.600000,9.600000,0
2018-04-18,9.600000,9.600000,9.600000,9.600000,9.600000,0
2018-04-19,9.600000,9.600000,9.600000,9.600000,9.600000,0
2018-04-20,9.600000,9.600000,9.600000,9.600000,9.600000,0
2018-04-23,9.600000,9.600000,9.600000,9.600000,9.600000,0
2018-04-24,9.550000,9.600000,9.550000,9.600000,9.600000,1100
2018-04-25,9.600000,9.600000,9.600000,9.600000,9.600000,0
2018-04-26,9.600000,9.600000,9.600000,9.600000,9.600000,0
2018-04-27,9.600000,9.600000,9.600000,9.600000,9.600000,0
2018-04-30,9.600000,9.620000,9.600000,9.620000,9.620000,600
2018-05-01,9.620000,9.620000,9.620000,9.620000,9.620000,0
2018-05-02,9.600000,9.600000,9.600000,9.600000,9.600000,8000
2018-05-03,9.600000,9.600000,9.600000,9.600000,9.600000,0
2018-05-04,9.600000,9.600000,9.600000,9.600000,9.600000,0
2018-05-07,9.600000,9.600000,9.600000,9.600000,9.600000,0
2018-05-08,9.600000,9.620000,9.600000,9.620000,9.620000,103100
2018-05-09,9.590000,9.610000,9.580000,9.610000,9.610000,271300
2018-05-10,9.610000,9.610000,9.610000,9.610000,9.610000,0
2018-05-11,9.590000,9.590000,9.590000,9.590000,9.590000,400
2018-05-14,9.590000,9.590000,9.590000,9.590000,9.590000,0
2018-05-15,9.590000,9.590000,9.590000,9.590000,9.590000,0
2018-05-16,9.590000,9.590000,9.590000,9.590000,9.590000,0
2018-05-17,9.590000,9.590000,9.590000,9.590000,9.590000,0
2018-05-18,9.590000,9.590000,9.590000,9.590000,9.590000,0
2018-05-21,9.590000,9.590000,9.590000,9.590000,9.590000,0
2018-05-22,9.620000,9.620000,9.620000,9.620000,9.620000,326500
2018-05-23,9.620000,9.650000,9.620000,9.650000,9.650000,455200
2018-05-24,9.650000,9.650000,9.630000,9.640000,9.640000,15200
2018-05-25,9.640000,9.640000,9.630000,9.630000,9.630000,3500
2018-05-29,9.660000,9.660000,9.660000,9.660000,9.660000,1000
2018-05-30,9.660000,9.660000,9.660000,9.660000,9.660000,0
2018-05-31,9.640000,9.640000,9.640000,9.640000,9.640000,100
2018-06-01,9.640000,9.640000,9.640000,9.640000,9.640000,0
2018-06-04,9.640000,9.640000,9.640000,9.640000,9.640000,0
2018-06-05,9.650000,9.650000,9.650000,9.650000,9.650000,200
2018-06-06,9.655000,9.655000,9.655000,9.655000,9.655000,100
2018-06-07,9.650000,9.660000,9.640000,9.650000,9.650000,650800
2018-06-08,9.650000,9.650000,9.650000,9.650000,9.650000,0
2018-06-11,9.650000,9.650000,9.650000,9.650000,9.650000,0
2018-06-12,9.650000,9.650000,9.650000,9.650000,9.650000,35700
2018-06-13,9.650000,9.650000,9.650000,9.650000,9.650000,200
2018-06-14,9.661000,9.661000,9.650000,9.651000,9.651000,16400
2018-06-15,9.655000,9.673000,9.655000,9.673000,9.673000,2800
2018-06-18,9.690000,9.690000,9.690000,9.690000,9.690000,1100
2018-06-19,9.690000,9.690000,9.690000,9.690000,9.690000,100
2018-06-20,9.670000,9.670000,9.670000,9.670000,9.670000,74400
2018-06-21,9.670000,9.670000,9.670000,9.670000,9.670000,0
2018-06-22,9.690000,9.690000,9.690000,9.690000,9.690000,200
2018-06-25,9.690000,9.690000,9.680000,9.680000,9.680000,500
2018-06-26,9.690000,9.710000,9.690000,9.710000,9.710000,13000
2018-06-27,9.700000,9.700000,9.700000,9.700000,9.700000,200
2018-06-28,9.700000,9.700000,9.700000,9.700000,9.700000,200
2018-06-29,9.700000,9.700000,9.700000,9.700000,9.700000,0
2018-07-02,9.710000,9.710000,9.700000,9.700000,9.700000,900
2018-07-03,9.710000,9.710000,9.700000,9.700000,9.700000,273700
2018-07-05,9.720000,9.720000,9.700000,9.700000,9.700000,77700
2018-07-06,9.700000,9.700000,9.700000,9.700000,9.700000,0
2018-07-09,9.700000,9.700000,9.700000,9.700000,9.700000,25900
2018-07-10,9.700000,9.700000,9.700000,9.700000,9.700000,0
2018-07-11,9.700000,9.700000,9.700000,9.700000,9.700000,0
2018-07-12,9.710000,9.730000,9.710000,9.710000,9.710000,18400
2018-07-13,9.710000,9.710000,9.710000,9.710000,9.710000,22000
2018-07-16,9.710000,9.710000,9.710000,9.710000,9.710000,50000
2018-07-17,9.730000,9.740000,9.730000,9.740000,9.740000,10800
2018-07-18,9.740000,9.750000,9.740000,9.750000,9.750000,102900
2018-07-19,9.750000,9.750000,9.750000,9.750000,9.750000,0
2018-07-20,9.770000,9.770000,9.770000,9.770000,9.770000,200
2018-07-23,9.770000,9.770000,9.770000,9.770000,9.770000,0
2018-07-24,9.770000,9.770000,9.770000,9.770000,9.770000,0
2018-07-25,9.720000,9.720000,9.720000,9.720000,9.720000,1400
2018-07-26,9.720000,9.740000,9.720000,9.740000,9.740000,200
2018-07-27,9.740000,9.740000,9.740000,9.740000,9.740000,0
2018-07-30,9.740000,9.740000,9.740000,9.740000,9.740000,0
2018-07-31,9.740000,9.740000,9.740000,9.740000,9.740000,0
2018-08-01,9.730000,9.730000,9.730000,9.730000,9.730000,6000
2018-08-02,9.730000,9.730000,9.730000,9.730000,9.730000,1900
2018-08-03,9.730000,9.730000,9.730000,9.730000,9.730000,0
2018-08-06,9.730000,9.730000,9.730000,9.730000,9.730000,300
2018-08-07,9.730000,9.730000,9.730000,9.730000,9.730000,19100
2018-08-08,9.740000,9.740000,9.740000,9.740000,9.740000,100
2018-08-09,9.740000,9.740000,9.740000,9.740000,9.740000,100
2018-08-10,9.730000,9.730000,9.730000,9.730000,9.730000,300
2018-08-13,9.730000,9.730000,9.730000,9.730000,9.730000,0
2018-08-14,9.730000,9.730000,9.730000,9.730000,9.730000,0
2018-08-15,9.730000,9.730000,9.730000,9.730000,9.730000,0
2018-08-16,9.730000,9.730000,9.730000,9.730000,9.730000,20000
2018-08-17,9.730000,9.730000,9.730000,9.730000,9.730000,0
2018-08-20,9.730000,9.750000,9.700000,9.710000,9.710000,128700
2018-08-21,9.720000,9.720000,9.710000,9.720000,9.720000,367300
2018-08-22,9.720000,9.720000,9.720000,9.720000,9.720000,0
2018-08-23,9.720000,9.720000,9.720000,9.720000,9.720000,0
2018-08-24,9.720000,9.720000,9.720000,9.720000,9.720000,0
2018-08-27,9.720000,9.720000,9.720000,9.720000,9.720000,26400
2018-08-28,9.720000,9.740000,9.720000,9.730000,9.730000,455500
2018-08-29,9.730000,9.730000,9.730000,9.730000,9.730000,0
2018-08-30,9.730000,9.730000,9.730000,9.730000,9.730000,0
2018-08-31,9.730000,9.730000,9.730000,9.730000,9.730000,0
2018-09-04,9.720000,9.730000,9.700000,9.720000,9.720000,30000
2018-09-05,9.720000,9.720000,9.720000,9.720000,9.720000,0
2018-09-06,9.720000,9.720000,9.720000,9.720000,9.720000,0
2018-09-07,9.720000,9.720000,9.720000,9.720000,9.720000,0
2018-09-10,9.720000,9.720000,9.720000,9.720000,9.720000,0
2018-09-11,9.730000,9.730000,9.730000,9.730000,9.730000,300
2018-09-12,9.720000,9.720000,9.720000,9.720000,9.720000,5900
2018-09-13,9.720000,9.720000,9.720000,9.720000,9.720000,0
2018-09-14,9.733000,9.733000,9.700000,9.700000,9.700000,500
2018-09-17,9.700000,9.700000,9.700000,9.700000,9.700000,0
2018-09-18,9.700000,9.700000,9.700000,9.700000,9.700000,0
2018-09-19,9.730000,9.740000,9.730000,9.730000,9.730000,300500
2018-09-20,9.730000,9.730000,9.730000,9.730000,9.730000,0
2018-09-21,9.730000,9.730000,9.730000,9.730000,9.730000,0
2018-09-24,9.730000,9.730000,9.730000,9.730000,9.730000,0
2018-09-25,9.720000,9.720000,9.720000,9.720000,9.720000,1800
2018-09-26,9.720000,9.720000,9.720000,9.720000,9.720000,1800
2018-09-27,9.720000,9.720000,9.720000,9.720000,9.720000,1800
2018-09-28,9.720000,9.720000,9.720000,9.720000,9.720000,0
2018-10-01,9.720000,9.720000,9.720000,9.720000,9.720000,1800
2018-10-02,9.720000,9.720000,9.720000,9.720000,9.720000,1800
2018-10-03,9.720000,9.720000,9.720000,9.720000,9.720000,10000
2018-10-04,9.720000,9.720000,9.720000,9.720000,9.720000,6900
2018-10-05,9.720000,9.720000,9.720000,9.720000,9.720000,0
2018-10-08,9.720000,9.720000,9.720000,9.720000,9.720000,0
2018-10-09,9.720000,9.720000,9.720000,9.720000,9.720000,0
2018-10-10,9.720000,9.720000,9.720000,9.720000,9.720000,0
2018-10-11,9.720000,9.720000,9.720000,9.720000,9.720000,0
2018-10-12,9.740000,9.740000,9.720000,9.720000,9.720000,1100
2018-10-15,9.720000,9.720000,9.720000,9.720000,9.720000,54600
2018-10-16,9.735000,9.735000,9.735000,9.735000,9.735000,100
2018-10-17,9.735000,9.735000,9.735000,9.735000,9.735000,0
2018-10-18,9.735000,9.735000,9.735000,9.735000,9.735000,0
2018-10-19,9.735000,9.735000,9.735000,9.735000,9.735000,0
2018-10-22,9.735000,9.735000,9.735000,9.735000,9.735000,0
2018-10-23,9.735000,9.735000,9.735000,9.735000,9.735000,0
2018-10-24,9.735000,9.735000,9.735000,9.735000,9.735000,0
2018-10-25,9.735000,9.735000,9.735000,9.735000,9.735000,0
2018-10-26,9.730000,9.730000,9.730000,9.730000,9.730000,10000
2018-10-29,9.730000,9.730000,9.730000,9.730000,9.730000,0
2018-10-30,9.720000,9.730000,9.720000,9.730000,9.730000,19000
2018-10-31,9.720000,9.730000,9.720000,9.720000,9.720000,2000
2018-11-01,9.720000,9.720000,9.720000,9.720000,9.720000,700
2018-11-02,9.720000,9.720000,9.720000,9.720000,9.720000,0
2018-11-05,9.730000,9.730000,9.730000,9.730000,9.730000,25000
2018-11-06,9.740000,9.750000,9.740000,9.750000,9.750000,2500
2018-11-07,9.750000,9.750000,9.750000,9.750000,9.750000,100
2018-11-08,9.750000,9.750000,9.750000,9.750000,9.750000,100
2018-11-09,9.750000,9.750000,9.750000,9.750000,9.750000,100
2018-11-12,9.750000,9.750000,9.750000,9.750000,9.750000,17000
2018-11-13,9.750000,9.750000,9.750000,9.750000,9.750000,1000
2018-11-14,9.750000,9.750000,9.750000,9.750000,9.750000,0
2018-11-15,9.750000,9.750000,9.750000,9.750000,9.750000,0
2018-11-16,9.750000,9.750000,9.730000,9.730000,9.730000,1400
2018-11-19,9.730000,9.730000,9.730000,9.730000,9.730000,0
2018-11-20,9.730000,9.730000,9.730000,9.730000,9.730000,0
2018-11-21,9.750000,9.750000,9.750000,9.750000,9.750000,1500
2018-11-23,9.750000,9.750000,9.750000,9.750000,9.750000,0
2018-11-26,9.750000,9.750000,9.750000,9.750000,9.750000,0
2018-11-27,9.750000,9.750000,9.750000,9.750000,9.750000,2000
2018-11-28,9.750000,9.750000,9.750000,9.750000,9.750000,0
2018-11-29,9.750000,9.750000,9.750000,9.750000,9.750000,0
2018-11-30,9.740000,9.770000,9.740000,9.770000,9.770000,3300
2018-12-03,9.770000,9.770000,9.770000,9.770000,9.770000,0
2018-12-04,9.780000,9.780000,9.780000,9.780000,9.780000,100
2018-12-06,9.780000,9.780000,9.759000,9.759000,9.759000,500
2018-12-07,9.780000,9.780000,9.780000,9.780000,9.780000,4600
2018-12-10,9.790000,9.810000,9.790000,9.810000,9.810000,5000
2018-12-11,9.810000,9.810000,9.810000,9.810000,9.810000,200
2018-12-12,9.810000,9.810000,9.810000,9.810000,9.810000,0
2018-12-13,10.060000,10.100000,10.040000,10.060000,10.060000,1423500
2018-12-14,10.069000,10.070000,10.030000,10.070000,10.070000,41800
2018-12-17,10.080000,10.080000,10.060000,10.060000,10.060000,500
2018-12-18,10.050000,10.070000,10.040000,10.070000,10.070000,10200
2018-12-19,10.070000,10.070000,10.060000,10.060000,10.060000,700
2018-12-20,10.000000,10.060000,10.000000,10.060000,10.060000,8900
2018-12-21,10.060000,10.060000,10.060000,10.060000,10.060000,128200
2018-12-24,10.060000,10.060000,10.060000,10.060000,10.060000,0
2018-12-26,10.000000,10.050000,10.000000,10.050000,10.050000,600
2018-12-27,9.950000,10.050000,9.802000,10.050000,10.050000,29100
2018-12-28,10.050000,10.050000,10.050000,10.050000,10.050000,100
2018-12-31,10.030000,10.030000,10.030000,10.030000,10.030000,300
2019-01-02,10.030000,10.030000,10.030000,10.030000,10.030000,100
2019-01-03,10.030000,10.030000,10.030000,10.030000,10.030000,100
2019-01-04,10.030000,10.030000,10.030000,10.030000,10.030000,0
2019-01-07,10.030000,10.040000,10.030000,10.030000,10.030000,30100
2019-01-08,10.000000,10.060000,10.000000,10.060000,10.060000,98200
2019-01-09,10.040000,10.040000,10.040000,10.040000,10.040000,110200
2019-01-10,10.080000,10.080000,10.080000,10.080000,10.080000,200
2019-01-11,10.080000,10.080000,10.080000,10.080000,10.080000,0
2019-01-14,10.080000,10.080000,10.080000,10.080000,10.080000,0
2019-01-15,10.053000,10.090000,10.030000,10.040000,10.040000,1800
2019-01-16,10.060000,10.060000,10.060000,10.060000,10.060000,50000
2019-01-17,10.060000,10.060000,10.060000,10.060000,10.060000,103000
2019-01-18,10.060000,10.060000,10.050000,10.060000,10.060000,108600
2019-01-22,10.060000,10.060000,10.060000,10.060000,10.060000,130000
2019-01-23,10.060000,10.060000,10.060000,10.060000,10.060000,185000
2019-01-24,10.060000,10.060000,10.060000,10.060000,10.060000,100
2019-01-25,10.060000,10.060000,10.060000,10.060000,10.060000,100
2019-01-28,10.060000,10.060000,10.060000,10.060000,10.060000,100
2019-01-29,10.060000,10.090000,10.060000,10.070000,10.070000,1245000
2019-01-30,10.080000,10.080000,10.080000,10.080000,10.080000,1000
2019-01-31,10.070000,10.090000,10.070000,10.090000,10.090000,135100
2019-02-01,10.090000,10.090000,10.090000,10.090000,10.090000,0
2019-02-04,10.097000,10.097000,10.097000,10.097000,10.097000,1000
2019-02-05,10.070000,10.070000,10.070000,10.070000,10.070000,25000
2019-02-06,10.070000,10.070000,10.070000,10.070000,10.070000,100
2019-02-07,10.080000,10.080000,10.080000,10.080000,10.080000,6700
2019-02-08,10.080000,10.080000,10.080000,10.080000,10.080000,18400
2019-02-11,10.080000,10.080000,10.080000,10.080000,10.080000,0
2019-02-12,10.090000,10.130000,10.090000,10.100000,10.100000,585100
2019-02-13,10.110000,10.110000,10.110000,10.110000,10.110000,100000
2019-02-14,10.110000,10.110000,10.110000,10.110000,10.110000,0
2019-02-15,10.150000,10.150000,10.150000,10.150000,10.150000,14600
2019-02-19,10.150000,10.150000,10.150000,10.150000,10.150000,3900
2019-02-20,10.150000,10.150000,10.120000,10.120000,10.120000,745500
2019-02-21,10.130000,10.130000,10.130000,10.130000,10.130000,162500
2019-02-22,10.150000,10.150000,10.140000,10.150000,10.150000,36200
2019-02-25,10.180000,10.180000,10.180000,10.180000,10.180000,600
2019-02-26,10.133000,10.180000,10.130000,10.160000,10.160000,419100
2019-02-27,10.160000,10.160000,10.160000,10.160000,10.160000,100
2019-02-28,10.160000,10.160000,10.160000,10.160000,10.160000,0
2019-03-01,10.080000,10.180000,10.080000,10.180000,10.180000,22700
2019-03-04,10.150000,10.150000,10.150000,10.150000,10.150000,200
2019-03-05,10.150000,10.160000,10.150000,10.160000,10.160000,100600
2019-03-06,10.140000,10.140000,10.100000,10.140000,10.140000,4000
2019-03-07,10.190000,10.190000,10.130000,10.130000,10.130000,1100
2019-03-08,10.150000,10.190000,10.150000,10.190000,10.190000,796500
2019-03-11,10.140000,10.200000,10.140000,10.150000,10.150000,479400
2019-03-12,10.170000,10.190000,10.160000,10.160000,10.160000,559100
2019-03-13,10.190000,10.190000,10.160000,10.160000,10.160000,104100
2019-03-14,10.160000,10.190000,10.160000,10.170000,10.170000,102200
2019-03-15,10.190000,10.190000,10.160000,10.160000,10.160000,6100
2019-03-18,10.170000,10.170000,10.170000,10.170000,10.170000,1300
2019-03-19,10.130000,10.180000,10.120000,10.160000,10.160000,576600
2019-03-20,10.160000,10.160000,10.160000,10.160000,10.160000,0
2019-03-21,10.180000,10.200000,10.160000,10.200000,10.200000,120400
2019-03-22,10.130000,10.200000,10.130000,10.180000,10.180000,203700
2019-03-25,10.180000,10.190000,10.160000,10.190000,10.190000,6800
2019-03-26,10.180000,10.180000,10.130000,10.130000,10.130000,3500
2019-03-27,10.180000,10.200000,10.160000,10.190000,10.190000,118800
2019-03-28,10.190000,10.260000,10.180000,10.210000,10.210000,818800
2019-03-29,10.250000,10.250000,10.200000,10.250000,10.250000,7300
2019-04-01,10.240000,10.270000,10.200000,10.200000,10.200000,32500
2019-04-02,10.240000,10.250000,10.240000,10.240000,10.240000,4300
2019-04-03,10.230000,10.240000,10.209000,10.230000,10.230000,1107300
2019-04-04,10.250000,10.270000,10.230000,10.250000,10.250000,310700
2019-04-05,10.270000,10.350000,10.230000,10.230000,10.230000,109500
2019-04-08,10.280000,10.280000,10.230000,10.240000,10.240000,514800
2019-04-09,10.230000,10.250000,10.230000,10.240000,10.240000,557300
2019-04-10,10.260000,10.260000,10.220000,10.220000,10.220000,6400
2019-04-11,10.240000,10.250000,10.235000,10.250000,10.250000,1703200
2019-04-12,10.240000,10.250000,10.240000,10.250000,10.250000,1067100
2019-04-15,10.270000,10.270000,10.240000,10.250000,10.250000,32800
2019-04-16,10.270000,10.270000,10.240000,10.240000,10.240000,37500
2019-04-17,10.250000,10.280000,10.240000,10.250000,10.250000,195100
2019-04-18,10.250000,10.280000,10.240000,10.260000,10.260000,143700
2019-04-22,10.210000,10.310000,10.210000,10.260000,10.260000,139200
2019-04-23,10.340000,10.340000,10.260000,10.290000,10.290000,170600
2019-04-24,10.280000,10.350000,10.240000,10.300000,10.300000,759600
2019-04-25,10.300000,10.300000,10.300000,10.300000,10.300000,10200
2019-04-26,10.350000,10.350000,10.240000,10.290000,10.290000,9300
2019-04-29,10.300000,10.300000,10.250000,10.280000,10.280000,54500
2019-04-30,10.280000,10.280000,10.250000,10.280000,10.280000,29700
2019-05-01,10.350000,10.350000,10.260000,10.280000,10.280000,253700
2019-05-02,10.280000,10.280000,10.260000,10.270000,10.270000,119500
2019-05-03,10.270000,10.270000,10.180000,10.270000,10.270000,394600
2019-05-06,10.100000,10.270000,10.100000,10.270000,10.270000,1900
2019-05-07,10.230000,10.260000,10.230000,10.250000,10.250000,46000
2019-05-08,10.230000,10.270000,10.180000,10.240000,10.240000,165100
2019-05-09,10.220000,10.250000,10.220000,10.220000,10.220000,213100
2019-05-10,10.220000,10.240000,10.170000,10.200000,10.200000,19900
2019-05-13,10.170000,10.220000,10.120000,10.190000,10.190000,57400
2019-05-14,10.200000,10.200000,10.130000,10.200000,10.200000,162200
2019-05-15,10.200000,10.270000,10.200000,10.250000,10.250000,489200
2019-05-16,10.230000,10.290000,10.190000,10.220000,10.220000,525200
2019-05-17,10.170000,10.250000,10.170000,10.220000,10.220000,5600
2019-05-20,10.160000,10.230000,10.160000,10.230000,10.230000,46600
2019-05-21,10.180000,10.260000,10.180000,10.240000,10.240000,3830100
2019-05-22,10.220000,10.250000,10.170000,10.170000,10.170000,441000
2019-05-23,10.130000,10.220000,10.130000,10.160000,10.160000,48500
2019-05-24,10.270000,10.270000,10.130000,10.130000,10.130000,70800
2019-05-28,10.010000,10.160000,10.010000,10.100000,10.100000,165400
2019-05-29,10.150000,10.150000,10.100000,10.100000,10.100000,9100
2019-05-30,10.100000,10.100000,9.950000,10.000000,10.000000,219700
2019-05-31,9.880000,9.950000,9.880000,9.880000,9.880000,10800
2019-06-03,9.850000,9.850000,9.800000,9.800000,9.800000,9500
2019-06-04,9.800000,9.800000,9.725000,9.725000,9.725000,26700
2019-06-05,9.800000,9.800000,9.510000,9.620000,9.620000,47100
2019-06-06,9.660000,9.660000,9.100000,9.330000,9.330000,134300
2019-06-07,9.280000,9.450000,9.180000,9.400000,9.400000,74200
2019-06-10,9.420000,9.745000,9.420000,9.700000,9.700000,198400
2019-06-11,9.700000,9.700000,9.500000,9.540000,9.540000,62400
2019-06-12,9.430000,9.700000,9.420000,9.660000,9.660000,122600
2019-06-13,9.540000,9.970000,9.520000,9.790000,9.790000,123400
2019-06-14,9.770000,9.980000,9.720000,9.940000,9.940000,67000
2019-06-17,9.900000,9.900000,9.560000,9.630000,9.630000,88500
2019-06-18,9.620000,9.880000,9.600000,9.700000,9.700000,192400
2019-06-19,9.660000,9.860000,9.300000,9.300000,9.300000,210600
2019-06-20,9.370000,9.870000,9.350000,9.490000,9.490000,312700
2019-06-21,9.490000,9.770000,9.250000,9.350000,9.350000,186300
2019-06-24,9.380000,9.513000,8.940000,8.980000,8.980000,269400
2019-06-25,9.000000,9.090000,8.670000,8.730000,8.730000,253700
2019-06-26,8.760000,8.760000,8.510000,8.580000,8.580000,99200
2019-06-27,8.670000,8.940000,8.570000,8.700000,8.700000,67900
2019-06-28,8.660000,8.970000,8.660000,8.850000,8.850000,23200
2019-07-01,8.850000,9.400000,8.850000,9.360000,9.360000,37900
2019-07-02,9.280000,9.360000,8.945000,8.990000,8.990000,44300
2019-07-03,9.110000,9.110000,8.770000,8.820000,8.820000,33000
2019-07-05,8.910000,9.220000,8.805000,9.050000,9.050000,70400
2019-07-08,9.030000,9.050000,8.860000,8.960000,8.960000,52900
2019-07-09,8.940000,9.090000,8.800000,8.850000,8.850000,183600
2019-07-10,9.090000,9.280000,8.950000,9.010000,9.010000,45700
2019-07-11,9.020000,9.240000,8.760000,8.830000,8.830000,52500
2019-07-12,9.020000,9.020000,8.785000,8.820000,8.820000,18000
2019-07-15,9.010000,9.010000,8.500000,8.710000,8.710000,146000
2019-07-16,8.700000,8.710000,7.860000,8.210000,8.210000,137100
2019-07-17,8.340000,8.360000,8.090000,8.290000,8.290000,114100
2019-07-18,8.340000,8.350000,8.110000,8.110000,8.110000,79400
2019-07-19,8.120000,8.210000,7.760000,7.970000,7.970000,91600
2019-07-22,7.780000,8.050000,7.750000,7.770000,7.770000,43700
2019-07-23,7.790000,7.910000,7.600000,7.690000,7.690000,54600
2019-07-24,7.690000,7.760000,7.160000,7.200000,7.200000,56200
2019-07-25,7.180000,7.180000,6.826000,6.860000,6.860000,34300
2019-07-26,7.030000,7.290000,6.945000,7.190000,7.190000,111900
2019-07-29,7.370000,7.410000,6.890000,6.960000,6.960000,42300
2019-07-30,6.750000,6.750000,6.520000,6.590000,6.590000,72900
2019-07-31,6.590000,6.820000,6.470000,6.540000,6.540000,76600
2019-08-01,6.610000,6.720000,6.500000,6.680000,6.680000,18600
2019-08-02,6.680000,6.740000,6.460000,6.540000,6.540000,17400
2019-08-05,6.460000,6.540000,6.370000,6.470000,6.470000,2900
2019-08-06,6.460000,6.580000,6.345000,6.350000,6.350000,3800
2019-08-07,6.280000,6.280000,5.050000,5.050000,5.050000,112400
2019-08-08,5.010000,5.370000,5.010000,5.190000,5.190000,27000
2019-08-09,5.136000,5.240000,4.500000,5.040000,5.040000,110600
2019-08-12,5.000000,5.140000,4.890000,5.005000,5.005000,24200
2019-08-13,5.250000,5.250000,4.860000,4.880000,4.880000,34200
2019-08-14,4.790000,4.790000,4.360000,4.580000,4.580000,104400
2019-08-15,4.590000,4.840000,4.315000,4.825000,4.825000,174300
2019-08-16,4.830000,5.100000,4.500000,4.970000,4.970000,27900
2019-08-19,5.130000,5.240000,5.020000,5.100000,5.100000,59500
2019-08-20,5.170000,5.260000,5.010000,5.100000,5.100000,32300
2019-08-21,5.210000,5.320000,5.010000,5.200000,5.200000,4500
2019-08-22,5.160000,5.360000,5.120000,5.230000,5.230000,20200
2019-08-23,5.270000,5.450000,5.250000,5.260000,5.260000,20900
2019-08-26,5.430000,5.590000,5.250000,5.290000,5.290000,48300
2019-08-27,5.420000,5.600000,5.300000,5.590000,5.590000,49900
2019-08-28,5.600000,5.620000,5.400000,5.530000,5.530000,36900
2019-08-29,5.610000,5.735000,5.450000,5.600000,5.600000,21800
2019-08-30,5.730000,5.790000,5.370000,5.600000,5.600000,47600
2019-09-03,5.740000,5.740000,5.450000,5.680000,5.680000,20800
2019-09-04,5.650000,5.740000,5.610000,5.730000,5.730000,2400
2019-09-05,5.850000,5.850000,5.604000,5.700000,5.700000,5900
2019-09-06,5.820000,6.330000,5.780000,6.190000,6.190000,25000
2019-09-09,6.150000,6.370000,5.990000,6.250000,6.250000,24000
2019-09-10,6.440000,6.980000,6.300000,6.585000,6.585000,60100
2019-09-11,6.700000,6.850000,6.500000,6.680000,6.680000,30400
2019-09-12,6.630000,6.750000,6.415000,6.630000,6.630000,36400
2019-09-13,6.660000,6.750000,6.415000,6.490000,6.490000,227000
2019-09-16,6.620000,6.700000,6.410000,6.650000,6.650000,35000
2019-09-17,6.650000,7.000000,6.500000,6.760000,6.760000,144300
2019-09-18,6.720000,6.950000,6.500000,6.710000,6.710000,133600
2019-09-19,6.740000,6.870000,6.580000,6.750000,6.750000,109100
2019-09-20,6.730000,7.050000,6.400000,6.420000,6.420000,183500
2019-09-23,6.490000,6.660000,6.080000,6.510000,6.510000,78900
2019-09-24,6.500000,6.690000,6.050000,6.380000,6.380000,59700
2019-09-25,6.330000,6.450000,5.965000,5.970000,5.970000,31200
2019-09-26,5.920000,6.200000,5.670000,6.000000,6.000000,19500
2019-09-27,6.040000,6.240000,5.940000,6.030000,6.030000,15400
2019-09-30,6.220000,6.220000,5.935000,6.060000,6.060000,20300
2019-10-01,6.110000,6.200000,5.930000,6.040000,6.040000,10800
2019-10-02,6.000000,6.050000,5.860000,5.880000,5.880000,30800
2019-10-03,5.870000,5.940000,5.400000,5.650000,5.650000,90200
2019-10-04,5.600000,6.260000,5.600000,5.690000,5.690000,59500
2019-10-07,5.670000,6.500000,5.670000,5.750000,5.750000,91100
2019-10-08,5.710000,6.310000,5.710000,6.080000,6.080000,18000
2019-10-09,6.255000,6.500000,6.000000,6.340000,6.340000,70200
2019-10-10,6.340000,6.465000,6.060000,6.320000,6.320000,20000
2019-10-11,6.050000,6.320000,5.940000,5.940000,5.940000,39300
2019-10-14,5.980000,6.180000,5.850000,6.180000,6.180000,6800
2019-10-15,6.070000,6.350000,5.980000,6.320000,6.320000,13900
2019-10-16,6.350000,6.410000,6.080000,6.310000,6.310000,17900
2019-10-17,6.370000,6.370000,6.010000,6.020000,6.020000,7300
2019-10-18,6.000000,6.185000,5.900000,6.000000,6.000000,7700
2019-10-21,5.920000,6.250000,5.900000,5.900000,5.900000,25600
2019-10-22,5.910000,6.200000,5.910000,5.920000,5.920000,27100
2019-10-23,5.920000,6.230000,5.920000,5.960000,5.960000,12900
2019-10-24,6.380000,6.450000,5.790000,5.910000,5.910000,26600
2019-10-25,5.900000,6.100000,5.900000,5.930000,5.930000,16000
2019-10-28,5.980000,6.100000,5.940000,6.070000,6.070000,6300
2019-10-29,6.200000,6.200000,6.030000,6.050000,6.050000,5100
2019-10-30,6.180000,6.250000,6.050000,6.050000,6.050000,8800
2019-10-31,6.040000,6.210000,5.970000,5.970000,5.970000,10100
2019-11-01,5.970000,6.150000,5.970000,6.000000,6.000000,5900
2019-11-04,6.200000,6.400000,6.010000,6.120000,6.120000,19600
2019-11-05,6.100000,6.475000,6.090000,6.370000,6.370000,29100
2019-11-06,6.370000,6.681000,6.180000,6.300000,6.300000,119900
2019-11-07,6.310000,6.350000,6.270000,6.270000,6.270000,2400
2019-11-08,6.390000,6.500000,6.150000,6.150000,6.150000,6400
2019-11-11,6.470000,6.690000,6.170000,6.360000,6.360000,4300
2019-11-12,6.200000,6.487000,6.160000,6.300000,6.300000,7700
2019-11-13,6.140000,6.384000,6.120000,6.150000,6.150000,9400
2019-11-14,6.240000,6.250000,5.900000,5.950000,5.950000,22400
2019-11-15,5.950000,6.210000,5.950000,6.100000,6.100000,9700
2019-11-18,6.154000,6.250000,5.950000,5.970000,5.970000,27400
2019-11-19,5.975000,6.070000,5.930000,6.070000,6.070000,12000
2019-11-20,5.950000,6.040000,5.900000,5.900000,5.900000,47500
2019-11-21,5.910000,6.070000,5.910000,6.000000,6.000000,546300
2019-11-22,5.960000,6.090000,5.960000,6.090000,6.090000,20400
2019-11-25,6.110000,6.230000,5.940000,6.160000,6.160000,39200
2019-11-26,6.200000,6.220000,6.110000,6.160000,6.160000,30800
2019-11-27,6.190000,6.320000,6.000000,6.100000,6.100000,26100
2019-11-29,6.200000,6.320000,6.040000,6.320000,6.320000,12900
2019-12-02,6.300000,6.560000,6.230000,6.290000,6.290000,26100
2019-12-03,6.380000,6.420000,6.080000,6.400000,6.400000,32100
2019-12-04,6.250000,6.460000,6.170000,6.220000,6.220000,13500
2019-12-05,6.100000,6.340000,6.100000,6.110000,6.110000,35200
2019-12-06,6.170000,6.400000,6.110000,6.140000,6.140000,20300
2019-12-09,6.050000,6.100000,5.771000,5.960000,5.960000,45000
2019-12-10,5.850000,6.015000,5.850000,5.870000,5.870000,47000
2019-12-11,6.200000,6.980000,6.190000,6.600000,6.600000,908200
2019-12-12,6.700000,7.050000,6.504000,7.050000,7.050000,272300
2019-12-13,7.040000,7.140000,6.880000,7.100000,7.100000,139800
2019-12-16,7.170000,7.170000,6.920000,7.030000,7.030000,208100
2019-12-17,7.090000,7.106000,6.810000,6.840000,6.840000,124300
2019-12-18,6.900000,7.350000,6.900000,7.350000,7.350000,99000
2019-12-19,7.290000,7.480000,7.290000,7.330000,7.330000,136600
2019-12-20,7.320000,7.410000,7.020000,7.360000,7.360000,328700
2019-12-23,7.420000,7.880000,7.370000,7.750000,7.750000,333600
2019-12-24,7.710000,8.340000,7.700000,8.190000,8.190000,179500
2019-12-26,8.190000,8.410000,7.880000,8.200000,8.200000,148300
2019-12-27,8.140000,8.370000,8.050000,8.190000,8.190000,618700
2019-12-30,8.305000,8.305000,7.910000,8.200000,8.200000,187100
2019-12-31,8.130000,8.200000,7.990000,8.150000,8.150000,94800
2020-01-02,8.150000,8.410000,8.000000,8.200000,8.200000,165200
2020-01-03,8.130000,8.190000,7.920000,8.150000,8.150000,85600
2020-01-06,8.090000,8.130000,7.790000,8.100000,8.100000,118600
2020-01-07,8.080000,8.090000,7.790000,7.910000,7.910000,88900
2020-01-08,7.850000,8.050000,7.790000,8.000000,8.000000,111200
2020-01-09,7.930000,8.055000,7.800000,7.820000,7.820000,90900
2020-01-10,7.760000,7.980000,7.750000,7.940000,7.940000,73800
2020-01-13,7.950000,8.040000,7.740000,7.940000,7.940000,70300
2020-01-14,7.920000,8.010000,7.840000,7.870000,7.870000,75000
2020-01-15,7.940000,8.165000,7.870000,8.040000,8.040000,108700
2020-01-16,8.070000,8.090000,8.010000,8.010000,8.010000,8000
2020-01-17,8.020000,8.130000,7.960000,8.010000,8.010000,38800
2020-01-21,7.970000,8.010000,7.710000,7.750000,7.750000,32000
2020-01-22,7.760000,7.970000,7.710000,7.890000,7.890000,63600
2020-01-23,7.830000,8.070000,7.770000,7.960000,7.960000,59000
2020-01-24,7.970000,8.060000,7.850000,7.980000,7.980000,162400
2020-01-27,7.900000,8.055000,7.900000,7.910000,7.910000,24200
2020-01-28,7.940000,8.030000,7.820000,7.820000,7.820000,58900
2020-01-29,7.850000,7.950000,7.730000,7.870000,7.870000,17600
2020-01-30,7.820000,8.030000,7.720000,8.020000,8.020000,93900
2020-01-31,8.010000,8.020000,7.640000,7.640000,7.640000,51000
2020-02-03,7.683000,8.020000,7.630000,7.940000,7.940000,44300
2020-02-04,7.940000,8.040000,7.690000,7.950000,7.950000,51100
2020-02-05,7.960000,8.250000,7.960000,8.030000,8.030000,88000
2020-02-06,8.070000,8.220000,8.070000,8.130000,8.130000,24800
2020-02-07,8.080000,8.200000,8.000000,8.160000,8.160000,37300
2020-02-10,8.150000,8.250000,8.050000,8.140000,8.140000,91700
2020-02-11,8.180000,8.370000,8.040000,8.040000,8.040000,80400
2020-02-12,8.070000,8.300000,8.010000,8.210000,8.210000,56800
2020-02-13,8.150000,8.600000,8.150000,8.450000,8.450000,344500
2020-02-14,8.420000,8.480000,8.260000,8.290000,8.290000,58210
