Date,Open,High,Low,Close,Adj Close,Volume
2014-07-14,19.702000,19.743999,19.702000,19.743999,19.743999,0
2014-07-15,19.923000,19.951000,19.923000,19.951000,19.951000,0
2014-07-16,20.370001,20.370001,20.370001,20.370001,20.370001,0
2014-07-17,19.990000,19.990000,19.990000,19.990000,19.990000,0
2014-07-18,19.540001,19.540001,19.540001,19.540001,19.540001,0
2014-07-21,19.735001,19.735001,19.735001,19.735001,19.735001,0
2014-07-22,19.510000,19.848000,19.510000,19.848000,19.848000,0
2014-07-23,19.950001,19.950001,19.950001,19.950001,19.950001,0
2014-07-24,19.721001,19.952999,19.721001,19.952999,19.952999,0
2014-07-25,19.930000,19.930000,19.930000,19.930000,19.930000,0
2014-07-28,20.195000,20.195000,20.100000,20.100000,20.100000,0
2014-07-29,19.900000,19.900000,19.900000,19.900000,19.900000,0
2014-07-30,20.209999,20.209999,20.209999,20.209999,20.209999,0
2014-07-31,20.010000,20.010000,20.010000,20.010000,20.010000,0
2014-08-01,20.125000,20.125000,20.125000,20.125000,20.125000,0
2014-08-04,19.709999,19.709999,19.709999,19.709999,19.709999,0
2014-08-05,19.254999,19.254999,19.254999,19.254999,19.254999,0
2014-08-06,18.715000,18.715000,18.715000,18.715000,18.715000,0
2014-08-07,19.129000,19.129000,18.983999,18.983999,18.983999,0
2014-08-08,19.125000,19.125000,19.125000,19.125000,19.125000,0
2014-08-11,19.305000,19.305000,19.305000,19.305000,19.305000,0
2014-08-12,18.823000,18.864000,18.823000,18.864000,18.864000,0
2014-08-13,18.695000,18.799999,18.695000,18.799999,18.799999,10
2014-08-14,18.745001,18.745001,18.745001,18.745001,18.745001,10
2014-08-15,19.190001,19.190001,19.190001,19.190001,19.190001,0
2014-08-18,19.190001,19.190001,19.190001,19.190001,19.190001,0
2014-08-19,19.773001,20.358999,19.773001,20.358999,20.358999,0
2014-08-20,20.565001,20.565001,20.565001,20.565001,20.565001,10
2014-08-21,21.090000,21.090000,21.090000,21.090000,21.090000,0
2014-08-22,21.055000,21.055000,21.055000,21.055000,21.055000,0
2014-08-25,20.599001,20.849001,20.599001,20.849001,20.849001,0
2014-08-26,21.004999,21.004999,20.811001,20.986000,20.986000,0
2014-08-27,20.826000,21.020000,20.826000,21.020000,21.020000,0
2014-08-28,21.004999,21.004999,21.004999,21.004999,21.004999,0
2014-08-29,21.325001,21.325001,21.325001,21.325001,21.325001,10
2014-09-02,21.635000,21.635000,21.635000,21.635000,21.635000,0
2014-09-03,21.035000,21.201000,21.035000,21.201000,21.201000,0
2014-09-04,20.886999,21.422001,20.886999,21.422001,21.422001,0
2014-09-05,21.049999,21.049999,21.049999,21.049999,21.049999,10
2014-09-08,21.459999,21.545000,21.459999,21.545000,21.545000,10
2014-09-09,21.459999,21.459999,21.459999,21.459999,21.459999,0
2014-09-10,20.424999,20.424999,20.424999,20.424999,20.424999,10
2014-09-11,20.200001,20.200001,20.200001,20.200001,20.200001,0
2014-09-12,19.174999,19.174999,18.910000,18.910000,18.910000,500
2014-09-15,19.285000,19.285000,19.285000,19.285000,19.285000,0
2014-09-16,19.170000,19.170000,19.170000,19.170000,19.170000,500
2014-09-17,19.021999,19.402000,19.021999,19.224001,19.224001,100
2014-09-18,18.820000,18.820000,18.820000,18.820000,18.820000,0
2014-09-19,18.540001,18.540001,18.540001,18.540001,18.540001,500
2014-09-22,18.920000,18.920000,18.920000,18.920000,18.920000,500
2014-09-23,18.427999,18.636999,18.427999,18.625999,18.625999,0
2014-09-24,18.780001,18.780001,18.780001,18.780001,18.780001,0
2014-09-25,18.750000,18.750000,18.750000,18.750000,18.750000,500
2014-09-26,18.725000,19.160000,18.725000,19.160000,19.160000,500
2014-09-29,19.100000,19.100000,18.860001,18.965000,18.965000,500
2014-09-30,18.934999,19.135000,18.924999,18.924999,18.924999,500
2014-10-01,18.813999,19.052999,18.813999,19.052999,19.052999,0
2014-10-02,18.813000,18.924000,18.527000,18.598000,18.598000,0
2014-10-03,18.598000,18.598000,18.598000,18.598000,18.598000,0
2014-10-06,18.790001,18.837999,18.730000,18.837999,18.837999,0
2014-10-07,18.628000,19.281000,18.628000,19.281000,19.281000,0
2014-10-08,18.714001,18.785999,18.714001,18.785999,18.785999,0
2014-10-09,19.093000,19.093000,18.878000,18.878000,18.878000,0
2014-10-10,18.337000,18.664000,18.337000,18.584999,18.584999,0
2014-10-13,18.243000,18.243000,17.930000,17.930000,17.930000,0
2014-10-14,17.632999,17.735001,17.632999,17.721001,17.721001,0
2014-10-15,17.322001,17.365999,16.559000,17.042000,17.042000,0
2014-10-16,17.108999,18.155001,17.108999,18.155001,18.155001,300
2014-10-17,17.591000,17.848000,17.579000,17.848000,17.848000,0
2014-10-20,17.853001,18.309000,17.853001,18.000999,18.000999,0
2014-10-21,18.097000,18.805000,18.097000,18.805000,18.805000,0
2014-10-22,18.934999,18.934999,18.934999,18.934999,18.934999,0
2014-10-23,18.465000,18.465000,18.465000,18.465000,18.465000,0
2014-10-24,18.809999,18.809999,18.809999,18.809999,18.809999,0
2014-10-27,18.844999,18.844999,18.844999,18.844999,18.844999,0
2014-10-28,18.844999,18.844999,18.844999,18.844999,18.844999,0
2014-10-29,19.299999,19.299999,19.299999,19.299999,19.299999,0
2014-10-30,19.282000,20.354000,19.282000,19.783001,19.783001,0
2014-10-31,19.778000,20.528999,19.771000,20.528999,20.528999,0
2014-11-03,20.669001,21.171000,20.669001,21.171000,21.171000,0
2014-11-04,20.850000,20.850000,20.850000,20.850000,20.850000,0
2014-11-05,21.010000,21.066999,20.552999,20.552999,20.552999,0
2014-11-06,20.511000,21.062000,20.511000,21.062000,21.062000,0
2014-11-07,20.799999,20.799999,20.799999,20.799999,20.799999,0
2014-11-10,21.035999,21.573000,21.035999,21.573000,21.573000,0
2014-11-11,20.731001,21.650000,20.731001,21.249001,21.249001,500
2014-11-12,21.266001,21.438000,21.266001,21.438000,21.438000,0
2014-11-13,21.735001,21.735001,21.594999,21.594999,21.594999,0
2014-11-14,0.500000,0.500000,0.500000,0.500000,0.500000,2000
2014-11-17,0.500000,0.590000,0.500000,0.530000,0.530000,31653
2014-11-18,0.540000,0.610000,0.540000,0.610000,0.610000,5829
2014-11-19,0.610000,0.610000,0.600000,0.610000,0.610000,1061
2014-11-20,0.610000,0.730000,0.610000,0.730000,0.730000,5934
2014-11-21,0.730000,0.770000,0.700000,0.760000,0.760000,12625
2014-11-24,0.680000,0.740000,0.680000,0.740000,0.740000,6228
2014-11-25,0.680000,0.800000,0.680000,0.710000,0.710000,12100
2014-11-26,0.680000,0.710000,0.680000,0.710000,0.710000,88
2014-11-28,0.550000,0.580000,0.540000,0.540000,0.540000,5520
2014-12-01,0.580000,0.580000,0.580000,0.580000,0.580000,1005
2014-12-02,0.600000,0.650000,0.580000,0.580000,0.580000,10595
2014-12-03,23.559000,24.247000,23.559000,24.247000,24.247000,0
2014-12-04,0.580000,0.580000,0.580000,0.580000,0.580000,0
2014-12-05,0.630000,0.630000,0.570000,0.570000,0.570000,3553
2014-12-08,0.550000,0.650000,0.550000,0.640000,0.640000,11444
2014-12-09,0.570000,0.570000,0.570000,0.570000,0.570000,4632
2014-12-10,0.560000,0.570000,0.560000,0.570000,0.570000,5000
2014-12-11,22.195000,22.195000,22.195000,22.195000,22.195000,0
2014-12-12,0.530000,0.550000,0.530000,0.550000,0.550000,2936
2014-12-15,0.550000,0.550000,0.550000,0.550000,0.550000,0
2014-12-16,21.200001,21.200001,21.200001,21.200001,21.200001,0
2014-12-17,20.731001,21.658001,20.731001,21.658001,21.658001,0
2014-12-18,0.600000,0.600000,0.600000,0.600000,0.600000,5000
2014-12-19,21.122999,21.152000,20.628000,20.896999,20.896999,0
2014-12-22,21.099001,21.099001,21.031000,21.031000,21.031000,0
2014-12-23,0.530000,0.530000,0.520000,0.520000,0.520000,5700
2014-12-24,21.155001,21.155001,21.155001,21.155001,21.155001,0
2014-12-26,21.155001,21.155001,21.155001,21.155001,21.155001,0
2014-12-29,21.445999,21.969000,21.424000,21.579000,21.579000,0
2014-12-30,0.540000,0.640000,0.540000,0.640000,0.640000,2802
2014-12-31,0.640000,0.640000,0.640000,0.640000,0.640000,0
2015-01-02,0.520000,0.540000,0.520000,0.540000,0.540000,2001
2015-01-05,0.520000,0.540000,0.520000,0.540000,0.540000,2753
2015-01-06,20.653000,21.231001,20.653000,20.780001,20.780001,120
2015-01-07,20.510000,20.929001,20.510000,20.584999,20.584999,0
2015-01-08,0.540000,0.580000,0.510000,0.580000,0.580000,7548
2015-01-09,21.485001,21.511000,20.966999,21.245001,21.245001,0
2015-01-12,0.510000,0.540000,0.410000,0.500000,0.500000,17842
2015-01-13,0.550000,0.550000,0.510000,0.550000,0.550000,4178
2015-01-14,0.550000,0.550000,0.550000,0.550000,0.550000,0
2015-01-15,0.550000,0.610000,0.550000,0.600000,0.600000,2352
2015-01-16,0.600000,0.600000,0.600000,0.600000,0.600000,0
2015-01-20,0.600000,0.600000,0.600000,0.600000,0.600000,0
2015-01-21,0.600000,0.600000,0.600000,0.600000,0.600000,0
2015-01-22,21.930000,23.187000,21.850000,23.187000,23.187000,0
2015-01-23,23.242001,23.938000,23.219999,23.938000,23.938000,0
2015-01-26,24.253000,24.356001,24.128000,24.236000,24.236000,0
2015-01-27,24.243000,24.243000,23.841999,23.943001,23.943001,0
2015-01-28,24.077000,24.747000,24.041000,24.747000,24.747000,0
2015-01-29,24.680000,24.819000,24.336000,24.591999,24.591999,0
2015-01-30,24.424000,24.905001,24.266001,24.905001,24.905001,0
2015-02-02,0.520000,0.540000,0.470000,0.520000,0.520000,5139
2015-02-03,0.962000,0.975000,0.915000,0.965000,0.965000,21715
2015-02-04,0.520000,0.560000,0.520000,0.540000,0.540000,5571
2015-02-05,0.960000,0.985000,0.960000,0.984000,0.984000,5857
2015-02-06,24.808001,25.375999,24.808001,25.375999,25.375999,0
2015-02-09,0.987000,0.987000,0.942000,0.965000,0.965000,16087
2015-02-10,25.152000,25.535999,25.152000,25.535999,25.535999,0
2015-02-11,25.487000,25.584999,25.112000,25.112000,25.112000,0
2015-02-12,0.933000,0.958000,0.900000,0.951000,0.951000,11136
2015-02-13,0.520000,0.550000,0.520000,0.550000,0.550000,11228
2015-02-17,0.957000,0.957000,0.957000,0.957000,0.957000,2541
2015-02-18,0.957000,0.957000,0.920000,0.934000,0.934000,21173
2015-02-19,26.298000,27.157000,25.955999,26.917000,26.917000,0
2015-02-20,26.850000,26.850000,26.850000,26.850000,26.850000,0
2015-02-23,27.000000,27.801001,26.601999,27.801001,27.801001,0
2015-02-24,27.843000,27.971001,27.436001,27.599001,27.599001,0
2015-02-25,0.950000,0.950000,0.950000,0.950000,0.950000,100
2015-02-26,0.951000,0.951000,0.951000,0.951000,0.951000,2353
2015-02-27,28.235001,28.235001,28.235001,28.235001,28.235001,0
2015-03-02,0.530000,0.530000,0.530000,0.530000,0.530000,0
2015-03-03,0.530000,0.530000,0.490000,0.530000,0.530000,22090
2015-03-04,0.530000,0.540000,0.530000,0.540000,0.540000,10000
2015-03-05,0.550000,0.550000,0.520000,0.520000,0.520000,7515
2015-03-06,0.520000,0.520000,0.520000,0.520000,0.520000,0
2015-03-09,0.530000,0.570000,0.530000,0.570000,0.570000,30105
2015-03-10,0.570000,0.810000,0.570000,0.680000,0.680000,262038
2015-03-11,0.670000,0.920000,0.650000,0.800000,0.800000,139465
2015-03-12,0.820000,0.850000,0.700000,0.740000,0.740000,35422
2015-03-13,0.670000,0.740000,0.650000,0.710000,0.710000,37142
2015-03-16,0.710000,0.740000,0.600000,0.610000,0.610000,37501
2015-03-17,0.670000,0.670000,0.610000,0.670000,0.670000,13728
2015-03-18,0.670000,0.980000,0.670000,0.980000,0.980000,185364
2015-03-19,0.990000,1.400000,0.990000,1.120000,1.120000,285170
2015-03-20,1.190000,1.380000,1.070000,1.330000,1.330000,268907
2015-03-23,1.350000,1.490000,1.290000,1.440000,1.440000,198103
2015-03-24,1.430000,1.430000,1.250000,1.320000,1.320000,189613
2015-03-25,1.250000,1.300000,1.140000,1.220000,1.220000,83771
2015-03-26,1.200000,1.220000,1.110000,1.190000,1.190000,62471
2015-03-27,1.200000,1.450000,1.200000,1.420000,1.420000,208245
2015-03-30,1.390000,1.630000,1.220000,1.380000,1.380000,294239
2015-03-31,1.360000,1.390000,1.240000,1.340000,1.340000,83824
2015-04-01,1.250000,1.350000,1.230000,1.260000,1.260000,35593
2015-04-02,1.280000,1.290000,1.070000,1.150000,1.150000,144614
2015-04-06,1.150000,1.150000,1.150000,1.150000,1.150000,0
2015-04-07,1.060000,1.210000,1.000000,1.120000,1.120000,55486
2015-04-08,1.150000,1.200000,1.080000,1.180000,1.180000,22668
2015-04-09,1.080000,1.150000,1.080000,1.120000,1.120000,29439
2015-04-10,1.140000,1.140000,1.050000,1.120000,1.120000,24646
2015-04-13,1.120000,1.270000,1.060000,1.260000,1.260000,111607
2015-04-14,1.280000,1.370000,1.100000,1.100000,1.100000,106639
2015-04-15,1.130000,1.150000,1.060000,1.080000,1.080000,37280
2015-04-16,1.130000,1.160000,1.070000,1.080000,1.080000,29249
2015-04-17,1.080000,1.120000,1.060000,1.080000,1.080000,35105
2015-04-20,1.120000,1.120000,0.900000,1.030000,1.030000,55870
2015-04-21,1.020000,1.020000,0.850000,0.900000,0.900000,66101
2015-04-22,0.900000,0.940000,0.850000,0.940000,0.940000,17939
2015-04-23,0.920000,0.940000,0.810000,0.880000,0.880000,42787
2015-04-24,0.910000,1.020000,0.880000,1.000000,1.000000,22310
2015-04-27,0.950000,1.070000,0.930000,0.990000,0.990000,38932
2015-04-28,1.040000,1.040000,0.900000,0.910000,0.910000,61298
2015-04-29,0.860000,0.930000,0.860000,0.890000,0.890000,11624
2015-04-30,0.920000,1.000000,0.920000,0.990000,0.990000,32777
2015-05-01,0.990000,0.990000,0.990000,0.990000,0.990000,0
2015-05-04,0.940000,0.990000,0.940000,0.960000,0.960000,2088
2015-05-05,0.990000,1.150000,0.950000,1.060000,1.060000,92377
2015-05-06,1.060000,1.060000,0.960000,0.980000,0.980000,18563
2015-05-07,0.990000,1.050000,0.950000,1.000000,1.000000,8585
2015-05-08,1.000000,1.030000,0.960000,1.030000,1.030000,6560
2015-05-11,0.970000,1.000000,0.950000,1.000000,1.000000,6362
2015-05-12,0.950000,0.950000,0.920000,0.920000,0.920000,4684
2015-05-13,0.920000,0.970000,0.850000,0.950000,0.950000,16089
2015-05-14,0.900000,1.000000,0.870000,1.000000,1.000000,15211
2015-05-15,0.970000,0.990000,0.850000,0.890000,0.890000,15167
2015-05-18,0.940000,0.940000,0.900000,0.900000,0.900000,3375
2015-05-19,0.940000,0.980000,0.920000,0.940000,0.940000,2110
2015-05-20,0.940000,0.950000,0.900000,0.950000,0.950000,2912
2015-05-21,0.950000,0.950000,0.910000,0.930000,0.930000,5312
2015-05-22,0.930000,0.930000,0.930000,0.930000,0.930000,0
2015-05-26,0.900000,0.900000,0.870000,0.900000,0.900000,520
2015-05-27,0.900000,0.900000,0.850000,0.900000,0.900000,726
2015-05-28,0.860000,0.900000,0.850000,0.850000,0.850000,9285
2015-05-29,0.850000,0.870000,0.850000,0.870000,0.870000,2900
2015-06-01,0.870000,0.900000,0.870000,0.900000,0.900000,6595
2015-06-02,24.465000,24.465000,24.465000,24.465000,24.465000,0
2015-06-03,23.327999,23.327999,23.146000,23.146000,23.146000,0
2015-06-04,0.970000,0.970000,0.970000,0.970000,0.970000,0
2015-06-05,0.970000,1.240000,0.970000,1.240000,1.240000,154960
2015-06-08,1.240000,1.250000,1.000000,1.000000,1.000000,74450
2015-06-09,1.040000,1.080000,0.930000,0.990000,0.990000,72801
2015-06-10,1.030000,1.050000,0.970000,0.980000,0.980000,11049
2015-06-11,1.030000,1.100000,1.030000,1.090000,1.090000,26980
2015-06-12,1.020000,1.090000,0.950000,1.020000,1.020000,14377
2015-06-15,0.970000,1.060000,0.950000,1.060000,1.060000,6746
2015-06-16,0.990000,1.010000,0.990000,1.010000,1.010000,9848
2015-06-17,0.960000,0.980000,0.920000,0.970000,0.970000,13214
2015-06-18,1.000000,1.250000,1.000000,1.100000,1.100000,263220
2015-06-19,1.160000,1.160000,1.030000,1.070000,1.070000,44326
2015-06-22,1.100000,1.110000,0.950000,1.050000,1.050000,11948
2015-06-23,1.000000,1.070000,0.970000,1.060000,1.060000,35593
2015-06-24,1.010000,1.060000,0.930000,0.950000,0.950000,30704
2015-06-25,0.990000,1.010000,0.920000,0.940000,0.940000,37969
2015-06-26,0.940000,0.980000,0.890000,0.980000,0.980000,16728
2015-06-29,0.920000,0.960000,0.870000,0.940000,0.940000,21059
2015-06-30,0.950000,0.950000,0.900000,0.920000,0.920000,1747
2015-07-01,0.890000,0.980000,0.880000,0.980000,0.980000,23666
2015-07-02,0.970000,0.980000,0.970000,0.980000,0.980000,2002
2015-07-06,0.970000,0.970000,0.820000,0.870000,0.870000,39090
2015-07-07,0.850000,0.940000,0.840000,0.930000,0.930000,19374
2015-07-08,0.880000,0.880000,0.710000,0.810000,0.810000,54517
2015-07-09,0.800000,0.800000,0.750000,0.800000,0.800000,8881
2015-07-10,0.800000,0.880000,0.750000,0.830000,0.830000,26684
2015-07-13,0.820000,0.890000,0.800000,0.880000,0.880000,21473
2015-07-14,0.880000,0.880000,0.800000,0.840000,0.840000,10584
2015-07-15,0.820000,0.870000,0.750000,0.850000,0.850000,30180
2015-07-16,0.810000,0.870000,0.800000,0.860000,0.860000,19763
2015-07-17,0.830000,0.860000,0.810000,0.860000,0.860000,5100
2015-07-20,0.810000,0.860000,0.790000,0.830000,0.830000,11101
2015-07-21,0.790000,0.950000,0.780000,0.950000,0.950000,101904
2015-07-22,0.950000,0.960000,0.880000,0.900000,0.900000,39944
2015-07-23,0.860000,0.880000,0.780000,0.850000,0.850000,41321
2015-07-24,0.870000,0.880000,0.830000,0.830000,0.830000,7610
2015-07-27,0.840000,0.880000,0.780000,0.870000,0.870000,19782
2015-07-28,0.810000,0.870000,0.810000,0.870000,0.870000,720
2015-07-29,0.820000,0.830000,0.820000,0.830000,0.830000,3890
2015-07-30,0.920000,0.920000,0.890000,0.890000,0.890000,20420
2015-07-31,0.850000,0.850000,0.810000,0.850000,0.850000,5665
2015-08-03,0.850000,0.850000,0.850000,0.850000,0.850000,0
2015-08-04,0.850000,0.850000,0.850000,0.850000,0.850000,500
2015-08-05,0.820000,0.850000,0.800000,0.850000,0.850000,8010
2015-08-06,0.810000,0.810000,0.810000,0.810000,0.810000,5005
2015-08-07,0.800000,0.850000,0.800000,0.850000,0.850000,9158
2015-08-10,0.820000,0.820000,0.820000,0.820000,0.820000,1550
2015-08-11,0.800000,0.800000,0.800000,0.800000,0.800000,1650
2015-08-12,0.810000,0.840000,0.790000,0.840000,0.840000,10504
2015-08-13,0.840000,0.840000,0.800000,0.830000,0.830000,2823
2015-08-14,0.840000,1.020000,0.840000,1.020000,1.020000,124912
2015-08-17,1.060000,1.120000,1.000000,1.100000,1.100000,79541
2015-08-18,1.090000,1.100000,0.950000,0.970000,0.970000,53804
2015-08-19,1.000000,1.030000,0.940000,1.010000,1.010000,16245
2015-08-20,0.960000,1.000000,0.910000,0.910000,0.910000,29983
2015-08-21,0.920000,0.950000,0.910000,0.910000,0.910000,3222
2015-08-24,0.880000,0.880000,0.800000,0.870000,0.870000,21097
2015-08-25,0.860000,0.870000,0.790000,0.860000,0.860000,11416
2015-08-26,0.850000,0.850000,0.850000,0.850000,0.850000,2500
2015-08-27,0.850000,0.950000,0.850000,0.920000,0.920000,14975
2015-08-28,0.900000,0.980000,0.900000,0.980000,0.980000,22830
2015-08-31,0.950000,1.050000,0.950000,1.050000,1.050000,30631
2015-09-01,1.050000,1.050000,0.900000,0.910000,0.910000,24430
2015-09-02,0.970000,0.980000,0.950000,0.980000,0.980000,3008
2015-09-03,0.930000,0.940000,0.900000,0.910000,0.910000,9017
2015-09-04,0.910000,0.950000,0.900000,0.950000,0.950000,14423
2015-09-08,0.930000,0.940000,0.890000,0.930000,0.930000,1190
2015-09-09,0.900000,0.930000,0.890000,0.930000,0.930000,9123
2015-09-10,0.930000,0.930000,0.880000,0.880000,0.880000,1679
2015-09-11,0.890000,0.920000,0.880000,0.920000,0.920000,11671
2015-09-14,0.880000,0.880000,0.870000,0.870000,0.870000,6733
2015-09-15,24.809999,24.867001,24.690001,24.690001,24.690001,0
2015-09-16,24.922001,25.042000,23.632999,23.924999,23.924999,0
2015-09-17,0.900000,0.900000,0.800000,0.850000,0.850000,11675
2015-09-18,40.000000,42.000000,38.000000,41.299999,41.299999,3443800
2015-09-21,42.410000,42.410000,39.240002,40.000000,40.000000,312500
2015-09-22,39.740002,40.990002,39.480000,40.360001,40.360001,113800
2015-09-23,41.240002,43.060001,40.509998,41.669998,41.669998,130000
2015-09-24,41.299999,42.500000,40.189999,41.680000,41.680000,136900
2015-09-25,41.310001,42.430000,40.220001,40.279999,40.279999,86400
2015-09-28,40.110001,40.500000,39.000000,39.040001,39.040001,285100
2015-09-29,39.060001,40.645000,39.040001,39.599998,39.599998,71100
2015-09-30,39.740002,40.770000,39.660000,40.099998,40.099998,50900
2015-10-01,40.150002,41.349998,39.410000,40.009998,40.009998,274800
2015-10-02,39.610001,40.299999,39.330002,39.889999,39.889999,169400
2015-10-05,39.990002,40.325001,39.014999,39.880001,39.880001,61900
2015-10-06,39.799999,40.424999,38.790001,39.340000,39.340000,175900
2015-10-07,39.410000,41.700001,39.000000,41.110001,41.110001,300100
2015-10-08,41.250000,41.939999,40.520000,41.689999,41.689999,119200
2015-10-09,41.509998,41.650002,39.115002,39.500000,39.500000,185800
2015-10-12,39.924999,40.330002,38.590000,39.139999,39.139999,223300
2015-10-13,39.130001,40.119999,39.000000,39.990002,39.990002,179400
2015-10-14,39.990002,41.509998,39.139999,40.779999,40.779999,188600
2015-10-15,40.910000,41.500000,40.049999,40.400002,40.400002,148500
2015-10-16,40.410000,41.000000,40.000000,40.799999,40.799999,105300
2015-10-19,41.020000,41.430000,40.259998,41.000000,41.000000,69500
2015-10-20,41.380001,41.430000,38.779999,39.580002,39.580002,139800
2015-10-21,40.000000,40.000000,36.950001,38.500000,38.500000,270700
2015-10-22,38.570000,38.619999,35.314999,36.720001,36.720001,298400
2015-10-23,37.150002,38.580002,36.639999,38.150002,38.150002,55200
2015-10-26,38.130001,38.980000,37.299999,38.000000,38.000000,107000
2015-10-27,37.889999,38.580002,36.480000,37.299999,37.299999,135300
2015-10-28,37.400002,38.400002,35.720001,36.500000,36.500000,418600
2015-10-29,36.099998,38.910000,35.700001,37.792000,37.792000,54300
2015-10-30,37.255001,38.480000,36.169998,37.029999,37.029999,86900
2015-11-02,37.310001,37.799999,36.750000,37.240002,37.240002,54200
2015-11-03,37.290001,37.439999,36.279999,37.270000,37.270000,126400
2015-11-04,36.930000,37.380001,36.514999,37.029999,37.029999,42700
2015-11-05,37.049999,37.470001,36.830002,36.840000,36.840000,46500
2015-11-06,36.950001,37.270000,36.430000,37.080002,37.080002,82600
2015-11-09,37.080002,38.000000,36.700001,37.919998,37.919998,33900
2015-11-10,38.099998,40.145000,37.779999,40.130001,40.130001,84800
2015-11-11,40.310001,40.950001,39.435001,40.360001,40.360001,106500
2015-11-12,40.340000,40.750999,37.750000,40.270000,40.270000,122300
2015-11-13,41.919998,51.549000,41.919998,49.799999,49.799999,371400
2015-11-16,49.669998,50.570000,49.130001,49.790001,49.790001,78900
2015-11-17,50.000000,51.000000,47.400002,48.240002,48.240002,96300
2015-11-18,48.180000,48.549999,46.685001,47.000000,47.000000,73800
2015-11-19,46.750000,47.009998,42.000000,46.189999,46.189999,77300
2015-11-20,46.200001,46.200001,44.634998,45.980000,45.980000,39100
2015-11-23,46.200001,48.480000,45.869999,47.869999,47.869999,105300
2015-11-24,47.849998,49.240002,46.840000,48.590000,48.590000,63100
2015-11-25,48.959999,51.980000,48.474998,50.910000,50.910000,69200
2015-11-27,51.410000,52.040001,50.189999,50.250000,50.250000,44800
2015-11-30,50.500000,51.610001,49.860001,50.320000,50.320000,83300
2015-12-01,50.480000,53.950001,50.480000,52.549999,52.549999,114800
2015-12-02,52.660000,53.500000,50.099998,52.139999,52.139999,121800
2015-12-03,51.910000,52.220001,48.400002,48.910000,48.910000,38100
2015-12-04,48.910000,51.000000,48.889999,49.740002,49.740002,56600
2015-12-07,50.240002,50.240002,46.349998,47.599998,47.599998,79200
2015-12-08,46.529999,48.139999,45.130001,45.500000,45.500000,93700
2015-12-09,45.820000,48.490002,45.820000,47.849998,47.849998,39200
2015-12-10,47.490002,52.680000,47.389999,51.500000,51.500000,94100
2015-12-11,51.189999,54.139999,50.299999,53.869999,53.869999,88700
2015-12-14,53.790001,54.365002,51.029999,51.680000,51.680000,80700
2015-12-15,51.290001,54.000000,51.029999,53.070000,53.070000,355600
2015-12-16,53.000000,56.080002,52.299999,55.599998,55.599998,159500
2015-12-17,55.040001,59.360001,54.000000,54.970001,54.970001,154700
2015-12-18,55.139999,57.980000,52.730000,54.980000,54.980000,831900
2015-12-21,54.599998,56.480000,52.959999,54.570000,54.570000,160500
2015-12-22,54.820000,57.000000,54.160000,55.230000,55.230000,114100
2015-12-23,55.180000,56.660000,54.130001,54.360001,54.360001,88300
2015-12-24,54.599998,55.060001,53.574001,54.220001,54.220001,16800
2015-12-28,54.290001,55.330002,51.380001,55.080002,55.080002,106600
2015-12-29,55.000000,55.513000,53.540001,54.720001,54.720001,99300
2015-12-30,55.000000,55.410000,53.660000,54.900002,54.900002,130100
2015-12-31,55.950001,55.990002,53.540001,53.810001,53.810001,61900
2016-01-04,53.200001,55.970001,53.130001,55.709999,55.709999,214800
2016-01-05,56.000000,56.970001,54.529999,55.029999,55.029999,104000
2016-01-06,54.889999,55.490002,53.349998,55.000000,55.000000,85700
2016-01-07,54.400002,55.480000,53.201000,53.560001,53.560001,75000
2016-01-08,53.410000,55.400002,53.180000,55.220001,55.220001,51700
2016-01-11,55.410000,56.160000,53.250000,55.330002,55.330002,83800
2016-01-12,55.840000,57.369999,54.400002,54.990002,54.990002,134100
2016-01-13,54.990002,56.950001,53.430000,53.549999,53.549999,106000
2016-01-14,53.750000,54.320000,51.139999,52.990002,52.990002,122200
2016-01-15,51.959999,52.990002,48.910000,49.070000,49.070000,54200
2016-01-19,49.630001,50.860001,48.139999,48.410000,48.410000,71800
2016-01-20,48.119999,49.369999,45.500000,46.529999,46.529999,95600
2016-01-21,46.139999,46.230000,45.070000,45.669998,45.669998,91000
2016-01-22,45.709999,46.250000,43.930000,44.810001,44.810001,116500
2016-01-25,44.320000,46.000000,43.029999,46.000000,46.000000,142600
2016-01-26,45.700001,45.830002,42.830002,44.950001,44.950001,303100
2016-01-27,44.650002,44.799999,42.723000,43.500000,43.500000,117800
2016-01-28,43.930000,44.049999,41.310001,42.360001,42.360001,100300
2016-01-29,42.320000,43.277000,41.820000,42.799999,42.799999,80400
2016-02-01,42.470001,45.630001,42.000000,45.299999,45.299999,116700
2016-02-02,44.779999,47.380001,44.220001,45.750000,45.750000,94100
2016-02-03,46.130001,46.410000,43.770000,44.990002,44.990002,99300
2016-02-04,44.270000,46.790001,44.270000,45.389999,45.389999,65300
2016-02-05,45.439999,45.439999,43.450001,43.880001,43.880001,69000
2016-02-08,43.950001,45.049999,43.419998,44.529999,44.529999,81700
2016-02-09,44.180000,44.590000,43.345001,43.810001,43.810001,101600
2016-02-10,44.509998,45.759998,44.000000,44.189999,44.189999,32700
2016-02-11,43.570000,44.459999,41.709999,42.419998,42.419998,96100
2016-02-12,42.459999,43.330002,40.230000,42.290001,42.290001,212500
2016-02-16,42.410000,44.669998,41.930000,44.220001,44.220001,61200
2016-02-17,44.500000,44.810001,43.450001,44.520000,44.520000,104200
2016-02-18,44.349998,46.525002,43.299999,45.770000,45.770000,85800
2016-02-19,45.810001,49.540001,44.549999,49.299999,49.299999,88600
2016-02-22,49.000000,51.779999,48.290001,50.200001,50.200001,114400
2016-02-23,50.500000,51.445000,48.759998,49.230000,49.230000,71100
2016-02-24,48.639999,48.639999,43.410000,46.639999,46.639999,197100
2016-02-25,46.000000,47.900002,46.000000,47.049999,47.049999,15700
2016-02-26,46.660000,48.220001,46.660000,47.450001,47.450001,58700
2016-02-29,47.540001,48.000000,46.009998,46.619999,46.619999,46500
2016-03-01,46.220001,46.689999,42.955002,45.509998,45.509998,206000
2016-03-02,45.790001,46.459999,44.130001,46.250000,46.250000,91500
2016-03-03,46.505001,46.505001,44.689999,45.200001,45.200001,46400
2016-03-04,45.590000,46.139999,43.990002,45.560001,45.560001,81600
2016-03-07,45.779999,46.680000,45.500000,46.040001,46.040001,85700
2016-03-08,46.529999,46.529999,43.759998,44.770000,44.770000,249000
2016-03-09,47.750000,48.500000,42.236000,43.150002,43.150002,581600
2016-03-10,43.480000,44.480000,41.349998,42.000000,42.000000,207000
2016-03-11,42.520000,43.639999,41.348999,42.730000,42.730000,268300
2016-03-14,42.750000,47.779999,42.750000,46.330002,46.330002,454100
2016-03-15,46.599998,51.980000,45.450001,47.389999,47.389999,448600
2016-03-16,46.869999,46.869999,42.020000,44.810001,44.810001,584700
2016-03-17,44.869999,46.799999,44.330002,45.009998,45.009998,436700
2016-03-18,45.349998,48.250000,44.740002,47.060001,47.060001,210600
2016-03-21,47.110001,47.110001,44.630001,45.009998,45.009998,170700
2016-03-22,44.169998,45.400002,44.169998,44.970001,44.970001,336100
2016-03-23,44.849998,45.490002,44.080002,44.150002,44.150002,220700
2016-03-24,44.150002,45.840000,43.830002,44.939999,44.939999,415300
2016-03-28,45.200001,45.485001,44.000000,44.060001,44.060001,251800
2016-03-29,43.970001,45.355000,43.680000,45.240002,45.240002,341500
2016-03-30,45.119999,45.785000,44.380001,45.250000,45.250000,240600
2016-03-31,45.500000,46.130001,44.270000,46.000000,46.000000,131800
2016-04-01,45.919998,47.049999,45.029999,46.730000,46.730000,326000
2016-04-04,46.680000,48.150002,46.119999,46.880001,46.880001,205400
2016-04-05,46.590000,47.825001,45.419998,45.860001,45.860001,145700
2016-04-06,45.900002,47.279999,45.430000,47.029999,47.029999,155700
2016-04-07,46.950001,48.000000,46.250000,46.990002,46.990002,97800
2016-04-08,47.299999,47.900002,45.669998,45.720001,45.720001,128400
2016-04-11,45.889999,46.560001,45.000000,45.529999,45.529999,297200
2016-04-12,45.590000,49.009998,45.590000,48.529999,48.529999,329300
2016-04-13,47.619999,51.660000,47.610001,51.099998,51.099998,481100
2016-04-14,50.599998,53.105000,50.540001,52.540001,52.540001,500600
2016-04-15,52.099998,52.900002,51.400002,51.410000,51.410000,267900
2016-04-18,51.020000,52.770000,50.930000,52.639999,52.639999,129000
2016-04-19,52.650002,54.340000,52.450001,52.750000,52.750000,194100
2016-04-20,52.209999,53.099998,51.279999,52.180000,52.180000,255800
2016-04-21,52.090000,55.250000,52.000000,54.400002,54.400002,525800
2016-04-22,54.470001,55.000000,53.680000,54.919998,54.919998,143900
2016-04-25,55.000000,55.500000,54.509998,55.110001,55.110001,110400
2016-04-26,54.669998,55.349998,53.950001,55.200001,55.200001,122400
2016-04-27,54.759998,55.470001,54.349998,54.410000,54.410000,78000
2016-04-28,54.310001,55.488998,54.209999,54.389999,54.389999,113000
2016-04-29,54.349998,54.959999,53.150002,54.500000,54.500000,124400
2016-05-02,54.709999,55.250000,54.209999,55.160000,55.160000,156000
2016-05-03,55.049999,55.200001,53.619999,54.430000,54.430000,64300
2016-05-04,54.110001,55.160000,54.000000,54.380001,54.380001,136000
2016-05-05,54.090000,55.000000,53.820000,54.500000,54.500000,139900
2016-05-06,53.970001,56.240002,53.290001,54.709999,54.709999,287600
2016-05-09,54.570000,55.250000,52.290001,53.580002,53.580002,174500
2016-05-10,54.500000,55.980000,52.349998,53.770000,53.770000,282900
2016-05-11,53.540001,53.570000,52.020000,52.290001,52.290001,117700
2016-05-12,51.740002,51.816002,47.669998,48.880001,48.880001,638100
2016-05-13,48.880001,49.418999,47.750000,48.869999,48.869999,296900
2016-05-16,47.980000,49.910000,47.250000,48.939999,48.939999,334800
2016-05-17,48.049999,49.070000,45.880001,48.040001,48.040001,522100
2016-05-18,47.889999,48.349998,47.550999,48.000000,48.000000,366500
2016-05-19,47.480000,49.500000,47.340000,49.430000,49.430000,376000
2016-05-20,48.900002,50.619999,48.180000,50.070000,50.070000,319100
2016-05-23,49.880001,52.250000,49.825001,51.500000,51.500000,499500
2016-05-24,51.779999,52.400002,51.090000,51.799999,51.799999,391300
2016-05-25,52.119999,52.549999,51.275002,52.389999,52.389999,390800
2016-05-26,52.000000,52.224998,50.889999,51.080002,51.080002,285600
2016-05-27,51.250000,53.500000,50.755001,53.369999,53.369999,447200
2016-05-31,52.980000,53.080002,50.930000,52.790001,52.790001,554100
2016-06-01,52.730000,55.560001,52.605000,55.000000,55.000000,474600
2016-06-02,54.869999,55.380001,54.740002,55.040001,55.040001,299700
2016-06-03,55.220001,55.650002,54.580002,55.520000,55.520000,286200
2016-06-06,55.630001,58.590000,55.599998,58.580002,58.580002,650700
2016-06-07,58.599998,59.750000,58.380001,59.509998,59.509998,382800
2016-06-08,59.779999,61.279999,59.459999,60.750000,60.750000,496900
2016-06-09,60.380001,61.500000,59.799999,60.970001,60.970001,301300
2016-06-10,60.869999,61.160000,59.639999,60.119999,60.119999,393400
2016-06-13,60.029999,60.730000,58.240002,58.279999,58.279999,358800
2016-06-14,58.189999,59.000000,57.549999,58.680000,58.680000,475200
2016-06-15,59.000000,59.680000,58.169998,58.990002,58.990002,234200
2016-06-16,58.750000,60.652000,58.490002,60.450001,60.450001,379700
2016-06-17,60.669998,61.070000,58.000000,58.730000,58.730000,1257100
2016-06-20,59.139999,61.599998,59.055000,60.509998,60.509998,437200
2016-06-21,60.480000,61.485001,59.419998,60.810001,60.810001,237300
2016-06-22,60.959999,61.180000,60.090000,60.730000,60.730000,305900
2016-06-23,60.580002,60.959999,59.709999,60.000000,60.000000,596600
2016-06-24,57.900002,59.840000,57.900002,58.150002,58.150002,2755300
2016-06-27,57.779999,57.849998,54.959999,56.680000,56.680000,626300
2016-06-28,57.200001,57.619999,56.209999,56.360001,56.360001,466400
2016-06-29,57.049999,58.639999,56.480000,58.330002,58.330002,249000
2016-06-30,58.700001,59.650002,58.070000,59.500000,59.500000,282600
2016-07-01,59.500000,59.689999,58.455002,59.560001,59.560001,206600
2016-07-05,59.040001,60.110001,58.820000,59.480000,59.480000,247300
2016-07-06,59.090000,60.540001,58.830002,59.770000,59.770000,238200
2016-07-07,60.220001,60.630001,59.160000,59.950001,59.950001,146000
2016-07-08,60.090000,60.730000,59.910000,60.490002,60.490002,147000
2016-07-11,60.500000,60.930000,59.980000,60.709999,60.709999,247400
2016-07-12,61.110001,61.869999,60.139999,60.619999,60.619999,128200
2016-07-13,60.830002,60.880001,59.439999,59.570000,59.570000,89600
2016-07-14,59.570000,60.770000,59.180000,60.369999,60.369999,192100
2016-07-15,60.650002,60.889999,59.465000,60.009998,60.009998,156400
2016-07-18,60.020000,60.369999,59.669998,60.320000,60.320000,103200
2016-07-19,60.419998,60.750000,59.250000,59.599998,59.599998,142300
2016-07-20,60.230000,61.549999,59.599998,60.580002,60.580002,148100
2016-07-21,61.000000,61.000000,59.279999,59.470001,59.470001,144000
2016-07-22,59.020000,60.419998,59.020000,60.410000,60.410000,133200
2016-07-25,60.435001,61.560001,60.049999,61.099998,61.099998,307300
2016-07-26,61.000000,61.939999,60.969002,61.669998,61.669998,254600
2016-07-27,61.750000,65.470001,61.279999,65.290001,65.290001,403200
2016-07-28,65.320000,69.379997,65.041000,68.540001,68.540001,808300
2016-07-29,68.529999,68.894997,67.780998,68.309998,68.309998,232100
2016-08-01,68.790001,69.300003,68.019997,68.529999,68.529999,196800
2016-08-02,68.559998,68.989998,68.099998,68.410004,68.410004,211700
2016-08-03,68.199997,68.970001,66.960999,67.209999,67.209999,232400
2016-08-04,67.620003,67.790001,66.559998,67.500000,67.500000,255500
2016-08-05,67.470001,67.800003,66.699997,66.709999,66.709999,148000
2016-08-08,66.500000,67.059998,66.099998,67.059998,67.059998,146300
2016-08-09,67.349998,70.000000,67.349998,69.779999,69.779999,349600
2016-08-10,73.500000,77.250000,71.550003,74.400002,74.400002,979800
2016-08-11,74.339996,74.790001,72.849998,74.339996,74.339996,253800
2016-08-12,73.610001,74.455002,71.703003,74.300003,74.300003,456500
2016-08-15,74.000000,74.989998,72.989998,74.900002,74.900002,245900
2016-08-16,74.139999,76.699997,74.059998,74.529999,74.529999,398700
2016-08-17,74.680000,74.790001,72.889999,73.690002,73.690002,221500
2016-08-18,73.970001,74.480003,73.250000,74.160004,74.160004,236200
2016-08-19,74.129997,74.820000,73.300003,74.199997,74.199997,218800
2016-08-22,74.040001,74.040001,72.260002,73.470001,73.470001,202100
2016-08-23,73.070000,73.760002,72.245003,72.839996,72.839996,210100
2016-08-24,72.879997,73.639999,70.410004,70.739998,70.739998,263800
2016-08-25,71.040001,71.099998,69.459999,70.879997,70.879997,178200
2016-08-26,71.029999,72.070000,70.120003,71.769997,71.769997,373600
2016-08-29,71.980003,72.250000,71.129997,71.550003,71.550003,160000
2016-08-30,71.570000,71.800003,70.589996,71.139999,71.139999,198500
2016-08-31,70.919998,71.279999,70.029999,70.559998,70.559998,261600
2016-09-01,70.250000,70.529999,69.120003,70.019997,70.019997,329000
2016-09-02,70.459999,70.769997,69.860001,70.629997,70.629997,217500
2016-09-06,69.570000,71.400002,69.570000,71.220001,71.220001,291200
2016-09-07,71.250000,71.349998,70.500000,71.290001,71.290001,169700
2016-09-08,70.970001,71.820000,70.029999,71.470001,71.470001,463100
2016-09-09,70.839996,71.230003,68.230003,68.250000,68.250000,252300
2016-09-12,67.669998,70.320000,67.430000,70.309998,70.309998,278700
2016-09-13,69.839996,70.900002,69.320000,69.550003,69.550003,212900
2016-09-14,69.720001,73.519997,69.639999,71.949997,71.949997,457000
2016-09-15,71.760002,75.180000,71.430000,75.070000,75.070000,324400
2016-09-16,75.089996,75.209999,73.489998,73.739998,73.739998,911000
2016-09-19,74.000000,74.599998,73.580002,74.160004,74.160004,169900
2016-09-20,74.629997,74.889999,73.551003,74.220001,74.220001,162600
2016-09-21,74.889999,78.500000,73.949997,78.430000,78.430000,475100
2016-09-22,78.830002,79.430000,78.089996,79.389999,79.389999,195800
2016-09-23,78.870003,79.489998,77.260002,77.320000,77.320000,120700
2016-09-26,77.320000,77.375000,76.809998,76.959999,76.959999,251200
2016-09-27,76.839996,77.370003,76.500000,76.730003,76.730003,156000
2016-09-28,76.720001,77.019997,75.699997,76.000000,76.000000,190900
2016-09-29,76.110001,76.430000,74.320000,74.970001,74.970001,126300
2016-09-30,75.379997,76.309998,74.720001,75.989998,75.989998,114100
2016-10-03,75.459999,75.459999,73.610001,74.279999,74.279999,181400
2016-10-04,74.339996,74.709999,73.620003,74.199997,74.199997,77800
2016-10-05,74.199997,75.570000,73.870003,74.230003,74.230003,147000
2016-10-06,74.000000,74.650002,72.580002,73.500000,73.500000,117000
2016-10-07,73.620003,74.360001,72.150002,73.180000,73.180000,183500
2016-10-10,73.500000,75.360001,73.389999,74.940002,74.940002,119000
2016-10-11,74.800003,74.800003,72.175003,72.900002,72.900002,122300
2016-10-12,72.570000,73.750000,71.699997,71.739998,71.739998,88500
2016-10-13,72.209999,72.290001,70.540001,71.269997,71.269997,169200
2016-10-14,71.739998,72.379997,70.629997,70.930000,70.930000,110800
2016-10-17,71.599998,73.949997,71.500000,72.599998,72.599998,188400
2016-10-18,74.050003,74.050003,72.550003,73.500000,73.500000,103900
2016-10-19,73.599998,75.050003,72.550003,75.000000,75.000000,178800
2016-10-20,74.900002,75.050003,73.154999,74.849998,74.849998,100600
2016-10-21,74.400002,74.599998,73.550003,73.949997,73.949997,65100
2016-10-24,74.550003,74.900002,73.550003,73.900002,73.900002,83000
2016-10-25,73.900002,73.900002,71.599998,72.349998,72.349998,105200
2016-10-26,71.650002,71.750000,66.099998,66.849998,66.849998,422200
2016-10-27,68.199997,68.199997,64.199997,64.599998,64.599998,292600
2016-10-28,64.750000,66.699997,64.300003,65.849998,65.849998,319400
2016-10-31,66.099998,66.099998,63.900002,65.949997,65.949997,256400
2016-11-01,65.900002,66.849998,65.199997,66.150002,66.150002,200300
2016-11-02,65.800003,65.800003,61.599998,61.599998,61.599998,336100
2016-11-03,61.750000,62.299999,58.500000,58.650002,58.650002,299800
2016-11-04,56.049999,65.949997,56.049999,60.049999,60.049999,553100
2016-11-07,61.000000,62.150002,60.200001,61.349998,61.349998,372300
2016-11-08,60.950001,63.250000,60.049999,63.099998,63.099998,257800
2016-11-09,62.400002,63.200001,60.250000,62.000000,62.000000,390600
2016-11-10,63.250000,64.050003,61.750000,63.150002,63.150002,230100
2016-11-11,63.150002,64.599998,62.549999,64.000000,64.000000,281500
2016-11-14,64.449997,64.449997,63.599998,64.050003,64.050003,295500
2016-11-15,63.799999,65.050003,63.799999,64.750000,64.750000,206700
2016-11-16,64.650002,65.300003,64.400002,65.150002,65.150002,299100
2016-11-17,65.400002,68.800003,64.949997,68.599998,68.599998,423100
2016-11-18,68.849998,69.400002,67.750000,69.199997,69.199997,309700
2016-11-21,69.150002,69.250000,67.699997,68.050003,68.050003,121200
2016-11-22,68.000000,68.900002,65.050003,66.400002,66.400002,437100
2016-11-23,65.849998,67.699997,65.849998,67.599998,67.599998,138900
2016-11-25,67.949997,68.800003,67.400002,68.699997,68.699997,64600
2016-11-28,68.000000,68.550003,65.900002,65.949997,65.949997,190300
2016-11-29,65.949997,66.099998,64.000000,64.550003,64.550003,208800
2016-11-30,64.750000,64.849998,61.599998,61.900002,61.900002,204700
2016-12-01,62.049999,62.049999,58.700001,59.049999,59.049999,470600
2016-12-02,59.599998,59.700001,57.849998,59.000000,59.000000,265200
2016-12-05,59.150002,61.400002,59.049999,61.299999,61.299999,232500
2016-12-06,61.599998,63.450001,61.400002,62.799999,62.799999,197700
2016-12-07,61.900002,65.300003,61.750000,65.199997,65.199997,228400
2016-12-08,65.099998,66.599998,64.550003,66.449997,66.449997,141700
2016-12-09,66.800003,67.599998,65.250000,66.150002,66.150002,217500
2016-12-12,65.900002,68.500000,65.502998,68.099998,68.099998,179200
2016-12-13,68.699997,69.199997,67.500000,67.750000,67.750000,143400
2016-12-14,67.750000,68.300003,65.400002,65.599998,65.599998,221300
2016-12-15,65.750000,65.750000,63.799999,64.599998,64.599998,316500
2016-12-16,64.699997,65.500000,64.150002,65.250000,65.250000,429800
2016-12-19,65.400002,66.650002,65.000000,65.400002,65.400002,91400
2016-12-20,65.550003,65.849998,62.424999,63.599998,63.599998,277200
2016-12-21,63.549999,63.799999,62.950001,63.049999,63.049999,107700
2016-12-22,62.900002,63.700001,62.492001,63.549999,63.549999,95900
2016-12-23,64.150002,65.099998,63.500000,64.199997,64.199997,191200
2016-12-27,64.349998,64.750000,63.549999,63.700001,63.700001,70400
2016-12-28,63.900002,63.900002,63.150002,63.400002,63.400002,96000
2016-12-29,63.450001,64.449997,63.400002,64.099998,64.099998,79500
2016-12-30,64.050003,64.500000,63.200001,63.799999,63.799999,106300
2017-01-03,63.799999,64.750000,63.049999,64.050003,64.050003,217500
2017-01-04,64.250000,66.050003,63.750000,65.699997,65.699997,210900
2017-01-05,65.500000,65.900002,64.849998,65.650002,65.650002,143900
2017-01-06,65.949997,68.199997,65.199997,67.900002,67.900002,200100
2017-01-09,68.500000,69.849998,67.550003,69.750000,69.750000,222600
2017-01-10,69.750000,71.800003,69.500000,71.300003,71.300003,301600
2017-01-11,71.699997,72.250000,70.650002,71.150002,71.150002,252900
2017-01-12,70.650002,71.550003,70.275002,71.449997,71.449997,125200
2017-01-13,71.449997,74.550003,71.449997,74.550003,74.550003,196600
2017-01-17,74.199997,74.500000,72.449997,73.900002,73.900002,227900
2017-01-18,74.150002,75.099998,73.199997,74.000000,74.000000,228700
2017-01-19,74.000000,74.349998,73.250000,73.949997,73.949997,213400
2017-01-20,74.050003,74.849998,73.949997,74.150002,74.150002,129400
2017-01-23,74.150002,75.250000,74.000000,74.349998,74.349998,312300
2017-01-24,75.849998,75.849998,73.199997,74.599998,74.599998,149700
2017-01-25,75.000000,76.044998,74.250000,75.199997,75.199997,230500
2017-01-26,76.849998,76.849998,72.349998,73.599998,73.599998,209500
2017-01-27,73.750000,74.050003,71.949997,72.349998,72.349998,128600
2017-01-30,71.300003,71.300003,69.800003,70.900002,70.900002,184900
2017-01-31,69.849998,71.599998,69.849998,71.550003,71.550003,146300
2017-02-01,71.500000,72.400002,70.199997,70.500000,70.500000,171800
2017-02-02,69.000000,70.800003,69.000000,69.699997,69.699997,213700
2017-02-03,70.050003,71.000000,69.099998,71.000000,71.000000,201500
2017-02-06,70.550003,71.000000,68.449997,69.750000,69.750000,163100
2017-02-07,70.000000,70.000000,68.150002,69.150002,69.150002,125800
2017-02-08,68.099998,70.250000,67.949997,70.050003,70.050003,185300
2017-02-09,69.949997,72.349998,68.949997,72.099998,72.099998,187300
2017-02-10,72.199997,72.599998,70.400002,72.000000,72.000000,101900
2017-02-13,72.900002,75.000000,71.849998,74.800003,74.800003,253300
2017-02-14,74.449997,77.199997,74.449997,77.000000,77.000000,319300
2017-02-15,76.650002,78.000000,74.647003,77.900002,77.900002,166200
2017-02-16,77.900002,79.050003,77.449997,77.900002,77.900002,215900
2017-02-17,78.000000,78.800003,77.550003,78.750000,78.750000,127500
2017-02-21,79.449997,79.750000,78.500000,79.449997,79.449997,104900
2017-02-22,79.150002,79.900002,78.750000,78.849998,78.849998,150100
2017-02-23,79.250000,79.500000,77.699997,79.449997,79.449997,151600
2017-02-24,79.050003,79.800003,78.000000,78.349998,78.349998,162000
2017-02-27,78.500000,79.449997,77.250000,78.500000,78.500000,331300
2017-02-28,78.300003,79.349998,76.300003,76.800003,76.800003,248000
2017-03-01,76.199997,82.900002,74.150002,81.500000,81.500000,693000
2017-03-02,81.250000,84.150002,81.150002,83.250000,83.250000,389300
2017-03-03,83.250000,83.550003,81.599998,82.599998,82.599998,260800
2017-03-06,82.000000,82.500000,76.199997,77.250000,77.250000,609100
2017-03-07,76.500000,77.199997,74.300003,74.349998,74.349998,249200
2017-03-08,74.750000,76.599998,74.750000,75.900002,75.900002,193200
2017-03-09,76.199997,78.750000,75.000000,78.500000,78.500000,258000
2017-03-10,78.949997,80.695000,78.625000,80.250000,80.250000,274100
2017-03-13,80.000000,81.500000,79.050003,81.000000,81.000000,154100
2017-03-14,80.050003,81.349998,78.349998,78.800003,78.800003,205700
2017-03-15,79.099998,79.400002,78.500000,78.849998,78.849998,157500
2017-03-16,78.099998,78.250000,76.199997,77.550003,77.550003,441400
2017-03-17,79.699997,84.800003,78.500000,82.449997,82.449997,1925700
2017-03-20,82.599998,82.949997,79.849998,80.449997,80.449997,301800
2017-03-21,80.699997,81.050003,77.550003,77.650002,77.650002,297100
2017-03-22,77.449997,77.550003,76.599998,77.400002,77.400002,196400
2017-03-23,77.199997,78.699997,76.150002,78.150002,78.150002,124300
2017-03-24,77.849998,81.699997,77.849998,81.099998,81.099998,215600
2017-03-27,79.699997,82.574997,79.099998,81.699997,81.699997,218100
2017-03-28,81.800003,81.925003,80.300003,81.449997,81.449997,139500
2017-03-29,81.349998,83.300003,81.349998,82.699997,82.699997,181700
2017-03-30,82.849998,84.849998,82.344002,84.599998,84.599998,333400
2017-03-31,84.349998,84.750000,83.349998,83.449997,83.449997,368400
2017-04-03,83.199997,83.449997,80.599998,83.050003,83.050003,203800
2017-04-04,82.650002,83.250000,81.300003,81.699997,81.699997,133000
2017-04-05,82.000000,82.650002,80.449997,80.550003,80.550003,136600
2017-04-06,80.650002,81.150002,79.500000,81.050003,81.050003,145600
2017-04-07,80.599998,82.400002,80.550003,81.699997,81.699997,203900
2017-04-10,81.750000,82.599998,81.155998,82.250000,82.250000,128900
2017-04-11,82.000000,83.349998,81.050003,83.150002,83.150002,195200
2017-04-12,82.949997,83.449997,81.349998,81.599998,81.599998,215300
2017-04-13,81.550003,82.550003,81.300003,81.449997,81.449997,164100
2017-04-17,82.150002,83.400002,81.449997,82.849998,82.849998,224900
2017-04-18,82.699997,82.750000,81.000000,81.750000,81.750000,159800
2017-04-19,82.400002,84.449997,82.150002,84.250000,84.250000,152700
2017-04-20,84.550003,84.849998,84.050003,84.500000,84.500000,113700
2017-04-21,84.300003,84.900002,83.750000,84.599998,84.599998,168200
2017-04-24,85.300003,85.675003,83.449997,84.699997,84.699997,245900
2017-04-25,85.400002,87.300003,85.000000,87.050003,87.050003,119300
2017-04-26,86.300003,88.375000,86.199997,87.349998,87.349998,167400
2017-04-27,87.550003,87.900002,85.949997,86.050003,86.050003,148700
2017-04-28,86.099998,86.550003,85.400002,85.449997,85.449997,122000
2017-05-01,85.449997,87.400002,85.449997,87.199997,87.199997,219300
2017-05-02,87.550003,88.900002,87.250000,88.349998,88.349998,107900
2017-05-03,87.699997,88.900002,87.449997,88.099998,88.099998,190400
2017-05-04,88.800003,88.800003,86.900002,88.250000,88.250000,164400
2017-05-05,88.550003,89.500000,87.900002,88.500000,88.500000,149100
2017-05-08,88.550003,88.550003,85.300003,85.750000,85.750000,159200
2017-05-09,85.250000,85.675003,83.050003,83.449997,83.449997,300300
2017-05-10,82.500000,89.550003,79.154999,89.449997,89.449997,826200
2017-05-11,88.650002,90.000000,87.599998,88.849998,88.849998,416600
2017-05-12,87.400002,87.694000,83.250000,83.750000,83.750000,424600
2017-05-15,83.650002,85.050003,83.500000,84.949997,84.949997,207400
2017-05-16,85.000000,85.400002,83.375000,84.650002,84.650002,174800
2017-05-17,83.150002,84.000000,80.949997,81.050003,81.050003,191100
2017-05-18,81.000000,82.099998,78.449997,81.900002,81.900002,233600
2017-05-19,81.900002,82.900002,80.900002,81.800003,81.800003,116900
2017-05-22,81.949997,82.849998,81.599998,82.449997,82.449997,91200
2017-05-23,82.650002,83.599998,81.599998,82.949997,82.949997,154800
2017-05-24,82.900002,84.050003,82.849998,83.949997,83.949997,173100
2017-05-25,84.000000,84.800003,83.199997,84.599998,84.599998,168200
2017-05-26,84.050003,85.000000,83.199997,84.099998,84.099998,117100
2017-05-30,83.849998,84.900002,83.300003,84.250000,84.250000,156100
2017-05-31,84.150002,84.349998,81.900002,82.849998,82.849998,222600
2017-06-01,83.150002,84.949997,81.849998,84.900002,84.900002,277300
2017-06-02,85.050003,87.400002,85.050003,86.500000,86.500000,188800
2017-06-05,86.550003,87.250000,84.949997,85.500000,85.500000,87400
2017-06-06,84.900002,85.949997,83.500000,84.349998,84.349998,131100
2017-06-07,84.849998,86.250000,83.599998,85.550003,85.550003,124200
2017-06-08,85.650002,87.050003,85.150002,86.650002,86.650002,149400
2017-06-09,86.900002,87.900002,82.589996,83.000000,83.000000,146300
2017-06-12,83.000000,83.500000,80.500000,82.900002,82.900002,147100
2017-06-13,84.150002,89.500000,82.900002,86.849998,86.849998,371300
2017-06-14,87.050003,87.349998,84.500000,84.949997,84.949997,120800
2017-06-15,83.949997,85.099998,83.449997,84.949997,84.949997,150400
2017-06-16,84.199997,85.750000,83.650002,84.449997,84.449997,294600
2017-06-19,84.699997,87.250000,84.699997,86.699997,86.699997,118600
2017-06-20,86.449997,87.650002,86.150002,86.699997,86.699997,219700
2017-06-21,87.150002,88.300003,86.050003,87.000000,87.000000,151600
2017-06-22,87.099998,89.599998,86.900002,89.300003,89.300003,198100
2017-06-23,89.550003,90.900002,87.849998,90.449997,90.449997,392800
2017-06-26,90.400002,91.000000,86.900002,86.949997,86.949997,202300
2017-06-27,86.900002,87.699997,84.650002,84.750000,84.750000,140300
2017-06-28,85.500000,89.150002,85.099998,88.599998,88.599998,165500
2017-06-29,88.400002,89.000000,84.699997,85.949997,85.949997,120000
2017-06-30,86.500000,88.175003,85.699997,87.750000,87.750000,91700
2017-07-03,88.000000,88.750000,85.800003,87.050003,87.050003,87400
2017-07-05,87.000000,89.800003,87.000000,88.849998,88.849998,134500
2017-07-06,87.849998,88.150002,85.300003,86.400002,86.400002,75900
2017-07-07,87.050003,88.949997,87.050003,88.949997,88.949997,75600
2017-07-10,88.750000,88.849998,86.150002,86.349998,86.349998,162700
2017-07-11,86.500000,87.349998,85.800003,87.000000,87.000000,72900
2017-07-12,88.099998,88.349998,87.199997,87.300003,87.300003,90300
2017-07-13,87.449997,88.949997,85.349998,85.500000,85.500000,74200
2017-07-14,86.349998,87.099998,85.650002,86.500000,86.500000,82000
2017-07-17,86.650002,88.000000,85.949997,86.550003,86.550003,87800
2017-07-18,86.150002,86.750000,85.349998,85.800003,85.800003,78200
2017-07-19,86.349998,86.750000,85.349998,85.849998,85.849998,104400
2017-07-20,86.449997,86.449997,84.400002,84.650002,84.650002,108300
2017-07-21,86.699997,86.869003,81.699997,82.000000,82.000000,185600
2017-07-24,81.900002,84.699997,81.569000,84.400002,84.400002,92800
2017-07-25,84.449997,86.150002,84.400002,85.550003,85.550003,140000
2017-07-26,85.900002,86.800003,84.550003,84.949997,84.949997,80200
2017-07-27,85.599998,86.000000,82.349998,83.550003,83.550003,135700
2017-07-28,83.099998,84.699997,82.550003,84.449997,84.449997,117600
2017-07-31,84.000000,84.449997,81.175003,81.650002,81.650002,120100
2017-08-01,81.500000,81.900002,77.750000,80.800003,80.800003,339800
2017-08-02,81.150002,81.150002,79.400002,79.650002,79.650002,149300
2017-08-03,79.699997,80.949997,78.900002,80.099998,80.099998,125300
2017-08-04,80.000000,81.000000,79.425003,80.449997,80.449997,147500
2017-08-07,79.900002,83.500000,79.650002,83.199997,83.199997,156100
2017-08-08,82.849998,84.500000,82.550003,84.099998,84.099998,177600
2017-08-09,81.650002,89.099998,81.650002,88.050003,88.050003,460200
2017-08-10,87.050003,88.199997,86.300003,87.949997,87.949997,213300
2017-08-11,86.500000,87.800003,83.750000,86.650002,86.650002,349100
2017-08-14,87.800003,87.849998,85.199997,86.099998,86.099998,102400
2017-08-15,86.099998,86.849998,85.500000,85.599998,85.599998,131300
2017-08-16,85.750000,86.949997,84.580002,86.000000,86.000000,168000
2017-08-17,85.349998,86.000000,84.300003,84.349998,84.349998,124700
2017-08-18,83.550003,85.849998,81.500000,83.150002,83.150002,166000
2017-08-21,83.099998,84.099998,82.300003,84.000000,84.000000,111000
2017-08-22,84.050003,85.349998,83.099998,85.000000,85.000000,138100
2017-08-23,84.300003,86.050003,84.099998,85.500000,85.500000,77000
2017-08-24,85.349998,86.000000,84.349998,85.449997,85.449997,144300
2017-08-25,85.650002,86.000000,85.150002,85.750000,85.750000,97900
2017-08-28,86.000000,87.150002,85.824997,86.599998,86.599998,153800
2017-08-29,85.699997,86.500000,85.650002,85.800003,85.800003,211200
2017-08-30,85.750000,86.250000,84.949997,85.000000,85.000000,96300
2017-08-31,85.400002,86.050003,84.849998,86.000000,86.000000,156700
2017-09-01,86.000000,88.000000,85.000000,87.900002,87.900002,278800
2017-09-05,87.250000,88.900002,86.800003,87.500000,87.500000,107200
2017-09-06,88.199997,88.199997,85.150002,86.300003,86.300003,119800
2017-09-07,86.900002,87.500000,85.949997,86.900002,86.900002,69300
2017-09-08,86.250000,89.949997,86.050003,88.050003,88.050003,172900
2017-09-11,89.349998,89.750000,87.449997,87.800003,87.800003,137100
2017-09-12,87.500000,89.650002,87.300003,88.750000,88.750000,163100
2017-09-13,88.599998,88.750000,87.500000,88.150002,88.150002,102400
2017-09-14,86.849998,88.199997,86.849998,88.099998,88.099998,77800
2017-09-15,88.300003,88.750000,87.199997,88.300003,88.300003,324900
2017-09-18,88.900002,89.000000,88.199997,88.849998,88.849998,124300
2017-09-19,88.699997,89.550003,88.250000,89.449997,89.449997,196500
2017-09-20,89.449997,90.000000,89.050003,90.000000,90.000000,174700
2017-09-21,90.500000,90.500000,89.050003,89.300003,89.300003,165700
2017-09-22,89.150002,89.900002,88.000000,88.900002,88.900002,153300
2017-09-25,88.949997,88.949997,86.300003,87.300003,87.300003,117700
2017-09-26,87.650002,88.199997,87.000000,87.449997,87.449997,93300
2017-09-27,87.849998,90.000000,87.300003,89.599998,89.599998,118600
2017-09-28,89.500000,90.000000,88.800003,89.750000,89.750000,83900
2017-09-29,89.800003,90.400002,89.362999,90.300003,90.300003,155500
2017-10-02,90.199997,92.400002,89.900002,92.300003,92.300003,242300
2017-10-03,91.900002,93.099998,90.800003,91.599998,91.599998,155800
2017-10-04,91.550003,93.000000,91.449997,92.849998,92.849998,78900
2017-10-05,92.900002,93.550003,91.900002,93.199997,93.199997,112900
2017-10-06,92.599998,94.199997,92.599998,94.199997,94.199997,101800
2017-10-09,94.000000,94.650002,92.650002,93.050003,93.050003,108000
2017-10-10,93.250000,93.250000,91.300003,91.550003,91.550003,74400
2017-10-11,91.449997,92.500000,91.449997,91.900002,91.900002,63400
2017-10-12,91.599998,92.250000,91.400002,91.599998,91.599998,108600
2017-10-13,91.750000,92.550003,91.599998,92.099998,92.099998,98600
2017-10-16,92.199997,93.199997,91.849998,92.550003,92.550003,152100
2017-10-17,92.050003,93.949997,92.050003,93.550003,93.550003,54100
2017-10-18,93.949997,95.599998,93.300003,94.949997,94.949997,98500
2017-10-19,94.900002,95.599998,94.400002,95.199997,95.199997,115600
2017-10-20,95.849998,96.199997,95.199997,95.550003,95.550003,85000
2017-10-23,96.050003,97.650002,95.449997,95.449997,95.449997,95400
2017-10-24,95.599998,96.949997,95.150002,96.599998,96.599998,119000
2017-10-25,94.550003,97.199997,94.550003,96.150002,96.150002,172700
2017-10-26,96.000000,97.800003,96.000000,97.099998,97.099998,118300
2017-10-27,97.150002,100.599998,97.099998,100.550003,100.550003,349000
2017-10-30,99.849998,100.300003,98.550003,99.500000,99.500000,229200
2017-10-31,99.800003,101.150002,99.050003,100.550003,100.550003,165400
2017-11-01,99.750000,101.199997,99.004997,99.650002,99.650002,255500
2017-11-02,99.400002,101.000000,99.400002,99.949997,99.949997,170700
2017-11-03,99.900002,101.449997,98.349998,101.300003,101.300003,156000
2017-11-06,101.750000,104.050003,101.349998,103.849998,103.849998,212400
2017-11-07,104.150002,104.750000,102.250000,103.800003,103.800003,300900
2017-11-08,104.150002,114.599998,104.150002,113.550003,113.550003,645400
2017-11-09,112.699997,116.349998,112.300003,115.849998,115.849998,256200
2017-11-10,114.550003,114.550003,104.449997,106.250000,106.250000,324700
2017-11-13,106.150002,109.199997,105.550003,108.949997,108.949997,174800
2017-11-14,108.000000,108.800003,105.610001,107.599998,107.599998,179400
2017-11-15,107.300003,107.300003,103.949997,104.699997,104.699997,201900
2017-11-16,105.000000,105.900002,104.224998,104.699997,104.699997,294300
2017-11-17,103.849998,104.599998,102.150002,104.550003,104.550003,187700
2017-11-20,104.250000,106.599998,103.949997,106.550003,106.550003,204500
2017-11-21,106.599998,108.000000,105.599998,107.550003,107.550003,121900
2017-11-22,107.050003,107.800003,105.050003,105.199997,105.199997,132100
2017-11-24,105.250000,105.250000,102.199997,104.900002,104.900002,107100
2017-11-27,104.949997,105.150002,103.050003,103.300003,103.300003,161500
2017-11-28,102.949997,105.599998,101.949997,105.599998,105.599998,207200
2017-11-29,105.050003,105.500000,102.500000,105.150002,105.150002,132000
2017-11-30,105.500000,105.800003,103.300003,105.300003,105.300003,133100
2017-12-01,105.599998,108.849998,102.300003,105.900002,105.900002,153100
2017-12-04,107.199997,107.550003,99.750000,99.849998,99.849998,129800
2017-12-05,100.000000,101.750000,99.050003,99.500000,99.500000,179400
2017-12-06,99.300003,101.599998,98.949997,100.650002,100.650002,145000
2017-12-07,101.949997,102.300003,100.349998,100.400002,100.400002,116200
2017-12-08,100.849998,102.250000,97.500000,98.500000,98.500000,171800
2017-12-11,98.550003,99.599998,97.949997,98.849998,98.849998,107600
2017-12-12,98.349998,98.349998,91.300003,94.900002,94.900002,339200
2017-12-13,94.750000,97.150002,93.699997,96.099998,96.099998,255900
2017-12-14,96.300003,97.400002,95.300003,95.750000,95.750000,121600
2017-12-15,96.050003,99.650002,96.050003,98.699997,98.699997,256500
2017-12-18,99.550003,99.599998,93.000000,93.699997,93.699997,181800
2017-12-19,93.650002,95.949997,93.650002,94.400002,94.400002,181000
2017-12-20,96.199997,97.199997,96.000000,96.849998,96.849998,196600
2017-12-21,96.900002,97.500000,96.500000,96.800003,96.800003,175100
2017-12-22,97.199997,97.199997,94.949997,95.099998,95.099998,93200
2017-12-26,94.849998,96.550003,94.800003,96.349998,96.349998,107400
2017-12-27,96.500000,97.849998,96.099998,96.650002,96.650002,99300
2017-12-28,96.800003,97.000000,95.199997,95.550003,95.550003,110800
2017-12-29,96.000000,96.000000,93.949997,94.099998,94.099998,128700
2018-01-02,92.900002,92.900002,89.000000,90.349998,90.349998,549800
2018-01-03,89.400002,91.900002,89.199997,90.550003,90.550003,132100
2018-01-04,90.900002,92.199997,83.250000,84.599998,84.599998,1104000
2018-01-05,85.300003,88.199997,84.000000,85.150002,85.150002,525500
2018-01-08,85.150002,86.900002,82.550003,86.699997,86.699997,741900
2018-01-09,87.050003,90.900002,87.050003,89.699997,89.699997,445700
2018-01-10,89.250000,89.250000,86.550003,88.250000,88.250000,201700
2018-01-11,88.400002,92.000000,87.599998,91.900002,91.900002,180600
2018-01-12,91.849998,92.000000,90.349998,91.150002,91.150002,137300
2018-01-16,91.250000,91.599998,87.099998,87.199997,87.199997,358900
2018-01-17,87.699997,89.699997,87.430000,89.449997,89.449997,161700
2018-01-18,89.750000,90.500000,89.099998,90.099998,90.099998,299900
2018-01-19,89.699997,91.550003,89.599998,91.349998,91.349998,216600
2018-01-22,91.699997,94.699997,90.750000,94.500000,94.500000,154200
2018-01-23,94.750000,97.400002,94.224998,97.250000,97.250000,294300
2018-01-24,97.250000,99.949997,97.250000,98.050003,98.050003,527500
2018-01-25,98.900002,101.650002,98.550003,100.099998,100.099998,227600
2018-01-26,100.750000,101.300003,99.250000,100.650002,100.650002,389000
2018-01-29,100.000000,101.849998,99.750000,101.599998,101.599998,132000
2018-01-30,100.550003,102.250000,99.449997,101.349998,101.349998,187300
2018-01-31,101.500000,102.849998,99.099998,99.599998,99.599998,179900
2018-02-01,99.000000,99.449997,96.900002,98.000000,98.000000,141500
2018-02-02,97.500000,98.500000,95.550003,96.250000,96.250000,280100
2018-02-05,95.150002,97.199997,93.949997,95.300003,95.300003,282100
2018-02-06,93.400002,96.050003,91.800003,94.150002,94.150002,268800
2018-02-07,94.150002,95.800003,93.154999,94.699997,94.699997,176700
2018-02-08,94.500000,94.849998,89.199997,89.300003,89.300003,218700
2018-02-09,89.849998,91.250000,89.150002,90.300003,90.300003,296500
2018-02-12,90.150002,92.849998,88.800003,91.550003,91.550003,176200
2018-02-13,91.699997,93.650002,90.050003,92.500000,92.500000,163900
2018-02-14,92.150002,94.349998,92.150002,93.599998,93.599998,155600
2018-02-15,94.750000,98.250000,93.750000,98.199997,98.199997,124400
2018-02-16,98.000000,100.699997,97.025002,98.699997,98.699997,104200
2018-02-20,98.599998,100.000000,97.699997,99.349998,99.349998,131400
2018-02-21,100.449997,101.550003,98.500000,98.699997,98.699997,239700
2018-02-22,98.900002,101.000000,98.349998,99.599998,99.599998,91000
2018-02-23,99.849998,102.250000,98.599998,102.150002,102.150002,115300
2018-02-26,102.500000,104.750000,102.449997,104.150002,104.150002,218400
2018-02-27,104.699997,106.349998,102.550003,104.300003,104.300003,278900
2018-02-28,107.050003,115.050003,106.699997,108.199997,108.199997,998300
2018-03-01,108.000000,110.250000,106.875000,108.449997,108.449997,262500
2018-03-02,108.400002,113.300003,107.599998,112.949997,112.949997,263100
2018-03-05,112.550003,115.000000,111.199997,114.250000,114.250000,194600
2018-03-06,114.300003,116.099998,113.449997,115.949997,115.949997,205000
2018-03-07,114.750000,118.099998,114.750000,117.849998,117.849998,359900
2018-03-08,118.000000,119.000000,116.599998,117.800003,117.800003,295300
2018-03-09,119.000000,119.099998,117.699997,118.650002,118.650002,339100
2018-03-12,119.199997,121.349998,117.900002,121.099998,121.099998,468500
2018-03-13,122.650002,123.650002,120.824997,123.199997,123.199997,249600
2018-03-14,124.500000,124.849998,121.599998,122.699997,122.699997,268800
2018-03-15,122.949997,126.000000,122.750000,125.150002,125.150002,234500
2018-03-16,125.250000,127.400002,124.050003,124.349998,124.349998,351100
2018-03-19,124.000000,124.000000,119.699997,121.099998,121.099998,340500
2018-03-20,121.250000,124.349998,121.250000,123.599998,123.599998,155700
2018-03-21,124.050003,126.699997,123.699997,126.099998,126.099998,235600
2018-03-22,125.050003,125.699997,122.199997,122.349998,122.349998,192800
2018-03-23,123.400002,123.724998,120.099998,120.099998,120.099998,196000
2018-03-26,121.849998,122.949997,119.875000,120.000000,120.000000,434100
2018-03-27,120.199997,121.349998,115.199997,115.750000,115.750000,688500
2018-03-28,116.000000,117.349998,113.449997,114.050003,114.050003,305400
2018-03-29,114.900002,117.250000,113.750000,115.650002,115.650002,540600
2018-04-02,114.800003,115.500000,111.150002,112.199997,112.199997,254000
2018-04-03,112.199997,113.800003,111.699997,113.300003,113.300003,474100
2018-04-04,114.449997,118.900002,112.250000,118.400002,118.400002,403500
2018-04-05,119.900002,123.099998,119.099998,122.099998,122.099998,216200
2018-04-06,121.349998,122.300003,119.050003,120.599998,120.599998,186000
2018-04-09,121.400002,122.550003,120.400002,120.699997,120.699997,133200
2018-04-10,122.150002,123.300003,119.599998,122.349998,122.349998,269900
2018-04-11,122.050003,123.650002,121.300003,122.250000,122.250000,148000
2018-04-12,122.949997,124.550003,122.050003,124.150002,124.150002,331200
2018-04-13,124.550003,124.550003,121.349998,122.099998,122.099998,114800
2018-04-16,123.949997,124.394997,122.599998,123.000000,123.000000,124100
2018-04-17,123.849998,125.099998,123.250000,124.849998,124.849998,145600
2018-04-18,125.500000,126.750000,124.699997,125.400002,125.400002,141000
2018-04-19,127.150002,127.150002,124.349998,125.199997,125.199997,232600
2018-04-20,125.800003,126.675003,124.400002,124.750000,124.750000,146800
2018-04-23,125.199997,125.349998,122.800003,122.949997,122.949997,107100
2018-04-24,123.050003,123.875000,119.449997,120.599998,120.599998,115700
2018-04-25,117.800003,121.550003,117.800003,120.449997,120.449997,127400
2018-04-26,121.199997,124.699997,120.650002,124.699997,124.699997,153400
2018-04-27,124.699997,127.949997,124.699997,126.449997,126.449997,287200
2018-04-30,125.050003,127.349998,123.699997,124.349998,124.349998,204900
2018-05-01,125.900002,127.949997,123.849998,127.750000,127.750000,252500
2018-05-02,127.099998,129.050003,126.349998,128.500000,128.500000,184800
2018-05-03,127.699997,134.000000,125.050003,133.800003,133.800003,299400
2018-05-04,132.850006,135.449997,130.000000,134.699997,134.699997,229500
2018-05-07,135.000000,140.550003,134.750000,139.100006,139.100006,331800
2018-05-08,137.350006,140.000000,134.250000,135.899994,135.899994,412100
2018-05-09,148.649994,154.050003,141.050003,152.250000,152.250000,1151900
2018-05-10,152.300003,155.500000,149.399994,154.300003,154.300003,528900
2018-05-11,145.949997,153.699997,142.250000,153.350006,153.350006,663300
2018-05-14,152.750000,154.000000,149.899994,150.050003,150.050003,240600
2018-05-15,149.800003,150.850006,148.692993,149.850006,149.850006,261100
2018-05-16,150.449997,154.100006,150.100006,153.850006,153.850006,272700
2018-05-17,153.399994,156.800003,152.649994,155.350006,155.350006,174100
2018-05-18,155.800003,159.350006,155.725006,158.250000,158.250000,209200
2018-05-21,157.100006,159.000000,156.600006,157.600006,157.600006,200600
2018-05-22,158.350006,158.600006,154.800003,155.949997,155.949997,135300
2018-05-23,154.949997,158.449997,154.300003,156.350006,156.350006,130500
2018-05-24,156.000000,157.250000,152.000000,156.000000,156.000000,208800
2018-05-25,156.149994,157.350006,155.100006,157.050003,157.050003,99800
2018-05-29,155.699997,157.500000,154.100006,157.350006,157.350006,124400
2018-05-30,157.850006,162.500000,156.850006,158.850006,158.850006,266500
2018-05-31,162.850006,164.250000,159.899994,160.899994,160.899994,200200
2018-06-01,162.300003,167.350006,160.750000,165.250000,165.250000,247100
2018-06-04,166.300003,166.895004,161.600006,165.100006,165.100006,259000
2018-06-05,164.550003,167.199997,163.300003,164.000000,164.000000,119400
2018-06-06,164.949997,166.300003,162.449997,165.949997,165.949997,187700
2018-06-07,165.649994,165.945007,157.000000,161.000000,161.000000,243800
2018-06-08,161.300003,165.800003,160.949997,165.300003,165.300003,273600
2018-06-11,165.600006,166.300003,162.550003,162.699997,162.699997,204800
2018-06-12,162.699997,163.300003,160.449997,162.949997,162.949997,261400
2018-06-13,163.250000,163.500000,157.350006,159.350006,159.350006,278000
2018-06-14,159.649994,160.399994,155.149994,156.899994,156.899994,613600
2018-06-15,156.699997,156.699997,152.550003,155.050003,155.050003,496100
2018-06-18,154.250000,156.000000,152.649994,155.699997,155.699997,338000
2018-06-19,155.000000,155.550003,152.350006,153.350006,153.350006,298200
2018-06-20,153.350006,156.000000,152.600006,154.600006,154.600006,417300
2018-06-21,155.949997,155.949997,149.300003,150.800003,150.800003,342500
2018-06-22,151.449997,152.949997,147.250000,148.199997,148.199997,2245000
2018-06-25,148.199997,149.449997,144.500000,145.500000,145.500000,276700
2018-06-26,146.100006,152.250000,145.250000,150.199997,150.199997,567900
2018-06-27,150.199997,152.100006,141.899994,142.699997,142.699997,381100
2018-06-28,141.850006,142.600006,134.750000,140.300003,140.300003,787500
2018-06-29,140.350006,141.649994,137.149994,138.149994,138.149994,525100
2018-07-02,138.000000,140.750000,136.800003,138.550003,138.550003,602100
2018-07-03,139.050003,143.350006,136.800003,142.699997,142.699997,234300
2018-07-05,143.399994,143.399994,139.449997,142.050003,142.050003,673600
2018-07-06,142.600006,145.149994,141.449997,142.449997,142.449997,315100
2018-07-09,142.449997,143.449997,139.600006,141.100006,141.100006,325600
2018-07-10,141.000000,141.649994,139.699997,140.100006,140.100006,291300
2018-07-11,138.500000,141.300003,138.399994,139.000000,139.000000,209600
2018-07-12,138.899994,140.850006,138.500000,140.000000,140.000000,334300
2018-07-13,139.449997,139.699997,134.449997,135.350006,135.350006,357500
2018-07-16,135.550003,137.550003,133.949997,136.199997,136.199997,312300
2018-07-17,135.500000,139.850006,135.500000,139.449997,139.449997,309200
2018-07-18,140.199997,140.500000,138.000000,139.600006,139.600006,223800
2018-07-19,139.500000,140.750000,138.600006,138.750000,138.750000,234100
2018-07-20,139.000000,139.899994,137.000000,137.250000,137.250000,366000
2018-07-23,137.050003,144.449997,136.149994,143.050003,143.050003,335600
2018-07-24,143.050003,143.750000,137.350006,138.100006,138.100006,400200
2018-07-25,138.300003,146.449997,138.300003,145.300003,145.300003,348400
2018-07-26,144.399994,146.649994,142.300003,144.250000,144.250000,285600
2018-07-27,143.750000,144.125000,138.250000,141.050003,141.050003,321900
2018-07-30,140.899994,140.949997,135.399994,139.300003,139.300003,432300
2018-07-31,139.300003,143.000000,138.350006,142.250000,142.250000,251400
2018-08-01,142.250000,146.350006,141.649994,144.899994,144.899994,361400
2018-08-02,143.649994,147.000000,142.350006,146.800003,146.800003,195800
2018-08-03,145.050003,147.850006,142.250000,146.050003,146.050003,263300
2018-08-06,146.000000,150.949997,145.149994,148.050003,148.050003,534000
2018-08-07,148.449997,149.600006,145.350006,148.550003,148.550003,345200
2018-08-08,148.550003,148.550003,120.199997,124.650002,124.650002,1909000
2018-08-09,125.400002,127.050003,122.099998,124.099998,124.099998,739700
2018-08-10,123.900002,127.099998,123.750000,124.349998,124.349998,450800
2018-08-13,124.800003,125.800003,121.050003,121.550003,121.550003,264300
2018-08-14,121.900002,123.800003,120.250000,122.650002,122.650002,236200
2018-08-15,121.800003,124.150002,118.599998,123.849998,123.849998,339000
2018-08-16,124.000000,128.774994,123.574997,128.300003,128.300003,423500
2018-08-17,128.250000,129.000000,125.300003,125.699997,125.699997,336700
2018-08-20,126.550003,126.550003,122.449997,125.000000,125.000000,258400
2018-08-21,125.349998,127.400002,124.599998,127.000000,127.000000,199000
2018-08-22,126.650002,129.850006,126.150002,129.399994,129.399994,159300
2018-08-23,129.100006,131.000000,128.399994,129.350006,129.350006,180500
2018-08-24,129.500000,130.000000,127.099998,129.100006,129.100006,171300
2018-08-27,129.800003,131.550003,128.899994,130.800003,130.800003,189400
2018-08-28,130.899994,132.000000,129.250000,131.500000,131.500000,242000
2018-08-29,131.449997,135.000000,131.199997,134.750000,134.750000,434600
2018-08-30,134.399994,136.050003,132.899994,135.800003,135.800003,218400
2018-08-31,135.300003,139.699997,134.850006,138.850006,138.850006,279600
2018-09-04,138.750000,140.925003,136.800003,140.600006,140.600006,251000
2018-09-05,140.250000,140.399994,133.100006,138.750000,138.750000,344800
2018-09-06,138.949997,142.750000,138.949997,142.449997,142.449997,305300
2018-09-07,142.199997,145.300003,141.850006,142.100006,142.100006,252400
2018-09-10,142.750000,144.550003,141.899994,143.000000,143.000000,157200
2018-09-11,142.949997,148.949997,141.300003,148.100006,148.100006,454400
2018-09-12,148.199997,154.250000,148.050003,154.000000,154.000000,470500
2018-09-13,155.149994,156.649994,153.600006,155.050003,155.050003,314200
2018-09-14,155.800003,157.149994,154.300003,156.800003,156.800003,325300
2018-09-17,156.649994,158.699997,151.550003,152.949997,152.949997,726500
2018-09-18,152.699997,155.699997,151.550003,152.149994,152.149994,259700
2018-09-19,152.399994,153.600006,148.300003,150.500000,150.500000,205300
2018-09-20,151.449997,152.300003,149.949997,151.300003,151.300003,177700
2018-09-21,150.699997,152.100006,148.750000,149.350006,149.350006,239800
2018-09-24,149.250000,152.100006,148.574997,151.899994,151.899994,171100
2018-09-25,152.199997,156.199997,151.425003,155.649994,155.649994,135800
2018-09-26,156.199997,156.199997,153.205002,154.250000,154.250000,123300
2018-09-27,154.649994,154.649994,147.500000,149.149994,149.149994,306400
2018-09-28,148.850006,151.324997,148.399994,149.699997,149.699997,190500
2018-10-01,149.940002,150.554993,146.770004,147.649994,147.649994,363400
2018-10-02,146.960007,149.479996,141.550003,142.570007,142.570007,184800
2018-10-03,142.679993,143.130005,140.470001,141.119995,141.119995,362000
2018-10-04,140.410004,140.429993,136.380005,137.509995,137.509995,517500
2018-10-05,137.139999,139.529999,130.899994,135.320007,135.320007,257800
2018-10-08,136.059998,137.589996,131.070007,134.539993,134.539993,356600
2018-10-09,133.960007,136.509995,132.399994,133.539993,133.539993,216400
2018-10-10,133.350006,134.755005,130.270004,131.000000,131.000000,373700
2018-10-11,130.589996,136.279999,129.199997,133.520004,133.520004,427200
2018-10-12,135.800003,139.699997,134.115005,136.940002,136.940002,339300
2018-10-15,136.440002,138.000000,133.889999,136.149994,136.149994,357600
2018-10-16,137.460007,142.800003,136.419998,142.539993,142.539993,241800
2018-10-17,142.369995,144.470001,140.210007,142.350006,142.350006,284200
2018-10-18,142.100006,142.399994,139.720001,140.839996,140.839996,142600
2018-10-19,141.119995,142.619995,136.009995,136.970001,136.970001,203900
2018-10-22,137.199997,139.220001,134.300003,136.800003,136.800003,240100
2018-10-23,134.070007,138.720001,133.389999,138.250000,138.250000,288000
2018-10-24,138.250000,141.149994,137.279999,138.320007,138.320007,316700
2018-10-25,138.350006,138.589996,132.639999,138.080002,138.080002,317500
2018-10-26,136.610001,140.414993,135.050003,137.949997,137.949997,345800
2018-10-29,139.559998,140.240005,135.514999,137.330002,137.330002,300800
2018-10-30,137.149994,140.850006,135.419998,135.699997,135.699997,638500
2018-10-31,136.509995,139.399994,134.800003,136.000000,136.000000,411800
2018-11-01,137.009995,142.809998,137.009995,141.160004,141.160004,577600
2018-11-02,141.449997,144.350006,137.559998,137.750000,137.750000,445600
2018-11-05,137.800003,140.460007,135.744995,140.139999,140.139999,661800
2018-11-06,142.850006,148.419998,138.500000,147.710007,147.710007,1341600
2018-11-07,148.000000,158.479996,147.119995,156.479996,156.479996,744900
2018-11-08,155.050003,160.500000,153.190002,155.580002,155.580002,741900
2018-11-09,154.179993,154.210007,147.110001,150.199997,150.199997,441800
2018-11-12,150.520004,150.520004,136.740005,137.649994,137.649994,400300
2018-11-13,137.740005,141.740005,133.600006,134.169998,134.169998,381100
2018-11-14,136.270004,136.600006,129.330002,129.929993,129.929993,320500
2018-11-15,129.369995,134.529999,129.039993,134.259995,134.259995,209200
2018-11-16,134.119995,138.429993,131.889999,136.570007,136.570007,257500
2018-11-19,136.339996,136.839996,121.839996,123.349998,123.349998,534000
2018-11-20,123.050003,125.623001,120.120003,122.040001,122.040001,335400
2018-11-21,123.400002,128.100006,121.059998,125.639999,125.639999,214400
2018-11-23,124.779999,126.809998,124.269997,125.419998,125.419998,72200
2018-11-26,126.320000,130.250000,125.400002,129.240005,129.240005,223700
2018-11-27,128.740005,132.210007,127.500000,129.960007,129.960007,341200
2018-11-28,131.130005,135.419998,128.210007,135.330002,135.330002,225900
2018-11-29,134.169998,138.869995,132.279999,137.729996,137.729996,245400
2018-11-30,136.869995,140.475006,136.869995,139.220001,139.220001,280600
2018-12-03,139.250000,145.529999,139.250000,145.190002,145.190002,298300
2018-12-04,145.199997,147.699997,138.695007,139.330002,139.330002,423200
2018-12-06,136.919998,141.039993,131.399994,136.309998,136.309998,566100
2018-12-07,135.630005,136.934998,129.800003,131.720001,131.720001,238300
2018-12-10,131.550003,133.429993,128.699997,132.580002,132.580002,173100
2018-12-11,134.630005,136.533005,125.269997,127.870003,127.870003,409700
2018-12-12,129.740005,131.399994,126.790001,130.339996,130.339996,284000
2018-12-13,131.570007,131.990005,125.089996,126.330002,126.330002,203100
2018-12-14,125.070000,129.199997,123.650002,125.400002,125.400002,303700
2018-12-17,124.400002,124.430000,118.250000,118.680000,118.680000,202800
2018-12-18,118.839996,121.510002,118.470001,120.919998,120.919998,372700
2018-12-19,120.519997,123.230003,117.279999,118.239998,118.239998,285100
2018-12-20,117.669998,119.629997,115.010002,116.720001,116.720001,685200
2018-12-21,116.730003,118.720001,113.500000,116.000000,116.000000,349100
2018-12-24,115.199997,115.199997,110.839996,113.419998,113.419998,119500
2018-12-26,114.449997,124.760002,114.360001,124.519997,124.519997,564900
2018-12-27,122.559998,126.660004,120.440002,126.660004,126.660004,294300
2018-12-28,127.139999,127.139999,123.620003,124.660004,124.660004,189400
2018-12-31,125.820000,126.730003,120.830002,122.199997,122.199997,405900
2019-01-02,120.589996,124.849998,119.639999,123.070000,123.070000,394600
2019-01-03,122.089996,122.565002,115.550003,115.839996,115.839996,321600
2019-01-04,117.400002,125.089996,116.599998,123.400002,123.400002,689400
2019-01-07,124.080002,124.080002,119.510002,121.019997,121.019997,328000
2019-01-08,122.500000,124.900002,120.654999,123.510002,123.510002,271300
2019-01-09,124.779999,125.940002,122.120003,124.129997,124.129997,278900
2019-01-10,122.970001,130.160004,121.839996,129.639999,129.639999,343800
2019-01-11,129.300003,130.360001,126.250000,126.849998,126.849998,282200
2019-01-14,125.199997,129.720001,123.010002,127.589996,127.589996,211400
2019-01-15,127.589996,133.000000,127.199997,132.259995,132.259995,229300
2019-01-16,133.250000,138.130005,133.250000,137.270004,137.270004,444700
2019-01-17,136.660004,139.130005,135.000000,138.440002,138.440002,363800
2019-01-18,140.089996,142.339996,137.520004,142.000000,142.000000,327700
2019-01-22,140.369995,142.380005,139.539993,140.729996,140.729996,334200
2019-01-23,141.539993,141.735001,137.130005,139.229996,139.229996,261700
2019-01-24,138.949997,138.994995,136.779999,138.699997,138.699997,311200
2019-01-25,139.410004,144.809998,138.899994,143.759995,143.759995,322800
2019-01-28,140.889999,140.889999,137.029999,137.029999,137.029999,214300
2019-01-29,138.320007,139.000000,135.330002,137.220001,137.220001,198900
2019-01-30,139.539993,144.600006,138.259995,142.929993,142.929993,376700
2019-01-31,142.300003,148.000000,141.070007,145.509995,145.509995,319900
2019-02-01,145.089996,146.050003,143.490005,144.710007,144.710007,277800
2019-02-04,144.429993,147.615005,143.529999,147.000000,147.000000,207700
2019-02-05,147.770004,150.179993,147.539993,149.029999,149.029999,322400
2019-02-06,149.190002,150.160004,146.169998,150.009995,150.009995,182400
2019-02-07,148.789993,151.039993,147.490005,148.229996,148.229996,176000
2019-02-08,147.490005,147.809998,144.740005,147.490005,147.490005,259200
2019-02-11,148.199997,151.380005,146.720001,150.839996,150.839996,229000
2019-02-12,151.800003,153.419998,150.149994,153.179993,153.179993,208600
2019-02-13,154.240005,155.514999,152.050003,154.330002,154.330002,160000
2019-02-14,153.500000,155.589996,152.720993,153.539993,153.539993,136900
2019-02-15,154.080002,155.774994,154.080002,155.570007,155.570007,163000
2019-02-19,155.520004,155.550003,149.589996,151.229996,151.229996,244900
2019-02-20,151.139999,151.470001,148.779999,149.000000,149.000000,450800
2019-02-21,148.350006,148.350006,145.339996,146.330002,146.330002,206700
2019-02-22,146.570007,147.490005,145.550003,146.339996,146.339996,283900
2019-02-25,147.740005,149.910004,145.940002,149.000000,149.000000,484600
2019-02-26,148.429993,149.270004,145.395004,146.750000,146.750000,300600
2019-02-27,132.520004,135.860001,124.815002,132.270004,132.270004,2500600
2019-02-28,132.479996,137.179993,131.059998,133.669998,133.669998,528100
2019-03-01,134.710007,141.149994,134.292999,140.520004,140.520004,427900
2019-03-04,140.919998,144.904999,138.500000,141.600006,141.600006,556100
2019-03-05,141.139999,142.369995,137.630005,141.600006,141.600006,282200
2019-03-06,141.660004,141.964996,138.850006,140.000000,140.000000,486500
2019-03-07,138.949997,140.600006,138.070007,138.690002,138.690002,218900
2019-03-08,137.779999,139.350006,134.139999,139.000000,139.000000,268000
2019-03-11,139.080002,141.479996,137.770004,141.020004,141.020004,220100
2019-03-12,141.020004,145.009995,139.820007,144.759995,144.759995,225600
2019-03-13,145.479996,149.250000,144.779999,148.710007,148.710007,377600
2019-03-14,148.470001,150.850006,146.619995,150.449997,150.449997,237300
2019-03-15,150.800003,157.419998,150.300003,155.330002,155.330002,1032400
2019-03-18,155.300003,155.639999,149.550003,152.210007,152.210007,323400
2019-03-19,153.020004,156.065002,150.529999,154.690002,154.690002,266300
2019-03-20,154.270004,158.429993,154.270004,157.750000,157.750000,324300
2019-03-21,156.970001,160.589996,156.970001,160.309998,160.309998,394400
2019-03-22,159.630005,162.500000,157.830002,157.960007,157.960007,413600
2019-03-25,157.389999,158.339996,154.220001,157.250000,157.250000,399600
2019-03-26,158.470001,159.820007,154.770004,155.110001,155.110001,332300
2019-03-27,155.179993,156.089996,148.289993,149.110001,149.110001,587700
2019-03-28,149.059998,149.690002,144.440002,147.419998,147.419998,409800
2019-03-29,147.750000,149.259995,146.169998,147.009995,147.009995,287300
2019-04-01,148.429993,149.529999,140.904999,143.630005,143.630005,545600
2019-04-02,143.289993,145.139999,141.990005,144.440002,144.440002,432800
2019-04-03,145.100006,145.774994,140.485001,142.690002,142.690002,710500
2019-04-04,142.690002,143.279999,139.059998,140.320007,140.320007,503400
2019-04-05,140.940002,141.675003,139.445007,140.960007,140.960007,293700
2019-04-08,141.169998,142.139999,139.520004,141.740005,141.740005,268400
2019-04-09,141.059998,144.375000,140.210007,140.440002,140.440002,341400
2019-04-10,140.500000,144.520004,139.264999,143.610001,143.610001,382300
2019-04-11,144.029999,146.250000,140.860001,141.160004,141.160004,229700
2019-04-12,142.520004,142.699997,137.419998,140.729996,140.729996,408900
2019-04-15,139.919998,141.199997,136.830002,137.949997,137.949997,279400
2019-04-16,139.210007,139.210007,132.951004,134.389999,134.389999,297900
2019-04-17,134.500000,134.500000,122.400002,126.830002,126.830002,1042300
2019-04-18,127.110001,129.160004,124.258003,128.970001,128.970001,694400
2019-04-22,128.919998,131.690002,126.760002,129.910004,129.910004,517600
2019-04-23,130.050003,131.649994,128.929993,130.850006,130.850006,282600
2019-04-24,130.720001,136.470001,130.229996,133.350006,133.350006,437400
2019-04-25,134.009995,137.699997,131.270004,136.759995,136.759995,481800
2019-04-26,136.979996,138.669998,136.039993,137.039993,137.039993,607600
2019-04-29,137.199997,137.199997,133.899994,134.679993,134.679993,578800
2019-04-30,134.429993,136.352997,134.339996,134.500000,134.500000,312200
2019-05-01,134.880005,135.000000,126.750000,127.389999,127.389999,610000
2019-05-02,127.309998,131.880005,127.239998,131.570007,131.570007,578200
2019-05-03,132.440002,134.250000,130.589996,132.089996,132.089996,475500
2019-05-06,129.100006,132.029999,127.449997,131.309998,131.309998,592800
2019-05-07,130.160004,130.460007,126.739998,129.619995,129.619995,752700
2019-05-08,131.000000,140.479996,131.000000,135.250000,135.250000,1809500
2019-05-09,134.050003,135.195007,131.500000,132.820007,132.820007,440900
2019-05-10,130.600006,133.279999,127.480003,131.029999,131.029999,300000
2019-05-13,127.940002,129.940002,123.129997,124.650002,124.650002,681400
2019-05-14,125.129997,134.889999,125.129997,133.789993,133.789993,479200
2019-05-15,132.789993,136.184998,132.789993,135.029999,135.029999,246600
2019-05-16,135.330002,144.270004,135.330002,143.410004,143.410004,599800
2019-05-17,142.089996,145.949997,140.110001,142.470001,142.470001,453300
2019-05-20,140.690002,140.899994,138.000000,139.050003,139.050003,260700
2019-05-21,140.380005,140.880005,136.589996,137.600006,137.600006,347600
2019-05-22,136.229996,138.169998,135.809998,137.300003,137.300003,180700
2019-05-23,135.679993,135.679993,132.259995,134.979996,134.979996,480100
2019-05-24,135.970001,138.824997,134.509995,138.529999,138.529999,236600
2019-05-28,138.250000,140.000000,136.994995,137.850006,137.850006,222100
2019-05-29,136.240005,137.119995,133.539993,137.009995,137.009995,291100
2019-05-30,140.000000,147.300003,139.425003,146.300003,146.300003,477900
2019-05-31,145.250000,145.759995,141.738998,142.699997,142.699997,352600
2019-06-03,142.699997,144.649994,140.000000,144.320007,144.320007,308000
2019-06-04,145.899994,150.839996,144.610001,150.520004,150.520004,254000
2019-06-05,151.229996,154.119995,151.000000,152.559998,152.559998,282100
2019-06-06,152.440002,155.425003,150.850006,154.740005,154.740005,175800
2019-06-07,155.919998,161.669998,154.822998,160.809998,160.809998,387000
2019-06-10,160.000000,166.309998,160.000000,165.580002,165.580002,492700
2019-06-11,167.000000,169.570007,162.279999,165.210007,165.210007,504500
2019-06-12,164.000000,164.000000,160.210007,163.089996,163.089996,469800
2019-06-13,164.630005,164.970001,161.270004,163.630005,163.630005,209700
2019-06-14,163.600006,167.199997,162.899994,166.830002,166.830002,266600
2019-06-17,166.830002,169.470001,165.210007,166.949997,166.949997,420200
2019-06-18,168.919998,170.000000,166.679993,167.389999,167.389999,326500
2019-06-19,167.750000,168.000000,165.231003,166.410004,166.410004,496300
2019-06-20,168.309998,170.000000,164.020004,165.220001,165.220001,331900
2019-06-21,164.660004,166.119995,161.899994,164.820007,164.820007,315700
2019-06-24,164.389999,166.298996,163.199997,164.589996,164.589996,279400
2019-06-25,164.940002,169.339996,163.600006,166.970001,166.970001,497000
2019-06-26,167.869995,169.449997,161.690002,161.960007,161.960007,218200
2019-06-27,162.679993,164.300003,159.600006,160.020004,160.020004,575600
2019-06-28,160.979996,162.250000,159.320007,160.000000,160.000000,372700
2019-07-01,161.000000,163.000000,158.550003,160.470001,160.470001,511300
2019-07-02,160.309998,163.979996,158.449997,163.429993,163.429993,302900
2019-07-03,164.380005,164.380005,159.500000,159.710007,159.710007,227900
2019-07-05,159.020004,163.389999,157.929993,162.679993,162.679993,161600
2019-07-08,161.820007,165.589996,160.440002,164.539993,164.539993,278100
2019-07-09,163.770004,166.300003,163.199997,165.970001,165.970001,146000
2019-07-10,166.639999,171.100006,166.639999,170.029999,170.029999,319800
2019-07-11,171.220001,172.949997,170.000000,172.509995,172.509995,196300
2019-07-12,172.770004,173.587006,168.285004,169.690002,169.690002,159900
2019-07-15,169.919998,173.949997,168.970001,172.729996,172.729996,200600
2019-07-16,172.600006,173.460007,168.862000,169.690002,169.690002,197600
2019-07-17,170.860001,178.330002,169.134995,174.050003,174.050003,436700
2019-07-18,173.970001,178.770004,173.820007,176.860001,176.860001,263400
2019-07-19,177.539993,178.529999,175.369995,176.139999,176.139999,456300
2019-07-22,176.639999,176.639999,170.550003,171.190002,171.190002,320600
2019-07-23,171.619995,178.669998,171.615005,177.259995,177.259995,348600
2019-07-24,177.190002,183.850006,177.190002,183.399994,183.399994,434000
2019-07-25,181.979996,185.699997,180.220001,181.619995,181.619995,376000
2019-07-26,182.029999,183.880005,179.210007,180.360001,180.360001,206700
2019-07-29,180.360001,181.300003,177.615005,180.940002,180.940002,171500
2019-07-30,178.520004,180.500000,177.440002,179.490005,179.490005,323100
2019-07-31,175.270004,177.039993,161.020004,167.600006,167.600006,1793100
2019-08-01,168.570007,172.729996,166.149994,167.809998,167.809998,363900
2019-08-02,167.369995,167.740005,161.020004,162.119995,162.119995,382300
2019-08-05,159.649994,159.820007,155.850006,157.839996,157.839996,342200
2019-08-06,159.020004,166.250000,159.020004,165.630005,165.630005,527500
2019-08-07,151.919998,154.630005,138.389999,147.020004,147.020004,2441600
2019-08-08,147.500000,149.960007,146.630005,149.550003,149.550003,458600
2019-08-09,149.320007,152.169998,147.500000,147.559998,147.559998,308300
2019-08-12,146.949997,151.000000,146.119995,148.850006,148.850006,355000
2019-08-13,148.449997,154.210007,148.449997,151.970001,151.970001,276600
2019-08-14,149.119995,150.250000,147.529999,148.500000,148.500000,292400
2019-08-15,149.059998,150.169998,144.580002,145.250000,145.250000,304800
2019-08-16,146.089996,146.559998,144.020004,145.210007,145.210007,198200
2019-08-19,146.899994,146.899994,142.619995,143.429993,143.429993,456500
2019-08-20,143.460007,145.039993,142.309998,144.399994,144.399994,197600
2019-08-21,145.500000,147.085007,144.350006,144.539993,144.539993,264900
2019-08-22,145.259995,145.759995,142.509995,144.919998,144.919998,181700
2019-08-23,144.550003,145.300003,139.139999,139.740005,139.740005,262200
2019-08-26,141.009995,142.910004,139.925003,142.600006,142.600006,306600
2019-08-27,143.580002,146.000000,140.179993,141.259995,141.259995,255800
2019-08-28,140.320007,143.574997,138.020004,142.869995,142.869995,306300
2019-08-29,144.320007,145.880005,142.229996,145.139999,145.139999,255600
2019-08-30,145.949997,147.240005,144.300003,145.550003,145.550003,429200
2019-09-03,144.809998,149.500000,144.229996,146.559998,146.559998,467900
2019-09-04,147.369995,147.410004,139.869995,140.279999,140.279999,309400
2019-09-05,141.410004,143.108994,133.399994,134.000000,134.000000,735800
2019-09-06,134.259995,135.654999,131.304993,131.820007,131.820007,614900
2019-09-09,138.479996,143.570007,133.580002,136.169998,136.169998,1356400
2019-09-10,135.199997,141.990005,134.229996,140.399994,140.399994,672200
2019-09-11,140.380005,148.044998,140.380005,146.429993,146.429993,760300
2019-09-12,147.169998,149.990005,146.285004,149.139999,149.139999,587300
2019-09-13,148.889999,150.410004,148.050003,149.000000,149.000000,613900
2019-09-16,147.240005,151.779999,146.279999,151.449997,151.449997,459500
2019-09-17,152.169998,154.979996,149.854996,151.619995,151.619995,432600
2019-09-18,151.929993,152.449997,148.250000,150.080002,150.080002,396500
2019-09-19,150.919998,151.485001,147.770004,147.809998,147.809998,568100
2019-09-20,148.139999,151.130005,146.080002,147.899994,147.899994,5178200
2019-09-23,146.740005,147.050003,141.539993,144.009995,144.009995,888600
2019-09-24,144.380005,145.559998,136.880005,140.300003,140.300003,616200
2019-09-25,140.240005,140.800003,137.119995,139.960007,139.960007,363700
2019-09-26,139.119995,139.119995,134.800003,135.080002,135.080002,884600
2019-09-27,136.059998,136.070007,131.559998,132.000000,132.000000,482300
2019-09-30,132.000000,134.654999,130.660004,134.490005,134.490005,590700
2019-10-01,134.929993,137.830002,132.945007,134.809998,134.809998,913700
2019-10-02,133.809998,136.059998,130.800003,135.509995,135.509995,572400
2019-10-03,135.289993,141.009995,134.520004,139.199997,139.199997,838500
2019-10-04,139.570007,146.800003,139.570007,146.070007,146.070007,634400
2019-10-07,145.119995,145.300003,142.429993,143.600006,143.600006,388600
2019-10-08,142.639999,144.070007,137.520004,137.789993,137.789993,361300
2019-10-09,138.970001,142.639999,137.839996,142.289993,142.289993,304600
2019-10-10,142.050003,144.369995,141.699997,142.710007,142.710007,214300
2019-10-11,144.699997,147.279999,143.179993,145.940002,145.940002,338900
2019-10-14,145.589996,145.589996,142.509995,144.740005,144.740005,206500
2019-10-15,145.570007,147.139999,144.169998,146.889999,146.889999,294400
2019-10-16,147.240005,147.850006,145.699997,146.190002,146.190002,272900
2019-10-17,147.330002,148.830002,145.330002,146.899994,146.899994,313000
2019-10-18,146.899994,148.320007,143.990005,147.210007,147.210007,177800
2019-10-21,148.050003,149.410004,146.960007,147.630005,147.630005,159600
2019-10-22,147.949997,150.774994,146.470001,150.000000,150.000000,674600
2019-10-23,150.330002,151.000000,148.580002,149.639999,149.639999,390000
2019-10-24,150.960007,152.309998,149.130005,150.000000,150.000000,419100
2019-10-25,149.360001,157.740005,149.100006,157.710007,157.710007,536100
2019-10-28,157.979996,159.250000,156.320007,157.850006,157.850006,524400
2019-10-29,157.600006,163.250000,156.889999,162.860001,162.860001,363600
2019-10-30,162.020004,162.759995,158.940002,160.100006,160.100006,317300
2019-10-31,159.919998,161.089996,155.309998,155.970001,155.970001,501700
2019-11-01,156.949997,162.889999,156.949997,160.169998,160.169998,409800
2019-11-04,161.009995,162.050003,158.559998,160.500000,160.500000,584400
2019-11-05,160.199997,164.339996,159.619995,164.009995,164.009995,390100
2019-11-06,163.919998,167.360001,163.919998,166.039993,166.039993,742000
2019-11-07,167.000000,175.524994,165.009995,172.929993,172.929993,1002200
2019-11-08,164.000000,168.089996,153.279999,164.740005,164.740005,1524800
2019-11-11,164.759995,171.679993,164.625000,168.179993,168.179993,768800
2019-11-12,167.429993,169.660004,166.240005,167.029999,167.029999,372000
2019-11-13,165.289993,167.139999,164.410004,166.029999,166.029999,398400
2019-11-14,166.300003,168.240005,164.779999,164.839996,164.839996,378100
2019-11-15,165.660004,168.250000,165.660004,166.759995,166.759995,587600
2019-11-18,167.350006,169.360001,166.220001,166.490005,166.490005,365600
2019-11-19,167.119995,169.520004,165.020004,168.770004,168.770004,509700
2019-11-20,168.830002,170.929993,166.750000,168.160004,168.160004,467700
2019-11-21,168.550003,169.175003,166.005005,167.429993,167.429993,305200
2019-11-22,168.979996,169.029999,165.809998,167.240005,167.240005,434800
2019-11-25,168.110001,172.779999,167.929993,171.830002,171.830002,789200
2019-11-26,171.949997,176.479996,170.449997,176.399994,176.399994,758400
2019-11-27,176.789993,178.250000,176.179993,177.800003,177.800003,280400
2019-11-29,177.000000,178.740005,175.949997,176.919998,176.919998,187500
2019-12-02,176.899994,178.630005,173.339996,174.110001,174.110001,416300
2019-12-03,172.690002,173.505005,169.979996,171.029999,171.029999,338700
2019-12-04,172.029999,175.130005,171.975006,172.949997,172.949997,454500
2019-12-05,172.610001,173.500000,169.270004,169.570007,169.570007,362200
2019-12-06,170.770004,171.610992,167.449997,167.729996,167.729996,236900
2019-12-09,167.729996,167.880005,161.005005,161.130005,161.130005,342200
2019-12-10,160.630005,160.789993,156.690002,158.479996,158.479996,529100
2019-12-11,158.669998,158.669998,155.880005,156.669998,156.669998,227200
2019-12-12,156.940002,160.630005,155.410004,159.320007,159.320007,500100
2019-12-13,159.800003,161.649994,158.339996,159.320007,159.320007,242200
2019-12-16,159.570007,161.419998,157.755005,158.300003,158.300003,498000
2019-12-17,157.779999,158.889999,157.259995,158.240005,158.240005,421400
2019-12-18,158.639999,158.990005,157.199997,158.330002,158.330002,343900
2019-12-19,159.250000,159.639999,158.054993,159.089996,159.089996,244000
2019-12-20,161.139999,161.570007,159.100006,159.679993,159.679993,511900
2019-12-23,160.220001,164.050003,159.100006,162.800003,162.800003,572000
2019-12-24,163.500000,165.229996,162.429993,162.580002,162.580002,173200
2019-12-26,162.490005,164.750000,162.031998,164.630005,164.630005,138600
2019-12-27,164.990005,166.229996,162.789993,164.100006,164.100006,177600
2019-12-30,164.070007,164.852005,162.199997,163.509995,163.509995,212800
2019-12-31,163.160004,167.020004,162.720001,164.270004,164.270004,291400
2020-01-02,164.160004,165.330002,162.100006,163.789993,163.789993,368400
2020-01-03,161.330002,162.595001,159.535004,160.690002,160.690002,266800
2020-01-06,159.509995,161.990005,158.054993,161.410004,161.410004,359100
2020-01-07,161.000000,161.000000,157.300003,158.679993,158.679993,238400
2020-01-08,159.270004,159.740005,156.029999,156.830002,156.830002,338800
2020-01-09,156.929993,157.660004,155.449997,156.869995,156.869995,223800
2020-01-10,157.839996,163.500000,157.759995,161.949997,161.949997,451500
2020-01-13,162.160004,162.740005,159.660004,162.429993,162.429993,364300
2020-01-14,162.080002,163.490005,157.600006,158.089996,158.089996,343000
2020-01-15,158.649994,161.070007,155.610001,159.729996,159.729996,438600
2020-01-16,160.919998,161.279999,159.419998,160.429993,160.429993,280400
2020-01-17,161.089996,162.009995,159.630005,160.360001,160.360001,198600
2020-01-21,160.460007,170.276001,160.300003,168.889999,168.889999,320400
2020-01-22,169.240005,172.119995,169.190002,170.589996,170.589996,212400
2020-01-23,170.669998,171.910004,168.897995,171.320007,171.320007,276300
2020-01-24,171.979996,172.990005,170.889999,171.750000,171.750000,245600
2020-01-27,168.789993,174.539993,168.229996,172.440002,172.440002,268000
2020-01-28,172.759995,176.000000,172.210007,175.899994,175.899994,193700
2020-01-29,176.199997,180.000000,174.925003,177.639999,177.639999,241200
2020-01-30,175.710007,178.559998,174.289993,178.130005,178.130005,342800
2020-01-31,178.000000,179.240005,173.729996,175.460007,175.460007,323100
2020-02-03,176.130005,178.419998,175.190002,177.979996,177.979996,154200
2020-02-04,180.000000,183.289993,179.210007,181.169998,181.169998,158800
2020-02-05,183.000000,183.210007,177.550003,178.429993,178.429993,316800
2020-02-06,178.800003,181.139999,175.860001,180.559998,180.559998,186100
2020-02-07,179.550003,180.229996,175.820007,176.350006,176.350006,238500
2020-02-10,176.059998,183.380005,176.044998,183.220001,183.220001,196700
2020-02-11,183.830002,186.000000,183.046005,185.119995,185.119995,226600
2020-02-12,185.570007,186.330002,182.690002,185.509995,185.509995,163500
2020-02-13,184.779999,190.300003,183.940002,189.690002,189.690002,250200
2020-02-14,190.070007,191.660004,188.369995,190.440002,190.440002,173933