Date,Open,High,Low,Close,Adj Close,Volume
2014-12-11,35.049999,36.970001,34.880001,36.709999,33.187416,601900
2014-12-12,37.220001,37.520000,35.049999,35.410000,32.012161,3836400
2014-12-15,35.869999,35.950001,34.860001,35.290001,31.903675,1898600
2014-12-16,35.410000,35.750000,35.349998,35.459999,32.057354,4877500
2014-12-17,35.470001,36.599998,35.439999,36.169998,32.699234,2500200
2014-12-18,37.110001,38.689999,36.860001,38.169998,34.507313,11518700
2014-12-19,39.119999,41.900002,38.209999,41.900002,37.879406,8381800
2014-12-22,41.040001,42.980000,39.619999,39.680000,35.872425,4526300
2014-12-23,39.720001,40.310001,39.169998,39.259998,35.492714,1400000
2014-12-24,39.419998,39.599998,38.779999,39.290001,35.519844,518900
2014-12-26,39.080002,39.560001,38.869999,39.020000,35.275753,453600
2014-12-29,39.380001,39.389999,38.700001,38.880001,35.149181,975400
2014-12-30,38.910000,39.060001,38.080002,38.869999,35.140141,845500
2014-12-31,38.950001,39.110001,38.580002,39.040001,35.293839,382100
2015-01-02,39.369999,39.639999,38.060001,38.320000,34.642921,749800
2015-01-05,38.209999,38.450001,37.150002,37.799999,34.172821,1169600
2015-01-06,37.799999,38.119999,37.110001,37.869999,34.236103,1532500
2015-01-07,39.060001,40.599998,38.450001,39.330002,35.556007,2298400
2015-01-08,39.830002,41.840000,39.830002,40.349998,36.478119,1730100
2015-01-09,40.700001,40.740002,39.959999,39.959999,36.125553,826900
2015-01-12,39.810001,40.189999,39.369999,39.689999,35.881458,2490000
2015-01-13,40.680000,41.150002,40.070000,40.259998,36.396767,1834400
2015-01-14,40.549999,40.950001,40.000000,40.389999,36.514297,1064000
2015-01-15,41.119999,41.389999,39.220001,39.349998,35.574085,1080800
2015-01-16,39.049999,39.259998,38.299999,38.950001,35.212475,1753600
2015-01-20,38.810001,39.360001,38.250000,38.279999,34.606750,1083400
2015-01-21,38.209999,39.050999,37.680000,38.910000,35.176308,798000
2015-01-22,38.919998,39.639999,38.000000,39.200001,35.438473,1388600
2015-01-23,39.349998,39.900002,39.160000,39.310001,35.537926,675600
2015-01-26,39.599998,40.189999,38.799999,38.849998,35.122070,1141300
2015-01-27,38.419998,39.250000,38.189999,39.240002,35.474648,489900
2015-01-28,39.430000,39.590000,38.200001,38.330002,34.651970,592100
2015-01-29,38.340000,39.750000,38.000000,39.160000,35.402313,930300
2015-01-30,38.750000,39.060001,38.500000,38.680000,34.968376,1469100
2015-02-02,39.070000,39.099998,38.090000,38.450001,34.760445,987900
2015-02-03,38.680000,38.730000,38.255001,38.680000,34.968376,1509600
2015-02-04,38.630001,38.680000,38.000000,38.099998,34.444027,754300
2015-02-05,38.439999,38.689999,38.090000,38.410000,34.724289,1479300
2015-02-06,38.599998,39.439999,38.400002,38.880001,35.149181,1001600
2015-02-09,38.919998,39.046001,38.240002,38.389999,34.706203,681800
2015-02-10,38.889999,39.450001,38.700001,39.250000,35.483681,1337500
2015-02-11,39.119999,39.540001,38.689999,39.020000,35.275753,639000
2015-02-12,39.450001,39.720001,39.009998,39.320000,35.546967,1151000
2015-02-13,39.270000,40.040001,38.660000,38.740002,35.022614,1618100
2015-02-17,40.009998,42.889999,38.990002,42.119999,38.078278,2549300
2015-02-18,42.259998,42.404999,40.869999,40.970001,37.038631,1974700
2015-02-19,40.889999,41.380001,40.630001,40.799999,36.884937,827300
2015-02-20,40.889999,41.919998,40.669998,41.590000,37.599144,834400
2015-02-23,41.680000,41.709999,41.259998,41.630001,37.635307,706600
2015-02-24,41.650002,43.345001,41.450001,42.330002,38.268131,1221900
2015-02-25,42.709999,42.980000,42.340000,42.689999,38.593590,781800
2015-02-26,43.130001,43.639999,42.770000,43.480000,39.307785,1934000
2015-02-27,43.669998,45.709999,43.549999,44.230000,40.068752,2284400
2015-03-02,44.320000,45.099998,44.130001,44.669998,40.467361,1926600
2015-03-03,45.029999,45.119999,43.070000,43.619999,39.516136,1150800
2015-03-04,43.220001,43.740002,42.470001,42.540001,38.537758,1437700
2015-03-05,42.020000,42.540001,40.840000,42.259998,38.284088,1514800
2015-03-06,41.959999,42.590000,40.689999,41.150002,37.278522,662700
2015-03-09,41.290001,41.450001,40.380001,40.520000,36.707798,639900
2015-03-10,40.110001,40.410000,39.650002,39.740002,36.001183,757900
2015-03-11,39.849998,39.919998,39.220001,39.330002,35.629757,592800
2015-03-12,39.709999,39.910000,39.299999,39.689999,35.955879,727500
2015-03-13,39.520000,39.761002,38.919998,38.959999,35.294563,582000
2015-03-16,39.200001,39.650002,38.700001,39.450001,35.738468,894800
2015-03-17,39.209999,39.669998,39.020000,39.619999,35.892471,395200
2015-03-18,39.669998,39.799999,38.740002,39.650002,35.919655,715400
2015-03-19,39.230000,40.080002,39.230000,39.840000,36.091778,803700
2015-03-20,40.259998,40.669998,38.790001,38.970001,35.303619,1273300
2015-03-23,38.889999,38.980000,38.380001,38.509998,34.886902,542200
2015-03-24,38.669998,39.410000,38.669998,39.299999,35.602570,811700
2015-03-25,39.459999,40.250000,38.639999,38.759998,35.113384,1157400
2015-03-26,38.980000,39.349998,38.540001,38.680000,35.040905,1243500
2015-03-27,38.840000,39.259998,38.490002,38.790001,35.140556,1244100
2015-03-30,38.730000,39.200001,38.509998,39.119999,35.439507,1061700
2015-03-31,38.700001,39.220001,38.310001,38.410000,34.796314,1274300
2015-04-01,38.450001,38.900002,37.040001,38.380001,34.769127,2258700
2015-04-02,38.389999,39.340000,38.200001,38.959999,35.294563,952900
2015-04-06,38.919998,39.305000,38.639999,39.209999,35.521046,445700
2015-04-07,39.310001,39.480000,38.790001,38.939999,35.276447,718400
2015-04-08,39.150002,39.430000,38.700001,38.880001,35.222092,396500
2015-04-09,38.980000,39.160000,38.310001,38.590000,34.959377,513200
2015-04-10,38.580002,39.070000,38.320000,38.980000,35.312683,283100
2015-04-13,39.130001,39.430000,38.849998,39.000000,35.330807,607500
2015-04-14,39.119999,39.380001,38.810001,38.970001,35.303619,561500
2015-04-15,38.799999,39.470001,38.599998,38.990002,35.321743,908000
2015-04-16,38.820000,39.779999,38.730000,39.299999,35.602570,880700
2015-04-17,39.410000,39.410000,38.279999,38.500000,34.877850,589100
2015-04-20,38.590000,38.950001,38.009998,38.150002,34.560772,753100
2015-04-21,38.160000,39.099998,38.009998,38.689999,35.049965,1602600
2015-04-22,38.810001,39.820000,37.779999,39.360001,35.656937,2207300
2015-04-23,39.549999,41.320000,39.509998,41.240002,37.360058,1231500
2015-04-24,41.380001,41.799999,40.639999,41.570000,37.659008,1403400
2015-04-27,42.639999,43.224998,40.147999,40.590000,36.771217,2885000
2015-04-28,40.880001,43.259998,40.759998,42.419998,38.429047,1527200
2015-04-29,42.369999,42.509998,41.750000,42.259998,38.284088,1136200
2015-04-30,41.900002,42.020000,40.730000,40.779999,36.943340,1452800
2015-05-01,40.599998,41.509998,40.500000,41.369999,37.477825,1397400
2015-05-04,41.480000,42.380001,41.470001,42.150002,38.184452,1121800
2015-05-05,42.340000,42.340000,40.820000,41.119999,37.251350,1565000
2015-05-06,41.220001,41.430000,40.250000,40.700001,36.870861,1012300
2015-05-07,40.759998,41.610001,40.599998,41.110001,37.242287,1108600
2015-05-08,41.490002,41.740002,40.775002,41.160000,37.287582,792600
2015-05-11,41.160000,41.750000,40.654999,40.830002,36.988632,539500
2015-05-12,40.740002,40.980000,40.500000,40.630001,36.807457,537500
2015-05-13,40.799999,41.639999,40.619999,40.950001,37.097343,517100
2015-05-14,41.150002,41.759998,41.009998,41.599998,37.686188,697100
2015-05-15,41.320000,42.240002,41.150002,42.139999,38.175388,551300
2015-05-18,42.380001,42.380001,40.650002,40.820000,36.979576,559300
2015-05-19,40.930000,41.459999,40.730000,41.230000,37.351006,616100
2015-05-20,41.299999,41.560001,40.794998,41.070000,37.206051,723500
2015-05-21,41.090000,41.459999,40.430000,40.470001,36.662498,684300
2015-05-22,40.459999,40.490002,39.369999,39.840000,36.091778,1216100
2015-05-26,39.669998,40.000000,38.730000,38.869999,35.213028,852700
2015-05-27,38.939999,38.939999,38.215000,38.730000,35.176701,692300
2015-05-28,38.630001,38.820000,37.930000,38.400002,34.876987,792000
2015-05-29,38.259998,38.799999,38.150002,38.669998,35.122208,1228300
2015-06-01,38.770000,38.820000,38.310001,38.419998,34.895142,945200
2015-06-02,38.669998,39.040001,38.340000,38.799999,35.240284,755200
2015-06-03,38.820000,39.169998,38.529999,38.750000,35.194874,650000
2015-06-04,38.650002,39.049999,38.240002,38.639999,35.094955,672400
2015-06-05,38.480000,39.369999,38.330002,39.290001,35.685329,781400
2015-06-08,39.290001,39.430000,38.000000,38.110001,34.613583,1433200
2015-06-09,38.160000,38.259998,37.320000,37.869999,34.395607,799400
2015-06-10,38.110001,38.730000,37.849998,37.990002,34.504589,965800
2015-06-11,38.049999,38.480000,37.889999,38.450001,34.922390,777400
2015-06-12,38.279999,38.349998,37.959999,38.009998,34.522747,818500
2015-06-15,37.880001,38.139999,37.349998,37.689999,34.232117,1084600
2015-06-16,37.720001,37.869999,36.970001,37.099998,33.696247,1359700
2015-06-17,37.279999,37.630001,37.090000,37.459999,34.023212,1271600
2015-06-18,37.689999,38.270000,37.360001,38.200001,34.695324,1177300
2015-06-19,37.820000,38.430000,37.500000,37.849998,34.377438,1123700
2015-06-22,37.970001,38.590000,37.790001,38.560001,35.022301,990600
2015-06-23,38.470001,39.040001,38.450001,38.549999,35.013210,873400
2015-06-24,38.480000,38.529999,37.580002,37.639999,34.186703,1346300
2015-06-25,37.820000,38.549999,37.779999,38.080002,34.586338,1426200
2015-06-26,38.130001,39.169998,37.910000,38.990002,35.412846,9173700
2015-06-29,38.529999,38.750000,37.830002,37.970001,34.486427,1023000
2015-06-30,38.029999,38.619999,37.660000,38.209999,34.704414,1263400
2015-07-01,38.660000,39.590000,38.540001,39.540001,35.912388,1375500
2015-07-02,39.130001,39.570000,38.570000,39.520000,35.894226,1103800
2015-07-06,38.799999,39.720001,38.740002,39.139999,35.549088,915100
2015-07-07,39.110001,39.840000,38.770000,39.810001,36.157623,980900
2015-07-08,39.230000,39.570000,38.634998,38.709999,35.158546,877300
2015-07-09,39.200001,39.330002,38.139999,38.180000,34.677166,648200
2015-07-10,38.540001,38.869999,38.240002,38.840000,35.276615,733300
2015-07-13,39.320000,40.630001,39.060001,40.540001,36.820644,1085800
2015-07-14,40.459999,40.540001,39.799999,40.180000,36.493671,540500
2015-07-15,40.099998,40.130001,39.695000,39.759998,36.112202,563600
2015-07-16,39.869999,40.480000,39.750000,40.189999,36.502743,1058500
2015-07-17,40.279999,41.130001,39.830002,40.840000,37.093117,738100
2015-07-20,40.880001,40.880001,40.029999,40.060001,36.384682,698300
2015-07-21,40.150002,40.160000,39.130001,39.230000,35.630829,755800
2015-07-22,39.040001,40.270000,39.009998,39.970001,36.302937,768300
2015-07-23,40.150002,40.240002,39.169998,39.500000,35.876057,619200
2015-07-24,39.590000,40.500000,39.549999,40.090000,36.411930,1167700
2015-07-27,41.529999,43.060001,40.830002,41.500000,37.692558,3376900
2015-07-28,41.650002,42.830002,41.439999,42.750000,38.827881,1445400
2015-07-29,42.849998,43.250000,42.500000,42.849998,38.918709,1044400
2015-07-30,42.930000,43.240002,42.250000,42.950001,39.009537,820800
2015-07-31,42.990002,43.490002,42.970001,43.240002,39.272934,662100
2015-08-03,43.490002,43.889999,43.029999,43.139999,39.182106,739600
2015-08-04,43.099998,43.820000,43.049999,43.549999,39.554485,585100
2015-08-05,43.799999,44.599998,43.660000,43.910000,39.881458,860200
2015-08-06,43.990002,44.049999,42.869999,43.070000,39.118526,720600
2015-08-07,43.110001,43.619999,42.480000,42.860001,38.927799,923800
2015-08-10,43.040001,43.119999,42.119999,42.750000,38.827881,570400
2015-08-11,42.419998,42.959999,42.169998,42.590000,38.682568,609100
2015-08-12,42.380001,42.389999,41.580002,42.090000,38.228439,961500
2015-08-13,42.000000,42.830002,41.970001,42.520000,38.618988,553200
2015-08-14,42.650002,42.709999,42.320000,42.599998,38.691647,373100
2015-08-17,42.320000,43.320000,42.169998,43.220001,39.254765,472000
2015-08-18,43.130001,43.130001,42.200001,42.290001,38.410084,1111800
2015-08-19,42.270000,42.790001,41.660000,42.610001,38.700729,626000
2015-08-20,42.150002,42.349998,40.549999,40.599998,36.875134,1635600
2015-08-21,40.220001,40.340000,39.220001,39.430000,35.812485,1299000
2015-08-24,37.410000,39.139999,35.000000,37.590000,34.141296,1346200
2015-08-25,38.910000,39.099998,37.090000,37.110001,33.705326,987700
2015-08-26,38.349998,38.869999,36.980000,38.770000,35.327263,1329300
2015-08-27,38.939999,40.270000,38.480000,39.849998,36.311367,1437500
2015-08-28,39.240002,39.770000,38.980000,39.560001,36.047115,919900
2015-08-31,39.040001,39.750000,38.310001,38.340000,34.935455,1107600
2015-09-01,37.549999,38.299999,37.090000,37.310001,33.996914,1102900
2015-09-02,37.779999,37.840000,36.950001,37.410000,34.088039,1453400
2015-09-03,37.680000,38.549999,37.630001,38.029999,34.652977,1038600
2015-09-04,37.500000,38.049999,37.150002,37.540001,34.206486,827300
2015-09-08,38.400002,38.720001,37.840000,37.930000,34.561859,676400
2015-09-09,38.369999,38.910000,38.180000,38.180000,34.789658,1082100
2015-09-10,37.959999,38.570000,37.310001,37.349998,34.033356,832100
2015-09-11,37.330002,37.709999,36.645000,37.369999,34.051579,945300
2015-09-14,37.389999,37.500000,36.889999,36.980000,33.696217,360200
2015-09-15,36.619999,37.380001,36.410000,37.220001,33.914909,598600
2015-09-16,37.279999,37.520000,36.980000,37.029999,33.741783,343600
2015-09-17,36.980000,38.029999,36.790001,37.459999,34.133591,550100
2015-09-18,37.119999,37.410000,36.619999,36.689999,33.431969,628500
2015-09-21,36.840000,38.130001,36.840000,37.970001,34.598305,699800
2015-09-22,37.439999,37.849998,37.299999,37.639999,34.297615,648400
2015-09-23,37.849998,38.200001,37.500000,37.610001,34.270275,323300
2015-09-24,37.230000,37.730000,36.580002,37.250000,33.942238,648700
2015-09-25,37.500000,38.259998,37.189999,37.240002,33.933136,658000
2015-09-28,37.110001,37.450001,36.049999,36.139999,32.930813,764800
2015-09-29,36.139999,36.139999,34.610001,34.709999,31.627787,1744900
2015-09-30,35.040001,36.099998,35.014999,35.919998,32.730339,1800300
2015-10-01,36.209999,36.320000,35.070000,35.160000,32.037830,1566200
2015-10-02,35.110001,35.270000,34.189999,34.970001,31.864704,1348200
2015-10-05,35.340000,35.790001,34.799999,35.580002,32.420536,630600
2015-10-06,35.619999,35.919998,35.340000,35.669998,32.502544,449200
2015-10-07,35.810001,36.070000,35.000000,35.860001,32.675674,767300
2015-10-08,35.820000,36.480000,35.240002,35.680000,32.511654,568300
2015-10-09,35.770000,36.650002,35.570000,36.320000,33.094818,797900
2015-10-12,36.259998,36.740002,36.029999,36.450001,33.213276,237000
2015-10-13,36.090000,36.959999,36.090000,36.439999,33.204166,452400
2015-10-14,36.410000,37.139999,36.009998,36.020000,32.821457,527800
2015-10-15,36.080002,36.480000,35.830002,36.099998,32.894360,725200
2015-10-16,36.169998,36.919998,36.139999,36.549999,33.304401,582100
2015-10-19,36.430000,37.939999,36.240002,37.840000,34.479851,1003000
2015-10-20,37.869999,38.689999,37.549999,37.930000,34.561859,741400
2015-10-21,37.980000,38.230000,36.299999,36.779999,33.513973,2493300
2015-10-22,36.599998,37.520000,36.169998,37.000000,33.714436,1519600
2015-10-23,37.380001,37.820000,37.040001,37.330002,34.015137,1197700
2015-10-26,37.500000,38.889999,37.470001,38.279999,34.880772,1661700
2015-10-27,39.330002,40.750000,38.689999,39.889999,36.347809,3283000
2015-10-28,39.939999,40.990002,39.830002,40.750000,37.131443,860600
2015-10-29,40.500000,41.090000,40.180000,40.959999,37.322803,822500
2015-10-30,40.869999,41.330002,40.139999,40.160000,36.593845,1305300
2015-11-02,39.419998,39.820000,38.939999,39.080002,35.609741,1316300
2015-11-03,38.990002,39.570000,38.840000,38.959999,35.500393,966100
2015-11-04,39.040001,39.419998,37.715000,38.070000,34.689430,1220100
2015-11-05,38.119999,38.330002,36.779999,36.990002,33.705326,1418500
2015-11-06,36.950001,37.029999,35.650002,36.090000,32.885250,1707200
2015-11-09,36.110001,36.349998,35.110001,35.669998,32.502544,1262200
2015-11-10,35.439999,35.910000,34.820000,35.680000,32.511654,1872900
2015-11-11,35.869999,36.875000,35.869999,36.750000,33.486637,969900
2015-11-12,36.520000,36.520000,35.340000,35.340000,32.201843,920800
2015-11-13,35.290001,36.150002,35.000000,35.549999,32.393204,2014200
2015-11-16,35.439999,36.009998,35.389999,35.889999,32.703003,896100
2015-11-17,36.000000,36.180000,35.439999,35.590000,32.429649,483300
2015-11-18,35.779999,36.669998,35.570000,36.590000,33.340847,786900
2015-11-19,36.549999,37.450001,36.540001,37.230000,33.924023,1128200
2015-11-20,37.540001,38.000000,37.009998,37.419998,34.097141,1121600
2015-11-23,37.250000,37.480000,36.119999,36.200001,33.100479,691100
2015-11-24,36.049999,36.240002,35.500000,36.029999,32.945034,839800
2015-11-25,36.139999,36.830002,35.959999,36.610001,33.475368,726700
2015-11-27,36.730000,37.299999,36.459999,36.930000,33.767975,583700
2015-11-30,37.000000,37.220001,36.580002,36.590000,33.457081,1239900
2015-12-01,36.720001,37.279999,36.259998,36.570000,33.438789,3317000
2015-12-02,36.480000,36.950001,36.110001,36.480000,33.356499,894000
2015-12-03,36.590000,36.980000,35.599998,35.880001,32.807873,1107600
2015-12-04,35.910000,36.490002,35.590000,36.009998,32.926746,973300
2015-12-07,36.049999,36.169998,35.139999,35.480000,32.442116,723900
2015-12-08,35.200001,35.395000,34.770000,35.150002,32.140381,879100
2015-12-09,35.189999,36.119999,34.470001,34.660000,31.692333,1379500
2015-12-10,35.009998,36.360001,34.869999,36.290001,33.182766,6513200
2015-12-11,35.730000,36.110001,35.035000,35.590000,32.542702,1914300
2015-12-14,35.799999,36.188999,34.580002,35.040001,32.039795,2497500
2015-12-15,35.430000,36.110001,35.340000,35.959999,32.881020,1214800
2015-12-16,36.070000,37.110001,36.049999,36.900002,33.740543,1821800
2015-12-17,37.150002,37.470001,35.540001,35.990002,32.908463,1636700
2015-12-18,36.029999,36.849998,36.029999,36.700001,33.557655,1322600
2015-12-21,37.009998,37.400002,36.209999,36.639999,33.502808,679500
2015-12-22,36.709999,36.709999,35.900002,36.430000,33.310772,990400
2015-12-23,36.650002,37.150002,36.299999,36.970001,33.804543,454000
2015-12-24,36.830002,37.709999,36.830002,37.220001,34.033142,277700
2015-12-28,37.060001,37.340000,36.777000,37.130001,33.950848,818200
2015-12-29,37.189999,37.630001,36.919998,37.630001,34.408035,1006000
2015-12-30,37.410000,37.750000,36.770000,37.130001,33.950848,593100
2015-12-31,36.980000,37.500000,36.580002,37.360001,34.161140,791300
2016-01-04,36.509998,36.520000,35.320000,35.549999,32.506134,1144600
2016-01-05,35.700001,35.830002,34.090000,34.189999,31.262575,2765700
2016-01-06,33.799999,34.110001,32.770000,33.150002,30.311617,3182000
2016-01-07,32.630001,33.154999,32.279999,32.389999,29.616692,3315200
2016-01-08,32.580002,32.810001,31.809999,31.820000,29.095497,3246300
2016-01-11,32.119999,32.320000,31.270000,31.670000,28.958345,1372500
2016-01-12,31.870001,33.080002,31.700001,32.310001,29.543543,1863600
2016-01-13,32.500000,32.900002,31.590000,31.760000,29.040638,1133000
2016-01-14,31.830000,34.040001,31.450001,33.599998,30.723091,2641500
2016-01-15,32.759998,33.639999,32.360001,33.470001,30.604225,2743600
2016-01-19,33.520000,33.840000,32.779999,33.160000,30.320761,1944600
2016-01-20,32.650002,33.200001,31.299999,32.630001,29.836149,1882600
2016-01-21,32.840000,34.189999,32.820000,33.990002,31.079706,1272500
2016-01-22,34.439999,34.959999,34.119999,34.750000,31.774628,1103200
2016-01-25,34.470001,34.680000,33.505001,33.590000,30.713951,2055700
2016-01-26,34.009998,34.599998,33.500000,34.180000,31.253428,644700
2016-01-27,33.689999,33.889999,32.290001,32.849998,30.037308,2327500
2016-01-28,33.209999,33.299999,32.509998,33.040001,30.211040,933700
2016-01-29,33.209999,33.700001,33.180000,33.580002,30.704805,1614300
2016-02-01,33.400002,34.169998,33.180000,33.959999,31.052267,1370500
2016-02-02,33.590000,33.590000,32.240002,32.700001,29.900154,1803400
2016-02-03,32.959999,33.150002,32.049999,32.470001,29.689840,1298700
2016-02-04,32.709999,32.990002,32.009998,32.689999,29.891005,1856200
2016-02-05,32.630001,33.049999,31.850000,31.959999,29.223509,1232000
2016-02-08,31.750000,31.750000,30.150000,30.730000,28.098825,1836400
2016-02-09,30.740000,31.360001,29.370001,30.250000,27.659924,2634400
2016-02-10,30.490000,30.940001,29.780001,30.530001,27.915949,1806300
2016-02-11,29.559999,30.620001,29.280001,30.360001,27.760508,3319500
2016-02-12,30.910000,32.134998,30.690001,32.009998,29.269230,2733500
2016-02-16,34.130001,34.880001,33.139999,33.820000,30.924244,3711300
2016-02-17,33.959999,34.959999,33.660000,34.509998,31.555170,2172500
2016-02-18,34.570000,34.590000,33.009998,33.380001,30.521925,2036800
2016-02-19,33.029999,33.160000,32.450001,32.669998,29.872721,1437100
2016-02-22,33.060001,33.410000,32.189999,32.720001,29.918438,1666900
2016-02-23,32.730000,33.020000,32.139999,32.810001,30.000738,994000
2016-02-24,32.380001,33.230000,31.580000,33.169998,30.329906,1201200
2016-02-25,33.279999,33.779999,32.830002,33.669998,30.787096,1370700
2016-02-26,33.880001,34.480000,33.459999,34.349998,31.408871,1317000
2016-02-29,34.180000,35.349998,34.049999,35.060001,32.058086,1836000
2016-03-01,35.060001,36.430000,34.959999,36.029999,33.077103,2097200
2016-03-02,35.790001,36.480000,35.660000,36.290001,33.315800,1165400
2016-03-03,36.310001,37.000000,36.130001,36.849998,33.829910,1748700
2016-03-04,36.660000,38.000000,36.660000,37.270000,34.215485,1716800
2016-03-07,37.119999,37.959999,36.779999,37.849998,34.747948,1271400
2016-03-08,37.430000,37.860001,37.150002,37.209999,34.160408,1295400
2016-03-09,37.349998,38.439999,37.349998,37.910000,34.803036,1165300
2016-03-10,38.000000,38.430000,37.060001,37.580002,34.500080,880000
2016-03-11,38.070000,38.799999,37.759998,38.490002,35.335495,1229900
2016-03-14,38.580002,39.130001,38.330002,38.990002,35.794525,1022700
2016-03-15,38.869999,38.900002,37.259998,37.419998,34.353191,2373500
2016-03-16,37.480000,38.799999,37.139999,38.389999,35.243698,1447300
2016-03-17,38.590000,39.169998,38.009998,38.840000,35.656807,1257300
2016-03-18,39.209999,39.669998,38.770000,39.139999,35.932217,1699700
2016-03-21,39.009998,39.320000,38.290001,38.590000,35.427303,947400
2016-03-22,38.250000,38.770000,37.970001,38.480000,35.326313,528300
2016-03-23,38.750000,38.750000,37.810001,38.009998,34.894836,727300
2016-03-24,37.790001,37.790001,37.244999,37.630001,34.545986,692800
2016-03-28,37.630001,38.418999,37.630001,38.250000,35.115170,608400
2016-03-29,38.020000,39.119999,37.779999,38.840000,35.656807,557900
2016-03-30,39.240002,39.650002,39.139999,39.330002,36.106655,679700
2016-03-31,39.169998,39.360001,38.720001,38.830002,35.647640,984700
2016-04-01,38.509998,39.470001,38.279999,39.230000,36.014854,945100
2016-04-04,39.060001,39.340000,38.689999,38.939999,35.748611,682900
2016-04-05,38.590000,38.590000,37.750000,38.250000,35.115170,878400
2016-04-06,38.139999,39.150002,38.070000,39.110001,35.904694,737500
2016-04-07,38.910000,38.919998,38.014999,38.330002,35.188622,662900
2016-04-08,37.759998,38.380001,37.540001,38.029999,34.913193,769700
2016-04-11,38.840000,40.119999,38.799999,39.119999,35.913868,1636300
2016-04-12,39.259998,39.799999,38.959999,39.709999,36.455505,825600
2016-04-13,40.029999,40.080002,39.320000,39.720001,36.464703,644800
2016-04-14,39.880001,39.880001,38.950001,39.080002,35.877140,643300
2016-04-15,39.189999,40.180000,39.139999,40.040001,36.758469,739700
2016-04-18,39.889999,41.049999,39.490002,41.040001,37.676510,1345100
2016-04-19,41.380001,41.445000,40.779999,41.230000,37.850945,1038800
2016-04-20,41.209999,41.980000,41.110001,41.910000,38.475204,1476200
2016-04-21,41.990002,42.500000,41.020000,41.279999,37.896839,1234700
2016-04-22,41.299999,41.480000,40.270000,40.660000,37.327644,1451600
2016-04-25,40.380001,41.060001,40.270000,41.040001,37.676510,1002700
2016-04-26,41.099998,41.810001,40.930000,41.630001,38.218155,881500
2016-04-27,41.270000,42.430000,41.160000,42.410000,38.934235,1586000
2016-04-28,42.959999,43.965000,42.720001,42.869999,39.356529,3332900
2016-04-29,42.849998,43.500000,42.740002,43.259998,39.714569,2215000
2016-05-02,43.500000,43.500000,43.099998,43.240002,39.696198,995900
2016-05-03,42.919998,43.240002,42.349998,42.790001,39.283085,886700
2016-05-04,42.540001,42.970001,42.380001,42.830002,39.319813,683600
2016-05-05,43.029999,43.360001,42.209999,42.759998,39.255535,656600
2016-05-06,42.320000,42.790001,42.009998,42.509998,39.026031,982200
2016-05-09,42.470001,42.700001,42.029999,42.299999,38.833252,742000
2016-05-10,42.380001,42.799999,42.160000,42.619999,39.127014,1380100
2016-05-11,42.500000,42.658001,41.080002,41.169998,37.795856,1114300
2016-05-12,41.150002,41.570000,40.415001,40.790001,37.583935,1031500
2016-05-13,40.450001,40.700001,39.779999,39.910000,36.773098,1578700
2016-05-16,39.939999,40.410000,39.860001,40.250000,37.086384,608900
2016-05-17,40.099998,40.689999,40.029999,40.200001,37.040310,1139100
2016-05-18,40.119999,40.830002,39.750000,40.240002,37.077160,976800
2016-05-19,40.009998,40.529999,39.660000,40.500000,37.316730,1138700
2016-05-20,40.480000,40.919998,40.310001,40.820000,37.611572,1448800
2016-05-23,40.900002,41.410000,40.689999,41.160000,37.924854,719200
2016-05-24,41.450001,42.330002,41.349998,42.160000,38.846256,819400
2016-05-25,42.240002,42.549999,41.830002,41.959999,38.661976,804400
2016-05-26,42.290001,42.525002,41.919998,42.150002,38.837036,422500
2016-05-27,42.060001,42.680000,41.869999,42.500000,39.159527,446700
2016-05-31,42.689999,42.689999,41.205002,41.759998,38.477695,1272900
2016-06-01,41.759998,41.810001,40.720001,41.330002,38.081490,1442900
2016-06-02,41.230000,41.669998,41.000000,41.650002,38.376343,698100
2016-06-03,41.580002,41.770000,41.209999,41.490002,38.228920,726900
2016-06-06,41.490002,41.730000,41.145000,41.419998,38.164413,802000
2016-06-07,41.439999,42.700001,41.439999,42.520000,39.177959,873800
2016-06-08,42.599998,42.930000,42.250000,42.290001,38.966034,526800
2016-06-09,41.590000,42.480000,41.570000,42.459999,39.122681,804400
2016-06-10,42.080002,42.529999,42.029999,42.279999,38.956821,682800
2016-06-13,41.930000,42.560001,41.799999,42.130001,38.818615,591700
2016-06-14,42.110001,42.880001,41.869999,42.730000,39.371452,840400
2016-06-15,42.730000,42.959999,42.544998,42.599998,39.251671,640100
2016-06-16,42.240002,42.270000,41.250000,42.180000,38.864681,1009000
2016-06-17,42.410000,42.959999,42.080002,42.919998,39.546513,737600
2016-06-20,43.500000,44.020000,43.400002,43.610001,40.182285,1434200
2016-06-21,43.790001,43.880001,42.720001,43.070000,39.684731,1163900
2016-06-22,43.240002,43.240002,42.330002,42.349998,39.021317,458400
2016-06-23,42.799999,43.330002,42.580002,43.209999,39.813721,567100
2016-06-24,41.490002,42.618999,41.250000,41.400002,38.145985,1780600
2016-06-27,40.250000,40.599998,39.279999,39.930000,36.791534,2642800
2016-06-28,40.130001,40.820000,40.099998,40.290001,37.123234,1649400
2016-06-29,40.750000,41.450001,40.660000,41.080002,37.851143,1785700
2016-06-30,41.349998,41.709999,40.700001,41.599998,38.330273,1161300
2016-07-01,41.529999,42.049999,41.349998,41.669998,38.394764,498400
2016-07-05,41.750000,42.055000,41.200001,41.380001,38.127556,546000
2016-07-06,41.000000,42.139999,40.840000,41.919998,38.625111,937500
2016-07-07,41.970001,42.270000,41.200001,41.480000,38.219704,989700
2016-07-08,41.860001,41.930000,41.349998,41.400002,38.145985,899000
2016-07-11,41.590000,41.880001,41.410000,41.480000,38.219704,1195900
2016-07-12,41.790001,42.180000,41.160000,41.340000,38.090702,1974300
2016-07-13,41.369999,41.889999,41.189999,41.680000,38.403980,1412900
2016-07-14,42.119999,42.490002,41.860001,41.900002,38.606693,770900
2016-07-15,41.939999,42.209999,41.430000,41.720001,38.440838,1285800
2016-07-18,42.189999,43.490002,42.189999,43.419998,40.007221,2149100
2016-07-19,43.080002,43.584999,42.910000,43.500000,40.080925,1045000
2016-07-20,43.759998,44.930000,43.439999,44.500000,41.002323,1775300
2016-07-21,44.459999,44.759998,44.180000,44.490002,40.993118,761600
2016-07-22,44.470001,45.259998,44.470001,45.070000,41.527534,802100
2016-07-25,45.049999,45.119999,44.470001,44.799999,41.278751,729700
2016-07-26,44.520000,44.590000,44.000000,44.189999,40.716694,1179600
2016-07-27,44.180000,44.180000,43.490002,43.830002,40.384995,880200
2016-07-28,43.840000,44.730000,43.680000,44.669998,41.158962,971100
2016-07-29,44.520000,44.889999,44.349998,44.730000,41.214245,707000
2016-08-01,44.700001,45.060001,44.419998,45.000000,41.463032,494500
2016-08-02,44.849998,45.230000,44.119999,44.500000,41.002323,982400
2016-08-03,44.459999,45.195000,44.250000,44.790001,41.269539,1384700
2016-08-04,44.490002,46.459999,43.799999,46.310001,42.670059,2432800
2016-08-05,46.180000,47.389999,45.959999,46.689999,43.020203,1657700
2016-08-08,46.860001,46.910000,46.570000,46.770000,43.093914,948300
2016-08-09,46.770000,47.849998,46.770000,47.540001,43.803383,790100
2016-08-10,47.810001,47.970001,47.105000,47.259998,43.545391,612500
2016-08-11,47.549999,47.910000,47.320000,47.410000,43.683601,835700
2016-08-12,47.580002,47.730000,47.290001,47.430000,43.702034,485400
2016-08-15,47.599998,47.660000,47.419998,47.480000,43.748100,657700
2016-08-16,47.750000,47.750000,47.290001,47.430000,43.702034,703700
2016-08-17,47.279999,48.150002,47.160000,47.970001,44.199589,577000
2016-08-18,47.900002,48.459999,47.900002,48.009998,44.236443,372700
2016-08-19,48.119999,48.119999,47.610001,47.810001,44.052174,535900
2016-08-22,47.619999,47.994999,47.580002,47.900002,44.135086,514200
2016-08-23,47.970001,48.139999,47.599998,47.669998,43.923172,413000
2016-08-24,47.669998,47.770000,47.459999,47.509998,43.775745,492700
2016-08-25,47.490002,47.560001,47.049999,47.250000,43.536179,578100
2016-08-26,47.480000,47.790001,46.755001,46.869999,43.186047,748800
2016-08-29,47.299999,47.419998,47.000000,47.180000,43.471684,490400
2016-08-30,47.540001,47.610001,46.790001,47.000000,43.305832,430300
2016-08-31,46.740002,47.830002,46.740002,47.680000,43.932384,939000
2016-09-01,48.020000,49.119999,47.790001,48.529999,44.866127,1993600
2016-09-02,48.770000,48.939999,48.209999,48.259998,44.616516,508100
2016-09-06,48.439999,48.720001,48.049999,48.330002,44.681236,458400
2016-09-07,48.189999,48.310001,47.970001,48.160000,44.524067,361400
2016-09-08,47.910000,47.910000,46.770000,46.889999,43.349949,647000
2016-09-09,46.290001,46.470001,44.619999,44.820000,41.436222,1642700
2016-09-12,44.560001,45.169998,44.500000,44.959999,41.565655,778300
2016-09-13,44.740002,44.900002,44.349998,44.630001,41.260567,671100
2016-09-14,44.720001,44.990002,44.450001,44.790001,41.408493,511500
2016-09-15,44.439999,45.209999,44.400002,44.939999,41.547165,521700
2016-09-16,44.779999,44.939999,44.310001,44.889999,41.500938,488500
2016-09-19,45.070000,45.639999,44.980000,45.349998,41.926208,844600
2016-09-20,45.490002,46.070000,45.490002,45.770000,42.314503,664200
2016-09-21,45.990002,46.180000,45.650002,46.029999,42.554878,464700
2016-09-22,46.360001,46.560001,46.067001,46.290001,42.795250,471500
2016-09-23,46.150002,46.650002,46.000000,46.099998,42.619583,349000
2016-09-26,45.369999,45.380001,44.500000,44.660000,41.288303,1143000
2016-09-27,44.480000,45.040001,44.430000,44.799999,41.417736,563900
2016-09-28,44.700001,45.220001,44.279999,45.130001,41.722824,591000
2016-09-29,45.029999,45.209999,44.029999,44.049999,40.724350,722800
2016-09-30,44.360001,45.000000,44.189999,44.580002,41.214348,834900
2016-10-03,44.580002,44.610001,43.639999,44.060001,40.733601,964300
2016-10-04,44.299999,44.520000,43.549999,43.889999,40.576439,580000
2016-10-05,44.119999,44.200001,43.610001,43.630001,40.336063,642300
2016-10-06,43.599998,44.090000,43.389999,43.880001,40.567188,536000
2016-10-07,44.099998,44.500000,43.889999,44.320000,40.973976,824500
2016-10-10,44.439999,44.910000,44.410000,44.599998,41.232838,397800
2016-10-11,44.680000,44.790001,43.520000,43.660000,40.363796,1189200
2016-10-12,43.790001,44.470001,43.619999,44.040001,40.715118,616100
2016-10-13,43.610001,43.849998,43.404999,43.560001,40.271358,1411500
2016-10-14,43.900002,44.480000,43.820000,43.970001,40.650402,1111700
2016-10-17,44.110001,44.110001,43.549999,43.889999,40.576439,801400
2016-10-18,44.230000,45.009998,44.090000,44.830002,41.445465,1013200
2016-10-19,45.459999,46.099998,45.360001,45.970001,42.499401,1826100
2016-10-20,45.889999,46.189999,45.490002,45.529999,42.092621,1109500
2016-10-21,45.349998,47.060001,44.930000,47.000000,43.451645,1552100
2016-10-24,47.299999,47.490002,44.610001,44.669998,41.297550,3191900
2016-10-25,45.070000,45.099998,44.285000,44.500000,41.140385,2444300
2016-10-26,44.160000,44.459999,42.915001,43.099998,39.846077,2234000
2016-10-27,43.160000,43.570000,42.889999,43.369999,40.095699,2680400
2016-10-28,43.290001,43.840000,43.240002,43.580002,40.289845,1376400
2016-10-31,43.799999,44.590000,43.669998,44.470001,41.112648,1121300
2016-11-01,44.660000,44.790001,43.959999,44.049999,40.724350,1134000
2016-11-02,44.020000,44.599998,43.900002,44.419998,41.066425,804400
2016-11-03,44.570000,45.259998,44.549999,44.610001,41.242077,1232200
2016-11-04,44.580002,44.759998,44.200001,44.380001,41.029453,762500
2016-11-07,45.029999,45.820000,44.820000,45.650002,42.203560,629600
2016-11-08,45.570000,46.160000,45.240002,45.980000,42.508652,705200
2016-11-09,45.360001,46.400002,45.200001,46.230000,42.739773,877500
2016-11-10,46.200001,46.500000,44.419998,44.580002,41.214348,2079300
2016-11-11,44.490002,44.490002,43.299999,43.480000,40.197395,1246700
2016-11-14,43.599998,43.820000,42.345001,43.009998,39.762871,1434500
2016-11-15,43.090000,44.180000,42.849998,44.000000,40.678131,1064700
2016-11-16,43.869999,44.990002,43.770000,44.919998,41.528671,850300
2016-11-17,44.840000,46.040001,44.770000,45.990002,42.517895,953800
2016-11-18,45.919998,46.419998,45.919998,46.200001,42.712040,694300
2016-11-21,46.459999,46.880001,46.020000,46.630001,43.109585,1420600
2016-11-22,46.930000,48.139999,46.849998,47.840000,44.228233,972800
2016-11-23,47.669998,47.930000,47.509998,47.759998,44.154259,668800
2016-11-25,47.650002,48.259998,47.500000,48.240002,44.598026,252400
2016-11-28,48.070000,48.230000,47.549999,47.660000,44.061817,424400
2016-11-29,48.139999,48.689999,47.650002,48.340000,44.690472,964200
2016-11-30,48.380001,48.480000,47.389999,47.529999,43.941628,816600
2016-12-01,47.439999,47.790001,47.014999,47.160000,43.599560,989500
2016-12-02,47.310001,47.880001,46.959999,47.709999,44.108036,666400
2016-12-05,47.860001,48.459999,47.660000,48.259998,44.616516,590500
2016-12-06,48.290001,48.290001,47.630001,48.169998,44.690739,425700
2016-12-07,48.240002,49.330002,48.020000,49.270000,45.711285,771100
2016-12-08,49.119999,49.490002,48.810001,49.360001,45.794785,458300
2016-12-09,49.459999,50.130001,49.310001,49.660000,46.073112,967600
2016-12-12,49.709999,49.779999,49.139999,49.389999,45.822617,614300
2016-12-13,49.549999,50.200001,49.180000,49.230000,45.674175,589100
2016-12-14,49.139999,49.259998,48.030998,48.220001,44.737122,609100
2016-12-15,48.040001,48.599998,47.939999,48.209999,44.727852,460700
2016-12-16,48.070000,48.759998,48.070000,48.509998,45.006184,410800
2016-12-19,48.490002,48.680000,47.790001,48.009998,44.542294,365000
2016-12-20,48.040001,48.349998,47.955002,48.099998,44.625793,458700
2016-12-21,48.090000,48.330002,47.830002,48.169998,44.690739,433100
2016-12-22,47.880001,48.090000,47.599998,47.889999,44.430962,280800
2016-12-23,47.799999,47.900002,47.540001,47.689999,44.245407,160000
2016-12-27,47.610001,47.980000,47.610001,47.860001,44.403133,128200
2016-12-28,47.759998,47.869999,47.340000,47.549999,44.115520,297700
2016-12-29,47.630001,47.980000,47.599998,47.919998,44.458797,247300
2016-12-30,48.090000,48.099998,47.490002,47.660000,44.217575,224200
2017-01-03,48.209999,48.209999,46.880001,47.000000,43.605247,492700
2017-01-04,47.299999,48.090000,47.110001,47.950001,44.486633,588900
2017-01-05,48.020000,48.660000,47.599998,48.299999,44.811348,696300
2017-01-06,49.029999,49.680000,48.560001,49.470001,45.896843,1015800
2017-01-09,49.459999,49.770000,49.270000,49.450001,45.878288,597300
2017-01-10,49.200001,50.009998,49.080002,49.630001,46.045284,854200
2017-01-11,49.869999,50.130001,49.360001,50.070000,46.453503,531300
2017-01-12,49.459999,50.130001,48.930000,49.220001,45.664894,747000
2017-01-13,49.099998,49.980000,49.099998,49.770000,46.175175,300700
2017-01-17,49.830002,50.049999,49.049000,49.250000,45.692726,429900
2017-01-18,49.220001,49.279999,48.860001,49.040001,45.497898,320900
2017-01-19,48.930000,49.040001,48.279999,48.520000,45.015453,431400
2017-01-20,48.520000,48.770000,48.290001,48.610001,45.098961,373000
2017-01-23,48.599998,48.610001,47.750000,48.400002,44.904129,404200
2017-01-24,48.680000,49.150002,48.680000,49.020000,45.479347,436300
2017-01-25,49.130001,49.590000,48.840000,49.500000,45.924675,411000
2017-01-26,49.509998,49.680000,49.080002,49.349998,45.785507,244000
2017-01-27,49.279999,50.040001,49.230000,50.020000,46.407120,678300
2017-01-30,49.980000,50.000000,48.970001,49.340000,45.776234,606000
2017-01-31,49.099998,49.430000,48.500000,49.080002,45.535007,655600
2017-02-01,49.189999,49.189999,48.410000,48.930000,45.395844,529000
2017-02-02,48.830002,49.750999,48.830002,49.369999,45.804058,270300
2017-02-03,49.360001,50.000000,49.220001,49.680000,46.091675,393500
2017-02-06,49.630001,49.720001,49.040001,49.130001,45.581406,511900
2017-02-07,49.480000,50.459999,49.270000,50.180000,46.555553,1044100
2017-02-08,50.320000,50.770000,49.610001,50.639999,46.982327,1939800
2017-02-09,50.639999,51.119999,50.599998,50.860001,47.186443,592600
2017-02-10,51.189999,51.575001,51.049999,51.419998,47.705982,960900
2017-02-13,52.639999,54.299999,51.790001,53.799999,49.914085,2775900
2017-02-14,54.040001,54.950001,53.160000,54.529999,50.591362,1881300
2017-02-15,54.500000,55.040001,54.410000,54.970001,50.999580,1471800
2017-02-16,54.970001,55.224998,53.470001,53.849998,49.960480,1042500
2017-02-17,53.660000,54.389999,53.650002,53.900002,50.006870,1144300
2017-02-21,55.570000,57.980000,55.570000,57.599998,53.439625,1884500
2017-02-22,57.369999,57.490002,55.849998,56.009998,51.964466,1316500
2017-02-23,56.380001,56.400002,55.279999,55.549999,51.537685,1003200
2017-02-24,55.470001,55.610001,54.895000,55.470001,51.463467,1444900
2017-02-27,55.580002,55.610001,54.700001,55.279999,51.287186,1699100
2017-02-28,54.830002,55.889999,54.610001,54.700001,50.749084,1090800
2017-03-01,54.889999,55.250000,54.540001,54.919998,51.121414,1339800
2017-03-02,54.650002,55.020000,54.410000,54.700001,50.916634,666000
2017-03-03,54.549999,54.810001,54.180000,54.700001,50.916634,448300
2017-03-06,54.380001,54.730000,54.040001,54.549999,50.777008,476600
2017-03-07,54.250000,54.660000,54.080002,54.480000,50.711842,485400
2017-03-08,54.439999,54.860001,54.139999,54.290001,50.534992,325600
2017-03-09,54.349998,54.369999,53.669998,54.139999,50.395367,1061000
2017-03-10,54.419998,54.779999,54.240002,54.610001,50.832859,650500
2017-03-13,54.080002,54.970001,53.689999,54.759998,50.972473,1078200
2017-03-14,54.520000,54.590000,53.630001,54.009998,50.274357,958500
2017-03-15,54.209999,54.990002,54.110001,54.860001,51.065567,727800
2017-03-16,54.759998,54.970001,54.119999,54.299999,50.544296,855600
2017-03-17,54.389999,54.700001,54.205002,54.450001,50.683922,930500
2017-03-20,54.580002,54.610001,54.009998,54.389999,50.628075,498800
2017-03-21,54.639999,54.689999,53.779999,54.110001,50.367439,685400
2017-03-22,53.860001,54.090000,53.540001,54.060001,50.320904,1266700
2017-03-23,54.009998,54.820000,53.910000,54.470001,50.702549,448100
2017-03-24,54.430000,54.919998,54.330002,54.580002,50.804935,692400
2017-03-27,54.570000,55.359001,54.220001,54.950001,51.149349,917000
2017-03-28,55.130001,55.650002,54.709999,55.349998,51.521671,846000
2017-03-29,55.029999,56.500000,54.970001,56.160000,52.275646,1432700
2017-03-30,56.000000,56.270000,55.799999,55.959999,52.089485,480600
2017-03-31,56.080002,56.130001,55.660000,55.740002,51.884701,530800
2017-04-03,55.669998,56.060001,55.090000,55.810001,51.949860,519700
2017-04-04,55.310001,56.080002,55.310001,55.759998,51.903320,728600
2017-04-05,55.779999,56.639999,55.680000,56.060001,52.182564,761100
2017-04-06,56.189999,56.310001,55.738998,56.029999,52.154640,799900
2017-04-07,56.000000,56.270000,55.820000,56.049999,52.173252,454200
2017-04-10,56.099998,56.360001,56.000000,56.189999,52.303577,799900
2017-04-11,55.529999,56.490002,55.340000,56.419998,52.517666,1130400
2017-04-12,56.360001,56.560001,56.049999,56.389999,52.489742,570400
2017-04-13,56.250000,56.619999,55.939999,56.090000,52.210491,568000
2017-04-17,56.430000,56.849998,56.240002,56.630001,52.713150,463100
2017-04-18,56.650002,56.750000,56.189999,56.660000,52.741066,609400
2017-04-19,56.610001,56.799999,56.070000,56.220001,52.331505,713400
2017-04-20,56.540001,56.860001,56.459999,56.689999,52.768990,585000
2017-04-21,56.590000,56.889999,56.410000,56.599998,52.685211,884500
2017-04-24,57.310001,57.733002,56.990002,57.619999,53.634663,796900
2017-04-25,57.750000,58.619999,57.662998,58.470001,54.425877,1672600
2017-04-26,56.029999,57.000000,54.000000,56.660000,52.741066,3380300
2017-04-27,56.830002,57.110001,56.119999,56.770000,52.843460,1550500
2017-04-28,56.450001,56.849998,55.980000,56.169998,52.284950,1198800
2017-05-01,56.450001,56.470001,55.849998,56.139999,52.257027,705900
2017-05-02,56.590000,56.910000,56.080002,56.610001,52.694527,1030200
2017-05-03,56.520000,57.009998,56.520000,56.820000,52.890003,860200
2017-05-04,56.709999,57.029999,56.491001,56.919998,52.983082,500700
2017-05-05,57.240002,58.889999,57.130001,58.860001,54.788898,1422500
2017-05-08,58.919998,59.080002,58.410000,58.520000,54.472416,789800
2017-05-09,58.709999,59.360001,58.639999,59.189999,55.096077,1118100
2017-05-10,59.060001,59.939999,58.889000,59.910000,55.766277,738700
2017-05-11,59.310001,59.820000,59.169998,59.299999,55.374084,540700
2017-05-12,59.189999,59.349998,58.779999,59.080002,55.168655,516300
2017-05-15,59.430000,59.970001,59.340000,59.599998,55.654221,459700
2017-05-16,59.560001,60.110001,59.540001,59.650002,55.700916,706200
2017-05-17,59.049999,59.470001,58.830002,58.990002,55.084606,761900
2017-05-18,58.959999,59.380001,58.512001,59.130001,55.215336,801400
2017-05-19,59.340000,60.660000,59.130001,60.340000,56.345230,886400
2017-05-22,60.369999,60.610001,59.840000,60.000000,56.027744,491300
2017-05-23,60.270000,60.330002,59.480000,59.630001,55.682236,591700
2017-05-24,59.669998,60.630001,59.580002,60.529999,56.522652,587500
2017-05-25,60.900002,61.020000,60.500000,60.950001,56.914848,524200
2017-05-26,61.000000,61.680000,60.970001,61.419998,57.353741,725900
2017-05-30,61.430000,62.450001,61.430000,62.230000,58.110111,910000
2017-05-31,62.380001,62.380001,61.169998,61.669998,57.587181,664900
2017-06-01,61.459999,61.570000,59.700001,61.279999,57.223000,2311600
2017-06-02,61.459999,61.610001,60.610001,60.869999,56.840141,1177300
2017-06-05,60.599998,60.700001,59.790001,60.230000,56.242512,1151100
2017-06-06,59.990002,60.119999,59.509998,59.990002,56.018398,720800
2017-06-07,59.939999,60.060001,59.320000,59.720001,55.766285,979500
2017-06-08,59.750000,59.750000,58.049999,58.490002,54.617714,1718600
2017-06-09,58.529999,58.980000,56.869999,57.430000,53.627888,1364700
2017-06-12,57.080002,57.400002,56.310001,57.029999,53.254364,1368200
2017-06-13,57.240002,58.000000,57.040001,57.419998,53.618549,1242800
2017-06-14,58.939999,59.580002,58.209999,59.230000,55.308716,2416200
2017-06-15,58.840000,59.820000,58.070000,59.549999,55.607533,1803100
2017-06-16,59.730000,61.250000,59.349998,60.849998,56.821465,1833900
2017-06-19,61.080002,62.580002,61.029999,61.900002,57.801960,2423300
2017-06-20,61.549999,62.189999,61.169998,61.689999,57.605858,1872400
2017-06-21,61.470001,62.294998,61.330002,61.849998,57.755260,1335100
2017-06-22,61.970001,62.180000,61.740002,61.930000,57.829964,877700
2017-06-23,61.580002,62.709999,61.580002,62.150002,58.035404,819600
2017-06-26,62.419998,62.900002,61.910000,62.439999,58.306202,722500
2017-06-27,62.380001,62.380001,61.560001,61.759998,57.671227,807100
2017-06-28,62.259998,62.619999,61.650002,62.490002,58.352898,909300
2017-06-29,62.130001,62.160000,61.139999,61.840000,57.745934,1014100
2017-06-30,62.139999,62.939999,61.900002,62.540001,58.399582,720400
2017-07-03,62.619999,62.830002,62.119999,62.650002,58.502308,1130100
2017-07-05,61.820000,62.450001,61.209999,62.099998,57.988708,1331000
2017-07-06,61.509998,61.699001,60.950001,61.270000,57.213665,1267300
2017-07-07,61.459999,61.660000,61.009998,61.389999,57.325714,1339500
2017-07-10,61.590000,62.169998,61.209999,61.990002,57.885994,484200
2017-07-11,61.669998,62.424999,61.669998,62.090000,57.979378,836100
2017-07-12,60.990002,61.400002,60.540001,61.080002,57.036243,3600700
2017-07-13,61.340000,61.580002,60.740002,61.520000,57.447105,1850500
2017-07-14,61.599998,61.880001,61.240002,61.540001,57.465794,822100
2017-07-17,61.570000,61.570000,60.619999,60.639999,56.625366,931000
2017-07-18,60.630001,60.930000,60.009998,60.900002,56.868160,1034100
2017-07-19,61.080002,61.650002,60.884998,61.540001,57.465794,1019700
2017-07-20,61.590000,61.820000,61.349998,61.540001,57.465794,1051300
2017-07-21,61.259998,61.490002,60.840000,61.400002,57.335052,1158400
2017-07-24,61.139999,61.490002,60.599998,60.730000,56.709408,933600
2017-07-25,60.840000,61.820000,60.669998,61.770000,57.680561,1206600
2017-07-26,61.900002,62.150002,61.380001,61.490002,57.419098,620400
2017-07-27,61.590000,61.759998,60.119999,61.169998,57.120281,1149500
2017-07-28,60.650002,61.040001,60.150002,60.279999,56.289196,976000
2017-07-31,60.480000,60.570000,59.450001,59.580002,55.635551,1172500
2017-08-01,59.529999,59.950001,58.869999,59.250000,55.327396,2015100
2017-08-02,58.070000,60.779999,57.951000,59.689999,55.738258,2722900
2017-08-03,60.400002,61.450001,60.180000,60.689999,56.672058,1548200
2017-08-04,61.240002,62.549999,60.910000,62.110001,57.998055,1677800
2017-08-07,62.290001,62.715000,61.680000,62.160000,58.044735,2167600
2017-08-08,61.930000,62.165001,60.990002,61.189999,57.138958,1216400
2017-08-09,60.619999,61.029999,60.400002,60.700001,56.681396,685900
2017-08-10,60.619999,60.720001,59.680000,59.700001,55.747604,1008300
2017-08-11,59.570000,60.119999,59.419998,59.650002,55.700916,732500
2017-08-14,59.880001,60.590000,59.790001,60.040001,56.065094,654500
2017-08-15,60.029999,60.099998,59.560001,59.779999,55.822308,735400
2017-08-16,60.009998,60.869999,59.790001,60.360001,56.363907,761000
2017-08-17,60.290001,60.500000,59.830002,59.830002,55.868999,720200
2017-08-18,59.959999,61.099998,59.680000,60.570000,56.560005,1679900
2017-08-21,60.709999,60.869999,60.250000,60.660000,56.644047,619200
2017-08-22,61.790001,62.660000,61.470001,62.119999,58.007393,1185300
2017-08-23,61.750000,62.459999,61.540001,61.759998,57.671227,1414100
2017-08-24,61.970001,62.130001,61.490002,61.580002,57.503139,612800
2017-08-25,61.680000,61.689999,60.970001,61.369999,57.307037,683300
2017-08-28,61.470001,61.549999,61.060001,61.340000,57.279026,630700
2017-08-29,61.110001,61.310001,60.419998,60.730000,56.709408,737000
2017-08-30,60.840000,60.950001,60.320000,60.450001,56.447952,648400
2017-08-31,60.830002,61.215000,60.279999,61.029999,56.989548,673700
2017-09-01,61.320000,61.849998,61.049999,61.279999,57.223000,1008400
2017-09-05,60.939999,61.130001,60.040001,60.689999,56.672058,2412600
2017-09-06,60.669998,60.830002,60.180000,60.509998,56.503975,823000
2017-09-07,61.849998,64.349998,61.160000,63.070000,58.894497,2125100
2017-09-08,63.000000,63.875000,62.740002,63.099998,58.922508,1847300
2017-09-11,63.410000,64.970001,62.990002,64.849998,60.556656,1930300
2017-09-12,64.650002,64.669998,63.180000,63.340000,59.146622,1367300
2017-09-13,63.220001,63.639999,63.119999,63.400002,59.202644,737700
2017-09-14,63.200001,63.290001,62.689999,63.169998,59.174541,947000
2017-09-15,63.160000,63.250000,62.200001,63.020000,59.034039,1646500
2017-09-18,63.110001,64.500000,62.980000,64.449997,60.373589,1473600
2017-09-19,64.705002,65.199997,64.361000,64.860001,60.757652,1161000
2017-09-20,64.739998,65.919998,64.730003,65.580002,61.432121,1388400
2017-09-21,65.529999,65.690002,64.949997,65.029999,60.916897,1072200
2017-09-22,64.739998,64.989998,64.019997,64.800003,60.701454,1111600
2017-09-25,64.730003,64.730003,63.770000,63.930000,59.886478,748500
2017-09-26,64.059998,64.239998,63.099998,63.860001,59.820900,671400
2017-09-27,64.000000,64.169998,63.430000,63.869999,59.830265,1088200
2017-09-28,63.320000,64.180000,63.320000,63.880001,59.839645,707900
2017-09-29,64.000000,64.019997,63.459999,63.880001,59.839645,1039400
2017-10-02,63.820000,64.430000,63.779999,64.269997,60.204967,844800
2017-10-03,64.360001,64.930000,63.970001,64.040001,59.989521,1013000
2017-10-04,64.190002,64.339996,63.910000,63.990002,59.942688,714900
2017-10-05,63.900002,64.459999,63.570000,64.349998,60.279907,1019800
2017-10-06,64.389999,65.815002,64.279999,65.489998,61.347797,878600
2017-10-09,65.500000,65.500000,64.739998,64.849998,60.748291,663700
2017-10-10,65.320000,65.570000,64.769997,65.169998,61.048046,1011900
2017-10-11,65.220001,65.949997,65.050003,65.730003,61.572628,1249400
2017-10-12,65.750000,66.540001,65.570000,65.949997,61.778709,852400
2017-10-13,66.029999,66.370003,65.899002,66.269997,62.078472,1004800
2017-10-16,66.839996,68.400002,66.419998,66.910004,62.677998,1767100
2017-10-17,66.769997,67.559998,66.769997,67.230003,62.977749,1407300
2017-10-18,67.230003,67.904999,67.050003,67.510002,63.240044,1051300
2017-10-19,67.440002,67.739998,67.080002,67.599998,63.324345,704500
2017-10-20,67.709999,67.919998,67.300003,67.430000,63.165115,827900
2017-10-23,67.589996,67.650002,66.330002,66.650002,62.434437,1402300
2017-10-24,66.940002,67.400002,66.790001,67.059998,62.818508,799100
2017-10-25,66.750000,67.500000,66.160004,67.389999,63.127640,1292100
2017-10-26,68.769997,68.889999,65.349998,65.379997,61.244762,2392000
2017-10-27,66.029999,66.160004,64.680000,65.150002,61.029316,1993200
2017-10-30,64.959999,65.080002,64.129997,64.599998,60.514091,3084800
2017-10-31,64.529999,65.059998,64.220001,64.589996,60.504726,1847100
2017-11-01,65.070000,65.889999,64.620003,64.660004,60.570313,1117000
2017-11-02,64.680000,65.860001,64.580002,65.510002,61.366539,1285800
2017-11-03,65.589996,66.120003,65.389999,65.660004,61.507057,866200
2017-11-06,65.820000,66.110001,65.550003,65.900002,61.731880,1272200
2017-11-07,65.809998,66.059998,65.040001,65.529999,61.385281,888800
2017-11-08,65.790001,66.040001,65.419998,65.510002,61.366539,1010600
2017-11-09,65.160004,65.360001,64.500000,64.940002,60.832596,2463700
2017-11-10,65.000000,65.160004,64.160004,65.120003,61.001213,1316500
2017-11-13,65.000000,65.309998,64.440002,65.220001,61.094883,1790100
2017-11-14,65.330002,65.330002,64.529999,64.809998,60.710815,1511400
2017-11-15,64.669998,64.769997,63.389999,63.410000,59.399361,1497600
2017-11-16,63.889999,65.480003,63.630001,65.169998,61.048046,3004900
2017-11-17,64.849998,65.305000,64.720001,64.930000,60.823223,1277100
2017-11-20,65.230003,65.910004,64.839996,65.620003,61.469593,938700
2017-11-21,65.599998,66.290001,65.599998,65.870003,61.703770,665900
2017-11-22,65.940002,66.099998,65.449997,65.860001,61.694412,1092300
2017-11-24,65.680000,66.510002,65.680000,66.070000,61.891113,452400
2017-11-27,66.190002,66.190002,65.769997,65.900002,61.731880,1280200
2017-11-28,65.949997,66.529999,65.769997,65.989998,61.816181,916300
2017-11-29,65.949997,66.029999,63.529999,64.459999,60.382950,2383200
2017-11-30,64.629997,64.629997,61.570000,62.689999,58.724903,3937600
2017-12-01,62.910000,63.320000,62.250000,62.919998,58.940365,2633100
2017-12-04,63.490002,63.529999,60.919998,60.950001,57.094959,3074200
2017-12-05,61.160000,61.654999,60.439999,60.790001,56.945076,2980700
2017-12-06,60.869999,61.740002,60.720001,61.169998,57.301041,2105100
2017-12-07,61.119999,61.919998,60.900002,61.080002,57.216736,1169900
2017-12-08,61.490002,61.490002,60.650002,60.709999,56.870140,1088400
2017-12-11,60.810001,60.930000,59.770000,60.450001,56.626583,1355400
2017-12-12,60.689999,61.040001,60.320000,61.000000,57.141800,1282600
2017-12-13,61.130001,62.360001,61.130001,61.540001,57.647644,1268400
2017-12-14,61.450001,62.040001,61.080002,61.119999,57.450253,1203500
2017-12-15,61.150002,61.720001,60.950001,61.000000,57.337456,1703900
2017-12-18,61.209999,61.630001,61.009998,61.060001,57.393848,994600
2017-12-19,61.240002,61.259998,60.369999,60.919998,57.262257,2651300
2017-12-20,61.180000,61.404999,60.349998,61.259998,57.581844,1179400
2017-12-21,61.410000,62.180000,61.240002,62.009998,58.286808,1619500
2017-12-22,61.810001,61.869999,60.959999,61.279999,57.600643,886700
2017-12-26,61.160000,61.345001,60.509998,60.570000,56.933277,654700
2017-12-27,60.900002,61.340000,60.645000,61.130001,57.459652,663200
2017-12-28,61.310001,61.889999,61.040001,61.869999,58.155220,693700
2017-12-29,61.820000,61.869999,61.299999,61.480000,57.788635,1325100
2018-01-02,61.450001,62.500000,61.410000,62.439999,58.690990,1520400
2018-01-03,62.639999,63.730000,62.220001,63.660000,59.837746,2206300
2018-01-04,63.799999,64.779999,63.525002,63.860001,60.025734,1422200
2018-01-05,64.180000,64.180000,63.000000,63.509998,59.696751,1620400
2018-01-08,63.500000,63.500000,62.660000,63.080002,59.292572,1207500
2018-01-09,62.990002,63.250000,62.150002,62.549999,58.794388,1105300
2018-01-10,62.459999,62.459999,60.459999,61.090000,57.422047,2879700
2018-01-11,61.070000,61.220001,59.910000,61.200001,57.525448,1907700
2018-01-12,61.369999,61.419998,60.814999,61.220001,57.544243,2234400
2018-01-16,61.680000,62.410000,61.320000,62.040001,58.315006,2210000
2018-01-17,62.419998,62.889999,62.060001,62.310001,58.568802,1462700
2018-01-18,62.290001,62.500000,61.930000,62.110001,58.380814,662000
2018-01-19,62.270000,62.299999,61.340000,61.580002,57.882633,1449100
2018-01-22,61.470001,61.610001,60.950001,61.220001,57.544243,1613500
2018-01-23,61.119999,61.480000,60.250000,61.320000,57.638237,2189800
2018-01-24,61.669998,62.450001,61.310001,61.630001,57.929626,1346200
2018-01-25,61.720001,62.189999,61.419998,61.950001,58.230419,1228200
2018-01-26,61.849998,62.070000,61.500000,61.650002,57.948429,1052800
2018-01-29,61.400002,61.590000,60.450001,60.480000,56.848679,1475900
2018-01-30,60.380001,60.419998,59.299999,60.200001,56.585491,1564100
2018-01-31,60.450001,60.840000,60.349998,60.389999,56.764076,1234700
2018-02-01,60.279999,60.630001,59.560001,60.189999,56.576084,1323000
2018-02-02,59.400002,59.810001,58.990002,59.040001,55.495136,2035500
2018-02-05,58.520000,58.930000,56.639999,56.830002,53.417831,2328200
2018-02-06,55.880001,58.360001,55.360001,58.119999,54.630383,2526800
2018-02-07,57.880001,59.570000,57.630001,59.230000,55.673729,2009900
2018-02-08,59.070000,59.139999,56.400002,56.430000,53.041851,2697000
2018-02-09,56.840000,57.049999,55.040001,56.509998,53.117035,3501800
2018-02-12,60.209999,61.169998,58.509998,59.950001,56.350502,7867300
2018-02-13,58.619999,59.522999,57.060001,57.779999,54.310795,3274400
2018-02-14,57.529999,58.470001,57.150002,57.709999,54.244995,1870900
2018-02-15,57.990002,58.375000,57.070000,58.290001,54.790161,1950700
2018-02-16,58.290001,59.270000,58.009998,59.020000,55.476341,1578300
2018-02-20,58.619999,61.259998,58.619999,59.230000,55.673729,3685800
2018-02-21,59.520000,59.770000,58.639999,58.660000,55.137955,2257400
2018-02-22,58.939999,59.119999,58.250000,58.439999,54.931164,1143500
2018-02-23,58.720001,59.549999,58.529999,59.459999,55.889915,1687400
2018-02-26,59.680000,59.680000,58.860001,59.020000,55.476341,2416100
2018-02-27,58.759998,59.130001,58.080002,58.860001,55.325947,1875200
2018-02-28,59.160000,59.590000,58.590000,58.590000,55.072155,1801100
2018-03-01,58.650002,59.610001,57.959999,58.410000,54.902962,2072800
2018-03-02,58.090000,58.090000,56.869999,57.500000,54.047607,2088800
2018-03-05,57.060001,58.230000,57.020000,57.930000,54.451786,1550000
2018-03-06,58.040001,58.119999,57.490002,57.799999,54.329590,908800
2018-03-07,57.430000,58.130001,57.020000,57.900002,54.423588,1246800
2018-03-08,58.110001,58.980000,57.880001,58.910000,55.372936,1543700
2018-03-09,59.290001,59.849998,59.139999,59.330002,55.767731,1571700
2018-03-12,59.430000,59.619999,58.930000,59.130001,55.579731,1126000
2018-03-13,59.770000,59.770000,57.200001,57.419998,53.972401,1812100
2018-03-14,57.360001,58.299999,57.279999,58.099998,55.042946,1503100
2018-03-15,58.099998,58.150002,57.279999,57.430000,54.408199,985100
2018-03-16,57.430000,58.750000,57.340000,57.689999,54.654526,1244600
2018-03-19,58.009998,58.430000,57.110001,57.529999,54.502937,939600
2018-03-20,57.560001,59.060001,57.400002,58.389999,55.317688,2212900
2018-03-21,58.549999,58.910000,58.070000,58.070000,55.014523,1078100
2018-03-22,57.820000,58.060001,57.040001,57.070000,54.067142,938600
2018-03-23,57.180000,57.430000,56.490002,56.509998,53.536602,987400
2018-03-26,58.250000,58.410000,56.810001,57.459999,54.436626,1018200
2018-03-27,57.869999,57.950001,56.180000,56.570000,53.593452,971000
2018-03-28,56.450001,56.529999,55.119999,55.610001,52.683960,2571600
2018-03-29,56.119999,57.290001,55.630001,56.919998,53.925034,1172300
2018-04-02,56.730000,57.139999,55.770000,56.459999,53.489235,1494500
2018-04-03,56.599998,57.369999,56.509998,57.150002,54.142937,907200
2018-04-04,56.619999,58.009998,56.330002,57.869999,54.825050,1117100
2018-04-05,58.130001,58.150002,56.275002,56.590000,53.612400,2885200
2018-04-06,56.360001,57.150002,55.770000,55.959999,53.015545,1497400
2018-04-09,56.220001,56.709999,56.020000,56.090000,53.138706,1710200
2018-04-10,56.610001,56.770000,55.970001,56.209999,53.252396,2245300
2018-04-11,56.090000,56.240002,55.799999,55.889999,52.949226,1177700
2018-04-12,55.959999,56.959999,55.943001,56.150002,53.195549,1003800
2018-04-13,56.189999,56.310001,54.959999,55.070000,52.172379,2408300
2018-04-16,55.540001,55.570000,54.539001,54.700001,51.821842,2463800
2018-04-17,55.000000,55.000000,54.119999,54.419998,51.556580,1271800
2018-04-18,54.160000,55.430000,53.570000,55.060001,52.162907,2972100
2018-04-19,54.680000,55.049999,54.220001,54.830002,51.945007,1776800
2018-04-20,54.990002,54.990002,54.439999,54.660000,51.783951,1617600
2018-04-23,53.970001,53.970001,53.090000,53.500000,50.684986,3358800
2018-04-24,57.020000,57.660000,55.200001,56.299999,53.337662,6648600
2018-04-25,56.110001,56.180000,54.630001,54.900002,52.011326,3238400
2018-04-26,54.000000,55.150002,53.869999,54.470001,51.603954,3609100
2018-04-27,54.480000,54.500000,53.700001,54.169998,51.319729,1380100
2018-04-30,54.389999,54.779999,54.060001,54.419998,51.556580,1605000
2018-05-01,54.209999,54.439999,53.700001,54.029999,51.187096,1348500
2018-05-02,53.840000,54.400002,53.549999,53.849998,51.016575,2046400
2018-05-03,53.779999,54.439999,53.610001,54.389999,51.528152,1860800
2018-05-04,54.349998,54.840000,53.880001,54.490002,51.622898,1806100
2018-05-07,54.700001,54.830002,54.205002,54.520000,51.651318,1546900
2018-05-08,54.419998,55.509998,54.240002,55.480000,52.560802,1374400
2018-05-09,55.580002,55.759998,55.200001,55.700001,52.769226,1200500
2018-05-10,56.000000,56.790001,55.799999,56.630001,53.650303,1662400
2018-05-11,56.650002,57.118000,56.189999,56.910000,53.915565,2109300
2018-05-14,56.799999,57.490002,56.740002,57.060001,54.488525,2579300
2018-05-15,56.869999,56.910000,56.025002,56.310001,53.772327,1841500
2018-05-16,56.669998,56.820000,55.880001,56.189999,53.657730,1461100
2018-05-17,56.240002,56.240002,55.849998,56.000000,53.476295,1025400
2018-05-18,56.029999,56.119999,55.500000,55.799999,53.285309,1322400
2018-05-21,55.980000,56.895000,55.889999,56.770000,54.211594,1028900
2018-05-22,56.709999,57.009998,56.450001,56.950001,54.383480,2060800
2018-05-23,56.830002,57.619999,56.830002,57.299999,54.717705,2185400
2018-05-24,57.259998,58.110001,57.070000,57.950001,55.338413,1421000
2018-05-25,57.720001,58.630001,57.639999,58.360001,55.729939,1246200
2018-05-29,57.540001,57.849998,57.060001,57.349998,54.765453,1297200
2018-05-30,58.349998,59.730000,57.770000,59.560001,56.875858,2959500
2018-05-31,59.360001,59.360001,58.369999,59.020000,56.360191,1746000
2018-06-01,59.250000,59.580002,58.849998,59.189999,56.522530,1484100
2018-06-04,59.480000,60.020000,59.310001,59.959999,57.257832,1163200
2018-06-05,59.849998,60.220001,59.330002,59.820000,57.124138,1772400
2018-06-06,60.180000,61.340000,60.040001,61.130001,58.375103,2112600
2018-06-07,60.980000,61.459999,60.590000,60.700001,57.964481,1562600
2018-06-08,60.520000,60.619999,59.119999,59.150002,56.484333,1698800
2018-06-11,59.380001,59.660000,59.014999,59.130001,56.465237,1787100
2018-06-12,59.349998,60.490002,59.230000,60.410000,57.687553,1424200
2018-06-13,60.389999,60.810001,59.950001,60.180000,57.467918,1604900
2018-06-14,60.279999,60.299999,59.840000,60.160000,57.448818,1011700
2018-06-15,59.939999,60.490002,59.470001,59.730000,57.038200,1100500
2018-06-18,59.480000,60.980000,59.430000,60.970001,58.222313,1957300
2018-06-19,60.549999,61.070000,60.430000,60.799999,58.059971,1730900
2018-06-20,61.209999,61.299999,60.610001,60.810001,58.069527,1958500
2018-06-21,61.070000,61.439999,59.919998,60.020000,57.315125,1595600
2018-06-22,60.430000,60.830002,59.900002,60.750000,58.012230,2254700
2018-06-25,60.410000,60.619999,59.279999,60.000000,57.296024,1965200
2018-06-26,60.009998,60.169998,59.650002,59.730000,57.038200,1315400
2018-06-27,59.860001,59.860001,58.369999,58.480000,55.844528,1236100
2018-06-28,58.290001,59.570000,57.590000,59.430000,56.751717,1392400
2018-06-29,59.610001,60.340000,59.570000,60.299999,57.582504,1357900
2018-07-02,59.830002,60.630001,59.529999,60.189999,57.477467,1984100
2018-07-03,60.450001,60.891998,59.980000,60.189999,57.477467,561000
2018-07-05,60.340000,60.610001,59.840000,60.560001,57.830799,1433100
2018-07-06,60.700001,61.299999,60.599998,60.889999,58.145920,1335600
2018-07-09,61.220001,61.410000,60.900002,61.049999,58.298702,1051800
2018-07-10,61.240002,61.889999,60.950001,61.830002,59.043552,1153600
2018-07-11,61.740002,63.480000,61.740002,63.090000,60.246777,2265200
2018-07-12,63.270000,64.389999,63.169998,64.070000,61.182602,1619600
2018-07-13,63.930000,64.269997,63.310001,63.480000,60.619198,1343600
2018-07-16,63.450001,63.619999,62.939999,63.220001,60.370914,749900
2018-07-17,64.529999,64.540001,63.310001,63.990002,61.106216,1438800
2018-07-18,64.059998,64.239998,63.439999,63.779999,60.905674,841500
2018-07-19,63.520000,64.059998,63.150002,64.040001,61.153965,707200
2018-07-20,64.129997,65.169998,64.004997,65.099998,62.166191,1687000
2018-07-23,64.820000,65.139999,64.379997,64.790001,61.870163,1461300
2018-07-24,65.000000,65.110001,64.169998,64.510002,61.602776,1715100
2018-07-25,64.470001,64.750000,63.990002,64.430000,61.526386,1324600
2018-07-26,64.250000,64.489998,63.639999,63.759998,60.886578,965400
2018-07-27,63.959999,64.410004,63.439999,63.849998,60.972519,794400
2018-07-30,64.040001,64.110001,62.740002,62.869999,60.036686,1849100
2018-07-31,62.740002,63.389999,62.264999,63.130001,60.284973,2614500
2018-08-01,62.020000,64.529999,61.709999,63.910000,61.029823,4046100
2018-08-02,63.759998,64.029999,62.900002,63.639999,60.771988,2241500
2018-08-03,63.740002,63.990002,63.270000,63.450001,60.590549,805200
2018-08-06,63.349998,63.740002,62.619999,62.980000,60.141727,865200
2018-08-07,63.439999,63.439999,62.400002,62.500000,59.683361,1883100
2018-08-08,62.410000,62.540001,61.910000,62.380001,59.568771,1553800
2018-08-09,62.520000,63.389999,62.294998,62.639999,59.817055,1836700
2018-08-10,62.200001,62.369999,61.939999,62.080002,59.282288,1769100
2018-08-13,62.160000,62.419998,61.750000,61.849998,59.062653,1004500
2018-08-14,62.139999,62.340000,61.689999,62.209999,59.406429,1559700
2018-08-15,62.000000,62.470001,61.570000,62.330002,59.521023,1544500
2018-08-16,62.480000,62.959999,62.415001,62.759998,59.931641,1033900
2018-08-17,62.849998,62.915001,60.730000,61.549999,58.776173,2308400
2018-08-20,61.750000,61.820000,61.029999,61.080002,58.327358,1184700
2018-08-21,61.029999,61.130001,59.990002,60.310001,57.592060,1522400
2018-08-22,60.279999,60.570000,59.599998,59.759998,57.066841,1676000
2018-08-23,59.529999,59.549999,58.299999,58.549999,55.911377,3444300
2018-08-24,58.750000,59.230000,58.730000,58.990002,56.331543,1550400
2018-08-27,59.000000,59.230000,58.790001,59.000000,56.341091,1233700
2018-08-28,59.230000,59.400002,58.490002,58.720001,56.073711,852100
2018-08-29,58.660000,58.820000,58.000000,58.040001,55.424355,1217400
2018-08-30,58.000000,58.000000,57.091000,57.430000,54.841850,1445400
2018-08-31,57.160000,58.130001,57.049999,57.400002,54.813202,1709000
2018-09-04,57.340000,57.525002,56.360001,56.849998,54.287987,2059500
2018-09-05,56.860001,56.939999,55.959999,55.980000,53.457195,1683500
2018-09-06,55.560001,57.060001,55.480000,56.820000,54.699039,2351000
2018-09-07,56.680000,56.799999,56.160000,56.509998,54.400608,1210000
2018-09-10,56.599998,57.080002,56.250000,56.840000,54.718292,2241500
2018-09-11,56.840000,58.250000,56.700001,58.130001,55.960140,2016900
2018-09-12,57.939999,59.000000,57.650002,58.779999,56.585880,1958700
2018-09-13,59.090000,59.320000,58.419998,58.590000,56.402973,1519900
2018-09-14,58.610001,58.650002,57.490002,58.290001,56.114166,1486500
2018-09-17,58.450001,58.599998,57.959999,57.990002,55.825367,1942500
2018-09-18,57.939999,59.330002,57.939999,59.250000,57.038326,1660800
2018-09-19,59.720001,59.830002,59.020000,59.419998,57.201988,1130000
2018-09-20,59.709999,60.889999,59.709999,60.549999,58.289810,1376600
2018-09-21,60.720001,61.360001,58.740002,59.000000,56.797668,2388100
2018-09-24,58.900002,59.369999,58.770000,58.980000,56.778416,923300
2018-09-25,59.049999,59.610001,58.860001,59.189999,56.980572,527800
2018-09-26,59.279999,59.630001,59.099998,59.200001,56.990204,825300
2018-09-27,59.029999,59.430000,58.410000,59.119999,56.913185,1589000
2018-09-28,58.990002,59.340000,58.810001,59.279999,57.067215,1480900
2018-10-01,59.560001,59.720001,58.380001,58.840000,56.643639,788200
2018-10-02,58.700001,58.830002,58.299999,58.509998,56.325951,1092100
2018-10-03,58.630001,58.700001,57.709999,57.860001,55.700226,1411200
2018-10-04,57.619999,57.799999,57.220001,57.570000,55.421043,1373600
2018-10-05,57.520000,59.020000,57.450001,58.939999,56.739906,1833900
2018-10-08,58.639999,58.830002,56.330002,57.930000,55.767605,2180100
2018-10-09,58.040001,59.450001,57.889999,59.049999,56.845798,966100
2018-10-10,59.049999,59.049999,56.540001,56.570000,54.458370,1402300
2018-10-11,56.200001,57.060001,56.060001,56.250000,54.150318,2041200
2018-10-12,57.080002,57.779999,56.509998,57.740002,55.584702,1800600
2018-10-15,57.660000,57.869999,57.439999,57.599998,55.449921,1518500
2018-10-16,57.759998,58.029999,57.529999,57.980000,55.815739,1197000
2018-10-17,57.939999,57.974998,57.049999,57.090000,54.958965,1706000
2018-10-18,57.049999,57.520000,56.869999,57.160000,55.026344,1171500
2018-10-19,57.259998,57.910000,57.099998,57.389999,55.247761,1528500
2018-10-22,57.270000,57.400002,56.220001,56.650002,54.535389,1600000
2018-10-23,55.980000,57.220001,55.490002,56.810001,54.689419,2139900
2018-10-24,55.360001,58.160000,55.360001,56.220001,54.121437,3330100
2018-10-25,56.689999,56.759998,55.410000,56.330002,54.227337,2544600
2018-10-26,55.880001,55.980000,54.189999,55.410000,53.341675,3350000
2018-10-29,55.860001,56.049999,52.840000,53.259998,51.271923,2939800
2018-10-30,53.230000,53.369999,52.599998,53.060001,51.079391,1659500
2018-10-31,53.520000,54.869999,53.340000,54.770000,52.725563,2140800
2018-11-01,54.950001,55.500000,54.279999,55.490002,53.418686,1485600
2018-11-02,55.680000,55.770000,54.639999,54.810001,52.764069,2079300
2018-11-05,54.830002,55.610001,54.730000,55.419998,53.351299,1546700
2018-11-06,55.610001,56.400002,55.349998,56.369999,54.265835,1402800
2018-11-07,56.500000,56.930000,55.779999,56.869999,54.747173,1193600
2018-11-08,56.599998,57.150002,56.320000,56.480000,54.371731,710900
2018-11-09,56.320000,56.965000,56.090000,56.810001,54.689419,1369800
2018-11-12,56.549999,56.785000,55.705002,55.959999,53.871140,780200
2018-11-13,56.049999,56.290001,55.400002,55.669998,53.591965,1056300
2018-11-14,56.000000,56.000000,54.994999,55.389999,53.322414,805100
2018-11-15,55.150002,55.195000,54.080002,54.480000,52.446388,2044600
2018-11-16,54.119999,55.529999,54.119999,55.470001,53.399433,2288900
2018-11-19,55.259998,55.759998,53.709999,53.790001,51.782146,1441300
2018-11-20,53.040001,53.220001,52.060001,52.610001,50.646187,1685600
2018-11-21,52.919998,55.349998,52.919998,55.029999,52.975849,1516900
2018-11-23,54.639999,55.450001,54.020000,55.330002,53.264664,559900
2018-11-26,55.869999,56.639999,55.720001,56.540001,54.429489,1525500
2018-11-27,56.500000,56.830002,55.959999,56.150002,54.054050,971800
2018-11-28,56.240002,58.244999,56.209999,58.200001,56.027531,1715000
2018-11-29,58.029999,58.900002,57.880001,58.779999,56.585880,1536600
2018-11-30,58.639999,58.919998,58.209999,58.330002,56.152676,1352800
2018-12-03,59.330002,59.330002,56.889999,57.389999,55.247761,1804800
2018-12-04,57.240002,57.770000,56.200001,56.320000,54.217705,2049000
2018-12-06,56.139999,57.230000,54.889999,57.130001,54.997471,889600
2018-12-07,56.889999,57.450001,54.630001,54.669998,52.629292,1536100
2018-12-10,54.549999,54.820000,53.610001,53.799999,51.791771,1753400
2018-12-11,54.439999,54.950001,52.599998,52.980000,51.002377,1678200
2018-12-12,53.630001,54.500000,53.380001,53.980000,51.965050,1135200
2018-12-13,54.070000,54.939999,53.810001,54.549999,52.513771,1504100
2018-12-14,53.919998,54.070000,52.919998,53.279999,51.717815,1175800
2018-12-17,52.939999,53.180000,52.080002,52.360001,50.824787,1514100
2018-12-18,52.500000,53.150002,52.369999,52.630001,51.086876,1874700
2018-12-19,52.880001,53.880001,52.810001,52.939999,51.387783,1565800
2018-12-20,52.529999,53.042999,51.080002,51.889999,50.368568,1778200
2018-12-21,52.080002,53.174999,51.509998,51.680000,50.164730,2048100
2018-12-24,51.470001,51.720001,50.279999,50.610001,49.126102,1696500
2018-12-26,50.680000,52.380001,50.200001,52.330002,50.795670,986300
2018-12-27,51.630001,52.480000,50.860001,52.459999,50.921860,1386300
2018-12-28,52.720001,52.959999,51.810001,52.009998,50.485050,1010000
2018-12-31,52.160000,52.779999,51.680000,52.299999,50.766548,1232600
2019-01-02,51.610001,52.060001,50.779999,51.419998,49.912350,1939100
2019-01-03,51.139999,52.389999,51.139999,52.130001,50.601532,2245900
2019-01-04,52.770000,54.270000,52.709999,54.139999,52.552601,1722400
2019-01-07,54.000000,55.700001,53.730000,55.610001,53.979500,1824600
2019-01-08,55.799999,56.099998,54.419998,54.540001,52.940876,1231200
2019-01-09,55.160000,55.349998,54.209999,54.770000,53.164131,1400500
2019-01-10,54.490002,55.740002,54.349998,55.400002,53.775654,1345600
2019-01-11,54.950001,56.700001,54.880001,56.529999,54.872524,2124800
2019-01-14,56.139999,56.139999,55.310001,55.840000,54.202759,804100
2019-01-15,55.880001,56.380001,55.880001,56.119999,54.474545,767600
2019-01-16,56.070000,56.619999,56.070000,56.509998,54.853111,799400
2019-01-17,56.240002,57.330002,56.240002,57.250000,55.571415,1092300
2019-01-18,57.540001,58.270000,56.919998,57.459999,55.775261,1977700
2019-01-22,57.180000,57.230000,56.619999,57.029999,55.357864,1248600
2019-01-23,60.330002,62.650002,60.119999,62.610001,60.774254,9164200
2019-01-24,63.230000,64.110001,62.639999,63.650002,61.783768,3608700
2019-01-25,64.139999,64.169998,62.805000,63.090000,61.240185,1666000
2019-01-28,62.599998,63.029999,62.075001,63.020000,61.172237,1808700
2019-01-29,63.000000,63.000000,62.480000,62.820000,60.978100,2166200
2019-01-30,63.189999,63.669998,61.779999,62.419998,60.589828,2907300
2019-01-31,62.430000,62.830002,61.990002,62.650002,60.813087,1769000
2019-02-01,62.820000,62.990002,62.320000,62.610001,60.774254,1293800
2019-02-04,62.709999,63.230000,62.369999,62.700001,60.861622,1393000
2019-02-05,63.080002,63.080002,62.080002,62.110001,60.288921,1866400
2019-02-06,62.209999,63.029999,62.009998,62.590000,60.754845,1791900
2019-02-07,62.099998,62.630001,62.029999,62.310001,60.483059,1726600
2019-02-08,62.369999,62.759998,61.709999,62.700001,60.861622,1999200
2019-02-11,64.470001,65.589996,63.049999,63.720001,61.851711,4494000
2019-02-12,63.939999,64.320000,63.310001,64.260002,62.375881,2658000
2019-02-13,64.260002,64.800003,63.860001,64.459999,62.570011,2144000
2019-02-14,64.110001,64.275002,63.580002,63.830002,61.958488,1375500
2019-02-15,64.129997,65.000000,64.010002,64.690002,62.793274,1437900
2019-02-19,64.559998,65.019997,64.169998,64.940002,63.035946,1206000
2019-02-20,65.180000,65.260002,64.290001,64.669998,62.773853,1303800
2019-02-21,64.459999,65.290001,64.250000,64.750000,62.851513,1198400
2019-02-22,64.330002,64.510002,62.590000,63.459999,61.599331,2137500
2019-02-25,63.900002,63.900002,62.480000,62.490002,60.657776,2342300
2019-02-26,62.490002,63.070000,62.195000,62.560001,60.725723,1440300
2019-02-27,62.560001,62.869999,62.450001,62.529999,60.696606,1173300
2019-02-28,62.500000,63.540001,62.299999,63.209999,61.356667,1353200
2019-03-01,63.669998,63.799999,62.740002,63.080002,61.230480,1432400
2019-03-04,63.230000,63.500000,62.049999,62.439999,60.609241,2368400
2019-03-05,62.549999,62.709999,62.139999,62.380001,60.550999,1120900
2019-03-06,62.470001,62.730000,61.790001,61.810001,59.997711,809400
2019-03-07,61.599998,61.660000,60.700001,61.270000,59.473545,2495600
2019-03-08,61.060001,62.950001,61.020000,62.869999,61.026634,1847200
2019-03-11,62.840000,63.430000,62.349998,62.400002,60.570412,1472100
2019-03-12,62.299999,63.099998,62.040001,62.580002,60.745136,1509500
2019-03-13,62.840000,63.680000,62.834999,63.040001,61.191650,2269300
2019-03-14,62.570000,62.950001,62.180000,62.700001,61.348202,729300
2019-03-15,62.840000,63.610001,62.719002,63.119999,61.759144,624200
2019-03-18,63.040001,63.520000,62.889999,63.389999,62.023319,2072200
2019-03-19,63.810001,64.000000,63.459999,63.709999,62.336418,1824800
2019-03-20,63.130001,63.419998,62.779999,62.900002,61.543888,878000
2019-03-21,62.889999,63.619999,62.639999,63.470001,62.101601,1512900
2019-03-22,63.349998,63.759998,63.080002,63.439999,62.072243,1034900
2019-03-25,63.439999,63.810001,62.770000,63.779999,62.404915,1086000
2019-03-26,63.860001,64.360001,63.779999,64.290001,62.903923,942900
2019-03-27,64.239998,65.309998,64.220001,64.940002,63.539909,1259600
2019-03-28,65.160004,66.000000,65.050003,65.599998,64.185677,1952500
2019-03-29,66.000000,66.050003,65.050003,65.110001,63.706238,2162100
2019-04-01,65.320000,65.730003,64.970001,65.650002,64.234604,2706600
2019-04-02,65.550003,65.589996,64.910004,65.440002,64.029129,1944600
2019-04-03,65.620003,66.120003,65.379997,65.860001,64.440063,1553100
2019-04-04,65.889999,66.500000,65.820000,65.900002,64.479210,851200
2019-04-05,66.430000,66.500000,65.589996,65.879997,64.459633,1171500
2019-04-08,65.779999,66.080002,65.220001,65.910004,64.488998,1140000
2019-04-09,65.629997,65.750000,65.000000,65.250000,63.843227,1083700
2019-04-10,65.279999,65.820000,65.054001,65.650002,64.234604,1078300
2019-04-11,65.750000,66.150002,65.610001,66.110001,64.684685,1544400
2019-04-12,66.459999,66.680000,65.870003,66.580002,65.144547,1092400
2019-04-15,66.610001,66.760002,65.709999,66.449997,65.017349,1260000
2019-04-16,66.720001,66.910004,66.220001,66.360001,64.929291,876700
2019-04-17,66.559998,66.809998,66.150002,66.480003,65.046715,845500
2019-04-18,66.470001,67.930000,66.400002,67.760002,66.299110,1106800
2019-04-22,67.790001,67.889999,65.199997,65.919998,64.498772,4416800
2019-04-23,66.019997,66.849998,65.720001,65.870003,64.449860,2043000
2019-04-24,65.589996,66.160004,65.320000,65.629997,64.215034,1416400
2019-04-25,65.430000,65.860001,64.980003,65.660004,64.244385,1216600
2019-04-26,65.680000,66.580002,65.379997,66.459999,65.027138,1807900
2019-04-29,64.410004,65.989998,63.700001,65.500000,64.087830,6837900
2019-04-30,65.599998,66.080002,64.580002,65.239998,63.833435,2316700
2019-05-01,65.129997,65.769997,64.629997,65.230003,63.823658,1202100
2019-05-02,65.410004,66.059998,64.779999,65.660004,64.244385,1384500
2019-05-03,66.050003,67.529999,66.000000,66.769997,65.330444,3703700
2019-05-06,66.309998,67.610001,66.099998,67.139999,65.692474,1970200
2019-05-07,66.639999,67.430000,66.580002,67.320000,65.868591,1166400
2019-05-08,67.080002,67.089996,66.120003,66.529999,65.095619,1312500
2019-05-09,66.029999,67.250000,65.970001,67.010002,65.565277,1905400
2019-05-10,66.849998,67.430000,66.580002,67.269997,65.819672,1251100
2019-05-13,66.239998,66.239998,65.383003,65.830002,64.410713,1833400
2019-05-14,66.110001,66.669998,65.860001,66.370003,64.939072,1658500
2019-05-15,66.839996,68.000000,66.290001,66.760002,65.320671,2496600
2019-05-16,67.169998,68.650002,66.860001,67.790001,66.328461,2250000
2019-05-17,67.290001,68.629997,67.290001,67.470001,66.015358,2868400
2019-05-20,67.379997,67.839996,66.419998,67.489998,66.034927,829400
2019-05-21,67.930000,68.930000,67.400002,68.739998,67.257980,1404900
2019-05-22,68.739998,69.220001,68.570000,68.730003,67.248199,1185900
2019-05-23,68.889999,69.260002,68.129997,68.559998,67.081856,4322700
2019-05-24,68.889999,69.099998,68.339996,68.430000,66.954659,1189200
2019-05-28,68.760002,69.250000,68.160004,68.169998,66.700264,1055600
2019-05-29,67.699997,67.806999,65.684998,65.940002,64.518349,2870000
2019-05-30,65.940002,65.940002,62.880001,65.129997,63.725807,3870900
2019-05-31,64.910004,65.870003,64.589996,65.800003,64.381371,1557700
2019-06-03,65.699997,65.820000,64.860001,65.150002,63.745380,1281800
2019-06-04,65.489998,65.699997,64.625000,64.900002,63.500771,2951600
2019-06-05,65.230003,66.139999,64.900002,66.120003,64.694473,1506900
2019-06-06,66.089996,66.389999,65.334999,65.650002,64.234604,4345100
2019-06-07,66.139999,67.080002,65.980003,67.010002,65.565277,1356900
2019-06-10,67.010002,67.440002,66.650002,66.820000,65.379379,1416800
2019-06-11,67.029999,67.459999,66.169998,66.959999,65.516350,846100
2019-06-12,67.250000,68.320000,67.050003,68.150002,66.680695,1307700
2019-06-13,68.489998,68.620003,67.855003,68.300003,66.827469,4213600
2019-06-14,67.930000,68.379997,67.760002,67.830002,66.857033,877800
2019-06-17,68.010002,68.074997,67.540001,67.879997,66.906311,716700
2019-06-18,68.010002,68.639999,68.000000,68.370003,67.389290,1109800
2019-06-19,68.599998,69.480003,68.370003,69.430000,68.434082,1072700
2019-06-20,69.480003,70.290001,69.220001,69.580002,68.581940,1501700
2019-06-21,69.610001,70.300003,69.199997,69.989998,68.986053,1267200
2019-06-24,70.099998,70.370003,69.739998,70.290001,69.281754,1879100
2019-06-25,70.459999,70.500000,69.349998,69.599998,68.601646,1579800
2019-06-26,69.440002,69.589996,68.029999,68.040001,67.064026,2036200
2019-06-27,68.050003,69.239998,68.050003,69.019997,68.029961,871800
2019-06-28,69.160004,69.599998,68.970001,69.540001,68.542511,849000
2019-07-01,69.940002,70.089996,68.800003,69.199997,68.207382,1173300
2019-07-02,69.949997,69.949997,68.625000,69.540001,68.542511,1394500
2019-07-03,69.349998,70.570000,69.349998,70.540001,69.528160,949600
2019-07-05,70.610001,71.000000,69.889999,70.260002,69.252182,1338000
2019-07-08,70.040001,70.089996,69.614998,69.900002,68.897346,1017500
2019-07-09,69.870003,70.514999,69.252998,70.449997,69.439445,1002900
2019-07-10,70.699997,71.339996,70.510002,71.139999,70.119560,1345000
2019-07-11,71.370003,71.959999,70.629997,71.419998,70.395538,1349500
2019-07-12,71.839996,73.044998,71.660004,72.620003,71.578331,1452100
2019-07-15,72.900002,73.080002,72.040001,72.190002,71.154495,1305900
2019-07-16,72.040001,72.370003,71.540001,72.000000,70.967216,1307000
2019-07-17,72.400002,73.349998,72.309998,72.720001,71.676895,1611800
2019-07-18,72.769997,73.139999,72.349998,73.099998,72.051445,1219000
2019-07-19,73.120003,73.286003,72.820000,73.019997,71.972588,1083400
2019-07-22,73.120003,73.599998,72.760002,73.120003,72.071152,924200
2019-07-23,73.410004,74.099998,73.080002,74.040001,72.977959,1018400
2019-07-24,73.949997,74.559998,73.889999,74.400002,73.332794,1460800
2019-07-25,74.879997,74.900002,73.870003,74.120003,73.056816,1083700
2019-07-26,74.760002,75.639999,74.570000,75.230003,74.150894,1795000
2019-07-29,74.570000,75.050003,74.139999,74.879997,73.805908,1703700
2019-07-30,74.680000,74.769997,73.203003,73.470001,72.416138,1672600
2019-07-31,73.480003,74.144997,73.025002,73.699997,72.642830,1859100
2019-08-01,73.809998,74.290001,72.510002,72.779999,71.736023,2860100
2019-08-02,73.769997,77.800003,73.570000,77.220001,76.112343,5623700
2019-08-05,77.199997,77.199997,75.629997,76.230003,75.136543,2315800
2019-08-06,76.550003,77.015999,75.250000,75.430000,74.348022,1845500
2019-08-07,75.080002,78.260002,74.985001,78.010002,76.891014,2152700
2019-08-08,78.050003,78.050003,75.849998,76.570000,75.471672,3286400
2019-08-09,73.500000,75.014999,72.599998,74.309998,73.244080,11593400
2019-08-12,74.459999,75.099998,73.970001,74.629997,73.559494,2553500
2019-08-13,74.949997,75.550003,74.400002,74.959999,73.884758,1606900
2019-08-14,74.339996,74.879997,73.760002,73.870003,72.810402,1549400
2019-08-15,73.910004,74.849998,73.449997,73.580002,72.524551,1555700
2019-08-16,74.050003,74.610001,73.230003,74.519997,73.451073,2003400
2019-08-19,75.000000,75.389999,74.330002,74.900002,73.825623,1908800
2019-08-20,74.879997,76.000000,74.550003,75.459999,74.377586,1294300
2019-08-21,75.970001,76.250000,74.989998,75.230003,74.150894,1767100
2019-08-22,75.370003,76.339996,75.370003,75.440002,74.357880,1990800
2019-08-23,75.400002,76.570000,74.370003,75.400002,74.318451,3020300
2019-08-26,76.110001,77.110001,75.946999,76.970001,75.865936,2664700
2019-08-27,77.680000,78.250000,77.050003,77.209999,76.102486,2290300
2019-08-28,77.199997,77.769997,76.860001,77.550003,76.437614,1379400
2019-08-29,77.989998,78.769997,77.844002,78.480003,77.354271,1836900
2019-08-30,79.309998,79.459999,78.059998,78.449997,77.324699,1662000
2019-09-03,78.639999,79.360001,76.570000,76.589996,75.491379,5450300
2019-09-04,75.470001,75.555000,74.370003,74.970001,73.894623,9346200
2019-09-05,75.269997,75.410004,73.760002,75.040001,73.963615,4228200
2019-09-06,75.449997,75.889999,75.040001,75.550003,74.466301,6442300
2019-09-09,76.190002,76.190002,74.785004,74.879997,73.805908,4947700
2019-09-10,74.320000,74.489998,71.779999,71.800003,70.770088,3717200
2019-09-11,71.800003,72.930000,71.419998,72.160004,71.124931,1823300
2019-09-12,72.260002,73.570000,72.260002,73.320000,72.268288,2253500
2019-09-13,73.480003,73.730003,72.540001,72.610001,71.568474,1234600
2019-09-16,72.080002,72.379997,71.360001,71.480003,70.943207,2255900
2019-09-17,72.180000,73.959999,72.180000,73.949997,73.394653,2355100
2019-09-18,74.169998,74.190002,72.489998,73.330002,72.779312,1559500
2019-09-19,73.360001,74.209999,72.970001,73.900002,73.345032,1456200
2019-09-20,74.000000,74.610001,72.440002,72.589996,72.044861,1798800
2019-09-23,72.540001,73.360001,72.519997,72.559998,72.015091,1329600
2019-09-24,72.860001,73.324997,72.300003,72.440002,71.895996,2117800
2019-09-25,72.470001,72.830002,71.419998,71.620003,71.082153,1800500
2019-09-26,71.459999,72.160004,70.885002,71.099998,70.566055,2046400
2019-09-27,71.389999,71.980003,69.580002,69.919998,69.394913,2181100
2019-09-30,70.510002,71.250000,70.169998,71.139999,70.605751,1904700
2019-10-01,71.320000,71.750000,70.480003,70.839996,70.308006,1776300
2019-10-02,70.860001,70.860001,69.769997,70.669998,70.139282,2298200
2019-10-03,70.599998,71.680000,70.525002,71.440002,70.903503,1878200
2019-10-04,71.500000,71.900002,71.010002,71.610001,71.072227,1330100
2019-10-07,71.430000,71.940002,70.699997,70.709999,70.178986,991800
2019-10-08,70.309998,70.930000,69.970001,70.209999,69.682739,1321800
2019-10-09,70.239998,71.459999,70.239998,71.180000,70.645454,909700
2019-10-10,71.040001,71.930000,70.910004,71.199997,70.665298,1154100
2019-10-11,71.660004,72.199997,70.980003,71.019997,70.486656,1261000
2019-10-14,70.919998,71.059998,70.089996,70.139999,69.613266,1068800
2019-10-15,70.250000,70.650002,69.260002,69.370003,68.849052,1543200
2019-10-16,69.330002,69.720001,68.830002,69.699997,69.176567,1473400
2019-10-17,69.849998,69.860001,69.019997,69.410004,68.888748,1180200
2019-10-18,69.500000,69.809998,69.010002,69.120003,68.600929,1070800
2019-10-21,69.419998,69.500000,68.809998,69.349998,68.829193,1089800
2019-10-22,68.930000,69.239998,67.370003,67.510002,67.003021,2103100
2019-10-23,67.559998,67.959999,66.820000,67.900002,67.390091,1609100
2019-10-24,68.209999,69.370003,68.059998,68.949997,68.432198,2115000
2019-10-25,69.099998,69.860001,67.860001,68.449997,67.935951,3047200
2019-10-28,66.930000,68.239998,65.559998,65.860001,65.365410,5093100
2019-10-29,65.930000,65.953003,64.459999,64.860001,64.372917,3694800
2019-10-30,64.900002,65.589996,64.029999,65.500000,65.008110,2318900
2019-10-31,66.070000,66.478996,65.120003,65.440002,64.948563,1774300
2019-11-01,65.690002,66.040001,64.790001,65.209999,64.720284,1578500
2019-11-04,65.120003,65.519997,64.830002,64.849998,64.362991,2235200
2019-11-05,64.839996,65.669998,64.070000,65.639999,65.147057,2294700
2019-11-06,65.860001,66.370003,65.400002,65.820000,65.325706,1704900
2019-11-07,65.889999,66.349998,65.629997,66.279999,65.782249,1313800
2019-11-08,66.360001,66.989998,66.150002,66.540001,66.040298,1158200
2019-11-11,66.500000,67.739998,66.430000,67.500000,66.993088,2086800
2019-11-12,67.739998,68.370003,66.730003,67.160004,66.655647,1289700
2019-11-13,67.190002,68.139999,67.190002,67.779999,67.270988,1506500
2019-11-14,67.800003,68.400002,66.769997,67.290001,66.784668,1398700
2019-11-15,67.669998,67.669998,66.019997,66.480003,65.980751,2522500
2019-11-18,66.529999,67.040001,66.019997,66.059998,65.563904,2500500
2019-11-19,66.010002,66.330002,65.760002,65.800003,65.305862,1583700
2019-11-20,65.800003,66.160004,65.150002,66.000000,65.504356,2795600
2019-11-21,66.239998,66.279999,65.290001,65.459999,64.968407,1996400
2019-11-22,65.559998,65.559998,64.769997,64.790001,64.303444,2086700
2019-11-25,64.790001,65.709999,64.790001,65.120003,64.630966,2087300
2019-11-26,65.220001,65.430000,64.790001,65.160004,64.670670,3041300
2019-11-27,65.250000,66.400002,65.099998,66.279999,65.782249,1425800
2019-11-29,65.879997,66.010002,65.559998,65.629997,65.137131,467800
2019-12-02,65.610001,65.889999,65.309998,65.550003,65.057739,1286100
2019-12-03,65.410004,65.900002,65.099998,65.349998,64.859238,1230100
2019-12-04,65.589996,65.930000,64.879997,65.570000,65.077583,1642500
2019-12-05,65.629997,66.480003,65.059998,66.309998,65.812027,1572500
2019-12-06,66.400002,66.410004,65.720001,65.860001,65.365410,1691200
2019-12-09,65.930000,66.559998,65.730003,65.980003,65.484512,4402500
2019-12-10,66.250000,67.269997,66.250000,67.160004,66.655647,5100200
2019-12-11,67.300003,67.300003,66.290001,66.290001,65.792175,1668500
2019-12-12,66.010002,66.870003,65.809998,66.430000,65.931129,1851100
2019-12-13,66.440002,66.910004,66.241997,66.580002,66.080002,1227200
2019-12-16,66.309998,66.570000,65.610001,65.680000,65.680000,1817600
2019-12-17,65.730003,65.779999,65.040001,65.160004,65.160004,1711800
2019-12-18,65.239998,65.599998,64.629997,64.830002,64.830002,1552100
2019-12-19,64.879997,65.606003,64.790001,65.010002,65.010002,1643800
2019-12-20,65.209999,65.430000,64.669998,64.860001,64.860001,2688500
2019-12-23,65.120003,65.309998,64.290001,64.300003,64.300003,1211600
2019-12-24,64.110001,64.510002,63.860001,64.300003,64.300003,974300
2019-12-26,64.430000,64.500000,64.129997,64.330002,64.330002,1637400
2019-12-27,64.410004,64.769997,64.269997,64.519997,64.519997,1804400
2019-12-30,64.639999,64.639999,63.490002,63.980000,63.980000,2653700
2019-12-31,63.970001,64.400002,63.759998,63.770000,63.770000,4898400
2020-01-02,63.799999,64.959999,63.779999,64.699997,64.699997,8460500
2020-01-03,64.370003,65.050003,63.990002,64.440002,64.440002,2806400
2020-01-06,64.279999,64.410004,62.970001,63.110001,63.110001,2706300
2020-01-07,63.000000,64.209999,63.000000,63.389999,63.389999,3092800
2020-01-08,62.820000,62.970001,62.099998,62.410000,62.410000,4818900
2020-01-09,62.950001,63.639999,62.320000,62.820000,62.820000,3116200
2020-01-10,63.090000,63.090000,62.410000,62.480000,62.480000,2029500
2020-01-13,62.000000,62.869999,61.779999,62.810001,62.810001,3485000
2020-01-14,62.880001,63.389999,62.404999,62.770000,62.770000,2056000
2020-01-15,62.930000,63.299999,62.660000,62.730000,62.730000,3758700
2020-01-16,62.689999,63.639999,62.490002,63.169998,63.169998,3513700
2020-01-17,63.270000,64.279999,63.029999,64.129997,64.129997,2418100
2020-01-21,65.129997,65.830002,64.750000,65.300003,65.300003,2329000
2020-01-22,65.629997,65.739998,65.050003,65.129997,65.129997,2026300
2020-01-23,64.949997,65.330002,64.760002,65.279999,65.279999,1410800
2020-01-24,65.379997,65.440002,64.029999,64.239998,64.239998,2417400
2020-01-27,63.220001,63.849998,63.130001,63.570000,63.570000,1596400
2020-01-28,63.650002,64.000000,62.689999,62.790001,62.790001,2332100
2020-01-29,62.849998,63.779999,62.610001,62.820000,62.820000,2610600
2020-01-30,62.610001,62.669998,61.900002,62.020000,62.020000,1348800
2020-01-31,61.900002,62.250000,60.779999,61.009998,61.009998,2245700
2020-02-03,61.130001,61.384998,60.580002,60.759998,60.759998,2408900
2020-02-04,61.040001,61.799999,60.840000,61.689999,61.689999,2581800
2020-02-05,62.000000,63.099998,61.570000,63.099998,63.099998,2498100
2020-02-06,63.119999,63.500000,62.459999,63.150002,63.150002,2545500
2020-02-07,62.980000,63.939999,62.700001,63.860001,63.860001,2887700
2020-02-10,65.260002,66.169998,63.520000,65.610001,65.610001,5802300
2020-02-11,65.800003,66.500000,65.459999,66.410004,66.410004,2133900
2020-02-12,66.610001,66.660004,65.930000,66.220001,66.220001,1832300
2020-02-13,66.080002,66.705002,66.000000,66.400002,66.400002,2478200
2020-02-14,66.349998,67.330002,66.349998,67.239998,67.239998,1422487
