Date,Open,High,Low,Close,Adj Close,Volume
2019-06-13,19.914000,19.914000,19.410000,19.566999,17.944550,20400
2019-06-14,19.600000,19.629999,19.471001,19.490000,17.873936,10000
2019-06-17,19.750000,19.920000,19.493000,19.493000,17.876682,12800
2019-06-18,19.518000,19.660000,19.490000,19.549999,17.928957,24900
2019-06-19,19.600000,19.631001,19.510000,19.520000,17.901445,2800
2019-06-20,19.584999,19.600000,19.510000,19.570000,17.947302,18700
2019-06-21,19.559999,19.650000,19.500000,19.570999,17.948219,38600
2019-06-24,19.650000,19.750000,19.620001,19.680000,18.048182,22000
2019-06-25,19.642000,21.052000,19.610001,20.250000,18.570919,48200
2019-06-26,20.200001,20.400000,20.170000,20.379999,18.690136,16800
2019-06-27,20.393000,20.500000,20.389999,20.500000,18.800186,9500
2019-06-28,20.400000,20.600000,20.400000,20.400000,18.708479,23300
2019-07-01,20.400000,20.441999,18.540001,19.700001,18.066521,113700
2019-07-02,19.650000,19.840000,19.549999,19.549999,17.928957,25700
2019-07-03,19.809999,19.839001,19.750000,19.791000,18.149973,1100
2019-07-05,19.667999,19.840000,19.600000,19.600000,17.974813,20800
2019-07-08,19.610001,19.757999,19.600000,19.724001,18.088530,32300
2019-07-09,19.750000,19.750000,19.520000,19.600000,17.974813,20800
2019-07-10,19.340000,19.340000,19.100000,19.320000,18.049551,13900
2019-07-11,19.180000,19.250000,19.150000,19.250000,17.984154,10800
2019-07-12,19.410000,19.410000,19.150000,19.150000,17.890732,18100
2019-07-15,19.299999,19.299999,19.200001,19.240000,17.974813,14800
2019-07-16,19.260000,19.260000,19.150000,19.150000,17.890732,10600
2019-07-17,19.270000,19.330000,19.150000,19.270000,18.002842,9800
2019-07-18,19.250000,19.260000,18.983999,18.983999,17.735645,25100
2019-07-19,19.000000,19.040001,18.915001,18.920000,17.675858,15100
2019-07-22,18.952999,18.996000,18.650000,18.941000,17.695477,8600
2019-07-23,18.959999,18.979000,18.549999,18.799999,17.563745,22100
2019-07-24,18.650000,18.730000,18.650000,18.681999,17.453505,20000
2019-07-25,18.600000,18.719999,18.600000,18.660999,17.433884,7700
2019-07-26,18.756001,18.756001,18.340000,18.400000,17.190048,35300
2019-07-29,18.330000,18.542999,18.125000,18.242001,17.042439,61800
2019-07-30,18.200001,18.500000,18.200001,18.450001,17.236763,27000
2019-07-31,18.400000,18.600000,18.299999,18.450001,17.236763,32400
2019-08-01,18.459999,19.000000,18.459999,18.940001,17.694540,40600
2019-08-02,18.900000,18.980000,18.850000,18.850000,17.610456,17600
2019-08-05,18.860001,18.899000,18.830000,18.861000,17.620731,11900
2019-08-06,18.860001,18.899000,18.830000,18.861000,17.620731,200
2019-08-07,18.990000,18.990000,18.781000,18.830000,17.591772,16200
2019-08-08,18.900000,18.900000,18.775000,18.799999,17.563745,6300
2019-08-09,18.875000,18.900000,18.799999,18.841000,17.602051,13500
2019-08-12,18.879999,18.879999,18.799999,18.818001,17.580564,10600
2019-08-13,18.840000,18.889999,18.802999,18.830999,17.592705,1800
2019-08-14,18.750000,18.840000,18.700001,18.700001,17.638929,4000
2019-08-15,18.790001,18.849001,18.750000,18.780001,17.714390,7000
2019-08-16,18.709999,18.820000,18.709999,18.730000,17.667223,2700
2019-08-19,18.768999,18.841999,18.663000,18.663000,17.604025,13700
2019-08-20,18.750000,18.750000,18.575001,18.600000,17.544601,4500
2019-08-21,18.594999,18.674999,18.559999,18.559999,17.506872,13200
2019-08-22,18.596001,18.670000,18.596001,18.660000,17.601194,2200
2019-08-23,18.625000,18.650000,18.625000,18.639999,17.582333,2100
2019-08-26,18.597000,18.650000,18.590000,18.607000,17.551205,3400
2019-08-27,18.680000,18.799999,18.645000,18.799999,17.733252,5000
2019-08-28,18.799999,19.000000,18.799999,18.879999,17.808712,20800
2019-08-29,18.940001,19.000000,18.850000,18.868999,17.798338,13600
2019-08-30,18.830000,18.856001,18.830000,18.850000,17.780415,3400
2019-09-03,18.909000,19.000000,18.820000,18.820000,17.752117,13300
2019-09-04,18.910000,19.000000,18.910000,18.987000,17.909641,8000
2019-09-05,18.951000,18.980000,18.951000,18.980000,17.903038,1900
2019-09-06,18.934999,18.981001,18.934999,18.981001,17.903982,2100
2019-09-09,18.947001,18.947001,18.947001,18.947001,17.871912,400
2019-09-10,18.938000,18.950001,18.900000,18.931000,17.856819,8500
2019-09-11,18.850000,18.850000,18.809999,18.809999,17.913006,1500
2019-09-12,18.900000,18.900000,18.750000,18.750000,17.855867,3300
2019-09-13,18.719999,18.785999,18.719999,18.785999,17.890152,500
2019-09-16,18.840000,18.902000,18.840000,18.893000,17.992046,2500
2019-09-17,18.900000,18.900000,18.881001,18.900000,17.998714,4500
2019-09-18,18.840000,19.007999,18.840000,19.007999,18.101566,1800
2019-09-19,19.007999,19.007999,19.007999,19.007999,18.101566,0
2019-09-20,19.114000,19.114000,19.113001,19.113001,18.201557,600
2019-09-23,19.209999,19.240000,19.209999,19.240000,18.322500,700
2019-09-24,19.247000,19.271000,19.160000,19.184000,18.269169,9200
2019-09-25,19.139999,19.139999,19.121000,19.121000,18.209175,700
2019-09-26,19.180000,19.180000,18.900000,19.180000,18.265362,5000
2019-09-27,19.059999,19.200001,19.059999,19.080999,18.171082,2700
2019-09-30,19.030001,19.113001,18.969999,19.080000,18.170130,18200
2019-10-01,19.090000,19.100000,18.950001,18.950001,18.046331,6800
2019-10-02,18.950001,19.097000,18.750000,18.902000,18.000622,25400
2019-10-03,18.910000,19.870001,18.799999,18.917999,18.015858,3200
2019-10-04,19.070000,19.100000,18.600000,18.752001,17.857773,8300
2019-10-07,18.752001,18.752001,18.752001,18.752001,17.857773,100
2019-10-08,18.806000,18.806000,18.719999,18.719999,17.827299,1600
2019-10-09,18.719999,18.764000,18.719999,18.764000,17.869200,1000
2019-10-10,18.790001,19.000000,18.760000,18.760000,17.865389,3200
2019-10-11,18.760000,19.375999,18.760000,19.100000,18.189177,1200
2019-10-14,19.167000,19.167000,18.719999,18.719999,17.827299,6300
2019-10-15,18.830000,18.900000,18.787001,18.860001,17.960621,1000
2019-10-16,18.698999,18.698999,18.674000,18.674000,17.954853,400
2019-10-17,18.770000,18.879999,18.770000,18.870001,18.143305,2500
2019-10-18,18.808001,18.999001,18.808001,18.948000,18.218302,600
2019-10-21,19.000000,19.000000,18.945999,18.945999,18.216377,1000
2019-10-22,18.931000,19.000000,18.931000,19.000000,18.268297,800
2019-10-23,18.990999,19.100000,18.990999,19.100000,18.364447,1200
2019-10-24,18.766001,19.046000,18.766001,19.046000,18.312527,1700
2019-10-25,19.000000,19.014999,18.934999,18.959999,18.229836,3000
2019-10-28,18.775000,18.962000,18.775000,18.799999,18.076000,3100
2019-10-29,18.840000,19.100000,18.760000,19.049999,18.316372,15100
2019-10-30,19.016001,19.030001,18.980000,18.980000,18.249067,4300
2019-10-31,18.950001,18.986000,18.764999,18.764999,18.042347,6400
2019-11-01,18.799999,18.893000,18.750000,18.750000,18.027924,18300
2019-11-04,18.650000,18.709000,18.480000,18.700001,17.979853,12500
2019-11-05,18.790001,18.922001,18.790001,18.799999,18.076000,27200
2019-11-06,18.596001,18.690001,18.532000,18.542000,17.827936,3200
2019-11-07,18.524000,18.537001,18.480000,18.520000,17.806784,5800
2019-11-08,18.610001,18.652000,18.520000,18.639999,17.922163,6500
2019-11-11,18.620001,18.670000,18.570000,18.650000,17.931776,3500
2019-11-12,18.600000,18.659000,18.570000,18.650000,17.931776,8000
2019-11-13,18.430000,18.632000,18.299999,18.299999,17.766731,24200
2019-11-14,18.299999,18.350000,18.250000,18.290001,17.757023,5100
2019-11-15,18.250000,18.410999,18.240000,18.270000,17.737606,5100
2019-11-18,18.230000,18.278999,18.180000,18.180000,17.650227,5200
2019-11-19,18.150000,18.186001,18.121000,18.165001,17.635666,12000
2019-11-20,18.316999,18.407000,18.299999,18.302000,17.768671,1900
2019-11-21,18.299999,18.455999,18.120001,18.120001,17.591976,11100
2019-11-22,18.209999,18.410000,18.131001,18.305000,17.771585,6700
2019-11-25,18.219999,18.610001,18.000000,18.049999,17.524015,8200
2019-11-26,18.139999,18.600000,18.110001,18.518999,17.979349,15000
2019-11-27,18.590000,18.590000,18.510000,18.549000,18.008474,1200
2019-11-29,18.600000,18.600000,18.370001,18.430000,17.892942,5800
2019-12-02,18.320000,18.330000,18.295000,18.309999,17.776440,8100
2019-12-03,18.360001,18.379999,18.336000,18.379999,17.844398,1600
2019-12-04,18.440001,18.440001,18.350000,18.415001,17.878380,5000
2019-12-05,18.400000,18.480000,18.299999,18.480000,17.941484,5900
2019-12-06,18.500000,18.580000,18.450001,18.450001,17.912361,8500
2019-12-09,18.500000,18.540001,18.010000,18.320000,17.786148,10200
2019-12-10,18.290001,18.500000,18.260000,18.330000,17.795856,18300
2019-12-11,18.290001,18.290001,18.180000,18.257999,17.901749,36800
2019-12-12,18.149000,18.160000,18.100000,18.145000,17.790955,5100
2019-12-13,18.129999,18.254000,18.129999,18.200001,17.844883,34100
2019-12-16,18.200001,18.340000,18.160000,18.320999,17.963518,5800
2019-12-17,18.209999,18.332001,18.209999,18.299999,17.942930,16600
2019-12-18,18.129999,18.313000,18.129999,18.280001,17.923321,13200
2019-12-19,18.250000,18.260000,18.120001,18.254999,17.898808,38000
2019-12-20,18.190001,18.298000,18.190001,18.254999,17.898808,70900
2019-12-23,18.180000,18.180000,18.000000,18.115000,17.761539,133200
2019-12-24,18.299999,18.299999,18.020000,18.066000,17.713495,19100
2019-12-26,18.059999,18.080999,18.000000,18.045000,17.692905,20100
2019-12-27,18.139999,18.370001,18.000000,18.240000,17.884100,25700
2019-12-30,18.180000,18.350000,18.150000,18.240000,17.884100,19700
2019-12-31,18.150000,18.296000,18.000000,18.219999,17.864491,10800
2020-01-02,18.309999,18.309999,18.150000,18.219999,17.864491,9500
2020-01-03,18.240000,18.240000,18.190001,18.209999,17.854685,6500
2020-01-06,18.280001,18.306000,18.253000,18.306000,17.948812,4000
2020-01-07,18.400000,18.400000,18.260000,18.260000,17.903711,10800
2020-01-08,18.350000,18.500000,18.250000,18.469999,18.109612,15000
2020-01-09,18.521999,18.549999,18.450001,18.450001,18.090004,21000
2020-01-10,18.459999,18.549999,18.350000,18.549999,18.188051,15700
2020-01-13,18.450001,18.510000,18.299999,18.480000,18.119417,38700
2020-01-14,18.450001,18.700001,18.440001,18.520000,18.158636,12900
2020-01-15,18.610001,18.670000,18.389999,18.430000,18.070395,17600
2020-01-16,18.240000,18.420000,18.190001,18.230000,18.050591,19100
2020-01-17,18.200001,18.280001,18.200001,18.200001,18.020887,9000
2020-01-21,18.059999,18.350000,18.059999,18.160000,17.981279,45800
2020-01-22,18.280001,18.280001,18.180000,18.200001,18.020887,24400
2020-01-23,18.290001,18.290001,18.110001,18.110001,17.931772,16900
2020-01-24,18.200001,18.200001,18.100000,18.120001,17.941673,23000
2020-01-27,18.170000,18.250000,18.010000,18.200001,18.020887,24900
2020-01-28,18.219999,18.340000,18.219999,18.250000,18.070395,107300
2020-01-29,18.270000,18.483000,18.247000,18.389000,18.208025,15000
2020-01-30,18.250000,18.424999,18.250000,18.400000,18.218918,6300
2020-01-31,18.389999,18.389999,18.329000,18.329000,18.148617,4500
2020-02-03,18.400000,18.400000,18.389999,18.393000,18.211987,3500
2020-02-04,18.450001,18.450001,18.410000,18.440001,18.258524,14400
2020-02-05,18.379999,18.450001,18.260000,18.287001,18.107031,22800
2020-02-06,18.379999,18.400000,18.250999,18.318001,18.137726,25000
2020-02-07,18.379999,18.440001,18.100000,18.270000,18.090197,62700
2020-02-10,18.299999,18.340000,18.049999,18.240000,18.060492,349700
2020-02-11,18.290001,18.344000,18.218000,18.299999,18.119902,74600
2020-02-12,18.299999,18.309999,18.290001,18.290001,18.110001,44300
2020-02-13,18.200001,18.299999,18.152000,18.230000,18.230000,14700
2020-02-14,18.309999,18.408899,18.160000,18.170000,18.170000,38387
