Date,Open,High,Low,Close,Adj Close,Volume
2014-06-16,38.500000,41.250000,38.500000,40.650002,36.494545,525000
2014-06-17,40.650002,40.650002,38.750000,40.000000,35.910995,183900
2014-06-18,40.750000,40.750000,39.250000,40.200001,36.090542,25600
2014-06-19,39.669998,40.000000,38.660000,39.090000,35.094013,13200
2014-06-20,39.220001,40.000000,37.250000,38.299999,34.384777,85300
2014-06-23,38.549999,38.709999,37.750000,38.000000,34.115444,71700
2014-06-24,37.900002,37.910000,37.500000,37.500000,33.666550,83900
2014-06-25,37.299999,38.000000,36.549999,36.750000,32.993214,513200
2014-06-26,36.500000,37.060001,35.500000,37.000000,33.217663,149900
2014-06-27,36.700001,37.770000,36.169998,36.930000,33.154816,1731500
2014-06-30,36.439999,40.200001,36.439999,38.750000,34.788769,2192000
2014-07-01,38.250000,39.939999,38.250000,39.070000,35.076057,2169200
2014-07-02,39.430000,40.500000,39.360001,40.060001,35.964855,2179000
2014-07-03,40.299999,43.509998,40.240002,43.250000,38.828758,3517300
2014-07-07,42.310001,42.779999,42.160000,42.380001,38.047699,2210400
2014-07-08,41.410000,42.759998,39.820000,40.919998,36.736942,2952400
2014-07-09,40.770000,42.189999,40.590000,41.740002,37.473133,1427000
2014-07-10,40.810001,42.049999,40.730000,41.509998,37.266624,1159900
2014-07-11,41.020000,41.730000,40.910000,41.619999,37.365379,699000
2014-07-14,42.049999,44.130001,41.990002,42.549999,38.200314,898300
2014-07-15,42.560001,44.130001,42.119999,43.490002,39.044224,1277400
2014-07-16,43.490002,44.180000,43.189999,43.630001,39.169910,1122200
2014-07-17,43.200001,43.630001,43.000000,43.230000,38.810799,514700
2014-07-18,42.709999,42.980000,41.000000,41.990002,37.697563,1042400
2014-07-21,41.009998,41.950001,40.520000,41.759998,37.491066,1128400
2014-07-22,41.750000,41.750000,40.900002,41.040001,36.844681,674000
2014-07-23,40.840000,40.900002,39.849998,40.049999,35.955875,785400
2014-07-24,39.919998,40.160000,38.970001,39.939999,35.857124,918400
2014-07-25,38.549999,39.900002,38.549999,39.119999,35.120937,1225700
2014-07-28,39.000000,39.099998,38.220001,38.290001,34.375797,1122100
2014-07-29,37.799999,37.950001,36.820000,37.119999,33.325405,2722300
2014-07-30,34.830002,35.000000,33.340000,33.360001,29.949764,4337300
2014-07-31,32.520000,32.810001,31.059999,32.459999,29.141769,2583800
2014-08-01,33.000000,33.660000,32.619999,33.500000,30.075451,2298500
2014-08-04,33.099998,33.950001,33.099998,33.639999,30.201139,1215300
2014-08-05,33.849998,34.169998,33.250000,33.349998,29.940783,722900
2014-08-06,33.080002,33.419998,32.990002,33.220001,29.824080,1084700
2014-08-07,33.200001,33.349998,32.230000,32.410000,29.096880,789100
2014-08-08,32.250000,32.860001,32.250000,32.439999,29.123812,745800
2014-08-11,32.689999,33.590000,32.689999,33.279999,29.877943,616900
2014-08-12,33.400002,33.880001,33.320000,33.439999,30.021584,616000
2014-08-13,33.700001,34.130001,33.619999,34.060001,30.578220,842900
2014-08-14,34.000000,34.580002,33.340000,33.450001,30.030563,818200
2014-08-15,33.480000,33.619999,32.240002,32.290001,28.989147,1112300
2014-08-18,32.779999,33.099998,32.349998,32.900002,29.536789,951100
2014-08-19,33.049999,33.430000,33.009998,33.189999,29.797144,793300
2014-08-20,33.200001,33.299999,32.950001,33.090000,29.707359,494200
2014-08-21,33.410000,33.660000,32.310001,32.720001,29.375195,1057000
2014-08-22,32.720001,32.880001,32.320000,32.669998,29.330303,534800
2014-08-25,32.869999,32.970001,32.599998,32.919998,29.554741,358800
2014-08-26,32.799999,33.250000,32.799999,32.970001,29.599638,385400
2014-08-27,33.250000,33.360001,32.799999,32.959999,29.590654,579800
2014-08-28,32.959999,33.220001,32.799999,32.970001,29.599638,436900
2014-08-29,33.180000,33.389999,32.959999,33.209999,29.815100,402500
2014-09-02,33.299999,33.650002,32.639999,32.849998,29.491903,633600
2014-09-03,32.860001,33.570000,32.799999,33.150002,29.761234,720900
2014-09-04,32.830002,33.299999,32.560001,32.709999,29.366215,773100
2014-09-05,32.750000,33.189999,32.700001,32.799999,29.447008,667000
2014-09-08,32.639999,33.230000,32.630001,33.009998,29.635538,603800
2014-09-09,33.000000,33.689999,33.000000,33.139999,29.752253,985800
2014-09-10,33.099998,33.240002,31.799999,32.470001,29.150743,939400
2014-09-11,32.490002,32.610001,32.250000,32.450001,29.132790,801200
2014-09-12,32.400002,32.700001,31.950001,31.990000,28.781902,834700
2014-09-15,32.000000,32.150002,30.750000,31.030001,27.918175,1146600
2014-09-16,31.340000,31.570000,30.580000,30.590000,27.522299,1244000
2014-09-17,31.000000,31.270000,29.760000,29.820000,26.829517,1596400
2014-09-18,30.110001,30.290001,29.750000,30.150000,27.126421,1211700
2014-09-19,30.389999,30.750000,30.320000,30.660000,27.585279,1643900
2014-09-22,30.590000,30.940001,30.350000,30.600000,27.531296,1380900
2014-09-23,30.420000,30.559999,29.799999,29.799999,26.811523,1314100
2014-09-24,29.770000,29.850000,28.910000,29.049999,26.136734,1684700
2014-09-25,29.010000,30.700001,28.650000,30.500000,27.441324,1472100
2014-09-26,30.500000,30.809999,30.209999,30.650000,27.576283,590400
2014-09-29,31.150000,32.349998,30.950001,32.259998,29.024820,819200
2014-09-30,31.950001,33.650002,31.750000,32.910000,29.609632,1493900
2014-10-01,33.080002,33.500000,32.799999,33.099998,29.780590,1154000
2014-10-02,33.160000,33.200001,31.660000,31.740000,28.556973,384800
2014-10-03,33.000000,33.000000,30.219999,30.670000,27.594276,1082700
2014-10-06,30.809999,32.000000,30.450001,31.730000,28.547974,668300
2014-10-07,31.940001,33.070000,31.430000,31.950001,28.745916,758000
2014-10-08,31.830000,33.439999,31.219999,32.860001,29.564653,557000
2014-10-09,32.360001,32.439999,29.959999,30.049999,27.036449,1079500
2014-10-10,30.010000,30.360001,29.530001,29.920000,26.919487,685700
2014-10-13,29.860001,30.290001,29.580000,29.830000,26.838514,348200
2014-10-14,29.830000,30.629999,29.549999,29.930000,26.928488,667900
2014-10-15,30.000000,30.959999,29.420000,29.830000,26.838514,1151700
2014-10-16,29.629999,29.990000,29.190001,29.700001,26.721552,851100
2014-10-17,29.690001,30.000000,28.799999,29.240000,26.307684,1076800
2014-10-20,29.219999,29.530001,28.969999,29.110001,26.190718,606200
2014-10-21,29.129999,29.440001,28.520000,29.080000,26.163729,817700
2014-10-22,29.030001,30.000000,28.730000,28.770000,25.884815,719900
2014-10-23,28.959999,29.370001,28.510000,28.830000,25.938799,761100
2014-10-24,28.980000,29.910000,28.730000,29.100000,26.181725,821100
2014-10-27,28.709999,29.670000,28.559999,29.600000,26.631580,713700
2014-10-28,29.500000,30.430000,29.219999,30.330000,27.288372,1081600
2014-10-29,30.180000,31.500000,27.049999,28.389999,25.542921,2141500
2014-10-30,28.049999,28.370001,27.559999,27.860001,25.066076,895000
2014-10-31,28.000000,28.600000,27.910000,28.530001,25.668884,813000
2014-11-03,28.590000,29.030001,28.299999,28.540001,25.677885,483600
2014-11-04,28.430000,28.580000,27.990000,28.030001,25.219027,352600
2014-11-05,28.020000,28.100000,27.480000,27.580000,24.814150,949700
2014-11-06,27.580000,28.120001,27.559999,28.100000,25.282005,306400
2014-11-07,28.170000,28.170000,27.809999,27.969999,25.165047,365100
2014-11-10,27.570000,27.850000,25.670000,26.180000,23.554558,2423000
2014-11-11,26.000000,26.000000,24.629999,25.059999,22.546871,1634900
2014-11-12,24.930000,25.950001,24.870001,25.860001,23.266645,595600
2014-11-13,25.840000,25.860001,25.200001,25.260000,22.726818,256000
2014-11-14,25.150000,25.809999,25.120001,25.760000,23.176670,404900
2014-11-17,25.820000,26.170000,25.510000,25.860001,23.266645,391700
2014-11-18,25.709999,26.230000,25.620001,25.860001,23.266645,423000
2014-11-19,25.719999,26.200001,25.629999,25.930000,23.329630,246600
2014-11-20,25.740000,25.980000,25.420000,25.700001,23.122686,324200
2014-11-21,25.480000,26.000000,25.129999,25.440001,22.888767,644400
2014-11-24,25.440001,25.530001,25.250000,25.340000,22.798788,491100
2014-11-25,25.309999,25.540001,25.150000,25.330000,22.789795,369800
2014-11-26,25.219999,25.370001,24.650000,25.090000,22.573862,487400
2014-11-28,25.020000,25.090000,24.250000,24.650000,22.177992,4835600
2014-12-01,24.490000,25.090000,24.250000,24.510000,22.052031,1123400
2014-12-02,24.469999,24.700001,24.139999,24.620001,22.150995,396600
2014-12-03,24.559999,24.690001,24.129999,24.340000,21.899078,3154200
2014-12-04,24.110001,24.430000,23.700001,23.709999,21.332254,415300
2014-12-05,23.639999,24.000000,23.139999,23.280001,20.945377,587400
2014-12-08,23.250000,24.000000,23.129999,23.770000,21.386240,483600
2014-12-09,23.610001,24.360001,23.440001,24.200001,21.773117,475600
2014-12-10,24.080000,24.160000,23.450001,23.540001,21.179302,480400
2014-12-11,23.459999,23.500000,23.049999,23.120001,20.801426,378300
2014-12-12,23.100000,23.200001,22.440001,22.510000,20.252596,569500
2014-12-15,22.350000,22.660000,21.680000,21.680000,19.566679,723700
2014-12-16,21.530001,22.360001,21.370001,21.820000,19.693037,709700
2014-12-17,21.700001,22.850000,21.690001,22.700001,20.487255,503500
2014-12-18,22.799999,22.870001,22.250000,22.500000,20.306747,515200
2014-12-19,22.410000,22.510000,21.750000,22.420000,20.234549,1204500
2014-12-22,22.219999,22.500000,21.920000,22.030001,19.882563,455300
2014-12-23,22.030001,22.510000,22.030001,22.340000,20.162346,438600
2014-12-24,22.330000,22.530001,22.160000,22.410000,20.225523,201400
2014-12-26,22.500000,22.600000,22.290001,22.400000,20.216497,201800
2014-12-29,22.350000,22.540001,22.160000,22.500000,20.306747,551000
2014-12-30,22.410000,22.719999,22.200001,22.420000,20.234549,1000100
2014-12-31,22.379999,22.500000,22.040001,22.299999,20.126244,368700
2015-01-02,22.230000,22.540001,22.190001,22.540001,20.342855,319700
2015-01-05,22.469999,23.139999,22.350000,22.959999,20.721907,640500
2015-01-06,22.990000,23.670000,22.680000,23.340000,21.064869,636800
2015-01-07,23.360001,23.490000,23.010000,23.309999,21.037792,329700
2015-01-08,23.350000,23.959999,23.160000,23.770000,21.452953,675400
2015-01-09,23.790001,24.010000,23.250000,23.280001,21.010715,261800
2015-01-12,23.299999,23.370001,22.000000,22.219999,20.054043,475200
2015-01-13,22.260000,22.320000,21.420000,21.730000,19.611809,912300
2015-01-14,21.520000,21.600000,21.100000,21.350000,19.268848,516800
2015-01-15,21.290001,21.500000,20.500000,21.150000,19.088343,818100
2015-01-16,21.129999,21.530001,20.860001,21.510000,19.413252,793100
2015-01-20,21.510000,21.990000,21.190001,21.809999,19.684008,904600
2015-01-21,21.790001,21.950001,21.500000,21.809999,19.684008,541600
2015-01-22,21.830000,21.900000,21.350000,21.639999,19.530575,498900
2015-01-23,21.570000,21.620001,19.100000,19.350000,17.463804,1811100
2015-01-26,19.100000,19.790001,19.010000,19.750000,17.824808,1015000
2015-01-27,19.910000,19.930000,18.850000,18.900000,17.057671,1110700
2015-01-28,18.330000,18.540001,17.450001,17.980000,16.227346,1965700
2015-01-29,17.969999,18.070000,17.090000,17.129999,15.460204,1457700
2015-01-30,17.000000,17.400000,16.709999,17.120001,15.451182,1913300
2015-02-02,17.120001,17.290001,16.940001,17.020000,15.360927,817800
2015-02-03,17.150000,17.500000,16.840000,16.850000,15.207499,1022900
2015-02-04,16.740000,17.150000,16.600000,16.639999,15.017971,750500
2015-02-05,16.820000,17.320000,16.740000,17.290001,15.604612,734700
2015-02-06,17.299999,17.480000,17.200001,17.400000,15.703884,468700
2015-02-09,17.420000,17.570000,17.270000,17.320000,15.631686,477100
2015-02-10,17.320000,17.500000,17.160000,17.299999,15.613632,465800
2015-02-11,17.280001,17.500000,17.190001,17.350000,15.658758,254100
2015-02-12,17.469999,17.730000,17.129999,17.219999,15.541435,330600
2015-02-13,17.280001,17.700001,17.059999,17.580000,15.866341,374500
2015-02-17,17.450001,17.610001,16.430000,16.900000,15.252624,1201100
2015-02-18,16.920000,17.230000,16.719999,17.180000,15.505332,411000
2015-02-19,17.040001,17.549999,17.040001,17.379999,15.685834,292200
2015-02-20,17.350000,17.490000,17.010000,17.450001,15.749008,374200
2015-02-23,17.480000,18.180000,17.200001,18.070000,16.308580,506900
2015-02-24,18.000000,19.080000,18.000000,18.850000,17.012543,591700
2015-02-25,19.270000,19.270000,18.490000,18.570000,16.759834,543800
2015-02-26,18.580000,18.629999,18.450001,18.540001,16.732767,300000
2015-02-27,18.549999,18.639999,18.299999,18.559999,16.750813,315100
2015-03-02,18.559999,18.660000,18.410000,18.459999,16.660557,298200
2015-03-03,18.430000,18.440001,18.150000,18.400000,16.606405,214100
2015-03-04,18.350000,18.770000,18.280001,18.360001,16.570307,354900
2015-03-05,18.350000,18.500000,18.010000,18.360001,16.570307,241300
2015-03-06,18.030001,18.200001,16.959999,17.010000,15.351903,620500
2015-03-09,17.350000,17.350000,16.620001,16.660000,15.036020,364400
2015-03-10,16.900000,16.900000,16.299999,16.440001,14.837464,445700
2015-03-11,16.410000,16.549999,16.200001,16.200001,14.620859,348300
2015-03-12,16.240000,16.330000,16.090000,16.110001,14.539632,316600
2015-03-13,16.000000,16.150000,15.940000,16.000000,14.503375,198500
2015-03-16,15.990000,16.070000,15.600000,15.710000,14.240500,377700
2015-03-17,15.700000,15.860000,15.490000,15.560000,14.104533,373200
2015-03-18,15.500000,15.670000,15.390000,15.580000,14.122660,512400
2015-03-19,15.510000,15.650000,15.260000,15.270000,13.841658,336300
2015-03-20,15.280000,15.290000,14.800000,14.880000,13.488136,662700
2015-03-23,14.880000,15.620000,14.430000,15.370000,13.932303,795000
2015-03-24,15.340000,15.350000,15.000000,15.130000,13.714753,397300
2015-03-25,15.130000,15.220000,14.940000,15.130000,13.714753,308700
2015-03-26,15.590000,15.600000,14.630000,15.010000,13.605977,632100
2015-03-27,14.980000,15.300000,14.920000,15.140000,13.723818,428000
2015-03-30,15.180000,15.580000,15.180000,15.490000,14.041077,377800
2015-03-31,15.470000,15.470000,14.810000,14.900000,13.506264,570100
2015-04-01,14.900000,15.330000,14.710000,15.310000,13.877915,390900
2015-04-02,15.210000,15.440000,14.810000,14.910000,13.515333,301200
2015-04-06,14.900000,15.100000,14.740000,14.990000,13.587849,537000
2015-04-07,15.040000,15.380000,15.000000,15.370000,13.932303,250300
2015-04-08,15.370000,15.580000,15.150000,15.320000,13.886980,351700
2015-04-09,15.330000,15.840000,15.320000,15.830000,14.349276,259900
2015-04-10,15.860000,15.860000,15.350000,15.410000,13.968561,418100
2015-04-13,15.420000,15.420000,15.030000,15.280000,13.850722,399800
2015-04-14,15.300000,15.330000,15.000000,15.040000,13.633171,336000
2015-04-15,15.040000,15.460000,15.000000,15.200000,13.778206,577900
2015-04-16,15.240000,15.380000,15.020000,15.290000,13.859787,460200
2015-04-17,15.400000,15.500000,15.090000,15.310000,13.877915,439900
2015-04-20,15.230000,15.580000,15.180000,15.520000,14.068271,316600
2015-04-21,15.520000,15.720000,15.360000,15.520000,14.068271,226600
2015-04-22,15.900000,15.900000,15.400000,15.420000,13.977629,304000
2015-04-23,15.480000,15.540000,15.090000,15.170000,13.751010,535300
2015-04-24,15.200000,15.390000,15.160000,15.320000,13.886980,421900
2015-04-27,15.340000,15.680000,15.310000,15.650000,14.186112,285300
2015-04-28,15.650000,16.650000,15.550000,16.610001,15.056316,572600
2015-04-29,16.610001,16.740000,16.090000,16.490000,14.947537,477800
2015-04-30,16.510000,16.770000,16.240000,16.709999,15.146958,562800
2015-05-01,17.500000,19.559999,17.100000,19.120001,17.331532,1184500
2015-05-04,19.209999,19.410000,18.480000,18.790001,17.032402,952500
2015-05-05,18.840000,19.639999,18.719999,19.350000,17.540018,791300
2015-05-06,19.459999,19.490000,18.860001,19.200001,17.404045,449300
2015-05-07,19.120001,19.139999,17.190001,17.370001,15.745225,670300
2015-05-08,17.260000,17.660000,16.780001,17.250000,15.636448,464000
2015-05-11,17.160000,17.280001,16.900000,16.920000,15.337319,275200
2015-05-12,16.870001,16.910000,16.360001,16.580000,15.029120,296700
2015-05-13,16.559999,16.870001,16.500000,16.719999,15.156029,143400
2015-05-14,16.740000,16.870001,16.549999,16.660000,15.101638,171500
2015-05-15,16.600000,16.750000,16.250000,16.639999,15.083509,247400
2015-05-18,16.610001,16.879999,16.530001,16.740000,15.174152,321300
2015-05-19,16.730000,16.870001,16.440001,16.530001,14.983799,345100
2015-05-20,16.590000,16.809999,16.520000,16.680000,15.119767,286300
2015-05-21,16.650000,17.100000,16.650000,17.040001,15.446092,232300
2015-05-22,17.059999,17.200001,16.870001,17.150000,15.545804,267000
2015-05-26,17.030001,17.059999,16.420000,16.469999,14.929409,242200
2015-05-27,16.469999,16.469999,16.000000,16.080000,14.575890,267400
2015-05-28,16.100000,16.360001,16.100000,16.270000,14.748119,226900
2015-05-29,16.270000,16.730000,16.190001,16.490000,14.947537,358600
2015-06-01,16.500000,17.020000,16.500000,16.889999,15.310122,399000
2015-06-02,16.860001,17.190001,16.760000,17.100000,15.500482,376300
2015-06-03,17.120001,17.270000,17.020000,17.180000,15.572998,207800
2015-06-04,17.100000,17.530001,16.700001,17.400000,15.772417,471100
2015-06-05,17.290001,17.700001,17.139999,17.469999,15.835874,383300
2015-06-08,17.400000,17.500000,17.120001,17.379999,15.754288,286700
2015-06-09,17.320000,17.610001,17.129999,17.309999,15.690838,143300
2015-06-10,17.290001,17.389999,16.480000,17.270000,15.654577,621300
2015-06-11,17.299999,17.360001,16.940001,17.090000,15.491414,674300
2015-06-12,16.940001,17.290001,16.940001,17.219999,15.673455,219800
2015-06-15,17.129999,17.129999,16.799999,16.860001,15.345783,219300
2015-06-16,16.770000,16.790001,16.490000,16.700001,15.200155,227600
2015-06-17,16.700001,16.910000,16.440001,16.639999,15.145545,265500
2015-06-18,16.610001,16.650000,16.129999,16.160000,14.708653,251500
2015-06-19,16.240000,16.389999,16.010000,16.150000,14.699550,327600
2015-06-22,16.120001,16.250000,15.830000,16.020000,14.581229,368800
2015-06-23,16.000000,16.190001,15.590000,15.960000,14.526615,509300
2015-06-24,15.890000,16.150000,15.770000,16.090000,14.644939,426800
2015-06-25,16.120001,16.170000,15.750000,16.059999,14.617632,558600
2015-06-26,16.020000,16.559999,15.850000,16.420000,14.945305,3195400
2015-06-29,16.350000,16.360001,16.059999,16.209999,14.754161,523100
2015-06-30,16.250000,16.389999,16.200001,16.260000,14.799671,492100
2015-07-01,16.230000,16.350000,14.930000,14.950000,13.607323,854500
2015-07-02,15.000000,15.510000,14.770000,15.040000,13.689242,526100
2015-07-06,14.880000,14.960000,14.410000,14.830000,13.498105,521900
2015-07-07,14.790000,15.000000,14.380000,14.800000,13.470796,460900
2015-07-08,14.720000,14.770000,14.050000,14.070000,12.806358,552800
2015-07-09,14.180000,14.310000,13.750000,13.800000,12.560609,618100
2015-07-10,13.890000,14.050000,13.320000,13.430000,12.223838,376000
2015-07-13,13.450000,13.790000,13.370000,13.540000,12.323958,462000
2015-07-14,13.560000,14.090000,13.560000,13.680000,12.451385,466400
2015-07-15,13.680000,13.780000,13.470000,13.550000,12.333059,355000
2015-07-16,13.390000,13.520000,13.080000,13.100000,11.923476,514900
2015-07-17,13.070000,13.080000,12.750000,12.760000,11.614012,476900
2015-07-20,12.760000,13.160000,12.590000,13.000000,11.832456,522200
2015-07-21,12.970000,13.060000,12.590000,12.670000,11.532095,345200
2015-07-22,12.630000,12.630000,12.040000,12.120000,11.031489,352200
2015-07-23,12.140000,12.200000,11.800000,11.900000,10.831250,318900
2015-07-24,11.880000,11.970000,11.440000,11.630000,10.585499,443400
2015-07-27,11.530000,12.030000,11.520000,11.790000,10.731129,355100
2015-07-28,11.800000,12.100000,11.410000,12.000000,10.922268,498100
2015-07-29,11.980000,12.380000,11.740000,12.180000,11.086102,786500
2015-07-30,14.870000,15.000000,12.810000,13.270000,12.078207,2199600
2015-07-31,13.510000,14.080000,13.210000,14.050000,12.788154,1667700
2015-08-03,14.030000,14.140000,12.620000,12.630000,11.495687,970100
2015-08-04,12.680000,12.910000,12.520000,12.650000,11.513891,1002400
2015-08-05,12.700000,13.060000,12.260000,12.500000,11.377362,1226300
2015-08-06,12.500000,13.280000,12.370000,13.230000,12.041801,1051000
2015-08-07,13.190000,13.390000,12.780000,12.890000,11.732337,668200
2015-08-10,12.940000,13.790000,12.770000,13.720000,12.487792,678500
2015-08-11,13.570000,13.910000,13.380000,13.760000,12.524199,623100
2015-08-12,13.520000,14.090000,13.520000,13.810000,12.569711,560900
2015-08-13,13.850000,13.900000,13.600000,13.720000,12.487792,292900
2015-08-14,13.690000,13.990000,13.690000,13.970000,12.715340,376500
2015-08-17,13.840000,14.180000,13.770000,13.840000,12.597015,433700
2015-08-18,13.820000,13.820000,13.470000,13.630000,12.405875,262400
2015-08-19,13.020000,13.060000,6.000000,7.620000,6.935640,18114500
2015-08-20,7.740000,7.850000,6.490000,6.560000,5.970840,5815500
2015-08-21,6.500000,7.440000,6.490000,7.290000,6.635277,2720100
2015-08-24,7.090000,7.780000,6.850000,6.900000,6.280304,2391300
2015-08-25,7.120000,7.280000,6.150000,6.160000,5.606764,2169300
2015-08-26,6.280000,7.060000,6.160000,6.870000,6.252998,2101200
2015-08-27,7.050000,7.150000,6.350000,6.530000,5.943534,1448600
2015-08-28,6.600000,7.150000,6.530000,7.080000,6.444137,1114900
2015-08-31,7.000000,7.020000,6.710000,6.820000,6.207489,704500
2015-09-01,6.630000,6.770000,6.220000,6.230000,5.670477,1233800
2015-09-02,6.290000,6.320000,5.750000,6.040000,5.497540,1302800
2015-09-03,6.080000,6.590000,6.080000,6.420000,5.843412,947400
2015-09-04,6.700000,7.110000,6.420000,6.970000,6.344018,1394500
2015-09-08,7.050000,7.050000,6.540000,6.620000,6.025452,1114500
2015-09-09,6.690000,6.960000,6.440000,6.620000,6.025452,811500
2015-09-10,6.600000,6.670000,6.320000,6.660000,6.061858,984300
2015-09-11,6.470000,6.650000,6.250000,6.360000,5.788803,686400
2015-09-14,6.220000,6.310000,5.920000,6.010000,5.531113,785400
2015-09-15,5.960000,6.300000,5.950000,6.270000,5.770395,512300
2015-09-16,6.260000,6.430000,6.180000,6.360000,5.853225,508000
2015-09-17,6.340000,6.460000,6.230000,6.280000,5.779599,483500
2015-09-18,6.170000,6.200000,5.950000,6.040000,5.558722,697700
2015-09-21,6.040000,6.270000,5.980000,6.100000,5.613941,444400
2015-09-22,6.040000,6.130000,5.900000,6.050000,5.567925,589900
2015-09-23,6.150000,6.470000,6.140000,6.400000,5.890037,835600
2015-09-24,6.310000,6.880000,6.290000,6.640000,6.110913,1033800
2015-09-25,6.660000,6.760000,6.380000,6.510000,5.991272,1239600
2015-09-28,6.480000,6.490000,6.310000,6.400000,5.890037,511000
2015-09-29,6.410000,6.450000,6.070000,6.140000,5.650753,722700
2015-09-30,6.190000,6.280000,5.950000,6.120000,5.632349,601200
2015-10-01,6.180000,6.620000,6.130000,6.480000,5.963662,810400
2015-10-02,6.430000,6.980000,6.300000,6.930000,6.377806,666500
2015-10-05,7.000000,7.410000,6.770000,7.400000,6.810355,890000
2015-10-06,7.380000,7.720000,7.250000,7.450000,6.856370,773800
2015-10-07,7.520000,7.810000,7.350000,7.540000,6.939199,670500
2015-10-08,7.540000,7.900000,7.520000,7.800000,7.178483,510100
2015-10-09,7.830000,8.130000,7.770000,7.910000,7.279717,471200
2015-10-12,7.920000,7.950000,7.260000,7.670000,7.058842,669400
2015-10-13,7.560000,7.840000,7.490000,7.730000,7.114060,426600
2015-10-14,7.770000,7.910000,7.680000,7.830000,7.206093,428700
2015-10-15,7.810000,8.090000,7.670000,8.010000,7.371750,487000
2015-10-16,8.030000,8.250000,7.940000,8.240000,7.583422,478300
2015-10-19,8.150000,8.200000,7.540000,7.920000,7.288920,660100
2015-10-20,7.870000,8.270000,7.770000,8.250000,7.592626,635600
2015-10-21,8.260000,8.280000,7.830000,7.970000,7.334937,591600
2015-10-22,8.050000,8.130000,7.460000,7.500000,6.902386,1241600
2015-10-23,7.460000,8.080000,7.460000,7.870000,7.242905,641200
2015-10-26,7.830000,7.890000,7.540000,7.670000,7.058842,395400
2015-10-27,7.620000,7.960000,7.500000,7.720000,7.104856,690300
2015-10-28,7.720000,8.140000,7.650000,7.980000,7.344140,659700
2015-10-29,9.040000,10.730000,8.970000,10.000000,9.203184,3624800
2015-10-30,9.710000,9.710000,8.990000,9.220000,8.485334,1572200
2015-11-02,9.200000,10.150000,9.070000,9.990000,9.193978,757500
2015-11-03,9.990000,10.410000,9.990000,10.140000,9.332027,652100
2015-11-04,10.130000,10.350000,9.960000,10.100000,9.295216,407000
2015-11-05,10.070000,10.200000,9.640000,9.840000,9.055931,454000
2015-11-06,9.800000,10.400000,9.650000,10.350000,9.525292,431200
2015-11-09,10.350000,10.420000,9.750000,9.880000,9.092743,335700
2015-11-10,9.880000,9.930000,9.450000,9.620000,8.853460,357300
2015-11-11,9.630000,9.660000,9.130000,9.430000,8.678600,617500
2015-11-12,9.320000,9.340000,8.910000,8.960000,8.246052,550600
2015-11-13,8.980000,9.880000,8.970000,9.790000,9.009915,700800
2015-11-16,9.830000,10.160000,9.710000,9.950000,9.157166,683800
2015-11-17,9.950000,10.130000,9.630000,10.020000,9.221589,660000
2015-11-18,10.110000,10.400000,10.080000,10.380000,9.552904,541300
2015-11-19,10.310000,10.680000,10.290000,10.570000,9.727765,453800
2015-11-20,10.650000,10.790000,10.400000,10.620000,9.773779,519800
2015-11-23,10.590000,11.240000,10.520000,10.700000,9.847405,598300
2015-11-24,10.730000,11.720000,10.700000,11.710000,10.776926,695200
2015-11-25,11.640000,11.740000,11.130000,11.490000,10.574456,824800
2015-11-27,11.290000,11.410000,10.630000,10.650000,9.801391,384000
2015-11-30,10.710000,11.810000,10.680000,11.210000,10.316766,694500
2015-12-01,12.520000,13.010000,11.340000,11.910000,10.960990,1088000
2015-12-02,11.730000,11.870000,11.360000,11.840000,10.896570,530800
2015-12-03,11.840000,12.140000,11.700000,11.850000,10.905771,536700
2015-12-04,10.700000,11.050000,10.140000,10.580000,9.736968,1526000
2015-12-07,10.580000,10.670000,9.640000,9.840000,9.055931,778200
2015-12-08,9.730000,10.100000,9.380000,9.510000,8.752228,589300
2015-12-09,9.630000,9.920000,9.380000,9.520000,8.761431,378600
2015-12-10,9.520000,9.760000,9.470000,9.620000,8.853460,301500
2015-12-11,9.500000,9.500000,9.020000,9.140000,8.411709,433000
2015-12-14,9.070000,9.500000,8.970000,9.340000,8.595773,391400
2015-12-15,9.350000,9.500000,9.230000,9.490000,8.799770,388400
2015-12-16,9.500000,9.790000,9.500000,9.700000,8.994497,443800
2015-12-17,9.730000,9.870000,9.410000,9.520000,8.827588,427300
2015-12-18,9.470000,9.660000,9.000000,9.110000,8.447409,854400
2015-12-21,9.170000,9.290000,8.770000,8.860000,8.215592,595800
2015-12-22,8.900000,9.580000,8.840000,9.540000,8.846134,539000
2015-12-23,9.630000,9.960000,9.370000,9.900000,9.179950,519300
2015-12-24,9.830000,10.200000,9.770000,10.150000,9.411768,198000
2015-12-28,10.070000,10.120000,9.090000,9.440000,8.753410,434200
2015-12-29,9.500000,10.000000,9.350000,9.880000,9.161406,561600
2015-12-30,9.860000,9.970000,9.630000,9.660000,8.957407,291900
2015-12-31,9.630000,9.930000,9.610000,9.790000,9.077951,312900
2016-01-04,9.530000,9.670000,9.200000,9.520000,8.827588,574200
2016-01-05,9.590000,9.590000,8.950000,8.990000,8.336136,573300
2016-01-06,8.800000,8.980000,8.670000,8.750000,8.113593,594200
2016-01-07,8.650000,8.680000,8.250000,8.260000,7.659234,456400
2016-01-08,8.310000,8.670000,8.150000,8.450000,7.835412,599900
2016-01-11,8.730000,8.990000,8.320000,8.350000,7.742686,807700
2016-01-12,8.500000,8.690000,7.800000,7.840000,7.269779,573500
2016-01-13,7.840000,8.190000,7.550000,7.590000,7.037963,570000
2016-01-14,7.770000,8.050000,7.600000,7.970000,7.390324,425800
2016-01-15,7.690000,7.940000,7.440000,7.930000,7.353234,398300
2016-01-19,8.010000,8.100000,6.830000,7.040000,6.527965,489600
2016-01-20,6.820000,7.340000,6.540000,7.270000,6.741236,485300
2016-01-21,7.220000,7.860000,7.200000,7.710000,7.149236,410800
2016-01-22,7.950000,8.180000,7.280000,7.420000,6.880328,685100
2016-01-25,7.310000,7.470000,6.670000,6.900000,6.398148,444900
2016-01-26,7.080000,7.190000,6.890000,7.040000,6.527965,688000
2016-01-27,7.030000,7.040000,6.460000,6.540000,6.064331,706300
2016-01-28,6.750000,7.340000,6.600000,7.000000,6.490874,1412300
2016-01-29,7.050000,7.360000,6.830000,7.000000,6.490874,770400
2016-02-01,6.960000,7.280000,6.510000,7.170000,6.648510,896100
2016-02-02,7.540000,7.540000,6.600000,6.970000,6.463056,1133600
2016-02-03,6.900000,7.220000,5.890000,7.150000,6.629965,2465000
2016-02-04,7.030000,7.920000,6.840000,6.930000,6.425966,770900
2016-02-05,6.820000,7.320000,6.710000,6.840000,6.342512,625500
2016-02-08,6.720000,7.240000,6.640000,6.910000,6.407420,579100
2016-02-09,6.740000,6.930000,6.360000,6.430000,5.962332,494400
2016-02-10,6.470000,6.830000,6.370000,6.560000,6.082877,489600
2016-02-11,6.400000,6.400000,5.880000,6.000000,5.563607,509300
2016-02-12,6.160000,6.650000,6.080000,6.450000,5.980876,477100
2016-02-16,6.520000,6.680000,6.270000,6.500000,6.027240,758900
2016-02-17,6.580000,6.830000,6.450000,6.460000,5.990150,841100
2016-02-18,6.470000,7.000000,6.260000,6.910000,6.407420,462900
2016-02-19,6.870000,6.910000,6.500000,6.890000,6.388875,529800
2016-02-22,7.000000,7.230000,6.640000,7.020000,6.509419,863400
2016-02-23,6.880000,7.080000,6.690000,6.810000,6.314694,475000
2016-02-24,6.640000,7.160000,6.530000,7.010000,6.500148,608700
2016-02-25,7.040000,7.080000,6.660000,6.980000,6.472330,634600
2016-02-26,7.050000,7.270000,6.910000,7.050000,6.537239,518100
2016-02-29,7.060000,7.570000,6.960000,7.470000,6.926690,752100
2016-03-01,7.550000,7.650000,6.830000,7.090000,6.574329,755300
2016-03-02,7.090000,7.870000,7.040000,7.760000,7.195598,741100
2016-03-03,7.780000,8.100000,7.770000,8.080000,7.492323,505200
2016-03-04,8.130000,8.600000,7.970000,8.410000,7.798322,679200
2016-03-07,8.410000,8.810000,8.110000,8.420000,7.807594,995900
2016-03-08,8.310000,8.800000,8.120000,8.650000,8.020867,771800
2016-03-09,8.760000,8.930000,8.480000,8.810000,8.169230,375900
2016-03-10,8.750000,9.060000,8.490000,9.010000,8.354683,471500
2016-03-11,8.980000,9.200000,8.720000,8.980000,8.326866,463500
2016-03-14,8.910000,9.090000,8.790000,8.940000,8.289773,477000
2016-03-15,8.750000,8.980000,8.620000,8.850000,8.271083,371000
2016-03-16,8.890000,9.150000,8.750000,8.830000,8.252391,526400
2016-03-17,8.840000,9.620000,8.800000,9.480000,8.859872,485100
2016-03-18,9.740000,9.870000,9.370000,9.840000,9.196321,901800
2016-03-21,9.790000,9.980000,9.320000,9.530000,8.906599,422100
2016-03-22,9.420000,9.660000,9.410000,9.580000,8.953329,194100
2016-03-23,9.520000,9.520000,8.970000,9.110000,8.514075,421800
2016-03-24,8.960000,9.590000,8.650000,9.560000,8.934639,313300
2016-03-28,9.550000,9.730000,9.160000,9.340000,8.729031,223600
2016-03-29,9.220000,9.620000,9.060000,9.430000,8.813142,493600
2016-03-30,9.560000,9.830000,9.420000,9.790000,9.149592,420600
2016-03-31,9.800000,9.950000,9.340000,9.500000,8.878563,474200
2016-04-01,9.340000,10.000000,9.260000,9.980000,9.327164,529500
2016-04-04,10.020000,10.240000,9.660000,9.730000,9.093518,433300
2016-04-05,9.630000,9.760000,9.440000,9.640000,9.009405,437200
2016-04-06,9.660000,9.700000,9.300000,9.500000,8.878563,387600
2016-04-07,9.440000,9.650000,9.280000,9.400000,8.785104,223900
2016-04-08,9.510000,9.660000,9.400000,9.460000,8.841180,314200
2016-04-11,9.530000,10.170000,9.480000,9.990000,9.336508,452000
2016-04-12,10.000000,11.230000,9.950000,10.920000,10.205674,669100
2016-04-13,10.970000,11.290000,10.840000,10.970000,10.252404,457500
2016-04-14,10.990000,11.090000,10.860000,10.990000,10.271095,266400
2016-04-15,10.930000,11.240000,10.820000,11.100000,10.373900,316600
2016-04-18,10.970000,11.340000,10.840000,11.090000,10.364555,223500
2016-04-19,11.150000,11.790000,11.150000,11.610000,10.850538,583300
2016-04-20,11.500000,11.730000,11.030000,11.380000,10.635582,479300
2016-04-21,11.380000,11.700000,11.190000,11.480000,10.729043,352500
2016-04-22,11.540000,11.910000,11.440000,11.730000,10.962687,593400
2016-04-25,11.360000,11.360000,9.590000,10.480000,9.794457,1677600
2016-04-26,10.500000,10.940000,10.280000,10.830000,10.121562,431900
2016-04-27,10.790000,11.260000,10.640000,10.670000,9.972029,487800
2016-04-28,10.690000,10.890000,10.410000,10.530000,9.841185,653000
2016-04-29,10.620000,10.780000,10.140000,10.250000,9.579503,424000
2016-05-02,10.250000,10.520000,9.940000,10.190000,9.523429,494600
2016-05-03,10.850000,13.930000,10.740000,13.730000,12.831860,3254500
2016-05-04,13.650000,14.210000,13.180000,13.200000,12.336529,1586700
2016-05-05,13.580000,14.020000,13.310000,13.570000,12.682326,1215900
2016-05-06,13.540000,14.900000,13.540000,14.400000,13.458031,669800
2016-05-09,14.260000,14.260000,13.210000,13.240000,12.373911,693200
2016-05-10,13.370000,13.880000,13.280000,13.750000,12.850552,741800
2016-05-11,13.780000,14.310000,13.550000,13.830000,12.925321,502800
2016-05-12,13.920000,14.160000,13.010000,13.470000,12.588866,448500
2016-05-13,13.420000,13.640000,12.980000,13.040000,12.186996,534600
2016-05-16,13.210000,13.840000,13.090000,13.530000,12.644942,332200
2016-05-17,13.540000,13.780000,13.060000,13.210000,12.345875,365200
2016-05-18,13.080000,13.370000,12.820000,12.840000,12.000077,297300
2016-05-19,12.660000,13.150000,12.660000,12.800000,11.962696,382100
2016-05-20,12.870000,13.280000,12.730000,13.240000,12.373911,405500
2016-05-23,13.150000,13.320000,12.790000,12.870000,12.028117,467400
2016-05-24,13.140000,13.250000,12.820000,12.860000,12.018771,543000
2016-05-25,12.910000,13.110000,12.820000,12.950000,12.102882,381500
2016-05-26,13.110000,13.210000,12.780000,12.870000,12.028117,446000
2016-05-27,12.850000,13.040000,12.680000,12.850000,12.009423,276500
2016-05-31,13.000000,13.130000,12.720000,12.960000,12.112228,664900
2016-06-01,12.980000,13.050000,12.440000,12.970000,12.121573,466300
2016-06-02,12.880000,13.350000,12.590000,13.250000,12.383259,714000
2016-06-03,13.340000,13.800000,13.310000,13.340000,12.467373,390100
2016-06-06,13.400000,13.870000,13.370000,13.730000,12.831860,496800
2016-06-07,13.760000,13.910000,13.560000,13.660000,12.766438,353900
2016-06-08,13.780000,13.910000,13.410000,13.600000,12.710364,337500
2016-06-09,13.450000,13.480000,13.010000,13.350000,12.476716,334500
2016-06-10,13.220000,13.260000,12.710000,12.910000,12.065497,386600
2016-06-13,12.910000,13.180000,12.330000,12.350000,11.542132,470000
2016-06-14,12.280000,12.610000,12.040000,12.570000,11.814709,579300
2016-06-15,12.630000,12.770000,12.370000,12.390000,11.645522,321400
2016-06-16,12.320000,12.430000,11.940000,12.390000,11.645522,460100
2016-06-17,12.460000,13.140000,12.430000,12.750000,11.983891,505900
2016-06-20,12.870000,13.340000,12.870000,13.240000,12.444448,452700
2016-06-21,13.210000,13.220000,12.660000,13.020000,12.237668,304700
2016-06-22,13.120000,13.270000,12.970000,13.250000,12.453847,407100
2016-06-23,13.420000,13.760000,13.270000,13.700000,12.876807,543900
2016-06-24,13.150000,13.290000,12.900000,13.070000,12.284664,1360600
2016-06-27,12.850000,12.850000,11.760000,11.980000,11.260159,569600
2016-06-28,12.140000,12.420000,12.030000,12.420000,11.673721,508100
2016-06-29,12.370000,13.150000,12.370000,12.940000,12.162475,431500
2016-06-30,12.990000,13.620000,12.800000,13.590000,12.773420,578600
2016-07-01,13.480000,14.020000,13.480000,14.010000,13.168180,469900
2016-07-05,13.900000,13.910000,12.660000,12.960000,12.181273,540300
2016-07-06,12.740000,13.430000,12.500000,13.130000,12.341057,331300
2016-07-07,13.150000,13.530000,12.930000,13.190000,12.397452,476200
2016-07-08,13.310000,13.840000,13.310000,13.600000,12.782817,522600
2016-07-11,13.700000,14.240000,13.520000,14.170000,13.318568,410000
2016-07-12,14.360000,14.800000,14.250000,14.640000,13.760326,462500
2016-07-13,14.570000,14.850000,14.460000,14.810000,13.920113,487300
2016-07-14,14.950000,15.390000,14.920000,14.970000,14.070498,486200
2016-07-15,15.040000,15.040000,14.590000,14.850000,13.957710,229000
2016-07-18,14.740000,15.340000,14.690000,15.160000,14.249081,476900
2016-07-19,14.960000,15.220000,14.820000,14.940000,14.042299,299900
2016-07-20,14.740000,15.250000,14.670000,15.010000,14.108093,220300
2016-07-21,15.040000,15.540000,14.990000,15.250000,14.333673,279800
2016-07-22,15.180000,15.390000,15.000000,15.190000,14.277278,240000
2016-07-25,14.470000,15.140000,14.450000,15.080000,14.173888,467700
2016-07-26,15.040000,15.180000,14.480000,14.780000,13.891914,543400
2016-07-27,14.680000,15.060000,14.380000,14.480000,13.609941,415200
2016-07-28,14.440000,14.570000,13.910000,13.970000,13.130585,510800
2016-07-29,14.000000,14.000000,13.240000,13.770000,12.942603,493400
2016-08-01,13.710000,13.790000,13.080000,13.480000,12.670028,846500
2016-08-02,14.300000,14.940000,13.660000,14.420000,13.553545,1317400
2016-08-03,14.630000,15.960000,14.360000,15.830000,14.878823,893700
2016-08-04,15.190000,15.190000,12.800000,12.910000,12.134277,5613400
2016-08-05,12.910000,12.910000,12.180000,12.250000,11.513936,4429700
2016-08-08,12.340000,12.730000,12.260000,12.630000,11.871102,2075100
2016-08-09,12.590000,12.730000,12.300000,12.440000,11.692518,2041000
2016-08-10,12.880000,12.890000,11.890000,11.910000,11.194364,1036000
2016-08-11,12.100000,12.320000,11.940000,12.020000,11.297754,1395700
2016-08-12,11.970000,12.110000,11.870000,11.940000,11.222561,869700
2016-08-15,11.970000,12.210000,11.850000,12.180000,11.448141,1033000
2016-08-16,12.220000,12.430000,12.020000,12.320000,11.579727,922700
2016-08-17,12.310000,12.310000,12.050000,12.180000,11.448141,517900
2016-08-18,12.170000,12.290000,12.010000,12.180000,11.448141,804900
2016-08-19,12.120000,12.300000,12.040000,12.210000,11.476337,401200
2016-08-22,12.050000,12.420000,11.940000,12.230000,11.495134,983700
2016-08-23,12.310000,12.550000,12.310000,12.450000,11.701917,741900
2016-08-24,12.390000,12.470000,11.980000,12.110000,11.382345,1270800
2016-08-25,12.010000,12.400000,12.010000,12.350000,11.607925,778700
2016-08-26,12.420000,12.500000,11.970000,12.060000,11.335353,495500
2016-08-29,12.060000,12.480000,12.040000,12.400000,11.654920,553200
2016-08-30,12.280000,12.480000,12.180000,12.280000,11.542133,356400
2016-08-31,12.060000,12.440000,11.940000,12.300000,11.560930,927900
2016-09-01,12.380000,12.380000,11.730000,11.930000,11.213162,613000
2016-09-02,12.020000,12.270000,11.900000,12.230000,11.495134,533700
2016-09-06,12.170000,12.220000,11.000000,11.230000,10.555222,1414300
2016-09-07,11.150000,11.630000,11.150000,11.520000,10.827798,1042700
2016-09-08,11.460000,11.520000,11.230000,11.390000,10.705611,788100
2016-09-09,11.270000,11.290000,10.370000,10.720000,10.075868,856500
2016-09-12,10.550000,11.320000,10.550000,11.090000,10.423636,772600
2016-09-13,11.360000,11.590000,10.930000,11.170000,10.498829,718800
2016-09-14,11.070000,11.450000,10.960000,11.340000,10.725830,1193900
2016-09-15,11.260000,11.850000,11.260000,11.840000,11.198751,1440600
2016-09-16,11.720000,11.840000,11.220000,11.570000,10.943374,913500
2016-09-19,11.690000,11.980000,11.600000,11.690000,11.056873,437300
2016-09-20,11.740000,11.880000,11.670000,11.700000,11.066331,313400
2016-09-21,11.890000,12.080000,11.740000,12.020000,11.369001,571800
2016-09-22,12.130000,12.560000,12.020000,12.510000,11.832463,648900
2016-09-23,12.430000,12.570000,12.400000,12.520000,11.841923,414200
2016-09-26,12.430000,12.570000,12.150000,12.200000,11.539253,387200
2016-09-27,12.110000,12.490000,12.010000,12.380000,11.709503,426200
2016-09-28,12.500000,12.780000,12.400000,12.740000,12.050007,500500
2016-09-29,12.670000,13.150000,12.530000,13.010000,12.305385,1009800
2016-09-30,13.000000,13.530000,13.000000,13.370000,12.645885,809200
2016-10-03,13.390000,13.510000,13.090000,13.510000,12.778304,519800
2016-10-04,13.470000,13.570000,12.920000,12.940000,12.239175,364700
2016-10-05,13.000000,13.430000,12.950000,13.280000,12.560759,320800
2016-10-06,13.120000,13.310000,12.800000,13.060000,12.352675,1032900
2016-10-07,12.970000,13.150000,12.840000,13.130000,12.418883,309100
2016-10-10,13.260000,13.720000,13.260000,13.390000,12.664802,455400
2016-10-11,13.250000,13.510000,13.080000,13.120000,12.409426,1664600
2016-10-12,13.080000,13.290000,12.950000,13.200000,12.485093,410600
2016-10-13,12.900000,13.130000,12.570000,12.630000,11.945965,1353400
2016-10-14,12.730000,13.010000,12.690000,12.850000,12.154049,249300
2016-10-17,12.900000,13.170000,12.840000,13.010000,12.305385,321800
2016-10-18,13.150000,13.240000,13.060000,13.110000,12.399967,953200
2016-10-19,13.000000,13.430000,12.760000,13.160000,12.447258,962500
2016-10-20,13.050000,13.390000,12.750000,13.380000,12.655345,593100
2016-10-21,13.260000,13.840000,12.880000,13.770000,13.024223,1258400
2016-10-24,13.770000,13.770000,13.180000,13.630000,12.891804,1472400
2016-10-25,13.640000,13.680000,13.350000,13.510000,12.778304,788800
2016-10-26,13.340000,13.580000,13.110000,13.120000,12.409426,540500
2016-10-27,13.290000,13.350000,13.080000,13.260000,12.541843,1142400
2016-10-28,13.180000,13.510000,13.120000,13.210000,12.494552,370500
2016-10-31,13.200000,13.250000,12.740000,12.930000,12.229716,693200
2016-11-01,14.100000,14.300000,12.170000,12.470000,11.794629,1773100
2016-11-02,12.410000,12.490000,11.870000,11.930000,11.283875,826700
2016-11-03,12.030000,12.370000,12.000000,12.090000,11.435211,700700
2016-11-04,12.060000,12.380000,12.000000,12.030000,11.378460,599300
2016-11-07,12.320000,12.500000,12.190000,12.250000,11.586546,383100
2016-11-08,12.260000,12.430000,12.090000,12.260000,11.596004,411000
2016-11-09,12.270000,12.730000,12.230000,12.650000,11.964882,459600
2016-11-10,12.910000,13.170000,12.680000,12.840000,12.144589,728700
2016-11-11,12.840000,13.440000,12.780000,13.390000,12.664802,671600
2016-11-14,13.470000,13.830000,13.440000,13.780000,13.033679,599600
2016-11-15,13.710000,13.920000,13.610000,13.720000,12.976930,448100
2016-11-16,13.660000,13.880000,13.520000,13.650000,12.910723,384100
2016-11-17,13.650000,13.950000,13.650000,13.830000,13.080975,573800
2016-11-18,13.840000,14.210000,13.780000,14.160000,13.393099,450600
2016-11-21,14.290000,14.400000,13.940000,14.180000,13.412017,337800
2016-11-22,14.290000,14.640000,14.180000,14.490000,13.705226,681300
2016-11-23,14.480000,14.610000,14.270000,14.510000,13.724145,266100
2016-11-25,14.540000,14.540000,13.860000,14.020000,13.260683,263100
2016-11-28,14.000000,14.190000,13.710000,13.720000,12.976930,292800
2016-11-29,13.680000,14.010000,13.530000,13.840000,13.090430,284000
2016-11-30,13.890000,14.300000,13.780000,13.880000,13.128265,515000
2016-12-01,14.000000,14.150000,13.670000,13.770000,13.024223,246300
2016-12-02,13.760000,13.990000,13.610000,13.880000,13.128265,318400
2016-12-05,14.000000,14.400000,13.980000,14.380000,13.601183,453400
2016-12-06,14.360000,14.730000,14.180000,14.570000,13.780894,344800
2016-12-07,14.560000,14.810000,14.420000,14.610000,13.818727,621800
2016-12-08,14.710000,15.400000,14.670000,15.380000,14.547024,517800
2016-12-09,15.240000,15.460000,15.010000,15.410000,14.575400,428600
2016-12-12,15.330000,15.870000,15.320000,15.630000,14.783484,522500
2016-12-13,15.660000,15.870000,15.420000,15.600000,14.755111,445500
2016-12-14,15.430000,15.570000,15.130000,15.340000,14.574591,382200
2016-12-15,15.240000,15.640000,15.030000,15.400000,14.631594,439100
2016-12-16,15.460000,15.710000,15.260000,15.660000,14.878624,826700
2016-12-19,15.660000,16.129999,15.440000,15.980000,15.182656,514600
2016-12-20,16.020000,16.209999,15.860000,16.070000,15.268165,411200
2016-12-21,15.970000,16.370001,15.860000,15.910000,15.116149,572300
2016-12-22,15.990000,16.100000,15.450000,15.910000,15.116149,407900
2016-12-23,15.850000,15.880000,15.550000,15.860000,15.068645,260700
2016-12-27,15.860000,16.110001,15.860000,15.940000,15.144651,148800
2016-12-28,16.040001,16.110001,15.410000,15.490000,14.717105,222300
2016-12-29,15.520000,15.800000,15.320000,15.550000,14.774111,353400
2016-12-30,15.510000,15.610000,15.160000,15.460000,14.688602,352600
2017-01-03,15.700000,15.930000,15.420000,15.760000,14.973633,399600
2017-01-04,15.880000,16.559999,15.880000,16.490000,15.667210,659000
2017-01-05,16.450001,16.520000,16.090000,16.379999,15.562697,292800
2017-01-06,16.440001,16.480000,15.880000,16.080000,15.277669,195600
2017-01-09,15.970000,16.150000,15.630000,15.670000,14.888124,293400
2017-01-10,15.710000,15.960000,15.480000,15.680000,14.897624,316400
2017-01-11,15.710000,16.190001,15.450000,16.170000,15.363175,285200
2017-01-12,16.090000,16.370001,15.750000,16.260000,15.448684,750300
2017-01-13,16.299999,16.719999,16.200001,16.270000,15.458189,219900
2017-01-17,16.150000,16.299999,15.690000,15.700000,14.916627,203500
2017-01-18,15.740000,15.770000,15.500000,15.570000,14.793113,157600
2017-01-19,15.630000,15.790000,15.340000,15.510000,14.736109,377100
2017-01-20,15.510000,15.700000,15.430000,15.610000,14.831117,256500
2017-01-23,15.560000,16.420000,15.500000,16.370001,15.553196,462400
2017-01-24,16.440001,16.770000,16.379999,16.440001,15.619701,435500
2017-01-25,16.500000,16.770000,16.309999,16.430000,15.610206,359700
2017-01-26,16.389999,16.520000,16.030001,16.049999,15.249164,293100
2017-01-27,16.580000,17.379999,16.490000,17.129999,16.275278,1191000
2017-01-30,17.309999,17.309999,16.219999,16.780001,15.942742,671700
2017-01-31,15.300000,15.750000,13.320000,13.570000,12.892907,1724700
2017-02-01,13.590000,13.670000,13.060000,13.540000,12.864404,1780800
2017-02-02,13.570000,13.920000,13.350000,13.570000,12.892907,1123600
2017-02-03,13.580000,13.850000,13.510000,13.780000,13.092427,489800
2017-02-06,13.730000,13.910000,13.450000,13.810000,13.120933,495200
2017-02-07,13.780000,13.870000,13.220000,13.290000,12.626879,434800
2017-02-08,13.270000,13.380000,12.870000,12.940000,12.294340,484900
2017-02-09,13.040000,13.370000,13.030000,13.250000,12.588873,416100
2017-02-10,13.410000,13.480000,13.170000,13.310000,12.645880,368600
2017-02-13,13.460000,13.650000,13.140000,13.150000,12.493863,268300
2017-02-14,13.080000,13.320000,12.980000,13.100000,12.446359,311100
2017-02-15,13.020000,13.230000,12.960000,13.130000,12.474860,311800
2017-02-16,13.160000,13.250000,12.960000,13.100000,12.446359,244100
2017-02-17,13.040000,13.080000,12.700000,12.810000,12.170829,562900
2017-02-21,12.800000,13.090000,12.800000,12.890000,12.246837,238200
2017-02-22,12.800000,12.930000,12.500000,12.550000,11.923800,304400
2017-02-23,12.600000,12.610000,12.230000,12.360000,11.743281,338100
2017-02-24,12.060000,12.490000,12.060000,12.310000,11.695777,544000
2017-02-27,13.170000,13.440000,12.910000,12.990000,12.341846,860900
2017-02-28,12.990000,13.320000,12.810000,13.260000,12.598374,980200
2017-03-01,13.510000,13.720000,13.240000,13.390000,12.721888,399500
2017-03-02,13.420000,13.450000,13.150000,13.150000,12.493863,331800
2017-03-03,13.220000,13.580000,13.160000,13.460000,12.788396,309700
2017-03-06,13.300000,13.450000,13.160000,13.390000,12.721888,352900
2017-03-07,13.350000,13.440000,13.080000,13.200000,12.541368,226400
2017-03-08,13.180000,13.370000,12.780000,12.910000,12.265838,435400
2017-03-09,12.890000,13.140000,12.700000,13.060000,12.408355,314500
2017-03-10,13.140000,13.210000,12.960000,13.150000,12.493863,219700
2017-03-13,13.150000,13.380000,13.100000,13.310000,12.645880,275800
2017-03-14,13.150000,13.300000,12.890000,13.260000,12.598374,222100
2017-03-15,13.240000,13.580000,13.100000,13.550000,12.942227,408900
2017-03-16,13.570000,13.730000,13.360000,13.390000,12.789405,304700
2017-03-17,13.480000,13.690000,13.050000,13.230000,12.636580,516900
2017-03-20,13.250000,13.480000,13.050000,13.400000,12.798956,225100
2017-03-21,13.400000,13.400000,12.710000,12.740000,12.168560,259600
2017-03-22,12.650000,12.850000,12.430000,12.630000,12.063495,1038900
2017-03-23,12.640000,12.720000,12.490000,12.700000,12.130353,408400
2017-03-24,12.730000,12.830000,12.380000,12.450000,11.891566,614300
2017-03-27,12.160000,12.520000,12.160000,12.490000,11.929772,262600
2017-03-28,12.490000,13.050000,12.410000,12.980000,12.397794,423700
2017-03-29,12.950000,13.090000,12.830000,12.920000,12.340485,197800
2017-03-30,12.920000,13.160000,12.920000,13.130000,12.541066,228200
2017-03-31,13.080000,13.490000,13.060000,13.450000,12.846711,461200
2017-04-03,13.450000,13.460000,12.570000,12.580000,12.015735,484200
2017-04-04,12.580000,13.360000,12.530000,13.000000,12.416895,683100
2017-04-05,13.100000,13.200000,12.430000,12.450000,11.891566,701200
2017-04-06,12.450000,13.050000,12.370000,12.910000,12.330935,490700
2017-04-07,12.910000,13.090000,12.670000,12.940000,12.359589,455400
2017-04-10,12.950000,13.230000,12.790000,12.900000,12.321383,296700
2017-04-11,12.910000,13.350000,12.810000,13.340000,12.741649,236300
2017-04-12,13.270000,13.310000,12.540000,12.600000,12.034840,301800
2017-04-13,12.600000,12.760000,12.370000,12.510000,11.948876,222000
2017-04-17,12.540000,12.840000,12.390000,12.790000,12.216318,287100
2017-04-18,12.660000,12.760000,12.410000,12.720000,12.149457,209000
2017-04-19,12.730000,13.020000,12.610000,12.670000,12.101699,593100
2017-04-20,12.810000,12.980000,12.710000,12.890000,12.311832,226800
2017-04-21,12.850000,12.850000,12.200000,12.500000,11.939325,523300
2017-04-24,12.860000,13.250000,12.860000,13.140000,12.550618,386800
2017-04-25,13.330000,13.500000,13.040000,13.050000,12.464655,353500
2017-04-26,12.970000,13.330000,12.960000,13.320000,12.722544,370600
2017-04-27,13.290000,13.380000,13.020000,13.200000,12.607925,339200
2017-04-28,13.210000,13.380000,13.080000,13.250000,12.655684,384600
2017-05-01,13.240000,13.420000,13.120000,13.210000,12.617478,342700
2017-05-02,12.200000,12.750000,11.880000,12.180000,11.633678,1461300
2017-05-03,12.190000,13.350000,12.170000,13.050000,12.464655,855100
2017-05-04,13.090000,13.330000,12.660000,13.250000,12.655684,441500
2017-05-05,13.230000,13.570000,13.140000,13.310000,12.712993,454200
2017-05-08,13.330000,13.350000,13.040000,13.120000,12.531514,269800
2017-05-09,13.140000,13.220000,12.690000,12.820000,12.244971,336200
2017-05-10,12.850000,13.370000,12.810000,13.280000,12.684338,339900
2017-05-11,13.270000,13.330000,13.010000,13.100000,12.512413,227400
2017-05-12,13.090000,13.170000,12.700000,12.790000,12.216318,361000
2017-05-15,12.920000,13.200000,12.820000,13.110000,12.521963,317700
2017-05-16,13.160000,13.290000,12.980000,13.260000,12.665235,232700
2017-05-17,13.260000,13.260000,12.860000,12.960000,12.378691,391900
2017-05-18,12.890000,12.890000,12.640000,12.800000,12.225869,456300
2017-05-19,12.810000,13.220000,12.690000,13.170000,12.579272,393000
2017-05-22,13.280000,13.440000,13.070000,13.160000,12.569718,535500
2017-05-23,13.170000,13.300000,12.980000,13.260000,12.665235,344500
2017-05-24,13.230000,13.430000,13.140000,13.250000,12.655684,278800
2017-05-25,13.220000,14.880000,12.520000,14.760000,14.097954,2555500
2017-05-26,15.390000,16.219999,15.100000,16.049999,15.330091,1737100
2017-05-30,15.340000,17.600000,15.340000,17.180000,16.409409,2308100
2017-05-31,17.150000,17.400000,16.309999,17.389999,16.609985,1063900
2017-06-01,16.770000,17.120001,16.360001,16.490000,15.750358,1591100
2017-06-02,16.610001,17.480000,16.610001,16.820000,16.065554,894000
2017-06-05,16.830000,16.930000,16.580000,16.809999,16.056002,692400
2017-06-06,16.780001,17.059999,16.520000,16.969999,16.208824,498900
2017-06-07,16.969999,17.000000,16.379999,16.469999,15.731252,750600
2017-06-08,16.430000,16.840000,16.170000,16.660000,15.912732,742900
2017-06-09,16.740000,17.100000,16.680000,17.070000,16.304342,703700
2017-06-12,17.120001,17.240000,16.670000,16.780001,16.027349,838500
2017-06-13,16.930000,16.980000,16.480000,16.549999,15.807663,523400
2017-06-14,16.430000,16.660000,16.280001,16.320000,15.654192,646600
2017-06-15,16.180000,16.600000,16.030001,16.299999,15.635009,583700
2017-06-16,16.200001,16.590000,15.890000,16.299999,15.635009,859300
2017-06-19,16.299999,16.549999,15.820000,16.040001,15.385616,788700
2017-06-20,15.940000,16.150000,15.560000,15.650000,15.011525,491900
2017-06-21,15.740000,15.740000,14.950000,15.060000,14.445597,896300
2017-06-22,15.140000,15.300000,14.880000,15.070000,14.455189,1035400
2017-06-23,15.130000,15.220000,14.960000,15.170000,14.551109,772300
2017-06-26,15.100000,15.360000,14.950000,15.160000,14.541515,675900
2017-06-27,15.250000,15.760000,15.100000,15.540000,14.906015,843800
2017-06-28,15.640000,15.770000,15.380000,15.520000,14.886830,459700
2017-06-29,15.720000,15.900000,15.470000,15.770000,15.126632,346400
2017-06-30,15.840000,15.950000,15.540000,15.720000,15.078671,255400
2017-07-03,15.820000,16.260000,15.730000,15.990000,15.337655,145200
2017-07-05,15.960000,15.960000,15.220000,15.670000,15.030710,488200
2017-07-06,15.660000,15.670000,15.120000,15.170000,14.551109,365600
2017-07-07,15.230000,15.800000,15.160000,15.700000,15.059486,360800
2017-07-10,15.580000,15.750000,15.300000,15.670000,15.030710,305400
2017-07-11,15.640000,15.900000,15.500000,15.610000,14.973158,274900
2017-07-12,15.710000,15.970000,15.640000,15.770000,15.126632,528600
2017-07-13,15.800000,15.850000,15.520000,15.720000,15.078671,266500
2017-07-14,15.610000,15.840000,15.240000,15.260000,14.637437,619400
2017-07-17,15.300000,15.970000,15.210000,15.400000,14.771725,657800
2017-07-18,15.310000,15.390000,14.850000,15.010000,14.397637,444900
2017-07-19,15.130000,15.380000,14.760000,14.870000,14.263348,782700
2017-07-20,14.610000,14.870000,14.260000,14.870000,14.263348,879700
2017-07-21,14.980000,14.980000,14.460000,14.600000,14.004364,800200
2017-07-24,15.050000,16.920000,15.050000,15.920000,15.270512,1975000
2017-07-25,16.200001,16.420000,15.760000,15.900000,15.251328,924700
2017-07-26,15.920000,15.990000,15.670000,15.830000,15.184183,415800
2017-07-27,15.890000,15.890000,15.440000,15.710000,15.069079,477100
2017-07-28,15.730000,15.840000,14.780000,14.840000,14.234571,778300
2017-07-31,14.960000,15.170000,14.850000,14.910000,14.301715,382800
2017-08-01,14.950000,14.970000,14.520000,14.920000,14.311309,442400
2017-08-02,14.880000,15.000000,14.550000,14.740000,14.138653,340400
2017-08-03,14.700000,14.930000,13.720000,14.100000,13.524762,857300
2017-08-04,14.010000,14.180000,13.750000,13.790000,13.227409,710200
2017-08-07,13.750000,13.960000,13.480000,13.860000,13.294553,748200
2017-08-08,13.820000,13.980000,13.290000,13.450000,12.901279,563400
2017-08-09,13.380000,13.460000,13.170000,13.310000,12.766992,577600
2017-08-10,13.230000,13.420000,13.000000,13.240000,12.699847,827400
2017-08-11,12.680000,13.380000,12.680000,13.350000,12.805360,648700
2017-08-14,13.480000,13.720000,13.190000,13.680000,13.121899,754600
2017-08-15,13.700000,13.700000,13.380000,13.490000,12.939648,506700
2017-08-16,13.610000,13.670000,13.350000,13.440000,12.891687,416700
2017-08-17,13.760000,13.770000,13.260000,13.500000,12.949239,827600
2017-08-18,13.350000,14.140000,13.170000,13.900000,13.332921,581800
2017-08-21,13.890000,13.910000,13.560000,13.630000,13.073938,519000
2017-08-22,13.740000,13.760000,13.410000,13.550000,12.997201,343500
2017-08-23,13.480000,13.790000,13.440000,13.510000,12.958834,431700
2017-08-24,13.510000,13.870000,13.470000,13.800000,13.237001,385500
2017-08-25,13.880000,13.920000,13.640000,13.660000,13.102713,327400
2017-08-28,13.660000,13.660000,13.470000,13.570000,13.016384,217400
2017-08-29,13.450000,13.800000,13.340000,13.680000,13.121899,363000
2017-08-30,13.640000,13.740000,13.500000,13.650000,13.093121,209600
2017-08-31,13.750000,13.970000,13.650000,13.720000,13.160266,226100
2017-09-01,13.760000,13.880000,13.700000,13.860000,13.294553,226000
2017-09-05,13.860000,14.170000,13.570000,13.870000,13.304147,516000
2017-09-06,13.890000,13.960000,13.420000,13.720000,13.160266,394900
2017-09-07,13.760000,13.810000,13.630000,13.640000,13.083528,412200
2017-09-08,13.660000,14.030000,13.330000,13.970000,13.400065,666900
2017-09-11,14.130000,14.340000,13.790000,13.830000,13.265779,515000
2017-09-12,13.900000,14.000000,13.640000,13.660000,13.102713,203200
2017-09-13,13.680000,13.880000,13.470000,13.630000,13.073938,349500
2017-09-14,13.580000,13.810000,13.400000,13.750000,13.257126,555200
2017-09-15,13.780000,13.780000,13.520000,13.590000,13.102862,561000
2017-09-18,13.650000,13.730000,13.440000,13.690000,13.199275,420400
2017-09-19,13.730000,13.820000,13.650000,13.690000,13.199275,145100
2017-09-20,13.620000,13.740000,13.510000,13.670000,13.179994,276200
2017-09-21,13.610000,13.680000,13.460000,13.520000,13.035371,251300
2017-09-22,13.450000,13.640000,13.420000,13.550000,13.064296,245200
2017-09-25,13.550000,13.620000,13.430000,13.570000,13.083578,288500
2017-09-26,13.650000,13.780000,13.520000,13.630000,13.141429,227900
2017-09-27,13.710000,13.850000,13.490000,13.700000,13.208918,313200
2017-09-28,13.700000,14.190000,13.580000,13.710000,13.218560,744300
2017-09-29,13.670000,13.950000,13.610000,13.700000,13.208918,571600
2017-10-02,13.600000,13.870000,13.460000,13.670000,13.179994,307100
2017-10-03,13.690000,14.110000,13.680000,14.100000,13.594581,284000
2017-10-04,14.120000,14.130000,13.900000,14.010000,13.507807,279900
2017-10-05,14.010000,14.170000,13.900000,14.010000,13.507807,367600
2017-10-06,13.930000,14.090000,13.870000,13.890000,13.392108,306700
2017-10-09,13.860000,13.900000,13.630000,13.880000,13.382465,278700
2017-10-10,13.880000,14.440000,13.850000,14.200000,13.690994,511400
2017-10-11,14.160000,14.200000,13.920000,14.000000,13.498163,390700
2017-10-12,13.950000,13.950000,13.730000,13.740000,13.247484,280900
2017-10-13,13.780000,14.400000,13.730000,14.280000,13.768127,438100
2017-10-16,14.300000,14.450000,13.770000,13.890000,13.392108,503600
2017-10-17,13.890000,14.020000,13.810000,13.940000,13.440314,354700
2017-10-18,13.930000,13.940000,13.470000,13.850000,13.353541,618400
2017-10-19,13.820000,14.110000,13.750000,14.090000,13.584938,702500
2017-10-20,14.250000,14.250000,13.310000,14.040000,13.536731,1731600
2017-10-23,13.920000,14.160000,13.800000,13.990000,13.488523,1169500
2017-10-24,14.070000,14.120000,13.950000,14.090000,13.584938,492700
2017-10-25,14.110000,14.230000,14.000000,14.190000,13.681354,635000
2017-10-26,14.230000,14.520000,14.080000,14.150000,13.642789,399900
2017-10-27,14.130000,14.310000,14.090000,14.310000,13.797053,307200
2017-10-30,14.280000,14.350000,14.120000,14.210000,13.700638,476900
2017-10-31,14.220000,14.440000,14.000000,14.370000,13.854901,763000
2017-11-01,14.500000,14.640000,14.200000,14.230000,13.719919,592600
2017-11-02,14.610000,15.570000,14.410000,15.400000,14.847980,1131700
2017-11-03,15.600000,17.129999,15.590000,16.860001,16.255646,2193700
2017-11-06,16.900000,17.180000,16.620001,16.670000,16.072456,630800
2017-11-07,16.790001,17.290001,16.639999,17.080000,16.467762,793400
2017-11-08,16.980000,16.980000,16.690001,16.879999,16.274931,463700
2017-11-09,16.840000,17.070000,16.730000,16.860001,16.255646,392600
2017-11-10,16.870001,17.030001,16.620001,16.760000,16.159233,303000
2017-11-13,16.719999,17.030001,16.629999,16.740000,16.139948,247900
2017-11-14,16.750000,16.870001,16.549999,16.620001,16.024250,549000
2017-11-15,16.520000,16.629999,16.370001,16.490000,15.898911,476800
2017-11-16,16.590000,16.940001,16.590000,16.830000,16.226725,538500
2017-11-17,16.770000,16.780001,16.600000,16.730000,16.130306,336500
2017-11-20,16.780001,16.809999,16.570000,16.700001,16.101383,311100
2017-11-21,16.809999,18.750000,16.809999,18.469999,17.807936,2433600
2017-11-22,18.459999,18.459999,17.980000,18.129999,17.480122,959800
2017-11-24,18.129999,18.370001,17.980000,18.280001,17.624746,337500
2017-11-27,18.360001,18.590000,18.139999,18.480000,17.817575,1374000
2017-11-28,18.490000,18.580000,18.230000,18.490000,17.827221,865700
2017-11-29,18.580000,19.090000,18.430000,19.049999,18.367146,672600
2017-11-30,19.049999,19.090000,18.600000,18.790001,18.116465,926800
2017-12-01,18.799999,18.889999,18.360001,18.750000,18.077900,515000
2017-12-04,18.950001,19.139999,18.420000,18.549999,17.885065,649300
2017-12-05,18.580000,18.770000,18.360001,18.650000,17.981485,471400
2017-12-06,18.540001,18.780001,18.340000,18.740000,18.068256,432800
2017-12-07,18.809999,18.980000,18.559999,18.790001,18.116465,425700
2017-12-08,18.799999,19.059999,18.760000,18.950001,18.270733,422800
2017-12-11,18.969999,19.580000,18.969999,19.530001,18.829941,609000
2017-12-12,19.530001,19.950001,18.920000,19.110001,18.424994,792900
2017-12-13,19.090000,19.660000,19.090000,19.240000,18.550337,633600
2017-12-14,19.190001,19.360001,18.480000,18.559999,17.960052,666400
2017-12-15,18.620001,19.160000,18.620001,19.040001,18.424540,990800
2017-12-18,19.100000,19.830000,19.040001,19.820000,19.179325,550800
2017-12-19,19.790001,19.969999,19.540001,19.760000,19.121264,732300
2017-12-20,19.950001,20.180000,19.809999,20.150000,19.498659,566900
2017-12-21,20.230000,20.250000,19.940001,20.030001,19.382536,523700
2017-12-22,20.020000,20.309999,19.719999,19.969999,19.324474,539900
2017-12-26,20.000000,20.430000,19.870001,20.200001,19.547041,528300
2017-12-27,20.180000,20.820000,20.049999,20.709999,20.040556,1303200
2017-12-28,20.790001,20.990000,20.139999,20.250000,19.595425,594700
2017-12-29,20.240000,20.719999,20.240000,20.450001,19.788960,571400
2018-01-02,20.559999,20.840000,20.160000,20.340000,19.682514,526100
2018-01-03,20.340000,20.650000,20.030001,20.549999,19.885729,1114400
2018-01-04,20.680000,20.830000,19.180000,19.280001,18.656780,953900
2018-01-05,19.379999,19.740000,19.379999,19.660000,19.024496,507300
2018-01-08,19.670000,19.790001,19.290001,19.379999,18.753544,553900
2018-01-09,19.400000,19.549999,19.260000,19.260000,18.637426,316000
2018-01-10,19.190001,19.530001,19.049999,19.469999,18.840637,367600
2018-01-11,19.450001,20.160000,19.440001,20.129999,19.479301,515100
2018-01-12,20.180000,20.400000,19.879999,19.920000,19.276091,682100
2018-01-16,20.059999,20.059999,19.280001,19.490000,18.859989,726500
2018-01-17,19.510000,19.809999,19.129999,19.230000,18.608395,720800
2018-01-18,19.270000,19.379999,18.920000,19.209999,18.589041,580800
2018-01-19,19.190001,19.430000,18.910000,19.330000,18.705162,770500
2018-01-22,19.299999,20.030001,19.100000,19.790001,19.150293,1200200
2018-01-23,19.799999,19.879999,19.389999,19.480000,18.850315,721200
2018-01-24,19.469999,19.610001,19.350000,19.490000,18.859989,594000
2018-01-25,19.590000,19.690001,19.270000,19.410000,18.782578,569700
2018-01-26,19.530001,19.559999,19.100000,19.200001,18.579367,704000
2018-01-29,19.020000,19.160000,18.469999,18.500000,17.901993,508000
2018-01-30,18.340000,18.820000,18.010000,18.709999,18.105206,476800
2018-01-31,19.000000,19.090000,18.719999,18.920000,18.308416,880900
2018-02-01,18.799999,18.889999,18.309999,18.870001,18.260035,548700
2018-02-02,18.760000,18.770000,18.059999,18.260000,17.669752,658300
2018-02-05,18.110001,18.600000,17.790001,18.280001,17.689104,1063300
2018-02-06,18.040001,18.299999,17.820000,18.090000,17.505245,1037300
2018-02-07,18.030001,18.270000,17.980000,18.209999,17.621367,1014700
2018-02-08,18.240000,18.510000,17.799999,17.940001,17.360096,1133300
2018-02-09,18.080000,18.290001,17.389999,17.780001,17.205267,514600
2018-02-12,17.820000,18.160000,17.639999,17.969999,17.389126,515100
2018-02-13,17.879999,18.160000,17.780001,18.090000,17.505245,823200
2018-02-14,17.980000,18.660000,17.850000,18.510000,17.911667,896000
2018-02-15,18.629999,18.629999,18.120001,18.250000,17.660072,804500
2018-02-16,18.209999,18.459999,18.129999,18.180000,17.592335,857900
2018-02-20,18.200001,20.990000,17.650000,20.540001,19.876053,2376600
2018-02-21,20.639999,20.900000,20.080000,20.420000,19.759928,1650900
2018-02-22,20.379999,20.500000,19.389999,19.799999,19.159971,1070100
2018-02-23,19.969999,20.070000,19.639999,20.040001,19.392214,1122700
2018-02-26,19.980000,20.100000,19.770000,20.020000,19.372860,717900
2018-02-27,20.049999,20.799999,19.930000,20.730000,20.059908,1031400
2018-02-28,20.700001,20.870001,20.340000,20.370001,19.711546,1278000
2018-03-01,20.340000,20.490000,19.980000,20.219999,19.566395,746500
2018-03-02,20.080000,21.450001,19.900000,21.370001,20.679220,1356800
2018-03-05,21.100000,21.290001,20.250000,20.379999,19.721222,1265400
2018-03-06,20.340000,20.620001,19.700001,20.110001,19.459949,881700
2018-03-07,20.020000,20.240000,19.629999,19.670000,19.034174,746600
2018-03-08,19.650000,19.850000,19.280001,19.389999,18.763222,481200
2018-03-09,19.420000,19.990000,19.180000,19.920000,19.276091,622600
2018-03-12,19.950001,20.200001,19.440001,19.610001,18.976114,1016300
2018-03-13,19.750000,20.250000,19.750000,20.100000,19.450274,609500
2018-03-14,20.180000,20.260000,19.559999,19.590000,18.956760,1250600
2018-03-15,19.530001,20.290001,19.219999,20.059999,19.481176,1658500
2018-03-16,20.090000,20.610001,20.020000,20.430000,19.840500,1558800
2018-03-19,20.400000,20.430000,19.680000,19.959999,19.384064,630500
2018-03-20,20.040001,20.530001,20.010000,20.440001,19.850214,555800
2018-03-21,20.520000,21.160000,20.270000,20.830000,20.228960,815000
2018-03-22,20.770000,20.820000,19.950001,19.950001,19.374353,680800
2018-03-23,19.980000,20.180000,19.309999,19.320000,18.762529,420200
2018-03-26,19.490000,19.690001,19.240000,19.469999,18.908201,915000
2018-03-27,20.260000,21.559999,20.139999,21.129999,20.520300,2044200
2018-03-28,21.090000,22.070000,21.000000,21.370001,20.753380,2128700
2018-03-29,21.420000,21.879999,21.260000,21.469999,20.850491,1202600
2018-04-02,21.450001,21.620001,20.629999,20.719999,20.122133,623200
2018-04-03,20.820000,21.000000,20.520000,20.900000,20.296940,691800
2018-04-04,20.730000,20.980000,20.370001,20.959999,20.355206,572800
2018-04-05,21.139999,21.780001,21.000000,21.680000,21.054432,954900
2018-04-06,21.600000,22.230000,21.049999,21.330000,20.714531,570500
2018-04-09,21.450001,21.490000,20.700001,20.790001,20.190117,758400
2018-04-10,21.070000,21.370001,20.790001,21.010000,20.403763,1345900
2018-04-11,20.980000,21.120001,20.620001,20.680000,20.083286,536600
2018-04-12,20.719999,20.930000,20.559999,20.750000,20.151266,322100
2018-04-13,20.850000,20.969999,20.639999,20.820000,20.219248,885500
2018-04-16,21.000000,21.320000,20.780001,21.230000,20.617416,1424600
2018-04-17,21.410000,22.400000,21.379999,22.309999,21.666254,1067500
2018-04-18,22.500000,22.959999,22.160000,22.299999,21.656544,1556100
2018-04-19,22.299999,22.350000,21.680000,21.930000,21.297218,490900
2018-04-20,21.870001,22.260000,21.690001,22.070000,21.433178,1305700
2018-04-23,22.120001,22.379999,21.990000,22.299999,21.656544,413500
2018-04-24,22.379999,22.450001,21.400000,21.719999,21.093277,1012600
2018-04-25,21.750000,21.969999,21.540001,21.600000,20.976742,355800
2018-04-26,21.700001,21.700001,21.030001,21.299999,20.685396,1141500
2018-04-27,21.400000,21.620001,20.969999,21.580000,20.957317,898700
2018-04-30,21.680000,21.830000,21.379999,21.400000,20.782513,878100
2018-05-01,21.459999,21.459999,20.070000,20.830000,20.228960,813300
2018-05-02,20.790001,21.070000,20.620001,20.719999,20.122133,1616300
2018-05-03,20.660000,20.660000,19.770000,19.780001,19.209255,778200
2018-05-04,19.780001,20.860001,19.660000,20.250000,19.665693,1021800
2018-05-07,20.219999,20.600000,19.980000,20.290001,19.704540,755300
2018-05-08,19.900000,19.900000,17.790001,18.490000,17.956478,1737700
2018-05-09,18.740000,19.650000,18.700001,19.330000,18.772240,1201400
2018-05-10,19.420000,19.770000,19.040001,19.620001,19.053871,972100
2018-05-11,19.700001,19.700001,18.959999,19.209999,18.655703,555700
2018-05-14,19.260000,19.530001,19.200001,19.209999,18.655703,872200
2018-05-15,19.160000,19.230000,18.660000,19.030001,18.480896,811200
2018-05-16,19.090000,19.510000,19.030001,19.150000,18.597433,751000
2018-05-17,19.150000,19.670000,19.090000,19.549999,18.985891,778400
2018-05-18,19.639999,19.719999,19.190001,19.290001,18.733397,641600
2018-05-21,19.280001,19.330000,18.920000,19.030001,18.480896,1259400
2018-05-22,18.969999,19.180000,18.240000,18.260000,17.733116,752300
2018-05-23,18.139999,18.290001,17.860001,17.980000,17.461195,1010800
2018-05-24,17.959999,18.360001,17.660000,18.309999,17.781672,855400
2018-05-25,18.150000,18.270000,17.850000,18.230000,17.703979,1354100
2018-05-29,18.030001,18.379999,17.730000,17.850000,17.334946,1238800
2018-05-30,17.850000,18.040001,17.840000,17.910000,17.393215,470300
2018-05-31,17.889999,18.010000,17.559999,17.910000,17.393215,679000
2018-06-01,17.980000,18.049999,17.690001,17.879999,17.364079,724900
2018-06-04,17.950001,18.120001,17.900000,17.990000,17.470907,891100
2018-06-05,18.020000,18.240000,17.850000,18.170000,17.645710,549900
2018-06-06,18.240000,18.469999,18.219999,18.299999,17.771959,533500
2018-06-07,18.330000,18.389999,18.000000,18.299999,17.771959,448600
2018-06-08,18.250000,18.760000,18.110001,18.580000,18.043882,525200
2018-06-11,18.559999,18.730000,18.139999,18.200001,17.674845,513300
2018-06-12,18.280001,18.299999,17.730000,18.000000,17.480618,571700
2018-06-13,17.980000,17.980000,17.230000,17.260000,16.761971,768100
2018-06-14,17.180000,17.309999,16.500000,16.950001,16.527946,1006600
2018-06-15,16.920000,17.200001,16.799999,17.020000,16.596203,841700
2018-06-18,16.950001,17.070000,16.830000,16.980000,16.557199,552300
2018-06-19,17.030001,17.209999,16.480000,16.610001,16.196411,1128100
2018-06-20,16.610001,16.719999,16.350000,16.530001,16.118404,682400
2018-06-21,16.469999,16.580000,15.980000,16.100000,15.699111,1457800
2018-06-22,16.260000,16.469999,16.160000,16.410000,16.001392,1012800
2018-06-25,16.260000,16.270000,15.870000,16.190001,15.786870,1118600
2018-06-26,16.230000,16.410000,16.150000,16.340000,15.933134,559100
2018-06-27,16.350000,16.700001,16.330000,16.620001,16.206163,716400
2018-06-28,16.570000,16.840000,16.370001,16.770000,16.352428,728000
2018-06-29,16.780001,17.190001,16.680000,17.090000,16.664459,588000
2018-07-02,17.059999,17.190001,16.840000,17.160000,16.732716,539900
2018-07-03,17.190001,17.459999,17.020000,17.190001,16.761971,594400
2018-07-05,17.290001,17.410000,17.049999,17.370001,16.937489,443800
2018-07-06,17.309999,17.730000,17.160000,17.639999,17.200764,703600
2018-07-09,17.760000,18.260000,17.629999,17.990000,17.542049,954300
2018-07-10,18.049999,18.209999,17.799999,17.870001,17.425037,445800
2018-07-11,17.750000,17.850000,17.580000,17.590000,17.152010,426500
2018-07-12,18.100000,18.170000,17.660000,17.790001,17.347033,609000
2018-07-13,17.760000,17.959999,17.559999,17.620001,17.181263,380200
2018-07-16,17.660000,17.969999,17.520000,17.860001,17.415287,834000
2018-07-17,17.820000,18.360001,17.780001,18.240000,17.785824,1288100
2018-07-18,18.270000,18.799999,18.270000,18.520000,18.058855,410000
2018-07-19,18.450001,18.700001,18.160000,18.520000,18.058855,1620000
2018-07-20,18.450001,18.450001,16.990000,17.080000,16.654709,773400
2018-07-23,17.040001,17.120001,16.860001,17.010000,16.586452,687900
2018-07-24,17.040001,17.160000,16.850000,16.930000,16.508446,1269400
2018-07-25,16.950001,17.270000,16.830000,17.230000,16.800974,581700
2018-07-26,17.230000,17.570000,17.230000,17.520000,17.083755,382100
2018-07-27,17.549999,17.590000,17.170000,17.280001,16.849731,311100
2018-07-30,17.270000,17.730000,17.270000,17.559999,17.122757,791300
2018-07-31,17.580000,18.120001,17.490000,18.040001,17.590805,323900
2018-08-01,18.059999,18.139999,17.510000,17.719999,17.278770,798900
2018-08-02,17.670000,17.990000,17.410000,17.910000,17.464043,1818400
2018-08-03,19.219999,19.870001,18.889999,19.740000,19.248474,1335800
2018-08-06,19.920000,20.629999,19.750000,20.410000,19.901793,1646600
2018-08-07,20.410000,20.690001,20.230000,20.309999,19.804281,1298800
2018-08-08,20.370001,20.790001,20.320000,20.480000,19.970049,790500
2018-08-09,20.469999,20.670000,20.100000,20.250000,19.745775,821300
2018-08-10,20.190001,20.360001,19.969999,20.299999,19.794531,455900
2018-08-13,20.270000,20.389999,19.950001,20.209999,19.706770,385300
2018-08-14,20.290001,20.520000,20.230000,20.420000,19.911543,480100
2018-08-15,20.340000,20.400000,19.969999,20.190001,19.687269,403000
2018-08-16,20.320000,20.469999,20.139999,20.299999,19.794531,443000
2018-08-17,20.230000,21.190001,20.170000,20.889999,20.369837,1650500
2018-08-20,20.930000,21.270000,20.700001,21.139999,20.613615,765800
2018-08-21,21.209999,21.590000,21.020000,21.370001,20.837889,807500
2018-08-22,21.360001,21.400000,20.950001,21.090000,20.564859,576200
2018-08-23,21.120001,21.139999,20.820000,20.910000,20.389341,341500
2018-08-24,21.059999,21.110001,20.860001,21.030001,20.506353,364500
2018-08-27,21.070000,21.570000,21.070000,21.340000,20.808634,715300
2018-08-28,21.370001,21.520000,21.180000,21.240000,20.711124,577300
2018-08-29,21.190001,21.230000,20.940001,21.120001,20.594114,455900
2018-08-30,21.059999,21.070000,20.459999,20.809999,20.291832,347000
2018-08-31,20.719999,21.020000,20.620001,20.900000,20.379591,381100
2018-09-04,20.820000,20.860001,20.410000,20.530001,20.018806,1240600
2018-09-05,20.530001,21.240000,20.510000,21.170000,20.642868,845800
2018-09-06,21.100000,21.389999,20.889999,21.350000,20.818386,758500
2018-09-07,21.320000,21.320000,20.639999,20.740000,20.223574,745800
2018-09-10,21.000000,21.180000,20.670000,21.160000,20.633116,489000
2018-09-11,21.160000,21.549999,20.990000,21.379999,20.847639,390600
2018-09-12,21.400000,21.730000,21.340000,21.540001,21.003656,517000
2018-09-13,21.690001,22.070000,21.600000,21.670000,21.199312,500300
2018-09-14,21.760000,21.879999,21.410000,21.549999,21.081917,628500
2018-09-17,21.639999,21.870001,21.400000,21.440001,20.974306,913100
2018-09-18,21.510000,21.639999,21.160000,21.230000,20.768867,347200
2018-09-19,21.280001,21.469999,21.190001,21.379999,20.915609,417300
2018-09-20,21.540001,21.570000,21.020000,21.059999,20.602558,388400
2018-09-21,21.020000,21.080000,20.590000,20.719999,20.269945,1726900
2018-09-24,20.820000,20.959999,20.549999,20.740000,20.289511,669800
2018-09-25,20.780001,21.090000,20.709999,20.790001,20.338427,810000
2018-09-26,20.799999,20.940001,20.629999,20.639999,20.191681,446600
2018-09-27,20.610001,20.650000,19.660000,19.680000,19.252535,1227500
2018-09-28,19.610001,19.629999,18.350000,18.430000,18.029686,1217700
2018-10-01,18.580000,18.680000,17.780001,18.020000,17.628592,1414700
2018-10-02,18.010000,18.350000,17.650000,18.260000,17.863380,1043300
2018-10-03,18.350000,18.360001,17.530001,18.049999,17.657940,619400
2018-10-04,17.950001,18.049999,17.740000,17.889999,17.501413,715400
2018-10-05,17.910000,17.920000,17.370001,17.629999,17.247061,502000
2018-10-08,17.549999,17.650000,17.379999,17.559999,17.178583,767600
2018-10-09,17.410000,17.559999,16.709999,16.850000,16.484005,701500
2018-10-10,16.860001,16.860001,16.080000,16.100000,15.750296,724700
2018-10-11,15.910000,16.150000,15.320000,15.470000,15.133980,1244900
2018-10-12,15.650000,15.750000,14.460000,14.630000,14.312225,984200
2018-10-15,14.500000,14.620000,13.950000,14.240000,13.930695,1631100
2018-10-16,14.300000,14.760000,13.820000,14.650000,14.331790,2005700
2018-10-17,14.600000,14.750000,13.760000,13.990000,13.686126,1508600
2018-10-18,13.930000,13.980000,13.350000,13.420000,13.128508,568200
2018-10-19,13.360000,13.570000,13.200000,13.260000,12.971983,589900
2018-10-22,13.280000,13.320000,12.930000,12.930000,12.649151,798900
2018-10-23,12.710000,13.020000,12.520000,12.920000,12.639367,1132100
2018-10-24,12.910000,12.950000,11.920000,11.980000,11.719785,1477000
2018-10-25,12.070000,12.520000,12.010000,12.290000,12.023051,1049100
2018-10-26,12.060000,12.350000,11.650000,12.210000,11.944789,563700
2018-10-29,12.430000,12.560000,11.830000,11.960000,11.700219,496000
2018-10-30,11.840000,12.130000,11.710000,12.100000,11.837179,781400
2018-10-31,12.290000,12.470000,12.050000,12.380000,12.111097,1202200
2018-11-01,12.570000,12.990000,12.440000,12.790000,12.512191,697100
2018-11-02,12.900000,13.210000,12.780000,13.000000,12.717630,751500
2018-11-05,13.020000,13.580000,12.900000,13.360000,13.069810,1373300
2018-11-06,12.050000,13.990000,11.750000,13.780000,13.480687,1724800
2018-11-07,13.690000,14.350000,13.430000,14.300000,13.989393,950100
2018-11-08,14.120000,14.230000,13.620000,13.700000,13.402426,1045700
2018-11-09,13.570000,14.040000,13.570000,13.770000,13.470905,1420000
2018-11-12,13.500000,13.960000,13.410000,13.470000,13.177423,1003400
2018-11-13,13.720000,14.300000,13.720000,13.850000,13.549168,1098900
2018-11-14,13.910000,14.210000,13.780000,13.950000,13.646995,604400
2018-11-15,13.830000,14.740000,13.700000,14.510000,14.194832,798400
2018-11-16,14.410000,14.780000,14.210000,14.730000,14.410052,749400
2018-11-19,14.630000,14.920000,14.500000,14.530000,14.214396,690800
2018-11-20,14.280000,14.390000,13.980000,14.310000,13.999175,772400
2018-11-21,14.380000,14.800000,14.380000,14.540000,14.224179,500400
2018-11-23,14.360000,14.560000,14.150000,14.240000,13.930695,200000
2018-11-26,14.400000,15.140000,14.400000,15.090000,14.762234,757000
2018-11-27,14.940000,15.270000,14.800000,14.830000,14.507881,439100
2018-11-28,14.880000,15.110000,14.460000,15.090000,14.762234,543100
2018-11-29,15.050000,15.250000,14.690000,14.910000,14.586143,437900
2018-11-30,14.790000,14.890000,14.450000,14.750000,14.429618,535900
2018-12-03,15.110000,15.300000,14.500000,14.750000,14.429618,1117100
2018-12-04,14.670000,14.670000,13.560000,13.650000,13.353511,538400
2018-12-06,13.390000,14.010000,13.270000,13.820000,13.519817,770900
2018-12-07,13.880000,14.310000,13.450000,13.520000,13.226335,699100
2018-12-10,13.300000,13.530000,12.890000,13.190000,12.903503,1296800
2018-12-11,13.400000,13.400000,11.700000,11.790000,11.533912,1191900
2018-12-12,11.890000,12.080000,11.710000,11.840000,11.582827,949000
2018-12-13,11.920000,12.000000,11.420000,11.510000,11.259994,1031500
2018-12-14,11.310000,11.710000,11.200000,11.550000,11.368263,552300
2018-12-17,11.510000,11.680000,10.860000,10.950000,10.777703,786000
2018-12-18,11.000000,11.210000,10.810000,10.940000,10.767860,844500
2018-12-19,10.980000,11.470000,10.780000,10.890000,10.718648,1425600
2018-12-20,10.900000,11.090000,10.330000,10.520000,10.354469,695200
2018-12-21,10.520000,10.680000,10.040000,10.050000,9.891866,1967200
2018-12-24,9.970000,10.190000,9.810000,9.880000,9.724540,396600
2018-12-26,9.900000,10.360000,9.450000,10.340000,10.177302,621800
2018-12-27,10.140000,10.620000,10.040000,10.620000,10.452896,437300
2018-12-28,10.630000,10.800000,10.030000,10.220000,10.059190,583700
2018-12-31,10.240000,10.740000,10.230000,10.650000,10.482424,616400
2019-01-02,10.300000,10.860000,10.100000,10.830000,10.659592,540300
2019-01-03,10.730000,10.970000,10.450000,10.730000,10.561165,487400
2019-01-04,10.890000,11.660000,10.890000,11.530000,11.348577,467400
2019-01-07,11.540000,12.350000,11.440000,12.040000,11.850553,689900
2019-01-08,12.100000,12.230000,11.980000,12.150000,11.958821,431600
2019-01-09,12.190000,12.420000,12.140000,12.380000,12.185203,367200
2019-01-10,12.370000,12.770000,12.240000,12.660000,12.460796,291200
2019-01-11,12.580000,13.510000,12.450000,13.240000,13.031671,677500
2019-01-14,13.140000,13.490000,12.980000,13.270000,13.061199,774400
2019-01-15,13.170000,13.230000,12.850000,13.030000,12.824974,312800
2019-01-16,13.100000,13.310000,13.000000,13.090000,12.884031,303300
2019-01-17,13.050000,13.470000,13.050000,13.410000,13.198996,295900
2019-01-18,13.430000,13.650000,13.370000,13.440000,13.228523,618500
2019-01-22,13.340000,13.420000,13.070000,13.180000,12.972615,345800
2019-01-23,13.280000,13.470000,12.910000,13.020000,12.815132,232600
2019-01-24,13.000000,13.300000,12.970000,13.260000,13.051356,277400
2019-01-25,13.480000,14.600000,13.480000,14.220000,13.996251,554700
2019-01-28,14.030000,14.400000,13.600000,13.700000,13.484432,474100
2019-01-29,13.680000,14.110000,13.610000,13.830000,13.612388,409100
2019-01-30,13.890000,14.280000,13.770000,14.260000,14.035622,246000
2019-01-31,14.130000,14.700000,14.070000,14.480000,14.252159,364400
2019-02-01,14.400000,14.770000,14.360000,14.510000,14.281688,220800
2019-02-04,14.490000,14.670000,14.350000,14.650000,14.419484,207300
2019-02-05,14.670000,14.990000,14.630000,14.700000,14.468698,221400
2019-02-06,14.650000,15.080000,14.590000,14.740000,14.508068,526500
2019-02-07,14.610000,14.820000,14.370000,14.520000,14.291531,299500
2019-02-08,14.360000,14.540000,14.220000,14.360000,14.134048,358700
2019-02-11,14.330000,14.560000,13.920000,14.070000,13.848611,437200
2019-02-12,14.170000,14.640000,14.100000,14.630000,14.399799,550900
2019-02-13,14.710000,15.370000,14.710000,14.970000,14.734450,491000
2019-02-14,13.150000,15.220000,13.150000,13.750000,13.533646,1496700
2019-02-15,13.990000,14.460000,13.920000,14.090000,13.868296,1429400
2019-02-19,14.000000,15.050000,13.980000,14.960000,14.724607,691600
2019-02-20,14.940000,15.540000,14.810000,15.310000,15.069099,456300
2019-02-21,15.320000,15.400000,14.730000,15.020000,14.783663,391800
2019-02-22,15.120000,15.250000,14.550000,14.980000,14.744292,825300
2019-02-25,15.080000,15.580000,14.910000,15.040000,14.803349,1098200
2019-02-26,15.050000,15.110000,14.540000,14.550000,14.321058,296400
2019-02-27,14.490000,14.730000,14.330000,14.700000,14.468698,279000
2019-02-28,14.510000,14.700000,13.980000,14.090000,13.868296,421200
2019-03-01,14.170000,14.490000,14.030000,14.100000,13.878139,329700
2019-03-04,14.120000,14.480000,13.910000,14.120000,13.897824,1108200
2019-03-05,14.130000,14.360000,13.880000,14.010000,13.789555,535900
2019-03-06,14.010000,14.010000,13.490000,13.670000,13.454905,640000
2019-03-07,13.750000,13.750000,12.440000,12.620000,12.421427,941400
2019-03-08,12.520000,12.870000,12.440000,12.620000,12.421427,656900
2019-03-11,12.670000,13.080000,12.550000,13.060000,12.854504,823600
2019-03-12,13.080000,13.450000,12.870000,13.010000,12.805290,774300
2019-03-13,13.070000,13.230000,12.760000,13.140000,12.933245,704100
2019-03-14,13.080000,13.190000,12.630000,12.810000,12.675964,606600
2019-03-15,12.800000,13.090000,12.640000,12.710000,12.577011,939600
2019-03-18,12.710000,13.260000,12.610000,13.210000,13.071779,655500
2019-03-19,13.300000,13.510000,13.210000,13.270000,13.131152,719400
2019-03-20,13.180000,13.400000,12.910000,13.130000,12.992617,1430600
2019-03-21,13.080000,13.760000,12.940000,13.620000,13.477489,1036400
2019-03-22,13.470000,13.550000,12.530000,12.670000,12.537430,508900
2019-03-25,12.640000,12.870000,12.390000,12.520000,12.388999,297200
2019-03-26,12.640000,12.740000,12.440000,12.580000,12.448371,456600
2019-03-27,12.530000,12.960000,12.450000,12.780000,12.646278,345200
2019-03-28,12.800000,13.520000,12.800000,13.440000,13.299372,322200
2019-03-29,13.520000,13.800000,13.390000,13.560000,13.418118,585000
2019-04-01,13.660000,14.140000,13.660000,14.070000,13.922780,325200
2019-04-02,14.110000,14.310000,13.890000,14.250000,14.100897,520900
2019-04-03,14.310000,14.600000,14.270000,14.560000,14.407654,544900
2019-04-04,14.560000,14.720000,14.350000,14.560000,14.407654,525800
2019-04-05,14.510000,14.610000,14.230000,14.530000,14.377967,564600
2019-04-08,14.490000,14.720000,14.330000,14.660000,14.506607,413600
2019-04-09,14.610000,14.620000,14.080000,14.150000,14.001944,668300
2019-04-10,14.250000,14.540000,14.130000,14.420000,14.269118,472600
2019-04-11,14.470000,14.750000,14.260000,14.720000,14.565980,262000
2019-04-12,14.910000,15.390000,14.910000,15.160000,15.001375,924500
2019-04-15,15.240000,15.350000,14.980000,15.120000,14.961794,251200
2019-04-16,15.180000,15.570000,15.000000,15.510000,15.347713,518500
2019-04-17,15.610000,15.630000,15.170000,15.290000,15.130015,485700
2019-04-18,15.340000,15.410000,15.010000,15.030000,14.872735,323000
2019-04-22,14.980000,15.000000,14.530000,14.620000,14.467026,371400
2019-04-23,14.620000,15.660000,14.620000,15.490000,15.327923,827200
2019-04-24,15.460000,15.480000,14.980000,15.170000,15.011271,250400
2019-04-25,15.020000,15.170000,14.580000,14.810000,14.655038,402600
2019-04-26,14.860000,15.130000,14.720000,15.090000,14.932108,265800
2019-04-29,15.150000,15.390000,15.010000,15.220000,15.060748,725500
2019-04-30,15.180000,15.280000,14.760000,14.840000,14.684724,685800
2019-05-01,14.880000,14.990000,14.620000,14.650000,14.496712,613200
2019-05-02,14.530000,14.780000,14.340000,14.630000,14.476921,467000
2019-05-03,14.730000,15.290000,14.730000,15.230000,15.070642,488300
2019-05-06,14.840000,15.060000,14.770000,14.920000,14.763886,430400
2019-05-07,14.640000,14.730000,14.130000,14.280000,14.130583,689000
2019-05-08,14.140000,14.460000,13.880000,13.950000,13.804036,495200
2019-05-09,12.300000,12.550000,9.230000,9.250000,9.153214,6079500
2019-05-10,9.260000,9.470000,9.130000,9.170000,9.074051,2869700
2019-05-13,9.010000,9.090000,8.250000,8.570000,8.480329,2101100
2019-05-14,8.540000,9.270000,8.510000,9.220000,9.123528,1394500
2019-05-15,9.150000,9.210000,8.660000,8.660000,8.569387,1338400
2019-05-16,8.700000,8.850000,8.380000,8.440000,8.351688,1542800
2019-05-17,8.310000,8.420000,8.040000,8.100000,8.015247,1114300
2019-05-20,8.030000,8.130000,7.730000,7.810000,7.728281,1371100
2019-05-21,7.840000,7.940000,7.700000,7.920000,7.837130,1053900
2019-05-22,7.860000,7.920000,7.450000,7.450000,7.372048,1072600
2019-05-23,7.300000,7.500000,7.070000,7.190000,7.114769,1061800
2019-05-24,7.260000,7.360000,7.000000,7.030000,6.956443,607900
2019-05-28,7.040000,7.110000,6.830000,6.840000,6.768431,825700
2019-05-29,6.780000,6.790000,6.570000,6.690000,6.620000,1396800
2019-05-30,6.680000,6.790000,6.450000,6.510000,6.441884,699700
2019-05-31,6.370000,6.560000,6.180000,6.530000,6.461675,1373400
2019-06-03,6.500000,6.910000,6.460000,6.750000,6.679372,2022700
2019-06-04,6.870000,7.290000,6.790000,7.260000,7.184036,1277000
2019-06-05,7.330000,7.340000,6.670000,6.800000,6.728849,789500
2019-06-06,6.770000,6.870000,6.460000,6.580000,6.511151,739700
2019-06-07,6.660000,6.890000,6.580000,6.720000,6.649686,766200
2019-06-10,6.800000,6.850000,6.440000,6.560000,6.491360,815900
2019-06-11,6.620000,6.740000,6.470000,6.500000,6.431988,614200
2019-06-12,6.520000,6.740000,6.370000,6.690000,6.620000,673900
2019-06-13,6.720000,6.830000,6.590000,6.800000,6.800000,659300
2019-06-14,6.760000,6.860000,6.480000,6.490000,6.490000,455200
2019-06-17,6.520000,6.530000,6.230000,6.440000,6.440000,730900
2019-06-18,6.530000,6.730000,6.440000,6.590000,6.590000,1802100
2019-06-19,6.620000,6.650000,6.460000,6.550000,6.550000,725200
2019-06-20,6.680000,6.870000,6.570000,6.830000,6.830000,1013000
2019-06-21,6.790000,6.850000,6.490000,6.680000,6.680000,1489400
2019-06-24,6.610000,6.650000,6.310000,6.320000,6.320000,1017600
2019-06-25,6.300000,6.350000,6.010000,6.090000,6.090000,1366900
2019-06-26,6.150000,6.330000,6.090000,6.150000,6.150000,368000
2019-06-27,6.150000,6.220000,6.020000,6.210000,6.210000,546000
2019-06-28,6.250000,6.520000,6.230000,6.490000,6.490000,945900
2019-07-01,6.620000,6.810000,6.320000,6.430000,6.430000,835800
2019-07-02,6.410000,6.410000,6.170000,6.230000,6.230000,598200
2019-07-03,6.270000,6.280000,5.970000,6.080000,6.080000,353100
2019-07-05,6.070000,6.200000,5.930000,6.180000,6.180000,1133800
2019-07-08,6.120000,6.150000,5.660000,5.750000,5.750000,912500
2019-07-09,5.670000,5.710000,5.250000,5.400000,5.400000,1736200
2019-07-10,5.420000,5.560000,5.250000,5.280000,5.280000,881400
2019-07-11,5.280000,5.560000,4.970000,5.510000,5.510000,2398300
2019-07-12,5.500000,5.570000,5.170000,5.430000,5.430000,1119600
2019-07-15,5.440000,5.710000,5.000000,5.150000,5.150000,1428200
2019-07-16,5.140000,5.240000,5.040000,5.060000,5.060000,1500000
2019-07-17,5.080000,5.140000,4.950000,4.970000,4.970000,1114200
2019-07-18,4.950000,4.990000,4.450000,4.600000,4.600000,1567700
2019-07-19,4.620000,5.610000,4.620000,5.040000,5.040000,2967600
2019-07-22,5.080000,5.170000,4.720000,4.820000,4.820000,1232400
2019-07-23,4.880000,5.290000,4.880000,5.000000,5.000000,1481700
2019-07-24,4.990000,5.220000,4.860000,4.990000,4.990000,1063600
2019-07-25,4.960000,5.060000,4.820000,4.880000,4.880000,977300
2019-07-26,4.910000,4.970000,4.600000,4.690000,4.690000,1009000
2019-07-29,4.700000,4.830000,4.600000,4.610000,4.610000,881000
2019-07-30,4.600000,4.940000,4.500000,4.820000,4.820000,1154300
2019-07-31,4.840000,4.980000,4.600000,4.650000,4.650000,1662400
2019-08-01,5.210000,5.700000,4.920000,4.990000,4.990000,2725600
2019-08-02,4.950000,5.010000,4.760000,4.850000,4.850000,1149500
2019-08-05,4.750000,4.980000,4.710000,4.890000,4.890000,1438500
2019-08-06,4.920000,5.030000,4.850000,4.970000,4.970000,1873900
2019-08-07,4.820000,5.120000,4.680000,5.000000,5.000000,1294000
2019-08-08,3.000000,3.500000,2.810000,2.970000,2.970000,5095500
2019-08-09,3.030000,3.370000,2.820000,2.870000,2.870000,3020800
2019-08-12,2.920000,2.960000,2.700000,2.900000,2.900000,1817500
2019-08-13,2.910000,3.130000,2.830000,3.060000,3.060000,1003000
2019-08-14,2.980000,2.980000,2.710000,2.730000,2.730000,1138300
2019-08-15,2.790000,2.800000,2.500000,2.530000,2.530000,1353500
2019-08-16,2.570000,2.950000,2.570000,2.840000,2.840000,2216600
2019-08-19,2.890000,3.050000,2.890000,3.020000,3.020000,865500
2019-08-20,3.080000,3.100000,2.960000,2.990000,2.990000,880700
2019-08-21,3.000000,3.040000,2.930000,2.990000,2.990000,993900
2019-08-22,3.000000,3.070000,2.860000,2.870000,2.870000,1312600
2019-08-23,2.810000,2.930000,2.780000,2.890000,2.890000,1044500
2019-08-26,2.900000,3.010000,2.840000,2.960000,2.960000,553000
2019-08-27,2.990000,3.080000,2.890000,3.020000,3.020000,598600
2019-08-28,2.990000,3.240000,2.980000,3.150000,3.150000,805900
2019-08-29,3.220000,3.610000,3.160000,3.540000,3.540000,1001100
2019-08-30,3.600000,3.620000,3.350000,3.510000,3.510000,947000
2019-09-03,3.460000,3.460000,3.100000,3.160000,3.160000,806300
2019-09-04,3.180000,3.510000,3.150000,3.480000,3.480000,648800
2019-09-05,3.470000,3.820000,3.470000,3.780000,3.780000,1057300
2019-09-06,3.760000,3.890000,3.680000,3.840000,3.840000,862200
2019-09-09,3.200000,4.030000,3.160000,3.960000,3.960000,1503400
2019-09-10,3.980000,4.260000,3.930000,4.250000,4.250000,1325000
2019-09-11,4.300000,4.900000,4.270000,4.860000,4.860000,2029600
2019-09-12,4.870000,4.970000,4.350000,4.450000,4.450000,1423700
2019-09-13,4.550000,4.630000,4.400000,4.410000,4.410000,1008500
2019-09-16,4.450000,4.530000,4.370000,4.400000,4.400000,639200
2019-09-17,4.400000,4.460000,4.160000,4.220000,4.220000,390600
2019-09-18,4.240000,4.290000,4.080000,4.180000,4.180000,533600
2019-09-19,4.170000,4.230000,4.020000,4.090000,4.090000,696300
2019-09-20,4.090000,4.110000,3.970000,4.090000,4.090000,1315100
2019-09-23,4.000000,4.190000,3.940000,4.150000,4.150000,732500
2019-09-24,4.140000,4.140000,3.960000,3.980000,3.980000,731000
2019-09-25,3.920000,4.190000,3.920000,4.140000,4.140000,435200
2019-09-26,4.160000,4.160000,3.930000,4.080000,4.080000,348600
2019-09-27,4.070000,4.390000,4.070000,4.390000,4.390000,623600
2019-09-30,4.400000,4.410000,4.220000,4.330000,4.330000,349600
2019-10-01,4.370000,4.970000,4.350000,4.510000,4.510000,1764900
2019-10-02,4.420000,4.470000,4.070000,4.440000,4.440000,883500
2019-10-03,4.440000,4.520000,4.290000,4.500000,4.500000,453700
2019-10-04,4.540000,4.590000,4.350000,4.410000,4.410000,454500
2019-10-07,4.410000,4.480000,4.280000,4.360000,4.360000,580100
2019-10-08,4.300000,4.300000,4.060000,4.070000,4.070000,523700
2019-10-09,4.120000,4.180000,4.070000,4.130000,4.130000,414200
2019-10-10,4.170000,4.520000,4.150000,4.480000,4.480000,852400
2019-10-11,4.570000,4.830000,4.570000,4.620000,4.620000,643200
2019-10-14,4.570000,4.610000,4.410000,4.510000,4.510000,430400
2019-10-15,4.500000,4.730000,4.410000,4.700000,4.700000,341800
2019-10-16,4.470000,4.530000,4.230000,4.300000,4.300000,897700
2019-10-17,4.290000,4.360000,4.100000,4.310000,4.310000,664800
2019-10-18,4.270000,4.300000,4.000000,4.020000,4.020000,598800
2019-10-21,4.060000,4.340000,4.060000,4.220000,4.220000,843900
2019-10-22,4.240000,4.570000,4.170000,4.510000,4.510000,452100
2019-10-23,4.520000,4.580000,4.420000,4.530000,4.530000,309400
2019-10-24,4.520000,4.590000,4.400000,4.490000,4.490000,204300
2019-10-25,4.470000,4.650000,4.390000,4.470000,4.470000,588300
2019-10-28,4.500000,4.580000,4.180000,4.260000,4.260000,677400
2019-10-29,4.260000,4.270000,4.080000,4.150000,4.150000,472800
2019-10-30,4.130000,4.250000,4.110000,4.240000,4.240000,330300
2019-10-31,4.230000,4.300000,4.120000,4.170000,4.170000,379700
2019-11-01,4.230000,4.500000,4.230000,4.310000,4.310000,528800
2019-11-04,4.380000,4.510000,4.260000,4.380000,4.380000,627100
2019-11-05,4.020000,4.110000,3.020000,3.510000,3.510000,3966600
2019-11-06,3.620000,4.030000,3.440000,4.010000,4.010000,2770500
2019-11-07,4.000000,4.030000,3.690000,3.830000,3.830000,1182300
2019-11-08,3.970000,4.780000,3.970000,4.350000,4.350000,1999700
2019-11-11,4.310000,4.470000,4.100000,4.390000,4.390000,742400
2019-11-12,4.390000,4.510000,4.250000,4.460000,4.460000,577200
2019-11-13,4.400000,4.420000,4.100000,4.110000,4.110000,439000
2019-11-14,4.100000,4.290000,4.040000,4.170000,4.170000,497700
2019-11-15,4.220000,4.260000,3.930000,3.980000,3.980000,577500
2019-11-18,3.960000,4.010000,3.770000,3.940000,3.940000,684900
2019-11-19,3.950000,4.000000,3.640000,3.690000,3.690000,616500
2019-11-20,3.660000,3.940000,3.590000,3.600000,3.600000,502200
2019-11-21,3.610000,3.630000,3.410000,3.480000,3.480000,423700
2019-11-22,3.530000,3.550000,3.450000,3.510000,3.510000,291000
2019-11-25,3.530000,3.910000,3.480000,3.850000,3.850000,442000
2019-11-26,3.820000,3.920000,3.740000,3.870000,3.870000,630800
2019-11-27,3.880000,3.970000,3.820000,3.860000,3.860000,540400
2019-11-29,3.820000,3.990000,3.770000,3.920000,3.920000,163100
2019-12-02,3.900000,3.960000,3.710000,3.790000,3.790000,374400
2019-12-03,3.700000,3.820000,3.580000,3.810000,3.810000,311000
2019-12-04,3.820000,4.010000,3.820000,3.930000,3.930000,704400
2019-12-05,3.950000,4.020000,3.800000,3.800000,3.800000,733800
2019-12-06,3.830000,4.010000,3.830000,3.830000,3.830000,507200
2019-12-09,3.810000,3.930000,3.720000,3.850000,3.850000,714300
2019-12-10,3.880000,3.950000,3.690000,3.770000,3.770000,476500
2019-12-11,3.780000,3.860000,3.700000,3.790000,3.790000,263300
2019-12-12,3.740000,4.050000,3.740000,3.950000,3.950000,483100
2019-12-13,3.950000,4.070000,3.900000,3.970000,3.970000,753000
2019-12-16,4.020000,4.500000,3.960000,3.980000,3.980000,1620500
2019-12-17,4.000000,4.190000,3.910000,4.120000,4.120000,936800
2019-12-18,4.180000,4.230000,4.070000,4.100000,4.100000,758600
2019-12-19,4.140000,4.240000,4.080000,4.200000,4.200000,465400
2019-12-20,4.230000,4.280000,3.980000,4.000000,4.000000,1419100
2019-12-23,4.000000,4.000000,3.670000,3.890000,3.890000,873800
2019-12-24,3.940000,3.980000,3.780000,3.800000,3.800000,289100
2019-12-26,3.820000,3.870000,3.710000,3.750000,3.750000,379500
2019-12-27,3.730000,3.800000,3.660000,3.730000,3.730000,411900
2019-12-30,3.740000,3.850000,3.610000,3.760000,3.760000,626200
2019-12-31,3.740000,3.870000,3.730000,3.840000,3.840000,959500
2020-01-02,3.940000,4.080000,3.920000,4.000000,4.000000,735600
2020-01-03,3.910000,3.990000,3.880000,3.920000,3.920000,473900
2020-01-06,3.860000,4.090000,3.820000,3.990000,3.990000,581800
2020-01-07,3.970000,4.050000,3.830000,3.870000,3.870000,662700
2020-01-08,3.880000,3.890000,3.670000,3.830000,3.830000,591100
2020-01-09,3.820000,3.900000,3.770000,3.860000,3.860000,442800
2020-01-10,3.840000,3.990000,3.790000,3.920000,3.920000,296100
2020-01-13,3.920000,3.930000,3.770000,3.930000,3.930000,206400
2020-01-14,3.930000,3.940000,3.790000,3.810000,3.810000,546400
2020-01-15,3.800000,3.980000,3.780000,3.860000,3.860000,401200
2020-01-16,3.930000,4.050000,3.760000,3.780000,3.780000,549300
2020-01-17,3.820000,3.910000,3.750000,3.900000,3.900000,476200
2020-01-21,3.860000,3.980000,3.810000,3.900000,3.900000,391300
2020-01-22,3.910000,3.920000,3.720000,3.770000,3.770000,325000
2020-01-23,3.740000,3.860000,3.640000,3.810000,3.810000,464700
2020-01-24,3.840000,3.840000,3.670000,3.720000,3.720000,322700
2020-01-27,3.640000,3.640000,3.340000,3.350000,3.350000,798900
2020-01-28,3.380000,3.410000,3.200000,3.360000,3.360000,456300
2020-01-29,3.380000,3.390000,3.110000,3.250000,3.250000,461100
2020-01-30,3.180000,3.200000,3.040000,3.170000,3.170000,375300
2020-01-31,3.150000,3.170000,2.930000,3.080000,3.080000,599700
2020-02-03,3.110000,3.130000,2.880000,2.970000,2.970000,566400
2020-02-04,3.040000,3.210000,2.990000,3.060000,3.060000,426600
2020-02-05,3.120000,3.460000,3.050000,3.210000,3.210000,1301300
2020-02-06,3.270000,3.310000,3.160000,3.240000,3.240000,772600
2020-02-07,3.180000,3.190000,2.930000,2.950000,2.950000,768900
2020-02-10,2.920000,2.940000,2.830000,2.900000,2.900000,511500
2020-02-11,2.940000,2.990000,2.820000,2.910000,2.910000,429700
2020-02-12,2.940000,3.040000,2.920000,2.990000,2.990000,271100
2020-02-13,2.970000,2.980000,2.900000,2.960000,2.960000,192900
2020-02-14,2.960000,3.020000,2.845000,2.870000,2.870000,239761
