Date,Open,High,Low,Close,Adj Close,Volume
2017-09-27,24.120001,27.600000,24.000000,25.900000,25.900000,7604500
2017-09-28,26.270000,27.440001,24.270000,24.950001,24.950001,1952300
2017-09-29,24.750000,28.500000,24.410000,28.500000,28.500000,904000
2017-10-02,28.049999,31.219999,27.400000,31.139999,31.139999,1287500
2017-10-03,31.280001,31.799999,28.600000,29.440001,29.440001,1175800
2017-10-04,29.410000,30.480000,29.010000,29.200001,29.200001,400900
2017-10-05,29.160000,29.740000,26.879999,26.959999,26.959999,615200
2017-10-06,27.700001,29.490000,27.260000,27.940001,27.940001,661600
2017-10-09,27.879999,27.879999,26.610001,26.889999,26.889999,501500
2017-10-10,27.180000,29.299999,26.980000,28.680000,28.680000,605800
2017-10-11,28.730000,28.730000,27.680000,28.400000,28.400000,268500
2017-10-12,28.370001,29.990000,27.680000,29.860001,29.860001,430100
2017-10-13,30.100000,30.500000,29.150000,29.900000,29.900000,313100
2017-10-16,30.000000,31.120001,29.120001,30.920000,30.920000,390900
2017-10-17,30.700001,30.700001,28.559999,28.650000,28.650000,442600
2017-10-18,28.790001,28.950001,27.160000,27.299999,27.299999,915000
2017-10-19,27.010000,27.500000,25.799999,27.370001,27.370001,1177300
2017-10-20,27.500000,27.674000,26.500000,27.370001,27.370001,374300
2017-10-23,27.490000,27.490000,25.959999,26.010000,26.010000,657500
2017-10-24,26.139999,27.129999,25.000000,26.000000,26.000000,705600
2017-10-25,26.090000,26.750000,23.230000,23.969999,23.969999,1209000
2017-10-26,23.559999,25.520000,23.330000,25.000000,25.000000,875400
2017-10-27,25.129999,25.490000,23.770000,24.020000,24.020000,551300
2017-10-30,24.000000,25.000000,24.000000,24.750000,24.750000,99600
2017-10-31,24.780001,25.480000,24.410000,25.459999,25.459999,240400
2017-11-01,25.730000,26.400000,25.209999,25.750000,25.750000,192600
2017-11-02,25.610001,26.100000,25.430000,25.590000,25.590000,65300
2017-11-03,25.740000,25.969999,25.420000,25.680000,25.680000,114800
2017-11-06,25.809999,26.459999,25.690001,26.400000,26.400000,186300
2017-11-07,26.309999,26.610001,25.940001,26.459999,26.459999,215000
2017-11-08,26.340000,26.600000,26.020000,26.520000,26.520000,91800
2017-11-09,26.400000,29.799999,26.230000,29.340000,29.340000,708500
2017-11-10,29.340000,30.469999,28.500000,28.570000,28.570000,410900
2017-11-13,28.590000,29.889999,28.590000,29.459999,29.459999,166000
2017-11-14,29.299999,30.500000,29.180000,30.010000,30.010000,222200
2017-11-15,29.809999,29.809999,28.080000,28.129999,28.129999,183700
2017-11-16,28.180000,28.945000,26.930000,26.990000,26.990000,148000
2017-11-17,27.559999,27.559999,26.080000,26.160000,26.160000,228000
2017-11-20,26.590000,27.650000,26.500000,27.190001,27.190001,267800
2017-11-21,27.639999,28.500000,27.500000,27.809999,27.809999,152800
2017-11-22,27.690001,28.080000,26.420000,26.709999,26.709999,76500
2017-11-24,15.620000,17.700001,15.560000,16.450001,16.450001,11438100
2017-11-27,17.820000,18.700001,17.610001,18.000000,18.000000,6402000
2017-11-28,20.559999,22.559999,19.059999,22.200001,22.200001,11141000
2017-11-29,20.200001,21.700001,19.600000,20.330000,20.330000,4483900
2017-11-30,20.500000,20.730000,16.340000,17.700001,17.700001,6981600
2017-12-01,17.250000,19.200001,17.000000,18.299999,18.299999,2780900
2017-12-04,18.570000,18.749001,17.030001,17.770000,17.770000,1240100
2017-12-05,17.639999,18.320000,17.410999,17.910000,17.910000,629400
2017-12-06,17.709999,18.100000,17.240000,17.240000,17.240000,531700
2017-12-07,17.219999,17.430000,17.000000,17.150000,17.150000,550200
2017-12-08,17.270000,17.889999,16.980000,17.840000,17.840000,720500
2017-12-11,17.719999,18.850000,17.719999,18.480000,18.480000,935300
2017-12-12,18.299999,18.580000,17.080000,17.180000,17.180000,1008700
2017-12-13,17.440001,17.680000,17.090000,17.110001,17.110001,616500
2017-12-14,17.139999,17.260000,16.770000,16.930000,16.930000,731500
2017-12-15,16.959999,17.070000,16.620001,16.780001,16.780001,627400
2017-12-18,16.950001,16.990000,16.200001,16.360001,16.360001,813900
2017-12-19,16.360001,16.469999,15.900000,16.129999,16.129999,677200
2017-12-20,16.030001,16.280001,15.600000,15.950000,15.950000,598000
2017-12-21,15.890000,15.980000,15.500000,15.690000,15.690000,502300
2017-12-22,15.680000,16.360001,15.580000,16.250000,16.250000,509700
2017-12-26,16.500000,16.870001,16.270000,16.780001,16.780001,326500
2017-12-27,16.590000,17.280001,16.500000,17.190001,17.190001,494600
2017-12-28,17.100000,17.440001,16.600000,16.830000,16.830000,404100
2017-12-29,16.990000,17.090000,16.719999,16.879999,16.879999,316800
2018-01-02,17.090000,17.379999,16.879999,17.000000,17.000000,500400
2018-01-03,17.150000,17.200001,16.770000,16.799999,16.799999,312500
2018-01-04,16.799999,17.160000,16.510000,16.959999,16.959999,616500
2018-01-05,16.900000,17.061001,16.799999,16.940001,16.940001,352200
2018-01-08,16.790001,17.000000,16.600000,16.770000,16.770000,381300
2018-01-09,16.610001,16.770000,16.430000,16.590000,16.590000,294100
2018-01-10,16.600000,16.850000,16.459999,16.700001,16.700001,201500
2018-01-11,16.700001,16.809999,16.600000,16.799999,16.799999,119900
2018-01-12,16.820000,17.340000,16.790001,16.850000,16.850000,511300
2018-01-16,17.209999,17.987000,16.980000,17.750000,17.750000,715000
2018-01-17,17.840000,19.500000,17.840000,19.299999,19.299999,1576300
2018-01-18,19.580000,19.580000,18.700001,19.360001,19.360001,430500
2018-01-19,19.280001,19.400000,18.500000,18.500000,18.500000,585100
2018-01-22,18.620001,18.924999,18.250000,18.250000,18.250000,475200
2018-01-23,18.150000,18.959999,18.110001,18.809999,18.809999,398500
2018-01-24,18.770000,19.200001,18.559999,18.969999,18.969999,354200
2018-01-25,18.980000,19.789000,18.980000,19.490000,19.490000,542800
2018-01-26,19.750000,20.330000,19.690001,19.990000,19.990000,470900
2018-01-29,19.950001,20.049999,19.240000,19.920000,19.920000,349700
2018-01-30,19.500000,19.650000,18.799999,19.270000,19.270000,459600
2018-01-31,19.270000,19.480000,19.049999,19.090000,19.090000,172600
2018-02-01,18.850000,19.420000,18.799999,19.000000,19.000000,209700
2018-02-02,18.680000,18.830000,18.100000,18.270000,18.270000,382800
2018-02-05,18.110001,19.549999,17.700001,17.750000,17.750000,524900
2018-02-06,17.010000,17.719999,16.990000,17.660000,17.660000,403400
2018-02-07,17.660000,17.870001,17.250000,17.290001,17.290001,408600
2018-02-08,17.270000,17.559999,16.500000,16.600000,16.600000,1109600
2018-02-09,16.650000,17.340000,16.610001,17.230000,17.230000,495800
2018-02-12,17.430000,18.104000,17.430000,17.809999,17.809999,344300
2018-02-13,17.730000,18.680000,17.709999,18.570000,18.570000,385700
2018-02-14,18.490000,19.490000,18.261000,19.400000,19.400000,492400
2018-02-15,19.500000,19.900000,19.290001,19.469999,19.469999,266500
2018-02-16,19.450001,19.450001,19.030001,19.180000,19.180000,163900
2018-02-20,18.980000,19.639999,18.980000,19.299999,19.299999,312500
2018-02-21,19.410000,19.520000,19.040001,19.450001,19.450001,248700
2018-02-22,19.400000,19.410000,18.853001,19.129999,19.129999,218800
2018-02-23,19.219999,19.480000,19.150000,19.250000,19.250000,197900
2018-02-26,19.150000,19.434000,19.059999,19.110001,19.110001,221000
2018-02-27,19.400000,19.450001,19.000000,19.200001,19.200001,220400
2018-02-28,19.010000,19.129000,18.129999,18.129999,18.129999,486300
2018-03-01,18.020000,18.290001,17.760000,17.950001,17.950001,361300
2018-03-02,17.820000,18.700001,17.799999,18.700001,18.700001,196400
2018-03-05,18.350000,19.559999,18.059999,19.440001,19.440001,320400
2018-03-06,19.559999,19.698999,19.120001,19.490000,19.490000,347400
2018-03-07,19.219999,19.500000,19.190001,19.309999,19.309999,180600
2018-03-08,19.200001,19.410000,19.010000,19.080000,19.080000,195200
2018-03-09,19.170000,19.510000,19.139999,19.250000,19.250000,184300
2018-03-12,19.230000,19.480000,19.230000,19.340000,19.340000,143400
2018-03-13,19.520000,20.549999,19.377001,19.940001,19.940001,757100
2018-03-14,20.200001,20.889999,20.030001,20.430000,20.430000,359600
2018-03-15,20.500000,20.500000,17.500000,17.500000,17.500000,822200
2018-03-16,18.010000,18.520000,17.660000,17.780001,17.780001,563700
2018-03-19,17.750000,17.799999,17.170000,17.209999,17.209999,393300
2018-03-20,17.290001,17.653999,16.809999,17.500000,17.500000,302700
2018-03-21,17.500000,18.049999,17.500000,17.510000,17.510000,215300
2018-03-22,17.299999,17.438999,16.709999,16.860001,16.860001,485300
2018-03-23,16.700001,17.330000,16.700001,17.049999,17.049999,204000
2018-03-26,17.350000,17.730000,16.799999,17.100000,17.100000,305000
2018-03-27,17.000000,17.528000,17.000000,17.299999,17.299999,179100
2018-03-28,17.230000,17.459999,16.160000,16.360001,16.360001,377800
2018-03-29,16.400000,16.980000,16.129999,16.660000,16.660000,130900
2018-04-02,16.510000,17.430000,16.309999,17.400000,17.400000,230100
2018-04-03,17.400000,17.450001,17.049999,17.389999,17.389999,97400
2018-04-04,16.950001,17.620001,16.879999,17.549999,17.549999,119300
2018-04-05,17.700001,17.860001,17.410000,17.549999,17.549999,111200
2018-04-06,17.379999,17.719999,17.334999,17.580000,17.580000,121300
2018-04-09,17.629999,17.690001,17.309999,17.309999,17.309999,75800
2018-04-10,17.500000,17.649000,17.190001,17.250000,17.250000,66100
2018-04-11,17.139999,17.290001,16.799999,17.000000,17.000000,181400
2018-04-12,17.000000,17.260000,16.910000,17.000000,17.000000,60500
2018-04-13,17.080000,17.080000,16.750000,16.959999,16.959999,91200
2018-04-16,16.840000,17.080000,16.809999,17.010000,17.010000,59900
2018-04-17,17.000000,17.150000,16.870001,17.049999,17.049999,38700
2018-04-18,17.090000,17.400000,16.931000,17.160000,17.160000,54100
2018-04-19,17.379999,17.469999,17.049999,17.400000,17.400000,73800
2018-04-20,17.400000,17.500000,17.059999,17.500000,17.500000,69000
2018-04-23,17.459999,17.459999,17.010000,17.100000,17.100000,63500
2018-04-24,17.090000,17.350000,16.910000,17.129999,17.129999,100300
2018-04-25,16.980000,17.270000,16.920000,17.150000,17.150000,60000
2018-04-26,17.000000,17.170000,16.950001,17.049999,17.049999,57100
2018-04-27,17.049999,17.200001,17.000000,17.049999,17.049999,58300
2018-04-30,17.030001,17.180000,16.500000,16.510000,16.510000,93000
2018-05-01,16.510000,16.959999,16.510000,16.950001,16.950001,47700
2018-05-02,16.870001,17.049999,16.650000,16.660000,16.660000,61500
2018-05-03,16.559999,16.825001,16.030001,16.230000,16.230000,193100
2018-05-04,16.100000,16.450001,16.100000,16.330000,16.330000,42600
2018-05-07,16.410000,16.690001,16.410000,16.410000,16.410000,54900
2018-05-08,16.389999,17.000000,16.389999,16.959999,16.959999,78600
2018-05-09,16.980000,17.240000,16.910000,16.910000,16.910000,77000
2018-05-10,17.059999,17.170000,16.940001,17.150000,17.150000,76000
2018-05-11,17.129999,17.150000,16.709999,17.070000,17.070000,85100
2018-05-14,17.030001,17.480000,16.945000,17.200001,17.200001,139900
2018-05-15,17.100000,17.450001,16.844999,17.250000,17.250000,159700
2018-05-16,16.620001,17.080000,15.630000,17.030001,17.030001,524700
2018-05-17,16.730000,17.080000,16.530001,16.530001,16.530001,142400
2018-05-18,16.700001,17.070000,16.610001,17.040001,17.040001,117100
2018-05-21,17.219999,17.219999,16.910000,17.070000,17.070000,94400
2018-05-22,16.969999,17.100000,16.930000,17.020000,17.020000,64400
2018-05-23,16.860001,17.100000,16.719999,17.049999,17.049999,70600
2018-05-24,17.049999,17.080000,16.900000,17.030001,17.030001,69500
2018-05-25,16.910000,17.049999,16.900000,17.049999,17.049999,30100
2018-05-29,16.910000,17.090000,16.851000,16.950001,16.950001,117900
2018-05-30,17.010000,17.160000,16.860001,17.059999,17.059999,132800
2018-05-31,17.160000,17.160000,16.900000,17.049999,17.049999,153300
2018-06-01,17.080000,17.100000,16.900000,17.049999,17.049999,107100
2018-06-04,17.100000,17.100000,16.879999,17.030001,17.030001,121600
2018-06-05,16.940001,17.900000,16.940001,17.900000,17.900000,204200
2018-06-06,17.900000,19.150000,17.760000,19.059999,19.059999,505500
2018-06-07,18.930000,19.000000,18.430000,18.850000,18.850000,225000
2018-06-08,18.629999,19.650000,18.629999,19.400000,19.400000,210100
2018-06-11,19.400000,19.900000,19.400000,19.740000,19.740000,305100
2018-06-12,19.740000,20.790001,19.650000,20.410000,20.410000,405900
2018-06-13,20.309999,20.700001,19.171000,20.150000,20.150000,676700
2018-06-14,20.020000,20.605000,19.980000,20.320000,20.320000,276800
2018-06-15,20.309999,20.590000,19.490000,20.320000,20.320000,279000
2018-06-18,20.410000,22.299999,20.219999,22.240000,22.240000,399100
2018-06-19,21.299999,22.270000,20.879999,21.900000,21.900000,341700
2018-06-20,22.040001,23.360001,21.940001,23.010000,23.010000,377600
2018-06-21,23.219999,23.790001,22.590000,22.700001,22.700001,403000
2018-06-22,22.570000,23.080000,21.320000,21.940001,21.940001,197700
2018-06-25,21.700001,21.700001,19.870001,20.780001,20.780001,407700
2018-06-26,20.700001,22.090000,20.700001,21.219999,21.219999,143600
2018-06-27,20.990000,21.230000,19.350000,19.400000,19.400000,376000
2018-06-28,19.559999,20.120001,19.421000,19.900000,19.900000,75600
2018-06-29,20.010000,20.200001,19.580000,19.650000,19.650000,123600
2018-07-02,19.350000,19.959999,19.290001,19.879999,19.879999,41800
2018-07-03,20.000000,20.469999,19.799999,20.309999,20.309999,40600
2018-07-05,20.420000,20.420000,19.420000,19.580000,19.580000,98500
2018-07-06,19.410000,19.549999,19.030001,19.090000,19.090000,190600
2018-07-09,19.320000,19.969999,19.110001,19.190001,19.190001,96000
2018-07-10,19.219999,20.514999,19.219999,19.820000,19.820000,170400
2018-07-11,19.580000,20.440001,19.450001,19.760000,19.760000,147600
2018-07-12,20.209999,21.620001,20.059999,21.250000,21.250000,336800
2018-07-13,21.280001,22.320000,20.990000,21.180000,21.180000,208200
2018-07-16,20.959999,22.280001,20.770000,21.799999,21.799999,206400
2018-07-17,21.870001,22.480000,21.490000,22.480000,22.480000,142400
2018-07-18,22.400000,22.940001,21.309999,21.330000,21.330000,225200
2018-07-19,21.370001,22.363001,21.340000,21.530001,21.530001,91400
2018-07-20,21.680000,21.940001,21.174999,21.389999,21.389999,63200
2018-07-23,21.799999,22.309999,21.500000,22.170000,22.170000,115400
2018-07-24,22.580000,22.605000,21.280001,21.660000,21.660000,105700
2018-07-25,21.370001,22.020000,20.860001,21.900000,21.900000,106200
2018-07-26,21.500000,21.809999,21.440001,21.510000,21.510000,58700
2018-07-27,21.900000,21.900000,20.260000,20.940001,20.940001,167900
2018-07-30,20.940001,20.950001,20.094999,20.600000,20.600000,98000
2018-07-31,20.459999,20.860001,20.299999,20.670000,20.670000,35400
2018-08-01,20.459999,21.108999,20.459999,20.969999,20.969999,55800
2018-08-02,21.000000,21.000000,20.500000,20.950001,20.950001,61400
2018-08-03,21.000000,21.000000,20.660000,20.790001,20.790001,40600
2018-08-06,20.760000,21.240000,20.540001,21.100000,21.100000,74100
2018-08-07,21.360001,21.799999,21.200001,21.549999,21.549999,55300
2018-08-08,21.549999,21.980000,21.490000,21.500000,21.500000,51600
2018-08-09,21.500000,21.832001,21.440001,21.799999,21.799999,30900
2018-08-10,21.450001,21.820000,21.450001,21.549999,21.549999,31400
2018-08-13,19.257000,21.270000,19.100000,20.940001,20.940001,185900
2018-08-14,20.850000,21.440001,20.783001,21.360001,21.360001,171400
2018-08-15,21.100000,21.100000,19.020000,19.559999,19.559999,261700
2018-08-16,19.809999,20.580000,19.799999,20.570000,20.570000,84100
2018-08-17,20.620001,20.620001,19.750000,19.980000,19.980000,45300
2018-08-20,19.830000,20.500000,19.430000,19.770000,19.770000,74300
2018-08-21,20.020000,20.030001,19.209999,19.379999,19.379999,76700
2018-08-22,19.290001,19.500000,19.200001,19.400000,19.400000,35900
2018-08-23,19.330000,19.670000,19.160000,19.219999,19.219999,29700
2018-08-24,19.280001,19.799999,19.070000,19.469999,19.469999,65700
2018-08-27,19.590000,20.650000,19.590000,20.520000,20.520000,97700
2018-08-28,20.510000,21.150000,20.120001,20.570000,20.570000,71300
2018-08-29,20.600000,20.600000,20.031000,20.379999,20.379999,36800
2018-08-30,20.299999,20.299999,19.350000,19.370001,19.370001,75000
2018-08-31,19.629999,19.750000,19.010000,19.660000,19.660000,63800
2018-09-04,19.459999,20.190001,19.459999,19.900000,19.900000,58900
2018-09-05,20.020000,20.020000,19.590000,19.799999,19.799999,55400
2018-09-06,19.709999,20.084999,19.500000,19.500000,19.500000,117700
2018-09-07,19.500000,20.000000,19.500000,19.900000,19.900000,43100
2018-09-10,19.750000,19.900000,19.430000,19.900000,19.900000,63400
2018-09-11,19.520000,20.049999,19.292000,20.049999,20.049999,73500
2018-09-12,19.870001,20.070000,19.361000,20.000000,20.000000,58500
2018-09-13,20.080000,20.709999,19.879999,20.520000,20.520000,114000
2018-09-14,20.469999,21.520000,20.433001,21.070000,21.070000,156700
2018-09-17,20.920000,21.090000,20.270000,20.980000,20.980000,74300
2018-09-18,21.080000,21.160000,20.480000,20.950001,20.950001,89200
2018-09-19,20.959999,21.049999,20.059999,20.440001,20.440001,61400
2018-09-20,20.370001,21.049999,20.370001,20.799999,20.799999,70400
2018-09-21,20.990000,21.200001,20.440001,21.200001,21.200001,95500
2018-09-24,20.910000,20.966999,20.150000,20.170000,20.170000,37900
2018-09-25,20.020000,20.313999,19.799999,19.889999,19.889999,52000
2018-09-26,19.980000,20.660000,19.930000,20.549999,20.549999,57200
2018-09-27,20.422001,20.452999,20.004000,20.299999,20.299999,26200
2018-09-28,20.190001,21.129999,20.059000,21.059999,21.059999,108500
2018-10-01,21.100000,21.100000,20.290001,20.299999,20.299999,26400
2018-10-02,21.000000,21.260000,20.139999,20.139999,20.139999,75800
2018-10-03,20.280001,20.879999,20.280001,20.400000,20.400000,43700
2018-10-04,20.270000,20.740000,19.590000,20.590000,20.590000,138600
2018-10-05,20.350000,20.700001,19.750000,20.559999,20.559999,66200
2018-10-08,20.000000,20.600000,19.709999,20.350000,20.350000,82200
2018-10-09,20.100000,20.700001,20.100000,20.400000,20.400000,49200
2018-10-10,20.250000,20.270000,18.860001,19.180000,19.180000,255200
2018-10-11,18.990000,19.200001,17.610001,18.219999,18.219999,135200
2018-10-12,18.500000,18.855000,18.240000,18.799999,18.799999,54800
2018-10-15,18.469999,19.299999,18.469999,19.030001,19.030001,31000
2018-10-16,19.180000,19.740000,19.180000,19.690001,19.690001,31100
2018-10-17,19.629999,20.870001,19.410000,19.570000,19.570000,57100
2018-10-18,19.487000,19.487000,18.510000,18.600000,18.600000,47000
2018-10-19,18.650000,18.660000,18.000000,18.000000,18.000000,53900
2018-10-22,18.299999,18.639999,18.180000,18.180000,18.180000,32100
2018-10-23,17.840000,17.900000,16.190001,17.000000,17.000000,167500
2018-10-24,16.840000,17.350000,16.660000,17.110001,17.110001,65200
2018-10-25,17.120001,17.459999,16.600000,17.440001,17.440001,123100
2018-10-26,16.870001,17.940001,16.500000,17.750000,17.750000,80900
2018-10-29,17.730000,17.969999,17.010000,17.299999,17.299999,62100
2018-10-30,17.330000,17.580000,17.000000,17.540001,17.540001,47400
2018-10-31,17.780001,18.400000,17.110001,18.230000,18.230000,88700
2018-11-01,18.260000,19.389999,18.059999,18.879999,18.879999,197200
2018-11-02,18.969999,18.969999,17.920000,17.920000,17.920000,66200
2018-11-05,17.799999,18.379999,17.680000,17.750000,17.750000,23500
2018-11-06,17.600000,18.010000,17.600000,17.910000,17.910000,24800
2018-11-07,18.070000,18.070000,16.915001,17.750000,17.750000,212800
2018-11-08,17.370001,17.690001,17.100000,17.190001,17.190001,33000
2018-11-09,17.280001,17.332001,16.360001,16.840000,16.840000,149600
2018-11-12,16.820000,17.370001,16.549999,17.190001,17.190001,62200
2018-11-13,17.309999,17.309999,16.680000,16.750000,16.750000,34300
2018-11-14,16.840000,17.090000,16.580000,16.650000,16.650000,63200
2018-11-15,11.260000,11.490000,6.700000,7.830000,7.830000,5892000
2018-11-16,7.970000,8.390000,7.720000,7.950000,7.950000,1675700
2018-11-19,8.080000,8.130000,7.470000,7.860000,7.860000,477200
2018-11-20,7.530000,8.000000,7.370000,7.770000,7.770000,429200
2018-11-21,7.940000,8.065000,7.670000,7.950000,7.950000,506200
2018-11-23,8.000000,8.050000,7.740000,7.950000,7.950000,169800
2018-11-26,7.950000,8.550000,7.890000,8.310000,8.310000,412900
2018-11-27,8.170000,8.402000,8.170000,8.270000,8.270000,186100
2018-11-28,8.410000,8.480000,8.180000,8.440000,8.440000,217700
2018-11-29,7.330000,7.890000,7.130000,7.640000,7.640000,743500
2018-11-30,7.640000,7.900000,7.460000,7.600000,7.600000,521300
2018-12-03,7.900000,7.900000,7.410000,7.730000,7.730000,455600
2018-12-04,7.700000,7.700000,7.350000,7.360000,7.360000,219400
2018-12-06,6.980000,7.330000,6.980000,7.140000,7.140000,219400
2018-12-07,7.010000,7.210000,6.570000,6.740000,6.740000,227200
2018-12-10,6.650000,6.750000,6.050000,6.150000,6.150000,297900
2018-12-11,6.240000,6.440000,5.870000,6.250000,6.250000,246400
2018-12-12,6.380000,6.450000,6.120000,6.130000,6.130000,119700
2018-12-13,6.200000,6.370000,6.110000,6.230000,6.230000,117100
2018-12-14,6.050000,6.347000,6.050000,6.090000,6.090000,111700
2018-12-17,6.040000,6.190000,5.997000,6.020000,6.020000,92000
2018-12-18,6.350000,6.350000,6.060000,6.120000,6.120000,124600
2018-12-19,6.120000,6.340000,6.075000,6.300000,6.300000,389000
2018-12-20,6.170000,6.290000,5.670000,5.750000,5.750000,157800
2018-12-21,5.770000,5.980000,5.600000,5.910000,5.910000,106500
2018-12-24,5.810000,5.900000,5.790000,5.860000,5.860000,41800
2018-12-26,5.870000,6.000000,5.646000,5.950000,5.950000,136700
2018-12-27,5.880000,5.980000,5.850000,5.950000,5.950000,36900
2018-12-28,5.899000,6.120000,5.780000,6.040000,6.040000,163100
2018-12-31,6.000000,6.000000,5.600000,5.840000,5.840000,135800
2019-01-02,5.770000,6.550000,5.690000,6.120000,6.120000,147000
2019-01-03,6.100000,6.270000,5.910000,6.090000,6.090000,118900
2019-01-04,6.110000,6.600000,6.090000,6.390000,6.390000,178900
2019-01-07,6.430000,6.950000,6.430000,6.900000,6.900000,123300
2019-01-08,6.930000,6.930000,6.520000,6.590000,6.590000,107700
2019-01-09,6.650000,6.990000,6.530000,6.830000,6.830000,109000
2019-01-10,6.800000,6.900000,6.660000,6.690000,6.690000,48200
2019-01-11,6.690000,6.784000,6.500000,6.590000,6.590000,78700
2019-01-14,6.530000,6.660000,6.520000,6.550000,6.550000,27600
2019-01-15,6.550000,6.790000,6.532000,6.640000,6.640000,35800
2019-01-16,6.614000,6.800000,6.580000,6.640000,6.640000,48300
2019-01-17,6.640000,6.750000,6.570000,6.650000,6.650000,35700
2019-01-18,6.700000,6.900000,6.600000,6.730000,6.730000,59900
2019-01-22,6.510000,6.630000,6.440000,6.510000,6.510000,73900
2019-01-23,6.470000,6.640000,6.400000,6.510000,6.510000,65300
2019-01-24,6.380000,6.740000,6.360000,6.590000,6.590000,66000
2019-01-25,6.620000,6.750000,6.500000,6.650000,6.650000,103600
2019-01-28,6.630000,6.690000,6.400000,6.570000,6.570000,81700
2019-01-29,6.470000,6.880000,6.470000,6.850000,6.850000,155600
2019-01-30,6.800000,7.340000,6.730000,7.100000,7.100000,171200
2019-01-31,7.090000,7.420000,7.030000,7.270000,7.270000,96800
2019-02-01,7.280000,7.420000,7.040000,7.260000,7.260000,57600
2019-02-04,7.180000,7.980000,7.180000,7.920000,7.920000,187700
2019-02-05,7.900000,8.106000,7.760000,7.930000,7.930000,101400
2019-02-06,7.940000,8.320000,7.665000,7.730000,7.730000,113100
2019-02-07,7.720000,8.100000,7.660000,8.000000,8.000000,111800
2019-02-08,7.863000,8.200000,7.863000,8.110000,8.110000,92500
2019-02-11,8.280000,8.450000,7.955000,8.110000,8.110000,237400
2019-02-12,8.070000,8.140000,7.500000,8.100000,8.100000,232300
2019-02-13,8.110000,8.200000,7.840000,7.990000,7.990000,171700
2019-02-14,7.990000,8.100000,7.800000,8.030000,8.030000,148600
2019-02-15,8.050000,8.200000,7.910000,8.100000,8.100000,76800
2019-02-19,8.180000,8.180000,7.930000,8.050000,8.050000,49200
2019-02-20,8.100000,8.460000,8.010000,8.420000,8.420000,227600
2019-02-21,8.460000,8.460000,8.120000,8.160000,8.160000,67600
2019-02-22,8.210000,9.440000,8.170000,8.970000,8.970000,706900
2019-02-25,9.430000,9.460000,8.620000,8.750000,8.750000,290100
2019-02-26,8.730000,8.790000,8.400000,8.460000,8.460000,195100
2019-02-27,8.460000,8.520000,8.200000,8.200000,8.200000,214500
2019-02-28,8.200000,8.270000,7.880000,8.070000,8.070000,212000
2019-03-01,8.120000,8.320000,8.050000,8.150000,8.150000,81300
2019-03-04,8.320000,8.390000,7.930000,7.990000,7.990000,195900
2019-03-05,8.060000,8.580000,8.020000,8.200000,8.200000,371600
2019-03-06,8.300000,8.800000,8.230000,8.360000,8.360000,376500
2019-03-07,8.310000,8.400000,8.000000,8.190000,8.190000,155200
2019-03-08,8.000000,8.170000,7.920000,8.100000,8.100000,110000
2019-03-11,8.120000,8.440000,8.060000,8.280000,8.280000,186500
2019-03-12,8.360000,8.600000,8.295000,8.470000,8.470000,96100
2019-03-13,8.400000,8.500000,8.110000,8.150000,8.150000,84800
2019-03-14,8.110000,8.200000,8.010000,8.110000,8.110000,65900
2019-03-15,8.150000,8.290000,8.090000,8.110000,8.110000,102300
2019-03-18,8.210000,8.370000,8.060000,8.120000,8.120000,73500
2019-03-19,8.220000,8.360000,8.110000,8.160000,8.160000,152400
2019-03-20,8.170000,8.170000,7.900000,7.920000,7.920000,103300
2019-03-21,7.890000,8.180000,7.250000,7.940000,7.940000,379600
2019-03-22,7.600000,7.670000,7.100000,7.110000,7.110000,211700
2019-03-25,7.110000,7.238000,6.810000,6.820000,6.820000,176500
2019-03-26,6.790000,6.930000,6.630000,6.680000,6.680000,134200
2019-03-27,6.680000,7.050000,6.680000,6.840000,6.840000,129200
2019-03-28,6.530000,6.890000,6.410000,6.670000,6.670000,181800
2019-03-29,6.680000,6.950000,6.570000,6.600000,6.600000,199300
2019-04-01,6.590000,6.760000,6.410000,6.540000,6.540000,270100
2019-04-02,6.520000,6.840000,6.520000,6.650000,6.650000,152000
2019-04-03,6.660000,6.790000,6.600000,6.620000,6.620000,134900
2019-04-04,6.620000,6.690000,6.550000,6.600000,6.600000,119800
2019-04-05,6.690000,7.235000,6.660000,7.080000,7.080000,187300
2019-04-08,6.960000,7.470000,6.960000,7.270000,7.270000,152500
2019-04-09,7.320000,7.620000,7.250000,7.330000,7.330000,91800
2019-04-10,7.420000,7.540000,7.294000,7.390000,7.390000,86200
2019-04-11,7.370000,7.630000,7.370000,7.420000,7.420000,103000
2019-04-12,7.420000,7.770000,7.420000,7.660000,7.660000,88000
2019-04-15,7.650000,7.810000,7.440000,7.450000,7.450000,97600
2019-04-16,7.450000,7.870000,7.415000,7.710000,7.710000,155500
2019-04-17,7.740000,7.910000,7.390000,7.770000,7.770000,264900
2019-04-18,7.920000,8.060000,7.720000,7.900000,7.900000,110300
2019-04-22,7.900000,8.030000,7.765000,8.030000,8.030000,83400
2019-04-23,8.020000,8.270000,7.820000,8.000000,8.000000,131900
2019-04-24,8.020000,8.150000,7.990000,8.010000,8.010000,142200
2019-04-25,7.920000,8.130000,7.920000,8.050000,8.050000,102500
2019-04-26,8.000000,8.160000,7.990000,8.160000,8.160000,36300
2019-04-29,8.160000,8.230000,8.000000,8.040000,8.040000,59000
2019-04-30,8.050000,8.050000,7.820000,7.820000,7.820000,64200
2019-05-01,7.800000,8.095000,7.800000,7.910000,7.910000,49400
2019-05-02,7.850000,8.120000,7.850000,8.040000,8.040000,50200
2019-05-03,8.150000,8.150000,8.000000,8.000000,8.000000,17000
2019-05-06,7.800000,8.150000,7.748000,7.960000,7.960000,70500
2019-05-07,7.960000,8.090000,7.640000,7.710000,7.710000,85100
2019-05-08,7.580000,7.770000,7.570000,7.570000,7.570000,57200
2019-05-09,7.550000,7.698000,7.320000,7.390000,7.390000,124000
2019-05-10,7.350000,7.650000,7.350000,7.450000,7.450000,50800
2019-05-13,7.300000,7.370000,7.150000,7.150000,7.150000,52400
2019-05-14,7.249000,7.705000,7.221000,7.550000,7.550000,52800
2019-05-15,7.447000,7.770000,7.400000,7.580000,7.580000,43300
2019-05-16,7.700000,7.990000,7.490000,7.570000,7.570000,56900
2019-05-17,7.400000,7.840000,7.400000,7.480000,7.480000,50300
2019-05-20,7.400000,7.680000,7.310000,7.520000,7.520000,42200
2019-05-21,7.680000,7.680000,7.400000,7.430000,7.430000,45400
2019-05-22,7.460000,7.590000,7.350000,7.400000,7.400000,47200
2019-05-23,7.440000,7.440000,7.200000,7.200000,7.200000,38700
2019-05-24,7.000000,7.180000,6.820000,7.100000,7.100000,65400
2019-05-28,7.110000,7.110000,6.660000,6.770000,6.770000,50300
2019-05-29,6.620000,6.850000,6.600000,6.660000,6.660000,47800
2019-05-30,6.520000,6.740000,6.500000,6.540000,6.540000,80200
2019-05-31,6.560000,6.790000,6.510000,6.620000,6.620000,30200
2019-06-03,6.620000,6.750000,6.540000,6.750000,6.750000,36500
2019-06-04,6.650000,6.750000,6.580000,6.640000,6.640000,32700
2019-06-05,6.630000,6.630000,6.400000,6.490000,6.490000,29700
2019-06-06,6.620000,6.730000,6.445000,6.510000,6.510000,27600
2019-06-07,6.540000,6.770000,6.410000,6.630000,6.630000,36900
2019-06-10,6.640000,6.780000,6.520000,6.640000,6.640000,42600
2019-06-11,6.740000,6.740000,6.520000,6.520000,6.520000,40100
2019-06-12,6.520000,6.720000,6.450000,6.520000,6.520000,26600
2019-06-13,6.510000,6.640000,6.450000,6.500000,6.500000,16500
2019-06-14,6.640000,6.640000,6.320000,6.410000,6.410000,25900
2019-06-17,6.370000,6.370000,6.260000,6.360000,6.360000,12700
2019-06-18,6.400000,6.550000,6.390000,6.470000,6.470000,16200
2019-06-19,6.470000,6.600000,6.390000,6.500000,6.500000,11300
2019-06-20,6.600000,6.710000,6.580000,6.610000,6.610000,9500
2019-06-21,6.660000,6.720000,6.620000,6.720000,6.720000,7800
2019-06-24,6.800000,6.930000,6.710000,6.800000,6.800000,109400
2019-06-25,6.750000,6.820000,6.660000,6.750000,6.750000,44300
2019-06-26,6.750000,6.860000,6.671000,6.750000,6.750000,79500
2019-06-27,6.840000,6.890000,6.730000,6.730000,6.730000,7300
2019-06-28,6.790000,6.870000,6.700000,6.700000,6.700000,7000
2019-07-01,6.800000,6.895000,6.780000,6.860000,6.860000,14200
2019-07-02,6.730000,6.880000,6.650000,6.880000,6.880000,22400
2019-07-03,6.880000,6.880000,6.590000,6.740000,6.740000,8700
2019-07-05,6.633000,6.700000,6.600000,6.700000,6.700000,15700
2019-07-08,6.660000,6.690000,6.570000,6.690000,6.690000,2500
2019-07-09,6.580000,6.660000,6.500000,6.630000,6.630000,3600
2019-07-10,6.730000,6.730000,6.450000,6.580000,6.580000,9700
2019-07-11,6.416000,6.480000,6.300000,6.420000,6.420000,28800
2019-07-12,6.390000,6.460000,6.320000,6.320000,6.320000,7500
2019-07-15,6.440000,6.630000,6.320000,6.550000,6.550000,57100
2019-07-16,6.470000,6.580000,6.400000,6.560000,6.560000,10200
2019-07-17,6.410000,6.540000,6.365000,6.450000,6.450000,2800
2019-07-18,6.315000,6.450000,6.310000,6.450000,6.450000,6300
2019-07-19,6.581000,6.581000,6.250000,6.400000,6.400000,33400
2019-07-22,6.350000,6.400000,6.260000,6.280000,6.280000,8800
2019-07-23,6.350000,6.460000,6.260000,6.350000,6.350000,9000
2019-07-24,6.260000,6.390000,6.200000,6.350000,6.350000,10900
2019-07-25,6.180000,6.340000,6.150000,6.280000,6.280000,32300
2019-07-26,6.010000,6.120000,5.780000,6.000000,6.000000,61700
2019-07-29,6.020000,6.087000,5.960000,6.060000,6.060000,14800
2019-07-30,6.040000,6.050000,5.980000,6.000000,6.000000,8300
2019-07-31,5.915000,6.040000,5.910000,6.040000,6.040000,7000
2019-08-01,5.920000,6.047000,5.920000,5.990000,5.990000,17900
2019-08-02,5.990000,6.030000,5.920000,6.020000,6.020000,8900
2019-08-05,5.910000,6.020000,5.880000,5.930000,5.930000,9500
2019-08-06,5.807000,5.980000,5.770000,5.860000,5.860000,18400
2019-08-07,5.780000,6.000000,5.780000,5.990000,5.990000,7500
2019-08-08,5.810000,6.350000,5.810000,6.340000,6.340000,14400
2019-08-09,6.270000,6.340000,6.090000,6.300000,6.300000,22200
2019-08-12,6.210000,6.250000,5.945000,6.250000,6.250000,7600
2019-08-13,6.150000,6.330000,6.050000,6.200000,6.200000,19100
2019-08-14,6.020000,6.120000,5.950000,6.120000,6.120000,5600
2019-08-15,6.100000,6.240000,5.830000,6.200000,6.200000,32700
2019-08-16,5.850000,6.300000,5.850000,6.300000,6.300000,17600
2019-08-19,6.210000,6.370000,6.179000,6.280000,6.280000,21900
2019-08-20,6.135000,6.800000,6.135000,6.690000,6.690000,23300
2019-08-21,6.800000,6.900000,6.640000,6.875000,6.875000,31600
2019-08-22,6.700000,6.770000,6.530000,6.650000,6.650000,9700
2019-08-23,6.520000,6.570000,6.330000,6.510000,6.510000,10400
2019-08-26,6.500000,6.510000,6.200000,6.480000,6.480000,34000
2019-08-27,6.600000,6.600000,6.100000,6.360000,6.360000,13500
2019-08-28,6.165000,6.460000,6.165000,6.210000,6.210000,2600
2019-08-29,6.170000,6.380000,6.170000,6.210000,6.210000,12700
2019-08-30,6.350000,6.350000,6.210000,6.280000,6.280000,4400
2019-09-03,6.140000,6.500000,6.140000,6.460000,6.460000,22800
2019-09-04,6.550000,6.550000,6.270000,6.370000,6.370000,6700
2019-09-05,6.324000,6.540000,6.323000,6.540000,6.540000,8700
2019-09-06,6.510000,6.550000,6.340000,6.510000,6.510000,7300
2019-09-09,6.430000,6.550000,6.350000,6.530000,6.530000,21000
2019-09-10,6.490000,6.660000,6.410000,6.600000,6.600000,23700
2019-09-11,6.699000,6.750000,6.659000,6.710000,6.710000,59000
2019-09-12,6.680000,6.800000,6.520000,6.710000,6.710000,25000
2019-09-13,6.560000,6.790000,6.560000,6.760000,6.760000,12600
2019-09-16,6.611000,6.770000,6.565000,6.740000,6.740000,15200
2019-09-17,6.510000,6.710000,6.400000,6.550000,6.550000,19900
2019-09-18,6.365000,6.510000,6.300000,6.300000,6.300000,106000
2019-09-19,6.350000,6.400000,6.215000,6.380000,6.380000,39900
2019-09-20,6.200000,6.470000,6.200000,6.410000,6.410000,12100
2019-09-23,6.580000,6.580000,6.260000,6.293000,6.293000,5900
2019-09-24,6.490000,6.490000,6.230000,6.430000,6.430000,9400
2019-09-25,6.450000,6.540000,6.270000,6.480000,6.480000,3800
2019-09-26,6.270000,6.540000,6.270000,6.500000,6.500000,3300
2019-09-27,6.275000,6.500000,6.275000,6.490000,6.490000,17400
2019-09-30,6.480000,6.480000,6.375000,6.410000,6.410000,3200
2019-10-01,6.370000,6.410000,6.230000,6.350000,6.350000,26900
2019-10-02,6.360000,6.400000,6.180000,6.380000,6.380000,11100
2019-10-03,6.180000,6.380000,6.180000,6.380000,6.380000,8000
2019-10-04,6.280000,6.400000,6.280000,6.380000,6.380000,5900
2019-10-07,6.270000,6.450000,6.270000,6.360000,6.360000,1800
2019-10-08,6.490000,6.490000,6.280000,6.490000,6.490000,5500
2019-10-09,6.490000,6.570000,6.340000,6.570000,6.570000,12600
2019-10-10,6.350000,6.540000,6.050000,6.080000,6.080000,92800
2019-10-11,6.090000,6.320000,6.090000,6.300000,6.300000,3400
2019-10-14,6.120000,6.340000,6.120000,6.340000,6.340000,4400
2019-10-15,6.267000,6.410000,6.200000,6.340000,6.340000,1500
2019-10-16,6.290000,6.290000,6.170000,6.250000,6.250000,5800
2019-10-17,6.250000,6.300000,6.170000,6.300000,6.300000,3000
2019-10-18,6.270000,6.330000,6.160000,6.300000,6.300000,15100
2019-10-21,6.200000,6.270000,6.180000,6.200000,6.200000,4000
2019-10-22,6.166000,6.260000,6.120000,6.200000,6.200000,7200
2019-10-23,6.140000,6.220000,6.120000,6.200000,6.200000,7500
2019-10-24,6.140000,6.140000,6.020000,6.100000,6.100000,37500
2019-10-25,6.150000,6.180000,6.060000,6.130000,6.130000,7800
2019-10-28,6.090000,6.164000,6.021000,6.130000,6.130000,24600
2019-10-29,6.060000,6.080000,6.010000,6.020000,6.020000,17400
2019-10-30,6.050000,6.070000,6.010000,6.060000,6.060000,13000
2019-10-31,6.020000,6.040000,6.010000,6.020000,6.020000,7300
2019-11-01,6.020000,6.030000,5.790000,5.860000,5.860000,62400
2019-11-04,6.040000,6.150000,5.890000,6.140000,6.140000,41800
2019-11-05,6.110000,6.170000,5.980000,6.150000,6.150000,27200
2019-11-06,6.100000,6.110000,5.990000,6.060000,6.060000,11900
2019-11-07,6.050000,6.130000,6.000000,6.130000,6.130000,4200
2019-11-08,6.100000,6.100000,6.000000,6.060000,6.060000,9400
2019-11-11,5.934000,6.080000,5.920000,6.080000,6.080000,15000
2019-11-12,6.000000,6.090000,5.950000,6.090000,6.090000,29900
2019-11-13,5.960000,6.140000,5.930000,6.140000,6.140000,26500
2019-11-14,6.140000,6.170000,6.036000,6.150000,6.150000,21300
2019-11-15,6.110000,6.150000,6.110000,6.150000,6.150000,9700
2019-11-18,6.170000,6.210000,6.120000,6.150000,6.150000,36200
2019-11-19,6.149000,6.180000,6.110000,6.110000,6.110000,10900
2019-11-20,6.100000,6.110000,5.950000,6.070000,6.070000,46400
2019-11-21,5.980000,6.020000,5.821000,5.900000,5.900000,24500
2019-11-22,6.000000,6.000000,5.870000,5.910000,5.910000,5600
2019-11-25,5.900000,5.990000,5.870000,5.980000,5.980000,14000
2019-11-26,6.000000,6.030000,5.880000,5.980000,5.980000,16600
2019-11-27,5.880000,5.990000,5.772000,5.990000,5.990000,20300
2019-11-29,6.000000,6.000000,5.700000,5.890000,5.890000,19500
2019-12-02,5.810000,5.820000,5.700000,5.740000,5.740000,22400
2019-12-03,5.600000,5.650000,5.500000,5.540000,5.540000,19600
2019-12-04,5.530000,5.630000,5.500000,5.550000,5.550000,7900
2019-12-05,5.550000,5.620000,5.500000,5.565000,5.565000,29200
2019-12-06,5.680000,5.680000,5.610000,5.640000,5.640000,3700
2019-12-09,5.640000,5.700000,5.520000,5.640000,5.640000,9800
2019-12-10,5.670000,5.690000,5.550000,5.600000,5.600000,6900
2019-12-11,5.584000,5.630000,5.560000,5.561000,5.561000,12900
2019-12-12,5.610000,5.750000,5.540000,5.750000,5.750000,36700
2019-12-13,5.730000,5.730000,5.641000,5.680000,5.680000,3900
2019-12-16,5.670000,5.710000,5.630000,5.710000,5.710000,9200
2019-12-17,5.660000,5.750000,5.660000,5.720000,5.720000,11400
2019-12-18,5.640000,5.687000,5.600000,5.660000,5.660000,74200
2019-12-19,5.630000,5.790000,5.470000,5.520000,5.520000,14200
2019-12-20,5.580000,5.660000,5.500000,5.560000,5.560000,27400
2019-12-23,5.600000,5.730000,5.470000,5.680000,5.680000,20100
2019-12-24,5.720000,5.720000,5.620000,5.640000,5.640000,3600
2019-12-26,5.530000,5.600000,5.460000,5.500000,5.500000,17400
2019-12-27,5.510000,5.580000,5.480000,5.550000,5.550000,19700
2019-12-30,5.527000,5.570000,5.450000,5.540000,5.540000,15600
2019-12-31,5.490000,5.540000,5.450000,5.450000,5.450000,42200
2020-01-02,5.600000,5.630000,5.450000,5.580000,5.580000,32200
2020-01-03,5.480000,5.650000,5.460000,5.650000,5.650000,13100
2020-01-06,5.500000,5.680000,5.500000,5.670000,5.670000,16200
2020-01-07,5.677000,5.820000,5.611000,5.820000,5.820000,33400
2020-01-08,5.770000,5.900000,5.720000,5.830000,5.830000,25400
2020-01-09,5.830000,5.920000,5.820000,5.830000,5.830000,4300
2020-01-10,5.880000,5.880000,5.663000,5.880000,5.880000,4000
2020-01-13,5.820000,5.848000,5.630000,5.800000,5.800000,16800
2020-01-14,5.740000,5.780000,5.690000,5.720000,5.720000,9600
2020-01-15,5.720000,5.720000,5.720000,5.720000,5.720000,1400
2020-01-16,5.740000,5.850000,5.740000,5.770000,5.770000,13100
2020-01-17,5.720000,5.728000,5.650000,5.710000,5.710000,25500
2020-01-21,5.750000,5.880000,5.710000,5.880000,5.880000,33000
2020-01-22,5.880000,5.970000,5.806000,5.910000,5.910000,8500
2020-01-23,5.714000,5.850000,5.714000,5.810000,5.810000,11100
2020-01-24,5.799000,5.814000,5.610000,5.635000,5.635000,20100
2020-01-27,5.600000,5.610000,5.280000,5.450000,5.450000,22500
2020-01-28,5.450000,5.560000,5.450000,5.520000,5.520000,3000
2020-01-29,5.453000,5.501000,5.370000,5.500000,5.500000,9300
2020-01-30,5.487000,5.490000,5.400000,5.490000,5.490000,4400
2020-01-31,5.410000,5.460000,5.310000,5.320000,5.320000,11500
2020-02-03,5.300000,5.450000,5.290000,5.300000,5.300000,17800
2020-02-04,5.330000,5.450000,5.260000,5.420000,5.420000,7500
2020-02-05,5.400000,5.410000,5.350000,5.380000,5.380000,10600
2020-02-06,5.340000,5.500000,5.286000,5.490000,5.490000,62200
2020-02-07,5.410000,5.410000,5.300000,5.330000,5.330000,22200
2020-02-10,5.300000,5.360000,5.100000,5.190000,5.190000,49400
2020-02-11,5.170000,5.250000,5.130000,5.230000,5.230000,8000
2020-02-12,5.260000,5.360000,5.260000,5.270000,5.270000,13300
2020-02-13,5.330000,5.330000,5.130000,5.150000,5.150000,12000
2020-02-14,5.130000,5.180000,5.120000,5.130000,5.130000,12270
