Date,Open,High,Low,Close,Adj Close,Volume
2015-11-19,11.200000,14.780000,9.000000,13.070000,13.070000,47466100
2015-11-20,13.920000,14.050000,12.500000,12.850000,12.850000,16550300
2015-11-23,13.000000,13.150000,12.100000,12.120000,12.120000,5172200
2015-11-24,12.000000,12.230000,11.520000,12.020000,12.020000,4714700
2015-11-25,12.120000,12.400000,11.850000,11.900000,11.900000,3583400
2015-11-27,12.050000,12.310000,11.900000,12.050000,12.050000,942300
2015-11-30,12.280000,12.350000,11.900000,12.040000,12.040000,1997100
2015-12-01,12.120000,12.180000,11.890000,11.910000,11.910000,1256100
2015-12-02,11.970000,12.155000,11.900000,11.930000,11.930000,1708100
2015-12-03,12.040000,12.250000,11.910000,11.920000,11.920000,1431400
2015-12-04,11.950000,12.040000,11.800000,12.040000,12.040000,1331600
2015-12-07,12.140000,12.600000,12.100000,12.360000,12.360000,2660400
2015-12-08,12.360000,12.440000,12.030000,12.120000,12.120000,1047700
2015-12-09,12.000000,12.240000,11.900000,11.990000,11.990000,1075700
2015-12-10,12.000000,12.130000,11.910000,12.050000,12.050000,711300
2015-12-11,12.000000,12.020000,11.900000,11.950000,11.950000,882500
2015-12-14,12.200000,12.400000,11.870000,12.330000,12.330000,2163700
2015-12-15,12.500000,12.700000,12.305000,12.470000,12.470000,1258000
2015-12-16,12.550000,12.800000,12.130000,12.270000,12.270000,1592900
2015-12-17,12.300000,12.500000,12.260000,12.320000,12.320000,618900
2015-12-18,12.400000,12.580000,12.100000,12.340000,12.340000,1608900
2015-12-21,12.370000,12.480000,12.020000,12.240000,12.240000,703900
2015-12-22,12.320000,12.460000,12.120000,12.460000,12.460000,502400
2015-12-23,12.410000,12.660000,12.310000,12.500000,12.500000,512300
2015-12-24,12.590000,12.600000,12.450000,12.600000,12.600000,318500
2015-12-28,12.600000,12.840000,12.490000,12.830000,12.830000,1622700
2015-12-29,12.830000,12.830000,12.500000,12.740000,12.740000,852200
2015-12-30,12.660000,12.830000,12.530000,12.780000,12.780000,939300
2015-12-31,12.700000,13.500000,12.650000,13.090000,13.090000,2462300
2016-01-04,12.750000,12.900000,12.050000,12.160000,12.160000,2751500
2016-01-05,12.200000,12.340000,11.500000,11.510000,11.510000,2352800
2016-01-06,11.500000,11.640000,11.015000,11.520000,11.520000,1850600
2016-01-07,11.130000,11.370000,11.000000,11.160000,11.160000,1636000
2016-01-08,11.250000,11.540000,11.200000,11.310000,11.310000,587300
2016-01-11,11.430000,11.870000,11.400000,11.840000,11.840000,1676900
2016-01-12,11.940000,12.225000,11.710000,12.090000,12.090000,2136100
2016-01-13,12.060000,12.170000,11.080000,11.610000,11.610000,2095200
2016-01-14,11.510000,11.645000,10.790000,10.820000,10.820000,1604900
2016-01-15,10.620000,10.800000,10.100000,10.270000,10.270000,1203700
2016-01-19,10.330000,10.470000,9.050000,9.470000,9.470000,2741500
2016-01-20,9.190000,9.570000,8.265000,9.490000,9.490000,3751100
2016-01-21,9.570000,10.176000,9.430000,10.020000,10.020000,1384500
2016-01-22,10.350000,10.650000,9.750000,9.850000,9.850000,1128900
2016-01-25,9.870000,10.080000,9.700000,9.810000,9.810000,737500
2016-01-26,9.780000,9.900000,9.540000,9.540000,9.540000,756500
2016-01-27,9.410000,9.500000,8.880000,9.050000,9.050000,1347300
2016-01-28,9.130000,9.260000,8.650000,8.740000,8.740000,1202200
2016-01-29,8.700000,9.010000,8.580000,8.770000,8.770000,1986800
2016-02-01,8.790000,8.860000,8.600000,8.760000,8.760000,865300
2016-02-02,8.670000,8.730000,8.450000,8.470000,8.470000,663100
2016-02-03,8.400000,8.600000,8.061000,8.430000,8.430000,1235400
2016-02-04,8.430000,8.977000,8.330000,8.900000,8.900000,1042800
2016-02-05,8.950000,9.000000,8.560000,8.630000,8.630000,1872000
2016-02-08,8.500000,8.610000,8.340000,8.370000,8.370000,1142300
2016-02-09,8.270000,8.720000,8.220000,8.620000,8.620000,1799400
2016-02-10,8.760000,9.060000,8.630000,8.880000,8.880000,1411900
2016-02-11,8.400000,8.810000,8.320000,8.620000,8.620000,1102800
2016-02-12,9.700000,9.840000,8.710000,9.300000,9.300000,8306900
2016-02-16,9.750000,10.250000,9.520000,9.930000,9.930000,3491800
2016-02-17,10.050000,10.140000,9.690000,9.840000,9.840000,2046700
2016-02-18,9.810000,10.100000,9.810000,9.980000,9.980000,954300
2016-02-19,10.110000,10.110000,9.750000,9.970000,9.970000,1039400
2016-02-22,10.154000,10.500000,10.070000,10.380000,10.380000,1224100
2016-02-23,10.390000,10.405000,9.460000,9.710000,9.710000,1004100
2016-02-24,9.580000,9.940000,9.320000,9.890000,9.890000,622500
2016-02-25,9.850000,10.300000,9.630000,10.260000,10.260000,861000
2016-02-26,10.250000,10.550000,10.151000,10.320000,10.320000,1081800
2016-02-29,10.360000,10.880000,10.310000,10.440000,10.440000,1071100
2016-03-01,10.600000,10.850000,10.240000,10.720000,10.720000,905100
2016-03-02,10.820000,12.000000,10.800000,11.970000,11.970000,2662900
2016-03-03,12.030000,12.650000,11.870000,12.250000,12.250000,2686700
2016-03-04,12.250000,12.470000,11.910000,12.010000,12.010000,1960100
2016-03-07,12.000000,12.645000,11.990000,12.260000,12.260000,2091400
2016-03-08,12.160000,12.220000,11.230000,11.480000,11.480000,1816700
2016-03-09,11.780000,12.200000,11.230000,12.030000,12.030000,5849500
2016-03-10,12.380000,12.430000,10.900000,11.300000,11.300000,9802000
2016-03-11,11.390000,11.480000,11.010000,11.100000,11.100000,2337700
2016-03-14,11.140000,11.830000,11.010000,11.610000,11.610000,3553600
2016-03-15,11.630000,12.000000,11.250000,11.950000,11.950000,1764000
2016-03-16,11.950000,12.060000,11.726000,11.870000,11.870000,977000
2016-03-17,11.830000,12.050000,11.750000,11.950000,11.950000,1309500
2016-03-18,12.000000,12.090000,11.750000,12.040000,12.040000,3161900
2016-03-21,12.050000,13.480000,12.050000,13.400000,13.400000,5097700
2016-03-22,13.250000,13.430000,12.950000,13.060000,13.060000,2755900
2016-03-23,13.190000,13.800000,12.060000,12.590000,12.590000,5390000
2016-03-24,12.350000,12.990000,12.301000,12.880000,12.880000,1765600
2016-03-28,13.110000,13.730000,12.771000,13.400000,13.400000,3367500
2016-03-29,13.380000,14.180000,13.150000,13.740000,13.740000,3605800
2016-03-30,14.030000,15.133000,13.800000,15.020000,15.020000,5110400
2016-03-31,14.750000,15.910000,14.370000,15.280000,15.280000,5629300
2016-04-01,15.230000,15.760000,14.032000,14.220000,14.220000,4776700
2016-04-04,14.280000,14.400000,13.740000,14.280000,14.280000,2242600
2016-04-05,14.060000,14.630000,13.850000,14.260000,14.260000,1886400
2016-04-06,14.390000,15.289000,14.275000,14.970000,14.970000,3038700
2016-04-07,15.000000,15.290000,14.510000,14.810000,14.810000,1759400
2016-04-08,15.010000,15.500000,14.750000,15.130000,15.130000,1869500
2016-04-11,15.150000,15.870000,15.130000,15.360000,15.360000,3104200
2016-04-12,15.550000,15.810000,15.050000,15.480000,15.480000,2358800
2016-04-13,15.520000,15.680000,14.784000,15.010000,15.010000,2646500
2016-04-14,15.100000,15.250000,14.600000,14.820000,14.820000,1754300
2016-04-15,14.850000,14.870000,14.180000,14.330000,14.330000,2405100
2016-04-18,14.200000,14.710000,14.130000,14.510000,14.510000,1384700
2016-04-19,14.590000,14.740000,13.630000,14.090000,14.090000,2539200
2016-04-20,14.000000,14.350000,13.370000,13.630000,13.630000,4211900
2016-04-21,13.680000,13.830000,13.000000,13.240000,13.240000,2085800
2016-04-22,13.200000,13.790000,13.190000,13.340000,13.340000,1587100
2016-04-25,13.550000,14.230000,13.410000,13.590000,13.590000,1956900
2016-04-26,13.630000,14.288000,13.600000,14.180000,14.180000,1702200
2016-04-27,14.000000,14.850000,14.000000,14.690000,14.690000,1671500
2016-04-28,14.690000,15.670000,14.520000,15.350000,15.350000,3022000
2016-04-29,15.420000,15.500000,14.520000,14.890000,14.890000,1818900
2016-05-02,14.900000,15.000000,13.720000,14.000000,14.000000,2546800
2016-05-03,13.870000,13.870000,13.214000,13.450000,13.450000,2263500
2016-05-04,13.450000,13.740000,12.900000,13.390000,13.390000,3135100
2016-05-05,13.500000,13.580000,12.860000,13.050000,13.050000,4973900
2016-05-06,10.890000,11.190000,10.153000,10.220000,10.220000,13716800
2016-05-09,10.170000,10.420000,9.569000,9.850000,9.850000,4881800
2016-05-10,9.950000,10.160000,9.800000,10.000000,10.000000,3068800
2016-05-11,10.200000,10.200000,9.640000,9.680000,9.680000,2430200
2016-05-12,9.780000,9.820000,9.200000,9.280000,9.280000,2703600
2016-05-13,9.300000,9.685000,9.280000,9.360000,9.360000,1968900
2016-05-16,9.300000,9.560000,8.910000,9.160000,9.160000,5488500
2016-05-17,8.980000,9.563000,8.630000,9.180000,9.180000,13089300
2016-05-18,9.110000,9.990000,9.110000,9.400000,9.400000,5261500
2016-05-19,9.360000,9.650000,9.245000,9.600000,9.600000,3792600
2016-05-20,9.610000,9.660000,9.250000,9.390000,9.390000,4165900
2016-05-23,9.600000,9.680000,9.400000,9.460000,9.460000,4961300
2016-05-24,9.630000,10.220000,9.480000,10.140000,10.140000,7870700
2016-05-25,10.130000,10.150000,9.810000,10.000000,10.000000,4933900
2016-05-26,10.000000,10.140000,9.750000,9.750000,9.750000,2578400
2016-05-27,9.880000,9.930000,9.500000,9.630000,9.630000,2404700
2016-05-31,9.700000,9.730000,9.460000,9.530000,9.530000,3815700
2016-06-01,9.500000,9.650000,9.350000,9.600000,9.600000,2171700
2016-06-02,9.500000,9.680000,9.400000,9.650000,9.650000,2332700
2016-06-03,9.570000,9.580000,9.330000,9.460000,9.460000,3083000
2016-06-06,9.420000,9.530000,9.350000,9.510000,9.510000,1865800
2016-06-07,9.490000,9.590000,9.410000,9.570000,9.570000,2524700
2016-06-08,9.590000,9.670000,9.350000,9.550000,9.550000,2951600
2016-06-09,9.480000,9.590000,9.300000,9.340000,9.340000,2496500
2016-06-10,9.270000,9.440000,9.045000,9.140000,9.140000,3925600
2016-06-13,9.120000,9.260000,8.870000,8.920000,8.920000,3509100
2016-06-14,8.980000,9.060000,8.800000,8.890000,8.890000,3510500
2016-06-15,8.890000,9.140000,8.680000,9.060000,9.060000,3241700
2016-06-16,8.650000,9.110000,8.640000,9.050000,9.050000,2876300
2016-06-17,8.940000,9.323000,8.910000,9.040000,9.040000,4075200
2016-06-20,8.990000,9.280000,8.820000,9.200000,9.200000,4263200
2016-06-21,9.200000,9.380000,9.120000,9.350000,9.350000,2594600
2016-06-22,9.280000,9.420000,8.750000,8.780000,8.780000,6098000
2016-06-23,9.050000,9.160000,8.850000,9.130000,9.130000,3792900
2016-06-24,8.680000,8.895000,8.520000,8.770000,8.770000,4909500
2016-06-27,8.720000,8.720000,8.420000,8.620000,8.620000,3946700
2016-06-28,8.750000,9.030000,8.710000,8.900000,8.900000,2374100
2016-06-29,9.000000,9.320000,8.910000,9.300000,9.300000,3367200
2016-06-30,9.240000,9.240000,9.000000,9.050000,9.050000,3589100
2016-07-01,9.200000,9.420000,9.090000,9.270000,9.270000,4211300
2016-07-05,9.200000,9.200000,8.910000,8.940000,8.940000,3407600
2016-07-06,8.850000,9.050000,8.780000,9.000000,9.000000,1182500
2016-07-07,9.020000,9.200000,8.910000,9.080000,9.080000,2740500
2016-07-08,9.400000,9.400000,9.170000,9.300000,9.300000,3183800
2016-07-11,9.350000,9.450000,9.160000,9.240000,9.240000,2607100
2016-07-12,9.250000,9.400000,9.220000,9.400000,9.400000,1609900
2016-07-13,9.400000,9.500000,9.210000,9.290000,9.290000,1831200
2016-07-14,9.310000,9.500000,9.300000,9.370000,9.370000,1850200
2016-07-15,9.330000,9.340000,9.100000,9.170000,9.170000,2338500
2016-07-18,9.120000,9.340000,9.100000,9.270000,9.270000,1543700
2016-07-19,9.240000,9.440000,9.220000,9.350000,9.350000,1484600
2016-07-20,9.340000,9.650000,9.310000,9.580000,9.580000,2608200
2016-07-21,9.590000,9.891000,9.420000,9.460000,9.460000,2687400
2016-07-22,9.500000,9.790000,9.500000,9.730000,9.730000,1741700
2016-07-25,9.710000,10.180000,9.650000,9.850000,9.850000,5623800
2016-07-26,9.770000,10.180000,9.750000,10.100000,10.100000,2816600
2016-07-27,10.200000,10.300000,10.020000,10.130000,10.130000,3082500
2016-07-28,10.100000,10.280000,10.070000,10.120000,10.120000,2129300
2016-07-29,10.130000,10.150000,9.900000,10.070000,10.070000,2717600
2016-08-01,10.020000,10.320000,10.020000,10.190000,10.190000,2792900
2016-08-02,9.910000,10.230000,9.850000,10.050000,10.050000,2980100
2016-08-03,10.050000,10.470000,10.010000,10.440000,10.440000,8043800
2016-08-04,12.090000,12.280000,11.260000,11.320000,11.320000,30313800
2016-08-05,11.320000,11.470000,10.850000,11.150000,11.150000,12881000
2016-08-08,11.130000,11.450000,11.040000,11.260000,11.260000,5226700
2016-08-09,11.270000,11.426000,11.190000,11.300000,11.300000,4700500
2016-08-10,11.260000,11.260000,10.980000,11.070000,11.070000,3376500
2016-08-11,11.080000,11.450000,11.080000,11.370000,11.370000,6812500
2016-08-12,11.330000,11.740000,11.230000,11.660000,11.660000,5723200
2016-08-15,11.620000,11.660000,11.250000,11.480000,11.480000,5912100
2016-08-16,11.540000,11.750000,11.500000,11.640000,11.640000,3508800
2016-08-17,11.540000,11.610000,11.330000,11.400000,11.400000,4808400
2016-08-18,11.380000,11.845000,11.370000,11.750000,11.750000,7220000
2016-08-19,11.930000,12.000000,11.780000,11.800000,11.800000,5882400
2016-08-22,11.780000,11.860000,11.590000,11.820000,11.820000,3198900
2016-08-23,12.350000,12.540000,12.150000,12.390000,12.390000,19081900
2016-08-24,12.400000,12.400000,12.110000,12.160000,12.160000,6771300
2016-08-25,12.180000,12.410000,12.115000,12.310000,12.310000,6605600
2016-08-26,12.310000,12.320000,11.910000,12.040000,12.040000,6469600
2016-08-29,11.840000,12.320000,11.790000,12.010000,12.010000,4370100
2016-08-30,11.980000,12.090000,11.970000,12.070000,12.070000,3751700
2016-08-31,12.040000,12.220000,12.020000,12.190000,12.190000,5458500
2016-09-01,12.210000,12.240000,11.990000,12.000000,12.000000,6005300
2016-09-02,12.050000,12.070000,11.900000,12.050000,12.050000,3357100
2016-09-06,12.050000,12.160000,11.790000,11.830000,11.830000,4338000
2016-09-07,11.830000,11.970000,11.830000,11.930000,11.930000,2579900
2016-09-08,11.900000,11.910000,11.740000,11.780000,11.780000,2031200
2016-09-09,11.670000,11.675000,11.160000,11.270000,11.270000,5310800
2016-09-12,11.150000,11.350000,11.021000,11.330000,11.330000,3019400
2016-09-13,11.300000,11.400000,11.113000,11.230000,11.230000,3389400
2016-09-14,11.280000,11.350000,11.020000,11.280000,11.280000,3423800
2016-09-15,11.250000,11.380000,11.140000,11.380000,11.380000,2879100
2016-09-16,11.350000,11.560000,11.300000,11.370000,11.370000,5550600
2016-09-19,11.460000,11.610000,11.355000,11.550000,11.550000,2925500
2016-09-20,11.550000,11.710000,11.500000,11.660000,11.660000,2801800
2016-09-21,11.660000,11.900000,11.580000,11.900000,11.900000,2297600
2016-09-22,11.900000,11.969000,11.660000,11.680000,11.680000,3113100
2016-09-23,11.740000,11.940000,11.550000,11.830000,11.830000,2781600
2016-09-26,11.830000,11.830000,11.510000,11.550000,11.550000,4612800
2016-09-27,11.520000,11.820000,11.510000,11.780000,11.780000,2314300
2016-09-28,11.930000,12.020000,11.560000,11.830000,11.830000,3749200
2016-09-29,11.800000,11.810000,11.590000,11.640000,11.640000,2707200
2016-09-30,11.690000,11.740000,11.590000,11.660000,11.660000,3562400
2016-10-03,11.610000,11.820000,11.520000,11.670000,11.670000,2480400
2016-10-04,11.630000,11.850000,11.580000,11.630000,11.630000,2132100
2016-10-05,11.650000,11.755000,11.550000,11.690000,11.690000,1674600
2016-10-06,11.550000,11.640000,11.290000,11.520000,11.520000,2370600
2016-10-07,11.400000,11.490000,11.280000,11.480000,11.480000,1660100
2016-10-10,11.540000,11.730000,11.440000,11.470000,11.470000,1580900
2016-10-11,11.420000,11.500000,11.140000,11.180000,11.180000,2345100
2016-10-12,11.150000,11.280000,11.065000,11.270000,11.270000,2510400
2016-10-13,11.160000,11.330000,11.060000,11.190000,11.190000,2599800
2016-10-14,11.240000,11.350000,11.070000,11.120000,11.120000,1897700
2016-10-17,11.020000,11.140000,10.880000,10.930000,10.930000,2452700
2016-10-18,11.010000,11.380000,11.010000,11.340000,11.340000,6320900
2016-10-19,11.280000,11.340000,11.160000,11.300000,11.300000,2548300
2016-10-20,11.300000,11.380000,11.100000,11.190000,11.190000,2024200
2016-10-21,11.140000,11.340000,11.040000,11.320000,11.320000,2957300
2016-10-24,11.360000,11.500000,11.220000,11.350000,11.350000,2172800
2016-10-25,11.310000,11.320000,11.010000,11.070000,11.070000,2853200
2016-10-26,11.050000,11.210000,11.000000,11.210000,11.210000,2453000
2016-10-27,11.250000,11.250000,11.080000,11.150000,11.150000,1909400
2016-10-28,11.150000,11.320000,11.050000,11.140000,11.140000,3150500
2016-10-31,11.140000,11.250000,11.060000,11.200000,11.200000,2960600
2016-11-01,11.200000,11.350000,11.000000,11.070000,11.070000,8190900
2016-11-02,11.450000,11.890000,11.290000,11.780000,11.780000,19503200
2016-11-03,11.690000,12.050000,11.670000,11.990000,11.990000,7371500
2016-11-04,11.960000,12.300000,11.940000,12.180000,12.180000,13462800
2016-11-07,12.260000,12.440000,12.190000,12.220000,12.220000,5571300
2016-11-08,12.160000,12.395000,12.120000,12.340000,12.340000,4045900
2016-11-09,11.690000,12.190000,11.670000,12.000000,12.000000,6211500
2016-11-10,12.050000,12.110000,11.581000,11.650000,11.650000,5720600
2016-11-11,11.630000,11.950000,11.430000,11.880000,11.880000,4766200
2016-11-14,12.120000,12.620000,12.120000,12.350000,12.350000,19713000
2016-11-15,12.320000,12.490000,12.020000,12.030000,12.030000,4553100
2016-11-16,12.000000,12.050000,11.760000,12.040000,12.040000,4296200
2016-11-17,11.880000,12.360000,11.880000,12.220000,12.220000,4801100
2016-11-18,12.260000,12.470000,12.145000,12.160000,12.160000,2937000
2016-11-21,12.240000,12.360000,12.080000,12.220000,12.220000,3760100
2016-11-22,12.250000,12.510000,12.250000,12.460000,12.460000,4480000
2016-11-23,12.400000,12.500000,12.320000,12.430000,12.430000,3051000
2016-11-25,12.510000,12.770000,12.490000,12.750000,12.750000,2312700
2016-11-28,12.650000,12.840000,12.510000,12.530000,12.530000,4204900
2016-11-29,12.530000,12.690000,12.380000,12.460000,12.460000,5073700
2016-11-30,12.470000,13.000000,12.460000,12.940000,12.940000,7805400
2016-12-01,12.740000,12.880000,12.460000,12.710000,12.710000,9372900
2016-12-02,12.930000,13.275000,12.930000,13.060000,13.060000,7325700
2016-12-05,13.180000,13.395000,13.080000,13.200000,13.200000,4764400
2016-12-06,13.210000,13.330000,13.030000,13.270000,13.270000,3093800
2016-12-07,13.490000,14.160000,13.400000,14.120000,14.120000,11375100
2016-12-08,14.120000,14.170000,13.700000,13.940000,13.940000,5539000
2016-12-09,13.980000,13.990000,13.730000,13.890000,13.890000,3715200
2016-12-12,13.930000,14.090000,13.650000,13.850000,13.850000,4708000
2016-12-13,13.740000,14.110000,13.730000,14.070000,14.070000,5392900
2016-12-14,13.930000,14.190000,13.800000,13.830000,13.830000,3072600
2016-12-15,13.780000,14.370000,13.750000,14.130000,14.130000,4517100
2016-12-16,14.290000,14.470000,14.230000,14.380000,14.380000,7372800
2016-12-19,14.350000,14.600000,14.300000,14.360000,14.360000,4170500
2016-12-20,14.730000,14.820000,14.410000,14.480000,14.480000,5822700
2016-12-21,14.450000,14.540000,14.270000,14.380000,14.380000,4275300
2016-12-22,14.330000,14.340000,13.930000,14.050000,14.050000,4086000
2016-12-23,13.940000,14.240000,13.880000,14.070000,14.070000,1609400
2016-12-27,14.120000,14.246000,14.000000,14.000000,14.000000,2705600
2016-12-28,14.080000,14.120000,13.850000,13.950000,13.950000,2389000
2016-12-29,13.940000,14.110000,13.640000,13.730000,13.730000,2978700
2016-12-30,13.710000,13.770000,13.530000,13.630000,13.630000,2986600
2017-01-03,13.820000,14.015000,13.660000,13.810000,13.810000,3363900
2017-01-04,13.860000,14.260000,13.725000,14.250000,14.250000,4977400
2017-01-05,14.250000,14.610000,14.010000,14.560000,14.560000,5779800
2017-01-06,14.560000,15.075000,14.530000,15.000000,15.000000,6382200
2017-01-09,14.980000,15.195000,14.850000,15.060000,15.060000,4960200
2017-01-10,15.090000,15.490000,14.700000,14.910000,14.910000,6739900
2017-01-11,14.950000,14.990000,14.710000,14.900000,14.900000,3952600
2017-01-12,14.840000,14.880000,14.545000,14.740000,14.740000,2324800
2017-01-13,14.790000,14.920000,14.690000,14.750000,14.750000,1921400
2017-01-17,14.690000,14.770000,14.540000,14.690000,14.690000,3198900
2017-01-18,14.800000,14.840000,14.620000,14.640000,14.640000,8076800
2017-01-19,14.640000,14.890000,14.600000,14.730000,14.730000,2511800
2017-01-20,14.750000,15.000000,14.715000,14.890000,14.890000,3153300
2017-01-23,14.900000,14.960000,14.570000,14.610000,14.610000,3881100
2017-01-24,14.610000,14.750000,14.430000,14.660000,14.660000,3651900
2017-01-25,14.690000,14.990000,14.520000,14.600000,14.600000,3234600
2017-01-26,14.500000,14.630000,14.130000,14.410000,14.410000,4310400
2017-01-27,14.470000,14.550000,14.265000,14.530000,14.530000,2320000
2017-01-30,14.460000,14.490000,14.180000,14.450000,14.450000,2422200
2017-01-31,14.400000,14.770000,14.365000,14.620000,14.620000,3124100
2017-02-01,14.490000,14.565000,14.180000,14.360000,14.360000,4679000
2017-02-02,14.250000,14.500000,14.190000,14.360000,14.360000,2376200
2017-02-03,14.290000,14.440000,14.110000,14.280000,14.280000,3632200
2017-02-06,14.290000,14.500000,14.030000,14.400000,14.400000,3157400
2017-02-07,14.380000,14.500000,14.260000,14.400000,14.400000,3085600
2017-02-08,14.440000,14.555000,14.350000,14.470000,14.470000,2586200
2017-02-09,14.470000,14.745000,14.470000,14.730000,14.730000,2548300
2017-02-10,14.740000,14.740000,14.530000,14.610000,14.610000,2159800
2017-02-13,14.650000,15.040000,14.450000,14.500000,14.500000,7216800
2017-02-14,14.470000,14.520000,14.030000,14.330000,14.330000,5903400
2017-02-15,14.310000,14.410000,14.210000,14.310000,14.310000,4068300
2017-02-16,14.300000,14.350000,13.840000,13.890000,13.890000,5932100
2017-02-17,14.020000,14.600000,13.990000,14.470000,14.470000,7726400
2017-02-21,14.630000,14.660000,14.340000,14.630000,14.630000,6042300
2017-02-22,14.750000,15.215000,14.600000,15.040000,15.040000,12329800
2017-02-23,16.670000,17.750000,16.320000,17.150000,17.150000,43946600
2017-02-24,16.950001,17.629999,16.900000,17.430000,17.430000,15892300
2017-02-27,17.420000,18.170000,17.309999,17.930000,17.930000,12652700
2017-02-28,17.790001,17.790001,17.270000,17.320000,17.320000,12769700
2017-03-01,17.530001,17.639999,17.059999,17.219999,17.219999,13025600
2017-03-02,17.200001,17.350000,16.980000,16.990000,16.990000,7293700
2017-03-03,16.830000,17.200001,16.570000,16.889999,16.889999,13050500
2017-03-06,16.910000,17.155001,16.709999,16.860001,16.860001,6005700
2017-03-07,16.900000,16.900000,16.500000,16.760000,16.760000,5762700
2017-03-08,16.760000,17.000000,16.700001,16.830000,16.830000,3872100
2017-03-09,16.850000,17.205000,16.700001,17.070000,17.070000,5693700
2017-03-10,17.139999,17.180000,16.830000,16.910000,16.910000,4865600
2017-03-13,16.910000,17.091999,16.830000,16.930000,16.930000,3718000
2017-03-14,16.950001,16.950001,16.639999,16.770000,16.770000,3950500
2017-03-15,16.799999,17.000000,16.740000,16.950001,16.950001,4548700
2017-03-16,17.000000,17.280001,17.000000,17.209999,17.209999,8838400
2017-03-17,17.180000,17.340000,17.059999,17.280001,17.280001,5680700
2017-03-20,17.280001,17.370001,17.170000,17.240000,17.240000,4596100
2017-03-21,17.250000,17.280001,16.400000,16.510000,16.510000,6379900
2017-03-22,16.459999,16.565001,16.110001,16.410000,16.410000,5054200
2017-03-23,16.400000,17.030001,16.400000,16.610001,16.610001,6410200
2017-03-24,16.750000,16.940001,16.469999,16.590000,16.590000,4008500
2017-03-27,16.370001,17.270000,16.219999,17.250000,17.250000,6935500
2017-03-28,17.379999,17.500000,16.920000,17.230000,17.230000,7385300
2017-03-29,17.219999,17.590000,17.190001,17.219999,17.219999,5381500
2017-03-30,17.250000,17.395000,17.120001,17.320000,17.320000,4580900
2017-03-31,17.320000,17.420000,17.219999,17.280001,17.280001,2356300
2017-04-03,17.240000,17.299999,16.690001,17.030001,17.030001,8709100
2017-04-04,16.969999,17.180000,16.930000,17.040001,17.040001,5979200
2017-04-05,17.049999,17.080000,16.740000,16.750000,16.750000,5388500
2017-04-06,16.840000,17.010000,16.690001,17.000000,17.000000,4800100
2017-04-07,17.000000,17.000000,16.690001,16.690001,16.690001,4319500
2017-04-10,16.780001,17.100000,16.778000,16.990000,16.990000,3781500
2017-04-11,16.930000,16.990000,16.660000,16.920000,16.920000,3199000
2017-04-12,16.879999,17.510000,16.780001,17.299999,17.299999,11161400
2017-04-13,17.270000,17.370001,16.750000,16.920000,16.920000,5286000
2017-04-17,16.920000,17.100000,16.820000,17.080000,17.080000,2196000
2017-04-18,17.010000,17.040001,16.870001,16.980000,16.980000,3282000
2017-04-19,17.000000,17.427000,16.980000,17.200001,17.200001,3799300
2017-04-20,17.309999,17.750000,17.299999,17.709999,17.709999,4897100
2017-04-21,17.830000,17.830000,17.320000,17.490000,17.490000,5176700
2017-04-24,17.750000,17.934999,17.584999,17.850000,17.850000,5380800
2017-04-25,17.969999,18.299999,17.815001,18.219999,18.219999,7965500
2017-04-26,18.250000,18.250000,17.920000,18.080000,18.080000,4504900
2017-04-27,18.180000,18.455000,18.150999,18.230000,18.230000,5680400
2017-04-28,18.320000,18.400000,17.945000,18.240000,18.240000,4644500
2017-05-01,18.330000,18.795000,18.150000,18.610001,18.610001,5865200
2017-05-02,18.969999,19.030001,18.469999,18.809999,18.809999,9125400
2017-05-03,18.900000,18.900000,18.080000,18.280001,18.280001,14720700
2017-05-04,19.230000,20.420000,19.180000,19.900000,19.900000,26533600
2017-05-05,19.750000,19.900000,19.350000,19.780001,19.780001,9608300
2017-05-08,19.730000,19.840000,19.469999,19.559999,19.559999,6361600
2017-05-09,19.639999,20.049999,19.520000,19.799999,19.799999,8102400
2017-05-10,19.730000,19.969999,19.650000,19.950001,19.950001,5784500
2017-05-11,19.950001,19.990000,19.549999,19.709999,19.709999,4439200
2017-05-12,19.750000,20.500000,19.750000,20.080000,20.080000,7809200
2017-05-15,20.190001,20.385000,20.120001,20.250000,20.250000,4503200
2017-05-16,20.250000,20.690001,20.125000,20.340000,20.340000,8379000
2017-05-17,19.870001,20.160000,19.530001,19.559999,19.559999,12443100
2017-05-18,19.530001,19.940001,19.450001,19.680000,19.680000,5818700
2017-05-19,19.879999,20.000000,19.725000,19.910000,19.910000,5086700
2017-05-22,19.980000,21.000000,19.980000,20.950001,20.950001,9836000
2017-05-23,20.980000,21.750000,20.900000,21.639999,21.639999,12888000
2017-05-24,21.639999,21.980000,21.420000,21.920000,21.920000,6623500
2017-05-25,21.969999,22.730000,21.930000,22.330000,22.330000,9841500
2017-05-26,22.340000,22.610001,22.219999,22.330000,22.330000,6402200
2017-05-30,22.370001,22.860001,22.280001,22.740000,22.740000,7032600
2017-05-31,23.070000,23.570000,22.809999,22.990000,22.990000,10844300
2017-06-01,23.049999,23.235001,22.740999,23.230000,23.230000,5882200
2017-06-02,23.197001,23.230000,22.549999,23.200001,23.200001,8156500
2017-06-05,23.110001,23.730000,22.850000,23.389999,23.389999,7817400
2017-06-06,23.500000,24.440001,23.490000,24.209999,24.209999,14665100
2017-06-07,24.450001,24.500000,23.700001,24.290001,24.290001,9844900
2017-06-08,24.309999,24.830000,24.070000,24.780001,24.780001,6943200
2017-06-09,24.719999,24.969999,22.413000,23.030001,23.030001,16322100
2017-06-12,22.700001,23.600000,22.410000,23.600000,23.600000,16378800
2017-06-13,24.110001,24.200001,23.340000,23.480000,23.480000,6790600
2017-06-14,23.590000,23.670000,23.030001,23.469999,23.469999,6888300
2017-06-15,23.120001,24.170000,22.450001,23.990000,23.990000,8937200
2017-06-16,23.580000,23.990000,23.309999,23.559999,23.559999,9809500
2017-06-19,23.620001,24.225000,23.559999,24.200001,24.200001,8147600
2017-06-20,24.250000,24.459999,23.580000,23.850000,23.850000,7159900
2017-06-21,24.040001,24.340000,23.959999,24.160000,24.160000,4203100
2017-06-22,24.230000,24.350000,23.930000,24.280001,24.280001,5175100
2017-06-23,24.330000,24.420000,23.879999,24.170000,24.170000,15013700
2017-06-26,24.330000,24.500000,23.840000,23.930000,23.930000,5205400
2017-06-27,23.930000,24.240000,23.209999,23.320000,23.320000,5745800
2017-06-28,23.639999,24.340000,23.400000,24.299999,24.299999,6957700
2017-06-29,24.270000,24.299999,23.230000,23.400000,23.400000,7136300
2017-06-30,23.450001,23.670000,23.302999,23.459999,23.459999,4259000
2017-07-03,23.549999,23.600000,22.660000,22.830000,22.830000,3584100
2017-07-05,23.299999,24.160000,23.049999,23.760000,23.760000,9203000
2017-07-06,23.719999,23.900000,23.190001,23.219999,23.219999,5135100
2017-07-07,23.430000,23.820000,23.391001,23.590000,23.590000,3423900
2017-07-10,23.580000,24.129999,23.440001,23.940001,23.940001,4661100
2017-07-11,24.000000,25.559999,23.809999,25.440001,25.440001,17666000
2017-07-12,25.610001,26.434999,25.160000,26.209999,26.209999,15317900
2017-07-13,26.180000,26.500000,25.660000,25.980000,25.980000,8413000
2017-07-14,26.030001,26.650000,25.969999,26.330000,26.330000,6816700
2017-07-17,26.490000,26.620001,26.059999,26.190001,26.190001,4231300
2017-07-18,26.299999,26.790001,26.170000,26.590000,26.590000,7662500
2017-07-19,26.750000,26.771999,26.200001,26.360001,26.360001,4567500
2017-07-20,26.440001,26.549999,26.219999,26.389999,26.389999,4154800
2017-07-21,26.540001,27.110001,26.370001,26.850000,26.850000,5700500
2017-07-24,26.850000,26.995001,26.219999,26.750000,26.750000,9104200
2017-07-25,26.850000,26.920000,26.350000,26.889999,26.889999,4223400
2017-07-26,26.930000,27.680000,26.850000,27.309999,27.309999,7892800
2017-07-27,27.940001,27.969999,25.200001,25.920000,25.920000,14476100
2017-07-28,26.100000,26.580000,25.600000,26.200001,26.200001,7787900
2017-07-31,26.469999,26.840000,26.030001,26.350000,26.350000,6473200
2017-08-01,26.580000,26.900000,26.389999,26.809999,26.809999,6999200
2017-08-02,27.250000,27.299999,25.600000,26.459999,26.459999,16149700
2017-08-03,25.400000,25.840000,24.700001,25.219999,25.219999,15868200
2017-08-04,25.270000,25.770000,25.000000,25.209999,25.209999,8209700
2017-08-07,25.340000,25.850000,25.299999,25.680000,25.680000,5918500
2017-08-08,25.900000,26.270000,25.469999,26.020000,26.020000,7229800
2017-08-09,25.799999,25.860001,25.370001,25.590000,25.590000,5717300
2017-08-10,25.490000,25.500000,24.580000,24.650000,24.650000,8546200
2017-08-11,24.410000,25.090000,24.360001,24.820000,24.820000,5266500
2017-08-14,25.250000,25.469999,25.030001,25.200001,25.200001,4258200
2017-08-15,25.360001,25.379999,24.799999,24.830000,24.830000,5047500
2017-08-16,25.080000,25.180000,24.865000,24.990000,24.990000,4170600
2017-08-17,25.000000,25.469999,24.510000,24.540001,24.540001,5352700
2017-08-18,24.780001,25.080000,24.635000,24.830000,24.830000,5325700
2017-08-21,24.920000,25.000000,24.219999,24.459999,24.459999,5867200
2017-08-22,24.719999,25.340000,24.700001,25.340000,25.340000,7065400
2017-08-23,25.299999,25.879999,25.200001,25.480000,25.480000,6008600
2017-08-24,25.700001,25.850000,25.350000,25.660000,25.660000,4734100
2017-08-25,25.850000,25.879999,24.920000,24.990000,24.990000,5619900
2017-08-28,25.110001,25.150000,24.799999,24.910000,24.910000,3555800
2017-08-29,24.760000,25.100000,24.639999,25.040001,25.040001,3640600
2017-08-30,25.430000,25.910000,25.180000,25.760000,25.760000,4453300
2017-08-31,25.900000,26.490000,25.870001,26.110001,26.110001,5352800
2017-09-01,26.100000,26.250000,25.660000,25.930000,25.930000,3257300
2017-09-05,25.750000,25.820000,25.240000,25.770000,25.770000,4970500
2017-09-06,25.900000,26.170000,25.719999,26.049999,26.049999,6502500
2017-09-07,26.120001,26.690001,25.860001,26.299999,26.299999,7855700
2017-09-08,26.469999,26.990000,26.400000,26.530001,26.530001,5933400
2017-09-11,26.799999,27.660000,26.780001,27.570000,27.570000,8612700
2017-09-12,27.600000,27.639999,26.799999,27.270000,27.270000,6133900
2017-09-13,27.400000,27.500000,26.671000,27.490000,27.490000,6271700
2017-09-14,27.469999,28.799999,27.280001,28.639999,28.639999,16225400
2017-09-15,28.230000,28.730000,28.010000,28.500000,28.500000,19504800
2017-09-18,28.590000,29.000000,28.500000,28.690001,28.690001,9366400
2017-09-19,28.700001,28.850000,28.350000,28.559999,28.559999,5885300
2017-09-20,28.530001,28.670000,28.219999,28.469999,28.469999,4327000
2017-09-21,28.379999,28.500000,28.070000,28.400000,28.400000,3976400
2017-09-22,28.400000,28.940001,28.309999,28.750000,28.750000,4841500
2017-09-25,28.750000,28.760000,27.209999,27.450001,27.450001,9481900
2017-09-26,27.879999,28.480000,27.379999,27.610001,27.610001,5850900
2017-09-27,28.459999,28.549999,27.815001,28.070000,28.070000,4849300
2017-09-28,28.450001,28.570000,27.959999,28.490000,28.490000,5875700
2017-09-29,28.510000,28.875000,28.270000,28.809999,28.809999,5705500
2017-10-02,28.799999,29.549999,28.780001,29.389999,29.389999,6336000
2017-10-03,29.450001,30.025000,29.370001,29.940001,29.940001,8843300
2017-10-04,30.030001,30.399000,29.559999,30.150000,30.150000,7434100
2017-10-05,30.180000,30.900000,30.000000,30.760000,30.760000,7507300
2017-10-06,30.549999,30.879999,30.500000,30.760000,30.760000,4008100
2017-10-09,30.770000,31.520000,30.760000,31.070000,31.070000,5893200
2017-10-10,31.440001,31.440001,30.650000,31.320000,31.320000,5774700
2017-10-11,31.340000,32.000000,31.209999,32.000000,32.000000,6896500
2017-10-12,32.349998,33.160999,32.209999,32.810001,32.810001,10528100
2017-10-13,33.220001,33.220001,32.410000,32.810001,32.810001,7135600
2017-10-16,32.950001,33.294998,32.580002,33.220001,33.220001,6299800
2017-10-17,33.250000,33.305000,32.130001,32.689999,32.689999,10864400
2017-10-18,33.020000,33.060001,32.341000,32.520000,32.520000,5437500
2017-10-19,32.090000,32.259998,31.441000,32.119999,32.119999,6978100
2017-10-20,32.610001,32.750000,32.200001,32.500000,32.500000,5926000
2017-10-23,32.740002,32.976002,32.459999,32.529999,32.529999,4885700
2017-10-24,32.799999,32.842999,32.500000,32.709999,32.709999,3847900
2017-10-25,32.990002,32.990002,32.200001,32.900002,32.900002,6198100
2017-10-26,33.000000,34.750000,32.820000,34.110001,34.110001,14738200
2017-10-27,34.689999,35.290001,34.215000,35.200001,35.200001,10183500
2017-10-30,35.799999,35.810001,34.660000,35.750000,35.750000,10321400
2017-10-31,35.820000,37.439999,35.820000,37.189999,37.189999,13075900
2017-11-01,37.480000,37.520000,35.869999,36.470001,36.470001,10587400
2017-11-02,35.869999,36.360001,34.750000,36.070000,36.070000,8884500
2017-11-03,36.230000,36.980000,35.910999,36.889999,36.889999,6615600
2017-11-06,37.310001,37.750000,36.799999,37.180000,37.180000,8503000
2017-11-07,37.689999,37.689999,36.290001,36.759998,36.759998,10536700
2017-11-08,36.939999,37.159000,36.000000,36.709999,36.709999,13485400
2017-11-09,36.450001,38.009998,34.830002,37.959999,37.959999,23511400
2017-11-10,37.650002,39.730999,37.389999,39.209999,39.209999,19473500
2017-11-13,39.130001,40.189999,38.310001,39.980000,39.980000,14382400
2017-11-14,39.980000,40.500000,39.509998,39.740002,39.740002,11567500
2017-11-15,41.150002,41.799999,40.169998,40.660000,40.660000,20676000
2017-11-16,40.950001,41.970001,40.520000,41.900002,41.900002,19901900
2017-11-17,42.490002,45.740002,42.439999,44.180000,44.180000,39206500
2017-11-20,44.990002,46.060001,44.580002,45.209999,45.209999,28654900
2017-11-21,46.000000,48.240002,45.702999,48.060001,48.060001,28904500
2017-11-22,46.861000,49.549999,46.099998,48.810001,48.810001,44557600
2017-11-24,49.400002,49.560001,48.110001,48.860001,48.860001,16562700
2017-11-27,47.209999,47.400002,40.369999,41.020000,41.020000,76437500
2017-11-28,39.889999,44.049999,39.500000,42.549999,42.549999,56515900
2017-11-29,43.200001,43.389999,37.180000,39.130001,39.130001,52069600
2017-11-30,39.270000,40.779999,38.820000,39.220001,39.220001,39352700
2017-12-01,39.340000,39.549999,36.720001,38.220001,38.220001,25390100
2017-12-04,38.410000,38.689999,35.900002,36.869999,36.869999,29566900
2017-12-05,36.750000,38.590000,36.740002,37.599998,37.599998,21276200
2017-12-06,37.730000,39.770000,37.270000,37.610001,37.610001,28820400
2017-12-07,39.325001,39.459999,37.959999,38.730000,38.730000,23721600
2017-12-08,39.610001,39.790001,37.939999,38.090000,38.090000,20917800
2017-12-11,38.150002,38.680000,37.700001,38.299999,38.299999,15780200
2017-12-12,38.070000,39.639999,37.930000,38.080002,38.080002,18834100
2017-12-13,38.169998,38.450001,36.070000,36.189999,36.189999,25376200
2017-12-14,35.849998,37.540001,35.799999,37.009998,37.009998,20939500
2017-12-15,37.299999,37.653000,36.869999,37.029999,37.029999,12932000
2017-12-18,37.410000,38.000000,37.220001,37.750000,37.750000,11897300
2017-12-19,38.099998,38.099998,36.520000,36.919998,36.919998,12019100
2017-12-20,36.980000,37.040001,35.580002,35.660000,35.660000,14012000
2017-12-21,35.680000,36.470001,35.660000,35.869999,35.869999,9669100
2017-12-22,35.070000,35.330002,34.139999,35.139999,35.139999,14382400
2017-12-26,35.000000,35.500000,34.720001,35.049999,35.049999,7131300
2017-12-27,35.009998,36.090000,35.009998,35.750000,35.750000,9559500
2017-12-28,35.919998,36.099998,34.959999,35.130001,35.130001,8217500
2017-12-29,34.790001,35.080002,34.380001,34.669998,34.669998,10462300
2018-01-02,34.700001,36.240002,34.680000,36.169998,36.169998,11240500
2018-01-03,36.430000,37.360001,36.049999,37.310001,37.310001,11617900
2018-01-04,38.299999,38.660000,37.400002,38.099998,38.099998,20469800
2018-01-05,38.389999,41.150002,38.189999,41.139999,41.139999,31102000
2018-01-08,41.000000,41.910000,39.810001,40.759998,40.759998,26626100
2018-01-09,40.450001,41.480999,39.220001,40.880001,40.880001,14710900
2018-01-10,40.619999,41.200001,40.000000,40.840000,40.840000,11265600
2018-01-11,41.029999,43.080002,41.029999,42.299999,42.299999,21023600
2018-01-12,42.369999,42.500000,41.009998,41.250000,41.250000,13852300
2018-01-16,41.150002,41.250000,38.669998,39.320000,39.320000,17333900
2018-01-17,39.320000,40.310001,39.220001,40.060001,40.060001,10952300
2018-01-18,40.290001,41.130001,40.020000,40.270000,40.270000,9836400
2018-01-19,42.169998,42.980000,41.660000,42.560001,42.560001,24141600
2018-01-22,42.799999,45.439999,42.759998,45.290001,45.290001,27197400
2018-01-23,45.060001,45.669998,43.500000,45.009998,45.009998,19998000
2018-01-24,45.220001,45.820000,43.040001,44.320000,44.320000,13960500
2018-01-25,44.830002,45.490002,44.029999,45.119999,45.119999,9049900
2018-01-26,45.500000,46.250000,44.849998,45.970001,45.970001,11110100
2018-01-29,46.080002,46.249001,44.900002,45.430000,45.430000,7642500
2018-01-30,44.419998,45.939999,42.560001,45.520000,45.520000,10229300
2018-01-31,45.969002,47.500000,45.799999,46.910000,46.910000,15334400
2018-02-01,45.750000,46.709999,44.020000,44.450001,44.450001,15925100
2018-02-02,43.900002,45.349998,43.349998,43.610001,43.610001,14284100
2018-02-05,42.040001,44.230000,40.119999,41.020000,41.020000,16631600
2018-02-06,39.919998,41.980000,39.099998,41.610001,41.610001,20298800
2018-02-07,42.009998,42.790001,41.500000,41.669998,41.669998,11060600
2018-02-08,42.849998,42.849998,39.500000,39.500000,39.500000,16509100
2018-02-09,39.970001,40.570000,36.759998,39.570000,39.570000,18780000
2018-02-12,39.810001,40.459999,38.799999,39.919998,39.919998,9912800
2018-02-13,39.849998,42.680000,39.740002,42.110001,42.110001,13293800
2018-02-14,41.810001,42.490002,40.720001,41.849998,41.849998,16185700
2018-02-15,42.299999,45.040001,42.220001,44.290001,44.290001,19642300
2018-02-16,44.029999,45.189999,43.540001,44.110001,44.110001,10247800
2018-02-20,44.560001,46.439999,44.360001,44.930000,44.930000,15747000
2018-02-21,45.849998,45.900002,43.799999,44.099998,44.099998,11365400
2018-02-22,44.369999,45.000000,44.009998,44.900002,44.900002,7078200
2018-02-23,45.020000,45.459999,44.220001,44.860001,44.860001,7901400
2018-02-26,45.500000,46.849998,45.250000,46.549999,46.549999,13615200
2018-02-27,46.560001,47.110001,45.410000,45.910000,45.910000,19449200
2018-02-28,45.900002,48.000000,45.549999,46.049999,46.049999,24022000
2018-03-01,46.000000,46.250000,44.290001,46.009998,46.009998,17570500
2018-03-02,45.340000,46.119999,45.009998,46.020000,46.020000,11010500
2018-03-05,45.459999,50.500000,45.439999,50.419998,50.419998,30623200
2018-03-06,49.549999,50.009998,47.810001,49.599998,49.599998,20827200
2018-03-07,48.700001,51.889999,48.549999,50.720001,50.720001,18318000
2018-03-08,50.720001,52.970001,50.700001,52.250000,52.250000,16961300
2018-03-09,52.700001,53.220001,52.150002,52.490002,52.490002,11545300
2018-03-12,52.619999,53.790001,52.099998,53.189999,53.189999,12482100
2018-03-13,53.400002,53.646999,50.759998,51.830002,51.830002,13500400
2018-03-14,53.200001,54.840000,53.200001,54.610001,54.610001,22043000
2018-03-15,55.099998,55.540001,54.090000,54.840000,54.840000,13391000
2018-03-16,54.520000,55.049999,53.900002,54.889999,54.889999,10818300
2018-03-19,54.779999,55.886002,53.150002,54.580002,54.580002,16600600
2018-03-20,54.389999,58.069000,54.299999,57.689999,57.689999,17238200
2018-03-21,57.810001,58.459999,56.520000,57.090000,57.090000,13534300
2018-03-22,56.770000,56.770000,54.270000,55.160000,55.160000,15704100
2018-03-23,54.060001,54.060001,51.119999,51.669998,51.669998,20521900
2018-03-26,53.049999,53.660000,51.110001,53.549999,53.549999,11332700
2018-03-27,54.860001,55.150002,50.349998,51.060001,51.060001,13509300
2018-03-28,50.400002,50.400002,46.139999,47.389999,47.389999,27553900
2018-03-29,47.849998,49.790001,47.650002,49.200001,49.200001,18350500
2018-04-02,48.880001,49.369999,47.020000,47.680000,47.680000,11918400
2018-04-03,48.700001,48.869999,46.750000,47.580002,47.580002,9794600
2018-04-04,45.459999,47.840000,45.160000,47.669998,47.669998,10540100
2018-04-05,48.299999,48.880001,47.570000,48.020000,48.020000,9375200
2018-04-06,47.500000,47.650002,44.939999,45.869999,45.869999,14184800
2018-04-09,46.130001,47.189999,45.830002,45.889999,45.889999,8445300
2018-04-10,46.990002,47.880001,46.501999,47.799999,47.799999,8701500
2018-04-11,47.669998,48.990002,47.459999,47.759998,47.759998,7832300
2018-04-12,48.450001,50.139999,48.150002,49.689999,49.689999,10479900
2018-04-13,50.340000,50.419998,47.209999,47.500000,47.500000,11286200
2018-04-16,47.779999,47.900002,46.369999,47.029999,47.029999,7414700
2018-04-17,47.930000,49.689999,47.869999,49.130001,49.130001,8250200
2018-04-18,49.340000,51.680000,48.759998,51.380001,51.380001,11145500
2018-04-19,51.130001,51.580002,50.090000,50.630001,50.630001,8926400
2018-04-20,50.889999,52.500000,50.660000,51.459999,51.459999,9079200
2018-04-23,51.799999,51.990002,50.119999,50.349998,50.349998,7092100
2018-04-24,50.349998,50.349998,45.310001,46.009998,46.009998,18383900
2018-04-25,46.799999,46.900002,43.720001,44.750000,44.750000,16085100
2018-04-26,46.110001,47.369999,45.599998,46.740002,46.740002,10236800
2018-04-27,48.000000,48.770000,47.189999,47.570000,47.570000,10176400
2018-04-30,47.700001,48.919998,45.759998,47.340000,47.340000,16758000
2018-05-01,47.110001,48.500000,46.689999,48.200001,48.200001,7670000
2018-05-02,48.340000,50.000000,48.299999,48.660000,48.660000,18113300
2018-05-03,46.700001,49.480000,46.500999,49.209999,49.209999,20472800
2018-05-04,48.299999,49.669998,48.150002,49.099998,49.099998,10442100
2018-05-07,49.099998,51.820000,49.049999,51.119999,51.119999,13758900
2018-05-08,51.209999,53.680000,50.240002,53.320000,53.320000,18013400
2018-05-09,53.150002,54.889999,52.430000,54.259998,54.259998,12653500
2018-05-10,54.520000,55.500000,53.860001,54.650002,54.650002,10628800
2018-05-11,54.540001,55.480000,54.009998,54.730000,54.730000,7470500
2018-05-14,55.049999,56.080002,54.049999,54.279999,54.279999,10681900
2018-05-15,54.020000,55.000000,53.130001,54.650002,54.650002,7653600
2018-05-16,54.779999,56.720001,54.459999,56.590000,56.590000,10878800
2018-05-17,56.500000,57.189999,54.599998,54.820000,54.820000,14528400
2018-05-18,53.540001,55.330002,53.000000,55.040001,55.040001,10012200
2018-05-21,56.040001,57.049999,55.705002,56.389999,56.389999,8228800
2018-05-22,56.400002,56.619999,54.490002,54.630001,54.630001,9693800
2018-05-23,54.169998,55.090000,53.660000,55.090000,55.090000,9545800
2018-05-24,55.000000,55.840000,54.759998,55.549999,55.549999,7574100
2018-05-25,55.840000,56.860001,55.410000,55.770000,55.770000,5509700
2018-05-29,56.000000,57.839001,55.889999,56.919998,56.919998,10247300
2018-05-30,57.669998,58.389999,56.919998,57.910000,57.910000,9457000
2018-05-31,58.000000,58.900002,57.599998,58.250000,58.250000,7980900
2018-06-01,58.700001,60.259998,58.280998,59.410000,59.410000,10479600
2018-06-04,60.490002,61.490002,59.709999,61.200001,61.200001,10717900
2018-06-05,61.360001,61.930000,60.430000,61.570000,61.570000,8752800
2018-06-06,61.599998,62.830002,61.080002,62.720001,62.720001,8590900
2018-06-07,62.650002,62.770000,59.299999,60.669998,60.669998,14474600
2018-06-08,60.580002,62.040001,60.189999,61.779999,61.779999,8300900
2018-06-11,61.970001,62.459999,59.500000,61.290001,61.290001,6048000
2018-06-12,61.770000,64.080002,61.650002,63.209999,63.209999,9585600
2018-06-13,62.250000,63.860001,62.169998,62.500000,62.500000,11262000
2018-06-14,63.200001,64.849998,63.200001,63.880001,63.880001,11913100
2018-06-15,63.650002,64.599998,62.529999,64.480003,64.480003,7904400
2018-06-18,64.150002,66.440002,63.880001,66.199997,66.199997,10488300
2018-06-19,65.320000,66.099998,63.549999,65.959999,65.959999,9504500
2018-06-20,66.589996,68.970001,66.550003,67.589996,67.589996,12382500
2018-06-21,68.779999,69.400002,66.269997,67.099998,67.099998,9999500
2018-06-22,68.169998,68.169998,65.110001,65.750000,65.750000,10778400
2018-06-25,64.000000,64.150002,60.869999,61.889999,61.889999,15115400
2018-06-26,62.029999,63.400002,61.110001,62.549999,62.549999,13168900
2018-06-27,63.849998,64.160004,59.830002,60.090000,60.090000,11139700
2018-06-28,61.020000,61.830002,59.400002,61.549999,61.549999,11836900
2018-06-29,62.299999,62.770000,61.439999,61.639999,61.639999,6759300
2018-07-02,60.470001,63.230000,60.259998,63.139999,63.139999,5427100
2018-07-03,63.320000,63.650002,61.520000,61.750000,61.750000,4234700
2018-07-05,62.549999,64.430000,62.279999,64.150002,64.150002,7671000
2018-07-06,64.599998,66.519997,63.759998,66.440002,66.440002,10441600
2018-07-09,67.300003,67.500000,64.849998,66.480003,66.480003,9067800
2018-07-10,66.000000,66.849998,64.410004,64.760002,64.760002,9162700
2018-07-11,64.290001,65.839996,64.120003,65.330002,65.330002,5857100
2018-07-12,65.809998,67.489998,65.699997,67.279999,67.279999,8927300
2018-07-13,67.029999,67.279999,65.500000,66.970001,66.970001,7686000
2018-07-16,66.690002,68.337997,66.690002,66.949997,66.949997,5407900
2018-07-17,66.570000,68.669998,66.370003,68.330002,68.330002,6293100
2018-07-18,68.449997,68.830002,67.419998,68.290001,68.290001,4913100
2018-07-19,69.400002,71.320000,68.849998,70.320000,70.320000,11981300
2018-07-20,70.949997,72.089996,70.169998,70.410004,70.410004,9262800
2018-07-23,70.500000,72.209999,69.650002,71.599998,71.599998,7059700
2018-07-24,72.570000,72.800003,68.199997,69.360001,69.360001,12188100
2018-07-25,69.730003,72.529999,69.629997,72.529999,72.529999,8286200
2018-07-26,71.180000,72.330002,70.110001,71.989998,71.989998,6744500
2018-07-27,72.480003,73.190002,68.760002,69.849998,69.849998,8687200
2018-07-30,70.040001,70.199997,64.209999,65.620003,65.620003,13599000
2018-07-31,65.879997,66.800003,63.209999,64.650002,64.650002,10692300
2018-08-01,65.099998,67.410004,65.000000,66.860001,66.860001,11990400
2018-08-02,65.250000,72.820000,64.220001,72.650002,72.650002,20831900
2018-08-03,72.099998,72.430000,67.830002,68.360001,68.360001,14949000
2018-08-06,69.610001,71.000000,68.739998,70.919998,70.919998,10876000
2018-08-07,70.889999,71.589996,69.930000,71.000000,71.000000,6589700
2018-08-08,70.849998,71.099998,69.551003,70.820000,70.820000,5006400
2018-08-09,71.120003,71.269997,69.300003,69.379997,69.379997,6312700
2018-08-10,69.220001,72.230003,68.900002,70.599998,70.599998,13371600
2018-08-13,70.690002,74.489998,70.599998,72.370003,72.370003,13082400
2018-08-14,73.669998,75.150002,73.480003,74.970001,74.970001,10883300
2018-08-15,74.489998,75.449997,71.450996,72.239998,72.239998,13050900
2018-08-16,73.400002,73.430000,71.599998,72.760002,72.760002,8175200
2018-08-17,72.830002,73.389999,71.801003,72.900002,72.900002,5561400
2018-08-20,72.949997,74.400002,72.010002,74.260002,74.260002,7076700
2018-08-21,74.260002,76.309998,74.260002,75.190002,75.190002,8587800
2018-08-22,75.190002,76.830002,74.750000,76.440002,76.440002,6827800
2018-08-23,76.959999,78.430000,76.661003,77.120003,77.120003,7721700
2018-08-24,77.839996,78.470001,77.449997,78.180000,78.180000,7050600
2018-08-27,78.790001,79.059998,77.260002,78.250000,78.250000,8257200
2018-08-28,78.839996,81.410004,78.623001,80.800003,80.800003,11452000
2018-08-29,82.404999,86.169998,81.440002,85.699997,85.699997,22484700
2018-08-30,85.720001,89.220001,85.500000,87.760002,87.760002,20083800
2018-08-31,87.830002,89.695000,87.379997,88.639999,88.639999,11165100
2018-09-04,88.739998,91.639999,87.760002,91.250000,91.250000,13753200
2018-09-05,91.300003,91.410004,84.339996,87.199997,87.199997,18020900
2018-09-06,87.830002,89.800003,86.699997,88.540001,88.540001,12523600
2018-09-07,87.660004,91.500000,86.550003,89.970001,89.970001,10503800
2018-09-10,90.339996,90.830002,87.790001,89.389999,89.389999,10223500
2018-09-11,88.900002,92.918999,88.699997,92.279999,92.279999,11994800
2018-09-12,92.290001,92.400002,88.400002,90.440002,90.440002,12707900
2018-09-13,91.160004,92.389999,89.430000,90.220001,90.220001,9672800
2018-09-14,90.260002,91.290001,89.309998,90.820000,90.820000,7278500
2018-09-17,90.139999,91.949997,86.510002,86.860001,86.860001,10516400
2018-09-18,87.940002,89.379997,87.059998,87.989998,87.989998,10583000
2018-09-19,88.300003,88.559998,83.330002,84.800003,84.800003,13187700
2018-09-20,85.980003,87.320000,84.820000,86.510002,86.510002,9195800
2018-09-21,87.050003,87.739998,85.160004,85.300003,85.300003,10114000
2018-09-24,83.900002,87.129997,81.529999,86.040001,86.040001,8152100
2018-09-25,88.739998,96.000000,88.190002,95.349998,95.349998,28195200
2018-09-26,97.459999,98.470001,94.050003,94.650002,94.650002,25510900
2018-09-27,94.910004,99.129997,94.769997,97.959999,97.959999,21040400
2018-09-28,97.360001,100.389999,97.070000,99.010002,99.010002,15268200
2018-10-01,100.800003,101.150002,96.599998,97.279999,97.279999,12616900
2018-10-02,97.660004,100.416000,97.250000,97.830002,97.830002,11895000
2018-10-03,98.480003,98.699997,95.690002,96.959999,96.959999,9820600
2018-10-04,96.989998,97.059998,92.300003,94.489998,94.489998,13896300
2018-10-05,94.410004,96.309998,91.629997,94.110001,94.110001,12099800
2018-10-08,92.400002,92.639999,83.550003,86.059998,86.059998,30365100
2018-10-09,83.690002,87.660004,83.000000,86.169998,86.169998,16729100
2018-10-10,86.739998,86.900002,76.900002,77.449997,77.449997,32581900
2018-10-11,72.360001,74.379997,65.000000,69.029999,69.029999,63545700
2018-10-12,76.250000,76.379997,71.519997,73.970001,73.970001,38121500
2018-10-15,74.559998,75.900002,72.750000,73.769997,73.769997,22583500
2018-10-16,76.500000,79.099998,73.860001,78.720001,78.720001,23256400
2018-10-17,79.930000,80.320000,75.910004,78.050003,78.050003,16656800
2018-10-18,76.190002,77.570000,73.599998,74.959999,74.959999,15368000
2018-10-19,77.480003,78.699997,74.010002,74.070000,74.070000,16924800
2018-10-22,74.800003,76.349998,72.279999,75.720001,75.720001,15948000
2018-10-23,72.790001,74.419998,71.550003,74.150002,74.150002,16952900
2018-10-24,74.070000,75.209999,69.099998,69.339996,69.339996,15587900
2018-10-25,70.150002,74.400002,69.500000,73.489998,73.489998,13759200
2018-10-26,70.709999,73.309998,68.900002,71.120003,71.120003,16771800
2018-10-29,72.470001,73.550003,65.370003,67.279999,67.279999,20295600
2018-10-30,65.910004,68.900002,64.494003,68.760002,68.760002,17359100
2018-10-31,71.110001,74.519997,71.040001,73.449997,73.449997,17915800
2018-11-01,74.010002,77.169998,72.500000,76.739998,76.739998,13574000
2018-11-02,76.769997,79.940002,76.320000,77.760002,77.760002,13561600
2018-11-05,76.870003,76.970001,72.220001,75.010002,75.010002,16851400
2018-11-06,76.910004,79.370003,76.269997,77.309998,77.309998,18563300
2018-11-07,78.519997,83.000000,78.440002,82.690002,82.690002,24041900
2018-11-08,79.430000,80.599998,73.660004,75.230003,75.230003,35808900
2018-11-09,73.099998,74.599998,71.500000,73.269997,73.269997,17267100
2018-11-12,73.010002,73.800003,67.210999,69.830002,69.830002,19982100
2018-11-13,70.290001,72.800003,68.500000,71.849998,71.849998,18485900
2018-11-14,72.449997,73.419998,68.510002,69.809998,69.809998,14251900
2018-11-15,70.190002,74.220001,69.059998,73.599998,73.599998,12244400
2018-11-16,71.510002,73.199997,69.940002,70.589996,70.589996,13311400
2018-11-19,70.089996,70.400002,62.700001,62.970001,62.970001,22491200
2018-11-20,56.000000,63.580002,55.369999,61.820000,61.820000,34865500
2018-11-21,63.310001,63.959999,60.270000,62.619999,62.619999,15670500
2018-11-23,61.669998,64.000000,61.529999,63.470001,63.470001,6010500
2018-11-26,64.800003,66.900002,63.779999,66.519997,66.519997,12630400
2018-11-27,65.589996,67.300003,65.120003,65.879997,65.879997,9607400
2018-11-28,67.010002,70.099998,65.430000,69.889999,69.889999,16478200
2018-11-29,69.440002,70.720001,67.550003,69.900002,69.900002,13912800
2018-11-30,69.400002,70.680000,68.400002,69.839996,69.839996,12218100
2018-12-03,73.070000,73.089996,71.070000,71.949997,71.949997,16208500
2018-12-04,70.050003,70.800003,63.270000,63.509998,63.509998,31179700
2018-12-06,61.509998,65.699997,60.200001,65.690002,65.690002,23253600
2018-12-07,64.940002,66.089996,59.000000,60.779999,60.779999,20672200
2018-12-10,59.770000,64.129997,59.750000,63.380001,63.380001,18276800
2018-12-11,64.849998,65.750000,61.144001,61.779999,61.779999,17887300
2018-12-12,63.000000,65.690002,62.784000,63.650002,63.650002,15966600
2018-12-13,63.970001,64.400002,62.130001,62.900002,62.900002,10708100
2018-12-14,61.939999,63.939999,61.000000,62.139999,62.139999,10528100
2018-12-17,61.080002,61.860001,58.180000,58.619999,58.619999,16517300
2018-12-18,59.169998,60.994999,58.310001,59.919998,59.919998,16083600
2018-12-19,60.000000,62.490002,58.810001,59.029999,59.029999,18705300
2018-12-20,58.099998,59.900002,53.759998,55.900002,55.900002,24787600
2018-12-21,55.139999,55.980000,52.150002,52.509998,52.509998,24945200
2018-12-24,50.380001,52.500000,49.820000,50.720001,50.720001,11331800
2018-12-26,51.189999,55.470001,50.400002,55.320000,55.320000,19549200
2018-12-27,54.439999,56.369999,52.509998,56.150002,56.150002,20228800
2018-12-28,56.700001,57.099998,54.919998,55.869999,55.869999,18413300
2018-12-31,56.439999,57.349998,55.459999,56.090000,56.090000,13258800
2019-01-02,54.099998,57.830002,53.560001,57.200001,57.200001,13434000
2019-01-03,55.580002,56.730000,52.259998,52.419998,52.419998,19076300
2019-01-04,54.400002,59.660000,53.861000,58.180000,58.180000,30228600
2019-01-07,59.000000,61.290001,58.049999,60.720001,60.720001,18146900
2019-01-08,62.599998,63.799999,61.150002,63.119999,63.119999,21511800
2019-01-09,63.299999,66.900002,62.560001,65.930000,65.930000,21012400
2019-01-10,64.750000,66.199997,63.720001,66.099998,66.099998,13562200
2019-01-11,65.690002,67.639999,65.220001,66.230003,66.230003,14448300
2019-01-14,64.720001,65.720001,63.740002,65.180000,65.180000,12364300
2019-01-15,65.139999,66.769997,64.860001,65.959999,65.959999,12099400
2019-01-16,66.339996,67.629997,65.230003,65.900002,65.900002,13368300
2019-01-17,66.099998,69.699997,65.949997,68.839996,68.839996,20971700
2019-01-18,69.699997,72.260002,69.239998,72.239998,72.239998,22074100
2019-01-22,71.610001,71.750000,67.269997,67.849998,67.849998,19149900
2019-01-23,69.580002,70.589996,68.019997,69.099998,69.099998,17864400
2019-01-24,69.370003,74.029999,69.300003,73.940002,73.940002,24611600
2019-01-25,74.900002,78.150002,74.500000,77.970001,77.970001,25114700
2019-01-28,75.389999,77.010002,74.120003,76.220001,76.220001,15701700
2019-01-29,72.260002,72.430000,68.050003,68.559998,68.559998,32382900
2019-01-30,71.010002,71.599998,68.720001,71.529999,71.529999,18710400
2019-01-31,70.029999,73.860001,69.980003,71.349998,71.349998,15679400
2019-02-01,71.050003,71.279999,69.720001,70.800003,70.800003,12677800
2019-02-04,71.000000,72.620003,70.400002,71.750000,71.750000,10582100
2019-02-05,73.000000,75.169998,72.269997,72.279999,72.279999,19150500
2019-02-06,72.309998,73.279999,70.820000,72.669998,72.669998,10068500
2019-02-07,71.769997,72.980003,70.519997,71.949997,71.949997,9549700
2019-02-08,70.620003,73.489998,70.230003,73.489998,73.489998,9947800
2019-02-11,74.559998,75.879997,73.559998,74.320000,74.320000,13317500
2019-02-12,75.550003,75.889999,74.843002,75.589996,75.589996,8947700
2019-02-13,76.000000,77.247002,75.400002,75.629997,75.629997,10212300
2019-02-14,74.889999,76.059998,73.800003,75.669998,75.669998,7671800
2019-02-15,76.220001,76.855003,75.099998,75.639999,75.639999,7148900
2019-02-19,75.959999,77.099998,75.792999,76.639999,76.639999,7438600
2019-02-20,77.000000,77.669998,75.110001,75.970001,75.970001,8773800
2019-02-21,75.949997,76.500000,74.135002,74.430000,74.430000,7645100
2019-02-22,74.879997,76.080002,74.849998,76.080002,76.080002,7614800
2019-02-25,77.800003,78.559998,76.779999,77.129997,77.129997,8757600
2019-02-26,77.300003,78.190002,76.865997,77.949997,77.949997,8544300
2019-02-27,78.000000,79.559998,77.389999,79.320000,79.320000,19712500
2019-02-28,75.919998,82.779999,74.570000,81.239998,81.239998,41441000
2019-03-01,80.970001,81.029999,76.690002,77.459999,77.459999,22485900
2019-03-04,77.989998,78.489998,73.050003,74.690002,74.690002,16804800
2019-03-05,74.889999,76.510002,73.760002,76.040001,76.040001,9711800
2019-03-06,75.550003,75.949997,74.290001,75.139999,75.139999,7174000
2019-03-07,74.790001,75.286003,73.180000,74.110001,74.110001,9561700
2019-03-08,71.949997,74.400002,71.099998,74.400002,74.400002,9025200
2019-03-11,74.989998,75.949997,74.620003,75.529999,75.529999,7901700
2019-03-12,76.000000,78.000000,75.800003,76.769997,76.769997,9494800
2019-03-13,77.389999,78.849998,76.949997,77.849998,77.849998,8664000
2019-03-14,78.000000,78.720001,77.099998,77.379997,77.379997,6579200
2019-03-15,77.809998,78.250000,76.250000,76.650002,76.650002,8485800
2019-03-18,76.610001,76.830002,73.510002,75.230003,75.230003,12755300
2019-03-19,75.680000,77.269997,75.440002,76.809998,76.809998,8170900
2019-03-20,76.180000,76.230003,73.949997,75.260002,75.260002,9423000
2019-03-21,74.870003,78.739998,74.769997,78.529999,78.529999,10707700
2019-03-22,78.239998,79.199997,74.949997,75.089996,75.089996,9924300
2019-03-25,74.449997,75.473999,73.330002,74.550003,74.550003,8267000
2019-03-26,75.660004,75.769997,73.160004,73.930000,73.930000,8891300
2019-03-27,75.379997,75.599998,71.639999,72.970001,72.970001,11690800
2019-03-28,73.660004,74.779999,72.849998,74.260002,74.260002,7500700
2019-03-29,74.620003,75.540001,74.250000,74.919998,74.919998,6437100
2019-04-01,75.589996,76.699997,75.099998,76.320000,76.320000,8764300
2019-04-02,76.050003,76.570000,75.129997,75.599998,75.599998,6626100
2019-04-03,75.989998,77.839996,75.989998,77.050003,77.050003,10123100
2019-04-04,76.790001,77.230003,73.629997,74.519997,74.519997,10705300
2019-04-05,75.230003,76.480003,74.730003,75.029999,75.029999,7396200
2019-04-08,74.760002,75.330002,73.760002,75.000000,75.000000,6564100
2019-04-09,74.629997,75.900002,74.400002,74.599998,74.599998,7236100
2019-04-10,75.059998,75.650002,73.919998,74.739998,74.739998,7779300
2019-04-11,75.050003,76.050003,74.941002,75.500000,75.500000,6971300
2019-04-12,76.349998,76.459999,74.818001,75.279999,75.279999,6318600
2019-04-15,75.230003,76.330002,74.095001,74.389999,74.389999,6840200
2019-04-16,74.900002,75.180000,72.769997,73.489998,73.489998,6391500
2019-04-17,73.889999,73.900002,72.209999,72.760002,72.760002,5901200
2019-04-18,72.500000,72.750000,69.790001,70.739998,70.739998,11829500
2019-04-22,70.050003,72.879997,70.000000,72.580002,72.580002,7867700
2019-04-23,72.989998,73.199997,72.019997,72.449997,72.449997,6250000
2019-04-24,72.699997,73.559998,71.730003,71.989998,71.989998,7056500
2019-04-25,72.339996,73.500000,72.010002,72.650002,72.650002,6384900
2019-04-26,73.150002,73.169998,70.855003,71.550003,71.550003,7426900
2019-04-29,71.540001,73.870003,71.500000,72.720001,72.720001,8627300
2019-04-30,72.589996,73.849998,72.269997,72.820000,72.820000,7192100
2019-05-01,73.949997,74.730003,73.170998,73.620003,73.620003,15731100
2019-05-02,69.800003,70.500000,66.050003,67.739998,67.739998,34399600
2019-05-03,67.910004,68.669998,66.599998,68.519997,68.519997,9187200
2019-05-06,65.459999,70.290001,65.410004,70.139999,70.139999,13595800
2019-05-07,69.980003,70.339996,67.370003,68.419998,68.419998,10764100
2019-05-08,68.220001,68.290001,66.779999,67.250000,67.250000,9863000
2019-05-09,66.529999,66.620003,64.684998,66.389999,66.389999,9178500
2019-05-10,65.930000,67.089996,64.459999,65.989998,65.989998,7689900
2019-05-13,63.900002,64.309998,61.650002,62.389999,62.389999,14597100
2019-05-14,62.990002,65.239998,62.483002,64.110001,64.110001,10036600
2019-05-15,63.599998,65.230003,63.439999,65.230003,65.230003,7857700
2019-05-16,65.110001,67.150002,65.052002,66.400002,66.400002,8587800
2019-05-17,65.220001,66.489998,64.650002,65.309998,65.309998,6868400
2019-05-20,64.150002,64.699997,63.580002,64.389999,64.389999,6715100
2019-05-21,65.209999,66.089996,65.150002,65.919998,65.919998,5698700
2019-05-22,65.680000,67.042999,65.660004,66.459999,66.459999,6695100
2019-05-23,65.050003,65.330002,62.770000,63.750000,63.750000,9444500
2019-05-24,64.150002,65.040001,63.759998,64.660004,64.660004,7994000
2019-05-28,65.199997,67.669998,65.099998,65.820000,65.820000,10027500
2019-05-29,65.059998,65.059998,62.700001,63.230000,63.230000,10392800
2019-05-30,63.779999,64.290001,63.200001,63.669998,63.669998,5590400
2019-05-31,62.240002,62.500000,61.310001,61.950001,61.950001,7220500
2019-06-03,61.950001,62.543999,59.891998,60.619999,60.619999,9309700
2019-06-04,61.549999,63.450001,60.730000,63.389999,63.389999,8234400
2019-06-05,63.450001,65.639999,63.430000,64.930000,64.930000,9330700
2019-06-06,64.879997,65.870003,64.199997,65.769997,65.769997,6021800
2019-06-07,66.480003,69.070000,66.160004,68.459999,68.459999,9995100
2019-06-10,69.570000,71.699997,69.120003,70.370003,70.370003,10668200
2019-06-11,71.199997,71.879997,69.110001,70.180000,70.180000,7130700
2019-06-12,70.000000,70.919998,69.529999,70.459999,70.459999,6608600
2019-06-13,70.760002,72.750000,70.529999,72.180000,72.180000,8201400
2019-06-14,71.809998,72.080002,70.919998,71.589996,71.589996,5344700
2019-06-17,72.000000,72.930000,71.800003,72.209999,72.209999,5353100
2019-06-18,72.900002,73.504997,71.599998,71.820000,71.820000,7651600
2019-06-19,71.769997,72.779999,71.269997,72.660004,72.660004,6079100
2019-06-20,73.760002,74.550003,73.309998,74.419998,74.419998,8796800
2019-06-21,74.080002,74.260002,72.290001,72.870003,72.870003,8396700
2019-06-24,72.980003,73.679001,72.519997,72.709999,72.709999,4468000
2019-06-25,72.930000,73.169998,69.260002,69.870003,69.870003,12032700
2019-06-26,70.980003,72.000000,69.910004,69.949997,69.949997,7911800
2019-06-27,70.570000,71.540001,70.050003,71.279999,71.279999,5163800
2019-06-28,72.430000,73.148003,71.570000,72.529999,72.529999,9465000
2019-07-01,73.900002,74.199997,72.699997,73.199997,73.199997,8092400
2019-07-02,72.980003,73.970001,72.650002,73.970001,73.970001,5894900
2019-07-03,74.000000,74.320000,73.349998,74.260002,74.260002,2904600
2019-07-05,73.750000,74.360001,73.199997,74.309998,74.309998,3523500
2019-07-08,73.800003,74.000000,73.059998,73.430000,73.430000,4288000
2019-07-09,74.029999,78.389999,73.959999,77.959999,77.959999,21399700
2019-07-10,77.910004,78.699997,77.400002,78.370003,78.370003,10342800
2019-07-11,78.449997,79.959999,78.430000,79.440002,79.440002,7916400
2019-07-12,80.050003,82.660004,79.730003,82.279999,82.279999,13586300
2019-07-15,82.480003,82.510002,81.199997,82.169998,82.169998,6428500
2019-07-16,81.800003,81.800003,80.309998,80.589996,80.589996,5772000
2019-07-17,80.209999,82.169998,80.190002,80.870003,80.870003,6264000
2019-07-18,80.870003,82.139999,80.220001,81.059998,81.059998,6855100
2019-07-19,81.610001,81.699997,78.419998,78.510002,78.510002,6877500
2019-07-22,79.129997,79.629997,78.379997,78.570000,78.570000,4001900
2019-07-23,79.000000,79.370003,77.861000,78.839996,78.839996,3624800
2019-07-24,78.669998,80.500000,78.430000,80.430000,80.430000,4751000
2019-07-25,80.150002,81.089996,79.129997,80.019997,80.019997,6000400
2019-07-26,80.629997,82.320000,80.629997,81.809998,81.809998,5668200
2019-07-29,81.879997,82.000000,79.059998,80.199997,80.199997,7211400
2019-07-30,80.230003,81.190002,79.379997,80.489998,80.489998,5369300
2019-07-31,81.169998,81.949997,79.010002,80.410004,80.410004,7406900
2019-08-01,81.099998,83.199997,80.000000,80.980003,80.980003,16099700
2019-08-02,70.800003,70.809998,67.250000,69.599998,69.599998,43722000
2019-08-05,66.199997,66.500000,63.685001,64.849998,64.849998,21651500
2019-08-06,66.849998,67.400002,63.150002,64.599998,64.599998,14970800
2019-08-07,63.180000,65.260002,62.849998,65.000000,65.000000,9246500
2019-08-08,66.070000,66.570000,64.930000,66.269997,66.269997,9461900
2019-08-09,65.970001,66.120003,64.320000,65.010002,65.010002,7216900
2019-08-12,64.019997,64.237000,60.251999,62.299999,62.299999,8856900
2019-08-13,62.000000,63.500000,61.520000,63.000000,63.000000,11917600
2019-08-14,61.849998,62.349998,60.470001,61.549999,61.549999,8567700
2019-08-15,62.009998,62.680000,61.240002,62.000000,62.000000,7080300
2019-08-16,62.610001,63.209999,62.130001,62.869999,62.869999,5421400
2019-08-19,64.000000,64.432999,63.200001,64.080002,64.080002,6975800
2019-08-20,64.239998,65.105003,63.827999,64.370003,64.370003,7008600
2019-08-21,65.320000,66.139999,64.809998,65.410004,65.410004,5536400
2019-08-22,65.919998,65.970001,63.369999,64.680000,64.680000,4694400
2019-08-23,64.300003,65.050003,61.400002,61.779999,61.779999,9173800
2019-08-26,62.919998,63.520000,62.360001,62.799999,62.799999,5257600
2019-08-27,63.160000,63.430000,61.119999,61.750000,61.750000,5207100
2019-08-28,61.279999,62.219002,60.599998,62.150002,62.150002,4559600
2019-08-29,63.020000,63.410000,62.299999,62.840000,62.840000,4421800
2019-08-30,63.150002,63.459999,61.151001,61.840000,61.840000,5828500
2019-09-03,62.430000,63.980000,60.959999,61.130001,61.130001,12051700
2019-09-04,61.750000,62.689999,60.770000,61.169998,61.169998,6637100
2019-09-05,61.880001,63.470001,61.668999,63.020000,63.020000,8160400
2019-09-06,63.500000,63.849998,61.889999,62.000000,62.000000,4744100
2019-09-09,62.549999,62.730000,59.070000,61.470001,61.470001,11684400
2019-09-10,60.720001,62.099998,59.450001,60.549999,60.549999,9394000
2019-09-11,60.849998,60.849998,58.910000,59.200001,59.200001,11561400
2019-09-12,59.500000,59.860001,57.750000,57.790001,57.790001,15301200
2019-09-13,57.180000,58.849998,55.910000,58.290001,58.290001,11657500
2019-09-16,57.340000,59.630001,57.240002,59.250000,59.250000,12394000
2019-09-17,60.200001,60.700001,59.150002,59.599998,59.599998,9225100
2019-09-18,59.990002,60.419998,58.759998,59.750000,59.750000,8644200
2019-09-19,59.959999,60.180000,58.410000,59.029999,59.029999,7094000
2019-09-20,59.000000,59.139999,56.924999,57.849998,57.849998,9204200
2019-09-23,57.070000,57.450001,56.389999,56.759998,56.759998,8773800
2019-09-24,56.849998,58.750000,54.410000,57.500000,57.500000,19489000
2019-09-25,57.419998,58.889999,56.229000,58.509998,58.509998,10034000
2019-09-26,60.040001,61.150002,59.830002,60.799999,60.799999,16447900
2019-09-27,60.980000,61.650002,59.930000,60.750000,60.750000,10698900
2019-09-30,60.959999,62.279999,60.849998,61.950001,61.950001,7317400
2019-10-01,62.299999,62.990002,61.049999,61.630001,61.630001,7549200
2019-10-02,61.230000,61.230000,58.860001,60.080002,60.080002,8834100
2019-10-03,59.480000,62.439999,59.060001,62.049999,62.049999,8082800
2019-10-04,62.509998,62.919998,61.439999,62.650002,62.650002,5073400
2019-10-07,62.240002,62.849998,61.689999,62.250000,62.250000,4115000
2019-10-08,61.849998,62.189999,60.630001,60.799999,60.799999,4664600
2019-10-09,61.430000,62.520000,61.270000,62.220001,62.220001,4088100
2019-10-10,62.250000,62.630001,61.560001,62.029999,62.029999,4440600
2019-10-11,62.759998,63.560001,61.470001,61.540001,61.540001,9084300
2019-10-14,61.520000,62.290001,61.400002,61.830002,61.830002,3660100
2019-10-15,62.220001,64.489998,62.220001,64.290001,64.290001,6189700
2019-10-16,63.820000,63.880001,62.560001,63.000000,63.000000,4187300
2019-10-17,63.020000,64.550003,63.020000,63.400002,63.400002,5565000
2019-10-18,63.169998,63.438999,59.783001,60.450001,60.450001,7905500
2019-10-21,60.700001,61.480000,59.830002,61.150002,61.150002,5468700
2019-10-22,61.279999,61.490002,58.549999,58.830002,58.830002,7093700
2019-10-23,58.900002,59.689999,57.619999,58.360001,58.360001,7628800
2019-10-24,59.619999,61.770000,59.590000,61.720001,61.720001,7998100
2019-10-25,61.480000,63.250000,61.110001,62.889999,62.889999,5189300
2019-10-28,62.820000,63.430000,61.910000,62.799999,62.799999,7171200
2019-10-29,62.799999,63.617001,62.380001,62.410000,62.410000,4030900
2019-10-30,62.509998,62.730000,61.474998,62.160000,62.160000,4832800
2019-10-31,62.000000,62.650002,60.900002,61.430000,61.430000,4416100
2019-11-01,61.570000,62.813999,61.459999,62.599998,62.599998,6184900
2019-11-04,63.299999,63.830002,62.360001,62.380001,62.380001,6046700
2019-11-05,62.500000,62.549999,59.910000,61.060001,61.060001,8552000
2019-11-06,61.330002,61.930000,60.577999,61.340000,61.340000,12855600
2019-11-07,61.910000,66.599998,60.540001,64.410004,64.410004,25984000
2019-11-08,63.180000,63.451000,61.330002,62.450001,62.450001,11629500
2019-11-11,61.880001,64.894997,61.880001,63.790001,63.790001,12711100
2019-11-12,63.880001,63.990002,60.820000,61.540001,61.540001,11296300
2019-11-13,61.299999,62.139999,60.849998,61.509998,61.509998,5509200
2019-11-14,61.650002,63.000000,61.349998,62.990002,62.990002,7406800
2019-11-15,63.200001,64.720001,63.099998,64.699997,64.699997,7791800
2019-11-18,64.500000,66.379997,64.230003,65.739998,65.739998,7409100
2019-11-19,65.699997,66.500000,65.139999,66.370003,66.370003,6884200
2019-11-20,66.360001,67.750000,66.019997,67.169998,67.169998,9595800
2019-11-21,67.169998,67.669998,66.279999,67.419998,67.419998,7864400
2019-11-22,67.489998,68.070000,67.035004,67.750000,67.750000,5804200
2019-11-25,68.320000,69.529999,68.089996,68.250000,68.250000,9599300
2019-11-26,69.129997,69.440002,67.930000,68.940002,68.940002,9981100
2019-11-27,68.940002,69.730003,68.400002,69.650002,69.650002,4412900
2019-11-29,69.339996,69.599998,68.940002,69.120003,69.120003,2478400
2019-12-02,68.949997,68.959999,66.110001,66.879997,66.879997,6758200
2019-12-03,65.300003,67.330002,64.680000,67.040001,67.040001,4432700
2019-12-04,67.470001,68.430000,67.190002,67.779999,67.779999,3715100
2019-12-05,67.589996,67.889999,66.660004,67.139999,67.139999,4265000
2019-12-06,67.669998,68.322998,67.610001,67.980003,67.980003,4058400
2019-12-09,67.779999,68.059998,66.720001,67.059998,67.059998,4335100
2019-12-10,67.300003,67.430000,65.419998,65.839996,65.839996,6047200
2019-12-11,65.900002,66.070000,64.875000,65.750000,65.750000,6518000
2019-12-12,65.650002,66.199997,65.089996,65.860001,65.860001,4827300
2019-12-13,66.019997,66.339996,64.485001,64.800003,64.800003,7047500
2019-12-16,65.000000,67.300003,65.000000,66.529999,66.529999,6325600
2019-12-17,66.529999,66.550003,65.120003,65.550003,65.550003,4937700
2019-12-18,65.910004,66.300003,65.099998,65.139999,65.139999,3992400
2019-12-19,64.900002,65.570000,64.120003,64.550003,64.550003,6120700
2019-12-20,64.570000,65.129997,63.540001,63.630001,63.630001,6258500
2019-12-23,63.520000,64.220001,62.674999,62.799999,62.799999,5402500
2019-12-24,62.799999,64.019997,62.369999,63.959999,63.959999,3538700
2019-12-26,64.080002,64.915001,63.730000,64.029999,64.029999,4246100
2019-12-27,64.330002,64.400002,63.060001,63.799999,63.799999,4308500
2019-12-30,63.500000,63.759998,61.549999,61.799999,61.799999,6501900
2019-12-31,61.150002,62.700001,61.000000,62.560001,62.560001,5339600
2020-01-02,62.990002,64.050003,62.950001,63.830002,63.830002,5264700
2020-01-03,62.590000,63.270000,62.330002,63.000000,63.000000,5087100
2020-01-06,61.360001,62.580002,61.130001,62.570000,62.570000,5905200
2020-01-07,64.570000,65.489998,63.660000,64.589996,64.589996,10368200
2020-01-08,64.559998,68.000000,64.150002,67.599998,67.599998,11899200
2020-01-09,68.220001,68.309998,66.699997,67.930000,67.930000,8739100
2020-01-10,68.459999,69.510002,67.889999,67.989998,67.989998,6704900
2020-01-13,68.239998,69.050003,67.820000,68.660004,68.660004,9763800
2020-01-14,68.989998,69.279999,68.099998,68.169998,68.169998,6076400
2020-01-15,68.540001,71.000000,68.500000,70.360001,70.360001,9214600
2020-01-16,70.949997,71.000000,69.190002,69.519997,69.519997,6066600
2020-01-17,69.839996,70.300003,69.190002,69.379997,69.379997,4960200
2020-01-21,69.199997,69.620003,68.309998,68.309998,68.309998,4912900
2020-01-22,68.919998,70.046997,68.690002,68.690002,68.690002,4916500
2020-01-23,68.860001,69.440002,67.550003,69.290001,69.290001,4552700
2020-01-24,70.629997,71.919998,70.019997,71.139999,71.139999,10976700
2020-01-27,68.389999,72.449997,68.339996,71.050003,71.050003,11085100
2020-01-28,71.470001,74.980003,71.029999,74.800003,74.800003,15597200
2020-01-29,74.500000,77.070000,74.239998,76.160004,76.160004,11946800
2020-01-30,75.419998,76.389999,74.059998,76.099998,76.099998,8730000
2020-01-31,75.800003,76.379997,74.330002,74.690002,74.690002,7514200
2020-02-03,74.889999,79.805000,74.599998,79.800003,79.800003,15190100
2020-02-04,79.900002,81.680000,79.250000,80.900002,80.900002,10405800
2020-02-05,81.980003,82.099998,77.839996,78.250000,78.250000,10671600
2020-02-06,78.660004,79.199997,77.821999,78.510002,78.510002,6172300
2020-02-07,77.800003,80.000000,77.339996,78.860001,78.860001,4650600
2020-02-10,79.599998,80.620003,78.900002,80.169998,80.169998,4150200
2020-02-11,80.559998,81.449997,79.610001,79.879997,79.879997,3972800
2020-02-12,80.010002,80.905998,79.610001,80.000000,80.000000,3574900
2020-02-13,79.300003,82.540001,79.080002,80.989998,80.989998,6868900
2020-02-14,81.389999,82.589996,81.010002,81.860001,81.860001,4993940