,0,1,2,3,4,5,6,7,8,9,10,11,12,13,14
Date,Depreciation & Amortization,Stock-based compensation,Operating Cash Flow,Capital Expenditure,Acquisitions and disposals,Investment purchases and sales,Investing Cash flow,Issuance (repayment) of debt,Issuance (buybacks) of shares,Dividend payments,Financing Cash Flow,Effect of forex changes on cash,Net cash flow / Change in cash,Free Cash Flow,Net Cash/Marketcap
2019-12-31,24906000.0,11804000.0,-1754000.0,29429000.0,-0.0,0.0,-32116000.0,-55315000.0,-59977000.0,-0.0,42596000.0,298000.0,9024000.0,-31183000.0,0.0
2018-12-31,29740000.0,11120000.0,14029000.0,72330000.0,-0.0,0.0,-76514000.0,-3133000.0,-55646000.0,-0.0,34803000.0,1738000.0,-25944000.0,-58301000.0,0.0
2017-12-31,20381000.0,7795000.0,84284000.0,67467000.0,-0.0,0.0,-70159000.0,-42758000.0,-61364000.0,-0.0,18244000.0,-385000.0,31984000.0,16817000.0,0.0
2016-12-31,14188000.0,3833000.0,57104000.0,49989000.0,-0.0,0.0,-41543000.0,-5855000.0,-22987000.0,-0.0,4642000.0,1947000.0,22150000.0,7115000.0,0.0
2015-12-31,9424000.0,2120000.0,-15212000.0,57558000.0,-0.0,0.0,-61620000.0,-2413000.0,10574000.0,-0.0,73114000.0,-383000.0,-4101000.0,-72770000.0,0.0
2014-12-31,6169000.0,2061000.0,7242000.0,3340000.0,-0.0,0.0,-45388000.0,-8076000.0,13506000.0,-0.0,47250000.0,1065000.0,10169000.0,3902000.0,0.0
2013-12-31,3407000.0,1068000.0,-6552000.0,123000.0,-0.0,0.0,-17736000.0,-285000.0,-22006000.0,-0.0,35368000.0,203000.0,11283000.0,-6675000.0,0.0
2012-12-31,2942000.0,161000.0,-358000.0,-3040000.0,0.0,0.0,-3290000.0,2708000.0,5000.0,0.0,12754000.0,-150000.0,8956000.0,-3398000.0,-0.1694
2011-12-31,3112000.0,563000.0,-4125000.0,-1403000.0,0.0,0.0,-1571000.0,115000.0,16000.0,0.0,2836000.0,136000.0,-2724000.0,-5528000.0,-0.1694
