,0,1,2,3,4,5,6,7,8,9,10,11,12,13,14
Date,Depreciation & Amortization,Stock-based compensation,Operating Cash Flow,Capital Expenditure,Acquisitions and disposals,Investment purchases and sales,Investing Cash flow,Issuance (repayment) of debt,Issuance (buybacks) of shares,Dividend payments,Financing Cash Flow,Effect of forex changes on cash,Net cash flow / Change in cash,Free Cash Flow,Net Cash/Marketcap
2019-12-31,22773000.0,11799000.0,97925000.0,37166000.0,-0.0,0.0,-37046000.0,-0.0,-26797000.0,-16645000.0,-18500000.0,0.0,44373000.0,60759000.0,0.0
2018-12-31,17668000.0,7374000.0,54856000.0,37268000.0,-6377000.0,2880000.0,-34635000.0,-0.0,-1994000.0,-16728000.0,-39684000.0,0.0,-19463000.0,17588000.0,0.0
2017-12-31,15054000.0,6458000.0,57994000.0,41713000.0,-0.0,2632000.0,-31052000.0,-0.0,-21457000.0,-13663000.0,-29638000.0,0.0,-2696000.0,16281000.0,0.0
2016-12-31,13284000.0,4357000.0,63923000.0,26604000.0,-0.0,6448000.0,-16925000.0,-0.0,-24153000.0,-12676000.0,-30753000.0,0.0,16245000.0,37319000.0,0.0
2015-12-31,12007000.0,2891000.0,52910000.0,20967000.0,-0.0,-582000.0,-23194000.0,-0.0,-7908000.0,-11857000.0,-43760000.0,0.0,-14044000.0,31943000.0,0.0
2014-12-31,12241000.0,2178000.0,52279000.0,16127000.0,-0.0,-630000.0,-6029000.0,-0.0,-21952000.0,-9656000.0,-36383000.0,0.0,9867000.0,36152000.0,0.0
2013-12-31,13102000.0,1763000.0,53592000.0,9041000.0,-0.0,-5508000.0,-31326000.0,-0.0,-12085000.0,-7428000.0,-13340000.0,0.0,8926000.0,44551000.0,0.0
2012-12-31,0.0,0.0,0.0,0.0,-0.0,0.0,0.0,-0.0,0.0,-0.0,0.0,0.0,0.0,0.0,0.0
2011-12-31,0.0,0.0,0.0,0.0,-0.0,0.0,0.0,-0.0,0.0,-0.0,0.0,0.0,0.0,0.0,0.0
2010-12-31,9886000.0,435000.0,32152000.0,-17334000.0,0.0,-11402000.0,-28276000.0,-76000.0,-18312000.0,-9168000.0,-27200000.0,78000.0,-23246000.0,14818000.0,0.0288
2009-12-31,9061000.0,145000.0,45205000.0,-9639000.0,0.0,0.0,-9639000.0,-3037000.0,-1893000.0,-5874000.0,-10101000.0,-95000.0,25370000.0,35566000.0,0.0762
