,0,1,2,3,4,5,6,7,8,9,10,11,12,13,14,15,16,17,18,19,20,21,22,23,24,25,26,27,28,29,30
Date,Revenue,Revenue Growth,Cost of Revenue,Gross Profit,R&D Expenses,SG&A Expense,Operating Expenses,Operating Income,Interest Expense,Earnings before Tax,Income Tax Expense,Net Income - Non-Controlling int,Net Income - Discontinued ops,Net Income,Preferred Dividends,Net Income Com,EPS,EPS Diluted,Weighted Average Shs Out,Weighted Average Shs Out (Dil),Dividend per Share,Gross Margin,EBITDA Margin,EBIT Margin,Profit Margin,Free Cash Flow margin,EBITDA,EBIT,Consolidated Income,Earnings Before Tax Margin,Net Profit Margin
2017-12,232000000.0,,6000000.0,225000000.0,,12000000.0,,,7000000.0,,37000000.0,,,95000000.0,,95000000.0,0.51,0.5,186000000.0,190000000.0,,0.9698275862069,1.1077586206896999,0.59913793103448,0.40948275862069006,,257000000.0,139000000.0,95000000.0,0.0,0.40948275862069006
2016-12,162000000.0,,5000000.0,157000000.0,,11000000.0,,,9000000.0,,-5000000.0,,,-16000000.0,,-16000000.0,-0.09,-0.09,182000000.0,182000000.0,,0.96913580246914,0.64814814814815,-0.074074074074074,-0.098765432098765,,105000000.0,-12000000.0,-16000000.0,0.0,-0.098765432098765
2015-12,132000000.0,,6000000.0,126000000.0,,11000000.0,,,12000000.0,,8000000.0,,,21000000.0,,21000000.0,0.13,0.12,171000000.0,172000000.0,,0.9545454545454499,0.96969696969697,0.31060606060606,0.15909090909091,,128000000.0,41000000.0,21000000.0,0.0,0.15909090909091
2014-12,216000000.0,,10000000.0,206000000.0,,10000000.0,,,15000000.0,,30000000.0,,,16000000.0,,16000000.0,0.09,0.09,169000000.0,171000000.0,,0.9537037037037001,0.94907407407407,0.28240740740740994,0.074074074074074,,205000000.0,61000000.0,16000000.0,0.0,0.074074074074074
2013-12,290000000.0,,34000000.0,256000000.0,,27000000.0,,,18000000.0,,2000000.0,,,-3000000.0,,-3000000.0,-0.02,-0.02,168000000.0,168000000.0,,0.88275862068966,0.46206896551724,0.058620689655172004,-0.010344827586206999,,134000000.0,17000000.0,-3000000.0,0.0,-0.010344827586206999
