,0,1,2,3,4,5,6,7,8,9,10,11,12,13,14,15,16,17,18,19,20,21,22,23,24,25,26,27,28
Date,Cash and cash equivalents,Short-term investments,Cash and short-term investments,Receivables,Inventories,Total current assets,Property Plant & Equipment Net,Goodwill and Intangible Assets,Long-term investments,Tax assets,Total non-current assets,Total assets,Payables,Short-term debt,Total current liabilities,Long-term debt,Total debt,Deferred revenue,Tax Liabilities,Deposit Liabilities,Total non-current liabilities,Total liabilities,Other comprehensive income,Retained earnings (deficit),Total shareholders equity,Investments,Net Debt,Other Assets,Other Liabilities
2019-12-31,172250000.0,178534000.0,350784000.0,146878000.0,38845000.0,619091000.0,43770000.0,37784000.0,45499000.0,27688000.0,226548000.0,845639000.0,25874000.0,3853000.0,195566000.0,6792000.0,10645000.0,117864000.0,3362000.0,2974000.0,105602000.0,302144000.0,372325000.0,172265000.0,543495000.0,224033000.0,-161605000.0,0.0,976000.0
2018-12-31,349462000.0,0.0,349462000.0,130579000.0,33763000.0,558155000.0,37893000.0,40916000.0,40230000.0,19347000.0,161385000.0,719540000.0,15164000.0,37000.0,166011000.0,0.0,37000.0,107016000.0,4167000.0,2702000.0,82970000.0,252216000.0,297453000.0,171383000.0,467324000.0,40230000.0,-349425000.0,0.0,3235000.0
2017-12-31,75105000.0,6862000.0,81967000.0,56064000.0,45465000.0,205192000.0,31172000.0,33750000.0,0.0,15755000.0,132920000.0,338112000.0,8592000.0,89000.0,107950000.0,0.0,89000.0,70401000.0,2558000.0,3673000.0,57811000.0,170668000.0,45725000.0,123185000.0,167444000.0,6862000.0,-75016000.0,0.0,4907000.0
2016-12-31,40651000.0,48415000.0,89066000.0,39466000.0,34841000.0,177231000.0,24004000.0,25660000.0,234000.0,19515000.0,100932000.0,278163000.0,10736000.0,80000.0,78039000.0,0.0,80000.0,45137000.0,4581000.0,2148000.0,44239000.0,127275000.0,31709000.0,118275000.0,150888000.0,48649000.0,-40571000.0,0.0,4997000.0
2015-12-31,59526000.0,50254000.0,109780000.0,27701000.0,15763000.0,161409000.0,21848000.0,17184000.0,8525000.0,13719000.0,68472000.0,229881000.0,7333000.0,87000.0,38140000.0,81000.0,168000.0,20851000.0,1215000.0,1226000.0,31586000.0,72877000.0,55942000.0,100978000.0,157004000.0,58779000.0,-59358000.0,0.0,3151000.0
2014-12-31,48367000.0,32774000.0,81141000.0,30735000.0,18323000.0,139828000.0,17523000.0,5321000.0,9296000.0,10877000.0,45540000.0,185368000.0,7682000.0,38000.0,31973000.0,29000.0,67000.0,14020000.0,539000.0,988000.0,23168000.0,56262000.0,47996000.0,81045000.0,129106000.0,42070000.0,-48300000.0,0.0,1121000.0
2013-12-31,42271000.0,9101000.0,51372000.0,22488000.0,11109000.0,97467000.0,19043000.0,5552000.0,12023000.0,13679000.0,50915000.0,148382000.0,6221000.0,36000.0,23129000.0,67000.0,103000.0,6878000.0,3122000.0,1154000.0,20509000.0,40035000.0,47221000.0,61127000.0,108347000.0,21124000.0,-42168000.0,0.0,0.0
2012-12-31,37807749.0,0.0,37807749.0,200000.0,0.0,38007749.0,0.0,0.0,0.0,21001799.0,-38007749.0,0.0,0.0,0.0,1595595.0,0.0,0.0,1300000.0,295595.0,0.0,804057.0,-87285046.0,87285046.0,0.0,87285046.0,0.0,-37807749.0,0.0,-89684698.0
2011-12-31,0.0,0.0,0.0,0.0,0.0,0.0,0.0,0.0,0.0,0.0,0.0,0.0,0.0,0.0,0.0,0.0,0.0,0.0,0.0,0.0,0.0,0.0,0.0,0.0,0.0,0.0,0.0,0.0,0.0
2010-12-31,42684241.0,0.0,42684241.0,13542535.0,17815405.0,82326195.0,35905765.0,3090876.0,0.0,20204242.0,53860740.0,136186935.0,4550789.0,0.0,11947994.0,0.0,0.0,7658120.0,0.0,372145.0,6674700.0,18622694.0,-35445.0,35185191.0,117564241.0,0.0,-42684241.0,8284014.0,7397205.0
2009-12-31,45505049.0,0.0,45505049.0,15384993.0,15085750.0,85885246.0,38673065.0,2765701.0,0.0,19445008.0,52540671.0,138425917.0,6357195.0,0.0,13784853.0,0.0,0.0,7494244.0,0.0,355926.0,6939868.0,20724721.0,0.0,39569626.0,117701196.0,0.0,-45505049.0,9909454.0,7427658.0
