,0,1,2,3,4,5,6,7,8,9,10,11,12,13,14,15,16,17,18,19,20,21,22,23,24,25,26,27,28,29,30
Date,Revenue,Revenue Growth,Cost of Revenue,Gross Profit,R&D Expenses,SG&A Expense,Operating Expenses,Operating Income,Interest Expense,Earnings before Tax,Income Tax Expense,Net Income - Non-Controlling int,Net Income - Discontinued ops,Net Income,Preferred Dividends,Net Income Com,EPS,EPS Diluted,Weighted Average Shs Out,Weighted Average Shs Out (Dil),Dividend per Share,Gross Margin,EBITDA Margin,EBIT Margin,Profit Margin,Free Cash Flow margin,EBITDA,EBIT,Consolidated Income,Earnings Before Tax Margin,Net Profit Margin
2017-12-31,158184000.0,0.00116455696203,45534000.0,112650000.0,13651000.0,70090000.0,78896000.0,20962000.0,4868000.0,15757000.0,-29298000.0,0.0,0.0,45055000.0,0.0,45055000.0,0.97,0.95,46416000.0,47594000.0,0.0,0.712145349719,0.26878192484700003,0.13251656299,0.284826531128,0.19624614373100002,42517000.0,20962000.0,45055000.0,0.0996118444343,0.284826531128
2017-12,158000000.0,0.0370312028249,46000000.0,112000000.0,14000000.0,70000000.0,87000000.0,25000000.0,5000000.0,16000000.0,-29000000.0,,,45000000.0,,45000000.0,0.97,0.95,46000000.0,48000000.0,,0.70886075949367,0.25949367088608,0.13291139240506,0.28481012658228,,41000000.0,21000000.0,45000000.0,0.10126582278480999,0.28481012658228
2016-12-31,152358000.0,0.00235526315789,48264000.0,104094000.0,12865000.0,68300000.0,73975000.0,18611000.0,7206000.0,10723000.0,293000.0,0.0,0.0,10430000.0,0.0,10430000.0,0.23,0.22,45861000.0,47217000.0,0.0,0.6832197849799999,0.270743905801,0.122153086809,0.06845718636369999,0.160313209677,41250000.0,18611000.0,10430000.0,0.070380288531,0.06845718636369999
2016-12,152000000.0,0.0488545404361,49000000.0,103000000.0,13000000.0,68000000.0,85000000.0,19000000.0,7000000.0,11000000.0,0.0,,,10000000.0,,10000000.0,0.23,0.22,46000000.0,47000000.0,,0.67763157894737,0.25657894736842,0.11184210526316,0.065789473684211,,39000000.0,17000000.0,10000000.0,0.07236842105263201,0.065789473684211
2015-12-31,144920000.0,-0.000551724137931,48700000.0,96220000.0,10924000.0,64186000.0,61129000.0,16186000.0,13994000.0,-1132000.0,193000.0,0.0,0.0,-1325000.0,0.0,-1325000.0,-0.03,-0.03,45550000.0,45550000.0,0.0,0.6639525255309999,0.266698868341,0.11168920783900001,-0.009142975434719999,0.116174441071,38650000.0,16186000.0,-1325000.0,-0.00781120618272,-0.009142975434719999
2015-12,145000000.0,0.0229493393158,50000000.0,95000000.0,11000000.0,64000000.0,79000000.0,16000000.0,14000000.0,-1000000.0,0.0,,,-1000000.0,,-1000000.0,-0.03,-0.03,46000000.0,46000000.0,,0.6551724137931,0.23448275862068998,0.08965517241379302,-0.0068965517241379,,34000000.0,13000000.0,-1000000.0,-0.0068965517241379,-0.0068965517241379
2014-12-31,141747000.0,-0.0017816901408500001,56144000.0,85603000.0,11091000.0,60788000.0,54220000.0,8046000.0,17663000.0,-9355000.0,600000.0,0.0,0.0,-9955000.0,0.0,-9955000.0,-0.22,-0.22,45636000.0,45636000.0,0.0,0.603914015817,0.225994200935,0.056763106097499995,-0.0702307632613,0.040692219235699996,32034000.0,8046000.0,-9955000.0,-0.0659978694434,-0.0702307632613
2014-12,142000000.0,-0.056603773584900006,58000000.0,84000000.0,11000000.0,61000000.0,76000000.0,8000000.0,18000000.0,-9000000.0,1000000.0,,,-10000000.0,,-10000000.0,-0.22,-0.22,46000000.0,46000000.0,,0.5915492957746501,0.21830985915493,0.063380281690141,-0.070422535211268,,31000000.0,9000000.0,-10000000.0,-0.063380281690141,-0.070422535211268
2013-12-31,150520000.0,-0.00317880794702,64207000.0,86313000.0,9810000.0,63574000.0,54683000.0,3967000.0,19010000.0,-14088000.0,165000.0,0.0,0.0,-14253000.0,0.0,-14253000.0,-0.3,-0.3,47040000.0,47040000.0,0.0,0.573432102046,0.186845601913,0.026355301621,-0.0946917353176,0.19712330587299998,28124000.0,3967000.0,-14253000.0,-0.093595535477,-0.0946917353176
2013-12,151000000.0,0.016431182223900002,64000000.0,86000000.0,10000000.0,65000000.0,80000000.0,6000000.0,19000000.0,-14000000.0,0.0,,,-14000000.0,,-14000000.0,-0.3,-0.3,47000000.0,47000000.0,,0.5695364238410601,0.17880794701987,0.033112582781457005,-0.09271523178807901,,27000000.0,5000000.0,-14000000.0,-0.09271523178807901,-0.09271523178807901
2012-12-31,148559000.0,1.0,75679000.0,72880000.0,10907000.0,67794000.0,60534000.0,-115953000.0,19116000.0,-133511000.0,272000.0,0.0,0.0,-133783000.0,0.0,-133783000.0,-2.71,-2.71,49395000.0,49395000.0,0.0,0.490579500401,-0.560773833965,-0.7805181779629999,-0.9005378334530001,-0.052612093511699994,-83308000.0,-115953000.0,-133783000.0,-0.898706911059,-0.9005378334530001
2011-12-31,0.0,0.0,0.0,0.0,0.0,0.0,0.0,0.0,0.0,0.0,0.0,0.0,0.0,0.0,0.0,0.0,0.0,0.0,0.0,0.0,0.0,0.0,0.0,0.0,0.0,0.0,0.0,0.0,0.0,0.0,0.0
