,0,1,2,3,4,5,6,7,8,9,10,11,12,13,14
Date,Depreciation & Amortization,Stock-based compensation,Operating Cash Flow,Capital Expenditure,Acquisitions and disposals,Investment purchases and sales,Investing Cash flow,Issuance (repayment) of debt,Issuance (buybacks) of shares,Dividend payments,Financing Cash Flow,Effect of forex changes on cash,Net cash flow / Change in cash,Free Cash Flow,Net Cash/Marketcap
2018-12-31,478000.0,91000.0,-5095000.0,-49000.0,0.0,0.0,-49000.0,0.0,13056000.0,0.0,13056000.0,0.0,7912000.0,-5144000.0,0.8227
2017-12-31,489000.0,0.0,-10029000.0,-63000.0,0.0,0.0,-63000.0,0.0,0.0,0.0,196000.0,0.0,-9896000.0,-10092000.0,0.0892
2016-12-31,342000.0,0.0,-10572000.0,-172000.0,0.0,0.0,-172000.0,0.0,0.0,0.0,-3245000.0,0.0,-13989000.0,-10744000.0,0.0892
2015-12-31,132000.0,0.0,10157000.0,-195000.0,0.0,709000.0,514000.0,0.0,0.0,-14951000.0,3449000.0,0.0,14120000.0,9962000.0,0.0892
2014-12-31,128000.0,0.0,12887000.0,-118000.0,0.0,-500000.0,-618000.0,0.0,0.0,-817000.0,-936000.0,0.0,11333000.0,12769000.0,0.0892
2013-12-31,115000.0,0.0,614000.0,-252000.0,0.0,-209000.0,-461000.0,0.0,0.0,-231000.0,-531000.0,0.0,-378000.0,362000.0,0.0892
