,0,1,2,3,4,5,6,7,8,9,10,11,12,13,14,15,16,17,18,19,20,21,22,23,24,25,26,27,28,29,30
Date,Revenue,Revenue Growth,Cost of Revenue,Gross Profit,R&D Expenses,SG&A Expense,Operating Expenses,Operating Income,Interest Expense,Earnings before Tax,Income Tax Expense,Net Income - Non-Controlling int,Net Income - Discontinued ops,Net Income,Preferred Dividends,Net Income Com,EPS,EPS Diluted,Weighted Average Shs Out,Weighted Average Shs Out (Dil),Dividend per Share,Gross Margin,EBITDA Margin,EBIT Margin,Profit Margin,Free Cash Flow margin,EBITDA,EBIT,Consolidated Income,Earnings Before Tax Margin,Net Profit Margin
2017-12,56000000.0,,91000000.0,-35000000.0,,16000000.0,19000000.0,-54000000.0,7000000.0,-109000000.0,,,,-109000000.0,,-109000000.0,-1.74,-1.74,62000000.0,62000000.0,,-0.625,-1.75,-1.8214285714286,-1.9464285714286,,-98000000.0,-102000000.0,-109000000.0,-1.9464285714286,-1.9464285714286
2016-12,85000000.0,,100000000.0,-16000000.0,,11000000.0,13000000.0,-29000000.0,7000000.0,-1000000.0,,,,-1000000.0,,-1000000.0,-0.02,-0.02,58000000.0,58000000.0,,-0.18823529411764997,0.094117647058824,0.07058823529411799,-0.011764705882353,,8000000.0,6000000.0,-1000000.0,-0.011764705882353,-0.011764705882353
2015-12,77000000.0,,83000000.0,-6000000.0,,9000000.0,11000000.0,-17000000.0,4000000.0,-55000000.0,,,,-55000000.0,,-55000000.0,-1.0,-1.0,54000000.0,54000000.0,,-0.077922077922078,-0.63636363636364,-0.66233766233766,-0.71428571428571,,-49000000.0,-51000000.0,-55000000.0,-0.71428571428571,-0.71428571428571
2014-12,48000000.0,,54000000.0,-7000000.0,,9000000.0,9000000.0,-16000000.0,0.0,-13000000.0,,,,-13000000.0,,-13000000.0,-0.25,-0.25,51000000.0,51000000.0,,-0.14583333333332998,-0.22916666666667004,-0.27083333333333,-0.27083333333333,,-11000000.0,-13000000.0,-13000000.0,-0.27083333333333,-0.27083333333333
2013-12,33000000.0,,44000000.0,-11000000.0,,8000000.0,7000000.0,-18000000.0,0.0,-19000000.0,,,,-19000000.0,,-19000000.0,-0.41,-0.41,48000000.0,48000000.0,,-0.33333333333333,-0.51515151515152,-0.5757575757575799,-0.5757575757575799,,-17000000.0,-19000000.0,-19000000.0,-0.5757575757575799,-0.5757575757575799
