,0,1,2,3,4,5,6,7,8,9,10,11,12,13,14,15,16,17,18,19,20,21,22,23,24,25,26,27,28,29,30
Date,Revenue,Revenue Growth,Cost of Revenue,Gross Profit,R&D Expenses,SG&A Expense,Operating Expenses,Operating Income,Interest Expense,Earnings before Tax,Income Tax Expense,Net Income - Non-Controlling int,Net Income - Discontinued ops,Net Income,Preferred Dividends,Net Income Com,EPS,EPS Diluted,Weighted Average Shs Out,Weighted Average Shs Out (Dil),Dividend per Share,Gross Margin,EBITDA Margin,EBIT Margin,Profit Margin,Free Cash Flow margin,EBITDA,EBIT,Consolidated Income,Earnings Before Tax Margin,Net Profit Margin
2019-10-31,6498600000.0,0.008754773214120002,5767500000.0,731100000.0,0.0,452900000.0,511400000.0,208300000.0,51100000.0,160200000.0,32700000.0,0.0,0.0,127400000.0,0.0,127400000.0,1.91,1.9,66600000.0,66900000.0,0.713004484305,0.11250115409499999,0.048579694088,0.0320530575816,0.019604222447900003,0.031252885236800004,315700000.0,208300000.0,127400000.0,0.0246514633921,0.019604222447900003
2018-10-31,6442200000.0,0.18127475429099998,5747400000.0,694800000.0,0.0,438000000.0,504000000.0,138600000.0,54100000.0,87700000.0,-8200000.0,0.0,0.0,97800000.0,0.0,97800000.0,1.48,1.47,66100000.0,66400000.0,0.692771084337,0.107851355127,0.0389773679799,0.021514389494300002,0.015181149296799997,0.0419111483655,251100000.0,138600000.0,97800000.0,0.013613361895,0.015181149296799997
2017-10-31,5453600000.0,0.060042373705,4881200000.0,572400000.0,0.0,436600000.0,468200000.0,101900000.0,19200000.0,86900000.0,8800000.0,0.0,0.0,3800000.0,0.0,3800000.0,0.07,0.07,57700000.0,58300000.0,0.677530017153,0.104958192753,0.0315388000587,0.018684905383599997,0.000696787443157,-0.0094616400176,172000000.0,101900000.0,3800000.0,0.0159344286343,0.000696787443157
2016-10-31,5144700000.0,0.0504103883376,4623400000.0,521300000.0,0.0,390100000.0,390100000.0,54700000.0,10400000.0,51900000.0,-10400000.0,0.0,0.0,57200000.0,0.0,57200000.0,1.02,1.01,56300000.0,56900000.0,0.648506151142,0.101327579839,0.021808851828099995,0.0106323012032,0.011118238186899998,0.00767780434233,112200000.0,54700000.0,57200000.0,0.0100880517814,0.011118238186899998
2015-10-31,4897800000.0,-0.0268240343348,4410000000.0,487800000.0,0.0,390000000.0,390000000.0,73600000.0,10200000.0,72400000.0,18300000.0,0.0,0.0,76300000.0,0.0,76300000.0,1.35,1.33,56700000.0,57400000.0,0.627177700348,0.09959573686139998,0.0266650332802,0.0150271550492,0.0155784229654,0.024255788313099998,130600000.0,73600000.0,76300000.0,0.014782147086399999,0.0155784229654
2014-10-31,5032800000.0,0.0464765939025,4513500000.0,519300000.0,0.0,363900000.0,363900000.0,128600000.0,10700000.0,124400000.0,48800000.0,0.0,0.0,75600000.0,0.0,75600000.0,1.35,1.32,56100000.0,57100000.0,0.605954465849,0.103183118741,0.0369376887617,0.0255523764107,0.015021459227499999,0.0165514226673,185900000.0,128600000.0,75600000.0,0.024717850898099997,0.015021459227499999
2013-10-31,4809281000.0,0.118368519149,4313429000.0,495852000.0,0.0,348274000.0,335382000.0,119025000.0,0.0,112452000.0,39552000.0,0.0,0.0,72900000.0,0.0,72900000.0,1.33,1.3,54877000.0,56067000.0,0.5863163714840001,0.103103145772,0.037305992309500005,0.024749021735299997,0.0151581910061,0.0213587020596,179415000.0,119025000.0,72900000.0,0.0233822893692,0.0151581910061
2012-10-31,4300265000.0,0.012579464929500002,3854380000.0,445885000.0,0.0,327855000.0,317856000.0,96566000.0,9999000.0,92649000.0,29931000.0,0.0,0.0,62582000.0,0.0,62582000.0,1.16,1.14,53987000.0,54914000.0,0.570146046546,0.103687795985,0.0342916076102,0.022455825396799998,0.014553056614,0.028500569150999997,147463000.0,96566000.0,62582000.0,0.0215449512995,0.014553056614
2011-10-31,4246842000.0,1.0,3781264000.0,465578000.0,0.0,324762000.0,324762000.0,117568000.0,15805000.0,105678000.0,36980000.0,0.0,0.0,68504000.0,0.0,68504000.0,1.29,1.27,53121000.0,54103000.0,0.549766186718,0.109629225669,0.040082960468,0.027683629388599997,0.0161305742008,0.0324631808765,170226000.0,117568000.0,68504000.0,0.024883901967599997,0.0161305742008
2010-10-31,0.0,-1.0,0.0,0.0,0.0,0.0,0.0,0.0,0.0,0.0,0.0,0.0,0.0,0.0,0.0,0.0,0.0,0.0,0.0,0.0,0.0,0.0,0.0,0.0,0.0,0.0,0.0,0.0,0.0,0.0,0.0
2009-10-31,3481823000.0,-0.0391,3114699000.0,367124000.0,0.0,263633000.0,275017000.0,92107000.0,5881000.0,83463000.0,29170000.0,0.0,1197000.0,54293000.0,0.0,54293000.0,1.06,1.05,51577619.0,51373000.0,0.52,0.1054,0.035,0.0257,0.016,0.0351,122669000.0,89344000.0,54293000.0,0.024,0.0156
