,0,1,2,3,4,5,6,7,8,9,10,11,12,13,14
Date,Depreciation & Amortization,Stock-based compensation,Operating Cash Flow,Capital Expenditure,Acquisitions and disposals,Investment purchases and sales,Investing Cash flow,Issuance (repayment) of debt,Issuance (buybacks) of shares,Dividend payments,Financing Cash Flow,Effect of forex changes on cash,Net cash flow / Change in cash,Free Cash Flow,Net Cash/Marketcap
2019-12-31,45030000.0,2236000.0,45565000.0,20796000.0,-100857000.0,-30000000.0,-151532000.0,-0.0,0.0,-0.0,139141000.0,0.0,33174000.0,24769000.0,0.0
2018-12-31,0.0,0.0,140754.0,0.0,-0.0,0.0,0.0,-0.0,-512827.0,-0.0,0.0,0.0,140754.0,140754.0,0.0
2017-12-31,0.0,0.0,-474505.0,0.0,-0.0,0.0,-450000000.0,-300000.0,-347073.0,-0.0,450846578.0,0.0,372073.0,-474505.0,0.0
