,0,1,2,3,4,5,6,7,8,9,10,11,12,13,14,15,16,17,18,19,20,21,22,23,24,25,26,27,28
Date,Cash and cash equivalents,Short-term investments,Cash and short-term investments,Receivables,Inventories,Total current assets,Property Plant & Equipment Net,Goodwill and Intangible Assets,Long-term investments,Tax assets,Total non-current assets,Total assets,Payables,Short-term debt,Total current liabilities,Long-term debt,Total debt,Deferred revenue,Tax Liabilities,Deposit Liabilities,Total non-current liabilities,Total liabilities,Other comprehensive income,Retained earnings (deficit),Total shareholders equity,Investments,Net Debt,Other Assets,Other Liabilities
2019-12-31,12077640.0,0.0,12077640.0,0.0,0.0,12884996.0,193974.0,0.0,0.0,147903.0,8580515.0,21465511.0,561090.0,263392.0,2768913.0,326282.0,589674.0,0.0,0.0,0.0,800467.0,3095195.0,94619818.0,-76250512.0,18370316.0,0.0,-11487966.0,0.0,0.0
2018-12-31,41671284.0,0.0,41671284.0,0.0,0.0,42746305.0,130867.0,0.0,0.0,2267.0,7917114.0,50663419.0,1033829.0,0.0,1135829.0,0.0,0.0,0.0,102000.0,0.0,2267.0,5580261.0,91914692.0,-46832543.0,45083158.0,0.0,-41671284.0,0.0,4442165.0
2017-12-31,15644355.0,0.0,15644355.0,0.0,0.0,16526242.0,62984.0,0.0,0.0,3000.0,7842499.0,24368741.0,95873.0,0.0,207123.0,0.0,0.0,0.0,111250.0,0.0,3000.0,2033204.0,47812215.0,-25551652.0,22335537.0,0.0,-15644355.0,0.0,1823081.0
2016-12-31,3444952.0,0.0,3444952.0,0.0,0.0,3816514.0,50000.0,0.0,0.0,0.0,50000.0,3866514.0,377956.0,156642.0,1160488.0,0.0,156642.0,0.0,0.0,0.0,0.0,1160488.0,163954215.0,-161319600.0,2706026.0,0.0,-3288310.0,0.0,0.0
2015-12-31,12583764.0,0.0,12583764.0,0.0,0.0,13578831.0,837867.0,0.0,0.0,0.0,837867.0,14416698.0,739850.0,148344.0,4801436.0,0.0,148344.0,2905165.0,0.0,0.0,0.0,4801436.0,162884919.0,-153339486.0,9615262.0,0.0,-12435420.0,0.0,0.0
2014-12-31,9906373.0,0.0,9906373.0,0.0,0.0,10665316.0,1098104.0,0.0,0.0,0.0,1137043.0,11802359.0,702494.0,0.0,3132424.0,0.0,0.0,1230746.0,0.0,0.0,1230748.0,4363172.0,148477047.0,-141320208.0,7439187.0,0.0,-9906373.0,0.0,0.0
2013-12-31,23644542.0,0.0,23644542.0,0.0,0.0,24767118.0,1295024.0,0.0,0.0,0.0,1472690.0,26239808.0,696155.0,0.0,3324493.0,0.0,0.0,1395348.0,0.0,0.0,2338041.0,5662534.0,20301813.0,0.0,20577274.0,0.0,-23644542.0,0.0,0.0
2012-12-31,592004.0,0.0,592004.0,0.0,0.0,1669550.0,1265041.0,0.0,0.0,0.0,2476520.0,4146070.0,412096.0,0.0,885975.0,58105.0,58105.0,341166.0,0.0,0.0,58105.0,1262738.0,2820838.0,0.0,2883332.0,0.0,-533899.0,0.0,318658.0
2011-12-31,7109215.0,0.0,7109215.0,0.0,0.0,7233988.0,1029236.0,0.0,0.0,0.0,1029236.0,8263224.0,476315.0,0.0,1067860.0,0.0,0.0,0.0,0.0,0.0,0.0,1067860.0,6964879.0,0.0,7195364.0,0.0,-7109215.0,0.0,0.0
2010-12-31,3812535.0,0.0,3812535.0,0.0,0.0,3898060.0,815958.0,0.0,0.0,0.0,815958.0,4714018.0,373837.0,35607.0,745305.0,0.0,35607.0,0.0,0.0,0.0,0.0,745305.0,0.0,-94712339.0,3968713.0,0.0,-3776928.0,85525.0,335861.0
2009-12-31,8181582.0,0.0,8181582.0,0.0,0.0,8368888.0,949910.0,0.0,0.0,0.0,949910.0,9318798.0,625602.0,67307.0,833974.0,1022876.0,1090183.0,0.0,0.0,0.0,1109676.0,1943650.0,0.0,-89243272.0,7375148.0,0.0,-7091399.0,187306.0,141065.0
