,0,1,2,3,4,5,6,7,8,9,10,11,12,13,14,15,16,17,18,19,20,21,22,23,24,25,26,27,28,29,30
Date,Revenue,Revenue Growth,Cost of Revenue,Gross Profit,R&D Expenses,SG&A Expense,Operating Expenses,Operating Income,Interest Expense,Earnings before Tax,Income Tax Expense,Net Income - Non-Controlling int,Net Income - Discontinued ops,Net Income,Preferred Dividends,Net Income Com,EPS,EPS Diluted,Weighted Average Shs Out,Weighted Average Shs Out (Dil),Dividend per Share,Gross Margin,EBITDA Margin,EBIT Margin,Profit Margin,Free Cash Flow margin,EBITDA,EBIT,Consolidated Income,Earnings Before Tax Margin,Net Profit Margin
2019-12-31,0.0,0.0,0.0,0.0,13851018.0,16046423.0,29897441.0,-29897441.0,0.0,0.0,0.0,0.0,0.0,-29417969.0,0.0,-29417969.0,-2.91,-2.91,10092179.0,10092179.0,0.0,0.0,0.0,0.0,0.0,0.0,-29839159.0,-29897441.0,-29417969.0,0.0,0.0
2018-12-31,0.0,0.0,0.0,0.0,12452424.0,9260583.0,21713007.0,-21713007.0,0.0,0.0,0.0,0.0,0.0,-21280891.0,0.0,-21280891.0,-2.49,-2.49,8555039.0,8555039.0,0.0,0.0,0.0,0.0,0.0,0.0,-21685263.0,-21713007.0,-21280891.0,0.0,0.0
2017-12-31,0.0,-1.0,0.0,0.0,8725026.0,5223101.0,13948127.0,-13948127.0,0.0,0.0,0.0,0.0,0.0,-14194431.0,0.0,-14194431.0,-3.84,-3.84,3694388.0,3694388.0,0.0,0.0,0.0,0.0,0.0,0.0,-13701148.0,-13948127.0,-14194431.0,0.0,0.0
2016-12-31,2905165.0,0.13645974364,0.0,0.0,6497531.0,3122337.0,9619868.0,-7991617.0,0.0,0.0,0.0,0.0,0.0,-7980114.0,0.0,-7980114.0,-1.13,-1.13,7048661.0,7048661.0,0.0,0.0,-2.66886390274,-2.7508306757099996,-2.7468711759900004,-3.16823347383,-7753490.0,-7991617.0,-7980114.0,0.0,-2.7468711759900004
2015-12-31,2556329.0,1.0098585182,0.0,0.0,10039496.0,4258147.0,14297643.0,-12093884.0,0.0,0.0,0.0,0.0,0.0,-12019278.0,0.0,-12019278.0,-2.05,-2.05,5854438.0,5854438.0,0.0,0.0,-4.59349363873,-4.73095755672,-4.70177273739,-4.148146032850001,-11742481.0,-12093884.0,-12019278.0,0.0,-4.70177273739
2014-12-31,1271895.0,0.00417176228534,0.0,0.0,12118629.0,3833370.0,15951999.0,-15067883.0,1983.0,0.0,0.0,0.0,0.0,-15052263.0,0.0,-15052263.0,-0.54,-0.54,27821056.0,27821056.0,0.0,0.0,-11.5419150166,-11.8467978882,-11.8345170002,-11.310952555,-14680104.0,-15067883.0,-15052263.0,0.0,-11.8345170002
2013-12-31,1266611.0,1.0,0.0,0.0,9181090.0,3670769.0,12851859.0,-11923006.0,2267302.0,0.0,0.0,0.0,0.0,-16656325.0,0.0,-16656325.0,-1.25,-1.25,13332350.0,13332350.0,0.0,0.0,-7.775715669610001,-9.41331316403,-13.1503081846,-5.0406107321,-9848807.0,-11923006.0,-16656325.0,0.0,-13.1503081846
2012-12-31,0.0,0.0,0.0,0.0,6318476.0,2508541.0,8827017.0,-9133791.0,350300.0,0.0,0.0,0.0,0.0,-8930833.0,0.0,-8930833.0,-1.54,-1.54,5785372.0,5785372.0,0.0,0.0,0.0,0.0,0.0,0.0,-8667443.0,-9133791.0,-8930833.0,0.0,0.0
2011-12-31,0.0,0.0,0.0,0.0,3340038.0,2406269.0,5746307.0,-5966245.0,3135.0,0.0,0.0,0.0,0.0,-5968448.0,0.0,-5968448.0,-0.26,-0.26,22532498.0,22532498.0,0.0,0.0,0.0,0.0,0.0,0.0,-5755993.0,-5966245.0,-5968448.0,0.0,0.0
2010-12-31,0.0,0.0,0.0,0.0,2584734.0,2216043.0,4970079.0,-4970079.0,500648.0,-5469067.0,0.0,0.0,0.0,-5469067.0,0.0,-5469067.0,-105.98200000000001,-105.98200000000001,55759.0,51546.0,0.0,0.0,,0.0,,0.0,-4799576.0,-4968419.0,-5469067.0,0.0,0.0
2009-12-31,0.0,0.0,0.0,0.0,2107833.0,2020572.0,4345027.0,-4345027.0,278127.0,-1433922.0,0.0,0.0,0.0,-1433922.0,0.0,-1433922.0,-36.431,-36.431,38974.0,37911.0,0.0,0.0,,0.0,,0.0,-940944.0,-1155795.0,-1433922.0,0.0,0.0
