,0,1,2,3,4,5,6,7,8,9,10,11,12,13,14
Date,Depreciation & Amortization,Stock-based compensation,Operating Cash Flow,Capital Expenditure,Acquisitions and disposals,Investment purchases and sales,Investing Cash flow,Issuance (repayment) of debt,Issuance (buybacks) of shares,Dividend payments,Financing Cash Flow,Effect of forex changes on cash,Net cash flow / Change in cash,Free Cash Flow,Net Cash/Marketcap
2018-12,106000000.0,56000000.0,,,,-35858000000.0,-554000000.0,,,,-989000000.0,-19000000.0,-3000000.0,,
2017-12,126000000.0,68000000.0,,,,-39877000000.0,-1360000000.0,,,,-3000000.0,14000000.0,-237000000.0,,
2016-12,0.0,57000000.0,,,,-37728000000.0,-2722000000.0,,,,1636000000.0,-21000000.0,290000000.0,,
2015-12,0.0,56000000.0,,,,-31722000000.0,-914000000.0,,,,-5000000.0,-12000000.0,68000000.0,,
2014-12,0.0,55000000.0,,,,-31524000000.0,-1505000000.0,,,,540000000.0,-20000000.0,52000000.0,,
