,0,1,2,3,4,5,6,7,8,9,10,11,12,13,14,15,16,17,18,19,20,21,22,23,24,25,26,27,28,29,30
Date,Revenue,Revenue Growth,Cost of Revenue,Gross Profit,R&D Expenses,SG&A Expense,Operating Expenses,Operating Income,Interest Expense,Earnings before Tax,Income Tax Expense,Net Income - Non-Controlling int,Net Income - Discontinued ops,Net Income,Preferred Dividends,Net Income Com,EPS,EPS Diluted,Weighted Average Shs Out,Weighted Average Shs Out (Dil),Dividend per Share,Gross Margin,EBITDA Margin,EBIT Margin,Profit Margin,Free Cash Flow margin,EBITDA,EBIT,Consolidated Income,Earnings Before Tax Margin,Net Profit Margin
2019-12-31,6928200000.0,0.27109688384799996,3133452000.0,3794748000.0,0.0,80111000.0,162215000.0,1849110000.0,120872000.0,1849110000.0,155810000.0,0.0,0.0,1636319000.0,41612000.0,1636319000.0,3.97,3.87,401802815.0,411609478.0,0.0,0.547724950204,0.278746860656,0.266896163506,0.236182413903,0.290208423544,1931214000.0,1849110000.0,1636319000.0,0.266896163506,0.236182413903
2018-12-31,5450568000.0,-0.0314190897177,2890106000.0,2560462000.0,0.0,78994000.0,184664000.0,841772000.0,120484000.0,841772000.0,113951000.0,0.0,0.0,757971000.0,41645000.0,757971000.0,1.76,1.73,404347621.0,412906478.0,0.0,0.46976058275,0.173824452791,0.154437482479,0.139062754561,0.280615341374,947442000.0,841772000.0,757971000.0,0.154437482479,0.139062754561
2017-12-31,5627375000.0,0.260738075203,2967446000.0,2659929000.0,0.0,83752000.0,209530000.0,757277000.0,117431000.0,757277000.0,127568000.0,0.0,0.0,619278000.0,46041000.0,619278000.0,4.21,4.07,134712788.0,139261675.0,0.0,0.472676692063,0.156921299896,0.134570203692,0.110047402208,0.19365618960900002,883055000.0,757277000.0,619278000.0,0.134570203692,0.110047402208
2016-12-31,4463556000.0,0.13386357228,2185599000.0,2277957000.0,0.0,81746000.0,81746000.0,855552000.0,66252000.0,855552000.0,31374000.0,0.0,0.0,692738000.0,28070000.0,692738000.0,5.5,5.33,120792114.0,124717493.0,0.0,0.510345787081,0.191674978425,0.191674978425,0.155198680155,0.309470968887,855552000.0,855552000.0,692738000.0,0.191674978425,0.155198680155
2015-12-31,3936590000.0,-0.013107210984200002,2050903000.0,1885687000.0,0.0,0.0,0.0,567194000.0,45874000.0,567194000.0,40612000.0,0.0,0.0,537738000.0,21938000.0,537738000.0,4.24,4.09,121786127.0,126038743.0,0.0,0.479015340688,0.144082568924,0.144082568924,0.136599950719,0.24949766168200002,567194000.0,567194000.0,537738000.0,0.144082568924,0.136599950719
2014-12-31,3988873000.0,0.131223879141,1919250000.0,2069623000.0,0.0,0.0,0.0,844247000.0,45634000.0,844247000.0,22987000.0,0.0,0.0,834355000.0,21938000.0,834355000.0,6.21,6.02,130817610.0,134922322.0,0.0,0.518849058368,0.21165050880300001,0.21165050880300001,0.20917061034499998,0.255021155098,844247000.0,844247000.0,834355000.0,0.21165050880300001,0.20917061034499998
2013-12-31,3526157000.0,0.012570709523200002,1679424000.0,1846733000.0,0.0,0.0,0.0,742505000.0,27060000.0,742505000.0,32774000.0,0.0,0.0,709731000.0,21938000.0,709731000.0,5.24,5.07,131355392.0,135777183.0,0.161573539201,0.523723986198,0.21057060136599998,0.21057060136599998,0.201276063431,0.236339164705,742505000.0,742505000.0,709731000.0,0.21057060136599998,0.201276063431
2012-12-31,3482381000.0,0.13680444043,1861277000.0,1621104000.0,0.0,35570000.0,59066000.0,589387000.0,28525000.0,589387000.0,-4010000.0,0.0,0.0,593397000.0,25079000.0,593397000.0,4.15,4.03,134446158.0,138258847.0,0.205274386528,0.46551597886600005,0.16924828156399999,0.16924828156399999,0.17039979255600002,0.259325731446,589387000.0,589387000.0,593397000.0,0.16924828156399999,0.17039979255600002
2011-12-31,3063307000.0,-0.05572018087169999,1727553000.0,1335754000.0,0.0,31509000.0,54660000.0,427012000.0,31691000.0,427012000.0,-9346000.0,0.0,0.0,436358000.0,25844000.0,436358000.0,3.1,2.97,132221970.0,138289702.0,0.18688304064800002,0.436049667892,0.139395757591,0.139395757591,0.142446708737,0.27653937395100003,427012000.0,427012000.0,436358000.0,0.139395757591,0.142446708737
2010-12-31,3244067000.0,-0.0735530562694,1517715000.0,1726352000.0,0.0,0.0,0.0,816744000.0,30007000.0,908565000.0,7868000.0,0.0,0.0,816744000.0,25844000.0,816744000.0,16.28,15.55,50181716.0,52521719.0,0.492063102504,0.532156703299,0.251765453673,0.251765453673,0.251765453673,0.243647865473,816744000.0,816744000.0,816744000.0,0.28006973962,0.251765453673
2009-12-31,3501622000.0,0.1803,1654674000.0,1846948000.0,0.0,885698000.0,885698000.0,961250000.0,24440000.0,897653000.0,20708000.0,0.0,0.0,876945000.0,25844000.0,851101000.0,1.587,1.527,533044152.0,536043249.0,0.0,0.5275,0.263,0.2633,0.243,0.2779,922093000.0,922093000.0,876945000.0,0.2564,0.2504
