,0,1,2,3,4,5,6,7,8,9,10,11,12,13,14
Date,Depreciation & Amortization,Stock-based compensation,Operating Cash Flow,Capital Expenditure,Acquisitions and disposals,Investment purchases and sales,Investing Cash flow,Issuance (repayment) of debt,Issuance (buybacks) of shares,Dividend payments,Financing Cash Flow,Effect of forex changes on cash,Net cash flow / Change in cash,Free Cash Flow,Net Cash/Marketcap
2018-12-31,1799000.0,9380000.0,-62012000.0,515000.0,-0.0,0.0,66316000.0,-170000.0,-49829000.0,-0.0,2029000.0,0.0,6333000.0,-62527000.0,0.0
2017-12-31,2205000.0,10573000.0,-59478000.0,626000.0,-0.0,0.0,25975000.0,-351000.0,-43496000.0,-0.0,-262000.0,0.0,-33765000.0,-60104000.0,0.0
2016-12-31,1940000.0,11006000.0,-65653000.0,2508000.0,-0.0,0.0,60669000.0,-246000.0,-77261000.0,-0.0,520000.0,0.0,-4464000.0,-68161000.0,0.0
2015-12-31,2696000.0,10072000.0,5577000.0,704000.0,-0.0,0.0,-298654000.0,-249000.0,77153000.0,-0.0,301138000.0,0.0,8061000.0,4873000.0,0.0
2014-12-31,2448000.0,7273000.0,-55524000.0,947000.0,-0.0,0.0,43340000.0,-313000.0,-30959000.0,-0.0,52391000.0,0.0,40207000.0,-56471000.0,0.0
2013-12-31,2759000.0,5920000.0,-53636000.0,408000.0,-0.0,103491000.0,-65034000.0,-350000.0,99754000.0,-0.0,133601000.0,0.0,14931000.0,-54044000.0,0.0
2012-12-31,852000.0,3932000.0,-46534000.0,656000.0,-0.0,85050000.0,4635000.0,-282000.0,23134000.0,-0.0,44315000.0,0.0,2416000.0,-47190000.0,0.0
2011-12-31,814000.0,2989000.0,-35562000.0,732000.0,-0.0,45774000.0,-35238000.0,-546000.0,-16110000.0,-0.0,61537000.0,0.0,-9263000.0,-36294000.0,0.0
2010-12-31,615000.0,2263000.0,-24297000.0,-169000.0,0.0,-29744000.0,-29913000.0,-2867000.0,72738000.0,0.0,69871000.0,0.0,15661000.0,-24466000.0,0.2266
2009-12-31,987000.0,1940000.0,-22314000.0,-42000.0,0.0,24057000.0,24068000.0,-3210000.0,108000.0,0.0,-3102000.0,0.0,-1348000.0,-22356000.0,0.0787
