,0,1,2,3,4,5,6,7,8,9,10,11,12,13,14,15,16,17,18,19,20,21,22,23,24,25,26,27,28,29,30
Date,Revenue,Revenue Growth,Cost of Revenue,Gross Profit,R&D Expenses,SG&A Expense,Operating Expenses,Operating Income,Interest Expense,Earnings before Tax,Income Tax Expense,Net Income - Non-Controlling int,Net Income - Discontinued ops,Net Income,Preferred Dividends,Net Income Com,EPS,EPS Diluted,Weighted Average Shs Out,Weighted Average Shs Out (Dil),Dividend per Share,Gross Margin,EBITDA Margin,EBIT Margin,Profit Margin,Free Cash Flow margin,EBITDA,EBIT,Consolidated Income,Earnings Before Tax Margin,Net Profit Margin
2018-12-31,7340816.3265,-0.646640537234,0.0,7340816.3265,45180612.2449,12721428.5714,57902040.8163,-50561224.4898,304081.6327,-51990816.3265,0.0,0.0,0.0,-51990816.3265,0.0,-51990816.3265,-0.8367,-0.8367,58525702.0408,58525702.0408,0.0,1.0,-7.047999999999999,-7.041,-7.2265,-6.3428,-50706122.44899999,-51686734.6939,-51990816.3265,-7.0824,-7.0824
2017-12-31,20774358.9744,-0.16236753683,0.0,20774358.9744,33500512.8205,10390769.2308,43891282.0513,-23116923.0769,150769.2308,-27088205.1282,0.0,0.0,0.0,-27088205.1282,0.0,-27088205.1282,-0.4718,-0.4718,58229120.0,58547994.8718,0.0,1.0,-1.3005,-1.2967,-1.3374,-1.1885,-26342564.1026,-26937435.8974,-27088205.1282,-1.3039,-1.3039
2016-12-31,24801282.0513,-0.36616830981700005,0.0,24801282.0513,27536324.7863,8435897.4359,35972222.2222,-11170940.1709,7478.6325,-7581196.5812,0.0,0.0,0.0,-7581196.5812,0.0,-7581196.5812,-0.1496,-0.1496,59183805.5556,53522285.2564,0.0,1.0,-0.313,-0.3054,-0.3269,-0.2784,-7276709.4017,-7573717.9487,-7581196.5812,-0.3057,-0.3057
2015-12-31,39129129.1291,0.283663987087,0.0,39129129.1291,17066066.0661,3420420.4204,20486486.4865,18642642.6426,0.0,20290290.2903,0.0,0.0,0.0,20290290.2903,0.0,20290290.2903,0.4705,0.4404,53941000.0,43455705.7057,0.0,1.0,0.5265,0.5185,0.5195,1.1203,20577577.5776,20290290.2903,20290290.2903,0.5185,0.5185
2014-12-31,30482376.6365,,0.0,30482376.6365,16229607.2508,3460221.5509,19689828.8016,10792547.8348,4028.1974,10819738.1672,0.0,0.0,0.0,10819738.1672,0.0,10819738.1672,0.2518,0.2417,,42985649.5468,0.0,1.0,0.3676,0.3551,0.3575,-0.5870000000000001,11123867.0695,10823766.3646,10819738.1672,0.355,0.355
