,0,1,2,3,4,5,6,7,8,9,10,11,12,13,14,15,16,17,18,19,20,21,22,23,24,25,26,27,28,29,30
Date,Revenue,Revenue Growth,Cost of Revenue,Gross Profit,R&D Expenses,SG&A Expense,Operating Expenses,Operating Income,Interest Expense,Earnings before Tax,Income Tax Expense,Net Income - Non-Controlling int,Net Income - Discontinued ops,Net Income,Preferred Dividends,Net Income Com,EPS,EPS Diluted,Weighted Average Shs Out,Weighted Average Shs Out (Dil),Dividend per Share,Gross Margin,EBITDA Margin,EBIT Margin,Profit Margin,Free Cash Flow margin,EBITDA,EBIT,Consolidated Income,Earnings Before Tax Margin,Net Profit Margin
2019-09-30,20173300000.0,0.000882537739552,19359884000.0,813445000.0,0.0,148123000.0,148123000.0,25085000.0,0.0,-184120000.0,-100000.0,0.0,0.0,-261050000.0,0.0,-261050000.0,-1.66,-1.66,157000000.0,157000000.0,0.0,0.0403228524832,0.0141905389797,0.0012434752866400001,-0.0129403716794,0.0335568300675,286270000.0,25085000.0,-261050000.0,-0.00912691527911,-0.0129403716794
2018-09-30,20155512000.0,0.107238745812,19504863000.0,650649000.0,0.0,135787000.0,135787000.0,424868000.0,0.0,177484000.0,-19643000.0,0.0,0.0,136468000.0,0.0,136468000.0,0.86,0.84,159101000.0,162261000.0,0.0,0.0322814424163,0.034354771042299996,0.0210794942842,0.006770753330399999,0.032808593500399996,692438000.0,424868000.0,136468000.0,0.00880573016453,0.006770753330399999
2017-09-30,18203402000.0,0.0455220818083,17519682000.0,683720000.0,0.0,133309000.0,133309000.0,653856000.0,0.0,429182000.0,7706000.0,0.0,0.0,339390000.0,0.0,339390000.0,2.18,2.13,155728000.0,159135000.0,0.0,0.037560012133999995,0.051225974133800006,0.035919439674,0.0186443171447,0.033526700119,932487000.0,653856000.0,339390000.0,0.023577021482000003,0.0186443171447
2016-09-30,17410825000.0,-0.0321878189293,16768001000.0,642824000.0,0.0,115088000.0,115088000.0,375537000.0,0.0,125555000.0,-37917000.0,0.0,0.0,96109000.0,0.0,96109000.0,0.62,0.62,154772000.0,156073000.0,0.0,0.036920938554,0.0444704372136,0.0215691674576,0.0055200715646700005,0.0357690689557,774267000.0,375537000.0,96109000.0,0.007211318245979999,0.0055200715646700005
2015-09-30,17989880000.0,1.15272790977,17454692000.0,535188000.0,0.0,113975000.0,113975000.0,129018000.0,299627000.0,-151470000.0,-80237000.0,0.0,0.0,-154845000.0,0.0,-154845000.0,-1.04,-1.04,149605000.0,149605000.0,0.0,0.0297493924362,0.0404829270679,0.00717169875508,-0.00860733923739,0.038633220455099995,728283000.0,129018000.0,-154845000.0,-0.008419733761430001,-0.00860733923739
2014-09-30,8356783000.0,0.024932620919,7953607000.0,403176000.0,0.0,80908000.0,80908000.0,352882000.0,40842000.0,314788000.0,82024000.0,0.0,0.0,229854000.0,0.0,229854000.0,2.36,2.33,97226000.0,98657000.0,0.0,0.048245359488199996,0.0536421730707,0.042227014869200004,0.0275050818,0.035632491594,448276000.0,352882000.0,229854000.0,0.037668562172800006,0.0275050818
2013-09-30,8153495000.0,-0.00787096413074,7703507000.0,449988000.0,0.0,97318000.0,97318000.0,376989000.0,44737000.0,335774000.0,92578000.0,0.0,0.0,239243000.0,0.0,239243000.0,2.38,2.35,100618000.0,101942000.0,0.0,0.0551895843439,0.0578150842062,0.0462364912225,0.0293423863018,0.0437212508256,471395000.0,376989000.0,239243000.0,0.0411816037172,0.0293423863018
2012-09-30,8218180000.0,0.022495655919499997,7796321000.0,421859000.0,0.0,80903000.0,80903000.0,53606000.0,45096000.0,17483000.0,74416000.0,0.0,0.0,-58567000.0,0.0,-58567000.0,-0.52,-0.52,111875000.0,111875000.0,0.0,0.0513324117992,0.0190528803214,0.006522855425409999,-0.0071265170633900005,0.0450802975841,156580000.0,53606000.0,-58567000.0,0.00212735666534,-0.0071265170633900005
2011-09-30,8037374000.0,0.22786902300999998,7570672000.0,466702000.0,0.0,90298000.0,90298000.0,421223000.0,40411000.0,384180000.0,100090000.0,0.0,0.0,275800000.0,-2000.0,275800000.0,2.35,2.33,117396000.0,118345000.0,0.0,0.05806647793169999,0.0661321720253,0.0524080377496,0.0343146903454,0.00672122511656,531529000.0,421223000.0,275800000.0,0.047799194114899995,0.0343146903454
2010-09-30,6545791000.0,0.0696672012995,6115520000.0,430271000.0,0.0,110463000.0,110463000.0,340795000.0,9928000.0,341117000.0,91696000.0,0.0,0.0,236887000.0,-127000.0,236887000.0,2.07,2.05,114344000.0,115463000.0,0.0,0.0657324683908,0.06411662089430001,0.0520632265833,0.0361892092186,0.013771444887299998,419694000.0,340795000.0,236887000.0,0.0521124184992,0.0361892092186
2009-09-30,6119465000.0,0.17800000000000002,5768262000.0,351203000.0,0.0,86894000.0,86894000.0,264309000.0,10691000.0,266698000.0,77002000.0,14182000.0,-2992000.0,189696000.0,139000.0,189557000.0,1.76,1.73,110319673.0,108003000.0,0.0,0.0574,0.059000000000000004,0.0453,0.031,0.0271,361506000.0,277389000.0,203878000.0,0.0436,0.031
