,0,1,2,3,4,5,6,7,8,9,10,11,12,13,14,15,16,17,18,19,20,21,22,23,24,25,26,27,28
Date,Cash and cash equivalents,Short-term investments,Cash and short-term investments,Receivables,Inventories,Total current assets,Property Plant & Equipment Net,Goodwill and Intangible Assets,Long-term investments,Tax assets,Total non-current assets,Total assets,Payables,Short-term debt,Total current liabilities,Long-term debt,Total debt,Deferred revenue,Tax Liabilities,Deposit Liabilities,Total non-current liabilities,Total liabilities,Other comprehensive income,Retained earnings (deficit),Total shareholders equity,Investments,Net Debt,Other Assets,Other Liabilities
2012-12-31,319000000.0,9000000.0,328000000.0,1303400000.0,1543200000.0,3879700000.0,1479800000.0,8592100000.0,0.0,60700000.0,10223800000.0,14103500000.0,2428900000.0,176200000.0,2710600000.0,6257100000.0,6433300000.0,32300000.0,68400000.0,0.0,7466200000.0,10269700000.0,1613900000.0,2182700000.0,3833800000.0,9000000.0,6114300000.0,0.0,92900000.0
2011-12-31,209300000.0,14900000.0,224200000.0,1165700000.0,889400000.0,2569700000.0,713700000.0,3321900000.0,0.0,21700000.0,4128600000.0,6698300000.0,1535400000.0,184500000.0,1839500000.0,848500000.0,1033000000.0,12800000.0,106700000.0,0.0,1217300000.0,3134700000.0,1554300000.0,2085400000.0,3563600000.0,14900000.0,823700000.0,0.0,77900000.0
2010-12-31,0.0,0.0,0.0,0.0,0.0,0.0,0.0,0.0,0.0,0.0,0.0,0.0,0.0,0.0,0.0,0.0,0.0,0.0,0.0,0.0,0.0,0.0,0.0,0.0,0.0,0.0,0.0,0.0,0.0
