,0,1,2,3,4,5,6,7,8,9,10,11,12,13,14,15,16,17,18,19,20,21,22,23,24,25,26,27,28,29,30
Date,Revenue,Revenue Growth,Cost of Revenue,Gross Profit,R&D Expenses,SG&A Expense,Operating Expenses,Operating Income,Interest Expense,Earnings before Tax,Income Tax Expense,Net Income - Non-Controlling int,Net Income - Discontinued ops,Net Income,Preferred Dividends,Net Income Com,EPS,EPS Diluted,Weighted Average Shs Out,Weighted Average Shs Out (Dil),Dividend per Share,Gross Margin,EBITDA Margin,EBIT Margin,Profit Margin,Free Cash Flow margin,EBITDA,EBIT,Consolidated Income,Earnings Before Tax Margin,Net Profit Margin
2019-12-31,11246000.0,-0.9144829893690001,18288000.0,-7042000.0,0.0,16376000.0,19570000.0,-23418000.0,0.0,-18953000.0,-1824000.0,0.0,0.0,-17115000.0,-307000.0,-17115000.0,-0.35,-0.4,49764002.0,50896773.0,0.0,-0.626178196692,-1.79539391784,-2.0823403876900004,-1.52187444425,-0.221500978126,-20191000.0,-23418000.0,-17115000.0,-1.68531033256,-1.52187444425
2018-12-31,131506000.0,1.01073361671,35168000.0,96338000.0,0.0,18850000.0,45970000.0,-24811000.0,0.0,-103669000.0,1179000.0,0.0,0.0,-105029000.0,0.0,-105029000.0,-2.1,-2.1,49969062.0,49969062.0,0.0,0.7325749395460001,0.017748239624,-0.188668197649,-0.798663178866,0.15849466944499999,2334000.0,-24811000.0,-105029000.0,-0.7883214454090001,-0.798663178866
2017-12-31,65402000.0,-0.571693331325,4952000.0,60450000.0,1189000.0,26030000.0,49373000.0,-27272000.0,0.0,24639000.0,2955000.0,0.0,0.0,22180000.0,0.0,22180000.0,0.44,0.44,50495119.0,50692012.0,0.0,0.92428366105,-0.0768936729764,-0.41699030610699994,0.33913335983599996,0.37423931989799997,-5029000.0,-27272000.0,22180000.0,0.37673159842200005,0.33913335983599996
2016-12-31,152699000.0,0.22123051576699998,22730000.0,129969000.0,3079000.0,32919000.0,70206000.0,-37409000.0,0.0,-36611000.0,18188000.0,0.0,0.0,-54067000.0,0.0,-54067000.0,-1.08,-1.08,50075847.0,50075847.0,0.0,0.8511450631630001,-0.020000130976599997,-0.244985232385,-0.354075665198,0.22303354966299999,-3054000.0,-37409000.0,-54067000.0,-0.23975926495900002,-0.354075665198
2015-12-31,125037000.0,-0.0446147498395,18462000.0,106575000.0,3391000.0,38176000.0,94634000.0,-152622000.0,0.0,-152678000.0,4800000.0,0.0,0.0,-160036000.0,0.0,-160036000.0,-3.25,-3.25,49505817.0,49505817.0,0.5137578074920001,0.852347705079,-0.7944288490610001,-1.2206146980500001,-1.27990914689,-0.0796324288011,-99333000.0,-152622000.0,-160036000.0,-1.22106256548,-1.27990914689
2014-12-31,130876000.0,0.00245105548577,20670000.0,110206000.0,3840000.0,48554000.0,109636000.0,-62155000.0,0.0,-62750000.0,3912000.0,0.0,0.0,-66029000.0,0.0,-66029000.0,-1.37,-1.37,48658088.0,48658088.0,0.514590708949,0.8420642440170001,-0.0352165408478,-0.47491518689400003,-0.504515724808,0.0311363427978,-4609000.0,-62155000.0,-66029000.0,-0.47946147498400005,-0.504515724808
2013-12-31,130556000.0,-0.479290224029,29724000.0,100832000.0,3251000.0,59229000.0,116138000.0,-82931000.0,0.0,-80800000.0,-21958000.0,0.0,0.0,-56434000.0,0.0,-56434000.0,-1.18,-1.18,48155832.0,48155832.0,0.386931327445,0.7723275835660001,-0.222410306688,-0.635214007782,-0.432258954012,-0.0320475504764,-29037000.0,-82931000.0,-56434000.0,-0.618891510157,-0.432258954012
2012-12-31,250727000.0,0.455548718187,26028000.0,224699000.0,4943000.0,54083000.0,98045000.0,80412000.0,0.0,81349000.0,22060000.0,0.0,0.0,59453000.0,0.0,59453000.0,1.26,1.24,47251061.0,48060647.0,0.0,0.8961898798289999,0.47693307860699996,0.320715359734,0.237122447921,0.41612989426700003,119580000.0,80412000.0,59453000.0,0.32445249215300004,0.237122447921
2011-12-31,172256000.0,0.306662418739,43727000.0,128529000.0,4338000.0,35693000.0,49776000.0,30257000.0,0.0,30353000.0,8708000.0,0.0,0.0,21106000.0,0.0,21106000.0,0.53,0.51,39743433.0,41258297.0,0.0,0.7461510774660001,0.232833689393,0.17565135612100002,0.12252693665200001,0.350640906558,40107000.0,30257000.0,21106000.0,0.176208666171,0.12252693665200001
2010-12-31,131829000.0,0.9576626076629999,59089000.0,72740000.0,2121000.0,25067000.0,34119000.0,38621000.0,0.0,35791000.0,1740000.0,0.0,0.0,34051000.0,0.0,34051000.0,1.05,0.97,34855119.0,32306322.0,0.0,0.5518,0.325,0.2715,0.258,0.2779,42808000.0,35791000.0,34051000.0,0.2715,0.2583
2009-12-31,67340000.0,0.3963,45673000.0,21667000.0,1689000.0,21070000.0,27393000.0,-5726000.0,0.0,-11081000.0,209000.0,0.0,0.0,-11290000.0,0.0,-11290000.0,-0.38,-0.38,31852066.0,29914801.0,0.0,0.3218,-0.094,-0.1646,-0.168,0.0954,-6322000.0,-11081000.0,-11290000.0,-0.1646,-0.1677
