,0,1,2,3,4,5,6,7,8,9,10,11,12,13,14
Date,Depreciation & Amortization,Stock-based compensation,Operating Cash Flow,Capital Expenditure,Acquisitions and disposals,Investment purchases and sales,Investing Cash flow,Issuance (repayment) of debt,Issuance (buybacks) of shares,Dividend payments,Financing Cash Flow,Effect of forex changes on cash,Net cash flow / Change in cash,Free Cash Flow,Net Cash/Marketcap
2018-12-31,941000000.0,109000000.0,-4784000000.0,842000000.0,-464000000.0,-77000000.0,6582000000.0,-30000000.0,-77000000.0,-758000000.0,187000000.0,0.0,1997000000.0,-5626000000.0,0.0
2017-12-31,924000000.0,66000000.0,2211000000.0,1049000000.0,-187000000.0,-750000000.0,-886000000.0,-835000000.0,-750000000.0,-730000000.0,-1028000000.0,0.0,804000000.0,1162000000.0,0.0
2016-12-31,900000000.0,74000000.0,1475000000.0,882000000.0,-130000000.0,-1000000000.0,-1211000000.0,-14000000.0,-1000000000.0,-701000000.0,-579000000.0,0.0,619000000.0,593000000.0,0.0
2015-12-31,882000000.0,79000000.0,2481000000.0,1125000000.0,-479000000.0,-2040000000.0,-21000000.0,-994000000.0,-2040000000.0,-687000000.0,-2649000000.0,0.0,-189000000.0,1356000000.0,0.0
2014-12-31,894000000.0,55000000.0,4962000000.0,894000000.0,-2758000000.0,-1183000000.0,-3407000000.0,-1251000000.0,-1183000000.0,-624000000.0,-3577000000.0,0.0,-2022000000.0,4068000000.0,0.0
2013-12-31,909000000.0,43000000.0,5226000000.0,913000000.0,-44000000.0,3000000.0,-577000000.0,-275000000.0,-101000000.0,-501000000.0,-3242000000.0,0.0,1407000000.0,4313000000.0,0.0
2012-12-31,0.0,0.0,0.0,0.0,-0.0,0.0,1714000000.0,-0.0,-1714000000.0,-0.0,0.0,0.0,1714000000.0,0.0,0.0
2012-06-30,848000000.0,48000000.0,2895000000.0,1477000000.0,-241000000.0,121000000.0,-1122000000.0,-358000000.0,-527000000.0,-455000000.0,-1097000000.0,0.0,676000000.0,1418000000.0,0.0
2011-06-30,877000000.0,47000000.0,-2340000000.0,1247000000.0,-218000000.0,-586000000.0,-1675000000.0,-417000000.0,1449000000.0,-395000000.0,3584000000.0,0.0,-431000000.0,-3587000000.0,0.0
2010-06-30,912000000.0,45000000.0,2684000000.0,1607000000.0,-62000000.0,-33000000.0,-1665000000.0,-552000000.0,-100000000.0,-372000000.0,-1028000000.0,0.0,-9000000.0,1077000000.0,0.0
2009-06-30,780000000.0,65000000.0,5341000000.0,-1833000000.0,45000000.0,-90000000.0,-1871000000.0,-2789000000.0,-100000000.0,-347000000.0,-3225000000.0,0.0,245000000.0,3508000000.0,-0.2334
