,0,1,2,3,4,5,6,7,8,9,10,11,12,13,14,15,16,17,18,19,20,21,22,23,24,25,26,27,28
Date,Cash and cash equivalents,Short-term investments,Cash and short-term investments,Receivables,Inventories,Total current assets,Property Plant & Equipment Net,Goodwill and Intangible Assets,Long-term investments,Tax assets,Total non-current assets,Total assets,Payables,Short-term debt,Total current liabilities,Long-term debt,Total debt,Deferred revenue,Tax Liabilities,Deposit Liabilities,Total non-current liabilities,Total liabilities,Other comprehensive income,Retained earnings (deficit),Total shareholders equity,Investments,Net Debt,Other Assets,Other Liabilities
2018-12-31,19271642.0,0.0,19271642.0,1155166.0,3279032.0,25784253.0,9867921.0,20851218.0,0.0,1727000.0,32573794.0,58358047.0,4170720.0,2583134.0,11553700.0,0.0,2583134.0,1011246.0,3895.0,0.0,112530.0,11666230.0,199691406.0,-153004370.0,46691817.0,0.0,-16688508.0,0.0,0.0
2017-12-31,17323241.0,0.0,17323241.0,830090.0,1824558.0,21461530.0,6559664.0,23327309.0,0.0,1941700.0,29941628.0,51403158.0,2919120.0,483992.0,8787563.0,2583109.0,3067101.0,14758.0,4594.0,0.0,3068111.0,11855674.0,153541703.0,-113997588.0,39547484.0,0.0,-14256140.0,0.0,0.0
2016-12-31,4090651.0,0.0,4090651.0,805372.0,942067.0,7070239.0,4897007.0,25776666.0,0.0,4177400.0,30716173.0,37786412.0,2150583.0,465965.0,8610924.0,3067065.0,3533030.0,54478.0,12200.0,0.0,3895621.0,12506545.0,113736245.0,-88458608.0,25279867.0,0.0,-557621.0,0.0,0.0
2015-12-31,4080648.0,0.0,4080648.0,0.0,0.0,4151633.0,58260.0,7766960.0,0.0,0.0,7910220.0,12061853.0,497794.0,1174312.0,2747820.0,0.0,1174312.0,0.0,0.0,0.0,0.0,2747820.0,78334015.0,-69021356.0,9314033.0,0.0,-2906336.0,0.0,0.0
2014-12-31,3774665.0,0.0,3774665.0,0.0,0.0,3954210.0,77680.0,8737830.0,0.0,0.0,8943010.0,12897220.0,787012.0,0.0,3394046.0,0.0,0.0,0.0,0.0,0.0,0.0,3394046.0,64951437.0,-55449359.0,9503174.0,0.0,-3774665.0,0.0,0.0
2014-03-31,5403235.0,0.0,5403235.0,0.0,0.0,5417739.0,92245.0,9611632.0,0.0,0.0,9703877.0,15121616.0,671018.0,38653.0,2933827.0,0.0,38653.0,0.0,0.0,0.0,0.0,2933827.0,58319712.0,-46133004.0,12187789.0,0.0,-5364582.0,0.0,0.0
2013-03-31,0.0,0.0,0.0,0.0,0.0,0.0,0.0,0.0,0.0,0.0,0.0,0.0,0.0,0.0,0.0,0.0,0.0,0.0,0.0,0.0,0.0,0.0,0.0,0.0,0.0,0.0,0.0,0.0,0.0
2012-03-31,7519.0,0.0,7519.0,0.0,0.0,39039.0,0.0,0.0,0.0,0.0,130000.0,169039.0,2020713.0,301240.0,2892668.0,0.0,301240.0,0.0,0.0,0.0,0.0,2892668.0,0.0,-30782332.0,-2723629.0,0.0,293721.0,31520.0,570715.0
2011-12-31,0.0,0.0,0.0,0.0,0.0,0.0,0.0,0.0,0.0,0.0,0.0,0.0,0.0,0.0,0.0,0.0,0.0,0.0,0.0,0.0,0.0,0.0,0.0,0.0,0.0,0.0,0.0,0.0,0.0
2011-03-31,1238898.0,0.0,1238898.0,0.0,0.0,1533608.0,0.0,0.0,0.0,0.0,200000.0,1733608.0,1263199.0,1356973.0,3113274.0,0.0,1356973.0,0.0,0.0,0.0,0.0,3113274.0,0.0,-25867037.0,-1379666.0,0.0,118075.0,294710.0,493102.0
2010-03-31,290299.0,0.0,290299.0,5555.0,2709.0,326234.0,0.0,0.0,0.0,0.0,350000.0,676234.0,1560312.0,1782196.0,4950310.0,0.0,1782196.0,0.0,0.0,0.0,0.0,4950310.0,0.0,-18887224.0,-4274076.0,0.0,1491897.0,27671.0,1607802.0
