,0,1,2,3,4,5,6,7,8,9,10,11,12,13,14,15,16,17,18,19,20,21,22,23,24,25,26,27,28
Date,Cash and cash equivalents,Short-term investments,Cash and short-term investments,Receivables,Inventories,Total current assets,Property Plant & Equipment Net,Goodwill and Intangible Assets,Long-term investments,Tax assets,Total non-current assets,Total assets,Payables,Short-term debt,Total current liabilities,Long-term debt,Total debt,Deferred revenue,Tax Liabilities,Deposit Liabilities,Total non-current liabilities,Total liabilities,Other comprehensive income,Retained earnings (deficit),Total shareholders equity,Investments,Net Debt,Other Assets,Other Liabilities
2019-09-30,924000000.0,5000000.0,929000000.0,1905000000.0,793000000.0,4116000000.0,1671000000.0,2555000000.0,1400000000.0,199000000.0,6226000000.0,10342000000.0,2709000000.0,8000000.0,3835000000.0,3708000000.0,3716000000.0,0.0,414000000.0,0.0,4267000000.0,8494000000.0,3962000000.0,-1545000000.0,1848000000.0,1405000000.0,2792000000.0,0.0,392000000.0
2018-09-30,687000000.0,4000000.0,691000000.0,2091000000.0,824000000.0,4309000000.0,1683000000.0,2642000000.0,1407000000.0,506000000.0,6633000000.0,10942000000.0,3101000000.0,2000000.0,4192000000.0,3422000000.0,3424000000.0,0.0,288000000.0,0.0,3986000000.0,8550000000.0,3951000000.0,-1028000000.0,2392000000.0,1411000000.0,2737000000.0,0.0,372000000.0
2017-09-30,709000000.0,4000000.0,713000000.0,2224000000.0,735000000.0,4499000000.0,2502000000.0,3058000000.0,1793000000.0,1025000000.0,8671000000.0,13170000000.0,2958000000.0,2000000.0,4328000000.0,3440000000.0,3442000000.0,0.0,193000000.0,0.0,4222000000.0,8891000000.0,3942000000.0,734000000.0,4279000000.0,1797000000.0,2733000000.0,0.0,341000000.0
2016-09-30,2139000000.0,0.0,2139000000.0,2082000000.0,660000000.0,5691000000.0,2195000000.0,2292000000.0,1714000000.0,0.0,7265000000.0,12956000000.0,2776000000.0,79000000.0,4260000000.0,3442000000.0,3521000000.0,0.0,0.0,0.0,4389000000.0,8649000000.0,-276000000.0,0.0,4176000000.0,1714000000.0,1382000000.0,810000000.0,1405000000.0
2015-09-30,44000000.0,0.0,44000000.0,2134000000.0,701000000.0,3806000000.0,2139000000.0,2289000000.0,1646000000.0,0.0,6631000000.0,10437000000.0,2653000000.0,24000000.0,4011000000.0,35000000.0,59000000.0,0.0,0.0,0.0,659000000.0,4670000000.0,-247000000.0,5873000000.0,5626000000.0,1646000000.0,15000000.0,927000000.0,1334000000.0
2014-09-30,45000000.0,0.0,45000000.0,2027000000.0,745000000.0,4500000000.0,2406000000.0,2499000000.0,564000000.0,0.0,6706000000.0,11206000000.0,2856000000.0,110000000.0,4936000000.0,46000000.0,156000000.0,0.0,0.0,0.0,658000000.0,5594000000.0,276000000.0,,5453000000.0,564000000.0,111000000.0,1683000000.0,1970000000.0
