,0,1,2,3,4,5,6,7,8,9,10,11,12,13,14
Date,Depreciation & Amortization,Stock-based compensation,Operating Cash Flow,Capital Expenditure,Acquisitions and disposals,Investment purchases and sales,Investing Cash flow,Issuance (repayment) of debt,Issuance (buybacks) of shares,Dividend payments,Financing Cash Flow,Effect of forex changes on cash,Net cash flow / Change in cash,Free Cash Flow,Net Cash/Marketcap
2019-12-31,284500000.0,10000000.0,280200000.0,203800000.0,-27100000.0,0.0,-226100000.0,-261300000.0,0.0,-0.0,-48400000.0,0.0,5700000.0,76400000.0,0.0
2018-12-31,276600000.0,11200000.0,308300000.0,188600000.0,-26300000.0,0.0,-206800000.0,-240600000.0,-6800000.0,-0.0,-101500000.0,0.0,0.0,119700000.0,0.0
2017-12-31,276100000.0,10200000.0,308800000.0,186600000.0,-111900000.0,0.0,-287600000.0,-347000000.0,-6800000.0,-0.0,-15600000.0,0.0,5600000.0,122200000.0,0.0
2016-12-31,264400000.0,6300000.0,237000000.0,171000000.0,-5400000.0,0.0,-170600000.0,-1164400000.0,374400000.0,-0.0,-65800000.0,0.0,600000.0,66000000.0,0.0
2015-12-31,273500000.0,3100000.0,244500000.0,179700000.0,-50000000.0,15000000.0,-197400000.0,-153400000.0,-600000.0,-0.0,-47500000.0,0.0,-400000.0,64800000.0,0.0
2014-12-31,287100000.0,4500000.0,243200000.0,196400000.0,-9900000.0,0.0,-201200000.0,-141300000.0,-1000000.0,-0.0,-53000000.0,0.0,-11000000.0,46800000.0,0.0
2013-12-31,297400000.0,4600000.0,180300000.0,0.0,-50400000.0,5000000.0,-154800000.0,-196800000.0,-12000000.0,-0.0,-32300000.0,0.0,-6800000.0,180300000.0,0.0
