,0,1,2,3,4,5,6,7,8,9,10,11,12,13,14
Date,Depreciation & Amortization,Stock-based compensation,Operating Cash Flow,Capital Expenditure,Acquisitions and disposals,Investment purchases and sales,Investing Cash flow,Issuance (repayment) of debt,Issuance (buybacks) of shares,Dividend payments,Financing Cash Flow,Effect of forex changes on cash,Net cash flow / Change in cash,Free Cash Flow,Net Cash/Marketcap
2019-10-31,1483000.0,2002000.0,-36128000.0,1281000.0,-0.0,0.0,-1198000.0,-0.0,-7892000.0,-0.0,24571000.0,0.0,32363000.0,-37409000.0,0.0
2018-10-31,1507000.0,6983000.0,-62129000.0,2841000.0,-0.0,-12487000.0,43173000.0,-0.0,-44141000.0,-0.0,39197000.0,0.0,44141000.0,-64970000.0,0.0
2017-10-31,1304367.0,27835673.0,-76923985.0,4622185.0,-0.0,-71175703.0,-12454888.0,-0.0,-23243941.0,-0.0,527702.0,0.0,23899809.0,-81546170.0,0.0
2016-10-31,788922.0,23472947.0,-9070545.0,4449184.0,-0.0,0.0,1556033.0,-0.0,-59625937.0,-0.0,53703809.0,0.0,112750980.0,-13519729.0,0.0
2015-10-31,325998.0,21431030.0,-24135544.0,1794784.0,-0.0,0.0,-47449887.0,-0.0,53172193.0,-0.0,120540254.0,0.0,66561683.0,-25930328.0,0.0
2014-10-31,-414379.0,4428712.0,-17021659.0,439675.0,-0.0,0.0,2505527.0,-64926.0,14580808.0,-0.0,14516132.0,0.0,0.0,-17461334.0,0.0
2013-10-31,1138223.0,4545992.0,-8713945.0,298749.0,-0.0,0.0,-295749.0,-66919.0,27438931.0,-0.0,29561524.0,0.0,0.0,-9012694.0,0.0
2012-10-31,-470371.0,795226.0,-8942842.0,296358.0,-0.0,0.0,-1284515.0,-25000.0,0.0,-0.0,10227357.0,0.0,0.0,-9239200.0,0.0
2011-10-31,47167.0,570664.0,-6423940.0,12436.0,-0.0,0.0,-867209.0,-0.0,0.0,-0.0,6739708.0,0.0,0.0,-6436376.0,0.0
2010-10-31,138948.0,0.0,-6423940.0,-12436.0,0.0,0.0,-867209.0,-463119.0,170000.0,0.0,6739708.0,0.0,-551441.0,-6436376.0,-0.0476
2009-10-31,111156.0,0.0,-2034636.0,0.0,0.0,0.0,-308749.0,3242963.0,0.0,0.0,2943469.0,0.0,600084.0,-2034636.0,-0.191
