,0,1,2,3,4,5,6,7,8,9,10,11,12,13,14
Date,Depreciation & Amortization,Stock-based compensation,Operating Cash Flow,Capital Expenditure,Acquisitions and disposals,Investment purchases and sales,Investing Cash flow,Issuance (repayment) of debt,Issuance (buybacks) of shares,Dividend payments,Financing Cash Flow,Effect of forex changes on cash,Net cash flow / Change in cash,Free Cash Flow,Net Cash/Marketcap
2018-06,,,,-0.0,,-1000000.0,-1000000.0,-3000000.0,-1000000.0,,7000000.0,0.0,6000000.0,-5000000.0,
2017-06,,,,-0.0,,0.0,-0.0,-2000000.0,0.0,,3000000.0,-0.0,3000000.0,-3000000.0,
2016-06,,,,-0.0,,0.0,-0.0,-2000000.0,0.0,,2000000.0,0.0,2000000.0,-3000000.0,
2015-06,,,,-0.0,,0.0,-0.0,-2000000.0,0.0,,3000000.0,0.0,3000000.0,-2000000.0,
2014-06,,,,-0.0,,0.0,-0.0,-4000000.0,0.0,,2000000.0,-0.0,2000000.0,-2000000.0,
