,0,1,2,3,4,5,6,7,8,9,10,11,12,13,14,15,16,17,18,19,20,21,22,23,24,25,26,27,28,29,30
Date,Revenue,Revenue Growth,Cost of Revenue,Gross Profit,R&D Expenses,SG&A Expense,Operating Expenses,Operating Income,Interest Expense,Earnings before Tax,Income Tax Expense,Net Income - Non-Controlling int,Net Income - Discontinued ops,Net Income,Preferred Dividends,Net Income Com,EPS,EPS Diluted,Weighted Average Shs Out,Weighted Average Shs Out (Dil),Dividend per Share,Gross Margin,EBITDA Margin,EBIT Margin,Profit Margin,Free Cash Flow margin,EBITDA,EBIT,Consolidated Income,Earnings Before Tax Margin,Net Profit Margin
2015-06,,,,,,1000000.0,,,0.0,,,,,-2000000.0,,-2000000.0,-0.01,-0.01,294000000.0,294000000.0,,,,,,,-2000000.0,-2000000.0,-2000000.0,,
2014-06,,,,,,1000000.0,,,0.0,,,,,-2000000.0,,-2000000.0,-0.01,-0.01,214000000.0,214000000.0,,,,,,,-2000000.0,-2000000.0,-2000000.0,,
2013-06,,,,,,0.0,,,0.0,,,,,-1000000.0,,-1000000.0,-0.01,-0.01,159000000.0,159000000.0,,,,,,,-1000000.0,-1000000.0,-1000000.0,,
2012-06,,,,,,0.0,,,0.0,,,,,-1000000.0,,-1000000.0,-0.01,-0.01,103000000.0,103000000.0,,,,,,,-1000000.0,-1000000.0,-1000000.0,,
2011-06,,,,,,1000000.0,,,0.0,,,,,-1000000.0,,-1000000.0,-0.02,-0.02,59000000.0,59000000.0,,,,,,,-1000000.0,-1000000.0,-1000000.0,,
