,0,1,2,3,4,5,6,7,8,9,10,11,12,13,14,15,16,17,18,19,20,21,22,23,24,25,26,27,28
Date,Cash and cash equivalents,Short-term investments,Cash and short-term investments,Receivables,Inventories,Total current assets,Property Plant & Equipment Net,Goodwill and Intangible Assets,Long-term investments,Tax assets,Total non-current assets,Total assets,Payables,Short-term debt,Total current liabilities,Long-term debt,Total debt,Deferred revenue,Tax Liabilities,Deposit Liabilities,Total non-current liabilities,Total liabilities,Other comprehensive income,Retained earnings (deficit),Total shareholders equity,Investments,Net Debt,Other Assets,Other Liabilities
2019-12-31,2293392000.0,56877573000.0,59170965000.0,472826000.0,0.0,59643791000.0,0.0,0.0,4891431000.0,0.0,10052761000.0,69696552000.0,100200000.0,157265000.0,257894000.0,495116000.0,652381000.0,0.0,429000.0,0.0,673013000.0,65126433000.0,1212327000.0,1768764000.0,4570119000.0,61769004000.0,-1641011000.0,0.0,64195526000.0
2018-12-31,344396000.0,49427498000.0,49771894000.0,468729000.0,0.0,50240623000.0,0.0,0.0,3066039000.0,291169000.0,11384941000.0,61625564000.0,16200000.0,242982000.0,259182000.0,494591000.0,737573000.0,0.0,0.0,0.0,1934196000.0,59226463000.0,811186000.0,1549978000.0,2399101000.0,52493537000.0,393177000.0,0.0,57033085000.0
2017-12-31,1434045000.0,50300705000.0,51734750000.0,429008000.0,0.0,52163758000.0,0.0,0.0,3550405000.0,38147000.0,9866978000.0,62030736000.0,79900000.0,242565000.0,356750000.0,494093000.0,736658000.0,0.0,34285000.0,0.0,2340492000.0,59180579000.0,791446000.0,1244781000.0,2850157000.0,53851110000.0,-697387000.0,0.0,56483337000.0
2016-12-31,791266000.0,44757568000.0,45548834000.0,397773000.0,0.0,45946607000.0,0.0,0.0,2992217000.0,168578000.0,10106865000.0,56053472000.0,45800000.0,241853000.0,291267000.0,493755000.0,735608000.0,0.0,3614000.0,0.0,2731921000.0,53761877000.0,770344000.0,1093284000.0,2291595000.0,47749785000.0,-55658000.0,0.0,50738689000.0
2015-12-31,397749000.0,39570332000.0,39968081000.0,362104000.0,0.0,40330185000.0,0.0,0.0,2526972000.0,232683000.0,8710978000.0,49041163000.0,12700000.0,246450000.0,259150000.0,400000000.0,646450000.0,0.0,0.0,0.0,400000000.0,47096628000.0,630367000.0,1031151000.0,1944535000.0,42097304000.0,248701000.0,0.0,46437478000.0
2014-12-31,701514000.0,35981858000.0,36683372000.0,326559000.0,0.0,37009931000.0,0.0,0.0,2708085000.0,0.0,6979803000.0,43989734000.0,21900000.0,246243000.0,268143000.0,421679000.0,667922000.0,0.0,0.0,0.0,425574000.0,41849858000.0,513218000.0,829195000.0,2139876000.0,38689943000.0,-33592000.0,0.0,41156141000.0
2013-12-31,897529000.0,26610447000.0,27507976000.0,0.0,0.0,27507976000.0,0.0,0.0,0.0,301856000.0,12113523000.0,39621499000.0,27300000.0,246050000.0,283503000.0,549958000.0,796008000.0,0.0,10153000.0,0.0,549958000.0,38236812000.0,549769000.0,718187000.0,1384687000.0,26610447000.0,-101521000.0,0.0,37403351000.0
2012-12-31,1268545000.0,24172136000.0,25440681000.0,0.0,0.0,25440681000.0,0.0,0.0,0.0,0.0,9692797000.0,35133478000.0,14000000.0,245869000.0,264625000.0,309869000.0,555738000.0,0.0,4756000.0,0.0,359172000.0,33413241000.0,494132000.0,477547000.0,1720237000.0,24172136000.0,-712807000.0,0.0,32789444000.0
2011-12-31,404952000.0,24383451000.0,24788403000.0,228937000.0,0.0,25017340000.0,0.0,0.0,0.0,21981000.0,5857379000.0,30874719000.0,0.0,268593000.0,268593000.0,297608000.0,566201000.0,0.0,0.0,0.0,297608000.0,29466040000.0,464661000.0,428952000.0,1408679000.0,24383451000.0,161249000.0,0.0,28899839000.0
2010-12-31,597766000.0,,,0.0,0.0,,0.0,0.0,,149387000.0,,26426763000.0,0.0,,,,599270000.0,0.0,0.0,0.0,,25488716000.0,81820000.0,349620000.0,938047000.0,19816931000.0,,,
2009-12-31,528002000.0,,,0.0,0.0,,0.0,0.0,,189345000.0,,21312004000.0,0.0,,,,584815000.0,0.0,0.0,0.0,,20557381000.0,-30456000.0,312330000.0,754623000.0,15374110000.0,,,
