,0,1,2,3,4,5,6,7,8,9,10,11,12,13,14,15,16,17,18,19,20,21,22,23,24,25,26,27,28,29,30
Date,Revenue,Revenue Growth,Cost of Revenue,Gross Profit,R&D Expenses,SG&A Expense,Operating Expenses,Operating Income,Interest Expense,Earnings before Tax,Income Tax Expense,Net Income - Non-Controlling int,Net Income - Discontinued ops,Net Income,Preferred Dividends,Net Income Com,EPS,EPS Diluted,Weighted Average Shs Out,Weighted Average Shs Out (Dil),Dividend per Share,Gross Margin,EBITDA Margin,EBIT Margin,Profit Margin,Free Cash Flow margin,EBITDA,EBIT,Consolidated Income,Earnings Before Tax Margin,Net Profit Margin
2018-12-31,7591000.0,0.328026592022,5677000.0,1914000.0,0.0,3745000.0,3144000.0,-1230000.0,24000.0,-2266000.0,291000.0,0.0,896000.0,-2557000.0,360000.0,-2917000.0,-0.33,-0.33,,8892585.0,0.0,0.2521,-0.22699999999999998,-0.2953,-0.384,-0.47100000000000003,-1725000.0,-2242000.0,-2557000.0,-0.2985,-0.3368
2017-12-31,5716000.0,-0.8488310589229999,4566000.0,1150000.0,0.0,4684000.0,4278000.0,-3128000.0,50000.0,-5183000.0,-2955000.0,0.0,2031000.0,-2228000.0,356000.0,-2584000.0,-0.3,-0.3,,8525645.0,0.0,0.2012,-0.7509999999999999,-0.898,-0.452,-0.0546,-4292000.0,-5133000.0,-2228000.0,-0.9068,-0.3898
2016-12-31,37812000.0,-0.229631440621,36796000.0,1016000.0,962000.0,7423000.0,8385000.0,-7369000.0,-69000.0,-7016000.0,44000.0,0.0,0.0,-7060000.0,353000.0,-7413000.0,-0.89,-0.89,,8305764.0,0.0,0.0269,-0.16399999999999998,-0.1874,-0.196,-0.1855,-6208000.0,-7085000.0,-7060000.0,-0.1855,-0.1867
2015-12-31,49083000.0,-0.142714919482,42493000.0,6590000.0,769000.0,8162000.0,8931000.0,-2341000.0,172000.0,-2165000.0,428000.0,0.0,0.0,-2593000.0,349000.0,-2942000.0,-0.36,-0.36,,8241585.0,0.0,0.1343,-0.022000000000000002,-0.0406,-0.06,0.0362,-1099000.0,-1993000.0,-2593000.0,-0.0441,-0.0528
2014-12-31,57254000.0,-0.0335083306605,52259000.0,4995000.0,807000.0,8083000.0,8890000.0,-3895000.0,165000.0,-5061000.0,-334000.0,0.0,2673000.0,-4727000.0,345000.0,-5072000.0,-0.62,-0.62,,8182034.0,0.0,0.0872,-0.07400000000000001,-0.0855,-0.08900000000000001,-0.1238,-4212000.0,-4896000.0,-4727000.0,-0.0884,-0.0826
2013-12-31,59239000.0,0.0956996208268,48072000.0,11167000.0,499000.0,7506000.0,8005000.0,3162000.0,-54000.0,5264000.0,713000.0,0.0,709000.0,4551000.0,342000.0,4209000.0,0.53,0.53,,7990690.0,0.0,0.1885,0.096,0.0879,0.071,-0.0063,5708000.0,5210000.0,4551000.0,0.0889,0.0768
2012-12-31,54065000.0,0.0409125914517,45942000.0,8123000.0,103000.0,7601000.0,7704000.0,419000.0,111000.0,3016000.0,707000.0,0.0,0.0,2309000.0,225000.0,2084000.0,0.26,0.25,,7901225.0,0.0,0.1502,0.07400000000000001,0.0578,0.039,-0.008,4004000.0,3127000.0,2309000.0,0.0558,0.0427
2011-12-31,51940000.0,0.33302535674,44785000.0,7155000.0,577000.0,8288000.0,8865000.0,-1710000.0,183000.0,-446000.0,5442000.0,0.0,0.0,-5888000.0,0.0,-5888000.0,-0.75,-0.75,,7813587.0,0.0,0.1378,0.01,-0.0051,-0.113,0.0101,509000.0,-263000.0,-5888000.0,-0.0086,-0.1134
2010-12-31,38964000.0,-0.253032456453,35308000.0,3656000.0,882000.0,7108000.0,7990000.0,-4334000.0,131000.0,-2784000.0,-1090000.0,0.0,0.0,-1694000.0,0.0,-1694000.0,-0.22,-0.22,,7741594.0,0.0,0.0938,-0.046,-0.0681,-0.043,-0.052000000000000005,-1773000.0,-2653000.0,-1694000.0,-0.0715,-0.0435
2009-12-31,52162909.0,-0.2022,45532388.0,6630521.0,262462.0,6880306.0,7142768.0,-512247.0,133633.0,967309.0,289019.0,0.0,0.0,678290.0,0.0,678290.0,0.09,0.09,,7689915.0,0.0,0.1271,0.040999999999999995,0.0211,0.013000000000000001,0.0133,2134838.0,1100942.0,678290.0,0.0185,0.013000000000000001
