,0,1,2,3,4,5,6,7,8,9,10,11,12,13,14
Date,Depreciation & Amortization,Stock-based compensation,Operating Cash Flow,Capital Expenditure,Acquisitions and disposals,Investment purchases and sales,Investing Cash flow,Issuance (repayment) of debt,Issuance (buybacks) of shares,Dividend payments,Financing Cash Flow,Effect of forex changes on cash,Net cash flow / Change in cash,Free Cash Flow,Net Cash/Marketcap
2018-12-31,5592000.0,1201000.0,-26442000.0,9832000.0,-0.0,-45873000.0,19070000.0,-0.0,-3000000.0,-333000.0,-3341000.0,0.0,-10713000.0,-36274000.0,0.0
2017-12-31,1166000.0,1176000.0,26472000.0,14055000.0,-0.0,-1676000.0,-15909000.0,-19400000.0,-45615000.0,-0.0,5164000.0,0.0,15727000.0,12417000.0,0.0
2016-12-31,240000.0,1612000.0,170000.0,10181000.0,-0.0,27952000.0,8412000.0,-100000.0,-29888000.0,-409000.0,-1048000.0,0.0,7534000.0,-10011000.0,0.0
2015-12-31,-244000.0,1819000.0,8477000.0,713000.0,-10956000.0,-19526000.0,-40354000.0,-500000.0,-22354000.0,-0.0,17645000.0,0.0,-14232000.0,7764000.0,0.0
2014-12-31,100000.0,1469000.0,13716000.0,1177000.0,-0.0,3661000.0,-11963000.0,-0.0,-11565000.0,-0.0,25022000.0,0.0,26775000.0,12539000.0,0.0
2013-12-31,-297000.0,247000.0,-5920000.0,1245000.0,-0.0,-69328000.0,-2776000.0,-0.0,-9811000.0,-2145000.0,-1405000.0,0.0,-10101000.0,-7165000.0,0.0
2012-12-31,1236000.0,113000.0,-20741000.0,673000.0,-0.0,-1250000.0,17401000.0,-0.0,-19912000.0,-0.0,3000.0,0.0,-3337000.0,-21414000.0,0.0
2011-12-31,3370000.0,0.0,-47161000.0,2040000.0,3871000.0,80858000.0,51300000.0,0.0,73000.0,0.0,73000.0,0.0,12342000.0,-55687000.0,0.1772
2010-12-31,,,-52466000.0,-3221000.0,,,81508000.0,0.0,0.0,-16700000.0,-16700000.0,,,,
