,0,1,2,3,4,5,6,7,8,9,10,11,12,13,14,15,16,17,18,19,20,21,22,23,24,25,26,27,28
Date,Cash and cash equivalents,Short-term investments,Cash and short-term investments,Receivables,Inventories,Total current assets,Property Plant & Equipment Net,Goodwill and Intangible Assets,Long-term investments,Tax assets,Total non-current assets,Total assets,Payables,Short-term debt,Total current liabilities,Long-term debt,Total debt,Deferred revenue,Tax Liabilities,Deposit Liabilities,Total non-current liabilities,Total liabilities,Other comprehensive income,Retained earnings (deficit),Total shareholders equity,Investments,Net Debt,Other Assets,Other Liabilities
2019-06-30,26703000.0,55292000.0,81995000.0,13000.0,0.0,84284000.0,4430000.0,1013000.0,0.0,0.0,7932000.0,92216000.0,1331000.0,0.0,9355000.0,0.0,0.0,112330000.0,1611000.0,0.0,4152000.0,13507000.0,214239000.0,-135548000.0,78709000.0,55292000.0,-26703000.0,0.0,0.0
2018-06-30,31065000.0,71734000.0,102799000.0,210000.0,0.0,109124000.0,5254000.0,968000.0,0.0,0.0,9408000.0,118532000.0,945000.0,0.0,14395000.0,0.0,0.0,6295000.0,1611000.0,0.0,4955000.0,19350000.0,210090000.0,-110926000.0,99182000.0,71734000.0,-31065000.0,0.0,0.0
2017-06-30,30706000.0,92494000.0,123200000.0,174000.0,0.0,130235000.0,2661000.0,1219000.0,9638000.0,3000.0,17688000.0,147923000.0,998000.0,0.0,28156000.0,0.0,0.0,20996000.0,1514000.0,0.0,4441000.0,32594000.0,204937000.0,-89626000.0,115329000.0,102132000.0,-30706000.0,0.0,0.0
2016-06-30,28868000.0,51571000.0,80439000.0,954000.0,0.0,102575000.0,2627000.0,1321000.0,71639000.0,61000.0,78222000.0,180797000.0,1331000.0,0.0,54743000.0,0.0,0.0,46898000.0,0.0,0.0,16827000.0,71509000.0,199303000.0,-90033000.0,109288000.0,123210000.0,-28868000.0,0.0,0.0
2015-06-30,39187000.0,11678000.0,50865000.0,883000.0,0.0,64132000.0,478000.0,1448000.0,18319000.0,73000.0,26042000.0,90174000.0,1191000.0,0.0,4642000.0,0.0,0.0,0.0,0.0,0.0,73000.0,4642000.0,174168000.0,-88652000.0,85532000.0,29997000.0,-39187000.0,0.0,0.0
2014-06-30,8623000.0,64450000.0,73073000.0,487000.0,0.0,75436000.0,402000.0,1565000.0,0.0,75000.0,1971000.0,77407000.0,949000.0,0.0,2534000.0,0.0,0.0,0.0,0.0,0.0,75000.0,2534000.0,139193000.0,-64334000.0,74873000.0,64450000.0,-8623000.0,0.0,0.0
2013-06-30,8893000.0,14000000.0,22893000.0,143000.0,0.0,23511000.0,341000.0,1630000.0,0.0,0.0,1979000.0,25490000.0,792000.0,0.0,3460000.0,0.0,0.0,212000.0,0.0,0.0,110000.0,3570000.0,0.0,-48426000.0,-36183000.0,14000000.0,-22893000.0,475000.0,2668000.0
2012-06-30,824000.0,0.0,824000.0,184000.0,0.0,1095000.0,53000.0,1672000.0,0.0,0.0,1729000.0,2824000.0,118000.0,1007000.0,1494000.0,16000.0,1023000.0,0.0,0.0,0.0,96000.0,1590000.0,0.0,-43436000.0,-31290000.0,0.0,199000.0,87000.0,369000.0
