,0,1,2,3,4,5,6,7,8,9,10,11,12,13,14,15,16,17,18,19,20,21,22,23,24,25,26,27,28
Date,Cash and cash equivalents,Short-term investments,Cash and short-term investments,Receivables,Inventories,Total current assets,Property Plant & Equipment Net,Goodwill and Intangible Assets,Long-term investments,Tax assets,Total non-current assets,Total assets,Payables,Short-term debt,Total current liabilities,Long-term debt,Total debt,Deferred revenue,Tax Liabilities,Deposit Liabilities,Total non-current liabilities,Total liabilities,Other comprehensive income,Retained earnings (deficit),Total shareholders equity,Investments,Net Debt,Other Assets,Other Liabilities
2018-12-31,947098.0,0.0,947098.0,0.0,0.0,1105103.0,0.0,0.0,253019179.0,0.0,253019179.0,254124282.0,40774.0,0.0,699393.0,0.0,0.0,0.0,158240.0,0.0,7875000.0,8574393.0,0.0,2085401.0,5000009.0,253019179.0,-947098.0,158005.0,658619.0
2017-12-31,119821.0,0.0,119821.0,0.0,0.0,119821.0,0.0,0.0,0.0,,,310616.0,60506.0,0.0,286309.0,0.0,,,,,,286309.0,,-693.0,24307.0,0.0,-119821.0,0.0,225803.0
