,0,1,2,3,4,5,6,7,8,9,10,11,12,13,14
Date,Depreciation & Amortization,Stock-based compensation,Operating Cash Flow,Capital Expenditure,Acquisitions and disposals,Investment purchases and sales,Investing Cash flow,Issuance (repayment) of debt,Issuance (buybacks) of shares,Dividend payments,Financing Cash Flow,Effect of forex changes on cash,Net cash flow / Change in cash,Free Cash Flow,Net Cash/Marketcap
2019-06-30,822068.0,3097.0,59342.0,0.0,-0.0,0.0,136112.0,-0.0,-195454.0,-0.0,0.0,0.0,195454.0,59342.0,0.0
2018-06-30,931408.0,2830.0,-859592.0,0.0,-0.0,0.0,0.0,-0.0,-136112.0,-0.0,0.0,0.0,-859592.0,-859592.0,0.0
2017-06-30,1090126.0,2491.0,-686911.0,21048.0,-0.0,0.0,-21048.0,-0.0,-995704.0,-0.0,0.0,0.0,-707959.0,-707959.0,0.0
2016-06-30,1228485.0,2946.0,-236983.0,99300.0,-0.0,0.0,-99300.0,-0.0,-1703663.0,-0.0,0.0,0.0,-336283.0,-336283.0,0.0
2015-06-30,1311111.0,4956.0,814350.0,141166.0,-0.0,0.0,-141166.0,-0.0,0.0,-0.0,0.0,0.0,673184.0,673184.0,0.0
2014-06-30,1280796.0,9655.0,-1882653.0,438504.0,-0.0,0.0,-438504.0,-0.0,0.0,-0.0,0.0,0.0,-2321157.0,-2321157.0,0.0
2013-06-30,1306044.0,44197.0,20270.0,1367534.0,-0.0,-249360.0,-1367534.0,-0.0,-249360.0,-0.0,-249360.0,0.0,-1596624.0,-1347264.0,0.0
2012-06-30,1361684.0,20261.0,1477884.0,348551.0,-0.0,0.0,-344551.0,-0.0,-5284543.0,-0.0,116230.0,0.0,1249563.0,1129333.0,0.0
2011-06-30,1361684.0,20261.0,1477884.0,-344551.0,0.0,0.0,-344551.0,0.0,103250.0,0.0,116230.0,0.0,1249563.0,1133333.0,0.1984
2010-06-30,1364923.0,647926.0,3517925.0,-282833.0,0.0,0.0,-282833.0,0.0,3469.0,0.0,84868.0,0.0,3319960.0,3235092.0,0.1787
2009-06-30,1291777.0,27034.0,-2742232.0,-1544512.0,0.0,0.0,-1544512.0,0.0,81093.0,0.0,81093.0,0.0,-4205651.0,-4286744.0,0.0572
