,0,1,2,3,4,5,6,7,8,9,10,11,12,13,14,15,16,17,18,19,20,21,22,23,24,25,26,27,28,29,30
Date,Revenue,Revenue Growth,Cost of Revenue,Gross Profit,R&D Expenses,SG&A Expense,Operating Expenses,Operating Income,Interest Expense,Earnings before Tax,Income Tax Expense,Net Income - Non-Controlling int,Net Income - Discontinued ops,Net Income,Preferred Dividends,Net Income Com,EPS,EPS Diluted,Weighted Average Shs Out,Weighted Average Shs Out (Dil),Dividend per Share,Gross Margin,EBITDA Margin,EBIT Margin,Profit Margin,Free Cash Flow margin,EBITDA,EBIT,Consolidated Income,Earnings Before Tax Margin,Net Profit Margin
2018-12-31,110174529.6671,0.0452,37419247.4674,72755282.1997,0.0,64979884.2258,63226193.9219,9529088.2779,1337771.3459,-33859913.1693,2678437.0478,0.0,0.0,-36538350.2171,0.0,-36538350.2171,-2.7004,-2.7004,10251616.6425,10251616.6425,0.0,0.6604,-0.0427,-0.2952,-0.048,-0.0618,-32522141.8234,-32522141.8234,-36538350.2171,-0.3073,-0.3316
2017-12-31,105410519.9516,0.2517,35447702.5393,69962817.4123,0.0,59431378.4764,58020556.2273,11942261.185,994709.7944,-8036426.844,2911124.5466,0.0,0.0,-10947551.3906,0.0,-10947551.3906,-0.8479,-0.8479,,,0.0,0.6637,-0.0101,-0.0668,-0.0157,0.0721,-7041717.0496,-7041717.0496,-10947551.3906,-0.0762,-0.1039
2016-12-31,84212670.9863,,31294312.455,52918358.5313,0.0,50826781.8575,50581425.486,2336933.0454,420446.3643,9249820.0144,1974514.0389,0.0,0.0,7275305.9755,0.0,7275305.9755,0.5313,0.0086,,,0.0,0.6284,0.0166,0.1148,0.0124,0.0324,9670266.3787,9670266.3787,7275305.9755,0.1098,0.0864
