,0,1,2,3,4,5,6,7,8,9,10,11,12,13,14
Date,Depreciation & Amortization,Stock-based compensation,Operating Cash Flow,Capital Expenditure,Acquisitions and disposals,Investment purchases and sales,Investing Cash flow,Issuance (repayment) of debt,Issuance (buybacks) of shares,Dividend payments,Financing Cash Flow,Effect of forex changes on cash,Net cash flow / Change in cash,Free Cash Flow,Net Cash/Marketcap
2019-03-31,330894.0,44200.0,-6256226.0,500425.0,-0.0,0.0,-532625.0,-1900000.0,-5020510.0,-0.0,701207.0,-33412.0,-6121056.0,-6756651.0,0.0
2018-03-31,663138.0,0.0,-775305.0,-2990.0,0.0,0.0,-2990.0,792382.0,11052972.0,0.0,11739724.0,18845.0,10980274.0,-778295.0,0.0742
2017-03-31,325671.0,0.0,1324449.0,-1975.0,-1184611.0,0.0,-1246018.0,0.0,0.0,0.0,341736.0,-259040.0,161127.0,1322474.0,0.0011
2016-03-31,0.0,0.0,-241.0,0.0,0.0,0.0,0.0,0.0,0.0,0.0,0.0,-17.0,-258.0,-241.0,0.0011
