,0,1,2,3,4,5,6,7,8,9,10,11,12,13,14
Date,Depreciation & Amortization,Stock-based compensation,Operating Cash Flow,Capital Expenditure,Acquisitions and disposals,Investment purchases and sales,Investing Cash flow,Issuance (repayment) of debt,Issuance (buybacks) of shares,Dividend payments,Financing Cash Flow,Effect of forex changes on cash,Net cash flow / Change in cash,Free Cash Flow,Net Cash/Marketcap
2019-06-30,62119000.0,4474000.0,180601000.0,18970000.0,-37526000.0,-11158000.0,-55102000.0,-336738000.0,-11158000.0,-47266000.0,-71539000.0,109000.0,54069000.0,161631000.0,0.0
2018-06-30,49863000.0,4666000.0,147304000.0,23230000.0,-775654000.0,-22778000.0,-797906000.0,-905420000.0,-22778000.0,-45858000.0,600284000.0,-589000.0,-50907000.0,124074000.0,0.0
2017-06-30,39677000.0,5520000.0,164619000.0,17045000.0,-2773000.0,-8242000.0,-16894000.0,-3353000.0,-8242000.0,-44619000.0,-103349000.0,820000.0,45196000.0,147574000.0,0.0
2016-06-30,41546000.0,4067000.0,160992000.0,13130000.0,-62504000.0,-37465000.0,-75031000.0,-223662000.0,-37465000.0,-43330000.0,-91985000.0,-3585000.0,-9609000.0,147862000.0,0.0
2015-06-30,42375000.0,4461000.0,154538000.0,14933000.0,-160620000.0,-76515000.0,-173621000.0,-172717000.0,-76515000.0,-42663000.0,24689000.0,-7325000.0,-1719000.0,139605000.0,0.0
2014-06-30,28000000.0,4511000.0,110110000.0,20190000.0,-184324000.0,-36732000.0,-203637000.0,-100647000.0,-36732000.0,-40410000.0,92142000.0,-590000.0,-1975000.0,89920000.0,0.0
2013-06-30,25734000.0,5761000.0,111397000.0,12214000.0,-67590000.0,-53000.0,-78825000.0,-0.0,-53000.0,-37194000.0,-38025000.0,175000.0,-5278000.0,99183000.0,0.0
2012-06-30,22701000.0,6366000.0,90422000.0,26021000.0,-14671000.0,-31032000.0,-39434000.0,-0.0,-31032000.0,-33800000.0,-60816000.0,-2822000.0,-12650000.0,64401000.0,0.0
2011-06-30,0.0,0.0,0.0,0.0,-0.0,0.0,0.0,-0.0,0.0,-0.0,0.0,0.0,0.0,0.0,0.0
2010-06-30,21616000.0,5381000.0,184324000.0,-6684000.0,-100000.0,0.0,-6784000.0,-5000000.0,-2590000.0,-25416000.0,-30514000.0,1109000.0,148135000.0,177640000.0,0.094
2009-06-30,22391000.0,4502000.0,81300000.0,-6231000.0,-172199000.0,0.0,-178430000.0,55000000.0,-802000.0,-25378000.0,28502000.0,-5560000.0,-74188000.0,75069000.0,-0.0629
