,0,1,2,3,4,5,6,7,8,9,10,11,12,13,14
Date,Depreciation & Amortization,Stock-based compensation,Operating Cash Flow,Capital Expenditure,Acquisitions and disposals,Investment purchases and sales,Investing Cash flow,Issuance (repayment) of debt,Issuance (buybacks) of shares,Dividend payments,Financing Cash Flow,Effect of forex changes on cash,Net cash flow / Change in cash,Free Cash Flow,Net Cash/Marketcap
2019-12-31,387800000.0,8146000.0,374472000.0,0.0,-0.0,-20682000.0,-205413000.0,-520027000.0,-20682000.0,-241288000.0,-63952000.0,0.0,177702000.0,374472000.0,0.0
2018-12-31,386809000.0,8550000.0,396388000.0,0.0,-0.0,-373593000.0,121846000.0,-726087000.0,-373593000.0,-237504000.0,-588180000.0,0.0,72595000.0,396388000.0,0.0
2017-12-31,371850000.0,7877000.0,394139000.0,0.0,-0.0,0.0,14704000.0,-659167000.0,-76786000.0,-225377000.0,-393301000.0,0.0,15542000.0,394139000.0,0.0
2016-12-31,338126000.0,7629000.0,377724000.0,0.0,-0.0,0.0,-97773000.0,-371947000.0,-61244000.0,-206279000.0,-269496000.0,0.0,10455000.0,377724000.0,0.0
2015-12-31,311487000.0,6640000.0,359891000.0,0.0,-0.0,0.0,-170897000.0,-514294000.0,315791000.0,-184082000.0,-167176000.0,0.0,21818000.0,359891000.0,0.0
2014-12-31,286422000.0,5781000.0,321424000.0,0.0,-0.0,0.0,13678000.0,-513599000.0,-28971000.0,-152002000.0,-361882000.0,0.0,-26780000.0,321424000.0,0.0
2013-12-31,313197000.0,5645000.0,325596000.0,0.0,-0.0,0.0,65192000.0,-472276000.0,-55751000.0,-140052000.0,-419450000.0,0.0,-28662000.0,325596000.0,0.0
2012-12-31,372366000.0,4871000.0,316827000.0,0.0,-0.0,0.0,111667000.0,-447792000.0,509966000.0,-104006000.0,-435147000.0,0.0,-6653000.0,316827000.0,0.0
2011-12-31,0.0,0.0,0.0,0.0,-0.0,0.0,0.0,-0.0,0.0,-0.0,0.0,0.0,0.0,0.0,0.0
2010-12-31,10773000.0,0.0,0.0,0.0,-0.0,0.0,0.0,-0.0,0.0,-0.0,0.0,0.0,0.0,0.0,0.0
2009-12-31,495568000.0,6666000.0,233812000.0,575587000.0,98000.0,24553000.0,630254000.0,-756010000.0,0.0,-95335000.0,-1082482000.0,0.0,-218416000.0,809399000.0,-0.639
