,0,1,2,3,4,5,6,7,8,9,10,11,12,13,14,15,16,17,18,19,20,21,22,23,24,25,26,27,28,29,30
Date,Revenue,Revenue Growth,Cost of Revenue,Gross Profit,R&D Expenses,SG&A Expense,Operating Expenses,Operating Income,Interest Expense,Earnings before Tax,Income Tax Expense,Net Income - Non-Controlling int,Net Income - Discontinued ops,Net Income,Preferred Dividends,Net Income Com,EPS,EPS Diluted,Weighted Average Shs Out,Weighted Average Shs Out (Dil),Dividend per Share,Gross Margin,EBITDA Margin,EBIT Margin,Profit Margin,Free Cash Flow margin,EBITDA,EBIT,Consolidated Income,Earnings Before Tax Margin,Net Profit Margin
2018-12,,,,,,,,,100000000.0,,,,,251000000.0,,251000000.0,,,,,,,,,,,,351000000.0,251000000.0,,
2017-12,,,,,,,,,50000000.0,,,,,520000000.0,,520000000.0,,,,,,,,,,,,570000000.0,520000000.0,,
2016-12,,,,,,,,,58000000.0,,,,,565000000.0,,565000000.0,,,,,,,,,,,,623000000.0,565000000.0,,
2015-12,,,,,,,,,55000000.0,,,,,142000000.0,,142000000.0,,,,,,,,,,,,197000000.0,142000000.0,,
2014-12,,,,,,,,,58000000.0,,,,,471000000.0,,471000000.0,,,,,,,,,,,,529000000.0,471000000.0,,
