,0,1,2,3,4,5,6,7,8,9,10,11,12,13,14
Date,Depreciation & Amortization,Stock-based compensation,Operating Cash Flow,Capital Expenditure,Acquisitions and disposals,Investment purchases and sales,Investing Cash flow,Issuance (repayment) of debt,Issuance (buybacks) of shares,Dividend payments,Financing Cash Flow,Effect of forex changes on cash,Net cash flow / Change in cash,Free Cash Flow,Net Cash/Marketcap
2019-12-31,19296000.0,100000.0,-15427000.0,0.0,-0.0,-105839000.0,100167000.0,-4559000.0,-30043000.0,-26322000.0,-75547000.0,0.0,64343000.0,-15427000.0,0.0
2018-12-31,7316000.0,2813000.0,197000.0,0.0,-0.0,6323000.0,-190397000.0,-2635000.0,-55146000.0,-22943000.0,164608000.0,0.0,55146000.0,197000.0,0.0
2017-12-31,6741000.0,2485000.0,-8695000.0,0.0,-0.0,-5115000.0,-372610000.0,-7225000.0,-49621000.0,-20602000.0,398419000.0,0.0,54022000.0,-8695000.0,0.0
2016-12-31,1849000.0,1339000.0,-10675000.0,0.0,-0.0,0.0,-321047000.0,-5059000.0,-35723000.0,-11577000.0,309457000.0,0.0,-22265000.0,-10675000.0,0.0
2015-12-31,113000.0,515000.0,-2942000.0,0.0,-0.0,0.0,-210855000.0,-1512000.0,-30834000.0,-680000.0,266896000.0,0.0,53099000.0,-2942000.0,0.0
2014-12-31,4000.0,560000.0,-1183000.0,-1258000.0,-2187000.0,-207410000.0,-210855000.0,99928000.0,158501000.0,-680000.0,265137000.0,0.0,53099000.0,-2441000.0,-3.6024
