,0,1,2,3,4,5,6,7,8,9,10,11,12,13,14,15,16,17,18,19,20,21,22,23,24,25,26,27,28
Date,Cash and cash equivalents,Short-term investments,Cash and short-term investments,Receivables,Inventories,Total current assets,Property Plant & Equipment Net,Goodwill and Intangible Assets,Long-term investments,Tax assets,Total non-current assets,Total assets,Payables,Short-term debt,Total current liabilities,Long-term debt,Total debt,Deferred revenue,Tax Liabilities,Deposit Liabilities,Total non-current liabilities,Total liabilities,Other comprehensive income,Retained earnings (deficit),Total shareholders equity,Investments,Net Debt,Other Assets,Other Liabilities
2017-06,63000000.0,25000000.0,25000000.0,53000000.0,3000000.0,98000000.0,14000000.0,56000000.0,,0.0,15000000.0,246000000.0,14000000.0,0.0,72000000.0,0.0,0.0,,9000000.0,,15000000.0,88000000.0,-0.0,49000000.0,158000000.0,,-63000000.0,30000000.0,45000000.0
2016-06,70000000.0,0.0,0.0,16000000.0,2000000.0,75000000.0,14000000.0,48000000.0,,0.0,8000000.0,171000000.0,20000000.0,0.0,54000000.0,0.0,0.0,,5000000.0,,8000000.0,62000000.0,8000000.0,-1000000.0,109000000.0,,-70000000.0,16000000.0,33000000.0
2015-06,80000000.0,0.0,0.0,23000000.0,3000000.0,66000000.0,13000000.0,43000000.0,,0.0,10000000.0,179000000.0,13000000.0,0.0,58000000.0,0.0,0.0,,5000000.0,,10000000.0,68000000.0,-13000000.0,22000000.0,110000000.0,,-80000000.0,13000000.0,43000000.0
2014-06,60000000.0,0.0,0.0,16000000.0,2000000.0,48000000.0,13000000.0,23000000.0,,0.0,3000000.0,132000000.0,11000000.0,0.0,41000000.0,0.0,0.0,,2000000.0,,3000000.0,44000000.0,-30000000.0,17000000.0,88000000.0,,-60000000.0,17000000.0,27000000.0
2013-06,43000000.0,0.0,0.0,22000000.0,2000000.0,42000000.0,12000000.0,17000000.0,,3000000.0,5000000.0,118000000.0,8000000.0,0.0,42000000.0,0.0,0.0,,0.0,,5000000.0,47000000.0,-48000000.0,18000000.0,72000000.0,,-43000000.0,17000000.0,33000000.0
