,0,1,2,3,4,5,6,7,8,9,10,11,12,13,14
Date,Depreciation & Amortization,Stock-based compensation,Operating Cash Flow,Capital Expenditure,Acquisitions and disposals,Investment purchases and sales,Investing Cash flow,Issuance (repayment) of debt,Issuance (buybacks) of shares,Dividend payments,Financing Cash Flow,Effect of forex changes on cash,Net cash flow / Change in cash,Free Cash Flow,Net Cash/Marketcap
2019-12-31,37236000.0,11925000.0,-257441000.0,6655000.0,-0.0,217831000.0,211176000.0,-15000000.0,-147449000.0,-0.0,88970000.0,0.0,42705000.0,-264096000.0,0.0
2018-12-31,3653000.0,19040000.0,-97494000.0,1606000.0,-0.0,32053000.0,36594000.0,-0.0,-104644000.0,-0.0,96562000.0,0.0,35662000.0,-99100000.0,0.0
2017-12-31,7000.0,8867000.0,-56159000.0,1622000.0,-0.0,149998000.0,-177260000.0,-0.0,302944000.0,-0.0,116240000.0,0.0,-117179000.0,-57781000.0,0.0
2016-12-31,-198000.0,5825000.0,57906000.0,2662000.0,-0.0,162376000.0,12705000.0,-0.0,-187335000.0,-0.0,66946000.0,0.0,137557000.0,55244000.0,0.0
2015-12-31,-462000.0,4714000.0,-52407000.0,414000.0,-0.0,63901000.0,-13688000.0,-0.0,-31378000.0,-0.0,83093000.0,0.0,16998000.0,-52821000.0,0.0
2014-12-31,-218637.0,6010051.0,-27483000.0,229000.0,-0.0,12423000.0,-65352000.0,-0.0,104166000.0,-0.0,104400000.0,0.0,11565000.0,-27712000.0,0.0
2013-12-28,1000.0,1564000.0,-11332000.0,-19000.0,0.0,-11406000.0,-11425000.0,0.0,5000.0,0.0,42331000.0,0.0,19574000.0,-11351000.0,0.3694
2012-12-31,0.0,122000.0,-7211000.0,0.0,0.0,1366000.0,1366000.0,0.0,0.0,0.0,2475000.0,0.0,-3370000.0,-7211000.0,0.3694
