,0,1,2,3,4,5,6,7,8,9,10,11,12,13,14,15,16,17,18,19,20,21,22,23,24,25,26,27,28
Date,Cash and cash equivalents,Short-term investments,Cash and short-term investments,Receivables,Inventories,Total current assets,Property Plant & Equipment Net,Goodwill and Intangible Assets,Long-term investments,Tax assets,Total non-current assets,Total assets,Payables,Short-term debt,Total current liabilities,Long-term debt,Total debt,Deferred revenue,Tax Liabilities,Deposit Liabilities,Total non-current liabilities,Total liabilities,Other comprehensive income,Retained earnings (deficit),Total shareholders equity,Investments,Net Debt,Other Assets,Other Liabilities
2018-12-31,300127000.0,0.0,300127000.0,0.0,0.0,300127000.0,0.0,0.0,5400000.0,0.0,18181681000.0,18481808000.0,382132000.0,0.0,382132000.0,11538905000.0,11538905000.0,0.0,0.0,0.0,12182672000.0,13674908000.0,2474238000.0,2331552000.0,4806900000.0,5400000.0,11238778000.0,0.0,1110104000.0
2017-12-31,292204000.0,0.0,292204000.0,0.0,0.0,292204000.0,0.0,0.0,0.0,0.0,15321960000.0,15614164000.0,309182000.0,0.0,309182000.0,9698785000.0,9698785000.0,0.0,0.0,0.0,10216580000.0,11486722000.0,2260064000.0,1866342000.0,4127442000.0,0.0,9406581000.0,0.0,960960000.0
2016-12-31,274802000.0,0.0,274802000.0,0.0,0.0,274802000.0,0.0,0.0,0.0,0.0,13700814000.0,13975616000.0,256775000.0,0.0,256775000.0,8713874000.0,8713874000.0,0.0,0.0,0.0,9380934000.0,10593429000.0,2237866000.0,1143311000.0,3382187000.0,0.0,8439072000.0,0.0,955720000.0
2015-12-31,156675000.0,0.0,156675000.0,0.0,0.0,156675000.0,0.0,0.0,0.0,0.0,12198423000.0,12355098000.0,215983000.0,0.0,215983000.0,7712421000.0,7712421000.0,0.0,0.0,0.0,8174388000.0,9335186000.0,2227376000.0,791526000.0,3019912000.0,0.0,7555746000.0,0.0,944815000.0
2014-12-31,282819000.0,0.0,282819000.0,0.0,0.0,282819000.0,0.0,0.0,0.0,0.0,10491965000.0,10774784000.0,190952000.0,484500000.0,675452000.0,6714362000.0,7198862000.0,0.0,0.0,0.0,7037721000.0,8002722000.0,2215479000.0,555573000.0,2772062000.0,0.0,6916043000.0,0.0,289549000.0
2013-12-31,270173000.0,0.0,270173000.0,0.0,0.0,270173000.0,0.0,0.0,0.0,0.0,9062431000.0,9332604000.0,131223000.0,171600000.0,302823000.0,5853317000.0,6024917000.0,0.0,0.0,0.0,6046580000.0,6809170000.0,2209566000.0,312859000.0,2523434000.0,0.0,5754744000.0,0.0,459767000.0
2012-12-31,0.0,0.0,0.0,0.0,0.0,0.0,0.0,0.0,0.0,0.0,7353624000.0,7353624000.0,90169000.0,877700000.0,967869000.0,4384732000.0,5262432000.0,0.0,0.0,0.0,4477474000.0,5021003000.0,2100092002.0,133111000.0,2332621000.0,0.0,5262432000.0,0.0,0.0
2011-12-31,0.0,0.0,0.0,0.0,0.0,0.0,0.0,0.0,0.0,0.0,5164593000.0,5164593000.0,54648000.0,0.0,54648000.0,2602799000.0,2602799000.0,0.0,0.0,0.0,2623491000.0,2988310000.0,2173261661.0,1192000.0,2176283000.0,0.0,2602799000.0,0.0,310171000.0
