,0,1,2,3,4,5,6,7,8,9,10,11,12,13,14,15,16,17,18,19,20,21,22,23,24,25,26,27,28,29,30
Date,Revenue,Revenue Growth,Cost of Revenue,Gross Profit,R&D Expenses,SG&A Expense,Operating Expenses,Operating Income,Interest Expense,Earnings before Tax,Income Tax Expense,Net Income - Non-Controlling int,Net Income - Discontinued ops,Net Income,Preferred Dividends,Net Income Com,EPS,EPS Diluted,Weighted Average Shs Out,Weighted Average Shs Out (Dil),Dividend per Share,Gross Margin,EBITDA Margin,EBIT Margin,Profit Margin,Free Cash Flow margin,EBITDA,EBIT,Consolidated Income,Earnings Before Tax Margin,Net Profit Margin
2019-12-31,3589427000.0,0.0635496822175,2331649000.0,1257778000.0,58287000.0,533368000.0,591655000.0,666123000.0,57695000.0,562950000.0,88161000.0,0.0,0.0,533228000.0,0.0,533228000.0,5.03,5.02,105949000.0,106321000.0,1.43155162197,0.35041191811399997,0.245054990671,0.185579202474,0.148555187221,-0.0368922393463,879607000.0,666123000.0,533228000.0,0.156835617495,0.148555187221
2018-12-31,3374950000.0,0.0986251194671,2157694000.0,1217256000.0,70054000.0,446090000.0,516144000.0,911540000.0,52405000.0,794701000.0,144826000.0,0.0,0.0,693562000.0,0.0,693562000.0,6.4,6.34,108427000.0,109458000.0,1.3210181074,0.36067378776000003,0.329556882324,0.270089927258,0.205502896339,-0.04557874931480001,1112238000.0,911540000.0,693562000.0,0.23547045141399997,0.205502896339
2017-12-31,3071976000.0,0.147457252961,1961996000.0,1109980000.0,84330000.0,437901000.0,522231000.0,587749000.0,115350000.0,446798000.0,431817000.0,0.0,0.0,54850000.0,0.0,54850000.0,0.49,0.49,110914000.0,112380000.0,1.2507296672,0.361324437431,0.25543070649,0.191326039006,0.0178549572002,-0.00446748281888,784677000.0,587749000.0,54850000.0,0.145443193567,0.0178549572002
2016-12-31,2677203000.0,-0.266787900864,1706627000.0,970576000.0,80475000.0,380464000.0,460939000.0,574551000.0,65181000.0,515264000.0,96263000.0,0.0,0.0,643675000.0,0.0,643675000.0,5.73,5.68,112379000.0,113239000.0,1.19528607635,0.36253358449100004,0.299088264879,0.214608679282,0.240428163273,0.20048871901,800720000.0,574551000.0,643675000.0,0.19246355244600002,0.240428163273
2015-12-31,3651335000.0,0.493053908572,2454463000.0,1196872000.0,102871000.0,512274000.0,615145000.0,442435000.0,132722000.0,358187000.0,29122000.0,0.0,0.0,334906000.0,0.0,334906000.0,3.01,3.0,111182000.0,111556000.0,1.0694359783399998,0.32779024658100003,0.19239839675099998,0.121170749876,0.0917215210327,0.0364359884809,702511000.0,442435000.0,334906000.0,0.0980975451444,0.0917215210327
2014-12-31,2445548000.0,-0.065306128689,1674700000.0,770848000.0,88310000.0,355135000.0,443445000.0,271298000.0,41358000.0,213179000.0,18484000.0,0.0,0.0,133316000.0,0.0,133316000.0,1.69,1.69,78696000.0,79102000.0,1.06320952694,0.315204608538,0.15328670711,0.110935463135,0.0545137531547,0.156215702984,374870000.0,271298000.0,133316000.0,0.08717023750910001,0.0545137531547
2013-12-31,2616416000.0,-0.0469888031704,1755011000.0,861405000.0,82246000.0,162889000.0,245135000.0,582909000.0,31559000.0,471171000.0,136322000.0,0.0,0.0,413171000.0,0.0,413171000.0,4.93,4.9,83839000.0,84322000.0,0.926294442731,0.32923090212,0.263826165258,0.222789113046,0.157914872864,0.106066084292,690279000.0,582909000.0,413171000.0,0.18008260154300001,0.157914872864
2012-12-31,2745420000.0,-0.0430759095923,1835425000.0,909995000.0,78919000.0,313227000.0,392146000.0,406164000.0,32800000.0,354959000.0,82533000.0,0.0,0.0,311536000.0,0.0,311536000.0,3.49,3.47,89189000.0,89884000.0,0.768913265987,0.33145930313,0.18400973257300002,0.147942391328,0.113474805312,0.0757235687072,505184000.0,406164000.0,311536000.0,0.129291328831,0.113474805312
2011-12-31,2869005000.0,0.21425796228500002,1891946000.0,977059000.0,77083000.0,312136000.0,389219000.0,587840000.0,37574000.0,550623000.0,130014000.0,0.0,0.0,436280000.0,0.0,436280000.0,4.82,4.77,90522000.0,91522000.0,0.6310941631520001,0.34055674354000004,0.23861687239999999,0.2048933341,0.152066657256,0.103445271096,684593000.0,587840000.0,436280000.0,0.191921240988,0.152066657256
2010-12-31,2362764000.0,0.17820438278,1616842000.0,745922000.0,58394000.0,265722000.0,324116000.0,414848000.0,25533000.0,392103000.0,92719000.0,0.0,0.0,323720000.0,0.0,323720000.0,3.54,3.51,91393000.0,92184000.0,0.538520784518,0.315698901795,0.21602919292800002,0.17557741695700002,0.137009028409,0.108276154538,510426000.0,414848000.0,323720000.0,0.16595097944599999,0.137009028409
2009-12-31,2005394000.0,-0.1872,1521532000.0,483862000.0,60918000.0,212628000.0,297582000.0,186280000.0,24584000.0,171340000.0,-7028000.0,11255000.0,0.0,178368000.0,0.0,178368000.0,1.95,1.94,91680006.0,91512000.0,0.5,0.2413,0.14800000000000002,0.0977,0.08900000000000001,0.1203,296437000.0,195924000.0,189623000.0,0.0854,0.0889
