,0,1,2,3,4,5,6,7,8,9,10,11,12,13,14
Date,Depreciation & Amortization,Stock-based compensation,Operating Cash Flow,Capital Expenditure,Acquisitions and disposals,Investment purchases and sales,Investing Cash flow,Issuance (repayment) of debt,Issuance (buybacks) of shares,Dividend payments,Financing Cash Flow,Effect of forex changes on cash,Net cash flow / Change in cash,Free Cash Flow,Net Cash/Marketcap
2018-12-31,2567000.0,25420000.0,-250850000.0,3136000.0,-0.0,-439611000.0,-121118000.0,-0.0,-87865000.0,-0.0,377937000.0,0.0,5969000.0,-253986000.0,0.0
2017-12-31,3001000.0,22498000.0,-226617000.0,2050000.0,-0.0,-305540000.0,34380000.0,-0.0,84586000.0,-0.0,162917000.0,0.0,-29320000.0,-228667000.0,0.0
2016-12-31,1674000.0,13957000.0,-159687000.0,6619000.0,-0.0,-165871000.0,-67720000.0,-0.0,18655000.0,-0.0,137110000.0,21000.0,-90276000.0,-166306000.0,0.0
2015-12-31,751000.0,6139000.0,-81233000.0,1223000.0,-0.0,-185629000.0,-167267000.0,-0.0,200142000.0,-0.0,408206000.0,-9000.0,159697000.0,-82456000.0,0.0
2014-12-31,701000.0,1250000.0,-47657000.0,649000.0,-0.0,-11045000.0,-9734000.0,-0.0,33464000.0,-0.0,80982000.0,-23000.0,23568000.0,-48306000.0,0.0
2013-12-31,935000.0,575000.0,-36132000.0,-193000.0,0.0,5620000.0,5546000.0,0.0,48000.0,0.0,48000.0,12000.0,-30526000.0,-36325000.0,0.1255
2012-12-31,1042000.0,489000.0,-29902000.0,-1031000.0,0.0,-476000.0,-1507000.0,0.0,48000.0,0.0,37905000.0,-3000.0,6493000.0,-30933000.0,0.1255
