,0,1,2,3,4,5,6,7,8,9,10,11,12,13,14,15,16,17,18,19,20,21,22,23,24,25,26,27,28
Date,Cash and cash equivalents,Short-term investments,Cash and short-term investments,Receivables,Inventories,Total current assets,Property Plant & Equipment Net,Goodwill and Intangible Assets,Long-term investments,Tax assets,Total non-current assets,Total assets,Payables,Short-term debt,Total current liabilities,Long-term debt,Total debt,Deferred revenue,Tax Liabilities,Deposit Liabilities,Total non-current liabilities,Total liabilities,Other comprehensive income,Retained earnings (deficit),Total shareholders equity,Investments,Net Debt,Other Assets,Other Liabilities
2019-12-31,89641000.0,263432000.0,353073000.0,0.0,0.0,357437000.0,33852000.0,0.0,0.0,14485000.0,64476000.0,421913000.0,278000.0,6565000.0,61970000.0,41471000.0,48036000.0,30165000.0,3035000.0,0.0,288436000.0,227170000.0,414414000.0,-219820000.0,194743000.0,263432000.0,-41605000.0,0.0,0.0
2018-12-31,66942000.0,224938000.0,291880000.0,0.0,0.0,293176000.0,10937000.0,0.0,0.0,0.0,15183000.0,308359000.0,126000.0,0.0,47948000.0,0.0,0.0,174620000.0,0.0,0.0,147289000.0,195237000.0,-42000.0,-114435000.0,-97398000.0,224938000.0,-291880000.0,1296000.0,47822000.0
2017-12-31,32451000.0,0.0,32451000.0,200238000.0,0.0,232974000.0,2834000.0,0.0,0.0,0.0,3086000.0,236060000.0,1140000.0,0.0,27403000.0,0.0,0.0,202128000.0,0.0,0.0,183205000.0,210608000.0,0.0,-62187000.0,-52033000.0,0.0,-32451000.0,285000.0,26263000.0
2016-12-31,51038000.0,0.0,51038000.0,218000.0,0.0,51191000.0,2536000.0,0.0,0.0,0.0,2920000.0,54111000.0,1152000.0,0.0,1510000.0,0.0,0.0,0.0,0.0,0.0,23000.0,1533000.0,0.0,-29707000.0,-24907000.0,0.0,-51038000.0,-65000.0,358000.0
