,0,1,2,3,4,5,6,7,8,9,10,11,12,13,14,15,16,17,18,19,20,21,22,23,24,25,26,27,28,29,30
Date,Revenue,Revenue Growth,Cost of Revenue,Gross Profit,R&D Expenses,SG&A Expense,Operating Expenses,Operating Income,Interest Expense,Earnings before Tax,Income Tax Expense,Net Income - Non-Controlling int,Net Income - Discontinued ops,Net Income,Preferred Dividends,Net Income Com,EPS,EPS Diluted,Weighted Average Shs Out,Weighted Average Shs Out (Dil),Dividend per Share,Gross Margin,EBITDA Margin,EBIT Margin,Profit Margin,Free Cash Flow margin,EBITDA,EBIT,Consolidated Income,Earnings Before Tax Margin,Net Profit Margin
2019-12-31,53943000.0,0.14845646157099998,6626000.0,47317000.0,10992000.0,13954000.0,52591000.0,-5274000.0,4869000.0,-10227000.0,216000.0,0.0,0.0,-10443000.0,0.0,-10443000.0,-2.19,-2.19,4770204.0,4770204.0,0.0,0.8771666388600001,-0.033294403351699996,-0.0977698681942,-0.193593237306,-0.0801957621934,-1796000.0,-5274000.0,-10443000.0,-0.18958901062199998,-0.193593237306
2018-12-31,46970000.0,0.30791935843199997,4679000.0,42291000.0,11274000.0,14525000.0,51961000.0,-9670000.0,4775000.0,-16276000.0,106000.0,0.0,0.0,-16382000.0,0.0,-16382000.0,0.25,0.25,70002901.0,70738481.0,0.0,0.900383223334,-0.131637215244,-0.205876091122,-0.34877581435000005,-0.24969129231400003,-6183000.0,-9670000.0,-16382000.0,-0.34651905471600003,-0.34877581435000005
2017-12-31,35912000.0,0.04599073777419999,3438000.0,32474000.0,12844000.0,13039000.0,48926000.0,-16452000.0,5579000.0,-21838000.0,163000.0,0.0,0.0,-22001000.0,0.0,-22001000.0,-0.33,-0.33,66993649.0,66993649.0,0.0,0.9042659835150001,-0.343951882379,-0.45811984851899995,-0.612636444642,-0.365114724883,-12352000.0,-16452000.0,-22001000.0,-0.608097571842,-0.612636444642
2016-12-31,34333000.0,0.5301274623409999,2344000.0,31989000.0,12375000.0,15263000.0,59836000.0,-27847000.0,5178000.0,-33002000.0,172000.0,0.0,0.0,-33174000.0,0.0,-33174000.0,-0.63,-0.63,52801603.0,52801603.0,0.0,0.9317274925,-0.700259225818,-0.8110855445199999,-0.966242390703,-0.73646346081,-24042000.0,-27847000.0,-33174000.0,-0.961232633327,-0.966242390703
2015-12-31,22438000.0,1.66389647394,1762000.0,20676000.0,14840000.0,14190000.0,59675000.0,-38999000.0,4693000.0,-30515000.0,130000.0,0.0,0.0,-30645000.0,0.0,-30645000.0,-0.69,-0.69,44450216.0,44450216.0,0.0,0.921472502006,-1.58695070862,-1.73807826009,-1.3657634370299998,-2.04184864961,-35608000.0,-38999000.0,-30645000.0,-1.3599696942700001,-1.3657634370299998
2014-12-31,8423000.0,3.4994658119699995,1442000.0,6981000.0,11363000.0,12371000.0,39928000.0,-32947000.0,2090000.0,-35736000.0,174000.0,0.0,0.0,-35910000.0,0.0,-35910000.0,-0.91,-0.91,40397224.0,40397224.0,0.0,0.8288020895170001,-3.7779888400800004,-3.91155170367,-4.26332660572,-2.9850409592799996,-31822000.0,-32947000.0,-35910000.0,-4.242668882819999,-4.26332660572
2013-12-31,1872000.0,1.0,1863000.0,9000.0,8429000.0,9613000.0,34413000.0,-46229000.0,533000.0,-29303000.0,0.0,0.0,0.0,-46229000.0,0.0,-46229000.0,-1.62,-1.62,31579553.0,31579553.0,0.0,0.00480769230769,-24.5363247863,-24.6949786325,-24.6949786325,-20.7232905983,-45932000.0,-46229000.0,-46229000.0,-15.653311965799999,-24.6949786325
2012-12-31,0.0,0.0,0.0,0.0,7935000.0,6575000.0,22039000.0,-19746000.0,795000.0,0.0,0.0,0.0,0.0,-19746000.0,0.0,-19746000.0,-0.63,-0.63,31462120.0,31462120.0,0.0,0.0,0.0,0.0,0.0,0.0,-19425000.0,-19746000.0,-19746000.0,0.0,0.0
2011-12-31,0.0,0.0,0.0,0.0,0.0,0.0,0.0,0.0,0.0,0.0,0.0,0.0,0.0,0.0,0.0,0.0,0.0,0.0,0.0,0.0,0.0,0.0,0.0,0.0,0.0,0.0,0.0,0.0,0.0,0.0,0.0
2010-12-31,0.0,0.0,0.0,0.0,12581000.0,9490000.0,22071000.0,-22071000.0,848000.0,-13859000.0,0.0,0.0,-4000000.0,-13859000.0,3104000.0,-16963000.0,-11.55,-11.55,2078810.0,1477866.0,0.0,0.0,,0.0,,0.0,-12817000.0,-13011000.0,-13859000.0,0.0,0.0
2009-12-31,0.0,0.0,0.0,0.0,15057000.0,4159000.0,19216000.0,-19216000.0,1897000.0,-44218000.0,0.0,0.0,0.0,-44218000.0,8203000.0,-52421000.0,-518.247,-518.247,,101158.0,0.0,0.0,,0.0,,0.0,-41223000.0,-42321000.0,-44218000.0,0.0,0.0
