,0,1,2,3,4,5,6,7,8,9,10,11,12,13,14,15,16,17,18,19,20,21,22,23,24,25,26,27,28
Date,Cash and cash equivalents,Short-term investments,Cash and short-term investments,Receivables,Inventories,Total current assets,Property Plant & Equipment Net,Goodwill and Intangible Assets,Long-term investments,Tax assets,Total non-current assets,Total assets,Payables,Short-term debt,Total current liabilities,Long-term debt,Total debt,Deferred revenue,Tax Liabilities,Deposit Liabilities,Total non-current liabilities,Total liabilities,Other comprehensive income,Retained earnings (deficit),Total shareholders equity,Investments,Net Debt,Other Assets,Other Liabilities
2019-12-31,203771000.0,331208000.0,534979000.0,8386000.0,101803000.0,961970000.0,362168000.0,243516000.0,79391000.0,96558000.0,843433000.0,1805403000.0,373037000.0,2843000.0,391112000.0,274295000.0,277138000.0,6766000.0,6857000.0,0.0,345575000.0,719961000.0,2467644000.0,-1381988000.0,1085442000.0,410599000.0,73367000.0,0.0,0.0
2018-12-31,266762000.0,272533000.0,539295000.0,8230000.0,90196000.0,983252000.0,309987000.0,283874000.0,0.0,85807000.0,841755000.0,1825007000.0,333762000.0,2843000.0,339774000.0,276465000.0,279308000.0,3169000.0,6081000.0,0.0,323473000.0,653722000.0,2358354000.0,-1185368000.0,1171285000.0,272533000.0,12546000.0,0.0,0.0
2017-12-31,191296000.0,242208000.0,433504000.0,0.0,93275000.0,808844000.0,284736000.0,349041000.0,157212000.0,98560000.0,988383000.0,1797227000.0,286166000.0,3000000.0,291122000.0,278436000.0,281436000.0,1956000.0,5518000.0,0.0,334339000.0,594419000.0,2249408000.0,-1044365000.0,1202808000.0,399420000.0,90140000.0,0.0,0.0
2016-12-31,186378000.0,310856000.0,497234000.0,0.0,62998000.0,790678000.0,264785000.0,411100000.0,121931000.0,47768000.0,935745000.0,1726423000.0,207055000.0,3000000.0,211993000.0,280666000.0,283666000.0,1938000.0,899000.0,0.0,344121000.0,516942000.0,2159158000.0,-947942000.0,1209481000.0,432787000.0,97288000.0,0.0,0.0
2015-12-31,181109000.0,353669000.0,534778000.0,0.0,38411000.0,754962000.0,254819000.0,472059000.0,264071000.0,40856000.0,1100782000.0,1855744000.0,168735000.0,65737000.0,236207000.0,284207000.0,349944000.0,1735000.0,3778000.0,0.0,305262000.0,541469000.0,2056050000.0,-739498000.0,1314275000.0,617740000.0,168835000.0,0.0,0.0
2014-12-31,224064000.0,407102000.0,631166000.0,0.0,51357000.0,876793000.0,265740000.0,573624000.0,170480000.0,13430000.0,1044479000.0,1921272000.0,121258000.0,6750000.0,130582000.0,351220000.0,357970000.0,2574000.0,2565000.0,0.0,393853000.0,524435000.0,1910826000.0,-512335000.0,1396837000.0,577582000.0,133906000.0,0.0,0.0
2013-12-31,167562000.0,194669000.0,362231000.0,0.0,46218000.0,570138000.0,274490000.0,630305000.0,87764000.0,55557000.0,1007450000.0,1577588000.0,91173000.0,6750000.0,100897000.0,357543000.0,364293000.0,2974000.0,1125000.0,0.0,411505000.0,512402000.0,1535504000.0,-482274000.0,1065186000.0,282433000.0,196731000.0,0.0,0.0
2013-03-31,96961000.0,124391000.0,221352000.0,0.0,43483000.0,408588000.0,288435000.0,668733000.0,82827000.0,30868000.0,1061703000.0,1470291000.0,76910000.0,6750000.0,85930000.0,362258000.0,369008000.0,2270000.0,7258000.0,0.0,431987000.0,517917000.0,1453477000.0,-499923000.0,952374000.0,207218000.0,272047000.0,0.0,0.0
2012-03-31,83601000.0,106846000.0,190447000.0,0.0,39759000.0,339153000.0,302995000.0,710585000.0,55691000.0,28014000.0,1096064000.0,1435217000.0,79154000.0,3100000.0,89164000.0,441360000.0,444460000.0,6910000.0,2440000.0,0.0,492201000.0,581365000.0,1380171000.0,-524906000.0,853852000.0,162537000.0,360859000.0,0.0,0.0
2011-03-31,38394000.0,162928000.0,201322000.0,22969000.0,20425000.0,252960000.0,95020000.0,0.0,93408000.0,0.0,199488000.0,452448000.0,44934000.0,0.0,48057000.0,0.0,0.0,7960000.0,0.0,0.0,12373000.0,60430000.0,-3013000.0,-411228000.0,392018000.0,256336000.0,-201322000.0,8244000.0,3123000.0
2010-03-31,79324000.0,202053000.0,281377000.0,25316000.0,20653000.0,338282000.0,96905000.0,0.0,68816000.0,0.0,177318000.0,515600000.0,37881000.0,51043000.0,91144000.0,0.0,51043000.0,7325000.0,0.0,0.0,11840000.0,102984000.0,-3392000.0,-365688000.0,412616000.0,270869000.0,-230334000.0,10936000.0,2220000.0
