,0,1,2,3,4,5,6,7,8,9,10,11,12,13,14
Date,Depreciation & Amortization,Stock-based compensation,Operating Cash Flow,Capital Expenditure,Acquisitions and disposals,Investment purchases and sales,Investing Cash flow,Issuance (repayment) of debt,Issuance (buybacks) of shares,Dividend payments,Financing Cash Flow,Effect of forex changes on cash,Net cash flow / Change in cash,Free Cash Flow,Net Cash/Marketcap
2018-12-31,38499000.0,0.0,73538000.0,0.0,-0.0,0.0,-1137000.0,-160142000.0,-283056000.0,-92100000.0,-176185000.0,0.0,283056000.0,73538000.0,0.0
2017-12-31,38681000.0,0.0,123426000.0,0.0,-0.0,0.0,-201971000.0,-303707000.0,-307536000.0,-86961000.0,97146000.0,0.0,18601000.0,123426000.0,0.0
2016-12-31,36374000.0,0.0,130820000.0,0.0,-0.0,0.0,-15951000.0,-3440000.0,-288926000.0,-81822000.0,-85292000.0,0.0,29577000.0,130820000.0,0.0
2015-12-31,33671000.0,0.0,106201000.0,0.0,-0.0,0.0,-25828000.0,-323193000.0,-259349000.0,-71571000.0,-48839000.0,0.0,31534000.0,106201000.0,0.0
2014-12-31,31919000.0,0.0,49487000.0,0.0,-0.0,0.0,-81520000.0,-317179000.0,-227815000.0,-66436000.0,-87870000.0,0.0,-119903000.0,49487000.0,0.0
2013-12-31,31395000.0,0.0,73883000.0,0.0,-0.0,0.0,-7320000.0,-15957000.0,-347718000.0,-56197000.0,-72241000.0,0.0,-5678000.0,73883000.0,0.0
2012-12-31,36363000.0,0.0,109707000.0,0.0,-0.0,0.0,710077000.0,-265016000.0,-353396000.0,-699791000.0,-973007000.0,0.0,-153223000.0,109707000.0,0.0
2011-12-31,37086000.0,0.0,92514000.0,0.0,-0.0,0.0,383000.0,-508479000.0,-506619000.0,-61277000.0,16502000.0,0.0,109399000.0,92514000.0,0.0
2010-12-31,34849000.0,0.0,76022000.0,-42310000.0,0.0,17000000.0,-19393000.0,-33848000.0,0.0,-38295000.0,-72143000.0,0.0,-15514000.0,33712000.0,-0.4406
2009-12-31,30445000.0,0.0,39579000.0,-74855000.0,0.0,-40000000.0,-201282000.0,57563000.0,934000.0,0.0,58497000.0,0.0,-103206000.0,-35276000.0,-0.4406
