,0,1,2,3,4,5,6,7,8,9,10,11,12,13,14,15,16,17,18,19,20,21,22,23,24,25,26,27,28,29,30
Date,Revenue,Revenue Growth,Cost of Revenue,Gross Profit,R&D Expenses,SG&A Expense,Operating Expenses,Operating Income,Interest Expense,Earnings before Tax,Income Tax Expense,Net Income - Non-Controlling int,Net Income - Discontinued ops,Net Income,Preferred Dividends,Net Income Com,EPS,EPS Diluted,Weighted Average Shs Out,Weighted Average Shs Out (Dil),Dividend per Share,Gross Margin,EBITDA Margin,EBIT Margin,Profit Margin,Free Cash Flow margin,EBITDA,EBIT,Consolidated Income,Earnings Before Tax Margin,Net Profit Margin
2019-03-31,157502255.6391,0.27651084205,116693233.0827,40809022.5564,0.0,39560150.3759,50755639.0977,-9946616.5414,1684962.406,-11523308.2707,-2143609.0226,0.0,0.0,-9379699.2481,0.0,-9379699.2481,-0.2556,-0.2556,33013533.8346,33013533.8346,0.8647,0.2591,-0.0143,-0.0625,-0.0451,-0.1006,-3017293.2331,-9838345.8647,-9379699.2481,-0.0732,-0.0596
2018-03-31,123384972.8892,0.16190459629,96512006.1967,26872966.6925,0.0,24324554.6088,31042602.6336,-4169635.9411,1624322.2308,-5838884.5856,-243222.3083,0.0,0.0,-5595662.2773,0.0,-5595662.2773,-0.2401,-0.2401,34010844.3067,34010844.3067,0.0,0.2178,0.0054,-0.0342,-0.0349,0.0017,893106.1193,-4214562.3548,-5595662.2773,-0.0473,-0.0454
2017-12-31,106192000.0,0.22312704415600002,66487000.0,36541000.0,0.0,40034000.0,18586956.5217,-3493000.0,1222638.6807,-9521000.0,-19881000.0,0.0,0.0,-2149925.0375,0.0,-29402000.0,-2.16,-2.16,14046000.0,,0.0,0.3441,0.0247,-0.016,-0.0187,0.0369,2826086.9565,-1392803.5982,-2149925.0375,-0.0897,-0.0248
2017-03-31,86820089.955,-0.276107141743,69639430.2849,17180659.6702,,14278860.5697,,-1406296.8516,,-2615442.2789,-465517.2414,,,,,-2149925.0375,-0.1199,-0.1199,12878000.0,,,0.1979,,,,,,,,-0.0301,
2016-12-31,119935000.0,0.09343945444269999,73571000.0,42162000.0,,37747000.0,,4415000.0,,2196000.0,-5030000.0,,,,,-2834000.0,-0.23,-0.23,11862000.0,,,0.3515,,,,,,,,0.0183,
2015-12-31,109686000.0,0.047401692099099994,69905000.0,38073000.0,,34592000.0,,3481000.0,,-531000.0,-3529000.0,,,,,-4060000.0,-0.35,-0.35,11440000.0,,,0.3471,,,,,,,,-0.0048,
2014-12-31,104722000.0,,63142000.0,40438000.0,,33016000.0,,7422000.0,,7241000.0,-3177000.0,,,,,4064000.0,0.37,0.31,,,,0.3861,,,,,,,,0.0691,
