,0,1,2,3,4,5,6,7,8,9,10,11,12,13,14,15,16,17,18,19,20,21,22,23,24,25,26,27,28
Date,Cash and cash equivalents,Short-term investments,Cash and short-term investments,Receivables,Inventories,Total current assets,Property Plant & Equipment Net,Goodwill and Intangible Assets,Long-term investments,Tax assets,Total non-current assets,Total assets,Payables,Short-term debt,Total current liabilities,Long-term debt,Total debt,Deferred revenue,Tax Liabilities,Deposit Liabilities,Total non-current liabilities,Total liabilities,Other comprehensive income,Retained earnings (deficit),Total shareholders equity,Investments,Net Debt,Other Assets,Other Liabilities
2018-12-31,2822000.0,0.0,2822000.0,0.0,0.0,2909000.0,0.0,0.0,0.0,1304000.0,44796000.0,47705000.0,435000.0,0.0,16844000.0,0.0,0.0,0.0,15678000.0,0.0,0.0,16844000.0,30861000.0,0.0,30861000.0,0.0,-2822000.0,0.0,0.0
2017-12-31,5987000.0,0.0,5987000.0,0.0,0.0,5987000.0,0.0,0.0,0.0,0.0,23772000.0,29759000.0,100000.0,0.0,14151000.0,0.0,0.0,0.0,13858000.0,0.0,0.0,14151000.0,15608000.0,0.0,15608000.0,0.0,-5987000.0,0.0,0.0
2016-12-31,9609000.0,0.0,9609000.0,217000.0,0.0,9826000.0,0.0,0.0,7543000.0,0.0,7543000.0,17369000.0,426000.0,0.0,7100000.0,0.0,0.0,0.0,6674000.0,0.0,0.0,7100000.0,0.0,0.0,10269000.0,7543000.0,-9609000.0,0.0,6674000.0
2015-12-31,72000.0,0.0,72000.0,0.0,0.0,72000.0,0.0,0.0,969000.0,0.0,969000.0,1041000.0,0.0,0.0,115000.0,0.0,0.0,0.0,483000.0,0.0,368000.0,483000.0,0.0,558000.0,558000.0,969000.0,-72000.0,0.0,115000.0
