,0,1,2,3,4,5,6,7,8,9,10,11,12,13,14,15,16,17,18,19,20,21,22,23,24,25,26,27,28
Date,Cash and cash equivalents,Short-term investments,Cash and short-term investments,Receivables,Inventories,Total current assets,Property Plant & Equipment Net,Goodwill and Intangible Assets,Long-term investments,Tax assets,Total non-current assets,Total assets,Payables,Short-term debt,Total current liabilities,Long-term debt,Total debt,Deferred revenue,Tax Liabilities,Deposit Liabilities,Total non-current liabilities,Total liabilities,Other comprehensive income,Retained earnings (deficit),Total shareholders equity,Investments,Net Debt,Other Assets,Other Liabilities
2019-12-31,300000.0,0.0,300000.0,3868000.0,27770000.0,73611000.0,28930000.0,0.0,0.0,7676000.0,87355000.0,160966000.0,51234000.0,45313000.0,161137000.0,48452000.0,93765000.0,1353000.0,1685000.0,0.0,80129000.0,416743000.0,1588011000.0,-1800000000.0,-255777000.0,0.0,93465000.0,0.0,175477000.0
2018-12-31,45353000.0,0.0,45353000.0,1349000.0,9693000.0,92215000.0,19756000.0,0.0,0.0,3005000.0,35710000.0,127925000.0,26844000.0,124010000.0,211736000.0,43331000.0,167341000.0,8236000.0,2139000.0,0.0,74692000.0,345681000.0,1346996000.0,-1521417000.0,-217756000.0,0.0,121988000.0,0.0,59253000.0
2017-12-31,57059000.0,7813000.0,64872000.0,33621000.0,5408000.0,104607000.0,13892000.0,0.0,3233000.0,1445000.0,46876000.0,151483000.0,15921000.0,36924000.0,107146000.0,61893000.0,98817000.0,4880000.0,5837000.0,0.0,79524000.0,352127000.0,1048274000.0,-1206767000.0,-200644000.0,11046000.0,41758000.0,0.0,165457000.0
2016-12-31,27150000.0,1374000.0,28524000.0,13105000.0,6213000.0,59123000.0,53735000.0,560000.0,0.0,13723000.0,70750000.0,129873000.0,15315000.0,25853000.0,109868000.0,128744000.0,154597000.0,5288000.0,2610000.0,0.0,143569000.0,314318000.0,990870000.0,-1134438000.0,-184445000.0,1374000.0,127447000.0,0.0,60881000.0
2015-12-31,11992000.0,1520000.0,13512000.0,4004000.0,10886000.0,35666000.0,59797000.0,560000.0,0.0,8887000.0,74532000.0,110198000.0,7943000.0,37570000.0,76813000.0,75457000.0,113027000.0,6509000.0,2505000.0,0.0,87691000.0,268263000.0,926216000.0,-1037104000.0,-158065000.0,1520000.0,101035000.0,0.0,103759000.0
2014-12-31,42047000.0,1375000.0,43422000.0,8687000.0,14506000.0,73604000.0,118980000.0,6085000.0,2260000.0,9747000.0,142579000.0,216183000.0,3489000.0,17100000.0,39998000.0,100122000.0,117222000.0,5303000.0,277000.0,0.0,116023000.0,340635000.0,724669000.0,-819152000.0,-124452000.0,3635000.0,75175000.0,0.0,184614000.0
2013-12-31,6868000.0,1428000.0,8296000.0,7734000.0,10888000.0,36920000.0,140591000.0,9120000.0,0.0,6599000.0,161944000.0,198864000.0,6512000.0,6391000.0,37302000.0,56172000.0,62563000.0,2222000.0,825000.0,0.0,63003000.0,334128000.0,706253000.0,-821438000.0,-135264000.0,1428000.0,55695000.0,0.0,233823000.0
2012-12-31,30592000.0,97000.0,30689000.0,3846000.0,6034000.0,49494000.0,163121000.0,9152000.0,0.0,13597000.0,193340000.0,242834000.0,15392000.0,3325000.0,45826000.0,61806000.0,65131000.0,1333000.0,851000.0,0.0,83238000.0,175728000.0,666233000.0,-586327000.0,67106000.0,97000.0,34539000.0,0.0,46664000.0
2011-12-31,95703000.0,7889000.0,103592000.0,6936000.0,9070000.0,139471000.0,128101000.0,9538000.0,0.0,2075000.0,180640000.0,320111000.0,26379000.0,28049000.0,92266000.0,13275000.0,41324000.0,3139000.0,2180000.0,0.0,57076000.0,159059000.0,548159000.0,-381188000.0,161052000.0,7889000.0,-54379000.0,0.0,9717000.0
2010-12-31,143060000.0,114873000.0,257933000.0,5215000.0,4006000.0,270059000.0,54847000.0,0.0,0.0,0.0,87394000.0,357453000.0,7116000.0,4765000.0,27241000.0,7825000.0,12590000.0,1695000.0,0.0,0.0,22664000.0,49905000.0,2872000.0,-202318000.0,307546000.0,114873000.0,-245343000.0,2905000.0,15360000.0
2009-12-31,23694000.0,48022000.0,71716000.0,1372000.0,2298000.0,74863000.0,42560000.0,0.0,0.0,0.0,47296000.0,122159000.0,1709000.0,11269000.0,23801000.0,9339000.0,20608000.0,378000.0,0.0,0.0,26946000.0,50747000.0,1336000.0,-120448000.0,-113745000.0,48022000.0,-51108000.0,-523000.0,10823000.0
