,0,1,2,3,4,5,6,7,8,9,10,11,12,13,14,15,16,17,18,19,20,21,22,23,24,25,26,27,28,29,30
Date,Revenue,Revenue Growth,Cost of Revenue,Gross Profit,R&D Expenses,SG&A Expense,Operating Expenses,Operating Income,Interest Expense,Earnings before Tax,Income Tax Expense,Net Income - Non-Controlling int,Net Income - Discontinued ops,Net Income,Preferred Dividends,Net Income Com,EPS,EPS Diluted,Weighted Average Shs Out,Weighted Average Shs Out (Dil),Dividend per Share,Gross Margin,EBITDA Margin,EBIT Margin,Profit Margin,Free Cash Flow margin,EBITDA,EBIT,Consolidated Income,Earnings Before Tax Margin,Net Profit Margin
2019-12-31,1626373000.0,-0.022019361499900005,1147214000.0,352997000.0,188049000.0,289598000.0,477647000.0,-248682000.0,0.0,-220242000.0,383331000.0,0.0,0.0,-361917000.0,0.0,-361917000.0,-2.74,-2.74,132106000.0,132106000.0,0.0,0.217045536295,0.000581662386181,-0.152905883214,-0.222530133001,-0.027961605363599998,946000.0,-248682000.0,-361917000.0,-0.13541911972200002,-0.222530133001
2018-12-31,1662991000.0,1.0,946588000.0,716403000.0,194190000.0,230435000.0,424625000.0,-19673000.0,0.0,-202722000.0,-1419000.0,0.0,0.0,-19744000.0,0.0,-19744000.0,-0.16,-0.16,127252000.0,127252000.0,1.4380913463,0.43079186838699995,0.07440208636130001,-0.0118298896386,-0.011872583796299999,0.10050685782400001,123730000.0,-19673000.0,-19744000.0,-0.121902042765,-0.011872583796299999
2017-12-31,0.0,-1.0,0.0,0.0,0.0,0.0,0.0,0.0,0.0,0.0,0.0,0.0,0.0,0.0,0.0,0.0,0.0,0.0,0.0,0.0,0.0,0.0,0.0,0.0,0.0,0.0,0.0,0.0,0.0,0.0,0.0
2016-12-31,1018225000.0,0.183337226559,420770000.0,597455000.0,179019000.0,118757000.0,312574000.0,284881000.0,55283000.0,5395000.0,5395000.0,209426000.0,0.0,0.0,0.0,0.0,-6.63,-6.63,74000000.0,71147397.0,0.0,0.5868,0.092,0.0596,0.0,-0.0076,93694000.0,60678000.0,209426000.0,0.0053,0.0
2015-12-31,860469000.0,0.0952696140515,508065000.0,352404000.0,70622000.0,201287000.0,282836000.0,69568000.0,26226000.0,59368000.0,20371000.0,0.0,0.0,38997000.0,0.0,38997000.0,0.56,0.54,73000000.0,69640417.0,0.0,0.4095,0.179,0.0995,0.045,0.0782,154231000.0,85594000.0,38997000.0,0.069,0.0453
2014-12-31,785623000.0,,337201000.0,448422000.0,106735000.0,84615000.0,229847000.0,218575000.0,30664000.0,178441000.0,1513000.0,890000.0,0.0,176928000.0,0.0,176928000.0,,,,,0.0,0.5708,0.292,0.2662,0.225,0.0418,229447000.0,209105000.0,177818000.0,0.2271,0.2252
