,0,1,2,3,4,5,6,7,8,9,10,11,12,13,14
Date,Depreciation & Amortization,Stock-based compensation,Operating Cash Flow,Capital Expenditure,Acquisitions and disposals,Investment purchases and sales,Investing Cash flow,Issuance (repayment) of debt,Issuance (buybacks) of shares,Dividend payments,Financing Cash Flow,Effect of forex changes on cash,Net cash flow / Change in cash,Free Cash Flow,Net Cash/Marketcap
2019-03-31,4385000.0,3030000.0,42714000.0,952000.0,-0.0,0.0,2169000.0,-0.0,-77483000.0,-0.0,-299000.0,-635000.0,78198000.0,41762000.0,0.0
2018-03-31,11478000.0,2692000.0,-24827000.0,2534000.0,74000.0,0.0,16397000.0,-1575000.0,-17084000.0,-0.0,15278000.0,452000.0,7300000.0,-27361000.0,0.0
2017-03-31,7675000.0,2892000.0,-11215000.0,656000.0,-0.0,0.0,192000.0,-3167000.0,-26784000.0,-0.0,-1130000.0,-393000.0,-12546000.0,-11871000.0,0.0
2016-03-31,8331000.0,3248000.0,-4559000.0,1201000.0,-0.0,0.0,5197000.0,-4000000.0,-39330000.0,-0.0,18202000.0,324000.0,18840000.0,-5760000.0,0.0
2015-03-31,10120000.0,5936000.0,-32676000.0,737000.0,-0.0,0.0,1269000.0,-7295000.0,-14690000.0,-0.0,8783000.0,-540000.0,-22624000.0,-33413000.0,0.0
2014-03-31,18328000.0,10696000.0,-13267000.0,278000.0,-0.0,0.0,4342000.0,-4615000.0,-35614000.0,-0.0,12796000.0,333000.0,3871000.0,-13545000.0,0.0
2013-03-31,25480000.0,8138000.0,-45271000.0,1430000.0,-0.0,5276000.0,7353000.0,-1923000.0,-39243000.0,-0.0,31221000.0,-339000.0,-7036000.0,-46701000.0,0.0
2012-03-31,15455000.0,9864000.0,-141042000.0,15122000.0,-0.0,110117000.0,63337000.0,-4682000.0,-46279000.0,-0.0,57000.0,144000.0,-77504000.0,-156164000.0,0.0
2011-03-31,11300000.0,0.0,-22821000.0,43376000.0,-0.0,-53075000.0,-104833000.0,-0.0,31457000.0,-0.0,163058000.0,785000.0,36189000.0,-66197000.0,0.0
2010-03-31,9789000.0,13632000.0,40680000.0,-16541000.0,-848000.0,-22593000.0,-39996000.0,0.0,19003000.0,0.0,19003000.0,-2767000.0,16920000.0,24139000.0,0.1142
