,0,1,2,3,4,5,6,7,8,9,10,11,12,13,14,15,16,17,18,19,20,21,22,23,24,25,26,27,28
Date,Cash and cash equivalents,Short-term investments,Cash and short-term investments,Receivables,Inventories,Total current assets,Property Plant & Equipment Net,Goodwill and Intangible Assets,Long-term investments,Tax assets,Total non-current assets,Total assets,Payables,Short-term debt,Total current liabilities,Long-term debt,Total debt,Deferred revenue,Tax Liabilities,Deposit Liabilities,Total non-current liabilities,Total liabilities,Other comprehensive income,Retained earnings (deficit),Total shareholders equity,Investments,Net Debt,Other Assets,Other Liabilities
2019-12-31,43813000.0,1125018000.0,1168831000.0,157953000.0,0.0,1326784000.0,6331000.0,0.0,56548000.0,17513000.0,166122000.0,1492906000.0,40089000.0,0.0,184182000.0,0.0,0.0,140873000.0,3220000.0,44718000.0,17513000.0,1062691000.0,190634000.0,227165000.0,430215000.0,1181566000.0,-43813000.0,0.0,860996000.0
2018-12-31,40344000.0,14231000.0,54575000.0,162478000.0,0.0,217053000.0,6258000.0,0.0,0.0,21852000.0,1298878000.0,1515931000.0,0.0,0.0,152708000.0,0.0,0.0,149296000.0,3412000.0,46795000.0,16929000.0,1106169000.0,189061000.0,221328000.0,409762000.0,14231000.0,-40344000.0,0.0,936532000.0
2017-12-31,55559000.0,25770000.0,81329000.0,174234000.0,0.0,255563000.0,6128000.0,0.0,0.0,19262000.0,1262673000.0,1518236000.0,0.0,0.0,157270000.0,0.0,0.0,157270000.0,0.0,48364000.0,6581000.0,1092813000.0,187711000.0,233896000.0,425423000.0,25770000.0,-55559000.0,0.0,928962000.0
2016-12-31,58936000.0,29580000.0,88516000.0,183005000.0,0.0,271521000.0,6636000.0,0.0,0.0,33811000.0,1247335000.0,1518856000.0,28000.0,0.0,166073000.0,0.0,0.0,162028000.0,4017000.0,49130000.0,8661000.0,1062706000.0,186020000.0,270418000.0,456150000.0,29580000.0,-58936000.0,0.0,887972000.0
2015-12-31,69481000.0,7718000.0,77199000.0,185364000.0,0.0,262563000.0,6181000.0,0.0,0.0,29905000.0,1239482000.0,1502045000.0,154000.0,0.0,169048000.0,0.0,0.0,167983000.0,911000.0,48380000.0,11366000.0,1048064000.0,182318000.0,268873000.0,453981000.0,7718000.0,-69481000.0,0.0,867650000.0
2014-12-31,90956000.0,33684000.0,124640000.0,178917000.0,0.0,303557000.0,7240000.0,0.0,0.0,31231000.0,1153663000.0,1457220000.0,843000.0,0.0,169419000.0,0.0,0.0,168576000.0,0.0,48722000.0,11728000.0,1010252000.0,176768000.0,267189000.0,446968000.0,33684000.0,-90956000.0,0.0,829105000.0
2013-12-31,123077000.0,84422000.0,207499000.0,171579000.0,0.0,379078000.0,7549000.0,0.0,0.0,33645000.0,949923000.0,1329001000.0,607000.0,0.0,164903000.0,0.0,0.0,164296000.0,0.0,44620000.0,7739000.0,912187000.0,170167000.0,250744000.0,416814000.0,84422000.0,-123077000.0,0.0,739545000.0
2012-12-31,92676000.0,68924000.0,161600000.0,141950000.0,0.0,303550000.0,7711000.0,0.0,0.0,29521000.0,917396000.0,1220946000.0,456000.0,0.0,456000.0,0.0,0.0,0.0,0.0,0.0,12908000.0,839724000.0,165031000.0,213017000.0,381222000.0,68924000.0,-92676000.0,0.0,826360000.0
2011-12-31,45536000.0,46944000.0,92480000.0,121223000.0,0.0,213703000.0,7628000.0,0.0,0.0,29286000.0,934806000.0,1148509000.0,0.0,25780000.0,144479000.0,0.0,25780000.0,118699000.0,0.0,37228000.0,0.0,797657000.0,163364000.0,185079000.0,350852000.0,46944000.0,-19756000.0,0.0,653178000.0
2010-12-31,60966000.0,,,122618000.0,0.0,,7547000.0,0.0,,31130000.0,,1117923000.0,27371000.0,,,,36090000.0,111494000.0,0.0,39187000.0,,787731000.0,265000.0,160954000.0,330192000.0,765537000.0,,,
2009-12-31,63188000.0,,,151570000.0,0.0,,5369000.0,0.0,,35904000.0,,1118809000.0,27303000.0,,,,36090000.0,122500000.0,0.0,40857000.0,,816392000.0,2728000.0,122632000.0,302417000.0,737297000.0,,,
