,0,1,2,3,4,5,6,7,8,9,10,11,12,13,14
Date,Depreciation & Amortization,Stock-based compensation,Operating Cash Flow,Capital Expenditure,Acquisitions and disposals,Investment purchases and sales,Investing Cash flow,Issuance (repayment) of debt,Issuance (buybacks) of shares,Dividend payments,Financing Cash Flow,Effect of forex changes on cash,Net cash flow / Change in cash,Free Cash Flow,Net Cash/Marketcap
2019-12-31,-7205000.0,6365000.0,78392000.0,14262000.0,-14390000.0,-935016000.0,205843000.0,-25864000.0,-92106000.0,-0.0,-248621000.0,0.0,35614000.0,64130000.0,0.0
2018-12-31,-8383000.0,166000.0,62161000.0,10044000.0,-0.0,-460141000.0,206509000.0,-0.0,-67802000.0,-40000000.0,-336405000.0,0.0,-67735000.0,52117000.0,0.0
