,0,1,2,3,4,5,6,7,8,9,10,11,12,13,14,15,16,17,18,19,20,21,22,23,24,25,26,27,28,29,30
Date,Revenue,Revenue Growth,Cost of Revenue,Gross Profit,R&D Expenses,SG&A Expense,Operating Expenses,Operating Income,Interest Expense,Earnings before Tax,Income Tax Expense,Net Income - Non-Controlling int,Net Income - Discontinued ops,Net Income,Preferred Dividends,Net Income Com,EPS,EPS Diluted,Weighted Average Shs Out,Weighted Average Shs Out (Dil),Dividend per Share,Gross Margin,EBITDA Margin,EBIT Margin,Profit Margin,Free Cash Flow margin,EBITDA,EBIT,Consolidated Income,Earnings Before Tax Margin,Net Profit Margin
2018-12-31,21412800000.0,-0.0056560140425200005,18015500000.0,3397300000.0,0.0,2509800000.0,2509800000.0,777900000.0,0.0,529400000.0,133500000.0,0.0,0.0,396000000.0,0.0,396000000.0,4.36,4.34,90900000.0,91300000.0,0.0,0.158657438541,0.0443426361802,0.0363287379511,0.0184936112979,0.0057909287902600005,949500000.0,777900000.0,396000000.0,0.0247235298513,0.0184936112979
2017-12-31,21534600000.0,-0.0034430098570000004,18175600000.0,3359000000.0,0.0,2436200000.0,2436200000.0,843400000.0,0.0,636500000.0,201500000.0,0.0,0.0,434600000.0,0.0,434600000.0,4.44,4.43,97800000.0,98200000.0,0.0,0.15598153669,0.04678981731719999,0.0391648788461,0.020181475393099998,0.010680486287200001,1007600000.0,843400000.0,434600000.0,0.029557084877400004,0.020181475393099998
2016-12-31,21609000000.0,0.0358067299396,18295800000.0,3313200000.0,0.0,2349400000.0,2349400000.0,889500000.0,0.0,702300000.0,270600000.0,0.0,0.0,430500000.0,0.0,430500000.0,4.18,4.15,103100000.0,103800000.0,0.0,0.153325003471,0.0480494238512,0.041163404137199995,0.019922254616099998,0.012564209357200002,1038300000.0,889500000.0,430500000.0,0.032500347077599995,0.019922254616099998
2015-12-31,20862000000.0,0.09174830444610002,17600500000.0,3261500000.0,0.0,2263500000.0,2263500000.0,873100000.0,0.0,722700000.0,279000000.0,0.0,0.0,442600000.0,0.0,442600000.0,3.93,3.89,112700000.0,113900000.0,0.0,0.156336880452,0.048183299779500005,0.0418512127313,0.021215607324299997,0.012443677499799998,1005200000.0,873100000.0,442600000.0,0.0346419327006,0.021215607324299997
2014-12-31,19108800000.0,0.0908343608714,16120100000.0,2988700000.0,0.0,2079600000.0,2079600000.0,820800000.0,0.0,682300000.0,262500000.0,0.0,0.0,418700000.0,0.0,418700000.0,3.57,3.52,117300000.0,118900000.0,0.0,0.156404379134,0.0488466047057,0.042954031650300005,0.021911370677400004,0.0144383739429,933400000.0,820800000.0,418700000.0,0.0357060621284,0.021911370677400004
2013-12-31,17517600000.0,0.117992443582,14757700000.0,2759900000.0,0.0,1935000000.0,1935000000.0,740300000.0,0.0,604400000.0,228600000.0,0.0,0.0,374900000.0,0.0,374900000.0,3.09,3.04,121300000.0,123300000.0,0.0,0.157550121021,0.0480259852948,0.042260355299800004,0.021401333516,0.0252431839978,841300000.0,740300000.0,374900000.0,0.0345024432571,0.021401333516
2012-12-31,15668800000.0,0.132768953825,13182400000.0,2486400000.0,0.0,1749500000.0,1749500000.0,645300000.0,0.0,516800000.0,199500000.0,0.0,0.0,316400000.0,0.0,316400000.0,2.56,2.52,123800000.0,125800000.0,0.0,0.15868477483899998,0.047112733585199996,0.0411837537016,0.0201929949964,0.0191335647912,738200000.0,645300000.0,316400000.0,0.0329827427755,0.0201929949964
2011-12-31,13832300000.0,1.0,11528300000.0,2304000000.0,0.0,1649400000.0,1649400000.0,572000000.0,0.0,461300000.0,177100000.0,0.0,0.0,281400000.0,0.0,281400000.0,1.94,1.91,144800000.0,147300000.0,0.0,0.166566659196,0.04771440758230001,0.0413524865713,0.0203436883237,0.016432552793100002,660000000.0,572000000.0,281400000.0,0.033349479117700004,0.0203436883237
2010-12-31,0.0,-1.0,0.0,0.0,0.0,0.0,0.0,226600000.0,0.0,226600000.0,12800000.0,0.0,0.0,226600000.0,0.0,226600000.0,1.44,1.43,156900000.0,158600000.0,0.0,0.0,0.0,0.0,0.0,0.0,306900000.0,226600000.0,226600000.0,0.0,0.0
2009-12-31,10666000000.0,-0.1943,8756200000.0,1909800000.0,0.0,1446900000.0,1519700000.0,390100000.0,78300000.0,314100000.0,116100000.0,0.0,35100000.0,198000000.0,0.0,198000000.0,1.12,1.12,174474518.0,176500000.0,0.0,0.1791,0.044000000000000004,0.0368,0.019,0.0286,469100000.0,392400000.0,198000000.0,0.0294,0.0186
