,0,1,2,3,4,5,6,7,8,9,10,11,12,13,14
Date,Depreciation & Amortization,Stock-based compensation,Operating Cash Flow,Capital Expenditure,Acquisitions and disposals,Investment purchases and sales,Investing Cash flow,Issuance (repayment) of debt,Issuance (buybacks) of shares,Dividend payments,Financing Cash Flow,Effect of forex changes on cash,Net cash flow / Change in cash,Free Cash Flow,Net Cash/Marketcap
2018-06-30,380000.0,171000.0,7358000.0,0.0,-0.0,-248000.0,-8684000.0,-0.0,-248000.0,-1050000.0,4700000.0,0.0,3374000.0,7358000.0,0.0
2018-06,1000000.0,0.0,,,,0.0,-9000000.0,,,,5000000.0,,3000000.0,,
2017-06-30,409000.0,176000.0,2340000.0,0.0,-0.0,0.0,-24055000.0,-0.0,0.0,-1250000.0,27589000.0,0.0,5874000.0,2340000.0,0.0
2017-06,1000000.0,1000000.0,,,,0.0,-24000000.0,,,,28000000.0,,6000000.0,,
2016-06-30,239000.0,163000.0,2996000.0,0.0,-0.0,-2952000.0,-59152000.0,-0.0,-2952000.0,-680000.0,50026000.0,0.0,-6130000.0,2996000.0,0.0
2016-06,1000000.0,2000000.0,,,,0.0,-59000000.0,,,,50000000.0,,-6000000.0,,
2015-06-30,89000.0,172000.0,1020000.0,0.0,-0.0,0.0,17283000.0,-0.0,0.0,-5350000.0,-18611000.0,0.0,-308000.0,1020000.0,0.0
2015-06,1000000.0,0.0,,,,0.0,17000000.0,,,,-19000000.0,,-0.0,,
2014-06-30,-117000.0,123000.0,7194000.0,0.0,-0.0,0.0,7061000.0,-0.0,0.0,-0.0,-64850000.0,0.0,-50595000.0,7194000.0,0.0
2014-06,1000000.0,0.0,,,,0.0,7000000.0,,,,-65000000.0,,-51000000.0,,
2013-06-30,330000.0,95000.0,-1357000.0,0.0,-0.0,0.0,5022000.0,-0.0,0.0,-0.0,-16985000.0,0.0,-13320000.0,-1357000.0,0.0
2012-06-30,973000.0,0.0,2227000.0,-307000.0,-0.0,0.0,28192000.0,-0.0,0.0,-0.0,-15503000.0,0.0,14916000.0,2534000.0,0.0
