,0,1,2,3,4,5,6,7,8,9,10,11,12,13,14
Date,Depreciation & Amortization,Stock-based compensation,Operating Cash Flow,Capital Expenditure,Acquisitions and disposals,Investment purchases and sales,Investing Cash flow,Issuance (repayment) of debt,Issuance (buybacks) of shares,Dividend payments,Financing Cash Flow,Effect of forex changes on cash,Net cash flow / Change in cash,Free Cash Flow,Net Cash/Marketcap
2018-12-31,0.0,0.0,-7614.0,0.0,0.0,0.0,0.0,84351.0,0.0,0.0,7614.0,0.0,0.0,-7614.0,0.0039
2017-12-31,0.0,0.0,-6308.0,0.0,0.0,0.0,0.0,6308.0,0.0,0.0,6308.0,0.0,0.0,-6308.0,0.0039
2016-12-31,,,-6308.0,0.0,,,0.0,26014.0,0.0,0.0,6308.0,,,,
