,0,1,2,3,4,5,6,7,8,9,10,11,12,13,14
Date,Depreciation & Amortization,Stock-based compensation,Operating Cash Flow,Capital Expenditure,Acquisitions and disposals,Investment purchases and sales,Investing Cash flow,Issuance (repayment) of debt,Issuance (buybacks) of shares,Dividend payments,Financing Cash Flow,Effect of forex changes on cash,Net cash flow / Change in cash,Free Cash Flow,Net Cash/Marketcap
2018-12-31,368000000.0,9000000.0,1029000000.0,-770000000.0,-379000000.0,0.0,-1149000000.0,821000000.0,0.0,-859000000.0,55000000.0,0.0,-65000000.0,259000000.0,-0.6211
2017-12-31,313000000.0,9000000.0,687000000.0,-349000000.0,-1231000000.0,0.0,-1533000000.0,-269000000.0,290000000.0,-661000000.0,233000000.0,0.0,-613000000.0,338000000.0,-0.3974
2016-12-31,233000000.0,6000000.0,442000000.0,-298000000.0,-365000000.0,0.0,-658000000.0,1204000000.0,364000000.0,-461000000.0,888000000.0,0.0,672000000.0,144000000.0,-0.6344
2015-12-31,187000000.0,6000000.0,436000000.0,-383000000.0,-6000000.0,0.0,-389000000.0,293000000.0,99000000.0,-308000000.0,-50000000.0,0.0,-3000000.0,53000000.0,-0.6341
2014-12-31,85000000.0,2000000.0,165000000.0,-221000000.0,-2479000000.0,0.0,-2690000000.0,1411000000.0,1478000000.0,-183000000.0,2521000000.0,0.0,-4000000.0,-56000000.0,-0.5355
2013-12-31,46000000.0,2000000.0,86000000.0,-79000000.0,-315000000.0,0.0,-394000000.0,806000000.0,709000000.0,-102000000.0,312000000.0,0.0,4000000.0,7000000.0,-0.6872
2012-12-31,15000000.0,1000000.0,72000000.0,-88000000.0,-40000000.0,0.0,-128000000.0,300000000.0,171000000.0,-472000000.0,57000000.0,0.0,1000000.0,-16000000.0,-0.3332
2011-12-31,11277000.0,479000.0,26505000.0,-15021000.0,0.0,0.0,-15021000.0,50000000.0,288132000.0,-351797000.0,6842000.0,0.0,18326000.0,11484000.0,-0.059000000000000004
2010-12-31,11233000.0,0.0,-22039000.0,-4789000.0,0.0,0.0,-4789000.0,0.0,0.0,0.0,26828000.0,0.0,0.0,-26828000.0,0.0
2009-12-31,8820000.0,0.0,-12324000.0,-12249000.0,0.0,0.0,-12249000.0,0.0,0.0,0.0,24573000.0,0.0,0.0,-24573000.0,0.0
