,0,1,2,3,4,5,6,7,8,9,10,11,12,13,14,15,16,17,18,19,20,21,22,23,24,25,26,27,28
Date,Cash and cash equivalents,Short-term investments,Cash and short-term investments,Receivables,Inventories,Total current assets,Property Plant & Equipment Net,Goodwill and Intangible Assets,Long-term investments,Tax assets,Total non-current assets,Total assets,Payables,Short-term debt,Total current liabilities,Long-term debt,Total debt,Deferred revenue,Tax Liabilities,Deposit Liabilities,Total non-current liabilities,Total liabilities,Other comprehensive income,Retained earnings (deficit),Total shareholders equity,Investments,Net Debt,Other Assets,Other Liabilities
2020-02-01,671267000.0,0.0,671267000.0,0.0,434326000.0,1264749000.0,665290000.0,0.0,0.0,0.0,2284916000.0,3549665000.0,219919000.0,282829000.0,815354000.0,231963000.0,514792000.0,0.0,10392000.0,0.0,1663133000.0,2490855000.0,0.0,2313745000.0,1058810000.0,0.0,-156475000.0,0.0,12368000.0
2019-02-02,723135000.0,0.0,723135000.0,0.0,437879000.0,1335950000.0,694855000.0,0.0,0.0,0.0,1049643000.0,2385593000.0,226878000.0,0.0,558917000.0,250439000.0,250439000.0,0.0,18902000.0,0.0,608055000.0,1176693000.0,0.0,2418544000.0,1208900000.0,0.0,-472696000.0,0.0,9721000.0
2018-02-03,675558000.0,0.0,675558000.0,0.0,424393000.0,1264538000.0,738182000.0,0.0,0.0,0.0,1061154000.0,2325692000.0,168868000.0,0.0,507546000.0,249686000.0,249686000.0,0.0,10326000.0,0.0,565675000.0,1083313000.0,0.0,2420552000.0,1242379000.0,0.0,-425872000.0,0.0,10092000.0
2017-01-28,547189000.0,0.0,547189000.0,0.0,399795000.0,1139300000.0,824738000.0,0.0,0.0,0.0,1156457000.0,2295757000.0,187017000.0,0.0,486000000.0,262992000.0,262992000.0,0.0,5863000.0,0.0,557718000.0,1052322000.0,0.0,2474703000.0,1243435000.0,0.0,-284197000.0,0.0,8604000.0
2016-01-30,588578000.0,0.0,588578000.0,0.0,436701000.0,1178980000.0,894178000.0,0.0,0.0,0.0,1254059000.0,2433039000.0,184175000.0,0.0,534703000.0,286235000.0,286235000.0,0.0,5988000.0,0.0,602614000.0,1141976000.0,0.0,2530196000.0,1291063000.0,0.0,-302343000.0,0.0,4659000.0
2015-01-31,520708000.0,0.0,520708000.0,0.0,460794000.0,1164972000.0,967001000.0,0.0,0.0,0.0,1340195000.0,2505167000.0,141685000.0,2102000.0,485956000.0,291310000.0,293412000.0,0.0,32804000.0,0.0,629510000.0,1115466000.0,0.0,2550673000.0,1389701000.0,0.0,-227296000.0,0.0,0.0
2014-02-01,600116000.0,0.0,600116000.0,0.0,530192000.0,1320566000.0,1131341000.0,0.0,0.0,0.0,1530431000.0,2850997000.0,130715000.0,15000000.0,568222000.0,120000000.0,135000000.0,0.0,63508000.0,0.0,553282000.0,1121504000.0,0.0,2556270000.0,1729493000.0,0.0,-465116000.0,0.0,0.0
2013-02-02,643505000.0,0.0,643505000.0,0.0,426962000.0,1307824000.0,1308232000.0,0.0,0.0,0.0,1679577000.0,2987401000.0,140396000.0,0.0,690801000.0,0.0,0.0,0.0,115617000.0,0.0,478332000.0,1169133000.0,0.0,2567261000.0,1818268000.0,0.0,-643505000.0,0.0,0.0
2012-04-28,321617000.0,37902000.0,359519000.0,0.0,517564000.0,1109673000.0,1266875000.0,0.0,0.0,0.0,1624268000.0,2733941000.0,160203000.0,0.0,545170000.0,0.0,0.0,0.0,19850000.0,0.0,495756000.0,1040926000.0,0.0,2308546000.0,1693015000.0,37902000.0,-321617000.0,0.0,0.0
2012-01-28,583495000.0,84650000.0,668145000.0,0.0,569818000.0,1488775000.0,1197271000.0,0.0,14858000.0,0.0,1559378000.0,3048153000.0,211368000.0,0.0,705353000.0,57851000.0,57851000.0,0.0,77918000.0,0.0,480344000.0,1185697000.0,0.0,2320571000.0,1862456000.0,99508000.0,-525644000.0,0.0,0.0
2011-01-29,826353000.0,0.0,826353000.0,0.0,385857000.0,1433268000.0,1149583000.0,0.0,100534000.0,0.0,1514634000.0,2947902000.0,137235000.0,0.0,558851000.0,68566000.0,68566000.0,0.0,73491000.0,0.0,498267000.0,1057118000.0,0.0,2272317000.0,1890784000.0,100534000.0,-757787000.0,0.0,0.0
2010-01-30,669950000.0,32356000.0,702306000.0,90865000.0,310645000.0,1225683000.0,1244019000.0,0.0,141794000.0,44570000.0,1596183000.0,2821866000.0,150134000.0,0.0,449372000.0,71213000.0,71213000.0,0.0,56494000.0,0.0,544577000.0,993949000.0,-8973000.0,2183690000.0,1827917000.0,174150000.0,-631093000.0,121867000.0,299238000.0
