,0,1,2,3,4,5,6,7,8,9,10,11,12,13,14,15,16,17,18,19,20,21,22,23,24,25,26,27,28,29,30
Date,Revenue,Revenue Growth,Cost of Revenue,Gross Profit,R&D Expenses,SG&A Expense,Operating Expenses,Operating Income,Interest Expense,Earnings before Tax,Income Tax Expense,Net Income - Non-Controlling int,Net Income - Discontinued ops,Net Income,Preferred Dividends,Net Income Com,EPS,EPS Diluted,Weighted Average Shs Out,Weighted Average Shs Out (Dil),Dividend per Share,Gross Margin,EBITDA Margin,EBIT Margin,Profit Margin,Free Cash Flow margin,EBITDA,EBIT,Consolidated Income,Earnings Before Tax Margin,Net Profit Margin
2018-03-31,413901480.0,-0.24994879682100002,479644712.0,-65743232.0,0.0,9332992.0,10950110.0,-76693342.0,34108621.0,-98163472.0,-19941298.0,15373590.0,0.0,-78222174.0,0.0,-78222174.0,-2.3,-2.3,39989374.0,39989374.0,0.0,-0.1588,-0.155,-0.1548,-0.18899999999999997,-0.0695,-64054851.0,-64054851.0,-93595764.0,-0.2372,-0.18899999999999997
2017-03-31,551830966.0,-0.0206229994623,456671991.0,95158975.0,0.0,11892236.0,13671204.0,81487771.0,29272826.0,29684356.0,4596968.0,-6424015.0,0.0,25087388.0,0.0,25087388.0,0.84,0.84,37054216.0,37054216.0,0.0,0.1724,0.107,0.1068,0.045,0.0104,58957182.0,58957182.0,31511403.0,0.0538,0.0455
2016-03-31,563451016.0,-0.195121593995,454540269.0,108910747.0,0.0,21966829.0,24028527.0,84882220.0,27063456.0,30690168.0,4897325.0,-7120754.0,0.0,25792843.0,0.0,25792843.0,0.9,0.9,36507133.0,36507133.0,0.0,0.1933,0.102,0.1025,0.046,-0.0124,57753624.0,57753624.0,32913597.0,0.0545,0.0458
2015-03-31,700044891.0,0.278984368758,555918959.0,144125932.0,0.0,28340740.0,30737614.0,113388318.0,34988422.0,50729039.0,8603974.0,11038641.0,0.0,42125065.0,0.0,42125065.0,1.47,1.46,36401966.0,36401966.0,0.0,0.2059,0.122,0.1224,0.06,0.0071,85717461.0,85717461.0,53163706.0,0.0725,0.0602
2014-03-31,547344368.0,0.323102306939,414263578.0,133080790.0,0.0,35002010.0,37066274.0,96014516.0,25859231.0,39249398.0,9293071.0,8176377.0,0.0,29956327.0,0.0,29956327.0,1.04,1.04,35676434.0,35676434.0,0.0,0.2431,0.11900000000000001,0.11900000000000001,0.055,-0.0006,65108629.0,65108629.0,38132704.0,0.0717,0.0547
2013-03-31,413682574.0,0.257471052197,319746948.0,93935626.0,0.0,28288318.0,30232164.0,63703462.0,21751614.0,23323871.0,8267562.0,4192729.0,0.0,15056309.0,0.0,15056309.0,0.63,0.63,33579089.0,33579089.0,0.0,0.2271,0.109,0.109,0.036000000000000004,-0.1438,45075485.0,45075485.0,19249038.0,0.0564,0.0364
2012-03-31,328979799.0,0.290060597004,263591893.0,65387906.0,0.0,16835317.0,18925055.0,46462851.0,21786007.0,13740589.0,4137422.0,2341071.0,0.0,9603167.0,0.0,9603167.0,0.49,0.49,33579089.0,33579089.0,0.0,0.1988,0.10800000000000001,0.10800000000000001,0.028999999999999998,0.0579,35526596.0,35526596.0,11944238.0,0.0418,0.0292
2011-03-31,255011121.0,0.264535410141,206018503.0,48992618.0,0.0,13188967.0,15104901.0,33887717.0,19676559.0,8103242.0,2948276.0,1256683.0,0.0,5154966.0,0.0,5154966.0,0.26,0.26,,,0.0,0.1921,0.109,0.1089,0.02,-0.0007,27779801.0,27779801.0,6411649.0,0.0318,0.0202
2010-03-31,201663883.0,,172967625.0,28696258.0,0.0,7208054.0,8052680.0,20643578.0,12670922.0,7990140.0,2767534.0,0.0,0.0,5222606.0,0.0,5222606.0,0.47,0.47,,,0.0,0.1423,0.102,0.1025,0.026000000000000002,-0.2105,20661062.0,20661062.0,5222606.0,0.0396,0.0259
