,0,1,2,3,4,5,6,7,8,9,10,11,12,13,14,15,16,17,18,19,20,21,22,23,24,25,26,27,28
Date,Cash and cash equivalents,Short-term investments,Cash and short-term investments,Receivables,Inventories,Total current assets,Property Plant & Equipment Net,Goodwill and Intangible Assets,Long-term investments,Tax assets,Total non-current assets,Total assets,Payables,Short-term debt,Total current liabilities,Long-term debt,Total debt,Deferred revenue,Tax Liabilities,Deposit Liabilities,Total non-current liabilities,Total liabilities,Other comprehensive income,Retained earnings (deficit),Total shareholders equity,Investments,Net Debt,Other Assets,Other Liabilities
2019-05-31,227641000.0,0.0,227641000.0,43577000.0,40071000.0,315292000.0,24258000.0,493053000.0,0.0,0.0,521146000.0,836438000.0,22829000.0,7500000.0,73302000.0,124407000.0,131907000.0,0.0,0.0,0.0,139470000.0,221623000.0,549326000.0,66469000.0,614815000.0,0.0,-95734000.0,0.0,8851000.0
2018-05-31,74096000.0,1317000.0,75413000.0,39401000.0,48916000.0,168032000.0,42461000.0,491562000.0,0.0,0.0,537440000.0,705472000.0,15775000.0,5000000.0,57301000.0,86621000.0,91621000.0,0.0,0.0,0.0,104415000.0,162877000.0,538048000.0,5129000.0,542595000.0,1317000.0,17525000.0,0.0,1161000.0
2017-05-31,47544000.0,1215000.0,48759000.0,44523000.0,54506000.0,153914000.0,45234000.0,506927000.0,0.0,336000.0,554047000.0,707961000.0,18087000.0,5000000.0,71516000.0,91320000.0,96320000.0,0.0,0.0,0.0,118282000.0,192934000.0,526991000.0,-11007000.0,515027000.0,1215000.0,48776000.0,0.0,3136000.0
2016-05-31,32333000.0,1653000.0,33986000.0,52867000.0,55370000.0,146254000.0,48284000.0,527829000.0,0.0,0.0,580809000.0,727063000.0,15616000.0,16250000.0,66727000.0,105160000.0,121410000.0,0.0,46000.0,0.0,127752000.0,219835000.0,523671000.0,-16015000.0,507228000.0,1653000.0,89077000.0,0.0,25356000.0
2015-05-31,18391000.0,1689000.0,20080000.0,58428000.0,67388000.0,155813000.0,54560000.0,543058000.0,0.0,14904000.0,617810000.0,773623000.0,23668000.0,8750000.0,61157000.0,128910000.0,137660000.0,0.0,439000.0,0.0,130029000.0,228601000.0,517997000.0,28233000.0,545022000.0,1689000.0,119269000.0,0.0,37415000.0
2014-05-31,16105000.0,1809000.0,17914000.0,61968000.0,61234000.0,151722000.0,66590000.0,565729000.0,0.0,10403000.0,647169000.0,798891000.0,32895000.0,5000000.0,66753000.0,91250000.0,96250000.0,0.0,689000.0,0.0,92480000.0,262056000.0,506250000.0,31501000.0,536835000.0,1809000.0,80145000.0,0.0,102823000.0
2013-05-31,0.0,0.0,0.0,0.0,0.0,0.0,0.0,0.0,0.0,0.0,791584000.0,791584000.0,0.0,0.0,0.0,135000000.0,135000000.0,0.0,0.0,0.0,135475000.0,264754000.0,498450000.0,29563000.0,526830000.0,0.0,135000000.0,0.0,129279000.0
2012-05-31,0.0,0.0,0.0,0.0,0.0,0.0,0.0,0.0,0.0,0.0,721769000.0,721769000.0,0.0,0.0,0.0,142500000.0,142500000.0,0.0,0.0,0.0,142827000.0,198249000.0,494271000.0,30175000.0,523520000.0,0.0,142500000.0,0.0,55422000.0
2011-05-31,45984000.0,85558000.0,131542000.0,27141000.0,28126000.0,194305000.0,23804000.0,209988000.0,0.0,8656000.0,243116000.0,437421000.0,11391000.0,275000.0,25507000.0,6275000.0,6550000.0,0.0,0.0,0.0,6275000.0,31782000.0,-1273000.0,35269000.0,405639000.0,85558000.0,-124992000.0,7496000.0,13841000.0
2010-05-31,58763000.0,41311000.0,100074000.0,29838000.0,29216000.0,171360000.0,24193000.0,220326000.0,0.0,7808000.0,252565000.0,423925000.0,12044000.0,260000.0,26026000.0,6550000.0,6810000.0,0.0,0.0,0.0,6550000.0,32576000.0,-1394000.0,27152000.0,391349000.0,41311000.0,-93264000.0,12232000.0,13722000.0
2009-05-31,27909000.0,40278000.0,68187000.0,27181000.0,36928000.0,260105000.0,22183000.0,229744000.0,0.0,13600000.0,6810000.0,408703000.0,13152000.0,265000.0,29699000.0,6810000.0,7075000.0,0.0,0.0,0.0,6810000.0,36509000.0,-905000.0,14840000.0,372194000.0,40278000.0,-61112000.0,16302000.0,16282000.0
