,0,1,2,3,4,5,6,7,8,9,10,11,12,13,14
Date,Depreciation & Amortization,Stock-based compensation,Operating Cash Flow,Capital Expenditure,Acquisitions and disposals,Investment purchases and sales,Investing Cash flow,Issuance (repayment) of debt,Issuance (buybacks) of shares,Dividend payments,Financing Cash Flow,Effect of forex changes on cash,Net cash flow / Change in cash,Free Cash Flow,Net Cash/Marketcap
2018-12-31,1560000.0,45000.0,-19774000.0,-3616000.0,-302000.0,22640000.0,20096000.0,6339000.0,0.0,0.0,-1695000.0,-1560000.0,-2933000.0,-23390000.0,
2017-12-31,12048000.0,343000.0,-58570000.0,-7170000.0,-1414000.0,-15947000.0,-47166000.0,0.0,0.0,0.0,874000.0,5787000.0,-99075000.0,-65740000.0,
2016-12-31,12971000.0,773000.0,-103610000.0,-21558000.0,-32838000.0,6156000.0,130582000.0,0.0,1334000.0,0.0,11130000.0,-7515000.0,30587000.0,-125168000.0,
2015-12-31,5771000.0,567000.0,-69062000.0,-9411000.0,-4497000.0,11173000.0,84919000.0,-3000000.0,4826000.0,0.0,2141000.0,-1698000.0,16300000.0,-78473000.0,
2014-12-31,6294000.0,1281000.0,-1814000.0,-15512000.0,0.0,24686000.0,-6157000.0,3000000.0,624000.0,0.0,16823000.0,-1067000.0,7785000.0,-17326000.0,
2013-12-31,11813000.0,943000.0,537000.0,-57769000.0,0.0,-848000.0,-70466000.0,0.0,-2825000.0,0.0,54311000.0,1636000.0,-13982000.0,-57232000.0,
2012-12-31,24033000.0,3502000.0,20230000.0,-9160000.0,-2223000.0,-44043000.0,-57006000.0,0.0,-3260000.0,0.0,-3260000.0,936000.0,-39100000.0,11070000.0,
2011-12-31,25138000.0,4614000.0,17932000.0,-4014000.0,-2966000.0,1040000.0,-5192000.0,0.0,-10919000.0,0.0,-10919000.0,4408000.0,6229000.0,13918000.0,
2010-12-31,23479000.0,7971000.0,10626000.0,-8773000.0,-17173000.0,859000.0,-30368000.0,0.0,0.0,0.0,72000.0,2421000.0,-19670000.0,1853000.0,
2009-12-31,16513000.0,5766000.0,8858000.0,-28630000.0,-6070000.0,-6351000.0,-42644000.0,0.0,-7387000.0,0.0,-3913000.0,-81000.0,-37780000.0,-19772000.0,
