,0,1,2,3,4,5,6,7,8,9,10,11,12,13,14,15,16,17,18,19,20,21,22,23,24,25,26,27,28,29,30
Date,Revenue,Revenue Growth,Cost of Revenue,Gross Profit,R&D Expenses,SG&A Expense,Operating Expenses,Operating Income,Interest Expense,Earnings before Tax,Income Tax Expense,Net Income - Non-Controlling int,Net Income - Discontinued ops,Net Income,Preferred Dividends,Net Income Com,EPS,EPS Diluted,Weighted Average Shs Out,Weighted Average Shs Out (Dil),Dividend per Share,Gross Margin,EBITDA Margin,EBIT Margin,Profit Margin,Free Cash Flow margin,EBITDA,EBIT,Consolidated Income,Earnings Before Tax Margin,Net Profit Margin
2019-12-31,6411000000.0,-0.136449353448,306000000.0,6105000000.0,805000000.0,406000000.0,2765000000.0,-3008000000.0,0.0,-3008000000.0,660000000.0,0.0,0.0,-3553000000.0,0.0,-3553000000.0,-9.43,-9.43,377000000.0,377000000.0,0.997347480106,0.9522695367339999,-0.0511620652004,-0.469193573545,-0.554203712369,0.447200124786,-328000000.0,-3008000000.0,-3553000000.0,-0.469193573545,-0.554203712369
2018-12-31,7424000000.0,-531.285714286,348000000.0,7076000000.0,503000000.0,431000000.0,2481000000.0,958000000.0,0.0,958000000.0,894000000.0,0.0,0.0,40000000.0,0.0,40000000.0,0.11,0.11,382000000.0,384000000.0,0.994791666667,0.953125,0.45299030172399996,0.12904094827600002,0.005387931034479999,0.508755387931,3363000000.0,958000000.0,40000000.0,0.12904094827600002,0.005387931034479999
2017-12-31,-14000000.0,-0.575757575758,0.0,0.0,549000000.0,395000000.0,2474000000.0,918000000.0,0.0,918000000.0,595000000.0,0.0,0.0,1304000000.0,0.0,1304000000.0,3.42,3.41,381000000.0,383000000.0,0.9921671018279999,-0.0,-228.42857142900002,-65.5714285714,-93.14285714290001,-173.42857142900002,3198000000.0,918000000.0,1304000000.0,-65.5714285714,-93.14285714290001
2016-12-31,-33000000.0,-1.14537444934,0.0,0.0,473000000.0,410000000.0,2533000000.0,-1682000000.0,0.0,-1682000000.0,391000000.0,0.0,0.0,-1405000000.0,0.0,-1405000000.0,-3.71,-3.71,379000000.0,379000000.0,1.0,-0.0,-28.3636363636,50.9696969697,42.5757575758,-73.6363636364,936000000.0,-1682000000.0,-1405000000.0,50.9696969697,42.5757575758
2015-12-31,227000000.0,-0.97888764881,0.0,0.0,0.0,377000000.0,2376000000.0,-28226000000.0,0.0,-28226000000.0,309000000.0,0.0,0.0,-23119000000.0,0.0,-23119000000.0,-61.2,-61.2,378000000.0,378000000.0,0.9973544973540001,0.0,5.04845814978,-124.343612335,-101.84581497799999,13.1453744493,1146000000.0,-28226000000.0,-23119000000.0,-124.343612335,-101.84581497799999
2014-12-31,10752000000.0,-0.166705417345,0.0,0.0,0.0,434000000.0,3094000000.0,-2906000000.0,0.0,-2906000000.0,1142000000.0,0.0,0.0,-5403000000.0,0.0,-5403000000.0,-14.06,-14.06,384000000.0,384000000.0,0.950520833333,0.0,0.674479166667,-0.270275297619,-0.502511160714,0.786923363095,7252000000.0,-2906000000.0,-5403000000.0,-0.270275297619,-0.502511160714
2013-12-31,12903000000.0,1.0,0.0,0.0,0.0,503000000.0,3802000000.0,2188000000.0,0.0,2304000000.0,1665000000.0,0.0,0.0,2188000000.0,0.0,2188000000.0,5.53,5.5,395000000.0,406000000.0,0.886699507389,0.0,0.688832054561,0.16957296752700002,0.16957296752700002,0.762225838952,8888000000.0,2188000000.0,2188000000.0,0.178563124855,0.16957296752700002
2012-12-31,0.0,0.0,0.0,0.0,0.0,531000000.0,3731000000.0,1925000000.0,0.0,1879000000.0,2199000000.0,0.0,0.0,1925000000.0,0.0,1925000000.0,4.95,4.92,389000000.0,391000000.0,0.849104859335,0.0,0.0,0.0,0.0,0.0,9034000000.0,1925000000.0,1925000000.0,0.0,0.0
2011-12-31,0.0,-1.0,0.0,0.0,0.0,459000000.0,459000000.0,4508000000.0,0.0,0.0,2263000000.0,0.0,0.0,4508000000.0,0.0,4508000000.0,11.75,11.47,384000000.0,400000000.0,0.765,0.0,0.0,0.0,0.0,0.0,8712000000.0,4508000000.0,4508000000.0,0.0,0.0
2010-12-31,12183000000.0,0.41416134648900005,0.0,0.0,0.0,380000000.0,380000000.0,3000000000.0,0.0,3181000000.0,1222000000.0,0.0,0.0,3000000000.0,32000000.0,3000000000.0,8.53,8.46,352000000.0,359000000.0,0.6295264623960001,0.0,0.499302306493,0.246244767299,0.246244767299,0.552080768284,6083000000.0,3000000000.0,3000000000.0,0.261101534926,0.246244767299
2009-12-31,8615000000.0,-0.3047,4780000000.0,3835000000.0,0.0,344000000.0,3267000000.0,568000000.0,242000000.0,326000000.0,611000000.0,0.0,0.0,-285000000.0,7000000.0,-292000000.0,-0.87,-0.87,336174361.0,336000000.0,0.6,0.4452,0.6709999999999999,0.0659,-0.034,0.0481,5781000000.0,568000000.0,-285000000.0,0.0378,-0.0331
