,0,1,2,3,4,5,6,7,8,9,10,11,12,13,14
Date,Depreciation & Amortization,Stock-based compensation,Operating Cash Flow,Capital Expenditure,Acquisitions and disposals,Investment purchases and sales,Investing Cash flow,Issuance (repayment) of debt,Issuance (buybacks) of shares,Dividend payments,Financing Cash Flow,Effect of forex changes on cash,Net cash flow / Change in cash,Free Cash Flow,Net Cash/Marketcap
2019-12-31,4680000.0,1487000.0,-25622000.0,980000.0,-0.0,0.0,1038000.0,-21668000.0,-29905000.0,-0.0,30506000.0,-8000.0,5914000.0,-26602000.0,0.0
2018-12-31,9783000.0,1403000.0,-23119000.0,2881000.0,-0.0,0.0,7119000.0,-12500000.0,-2139000.0,-0.0,9695000.0,-106000.0,-6411000.0,-26000000.0,0.0
2017-12-31,10016000.0,761000.0,-13320000.0,2137000.0,-0.0,0.0,-2137000.0,-7000000.0,3071000.0,-0.0,26703000.0,131000.0,11377000.0,-15457000.0,0.0
2016-12-31,9517000.0,381000.0,-12901000.0,2365000.0,-0.0,0.0,-2165000.0,-11220000.0,9889000.0,-0.0,12617000.0,-96000.0,-2545000.0,-15266000.0,0.0
2015-12-31,466988.0,953019.0,-11868537.0,291152.0,-0.0,0.0,-291152.0,-0.0,-5167616.0,-0.0,3766980.0,0.0,-8392709.0,-12159689.0,0.0
2014-12-31,216088.0,1236274.0,-15186411.0,535915.0,-0.0,0.0,-535915.0,-0.0,-7552325.0,-0.0,21153012.0,0.0,17282325.0,-15722326.0,0.0
2013-12-31,196224.0,837275.0,-13149147.0,391055.0,-0.0,0.0,-391055.0,-0.0,-11048639.0,-0.0,770758.0,0.0,11851639.0,-13540202.0,0.0
2012-12-31,187501.0,600110.0,-8313201.0,344306.0,-0.0,0.0,-344306.0,-0.0,-24621083.0,-0.0,18867960.0,0.0,24621083.0,-8657507.0,0.0
2011-12-31,141993.0,701759.0,8062083.0,489049.0,-0.0,0.0,-489049.0,-0.0,-14410630.0,-0.0,34090.0,0.0,14410630.0,7573034.0,0.0
2010-12-31,165304.0,1031798.0,-3585804.0,-468540.0,0.0,0.0,-468540.0,-15116.0,4701480.0,0.0,4686364.0,0.0,632020.0,-4054344.0,0.1433
2009-12-31,176690.0,587576.0,-1054786.0,-569855.0,0.0,0.0,-569855.0,-15278.0,35812.0,0.0,20534.0,0.0,-1604107.0,-1624641.0,0.1452
