,0,1,2,3,4,5,6,7,8,9,10,11,12,13,14,15,16,17,18,19,20,21,22,23,24,25,26,27,28,29,30
Date,Revenue,Revenue Growth,Cost of Revenue,Gross Profit,R&D Expenses,SG&A Expense,Operating Expenses,Operating Income,Interest Expense,Earnings before Tax,Income Tax Expense,Net Income - Non-Controlling int,Net Income - Discontinued ops,Net Income,Preferred Dividends,Net Income Com,EPS,EPS Diluted,Weighted Average Shs Out,Weighted Average Shs Out (Dil),Dividend per Share,Gross Margin,EBITDA Margin,EBIT Margin,Profit Margin,Free Cash Flow margin,EBITDA,EBIT,Consolidated Income,Earnings Before Tax Margin,Net Profit Margin
2018-12-31,8202000000.0,0.16982585255199997,5547100000.0,2654900000.0,220900000.0,959500000.0,1180400000.0,1686900000.0,101700000.0,1588400000.0,371500000.0,0.0,0.0,1205000000.0,0.0,1205000000.0,4.0,3.85,301200000.0,312600000.0,0.811580294306,0.323689344062,0.242209217264,0.205669348939,0.146915386491,0.0977932211656,1986600000.0,1686900000.0,1205000000.0,0.193660082907,0.146915386491
2017-12-31,7011300000.0,0.115312420463,4701400000.0,2309900000.0,193700000.0,878300000.0,1072000000.0,1427600000.0,92300000.0,1352400000.0,691700000.0,0.0,0.0,650500000.0,0.0,650500000.0,2.13,2.06,305700000.0,316500000.0,0.647709320695,0.329453881591,0.235961947142,0.20361416570399998,0.09277879993720001,0.130874445538,1654400000.0,1427600000.0,650500000.0,0.192888622652,0.09277879993720001
2016-12-31,6286400000.0,0.128881067395,4246400000.0,2040000000.0,166100000.0,798200000.0,964300000.0,1205200000.0,72600000.0,1141100000.0,308500000.0,0.0,0.0,822900000.0,0.0,822900000.0,2.67,2.61,308300000.0,315200000.0,0.547906091371,0.324510053449,0.226234410792,0.19171544922400002,0.130901628913,0.141066429117,1422200000.0,1205200000.0,822900000.0,0.181518834309,0.130901628913
2015-12-31,5568700000.0,0.0417547469834,3789200000.0,1779500000.0,124700000.0,669100000.0,793800000.0,1104700000.0,68300000.0,1052800000.0,280500000.0,0.0,0.0,763500000.0,0.0,763500000.0,2.47,2.41,309100000.0,316500000.0,0.503317535545,0.319553935389,0.229191732361,0.19837664086800003,0.137105608131,0.154147287518,1276300000.0,1104700000.0,763500000.0,0.18905669186700003,0.137105608131
2014-12-31,5345500000.0,0.158371272132,3651700000.0,1693800000.0,114800000.0,645100000.0,759900000.0,1034600000.0,80400000.0,972500000.0,257300000.0,0.0,0.0,709100000.0,0.0,709100000.0,2.26,2.21,313136791.0,320430140.0,0.318010034886,0.316864652511,0.224992984754,0.19354597324900003,0.132653633898,0.125675802077,1202700000.0,1034600000.0,709100000.0,0.181928725096,0.132653633898
2013-12-31,4614669000.0,0.0751628877941,3163835000.0,1450834000.0,103421000.0,548038000.0,651459000.0,896813000.0,63553000.0,846645000.0,207896000.0,0.0,0.0,635672000.0,0.0,635672000.0,4.0,3.92,159092787.0,162274499.0,0.596341388181,0.314396113784,0.223915301401,0.194339615691,0.137750291516,0.132317615846,1033295000.0,896813000.0,635672000.0,0.18346819674400003,0.137750291516
2012-12-31,4292065000.0,0.08941577029819998,2948853000.0,1343212000.0,92480000.0,512867000.0,605347000.0,828345000.0,59613000.0,778841000.0,219333000.0,0.0,0.0,555317000.0,0.0,555317000.0,3.44,3.39,161522080.0,163947111.0,0.427711104955,0.31295239005,0.221367570156,0.192994514296,0.12938224374500001,0.127113638773,950124000.0,828345000.0,555317000.0,0.181460672194,0.12938224374500001
2011-12-31,3939786000.0,0.10851830040799999,2696126000.0,1243660000.0,88877000.0,486316000.0,575193000.0,751678000.0,43029000.0,716752000.0,187910000.0,0.0,0.0,524191000.0,0.0,524191000.0,3.09,3.05,169640115.0,171825588.0,0.0598397486642,0.315666891552,0.22110769468199998,0.19079158106600003,0.133050627623,0.118022907843,871117000.0,751678000.0,524191000.0,0.18192663256299998,0.133050627623
2010-12-31,3554101000.0,0.260290454298,2395873000.0,1158228000.0,77570000.0,457871000.0,535441000.0,700357000.0,40741000.0,663688000.0,161275000.0,0.0,0.0,496405000.0,0.0,496405000.0,2.86,2.82,173785650.0,176325993.0,0.059055388390800004,0.325884942493,0.225993296195,0.197056020636,0.139671044801,0.08875240180289999,803203000.0,700357000.0,496405000.0,0.18673864361200002,0.139671044801
2009-12-31,2820065000.0,-0.1287,1933511000.0,886554000.0,0.0,397641000.0,397641000.0,488913000.0,36586000.0,437145000.0,119311000.0,9382000.0,0.0,317834000.0,0.0,317834000.0,0.925,0.915,342994246.0,343215286.0,0.03,0.3144,0.203,0.168,0.113,0.1853,572255000.0,473731000.0,327216000.0,0.155,0.1127
