,0,1,2,3,4,5,6,7,8,9,10,11,12,13,14,15,16,17,18,19,20,21,22,23,24,25,26,27,28,29,30
Date,Revenue,Revenue Growth,Cost of Revenue,Gross Profit,R&D Expenses,SG&A Expense,Operating Expenses,Operating Income,Interest Expense,Earnings before Tax,Income Tax Expense,Net Income - Non-Controlling int,Net Income - Discontinued ops,Net Income,Preferred Dividends,Net Income Com,EPS,EPS Diluted,Weighted Average Shs Out,Weighted Average Shs Out (Dil),Dividend per Share,Gross Margin,EBITDA Margin,EBIT Margin,Profit Margin,Free Cash Flow margin,EBITDA,EBIT,Consolidated Income,Earnings Before Tax Margin,Net Profit Margin
2019-12-31,2931849000.0,1.68222749791,0.0,0.0,0.0,330342000.0,1691280000.0,1407849000.0,98369000.0,1407849000.0,-128994000.0,0.0,0.0,843193000.0,17531000.0,843193000.0,3.72,3.71,207072413.0,208748524.0,2.08515965363,0.0,0.485566275753,0.480191510545,0.287597690058,0.35581607374700003,1423607000.0,1407849000.0,843193000.0,0.480191510545,0.287597690058
2018-12-31,1093065000.0,-0.581228907049,0.0,0.0,0.0,266444000.0,902939000.0,105272000.0,59374000.0,105272000.0,86021000.0,0.0,0.0,-10376000.0,17531000.0,-10376000.0,-0.3,-0.3,199946632.0,199946632.0,2.0348579815,0.0,0.110245044897,0.09630900266680001,-0.009492573634690001,0.7314459798819999,120505000.0,105272000.0,-10376000.0,0.09630900266680001,-0.009492573634690001
2017-12-31,2610173000.0,0.32470269754500003,0.0,0.0,0.0,257858000.0,1360049000.0,1769584000.0,52873000.0,1769584000.0,325945000.0,0.0,0.0,629104000.0,0.0,629104000.0,3.12,3.1,190931743.0,192581693.0,1.90412699301,0.0,0.684997890944,0.6779565952140001,0.241020039668,0.30638926998300003,1787963000.0,1769584000.0,629104000.0,0.6779565952140001,0.241020039668
2016-12-31,1970384000.0,0.891562587,0.0,0.0,0.0,247000000.0,1165918000.0,1061014000.0,43482000.0,1061014000.0,90707000.0,0.0,0.0,402850000.0,0.0,402850000.0,2.11,2.11,183998080.0,183998080.0,1.29951899498,0.0,0.547989122932,0.538480824042,0.20445253311,0.309028087926,1079749000.0,1061014000.0,402850000.0,0.538480824042,0.20445253311
2015-12-31,1041670000.0,-0.332298345665,0.0,0.0,0.0,102255000.0,830975000.0,377228000.0,30071000.0,377228000.0,26733000.0,0.0,0.0,134497000.0,0.0,134497000.0,0.61,0.61,173271666.0,173271666.0,2.04553928627,0.0,0.40483262453599994,0.362137721159,0.129116706827,0.5534094290899999,421702000.0,377228000.0,134497000.0,0.362137721159,0.129116706827
2014-12-31,1560083000.0,-0.582147225806,0.0,0.0,0.0,97663000.0,1043563000.0,877167000.0,22393000.0,877167000.0,147245000.0,0.0,0.0,168229000.0,0.0,168229000.0,0.62,0.62,155349017.0,155349017.0,3.25745865518,0.0,0.593358814884,0.562256623526,0.107833365276,-0.24284989965300002,925689000.0,877167000.0,168229000.0,0.562256623526,0.107833365276
2013-12-31,3733571000.0,0.30546038150800003,69886000.0,3663685000.0,0.0,98202000.0,1941715000.0,659391000.0,29260000.0,0.0,107569000.0,0.0,0.0,659391000.0,0.0,659391000.0,4.06,4.03,139173386.0,142214350.0,4.10974701217,0.981281727333,0.19134415818,0.17661134608100001,0.17661134608100001,0.272608984803,714397000.0,659391000.0,659391000.0,0.0,0.17661134608100001
2012-12-31,2859965000.0,1.0,0.0,2859965000.0,0.0,1935222000.0,2010729000.0,849236000.0,37116000.0,376367000.0,65410000.0,2736838000.0,0.0,310957000.0,0.0,310957000.0,2.06,2.06,130024284.0,127693489.0,1.35,1.0,0.163,0.1446,0.109,0.11199999999999999,466719000.0,413483000.0,3047795000.0,0.1316,0.1087
2012-12-13,0.0,-1.0,0.0,0.0,0.0,0.0,0.0,0.0,0.0,0.0,0.0,0.0,0.0,0.0,0.0,0.0,0.0,0.0,0.0,0.0,0.0,0.0,0.0,0.0,0.0,0.0,0.0,0.0,0.0,0.0,0.0
2011-12-31,171632000.0,-0.918653887534,0.0,0.0,0.0,75558000.0,1582450000.0,-1292270000.0,40850000.0,-1292270000.0,11929000.0,0.0,0.0,-468826000.0,0.0,-468826000.0,-4.18,-4.18,0.0,0.0,0.0,0.0,-7.37332781766,-7.52930688916,-2.7315768621200003,4.20979770672,-1265499000.0,-1292270000.0,-468826000.0,-7.52930688916,-2.7315768621200003
2010-12-31,2109898000.0,1.1825146266600002,0.0,2109898000.0,0.0,2093443000.0,2121950000.0,-12052000.0,35436000.0,186354000.0,91737000.0,448607000.0,0.0,94617000.0,0.0,94617000.0,0.83,0.83,117472042.0,96964769.0,0.0,1.0,0.11699999999999999,0.1051,0.045,-0.106,246039000.0,221790000.0,543224000.0,0.0883,0.0448
2009-12-31,966728000.0,4.6247,0.0,966728000.0,0.0,1619590000.0,1656253000.0,-689525000.0,50252000.0,-126462000.0,28714000.0,59786000.0,0.0,-155176000.0,0.0,-155176000.0,-1.62,-1.62,,95815500.0,0.0,1.0,-0.054000000000000006,-0.0788,-0.161,0.0953,-51911000.0,-76210000.0,-95390000.0,-0.1308,-0.1605
