,0,1,2,3,4,5,6,7,8,9,10,11,12,13,14,15,16,17,18,19,20,21,22,23,24,25,26,27,28
Date,Cash and cash equivalents,Short-term investments,Cash and short-term investments,Receivables,Inventories,Total current assets,Property Plant & Equipment Net,Goodwill and Intangible Assets,Long-term investments,Tax assets,Total non-current assets,Total assets,Payables,Short-term debt,Total current liabilities,Long-term debt,Total debt,Deferred revenue,Tax Liabilities,Deposit Liabilities,Total non-current liabilities,Total liabilities,Other comprehensive income,Retained earnings (deficit),Total shareholders equity,Investments,Net Debt,Other Assets,Other Liabilities
2019-12-31,15813000.0,22876000.0,38689000.0,7562000.0,0.0,61791000.0,14744000.0,79802000.0,12089000.0,27574000.0,198311000.0,260102000.0,1927000.0,1208000.0,47451000.0,47375000.0,48583000.0,4586000.0,4421000.0,0.0,72918000.0,128152000.0,139949000.0,-8034000.0,131950000.0,34965000.0,32770000.0,0.0,7783000.0
2018-12-31,74076000.0,16631000.0,90707000.0,5516000.0,0.0,107998000.0,6871000.0,21443000.0,11256000.0,9804000.0,67743000.0,175741000.0,1481000.0,1213000.0,28213000.0,48602000.0,49815000.0,3414000.0,2977000.0,0.0,62741000.0,83895000.0,136338000.0,-44316000.0,91846000.0,27887000.0,-24261000.0,0.0,0.0
2017-12-31,16109000.0,29800000.0,45909000.0,3387000.0,0.0,53842000.0,6696000.0,8425000.0,22401000.0,6463000.0,56406000.0,110248000.0,610000.0,1223000.0,23912000.0,0.0,1223000.0,7080000.0,2105000.0,0.0,1335000.0,25169000.0,152534000.0,-67247000.0,85079000.0,52201000.0,-14886000.0,0.0,0.0
2016-12-31,10699000.0,15473000.0,26172000.0,2511000.0,0.0,32220000.0,7077000.0,9842000.0,26688000.0,8822000.0,60363000.0,92583000.0,937000.0,1192000.0,21361000.0,0.0,1192000.0,7638000.0,4032000.0,0.0,1613000.0,22901000.0,146695000.0,-76963000.0,69682000.0,42161000.0,-9507000.0,0.0,0.0
2015-12-31,12063000.0,10235000.0,22298000.0,2048000.0,0.0,27506000.0,6107000.0,11253000.0,34417000.0,7149000.0,62975000.0,90481000.0,2369000.0,1084000.0,16905000.0,12000.0,1096000.0,4953000.0,2867000.0,0.0,923000.0,17784000.0,141531000.0,-68682000.0,72697000.0,44652000.0,-10967000.0,0.0,0.0
2014-12-31,5412000.0,0.0,5412000.0,1191000.0,0.0,7807000.0,2623000.0,14122000.0,0.0,0.0,17627000.0,25434000.0,2088000.0,0.0,13528000.0,0.0,0.0,3780000.0,0.0,0.0,207000.0,13735000.0,0.0,-53014000.0,-51467000.0,0.0,-5412000.0,1204000.0,11440000.0
