,0,1,2,3,4,5,6,7,8,9,10,11,12,13,14,15,16,17,18,19,20,21,22,23,24,25,26,27,28,29,30
Date,Revenue,Revenue Growth,Cost of Revenue,Gross Profit,R&D Expenses,SG&A Expense,Operating Expenses,Operating Income,Interest Expense,Earnings before Tax,Income Tax Expense,Net Income - Non-Controlling int,Net Income - Discontinued ops,Net Income,Preferred Dividends,Net Income Com,EPS,EPS Diluted,Weighted Average Shs Out,Weighted Average Shs Out (Dil),Dividend per Share,Gross Margin,EBITDA Margin,EBIT Margin,Profit Margin,Free Cash Flow margin,EBITDA,EBIT,Consolidated Income,Earnings Before Tax Margin,Net Profit Margin
2019-12-31,0.0,0.0,0.0,0.0,20950672.0,8593626.0,29544298.0,-28059807.0,0.0,-28059807.0,0.0,0.0,0.0,-28059807.0,0.0,-28059807.0,-4.67,-4.67,6002486.0,6002486.0,0.0,0.0,0.0,0.0,0.0,0.0,-27889553.0,-28059807.0,-28059807.0,0.0,0.0
2018-12-31,0.0,0.0,0.0,0.0,14194732.0,2294671.0,16489403.0,-16489403.0,182.0,-15528269.0,0.0,0.0,0.0,-15528269.0,0.0,-15528269.0,-13.45,-13.45,,1154368.0,0.0,0.0,,0.0,,0.0,-15519771.0,-15528087.0,-15528269.0,0.0,0.0
2017-12-31,0.0,,0.0,0.0,13392631.0,2459744.0,15852375.0,-15852375.0,15.0,-15190250.0,0.0,0.0,0.0,-15190250.0,0.0,-15190250.0,-13.17,-13.17,,1153069.0,0.0,0.0,,0.0,,0.0,-15182303.0,-15190235.0,-15190250.0,0.0,0.0
