,0,1,2,3,4,5,6,7,8,9,10,11,12,13,14,15,16,17,18,19,20,21,22,23,24,25,26,27,28
Date,Cash and cash equivalents,Short-term investments,Cash and short-term investments,Receivables,Inventories,Total current assets,Property Plant & Equipment Net,Goodwill and Intangible Assets,Long-term investments,Tax assets,Total non-current assets,Total assets,Payables,Short-term debt,Total current liabilities,Long-term debt,Total debt,Deferred revenue,Tax Liabilities,Deposit Liabilities,Total non-current liabilities,Total liabilities,Other comprehensive income,Retained earnings (deficit),Total shareholders equity,Investments,Net Debt,Other Assets,Other Liabilities
2019-12-31,94381000.0,0.0,94381000.0,17079000.0,0.0,111460000.0,0.0,154803000.0,0.0,0.0,4659100000.0,4770560000.0,42191000.0,0.0,81913000.0,2567022000.0,2567022000.0,39722000.0,0.0,0.0,2567022000.0,2839262000.0,1938078000.0,-7244000.0,1931298000.0,0.0,2472641000.0,0.0,190327000.0
2018-12-31,38958000.0,0.0,38958000.0,14440000.0,0.0,53398000.0,0.0,135961000.0,0.0,0.0,4357560000.0,4410958000.0,38618000.0,57000000.0,139102000.0,2299625000.0,2356625000.0,43484000.0,0.0,0.0,2299625000.0,2802812000.0,1607728000.0,0.0,1608146000.0,0.0,2317667000.0,0.0,364085000.0
2017-12-31,21042862.0,0.0,21042862.0,17317743.0,0.0,38360605.0,27900000.0,102743389.0,0.0,0.0,3214009020.0,3252369625.0,31252705.0,41800000.0,101000057.0,1776652171.0,1818452171.0,27947352.0,0.0,0.0,1776652171.0,1976482529.0,1271052096.0,4449353.0,1275887096.0,0.0,1797409309.0,0.0,98830301.0
2016-12-31,12321787.0,0.0,12321787.0,15499699.0,0.0,27821486.0,0.0,79156400.0,0.0,0.0,2393011116.0,2420832602.0,20814910.0,127500000.0,150124084.0,1305870471.0,1433370471.0,1809174.0,0.0,0.0,1305870471.0,1537052649.0,906746614.0,-23231643.0,883779953.0,0.0,1421048684.0,0.0,81058094.0
2015-12-31,2439605.0,0.0,2439605.0,18489247.0,0.0,20928852.0,0.0,19381473.0,0.0,0.0,1274600181.0,1295529033.0,12644818.0,34500000.0,48108235.0,688845774.0,723345774.0,963417.0,0.0,0.0,688845774.0,772544230.0,536455707.0,-13698520.0,522984803.0,0.0,720906169.0,0.0,35590221.0
2014-12-31,3113270.0,0.0,3113270.0,14543638.0,0.0,17656908.0,0.0,12702980.0,0.0,0.0,678753504.0,696410412.0,4941703.0,24500000.0,29920281.0,354418668.0,378918668.0,478578.0,0.0,0.0,354418668.0,406915948.0,300578277.0,-11297852.0,289494464.0,0.0,375805398.0,0.0,22576999.0
2013-12-31,9180431.0,0.0,9180431.0,5358227.0,0.0,14538658.0,0.0,907883.0,0.0,0.0,327098037.0,341636695.0,1638401.0,29390000.0,30049859.0,140516000.0,169906000.0,-978542.0,0.0,0.0,140516000.0,177049478.0,177825613.0,-13391341.0,164587217.0,0.0,160725569.0,0.0,6483619.0
2012-12-31,2973509.0,0.0,2973509.0,936827.0,0.0,3910336.0,0.0,0.0,0.0,0.0,119381594.0,123291930.0,1110964.0,14801197.0,16213736.0,55637000.0,70438197.0,301575.0,0.0,0.0,55637000.0,73234356.0,59412942.0,-9408253.0,50057574.0,0.0,67464688.0,0.0,1383620.0
2011-12-31,4548020.0,0.0,4548020.0,23811.0,0.0,4571831.0,0.0,0.0,0.0,0.0,87893709.0,92465540.0,1158530.0,0.0,1223976.0,55637000.0,55637000.0,65446.0,0.0,0.0,55637000.0,57847640.0,43828030.0,-9261623.0,34617900.0,0.0,51088980.0,0.0,986664.0
2010-12-31,22275.0,,,0.0,0.0,,0.0,0.0,,0.0,,829812.0,0.0,,,,1470948.0,0.0,0.0,0.0,,1486012.0,0.0,-766199.0,-656201.0,0.0,,,
