,0,1,2,3,4,5,6,7,8,9,10,11,12,13,14
Date,Depreciation & Amortization,Stock-based compensation,Operating Cash Flow,Capital Expenditure,Acquisitions and disposals,Investment purchases and sales,Investing Cash flow,Issuance (repayment) of debt,Issuance (buybacks) of shares,Dividend payments,Financing Cash Flow,Effect of forex changes on cash,Net cash flow / Change in cash,Free Cash Flow,Net Cash/Marketcap
2019-06-30,12019000.0,10601000.0,-29641000.0,4311000.0,-0.0,0.0,-4311000.0,-0.0,-76798000.0,-0.0,28473000.0,124000.0,-5355000.0,-33952000.0,0.0
2018-06-30,11376000.0,12289000.0,18331000.0,6609000.0,-0.0,24375000.0,17766000.0,-69797000.0,-83083000.0,-0.0,-27453000.0,-346000.0,8298000.0,11722000.0,0.0
2017-06-30,21761000.0,13629000.0,-380000.0,5364000.0,-0.0,23187000.0,17823000.0,-105158000.0,-72084000.0,-0.0,-54538000.0,197000.0,-36898000.0,-5744000.0,0.0
2016-06-30,19223000.0,12638000.0,33538000.0,8066000.0,-0.0,16328000.0,8262000.0,-66406000.0,-115922000.0,-0.0,-757000.0,-823000.0,40220000.0,25472000.0,0.0
2015-06-30,19978000.0,13930000.0,-16733000.0,10445000.0,-0.0,14134000.0,3689000.0,-0.0,-72996000.0,-0.0,5895000.0,-5646000.0,-12795000.0,-27178000.0,0.0
2014-06-30,20388000.0,11313000.0,346000.0,11931000.0,-0.0,20423000.0,8492000.0,-0.0,-83292000.0,-0.0,8377000.0,1818000.0,92346000.0,-11585000.0,0.0
2013-06-30,25269000.0,8216000.0,-66177000.0,15358000.0,-3861000.0,-102403000.0,-121622000.0,-0.0,-65858000.0,-0.0,117917000.0,-309000.0,73313000.0,-81535000.0,0.0
2012-06-30,32592000.0,8458000.0,-38279000.0,10769000.0,-1384000.0,0.0,-12153000.0,-0.0,-141637000.0,-0.0,100549000.0,-2519000.0,143504000.0,-49048000.0,0.0
2011-06-30,7566000.0,13365000.0,12403000.0,-4022000.0,-70265000.0,105704000.0,31417000.0,0.0,5601000.0,0.0,5601000.0,1051000.0,50472000.0,8381000.0,0.2056
2010-06-30,7122000.0,10232000.0,-5073000.0,-5130000.0,0.0,15657000.0,10527000.0,0.0,3837000.0,0.0,3837000.0,-692000.0,8599000.0,-10203000.0,0.3778
2009-06-30,6651000.0,15330000.0,-3743000.0,-4232000.0,0.0,1798000.0,-2434000.0,0.0,5775000.0,0.0,5775000.0,301000.0,-101000.0,-7975000.0,0.27399999999999997
