,0,1,2,3,4,5,6,7,8,9,10,11,12,13,14,15,16,17,18,19,20,21,22,23,24,25,26,27,28,29,30
Date,Revenue,Revenue Growth,Cost of Revenue,Gross Profit,R&D Expenses,SG&A Expense,Operating Expenses,Operating Income,Interest Expense,Earnings before Tax,Income Tax Expense,Net Income - Non-Controlling int,Net Income - Discontinued ops,Net Income,Preferred Dividends,Net Income Com,EPS,EPS Diluted,Weighted Average Shs Out,Weighted Average Shs Out (Dil),Dividend per Share,Gross Margin,EBITDA Margin,EBIT Margin,Profit Margin,Free Cash Flow margin,EBITDA,EBIT,Consolidated Income,Earnings Before Tax Margin,Net Profit Margin
2019-12-31,382415000.0,-0.045832667970799996,257246000.0,125169000.0,9300000.0,107260000.0,119701000.0,14108000.0,5226000.0,8564000.0,5724000.0,0.0,0.0,3015000.0,0.0,3015000.0,0.07,0.07,44997000.0,45083000.0,0.00982632034248,0.32731195167599997,0.12096021338099999,0.0368918583215,0.0078841049645,0.10432645162999998,46257000.0,14108000.0,3015000.0,0.022394519043400004,0.0078841049645
2018-12-31,400784000.0,0.0157256214852,269934000.0,130850000.0,8400000.0,109122000.0,121390000.0,17860000.0,5880000.0,12061000.0,3334000.0,0.0,0.0,8873000.0,0.0,8873000.0,0.2,0.2,44918000.0,45050000.0,0.0,0.32648508922499997,0.127150784462,0.04456265719190001,0.0221391073496,0.0998892171344,50960000.0,17860000.0,8873000.0,0.0300935167073,0.0221391073496
2017-12-31,394579000.0,-0.0288983340758,270556000.0,124023000.0,6900000.0,101889000.0,113069000.0,217000.0,6179000.0,-6111000.0,15244000.0,0.0,0.0,-21511000.0,0.0,-21511000.0,-0.47,-0.47,45669000.0,45669000.0,0.0,0.314317285005,0.0856685226533,0.000549953241303,-0.0545163325975,0.109645977105,33803000.0,217000.0,-21511000.0,-0.015487392892200002,-0.0545163325975
2016-12-31,406321000.0,-0.05212461945809999,273078000.0,133243000.0,6200000.0,100214000.0,111247000.0,-45731000.0,5996000.0,-51863000.0,-4364000.0,0.0,0.0,-47865000.0,0.0,-47865000.0,-1.04,-1.04,45932000.0,45932000.0,0.0,0.327925457951,-0.033311101321400007,-0.112548945292,-0.11780095048,0.101016191632,-13535000.0,-45731000.0,-47865000.0,-0.127640461605,-0.11780095048
2015-12-31,428665000.0,0.0115844967387,280541000.0,148124000.0,5800000.0,107280000.0,118722000.0,35113000.0,6974000.0,27956000.0,-69432000.0,0.0,0.0,97040000.0,0.0,97040000.0,2.08,2.04,46631000.0,47532000.0,0.0,0.34554722219000006,0.161767347462,0.0819124491153,0.226377240969,0.10669403846799999,69344000.0,35113000.0,97040000.0,0.0652164277466,0.226377240969
2014-12-31,423756000.0,0.0406709316175,279478000.0,144278000.0,6300000.0,107672000.0,119959000.0,29842000.0,14560000.0,9779000.0,2348000.0,0.0,0.0,7275000.0,0.0,7275000.0,0.16,0.15,46245000.0,47088000.0,0.0103211009174,0.340474235173,0.154567722935,0.07042260168589999,0.0171678985076,0.08670791682010001,65499000.0,29842000.0,7275000.0,0.0230769593823,0.0171678985076
2013-12-31,407195000.0,0.0026519385991300003,272858000.0,134337000.0,5500000.0,96800000.0,108912000.0,28381000.0,23737000.0,-11589000.0,2986000.0,0.0,0.0,-15323000.0,0.0,-15323000.0,-0.33,-0.33,45856000.0,45856000.0,0.0105765875785,0.329908274905,0.159370817422,0.0696987929616,-0.0376306192365,0.0702538095998,64895000.0,28381000.0,-15323000.0,-0.0284605655767,-0.0376306192365
2012-12-31,406118000.0,1.0,282599000.0,123519000.0,5400000.0,93073000.0,109508000.0,-616000.0,28165000.0,-28681000.0,2784000.0,0.0,0.0,-31968000.0,0.0,-31968000.0,-0.7,-0.7,45668000.0,45668000.0,0.0,0.304145593153,0.10528713329600001,-0.0015168005358,-0.0787160381958,0.0423620721071,42759000.0,-616000.0,-31968000.0,-0.07062233144060001,-0.0787160381958
2011-12-31,0.0,-1.0,0.0,0.0,0.0,0.0,0.0,0.0,0.0,0.0,0.0,0.0,0.0,0.0,0.0,0.0,0.0,0.0,0.0,0.0,0.0,0.0,0.0,0.0,0.0,0.0,0.0,0.0,0.0,0.0,0.0
2010-12-31,441639000.0,-0.119449944073,299307000.0,142332000.0,0.0,107744000.0,157664000.0,-15332000.0,24091000.0,-41688000.0,-14186000.0,-88000.0,0.0,-27502000.0,0.0,-27502000.0,-0.61,-0.61,45724468.0,45213000.0,0.0,0.3223,0.064,-0.0398,-0.062,0.1025,28052000.0,-17597000.0,-27590000.0,-0.0944,-0.0623
2009-12-31,501549000.0,-0.2845,323360000.0,178189000.0,0.0,115020000.0,164550000.0,13639000.0,25781000.0,-11867000.0,3018000.0,-104000.0,0.0,-14885000.0,0.0,-14885000.0,-0.33,-0.33,45312743.0,45123000.0,0.0,0.3553,0.127,0.0277,-0.03,0.1793,63457000.0,13914000.0,-14989000.0,-0.0237,-0.0297
