,0,1,2,3,4,5,6,7,8,9,10,11,12,13,14,15,16,17,18,19,20,21,22,23,24,25,26,27,28,29,30
Date,Revenue,Revenue Growth,Cost of Revenue,Gross Profit,R&D Expenses,SG&A Expense,Operating Expenses,Operating Income,Interest Expense,Earnings before Tax,Income Tax Expense,Net Income - Non-Controlling int,Net Income - Discontinued ops,Net Income,Preferred Dividends,Net Income Com,EPS,EPS Diluted,Weighted Average Shs Out,Weighted Average Shs Out (Dil),Dividend per Share,Gross Margin,EBITDA Margin,EBIT Margin,Profit Margin,Free Cash Flow margin,EBITDA,EBIT,Consolidated Income,Earnings Before Tax Margin,Net Profit Margin
2018-12-31,9097000000.0,-0.00866025641026,7214000000.0,1169000000.0,0.0,405000000.0,9564918708.4955,764000000.0,-509503091.3671,-50000000.0,-44000000.0,0.0,0.0,64825930.3721,0.0,-94000000.0,-0.4,-0.4,236000000.0,283704681.8727,0.5042,0.1285,0.0948,0.0935,0.0084,0.1194,721488595.4382,850698419.9679,64825930.3721,-0.0055,0.0071
2017-12-31,9176470588.2353,0.37393964678099995,7690276110.4442,1486194477.7911,0.0,482593037.2149,764705882.3529,721488595.4382,698679471.7887,22809123.6495,-42016806.7227,0.0,0.0,-70526315.7895,0.0,64825930.3721,0.2881,0.2881,283704681.8727,248764210.5263,0.0,0.162,0.0989,0.0786,-0.0116,0.1266,629473684.2105,721488595.4382,-70526315.7895,0.0025,-0.0106
2016-12-31,6678947368.4211,0.183171865035,5511578947.3684,1167368421.0526,0.0,437894736.8421,620000000.0,547368421.0526,647368421.0526,-17894736.8421,52631578.9474,0.0,0.0,-152008686.2106,0.0,-70526315.7895,-0.3474,-0.3474,248764210.5263,,0.0,0.1748,0.0945,0.0942,-0.0293,0.1258,488599348.5342,629473684.2105,-152008686.2106,-0.0027,-0.0269
2015-12-31,5644951140.0651,-0.0148468959024,4692725298.5885,952225841.4767,0.0,345276872.9642,463626492.9425,488599348.5342,572204125.9501,-83604777.4159,68403908.7948,0.0,0.0,-615012106.5375,0.0,-152008686.2106,-0.7492,-0.7492,234000000.0,,0.0,0.1687,0.0206,0.0866,-0.1295,0.0818,98062953.9952,488599348.5342,-615012106.5375,-0.0148,-0.1073
2014-12-31,5730024213.0751,,4953995157.385,776029055.6901,,340193704.6005,486682808.7167,289346246.9734,730024213.0751,-631961259.0799,-16949152.5424,,,,,-615012106.5375,-61.5012,-61.5012,,,,0.1354,,0.0171,,,,98062953.9952,,-0.1103,
