,0,1,2,3,4,5,6,7,8,9,10,11,12,13,14,15,16,17,18,19,20,21,22,23,24,25,26,27,28,29,30
Date,Revenue,Revenue Growth,Cost of Revenue,Gross Profit,R&D Expenses,SG&A Expense,Operating Expenses,Operating Income,Interest Expense,Earnings before Tax,Income Tax Expense,Net Income - Non-Controlling int,Net Income - Discontinued ops,Net Income,Preferred Dividends,Net Income Com,EPS,EPS Diluted,Weighted Average Shs Out,Weighted Average Shs Out (Dil),Dividend per Share,Gross Margin,EBITDA Margin,EBIT Margin,Profit Margin,Free Cash Flow margin,EBITDA,EBIT,Consolidated Income,Earnings Before Tax Margin,Net Profit Margin
2019-12-31,0.0,0.0,0.0,0.0,9824000.0,9265000.0,19752000.0,-19752000.0,900000.0,-19479000.0,0.0,0.0,0.0,-19479000.0,0.0,-19479000.0,-2.49,-2.55,7827197.0,8009909.0,0.0,0.0,0.0,0.0,0.0,0.0,-18401000.0,-19752000.0,-19479000.0,0.0,0.0
2018-12-31,0.0,-1.0,0.0,0.0,4892000.0,5702000.0,12524000.0,-12524000.0,0.0,-12438000.0,-328000.0,0.0,0.0,-12110000.0,0.0,-12110000.0,-0.64,-0.64,18980796.0,19059895.0,0.0,0.0,0.0,0.0,0.0,0.0,-12135000.0,-12524000.0,-12110000.0,0.0,0.0
2017-12-31,115000.0,-0.557692307692,0.0,0.0,2881000.0,7590000.0,16271000.0,-16156000.0,0.0,-14140000.0,-1302000.0,0.0,0.0,-12838000.0,0.0,-12838000.0,-2.01,-2.18,6387425.0,6574117.0,0.0,0.0,-137.234782609,-140.486956522,-111.634782609,-80.4347826087,-15782000.0,-16156000.0,-12838000.0,-122.956521739,-111.634782609
2016-12-31,260000.0,-0.45263157894699996,0.0,0.0,5678000.0,8413000.0,23638000.0,-23378000.0,6000.0,-19394000.0,-556000.0,0.0,0.0,-18838000.0,0.0,-18838000.0,-2.47,-2.47,9838455.0,9838455.0,0.00813135802319,0.0,-88.4961538462,-89.91538461540001,-72.4538461538,-41.8,-23009000.0,-23378000.0,-18838000.0,-74.5923076923,-72.4538461538
2015-12-31,475000.0,0.161369193154,0.0,0.0,3992000.0,6421000.0,10702000.0,-10227000.0,0.0,-589000.0,-73000.0,0.0,0.0,-516000.0,0.0,-516000.0,-1.99,-1.99,5411204.0,5411204.0,0.0,0.0,-20.8357894737,-21.5305263158,-1.0863157894700002,-21.0336842105,-9897000.0,-10227000.0,-516000.0,-1.24,-1.0863157894700002
2014-12-31,409000.0,4.04938271605,36000.0,373000.0,5805000.0,6850000.0,14519000.0,-14110000.0,0.0,0.0,0.0,0.0,0.0,23109000.0,0.0,23109000.0,0.12,0.07,187331969.0,323604642.0,0.0,0.9119804400980001,-34.1124694377,-34.4987775061,56.5012224939,-33.6772616137,-13952000.0,-14110000.0,23109000.0,0.0,56.5012224939
2013-12-31,81000.0,-0.8780120481929999,0.0,81000.0,6469000.0,5996000.0,12465000.0,-12384000.0,233000.0,-64583000.0,0.0,0.0,0.0,-64583000.0,618000.0,-65201000.0,-4479.998,-4479.998,,14457.0,0.0,1.0,-1.071,-794.4444,-1.672,-78.9383,-64268000.0,-64350000.0,-64583000.0,-797.321,-797.321
2012-12-31,664000.0,,0.0,664000.0,1480000.0,3208000.0,4688000.0,-4024000.0,339000.0,-1110000.0,0.0,0.0,0.0,-1110000.0,0.0,-1110000.0,-140.0,-140.0,,6862.0,0.0,1.0,,-1.1611,,-6.5271,-711000.0,-771000.0,-1110000.0,-1.6717,-1.6717
