,0,1,2,3,4,5,6,7,8,9,10,11,12,13,14,15,16,17,18,19,20,21,22,23,24,25,26,27,28,29,30
Date,Revenue,Revenue Growth,Cost of Revenue,Gross Profit,R&D Expenses,SG&A Expense,Operating Expenses,Operating Income,Interest Expense,Earnings before Tax,Income Tax Expense,Net Income - Non-Controlling int,Net Income - Discontinued ops,Net Income,Preferred Dividends,Net Income Com,EPS,EPS Diluted,Weighted Average Shs Out,Weighted Average Shs Out (Dil),Dividend per Share,Gross Margin,EBITDA Margin,EBIT Margin,Profit Margin,Free Cash Flow margin,EBITDA,EBIT,Consolidated Income,Earnings Before Tax Margin,Net Profit Margin
2019-12-31,10176000.0,0.00414446417999,0.0,0.0,0.0,38402000.0,38402000.0,37475000.0,21710000.0,47075000.0,9600000.0,0.0,0.0,37475000.0,0.0,37475000.0,2.51,2.5,14940000.0,14983000.0,1.01488353467,0.0,4.2234669811300005,3.6826847484300007,3.6826847484300007,3.5533608490599997,42978000.0,37475000.0,37475000.0,4.626080974840001,3.6826847484300007
2018-12-31,10134000.0,-0.869492987856,0.0,0.0,0.0,38788000.0,38788000.0,36279000.0,12485000.0,45305000.0,9026000.0,0.0,0.0,36279000.0,0.0,36279000.0,2.52,2.5,14408000.0,14488000.0,0.993166758697,0.0,4.04874679297,3.57992895204,3.57992895204,3.6385435168699996,41030000.0,36279000.0,36279000.0,4.47059403987,3.57992895204
2017-12-31,77651000.0,0.0851325479674,0.0,0.0,0.0,37166000.0,37166000.0,29326000.0,7006000.0,39855000.0,10529000.0,0.0,0.0,29326000.0,0.0,29326000.0,2.11,2.1,13893000.0,13986000.0,0.9723294723289999,0.0,0.447180332513,0.37766416401600006,0.37766416401600006,0.453632277756,34724000.0,29326000.0,29326000.0,0.513258039175,0.37766416401600006
2016-12-31,71559000.0,0.0854607508532,0.0,0.0,0.0,34330000.0,34330000.0,26534000.0,5356000.0,37749000.0,11215000.0,0.0,0.0,26534000.0,0.0,26534000.0,1.98,1.97,13391000.0,13476000.0,0.971504897596,0.0,0.453807347783,0.37079892116999996,0.37079892116999996,0.464707444207,32474000.0,26534000.0,26534000.0,0.5275227434699999,0.37079892116999996
2015-12-31,65925000.0,0.07907486823580001,0.0,0.0,0.0,33064000.0,33064000.0,24662000.0,4813000.0,35272000.0,10610000.0,0.0,0.0,24662000.0,0.0,24662000.0,1.91,1.91,12894000.0,12942000.0,0.9813011899240001,0.0,0.469548729617,0.374091770952,0.374091770952,0.414182783466,30955000.0,24662000.0,24662000.0,0.535032233599,0.374091770952
2014-12-31,61094000.0,0.0867724491248,0.0,0.0,0.0,30941000.0,30941000.0,23360000.0,5767000.0,33534000.0,10174000.0,0.0,0.0,23360000.0,0.0,23360000.0,1.85,1.85,12604000.0,12633000.0,0.982110345919,0.0,0.49762660817800003,0.382361606704,0.382361606704,0.477510066455,30402000.0,23360000.0,23360000.0,0.548891871542,0.382361606704
2013-12-31,56216000.0,-0.0210024032601,0.0,0.0,0.0,31182000.0,31182000.0,21795000.0,7922000.0,30874000.0,9079000.0,0.0,0.0,21795000.0,0.0,21795000.0,1.77,1.77,12296000.0,12327000.0,0.982315242963,0.0,0.5454852710970001,0.387701010389,0.387701010389,0.612636971681,30665000.0,21795000.0,21795000.0,0.5492030738579999,0.387701010389
2012-12-31,57422000.0,1.0,0.0,0.0,0.0,31703000.0,31703000.0,22179000.0,11957000.0,31840000.0,9661000.0,0.0,0.0,22179000.0,0.0,22179000.0,1.85,1.85,12007000.0,12017000.0,0.983190480153,0.0,0.540472292849,0.38624568980499996,0.38624568980499996,0.424697850998,31035000.0,22179000.0,22179000.0,0.554491309951,0.38624568980499996
2012-03-31,0.0,-1.0,0.0,0.0,0.0,0.0,0.0,0.0,0.0,0.0,0.0,0.0,0.0,0.0,0.0,0.0,0.0,0.0,0.0,0.0,0.0,0.0,0.0,0.0,0.0,0.0,0.0,0.0,0.0,0.0,0.0
2011-12-31,58112000.0,-0.265000505919,0.0,0.0,0.0,30205000.0,30205000.0,21933000.0,18679000.0,31647000.0,9714000.0,0.0,0.0,21933000.0,0.0,21933000.0,1.87,1.87,11735000.0,11747000.0,0.974546692773,0.0,0.489434196035,0.37742634911899997,0.37742634911899997,0.528513904185,28442000.0,21933000.0,21933000.0,0.544586316079,0.37742634911899997
2010-12-31,79064000.0,0.011384859416200002,0.0,79064000.0,0.0,45436000.0,47418000.0,31646000.0,0.0,31646000.0,9754000.0,0.0,0.0,21892000.0,0.0,21892000.0,1.5490000000000002,1.541,14101610.0,14136906.0,0.78,1.0,0.445,0.4003,0.27699999999999997,0.1233,35209000.0,31646000.0,21892000.0,0.4003,0.2769
2009-12-31,78174000.0,0.0883,0.0,78174000.0,0.0,43818000.0,46592000.0,31582000.0,0.0,31582000.0,9790000.0,0.0,0.0,21792000.0,0.0,21792000.0,1.5430000000000001,1.5430000000000001,14248782.0,14093143.0,0.757,1.0,0.44,0.40399999999999997,0.27899999999999997,0.2319,34395000.0,31582000.0,21792000.0,0.40399999999999997,0.2788
