,0,1,2,3,4,5,6,7,8,9,10,11,12,13,14,15,16,17,18,19,20,21,22,23,24,25,26,27,28,29,30
Date,Revenue,Revenue Growth,Cost of Revenue,Gross Profit,R&D Expenses,SG&A Expense,Operating Expenses,Operating Income,Interest Expense,Earnings before Tax,Income Tax Expense,Net Income - Non-Controlling int,Net Income - Discontinued ops,Net Income,Preferred Dividends,Net Income Com,EPS,EPS Diluted,Weighted Average Shs Out,Weighted Average Shs Out (Dil),Dividend per Share,Gross Margin,EBITDA Margin,EBIT Margin,Profit Margin,Free Cash Flow margin,EBITDA,EBIT,Consolidated Income,Earnings Before Tax Margin,Net Profit Margin
2018-12-31,20157430.0,1.0,0.0,20157430.0,17852756.0,13485918.0,31338674.0,-11181244.0,-778215.0,-10396635.0,0.0,0.0,0.0,-10396635.0,0.0,-10396635.0,-0.31,-0.31,40588004.0,33930846.0,0.0,1.0,-0.552,-0.5544,-0.516,-0.29,-11128164.0,-11174850.0,-10396635.0,-0.5158,-0.5158
2017-12-31,0.0,0.0,0.0,0.0,12147132.0,9241411.0,21388543.0,-21388543.0,105782.0,-21400606.0,0.0,0.0,0.0,-21400606.0,943297.0,-22343903.0,-1.03,-1.03,27070038.0,21673349.0,0.0,0.0,,0.0,,0.0,-21243556.0,-21294824.0,-21400606.0,0.0,0.0
2016-12-31,0.0,0.0,0.0,0.0,11367590.0,5265995.0,16633585.0,-16633585.0,482204.0,-16983511.0,0.0,0.0,0.0,-16983511.0,3928577.0,-20912088.0,-24.52,-24.52,5000000.0,852665.0,0.0,0.0,,0.0,,0.0,-16431634.0,-16501307.0,-16983511.0,0.0,0.0
2015-12-31,0.0,,0.0,0.0,0.0,23006.0,23006.0,-23006.0,8434.0,-31440.0,0.0,0.0,0.0,-31440.0,0.0,-31440.0,-0.01,-0.01,27070000.0,5000000.0,0.0,0.0,,0.0,,0.0,-23006.0,-23006.0,-31440.0,0.0,0.0
