,0,1,2,3,4,5,6,7,8,9,10,11,12,13,14
Date,Depreciation & Amortization,Stock-based compensation,Operating Cash Flow,Capital Expenditure,Acquisitions and disposals,Investment purchases and sales,Investing Cash flow,Issuance (repayment) of debt,Issuance (buybacks) of shares,Dividend payments,Financing Cash Flow,Effect of forex changes on cash,Net cash flow / Change in cash,Free Cash Flow,Net Cash/Marketcap
2018-12-31,0.0,2397000.0,75223000.0,0.0,-0.0,370988000.0,748652000.0,-0.0,38014000.0,-97024000.0,-591676000.0,0.0,232199000.0,75223000.0,0.0
2017-12-31,-44838000.0,937000.0,110079000.0,0.0,-0.0,-5038208000.0,-896803000.0,-0.0,133193000.0,-89409000.0,780183000.0,0.0,-6541000.0,110079000.0,0.0
2016-12-31,-77827000.0,881000.0,-203426000.0,0.0,-73174000.0,-878467000.0,5668200000.0,-0.0,-14658000.0,-111011000.0,-5482926000.0,0.0,-18152000.0,-203426000.0,0.0
2015-12-31,-109589000.0,953000.0,238255000.0,0.0,-0.0,-3379994000.0,2196108000.0,-0.0,-144795000.0,-167142000.0,-2638999000.0,0.0,-204636000.0,238255000.0,0.0
2014-12-31,-82965000.0,1153000.0,315100000.0,0.0,-0.0,-10704454000.0,-796476000.0,-0.0,-5487000.0,-215163000.0,479459000.0,0.0,-1917000.0,315100000.0,0.0
2013-12-31,0.0,1516000.0,370438000.0,0.0,-0.0,-53012000.0,4335491000.0,-0.0,385554000.0,-292592000.0,-4980733000.0,0.0,-274804000.0,370438000.0,0.0
2012-12-31,0.0,741000.0,343681000.0,0.0,-0.0,0.0,-14129372000.0,-0.0,726951000.0,-269503000.0,14304601000.0,0.0,518910000.0,343681000.0,0.0
2011-12-31,34806590.0,145230.0,118071607.0,0.0,-0.0,0.0,-4739856110.0,-0.0,309449512.0,-87295603.0,4838813041.0,0.0,217028538.0,118071607.0,0.0
2010-12-31,0.0,0.0,9165000.0,0.0,0.0,-986589000.0,-990970000.0,925287000.0,94117000.0,-8908000.0,1010496000.0,0.0,28691000.0,9165000.0,0.3576
2009-12-31,0.0,0.0,-2606826.0,0.0,0.0,-60137174.0,-60436454.0,46388602.0,-226478058.0,-23368.0,69694525.0,0.0,6651245.0,-2606826.0,0.3576
