,0,1,2,3,4,5,6,7,8,9,10,11,12,13,14
Date,Depreciation & Amortization,Stock-based compensation,Operating Cash Flow,Capital Expenditure,Acquisitions and disposals,Investment purchases and sales,Investing Cash flow,Issuance (repayment) of debt,Issuance (buybacks) of shares,Dividend payments,Financing Cash Flow,Effect of forex changes on cash,Net cash flow / Change in cash,Free Cash Flow,Net Cash/Marketcap
2019-11-30,1003541.0,195416.0,807753.0,447025.0,-0.0,-19323.0,452688.0,-314485.0,-19323.0,-0.0,-1260808.0,0.0,-367.0,360728.0,0.0
2018-11-30,960606.0,197243.0,-1118612.0,434505.0,-0.0,-21310.0,707047.0,-219429.0,-21310.0,-0.0,202677.0,0.0,-208888.0,-1553117.0,0.0
2017-11-30,702349.0,113039.0,747399.0,513614.0,-0.0,-6425.0,-429197.0,-2825148.0,-6425.0,-0.0,-1169518.0,0.0,-851316.0,233785.0,0.0
2016-11-30,671967.0,79979.0,2381776.0,274089.0,-0.0,0.0,916546.0,-1911506.0,-1063716.0,-0.0,-2681837.0,0.0,1063716.0,2107687.0,0.0
2015-11-30,929180.0,28484.0,285035.0,292543.0,-0.0,0.0,-253637.0,-1283897.0,-447334.0,-202432.0,-95779.0,0.0,447334.0,-7508.0,0.0
2014-11-30,906702.0,14504.0,1941805.0,633078.0,-0.0,0.0,-617208.0,-1247697.0,-511716.0,-0.0,-1020831.0,0.0,511716.0,1308727.0,0.0
2013-11-30,704457.0,29812.0,-2344.0,842124.0,-311346.0,0.0,-3342839.0,-1213550.0,-207950.0,-404655.0,2006524.0,0.0,207950.0,-844468.0,0.0
2012-11-30,852910.0,34519.0,5004271.0,799598.0,-3003565.0,0.0,-3803163.0,-869987.0,-1546605.0,-403585.0,226573.0,0.0,1546605.0,4204673.0,0.0
2011-11-30,780169.0,58311.0,2368086.0,859324.0,-0.0,0.0,-1092185.0,-0.0,0.0,-241551.0,-1474080.0,0.0,-198179.0,1508762.0,0.0
2010-11-30,715885.0,28322.0,3593512.0,-2043284.0,-1586060.0,0.0,-3948435.0,443588.0,81240.0,-240020.0,284808.0,0.0,-70115.0,1550228.0,-0.2317
2009-11-30,656118.0,118537.0,1547696.0,-379737.0,0.0,0.0,-379737.0,-660210.0,15440.0,-239421.0,-884191.0,0.0,283768.0,1167959.0,-0.5402
