,0,1,2,3,4,5,6,7,8,9,10,11,12,13,14,15,16,17,18,19,20,21,22,23,24,25,26,27,28
Date,Cash and cash equivalents,Short-term investments,Cash and short-term investments,Receivables,Inventories,Total current assets,Property Plant & Equipment Net,Goodwill and Intangible Assets,Long-term investments,Tax assets,Total non-current assets,Total assets,Payables,Short-term debt,Total current liabilities,Long-term debt,Total debt,Deferred revenue,Tax Liabilities,Deposit Liabilities,Total non-current liabilities,Total liabilities,Other comprehensive income,Retained earnings (deficit),Total shareholders equity,Investments,Net Debt,Other Assets,Other Liabilities
2019-12-31,9211057.0,271661456.0,280872513.0,0.0,0.0,290880635.0,8455411.0,0.0,0.0,1400000.0,10760791.0,301641426.0,4556827.0,673896.0,32813152.0,2000000.0,2673896.0,19979525.0,0.0,0.0,78855764.0,74955145.0,599097090.0,-372556846.0,226686281.0,271661456.0,-6537161.0,0.0,0.0
2018-12-31,3190056.0,184637640.0,187827696.0,2775831.0,0.0,195677779.0,3583036.0,0.0,0.0,1100000.0,3603796.0,199281575.0,2758184.0,154461.0,22979878.0,2000000.0,2154461.0,16065957.0,0.0,0.0,77119428.0,62614592.0,439118089.0,-302264619.0,136666983.0,184637640.0,-1035595.0,0.0,0.0
2017-12-31,30933151.0,8258982.0,39192133.0,26040452.0,0.0,65528728.0,1298881.0,0.0,0.0,0.0,1319641.0,66848369.0,596527.0,159265.0,17854864.0,151122.0,310387.0,62098761.0,0.0,0.0,48747635.0,66602499.0,-9751.0,-62417397.0,-61234562.0,8258982.0,-38881746.0,296143.0,17099072.0
2016-12-31,5109308.0,30468703.0,35578011.0,1410182.0,0.0,37282274.0,633848.0,0.0,0.0,0.0,654608.0,37936882.0,1566006.0,141212.0,10034254.0,312575.0,453787.0,10177637.0,0.0,0.0,3871528.0,13905782.0,-28679.0,-33797760.0,-32878901.0,30468703.0,-35124224.0,294081.0,8327036.0
