,0,1,2,3,4,5,6,7,8,9,10,11,12,13,14,15,16,17,18,19,20,21,22,23,24,25,26,27,28,29,30
Date,Revenue,Revenue Growth,Cost of Revenue,Gross Profit,R&D Expenses,SG&A Expense,Operating Expenses,Operating Income,Interest Expense,Earnings before Tax,Income Tax Expense,Net Income - Non-Controlling int,Net Income - Discontinued ops,Net Income,Preferred Dividends,Net Income Com,EPS,EPS Diluted,Weighted Average Shs Out,Weighted Average Shs Out (Dil),Dividend per Share,Gross Margin,EBITDA Margin,EBIT Margin,Profit Margin,Free Cash Flow margin,EBITDA,EBIT,Consolidated Income,Earnings Before Tax Margin,Net Profit Margin
2019-09-30,168795577.0,9.456710469330002,0.0,0.0,81048686.0,26556257.0,107604943.0,61190634.0,0.0,68148402.0,173553.0,0.0,0.0,67974849.0,0.0,67974849.0,0.72,0.69,93858857.0,98607815.0,0.0,0.0,0.38247867122699997,0.36251325471600004,0.40270515500500004,0.954016099604,64560708.0,61190634.0,67974849.0,0.403733339529,0.40270515500500004
2018-09-30,16142321.0,-0.486039526156,0.0,0.0,52968505.0,19110051.0,72078556.0,-55936235.0,0.0,-54448078.0,2400.0,0.0,0.0,-54450478.0,0.0,-54450478.0,-0.65,-0.65,83638469.0,83638469.0,0.0,0.0,-3.1978074900099998,-3.46519159172,-3.37315049056,-3.0134866603099995,-51620035.0,-55936235.0,-54450478.0,-3.37300181306,-3.37315049056
2017-09-30,31407709.0,197.364895505,0.0,0.0,31690298.0,6838402.0,68403618.0,-36995909.0,0.0,-34377895.0,2400.0,0.0,0.0,-34380295.0,0.0,-34380295.0,-0.47,-0.47,73898598.0,73898598.0,0.0,0.0,-1.02719844991,-1.17792447071,-1.0946451076700001,-1.01431053121,-32261950.0,-36995909.0,-34380295.0,-1.09456869331,-1.0946451076700001
2016-09-30,158333.0,-0.5855157068060001,0.0,0.0,41454452.0,9940737.0,81901059.0,-81742726.0,0.0,-81720602.0,2400.0,0.0,0.0,-81723002.0,0.0,-81723002.0,-1.34,-1.34,61050880.0,61050880.0,0.0,0.0,-494.216486772,-516.270935307,-516.146362413,-431.291790088,-78250779.0,-81742726.0,-81723002.0,-516.131204487,-516.146362413
2015-09-30,382000.0,1.1828571428599999,0.0,0.0,47267361.0,7931184.0,96355976.0,-95973976.0,0.0,-91938482.0,2400.0,0.0,0.0,-91940882.0,0.0,-91940882.0,-1.6,-1.6,57358442.0,57358442.0,0.0,0.0,-242.21791884799998,-251.240774869,-240.682937173,-177.16813350799998,-92527245.0,-95973976.0,-91940882.0,-240.67665445,-240.682937173
2014-09-30,175000.0,-0.39710472463200003,0.0,0.0,23138050.0,5894008.0,53451286.0,-53276286.0,0.0,-58720112.0,5300.0,0.0,0.0,-58630190.0,0.0,-58630190.0,-1.25,-1.25,46933030.0,46933030.0,0.0,0.0,-292.209965714,-304.43592,-335.029657143,-212.192771429,-51136744.0,-53276286.0,-58630190.0,-335.54349714299997,-335.029657143
2013-09-30,290266.0,0.976279148936,0.0,0.0,8705627.0,3488864.0,24879542.0,-24589276.0,0.0,-31703079.0,0.0,0.0,0.0,-31143289.0,0.0,-31143289.0,-1.3,-1.3,24002224.0,24002224.0,0.0,0.0,-78.23671391069999,-84.712904715,-107.29223884299999,-66.59307669520001,-22709458.0,-24589276.0,-31143289.0,-109.22078025,-107.29223884299999
2012-09-30,146875.0,-0.504033578826,0.0,0.0,5391463.0,6439323.0,21236086.0,-21089211.0,0.0,-22110643.0,0.0,0.0,0.0,-21125928.0,0.0,-21125928.0,-1.9,-1.9,11129766.0,11129766.0,0.0,0.0,-131.614270638,-143.58611744700002,-143.836105532,-107.70927659600001,-19330846.0,-21089211.0,-21125928.0,-150.540548085,-143.836105532
2011-09-30,296139.0,1.0,0.0,0.0,3277760.0,3821550.0,10126405.0,-9830266.0,0.0,-8785008.0,0.0,0.0,0.0,-3128885.0,0.0,-3128885.0,-0.44,-0.4,7181121.0,7830407.0,0.0,0.0,-32.3166722384,-33.1947700235,-10.5655958857,-25.8853680197,-9570227.0,-9830266.0,-3128885.0,-29.665150486799998,-10.5655958857
2010-09-30,0.0,-1.0,0.0,0.0,529601.0,3637119.0,5832821.0,-5832821.0,22783.0,-5774048.0,0.0,-1182990.0,2645051.0,-5774048.0,0.0,-5774048.0,-0.9,-0.9,7093801.0,6434245.0,0.0,0.0,,0.0,,0.0,-5473615.0,-5751265.0,-6957038.0,0.0,0.0
2009-09-30,3758147.0,1.8838,0.0,3758147.0,8892516.0,14038541.0,23318152.0,-19560005.0,155560.0,-19308392.0,0.0,-60.0,163962.0,-19308392.0,0.0,-19308392.0,-4.3,-4.3,5540023.0,4516902.0,0.0,1.0,,-5.0963,,-4.0548,-18158228.0,-19152832.0,-19308452.0,-5.1377,-5.1377
