,0,1,2,3,4,5,6,7,8,9,10,11,12,13,14
Date,Depreciation & Amortization,Stock-based compensation,Operating Cash Flow,Capital Expenditure,Acquisitions and disposals,Investment purchases and sales,Investing Cash flow,Issuance (repayment) of debt,Issuance (buybacks) of shares,Dividend payments,Financing Cash Flow,Effect of forex changes on cash,Net cash flow / Change in cash,Free Cash Flow,Net Cash/Marketcap
2018-12-31,235410.0,1289737.0,-39723402.0,-23083157.0,0.0,0.0,-23094290.0,4060357.0,42228000.0,0.0,40899491.0,0.0,-21664310.0,-62806559.0,0.1294
2017-12-31,200918.0,1126595.0,-34479995.0,-300276.0,0.0,0.0,-336444.0,228514.0,33060951.0,0.0,33289465.0,0.0,-1163837.0,-34780271.0,5.0479
2017-04-05,65874.0,1126595.0,-34116858.0,-300276.0,0.0,0.0,-336444.0,228514.0,33060951.0,0.0,33289465.0,0.0,-1163837.0,-34417134.0,5.0479
2016-12-31,52000.0,1419923.0,-5798335.0,-455002.0,0.0,0.0,-523476.0,-376968.0,22223869.0,0.0,30987363.0,0.0,24674739.0,-6253337.0,5.0479
2016-04-05,,1419923.0,-5751112.0,-455002.0,0.0,0.0,-523476.0,-376968.0,22223869.0,0.0,30987363.0,0.0,24674739.0,-6206114.0,
2015-12-31,,,-11757000.0,-34000.0,,,-43000.0,49582000.0,0.0,0.0,34686000.0,-472000.0,22414000.0,,
