,0,1,2,3,4,5,6,7,8,9,10,11,12,13,14,15,16,17,18,19,20,21,22,23,24,25,26,27,28
Date,Cash and cash equivalents,Short-term investments,Cash and short-term investments,Receivables,Inventories,Total current assets,Property Plant & Equipment Net,Goodwill and Intangible Assets,Long-term investments,Tax assets,Total non-current assets,Total assets,Payables,Short-term debt,Total current liabilities,Long-term debt,Total debt,Deferred revenue,Tax Liabilities,Deposit Liabilities,Total non-current liabilities,Total liabilities,Other comprehensive income,Retained earnings (deficit),Total shareholders equity,Investments,Net Debt,Other Assets,Other Liabilities
2018-12-31,2408888.8889,0.0,2408888.8889,3030370.3704,6837777.7778,16997777.7778,63351111.1111,0.0,86666.6667,3957777.7778,63437777.7778,80435555.5556,4475555.5556,1840000.0,7289629.6296,5306666.6667,7146666.6667,424444.4444,3014814.8148,0.0,17465925.9259,24755555.5556,-4536296.2963,-12225925.9259,55680000.0,86666.6667,4737777.7778,4559854.8845,974074.074
2017-12-31,2686567.1642,785545.9544,3472113.1186,3641005.4988,7150039.2773,20888452.4745,59305577.3763,0.0,587588.3739,5003142.1838,59893165.7502,80781618.2247,2905734.4855,4684996.0723,8003142.1838,4947368.4211,9632364.4933,0.0,3985074.6269,0.0,18574234.0927,26577376.2765,-3199528.6724,-14828750.9819,54204241.9482,1373134.3284,,,412411.626
2017-01-01,8751857.3551,7429420.5052,16181277.8603,4887815.7504,4312035.6612,26098068.3507,43735512.63,0.0,20059.4354,2625744.0476,43901041.6667,69933878.1575,2768202.0802,4193164.9331,8782317.9792,4352154.5319,10650297.618999999,0.0,4095982.1429,0.0,15264880.9524,24024517.0877,-4803571.4286,-16001485.8841,45909361.0698,-7429420.5052,,,1820950.9659
2016-12-31,8764880.9524,7440476.1905,16205357.1429,2269345.2381,4318452.381,26136904.7619,43800595.2381,0.0,100446.4286,1595046.9993,35157621.8366,70037946.4286,2920386.9048,5267113.0952,8795386.9048,5383184.5238,9882277.6573,0.0,3157738.9732,0.0,11158968.9082,24060267.8571,-4599359.3637,-16025297.619,45977678.5714,7540922.619,,,607886.9048
2016-01-01,3890167.8191,0.0,3890167.8191,3530153.414,2400272.9761,10433150.3889,34925014.4051,0.0,20146.2115,1427381.2392,41585302.926,45454031.258999996,2174588.015,3476815.0389,7308815.1829,4222252.953,2839359.7246,0.0,5705797.7625,0.0,8510850.2582,18424382.7427,1438906.1962,-16987028.2339,27029648.5163,-7202535.2924,,,1657412.129
2015-12-31,3905357.1945,0.0,3905357.1945,1948890.094,2409644.9747,10473887.2017,35061381.0557,0.0,96240.7809,288628.7594,24817042.2932,45631509.0383,2296879.248,4439020.9689,7337352.8561,5443256.6884,1575960.5263,0.0,4630335.5263,0.0,7339328.0075,18496321.7643,202706.7669,-17053355.0253,27135187.274,96240.7809,,,601452.6392
2015-06-30,9079085.2558,0.0,9079085.2558,118463.3902,,,,,,,,,,,,0.0,,,,,,,,-24412626.8806,,,,,
2014-12-31,5515000.0,0.0,5515000.0,14000.0,3273787.4355,11268524.0964,41379288.296,0.0,206014.6299,197362.173,19468365.1911,52853827.0224,3606464.716,1112156.6265,5573277.1084,0.0,236370.2213,0.0,2379956.7404,0.0,2784254.5272,14084127.3666,-332204.2254,12845000.0,38769699.6558,206014.6299,,,854655.7659
2014-06-30,2700470.4198,0.0,2700470.4198,0.0,,,,,,,,,,,,0.0,,,,,,,,-22843730.915999997,,,,,
2013-12-31,3657309.8107,0.0,3657309.8107,2210734.0792,1742921.0526,7656872.1805,24671797.9323,0.0,145244.3609,223894.3249,19186122.3092,32473914.4737,1473477.4436,550606.203,2064071.4286,1727203.0981,0.0,0.0,0.0,0.0,2345749.5108,9403399.4361,-256751.4677,-22310117.0396,23070515.0376,145244.3609,,,39987.782
2012-12-31,3530000.0,2603000.0,6133000.0,593000.0,2239275.6539,6881341.0463,19252195.171,0.0,216170.0201,234391.1735,17191816.4493,26349706.2374,1328431.5895,157162.9779,1485594.5674,0.0,0.0,0.0,0.0,0.0,2024931.7954,4269849.0946,-346127.3821,10830000.0,22079857.1429,216170.0201,,,0.0
2011-12-31,3608641.9173,0.0,3608641.9173,1345658.8346,0.0,6387610.5675,18882899.2172,0.0,303223.092,84997.1374,15316171.7557,25573732.8767,787416.8297,0.0,787416.8297,1025354.3233,0.0,0.0,0.0,0.0,1899980.916,3133166.3405,0.0,-26788030.0752,22440566.5362,303223.092,,,0.0
2010-12-31,4060347.0825,0.0,4060347.0825,256232.3944,0.0,9466676.0281,16667383.1494,0.0,524433.2999,,,26658492.4774,645807.4223,0.0,645807.4223,79207.2435,,,,,,2670739.2177,,-29636135.8149,23987753.2598,524433.2999,,,0.0
2009-12-31,5168751.4677,0.0,5168751.4677,858068.4932,0.0,2833125.9542,15116232.8244,0.0,199938.9313,,,18149297.7099,523266.2214,0.0,523266.2214,0.0,,,,,,2423247.1374,,-27710118.3953,15726050.5725,199938.9313,,,0.0
