,0,1,2,3,4,5,6,7,8,9,10,11,12,13,14,15,16,17,18,19,20,21,22,23,24,25,26,27,28,29,30
Date,Revenue,Revenue Growth,Cost of Revenue,Gross Profit,R&D Expenses,SG&A Expense,Operating Expenses,Operating Income,Interest Expense,Earnings before Tax,Income Tax Expense,Net Income - Non-Controlling int,Net Income - Discontinued ops,Net Income,Preferred Dividends,Net Income Com,EPS,EPS Diluted,Weighted Average Shs Out,Weighted Average Shs Out (Dil),Dividend per Share,Gross Margin,EBITDA Margin,EBIT Margin,Profit Margin,Free Cash Flow margin,EBITDA,EBIT,Consolidated Income,Earnings Before Tax Margin,Net Profit Margin
2018-12-31,12162068.9655,5.621570881139999,0.0,12162068.9655,161242528.7356,28801149.4253,190043678.1609,-177881609.1954,145977.0115,-149989655.1724,-452873.5632,0.0,0.0,-149536781.6092,0.0,-149536781.6092,-3.6437,-3.6437,42510680.4598,47224410.3448,0.0,1.0,-14.0655,-12.3206,-14.1322,-13.3683,-148832183.908,-149843678.1609,-149536781.6092,-12.3326,-12.2953
2017-12-31,1836734.6939,-0.621168484755,0.0,1836734.6939,119554621.8487,16184873.9496,135739495.7983,-133902761.1044,16513805.5222,-149308523.4094,-572629.0516,0.0,0.0,-148735894.3577,0.0,-148735894.3577,-4.4178,-4.4178,38920913.5654,40367713.0852,0.0,1.0,-86.2185,-72.2993,-97.2125,-62.7712,-131913565.4262,-132794717.8872,-148735894.3577,-81.2902,-80.9784
2016-12-31,4848421.0526,-0.449938927147,0.0,4848421.0526,69496842.1053,12109473.6842,81606315.7895,-76757894.7368,3275789.4737,-72349473.6842,-238947.3684,0.0,0.0,-72110526.3158,0.0,-72110526.3158,-2.7158,-2.7158,26450781.0526,27962541.0526,0.0,1.0,-14.8421,-14.2466,-15.6558,-13.2112,-68361052.6316,-69073684.2105,-72110526.3158,-14.9223,-14.873
2015-12-31,8814332.2476,-0.479322145712,0.0,8814332.2476,44004343.1053,10222584.1477,54226927.253,-45412595.0054,3036916.3952,-36453854.506,-707926.1672,0.0,0.0,-35745928.3388,0.0,-35745928.3388,-1.5092,-1.5092,18388469.0554,25805410.4235,0.0,1.0,-4.0413,-3.7912,-4.4028,-5.4823,-32811074.9186,-33416938.1107,-35745928.3388,-4.1357,-4.0554
2014-12-31,16928571.4286,-0.396948675589,0.0,16928571.4286,23847457.6271,7595641.6465,31443099.2736,-14514527.845,276029.0557,-12518159.8063,-825665.8596,0.0,0.0,-11692493.9467,0.0,-11692493.9467,-1.0291,-1.0291,26556634.3826,13809841.4044,0.0,1.0,-0.8317,-0.7232,-0.8366,-1.3451,-11631961.2591,-12242130.7506,-11692493.9467,-0.7395,-0.6907
2013-12-31,28071526.8226,0.365476309538,0.0,28071526.8226,17486932.5997,3323246.2173,20810178.8171,7261348.0055,1006877.5791,6471801.9257,861072.9023,0.0,0.0,5610729.0234,0.0,5610729.0234,0.5227,0.4402,30173012.3796,14858250.3439,0.0,1.0,0.3934,0.2664,0.2751,0.2506,8035763.4113,7478679.5048,5610729.0234,0.2305,0.1999
2012-12-31,20558047.4934,,0.0,20558047.4934,15013192.6121,3548812.6649,18562005.277,1996042.2164,306068.6016,1695250.6596,46174.1425,0.0,0.0,1649076.5172,0.0,1649076.5172,0.1847,0.1847,,11092765.1715,0.0,1.0,0.1649,0.0973,0.1055,-0.0605,2562005.277,2001319.2612,1649076.5172,0.0825,0.0802
