,0,1,2,3,4,5,6,7,8,9,10,11,12,13,14,15,16,17,18,19,20,21,22,23,24,25,26,27,28,29,30
Date,Revenue,Revenue Growth,Cost of Revenue,Gross Profit,R&D Expenses,SG&A Expense,Operating Expenses,Operating Income,Interest Expense,Earnings before Tax,Income Tax Expense,Net Income - Non-Controlling int,Net Income - Discontinued ops,Net Income,Preferred Dividends,Net Income Com,EPS,EPS Diluted,Weighted Average Shs Out,Weighted Average Shs Out (Dil),Dividend per Share,Gross Margin,EBITDA Margin,EBIT Margin,Profit Margin,Free Cash Flow margin,EBITDA,EBIT,Consolidated Income,Earnings Before Tax Margin,Net Profit Margin
2018-12-31,35494000.0,-0.0018840864992500002,0.0,0.0,0.0,24358000.0,24358000.0,7768000.0,11600000.0,0.0,1614000.0,0.0,0.0,7768000.0,0.0,7768000.0,0.43,0.43,17933000.0,18037000.0,0.0746798248046,0.0,0.26615766045,0.218853890798,0.218853890798,0.224939426382,9447000.0,7768000.0,7768000.0,0.0,0.218853890798
2017-12-31,35561000.0,0.041805824105,0.0,0.0,0.0,24127000.0,24127000.0,3293000.0,8795000.0,0.0,5347000.0,0.0,0.0,3293000.0,0.0,3293000.0,0.18,0.18,18498000.0,18600000.0,0.0598387096774,0.0,0.145074660443,0.09260144540370001,0.09260144540370001,0.21599505075800002,5159000.0,3293000.0,3293000.0,0.0,0.09260144540370001
2016-12-31,34134000.0,-0.0346992449309,0.0,0.0,0.0,24034000.0,24034000.0,3207000.0,7735000.0,3207000.0,897000.0,0.0,0.0,2310000.0,15000.0,2310000.0,0.12,0.12,18896000.0,18955000.0,0.0498549195463,0.0,0.140387883049,0.09395324310070001,0.0676744594832,0.195347747114,4792000.0,3207000.0,2310000.0,0.09395324310070001,0.0676744594832
2015-12-31,35361000.0,-0.263189698283,0.0,0.0,0.0,24042000.0,24042000.0,5997000.0,6520000.0,0.0,2343000.0,0.0,0.0,5997000.0,210000.0,5997000.0,0.31,0.31,18863000.0,18933000.0,0.0398246448001,0.0,0.22725601651500002,0.16959362009,0.16959362009,0.278046435338,8036000.0,5997000.0,5997000.0,0.0,0.16959362009
2014-12-31,47992000.0,1.0,0.0,47992000.0,0.0,35986000.0,43371000.0,4621000.0,0.0,4621000.0,1598000.0,0.0,0.0,3023000.0,210000.0,2813000.0,0.15,0.15,18794888.0,18793000.0,0.04,1.0,0.135,0.0963,0.059000000000000004,0.0676,6457000.0,4621000.0,3023000.0,0.0963,0.063
2013-12-31,0.0,0.0,0.0,0.0,0.0,0.0,0.0,0.0,0.0,0.0,0.0,0.0,0.0,0.0,0.0,0.0,0.0,0.0,0.0,0.0,0.0,0.0,0.0,0.0,0.0,0.0,0.0,0.0,0.0,0.0,0.0
2012-12-31,0.0,-1.0,0.0,0.0,0.0,0.0,0.0,0.0,0.0,0.0,0.0,0.0,0.0,0.0,0.0,0.0,0.0,0.0,0.0,0.0,0.0,0.0,0.0,0.0,0.0,0.0,0.0,0.0,0.0,0.0,0.0
2011-12-31,32283000.0,-0.213741201685,0.0,0.0,0.0,22616000.0,22616000.0,9390000.0,9681000.0,9390000.0,2853000.0,0.0,0.0,6537000.0,1385000.0,6537000.0,0.24,0.24,21184000.0,21205000.0,0.0497052581938,0.0,0.320973887185,0.29086516123000006,0.20249047486299998,0.334355543165,10362000.0,9390000.0,6537000.0,0.29086516123000006,0.20249047486299998
2010-12-31,41059000.0,0.315487632962,0.0,41059000.0,0.0,31333000.0,39697000.0,1362000.0,0.0,1362000.0,80000.0,0.0,0.0,1282000.0,1161000.0,121000.0,0.01,0.01,21223942.0,21224000.0,0.0,1.0,0.07,0.0332,0.003,-0.0008,2858000.0,1362000.0,1282000.0,0.0332,0.0312
2009-12-31,31212000.0,-0.2676,0.0,31212000.0,0.0,29999000.0,39157000.0,-7945000.0,0.0,-7945000.0,-3050000.0,0.0,0.0,-4895000.0,1158000.0,-6053000.0,-0.29,-0.29,21217865.0,21172000.0,0.0,1.0,-0.204,-0.2545,-0.19399999999999998,-0.0929,-6359000.0,-7945000.0,-4895000.0,-0.2545,-0.1568
