,0,1,2,3,4,5,6,7,8,9,10,11,12,13,14
Date,Depreciation & Amortization,Stock-based compensation,Operating Cash Flow,Capital Expenditure,Acquisitions and disposals,Investment purchases and sales,Investing Cash flow,Issuance (repayment) of debt,Issuance (buybacks) of shares,Dividend payments,Financing Cash Flow,Effect of forex changes on cash,Net cash flow / Change in cash,Free Cash Flow,Net Cash/Marketcap
2018-12-31,1395062189.5425,7047320.2614,1971161176.4706,0.0,0.0,0.0,0.0,0.0,0.0,0.0,2716059019.6078,0.0,177789869.281,1971161176.4706,
2017-12-31,983339528.6195,14773232.3232,1747992053.8721,0.0,0.0,0.0,0.0,0.0,0.0,0.0,-650620437.7104,0.0,258772457.9125,1747992053.8721,
2016-12-31,913953698.2478,14600341.1382,1709340579.9349,0.0,0.0,0.0,0.0,0.0,0.0,0.0,-653962474.8023,0.0,-522830113.1958,1709340579.9349,
2015-12-31,896978455.7416,4056519.4931,1915802424.8686,-927655899.6019,-1083992129.8125,96835516.1202,-1925048740.4661,574693761.585,-123015102.2517,-464841654.2587,262430915.555,0.0,108078975.3563,988146525.2666,
2014-12-31,830914010.0274,3473559.7389,1446204301.0753,-1247886450.3516,-3153280.9889,-96209283.2592,-1224037114.1172,-133412953.6783,47246964.967,-314294295.7147,-88197363.8571,0.0,210262006.1174,198317850.7237,
2013-12-31,852868273.8992,8732663.6531,1382754227.3564,-974528143.3116,-8383961.1585,-15626117.5289,-1002037267.7047,545296701.8249,149501222.1664,-262343110.6647,428423606.22800004,0.0,838200401.8081,408226084.0449,
2012-12-31,806798368.2181,18502513.0818,1137359508.3999,-1342135017.9014,-9006024.5112,-125700117.0476,-1508463508.6753,302639768.6588,10867873.8639,-146039899.4767,291095944.6433,-56783771.6882,-136791827.3203,-204775509.5015,
2011-12-31,757598837.7852,17762505.3653,1054469112.1603,-928645755.6047,-69541486.4463,8164129.8247,-1057572456.8297,189759930.003,-72087298.1807,0.0,-11312906.5276,48233796.6784,33817545.4816,125823356.5556,
2010-12-31,681300974.5385,10951444.6503,1268447395.5116,-1161488676.1375,-212119380.9622,152941699.2657,-1238262816.5534,139994887.1045,-23533079.4043,0.0,58384977.0091,-59743016.9515,28826539.0159,106958719.3741,
2009-12-31,551621016.4191,0.0,485292509.7733,-355043158.7177,0.0,-120505926.5051,-499787802.9711,19717685.6919,-33635152.4629,0.0,-86897544.957,-10614542.6114,-112007380.7662,130249351.0555,
