,0,1,2,3,4,5,6,7,8,9,10,11,12,13,14,15,16,17,18,19,20,21,22,23,24,25,26,27,28,29,30
Date,Revenue,Revenue Growth,Cost of Revenue,Gross Profit,R&D Expenses,SG&A Expense,Operating Expenses,Operating Income,Interest Expense,Earnings before Tax,Income Tax Expense,Net Income - Non-Controlling int,Net Income - Discontinued ops,Net Income,Preferred Dividends,Net Income Com,EPS,EPS Diluted,Weighted Average Shs Out,Weighted Average Shs Out (Dil),Dividend per Share,Gross Margin,EBITDA Margin,EBIT Margin,Profit Margin,Free Cash Flow margin,EBITDA,EBIT,Consolidated Income,Earnings Before Tax Margin,Net Profit Margin
2018-12-31,282300000.0,-0.345011600928,0.0,0.0,0.0,23900000.0,23900000.0,37400000.0,0.0,37400000.0,200000.0,0.0,0.0,36800000.0,8300000.0,36800000.0,0.33,0.29,112000000.0,141800000.0,0.058533145275,0.0,0.462274176408,0.132483173928,0.130357775416,0.480694296847,130500000.0,37400000.0,36800000.0,0.132483173928,0.130357775416
2017-12-31,431000000.0,0.0796593186373,0.0,0.0,0.0,23600000.0,23600000.0,-151100000.0,0.0,-151100000.0,-58100000.0,0.0,0.0,-98600000.0,8600000.0,-98600000.0,-0.86,-0.86,115100000.0,115100000.0,0.0755864465682,0.0,-0.0631090487239,-0.350580046404,-0.228770301624,0.380278422274,-27200000.0,-151100000.0,-98600000.0,-0.350580046404,-0.228770301624
2016-12-31,399200000.0,1.0,0.0,0.0,0.0,22600000.0,22600000.0,-128500000.0,0.0,-128500000.0,-14600000.0,0.0,0.0,-122400000.0,0.0,-122400000.0,-1.02,-1.02,119500000.0,119500000.0,0.071129707113,0.0,-0.0375751503006,-0.321893787575,-0.306613226453,0.262024048096,-15000000.0,-128500000.0,-122400000.0,-0.321893787575,-0.306613226453
2015-12-31,0.0,0.0,0.0,0.0,0.0,29400000.0,29400000.0,-114500000.0,0.0,-114500000.0,-30400000.0,0.0,0.0,-62400000.0,8800000.0,-62400000.0,-0.51,-0.51,121900000.0,121900000.0,0.0910582444627,0.0,0.0,0.0,0.0,0.0,5800000.0,-114500000.0,-62400000.0,0.0,0.0
2014-12-31,0.0,0.0,0.0,0.0,0.0,37900000.0,37900000.0,-194000000.0,0.0,-194000000.0,-11900000.0,0.0,0.0,-177400000.0,11600000.0,-177400000.0,-1.47,-1.47,120700000.0,120700000.0,0.289146644573,0.0,0.0,0.0,0.0,0.0,-31400000.0,-194000000.0,-177400000.0,0.0,0.0
2013-12-31,0.0,0.0,0.0,0.0,0.0,35200000.0,35200000.0,-37100000.0,0.0,-37100000.0,-19500000.0,0.0,0.0,-33000000.0,12600000.0,-33000000.0,-0.28,-0.28,119900000.0,119900000.0,0.542952460384,0.0,0.0,0.0,0.0,0.0,139300000.0,-37100000.0,-33000000.0,0.0,0.0
2012-12-31,0.0,-1.0,0.0,0.0,0.0,28267000.0,28267000.0,-144862000.0,0.0,-144862000.0,-28083000.0,0.0,0.0,-112776000.0,13049000.0,-112776000.0,-0.97,-0.97,116426000.0,116426000.0,1.2378420627700002,0.0,0.0,0.0,0.0,0.0,12345000.0,-144862000.0,-112776000.0,0.0,0.0
2011-12-31,93900000.0,88.3434823977,58400000.0,35500000.0,0.0,37700000.0,61300000.0,-25800000.0,33300000.0,-46200000.0,-11100000.0,-500000.0,-34300000.0,-35100000.0,3300000.0,-38400000.0,-0.5,-0.5,113474259.0,77500000.0,1.104,0.3781,0.54,-0.1374,-0.409,-0.6305,50700000.0,-12900000.0,-35600000.0,-0.49200000000000005,-0.3738
2010-12-31,1051000.0,-0.994145401271,1253000.0,-202000.0,0.0,16149000.0,16237000.0,-16439000.0,15339000.0,12266000.0,16018000.0,-103000.0,-24127000.0,-3752000.0,0.0,-3752000.0,-0.06,-0.06,66634461.0,61706000.0,0.8170000000000001,-0.1922,64.693,26.2655,-3.57,38.3045,67992000.0,27605000.0,-3855000.0,11.6708,-3.5699
2009-12-31,179517000.0,0.0328,87675000.0,91842000.0,0.0,26028000.0,67764000.0,24078000.0,74498000.0,-54179000.0,-15693000.0,0.0,0.0,-38486000.0,0.0,-38486000.0,-0.63,-0.63,,60632000.0,0.0,0.5116,0.344,0.1132,-0.214,0.2698,61693000.0,20319000.0,-38486000.0,-0.3018,-0.2144
