,0,1,2,3,4,5,6,7,8,9,10,11,12,13,14,15,16,17,18,19,20,21,22,23,24,25,26,27,28,29,30
Date,Revenue,Revenue Growth,Cost of Revenue,Gross Profit,R&D Expenses,SG&A Expense,Operating Expenses,Operating Income,Interest Expense,Earnings before Tax,Income Tax Expense,Net Income - Non-Controlling int,Net Income - Discontinued ops,Net Income,Preferred Dividends,Net Income Com,EPS,EPS Diluted,Weighted Average Shs Out,Weighted Average Shs Out (Dil),Dividend per Share,Gross Margin,EBITDA Margin,EBIT Margin,Profit Margin,Free Cash Flow margin,EBITDA,EBIT,Consolidated Income,Earnings Before Tax Margin,Net Profit Margin
2019-12-31,5633000.0,-0.7681034127869999,0.0,0.0,39045000.0,11378000.0,50423000.0,-45488000.0,0.0,0.0,0.0,0.0,0.0,-44582000.0,0.0,-44582000.0,-0.29,-0.29,151696000.0,151696000.0,0.0,0.0,-7.95135806852,-8.075270726080001,-7.914432806669999,-6.2712586543599995,-44790000.0,-45488000.0,-44582000.0,0.0,-7.914432806669999
2018-12-31,24291000.0,5.550970873790001,0.0,0.0,38656000.0,10442000.0,49098000.0,-25045000.0,0.0,-24283000.0,0.0,0.0,0.0,-24283000.0,0.0,-24283000.0,-0.18,-0.18,136641000.0,136641000.0,0.0,0.0,-0.9958420814290001,-1.03104030299,-0.999670659915,-0.549586266518,-24190000.0,-25045000.0,-24283000.0,-0.999670659915,-0.999670659915
2017-12-31,3708000.0,-0.78624546031,0.0,0.0,27841000.0,8466000.0,36307000.0,-33283000.0,0.0,-32241000.0,0.0,0.0,0.0,-32241000.0,0.0,-32241000.0,-0.29,-0.29,112053369.0,112053369.0,0.0,0.0,-8.791531823089999,-8.9759978425,-8.69498381877,-6.47734627832,-32599000.0,-33283000.0,-32241000.0,-8.69498381877,-8.69498381877
2016-12-31,17347000.0,0.45187479076000003,0.0,0.0,24838000.0,7835000.0,32673000.0,-15026000.0,0.0,-15374000.0,-37000.0,0.0,0.0,-15337000.0,0.0,-15337000.0,-0.18,-0.18,84715471.0,84715471.0,0.0,0.0,-0.8441805499510001,-0.8662016487,-0.884129820718,-0.630137775984,-14644000.0,-15026000.0,-15337000.0,-0.886262754367,-0.884129820718
2015-12-31,11948000.0,6.361675908810001,0.0,0.0,21316000.0,7536000.0,33433000.0,-17171000.0,0.0,-16460000.0,-38000.0,0.0,0.0,-16422000.0,0.0,-16422000.0,-0.2,-0.2,82143610.0,82851091.0,0.0,0.0,-1.41479745564,-1.43714429193,-1.3744559759000001,-1.15199196518,-16904000.0,-17171000.0,-16422000.0,-1.3776364245100001,-1.3744559759000001
2014-12-31,1623000.0,-0.334290401969,0.0,0.0,23366000.0,6909000.0,34327000.0,-29012000.0,0.0,-22335000.0,-253000.0,0.0,0.0,-22082000.0,0.0,-22082000.0,-0.29,-0.31,76954503.0,78541447.0,0.0,0.0,-17.6537276648,-17.8755391251,-13.6056685151,-15.890942698699998,-28652000.0,-29012000.0,-22082000.0,-13.7615526802,-13.6056685151
2013-12-31,2438000.0,1.0,0.0,0.0,20484000.0,6065000.0,28956000.0,-24457000.0,0.0,0.0,0.0,0.0,0.0,-30743000.0,0.0,-30743000.0,-0.53,-0.53,57674833.0,57674833.0,0.0,0.0,-9.88966365874,-10.031583265,-12.609926169000001,-9.34536505332,-24111000.0,-24457000.0,-30743000.0,0.0,-12.609926169000001
2012-12-31,0.0,0.0,0.0,0.0,0.0,0.0,0.0,-14735000.0,0.0,0.0,0.0,0.0,0.0,-14735000.0,0.0,-14735000.0,0.0,0.0,0.0,0.0,0.0,0.0,0.0,0.0,0.0,0.0,-14735000.0,-14735000.0,-14735000.0,0.0,0.0
2011-12-31,0.0,-1.0,0.0,0.0,0.0,0.0,0.0,0.0,0.0,0.0,0.0,0.0,0.0,0.0,0.0,0.0,0.0,0.0,0.0,0.0,0.0,0.0,0.0,0.0,0.0,0.0,0.0,0.0,0.0,0.0,0.0
2010-12-31,8939000.0,3.1403427512700004,0.0,8939000.0,14779000.0,5387000.0,20450000.0,-11511000.0,0.0,-11377000.0,0.0,0.0,0.0,-11377000.0,0.0,-11377000.0,-0.6,-0.6,18930678.0,18929749.0,0.0,1.0,-1.2409999999999999,-1.2727,-1.273,-1.2284,-11093000.0,-11377000.0,-11377000.0,-1.2727,-1.2727
2009-12-31,2159000.0,-0.3047,0.0,2159000.0,11920000.0,5621000.0,17774000.0,-15615000.0,0.0,-15366000.0,0.0,0.0,0.0,-15366000.0,0.0,-15366000.0,-0.81,-0.81,18929333.0,18928379.0,0.0,1.0,-7.0089999999999995,-7.1172,-7.117000000000001,-2.3062,-15133000.0,-15366000.0,-15366000.0,-7.1172,-7.1172
