,0,1,2,3,4,5,6,7,8,9,10,11,12,13,14,15,16,17,18,19,20,21,22,23,24,25,26,27,28,29,30
Date,Revenue,Revenue Growth,Cost of Revenue,Gross Profit,R&D Expenses,SG&A Expense,Operating Expenses,Operating Income,Interest Expense,Earnings before Tax,Income Tax Expense,Net Income - Non-Controlling int,Net Income - Discontinued ops,Net Income,Preferred Dividends,Net Income Com,EPS,EPS Diluted,Weighted Average Shs Out,Weighted Average Shs Out (Dil),Dividend per Share,Gross Margin,EBITDA Margin,EBIT Margin,Profit Margin,Free Cash Flow margin,EBITDA,EBIT,Consolidated Income,Earnings Before Tax Margin,Net Profit Margin
2019-09-30,2901848000.0,-0.0685908665768,858837000.0,2043011000.0,0.0,0.0,0.0,746058000.0,103153000.0,650309000.0,138903000.0,0.0,0.0,511406000.0,0.0,511406000.0,4.36,4.35,117200000.0,117461000.0,2.09190284435,0.704037909636,0.395257780559,0.25709754611499996,0.176234592577,-0.24974016557700002,1146978000.0,746058000.0,511406000.0,0.224101675898,0.176234592577
2018-09-30,3115546000.0,0.128929408077,1167848000.0,1947698000.0,0.0,0.0,0.0,723134000.0,106646000.0,611144000.0,8080000.0,0.0,0.0,603064000.0,0.0,603064000.0,5.43,5.43,111012000.0,111012000.0,1.9358808056799999,0.625154627792,0.350526681359,0.232105062804,0.193566071565,-0.110070273397,1092082000.0,723134000.0,603064000.0,0.19615951746500002,0.193566071565
2017-09-30,2759735000.0,-0.176185965816,0.0,0.0,0.0,0.0,0.0,727546000.0,120182000.0,604094000.0,221383000.0,0.0,0.0,396421000.0,0.0,396421000.0,3.73,3.73,106100000.0,106100000.0,1.80896324222,0.0,0.381793179418,0.263628935387,0.14364458906400002,-0.09783511822689998,1053648000.0,727546000.0,396421000.0,0.21889565483600001,0.14364458906400002
2016-09-30,3349949000.0,-0.19125084255999997,1605053000.0,1744896000.0,0.0,0.0,1076878000.0,668018000.0,115948000.0,550477000.0,200373000.0,0.0,0.0,350104000.0,0.0,350104000.0,3.38,3.38,103524000.0,103524000.0,1.69164638152,0.520872407311,0.288595736831,0.199411394024,0.104510247768,-0.08715356562139999,966781000.0,668018000.0,350104000.0,0.164323994186,0.104510247768
2015-09-30,4142136000.0,-0.161666379271,2462119000.0,1680017000.0,0.0,0.0,1048622000.0,631395000.0,116241000.0,510765000.0,195690000.0,0.0,0.0,315075000.0,0.0,315075000.0,3.09,3.09,101892000.0,101892000.0,1.5704667687399998,0.405591945798,0.220495415892,0.152432223375,0.0760658269067,-0.0334641354123,913322000.0,631395000.0,315075000.0,0.123309567817,0.0760658269067
2014-09-30,4940916000.0,0.271381691947,3358490000.0,1582426000.0,0.0,0.0,971077000.0,611349000.0,129295000.0,289817000.0,187002000.0,0.0,0.0,289817000.0,0.0,289817000.0,2.96,2.96,97606000.0,97608000.0,1.4983198098500001,0.320269763744,0.177237176264,0.12373191529699999,0.0586565325134,-0.0192808378042,875714000.0,611349000.0,289817000.0,0.0586565325134,0.0586565325134
2013-09-30,3886257000.0,0.130224287862,2474207000.0,1412050000.0,0.0,0.0,910171000.0,501879000.0,128385000.0,230698000.0,142599000.0,0.0,0.0,243194000.0,0.0,243194000.0,2.68,2.64,90533000.0,91711000.0,1.39694256959,0.36334447258599994,0.192464368671,0.129141999616,0.0625779509693,-0.0596733566514,747966000.0,501879000.0,243194000.0,0.0593625177131,0.0625779509693
2012-09-30,3438483000.0,-0.20911396865499998,2114744000.0,1323739000.0,0.0,0.0,877499000.0,446240000.0,141174000.0,290422000.0,98226000.0,0.0,0.0,216717000.0,0.0,216717000.0,2.39,2.37,90150000.0,91172000.0,1.37976571754,0.384977619491,0.203858503881,0.129778160892,0.0630269220467,-0.04244342635980001,700964000.0,446240000.0,216717000.0,0.08446224686869999,0.0630269220467
2011-09-30,4347634000.0,1.0,3020393000.0,1327241000.0,0.0,0.0,885342000.0,441899000.0,150825000.0,312573000.0,113689000.0,0.0,0.0,207601000.0,0.0,207601000.0,2.28,2.27,90201000.0,90652000.0,1.3679896748,0.305278917223,0.157492558021,0.101641260511,0.047750339610000005,-0.00922823770354,684720000.0,441899000.0,207601000.0,0.0718949663196,0.047750339610000005
2010-09-30,0.0,-1.0,0.0,0.0,0.0,0.0,0.0,0.0,0.0,0.0,0.0,0.0,0.0,0.0,0.0,0.0,0.0,0.0,0.0,0.0,0.0,0.0,0.0,0.0,0.0,0.0,0.0,0.0,0.0,0.0,0.0
2009-09-30,4869111000.0,-0.3257,3549433000.0,1319678000.0,0.0,180242000.0,886379000.0,433299000.0,152638000.0,288340000.0,97362000.0,0.0,-7679000.0,190978000.0,0.0,190978000.0,2.08,2.07,92272478.0,91117000.0,1.32,0.271,0.135,0.0906,0.039,0.0842,658186000.0,440978000.0,190978000.0,0.0592,0.0392
