,0,1,2,3,4,5,6,7,8,9,10,11,12,13,14,15,16,17,18,19,20,21,22,23,24,25,26,27,28,29,30
Date,Revenue,Revenue Growth,Cost of Revenue,Gross Profit,R&D Expenses,SG&A Expense,Operating Expenses,Operating Income,Interest Expense,Earnings before Tax,Income Tax Expense,Net Income - Non-Controlling int,Net Income - Discontinued ops,Net Income,Preferred Dividends,Net Income Com,EPS,EPS Diluted,Weighted Average Shs Out,Weighted Average Shs Out (Dil),Dividend per Share,Gross Margin,EBITDA Margin,EBIT Margin,Profit Margin,Free Cash Flow margin,EBITDA,EBIT,Consolidated Income,Earnings Before Tax Margin,Net Profit Margin
2019-12-31,533000.0,1.16666666667,253000.0,280000.0,7748000.0,6157000.0,13905000.0,-13625000.0,0.0,0.0,0.0,0.0,0.0,-13300000.0,0.0,-13300000.0,-0.84,-0.84,15852000.0,15852000.0,0.0,0.525328330206,-25.4803001876,-25.5628517824,-24.9530956848,-19.622889305799998,-13581000.0,-13625000.0,-13300000.0,0.0,-24.9530956848
2018-12-31,246000.0,1.2363636363600001,148000.0,98000.0,7318000.0,5913000.0,13231000.0,-13133000.0,0.0,0.0,0.0,0.0,0.0,-12897000.0,0.0,-12897000.0,-1.02,-1.02,12655000.0,12655000.0,0.0,0.39837398374,-53.2520325203,-53.386178861800005,-52.4268292683,-39.8211382114,-13100000.0,-13133000.0,-12897000.0,0.0,-52.4268292683
2017-12-31,110000.0,1.0,39000.0,71000.0,5826000.0,7455000.0,13281000.0,-13210000.0,0.0,-13068000.0,0.0,0.0,0.0,-13068000.0,0.0,-13068000.0,-1.08,-1.08,12124000.0,12124000.0,0.0,0.645454545455,-119.918181818,-120.090909091,-118.8,-84.9909090909,-13191000.0,-13210000.0,-13068000.0,-118.8,-118.8
2016-12-31,0.0,0.0,0.0,0.0,3993000.0,6006000.0,9999000.0,-9999000.0,2640000.0,-12610000.0,0.0,0.0,0.0,-12610000.0,0.0,-12610000.0,-2.22,-2.22,5682000.0,5682000.0,0.0,0.0,0.0,0.0,0.0,0.0,-8458000.0,-9999000.0,-12610000.0,0.0,0.0
2015-12-31,0.0,0.0,0.0,0.0,2022000.0,3477000.0,5499000.0,-5499000.0,1930000.0,-9513000.0,0.0,0.0,0.0,-9513000.0,0.0,-9513000.0,-7.55,-7.55,11323000.0,1260000.0,0.0,0.0,,0.0,,0.0,-7573000.0,-7583000.0,-9513000.0,0.0,0.0
2014-12-31,0.0,,0.0,0.0,1853091.0,1412271.0,3265362.0,-3265362.0,560310.0,-3817734.0,0.0,0.0,0.0,-3817734.0,0.0,-3817734.0,-3.1,-3.1,,1233268.0,0.0,0.0,,0.0,,0.0,-3251964.0,-3257424.0,-3817734.0,0.0,0.0
