,0,1,2,3,4,5,6,7,8,9,10,11,12,13,14,15,16,17,18,19,20,21,22,23,24,25,26,27,28,29,30
Date,Revenue,Revenue Growth,Cost of Revenue,Gross Profit,R&D Expenses,SG&A Expense,Operating Expenses,Operating Income,Interest Expense,Earnings before Tax,Income Tax Expense,Net Income - Non-Controlling int,Net Income - Discontinued ops,Net Income,Preferred Dividends,Net Income Com,EPS,EPS Diluted,Weighted Average Shs Out,Weighted Average Shs Out (Dil),Dividend per Share,Gross Margin,EBITDA Margin,EBIT Margin,Profit Margin,Free Cash Flow margin,EBITDA,EBIT,Consolidated Income,Earnings Before Tax Margin,Net Profit Margin
2019-12-31,0.0,0.0,0.0,0.0,6645417.0,10620008.0,17265425.0,-17265425.0,0.0,-17239777.0,0.0,0.0,0.0,-17239777.0,0.0,-17239777.0,-2.03,-2.03,8496964.0,8496964.0,0.0,0.0,0.0,0.0,0.0,0.0,-17212636.0,-17265425.0,-17239777.0,0.0,0.0
2018-12-31,0.0,0.0,0.0,0.0,4209981.0,7224252.0,11434233.0,-11434233.0,0.0,-11404934.0,0.0,0.0,0.0,-11404934.0,0.0,-11404934.0,-5.5,-5.5,4157746.0,4157746.0,0.0,0.0,0.0,0.0,0.0,0.0,-11317246.0,-11434233.0,-11404934.0,0.0,0.0
2017-12-31,0.0,0.0,0.0,0.0,2328087.0,4859369.0,7649171.0,-7649171.0,0.0,-8122581.0,0.0,0.0,0.0,-8122581.0,2568132.0,-8122581.0,-0.91,-0.91,11697273.0,11697273.0,0.0,0.0,0.0,0.0,0.0,0.0,-7440767.0,-7649171.0,-8122581.0,0.0,0.0
2016-12-31,0.0,-1.0,0.0,0.0,770427.0,6479193.0,7968590.0,-7968590.0,0.0,-6368885.0,0.0,0.0,0.0,-6368885.0,0.0,-6368885.0,-2.16,-2.16,2947282.0,2947282.0,0.0,0.0,0.0,0.0,0.0,0.0,-7622244.0,-7968590.0,-6368885.0,0.0,0.0
2015-12-31,1758.0,-0.996657502367,132411.0,-130653.0,2359593.0,8846963.0,12627965.0,-12758618.0,0.0,-12758187.0,0.0,0.0,0.0,-15760323.0,0.0,-15760323.0,-0.55,-0.55,28427523.0,28427523.0,0.0,-74.319112628,-6900.04550626,-7257.46188851,-8964.91638225,-7937.02844141,-12130280.0,-12758618.0,-15760323.0,-7257.21672355,-8964.91638225
2014-12-31,525954.0,-0.168528419528,340658.0,185296.0,2577465.0,8625917.0,14827713.0,-14642417.0,15769.0,-14657926.0,0.0,0.0,0.0,-14657926.0,0.0,-14657926.0,-0.61,-0.61,24038578.0,24038578.0,0.0,0.352304574164,-26.7665252094,-27.8397293299,-27.8692166996,-20.0691505341,-14077961.0,-14642417.0,-14657926.0,-27.8692166996,-27.8692166996
2013-12-31,632558.0,420.70533333300006,345519.0,137093.0,1105110.0,8558835.0,10921736.0,-10784643.0,360.0,-10784708.0,0.0,0.0,0.0,-10784708.0,0.0,-10784708.0,-0.7,-0.7,15484414.0,15484414.0,0.0,0.21672795221900001,-12.3722551924,-17.0492555623,-17.0493583197,-13.9592638145,-7826169.0,-10784643.0,-10784708.0,-17.0493583197,-17.0493583197
2012-12-31,1500.0,0.0,5164.0,-95690.0,0.0,3172649.0,3333500.0,-3429190.0,17992.0,-3442269.0,0.0,0.0,0.0,-3442269.0,0.0,-3442269.0,-0.38,-0.38,9117746.0,9117746.0,0.0,-63.7933333333,-2275.71133333,-2286.12666667,-2294.846,-2328.24266667,-3413567.0,-3429190.0,-3442269.0,-2294.846,-2294.846
2011-12-31,1500.0,,97190.0,-95690.0,0.0,3333500.0,3333500.0,-3429190.0,17992.0,-3442269.0,0.0,0.0,0.0,-3442269.0,0.0,-3442269.0,-68.4,-68.4,,50654.0,0.0,-63.7933,,-2282.8513,,-2419.53,-3408654.0,-3424277.0,-3442269.0,-2294.846,-2294.846
