,0,1,2,3,4,5,6,7,8,9,10,11,12,13,14,15,16,17,18,19,20,21,22,23,24,25,26,27,28,29,30
Date,Revenue,Revenue Growth,Cost of Revenue,Gross Profit,R&D Expenses,SG&A Expense,Operating Expenses,Operating Income,Interest Expense,Earnings before Tax,Income Tax Expense,Net Income - Non-Controlling int,Net Income - Discontinued ops,Net Income,Preferred Dividends,Net Income Com,EPS,EPS Diluted,Weighted Average Shs Out,Weighted Average Shs Out (Dil),Dividend per Share,Gross Margin,EBITDA Margin,EBIT Margin,Profit Margin,Free Cash Flow margin,EBITDA,EBIT,Consolidated Income,Earnings Before Tax Margin,Net Profit Margin
2019-12-31,230807000.0,0.144705648961,60472000.0,170335000.0,41230000.0,162227000.0,203457000.0,-33122000.0,4111000.0,-34995000.0,199000.0,0.0,0.0,-35194000.0,0.0,-35194000.0,-0.94,-0.94,37589000.0,37589000.0,0.0,0.7379975477349999,-0.097306407518,-0.143505179652,-0.152482377051,-0.121283149991,-22459000.0,-33122000.0,-35194000.0,-0.15162018483,-0.152482377051
2018-12-31,201630000.0,0.15404427757,54510000.0,147120000.0,34723000.0,129524000.0,164247000.0,-17127000.0,4607000.0,-20911000.0,226000.0,0.0,0.0,-21137000.0,0.0,-21137000.0,-0.62,-0.62,34087000.0,34087000.0,0.0,0.729653325398,-0.0371770073898,-0.0849427168576,-0.104830630363,-0.051490353618,-7496000.0,-17127000.0,-21137000.0,-0.10370976541200001,-0.104830630363
2017-12-31,174716000.0,0.12640788091,48553000.0,126163000.0,34144000.0,116998000.0,151142000.0,-24979000.0,2264000.0,-26878000.0,14000.0,0.0,0.0,-26892000.0,0.0,-26892000.0,-0.83,-0.83,32387000.0,32387000.0,0.0,0.722103299068,-0.0893850591818,-0.142969161382,-0.153918358937,-0.08773094622130001,-15617000.0,-24979000.0,-26892000.0,-0.153838228897,-0.153918358937
2016-12-31,155109000.0,0.19539902123199998,44008000.0,111101000.0,35824000.0,106415000.0,142239000.0,-31138000.0,1801000.0,-33298000.0,40000.0,0.0,0.0,-33338000.0,0.0,-33338000.0,-1.05,-1.05,31609000.0,31609000.0,0.0,0.716276940732,-0.140204630292,-0.20074915059700002,-0.214932724729,-0.147064322509,-21747000.0,-31138000.0,-33338000.0,-0.214674841563,-0.214932724729
2015-12-31,129755000.0,0.207539970592,36880000.0,92875000.0,25742000.0,93853000.0,119595000.0,-26720000.0,292000.0,-27176000.0,36000.0,0.0,0.0,-27212000.0,0.0,-27212000.0,-0.97,-0.97,28058000.0,28058000.0,0.0,0.7157720319059999,-0.161519787291,-0.20592655389000003,-0.20971831528700002,-0.164055335055,-20958000.0,-26720000.0,-27212000.0,-0.209440869331,-0.20971831528700002
2014-12-31,107454000.0,0.31219089255,31704000.0,75750000.0,18600000.0,73510000.0,92110000.0,-16360000.0,305000.0,-16178000.0,33000.0,0.0,0.0,-16211000.0,0.0,-16211000.0,-0.61,-0.61,26374000.0,26374000.0,0.0,0.704952817019,-0.111424423474,-0.152251195861,-0.15086455599600002,-0.28669942487,-11973000.0,-16360000.0,-16211000.0,-0.150557447838,-0.15086455599600002
2013-12-31,81889000.0,0.165729497345,22326000.0,59563000.0,13440000.0,57014000.0,70454000.0,10891000.0,566000.0,-11444000.0,18000.0,0.0,0.0,-11462000.0,0.0,-11462000.0,-0.56,-0.56,20431000.0,20431000.0,0.0,0.72736264944,0.158470612659,0.13299710583799998,-0.139969959335,-0.0987434209723,12977000.0,10891000.0,-11462000.0,-0.139750149593,-0.139969959335
2012-12-31,70247000.0,0.0907511239215,20233000.0,50014000.0,12147000.0,45065000.0,57212000.0,-7198000.0,802000.0,-7484000.0,50000.0,0.0,0.0,-7534000.0,0.0,-7534000.0,-0.47,-0.47,16190000.0,16190000.0,0.0,0.7119734650589999,-0.0741811038194,-0.102467009267,-0.107250131678,-0.0700528136433,-5211000.0,-7198000.0,-7534000.0,-0.10653835751,-0.107250131678
2011-12-31,64402409.0,0.0914552587872,17405985.0,46996424.0,11856821.0,39870139.0,51726960.0,-4730536.0,814427.0,-5424615.0,30888.0,0.0,0.0,-5455503.0,0.0,-5455503.0,-0.35,-0.35,15671993.0,15671993.0,0.0,0.729730839727,-0.042716119516599996,-0.07345278031449999,-0.0847096107849,-0.0544814558101,-2751021.0,-4730536.0,-5455503.0,-0.0842300013964,-0.0847096107849
2010-12-31,59006000.0,0.08201265723389999,13618000.0,45388000.0,11531000.0,37049000.0,48580000.0,-3192000.0,862000.0,-3773000.0,19000.0,0.0,0.0,-3792000.0,0.0,-3792000.0,-0.25,-0.25,15589842.0,15095000.0,0.0,0.7692,-0.009000000000000001,-0.0493,-0.064,-0.0312,-548000.0,-2911000.0,-3792000.0,-0.0639,-0.0643
2009-12-31,54533558.0,-0.0131,12750745.0,41782813.0,11414889.0,35112006.0,57294689.0,-15511876.0,812326.0,-16553627.0,-58639.0,0.0,0.0,-16494988.0,0.0,-16494988.0,-1.13,-1.13,15313491.0,14563710.0,0.0,0.7662,-0.244,-0.2887,-0.302,-0.0172,-13327501.0,-15741301.0,-16494988.0,-0.3035,-0.3025
