,0,1,2,3,4,5,6,7,8,9,10,11,12,13,14
Date,Depreciation & Amortization,Stock-based compensation,Operating Cash Flow,Capital Expenditure,Acquisitions and disposals,Investment purchases and sales,Investing Cash flow,Issuance (repayment) of debt,Issuance (buybacks) of shares,Dividend payments,Financing Cash Flow,Effect of forex changes on cash,Net cash flow / Change in cash,Free Cash Flow,Net Cash/Marketcap
2019-12-31,33049000.0,3843000.0,42689000.0,12083000.0,-28907000.0,-50784000.0,64630000.0,-156107000.0,-50784000.0,-0.0,-92182000.0,147000.0,15284000.0,30606000.0,0.0
2018-12-31,35032000.0,3098000.0,54881000.0,16317000.0,-0.0,0.0,-19667000.0,-72834000.0,0.0,-0.0,-36134000.0,-372000.0,-1292000.0,38564000.0,0.0
2017-12-31,27063000.0,2598000.0,37783000.0,13478000.0,-114039000.0,-32382000.0,-129561000.0,-23720000.0,-32382000.0,-0.0,91425000.0,366000.0,13000.0,24305000.0,0.0
2016-12-31,25790000.0,2281000.0,48854000.0,13037000.0,-0.0,-17618000.0,-14622000.0,-41835000.0,-17618000.0,-0.0,-34806000.0,-86000.0,-660000.0,35817000.0,0.0
2015-12-31,25309000.0,2274000.0,78501000.0,18641000.0,-52276000.0,0.0,-73586000.0,-67694000.0,-18561000.0,-0.0,-6725000.0,-826000.0,-2636000.0,59860000.0,0.0
2014-12-31,27254000.0,1730000.0,99874000.0,40882000.0,-68201000.0,0.0,-110199000.0,-275544000.0,-21197000.0,-0.0,-23113000.0,-1079000.0,-33438000.0,58992000.0,0.0
2013-12-31,11059000.0,1384000.0,49549000.0,6868000.0,-159761000.0,0.0,-166547000.0,-19498000.0,-54635000.0,-0.0,164253000.0,82000.0,47255000.0,42681000.0,0.0
2012-12-31,6905000.0,1351000.0,24178000.0,16720000.0,-0.0,0.0,-27379000.0,-10307000.0,-7380000.0,-0.0,-341000.0,3000.0,-3539000.0,7458000.0,0.0
2011-12-31,0.0,0.0,0.0,0.0,-0.0,0.0,0.0,-0.0,0.0,-0.0,0.0,0.0,0.0,0.0,0.0
2010-12-31,4881000.0,884000.0,16503000.0,-3568000.0,0.0,0.0,-3614000.0,-6245000.0,1092000.0,0.0,-5131000.0,2000.0,7760000.0,12935000.0,-0.1114
2009-12-31,7342000.0,773000.0,31088000.0,-2041000.0,-40655000.0,0.0,-42702000.0,25171000.0,16000.0,0.0,23520000.0,5000.0,11911000.0,29047000.0,-0.5223
