,0,1,2,3,4,5,6,7,8,9,10,11,12,13,14,15,16,17,18,19,20,21,22,23,24,25,26,27,28
Date,Cash and cash equivalents,Short-term investments,Cash and short-term investments,Receivables,Inventories,Total current assets,Property Plant & Equipment Net,Goodwill and Intangible Assets,Long-term investments,Tax assets,Total non-current assets,Total assets,Payables,Short-term debt,Total current liabilities,Long-term debt,Total debt,Deferred revenue,Tax Liabilities,Deposit Liabilities,Total non-current liabilities,Total liabilities,Other comprehensive income,Retained earnings (deficit),Total shareholders equity,Investments,Net Debt,Other Assets,Other Liabilities
2019-12-31,23201000.0,22520000.0,45721000.0,35074000.0,16000000.0,108446000.0,15961000.0,1573000.0,0.0,0.0,24305000.0,132751000.0,12905000.0,1249000.0,32415000.0,40395000.0,41644000.0,1738000.0,0.0,0.0,43850000.0,78251000.0,332377000.0,-278827000.0,54500000.0,22520000.0,18443000.0,0.0,1986000.0
2018-12-31,27892000.0,0.0,27892000.0,18976000.0,11350000.0,71308000.0,14895000.0,1926000.0,0.0,0.0,16969000.0,88277000.0,11135000.0,3043000.0,27193000.0,22083000.0,25126000.0,1018000.0,0.0,0.0,24957000.0,49276000.0,314907000.0,-276800000.0,39001000.0,0.0,-2766000.0,0.0,0.0
2017-12-31,26562000.0,4993000.0,31555000.0,11878000.0,9275000.0,55536000.0,16158000.0,2496000.0,0.0,0.0,18802000.0,74338000.0,5957000.0,0.0,15733000.0,24858000.0,24858000.0,2794000.0,0.0,0.0,25058000.0,40791000.0,302965000.0,-270285000.0,33547000.0,4993000.0,-1704000.0,0.0,0.0
2016-12-31,27714588.0,0.0,27714588.0,9073173.0,5326962.0,45264468.0,17867412.0,3139963.0,0.0,0.0,21060982.0,66325450.0,7884983.0,0.0,19906916.0,0.0,0.0,6149087.0,0.0,0.0,1200000.0,21106916.0,297826433.0,-253445306.0,45218534.0,0.0,-27714588.0,0.0,0.0
2015-12-31,32898676.0,15012225.0,47910901.0,7952478.0,5724397.0,66061247.0,14793084.0,3529897.0,0.0,100000.0,18500924.0,84562171.0,5187703.0,0.0,16819560.0,0.0,0.0,5143825.0,0.0,0.0,700000.0,17519560.0,295292414.0,-229106502.0,67042611.0,15012225.0,-32898676.0,0.0,0.0
2014-12-31,34028889.0,6002438.0,40031327.0,3510051.0,5859924.0,53637687.0,10828741.0,3980379.0,0.0,275000.0,15135075.0,68772762.0,10071504.0,0.0,24227580.0,0.0,0.0,8520517.0,0.0,0.0,3349026.0,27576606.0,249032066.0,-208447656.0,41196156.0,6002438.0,-34028889.0,0.0,0.0
2013-12-31,39067236.0,24014305.0,63081541.0,1034492.0,6461051.0,72659535.0,6952251.0,2440532.0,6008169.0,300000.0,16272396.0,88931931.0,6378712.0,0.0,16363007.0,0.0,0.0,4531220.0,0.0,0.0,1855196.0,18218203.0,243375465.0,-173295941.0,70713728.0,30022474.0,-39067236.0,0.0,0.0
2012-12-31,0.0,0.0,0.0,0.0,0.0,0.0,3583104.0,0.0,0.0,0.0,0.0,0.0,0.0,0.0,3194811.0,0.0,0.0,3194811.0,0.0,0.0,0.0,-86550592.0,0.0,86550592.0,86550592.0,0.0,0.0,0.0,-89745403.0
2011-12-31,19357932.0,0.0,19357932.0,2535230.0,891765.0,36265359.0,591669.0,2047741.0,0.0,0.0,5697598.0,41962957.0,2139130.0,0.0,10008719.0,0.0,0.0,5644278.0,0.0,0.0,810393.0,10819112.0,172065429.0,-141361715.0,31143845.0,0.0,-19357932.0,0.0,0.0
2010-12-31,9847813.0,0.0,9847813.0,1245560.0,272463.0,12475510.0,327535.0,1898781.0,0.0,0.0,2665792.0,15141302.0,1773259.0,0.0,6672090.0,0.0,0.0,4922656.0,0.0,0.0,1842594.0,8514684.0,-559837.0,-136973795.0,6626618.0,0.0,-9847813.0,1109674.0,4898831.0
2009-12-31,13559088.0,0.0,13559088.0,1542272.0,329553.0,16549221.0,317310.0,1837754.0,0.0,0.0,2594152.0,19143373.0,1882158.0,0.0,8242293.0,0.0,0.0,7362066.0,0.0,0.0,2050550.0,10292843.0,-699327.0,-130882597.0,8850530.0,0.0,-13559088.0,1118308.0,6360135.0
