,0,1,2,3,4,5,6,7,8,9,10,11,12,13,14,15,16,17,18,19,20,21,22,23,24,25,26,27,28,29,30
Date,Revenue,Revenue Growth,Cost of Revenue,Gross Profit,R&D Expenses,SG&A Expense,Operating Expenses,Operating Income,Interest Expense,Earnings before Tax,Income Tax Expense,Net Income - Non-Controlling int,Net Income - Discontinued ops,Net Income,Preferred Dividends,Net Income Com,EPS,EPS Diluted,Weighted Average Shs Out,Weighted Average Shs Out (Dil),Dividend per Share,Gross Margin,EBITDA Margin,EBIT Margin,Profit Margin,Free Cash Flow margin,EBITDA,EBIT,Consolidated Income,Earnings Before Tax Margin,Net Profit Margin
2019-12-31,1452183000.0,0.627378424264,0.0,0.0,0.0,433518000.0,1275186000.0,176997000.0,66644000.0,71572000.0,11589000.0,0.0,0.0,61202000.0,0.0,61202000.0,1.04,0.79,58899000.0,69348000.0,0.0,0.0,0.318382738264,0.12188339899299999,0.042144826099699995,-0.0389510137496,462350000.0,176997000.0,61202000.0,0.0492857993793,0.042144826099699995
2018-12-31,892345000.0,-0.16462741059699998,0.0,0.0,0.0,300514000.0,781327000.0,111018000.0,28799000.0,87478000.0,19595000.0,0.0,0.0,69285000.0,0.0,69285000.0,1.18,0.91,58765000.0,68356000.0,0.0,0.0,0.35364909312,0.12441152244899999,0.07764373644719999,0.00572648471163,315577000.0,111018000.0,69285000.0,0.0980315909206,0.07764373644719999
2017-12-31,1068200000.0,0.389311587134,0.0,0.0,0.0,282211000.0,974905000.0,93295000.0,17023000.0,-6536000.0,-28276000.0,0.0,0.0,18495000.0,0.0,18495000.0,0.31,0.31,58907000.0,59686000.0,0.0,0.0,0.247187792548,0.08733851338700001,0.017314173375799997,-0.057991949073199996,264046000.0,93295000.0,18495000.0,-0.006118704362479999,0.017314173375799997
2016-12-31,768870000.0,0.24158678689500002,0.0,0.0,0.0,231667000.0,705122000.0,63748000.0,11318000.0,34454000.0,13394000.0,0.0,0.0,23488000.0,0.0,23488000.0,0.38,0.37,61330000.0,62994000.0,0.0,0.0,0.264999284665,0.0829112853928,0.0305487273531,-0.0928440438566,203750000.0,63748000.0,23488000.0,0.04481121646049999,0.0305487273531
2015-12-31,619264000.0,0.050326327358599994,0.0,0.0,0.0,181785000.0,546474000.0,72790000.0,11232000.0,62563000.0,23408000.0,0.0,0.0,41222000.0,0.0,41222000.0,0.64,0.63,64242000.0,65127000.0,0.0,0.0,0.322613618747,0.11754276043800001,0.0665661171972,0.0241980803018,199783000.0,72790000.0,41222000.0,0.10102799452299999,0.0665661171972
2014-12-31,589592000.0,0.016497621646,0.0,0.0,0.0,166526000.0,525067000.0,64525000.0,13937000.0,51776000.0,19702000.0,0.0,0.0,29860000.0,0.0,29860000.0,0.46,0.46,64253000.0,65211000.0,0.0,0.0,0.303564159622,0.10944008738199999,0.0506451919293,0.0620785220966,178979000.0,64525000.0,29860000.0,0.0878166596562,0.0506451919293
2013-12-31,580023000.0,-0.045132178098800005,0.0,0.0,0.0,175383000.0,566838000.0,13185000.0,14249000.0,-359000.0,19266000.0,0.0,0.0,-19628000.0,0.0,-19628000.0,-0.31,-0.31,63992000.0,63992000.0,0.0,0.0,0.19160274678800002,0.022731857185,-0.0338400373778,-0.031552197068,111134000.0,13185000.0,-19628000.0,-0.0006189409730299999,-0.0338400373778
2012-12-31,607438000.0,-0.168044726098,0.0,0.0,0.0,184644000.0,528750000.0,78688000.0,14383000.0,66320000.0,24672000.0,0.0,0.0,40874000.0,0.0,40874000.0,0.64,0.63,63461000.0,64420000.0,0.0,0.0,0.278818579015,0.129540792641,0.067289171899,-0.07343959383510001,169365000.0,78688000.0,40874000.0,0.109179866916,0.067289171899
2011-12-31,730133000.0,0.09402561051989998,0.0,0.0,0.0,188884000.0,667504000.0,62629000.0,14181000.0,40860000.0,16995000.0,0.0,0.0,23192000.0,0.0,23192000.0,0.37,0.36,63284000.0,64085000.0,0.0,0.0,0.21899023876499998,0.08577752272530001,0.031764075860200004,-0.105428736956,159892000.0,62629000.0,23192000.0,0.0559624068492,0.031764075860200004
2010-12-31,667382000.0,-0.18956189745299998,236701000.0,430681000.0,0.0,215036000.0,349005000.0,81676000.0,18675000.0,63247000.0,23413000.0,0.0,70000.0,39834000.0,0.0,39834000.0,0.63,0.62,63775766.0,62807000.0,0.0,0.6453,0.254,0.1228,0.06,0.0503,169516000.0,81922000.0,39834000.0,0.0948,0.0597
2009-12-31,823483000.0,-0.1255,205099000.0,618384000.0,0.0,412963000.0,546594000.0,71790000.0,26881000.0,51605000.0,17156000.0,0.0,-6247000.0,34449000.0,0.0,34449000.0,0.55,0.54,63460734.0,62674000.0,0.0,0.7509,0.198,0.0953,0.042,0.0123,163073000.0,78486000.0,34449000.0,0.0627,0.0418
