,0,1,2,3,4,5,6,7,8,9,10,11,12,13,14,15,16,17,18,19,20,21,22,23,24,25,26,27,28,29,30
Date,Revenue,Revenue Growth,Cost of Revenue,Gross Profit,R&D Expenses,SG&A Expense,Operating Expenses,Operating Income,Interest Expense,Earnings before Tax,Income Tax Expense,Net Income - Non-Controlling int,Net Income - Discontinued ops,Net Income,Preferred Dividends,Net Income Com,EPS,EPS Diluted,Weighted Average Shs Out,Weighted Average Shs Out (Dil),Dividend per Share,Gross Margin,EBITDA Margin,EBIT Margin,Profit Margin,Free Cash Flow margin,EBITDA,EBIT,Consolidated Income,Earnings Before Tax Margin,Net Profit Margin
2018-12-31,86249000.0,0.388917517472,10743000.0,75506000.0,16901000.0,51060000.0,67961000.0,7545000.0,-336000.0,7881000.0,1924000.0,0.0,0.0,5957000.0,0.0,5957000.0,0.28,0.27,21113000.0,21967000.0,0.0,0.8754,0.105,0.0875,0.069,0.1021,9032000.0,7545000.0,5957000.0,0.0914,0.0691
2017-12-31,62098000.0,0.00158064516129,9855000.0,52243000.0,14010000.0,41089000.0,55099000.0,-2856000.0,101000.0,-2957000.0,3756000.0,0.0,0.0,-6713000.0,0.0,-6713000.0,-0.39,-0.39,17264000.0,17264000.0,0.0,0.8413,-0.016,-0.046,-0.10800000000000001,-0.0236,-1018000.0,-2856000.0,-6713000.0,-0.0476,-0.1081
2017-12,62000000.0,0.137739934672,10000000.0,52000000.0,14000000.0,41000000.0,55000000.0,-3000000.0,0.0,-3000000.0,4000000.0,,,-7000000.0,,-7000000.0,-0.39,-0.39,17000000.0,17000000.0,,0.83870967741935,-0.016129032258065,-0.048387096774194,-0.11290322580645,,-1000000.0,-3000000.0,-7000000.0,-0.048387096774194,-0.11290322580645
2016-12-31,54494000.0,0.00914814814815,8780000.0,45714000.0,13283000.0,39683000.0,57088000.0,-11374000.0,54000.0,-11428000.0,-735000.0,0.0,0.0,-10693000.0,0.0,-10693000.0,-0.64,-0.64,16739000.0,16739000.0,0.0,0.8389,-0.156,-0.2087,-0.196,-0.0235,-8509000.0,-11374000.0,-10693000.0,-0.2097,-0.1962
2016-12,54000000.0,0.12107623318399999,9000000.0,46000000.0,13000000.0,40000000.0,53000000.0,-7000000.0,0.0,-11000000.0,-1000000.0,,,-11000000.0,,-11000000.0,-0.64,-0.64,17000000.0,17000000.0,,0.85185185185185,-0.14814814814815,-0.22222222222222002,-0.2037037037037,,-8000000.0,-12000000.0,-11000000.0,-0.2037037037037,-0.2037037037037
2015-12-31,48168000.0,0.0035,7278000.0,40890000.0,11139000.0,32238000.0,43377000.0,-2487000.0,576000.0,-3063000.0,546000.0,0.0,0.0,-3609000.0,0.0,-3609000.0,-0.22,-0.22,16183000.0,16183000.0,0.0,0.8489,0.016,-0.0516,-0.075,0.0892,786000.0,-2487000.0,-3609000.0,-0.0636,-0.0749
2015-12,48000000.0,0.34634803096600003,7000000.0,41000000.0,11000000.0,32000000.0,43000000.0,-2000000.0,0.0,-3000000.0,1000000.0,,,-4000000.0,,-4000000.0,-0.22,-0.22,16000000.0,16000000.0,,0.85416666666667,0.0,-0.0625,-0.083333333333333,,0.0,-3000000.0,-4000000.0,-0.0625,-0.083333333333333
2014-12-31,35652000.0,-0.00966666666667,3321000.0,32331000.0,9316000.0,23080000.0,32396000.0,-65000.0,893000.0,-958000.0,734000.0,0.0,0.0,-1692000.0,0.0,-1692000.0,-0.11,-0.11,15024000.0,15024000.0,0.0,0.9068,0.042,-0.0018,-0.047,0.0742,1495000.0,-65000.0,-1692000.0,-0.0269,-0.0475
2014-12,36000000.0,0.42874151684699996,3000000.0,32000000.0,9000000.0,23000000.0,32000000.0,-0.0,0.0,-1000000.0,1000000.0,,,-2000000.0,,-2000000.0,-0.11,-0.11,15000000.0,15000000.0,,0.88888888888889,0.027777777777778,-0.027777777777778,-0.055555555555556,,1000000.0,-1000000.0,-2000000.0,-0.027777777777778,-0.055555555555556
2013-12-31,25197000.0,0.00788,2132000.0,23065000.0,7756000.0,15367000.0,23123000.0,-58000.0,627000.0,-685000.0,-56000.0,0.0,0.0,-629000.0,0.0,-629000.0,-0.05,-0.05,11474000.0,11474000.0,0.0,0.9154,0.044000000000000004,-0.0023,-0.025,-0.0159,1107000.0,-58000.0,-629000.0,-0.0272,-0.025
2013-12,25000000.0,-0.0187997959104,2000000.0,23000000.0,8000000.0,15000000.0,23000000.0,-0.0,0.0,-1000000.0,-0.0,,,-1000000.0,,-1000000.0,-0.05,-0.05,11000000.0,11000000.0,,0.92,0.04,-0.04,-0.04,,1000000.0,-1000000.0,-1000000.0,-0.04,-0.04
2012-12-31,25479000.0,0.679675654295,2356000.0,23123000.0,7748000.0,12857000.0,20605000.0,2518000.0,1241000.0,1277000.0,-209000.0,0.0,0.0,1486000.0,0.0,1486000.0,0.14,0.12,10716000.0,12311000.0,0.0,0.9075,0.147,0.0988,0.057999999999999996,0.0641,3757000.0,2518000.0,1486000.0,0.0501,0.0583
2011-12-31,15169000.0,0.505607940447,1453000.0,13716000.0,4960000.0,8686000.0,13646000.0,70000.0,1284000.0,-1214000.0,-399000.0,0.0,0.0,-815000.0,0.0,-815000.0,-0.09,-0.09,8662000.0,8662000.0,0.0,0.9042,0.068,0.0046,-0.054000000000000006,0.2695,1036000.0,70000.0,-815000.0,-0.08,-0.0537
2010-12-31,10075000.0,0.0657992171797,1951000.0,8124000.0,2482000.0,5685000.0,8167000.0,-43000.0,1388000.0,-1431000.0,74000.0,0.0,0.0,-1505000.0,0.0,-1505000.0,-0.2,-0.2,7993000.0,7993000.0,0.0,0.8064,0.11599999999999999,-0.0043,-0.149,0.0395,1170000.0,-43000.0,-1505000.0,-0.142,-0.1494
2009-12-31,9453000.0,-0.17600000000000002,3070000.0,6383000.0,1894000.0,5077000.0,6971000.0,-588000.0,697000.0,-1275000.0,28000.0,0.0,0.0,-1303000.0,0.0,-1303000.0,-0.2,-0.2,7123500.0,7123500.0,0.0,0.6752,0.20600000000000002,-0.0611,-0.138,0.0433,1944000.0,-578000.0,-1303000.0,-0.1349,-0.1378
