,0,1,2,3,4,5,6,7,8,9,10,11,12,13,14
Date,Depreciation & Amortization,Stock-based compensation,Operating Cash Flow,Capital Expenditure,Acquisitions and disposals,Investment purchases and sales,Investing Cash flow,Issuance (repayment) of debt,Issuance (buybacks) of shares,Dividend payments,Financing Cash Flow,Effect of forex changes on cash,Net cash flow / Change in cash,Free Cash Flow,Net Cash/Marketcap
2019-12-31,2371090000.0,99078000.0,2554169000.0,1359421000.0,-172269000.0,-1686873000.0,-1525469000.0,-23583000.0,-1686873000.0,-0.0,-624412000.0,-1166000.0,403122000.0,1194748000.0,0.0
2018-12-31,2468728000.0,59812000.0,2508317000.0,1154173000.0,-10753000.0,-500000000.0,-1148357000.0,-28468000.0,-500000000.0,-1499935000.0,-1390996000.0,-26000.0,-31062000.0,1354144000.0,0.0
2017-12-31,0.0,0.0,0.0,0.0,-0.0,0.0,0.0,-0.0,0.0,-0.0,0.0,0.0,0.0,0.0,0.0
2016-12-31,1700306000.0,14337000.0,1184455000.0,-619762000.0,-8974949000.0,-4608000.0,-9599319000.0,-545838000.0,1246499000.0,-365559000.0,131421000.0,0.0,-8283443000.0,564693000.0,-0.9331
2015-12-31,,,1257603000.0,-816396000.0,,,-827833000.0,-147563000.0,18727000.0,-125170000.0,-276904000.0,,,,
