,0,1,2,3,4,5,6,7,8,9,10,11,12,13,14,15,16,17,18,19,20,21,22,23,24,25,26,27,28,29,30
Date,Revenue,Revenue Growth,Cost of Revenue,Gross Profit,R&D Expenses,SG&A Expense,Operating Expenses,Operating Income,Interest Expense,Earnings before Tax,Income Tax Expense,Net Income - Non-Controlling int,Net Income - Discontinued ops,Net Income,Preferred Dividends,Net Income Com,EPS,EPS Diluted,Weighted Average Shs Out,Weighted Average Shs Out (Dil),Dividend per Share,Gross Margin,EBITDA Margin,EBIT Margin,Profit Margin,Free Cash Flow margin,EBITDA,EBIT,Consolidated Income,Earnings Before Tax Margin,Net Profit Margin
2019-12-31,6489000000.0,-0.1348,656000000.0,5833000000.0,998000000.0,1658000000.0,2656000000.0,1607000000.0,0.0,1633000000.0,130000000.0,0.0,0.0,1503000000.0,0.0,1503000000.0,1.96,1.95,767000000.0,771000000.0,0.367055771725,0.898905840653,0.332871012483,0.247649869009,0.23162274618599998,0.264293419633,2160000000.0,1607000000.0,1503000000.0,0.251656649715,0.23162274618599998
2018-12-31,7500000000.0,0.06883283454469999,719000000.0,6781000000.0,1101000000.0,1894000000.0,2995000000.0,1988000000.0,0.0,1847000000.0,64000000.0,0.0,0.0,1813000000.0,0.0,1813000000.0,2.38,2.35,762000000.0,771000000.0,0.335927367056,0.9041333333329999,0.398933333333,0.265066666667,0.24173333333299998,0.2212,2992000000.0,1988000000.0,1813000000.0,0.246266666667,0.24173333333299998
2017-12-31,7017000000.0,0.0618946731235,0.0,0.0,1069000000.0,2138000000.0,3207000000.0,1309000000.0,0.0,1151000000.0,878000000.0,0.0,0.0,273000000.0,0.0,273000000.0,0.36,0.36,754000000.0,766000000.0,0.295039164491,0.0,0.353997434801,0.18654695738899998,0.0389055151774,0.293287729799,2484000000.0,1309000000.0,273000000.0,0.164030212341,0.0389055151774
2016-12-31,6608000000.0,0.41680960548900003,0.0,0.0,958000000.0,1844000000.0,2802000000.0,1412000000.0,0.0,1106000000.0,140000000.0,0.0,0.0,966000000.0,0.0,966000000.0,1.3,1.28,740000000.0,754000000.0,0.258620689655,0.0,0.38014527845,0.213680387409,0.146186440678,0.30553874091999994,2512000000.0,1412000000.0,966000000.0,0.167372881356,0.146186440678
2015-12-31,4664000000.0,0.0580762250454,0.0,0.0,646000000.0,1114000000.0,1760000000.0,1319000000.0,0.0,1121000000.0,229000000.0,0.0,0.0,892000000.0,0.0,892000000.0,1.21,1.19,728000000.0,739000000.0,0.23004059539900001,0.0,0.390222984563,0.282804459691,0.191252144082,0.23177530017200001,1820000000.0,1319000000.0,892000000.0,0.240351629503,0.191252144082
2014-12-31,4408000000.0,-0.03818459524330001,0.0,0.0,571000000.0,1129000000.0,1700000000.0,1183000000.0,0.0,464000000.0,146000000.0,0.0,0.0,835000000.0,0.0,835000000.0,1.14,1.13,716000000.0,726000000.0,0.202479338843,0.0,0.348457350272,0.268375680581,0.18942831215999997,0.268829401089,1536000000.0,1183000000.0,835000000.0,0.105263157895,0.18942831215999997
2013-12-31,4583000000.0,-0.056219110378900004,0.0,0.0,584000000.0,1096000000.0,1680000000.0,1372000000.0,0.0,1104000000.0,309000000.0,0.0,0.0,1010000000.0,0.0,1010000000.0,0.96,0.95,1024000000.0,1035000000.0,0.208695652174,0.0,0.368317695832,0.299367226707,0.22037966397599998,0.259655247654,1688000000.0,1372000000.0,1010000000.0,0.240890246563,0.22037966397599998
2012-12-31,4856000000.0,0.0212407991588,2000000.0,4854000000.0,604000000.0,1139000000.0,1743000000.0,1451000000.0,0.0,1195000000.0,309000000.0,0.0,0.0,1149000000.0,0.0,1149000000.0,1.01,1.01,1112000000.0,1118000000.0,0.18246869409699998,0.9995881383859999,0.366350906096,0.298805601318,0.23661449752900002,0.26194398682,1779000000.0,1451000000.0,1149000000.0,0.246087314662,0.23661449752900002
2011-12-31,4755000000.0,0.06926017539910001,5000000.0,4750000000.0,646000000.0,1001000000.0,1647000000.0,1328000000.0,0.0,1331000000.0,246000000.0,0.0,0.0,1085000000.0,0.0,1085000000.0,0.93,0.92,1148000000.0,1156000000.0,0.167820069204,0.998948475289,0.370767613039,0.27928496319699997,0.22818086225,0.18506834910599998,1763000000.0,1328000000.0,1085000000.0,0.279915878023,0.22818086225
2010-12-31,4447000000.0,0.0392615096985,12000000.0,4435000000.0,642000000.0,884000000.0,1526000000.0,469000000.0,0.0,492000000.0,74000000.0,0.0,0.0,418000000.0,0.0,418000000.0,0.34,0.33,1222000000.0,1236000000.0,0.152912621359,0.9973015516079999,0.22172250955699999,0.105464357994,0.0939959523274,0.287609624466,986000000.0,469000000.0,418000000.0,0.110636384079,0.0939959523274
2009-12-31,4279000000.0,0.4765,2307000000.0,1972000000.0,627000000.0,939000000.0,1998000000.0,-26000000.0,0.0,-8000000.0,-121000000.0,0.0,0.0,113000000.0,0.0,113000000.0,0.09,0.09,1268298995.0,1283000000.0,0.0,0.4609,0.079,-0.0019,0.026000000000000002,0.2603,339000000.0,-8000000.0,113000000.0,-0.0019,0.0264
