,0,1,2,3,4,5,6,7,8,9,10,11,12,13,14,15,16,17,18,19,20,21,22,23,24,25,26,27,28,29,30
Date,Revenue,Revenue Growth,Cost of Revenue,Gross Profit,R&D Expenses,SG&A Expense,Operating Expenses,Operating Income,Interest Expense,Earnings before Tax,Income Tax Expense,Net Income - Non-Controlling int,Net Income - Discontinued ops,Net Income,Preferred Dividends,Net Income Com,EPS,EPS Diluted,Weighted Average Shs Out,Weighted Average Shs Out (Dil),Dividend per Share,Gross Margin,EBITDA Margin,EBIT Margin,Profit Margin,Free Cash Flow margin,EBITDA,EBIT,Consolidated Income,Earnings Before Tax Margin,Net Profit Margin
2018-12-31,0.0,0.0,0.0,0.0,10854074.0741,1745185.1852,14597777.7778,-14597777.7778,0.0,-13091851.8519,0.0,0.0,0.0,-13091851.8519,0.0,-13091851.8519,-0.1556,-0.1556,58330540.7407,63714968.8889,0.0,0.0,,0.0,,0.0,-12897777.7778,-13091851.8519,-13091851.8519,0.0,0.0
2017-12-31,0.0,0.0,0.0,0.0,28413197.172,2113904.1634,33279654.3598,-33279654.3598,0.0,-28672427.336999997,0.0,0.0,0.0,-28672427.336999997,0.0,-28672427.336999997,-0.3771,-0.3771,61858782.4038,60226886.8814,0.0,0.0,,0.0,,0.0,-28473684.2105,-28672427.336999997,-28672427.336999997,0.0,0.0
2016-12-31,0.0,0.0,0.0,0.0,0.0,1578869.0476,4732142.8571,-4732142.8571,0.0,-3165922.619,0.0,0.0,0.0,-3165922.619,0.0,-3165922.619,-0.0521,-0.0521,,43203597.4702,0.0,0.0,,0.0,,0.0,-3165922.619,-3165922.619,-3165922.619,0.0,0.0
2015-12-31,,0.0,,0.0,,,1446282.504,-1446282.504,0.0,,,,,,,,,,,,,,,,,,,-1605620.3852,,,
2015-06-30,0.0,,0.0,-212501.4405,0.0,605467.0947,2556745.8946,-2556745.8946,0.0,-1605620.3852,-62600.320999999996,0.0,0.0,-1543020.0642,0.0,-1543020.0642,-0.0642,-0.0642,,20145588.2825,0.0,0.0,,0.0,,0.0,-1605620.3852,-2556745.8946,-1543020.0642,0.0,0.0
