,0,1,2,3,4,5,6,7,8,9,10,11,12,13,14,15,16,17,18,19,20,21,22,23,24,25,26,27,28
Date,Cash and cash equivalents,Short-term investments,Cash and short-term investments,Receivables,Inventories,Total current assets,Property Plant & Equipment Net,Goodwill and Intangible Assets,Long-term investments,Tax assets,Total non-current assets,Total assets,Payables,Short-term debt,Total current liabilities,Long-term debt,Total debt,Deferred revenue,Tax Liabilities,Deposit Liabilities,Total non-current liabilities,Total liabilities,Other comprehensive income,Retained earnings (deficit),Total shareholders equity,Investments,Net Debt,Other Assets,Other Liabilities
2019-12-31,892000.0,0.0,892000.0,24051000.0,0.0,31262000.0,3349000.0,7104000.0,0.0,638000.0,13642000.0,44904000.0,14080000.0,1167000.0,22311000.0,1497000.0,2664000.0,0.0,464000.0,0.0,1497000.0,23808000.0,364028000.0,-342945000.0,21096000.0,0.0,1772000.0,0.0,0.0
2018-12-31,13600000.0,0.0,13600000.0,26898000.0,0.0,41743000.0,3181000.0,11976000.0,0.0,0.0,15673000.0,57416000.0,10908000.0,1000000.0,23901000.0,0.0,1000000.0,0.0,464000.0,0.0,0.0,23901000.0,361218000.0,-327716000.0,33515000.0,0.0,-12600000.0,0.0,0.0
2017-12-31,24993000.0,254000.0,25247000.0,25911000.0,0.0,52963000.0,4311000.0,34246000.0,100000.0,692000.0,39950000.0,92913000.0,7083000.0,0.0,16746000.0,0.0,0.0,0.0,464000.0,0.0,0.0,25746000.0,356054000.0,-288900000.0,67167000.0,354000.0,-24993000.0,0.0,9000000.0
2016-12-31,38512000.0,251000.0,38763000.0,33634000.0,0.0,77967000.0,4430000.0,66604000.0,680000.0,14799000.0,87314000.0,165281000.0,9764000.0,6563000.0,29172000.0,7500000.0,14063000.0,0.0,464000.0,0.0,12169000.0,45672000.0,350022000.0,-230424000.0,119609000.0,931000.0,-24449000.0,0.0,4331000.0
2015-12-31,23993000.0,0.0,23993000.0,28091000.0,0.0,57002000.0,4296000.0,72418000.0,0.0,17820000.0,96586000.0,153588000.0,7643000.0,5250000.0,23637000.0,12750000.0,18000000.0,0.0,500000.0,0.0,16392000.0,45387000.0,342485000.0,-234295000.0,108201000.0,0.0,-5993000.0,0.0,5358000.0
2014-12-31,20747000.0,0.0,20747000.0,18311000.0,0.0,45367000.0,1904000.0,25121000.0,0.0,27396000.0,59382000.0,104749000.0,7685000.0,5000000.0,22180000.0,6750000.0,11750000.0,0.0,636000.0,0.0,12559000.0,35491000.0,308190000.0,-238941000.0,69258000.0,0.0,-8997000.0,0.0,752000.0
2013-12-31,18930000.0,0.0,18930000.0,14178000.0,0.0,37131000.0,1548000.0,15423000.0,2500000.0,31135000.0,51062000.0,88193000.0,5267000.0,692000.0,12915000.0,5000000.0,5692000.0,-1000.0,636000.0,0.0,7043000.0,23365000.0,307171000.0,-242352000.0,64828000.0,2500000.0,-13238000.0,0.0,3407000.0
2012-12-31,15296000.0,0.0,15296000.0,10081000.0,0.0,25881000.0,1593000.0,13216000.0,0.0,-620000.0,14886000.0,40767000.0,3837000.0,375000.0,9382000.0,5000000.0,5375000.0,168000.0,636000000.0,0.0,6240000.0,15002000.0,306252000.0,-280496000.0,25765000.0,0.0,-9921000.0,0.0,0.0
2011-12-31,11209000.0,0.0,11209000.0,10144000.0,0.0,22324000.0,1629000.0,14570000.0,194000.0,0.0,16470000.0,38794000.0,3081000.0,0.0,8291000.0,5000000.0,5000000.0,216000.0,0.0,0.0,5607000.0,13898000.0,306733000.0,-281883000.0,24896000.0,194000.0,-6209000.0,0.0,0.0
2010-12-31,9219000.0,0.0,9219000.0,9067000.0,0.0,19083000.0,1733000.0,15935000.0,1000000.0,0.0,18749000.0,37832000.0,3713000.0,0.0,9272000.0,5000000.0,5000000.0,564000.0,0.0,0.0,5457000.0,14729000.0,0.0,-282299000.0,23103000.0,1000000.0,-4219000.0,797000.0,5559000.0
2009-12-31,25097000.0,0.0,25097000.0,8573000.0,0.0,34264000.0,1003000.0,0.0,0.0,0.0,1126000.0,35390000.0,2539000.0,0.0,7170000.0,0.0,0.0,603000.0,0.0,0.0,79000.0,7249000.0,0.0,-273735000.0,28141000.0,0.0,-25097000.0,594000.0,4631000.0
