,0,1,2,3,4,5,6,7,8,9,10,11,12,13,14,15,16,17,18,19,20,21,22,23,24,25,26,27,28,29,30
Date,Revenue,Revenue Growth,Cost of Revenue,Gross Profit,R&D Expenses,SG&A Expense,Operating Expenses,Operating Income,Interest Expense,Earnings before Tax,Income Tax Expense,Net Income - Non-Controlling int,Net Income - Discontinued ops,Net Income,Preferred Dividends,Net Income Com,EPS,EPS Diluted,Weighted Average Shs Out,Weighted Average Shs Out (Dil),Dividend per Share,Gross Margin,EBITDA Margin,EBIT Margin,Profit Margin,Free Cash Flow margin,EBITDA,EBIT,Consolidated Income,Earnings Before Tax Margin,Net Profit Margin
2019-12-31,1345622000.0,-0.036703598629199995,0.0,0.0,0.0,0.0,664065000.0,210389000.0,103012000.0,194370000.0,31374000.0,0.0,0.0,196979000.0,0.0,196979000.0,2.98,2.97,66205000.0,66329000.0,1.5494278520700002,0.0,0.278517295347,0.156350743374,0.14638509180099998,-0.0329200919723,374779000.0,210389000.0,196979000.0,0.144446211492,0.14638509180099998
2018-12-31,1396893000.0,-0.0339131451129,0.0,0.0,0.0,0.0,705694000.0,261113000.0,99715000.0,162658000.0,26060000.0,0.0,0.0,136429000.0,0.0,136429000.0,2.08,2.07,65673000.0,65946000.0,1.4867618961000002,0.0,0.332245204178,0.186924123752,0.09766603454949999,-0.0447170971578,464111000.0,261113000.0,136429000.0,0.116442705347,0.09766603454949999
2017-12-31,1445929000.0,0.00238893629942,0.0,0.0,0.0,0.0,721497000.0,284509000.0,95361000.0,198690000.0,82758000.0,0.0,0.0,115916000.0,0.0,115916000.0,1.8,1.79,64496000.0,64806000.0,1.42671974817,0.0,0.330312899181,0.196765539663,0.0801671451364,-0.00141154925311,477609000.0,284509000.0,115916000.0,0.137413386134,0.0801671451364
2016-12-31,1442483000.0,-0.0284844313216,0.0,0.0,0.0,0.0,737381000.0,289803000.0,86496000.0,215402000.0,78086000.0,0.0,0.0,137228000.0,0.0,137228000.0,2.16,2.15,63508000.0,63920000.0,1.36348560701,0.0,0.34120610086900005,0.200905660587,0.09513318354530001,-0.0335373103184,492184000.0,289803000.0,137228000.0,0.149327236439,0.09513318354530001
2015-12-31,1484776000.0,0.00829438760473,0.0,0.0,0.0,0.0,829989000.0,253214000.0,79968000.0,185619000.0,67449000.0,0.0,0.0,123227000.0,0.0,123227000.0,1.98,1.97,62301000.0,62708000.0,1.31397907763,0.0,0.297614589675,0.170540202697,0.0829936636907,-0.011978237794800001,441891000.0,253214000.0,123227000.0,0.12501481705,0.0829936636907
2014-12-31,1472562000.0,-0.09017148541400001,0.0,0.0,0.0,0.0,838232000.0,252588000.0,75302000.0,192106000.0,72240000.0,0.0,0.0,192041000.0,0.0,192041000.0,3.12,3.1,61632000.0,61887000.0,1.26543539031,0.0,0.268011126187,0.171529619805,0.130412845096,-0.0395555501228,394663000.0,252588000.0,192041000.0,0.130456985852,0.130412845096
2013-12-31,1618505000.0,0.0462203668774,0.0,0.0,0.0,0.0,993434000.0,244393000.0,78755000.0,113175000.0,63230000.0,0.0,0.0,111077000.0,0.0,111077000.0,1.85,1.85,59960000.0,59997000.0,1.22132773305,0.0,0.23839963423,0.150999224593,0.0686293832889,-0.032008551101199996,385851000.0,244393000.0,111077000.0,0.06992564125539999,0.0686293832889
2012-12-31,1547002000.0,-0.0449307930707,0.0,0.0,0.0,0.0,982432000.0,190070000.0,76894000.0,120061000.0,41261000.0,0.0,0.0,78210000.0,0.0,78210000.0,1.32,1.32,59028000.0,59201000.0,1.15795341295,0.0,0.219727576306,0.12286344814000001,0.050555849313699996,0.0293251075306,339919000.0,190070000.0,78210000.0,0.0776088201567,0.050555849313699996
2011-12-31,1619780000.0,0.0391598342251,0.0,0.0,0.0,0.0,1037512000.0,235622000.0,73876000.0,160171000.0,56632000.0,0.0,0.0,100224000.0,0.0,100224000.0,1.73,1.72,57872000.0,58092000.0,1.09717344901,0.0,0.23346318635899999,0.145465433577,0.0618750694539,0.018325328130999997,378159000.0,235622000.0,100224000.0,0.0988844164022,0.0618750694539
2010-12-31,1558740000.0,0.030527613689299998,0.0,0.0,0.0,0.0,1236699000.0,230188000.0,75789000.0,146105000.0,51157000.0,0.0,0.0,92425000.0,0.0,92425000.0,1.66,1.65,55595000.0,55824000.0,0.9974562912010001,0.0,0.21484211606800002,0.147675686773,0.0592946867342,0.016814863287,334883000.0,230188000.0,92425000.0,0.0937327585101,0.0592946867342
2009-12-31,1512565000.0,-0.0979,876122000.0,636443000.0,0.0,336010000.0,435785000.0,200658000.0,67034000.0,133394000.0,46323000.0,1577000.0,0.0,87071000.0,0.0,87071000.0,1.59,1.58,54779281.0,54694000.0,0.81,0.4208,0.198,0.1325,0.057999999999999996,0.0332,300203000.0,200428000.0,88648000.0,0.0882,0.0576
