,0,1,2,3,4,5,6,7,8,9,10,11,12,13,14,15,16,17,18,19,20,21,22,23,24,25,26,27,28,29,30
Date,Revenue,Revenue Growth,Cost of Revenue,Gross Profit,R&D Expenses,SG&A Expense,Operating Expenses,Operating Income,Interest Expense,Earnings before Tax,Income Tax Expense,Net Income - Non-Controlling int,Net Income - Discontinued ops,Net Income,Preferred Dividends,Net Income Com,EPS,EPS Diluted,Weighted Average Shs Out,Weighted Average Shs Out (Dil),Dividend per Share,Gross Margin,EBITDA Margin,EBIT Margin,Profit Margin,Free Cash Flow margin,EBITDA,EBIT,Consolidated Income,Earnings Before Tax Margin,Net Profit Margin
2019-12-31,468186000.0,0.030629226542700002,290832000.0,177354000.0,24070000.0,46593000.0,151133000.0,26221000.0,7209000.0,19012000.0,5202000.0,0.0,0.0,13601000.0,0.0,13601000.0,0.47,0.46,29030000.0,29656000.0,0.0783315349339,0.378810985378,0.10496469351900001,0.056005519174,0.0290504201322,0.0200838982797,49143000.0,26221000.0,13601000.0,0.0406077926294,0.0290504201322
2018-12-31,454272000.0,0.279470041994,271641000.0,182631000.0,26428000.0,42981000.0,143610000.0,39021000.0,4024000.0,33596000.0,9145000.0,0.0,0.0,24195000.0,0.0,24195000.0,0.83,0.81,29326000.0,30048000.0,0.0731829073482,0.402030061285,0.139024637222,0.0858978761623,0.053261041842800005,0.024976225697400004,63155000.0,39021000.0,24195000.0,0.0739556917442,0.053261041842800005
2017-12-31,355047000.0,0.137559153255,207655000.0,147392000.0,26076000.0,37660000.0,120598000.0,26794000.0,1941000.0,24853000.0,4443000.0,0.0,0.0,20274000.0,0.0,20274000.0,0.7,0.68,29100000.0,29703000.0,0.0538666128001,0.415133771022,0.13824648567700001,0.0754660650562,0.057102299132199996,0.166177998969,49084000.0,26794000.0,20274000.0,0.0699991832067,0.057102299132199996
2016-12-31,312113000.0,0.0785501517026,183825000.0,128288000.0,21298000.0,32128000.0,107748000.0,20540000.0,1623000.0,18917000.0,5540000.0,0.0,0.0,12788000.0,0.0,12788000.0,0.44,0.44,28859000.0,29394000.0,0.0196638769817,0.41103062032,0.134842188566,0.0658094984829,0.040972340146,0.14868332943499998,42086000.0,20540000.0,12788000.0,0.060609458753699996,0.040972340146
2015-12-31,289382000.0,-0.0309810671256,177480000.0,111902000.0,18808000.0,28516000.0,100378000.0,11524000.0,2772000.0,1589000.0,2009000.0,0.0,0.0,6591000.0,0.0,6591000.0,0.23,0.23,28673000.0,29237000.0,0.0390258918494,0.386693021681,0.115463297648,0.039822794783400006,0.022776122910199998,0.271502719589,33413000.0,11524000.0,6591000.0,0.00549101188049,0.022776122910199998
2014-12-31,298634000.0,-0.216226927125,184138000.0,114496000.0,21206000.0,27057000.0,107786000.0,6710000.0,3172000.0,-5196000.0,-451000.0,0.0,0.0,4841000.0,0.0,4841000.0,0.17,0.17,28436000.0,28912000.0,0.196181516325,0.383399077131,0.09770153431959999,0.022468975401300002,0.0162104783782,-0.114169853399,29177000.0,6710000.0,4841000.0,-0.0173992244687,0.0162104783782
2013-12-31,381021000.0,0.040500832901,209674000.0,171347000.0,21644000.0,33536000.0,115612000.0,55735000.0,2176000.0,46520000.0,18916000.0,0.0,0.0,34449000.0,0.0,34449000.0,1.22,1.19,28301000.0,28899000.0,0.166234125748,0.4497048719100001,0.197763377872,0.14627802667,0.0904123394774,-0.0163088123752,75352000.0,55735000.0,34449000.0,0.122093007997,0.0904123394774
2012-12-31,366190000.0,0.202874890369,205065000.0,161125000.0,20750000.0,29715000.0,101802000.0,59323000.0,2872000.0,56852000.0,20026000.0,0.0,0.0,36867000.0,0.0,36867000.0,1.32,1.28,27914000.0,28756000.0,0.213798859368,0.440003823152,0.209052677572,0.162000600781,0.10067724405400001,0.11039078074200001,76553000.0,59323000.0,36867000.0,0.15525273765,0.10067724405400001
2011-12-31,304429000.0,0.34193045019199997,181361000.0,123068000.0,0.0,0.0,83842000.0,39226000.0,3569000.0,35223000.0,13155000.0,0.0,0.0,22068000.0,0.0,22068000.0,0.8,0.79,27559000.0,27875000.0,0.0791031390135,0.404258464207,0.18436482726700001,0.12885106215199998,0.0724898087896,0.128982455679,56126000.0,39226000.0,22068000.0,0.11570185494799999,0.0724898087896
2010-12-31,226859000.0,0.102322146151,140538000.0,86321000.0,0.0,67130000.0,67130000.0,19191000.0,3171000.0,16174000.0,5190000.0,0.0,0.0,10984000.0,0.0,10984000.0,0.4,0.4,27452493.0,27385000.0,0.03,0.3805,0.134,0.0853,0.048,-0.033,30468000.0,19345000.0,10984000.0,0.0713,0.0484
2009-12-31,205801000.0,-0.1336,148903000.0,56898000.0,0.0,63227000.0,63227000.0,-6329000.0,3253000.0,-9538000.0,-3749000.0,0.0,0.0,-5789000.0,0.0,-5789000.0,-0.21,-0.21,27151019.0,27120000.0,0.06,0.2765,0.022000000000000002,-0.0305,-0.027999999999999997,0.1343,4519000.0,-6285000.0,-5789000.0,-0.0463,-0.0281
