,0,1,2,3,4,5,6,7,8,9,10,11,12,13,14,15,16,17,18,19,20,21,22,23,24,25,26,27,28
Date,Cash and cash equivalents,Short-term investments,Cash and short-term investments,Receivables,Inventories,Total current assets,Property Plant & Equipment Net,Goodwill and Intangible Assets,Long-term investments,Tax assets,Total non-current assets,Total assets,Payables,Short-term debt,Total current liabilities,Long-term debt,Total debt,Deferred revenue,Tax Liabilities,Deposit Liabilities,Total non-current liabilities,Total liabilities,Other comprehensive income,Retained earnings (deficit),Total shareholders equity,Investments,Net Debt,Other Assets,Other Liabilities
2019-12-31,6581000.0,0.0,6581000.0,136075000.0,163313000.0,336199000.0,56521000.0,244934000.0,0.0,2824000.0,333899000.0,670098000.0,64881000.0,4904000.0,138638000.0,148766000.0,153670000.0,6826000.0,0.0,0.0,180801000.0,325942000.0,72412000.0,274118000.0,344156000.0,0.0,147089000.0,0.0,6503000.0
2018-12-31,6168000.0,0.0,6168000.0,123320000.0,159895000.0,310188000.0,49252000.0,212373000.0,0.0,16013000.0,283399000.0,593587000.0,66535000.0,1609000.0,145528000.0,96671000.0,98280000.0,20043000.0,4030000.0,0.0,118829000.0,264357000.0,67621000.0,262840000.0,329230000.0,0.0,92112000.0,0.0,0.0
2017-12-31,11337000.0,0.0,11337000.0,102534000.0,123124000.0,254883000.0,49321000.0,203134000.0,0.0,14644000.0,280709000.0,535592000.0,53748000.0,5395000.0,126202000.0,77486000.0,82881000.0,14574000.0,1370000.0,0.0,104076000.0,230532000.0,67389000.0,238953000.0,305060000.0,0.0,71544000.0,0.0,254000.0
2016-12-31,7869000.0,0.0,7869000.0,83777000.0,120576000.0,227075000.0,50295000.0,121433000.0,0.0,25472000.0,202881000.0,429956000.0,24358000.0,0.0,97074000.0,40951000.0,40951000.0,3848000.0,13840000.0,0.0,50525000.0,147766000.0,63430000.0,220428000.0,282190000.0,0.0,33082000.0,0.0,167000.0
2015-12-31,5524000.0,0.0,5524000.0,72835000.0,136477000.0,236831000.0,47972000.0,129160000.0,0.0,8101000.0,206708000.0,443539000.0,15343000.0,55000.0,76282000.0,68321000.0,68376000.0,8888000.0,0.0,0.0,98931000.0,175144000.0,60265000.0,208507000.0,268395000.0,0.0,62852000.0,0.0,-69000.0
2014-12-31,4885000.0,0.0,4885000.0,86027000.0,165631000.0,287049000.0,50026000.0,100211000.0,0.0,8731000.0,186122000.0,473171000.0,20411000.0,71000.0,81245000.0,99455000.0,99526000.0,898000.0,0.0,0.0,130923000.0,211534000.0,57963000.0,202488000.0,261637000.0,0.0,94641000.0,0.0,-634000.0
2013-12-31,6680000.0,0.0,6680000.0,74060000.0,139830000.0,249506000.0,52468000.0,107007000.0,0.0,6521000.0,197937000.0,447443000.0,40702000.0,69000.0,110499000.0,51676000.0,51745000.0,3788000.0,0.0,0.0,75006000.0,189490000.0,53422000.0,202470000.0,257953000.0,0.0,45065000.0,0.0,3985000.0
2012-12-31,38476000.0,0.0,38476000.0,76073000.0,87951000.0,222317000.0,45701000.0,113521000.0,0.0,4877000.0,177573000.0,399890000.0,32838000.0,16247000.0,113670000.0,36196000.0,52443000.0,20427000.0,1313000.0,0.0,55359000.0,174813000.0,49519000.0,174243000.0,225077000.0,0.0,13967000.0,0.0,5784000.0
2011-12-31,35085000.0,0.0,35085000.0,68611000.0,71068000.0,178465000.0,39273000.0,116189000.0,0.0,203000.0,160676000.0,339141000.0,23214000.0,14460000.0,79025000.0,0.0,14460000.0,7571000.0,0.0,0.0,67089000.0,152069000.0,42813000.0,143524000.0,187072000.0,0.0,-20625000.0,0.0,5955000.0
2010-12-31,1158000.0,0.0,1158000.0,34096000.0,74054000.0,118614000.0,40541000.0,115249000.0,0.0,6715000.0,161565000.0,280179000.0,13961000.0,8429000.0,49568000.0,53710000.0,62139000.0,5568000.0,10461000.0,0.0,64174000.0,113742000.0,-448000.0,123661000.0,166437000.0,0.0,60981000.0,9306000.0,27178000.0
2009-12-31,383000.0,0.0,383000.0,41063000.0,72512000.0,120233000.0,39196000.0,86973000.0,0.0,4132000.0,135035000.0,255268000.0,11958000.0,8528000.0,51436000.0,45432000.0,53960000.0,0.0,5121000.0,0.0,50745000.0,102181000.0,-1743000.0,113496000.0,153087000.0,0.0,53577000.0,6275000.0,30950000.0
