,0,1,2,3,4,5,6,7,8,9,10,11,12,13,14
Date,Depreciation & Amortization,Stock-based compensation,Operating Cash Flow,Capital Expenditure,Acquisitions and disposals,Investment purchases and sales,Investing Cash flow,Issuance (repayment) of debt,Issuance (buybacks) of shares,Dividend payments,Financing Cash Flow,Effect of forex changes on cash,Net cash flow / Change in cash,Free Cash Flow,Net Cash/Marketcap
2019-12-31,22922000.0,7160000.0,9403000.0,0.0,-41852000.0,-2604000.0,-54837000.0,-0.0,-2604000.0,-2323000.0,46406000.0,-559000.0,6581000.0,9403000.0,0.0
2018-12-31,24134000.0,5805000.0,11346000.0,0.0,-19647000.0,-7287000.0,-27697000.0,-0.0,-7287000.0,-2199000.0,11133000.0,49000.0,-5218000.0,11346000.0,0.0
2017-12-31,22290000.0,4714000.0,59001000.0,0.0,-81896000.0,0.0,-89512000.0,-26000.0,-11337000.0,-1600000.0,33935000.0,44000.0,3424000.0,59001000.0,0.0
2016-12-31,21546000.0,3167000.0,46406000.0,224000.0,-0.0,0.0,-14137000.0,-704000.0,-7628000.0,-578000.0,-28545000.0,-1379000.0,3724000.0,46182000.0,0.0
2015-12-31,21889000.0,3881000.0,78568000.0,36667000.0,-0.0,0.0,-43691000.0,-1543000.0,-5207000.0,-1141000.0,-32864000.0,-1374000.0,2013000.0,41901000.0,0.0
2014-12-31,22467000.0,168000.0,-34095000.0,0.0,-0.0,-1531000.0,-7680000.0,-1756000.0,135000.0,-5672000.0,41156000.0,-1176000.0,-619000.0,-34095000.0,0.0
2013-12-31,19617000.0,90000.0,-6214000.0,0.0,-0.0,-1934000.0,-18947000.0,-46000000.0,-324000.0,-4804000.0,-7123000.0,488000.0,-32284000.0,-6214000.0,0.0
2012-12-31,17230000.0,0.0,40424000.0,3473000.0,-0.0,0.0,-21101000.0,-8443000.0,-35249000.0,-6148000.0,-16429000.0,497000.0,2894000.0,36951000.0,0.0
2011-12-31,16900000.0,0.0,39266000.0,316000.0,-0.0,0.0,-6577000.0,-8429000.0,-34505000.0,-2205000.0,2308000.0,-1070000.0,34997000.0,38950000.0,0.0
2010-12-31,11123000.0,1122000.0,33190000.0,-40681000.0,0.0,0.0,-40681000.0,-3407000.0,768000.0,-819000.0,8128000.0,138000.0,637000.0,-7491000.0,-0.2601
2009-12-31,10804000.0,1223000.0,31951000.0,-4322000.0,0.0,0.0,-4322000.0,-26006000.0,1470000.0,-1611000.0,-28585000.0,110000.0,-956000.0,27629000.0,-0.2377
