,0,1,2,3,4,5,6,7,8,9,10,11,12,13,14,15,16,17,18,19,20,21,22,23,24,25,26,27,28,29,30
Date,Revenue,Revenue Growth,Cost of Revenue,Gross Profit,R&D Expenses,SG&A Expense,Operating Expenses,Operating Income,Interest Expense,Earnings before Tax,Income Tax Expense,Net Income - Non-Controlling int,Net Income - Discontinued ops,Net Income,Preferred Dividends,Net Income Com,EPS,EPS Diluted,Weighted Average Shs Out,Weighted Average Shs Out (Dil),Dividend per Share,Gross Margin,EBITDA Margin,EBIT Margin,Profit Margin,Free Cash Flow margin,EBITDA,EBIT,Consolidated Income,Earnings Before Tax Margin,Net Profit Margin
2019-12-31,9131000.0,0.153632343651,6264000.0,2867000.0,5692000.0,16534000.0,22226000.0,-19359000.0,1480000.0,0.0,0.0,0.0,0.0,-19450000.0,3580000.0,-19450000.0,-3.18,-3.18,7239000.0,7239000.0,0.0,0.313985324718,-2.00394261308,-2.1201401818,-2.13010623152,-1.90033950279,-18298000.0,-19359000.0,-19450000.0,0.0,-2.13010623152
2018-12-31,7915000.0,-0.20324139319499998,6531000.0,1384000.0,6009000.0,17442000.0,23451000.0,-22067000.0,5692000.0,0.0,0.0,0.0,0.0,-27558000.0,2918000.0,-27558000.0,-3.34,-3.34,10687000.0,10687000.0,0.0,0.174857864814,-2.61137081491,-2.78799747315,-3.48174352495,-2.33708149084,-20669000.0,-22067000.0,-27558000.0,0.0,-3.48174352495
2017-12-31,9934000.0,-0.48298115957099996,13002000.0,-3068000.0,11319000.0,25120000.0,39484000.0,-42552000.0,6299000.0,0.0,0.0,0.0,0.0,-48732000.0,0.0,-48732000.0,-74.74,-74.74,652000.0,652000.0,0.0,-0.308838332998,-4.1129454399,-4.28347090799,-4.90557680693,-3.4750352325300002,-40858000.0,-42552000.0,-48732000.0,0.0,-4.90557680693
2016-12-31,19214000.0,0.7935218892929999,14445000.0,4769000.0,15536000.0,39950000.0,55486000.0,-50717000.0,5524000.0,-56128000.0,0.0,0.0,0.0,-56128000.0,0.0,-56128000.0,-3.39,-3.39,16574000.0,16574000.0,0.0,0.248204434267,-2.54965129593,-2.63958571875,-2.9212032892699997,-2.81253252836,-48989000.0,-50717000.0,-56128000.0,-2.9212032892699997,-2.9212032892699997
2015-12-31,10713000.0,-0.0445910996165,6478000.0,4235000.0,15694000.0,29231000.0,44925000.0,-40690000.0,5167000.0,-47344000.0,0.0,0.0,0.0,-47344000.0,0.0,-47344000.0,-4.38,-4.38,11362000.0,11362000.0,0.0,0.39531410435900005,-3.6582656585500004,-3.7981891160300005,-4.41930364977,-3.87006440773,-39191000.0,-40690000.0,-47344000.0,-4.41930364977,-4.41930364977
2014-12-31,11213000.0,-0.13506633755,6513000.0,4700000.0,11224000.0,18503000.0,29727000.0,-25027000.0,6016000.0,-31950000.0,14000.0,0.0,0.0,-31964000.0,0.0,-31964000.0,-53273.3,-53273.3,24613.0,600.0,0.0,0.4192,-2.1830000000000003,-2.3129,-2.8510000000000004,-1.9547,-24483000.0,-25934000.0,-31964000.0,-2.8494,-2.8506
2013-12-31,12964000.0,0.514485981308,8205000.0,4759000.0,15973000.0,25758000.0,41731000.0,-36972000.0,2934000.0,-39890000.0,11000.0,0.0,0.0,-39901000.0,0.0,-39901000.0,-68208.0,-68208.0,,585.0,0.0,0.3671,-2.735,-2.8507,-3.0780000000000003,-3.1743,-35455000.0,-36956000.0,-39901000.0,-3.077,-3.0778
2012-12-31,8560000.0,,4151000.0,4409000.0,15416000.0,22848000.0,38264000.0,-33855000.0,6000.0,-33855000.0,9000.0,0.0,0.0,-33864000.0,0.0,-33864000.0,-64812.0,-64812.0,,523.0,0.0,0.5151,-3.864,-3.9543,-3.9560000000000004,-4.1498,-33077000.0,-33849000.0,-33864000.0,-3.955,-3.9561
