,0,1,2,3,4,5,6,7,8,9,10,11,12,13,14,15,16,17,18,19,20,21,22,23,24,25,26,27,28
Date,Cash and cash equivalents,Short-term investments,Cash and short-term investments,Receivables,Inventories,Total current assets,Property Plant & Equipment Net,Goodwill and Intangible Assets,Long-term investments,Tax assets,Total non-current assets,Total assets,Payables,Short-term debt,Total current liabilities,Long-term debt,Total debt,Deferred revenue,Tax Liabilities,Deposit Liabilities,Total non-current liabilities,Total liabilities,Other comprehensive income,Retained earnings (deficit),Total shareholders equity,Investments,Net Debt,Other Assets,Other Liabilities
2017-12-31,240990000.0,0.0,240990000.0,0.0,603851000.0,844841000.0,32664000.0,0.0,300000.0,70365000.0,165303000.0,1010144000.0,35810000.0,0.0,35810000.0,472108000.0,472108000.0,0.0,0.0,0.0,479848000.0,578174000.0,401840000.0,7655000.0,431970000.0,300000.0,231118000.0,0.0,62516000.0
2016-12-31,67792000.0,0.0,67792000.0,0.0,584408000.0,652200000.0,33680000.0,0.0,1172000.0,110257000.0,188033000.0,840233000.0,37387000.0,0.0,37387000.0,275660000.0,275660000.0,0.0,0.0,0.0,385917000.0,389426000.0,398539000.0,29644000.0,450807000.0,1172000.0,207868000.0,0.0,0.0
2016-12,68000000.0,,,11000000.0,584000000.0,176000000.0,34000000.0,19000000.0,1000000.0,110000000.0,308000000.0,840000000.0,37000000.0,,82000000.0,276000000.0,276000000.0,10000000.0,,,308000000.0,389000000.0,,30000000.0,451000000.0,1000000.0,208000000.0,13000000.0,43000000.0
2015-12-31,46898000.0,0.0,46898000.0,0.0,582531000.0,629429000.0,34973000.0,0.0,1172000.0,12862000.0,112587000.0,742016000.0,33606000.0,0.0,33606000.0,326723000.0,326723000.0,0.0,0.0,0.0,326723000.0,440335000.0,396700000.0,-117463000.0,301681000.0,1172000.0,279825000.0,0.0,80006000.0
2015-12,47000000.0,,,7000000.0,583000000.0,78000000.0,35000000.0,19000000.0,1000000.0,0.0,359000000.0,742000000.0,34000000.0,,81000000.0,327000000.0,327000000.0,9000000.0,,,359000000.0,440000000.0,,-117000000.0,302000000.0,1000000.0,280000000.0,50000000.0,38000000.0
2014-12-31,180334000.0,0.0,180334000.0,0.0,383184000.0,563518000.0,36922000.0,0.0,17991000.0,13501000.0,105368000.0,668886000.0,16087000.0,0.0,16087000.0,299956000.0,299956000.0,0.0,0.0,0.0,299956000.0,382146000.0,393970000.0,-129413000.0,286740000.0,17991000.0,119622000.0,0.0,66103000.0
2014-12,180000000.0,,,3000000.0,383000000.0,86000000.0,37000000.0,6000000.0,18000000.0,0.0,333000000.0,669000000.0,16000000.0,,49000000.0,300000000.0,300000000.0,5000000.0,,,333000000.0,382000000.0,,-129000000.0,287000000.0,18000000.0,120000000.0,41000000.0,41000000.0
2013-12-31,144727000.0,0.0,144727000.0,0.0,240078000.0,384805000.0,37844000.0,0.0,1230000.0,0.0,81923000.0,466728000.0,9757000.0,0.0,9757000.0,105402000.0,105402000.0,0.0,0.0,0.0,105402000.0,180627000.0,391485000.0,-127481000.0,286101000.0,1230000.0,-39325000.0,0.0,65468000.0
2013-12,145000000.0,,,4000000.0,230000000.0,74000000.0,38000000.0,0.0,1000000.0,0.0,154000000.0,467000000.0,10000000.0,,26000000.0,105000000.0,105000000.0,2000000.0,,,154000000.0,181000000.0,,-127000000.0,286000000.0,1000000.0,-40000000.0,49000000.0,35000000.0
2012-12-31,79815000.0,0.0,79815000.0,0.0,171044000.0,250859000.0,36661000.0,0.0,1220000.0,1293000.0,87012000.0,337871000.0,4656000.0,0.0,4656000.0,105402000.0,105402000.0,0.0,0.0,0.0,105402000.0,171699000.0,259344000.0,-106110000.0,166172000.0,1220000.0,25587000.0,0.0,61641000.0
2012-12,80000000.0,,,7000000.0,171000000.0,74000000.0,37000000.0,0.0,1000000.0,0.0,152000000.0,338000000.0,5000000.0,,20000000.0,105000000.0,105000000.0,2000000.0,,,152000000.0,172000000.0,,-106000000.0,166000000.0,1000000.0,25000000.0,42000000.0,33000000.0
2011-12-31,124316000.0,0.0,124316000.0,0.0,188504000.0,312820000.0,37976000.0,0.0,845000.0,1293000.0,96236000.0,409056000.0,3357000.0,0.0,3357000.0,0.0,0.0,0.0,0.0,0.0,0.0,154859000.0,237029000.0,2973000.0,254197000.0,845000.0,-124316000.0,0.0,151502000.0
