,0,1,2,3,4,5,6,7,8,9,10,11,12,13,14
Date,Depreciation & Amortization,Stock-based compensation,Operating Cash Flow,Capital Expenditure,Acquisitions and disposals,Investment purchases and sales,Investing Cash flow,Issuance (repayment) of debt,Issuance (buybacks) of shares,Dividend payments,Financing Cash Flow,Effect of forex changes on cash,Net cash flow / Change in cash,Free Cash Flow,Net Cash/Marketcap
2019-12-31,15807000.0,34349000.0,22386000.0,10319000.0,-30310000.0,0.0,-52135000.0,-0.0,274705000.0,-0.0,354410000.0,-33000.0,324628000.0,12067000.0,0.0
2018-12-31,12992000.0,15921000.0,-3062000.0,20485000.0,-0.0,-1806000.0,-20367000.0,-0.0,-1806000.0,-0.0,151421000.0,255000.0,128247000.0,-23547000.0,0.0
2017-12-31,10859000.0,11757000.0,-3541000.0,-13955000.0,0.0,0.0,-16256000.0,12947000.0,920000.0,0.0,13695000.0,-53000.0,-6155000.0,-17496000.0,-0.0155
2016-12-31,10425000.0,8112000.0,-21696000.0,-6660000.0,-17218000.0,0.0,-29694000.0,4438000.0,-42172000.0,0.0,61000000.0,-57000.0,9553000.0,-28356000.0,-0.0155
2015-12-31,9116000.0,7020000.0,-47008000.0,-7494000.0,-43323000.0,0.0,-53773000.0,10137000.0,-30755000.0,0.0,22489000.0,-94000.0,-78386000.0,-54502000.0,-0.0155
