,0,1,2,3,4,5,6,7,8,9,10,11,12,13,14,15,16,17,18,19,20,21,22,23,24,25,26,27,28,29,30
Date,Revenue,Revenue Growth,Cost of Revenue,Gross Profit,R&D Expenses,SG&A Expense,Operating Expenses,Operating Income,Interest Expense,Earnings before Tax,Income Tax Expense,Net Income - Non-Controlling int,Net Income - Discontinued ops,Net Income,Preferred Dividends,Net Income Com,EPS,EPS Diluted,Weighted Average Shs Out,Weighted Average Shs Out (Dil),Dividend per Share,Gross Margin,EBITDA Margin,EBIT Margin,Profit Margin,Free Cash Flow margin,EBITDA,EBIT,Consolidated Income,Earnings Before Tax Margin,Net Profit Margin
2019-12-31,697600000.0,0.0694465736624,295400000.0,402200000.0,37700000.0,399100000.0,436800000.0,-55700000.0,15000000.0,-64000000.0,-18100000.0,0.0,0.0,-45900000.0,0.0,-45900000.0,-0.96,-0.96,47600000.0,47600000.0,0.0,0.576548165138,-0.0269495412844,-0.0798451834862,-0.0657970183486,-0.17932912844,-18800000.0,-55700000.0,-45900000.0,-0.0917431192661,-0.0657970183486
2018-12-31,652300000.0,0.0665467625899,261400000.0,390900000.0,41800000.0,340400000.0,382200000.0,500000.0,26400000.0,-18100000.0,-9600000.0,0.0,0.0,57500000.0,0.0,57500000.0,1.22,1.22,47200000.0,47200000.0,0.0,0.599264142266,0.052123256170499996,0.0007665184730950001,0.0881496244059,-0.29848229342300003,34000000.0,500000.0,57500000.0,-0.027747968725999998,0.0881496244059
2017-12-31,611600000.0,-0.615901526094,274700000.0,336900000.0,38200000.0,321700000.0,359900000.0,-43100000.0,31600000.0,-72200000.0,-40100000.0,0.0,0.0,79300000.0,0.0,79300000.0,1.69,1.69,46800000.0,46800000.0,0.0,0.550850228908,0.026814911707,-0.0704708960105,0.12965990843699998,0.165140614781,16400000.0,-43100000.0,79300000.0,-0.11805101373400001,0.12965990843699998
2016-12-31,1592300000.0,0.0113694105691,1034400000.0,557900000.0,41100000.0,411100000.0,452200000.0,87400000.0,32700000.0,55300000.0,15500000.0,0.0,0.0,39800000.0,0.0,39800000.0,0.85,0.85,46600000.0,47000000.0,0.0,0.350373673303,0.0958362117691,0.0548891540539,0.0249952898323,0.10029517050799999,152600000.0,87400000.0,39800000.0,0.0347296363751,0.0249952898323
2015-12-31,1574400000.0,-0.05842951976559999,1042800000.0,531600000.0,32300000.0,398500000.0,430800000.0,-377700000.0,33100000.0,-410500000.0,15800000.0,0.0,0.0,-426300000.0,0.0,-426300000.0,-9.15,-9.15,46600000.0,46600000.0,0.0,0.337652439024,-0.198361280488,-0.23990091463399998,-0.270769817073,0.0172764227642,-312300000.0,-377700000.0,-426300000.0,-0.260734247967,-0.270769817073
2014-12-31,1672100000.0,-0.00321907600596,1123500000.0,548600000.0,33600000.0,424500000.0,458100000.0,94300000.0,6000000.0,91200000.0,64100000.0,0.0,0.0,27100000.0,0.0,27100000.0,0.58,0.58,46536000.0,46538000.0,0.0,0.328090425214,0.107708869087,0.0563961485557,0.0162071646433,0.04150469469530001,180100000.0,94300000.0,27100000.0,0.0545421924526,0.0162071646433
2013-12-31,1677500000.0,-0.00385985748219,1065300000.0,612200000.0,37900000.0,351400000.0,389300000.0,222900000.0,100000.0,227800000.0,73200000.0,0.0,0.0,154600000.0,0.0,154600000.0,3.32,3.32,,,0.0,0.3649,0.177,0.1359,0.092,0.1044,297100000.0,227900000.0,154600000.0,0.1358,0.0922
2012-12-31,1684000000.0,0.0145189469245,1081500000.0,602500000.0,33000000.0,343000000.0,376000000.0,226500000.0,800000.0,229800000.0,77200000.0,0.0,0.0,152600000.0,0.0,152600000.0,3.28,3.28,,,0.0,0.3578,0.171,0.1369,0.091,0.0964,288200000.0,230600000.0,152600000.0,0.1365,0.0906
2011-12-31,1659900000.0,,1069100000.0,590800000.0,31200000.0,351700000.0,382900000.0,207900000.0,200000.0,214600000.0,72200000.0,0.0,0.0,142400000.0,0.0,142400000.0,,,,,0.0,0.3559,0.16,0.1294,0.086,0.0625,265900000.0,214800000.0,142400000.0,0.1293,0.0858
