,0,1,2,3,4,5,6,7,8,9,10,11,12,13,14,15,16,17,18,19,20,21,22,23,24,25,26,27,28
Date,Cash and cash equivalents,Short-term investments,Cash and short-term investments,Receivables,Inventories,Total current assets,Property Plant & Equipment Net,Goodwill and Intangible Assets,Long-term investments,Tax assets,Total non-current assets,Total assets,Payables,Short-term debt,Total current liabilities,Long-term debt,Total debt,Deferred revenue,Tax Liabilities,Deposit Liabilities,Total non-current liabilities,Total liabilities,Other comprehensive income,Retained earnings (deficit),Total shareholders equity,Investments,Net Debt,Other Assets,Other Liabilities
2019-12-31,61014000.0,47437000.0,108451000.0,0.0,8059000.0,121852000.0,7905000.0,0.0,0.0,10701000.0,12572000.0,134424000.0,2351000.0,450000.0,8162000.0,3579000.0,4029000.0,271000.0,3700000.0,0.0,14299000.0,141803000.0,407331999.99,-414653000.0,-7379000.0,47437000.0,-56985000.0,0.0,119342000.0
2018-12-31,66260000.0,100218000.0,166478000.0,0.0,7746000.0,177640000.0,7303000.0,114000.0,0.0,12032000.0,7625000.0,185265000.0,1322000.0,0.0,7763000.0,120074000.0,120074000.0,217000.0,3000000.0,0.0,132159000.0,127890000.0,387871999.99,-330348000.0,57375000.0,100218000.0,53814000.0,0.0,0.0
2017-12-31,28513000.0,80648000.0,109161000.0,0.0,8063000.0,120488000.0,4890000.0,134000.0,0.0,0.0,5024000.0,125512000.0,2080000.0,0.0,6787000.0,0.0,0.0,1071000.0,2100000.0,0.0,21000.0,6808000.0,360675999.99,-241972000.0,118704000.0,80648000.0,-28513000.0,0.0,0.0
2016-12-31,19244000.0,58519000.0,77763000.0,0.0,0.0,78448000.0,4258000.0,146000.0,0.0,0.0,4404000.0,82852000.0,992000.0,0.0,4036000.0,0.0,0.0,35000.0,1101000.0,0.0,1000000.0,5036000.0,255308999.99,-177289000.0,77816000.0,58519000.0,-19244000.0,0.0,0.0
2015-12-31,120585000.0,11839000.0,132424000.0,0.0,0.0,134151000.0,5016000.0,157000.0,0.0,0.0,5173000.0,139324000.0,2623000.0,13000.0,5306000.0,0.0,13000.0,127000.0,343000.0,0.0,0.0,6306000.0,243920999.99,-110915000.0,133018000.0,11839000.0,-120572000.0,0.0,1000000.0
2014-12-31,53563000.0,13115000.0,66678000.0,0.0,0.0,67098000.0,2536000.0,167000.0,2522000.0,-21532000.0,2703000.0,69801000.0,2129000.0,147000.0,2783000.0,13000.0,160000.0,13000.0,161000.0,0.0,27000.0,3810000.0,131400999.999,-65417000.0,65991000.0,15637000.0,-53403000.0,0.0,1000000.0
2013-12-31,30028961.0,4999251.0,35028212.0,11959384.0,0.0,42142935.0,1046774.0,240668.0,6938403.0,-10284000.0,1287442.0,43430377.0,540435.0,0.0,1136930.0,0.0,0.0,81888.0,0.0,0.0,26667.0,1913597.0,110442266.0,-34483567.0,41516780.0,11937654.0,-30028961.0,0.0,750000.0
2012-12-31,0.0,0.0,0.0,0.0,0.0,0.0,0.0,0.0,0.0,0.0,0.0,0.0,0.0,0.0,0.0,0.0,0.0,0.0,0.0,0.0,0.0,0.0,0.0,0.0,0.0,0.0,0.0,0.0,0.0
2012-07-31,0.0,0.0,0.0,0.0,0.0,0.0,0.0,0.0,0.0,0.0,0.0,0.0,0.0,0.0,0.0,0.0,0.0,0.0,0.0,0.0,0.0,0.0,0.0,0.0,0.0,0.0,0.0,0.0,0.0
2011-07-31,775856.0,0.0,775856.0,1341568.0,30278.0,1422839.0,3528.0,2788009.0,1304522.0,0.0,4841499.0,6264338.0,34961.0,0.0,69340.0,0.0,0.0,9797.0,0.0,0.0,1379522.0,1448862.0,0.0,-10491046.0,4815476.0,1304522.0,-775856.0,-724863.0,34379.0
2010-07-31,283273.0,0.0,283273.0,1753045.0,32620.0,751095.0,4474.0,2967621.0,1208538.0,0.0,5517871.0,6268966.0,32135.0,0.0,75651.0,0.0,0.0,20225.0,0.0,0.0,1283537.0,1359188.0,0.0,-10112285.0,4909778.0,1208538.0,-283273.0,-1317843.0,43516.0
2009-07-31,862076.0,0.0,862076.0,0.0,53445.0,4288216.0,14655.0,3169724.0,1103837.0,0.0,1178836.0,5231435.0,39457.0,0.0,158105.0,0.0,0.0,92765.0,0.0,0.0,1178836.0,1336941.0,0.0,-10754032.0,3894494.0,1103837.0,-862076.0,27698.0,118648.0
