,0,1,2,3,4,5,6,7,8,9,10,11,12,13,14,15,16,17,18,19,20,21,22,23,24,25,26,27,28,29,30
Date,Revenue,Revenue Growth,Cost of Revenue,Gross Profit,R&D Expenses,SG&A Expense,Operating Expenses,Operating Income,Interest Expense,Earnings before Tax,Income Tax Expense,Net Income - Non-Controlling int,Net Income - Discontinued ops,Net Income,Preferred Dividends,Net Income Com,EPS,EPS Diluted,Weighted Average Shs Out,Weighted Average Shs Out (Dil),Dividend per Share,Gross Margin,EBITDA Margin,EBIT Margin,Profit Margin,Free Cash Flow margin,EBITDA,EBIT,Consolidated Income,Earnings Before Tax Margin,Net Profit Margin
2019-12-31,34000.0,1.0,0.0,0.0,41658000.0,15781000.0,57439000.0,-57439000.0,3395000.0,0.0,0.0,0.0,0.0,-59037000.0,0.0,-59037000.0,-3.55,-3.55,16624941.0,16624941.0,0.0,0.0,-1668.79411765,-1689.38235294,-1736.38235294,-1502.88235294,-56739000.0,-57439000.0,-59037000.0,0.0,-1736.38235294
2018-12-31,0.0,0.0,0.0,0.0,25486000.0,8410000.0,33896000.0,-33896000.0,2159000.0,-36069000.0,0.0,0.0,0.0,-36069000.0,0.0,-36069000.0,-7.97,-7.97,22988359.0,4546373.0,0.0,0.0,,0.0,,0.0,-32839000.0,-33910000.0,-36069000.0,0.0,0.0
2017-12-31,0.0,,0.0,0.0,22916000.0,6005000.0,28921000.0,-28921000.0,2100000.0,-30940000.0,0.0,0.0,0.0,-30940000.0,0.0,-30940000.0,-7.37,-7.37,22988000.0,4211918.0,0.0,0.0,,0.0,,0.0,-27451000.0,-28840000.0,-30940000.0,0.0,0.0
