,0,1,2,3,4,5,6,7,8,9,10,11,12,13,14
Date,Depreciation & Amortization,Stock-based compensation,Operating Cash Flow,Capital Expenditure,Acquisitions and disposals,Investment purchases and sales,Investing Cash flow,Issuance (repayment) of debt,Issuance (buybacks) of shares,Dividend payments,Financing Cash Flow,Effect of forex changes on cash,Net cash flow / Change in cash,Free Cash Flow,Net Cash/Marketcap
2019-12-31,2064000.0,8720000.0,-83454000.0,1339000.0,-0.0,0.0,45287000.0,-0.0,0.0,-0.0,110955000.0,-12000.0,72776000.0,-84793000.0,0.0
2018-12-31,1284000.0,606000.0,-31370000.0,1228000.0,-0.0,-473000.0,-60050000.0,-0.0,137527000.0,-0.0,165342000.0,-14000.0,73908000.0,-32598000.0,0.0
2017-12-31,725000.0,461000.0,-18175000.0,-1039000.0,0.0,0.0,-1039000.0,0.0,22000.0,0.0,34815000.0,588000.0,16189000.0,-19214000.0,0.0494
2016-12-31,625117.0,321476.0,-17335256.0,-292115.0,0.0,0.0,-292115.0,0.0,0.0,0.0,1625000.0,-291.0,-16002662.0,-17627371.0,0.0494
