,0,1,2,3,4,5,6,7,8,9,10,11,12,13,14
Date,Depreciation & Amortization,Stock-based compensation,Operating Cash Flow,Capital Expenditure,Acquisitions and disposals,Investment purchases and sales,Investing Cash flow,Issuance (repayment) of debt,Issuance (buybacks) of shares,Dividend payments,Financing Cash Flow,Effect of forex changes on cash,Net cash flow / Change in cash,Free Cash Flow,Net Cash/Marketcap
2019-12-31,687323.0,6115160.0,-46375059.0,16121.0,-0.0,0.0,-16121.0,-7238889.0,238233817.0,-0.0,252388605.0,0.0,205997425.0,-46391180.0,0.0
2018-12-31,424570.0,1754974.0,-30053701.0,32696.0,-0.0,0.0,-32696.0,-3333333.0,12881321.0,-0.0,10034016.0,0.0,-20052381.0,-30086397.0,0.0
2017-12-31,860056.0,2072210.0,-26471652.0,9898.0,-0.0,0.0,-9898.0,-0.0,23677341.0,-0.0,23884176.0,0.0,-2597374.0,-26481550.0,0.0
2016-12-31,139195.0,2031418.0,-21281304.0,104561.0,-0.0,0.0,-104561.0,-0.0,0.0,-0.0,9968102.0,0.0,-11417763.0,-21385865.0,0.0
2015-12-31,3542.0,803279.0,-7438991.0,-20195.0,0.0,0.0,-20195.0,7328510.0,45549121.0,0.0,52877631.0,0.0,45418445.0,-7459186.0,0.2924
2014-12-31,0.0,376806.0,-4596394.0,0.0,0.0,0.0,0.0,5163886.0,0.0,0.0,5126366.0,0.0,529972.0,-4596394.0,-0.0679
2013-12-31,0.0,55281.0,-1631065.0,0.0,0.0,0.0,0.0,3717282.0,0.0,0.0,3717282.0,0.0,2086217.0,-1631065.0,-0.0679
