,0,1,2,3,4,5,6,7,8,9,10,11,12,13,14,15,16,17,18,19,20,21,22,23,24,25,26,27,28,29,30
Date,Revenue,Revenue Growth,Cost of Revenue,Gross Profit,R&D Expenses,SG&A Expense,Operating Expenses,Operating Income,Interest Expense,Earnings before Tax,Income Tax Expense,Net Income - Non-Controlling int,Net Income - Discontinued ops,Net Income,Preferred Dividends,Net Income Com,EPS,EPS Diluted,Weighted Average Shs Out,Weighted Average Shs Out (Dil),Dividend per Share,Gross Margin,EBITDA Margin,EBIT Margin,Profit Margin,Free Cash Flow margin,EBITDA,EBIT,Consolidated Income,Earnings Before Tax Margin,Net Profit Margin
2019-08-31,3672700000.0,-0.00201081492351,2193000000.0,1479700000.0,74700000.0,1015000000.0,1089700000.0,462900000.0,36400000.0,424900000.0,94500000.0,0.0,0.0,330400000.0,0.0,330400000.0,8.32,8.29,39700000.0,39800000.0,0.522613065327,0.402891605631,0.15008032237900001,0.126038064639,0.0899610640673,0.120265744548,551200000.0,462900000.0,330400000.0,0.115691453154,0.0899610640673
2018-08-31,3680100000.0,0.049927248865900005,2193300000.0,1486800000.0,63900000.0,1026600000.0,1090500000.0,454600000.0,35500000.0,425900000.0,76300000.0,0.0,0.0,349600000.0,0.0,349600000.0,8.54,8.52,40900000.0,41000000.0,0.521951219512,0.404010760577,0.14534931116,0.12352925192299999,0.09499741854839999,0.0841281486916,534900000.0,454600000.0,349600000.0,0.1157305508,0.09499741854839999
2017-08-31,3505100000.0,0.0649591346884,2023900000.0,1481200000.0,52000000.0,951100000.0,1003100000.0,518800000.0,34100000.0,492600000.0,170900000.0,0.0,0.0,321700000.0,0.0,321700000.0,7.46,7.43,43100000.0,43300000.0,0.524249422633,0.422584234401,0.16929616844,0.148012895495,0.0917805483438,0.07101081281560001,593400000.0,518800000.0,321700000.0,0.140538073093,0.0917805483438
2016-08-31,3291300000.0,0.215982561791,1855100000.0,1436200000.0,47100000.0,946000000.0,993100000.0,475200000.0,33300000.0,444600000.0,153800000.0,0.0,0.0,290800000.0,0.0,290800000.0,6.67,6.63,43500000.0,43800000.0,0.522831050228,0.436362531522,0.163400480053,0.144380639869,0.0883541457783,0.079603803968,537800000.0,475200000.0,290800000.0,0.13508340169500002,0.0883541457783
2015-08-31,2706700000.0,0.130854397326,1561100000.0,1145600000.0,41100000.0,756900000.0,798000000.0,376300000.0,32600000.0,343600000.0,121500000.0,0.0,0.0,222100000.0,0.0,222100000.0,5.13,5.09,43100000.0,43400000.0,0.5230414746540001,0.42324601913800003,0.15594635534,0.139025381461,0.0820556397089,0.0858610115639,422100000.0,376300000.0,222100000.0,0.126944249455,0.0820556397089
2014-08-31,2393500000.0,0.145708678378,1414300000.0,979200000.0,35300000.0,680300000.0,715600000.0,299100000.0,32600000.0,265700000.0,89900000.0,0.0,0.0,175800000.0,0.0,175800000.0,4.07,4.05,42800000.0,43000000.0,0.523255813953,0.409108000836,0.143095884688,0.12496344265699999,0.07344892416960001,0.08264048464589999,342500000.0,299100000.0,175800000.0,0.11100898266100001,0.07344892416960001
2013-08-31,2089100000.0,0.08036406888349999,1251500000.0,837600000.0,32700000.0,607600000.0,640300000.0,221500000.0,31900000.0,193100000.0,65700000.0,0.0,0.0,127400000.0,0.0,127400000.0,2.97,2.95,42200000.0,42500000.0,0.527058823529,0.40093820305399996,0.12555645971899998,0.106026518597,0.060983198506500004,0.0438945000239,262300000.0,221500000.0,127400000.0,0.0924321478148,0.060983198506500004
2012-08-31,1933700000.0,0.0768502533831,1145700000.0,788000000.0,34700000.0,566700000.0,601400000.0,208000000.0,31300000.0,179000000.0,62700000.0,0.0,0.0,116300000.0,0.0,116300000.0,2.75,2.72,41400000.0,41900000.0,0.525059665871,0.407508920722,0.128148109841,0.107565806485,0.0601437658375,0.0728137766975,247800000.0,208000000.0,116300000.0,0.09256865077310002,0.0601437658375
2011-08-31,1795700000.0,0.103755608827,1065700000.0,730000000.0,31300000.0,541300000.0,572600000.0,188700000.0,30400000.0,157600000.0,52100000.0,0.0,0.0,105500000.0,0.0,105500000.0,2.46,2.42,42200000.0,42800000.0,0.528037383178,0.406526702679,0.127415492566,0.105084368213,0.0587514618255,0.0767388762043,228800000.0,188700000.0,105500000.0,0.08776521690710001,0.0587514618255
2010-08-31,1626900000.0,-0.018402316881900003,965400000.0,661500000.0,0.0,495400000.0,503800000.0,157700000.0,29400000.0,119400000.0,39800000.0,0.0,-600000.0,79600000.0,0.0,79600000.0,1.84,1.8,43545797.0,42500000.0,0.52,0.4066,0.114,0.0915,0.049,0.0853,185300000.0,148800000.0,79600000.0,0.0734,0.0489
2009-08-31,1657400000.0,-0.1822,1022300000.0,635100000.0,0.0,454600000.0,481300000.0,153800000.0,28500000.0,127000000.0,42100000.0,0.0,300000.0,84900000.0,0.0,84900000.0,2.04,2.0,40800000.0,41600000.0,0.52,0.3832,0.115,0.0938,0.051,0.0433,191200000.0,155500000.0,84900000.0,0.0766,0.0512
