,0,1,2,3,4,5,6,7,8,9,10,11,12,13,14,15,16,17,18,19,20,21,22,23,24,25,26,27,28
Date,Cash and cash equivalents,Short-term investments,Cash and short-term investments,Receivables,Inventories,Total current assets,Property Plant & Equipment Net,Goodwill and Intangible Assets,Long-term investments,Tax assets,Total non-current assets,Total assets,Payables,Short-term debt,Total current liabilities,Long-term debt,Total debt,Deferred revenue,Tax Liabilities,Deposit Liabilities,Total non-current liabilities,Total liabilities,Other comprehensive income,Retained earnings (deficit),Total shareholders equity,Investments,Net Debt,Other Assets,Other Liabilities
2019-12-31,409949000.0,376995000.0,786944000.0,129912000.0,0.0,971985000.0,20296000.0,58993000.0,187921000.0,39658000.0,370353000.0,1342338000.0,9383000.0,68154000.0,246830000.0,29293000.0,97447000.0,83895000.0,7556000.0,0.0,40280000.0,917431000.0,412191000.0,14235000.0,424907000.0,564916000.0,-312502000.0,0.0,630321000.0
2018-12-31,89974000.0,239718000.0,329692000.0,94922000.0,0.0,461813000.0,11729000.0,16985000.0,96551000.0,69000.0,156354000.0,618167000.0,5028000.0,2130000.0,124580000.0,173647000.0,175777000.0,84015000.0,6200000.0,0.0,191769000.0,316349000.0,315291000.0,-12908000.0,301818000.0,336269000.0,85803000.0,0.0,0.0
2017-12-31,119716000.0,54386000.0,174102000.0,49797000.0,0.0,242339000.0,7492000.0,16745000.0,19964000.0,613000.0,49077000.0,291416000.0,522000.0,329000.0,130840000.0,0.0,329000.0,110213000.0,5794000.0,0.0,7072000.0,137912000.0,257402000.0,-103546000.0,153504000.0,74350000.0,-119387000.0,0.0,0.0
2016-12-31,31506000.0,21394000.0,52900000.0,35367000.0,0.0,100438000.0,6212000.0,0.0,0.0,40000.0,10977000.0,111415000.0,1780000.0,329000.0,85577000.0,0.0,329000.0,74134000.0,0.0,0.0,4266000.0,89843000.0,-9000.0,-86047000.0,-77610000.0,21394000.0,-52571000.0,12171000.0,83468000.0
2015-12-31,25979000.0,14791000.0,40770000.0,21569000.0,0.0,69886000.0,2650000.0,0.0,21573000.0,13000.0,27252000.0,97138000.0,583000.0,0.0,55044000.0,0.0,0.0,44179000.0,0.0,0.0,2265000.0,57309000.0,-81000.0,-61789000.0,-52911000.0,36364000.0,-40770000.0,7547000.0,54461000.0
