,0,1,2,3,4,5,6,7,8,9,10,11,12,13,14,15,16,17,18,19,20,21,22,23,24,25,26,27,28
Date,Cash and cash equivalents,Short-term investments,Cash and short-term investments,Receivables,Inventories,Total current assets,Property Plant & Equipment Net,Goodwill and Intangible Assets,Long-term investments,Tax assets,Total non-current assets,Total assets,Payables,Short-term debt,Total current liabilities,Long-term debt,Total debt,Deferred revenue,Tax Liabilities,Deposit Liabilities,Total non-current liabilities,Total liabilities,Other comprehensive income,Retained earnings (deficit),Total shareholders equity,Investments,Net Debt,Other Assets,Other Liabilities
2019-03-31,202105939.3064,107052.0231,202212991.3295,47790115.6069,0.0,251448063.5838,1205845794.7977,920736.9942,0.0,34776372.8324,1321727658.9595,1573175722.5434,50251184.9711,146153728.3237,245740881.5029,891017384.3931,1037171112.7168,27445375.7225,31033179.1908,0.0,960422543.3526,1206163424.8555,-10802673.4104,-91200794.7977,363146517.34099996,107052.0231,834958083.9369,996893.0636,49335968.2081
2018-03-31,170246098.3103,21253041.4747,191499139.785,34154454.6851,0.0,237705145.9293,869135176.6513,611397.8495,108156.68199999999,16165791.0906,898763671.275,1136468817.2043,23377173.5791,26250122.8879,79076313.3641,802380030.722,828630153.6098,25236927.8034,13794408.6022,0.0,853468556.0676,932544869.4316,-4526451.6129,-101282196.6206,186137281.10599998,21361198.1567,637153842.0113,11796229.0683,29449016.8971
2017-03-31,161286224.6862,50770724.5707,212056949.2569,17534534.5345,0.0,215924324.3243,630516793.7168,235189.0352,102117.5021,3030307.2303,669483622.0836,885407946.4079,55721121.1211,61831770.2318,132739508.7395,479599014.399,541430784.6308,22539893.7399,20184415.1844,0.0,522935843.5358,655675352.2754,621021.0210000001,-88140756.1408,203621005.621,50872842.0728,,,15186617.3866
2016-03-31,72168627.8059,0.0,72168627.8059,8399031.4989,0.0,75213764.1805,367810599.2035,221110.91,102356.3843,522884.9867,390795769.9734,466009534.15400004,28655080.8593,86530548.5156,122215936.5194,276863293.5071,363393842.0227,19163996.5001,7773096.1863,0.0,303933457.036,426149393.5554,434573.3768,-68008629.0128,-112198995.2933,102356.3843,,,7030307.1445
2015-03-31,53482840.7094,0.0,53482840.7094,3801821.3772,0.0,52944288.225,241982329.4456,251158.332,0.0,429988.8161,265376657.613,318320945.838,15521121.5849,36017638.6004,58665969.0046,247300031.95400003,283317670.5544,5075922.6714,3748266.4962,0.0,255702859.8818,314368828.8864,370538.4247,-45187761.6233,-71052148.9056,0.0,,,7127208.8193
