,0,1,2,3,4,5,6,7,8,9,10,11,12,13,14
Date,Depreciation & Amortization,Stock-based compensation,Operating Cash Flow,Capital Expenditure,Acquisitions and disposals,Investment purchases and sales,Investing Cash flow,Issuance (repayment) of debt,Issuance (buybacks) of shares,Dividend payments,Financing Cash Flow,Effect of forex changes on cash,Net cash flow / Change in cash,Free Cash Flow,Net Cash/Marketcap
2019-03-31,30883424.8555,1195072.2543,30576820.8092,-376506748.5549,0.0,21640101.1561,-376173786.1272,191481141.6185,198065924.8555,0.0,388545809.2486,-1002167.6301,42948843.9306,-345929927.7457,-1.9878
2018-03-31,28916298.0031,384946.2366,28250768.0492,-302083717.3579,0.0,30948356.3748,-277236912.4424,257067066.0522,251996.9278,0.0,258311536.0983,43241.1674,9325391.7051,-273832949.3088,-1.9104
2017-03-31,16117117.1171,212119.8121,-418726.4187,-237663032.26299998,0.0,-49167475.1675,-286830507.4305,225159528.7595,117925109.7251,0.0,374705582.5056,157557.5576,87456348.6563,-238081758.6818,-1.9104
2016-03-31,10375648.6845,780412.7444,11070902.7275,-137340333.092,4781091.6003,581040.309,-138170498.4311,79004721.8199,3741.2503,0.0,142795966.0874,84706.1308,15781076.5146,-126269430.3645,-1.9104
2015-03-31,5151461.8949,118677.105,-2822815.1462,-134852468.4454,0.0,222863.0772,-144607668.9567,129829940.8851,1086.4355,0.0,154530899.5047,12589.8706,7113324.8123,-137675283.5916,-1.9104
