,0,1,2,3,4,5,6,7,8,9,10,11,12,13,14,15,16,17,18,19,20,21,22,23,24,25,26,27,28,29,30
Date,Revenue,Revenue Growth,Cost of Revenue,Gross Profit,R&D Expenses,SG&A Expense,Operating Expenses,Operating Income,Interest Expense,Earnings before Tax,Income Tax Expense,Net Income - Non-Controlling int,Net Income - Discontinued ops,Net Income,Preferred Dividends,Net Income Com,EPS,EPS Diluted,Weighted Average Shs Out,Weighted Average Shs Out (Dil),Dividend per Share,Gross Margin,EBITDA Margin,EBIT Margin,Profit Margin,Free Cash Flow margin,EBITDA,EBIT,Consolidated Income,Earnings Before Tax Margin,Net Profit Margin
2018-12-31,530891000.0,0.05972613130530001,226876000.0,304015000.0,61482000.0,207279000.0,328577000.0,-24562000.0,0.0,-32260000.0,-9325000.0,0.0,0.0,-22935000.0,0.0,-22935000.0,-0.69,-0.69,,33111000.0,0.0,0.5727,0.003,-0.0608,-0.043,0.0474,1603000.0,-32260000.0,-22935000.0,-0.0608,-0.0432
2017-12-31,500970000.0,0.311810668985,219756000.0,281214000.0,51822000.0,200590000.0,272497000.0,8717000.0,0.0,5150000.0,25443000.0,0.0,0.0,-20293000.0,0.0,-20293000.0,-0.62,-0.62,,32564000.0,0.0,0.5613,0.07,0.0103,-0.040999999999999995,0.0313,35248000.0,5150000.0,-20293000.0,0.0103,-0.0405
2016-12-31,381892000.0,0.016035012571000002,146959000.0,234933000.0,33443000.0,135711000.0,179673000.0,55260000.0,0.0,54903000.0,12309000.0,0.0,0.0,42594000.0,0.0,42594000.0,1.31,1.29,,32460000.0,0.0,0.6152,0.188,0.1438,0.11199999999999999,0.182,71782000.0,54903000.0,42594000.0,0.1438,0.1115
2015-12-31,375865000.0,0.0562931029637,148328000.0,227537000.0,30434000.0,134038000.0,174064000.0,53473000.0,0.0,52409000.0,14485000.0,0.0,0.0,37924000.0,0.0,37924000.0,1.17,1.14,,32348000.0,0.0,0.6054,0.182,0.1394,0.10099999999999999,0.0872,68396000.0,52409000.0,37924000.0,0.1394,0.1009
2014-12-31,355834000.0,0.034064490631,141447000.0,214387000.0,30100000.0,131173000.0,168536000.0,45851000.0,0.0,46009000.0,13531000.0,0.0,0.0,32478000.0,0.0,32478000.0,1.03,1.0,,31499000.0,0.0,0.6025,0.162,0.1293,0.091,0.1065,57768000.0,46009000.0,32478000.0,0.1293,0.0913
2013-12-31,344112000.0,0.177336800328,141700000.0,202412000.0,30786000.0,126518000.0,167752000.0,34660000.0,0.0,31944000.0,8797000.0,0.0,0.0,23147000.0,0.0,23147000.0,0.77,0.75,,29993000.0,0.0,0.5882,0.13,0.0928,0.067,0.1016,44792000.0,31944000.0,23147000.0,0.0928,0.0673
2012-12-31,292280000.0,0.254986152558,128954000.0,163326000.0,29966000.0,128248000.0,158214000.0,5112000.0,0.0,4277000.0,454000.0,0.0,0.0,3823000.0,0.0,3823000.0,0.13,0.13,,29031000.0,0.0,0.5588,0.057999999999999996,0.0146,0.013000000000000001,0.0587,16892000.0,4277000.0,3823000.0,0.0146,0.0131
2011-12-31,232895000.0,0.0663104591323,101610000.0,131285000.0,25580000.0,96038000.0,141618000.0,-10333000.0,0.0,-10407000.0,772000.0,0.0,0.0,-11179000.0,0.0,-11179000.0,-0.39,-0.39,,28565000.0,0.0,0.5637,-0.001,-0.0447,-0.048,0.0797,-215000.0,-10407000.0,-11179000.0,-0.0447,-0.048
2010-12-31,218412000.0,0.312374943668,88608000.0,129804000.0,21278000.0,90592000.0,111870000.0,17934000.0,0.0,17744000.0,5804000.0,0.0,0.0,11940000.0,0.0,11940000.0,0.43,0.41,,28092000.0,0.0,0.5943,0.12300000000000001,0.0812,0.055,0.0334,26847000.0,17744000.0,11940000.0,0.0812,0.0547
2009-12-31,166425000.0,0.0284,66077000.0,100348000.0,16732000.0,68283000.0,85015000.0,15333000.0,0.0,17083000.0,5701000.0,0.0,0.0,11382000.0,0.0,11382000.0,0.41,0.4,,27651000.0,0.0,0.603,0.15,0.1026,0.068,0.1441,24967000.0,17083000.0,11382000.0,0.1026,0.0684
