,0,1,2,3,4,5,6,7,8,9,10,11,12,13,14
Date,Depreciation & Amortization,Stock-based compensation,Operating Cash Flow,Capital Expenditure,Acquisitions and disposals,Investment purchases and sales,Investing Cash flow,Issuance (repayment) of debt,Issuance (buybacks) of shares,Dividend payments,Financing Cash Flow,Effect of forex changes on cash,Net cash flow / Change in cash,Free Cash Flow,Net Cash/Marketcap
2018-12-31,128390294.1176,19278529.4118,-35871176.4706,-32437352.9412,0.0,0.0,-68848823.5294,0.0,-28062647.0588,-332478529.4118,-411856470.5882,207342941.1765,-309233529.4118,-68308529.4118,
2017-12-31,131204615.3846,19090153.8462,2861943076.9231,2084307.6923,0.0,206344615.3846,124822153.8462,-12322769.2308,-21848615.3846,-301535076.9231,-721015692.3077,-241441538.4615,2024308000.0,2864027384.6154,
2016-12-31,122705040.2625,22048911.4226,-407874739.0397,-45121682.0758,0.0,-462371607.5157,-590209066.5076,-119671040.8589,-19841336.1169,-194848195.6457,-480458395.4667,-135436922.1593,-1613979123.1733,-452996421.1154,
2015-12-31,117567741.9355,19217595.3079,-385819648.0938,-49894134.8974,0.0,-333062756.5982,-464060703.8123,195543988.2698,0.0,-158353372.434,15792375.3666,938311436.9501,104223460.4106,-435713782.9912,
2014-12-31,145566107.3826,21016107.3826,308486912.7517,-94609060.4027,245574832.2148,-668015436.2416,-599895973.1544,328260738.255,0.0,-144098322.1477,113946644.2953,152810402.6846,-24652013.4228,213877852.349,
2013-12-31,117395066.1423,21995709.689,1151900250.2681,-183503038.9703,-20585269.9321,-5304254.5585,-316078298.1766,268013228.4591,0.0,-191365033.965,52678226.6714,-263648194.4941,624851984.2689,968397211.2978,
2012-12-31,112104623.8245,27542319.7492,3814340909.0909,-145005485.8934,-192798981.1912,-1737445141.0658,-2140987460.815,460090125.3918,-18557601.8809,-192652429.4671,242902821.3166,113329153.605,1916256269.5925,3669335423.1975,
