,0,1,2,3,4,5,6,7,8,9,10,11,12,13,14,15,16,17,18,19,20,21,22,23,24,25,26,27,28
Date,Cash and cash equivalents,Short-term investments,Cash and short-term investments,Receivables,Inventories,Total current assets,Property Plant & Equipment Net,Goodwill and Intangible Assets,Long-term investments,Tax assets,Total non-current assets,Total assets,Payables,Short-term debt,Total current liabilities,Long-term debt,Total debt,Deferred revenue,Tax Liabilities,Deposit Liabilities,Total non-current liabilities,Total liabilities,Other comprehensive income,Retained earnings (deficit),Total shareholders equity,Investments,Net Debt,Other Assets,Other Liabilities
2018-12-31,6520151764.7059,,,793318823.5294,0.0,,435500588.2353,604618235.2941,144000000.0,0.0,,52136235588.2353,85792058.8235,,,23668000000.0,10191563235.2941,0.0,0.0,30750385294.1176,,44999154411.7647,0.0,1227953235.2941,7011542058.8235,42139483529.4118,,,
2017-12-31,7145226769.2308,,,586017846.1538,0.0,,464459076.9231,608881538.4615,203000000.0,0.0,,52453010153.8462,72364615.3846,,,24004000000.0,11801572923.0769,0.0,0.0,29898588000.0,,45605716923.0769,0.0,1314233846.1538,6694328307.6923,42109964000.0,,,
2016-12-31,4964440501.0438,,,473769758.4253,0.0,,462780495.079,584756934.0889,331000000.0,0.0,,46655300328.0644,69756039.3677,,,23206000000.0,11647079331.9415,0.0,0.0,25623736057.2622,,40655744407.9928,0.0,1048841634.3573,5862253206.0841,38699551744.7062,,,
2015-12-31,6566493841.6422,,,389355425.2199,0.0,,490158651.0264,557389149.5601,488000000.0,0.0,,45595371554.2522,70922873.9003,,,23857000000.0,11399620234.6041,0.0,0.0,25984349853.3724,,40689925806.4516,0.0,905999120.2346,4729623460.4106,35935288563.0499,,,
2014-12-31,7278344295.301999,,,407411744.9664,0.0,,595785570.4698,679588590.604,,0.0,,45246433557.047005,2862208053.6913,,,,8217982214.7651,0.0,0.0,25854687583.8926,,40338371476.5101,0.0,809654697.9866,4691092281.8792,34665985906.0403,,,
2013-12-31,7780811226.3139,,,480500536.2889,0.0,,722219163.3893,740418305.3271,,0.0,,40791641043.9757,1341728280.3003,,,,7685274579.907,0.0,0.0,24457124419.0204,,36378661065.4272,0.0,591844118.6986,4230071862.71,30029840543.4394,,,
2012-12-31,7842953761.7555,,,451856583.0721,0.0,,589836206.8966,759033699.0596,,0.0,,40765148510.9718,1945351489.0282,,,,7564483934.1693,0.0,0.0,24021579545.4545,,36403234717.8683,0.0,842564263.3229,4164702586.2069,29973258620.6897,,,
