,0,1,2,3,4,5,6,7,8,9,10,11,12,13,14,15,16,17,18,19,20,21,22,23,24,25,26,27,28
Date,Cash and cash equivalents,Short-term investments,Cash and short-term investments,Receivables,Inventories,Total current assets,Property Plant & Equipment Net,Goodwill and Intangible Assets,Long-term investments,Tax assets,Total non-current assets,Total assets,Payables,Short-term debt,Total current liabilities,Long-term debt,Total debt,Deferred revenue,Tax Liabilities,Deposit Liabilities,Total non-current liabilities,Total liabilities,Other comprehensive income,Retained earnings (deficit),Total shareholders equity,Investments,Net Debt,Other Assets,Other Liabilities
2018-12-31,90300000.0,19020000.0,90300000.0,144800000.0,36449000.0,295209000.0,448801000.0,2984000.0,0.0,1574000.0,466568000.0,761777000.0,98323000.0,27039000.0,184311000.0,322701000.0,349740000.0,855000.0,0.0,0.0,358038000.0,542349000.0,460429000.0,-241271000.0,219428000.0,19020000.0,259440000.0,0.0,0.0
2017-12-31,38520000.0,71956000.0,38520000.0,148444000.0,36403000.0,299615000.0,502579000.0,3221000.0,0.0,1878000.0,520865000.0,820480000.0,80518000.0,55997000.0,190957000.0,259242000.0,315239000.0,0.0,0.0,0.0,290870000.0,481827000.0,435063000.0,-96674000.0,338653000.0,71956000.0,276719000.0,0.0,0.0
2016-12-31,98875000.0,19306000.0,98875000.0,108655000.0,35691000.0,264530000.0,488848000.0,3458000.0,0.0,1271000.0,503630000.0,768160000.0,47959000.0,38468000.0,139821000.0,184752000.0,223220000.0,0.0,0.0,0.0,213931000.0,353752000.0,414147000.0,0.0,414408000.0,19306000.0,124345000.0,0.0,0.0
2015-12-31,46732000.0,29198000.0,46732000.0,102127000.0,36944000.0,224969000.0,846290000.0,66745000.0,0.0,13484000.0,936400000.0,1161369000.0,54521000.0,48651000.0,169555000.0,838368000.0,887019000.0,0.0,0.0,0.0,885476000.0,1055031000.0,362715000.0,-256812000.0,106338000.0,29198000.0,840287000.0,0.0,0.0
2014-12-31,79915000.0,33725000.0,79915000.0,247069000.0,44557000.0,415200000.0,1007969000.0,149184000.0,0.0,14664000.0,1181977000.0,1597177000.0,50618000.0,48575000.0,196138000.0,882572000.0,931147000.0,0.0,0.0,0.0,1058386000.0,1254524000.0,357285000.0,-15067000.0,342653000.0,33725000.0,851232000.0,0.0,0.0
2013-12-31,111532000.0,44558000.0,111532000.0,204394000.0,34240000.0,403013000.0,928037000.0,188469000.0,0.0,31436000.0,1140326000.0,1543339000.0,45508000.0,41394000.0,164648000.0,846691000.0,888085000.0,0.0,0.0,0.0,1033404000.0,1198052000.0,351578000.0,-6726000.0,345287000.0,44558000.0,776553000.0,0.0,0.0
2012-12-31,134565000.0,5635000.0,140200000.0,209100000.0,40230000.0,438300000.0,943766000.0,188598000.0,0.0,29113000.0,1157618000.0,1595918000.0,61740000.0,38235000.0,177997000.0,844906000.0,883141000.0,0.0,0.0,0.0,1043674000.0,1221671000.0,339299000.0,34513000.0,374247000.0,5635000.0,748576000.0,0.0,0.0
2011-12-31,78458000.0,48200000.0,78458000.0,254446000.0,34963000.0,422835000.0,856412000.0,157208000.0,0.0,39154000.0,1037093000.0,1459928000.0,56957000.0,34115000.0,156483000.0,748976000.0,783091000.0,0.0,0.0,0.0,943742000.0,1100225000.0,345619000.0,13659000.0,359703000.0,48200000.0,704633000.0,0.0,0.0
2010-12-31,47918000.0,0.0,47918000.0,150406000.0,21556000.0,331268000.0,625702000.0,61983000.0,0.0,87770000.0,698545000.0,1029813000.0,40477000.0,24231000.0,119254000.0,474628000.0,498859000.0,0.0,123393000.0,0.0,608636000.0,727890000.0,0.0,-27544000.0,301923000.0,0.0,450941000.0,111388000.0,54546000.0
2009-12-31,139480000.0,0.0,139480000.0,86010000.0,10962000.0,323168000.0,666642000.0,38613000.0,0.0,70727000.0,716373000.0,1039541000.0,22850000.0,25967000.0,91517000.0,475845000.0,501812000.0,0.0,122221000.0,0.0,607875000.0,699392000.0,0.0,23135000.0,340149000.0,0.0,362332000.0,86716000.0,42700000.0
