,0,1,2,3,4,5,6,7,8,9,10,11,12,13,14
Date,Depreciation & Amortization,Stock-based compensation,Operating Cash Flow,Capital Expenditure,Acquisitions and disposals,Investment purchases and sales,Investing Cash flow,Issuance (repayment) of debt,Issuance (buybacks) of shares,Dividend payments,Financing Cash Flow,Effect of forex changes on cash,Net cash flow / Change in cash,Free Cash Flow,Net Cash/Marketcap
2020-02-29,212000000.0,63000000.0,26000000.0,44000000.0,-0.0,0.0,-188000000.0,-0.0,9000000.0,-0.0,7000000.0,-1000000.0,-156000000.0,-18000000.0,0.0
2019-02-28,149000000.0,67000000.0,100000000.0,-16000000.0,-1404000000.0,1077000000.0,-375000000.0,0.0,5000000.0,0.0,5000000.0,-3000000.0,-273000000.0,84000000.0,
2018-02-28,177000000.0,49000000.0,704000000.0,-12000000.0,-27000000.0,-561000000.0,-630000000.0,0.0,-10000000.0,0.0,-10000000.0,6000000.0,70000000.0,692000000.0,
2017-02-28,239000000.0,60000000.0,-224000000.0,78000000.0,-435000000.0,1133000000.0,724000000.0,-710000000.0,5000000.0,0.0,-721000000.0,-1000000.0,-222000000.0,-146000000.0,
2016-02-29,616000000.0,60000000.0,257000000.0,-28000000.0,-1024000000.0,683000000.0,-439000000.0,0.0,-89000000.0,0.0,-78000000.0,-16000000.0,-276000000.0,229000000.0,
2015-02-28,694000000.0,50000000.0,813000000.0,261000000.0,-921000000.0,-92000000.0,-1173000000.0,0.0,67000000.0,0.0,16000000.0,-2000000.0,-346000000.0,1074000000.0,
2014-03-01,1270000000.0,68000000.0,-159000000.0,-234000000.0,-236000000.0,510000000.0,-1040000000.0,1250000000.0,-13000000.0,0.0,1224000000.0,5000000.0,30000000.0,-393000000.0,
2013-03-02,1918000000.0,86000000.0,2303000000.0,-413000000.0,-356000000.0,-466000000.0,-2240000000.0,0.0,-25000000.0,0.0,-36000000.0,-5000000.0,22000000.0,1890000000.0,
2012-03-03,1523000000.0,97000000.0,2912000000.0,-902000000.0,-581000000.0,676000000.0,-3024000000.0,0.0,-147000000.0,0.0,-149000000.0,-3000000.0,-264000000.0,2010000000.0,
2011-02-26,927000000.0,72000000.0,4009000000.0,-1039000000.0,-1278000000.0,1176000000.0,-1698000000.0,0.0,-2086000000.0,0.0,-2087000000.0,16000000.0,240000000.0,2970000000.0,
2010-02-27,616000000.0,58000000.0,3035000000.0,-1009000000.0,-1006000000.0,966000000.0,-1470000000.0,-6000000.0,-839000000.0,0.0,-843000000.0,-6000000.0,716000000.0,2026000000.0,
