,0,1,2,3,4,5,6,7,8,9,10,11,12,13,14,15,16,17,18,19,20,21,22,23,24,25,26,27,28,29,30
Date,Revenue,Revenue Growth,Cost of Revenue,Gross Profit,R&D Expenses,SG&A Expense,Operating Expenses,Operating Income,Interest Expense,Earnings before Tax,Income Tax Expense,Net Income - Non-Controlling int,Net Income - Discontinued ops,Net Income,Preferred Dividends,Net Income Com,EPS,EPS Diluted,Weighted Average Shs Out,Weighted Average Shs Out (Dil),Dividend per Share,Gross Margin,EBITDA Margin,EBIT Margin,Profit Margin,Free Cash Flow margin,EBITDA,EBIT,Consolidated Income,Earnings Before Tax Margin,Net Profit Margin
2018-12-31,,0.0,,,,,,286000000.0,,,148000000.0,,,,,354000000.0,1.74,1.74,204000000.0,,,,,,,,,,,,
2017-12-31,,0.0,,,,,,215000000.0,,,96000000.0,,,,,269000000.0,1.42,1.42,204000000.0,,,,,,,,,,,,
2016-12-31,,0.0,,,,,,412000000.0,,,164000000.0,,,,,244000000.0,1.36,1.36,179000000.0,,,,,,,,,,,,
2015-12-31,,,,,,,,637000000.0,,,220000000.0,,,,,405000000.0,2.26,2.26,179000000.0,,,,,,,,,,,,
