,0,1,2,3,4,5,6,7,8,9,10,11,12,13,14
Date,Depreciation & Amortization,Stock-based compensation,Operating Cash Flow,Capital Expenditure,Acquisitions and disposals,Investment purchases and sales,Investing Cash flow,Issuance (repayment) of debt,Issuance (buybacks) of shares,Dividend payments,Financing Cash Flow,Effect of forex changes on cash,Net cash flow / Change in cash,Free Cash Flow,Net Cash/Marketcap
2019-03-02,338825000.0,58514000.0,918278000.0,325366000.0,-0.0,-136890000.0,-509682000.0,-4224000.0,-148073000.0,-86287000.0,-238584000.0,-7181000.0,529971000.0,592912000.0,0.0
2018-03-03,313107000.0,70510000.0,859689000.0,375793000.0,-6119000.0,-252433000.0,-674412000.0,-434000.0,-252433000.0,-80877000.0,-323431000.0,-4035000.0,-142189000.0,483896000.0,0.0
2017-02-25,290914000.0,71911000.0,1041788000.0,373574000.0,-201277000.0,-547022000.0,-491929000.0,-0.0,-547022000.0,-55612000.0,-580727000.0,3624000.0,-27244000.0,668214000.0,0.0
2016-02-27,273947000.0,66965000.0,1012184000.0,328395000.0,-0.0,-1100585000.0,-275632000.0,-0.0,-1100585000.0,-0.0,-1088752000.0,-7801000.0,-360001000.0,683789000.0,0.0
2015-02-28,239193000.0,66539000.0,1185848000.0,330637000.0,-0.0,-2250597000.0,48769000.0,-10092000.0,-2250597000.0,-0.0,-712290000.0,-13269000.0,875574000.0,855211000.0,0.0
2014-03-01,218809000.0,56244000.0,1383186000.0,317180000.0,-0.0,-1283995000.0,-359750000.0,-0.0,-1283995000.0,-0.0,-1221891000.0,0.0,366516000.0,1066006000.0,0.0
2013-03-02,194728000.0,47163000.0,1192990000.0,354682000.0,-643098000.0,-1001280000.0,-665792000.0,-25511000.0,-1001280000.0,-0.0,-965393000.0,0.0,564971000.0,838308000.0,0.0
2012-02-25,183873000.0,45223000.0,1225284000.0,243374000.0,-0.0,-1217956000.0,-364000000.0,-0.0,-1217956000.0,-0.0,-1041705000.0,0.0,1003166000.0,981910000.0,0.0
2011-02-26,183820000.0,44276000.0,987407000.0,183474000.0,-0.0,-687605000.0,-340959000.0,-0.0,-687605000.0,-0.0,-558961000.0,0.0,87487000.0,803933000.0,0.0
2010-02-27,184232000.0,44235000.0,905407000.0,153680000.0,-0.0,-94857000.0,-488692000.0,-0.0,-94857000.0,-0.0,11176000.0,0.0,427891000.0,751727000.0,0.0
