,0,1,2,3,4,5,6,7,8,9,10,11,12,13,14,15,16,17,18,19,20,21,22,23,24,25,26,27,28,29,30
Date,Revenue,Revenue Growth,Cost of Revenue,Gross Profit,R&D Expenses,SG&A Expense,Operating Expenses,Operating Income,Interest Expense,Earnings before Tax,Income Tax Expense,Net Income - Non-Controlling int,Net Income - Discontinued ops,Net Income,Preferred Dividends,Net Income Com,EPS,EPS Diluted,Weighted Average Shs Out,Weighted Average Shs Out (Dil),Dividend per Share,Gross Margin,EBITDA Margin,EBIT Margin,Profit Margin,Free Cash Flow margin,EBITDA,EBIT,Consolidated Income,Earnings Before Tax Margin,Net Profit Margin
2019-12-31,7917000.0,3.88101109741,0.0,0.0,20214000.0,12171000.0,32385000.0,-24468000.0,2096000.0,0.0,0.0,0.0,0.0,-23900000.0,0.0,-23900000.0,-4.5,-4.5,3023023.0,3023023.0,0.0,0.0,-2.88808892257,-3.0905646078099998,-3.0188202601999996,-4.54806113427,-22865000.0,-24468000.0,-23900000.0,0.0,-3.0188202601999996
2018-12-31,1622000.0,-0.882625370866,1436000.0,186000.0,12327000.0,7505000.0,19832000.0,-19646000.0,0.0,0.0,0.0,0.0,0.0,-16254000.0,0.0,-16254000.0,-0.74,-0.74,21842000.0,21842000.0,0.0,0.11467324290999999,-12.019112207200001,-12.112207151700002,-10.0209617756,-8.92786683107,-19495000.0,-19646000.0,-16254000.0,0.0,-10.0209617756
2017-12-31,13819000.0,-0.0489986924506,6479000.0,7340000.0,14391000.0,6335000.0,20726000.0,-13386000.0,0.0,0.0,0.0,0.0,0.0,-12960000.0,0.0,-12960000.0,-1.01,-1.01,12888000.0,12888000.0,0.0,0.531152760692,-0.911281568854,-0.968666328967,-0.9378392068889999,-0.628193067516,-12593000.0,-13386000.0,-12960000.0,0.0,-0.9378392068889999
2016-12-31,14531000.0,-0.306396181384,6291000.0,8240000.0,10355000.0,7062000.0,17417000.0,-9177000.0,0.0,0.0,0.0,0.0,0.0,-8973000.0,0.0,-8973000.0,-0.9,-0.9,10019000.0,10019000.0,0.0,0.5670635193720001,-0.554676209483,-0.631546349185,-0.617507397977,-0.5947973298470001,-8060000.0,-9177000.0,-8973000.0,0.0,-0.617507397977
2015-12-31,20950000.0,0.37674968784900004,10927000.0,10023000.0,11061000.0,8366000.0,30354000.0,-9404000.0,0.0,0.0,0.0,0.0,0.0,-9238000.0,0.0,-9238000.0,-0.1,-0.1,91751000.0,91751000.0,0.0,0.47842482100199996,-0.393556085919,-0.448878281623,-0.440954653938,-0.33508353222,-8245000.0,-9404000.0,-9238000.0,0.0,-0.440954653938
2014-12-31,15217000.0,0.971624773257,10824000.0,4393000.0,11467000.0,9552000.0,31843000.0,-16626000.0,0.0,0.0,0.0,0.0,0.0,-16492000.0,0.0,-16492000.0,-0.19,-0.19,88786000.0,88786000.0,0.0,0.28869028060699997,-0.983308142209,-1.09259380956,-1.0837878688299998,-0.649996714201,-14963000.0,-16626000.0,-16492000.0,0.0,-1.0837878688299998
2013-12-31,7718000.0,-0.559449740282,12698000.0,-4980000.0,14558000.0,11814000.0,39070000.0,-31352000.0,0.0,0.0,0.0,0.0,0.0,-31238000.0,0.0,-31238000.0,-0.36,-0.36,86840000.0,86840000.0,0.0,-0.645244882094,-3.77545996372,-4.06219227779,-4.04742161182,-3.9038611039099997,-29139000.0,-31352000.0,-31238000.0,0.0,-4.04742161182
2012-12-31,17519000.0,-0.416383503231,13055000.0,4464000.0,17340000.0,10557000.0,40952000.0,-23433000.0,0.0,0.0,0.0,0.0,0.0,-22899000.0,0.0,-22899000.0,-0.27,-0.27,85966000.0,85966000.0,0.0,0.25480906444400003,-1.2243278726,-1.3375763456799998,-1.30709515383,-1.04001369941,-21449000.0,-23433000.0,-22899000.0,0.0,-1.30709515383
2011-12-31,30018000.0,2.44598783148,10267000.0,19751000.0,17975000.0,9598000.0,37840000.0,-7822000.0,0.0,0.0,0.0,0.0,0.0,-7283000.0,0.0,-7283000.0,-0.1,-0.1,72031.0,72031.0,0.0,0.657971883537,-0.184022919582,-0.26057698714099997,-0.24262109401,-0.136717969218,-5524000.0,-7822000.0,-7283000.0,0.0,-0.24262109401
2010-12-31,8711000.0,-0.313337537443,11436000.0,-2725000.0,19692000.0,8798000.0,28490000.0,-31215000.0,0.0,-30385000.0,0.0,0.0,0.0,-30385000.0,0.0,-30385000.0,-35.7,-35.7,1023193.0,858343.0,0.0,-0.3128,-3.1660000000000004,-3.4881,-3.488,-3.2803,-27577000.0,-30385000.0,-30385000.0,-3.4881,-3.4881
2009-12-31,12686000.0,0.5945,10354000.0,2332000.0,23449000.0,7469000.0,30918000.0,-28586000.0,2000.0,-28558000.0,0.0,0.0,0.0,-28558000.0,0.0,-28558000.0,-42.7,-42.7,740190.0,672657.0,0.0,0.1838,-2.044,-2.251,-2.251,-1.7168,-25927000.0,-28556000.0,-28558000.0,-2.2511,-2.2511
