,0,1,2,3,4,5,6,7,8,9,10,11,12,13,14,15,16,17,18,19,20,21,22,23,24,25,26,27,28,29,30
Date,Revenue,Revenue Growth,Cost of Revenue,Gross Profit,R&D Expenses,SG&A Expense,Operating Expenses,Operating Income,Interest Expense,Earnings before Tax,Income Tax Expense,Net Income - Non-Controlling int,Net Income - Discontinued ops,Net Income,Preferred Dividends,Net Income Com,EPS,EPS Diluted,Weighted Average Shs Out,Weighted Average Shs Out (Dil),Dividend per Share,Gross Margin,EBITDA Margin,EBIT Margin,Profit Margin,Free Cash Flow margin,EBITDA,EBIT,Consolidated Income,Earnings Before Tax Margin,Net Profit Margin
2018-07-31,127943000.0,0.1098,,127326000.0,,,,65857000.0,,65866000.0,,,,,,,1.15,1.15,57000000.0,,,0.9952,,,,,,,,0.5148,
2017-07-31,115280000.0,0.19899999999999998,,114546000.0,,,,391000.0,,401000.0,,,,,,,0.01,0.01,57000000.0,,,0.9936,,,,,,,,0.0035,
2016-07-31,96148000.0,0.0396,,95402000.0,,,,235369000.0,,235380000.0,,,,,,,4.12,4.12,57000000.0,,,0.9922,,,,,,,,2.4481,
2015-07-31,92489000.0,,,91782000.0,,,,61923000.0,,61932000.0,,,,,,,1.08,1.08,57000000.0,,,0.9924,,,,,,,,0.6696,
