,0,1,2,3,4,5,6,7,8,9,10,11,12,13,14,15,16,17,18,19,20,21,22,23,24,25,26,27,28,29,30
Date,Revenue,Revenue Growth,Cost of Revenue,Gross Profit,R&D Expenses,SG&A Expense,Operating Expenses,Operating Income,Interest Expense,Earnings before Tax,Income Tax Expense,Net Income - Non-Controlling int,Net Income - Discontinued ops,Net Income,Preferred Dividends,Net Income Com,EPS,EPS Diluted,Weighted Average Shs Out,Weighted Average Shs Out (Dil),Dividend per Share,Gross Margin,EBITDA Margin,EBIT Margin,Profit Margin,Free Cash Flow margin,EBITDA,EBIT,Consolidated Income,Earnings Before Tax Margin,Net Profit Margin
2019-12-31,942311000.0,0.00171468420258,734058000.0,208253000.0,0.0,153879000.0,153879000.0,50488000.0,1789000.0,61138000.0,12846000.0,0.0,0.0,48292000.0,0.0,48292000.0,6.48,6.27,7451000.0,7699000.0,1.06611248214,0.22100240790999998,0.05651743426530001,0.05357891396790001,0.0512484731686,0.07040032430910001,53257000.0,50488000.0,48292000.0,0.0648809151119,0.0512484731686
2018-12-31,940698000.0,0.022017922019199998,754025000.0,186673000.0,0.0,145465000.0,145465000.0,36989000.0,1052000.0,44769000.0,6707000.0,0.0,0.0,38062000.0,0.0,38062000.0,5.18,4.98,7342000.0,7647000.0,0.960899699228,0.198440944915,0.04380576975819999,0.0393208022128,0.0404614445869,0.06814620632759999,41208000.0,36989000.0,38062000.0,0.0475912567051,0.0404614445869
2017-12-31,920432000.0,0.09498849612060001,761901000.0,158531000.0,0.0,123138000.0,123138000.0,29941000.0,313000.0,34378000.0,9208000.0,0.0,0.0,25170000.0,0.0,25170000.0,3.46,3.33,7275000.0,7551000.0,0.963580982651,0.172235428581,0.038452596172199996,0.032529290594000004,0.0273458549898,0.11860952248500001,35393000.0,29941000.0,25170000.0,0.0373498531125,0.0273458549898
2016-12-31,840586000.0,0.134637526811,695050000.0,145536000.0,0.0,113342000.0,113342000.0,28941000.0,807000.0,25586000.0,6787000.0,0.0,0.0,18799000.0,0.0,18799000.0,2.6,2.55,7226000.0,7378000.0,0.8618866901600001,0.17313635963500001,0.038299472035,0.0344295527168,0.022364160240599996,0.0870832966526,32194000.0,28941000.0,18799000.0,0.030438289479,0.022364160240599996
2015-12-31,740841000.0,0.16450743810000001,611385000.0,129456000.0,0.0,90177000.0,90177000.0,36428000.0,1965000.0,35146000.0,9652000.0,0.0,0.0,25494000.0,0.0,25494000.0,3.55,3.47,7173000.0,7353000.0,0.8581531347750001,0.174741948677,0.0530194738142,0.0491711446856,0.034412242303,0.131789412303,39279000.0,36428000.0,25494000.0,0.047440678904099996,0.034412242303
2014-12-31,636184000.0,0.193940440354,605767000.0,30417000.0,0.0,73821000.0,73821000.0,-45910000.0,173000.0,-45337000.0,-18253000.0,0.0,0.0,-27084000.0,0.0,-27084000.0,-3.78,-3.78,7160000.0,7160000.0,0.7601955307260001,0.0478116393999,-0.0682255448109,-0.072164656766,-0.0425725890623,0.102115111351,-43404000.0,-45910000.0,-27084000.0,-0.0712639739446,-0.0425725890623
2013-12-31,532844000.0,0.323336280461,446320000.0,86524000.0,0.0,60061000.0,60061000.0,24426000.0,238000.0,24902000.0,7010000.0,0.0,0.0,17892000.0,0.0,17892000.0,2.52,2.42,7105000.0,7397000.0,0.5483304042180001,0.162381485012,0.049663691436900005,0.0458408089422,0.0335783080977,0.124049440362,26463000.0,24426000.0,17892000.0,0.046734128563,0.0335783080977
2012-12-31,402652000.0,0.278771826191,335938000.0,66714000.0,0.0,46450000.0,46450000.0,18787000.0,0.0,19459000.0,6328000.0,0.0,0.0,13131000.0,0.0,13131000.0,1.7,1.67,7723000.0,7863000.0,0.45148162279,0.165686498515,0.0503263363897,0.0466581564229,0.0326112871661,0.104171840696,20264000.0,18787000.0,13131000.0,0.048327091384100004,0.0326112871661
2011-12-31,314874000.0,0.152865192606,271422000.0,43452000.0,0.0,38174000.0,38174000.0,3934000.0,0.0,15155000.0,837000.0,0.0,0.0,14318000.0,0.0,14318000.0,1.42,1.41,10083000.0,10150000.0,0.377832512315,0.13799805636499998,0.0167622604597,0.0124938864435,0.045472157116800006,0.09561920006100001,5278000.0,3934000.0,14318000.0,0.0481303632564,0.045472157116800006
2010-12-31,273123000.0,0.155049479827,228383000.0,44740000.0,0.0,35429000.0,36824000.0,7916000.0,0.0,9927000.0,2574000.0,0.0,0.0,7353000.0,0.0,7353000.0,0.71,0.71,10201222.0,10333000.0,0.33,0.1638,0.040999999999999995,0.0363,0.027000000000000003,0.0598,11322000.0,9927000.0,7353000.0,0.0363,0.0269
2009-12-31,236460000.0,-0.1569,209521000.0,26939000.0,0.0,33481000.0,35122000.0,-8183000.0,0.0,-6543000.0,-2598000.0,0.0,0.0,-3945000.0,0.0,-3945000.0,-0.38,-0.38,10488202.0,10452000.0,0.32,0.1139,-0.021,-0.0277,-0.017,0.0091,-4902000.0,-6543000.0,-3945000.0,-0.0277,-0.0167
