,0,1,2,3,4,5,6,7,8,9,10,11,12,13,14,15,16,17,18,19,20,21,22,23,24,25,26,27,28,29,30
Date,Revenue,Revenue Growth,Cost of Revenue,Gross Profit,R&D Expenses,SG&A Expense,Operating Expenses,Operating Income,Interest Expense,Earnings before Tax,Income Tax Expense,Net Income - Non-Controlling int,Net Income - Discontinued ops,Net Income,Preferred Dividends,Net Income Com,EPS,EPS Diluted,Weighted Average Shs Out,Weighted Average Shs Out (Dil),Dividend per Share,Gross Margin,EBITDA Margin,EBIT Margin,Profit Margin,Free Cash Flow margin,EBITDA,EBIT,Consolidated Income,Earnings Before Tax Margin,Net Profit Margin
2019-12-31,82604000.0,0.0633745703583,0.0,0.0,0.0,28456000.0,28456000.0,30343000.0,40951000.0,30343000.0,9309000.0,0.0,0.0,21034000.0,1346000.0,21034000.0,1.2,1.2,16367000.0,16423000.0,0.530597333009,0.0,0.439046535277,0.36733087986100005,0.254636579342,0.26335286426800003,36267000.0,30343000.0,21034000.0,0.36733087986100005,0.254636579342
2018-12-31,77681000.0,0.255267920626,0.0,0.0,0.0,27590000.0,27590000.0,24245000.0,27416000.0,24245000.0,7482000.0,0.0,0.0,16763000.0,953000.0,16763000.0,1.02,1.01,15567000.0,15661000.0,0.5364919226100001,0.0,0.38557691069899996,0.312109782315,0.215792793605,0.495114635496,29952000.0,24245000.0,16763000.0,0.312109782315,0.215792793605
2017-12-31,61884000.0,0.12393752270300001,0.0,0.0,0.0,23706000.0,23706000.0,20213000.0,15687000.0,20213000.0,10231000.0,0.0,0.0,9982000.0,614000.0,9982000.0,0.76,0.75,12403000.0,12508000.0,0.523185161497,0.0,0.39094111563600004,0.326627238058,0.161301790447,0.309062116217,24193000.0,20213000.0,9982000.0,0.326627238058,0.161301790447
2016-12-31,55060000.0,0.028947319242799998,0.0,0.0,0.0,25277000.0,25277000.0,13261000.0,16295000.0,13261000.0,5258000.0,0.0,0.0,8003000.0,936000.0,8003000.0,0.63,0.63,11238000.0,11251000.0,0.5347080259529999,0.0,0.317623356339,0.240846349437,0.145350526698,0.0211405739194,17488342.0,13261000.0,8003000.0,0.240846349437,0.145350526698
2015-12-31,53511000.0,0.0726226747915,0.0,0.0,0.0,23068000.0,23068000.0,11844000.0,13869000.0,11844000.0,4814000.0,0.0,0.0,7030000.0,917000.0,7030000.0,0.69,0.69,8853000.0,8875000.0,0.502647887324,0.0,0.26992580964699997,0.221337668891,0.131374857506,0.07676926239460001,14444000.0,11844000.0,7030000.0,0.221337668891,0.131374857506
2014-12-31,49888000.0,0.0664614463755,0.0,0.0,0.0,20145000.0,20145000.0,12637000.0,10307000.0,12637000.0,5047000.0,0.0,0.0,7590000.0,800000.0,7590000.0,0.81,0.81,8366000.0,8401000.0,0.525175574336,0.0,0.300032071841,0.253307408595,0.152140795382,0.055083386786400006,14968000.0,12637000.0,7590000.0,0.253307408595,0.152140795382
2013-12-31,46779000.0,0.121798561151,0.0,0.0,0.0,15691000.0,15691000.0,15967000.0,10580000.0,15967000.0,6551000.0,0.0,0.0,9416000.0,559000.0,9416000.0,1.06,1.06,8397000.0,8402000.0,0.479647702928,0.0,0.35712606083899995,0.341328373843,0.201286902242,0.307552534257,16706000.0,15967000.0,9416000.0,0.341328373843,0.201286902242
2012-12-31,41700000.0,0.0535091708352,0.0,0.0,0.0,15017000.0,15017000.0,-4314000.0,11947000.0,-4314000.0,-2252000.0,0.0,0.0,-2062000.0,0.0,-2062000.0,-0.23,-0.23,8943000.0,8943000.0,0.481941183048,0.0,-0.0411990407674,-0.10345323741000001,-0.04944844124699999,0.27110311750599997,-1718000.0,-4314000.0,-2062000.0,-0.10345323741000001,-0.04944844124699999
2011-12-31,39582000.0,0.036476472282599995,0.0,0.0,0.0,12680000.0,12680000.0,9424000.0,13297000.0,9424000.0,3373000.0,0.0,0.0,6051000.0,0.0,6051000.0,0.64,0.64,9417000.0,9433000.0,0.48224318880500006,0.0,0.29773634480300004,0.238088019807,0.152872517811,0.302890202617,11785000.0,9424000.0,6051000.0,0.238088019807,0.152872517811
2010-12-31,38189000.0,1.03511857181,0.0,38189000.0,0.0,16899000.0,22358000.0,15831000.0,0.0,15831000.0,1505000.0,0.0,0.0,14326000.0,0.0,14326000.0,2.06,2.06,9607131.0,6968000.0,0.48,1.0,0.48100000000000004,0.4145,0.375,-0.0819,18350000.0,15831000.0,14326000.0,0.4145,0.3751
2009-12-31,18765000.0,0.13,0.0,18765000.0,0.0,9317000.0,12396000.0,6369000.0,0.0,6369000.0,2621000.0,0.0,0.0,3748000.0,0.0,3748000.0,0.81,0.8,4659475.0,4655000.0,0.48,1.0,0.37799999999999995,0.3394,0.2,-0.0076,7099000.0,6369000.0,3748000.0,0.3394,0.1997
