,0,1,2,3,4,5,6,7,8,9,10,11,12,13,14,15,16,17,18,19,20,21,22,23,24,25,26,27,28
Date,Cash and cash equivalents,Short-term investments,Cash and short-term investments,Receivables,Inventories,Total current assets,Property Plant & Equipment Net,Goodwill and Intangible Assets,Long-term investments,Tax assets,Total non-current assets,Total assets,Payables,Short-term debt,Total current liabilities,Long-term debt,Total debt,Deferred revenue,Tax Liabilities,Deposit Liabilities,Total non-current liabilities,Total liabilities,Other comprehensive income,Retained earnings (deficit),Total shareholders equity,Investments,Net Debt,Other Assets,Other Liabilities
2019-12-31,5585000.0,0.0,5585000.0,147000.0,4000.0,6378000.0,181000.0,0.0,0.0,0.0,1300000.0,7678000.0,914000.0,528000.0,4003000.0,614000.0,1142000.0,0.0,0.0,0.0,1305000.0,5308000.0,103433000.0,-101070000.0,2370000.0,0.0,-4443000.0,0.0,0.0
2018-12-31,5358000.0,0.0,5358000.0,274000.0,141000.0,6218000.0,145000.0,0.0,0.0,0.0,199000.0,6417000.0,1020000.0,0.0,2548000.0,77000.0,77000.0,0.0,0.0,0.0,154000.0,2625000.0,90110000.0,-86361000.0,3792000.0,0.0,-5281000.0,0.0,0.0
2017-12-31,12689000.0,0.0,12689000.0,95000.0,191000.0,13315000.0,169000.0,0.0,0.0,0.0,223000.0,13538000.0,902000.0,0.0,2332000.0,81000.0,81000.0,167000.0,0.0,0.0,162000.0,2413000.0,83537000.0,-72450000.0,11125000.0,0.0,-12608000.0,0.0,0.0
2016-12-31,21352000.0,0.0,21352000.0,74000.0,135000.0,21917000.0,111000.0,0.0,0.0,0.0,165000.0,22082000.0,525000.0,0.0,1444000.0,56000.0,56000.0,71000.0,0.0,0.0,112000.0,1500000.0,80266000.0,-60142000.0,20582000.0,0.0,-21296000.0,0.0,0.0
2015-12-31,13840000.0,0.0,13840000.0,0.0,0.0,13840000.0,0.0,0.0,0.0,0.0,36000.0,13876000.0,10000.0,0.0,10000.0,0.0,0.0,0.0,0.0,0.0,0.0,10000.0,25768000.0,-12132000.0,13866000.0,0.0,-13840000.0,0.0,0.0
2014-12-31,13509000.0,0.0,13509000.0,0.0,0.0,13509000.0,0.0,0.0,0.0,0.0,36000.0,13545000.0,1000.0,0.0,1000.0,0.0,0.0,0.0,0.0,0.0,0.0,1000.0,25768000.0,-12454000.0,13544000.0,0.0,-13509000.0,0.0,0.0
2013-12-31,13295000.0,0.0,13295000.0,0.0,0.0,13295000.0,0.0,0.0,0.0,0.0,33000.0,13328000.0,18000.0,0.0,18000.0,0.0,0.0,0.0,0.0,0.0,0.0,18000.0,25787000.0,-12707000.0,13310000.0,0.0,-13295000.0,0.0,0.0
2012-12-31,0.0,0.0,0.0,0.0,0.0,0.0,0.0,0.0,0.0,0.0,0.0,0.0,0.0,0.0,0.0,0.0,0.0,0.0,0.0,0.0,0.0,0.0,0.0,0.0,0.0,0.0,0.0,0.0,0.0
2011-12-31,0.0,0.0,0.0,0.0,0.0,0.0,0.0,0.0,0.0,0.0,0.0,0.0,0.0,0.0,0.0,0.0,0.0,0.0,0.0,0.0,0.0,0.0,0.0,0.0,0.0,0.0,0.0,0.0,0.0
2010-12-31,158000.0,0.0,158000.0,413000.0,0.0,639000.0,0.0,0.0,0.0,0.0,4796000.0,5435000.0,1656000.0,500000.0,2156000.0,0.0,500000.0,0.0,0.0,0.0,0.0,2156000.0,0.0,-22674000.0,3279000.0,0.0,342000.0,68000.0,0.0
