,0,1,2,3,4,5,6,7,8,9,10,11,12,13,14,15,16,17,18,19,20,21,22,23,24,25,26,27,28,29,30
Date,Revenue,Revenue Growth,Cost of Revenue,Gross Profit,R&D Expenses,SG&A Expense,Operating Expenses,Operating Income,Interest Expense,Earnings before Tax,Income Tax Expense,Net Income - Non-Controlling int,Net Income - Discontinued ops,Net Income,Preferred Dividends,Net Income Com,EPS,EPS Diluted,Weighted Average Shs Out,Weighted Average Shs Out (Dil),Dividend per Share,Gross Margin,EBITDA Margin,EBIT Margin,Profit Margin,Free Cash Flow margin,EBITDA,EBIT,Consolidated Income,Earnings Before Tax Margin,Net Profit Margin
2018-12-31,2297906340.0576,-0.0355697338438,0.0,2297906340.0576,0.0,1112546109.5101,1207717579.2507,1090188760.8069,0.0,1100001440.9222,230213256.4841,1440.9222,0.0,869788184.4380001,0.0,869788184.4380001,1.7233,1.7233,146498115.0865,146498115.0865,0.0015,1.0,0.0007,0.4787,0.0005,-0.8523,1154296829.9712,1100001440.9222,869789625.3602,0.4787,0.3785
2017-12-31,2382656808.5798,0.0931691446157,0.0,2382656808.5798,0.0,1171247968.8008,1274546636.3341,1108110172.2457,0.0,1117063698.4075,187456938.5765,1624.9594,0.0,929606759.8310001,0.0,929606759.8310001,1.8395,1.8395,166496763.6318,166496763.6318,0.0014,1.0,0.0008,0.4688,0.0006,0.5797,1178058173.5457,1117063698.4075,929608384.7904,0.4688,0.3902
2016-12-31,2179586590.3418,0.0914049677647,0.0,2179586590.3418,0.0,1082490621.3102,1176329830.9594,1003256759.3824,0.0,1009256131.6454,149778050.1293,0.0,0.0,859478081.5161,0.0,859478081.5161,1.7009,1.7009,154162866.9287,154162866.9287,0.0014,1.0,0.0007,0.46299999999999997,0.0006,0.0925,1062426950.8422,1009256131.6454,859478081.5161,0.46299999999999997,0.3943
2015-12-31,1997046609.3862,-0.13577487684599998,0.0,1997046609.3862,0.0,947345546.7018,1024836420.5414,972210188.8448,0.0,976783499.3939,116161523.5149,2822.1602,0.0,860621975.879,0.0,860621975.879,1.6921,1.6921,146540096.8438,146540096.8438,0.0014,1.0,0.0007,0.4891,0.0006,-1.1804,1021686889.7961,976783499.3939,860624798.0392,0.4891,0.4309
2014-12-31,2310794439.8781,-0.0338508415157,0.0,2310794439.8781,0.0,1081142327.1044,1200489861.129,1110304578.7491,0.0,1114406010.3716,131518140.3762,1650.4755,0.0,982887869.9953,0.0,982887869.9953,1.9185,1.9185,168720655.8891,168720655.8891,0.0019,1.0,0.0008,0.4823,0.0007,-0.1786,1168520150.6554,1114406010.3716,982889520.4708,0.4823,0.4253
2013-12-31,2391757441.991,-0.0102657862599,0.0,2391757441.991,0.0,1095464880.6523,1178788541.855,1212968900.1360002,0.0,1216353828.7367,169503296.4524,1902.7142,0.0,1046850532.2843,0.0,1046850532.2843,2.0322,2.0322,195903249.3031,195903249.3031,0.0026,1.0,0.001,0.5086,0.0008,-0.1206,1269015250.2545,1216353828.7367,1046852434.9985,0.5086,0.4377
2012-12-31,2416565385.7238,0.146722669364,0.0,2416565385.7238,0.0,1163841241.5999,1279969761.8958,1136595623.828,0.0,1135616226.6688,133498724.0689,2088.2669,0.0,1002117502.5999,0.0,1002117502.5999,2.01,2.01,207099906.8132,207099906.8132,0.0022,1.0,0.001,0.4699,0.0009,-0.3747,1209010453.8639,1135616226.6688,1002119590.8668,0.4699,0.4147
2011-12-31,2107366890.2555,-0.0207565639225,0.0,2107366890.2555,0.0,1052151281.2276,1144554325.9344,962812564.3211,0.0,968685378.3666,125864427.0592,1923.6207,0.0,842820951.3074,0.0,842820951.3074,1.7218,1.7218,181137000.1462,181137000.1462,0.0022,1.0,0.0009,0.4597,0.0008,-0.4338,1036264097.7353,968685378.3666,842822874.9281,0.4597,0.3999
2010-12-31,2152035758.0305,0.37697410054200003,0.0,2152035758.0305,0.0,1005547111.9747,1163348018.7512,988687739.2793,0.0,992125024.8498,99426905.3101,2137.6154,0.0,892698119.5397,0.0,892698119.5397,1.8829,1.8829,205071919.3029,205071919.3029,0.0024,1.0,0.0011,0.461,0.0009,-0.114,1066864609.8531,992125024.8498,892700257.1551,0.461,0.4148
2009-12-31,1562873083.2218,0.0816,0.0,1562873083.2218,0.0,854861881.6106,969102944.8571,593770138.3647,0.0,595421607.4430001,79595685.6848,3941.4536,0.0,515825921.7582,0.0,515825921.7582,1.0988,1.0988,185232683.8619,185232683.8619,0.0013,1.0,0.0008,0.381,0.0007,0.8803,667248687.9886,595421607.4430001,515829863.2119,0.381,0.33
