,0,1,2,3,4,5,6,7,8,9,10,11,12,13,14,15,16,17,18,19,20,21,22,23,24,25,26,27,28
Date,Cash and cash equivalents,Short-term investments,Cash and short-term investments,Receivables,Inventories,Total current assets,Property Plant & Equipment Net,Goodwill and Intangible Assets,Long-term investments,Tax assets,Total non-current assets,Total assets,Payables,Short-term debt,Total current liabilities,Long-term debt,Total debt,Deferred revenue,Tax Liabilities,Deposit Liabilities,Total non-current liabilities,Total liabilities,Other comprehensive income,Retained earnings (deficit),Total shareholders equity,Investments,Net Debt,Other Assets,Other Liabilities
2018-12-31,942000.0,0.0,942000.0,277000.0,0.0,10270000.0,651000.0,0.0,276000.0,0.0,958000.0,11228000.0,4548000.0,0.0,6212000.0,0.0,0.0,0.0,0.0,0.0,0.0,6212000.0,99028000.0,-94023000.0,5016000.0,276000.0,-942000.0,0.0,0.0
2017-12-31,2483000.0,0.0,2483000.0,574000.0,0.0,9623000.0,392000.0,0.0,1378000.0,0.0,1800000.0,11423000.0,1424000.0,0.0,5543000.0,0.0,0.0,2625000.0,0.0,0.0,0.0,5543000.0,85944000.0,-80075000.0,5880000.0,1378000.0,-2483000.0,0.0,0.0
2016-12-31,547000.0,0.0,547000.0,154000.0,0.0,10444000.0,297000.0,0.0,0.0,0.0,322000.0,10766000.0,345000.0,0.0,864000.0,0.0,0.0,0.0,0.0,0.0,0.0,864000.0,85014000.0,-75123000.0,9902000.0,0.0,-547000.0,0.0,0.0
2015-12-31,428000.0,0.0,428000.0,607000.0,0.0,16788000.0,271000.0,0.0,0.0,0.0,292000.0,17080000.0,1169000.0,0.0,2952000.0,0.0,0.0,0.0,0.0,0.0,0.0,2952000.0,84258000.0,-70141000.0,14128000.0,0.0,-428000.0,0.0,0.0
2014-12-31,4251000.0,0.0,4251000.0,962000.0,0.0,9578000.0,313000.0,0.0,20000.0,0.0,333000.0,9911000.0,1542000.0,0.0,3113000.0,0.0,0.0,0.0,0.0,0.0,123000.0,3236000.0,68317000.0,-61653000.0,6675000.0,20000.0,-4251000.0,0.0,0.0
2013-12-31,3503000.0,0.0,3503000.0,850000.0,0.0,4446000.0,258000.0,0.0,22000.0,0.0,280000.0,4726000.0,228000.0,0.0,1332000.0,0.0,0.0,0.0,0.0,0.0,655000.0,1987000.0,2731000.0,0.0,2739000.0,22000.0,-3503000.0,0.0,0.0
2012-12-31,1317000.0,0.0,1317000.0,634000.0,0.0,4874000.0,247000.0,0.0,17000.0,0.0,436000.0,5310000.0,358000.0,0.0,1139000.0,0.0,0.0,0.0,0.0,0.0,0.0,1328000.0,3975000.0,0.0,3982000.0,17000.0,-1317000.0,0.0,189000.0
2011-12-31,1923000.0,0.0,1923000.0,312000.0,0.0,2304000.0,314000.0,0.0,126000.0,0.0,440000.0,2744000.0,244000.0,0.0,1135000.0,0.0,0.0,0.0,0.0,0.0,0.0,1256000.0,1482000.0,0.0,1488000.0,126000.0,-1923000.0,0.0,121000.0
2010-12-31,93000.0,0.0,93000.0,427000.0,0.0,579000.0,419000.0,0.0,91000.0,0.0,510000.0,1089000.0,838000.0,137000.0,1423000.0,0.0,137000.0,0.0,0.0,0.0,125000.0,1548000.0,0.0,-40160000.0,-459000.0,91000.0,44000.0,59000.0,448000.0
2009-12-31,1000.0,0.0,1000.0,0.0,0.0,87000.0,575000.0,0.0,95000.0,0.0,670000.0,757000.0,2018000.0,370000.0,2388000.0,0.0,370000.0,0.0,0.0,0.0,112000.0,2500000.0,0.0,-37741000.0,-1743000.0,95000.0,369000.0,86000.0,0.0
