,0,1,2,3,4,5,6,7,8,9,10,11,12,13,14
Date,Depreciation & Amortization,Stock-based compensation,Operating Cash Flow,Capital Expenditure,Acquisitions and disposals,Investment purchases and sales,Investing Cash flow,Issuance (repayment) of debt,Issuance (buybacks) of shares,Dividend payments,Financing Cash Flow,Effect of forex changes on cash,Net cash flow / Change in cash,Free Cash Flow,Net Cash/Marketcap
2018-12-31,2106000.0,1180000.0,6237000.0,-1013000.0,-12974000.0,625000.0,-11251000.0,-6000000.0,66761000.0,0.0,78742000.0,0.0,73728000.0,5224000.0,1.2892
2017-12-31,1612000.0,423000.0,9328000.0,-368000.0,84996000.0,8031000.0,90410000.0,-9895000.0,-24000.0,0.0,21431000.0,0.0,121169000.0,8960000.0,1.1809
2016-12-31,896000.0,334000.0,6318000.0,-214000.0,0.0,-32509000.0,-32731000.0,0.0,-530000.0,0.0,46925000.0,0.0,20512000.0,6104000.0,1.1809
2015-12-31,,,4974288.0,-509711.0,,,-21910026.0,-6000000.0,1216352.0,0.0,-10088915.0,,,,
