,0,1,2,3,4,5,6,7,8,9,10,11,12,13,14,15,16,17,18,19,20,21,22,23,24,25,26,27,28,29,30
Date,Revenue,Revenue Growth,Cost of Revenue,Gross Profit,R&D Expenses,SG&A Expense,Operating Expenses,Operating Income,Interest Expense,Earnings before Tax,Income Tax Expense,Net Income - Non-Controlling int,Net Income - Discontinued ops,Net Income,Preferred Dividends,Net Income Com,EPS,EPS Diluted,Weighted Average Shs Out,Weighted Average Shs Out (Dil),Dividend per Share,Gross Margin,EBITDA Margin,EBIT Margin,Profit Margin,Free Cash Flow margin,EBITDA,EBIT,Consolidated Income,Earnings Before Tax Margin,Net Profit Margin
2019-12-31,12302000.0,-0.0174121405751,0.0,0.0,0.0,9571000.0,9571000.0,440000.0,4933000.0,440000.0,-9000.0,0.0,0.0,449000.0,0.0,449000.0,0.1,0.1,4703782000.0,4703782000.0,0.0,0.0,0.11372134612299999,0.035766542025699996,0.036498130385300004,0.0225979515526,1399000.0,440000.0,449000.0,0.035766542025699996,0.036498130385300004
2018-12-31,12520000.0,-0.153310340164,0.0,0.0,0.0,9505000.0,9505000.0,-196000.0,4233000.0,-196000.0,-177000.0,0.0,0.0,-19000.0,0.0,-19000.0,0.0,0.0,0.0,0.0,0.0,0.0,0.0108626198083,-0.0156549520767,-0.00151757188498,-0.149361022364,136000.0,-196000.0,-19000.0,-0.0156549520767,-0.00151757188498
2017-12-31,14787000.0,-0.0314403615642,0.0,14787000.0,0.0,11496000.0,16590000.0,-1803000.0,0.0,-1803000.0,-3462000.0,0.0,0.0,1659000.0,0.0,1659000.0,0.51,0.51,7274000.0,,0.0,1.0,-0.075,-0.1219,0.11199999999999999,-0.0132,-1112000.0,-1803000.0,1659000.0,-0.1219,0.1122
2016-12-31,15267000.0,0.0,0.0,15267000.0,0.0,10714000.0,14013000.0,1254000.0,0.0,1254000.0,0.0,0.0,0.0,1254000.0,0.0,1254000.0,0.17,0.17,7274000.0,,0.0,1.0,0.126,0.0821,0.08199999999999999,0.0787,1925000.0,1254000.0,1254000.0,0.0821,0.0821
2015-12-31,,,,,,,,,,,0.0,,,,,765000.0,0.11,0.11,7274000.0,,,,,,,,,,,,
