,0,1,2,3,4,5,6,7,8,9,10,11,12,13,14,15,16,17,18,19,20,21,22,23,24,25,26,27,28
Date,Cash and cash equivalents,Short-term investments,Cash and short-term investments,Receivables,Inventories,Total current assets,Property Plant & Equipment Net,Goodwill and Intangible Assets,Long-term investments,Tax assets,Total non-current assets,Total assets,Payables,Short-term debt,Total current liabilities,Long-term debt,Total debt,Deferred revenue,Tax Liabilities,Deposit Liabilities,Total non-current liabilities,Total liabilities,Other comprehensive income,Retained earnings (deficit),Total shareholders equity,Investments,Net Debt,Other Assets,Other Liabilities
2018-12-31,44000.0,0.0,44000.0,1732000.0,,,,,,,,,,,,274000.0,,,,,,,,-424343000.0,,,,,
2017-12-31,95000.0,0.0,95000.0,1959000.0,,,,,,,,,,,,485000.0,,,,,,,,-463260000.0,,,,,
2016-12-31,586000.0,232000.0,818000.0,1997000.0,,,,,,,,,,,,3935000.0,,,,,,,,-502482000.0,,,,,
2015-12-31,0.0,423000.0,423000.0,1146000.0,,,,,,,,,,,,36000.0,,,,,,,,-408498000.0,,,,,
