,0,1,2,3,4,5,6,7,8,9,10,11,12,13,14,15,16,17,18,19,20,21,22,23,24,25,26,27,28,29,30
Date,Revenue,Revenue Growth,Cost of Revenue,Gross Profit,R&D Expenses,SG&A Expense,Operating Expenses,Operating Income,Interest Expense,Earnings before Tax,Income Tax Expense,Net Income - Non-Controlling int,Net Income - Discontinued ops,Net Income,Preferred Dividends,Net Income Com,EPS,EPS Diluted,Weighted Average Shs Out,Weighted Average Shs Out (Dil),Dividend per Share,Gross Margin,EBITDA Margin,EBIT Margin,Profit Margin,Free Cash Flow margin,EBITDA,EBIT,Consolidated Income,Earnings Before Tax Margin,Net Profit Margin
2018-12-31,85070000.0,0.3631,,75065000.0,,,,-153132000.0,,-152815000.0,,,,,,,-1.62,-1.62,94545000.0,,,0.8824,,,,,,,,-1.7963,
2017-12-31,62407000.0,1.8461,,52256000.0,,,,131485000.0,,131725000.0,,,,,,,1.36,1.36,96546000.0,,,0.8373,,,,,,,,2.1107,
2016-12-31,-73755000.0,-0.1684,,-83259000.0,,,,207120000.0,,207017000.0,,,,,,,2.09,2.09,99060000.0,,,1.1289,,,,,,,,-2.8068,
2015-12-31,-63123000.0,,,-73801000.0,,,,-249512000.0,,-249299000.0,,,,,,,-2.52,-2.52,99060000.0,,,1.1692,,,,,,,,3.9494,
