,0,1,2,3,4,5,6,7,8,9,10,11,12,13,14,15,16,17,18,19,20,21,22,23,24,25,26,27,28,29,30
Date,Revenue,Revenue Growth,Cost of Revenue,Gross Profit,R&D Expenses,SG&A Expense,Operating Expenses,Operating Income,Interest Expense,Earnings before Tax,Income Tax Expense,Net Income - Non-Controlling int,Net Income - Discontinued ops,Net Income,Preferred Dividends,Net Income Com,EPS,EPS Diluted,Weighted Average Shs Out,Weighted Average Shs Out (Dil),Dividend per Share,Gross Margin,EBITDA Margin,EBIT Margin,Profit Margin,Free Cash Flow margin,EBITDA,EBIT,Consolidated Income,Earnings Before Tax Margin,Net Profit Margin
2018-12-31,742038000.0,0.97352631411,624968000.0,117070000.0,89135000.0,181792000.0,270927000.0,-153857000.0,85828000.0,-240216000.0,1537000.0,-17736000.0,0.0,-241753000.0,0.0,-241753000.0,-4.54,-4.54,109416463.0,53268000.0,0.0,0.1578,-0.149,-0.2081,-0.326,-0.1029,-110929000.0,-154388000.0,-259489000.0,-0.3237,-0.3258
2017-12-31,375996000.0,0.802992231706,394040000.0,-18044000.0,51146000.0,88089000.0,139235000.0,-157279000.0,108623000.0,-261963000.0,636000.0,-18666000.0,0.0,-262599000.0,0.0,-262599000.0,-25.62,-25.62,106000000.0,10248000.0,0.0,-0.048,-0.285,-0.4078,-0.698,-0.1923,-107235000.0,-153340000.0,-281265000.0,-0.6967,-0.6984
2016-12-31,208540000.0,0.206207451023,312029000.0,-103489000.0,46848000.0,90646000.0,137494000.0,-240983000.0,81190000.0,-278929000.0,729000.0,-56658000.0,0.0,-279658000.0,0.0,-279658000.0,-27.84,-27.84,106000000.0,10046000.0,0.0,-0.4963,-0.742,-0.9482,-1.341,-1.3993,-154639000.0,-197739000.0,-336316000.0,-1.3375,-1.341
2015-12-31,172889000.0,,318934000.0,-181684000.0,43933000.0,122452000.0,477025000.0,-304136000.0,-40633000.0,-344974000.0,-707000.0,,,,,-341003000.0,-3.21,-3.21,106000000.0,,,-1.0509,,-1.7591,,,,-304136000.0,,-1.9953,
