,0,1,2,3,4,5,6,7,8,9,10,11,12,13,14,15,16,17,18,19,20,21,22,23,24,25,26,27,28,29,30
Date,Revenue,Revenue Growth,Cost of Revenue,Gross Profit,R&D Expenses,SG&A Expense,Operating Expenses,Operating Income,Interest Expense,Earnings before Tax,Income Tax Expense,Net Income - Non-Controlling int,Net Income - Discontinued ops,Net Income,Preferred Dividends,Net Income Com,EPS,EPS Diluted,Weighted Average Shs Out,Weighted Average Shs Out (Dil),Dividend per Share,Gross Margin,EBITDA Margin,EBIT Margin,Profit Margin,Free Cash Flow margin,EBITDA,EBIT,Consolidated Income,Earnings Before Tax Margin,Net Profit Margin
2018-12-31,2982000000.0,0.136,1036000000.0,1946000000.0,0.0,80000000.0,899000000.0,1047000000.0,705000000.0,30000000.0,-59000000.0,314000000.0,0.0,89000000.0,65000000.0,24000000.0,0.13,0.13,180388361.0,180388361.0,2.45,0.6526,0.521,0.2465,0.008,0.2988,1554000000.0,735000000.0,403000000.0,0.0101,0.0298
2017-12-31,2625000000.0,0.0705546492659,978000000.0,1647000000.0,0.0,82000000.0,864000000.0,783000000.0,632000000.0,109000000.0,88000000.0,30000000.0,0.0,21000000.0,53000000.0,-32000000.0,-0.18,-0.18,166839324.0,166839324.0,1.8719999999999999,0.6274,0.58,0.2823,-0.012,0.2754,1523000000.0,741000000.0,51000000.0,0.0415,0.008
2016-12-31,2452000000.0,0.5061425061429999,1038000000.0,1414000000.0,0.0,62000000.0,843000000.0,571000000.0,606000000.0,-49000000.0,-53000000.0,36000000.0,0.0,4000000.0,40000000.0,-36000000.0,-0.23,-0.23,143356854.0,143356854.0,1.78,0.5767,0.546,0.2272,-0.015,0.1073,1338000000.0,557000000.0,40000000.0,-0.02,0.0016
2015-12-31,1628000000.0,-0.0446009389671,552000000.0,1076000000.0,0.0,48000000.0,664000000.0,412000000.0,429000000.0,-27000000.0,-60000000.0,70000000.0,0.0,33000000.0,31000000.0,2000000.0,0.01,0.01,143356854.0,143356854.0,1.66,0.6609,0.625,0.2469,0.001,0.27399999999999997,1018000000.0,402000000.0,103000000.0,-0.0166,0.0203
2014-12-31,1704000000.0,-0.00117233294256,524000000.0,1180000000.0,0.0,51000000.0,599000000.0,581000000.0,415000000.0,86000000.0,-11000000.0,106000000.0,0.0,97000000.0,39000000.0,58000000.0,0.42,0.42,132984913.0,132984913.0,1.42,0.6925,0.616,0.294,0.034,0.3016,1049000000.0,501000000.0,203000000.0,0.0505,0.0569
2013-12-31,1706000000.0,0.303284950344,530000000.0,1176000000.0,0.0,41000000.0,576000000.0,600000000.0,410000000.0,108000000.0,1000000.0,108000000.0,0.0,107000000.0,38000000.0,69000000.0,0.52,0.52,132984913.0,132984913.0,1.8130000000000002,0.6893,0.617,0.3036,0.04,0.2984,1053000000.0,518000000.0,215000000.0,0.0633,0.0627
2012-12-31,1309000000.0,0.119760479042,486000000.0,823000000.0,0.0,36000000.0,519000000.0,304000000.0,411000000.0,-60000000.0,-40000000.0,-75000000.0,0.0,-20000000.0,15000000.0,-35000000.0,-0.26,-0.26,,,0.69,0.6287,0.637,0.2681,-0.027000000000000003,0.039,834000000.0,351000000.0,-95000000.0,-0.0458,-0.0153
2012-11-20,1169000000.0,0.118660287081,407000000.0,823000000.0,0.0,1000000.0,519000000.0,304000000.0,411000000.0,-272000000.0,-42000000.0,-75000000.0,0.0,-230000000.0,15000000.0,-238000000.0,-1.79,-1.79,,,0.34,0.6518,0.637,0.1189,-0.027000000000000003,-0.355,607000000.0,351000000.0,-451000000.0,-0.2327,-0.1967
2011-12-31,1045000000.0,0.0619918699187,328000000.0,762000000.0,0.0,0.0,469000000.0,293000000.0,411000000.0,171000000.0,29000000.0,-221000000.0,0.0,142000000.0,8000000.0,129000000.0,0.97,0.97,,,0.0,0.6861,0.519,0.5502,-0.204,-0.0785,1021000000.0,139000000.0,294000000.0,0.1636,0.1359
2011-11-20,984000000.0,0.0,279000000.0,762000000.0,0.0,0.0,469000000.0,293000000.0,411000000.0,-892000000.0,-312000000.0,0.0,0.0,-580000000.0,8000000.0,-580000000.0,-2.32,-2.32,,,0.0,0.7165,0.33,-0.5528,-0.386,0.2612,-223000000.0,-82000000.0,-580000000.0,-0.9065,-0.5894
2010-12-31,,0.0,,717000000.0,,,446000000.0,271000000.0,404000000.0,,,152000000.0,0.0,,13000000.0,,,,,,0.0,,0.977,,0.12300000000000001,,,575000000.0,,,
2010-11-20,,0.0,,717000000.0,,,446000000.0,271000000.0,404000000.0,,,0.0,0.0,,13000000.0,,,,,,0.0,,1.122,,0.281,,,727000000.0,,,
2009-12-31,,0.0,,705000000.0,,,321000000.0,384000000.0,348000000.0,,,0.0,0.0,,0.0,,,,,,0.0,,-0.22699999999999998,,-0.589,,,-544000000.0,,,
2009-11-20,,,,705000000.0,,,321000000.0,384000000.0,348000000.0,,,0.0,0.0,,0.0,,,,,,0.0,,-0.22699999999999998,,-0.589,,,-544000000.0,,,
