,0,1,2,3,4,5,6,7,8,9,10,11,12,13,14
Date,Depreciation & Amortization,Stock-based compensation,Operating Cash Flow,Capital Expenditure,Acquisitions and disposals,Investment purchases and sales,Investing Cash flow,Issuance (repayment) of debt,Issuance (buybacks) of shares,Dividend payments,Financing Cash Flow,Effect of forex changes on cash,Net cash flow / Change in cash,Free Cash Flow,Net Cash/Marketcap
2019-09-28,614000000.0,27000000.0,1201000000.0,399000000.0,-0.0,-74000000.0,-6251000000.0,-1214000000.0,-19000000.0,-0.0,5426000000.0,-7000000.0,369000000.0,802000000.0,0.0
2018-09-29,542000000.0,23000000.0,1004000000.0,336000000.0,-702000000.0,-33000000.0,-1042000000.0,-335000000.0,-10000000.0,-0.0,113000000.0,-7000000.0,75000000.0,668000000.0,0.0
2017-09-30,530000000.0,20000000.0,975000000.0,269000000.0,-515000000.0,0.0,-766000000.0,-636000000.0,-275000000.0,-0.0,-226000000.0,8000000.0,-17000000.0,706000000.0,0.0
2016-10-01,525000000.0,20000000.0,857000000.0,288000000.0,-2283000000.0,0.0,-2579000000.0,-524000000.0,-297000000.0,-0.0,1817000000.0,0.0,95000000.0,569000000.0,0.0
2015-09-26,350000000.0,21000000.0,637000000.0,180000000.0,-3000000.0,0.0,-165000000.0,-951000000.0,-210000000.0,-0.0,-365000000.0,-8000000.0,99000000.0,457000000.0,0.0
2014-09-27,358000000.0,15000000.0,530000000.0,215000000.0,-226000000.0,0.0,-422000000.0,-1687000000.0,-112000000.0,-0.0,-119000000.0,-2000000.0,-13000000.0,315000000.0,0.0
2013-09-28,341000000.0,16000000.0,464000000.0,239000000.0,-24000000.0,0.0,-245000000.0,-1978000000.0,-115000000.0,-0.0,-164000000.0,0.0,55000000.0,225000000.0,0.0
2012-12-12,0.0,0.0,0.0,0.0,-0.0,0.0,0.0,-0.0,0.0,-0.0,0.0,0.0,0.0,0.0,0.0
2012-09-29,355000000.0,2000000.0,479000000.0,-230000000.0,-55000000.0,0.0,-255000000.0,-173000000.0,-6000000.0,0.0,-179000000.0,0.0,45000000.0,249000000.0,-2.1754
2011-10-01,344000000.0,2000000.0,327000000.0,-155000000.0,-368000000.0,0.0,-523000000.0,115000000.0,-2000000.0,0.0,90000000.0,0.0,-106000000.0,172000000.0,-2.1754
2010-10-02,317000000.0,0.0,112000000.0,-194000000.0,-658000000.0,0.0,-852000000.0,919000000.0,-3000000.0,0.0,878000000.0,0.0,138000000.0,-82000000.0,-2.1754
