,0,1,2,3,4,5,6,7,8,9,10,11,12,13,14,15,16,17,18,19,20,21,22,23,24,25,26,27,28
Date,Cash and cash equivalents,Short-term investments,Cash and short-term investments,Receivables,Inventories,Total current assets,Property Plant & Equipment Net,Goodwill and Intangible Assets,Long-term investments,Tax assets,Total non-current assets,Total assets,Payables,Short-term debt,Total current liabilities,Long-term debt,Total debt,Deferred revenue,Tax Liabilities,Deposit Liabilities,Total non-current liabilities,Total liabilities,Other comprehensive income,Retained earnings (deficit),Total shareholders equity,Investments,Net Debt,Other Assets,Other Liabilities
2018-12-31,22357471.2644,912643.6782,23270114.9426,3904597.7011,3651724.1379,31709195.4023,912643.6782,404597.7011,0.0,12014942.5287,13271264.3678,44980459.7701,2075862.0690000001,222988.5057,8931034.4828,15473563.2184,15696551.7241,0.0,0.0,0.0,17249425.2874,26180459.7701,-2298.8506,-167106896.5517,18800000.0,912643.6782,-6679238.7526,759320.0309,6632183.9081
2017-12-31,13304921.9688,685474.1897,13990396.1585,1873949.5798,4481392.557,22153661.4646,895558.2233,777911.1645,0.0,62424.97,1673469.3878,23827130.8523,1945978.3914,228091.2365,4936374.5498,14831932.7731,15060024.0096,0.0,0.0,0.0,14831932.7731,19768307.3229,840336.1345,-163871548.6194,4058823.5294,685474.1897,,,2762304.9219
2016-12-31,15922105.2632,705263.1579,16627368.4211,1709473.6842,3837894.7368,23138947.3684,678947.3684,1317894.7368,0.0,34736.8421,1996842.1053,25135789.4737,2203157.8947,350526.3158,2553684.2105,3786315.7895,4136842.1053,0.0,0.0,0.0,2120000.0,4673684.2105,-162105.2632,-126740000.0,16675789.4737,705263.1579,,,0.0
2015-12-31,4298588.4908,792616.7209999999,5091205.2118,971769.8154,1665580.8903,7842562.4321,404994.5711,2065146.5798,0.0,34744.8426,2470141.1509,10312703.5831,1132464.7123,942453.8545,3340933.7676,12193268.1868,13135722.0413,0.0,0.0,0.0,12193268.1868,15534201.9544,-1085.7763,-119244299.6743,-5221498.3713,792616.7209999999,,,1266015.2008
