,0,1,2,3,4,5,6,7,8,9,10,11,12,13,14
Date,Depreciation & Amortization,Stock-based compensation,Operating Cash Flow,Capital Expenditure,Acquisitions and disposals,Investment purchases and sales,Investing Cash flow,Issuance (repayment) of debt,Issuance (buybacks) of shares,Dividend payments,Financing Cash Flow,Effect of forex changes on cash,Net cash flow / Change in cash,Free Cash Flow,Net Cash/Marketcap
2018-12-31,866666.6667,0.0,-15441379.3103,-587356.3218,0.0,0.0,-587356.3218,-57471.2644,26275862.069000002,0.0,25602298.8506,0.0,9573563.2184,-16028735.6322,
2017-12-31,1061224.4898,0.0,-15749099.6399,-457382.9532,0.0,0.0,-450180.07200000004,12860744.2977,-797118.8475,0.0,11345738.2953,0.0,-4853541.4166,-16206482.593,
2016-12-31,874736.8421,0.0,-10798947.3684,-482105.2632,0.0,0.0,-478947.3684,-3915789.4737,27834736.8421,0.0,23032631.5789,0.0,11754736.8421,-11281052.6316,
2015-12-31,881650.38,0.0,-10483170.4669,-181324.6471,0.0,0.0,18458.1976,0.0,6854505.9718,0.0,5524429.9674,0.0,-4940282.3018,-10664495.114,
