,0,1,2,3,4,5,6,7,8,9,10,11,12,13,14
Date,Depreciation & Amortization,Stock-based compensation,Operating Cash Flow,Capital Expenditure,Acquisitions and disposals,Investment purchases and sales,Investing Cash flow,Issuance (repayment) of debt,Issuance (buybacks) of shares,Dividend payments,Financing Cash Flow,Effect of forex changes on cash,Net cash flow / Change in cash,Free Cash Flow,Net Cash/Marketcap
2019-12-31,18617000.0,134154000.0,-750269000.0,89612000.0,-0.0,712775000.0,1282600000.0,-32813000.0,-618011000.0,-0.0,85680000.0,-9512000.0,618011000.0,-839881000.0,0.0
2018-12-31,2354000.0,87127000.0,-547717000.0,70836000.0,-0.0,-458479000.0,-429883000.0,-8736000.0,-712937000.0,-0.0,1690537000.0,-4096000.0,712937000.0,-618553000.0,0.0
2017-12-31,4758000.0,42863000.0,12752000.0,46374000.0,-0.0,-317507000.0,-356319000.0,-2470000.0,-239602000.0,-0.0,490356000.0,5299000.0,152088000.0,-33622000.0,0.0
2016-12-31,1909000.0,10625000.0,-89513000.0,23502000.0,-0.0,-198350000.0,-221848000.0,-0.0,-87514000.0,-0.0,380902000.0,104000.0,69645000.0,-113015000.0,0.0
2015-12-31,1545000.0,10211000.0,-39843000.0,-5313000.0,0.0,-53593000.0,-58906000.0,5853000.0,77000.0,0.0,103205000.0,-485000.0,3971000.0,-45156000.0,0.0924
2014-12-31,1557000.0,6637000.0,-8694000.0,-654000.0,0.0,-32987000.0,-33641000.0,16562000.0,0.0,0.0,52165000.0,142000.0,9972000.0,-9348000.0,0.0924
2013-12-31,1592000.0,-24000.0,4073000.0,-250000.0,0.0,0.0,-250000.0,-731000.0,0.0,0.0,-482000.0,-41000.0,3300000.0,3823000.0,0.0924
