,0,1,2,3,4,5,6,7,8,9,10,11,12,13,14,15,16,17,18,19,20,21,22,23,24,25,26,27,28,29,30
Date,Revenue,Revenue Growth,Cost of Revenue,Gross Profit,R&D Expenses,SG&A Expense,Operating Expenses,Operating Income,Interest Expense,Earnings before Tax,Income Tax Expense,Net Income - Non-Controlling int,Net Income - Discontinued ops,Net Income,Preferred Dividends,Net Income Com,EPS,EPS Diluted,Weighted Average Shs Out,Weighted Average Shs Out (Dil),Dividend per Share,Gross Margin,EBITDA Margin,EBIT Margin,Profit Margin,Free Cash Flow margin,EBITDA,EBIT,Consolidated Income,Earnings Before Tax Margin,Net Profit Margin
2019-12-29,294313548.0,0.025972760244400005,213632283.0,80681265.0,0.0,56199521.0,56199521.0,19661488.0,0.0,17551968.0,4304978.0,0.0,0.0,13246990.0,0.0,13246990.0,1.29,1.28,10238565.0,10350775.0,1.18661085764,0.274133710623,0.08377039442300001,0.0668045631389,0.0450097866375,0.0534271531394,24654762.0,19661488.0,13246990.0,0.0596369692095,0.0450097866375
2018-12-30,286862926.0,0.052321619163300005,210267734.0,76595192.0,0.0,47291020.0,47291020.0,24259685.0,0.0,21409280.0,3859739.0,0.0,0.0,17549541.0,0.0,17549541.0,1.83,1.79,9577498.0,9808080.0,1.11356238938,0.267009728542,0.103734858369,0.0845689101003,0.0611774454256,0.0610133949481,29757685.0,24259685.0,17549541.0,0.0746324396064,0.0611774454256
2017-12-31,272600050.0,0.0738533483895,204198052.0,68401998.0,0.0,44349272.0,44349272.0,17760768.0,0.0,14507634.0,8659200.0,0.0,0.0,5848434.0,0.0,5848434.0,0.67,0.65,8733941.0,9038187.0,0.966538864487,0.25092437804,0.08915663074899999,0.0651532088861,0.0214542660575,0.062061492652000005,24304102.0,17760768.0,5848434.0,0.053219484002300005,0.0214542660575
2016-12-25,253852214.0,0.16695496815,193778848.0,60073366.0,0.0,37804208.0,37804208.0,15535817.0,0.0,11170081.0,4287674.0,0.0,0.0,6882407.0,0.0,6882407.0,0.85,0.82,8107637.0,8399883.0,0.956075459622,0.236647004387,0.0883079317953,0.0612002422795,0.027111865173599998,0.0338578768511,22417164.0,15535817.0,6882407.0,0.0440022989124,0.027111865173599998
2015-12-27,217533856.0,0.2587996204,169627150.0,47906706.0,0.0,30390277.0,30390277.0,11972689.0,0.0,8715408.0,3368000.0,0.0,0.0,5347408.0,0.0,5347408.0,0.76,0.73,7079459.0,7288705.0,0.890748905327,0.220226436845,0.0814847965551,0.0550382787312,0.024581957486200002,0.051618378888099996,17725702.0,11972689.0,5347408.0,0.0400646049321,0.024581957486200002
2014-12-28,172810551.0,0.139322370847,138283333.0,34527218.0,0.0,24084360.0,24084360.0,5801310.0,0.0,944698.0,1373562.0,0.0,0.0,-428864.0,0.0,-428864.0,-0.08,-0.08,5648605.0,5648605.0,0.0,0.199798089875,0.061941680864199995,0.0335703460606,-0.0024817003216399997,0.0309774893317,10704176.0,5801310.0,-428864.0,0.0054666685253500005,-0.0024817003216399997
2013-12-29,151678362.0,0.9760318350920001,122616176.0,29062186.0,0.0,19039556.0,19039556.0,5128176.0,0.0,835309.0,-7462960.0,0.0,0.0,8298269.0,0.0,8298269.0,1.53,1.47,5424620.0,5646389.0,0.0,0.19160403380399998,0.07001864906739999,0.0338095423261,0.0547096427637,0.013583822852700001,10620314.0,5128176.0,8298269.0,0.0055071072036,0.0547096427637
2012-12-30,76759068.0,0.531512102045,61206657.0,15552411.0,0.0,10606538.0,15075679.0,476732.0,2194731.0,-1717999.0,31858.0,0.0,0.0,-1749857.0,0.0,-1749857.0,0.0,0.0,,,0.0,0.2026,0.064,0.0062,-0.023,0.0379,4945873.0,476732.0,-1749857.0,-0.0224,-0.0228
2011-12-25,50119792.0,,40531408.0,9588384.0,0.0,6851687.0,9602078.0,-13694.0,2921237.0,-346998.0,-65214.0,0.0,0.0,-281784.0,0.0,-281784.0,0.0,0.0,,,0.0,0.1913,0.106,0.0514,-0.006,0.0365,5324630.0,2574239.0,-281784.0,-0.0069,-0.0056
