,0,1,2,3,4,5,6,7,8,9,10,11,12,13,14,15,16,17,18,19,20,21,22,23,24,25,26,27,28,29,30
Date,Revenue,Revenue Growth,Cost of Revenue,Gross Profit,R&D Expenses,SG&A Expense,Operating Expenses,Operating Income,Interest Expense,Earnings before Tax,Income Tax Expense,Net Income - Non-Controlling int,Net Income - Discontinued ops,Net Income,Preferred Dividends,Net Income Com,EPS,EPS Diluted,Weighted Average Shs Out,Weighted Average Shs Out (Dil),Dividend per Share,Gross Margin,EBITDA Margin,EBIT Margin,Profit Margin,Free Cash Flow margin,EBITDA,EBIT,Consolidated Income,Earnings Before Tax Margin,Net Profit Margin
2019-12-31,6554000000.0,-0.268934746235,3670000000.0,2884000000.0,0.0,333000000.0,2491000000.0,-1052000000.0,0.0,-1052000000.0,-317000000.0,0.0,0.0,-740000000.0,21000000.0,-740000000.0,-6.76,-6.76,112508650.0,112508650.0,0.186652315178,0.440036618859,-0.117332926457,-0.160512664022,-0.11290814769600001,0.278913640525,-769000000.0,-1052000000.0,-740000000.0,-0.160512664022,-0.11290814769600001
2018-12-31,8965000000.0,0.310289389068,3272000000.0,5693000000.0,0.0,289000000.0,2575000000.0,989000000.0,7081000.0,989000000.0,119000000.0,0.0,0.0,865000000.0,0.0,865000000.0,7.24,7.21,119386280.0,119827478.0,3.3381325108099995,0.635025097602,0.141773563859,0.11031790295600001,0.0964863357501,0.341550474066,1271000000.0,989000000.0,865000000.0,0.11031790295600001,0.0964863357501
2017-12-31,6842000000.0,1.26706428098,3636000000.0,3206000000.0,0.0,287000000.0,2483000000.0,-615000000.0,0.0,-615000000.0,-237000000.0,0.0,0.0,-378000000.0,0.0,-378000000.0,-3.16,-3.16,119773106.0,119773106.0,0.0,0.468576439638,-0.0470622624963,-0.08988599824610001,-0.055247003800099996,0.496346097632,-322000000.0,-615000000.0,-378000000.0,-0.08988599824610001,-0.055247003800099996
2016-12-31,3018000000.0,0.0,5068000000.0,-2050000000.0,0.0,371000000.0,2655000000.0,-4705000000.0,0.0,-4705000000.0,-1766000000.0,0.0,0.0,-2939000000.0,0.0,-2939000000.0,-24.54,-24.54,119773106.0,119773106.0,0.0,-0.6793,-1.5530000000000002,-1.5590000000000002,-0.9740000000000001,1.2379,-4688000000.0,-4705000000.0,-2939000000.0,-1.5590000000000002,-0.9738
2016-09-28,,0.0,,4836000000.0,,,3308000000.0,1528000000.0,0.0,,,0.0,0.0,,0.0,,,,,,0.0,,0.165,,0.12300000000000001,,,1528000000.0,,,
2015-12-31,8891000000.0,0.0,4528000000.0,-2050000000.0,0.0,781000000.0,2655000000.0,-4705000000.0,0.0,1462000000.0,343000000.0,0.0,0.0,1119000000.0,0.0,1119000000.0,9.34,9.34,119773106.0,119773106.0,0.0,0.4907,-1.5530000000000002,0.1644,-0.9740000000000001,0.5209,1488000000.0,-4705000000.0,1119000000.0,0.1644,0.1259
2015-09-28,,0.0,,4836000000.0,,,3308000000.0,1528000000.0,0.0,,,0.0,0.0,,0.0,,,,,,0.0,,0.165,,0.12300000000000001,,,1528000000.0,,,
2014-12-31,9448000000.0,0.0,4612000000.0,4363000000.0,0.0,1109000000.0,2901000000.0,1462000000.0,0.0,1528000000.0,369000000.0,0.0,0.0,1159000000.0,0.0,1159000000.0,,,,,0.0,0.5119,0.16699999999999998,0.1617,0.126,0.5674,1560000000.0,1462000000.0,1159000000.0,0.1617,0.1227
2014-09-28,,0.0,,3765000000.0,,,2401000000.0,1364000000.0,0.0,,,0.0,0.0,,0.0,,,,,,0.0,,0.16,,0.11699999999999999,,,1364000000.0,,,
2013-12-31,8788000000.0,,5023000000.0,4363000000.0,0.0,123000000.0,2901000000.0,1462000000.0,0.0,1364000000.0,333000000.0,0.0,0.0,1031000000.0,0.0,1031000000.0,,,,,0.0,0.4284,0.16699999999999998,0.1552,0.126,0.5022,1404000000.0,1462000000.0,1031000000.0,0.1552,0.1173
