,0,1,2,3,4,5,6,7,8,9,10,11,12,13,14,15,16,17,18,19,20,21,22,23,24,25,26,27,28,29,30
Date,Revenue,Revenue Growth,Cost of Revenue,Gross Profit,R&D Expenses,SG&A Expense,Operating Expenses,Operating Income,Interest Expense,Earnings before Tax,Income Tax Expense,Net Income - Non-Controlling int,Net Income - Discontinued ops,Net Income,Preferred Dividends,Net Income Com,EPS,EPS Diluted,Weighted Average Shs Out,Weighted Average Shs Out (Dil),Dividend per Share,Gross Margin,EBITDA Margin,EBIT Margin,Profit Margin,Free Cash Flow margin,EBITDA,EBIT,Consolidated Income,Earnings Before Tax Margin,Net Profit Margin
2018-12-31,3359324.0,0.3874595501,1640152.0,1719172.0,0.0,6741561.0,6856599.0,-5137427.0,9007866.0,-14670330.0,0.0,-76890.0,0.0,-14670330.0,0.0,-14670330.0,-1.11,-1.11,14652956.0,13616268.0,0.0,0.5118,-1.546,-1.6856,-4.367,-2.005,-5194236.0,-5662464.0,-14747220.0,-4.367,-4.367
2017-12-31,2421205.0,0.07922518103680001,1686443.0,734762.0,0.0,7185048.0,7298832.0,-6564070.0,1768692.0,-8350527.0,0.0,0.0,0.0,-8350527.0,0.0,-8350527.0,-0.98,-0.98,9598208.0,8541167.0,0.0,0.3035,-2.552,-2.7184,-3.449,-2.0527,-6179287.0,-6581835.0,-8350527.0,-3.4489,-3.4489
2016-12-31,2243466.0,0.481832334752,1669924.0,573542.0,899400.0,4222152.0,6498209.0,-5924667.0,820719.0,-6745386.0,0.0,0.0,0.0,-6745386.0,0.0,-6745386.0,-0.82,-0.82,8229712.0,8229712.0,0.0,0.2556,-2.437,-2.6409,-3.0069999999999997,-2.3132,-5467565.0,-5924667.0,-6745386.0,-3.0067,-3.0067
2015-12-31,1513981.0,-0.00362424711482,1325809.0,188172.0,703255.0,2902465.0,4733818.0,-4545646.0,465420.0,-5001452.0,0.0,0.0,0.0,-5001452.0,0.0,-5001452.0,-0.68,-0.68,8229712.0,7316250.0,0.0,0.1243,-2.758,-2.9961,-3.304,-2.1062,-4175764.0,-4536032.0,-5001452.0,-3.3035,-3.3035
2014-12-31,1519488.0,,1368150.0,151338.0,580957.0,2203980.0,3526294.0,-3374956.0,175565.0,-3698722.0,0.0,0.0,0.0,-3698722.0,0.0,-3698722.0,-0.56,-0.56,9040000.0,6637468.0,0.0,0.0996,-2.0909999999999997,-2.3186,-2.434,-1.7892,-3177289.0,-3523157.0,-3698722.0,-2.4342,-2.4342
