,0,1,2,3,4,5,6,7,8,9,10,11,12,13,14
Date,Depreciation & Amortization,Stock-based compensation,Operating Cash Flow,Capital Expenditure,Acquisitions and disposals,Investment purchases and sales,Investing Cash flow,Issuance (repayment) of debt,Issuance (buybacks) of shares,Dividend payments,Financing Cash Flow,Effect of forex changes on cash,Net cash flow / Change in cash,Free Cash Flow,Net Cash/Marketcap
2018-12-31,539797395.0796,676700434.1534,5205065123.0101,-1263241678.7265,521418234.4428,-2278437047.7569,-4986975397.974,2999565846.5991,-381476121.563,0.0,2182633863.9653,275253256.1505,2675976845.152,3941823444.2836,0.2643
2017-12-31,575120918.9843,490326481.2576,4961910519.9516,-715689238.2104,132708585.2479,-9661426844.0145,-11630743651.7533,3563935912.9383,-191958887.5453,0.0,6734733978.2346,-47762998.7908,18137847.6421,4246221281.7412,0.1633
2016-12-31,496904247.6602,253419726.4219,3236861051.1159,-595248380.1296,39596832.2534,-3704823614.1109,-5170770338.3729,986321094.3125,25341972.6422,0.0,2080201583.8733,20734341.2527,167026637.869,2641612670.9863,0.1633
2015-12-31,444615621.6299,213680480.6655,3045909721.1524,-805422893.2368,-596826374.9807,-3081959636.4197,-4871514404.5602,1586812509.6287,-947773840.7025,0.0,1198274533.9701,27576644.5848,-599753504.8529,2240486827.9156,0.1633
2014-12-31,359042137.5525,155431062.3184,2895895221.1818,-776031804.9726,-53098320.9558,-2545058766.5483,-3627344849.8547,1232744268.6471,31134646.431999996,0.0,1390371327.0907,12845818.5341,671767516.9519,2119863416.2092,0.1633
2013-12-31,280603363.0069,84854434.5532,2273816518.2987,-451797065.6116,-2176248928.4537,-1021975272.0079,-3802001318.8262,987136663.3696,25767721.7277,0.0,1200409165.8424,-33060995.7138,-360836630.3989,1822019452.6871,0.1633
2012-12-31,205474021.8089,34045702.3733,1923668056.4464,-375303078.8967,-131578896.7287,-1662758178.3194,-2204791533.034,1501194836.4336,9136305.3239,0.0,1526277261.0648,-1864817.1905,1243288967.2867,1548364977.5497,0.1633
2011-12-31,140373096.4467,24116116.7513,1297401491.1168,-285904187.8173,-308672271.5736,-1580689086.2944,-2260553458.1218,374152284.264,3677664.9746,0.0,384804885.7868,-1363261.4213,-579710342.6396,1011497303.2995,0.1633
2010-12-31,66871363.6364,14202424.2424,712194090.9091,-137195151.5152,0.0,-36576212.1212,-184473030.303,13030303.0303,5871363.6364,0.0,18901666.6667,-925757.5758,545696969.697,574998939.3939,0.1633
2009-12-31,46434744.3972,12643620.9169,331695327.3766,-60158781.3095,-1757726.6735,-10838875.0549,-78521898.3448,0.0,13928958.5469,0.0,13928958.5469,-108539.6221,266993847.9566,271536546.0671,0.1633
