,0,1,2,3,4,5,6,7,8,9,10,11,12,13,14,15,16,17,18,19,20,21,22,23,24,25,26,27,28
Date,Cash and cash equivalents,Short-term investments,Cash and short-term investments,Receivables,Inventories,Total current assets,Property Plant & Equipment Net,Goodwill and Intangible Assets,Long-term investments,Tax assets,Total non-current assets,Total assets,Payables,Short-term debt,Total current liabilities,Long-term debt,Total debt,Deferred revenue,Tax Liabilities,Deposit Liabilities,Total non-current liabilities,Total liabilities,Other comprehensive income,Retained earnings (deficit),Total shareholders equity,Investments,Net Debt,Other Assets,Other Liabilities
2018-12-31,17860.0,0.0,17860.0,1340509.0,937966.0,2607273.0,17958136.0,2460668.0,0.0,0.0,20443526.0,23050799.0,2782182.0,5816961.0,13065378.0,416547.0,6233508.0,0.0,0.0,356799.0,416547.0,12915067.0,6551555.0,1788302.0,10135732.0,0.0,6215648.0,0.0,-566858.0
2017-12-31,282154.0,0.0,282154.0,12217790.0,2064231.0,18755767.0,19987116.0,2664054.0,0.0,0.0,22677298.0,41433065.0,3976334.0,7223681.0,14136253.0,0.0,7223681.0,0.0,0.0,513382.0,0.0,14185297.0,22013037.0,2613829.0,27247768.0,0.0,6941527.0,0.0,49044.0
2016-12-31,124637.0,0.0,124637.0,6644994.0,4606564.0,15114944.0,17128235.0,2555704.0,0.0,0.0,22204173.0,37319117.0,3404760.0,5760618.0,10612059.0,0.0,5760618.0,0.0,0.0,487175.0,0.0,10612059.0,24982981.0,858502.0,26707058.0,0.0,5635981.0,0.0,0.0
2015-12-31,434571.0,0.0,434571.0,7586651.0,7051198.0,19576937.0,10554111.0,2797655.0,0.0,0.0,24776705.0,44353642.0,4883076.0,8057683.0,13976167.0,0.0,8057683.0,0.0,0.0,177718.0,0.0,13976167.0,24756242.0,2807340.0,30377475.0,0.0,7623112.0,0.0,0.0
2014-12-31,1304130.0,0.0,1304130.0,8352369.0,5623318.0,18837250.0,14042426.0,3018029.0,0.0,0.0,29467681.0,48304931.0,5805720.0,8450475.0,16971772.0,1500000.0,9950475.0,0.0,0.0,131213.0,1500000.0,16971772.0,22303610.0,4511915.0,31333159.0,0.0,8646345.0,0.0,0.0
2013-12-31,1020760.0,0.0,1020760.0,5251974.0,2647947.0,12491391.0,14715968.0,3105027.0,0.0,0.0,30184802.0,42676193.0,1085336.0,6869480.0,10811568.0,1500000.0,8369480.0,0.0,554.0,98435.0,1500000.0,10811568.0,22438780.0,4710113.0,31864625.0,0.0,7348720.0,0.0,0.0
2012-12-31,3071367.0,0.0,3071367.0,6657380.0,1205560.0,13693082.0,10587181.0,3071015.0,0.0,37806.0,29138620.0,42831702.0,1380213.0,0.0,13018352.0,0.0,0.0,0.0,0.0,316732.0,0.0,13018352.0,22569786.0,3619119.0,29813350.0,0.0,-3071367.0,0.0,0.0
2011-12-31,2317456.0,0.0,2317456.0,10617416.0,581176.0,17356778.0,11236347.0,3118482.0,0.0,0.0,26461145.0,43817923.0,2679267.0,34287.0,13340100.0,960000.0,994287.0,0.0,93407.0,0.0,960000.0,14300100.0,22649789.0,3431354.0,29517823.0,0.0,-1323169.0,0.0,0.0
2010-12-31,823717.0,0.0,823717.0,17134420.0,823398.0,18312158.0,12193803.0,3058507.0,0.0,0.0,15721687.0,34033845.0,3822643.0,2004711.0,6851379.0,926557.0,2931268.0,0.0,121136.0,0.0,926557.0,7777936.0,2215900.0,13625564.0,26255909.0,0.0,2107551.0,-469377.0,1024025.0
2009-12-31,227329.0,0.0,227329.0,13989090.0,638775.0,14856602.0,11215072.0,0.0,0.0,1408.0,11215072.0,26071674.0,2055839.0,437917.0,4776580.0,675809.0,1113726.0,0.0,201480.0,0.0,675809.0,5452389.0,1348382.0,9839011.0,20619285.0,0.0,886397.0,1408.0,2282824.0
