,0,1,2,3,4,5,6,7,8,9,10,11,12,13,14,15,16,17,18,19,20,21,22,23,24,25,26,27,28,29,30
Date,Revenue,Revenue Growth,Cost of Revenue,Gross Profit,R&D Expenses,SG&A Expense,Operating Expenses,Operating Income,Interest Expense,Earnings before Tax,Income Tax Expense,Net Income - Non-Controlling int,Net Income - Discontinued ops,Net Income,Preferred Dividends,Net Income Com,EPS,EPS Diluted,Weighted Average Shs Out,Weighted Average Shs Out (Dil),Dividend per Share,Gross Margin,EBITDA Margin,EBIT Margin,Profit Margin,Free Cash Flow margin,EBITDA,EBIT,Consolidated Income,Earnings Before Tax Margin,Net Profit Margin
2019-06-30,160308979.0,1.0,86684936.0,73624043.0,3689391.0,39243800.0,42567291.0,31056752.0,41458217.0,-11382761.0,6986284.0,-2010154.0,0.0,-18369045.0,0.0,-18369045.0,-0.6,-0.6,36120517.0,30478390.0,0.0,0.4593,0.218,0.1876,-0.115,0.1702,34902631.0,30075456.0,-16358891.0,-0.071,-0.1146
2019-01-31,0.0,-1.0,0.0,0.0,0.0,0.0,972198.0,-972198.0,0.0,0.0,0.0,0.0,0.0,742351.0,0.0,742351.0,-0.28,-0.28,3204688.0,3204688.0,0.0,0.0,0.0,0.0,0.0,0.0,-972198.0,-972198.0,742351.0,0.0,0.0
2018-06-30,133491118.0,1.8491252784799999,77094551.0,56396567.0,3950100.0,35263688.0,38600399.0,17796168.0,40950716.0,-21968050.0,-10928517.0,3271713.0,0.0,-11039533.0,0.0,-11039533.0,-0.39,-0.39,,28098117.0,0.0,0.4225,0.175,0.1422,-0.083,0.1004,23355023.0,18982666.0,-14311246.0,-0.1646,-0.0827
2017-06-30,46853369.0,0.141999846249,29613158.0,17240211.0,1990268.0,15689598.0,17625614.0,-385403.0,10193263.0,-8726178.0,-2817251.0,2469622.0,0.0,-5908927.0,0.0,-5908927.0,-0.21,-0.21,,28098117.0,0.0,0.368,0.08800000000000001,0.0313,-0.126,0.1516,4140271.0,1467085.0,-8378549.0,-0.1862,-0.1261
2016-12-31,41027474.0,6.88066785617,30598956.0,10428518.0,853854.0,8827121.0,9656210.0,772308.0,8249577.0,-7726517.0,-1860647.0,316019.0,0.0,-5865870.0,0.0,-5865870.0,-0.21,-0.21,,28098117.0,0.0,0.2542,0.037000000000000005,0.0127,-0.14300000000000002,-0.0486,1531532.0,523060.0,-6181889.0,-0.1883,-0.14300000000000002
2015-12-31,5206091.0,,3837242.0,1368849.0,302774.0,1401037.0,1703799.0,-334950.0,879769.0,-503285.0,690726.0,0.0,0.0,-1194011.0,0.0,-1194011.0,-0.04,-0.04,,28098117.0,0.0,0.2629,0.086,0.0723,-0.22899999999999998,-0.2148,450092.0,376484.0,-1194011.0,-0.0967,-0.2293
