,0,1,2,3,4,5,6,7,8,9,10,11,12,13,14,15,16,17,18,19,20,21,22,23,24,25,26,27,28
Date,Cash and cash equivalents,Short-term investments,Cash and short-term investments,Receivables,Inventories,Total current assets,Property Plant & Equipment Net,Goodwill and Intangible Assets,Long-term investments,Tax assets,Total non-current assets,Total assets,Payables,Short-term debt,Total current liabilities,Long-term debt,Total debt,Deferred revenue,Tax Liabilities,Deposit Liabilities,Total non-current liabilities,Total liabilities,Other comprehensive income,Retained earnings (deficit),Total shareholders equity,Investments,Net Debt,Other Assets,Other Liabilities
2020-02-01,220969000.0,12532000.0,233501000.0,0.0,121258000.0,378830000.0,113848000.0,0.0,15863000.0,0.0,489060000.0,867890000.0,26491000.0,87314000.0,172641000.0,290238000.0,377552000.0,0.0,2751000.0,0.0,290238000.0,478742000.0,152258000.0,236398000.0,389148000.0,28395000.0,156583000.0,0.0,15863000.0
2019-02-02,168471000.0,51546000.0,220017000.0,0.0,125190000.0,370432000.0,130682000.0,0.0,18745000.0,0.0,156870000.0,527302000.0,29008000.0,0.0,90218000.0,0.0,0.0,0.0,5142000.0,0.0,0.0,133425000.0,148564000.0,244823000.0,393877000.0,70291000.0,-168471000.0,0.0,43207000.0
2018-02-03,165086000.0,50833000.0,215919000.0,0.0,118007000.0,360584000.0,149546000.0,0.0,21453000.0,0.0,177532000.0,538116000.0,29387000.0,0.0,97906000.0,0.0,0.0,0.0,12364000.0,0.0,0.0,146868000.0,144279000.0,246570000.0,391248000.0,72286000.0,-165086000.0,0.0,48962000.0
2017-01-28,196536000.0,49994000.0,246530000.0,0.0,125694000.0,386457000.0,168995000.0,0.0,18092000.0,0.0,193390000.0,579847000.0,25079000.0,0.0,98616000.0,0.0,0.0,0.0,10737000.0,0.0,0.0,149308000.0,139398000.0,290737000.0,430539000.0,68086000.0,-196536000.0,0.0,50692000.0
2016-01-30,161185000.0,36465000.0,197650000.0,0.0,149566000.0,362897000.0,172781000.0,0.0,33826000.0,0.0,209876000.0,572773000.0,33862000.0,0.0,107626000.0,0.0,0.0,0.0,11141000.0,0.0,0.0,160130000.0,134864000.0,277626000.0,412643000.0,70291000.0,-161185000.0,0.0,52504000.0
2015-01-31,133708000.0,25857000.0,159565000.0,0.0,129921000.0,324589000.0,172663000.0,0.0,43698000.0,0.0,218404000.0,542993000.0,35714000.0,0.0,122271000.0,0.0,0.0,0.0,15661000.0,0.0,10617000.0,187715000.0,131112000.0,224111000.0,355278000.0,69555000.0,-133708000.0,0.0,54827000.0
2014-02-01,164868000.0,20197000.0,185065000.0,0.0,124141000.0,342137000.0,158569000.0,0.0,43436000.0,0.0,204156000.0,546293000.0,37147000.0,0.0,123381000.0,0.0,0.0,0.0,16187000.0,0.0,10621000.0,184363000.0,124134000.0,238151000.0,361930000.0,63633000.0,-164868000.0,0.0,50361000.0
2013-02-02,117608000.0,26414000.0,144022000.0,0.0,103853000.0,276873000.0,163103000.0,0.0,35735000.0,0.0,201101000.0,477974000.0,34124000.0,0.0,128956000.0,0.0,0.0,0.0,20307000.0,0.0,11822000.0,188325000.0,117391000.0,172711000.0,289649000.0,62149000.0,-117608000.0,0.0,47547000.0
2012-01-28,166511000.0,29998000.0,196509000.0,0.0,104209000.0,320127000.0,169034000.0,0.0,39985000.0,0.0,211412000.0,531539000.0,27416000.0,0.0,109831000.0,0.0,0.0,0.0,8150000.0,0.0,13477000.0,168392000.0,100333000.0,263039000.0,363147000.0,69983000.0,-166511000.0,0.0,45084000.0
2011-01-29,0.0,0.0,0.0,0.0,0.0,0.0,0.0,0.0,0.0,0.0,0.0,0.0,0.0,0.0,0.0,0.0,0.0,0.0,0.0,0.0,0.0,0.0,0.0,0.0,0.0,0.0,0.0,0.0,0.0
2010-01-30,135340000.0,22687000.0,158027000.0,6911000.0,88187000.0,264809000.0,146582000.0,0.0,72770000.0,0.0,224094000.0,488903000.0,24364000.0,0.0,92030000.0,0.0,0.0,0.0,3830000.0,0.0,42614000.0,134644000.0,-793000.0,275751000.0,354259000.0,95457000.0,-158027000.0,11684000.0,67666000.0
