,0,1,2,3,4,5,6,7,8,9,10,11,12,13,14,15,16,17,18,19,20,21,22,23,24,25,26,27,28,29,30
Date,Revenue,Revenue Growth,Cost of Revenue,Gross Profit,R&D Expenses,SG&A Expense,Operating Expenses,Operating Income,Interest Expense,Earnings before Tax,Income Tax Expense,Net Income - Non-Controlling int,Net Income - Discontinued ops,Net Income,Preferred Dividends,Net Income Com,EPS,EPS Diluted,Weighted Average Shs Out,Weighted Average Shs Out (Dil),Dividend per Share,Gross Margin,EBITDA Margin,EBIT Margin,Profit Margin,Free Cash Flow margin,EBITDA,EBIT,Consolidated Income,Earnings Before Tax Margin,Net Profit Margin
2019-12-31,371070000.0,-0.035768576143,83319000.0,287751000.0,0.0,14095000.0,103289000.0,34182000.0,15975000.0,18475000.0,63000.0,0.0,0.0,18412000.0,337000.0,18412000.0,0.0,0.0,40755000.0,40755000.0,0.0,0.775462850675,0.163634893686,0.09211739024980001,0.0496186703317,0.0999568814509,60720000.0,34182000.0,18412000.0,0.0497884496187,0.0496186703317
2018-12-31,384835000.0,-0.000428571428571,113890000.0,270945000.0,0.0,15995000.0,412198000.0,-27214000.0,16860000.0,-41849000.0,198000.0,0.0,0.0,-42047000.0,-512000.0,-42047000.0,-1.61,-1.61,40348000.0,40348000.0,0.0,0.704054984604,0.00934426442501,-0.0707160211519,-0.109259812647,0.0373770577001,3596000.0,-27214000.0,-42047000.0,-0.10874530643,-0.109259812647
2018-12,385000000.0,1.11609385563,229000000.0,156000000.0,,,130000000.0,26000000.0,17000000.0,,0.0,,,-42000000.0,,-42000000.0,,,,,,0.40519480519481005,0.010389610389610001,-0.064935064935065,-0.10909090909091,,4000000.0,-25000000.0,-42000000.0,0.0,-0.10909090909091
2017-12-31,181939000.0,-0.00033516483516500003,123805000.0,58134000.0,0.0,17112000.0,152124000.0,28840000.0,14027000.0,20211000.0,166000.0,0.0,0.0,20045000.0,944000.0,20045000.0,-0.15,-0.15,38342000.0,38342000.0,0.0,0.319524675853,0.339646804698,0.158514667004,0.11017428918500001,0.196653823534,61795000.0,28840000.0,20045000.0,0.11108668289899999,0.11017428918500001
2017-12,182000000.0,0.0259648015153,133000000.0,49000000.0,,,17000000.0,32000000.0,14000000.0,,0.0,,,20000000.0,,20000000.0,,,,,,0.26923076923077,0.35714285714286,0.18681318681319,0.10989010989011001,,65000000.0,34000000.0,20000000.0,0.0,0.10989010989011001
2016-12-31,177394000.0,0.0022259887005599997,111091000.0,66303000.0,0.0,20029000.0,171011000.0,6491000.0,12554000.0,-4580000.0,260000.0,0.0,0.0,-4840000.0,433000.0,-4840000.0,-0.87,-0.87,35093000.0,35093000.0,0.0,0.37376123206,0.216529307643,0.036590865531,-0.027283899117200004,0.185203558181,38411000.0,6491000.0,-4840000.0,-0.025818235115099997,-0.027283899117200004
2016-12,177000000.0,-0.016825067072499998,125000000.0,52000000.0,,,20000000.0,32000000.0,13000000.0,,0.0,,,-5000000.0,,-5000000.0,,,,,,0.29378531073446,0.22033898305085,0.045197740112994,-0.028248587570621004,,39000000.0,8000000.0,-5000000.0,0.0,-0.028248587570621004
2015-12-31,180029000.0,0.000161111111111,131205000.0,48824000.0,0.0,18976000.0,172177000.0,13989000.0,11202000.0,6719000.0,323000.0,0.0,0.0,6396000.0,554000.0,6396000.0,-0.47,-0.47,32945000.0,32945000.0,0.0,0.27120075099,0.233856767521,0.0777041476651,0.0355276094407,0.105110843253,42101000.0,13989000.0,6396000.0,0.037321764826800004,0.0355276094407
2015-12,180000000.0,-0.035504163407,131000000.0,49000000.0,,,19000000.0,30000000.0,9000000.0,,0.0,,,6000000.0,,6000000.0,,,,,,0.27222222222222,0.23888888888889,0.083333333333333,0.03333333333333299,,43000000.0,15000000.0,6000000.0,0.0,0.03333333333333299
2014-12-31,186626000.0,-0.002,134245000.0,52381000.0,0.0,17498000.0,151743000.0,37347000.0,12268000.0,28041000.0,469000.0,0.0,0.0,27572000.0,641000.0,27572000.0,0.2,0.2,25670000.0,25670000.0,0.0,0.28067364675900003,0.344073173084,0.200116811162,0.147739328925,0.11183865056299999,64213000.0,37347000.0,27572000.0,0.150252376411,0.147739328925
2014-12,187000000.0,-0.0394049447529,134000000.0,52000000.0,,,17000000.0,35000000.0,12000000.0,,0.0,,,28000000.0,,28000000.0,,,,,,0.27807486631016,0.35294117647059003,0.21390374331551001,0.14973262032086,,66000000.0,40000000.0,28000000.0,0.0,0.14973262032086
2013-12-31,194671000.0,0.0673044765482,133610000.0,61061000.0,0.0,17482000.0,151092000.0,44128000.0,11615000.0,32011000.0,593000.0,0.0,0.0,28035000.0,647000.0,28035000.0,0.39,0.39,22706000.0,22706000.0,0.0,0.313662538334,0.368288034684,0.22667988555,0.144012205208,-0.0226279209538,71695000.0,44128000.0,28035000.0,0.164436408094,0.144012205208
2012-12-31,182395000.0,0.0321888776336,126262000.0,56133000.0,0.0,19795000.0,146057000.0,43588000.0,11705000.0,31883000.0,318000.0,0.0,0.0,31565000.0,774000.0,31565000.0,0.32,0.32,0.0,0.0,0.0,0.307755146797,0.375514679679,0.238975849119,0.173058471998,0.186425066477,68492000.0,43588000.0,31565000.0,0.174801940843,0.173058471998
2011-12-31,176707000.0,0.0,114843000.0,61864000.0,0.0,17311000.0,132154000.0,44553000.0,32898000.0,33762000.0,287000.0,0.0,0.0,33475000.0,912000.0,33475000.0,-0.61,-0.61,0.0,0.0,0.0,0.35009365786300006,0.4777682830899999,0.252129230874,0.18943788304900003,0.108450712196,84425000.0,44553000.0,33475000.0,0.19106204055300002,0.18943788304900003
