,0,1,2,3,4,5,6,7,8,9,10,11,12,13,14,15,16,17,18,19,20,21,22,23,24,25,26,27,28
Date,Cash and cash equivalents,Short-term investments,Cash and short-term investments,Receivables,Inventories,Total current assets,Property Plant & Equipment Net,Goodwill and Intangible Assets,Long-term investments,Tax assets,Total non-current assets,Total assets,Payables,Short-term debt,Total current liabilities,Long-term debt,Total debt,Deferred revenue,Tax Liabilities,Deposit Liabilities,Total non-current liabilities,Total liabilities,Other comprehensive income,Retained earnings (deficit),Total shareholders equity,Investments,Net Debt,Other Assets,Other Liabilities
2019-12-31,558000.0,0.0,558000.0,23716000.0,0.0,34076000.0,232777000.0,20816000.0,0.0,0.0,267864000.0,301940000.0,3125000.0,2391000.0,54576000.0,255592000.0,257983000.0,1942000.0,3247000.0,0.0,262307000.0,323263000.0,0.0,0.0,-21323000.0,0.0,257425000.0,0.0,6380000.0
2018-12-31,1455000.0,44000.0,1499000.0,35683000.0,0.0,47526000.0,248261000.0,0.0,0.0,0.0,275778000.0,323304000.0,3707000.0,3465000.0,48865000.0,265592000.0,269057000.0,3206000.0,3089000.0,0.0,277392000.0,330200000.0,0.0,0.0,-6896000.0,44000.0,267602000.0,0.0,3943000.0
2018-12,1000000.0,0.0,0.0,37000000.0,,276000000.0,248000000.0,21000000.0,0.0,,281000000.0,323000000.0,4000000.0,,49000000.0,266000000.0,266000000.0,2000000.0,,,281000000.0,330000000.0,625000000.0,,-7000000.0,0.0,265000000.0,14000000.0,20000000.0
2017-12-31,2469000.0,68000.0,2537000.0,7589000.0,0.0,23575000.0,296069000.0,0.0,0.0,0.0,317294000.0,340869000.0,4439000.0,4747000.0,23643000.0,307592000.0,312339000.0,2393000.0,2432000.0,0.0,307592000.0,336185000.0,0.0,0.0,4684000.0,68000.0,309870000.0,0.0,4950000.0
2017-12,2000000.0,0.0,0.0,11000000.0,,317000000.0,296000000.0,17000000.0,0.0,,313000000.0,341000000.0,4000000.0,,24000000.0,311000000.0,311000000.0,0.0,,,313000000.0,336000000.0,708000000.0,,5000000.0,0.0,309000000.0,12000000.0,15000000.0
2016-12-31,3304000.0,0.0,3304000.0,7544000.0,0.0,26457000.0,307334000.0,0.0,20561000.0,0.0,349206000.0,375663000.0,3174000.0,4279000.0,20541000.0,324000000.0,328279000.0,2350000.0,2531000.0,0.0,324000000.0,350087000.0,0.0,0.0,25576000.0,20561000.0,324975000.0,0.0,5546000.0
2016-12,3000000.0,0.0,0.0,9000000.0,,349000000.0,307000000.0,20000000.0,21000000.0,,330000000.0,376000000.0,3000000.0,,21000000.0,324000000.0,324000000.0,0.0,,,330000000.0,350000000.0,725000000.0,,26000000.0,21000000.0,321000000.0,14000000.0,18000000.0
2015-12-31,3038000.0,0.0,3038000.0,8697000.0,0.0,19360000.0,312934000.0,0.0,19078000.0,0.0,345386000.0,364746000.0,5236000.0,6358000.0,26876000.0,245000000.0,251358000.0,4299000.0,2773000.0,0.0,245000000.0,277527000.0,54179182.0,0.0,87219000.0,19078000.0,248320000.0,0.0,5651000.0
2015-12,3000000.0,0.0,0.0,11000000.0,,345000000.0,313000000.0,8000000.0,19000000.0,,251000000.0,365000000.0,5000000.0,,27000000.0,245000000.0,245000000.0,0.0,,,251000000.0,278000000.0,698000000.0,,87000000.0,19000000.0,242000000.0,9000000.0,20000000.0
2014-12-31,2661000.0,2079000.0,4740000.0,9051000.0,0.0,21494000.0,310163000.0,0.0,20381000.0,0.0,342901000.0,364395000.0,7626000.0,3204000.0,22069000.0,216000000.0,219204000.0,1531000.0,2046000.0,0.0,216000000.0,244439000.0,87181837.0,0.0,119956000.0,22460000.0,216543000.0,0.0,6370000.0
2014-12,3000000.0,2000000.0,2000000.0,11000000.0,,343000000.0,310000000.0,8000000.0,20000000.0,,222000000.0,364000000.0,8000000.0,,22000000.0,216000000.0,216000000.0,0.0,,,222000000.0,244000000.0,730000000.0,,120000000.0,20000000.0,213000000.0,9000000.0,16000000.0
2013-12-31,3182000.0,0.0,3182000.0,12244000.0,0.0,24928000.0,297400000.0,0.0,0.0,0.0,329820000.0,354748000.0,6537000.0,4959000.0,23583000.0,273000000.0,277959000.0,2326000.0,1810000.0,0.0,273000000.0,299290000.0,32676254.0,0.0,55458000.0,0.0,274777000.0,0.0,2707000.0
2012-12-31,3177000.0,0.0,3177000.0,9948000.0,0.0,19987000.0,267741000.0,0.0,0.0,0.0,279838000.0,299825000.0,10052000.0,4032000.0,29164000.0,211000000.0,215032000.0,4068000.0,1938000.0,0.0,211000000.0,241170000.0,35979865.0,0.0,58655000.0,0.0,211855000.0,0.0,1006000.0
2011-12-31,1239000.0,0.0,1239000.0,14191000.0,0.0,23993000.0,266355000.0,0.0,0.0,0.0,280762000.0,304755000.0,10138000.0,1636000.0,26175000.0,218000000.0,219636000.0,790000.0,1813000.0,0.0,218000000.0,-160728000.0,465483000.0,0.0,465483000.0,0.0,218397000.0,0.0,-404903000.0
