,0,1,2,3,4,5,6,7,8,9,10,11,12,13,14,15,16,17,18,19,20,21,22,23,24,25,26,27,28
Date,Cash and cash equivalents,Short-term investments,Cash and short-term investments,Receivables,Inventories,Total current assets,Property Plant & Equipment Net,Goodwill and Intangible Assets,Long-term investments,Tax assets,Total non-current assets,Total assets,Payables,Short-term debt,Total current liabilities,Long-term debt,Total debt,Deferred revenue,Tax Liabilities,Deposit Liabilities,Total non-current liabilities,Total liabilities,Other comprehensive income,Retained earnings (deficit),Total shareholders equity,Investments,Net Debt,Other Assets,Other Liabilities
2019-12-31,8200000.0,0.0,8200000.0,175100000.0,0.0,255500000.0,176900000.0,2511400000.0,0.0,63100000.0,3707300000.0,3962800000.0,65300000.0,79100000.0,260800000.0,1465100000.0,1544200000.0,50900000.0,0.0,0.0,1803500000.0,2064300000.0,1428100000.0,490600000.0,1898500000.0,0.0,1536000000.0,0.0,0.0
2018-12-31,20300000.0,0.0,20300000.0,172300000.0,0.0,266100000.0,177100000.0,2517700000.0,0.0,35400000.0,3387300000.0,3653400000.0,67800000.0,52500000.0,239000000.0,1284200000.0,1336700000.0,52900000.0,400000.0,0.0,1627900000.0,1866900000.0,1405100000.0,381100000.0,1786500000.0,0.0,1316400000.0,0.0,0.0
2017-12-31,14400000.0,0.0,14400000.0,201800000.0,0.0,280700000.0,179900000.0,2538400000.0,0.0,40800000.0,3375200000.0,3655900000.0,65000000.0,55100000.0,231600000.0,1379000000.0,1434100000.0,59600000.0,8300000.0,0.0,1715500000.0,1947100000.0,1503500000.0,201400000.0,1708800000.0,0.0,1419700000.0,0.0,0.0
2016-12-31,131600000.0,0.0,131600000.0,155800000.0,0.0,339200000.0,173000000.0,2603300000.0,0.0,2000000.0,3422800000.0,3762000000.0,55200000.0,63400000.0,227100000.0,1506800000.0,1570200000.0,47400000.0,0.0,0.0,1595500000.0,2886300000.0,810800000.0,65700000.0,875700000.0,0.0,1438600000.0,0.0,1063700000.0
2015-12-31,186000000.0,0.0,186000000.0,134900000.0,0.0,356700000.0,152000000.0,2554100000.0,0.0,0.0,3347000000.0,3703700000.0,29300000.0,43500000.0,178200000.0,1618000000.0,1661500000.0,40400000.0,0.0,0.0,1680500000.0,2885000000.0,798900000.0,19900000.0,818700000.0,0.0,1475500000.0,0.0,1026300000.0
2014-12-31,61900000.0,0.0,61900000.0,140200000.0,0.0,230700000.0,142400000.0,3128300000.0,0.0,200000.0,3367600000.0,3598300000.0,41800000.0,64400000.0,202800000.0,2070700000.0,2135100000.0,64000000.0,0.0,0.0,2107800000.0,2310600000.0,-100000.0,-146700000.0,917000000.0,0.0,2073200000.0,28600000.0,96600000.0
