,0,1,2,3,4,5,6,7,8,9,10,11,12,13,14,15,16,17,18,19,20,21,22,23,24,25,26,27,28,29,30
Date,Revenue,Revenue Growth,Cost of Revenue,Gross Profit,R&D Expenses,SG&A Expense,Operating Expenses,Operating Income,Interest Expense,Earnings before Tax,Income Tax Expense,Net Income - Non-Controlling int,Net Income - Discontinued ops,Net Income,Preferred Dividends,Net Income Com,EPS,EPS Diluted,Weighted Average Shs Out,Weighted Average Shs Out (Dil),Dividend per Share,Gross Margin,EBITDA Margin,EBIT Margin,Profit Margin,Free Cash Flow margin,EBITDA,EBIT,Consolidated Income,Earnings Before Tax Margin,Net Profit Margin
2019-04-27,3552745000.0,-0.029908963814900002,2479725000.0,1073020000.0,0.0,936745000.0,936745000.0,16529000.0,0.0,3082000.0,-687000.0,0.0,0.0,3769000.0,0.0,3769000.0,0.05,0.05,72919000.0,73124000.0,0.449565122258,0.302025616812,0.0327009115487,0.004652458873350001,0.00106086983445,-0.0021788785854299996,116178000.0,16529000.0,3769000.0,0.000867498230242,0.00106086983445
2018-04-28,3662280000.0,-0.05964168462759999,2551077000.0,1111203000.0,0.0,999109000.0,999109000.0,-127858000.0,0.0,-137695000.0,-12215000.0,0.0,0.0,-125480000.0,0.0,-125480000.0,-1.73,-1.73,72588000.0,72588000.0,0.6011737477269999,0.303418362332,-0.00534230042487,-0.0349121312406,-0.0342628089605,-0.013801511626600002,-19565000.0,-127858000.0,-125480000.0,-0.0375981628931,-0.0342628089605
2017-04-29,3894558000.0,-0.0646724517057,2682356000.0,1212202000.0,0.0,1040007000.0,1040007000.0,54308000.0,0.0,47127000.0,24776000.0,0.0,0.0,22023000.0,0.0,22023000.0,0.3,0.3,72188000.0,72328000.0,0.606777458246,0.311255346563,0.044714958668,0.013944586266299998,0.00565481371699,0.012577807289,174145000.0,54308000.0,22023000.0,0.012100731328200002,0.00565481371699
2016-04-30,4163844000.0,-0.313972146292,2836547000.0,1327297000.0,0.0,1176778000.0,1176778000.0,14656000.0,0.0,6827000.0,-8814000.0,0.0,0.0,-24446000.0,0.0,-24446000.0,-0.49,0.05,72410000.0,72542000.0,0.634887375589,0.318767225669,0.0369355816404,0.0035198244698899997,-0.0058710172619299995,0.024355619470900005,153794000.0,14656000.0,-24446000.0,0.00163959072434,-0.0058710172619299995
2015-05-02,6069497000.0,-0.0488704831903,4196998000.0,1872499000.0,0.0,1545152000.0,1545152000.0,133173000.0,0.0,111302000.0,78687000.0,0.0,0.0,36596000.0,15767000.0,36596000.0,0.21,0.21,60842000.0,60928000.0,0.26303177521,0.308509749655,0.0548356807821,0.0219413569197,0.00602949470113,-0.014391472637700001,332825000.0,133173000.0,36596000.0,0.018337928167700003,0.00602949470113
2014-05-03,6381357000.0,-0.0669173366594,4523422000.0,1857935000.0,0.0,1606936000.0,1606936000.0,34192000.0,0.0,3952000.0,51953000.0,0.0,0.0,-47268000.0,16028000.0,-47268000.0,-1.12,-1.12,58971000.0,58971000.0,0.26738566414000003,0.29115045593,0.040266670553000004,0.00535810800117,-0.0074072019478,0.028986781338200002,256956000.0,34192000.0,-47268000.0,0.0006193040132369999,-0.0074072019478
2013-04-27,6839005000.0,-0.0407049936466,5156499000.0,1682506000.0,0.0,1675376000.0,1675376000.0,-220004000.0,0.0,-157806000.0,-97543000.0,0.0,0.0,-157806000.0,15767000.0,-157806000.0,-3.02,-3.02,58247000.0,58247000.0,0.27069205281,0.246016196801,0.00184237326921,-0.0321690070412,-0.023074409216,-0.00708348655981,12600000.0,-220004000.0,-157806000.0,-0.023074409216,-0.023074409216
2012-04-28,7129199000.0,0.0186658264944,5218383000.0,1910816000.0,0.0,1739452000.0,1739452000.0,-61303000.0,0.0,-96607000.0,-27740000.0,0.0,0.0,-68867000.0,7081000.0,-68867000.0,-1.41,-1.41,57337000.0,57337000.0,0.123497915831,0.26802674466,0.024791705211200003,-0.00859886222842,-0.00965985098747,-0.0263232938231,176745000.0,-61303000.0,-68867000.0,-0.0135508912011,-0.00965985098747
2011-04-30,6998565000.0,0.20503812661499998,5205712000.0,1792853000.0,0.0,1629384000.0,1629384000.0,-65259000.0,0.0,-122609000.0,-48652000.0,0.0,0.0,-73920000.0,0.0,-73920000.0,-1.31,-1.31,56588000.0,56588000.0,0.791386866473,0.25617437288899997,0.0256445428456,-0.00932462583401,-0.0105621652439,0.0126554515104,179475000.0,-65259000.0,-73920000.0,-0.017519162857,-0.0105621652439
2010-05-01,5807754000.0,0.1339,4131009000.0,1676745000.0,0.0,1395725000.0,1603499000.0,73246000.0,28237000.0,45041000.0,8365000.0,32000.0,0.0,36676000.0,0.0,36676000.0,0.64,0.63,,55344000.0,1.0,0.2887,0.05,0.0126,0.006,0.0001,287742000.0,73278000.0,36644000.0,0.0078,0.0063
