,0,1,2,3,4,5,6,7,8,9,10,11,12,13,14
Date,Depreciation & Amortization,Stock-based compensation,Operating Cash Flow,Capital Expenditure,Acquisitions and disposals,Investment purchases and sales,Investing Cash flow,Issuance (repayment) of debt,Issuance (buybacks) of shares,Dividend payments,Financing Cash Flow,Effect of forex changes on cash,Net cash flow / Change in cash,Free Cash Flow,Net Cash/Marketcap
2019-12-31,-17247.0,78053.0,4443468.0,2185605.0,-0.0,9356835.0,19898314.0,-0.0,-49094419.0,-4031157.0,-7079604.0,0.0,17262178.0,2257863.0,0.0
2018-12-31,-107609.0,72408.0,9317058.0,287031.0,-0.0,0.0,14011152.0,-0.0,-31832241.0,-3699845.0,-24016188.0,0.0,-687978.0,9030027.0,0.0
2017-12-31,-187781.0,71701.0,8181957.0,141199.0,-0.0,0.0,-29777871.0,-0.0,-32520219.0,-2885829.0,27873803.0,0.0,6277889.0,8040758.0,0.0
2016-12-31,-61567.0,76529.0,6042824.0,196584.0,-0.0,0.0,-20591553.0,-0.0,-26242330.0,2668421.0,11596273.0,0.0,-2952456.0,5846240.0,0.0
2015-12-31,87516.0,78987.0,7115612.0,133632.0,-0.0,2315000.0,-15356884.0,6980681.0,-29194786.0,2439240.0,27057010.0,0.0,18815738.0,6981980.0,0.0
2014-12-31,-102858.0,74908.0,2172903.0,97740.0,-0.0,1920000.0,-35335319.0,-0.0,-10379048.0,2766061.0,21417368.0,0.0,-11745048.0,2075163.0,0.0
2013-12-31,-323902.0,74722.0,18758851.0,160913.0,-0.0,2325000.0,-40326316.0,-0.0,-22124096.0,2227231.0,12649713.0,0.0,-8917752.0,18597938.0,0.0
2012-12-31,0.0,0.0,0.0,0.0,-0.0,0.0,0.0,-0.0,0.0,-0.0,0.0,0.0,0.0,0.0,0.0
2011-12-31,0.0,0.0,0.0,0.0,-0.0,0.0,0.0,-0.0,0.0,-0.0,0.0,0.0,0.0,0.0,0.0
2010-12-31,231922.0,50721.0,497527.0,-152259.0,0.0,2452722.0,2470456.0,-7239256.0,208345.0,-1688084.0,11880300.0,0.0,14848283.0,345268.0,0.33399999999999996
2009-12-31,217784.0,47200.0,2897552.0,-309497.0,0.0,-33598384.0,-33907881.0,7006753.0,235315.0,-1912940.0,20380293.0,0.0,-10630036.0,2588055.0,0.33399999999999996
