,0,1,2,3,4,5,6,7,8,9,10,11,12,13,14,15,16,17,18,19,20,21,22,23,24,25,26,27,28,29,30
Date,Revenue,Revenue Growth,Cost of Revenue,Gross Profit,R&D Expenses,SG&A Expense,Operating Expenses,Operating Income,Interest Expense,Earnings before Tax,Income Tax Expense,Net Income - Non-Controlling int,Net Income - Discontinued ops,Net Income,Preferred Dividends,Net Income Com,EPS,EPS Diluted,Weighted Average Shs Out,Weighted Average Shs Out (Dil),Dividend per Share,Gross Margin,EBITDA Margin,EBIT Margin,Profit Margin,Free Cash Flow margin,EBITDA,EBIT,Consolidated Income,Earnings Before Tax Margin,Net Profit Margin
2019-12-31,16539000.0,-0.731879711437,0.0,0.0,47509000.0,235330000.0,282839000.0,403996000.0,529085000.0,403996000.0,90898000.0,0.0,0.0,313098000.0,0.0,313098000.0,3.14,3.13,95454015.0,95656905.0,0.879006068616,0.0,31.0623375053,24.4268698228,18.9308906222,38.4367857791,513740000.0,403996000.0,313098000.0,24.4268698228,18.9308906222
2018-12-31,61685000.0,0.14577335289899998,0.0,0.0,35136000.0,254997000.0,290133000.0,415650000.0,399051000.0,415650000.0,90784000.0,0.0,0.0,324866000.0,0.0,324866000.0,3.01,2.99,103744871.0,104077376.0,0.8772799959909999,0.0,9.183221204510001,6.7382670017,5.26653157169,13.3622760801,566467000.0,415650000.0,324866000.0,6.7382670017,5.26653157169
2017-12-31,53837000.0,0.20338414770399998,0.0,0.0,13966000.0,237824000.0,251790000.0,404461000.0,254189000.0,404461000.0,-209812000.0,0.0,0.0,614273000.0,0.0,614273000.0,5.6,5.58,105470413.0,105857487.0,0.8655788324160001,0.0,10.4232776715,7.5126957297,11.4098668202,5.918346118840001,561158000.0,404461000.0,614273000.0,7.5126957297,11.4098668202
2016-12-31,44738000.0,0.25523975197099996,0.0,0.0,14343000.0,223011000.0,237354000.0,335444000.0,188832000.0,335444000.0,109703000.0,0.0,0.0,225741000.0,0.0,225741000.0,2.11,2.09,102939804.0,103656170.0,0.866557195775,0.0,11.307322634,7.497965935,5.0458446957800005,6.86597523358,505867000.0,335444000.0,225741000.0,7.497965935,5.0458446957800005
2015-12-31,35641000.0,0.6499699088009999,0.0,0.0,13613000.0,210104000.0,223717000.0,296893000.0,135164000.0,296893000.0,45233000.0,0.0,0.0,251660000.0,0.0,251660000.0,2.37,2.35,102059114.0,102972150.0,0.864126853717,0.0,14.159507309,8.33009735978,7.060969108610001,5.4603967341,504659000.0,296893000.0,251660000.0,8.33009735978,7.060969108610001
2014-12-31,21601000.0,-0.966572785936,0.0,0.0,13381000.0,195218000.0,208599000.0,293250000.0,106651000.0,293250000.0,89035000.0,0.0,0.0,204215000.0,0.0,204215000.0,1.95,1.95,100456207.0,100595813.0,0.871964720838,0.0,27.0003703532,13.5757603815,9.453960464789999,-3.41456414055,583235000.0,293250000.0,204215000.0,13.5757603815,9.453960464789999
2013-12-31,646210000.0,0.0813655584877,0.0,0.0,13034000.0,173763000.0,186797000.0,208936000.0,92611000.0,0.0,109066000.0,0.0,0.0,208936000.0,0.0,208936000.0,2.03,2.01,98494040.0,99751605.0,0.653874190796,0.0,0.937942774021,0.323325234831,0.323325234831,-0.138013958311,606108000.0,208936000.0,208936000.0,0.0,0.323325234831
2012-12-31,597587000.0,0.197185271256,0.0,0.0,12462000.0,173261000.0,185723000.0,211260000.0,123269000.0,0.0,133605000.0,0.0,0.0,211260000.0,3899000.0,211260000.0,2.05,2.05,93654274.0,93828783.0,0.948760040935,0.0,0.40163356967299996,0.353521746624,0.353521746624,-0.64185465882,240011000.0,211260000.0,211260000.0,0.0,0.353521746624
2011-12-31,499160000.0,-0.214984430535,0.0,0.0,12041000.0,272991000.0,285032000.0,192744000.0,138937000.0,192744000.0,129576000.0,0.0,0.0,63168000.0,0.0,63168000.0,0.63,0.62,0.0,0.0,0.0,0.0,0.399633384085,0.38613670967200003,0.12654860165100001,-0.583346021316,199481000.0,192744000.0,63168000.0,0.38613670967200003,0.12654860165100001
2010-12-31,635860000.0,,0.0,635860000.0,0.0,185499000.0,299314000.0,336546000.0,0.0,312540000.0,127805000.0,0.0,0.0,184735000.0,0.0,184735000.0,1.99,1.99,96971850.0,92950735.0,0.0,1.0,0.49700000000000005,0.4915,0.29100000000000004,-0.748,315939000.0,312540000.0,184735000.0,0.4915,0.2905
