,0,1,2,3,4,5,6,7,8,9,10,11,12,13,14,15,16,17,18,19,20,21,22,23,24,25,26,27,28
Date,Cash and cash equivalents,Short-term investments,Cash and short-term investments,Receivables,Inventories,Total current assets,Property Plant & Equipment Net,Goodwill and Intangible Assets,Long-term investments,Tax assets,Total non-current assets,Total assets,Payables,Short-term debt,Total current liabilities,Long-term debt,Total debt,Deferred revenue,Tax Liabilities,Deposit Liabilities,Total non-current liabilities,Total liabilities,Other comprehensive income,Retained earnings (deficit),Total shareholders equity,Investments,Net Debt,Other Assets,Other Liabilities
2018-12-31,323943.0,1275811.0,323943.0,1574032.0,998829.0,4229297.0,148608.0,195906.0,0.0,0.0,7463035.0,11692332.0,481269.0,0.0,1226110.0,0.0,0.0,196609.0,0.0,0.0,0.0,1226110.0,85599140.0,-75134316.0,10466222.0,1275811.0,-323943.0,0.0,0.0
2017-12-31,288721.0,2792654.0,288721.0,2875946.0,946847.0,7014033.0,181165.0,181104.0,0.0,0.0,9064789.0,16078822.0,499230.0,0.0,2325527.0,0.0,0.0,508000.0,0.0,0.0,507866.0,2325527.0,80829018.0,-67076492.0,13753295.0,2792654.0,-288721.0,0.0,0.0
2016-12-31,1061307.0,1766677.0,1061307.0,1563246.0,465428.0,4910296.0,67814.0,134132.0,0.0,0.0,12379069.0,17289365.0,466842.0,0.0,1836477.0,0.0,0.0,633000.0,0.0,0.0,633062.0,1836477.0,78253433.0,-62801154.0,15452888.0,1766677.0,-1061307.0,0.0,0.0
2015-12-31,4321078.0,5097203.0,4321078.0,3391405.0,348645.0,13195752.0,63877.0,147738.0,0.0,0.0,7220327.0,20416079.0,1158555.0,0.0,2266162.0,0.0,0.0,376000.0,0.0,0.0,376405.0,2266162.0,76754757.0,-58611450.0,18149917.0,5097203.0,-4321078.0,0.0,0.0
2014-12-31,843632.0,236429.0,843632.0,625341.0,11825.0,1793884.0,103509.0,161344.0,0.0,0.0,273565.0,2067449.0,347311.0,0.0,1308388.0,0.0,0.0,429000.0,0.0,0.0,429233.0,1308388.0,57506605.0,-56754144.0,759061.0,236429.0,-843632.0,0.0,0.0
2013-12-31,2023349.0,73482.0,2023349.0,284025.0,9376.0,2392681.0,125062.0,174950.0,0.0,0.0,308724.0,2701405.0,540912.0,0.0,1407393.0,0.0,0.0,528160.0,0.0,0.0,528160.0,1650470.0,55909923.0,-54870572.0,1050935.0,73482.0,-2023349.0,0.0,0.0
2012-12-31,83989.0,25088.0,83989.0,604784.0,4186.0,907951.0,24267.0,195911.0,0.0,0.0,228890.0,1136841.0,931276.0,321428.0,2354823.0,321428.0,642856.0,508520.0,0.0,0.0,321428.0,2354823.0,51062624.0,-52288421.0,-1217982.0,25088.0,558867.0,0.0,0.0
2011-12-31,43437.0,0.0,43437.0,587346.0,8238.0,697941.0,52870.0,207180.0,0.0,0.0,268762.0,966703.0,687441.0,346428.0,2236794.0,0.0,346428.0,527092.0,0.0,0.0,1000.0,2237794.0,51012782.0,-52291688.0,-1271091.0,0.0,302991.0,0.0,0.0
2010-12-31,1010096.0,0.0,1010096.0,3851093.0,9775.0,3726880.0,28128.0,218450.0,0.0,0.0,1588290.0,5315170.0,180413.0,2098139.0,3639062.0,1102492.0,3200631.0,285674.0,0.0,0.0,1106773.0,4745835.0,0.0,-50394082.0,569335.0,0.0,2190535.0,-1144084.0,1360510.0
2009-12-31,832926.0,0.0,832926.0,4847215.0,14935.0,3152987.0,39243.0,230259.0,0.0,0.0,2944214.0,6097201.0,340241.0,471483.0,2285084.0,0.0,471483.0,210387.0,0.0,0.0,73292.0,2358376.0,0.0,-50087293.0,1108232.0,0.0,-361443.0,-2542089.0,1473360.0
