,0,1,2,3,4,5,6,7,8,9,10,11,12,13,14,15,16,17,18,19,20,21,22,23,24,25,26,27,28,29,30
Date,Revenue,Revenue Growth,Cost of Revenue,Gross Profit,R&D Expenses,SG&A Expense,Operating Expenses,Operating Income,Interest Expense,Earnings before Tax,Income Tax Expense,Net Income - Non-Controlling int,Net Income - Discontinued ops,Net Income,Preferred Dividends,Net Income Com,EPS,EPS Diluted,Weighted Average Shs Out,Weighted Average Shs Out (Dil),Dividend per Share,Gross Margin,EBITDA Margin,EBIT Margin,Profit Margin,Free Cash Flow margin,EBITDA,EBIT,Consolidated Income,Earnings Before Tax Margin,Net Profit Margin
2018-12-31,19742000.0,0.791174071871,6217000.0,13525000.0,1298000.0,8565000.0,9863000.0,3662000.0,5000.0,3266000.0,0.0,0.0,0.0,3266000.0,339000.0,3266000.0,0.18,0.14,16256465.0,21627278.0,0.020159726064500002,0.685087630433,0.209046702462,0.185492857866,0.165434099889,0.0936075372303,4127000.0,3662000.0,3266000.0,0.165434099889,0.165434099889
2017-12-31,11021821.0,0.339714563962,4275348.0,6746473.0,1193415.0,6608905.0,7802320.0,-1055847.0,190069.0,-2515106.0,0.0,0.0,0.0,-2515106.0,212500.0,-2515106.0,-0.21,-0.21,13263881.0,13263881.0,0.00801047596853,0.612101484864,-0.0393919480275,-0.09579605765689998,-0.228193326674,0.0418583281293,-434171.0,-1055847.0,-2515106.0,-0.228193326674,-0.228193326674
2016-12-31,8226992.0,0.275718222149,3448294.0,4778698.0,2028465.0,7601772.0,9630237.0,-4851539.0,0.0,-8040921.0,0.0,0.0,0.0,-6875446.0,0.0,-6875446.0,-0.54,-0.54,12642996.0,12642996.0,0.0,0.580856040701,-0.523532294671,-0.58970994502,-0.835718085055,-0.543397149286,-4307096.0,-4851539.0,-6875446.0,-0.977382863627,-0.835718085055
2015-12-31,6448910.0,1.0,2634700.0,3814210.0,1378807.0,7452532.0,8831339.0,-5017129.0,0.0,-4207939.0,0.0,0.0,0.0,-4213936.0,0.0,-4213936.0,-0.35,-0.35,12177396.0,12177396.0,0.0,0.5914503381189999,-0.758428168481,-0.7779809301109999,-0.653433836106,-0.792052145246,-4891035.0,-5017129.0,-4213936.0,-0.652503911514,-0.653433836106
2015-01-31,0.0,-1.0,0.0,0.0,0.0,0.0,0.0,0.0,0.0,0.0,0.0,0.0,0.0,0.0,0.0,0.0,0.0,0.0,0.0,0.0,0.0,0.0,0.0,0.0,0.0,0.0,0.0,0.0,0.0,0.0,0.0
2014-12-31,6190698.0,-0.308255602805,3155288.0,3035410.0,871100.0,5300000.0,6171100.0,-3135690.0,177308.0,-3217750.0,0.0,-83045.0,0.0,-3217750.0,0.0,-3217750.0,-0.31,-0.31,12084859.0,10447030.0,0.0,0.4903,-0.449,-0.4911,-0.52,-0.6054,-2782323.0,-3040442.0,-3300795.0,-0.5198,-0.5198
2013-12-31,8949401.0,1.0,5186514.0,3762887.0,487816.0,3560428.0,4048244.0,-285357.0,742219.0,0.0,0.0,0.0,0.0,-1084160.0,0.0,-1084160.0,-0.22,-0.22,5007999.0,5007999.0,0.0,0.42046244212300005,0.00787326436708,-0.0318855977065,-0.121143303334,-0.010130622149999999,70461.0,-285357.0,-1084160.0,0.0,-0.121143303334
2012-12-31,0.0,0.0,0.0,0.0,0.0,0.0,0.0,0.0,0.0,0.0,0.0,0.0,0.0,0.0,0.0,0.0,0.0,0.0,0.0,0.0,0.0,0.0,0.0,0.0,0.0,0.0,861802.0,0.0,0.0,0.0,0.0
2011-12-31,0.0,-1.0,0.0,0.0,0.0,0.0,0.0,0.0,0.0,0.0,0.0,0.0,0.0,0.0,0.0,0.0,0.0,0.0,0.0,0.0,0.0,0.0,0.0,0.0,0.0,0.0,0.0,0.0,0.0,0.0,0.0
2010-12-31,2081565.0,0.316113429439,1225177.0,856388.0,318897.0,1931687.0,2250584.0,-1394196.0,588001.0,-1983630.0,0.0,0.0,0.0,-1983630.0,0.0,-1983630.0,-0.42,-0.42,4977132.0,4977132.0,0.0,0.4114,-0.636,-0.6705,-0.953,-0.6154,-1323888.0,-1395629.0,-1983630.0,-0.953,-0.953
2009-12-31,1581600.0,0.1959,1007022.0,574578.0,414465.0,2062273.0,2861943.0,-2287365.0,488013.0,-2768352.0,0.0,0.0,0.0,-2768352.0,0.0,-2768352.0,-0.56,-0.56,4974275.0,4974831.0,0.0,0.3633,-1.383,-1.4418,-1.75,-1.7622,-2186649.0,-2280339.0,-2768352.0,-1.7503,-1.7503
