,0,1,2,3,4,5,6,7,8,9,10,11,12,13,14
Date,Depreciation & Amortization,Stock-based compensation,Operating Cash Flow,Capital Expenditure,Acquisitions and disposals,Investment purchases and sales,Investing Cash flow,Issuance (repayment) of debt,Issuance (buybacks) of shares,Dividend payments,Financing Cash Flow,Effect of forex changes on cash,Net cash flow / Change in cash,Free Cash Flow,Net Cash/Marketcap
2019-12-31,405000000.0,567000000.0,2884000000.0,254000000.0,-1510000000.0,-2604000000.0,-2014000000.0,-1000000000.0,-1911000000.0,-2096000000.0,-2583000000.0,54000000.0,-1659000000.0,2630000000.0,0.0
2018-12-31,220000000.0,564000000.0,3075000000.0,204000000.0,-699000000.0,-2087000000.0,-901000000.0,-0.0,-2087000000.0,-1968000000.0,-2765000000.0,-93000000.0,-591000000.0,2871000000.0,0.0
2017-12-31,240000000.0,542000000.0,3828000000.0,155000000.0,-102000000.0,-1421000000.0,-395000000.0,-700000000.0,-1421000000.0,-1662000000.0,-2630000000.0,192000000.0,803000000.0,3673000000.0,0.0
2016-12-31,263000000.0,521000000.0,2154000000.0,119000000.0,-30000000.0,-1399000000.0,-461000000.0,-0.0,-1399000000.0,-1545000000.0,-1685000000.0,-273000000.0,8000000.0,2035000000.0,0.0
2015-12-31,295000000.0,514000000.0,3004000000.0,221000000.0,-273000000.0,-1331000000.0,-580000000.0,-750000000.0,-1331000000.0,-1476000000.0,-2064000000.0,-115000000.0,360000000.0,2783000000.0,0.0
2014-12-31,334000000.0,453000000.0,3081000000.0,66000000.0,-0.0,-1344000000.0,107000000.0,-1000000000.0,-1344000000.0,-1338000000.0,-1855000000.0,-132000000.0,1333000000.0,3015000000.0,0.0
2013-12-31,343000000.0,448000000.0,3642000000.0,94000000.0,-0.0,-1243000000.0,-466000000.0,-750000000.0,-1236000000.0,-1168000000.0,-3392000000.0,17000000.0,-216000000.0,3548000000.0,0.0
2012-12-31,350000000.0,451000000.0,2240000000.0,150000000.0,-0.0,-1645000000.0,-196000000.0,-500000000.0,-1638000000.0,-1060000000.0,-944000000.0,70000000.0,1100000000.0,2090000000.0,0.0
2011-12-31,380000000.0,497000000.0,2826000000.0,247000000.0,-0.0,-3089000000.0,-204000000.0,-600000000.0,-2880000000.0,-1014000000.0,-2485000000.0,2000000.0,139000000.0,2579000000.0,0.0
2010-12-31,412000000.0,445000000.0,2488000000.0,131000000.0,-0.0,-920000000.0,-627000000.0,-2134000000.0,-258000000.0,-776000000.0,-3170000000.0,-32000000.0,-1341000000.0,2357000000.0,0.0
2009-12-31,339000000.0,317000000.0,1399000000.0,-65000000.0,-5755000000.0,303000000.0,-5519000000.0,4592000000.0,2776000000.0,-422000000.0,6749000000.0,47000000.0,2676000000.0,1334000000.0,0.0216
