,0,1,2,3,4,5,6,7,8,9,10,11,12,13,14,15,16,17,18,19,20,21,22,23,24,25,26,27,28,29,30
Date,Revenue,Revenue Growth,Cost of Revenue,Gross Profit,R&D Expenses,SG&A Expense,Operating Expenses,Operating Income,Interest Expense,Earnings before Tax,Income Tax Expense,Net Income - Non-Controlling int,Net Income - Discontinued ops,Net Income,Preferred Dividends,Net Income Com,EPS,EPS Diluted,Weighted Average Shs Out,Weighted Average Shs Out (Dil),Dividend per Share,Gross Margin,EBITDA Margin,EBIT Margin,Profit Margin,Free Cash Flow margin,EBITDA,EBIT,Consolidated Income,Earnings Before Tax Margin,Net Profit Margin
2018-12-31,848606000.0,0.0764931384513,381742000.0,466864000.0,98811000.0,299202000.0,407447000.0,59417000.0,15898000.0,47532000.0,-219000.0,0.0,0.0,44841000.0,0.0,44841000.0,0.95,0.93,47206669.0,48045084.0,0.48521093229900003,0.550154017294,0.164664166881,0.07001718111819999,0.0528407765206,0.219967806025,139735000.0,59417000.0,44841000.0,0.056011859449500004,0.0528407765206
2017-12-31,788306000.0,0.07866696770039999,361904000.0,426402000.0,89911000.0,268395000.0,362371000.0,64031000.0,12097000.0,54194000.0,-11739000.0,0.0,0.0,65933000.0,0.0,65933000.0,1.41,1.38,46669440.0,47775702.0,0.482860513489,0.540909240828,0.17609532339,0.0812260721091,0.08363884075469999,0.21068214627300003,138817000.0,64031000.0,65933000.0,0.0687474153438,0.08363884075469999
2016-12-31,730815000.0,0.14558579176699998,339220000.0,391595000.0,89870000.0,237085000.0,329795000.0,61800000.0,10583000.0,50926000.0,9411000.0,0.0,0.0,41515000.0,0.0,41515000.0,0.9,0.88,46132389.0,47316538.0,0.48209359695799997,0.535833282021,0.182329317269,0.0845631247306,0.056806442122800005,0.186003297688,133249000.0,61800000.0,41515000.0,0.069683846117,0.056806442122800005
2015-12-31,637940000.0,0.130255607073,304631000.0,333309000.0,84636000.0,199730000.0,286597000.0,46712000.0,8073000.0,36952000.0,11303000.0,0.0,0.0,25649000.0,0.0,25649000.0,0.56,0.55,45623854.0,46498704.0,0.484056501876,0.522477035458,0.162410258018,0.0732231871336,0.0402059754836,0.150025080729,103608000.0,46712000.0,25649000.0,0.057923942690500003,0.0402059754836
2014-12-31,564421000.0,0.120289708366,273438000.0,290983000.0,77179000.0,165637000.0,244619000.0,46364000.0,6011000.0,39234000.0,10944000.0,0.0,0.0,28290000.0,0.0,28290000.0,0.63,0.62,45215138.0,45799874.0,0.482686917436,0.515542476272,0.163911335687,0.08214435678330001,0.0501221605858,0.156560439814,92515000.0,46364000.0,28290000.0,0.0695119423267,0.0501221605858
2013-12-31,503817000.0,0.126051866371,232663000.0,271154000.0,65645000.0,147934000.0,219612000.0,51542000.0,5818000.0,48137000.0,14857000.0,0.0,0.0,30472000.0,0.0,30472000.0,0.68,0.67,44684812.0,45421140.0,0.48613927347499997,0.538199385888,0.18919369533,0.10230301875499999,0.0604822782876,0.17299535347199999,95319000.0,51542000.0,30472000.0,0.0955446124287,0.0604822782876
2012-12-31,447419000.0,0.206410367031,202460000.0,244959000.0,64692000.0,158526000.0,225524000.0,19435000.0,5864000.0,16793000.0,6742000.0,0.0,0.0,6583000.0,0.0,6583000.0,0.15,0.15,44145535.0,44691845.0,0.486240834318,0.547493512792,0.11468891575899999,0.0434380301239,0.0147132777106,0.107581484023,51314000.0,19435000.0,6583000.0,0.0375330506751,0.0147132777106
2011-12-31,370868000.0,0.13382697328600002,157194000.0,213674000.0,47672000.0,112294000.0,162746000.0,50928000.0,200000.0,51257000.0,18037000.0,0.0,0.0,33220000.0,0.0,33220000.0,0.76,0.75,43522563.0,44149054.0,0.48537846360200004,0.57614569065,0.18314602500100002,0.13732109537599999,0.08957364884539999,0.18149853856400003,67923000.0,50928000.0,33220000.0,0.138208203458,0.08957364884539999
2010-12-31,327094000.0,0.0569489772837,131815000.0,195279000.0,45527000.0,102657000.0,148982000.0,46297000.0,74000.0,46180000.0,16375000.0,0.0,0.0,29805000.0,0.0,29805000.0,0.69,0.68,43145189.0,43876155.0,0.44420483061899996,0.597011868148,0.190663845867,0.141540352315,0.0911205953029,0.138027600629,62365000.0,46297000.0,29805000.0,0.141182656973,0.0911205953029
2009-12-31,309470000.0,0.0231,121132000.0,188338000.0,45520000.0,96878000.0,143166000.0,45172000.0,962000.0,45067000.0,17547000.0,0.0,0.0,27520000.0,0.0,27520000.0,0.64,0.63,44159781.0,42771173.0,0.4,0.6086,0.19899999999999998,0.1487,0.08900000000000001,0.2627,61653000.0,46029000.0,27520000.0,0.1456,0.0889
