,0,1,2,3,4,5,6,7,8,9,10,11,12,13,14
Date,Depreciation & Amortization,Stock-based compensation,Operating Cash Flow,Capital Expenditure,Acquisitions and disposals,Investment purchases and sales,Investing Cash flow,Issuance (repayment) of debt,Issuance (buybacks) of shares,Dividend payments,Financing Cash Flow,Effect of forex changes on cash,Net cash flow / Change in cash,Free Cash Flow,Net Cash/Marketcap
2017-12,,,-106000000.0,-2000000.0,0.0,0.0,106000000.0,0.0,,,0.0,0.0,0.0,-108000000.0,
2016-12,,,1595000000.0,-1042000000.0,-5000000.0,0.0,-962000000.0,-834000000.0,,,-634000000.0,0.0,-1000000.0,553000000.0,
2015-12,,,1190000000.0,-992000000.0,-8000000.0,0.0,-947000000.0,-458000000.0,,,-243000000.0,0.0,0.0,198000000.0,
2014-12,,,0.0,0.0,0.0,-898000000.0,359000000.0,-5604000000.0,,,-4880000000.0,-0.0,-4521000000.0,4521000000.0,
2013-12,,,0.0,0.0,0.0,-884000000.0,-664000000.0,0.0,,,2401000000.0,0.0,1737000000.0,-1737000000.0,
