,0,1,2,3,4,5,6,7,8,9,10,11,12,13,14
Date,Depreciation & Amortization,Stock-based compensation,Operating Cash Flow,Capital Expenditure,Acquisitions and disposals,Investment purchases and sales,Investing Cash flow,Issuance (repayment) of debt,Issuance (buybacks) of shares,Dividend payments,Financing Cash Flow,Effect of forex changes on cash,Net cash flow / Change in cash,Free Cash Flow,Net Cash/Marketcap
2019-12-31,348000.0,2152000.0,-12936000.0,0.0,-0.0,0.0,0.0,-0.0,-9874000.0,-0.0,6167000.0,0.0,-6769000.0,-12936000.0,0.0
2018-12-31,362000.0,2955000.0,-15495000.0,0.0,-0.0,3000000.0,3000000.0,-0.0,-16645000.0,-0.0,166000.0,0.0,-12329000.0,-15495000.0,0.0
2017-12-31,373000.0,2841000.0,-15740000.0,0.0,-0.0,2577000.0,2577000.0,-0.0,-28823000.0,-0.0,27784000.0,0.0,14621000.0,-15740000.0,0.0
2016-12-31,400000.0,2758000.0,-17213000.0,22000.0,-0.0,12221000.0,12199000.0,-0.0,-12253000.0,-0.0,13207000.0,0.0,8193000.0,-17235000.0,0.0
2015-12-31,377000.0,1751000.0,-46264000.0,458000.0,-0.0,-17847000.0,-18305000.0,-0.0,-6260000.0,-0.0,54014000.0,0.0,-10555000.0,-46722000.0,0.0
2014-12-31,388000.0,1839000.0,-70562000.0,0.0,0.0,0.0,0.0,0.0,37000.0,0.0,87377000.0,0.0,16815000.0,-70562000.0,0.2442
2013-12-31,429000.0,1721000.0,-57231000.0,-727000.0,0.0,0.0,-727000.0,0.0,0.0,0.0,57958000.0,0.0,0.0,-57958000.0,0.2442
2012-12-31,85000.0,1449000.0,-36224000.0,-3478000.0,0.0,0.0,-3478000.0,0.0,0.0,0.0,39702000.0,0.0,0.0,-39702000.0,0.2442
