,0,1,2,3,4,5,6,7,8,9,10,11,12,13,14,15,16,17,18,19,20,21,22,23,24,25,26,27,28
Date,Cash and cash equivalents,Short-term investments,Cash and short-term investments,Receivables,Inventories,Total current assets,Property Plant & Equipment Net,Goodwill and Intangible Assets,Long-term investments,Tax assets,Total non-current assets,Total assets,Payables,Short-term debt,Total current liabilities,Long-term debt,Total debt,Deferred revenue,Tax Liabilities,Deposit Liabilities,Total non-current liabilities,Total liabilities,Other comprehensive income,Retained earnings (deficit),Total shareholders equity,Investments,Net Debt,Other Assets,Other Liabilities
2019-12-31,9500000.0,569673000.0,579173000.0,2049000.0,0.0,581222000.0,6070000.0,0.0,569673000.0,8162000.0,2126058000.0,2707280000.0,0.0,2708000.0,2708000.0,212000.0,2920000.0,0.0,0.0,2336489000.0,8928000.0,2370480000.0,39000.0,203200000.0,336800000.0,1139346000.0,-6580000.0,0.0,2358844000.0
2018-12-31,19144000.0,619670000.0,638814000.0,2112000.0,0.0,640926000.0,7376000.0,0.0,619670000.0,10418000.0,1879966000.0,2520892000.0,0.0,2640000.0,2640000.0,7000000.0,9640000.0,0.0,0.0,2174840000.0,11717000.0,2204492000.0,0.0,179944000.0,316400000.0,1239340000.0,-9504000.0,0.0,2190135000.0
2017-12-31,3246000.0,483499000.0,486745000.0,2115000.0,0.0,488860000.0,8612000.0,0.0,483499000.0,8790000.0,1979294000.0,2468154000.0,0.0,5739000.0,5739000.0,0.0,5739000.0,0.0,0.0,2148670000.0,5091000.0,2171129000.0,0.0,155544000.0,297025000.0,966998000.0,2493000.0,0.0,2160299000.0
2016-12-31,3568000.0,417018000.0,420586000.0,2920000.0,0.0,423506000.0,8520000.0,0.0,417018000.0,15337000.0,1599987000.0,2023493000.0,0.0,5586000.0,5586000.0,0.0,5586000.0,0.0,0.0,1772700000.0,5084000.0,1792930000.0,0.0,146464000.0,230563000.0,834036000.0,2018000.0,0.0,1782260000.0
2015-12-31,3796000.0,487424000.0,491220000.0,3681000.0,0.0,494901000.0,9305000.0,9549000.0,487424000.0,12695000.0,1536233000.0,2031134000.0,0.0,5395000.0,5395000.0,67000000.0,72395000.0,0.0,0.0,1728226000.0,72076000.0,1816661000.0,0.0,129553000.0,214473000.0,974848000.0,68599000.0,0.0,1739190000.0
2014-12-31,3228000.0,317285000.0,320513000.0,0.0,0.0,320513000.0,9859000.0,10168000.0,317285000.0,12600000.0,1466617000.0,1787130000.0,0.0,5185000.0,5185000.0,15000000.0,20185000.0,0.0,0.0,1551619000.0,20740000.0,1587104000.0,0.0,116502000.0,200026000.0,634570000.0,16957000.0,0.0,1561179000.0
2013-12-31,8664000.0,366493000.0,375157000.0,0.0,0.0,375157000.0,9110000.0,0.0,366493000.0,13908000.0,1430037000.0,1805194000.0,0.0,4969000.0,4969000.0,15000000.0,19969000.0,0.0,0.0,1587102000.0,20209000.0,1624307000.0,0.0,101464000.0,180887000.0,732986000.0,11305000.0,0.0,1599129000.0
2012-12-31,1293000.0,293414000.0,294707000.0,0.0,0.0,294707000.0,9344000.0,0.0,293414000.0,0.0,1140042000.0,1434749000.0,0.0,0.0,0.0,0.0,0.0,0.0,0.0,1253289000.0,3626000.0,1282957000.0,0.0,91164000.0,151792000.0,586828000.0,-1293000.0,0.0,1279331000.0
2011-12-31,129743000.0,194842000.0,324585000.0,0.0,0.0,324585000.0,9498000.0,0.0,194842000.0,0.0,1068678000.0,1393263000.0,0.0,5000000.0,5000000.0,0.0,5000000.0,0.0,0.0,1202972000.0,0.0,1257712000.0,0.0,77098000.0,135551000.0,389684000.0,-124743000.0,0.0,1252712000.0
2010-12-31,85232000.0,,,0.0,0.0,,8419000.0,0.0,,0.0,,1208150000.0,0.0,,,,60000000.0,0.0,0.0,1015739000.0,,1086230000.0,1546000.0,64991000.0,121920000.0,1075661000.0,,,
2009-12-31,38660000.0,,,0.0,0.0,,8043000.0,0.0,,0.0,,1121672000.0,0.0,,,,60000000.0,0.0,0.0,944061000.0,,1012621000.0,618000.0,54644000.0,109051000.0,1035344000.0,,,
