,0,1,2,3,4,5,6,7,8,9,10,11,12,13,14,15,16,17,18,19,20,21,22,23,24,25,26,27,28,29,30
Date,Revenue,Revenue Growth,Cost of Revenue,Gross Profit,R&D Expenses,SG&A Expense,Operating Expenses,Operating Income,Interest Expense,Earnings before Tax,Income Tax Expense,Net Income - Non-Controlling int,Net Income - Discontinued ops,Net Income,Preferred Dividends,Net Income Com,EPS,EPS Diluted,Weighted Average Shs Out,Weighted Average Shs Out (Dil),Dividend per Share,Gross Margin,EBITDA Margin,EBIT Margin,Profit Margin,Free Cash Flow margin,EBITDA,EBIT,Consolidated Income,Earnings Before Tax Margin,Net Profit Margin
2017-12,,0.0,,,,,,,,,,,,24000000.0,,24000000.0,0.33,0.32,71000000.0,71000000.0,,,,,,,,24000000.0,24000000.0,,
2016-12,,0.0,,,,,,,,,,,,25000000.0,,25000000.0,0.34,0.34,72000000.0,73000000.0,,,,,,,,25000000.0,25000000.0,,
2015-12,,0.0,,,,,,,,,,,,23000000.0,,23000000.0,0.29,0.29,79000000.0,79000000.0,,,,,,,,23000000.0,23000000.0,,
2014-12,,0.0,,,,,,,,,,,,18000000.0,,18000000.0,0.25,0.24,73000000.0,74000000.0,,,,,,,,18000000.0,18000000.0,,
2013-12-31,123736000.0,0.0,0.0,0.0,0.0,57154000.0,57154000.0,15173000.0,25640000.0,15173000.0,2595000.0,0.0,0.0,12578000.0,0.0,12578000.0,0.17,0.17,75841392.0,76085398.0,0.0,0.0,0.188134415207,0.122623973621,0.101651904054,0.214553565656,23279000.0,15173000.0,12578000.0,0.122623973621,0.101651904054
2013-12,,0.0,,,,,,,,,,,,13000000.0,,13000000.0,0.17,0.17,76000000.0,76000000.0,,,,,,,,13000000.0,13000000.0,,
2012-12-31,139457000.0,1.0,0.0,0.0,0.0,57529000.0,57529000.0,15938000.0,30973000.0,15938000.0,1759000.0,0.0,0.0,14179000.0,0.0,14179000.0,0.18,0.18,76657265.0,76827872.0,0.0,0.0,0.266232602164,0.114286124038,0.10167291710000001,0.37517657772600005,37128000.0,15938000.0,14179000.0,0.114286124038,0.10167291710000001
2011-12-31,0.0,0.0,0.0,0.0,0.0,0.0,0.0,0.0,0.0,0.0,0.0,0.0,0.0,0.0,0.0,0.0,0.0,0.0,0.0,0.0,0.0,0.0,0.0,0.0,0.0,0.0,0.0,0.0,0.0,0.0,0.0
