,0,1,2,3,4,5,6,7,8,9,10,11,12,13,14,15,16,17,18,19,20,21,22,23,24,25,26,27,28,29,30
Date,Revenue,Revenue Growth,Cost of Revenue,Gross Profit,R&D Expenses,SG&A Expense,Operating Expenses,Operating Income,Interest Expense,Earnings before Tax,Income Tax Expense,Net Income - Non-Controlling int,Net Income - Discontinued ops,Net Income,Preferred Dividends,Net Income Com,EPS,EPS Diluted,Weighted Average Shs Out,Weighted Average Shs Out (Dil),Dividend per Share,Gross Margin,EBITDA Margin,EBIT Margin,Profit Margin,Free Cash Flow margin,EBITDA,EBIT,Consolidated Income,Earnings Before Tax Margin,Net Profit Margin
2018-12-31,21728000.0,-0.9032961555239999,0.0,0.0,0.0,161468000.0,161468000.0,119406000.0,58338000.0,119406000.0,37537000.0,0.0,0.0,80384000.0,1682000.0,80384000.0,0.94,0.92,83596685.0,85331314.0,0.476788626506,0.0,6.55996870398,5.49548969072,3.6995581737800003,3.35309278351,142535000.0,119406000.0,80384000.0,5.49548969072,3.6995581737800003
2017-12-31,224686000.0,0.120975064609,0.0,0.0,0.0,178406000.0,178406000.0,86385000.0,34009000.0,86385000.0,46196000.0,0.0,0.0,40591000.0,4887000.0,40591000.0,0.43,0.42,82430633.0,84802565.0,0.436944330634,0.0,0.478036014705,0.38446988241400004,0.180656560711,0.390682997606,107408000.0,86385000.0,40591000.0,0.38446988241400004,0.180656560711
2016-12-31,200438000.0,0.07895785110619999,0.0,0.0,0.0,163767000.0,163767000.0,101207000.0,27201000.0,101207000.0,30963000.0,0.0,0.0,71628000.0,4063000.0,71628000.0,0.83,0.81,81264273.0,83209126.0,0.39791308467799996,0.0,0.621878086989,0.504929205041,0.35735738732199995,0.48461868508,124648000.0,101207000.0,71628000.0,0.504929205041,0.35735738732199995
2015-12-31,185770000.0,0.0337727669852,0.0,0.0,0.0,159401000.0,159401000.0,93313000.0,27898000.0,93313000.0,30392000.0,0.0,0.0,64925000.0,3566000.0,64925000.0,0.76,0.74,80885253.0,83225153.0,0.35575783201,0.0,0.621736555956,0.502303924207,0.349491306454,0.47622866986100004,115500000.0,93313000.0,64925000.0,0.502303924207,0.349491306454
2014-12-31,179701000.0,0.032657541173900004,0.0,0.0,0.0,146648000.0,146648000.0,99770000.0,27141000.0,99770000.0,32365000.0,0.0,0.0,68815000.0,3703000.0,68815000.0,0.81,0.79,78921480.0,80879231.0,0.319352690186,0.0,0.663034707653,0.555200026711,0.382941664209,0.541755471589,119148000.0,99770000.0,68815000.0,0.555200026711,0.382941664209
2013-12-31,174018000.0,-0.050513978917,0.0,0.0,0.0,140761000.0,140761000.0,70535000.0,29156000.0,66691000.0,32308000.0,0.0,0.0,70535000.0,14689000.0,70535000.0,0.7,0.68,77373817.0,78753524.0,0.24289706705699998,0.0,0.515130618672,0.40533163236,0.40533163236,0.608350860256,89642000.0,70535000.0,70535000.0,0.38324196347499995,0.40533163236
2012-12-31,183276000.0,0.0242086909871,0.0,0.0,0.0,143852000.0,143852000.0,53271000.0,40012000.0,48758000.0,20330000.0,0.0,0.0,53271000.0,366000.0,53271000.0,0.62,0.61,76019991.0,76973516.0,0.0405983793179,0.0,0.393717671708,0.290659988214,0.290659988214,0.24705908029399998,72159000.0,53271000.0,53271000.0,0.266035923962,0.290659988214
2011-12-31,178944000.0,-0.10173184077099999,0.0,0.0,0.0,147311000.0,152325000.0,50621000.0,50788000.0,50621000.0,14367000.0,0.0,0.0,39137000.0,805000.0,39137000.0,0.51,0.46,75169611.0,83451422.0,0.0370155466015,0.0,0.385081366237,0.282887383763,0.218710881617,0.429843973534,68908000.0,50621000.0,39137000.0,0.282887383763,0.218710881617
2010-12-31,199210000.0,-0.17331673410100001,0.0,199210000.0,0.0,192967000.0,230828000.0,-31618000.0,0.0,-30461000.0,-19491000.0,2586000.0,3743000.0,-10970000.0,9766000.0,-20736000.0,-0.29,-0.29,76480398.0,71321162.0,0.04,1.0,-0.066,-0.1529,-0.10400000000000001,0.3898,-13091000.0,-30461000.0,-8384000.0,-0.1529,-0.0551
2009-12-31,240975000.0,1.9021,0.0,240975000.0,0.0,180828000.0,222958000.0,18017000.0,0.0,6863000.0,1632000.0,3649000.0,7505000.0,5231000.0,40231000.0,-35000000.0,-0.52,-0.52,68653721.0,66696977.0,0.05,1.0,0.11,0.0285,-0.145,0.9946,26466000.0,6863000.0,8880000.0,0.0285,0.0217
