,0,1,2,3,4,5,6,7,8,9,10,11,12,13,14
Date,Depreciation & Amortization,Stock-based compensation,Operating Cash Flow,Capital Expenditure,Acquisitions and disposals,Investment purchases and sales,Investing Cash flow,Issuance (repayment) of debt,Issuance (buybacks) of shares,Dividend payments,Financing Cash Flow,Effect of forex changes on cash,Net cash flow / Change in cash,Free Cash Flow,Net Cash/Marketcap
2019-12-31,230000.0,684000.0,-8361000.0,0.0,-0.0,0.0,0.0,-0.0,26700000.0,-0.0,27783000.0,0.0,19422000.0,-8361000.0,0.0
2018-12-31,426000.0,554000.0,-6124000.0,17000.0,-0.0,0.0,-17000.0,-0.0,1180000.0,-0.0,1180000.0,0.0,0.0,-6141000.0,0.0
2017-12-31,411000.0,793000.0,-7957000.0,538000.0,-0.0,0.0,-538000.0,-0.0,3567000.0,-0.0,5085000.0,0.0,0.0,-8495000.0,0.0
2016-12-31,204000.0,784000.0,-8148000.0,338000.0,-0.0,0.0,-338000.0,-0.0,0.0,-0.0,9007000.0,0.0,0.0,-8486000.0,0.0
2015-12-31,201762.0,368633.0,-5004291.0,0.0,-0.0,0.0,5004291.0,-0.0,0.0,-0.0,0.0,0.0,0.0,-5004291.0,0.0
2014-12-31,170909.0,404150.0,-3817497.0,123410.0,-0.0,0.0,-123410.0,-0.0,13812373.0,-0.0,14247873.0,0.0,0.0,-3940907.0,0.0
2013-12-31,160625.0,704480.0,-2313160.0,0.0,-0.0,0.0,-3017786.0,-0.0,5330946.0,-0.0,5330946.0,0.0,0.0,-2313160.0,0.0
2012-12-31,211709.0,382918.0,-1149911.0,170056.0,-0.0,0.0,-883743.0,-0.0,2033654.0,-0.0,2033654.0,0.0,0.0,-1319967.0,0.0
2011-12-31,211709.0,382918.0,-1149911.0,170056.0,-0.0,0.0,-170056.0,-0.0,2033654.0,-0.0,2033654.0,0.0,0.0,-1319967.0,0.0
2010-12-31,197268.0,477356.0,-1148156.0,0.0,0.0,0.0,-229655.0,0.0,1049127.0,0.0,1049127.0,0.0,-328684.0,-1148156.0,0.0138
2009-12-31,182981.0,588857.0,-1567446.0,0.0,0.0,0.0,-110000.0,0.0,737624.0,0.0,737624.0,0.0,-939822.0,-1567446.0,0.0309
