,0,1,2,3,4,5,6,7,8,9,10,11,12,13,14,15,16,17,18,19,20,21,22,23,24,25,26,27,28,29,30
Date,Revenue,Revenue Growth,Cost of Revenue,Gross Profit,R&D Expenses,SG&A Expense,Operating Expenses,Operating Income,Interest Expense,Earnings before Tax,Income Tax Expense,Net Income - Non-Controlling int,Net Income - Discontinued ops,Net Income,Preferred Dividends,Net Income Com,EPS,EPS Diluted,Weighted Average Shs Out,Weighted Average Shs Out (Dil),Dividend per Share,Gross Margin,EBITDA Margin,EBIT Margin,Profit Margin,Free Cash Flow margin,EBITDA,EBIT,Consolidated Income,Earnings Before Tax Margin,Net Profit Margin
2019-07-31,1160645000.0,-0.0112501501468,581967000.0,578678000.0,45168000.0,371082000.0,416250000.0,162428000.0,2830000.0,164644000.0,33386000.0,0.0,0.0,131258000.0,0.0,131258000.0,2.48,2.45,52596000.0,53323000.0,0.8388875344600001,0.498583115423,0.160451300785,0.13994632295,0.113090566021,0.111477669744,186227000.0,162428000.0,131258000.0,0.14185560615,0.113090566021
2018-07-31,1173851000.0,0.0543736010261,585560000.0,588291000.0,45253000.0,390342000.0,435595000.0,152696000.0,3168000.0,152015000.0,60955000.0,0.0,0.0,91060000.0,0.0,91060000.0,1.75,1.72,51677000.0,52524000.0,0.816255426091,0.501163265184,0.151755205729,0.130081245405,0.0775737295449,0.10330527469,178138000.0,152696000.0,91060000.0,0.129501103632,0.0775737295449
2017-07-31,1113316000.0,-0.00652225320692,555024000.0,558292000.0,39624000.0,387653000.0,427277000.0,131015000.0,5504000.0,126632000.0,30987000.0,0.0,0.0,95645000.0,0.0,95645000.0,1.86,1.83,51056000.0,51956000.0,0.806066671799,0.501467687521,0.142204010362,0.117679975856,0.085910020156,0.11574880806500001,158318000.0,131015000.0,95645000.0,0.11374308821599999,0.085910020156
2016-07-31,1120625000.0,-0.043615812844400005,561852000.0,558773000.0,35799000.0,405096000.0,440895000.0,117878000.0,7824000.0,109345000.0,29235000.0,0.0,0.0,80110000.0,0.0,80110000.0,1.57,1.56,50541000.0,50769000.0,0.803797593019,0.498626213051,0.13413050752900002,0.10518951478,0.07148689347460001,0.108721472393,150310000.0,117878000.0,80110000.0,0.09757501394310002,0.07148689347460001
2015-07-31,1171731000.0,-0.043511445396600006,613299000.0,558432000.0,36734000.0,422704000.0,523126000.0,35306000.0,11156000.0,24995000.0,20093000.0,0.0,0.0,2987000.0,0.0,2987000.0,0.04,0.04,51285000.0,51383000.0,0.797462195668,0.476587203036,0.0638064538704,0.030131489224099996,0.00254921991481,0.056902992239699995,74764000.0,35306000.0,2987000.0,0.0213316879045,0.00254921991481
2014-07-31,1225034000.0,0.0632969623534,615470000.0,609564000.0,35048000.0,452164000.0,650775000.0,-41211000.0,14300000.0,-134596000.0,-4963000.0,0.0,0.0,-45968000.0,0.0,-45968000.0,-0.9,-0.9,51866000.0,51866000.0,0.780607719894,0.49758945466000004,0.0027648212212900004,-0.033640698952,-0.037523856480699995,0.040833152386,3387000.0,-41211000.0,-45968000.0,-0.109871236227,-0.037523856480699995
2013-07-31,1152109000.0,1.0,546029000.0,606080000.0,33552000.0,427661000.0,691707000.0,-85627000.0,16641000.0,-98746000.0,42070000.0,0.0,0.0,-154535000.0,0.0,-154535000.0,-3.03,-3.03,51330000.0,51330000.0,0.764523670368,0.5260613362100001,-0.032029955499,-0.0743219608561,-0.134132273943,0.0935814232855,-36902000.0,-85627000.0,-154535000.0,-0.08570890427899999,-0.134132273943
2012-07-31,0.0,0.0,0.0,0.0,0.0,0.0,0.0,0.0,0.0,0.0,0.0,0.0,0.0,-72398000.0,0.0,-72398000.0,0.0,0.0,0.0,0.0,0.0,0.0,0.0,0.0,0.0,0.0,0.0,0.0,-72398000.0,0.0,0.0
2011-07-31,0.0,-1.0,0.0,0.0,0.0,0.0,0.0,0.0,0.0,0.0,0.0,0.0,0.0,0.0,0.0,0.0,0.0,0.0,0.0,0.0,0.0,0.0,0.0,0.0,0.0,0.0,0.0,0.0,0.0,0.0,0.0
2010-07-31,1259096000.0,0.041692658736400004,635799000.0,623297000.0,42621000.0,435906000.0,493841000.0,129456000.0,21222000.0,109402000.0,27446000.0,0.0,0.0,81956000.0,0.0,81956000.0,1.56,1.55,52503844.0,52402000.0,0.7,0.495,0.146,0.1037,0.065,0.1104,183646000.0,130624000.0,81956000.0,0.0869,0.0651
2009-07-31,1208702000.0,-0.2064,631119000.0,577583000.0,34181000.0,397180000.0,457210000.0,120373000.0,24901000.0,97272000.0,27150000.0,0.0,0.0,70122000.0,0.0,70122000.0,1.33,1.32,52559000.0,52866000.0,0.68,0.4779,0.146,0.1011,0.057999999999999996,0.0849,177024000.0,122173000.0,70122000.0,0.0805,0.057999999999999996
