,0,1,2,3,4,5,6,7,8,9,10,11,12,13,14,15,16,17,18,19,20,21,22,23,24,25,26,27,28
Date,Cash and cash equivalents,Short-term investments,Cash and short-term investments,Receivables,Inventories,Total current assets,Property Plant & Equipment Net,Goodwill and Intangible Assets,Long-term investments,Tax assets,Total non-current assets,Total assets,Payables,Short-term debt,Total current liabilities,Long-term debt,Total debt,Deferred revenue,Tax Liabilities,Deposit Liabilities,Total non-current liabilities,Total liabilities,Other comprehensive income,Retained earnings (deficit),Total shareholders equity,Investments,Net Debt,Other Assets,Other Liabilities
2019-12-31,469000.0,-8000.0,469000.0,17500000.0,19142000.0,41056000.0,113337000.0,0.0,0.0,342000.0,208329000.0,249385000.0,15804000.0,1415000.0,39408000.0,32920000.0,34335000.0,3251000.0,274000.0,0.0,60357000.0,124080000.0,145923000.0,-20508000.0,125305000.0,-8000.0,33866000.0,0.0,24315000.0
2018-12-31,1200000.0,0.0,1200000.0,29998000.0,17216000.0,51535000.0,113189000.0,0.0,0.0,537000.0,184512000.0,236047000.0,17552000.0,919000.0,37862000.0,46573000.0,47492000.0,6015000.0,0.0,4123000.0,61634000.0,99612000.0,144013000.0,-7589000.0,136435000.0,0.0,46292000.0,0.0,116000.0
2017-12-31,579000.0,22946000.0,579000.0,27784000.0,13844000.0,69488000.0,106283000.0,0.0,0.0,1153000.0,140149000.0,209637000.0,14338000.0,699000.0,31483000.0,32599000.0,33298000.0,3385000.0,0.0,4816000.0,47142000.0,78846000.0,142196000.0,-11337000.0,130791000.0,22946000.0,32719000.0,0.0,221000.0
2016-12-31,442000.0,2144000.0,442000.0,24008000.0,19091000.0,48180000.0,121970000.0,0.0,0.0,2144000.0,154369000.0,202549000.0,16076000.0,1317000.0,32954000.0,27946000.0,29263000.0,0.0,0.0,6486000.0,49510000.0,82888000.0,140687000.0,-20860000.0,119661000.0,2144000.0,28821000.0,0.0,424000.0
2015-12-31,911000.0,1905000.0,911000.0,18926000.0,18300000.0,42481000.0,116867000.0,0.0,0.0,1905000.0,147853000.0,190334000.0,17100000.0,507000.0,31643000.0,18991000.0,19498000.0,0.0,0.0,6559000.0,39384000.0,71596000.0,139534000.0,-20540000.0,118738000.0,1905000.0,18587000.0,0.0,569000.0
2014-12-31,981000.0,1670000.0,981000.0,11741000.0,18971000.0,37776000.0,110350000.0,30475000.0,0.0,1670000.0,140825000.0,178601000.0,12987000.0,1157000.0,29726000.0,13720000.0,14877000.0,0.0,0.0,8152000.0,32955000.0,63184000.0,138391000.0,-22758000.0,115417000.0,1670000.0,13896000.0,0.0,503000.0
2013-12-31,2726000.0,1345000.0,2726000.0,11370000.0,16639000.0,35483000.0,104193000.0,30610000.0,0.0,1345000.0,134803000.0,170286000.0,14742000.0,710000.0,29701000.0,11050000.0,11760000.0,0.0,0.0,8252000.0,29353000.0,59054000.0,136972000.0,-25835000.0,111232000.0,1345000.0,9034000.0,0.0,0.0
2012-12-31,5013000.0,1250000.0,5013000.0,10512000.0,11749000.0,32333000.0,102852000.0,30479000.0,0.0,1250000.0,133331000.0,165664000.0,12255000.0,642000.0,27126000.0,12440000.0,13082000.0,0.0,0.0,7896000.0,30124000.0,57469000.0,136030000.0,-27794000.0,108195000.0,1250000.0,8069000.0,0.0,219000.0
2011-12-31,795000.0,894000.0,795000.0,13326000.0,9446000.0,27277000.0,100725000.0,30906000.0,0.0,894000.0,131631000.0,158908000.0,10994000.0,596000.0,24950000.0,13188000.0,13784000.0,0.0,0.0,7400000.0,28877000.0,54399000.0,134735000.0,-30320000.0,104509000.0,894000.0,12989000.0,0.0,572000.0
2010-12-31,164000.0,0.0,164000.0,10514000.0,8729000.0,23572000.0,98778000.0,30676000.0,5240000.0,932000.0,134694000.0,158266000.0,13825000.0,2460000.0,28007000.0,24675000.0,27135000.0,0.0,10118000.0,6291000.0,36063000.0,64070000.0,-528000.0,-39971000.0,94196000.0,5240000.0,26971000.0,4165000.0,11722000.0
2009-12-31,11000.0,0.0,11000.0,11122000.0,9487000.0,25531000.0,97339000.0,13013000.0,5702000.0,970000.0,116054000.0,141585000.0,14672000.0,1481000.0,28058000.0,24685000.0,26166000.0,0.0,7015000.0,6288000.0,32895000.0,60953000.0,-478000.0,-41657000.0,80632000.0,5702000.0,26155000.0,4911000.0,11905000.0
