,0,1,2,3,4,5,6,7,8,9,10,11,12,13,14,15,16,17,18,19,20,21,22,23,24,25,26,27,28,29,30
Date,Revenue,Revenue Growth,Cost of Revenue,Gross Profit,R&D Expenses,SG&A Expense,Operating Expenses,Operating Income,Interest Expense,Earnings before Tax,Income Tax Expense,Net Income - Non-Controlling int,Net Income - Discontinued ops,Net Income,Preferred Dividends,Net Income Com,EPS,EPS Diluted,Weighted Average Shs Out,Weighted Average Shs Out (Dil),Dividend per Share,Gross Margin,EBITDA Margin,EBIT Margin,Profit Margin,Free Cash Flow margin,EBITDA,EBIT,Consolidated Income,Earnings Before Tax Margin,Net Profit Margin
2019-12-31,209971000.0,0.136723402412,74449000.0,135522000.0,0.0,22553000.0,173264000.0,36707000.0,31775000.0,0.0,0.0,0.0,0.0,-19751000.0,0.0,-19751000.0,-0.91,-0.91,22649222.0,22649222.0,0.6556516599109999,0.645431988227,0.525915483567,0.174819379819,-0.0940653709322,0.19947992818100002,110427000.0,36707000.0,-19751000.0,0.0,-0.0940653709322
2018-12-31,184716000.0,0.49951292375600004,67997000.0,116719000.0,0.0,19553000.0,155028000.0,29688000.0,12935000.0,0.0,0.0,0.0,0.0,-42759000.0,35637000.0,-42759000.0,-1.82,-1.82,23845800.0,23845800.0,0.585092552986,0.631883540137,0.521113493146,0.160722406289,-0.231485090626,0.233953745209,96258000.0,29688000.0,-42759000.0,0.0,-0.231485090626
2017-12-31,123184000.0,0.598733306511,47954000.0,75230000.0,0.0,7541000.0,167831000.0,-44647000.0,3004.0,0.0,0.0,0.0,0.0,-45679000.0,27023000.0,-45679000.0,-1.79,-1.79,25561673.0,25561673.0,1.1573186152600001,0.610712430186,0.05016885309780001,-0.36244155085100005,-0.370819262242,0.059066112482099996,6180000.0,-44647000.0,-45679000.0,0.0,-0.370819262242
2016-12-31,77051000.0,0.741068805785,29870000.0,47181000.0,0.0,5863000.0,78083000.0,-1032000.0,1409000.0,-2974000.0,0.0,0.0,0.0,-18985000.0,13763000.0,-18985000.0,-0.91,-0.91,20805852.0,20805852.0,1.17452532105,0.612334687415,0.40286303876699997,-0.013393726233299999,-0.246395244708,0.363798003919,31041000.0,-1032000.0,-18985000.0,-0.0385978118389,-0.246395244708
2015-12-31,44255000.0,0.457530547047,17851000.0,26404000.0,0.0,4108000.0,45878000.0,-1623000.0,756000.0,7643000.0,0.0,0.0,0.0,635000.0,1153000.0,635000.0,0.04,0.04,17404348.0,17417198.0,1.15558197134,0.596633148797,0.335080781833,-0.036673822167,0.014348661168200001,0.29461077844300004,14829000.0,-1623000.0,635000.0,0.172703649305,0.014348661168200001
2014-12-31,30363000.0,2.41743027882,13213000.0,17150000.0,0.0,2694000.0,34336000.0,-3973000.0,0.0,-6674000.0,0.0,0.0,0.0,-5172000.0,0.0,-5172000.0,-0.98,-0.98,5381787.0,5381787.0,1.07232040213,0.564832197082,0.295622962158,-0.130850047755,-0.170338899318,-0.09294206764810002,8976000.0,-3973000.0,-5172000.0,-0.21980700194299999,-0.170338899318
2013-12-31,8884746.0,1.0,0.0,0.0,0.0,2123260.0,10554049.0,-1772242.0,0.0,-4057007.0,0.0,0.0,0.0,-2971001.0,0.0,-2971001.0,-1.18,-1.18,2348849.0,2348849.0,0.0,0.0,0.37316801178099995,-0.19947019307,-0.334393464934,0.0274925135733,3315503.0,-1772242.0,-2971001.0,-0.45662610951399996,-0.334393464934
2012-12-31,0.0,0.0,0.0,0.0,0.0,3564948.0,3895104.0,-3968769.0,346840.0,0.0,0.0,0.0,0.0,-4315331.0,0.0,-4315331.0,-5.34,-5.34,809304.0,809304.0,0.0,0.0,0.0,0.0,0.0,0.0,-3968769.0,-3968769.0,-4315331.0,0.0,0.0
2011-12-31,0.0,0.0,0.0,0.0,0.0,3564948.0,3218386.0,-3968769.0,0.0,0.0,0.0,0.0,0.0,-4315331.0,0.0,-4315331.0,-5.34,-5.34,0.0,0.0,0.0,0.0,0.0,0.0,0.0,0.0,-3968769.0,-3968769.0,-4315331.0,0.0,0.0
2010-12-31,0.0,,0.0,0.0,0.0,314691.0,900893.0,-900893.0,258753.0,-2306870.0,0.0,0.0,0.0,-2306870.0,0.0,-2306870.0,-6.95,-6.95,,333701.0,0.0,0.0,,0.0,,0.0,-2048117.0,-2048117.0,-2306870.0,0.0,0.0
