,0,1,2,3,4,5,6,7,8,9,10,11,12,13,14,15,16,17,18,19,20,21,22,23,24,25,26,27,28,29,30
Date,Revenue,Revenue Growth,Cost of Revenue,Gross Profit,R&D Expenses,SG&A Expense,Operating Expenses,Operating Income,Interest Expense,Earnings before Tax,Income Tax Expense,Net Income - Non-Controlling int,Net Income - Discontinued ops,Net Income,Preferred Dividends,Net Income Com,EPS,EPS Diluted,Weighted Average Shs Out,Weighted Average Shs Out (Dil),Dividend per Share,Gross Margin,EBITDA Margin,EBIT Margin,Profit Margin,Free Cash Flow margin,EBITDA,EBIT,Consolidated Income,Earnings Before Tax Margin,Net Profit Margin
2018-12-31,247837000000.0,0.0329425297896,183449000000.0,54609000000.0,,18238000000.0,,32476000000.0,,6168000000.0,19000000.0,,,,,3719000000.0,2262.45,2262.45,2000000.0,,,,,,,,,,,,
2017-12-31,239933000000.0,0.0766424504045,185243000000.0,45502000000.0,,19189000000.0,,23082000000.0,,20824000000.0,-6685000000.0,,,,,16740000000.0,10178.67,10178.67,2000000.0,,,,,,,,,,,,
2016-12-31,222853000000.0,0.0613614390696,160245000000.0,53707000000.0,,18217000000.0,,35490000000.0,,32744000000.0,-9240000000.0,,,,,24074000000.0,14645.1,14645.1,2000000.0,,,,,,,,,,,,
2015-12-31,209969000000.0,,149272000000.0,52918000000.0,,15309000000.0,,37609000000.0,,35068000000.0,-10532000000.0,,,,,24083000000.0,14656.31,14656.31,2000000.0,,,,,,,,,,,,
