,0,1,2,3,4,5,6,7,8,9,10,11,12,13,14,15,16,17,18,19,20,21,22,23,24,25,26,27,28
Date,Cash and cash equivalents,Short-term investments,Cash and short-term investments,Receivables,Inventories,Total current assets,Property Plant & Equipment Net,Goodwill and Intangible Assets,Long-term investments,Tax assets,Total non-current assets,Total assets,Payables,Short-term debt,Total current liabilities,Long-term debt,Total debt,Deferred revenue,Tax Liabilities,Deposit Liabilities,Total non-current liabilities,Total liabilities,Other comprehensive income,Retained earnings (deficit),Total shareholders equity,Investments,Net Debt,Other Assets,Other Liabilities
2019-12-31,77790000.0,498995000.0,576785000.0,6737816000.0,0.0,7314601000.0,74350000.0,164850000.0,924352000.0,25017000.0,542252000.0,7856853000.0,0.0,83591000.0,83591000.0,902749000.0,986340000.0,0.0,0.0,5830072000.0,902749000.0,6911247000.0,677095000.0,265376000.0,945606000.0,1423347000.0,908550000.0,0.0,5924907000.0
2018-12-31,89584000.0,502800000.0,592384000.0,6303516000.0,0.0,6895900000.0,76382000.0,166513000.0,864798000.0,21495000.0,496905000.0,7392805000.0,0.0,83433000.0,83433000.0,920542000.0,1003975000.0,0.0,0.0,5454044000.0,920542000.0,6492665000.0,695910000.0,212838000.0,900140000.0,1367598000.0,914391000.0,0.0,5488690000.0
2017-12-31,61005000.0,540124000.0,601129000.0,5730679000.0,0.0,6331808000.0,80283000.0,143934000.0,753056000.0,15061000.0,448441000.0,6780249000.0,0.0,83271000.0,83271000.0,1020819000.0,1104090000.0,0.0,0.0,4871343000.0,1021427000.0,5976419000.0,647746000.0,161217000.0,803830000.0,1293180000.0,1043085000.0,0.0,4871721000.0
2016-12-31,67657000.0,523600000.0,591257000.0,5398864000.0,0.0,5990121000.0,76176000.0,146023000.0,701943000.0,25247000.0,448008000.0,6438129000.0,0.0,83105000.0,83105000.0,1044086000.0,1127191000.0,0.0,0.0,4611076000.0,1044329000.0,5742585000.0,561934000.0,136671000.0,695544000.0,1225543000.0,1059534000.0,0.0,4615151000.0
2015-12-31,75489000.0,513201000.0,588690000.0,4995540000.0,0.0,5584230000.0,78156000.0,148523000.0,681504000.0,26817000.0,458108000.0,6042338000.0,0.0,82936000.0,82936000.0,983029000.0,1065965000.0,0.0,0.0,4306018000.0,983464000.0,5374853000.0,559529000.0,109675000.0,667485000.0,1194705000.0,990476000.0,0.0,4308453000.0
2014-12-31,62723000.0,550761000.0,613484000.0,4822607000.0,0.0,5436091000.0,80619000.0,151434000.0,627463000.0,27687000.0,363789000.0,5799880000.0,0.0,82763000.0,82763000.0,1126404000.0,1209167000.0,0.0,0.0,3958106000.0,1127125000.0,5159130000.0,557823000.0,83792000.0,640750000.0,1178224000.0,1146444000.0,0.0,3949242000.0
2013-12-31,92505000.0,492428000.0,584933000.0,4362465000.0,0.0,4947398000.0,80505000.0,154777000.0,34700000.0,31710000.0,377708000.0,5325106000.0,0.0,9163000.0,9163000.0,812555000.0,821718000.0,0.0,0.0,3835006000.0,823703000.0,4711239000.0,556122000.0,64903000.0,613867000.0,527128000.0,729213000.0,0.0,3878373000.0
2012-12-31,117097000.0,481323000.0,598420000.0,0.0,0.0,598420000.0,70791000.0,159400000.0,33700000.0,27197000.0,4549114000.0,5147534000.0,0.0,12091000.0,12091000.0,853969000.0,866060000.0,0.0,0.0,3616259000.0,865967000.0,4535437000.0,554502000.0,53358000.0,612097000.0,515023000.0,748963000.0,0.0,3657379000.0
2011-12-31,106296000.0,217431000.0,323727000.0,0.0,0.0,323727000.0,38495000.0,51013000.0,352042000.0,12681000.0,2975286000.0,3299013000.0,0.0,8349000.0,8349000.0,0.0,8349000.0,0.0,0.0,2252331000.0,5947000.0,2795411000.0,461002000.0,39993000.0,503602000.0,569473000.0,-97947000.0,0.0,2781115000.0
2010-12-31,65908000.0,304540000.0,370448000.0,8596000.0,0.0,379044000.0,11126000.0,45112000.0,0.0,10206000.0,2341498000.0,2720542000.0,0.0,0.0,0.0,0.0,0.0,0.0,0.0,1810899000.0,0.0,2225099000.0,460094000.0,32357000.0,495443000.0,304540000.0,-65908000.0,0.0,2225099000.0
2009-12-31,17635000.0,,,0.0,0.0,,10685000.0,46336000.0,,10178000.0,,2615884000.0,0.0,,,,468766000.0,0.0,1115000.0,1633687000.0,,2126461000.0,2201000.0,25420000.0,487317000.0,2511568000.0,,,
