,0,1,2,3,4,5,6,7,8,9,10,11,12,13,14,15,16,17,18,19,20,21,22,23,24,25,26,27,28,29,30
Date,Revenue,Revenue Growth,Cost of Revenue,Gross Profit,R&D Expenses,SG&A Expense,Operating Expenses,Operating Income,Interest Expense,Earnings before Tax,Income Tax Expense,Net Income - Non-Controlling int,Net Income - Discontinued ops,Net Income,Preferred Dividends,Net Income Com,EPS,EPS Diluted,Weighted Average Shs Out,Weighted Average Shs Out (Dil),Dividend per Share,Gross Margin,EBITDA Margin,EBIT Margin,Profit Margin,Free Cash Flow margin,EBITDA,EBIT,Consolidated Income,Earnings Before Tax Margin,Net Profit Margin
2019-12-31,10623000.0,0.021442307692299996,0.0,0.0,0.0,96554000.0,98217000.0,116029000.0,94326000.0,116029000.0,28269000.0,0.0,0.0,87717000.0,0.0,87717000.0,1.1,1.1,79679781.0,79856921.0,0.439661328791,0.0,10.9006871882,10.9224324579,8.25727195707,9.199096300479999,115798000.0,116029000.0,87717000.0,10.9224324579,8.25727195707
2018-12-31,10400000.0,-0.9534010511650001,0.0,0.0,0.0,91535000.0,93615000.0,112740000.0,66194000.0,112740000.0,26189000.0,0.0,0.0,83062000.0,0.0,83062000.0,1.04,1.04,79669668.0,79909251.0,0.39345882493600004,0.0,10.8779807692,10.8403846154,7.986730769229999,11.507403846199999,113131000.0,112740000.0,83062000.0,10.8403846154,7.986730769229999
2017-12-31,223181000.0,0.095829405295,0.0,0.0,0.0,82413000.0,84502000.0,97255000.0,39869000.0,97255000.0,43636000.0,0.0,0.0,50518000.0,0.0,50518000.0,0.68,0.68,74459508.0,74811408.0,0.361375366709,0.0,0.43883215865099995,0.43576738163199996,0.226354393967,0.32883623606,97939000.0,97255000.0,50518000.0,0.43576738163199996,0.226354393967
2016-12-31,203664000.0,0.047842975844400004,0.0,0.0,0.0,77836000.0,80336000.0,85616000.0,35984000.0,85616000.0,30392000.0,0.0,0.0,52362000.0,0.0,52362000.0,0.74,0.74,70261954.0,70444083.0,0.36008702107699997,0.0,0.428431141488,0.420378662896,0.257099929295,0.357628250452,87256000.0,85616000.0,52362000.0,0.420378662896,0.257099929295
2015-12-31,194365000.0,0.028016375060799997,0.0,0.0,0.0,71272000.0,74183000.0,81721000.0,32545000.0,81721000.0,29353000.0,0.0,0.0,49782000.0,0.0,49782000.0,0.71,0.71,70098561.0,70235868.0,0.35547364489,0.0,0.43829907648,0.420451212924,0.25612636019900004,0.30781776554400003,85190000.0,81721000.0,49782000.0,0.420451212924,0.25612636019900004
2014-12-31,189068000.0,0.0729210409833,0.0,0.0,0.0,71801000.0,75144000.0,69551000.0,29414000.0,69551000.0,24749000.0,0.0,0.0,42765000.0,0.0,42765000.0,0.61,0.61,69945028.0,70054815.0,0.340818828799,0.0,0.356469629974,0.367862356401,0.226188461294,0.470497387183,67397000.0,69551000.0,42765000.0,0.367862356401,0.226188461294
2013-12-31,176218000.0,-0.00648369491678,0.0,0.0,0.0,65261000.0,69884000.0,35386000.0,30166000.0,25775000.0,19481000.0,0.0,0.0,35386000.0,0.0,35386000.0,0.51,0.51,69808164.0,69883924.0,0.34115142132,0.0,0.218768797739,0.20080808997900002,0.20080808997900002,0.39506179845399997,38551000.0,35386000.0,35386000.0,0.146267691155,0.20080808997900002
2012-12-31,177368000.0,0.609524587337,0.0,0.0,0.0,58830000.0,64452000.0,37142000.0,35832000.0,39889000.0,21341000.0,0.0,0.0,37142000.0,0.0,37142000.0,0.53,0.53,69702417.0,69746256.0,0.34090718790700003,0.0,0.205087727211,0.20940643182500002,0.20940643182500002,0.19211469938200001,36376000.0,37142000.0,37142000.0,0.22489400568300003,0.20940643182500002
2011-12-31,110199000.0,0.15340897197,0.0,0.0,0.0,30789000.0,32359000.0,48705000.0,30336000.0,48705000.0,19886000.0,0.0,0.0,27600000.0,0.0,27600000.0,0.47,0.47,58633627.0,58636431.0,0.340470926684,0.0,0.36494886523500003,0.44197315765100004,0.25045599324900003,0.222198023576,40217000.0,48705000.0,27600000.0,0.44197315765100004,0.25045599324900003
2010-12-31,95542000.0,0.22053168793699998,0.0,0.0,0.0,22935000.0,24159000.0,46797000.0,34567000.0,46797000.0,19156000.0,0.0,0.0,26872000.0,0.0,26872000.0,0.46,0.46,58578599.0,58583185.0,0.340285356626,0.0,0.398222771137,0.48980553055200005,0.281258504113,0.40389566891999995,38047000.0,46797000.0,26872000.0,0.48980553055200005,0.281258504113
2009-12-31,78279000.0,0.2113,0.0,78279000.0,0.0,35383000.0,45131000.0,33148000.0,0.0,32613000.0,13413000.0,535000.0,0.0,19200000.0,0.0,19200000.0,0.33,0.33,59030686.0,58370569.0,0.54,1.0,0.436,0.4166,0.245,0.4353,34156000.0,32613000.0,19735000.0,0.4166,0.2453
