,0,1,2,3,4,5,6,7,8,9,10,11,12,13,14,15,16,17,18,19,20,21,22,23,24,25,26,27,28
Date,Cash and cash equivalents,Short-term investments,Cash and short-term investments,Receivables,Inventories,Total current assets,Property Plant & Equipment Net,Goodwill and Intangible Assets,Long-term investments,Tax assets,Total non-current assets,Total assets,Payables,Short-term debt,Total current liabilities,Long-term debt,Total debt,Deferred revenue,Tax Liabilities,Deposit Liabilities,Total non-current liabilities,Total liabilities,Other comprehensive income,Retained earnings (deficit),Total shareholders equity,Investments,Net Debt,Other Assets,Other Liabilities
2018-12-31,650629.0,0.0,650629.0,0.0,0.0,698359.0,0.0,0.0,355633275.0,0.0,355633275.0,356331634.0,130814.0,0.0,166835.0,0.0,0.0,0.0,36021.0,0.0,15525000.0,15691835.0,0.0,3145030.0,5000001.0,355633275.0,-650629.0,47730.0,36021.0
