,0,1,2,3,4,5,6,7,8,9,10,11,12,13,14
Date,Depreciation & Amortization,Stock-based compensation,Operating Cash Flow,Capital Expenditure,Acquisitions and disposals,Investment purchases and sales,Investing Cash flow,Issuance (repayment) of debt,Issuance (buybacks) of shares,Dividend payments,Financing Cash Flow,Effect of forex changes on cash,Net cash flow / Change in cash,Free Cash Flow,Net Cash/Marketcap
2019-09-30,3022000.0,-42000.0,-2133000.0,1309000.0,-0.0,0.0,905000.0,-0.0,-4613000.0,-0.0,-110000.0,-14000.0,-1352000.0,-3442000.0,0.0
2018-09-30,1111000.0,-59000.0,-5091000.0,750000.0,-0.0,0.0,12126000.0,-0.0,-5965000.0,-0.0,-1070000.0,-271000.0,5965000.0,-5841000.0,0.0
2017-09-30,1203000.0,15000.0,-2119000.0,807000.0,-0.0,0.0,18770000.0,-0.0,-16281000.0,-0.0,-370000.0,309000.0,16281000.0,-2926000.0,0.0
2016-09-30,1607000.0,-22000.0,1770000.0,996000.0,-0.0,0.0,18032000.0,-3440000.0,-15550000.0,-0.0,-4252000.0,183000.0,15550000.0,774000.0,0.0
2015-09-30,3364000.0,-140000.0,-7132000.0,1710000.0,-0.0,0.0,24312000.0,-7659000.0,-8471000.0,-0.0,-8709000.0,-869000.0,8471000.0,-8842000.0,0.0
2014-09-30,6391000.0,-380000.0,5569000.0,3576000.0,-0.0,0.0,9078000.0,-10541000.0,-16104000.0,-0.0,-6031000.0,-340000.0,16104000.0,1993000.0,0.0
2013-09-30,8542000.0,-73000.0,3191000.0,4122000.0,-0.0,0.0,4956000.0,-1020000.0,-7828000.0,-0.0,-319000.0,-111000.0,7828000.0,-931000.0,0.0
2012-09-30,10990000.0,-103000.0,11466000.0,6879000.0,-0.0,0.0,3588000.0,-6550000.0,-8845000.0,-0.0,-6209000.0,31000.0,8845000.0,4587000.0,0.0
2011-09-30,10127000.0,404000.0,13263000.0,15313000.0,-0.0,0.0,-11473000.0,-2286000.0,-9834000.0,-0.0,-2689000.0,59000.0,9834000.0,-2050000.0,0.0
2010-09-30,9302000.0,72000.0,7468000.0,-855000.0,45000.0,0.0,1811000.0,-5000000.0,59000.0,0.0,-5411000.0,-73000.0,3795000.0,6613000.0,-0.5686
2009-09-30,11553000.0,-259000.0,-3060000.0,-8552000.0,-271000.0,0.0,-7611000.0,4715000.0,-97000.0,0.0,4579000.0,-647000.0,-6739000.0,-11612000.0,-0.6729
