,0,1,2,3,4,5,6,7,8,9,10,11,12,13,14,15,16,17,18,19,20,21,22,23,24,25,26,27,28
Date,Cash and cash equivalents,Short-term investments,Cash and short-term investments,Receivables,Inventories,Total current assets,Property Plant & Equipment Net,Goodwill and Intangible Assets,Long-term investments,Tax assets,Total non-current assets,Total assets,Payables,Short-term debt,Total current liabilities,Long-term debt,Total debt,Deferred revenue,Tax Liabilities,Deposit Liabilities,Total non-current liabilities,Total liabilities,Other comprehensive income,Retained earnings (deficit),Total shareholders equity,Investments,Net Debt,Other Assets,Other Liabilities
2018-12-31,252927.0,209253654.0,209506581.0,0.0,0.0,267927.0,0.0,0.0,209227528.0,0.0,209228292.0,209496219.0,65603.0,0.0,219509.0,0.0,0.0,0.0,0.0,0.0,0.0,204496209.0,3194541.0,1804834.0,5000010.0,418481182.0,-252927.0,0.0,204276700.0
