,0,1,2,3,4,5,6,7,8,9,10,11,12,13,14,15,16,17,18,19,20,21,22,23,24,25,26,27,28
Date,Cash and cash equivalents,Short-term investments,Cash and short-term investments,Receivables,Inventories,Total current assets,Property Plant & Equipment Net,Goodwill and Intangible Assets,Long-term investments,Tax assets,Total non-current assets,Total assets,Payables,Short-term debt,Total current liabilities,Long-term debt,Total debt,Deferred revenue,Tax Liabilities,Deposit Liabilities,Total non-current liabilities,Total liabilities,Other comprehensive income,Retained earnings (deficit),Total shareholders equity,Investments,Net Debt,Other Assets,Other Liabilities
2019-12-31,67689000.0,0.0,67689000.0,58793000.0,0.0,132926000.0,3322000.0,256920000.0,200000.0,0.0,265842000.0,398768000.0,12334000.0,0.0,72825000.0,0.0,0.0,5349000.0,0.0,0.0,2017000.0,325483000.0,81741000.0,-8650000.0,73285000.0,200000.0,-67689000.0,0.0,250641000.0
2018-12-31,8097816.0,0.0,8097816.0,29502051.0,0.0,38593599.0,2148264.0,95508083.0,0.0,0.0,101231015.0,139824614.0,27150983.0,527005.0,33227016.0,72238800.0,72765805.0,0.0,0.0,0.0,83794357.0,117021373.0,0.0,-63605576.0,-63695472.0,0.0,64667989.0,993732.0,5549028.0
2017-12-31,3221238.0,0.0,3221238.0,4747515.0,0.0,8531141.0,1082422.0,34916691.0,0.0,0.0,36449427.0,44980568.0,3810780.0,524982.0,12323881.0,23845652.0,24370634.0,0.0,0.0,0.0,26597340.0,38921221.0,0.0,-40465787.0,-40465787.0,0.0,21149396.0,562388.0,7988119.0
