,0,1,2,3,4,5,6,7,8,9,10,11,12,13,14,15,16,17,18,19,20,21,22,23,24,25,26,27,28,29,30
Date,Revenue,Revenue Growth,Cost of Revenue,Gross Profit,R&D Expenses,SG&A Expense,Operating Expenses,Operating Income,Interest Expense,Earnings before Tax,Income Tax Expense,Net Income - Non-Controlling int,Net Income - Discontinued ops,Net Income,Preferred Dividends,Net Income Com,EPS,EPS Diluted,Weighted Average Shs Out,Weighted Average Shs Out (Dil),Dividend per Share,Gross Margin,EBITDA Margin,EBIT Margin,Profit Margin,Free Cash Flow margin,EBITDA,EBIT,Consolidated Income,Earnings Before Tax Margin,Net Profit Margin
2019-12-31,1205820.0,0.107359160265,0.0,0.0,0.0,0.0,713187.0,-713187.0,0.0,492633.0,84206.0,0.0,0.0,408427.0,0.0,408427.0,-0.11,-0.11,2783021.0,2783021.0,0.0,0.0,-0.5914539483510001,-0.5914539483510001,0.33871307491999997,-0.657420676386,-713187.0,-713187.0,408427.0,0.408546051649,0.33871307491999997
2018-12-31,1088915.0,1.0,0.0,0.0,0.0,0.0,1006503.0,-1006503.0,0.0,82412.0,16311.0,0.0,0.0,66101.0,0.0,66101.0,-0.29,-0.29,2614505.0,2614505.0,0.0,0.0,-0.924317325044,-0.924317325044,0.06070354435380001,-0.434549069487,-1006503.0,-1006503.0,66101.0,0.0756826749563,0.06070354435380001
2017-12-31,0.0,0.0,0.0,0.0,0.0,0.0,0.0,0.0,0.0,0.0,0.0,0.0,0.0,0.0,0.0,0.0,0.0,0.0,0.0,0.0,0.0,0.0,0.0,0.0,0.0,0.0,0.0,0.0,0.0,0.0,0.0
