,0,1,2,3,4,5,6,7,8,9,10,11,12,13,14,15,16,17,18,19,20,21,22,23,24,25,26,27,28
Date,Cash and cash equivalents,Short-term investments,Cash and short-term investments,Receivables,Inventories,Total current assets,Property Plant & Equipment Net,Goodwill and Intangible Assets,Long-term investments,Tax assets,Total non-current assets,Total assets,Payables,Short-term debt,Total current liabilities,Long-term debt,Total debt,Deferred revenue,Tax Liabilities,Deposit Liabilities,Total non-current liabilities,Total liabilities,Other comprehensive income,Retained earnings (deficit),Total shareholders equity,Investments,Net Debt,Other Assets,Other Liabilities
2018-12-31,11079.0,0.0,11079.0,0.0,0.0,30193.0,0.0,0.0,70765966.0,0.0,70765966.0,70796159.0,551099.0,0.0,567410.0,690000.0,690000.0,0.0,16311.0,0.0,690000.0,65796153.0,5036213.0,-38932.0,5000006.0,70765966.0,678921.0,0.0,64538743.0
2017-12-31,449374.0,0.0,449374.0,0.0,0.0,536376.0,0.0,0.0,69029443.0,0.0,69029443.0,69565819.0,85671.0,0.0,93171.0,0.0,0.0,0.0,0.0,0.0,0.0,64565818.0,5102443.0,-105033.0,5000001.0,69029443.0,-449374.0,0.0,64472647.0
2017-12,0.0,,,,,69000000.0,,0.0,69000000.0,,64000000.0,70000000.0,,,0.0,,,,,,64000000.0,65000000.0,,-0.0,5000000.0,69000000.0,0.0,0.0,64000000.0
2016-12,0.0,,,,,0.0,,0.0,0.0,,0.0,0.0,,,0.0,,,,,,0.0,0.0,,0.0,0.0,0.0,0.0,0.0,0.0
2015-12,0.0,,,,,0.0,,0.0,0.0,,0.0,0.0,,,0.0,,,,,,0.0,0.0,,0.0,0.0,0.0,0.0,0.0,0.0
2014-12,0.0,,,,,0.0,,0.0,0.0,,0.0,0.0,,,0.0,,,,,,0.0,0.0,,0.0,0.0,0.0,0.0,0.0,0.0
2013-12,0.0,,,,,0.0,,0.0,0.0,,0.0,0.0,,,0.0,,,,,,0.0,0.0,,0.0,0.0,0.0,0.0,0.0,0.0
