,0,1,2,3,4,5,6,7,8,9,10,11,12,13,14,15,16,17,18,19,20,21,22,23,24,25,26,27,28,29,30
Date,Revenue,Revenue Growth,Cost of Revenue,Gross Profit,R&D Expenses,SG&A Expense,Operating Expenses,Operating Income,Interest Expense,Earnings before Tax,Income Tax Expense,Net Income - Non-Controlling int,Net Income - Discontinued ops,Net Income,Preferred Dividends,Net Income Com,EPS,EPS Diluted,Weighted Average Shs Out,Weighted Average Shs Out (Dil),Dividend per Share,Gross Margin,EBITDA Margin,EBIT Margin,Profit Margin,Free Cash Flow margin,EBITDA,EBIT,Consolidated Income,Earnings Before Tax Margin,Net Profit Margin
2017-12-31,120586000.0,1.0,95436000.0,25150000.0,5742000.0,15916000.0,21670000.0,5240000.0,797000.0,1021000.0,2659000.0,0.0,0.0,3228000.0,0.0,3228000.0,0.0,0.0,4224725.0,4224725.0,0.0,0.20856484169,0.0696349493308,0.043454464034,0.0267692766988,-0.0818171263662,8397000.0,5240000.0,3228000.0,0.00846698621731,0.0267692766988
2017-06-30,0.0,-1.0,469484.0,0.0,0.0,469484.0,469484.0,-469484.0,0.0,-392286.0,0.0,0.0,0.0,-392286.0,0.0,-392286.0,-0.19,-0.19,2078196.0,2078196.0,0.0,0.0,0.0,0.0,0.0,0.0,-469484.0,-469484.0,-392286.0,0.0,0.0
2016-12-31,58847000.0,1.0,58005000.0,25150000.0,7206000.0,12242000.0,115334000.0,5252000.0,-797000.0,2962000.0,851000.0,-1316000.0,0.0,2111000.0,2417000.0,-306000.0,-0.07,-0.07,4224090.0,4224090.0,0.0,0.0143,,0.053,,0.0144,5598000.0,5252000.0,795000.0,0.0503,0.0359
2016-06-30,0.0,-1.0,0.0,0.0,0.0,0.0,0.0,0.0,0.0,0.0,0.0,0.0,0.0,0.0,0.0,0.0,0.0,0.0,0.0,0.0,0.0,0.0,0.0,0.0,0.0,0.0,0.0,0.0,0.0,0.0,0.0
2015-12-31,58847000.0,,58005000.0,0.0,7206000.0,12242000.0,469484.0,-469484.0,0.0,2962000.0,851000.0,,,,,-306000.0,-0.07,-0.07,7719375.0,,,0.0143,,0.053,,,,-392286.0,,0.0503,
