,0,1,2,3,4,5,6,7,8,9,10,11,12,13,14
Date,Depreciation & Amortization,Stock-based compensation,Operating Cash Flow,Capital Expenditure,Acquisitions and disposals,Investment purchases and sales,Investing Cash flow,Issuance (repayment) of debt,Issuance (buybacks) of shares,Dividend payments,Financing Cash Flow,Effect of forex changes on cash,Net cash flow / Change in cash,Free Cash Flow,Net Cash/Marketcap
2017-12-31,3157000.0,0.0,-9372000.0,5724000.0,-0.0,0.0,-5010000.0,-571000.0,-13060000.0,-0.0,10205000.0,256000.0,-4177000.0,-15096000.0,0.0
2017-06-30,0.0,0.0,-376038.0,0.0,-0.0,0.0,-59800000.0,-90917.0,-294312.0,-0.0,60637927.0,0.0,461889.0,-376038.0,0.0
2016-12-31,0.0,0.0,-9381000.0,-494000.0,75000.0,-1482000.0,-5266000.0,10205000.0,62000.0,0.0,10205000.0,0.0,461889.0,850000.0,0.0059
2016-06-30,0.0,0.0,0.0,0.0,-0.0,0.0,461889.0,-0.0,-461889.0,-0.0,0.0,0.0,461889.0,0.0,0.0
2015-12-31,,,1634000.0,-784000.0,,,-7366000.0,135000.0,0.0,0.0,135000.0,,,,
