,0,1,2,3,4,5,6,7,8,9,10,11,12,13,14,15,16,17,18,19,20,21,22,23,24,25,26,27,28
Date,Cash and cash equivalents,Short-term investments,Cash and short-term investments,Receivables,Inventories,Total current assets,Property Plant & Equipment Net,Goodwill and Intangible Assets,Long-term investments,Tax assets,Total non-current assets,Total assets,Payables,Short-term debt,Total current liabilities,Long-term debt,Total debt,Deferred revenue,Tax Liabilities,Deposit Liabilities,Total non-current liabilities,Total liabilities,Other comprehensive income,Retained earnings (deficit),Total shareholders equity,Investments,Net Debt,Other Assets,Other Liabilities
2018-03,380000000.0,,,247000000.0,130000000.0,2331000000.0,2068000000.0,25000000.0,126000000.0,0.0,1626000000.0,3165000000.0,101000000.0,57000000.0,363000000.0,1430000000.0,1430000000.0,16000000.0,115000000.0,,1626000000.0,1989000000.0,-286000000.0,794000000.0,1176000000.0,126000000.0,1107000000.0,141000000.0,46000000.0
2017-03,97000000.0,,,207000000.0,125000000.0,2606000000.0,2254000000.0,26000000.0,210000000.0,1000000.0,1408000000.0,3114000000.0,98000000.0,131000000.0,416000000.0,1151000000.0,1151000000.0,20000000.0,155000000.0,,1408000000.0,1825000000.0,-328000000.0,992000000.0,1289000000.0,210000000.0,1185000000.0,154000000.0,36000000.0
2016-03,104000000.0,,,249000000.0,143000000.0,2679000000.0,2283000000.0,37000000.0,195000000.0,2000000.0,1380000000.0,3272000000.0,97000000.0,63000000.0,393000000.0,1078000000.0,1078000000.0,24000000.0,172000000.0,,1380000000.0,1773000000.0,-290000000.0,1172000000.0,1499000000.0,195000000.0,1037000000.0,207000000.0,79000000.0
2015-03,104000000.0,,,259000000.0,147000000.0,2593000000.0,2157000000.0,94000000.0,216000000.0,18000000.0,1184000000.0,3231000000.0,84000000.0,19000000.0,435000000.0,846000000.0,846000000.0,37000000.0,166000000.0,,1184000000.0,1619000000.0,-270000000.0,1284000000.0,1612000000.0,216000000.0,761000000.0,184000000.0,122000000.0
2014-03,204000000.0,,,297000000.0,137000000.0,2677000000.0,2269000000.0,75000000.0,263000000.0,12000000.0,1192000000.0,3398000000.0,90000000.0,14000000.0,458000000.0,827000000.0,827000000.0,31000000.0,170000000.0,,1192000000.0,1650000000.0,-157000000.0,1245000000.0,1748000000.0,263000000.0,637000000.0,99000000.0,237000000.0
