,0,1,2,3,4,5,6,7,8,9,10,11,12,13,14
Date,Depreciation & Amortization,Stock-based compensation,Operating Cash Flow,Capital Expenditure,Acquisitions and disposals,Investment purchases and sales,Investing Cash flow,Issuance (repayment) of debt,Issuance (buybacks) of shares,Dividend payments,Financing Cash Flow,Effect of forex changes on cash,Net cash flow / Change in cash,Free Cash Flow,Net Cash/Marketcap
2019-12-31,897000.0,519000.0,-5995000.0,418000.0,-0.0,0.0,3858000.0,-0.0,-7712000.0,-0.0,0.0,-82000.0,-2219000.0,-6413000.0,0.0
2018-12-31,639000.0,678000.0,-7359000.0,463000.0,-0.0,0.0,5067000.0,-0.0,-10005000.0,-0.0,0.0,-45000.0,-2328000.0,-7822000.0,0.0
2017-12-31,634000.0,1757000.0,-8223000.0,439000.0,-0.0,0.0,6549000.0,-0.0,-12859000.0,-0.0,0.0,19000.0,-1453000.0,-8662000.0,0.0
2016-12-31,598000.0,1247000.0,2607000.0,390000.0,-0.0,0.0,-5756000.0,-0.0,-14312000.0,-0.0,0.0,-92000.0,-2131000.0,2217000.0,0.0
2015-12-31,575000.0,1516000.0,2883000.0,272000.0,-0.0,0.0,-280000.0,-0.0,-16443000.0,-0.0,0.0,-3000.0,3316000.0,2611000.0,0.0
2014-12-31,624000.0,982000.0,5326000.0,320000.0,-0.0,0.0,-6289000.0,-0.0,-13127000.0,-0.0,0.0,-86000.0,-383000.0,5006000.0,0.0
2013-12-31,701000.0,898000.0,619000.0,194000.0,-0.0,0.0,2961000.0,-0.0,-13510000.0,-0.0,0.0,-24000.0,3607000.0,425000.0,0.0
2012-12-31,993000.0,951000.0,2478000.0,391000.0,-0.0,0.0,-1211000.0,-0.0,-9903000.0,-0.0,0.0,-74000.0,1398000.0,2087000.0,0.0
2011-12-31,918000.0,2178000.0,1097000.0,785000.0,-0.0,0.0,-3644000.0,-0.0,-8505000.0,-0.0,0.0,-186000.0,-2309000.0,312000.0,0.0
2010-12-31,861000.0,761000.0,5270000.0,-218000.0,0.0,-7510000.0,-7728000.0,0.0,0.0,0.0,383000.0,-29000.0,-2104000.0,5052000.0,0.2559
2009-12-31,945000.0,902000.0,4737000.0,-278000.0,0.0,750000.0,429000.0,0.0,0.0,0.0,10000.0,39000.0,5215000.0,4459000.0,0.5453
