,0,1,2,3,4,5,6,7,8,9,10,11,12,13,14,15,16,17,18,19,20,21,22,23,24,25,26,27,28,29,30
Date,Revenue,Revenue Growth,Cost of Revenue,Gross Profit,R&D Expenses,SG&A Expense,Operating Expenses,Operating Income,Interest Expense,Earnings before Tax,Income Tax Expense,Net Income - Non-Controlling int,Net Income - Discontinued ops,Net Income,Preferred Dividends,Net Income Com,EPS,EPS Diluted,Weighted Average Shs Out,Weighted Average Shs Out (Dil),Dividend per Share,Gross Margin,EBITDA Margin,EBIT Margin,Profit Margin,Free Cash Flow margin,EBITDA,EBIT,Consolidated Income,Earnings Before Tax Margin,Net Profit Margin
2019-03-31,30712000000.0,-0.034213836478,18181000000.0,7889000000.0,842000000.0,0.0,26676000000.0,5035000000.0,1053333333.3333,3489000000.0,-664000000.0,0.0,0.0,2878666666.6667,0.0,2827000000.0,1.43,1.42,1985000000.0,13290836908.0,1.268,0.2569,0.3987,0.15,0.1227,0.0456,9336000000.0,4608000000.0,2878666666.6667,0.1136,0.0937
2018-03-31,31800000000.0,0.0137073637233,12856000000.0,14238000000.0,846000000.0,0.0,28370990237.099,5045000000.0,1082287308.2287,3505000000.0,-782000000.0,0.0,0.0,2834030683.4031,0.0,2721000000.0,1.37,1.37,1984000000.0,13902549066.9456,1.3347,0.4477,0.4059,0.1488,0.1199,0.0903,9631799163.1799,4730822873.0823,2834030683.4031,0.1102,0.0891
2017-03-31,31370000000.0,0.106486543685,12541000000.0,14177000000.0,831000000.0,0.0,26086142322.0974,5143000000.0,1019975031.2110001,3078000000.0,-581000000.0,0.0,0.0,2382022471.9101,0.0,2485000000.0,1.25,1.24,1992000000.0,12444603846.4419,1.2197,0.4519,0.3496,0.1262,0.0986,0.1435,8418227215.98,3958801498.1273,2382022471.9101,0.0981,0.0759
2016-03-31,28351000000.0,0.0628274097558,12081000000.0,12320000000.0,862000000.0,0.0,21961262553.802,5426000000.0,1074605451.9369,4356000000.0,-662000000.0,0.0,0.0,3713055954.089,0.0,3703000000.0,2.15,2.12,1992000000.0,12013238525.1076,1.4017,0.4346,0.4835,0.1912,0.1951,0.1506,9195121951.2195,5420373027.2597,3713055954.089,0.1536,0.131
2015-03-31,26675074183.9763,-0.123326976291,0.0,26675074183.9763,0.0,0.0,21511869436.2018,5163204747.7745,1299703264.095,3924332344.2136,756676557.8635,0.0,0.0,3167655786.3501,0.0,3167655786.3501,1.9659,1.9362,12093808648.368,12093808648.368,1.3783,1.0,0.5,0.1958,0.1766,0.155,8989614243.3234,5224035608.3086,3167655786.3501,0.1471,0.1187
2014-03-31,30427620632.2795,0.111249063442,0.0,30427620632.2795,0.0,0.0,25194675540.7654,5232945091.5141,1394342762.0632,3846921797.005,489184692.1797,0.0,0.0,3357737104.8253,0.0,3357737104.8253,2.1381,2.0383,13562773758.7354,13562773758.7354,1.2745,1.0,0.5324,0.1723,0.183,0.153,9725457570.7155,5241264559.0682,3357737104.8253,0.1264,0.1104
2013-03-31,27381458966.5653,-0.09003777155089998,0.0,27381458966.5653,0.0,0.0,22843465045.5927,4537993920.9726,4016717325.2279997,3800911854.1033,623100303.9514,0.0,0.0,3177811550.152,0.0,3177811550.152,2.0289,1.9377,12387883022.7964,12387883022.7964,1.0456,1.0,0.6733,0.2855,0.1763,0.1586,12138297872.3404,7817629179.3313,3177811550.152,0.1388,0.1161
2012-03-31,30090764331.2102,-0.0662210510887,0.0,30090764331.2102,0.0,0.0,25442675159.2357,4648089171.9745,4433121019.1083,3891719745.2229,703821656.0510001,1592356.6879,0.0,3187898089.172,0.0,3187898089.172,2.0541,1.9427,12979660874.2038,12979660874.2038,0.9777,1.0,0.6911,0.2767,0.1688,0.0528,13057324840.7643,8324840764.3312,3189490445.8599,0.1293,0.1059
2011-03-31,32224719101.1236,0.0180780424584,0.0,32224719101.1236,0.0,0.0,28086677367.5762,4138041733.5474,5141252006.4205,2752808988.7640004,341894060.9952,3210272.8732,0.0,2410914927.7689,0.0,2410914927.7689,1.557,1.4848,13083831507.2231,13083831507.2231,0.8266,1.0,0.6308,0.245,0.1204,0.1068,12675762439.8074,7894060995.1846,2414125200.6421,0.0854,0.0748
2010-03-31,31652503793.6267,0.0329,0.0,31652503793.6267,0.0,0.0,28430955993.9302,3221547799.6965,4723823975.7208,1526555386.9499,-33383915.0228,1517450.6829,0.0,1559939301.9727,0.0,1559939301.9727,1.0091,0.9788,12369085021.2443,12369085021.2443,0.4264,1.0,0.5205,0.1975,0.0744,0.0957,10861911987.8604,6250379362.6707,1561456752.6555,0.0482,0.0493
