,0,1,2,3,4,5,6,7,8,9,10,11,12,13,14,15,16,17,18,19,20,21,22,23,24,25,26,27,28
Date,Cash and cash equivalents,Short-term investments,Cash and short-term investments,Receivables,Inventories,Total current assets,Property Plant & Equipment Net,Goodwill and Intangible Assets,Long-term investments,Tax assets,Total non-current assets,Total assets,Payables,Short-term debt,Total current liabilities,Long-term debt,Total debt,Deferred revenue,Tax Liabilities,Deposit Liabilities,Total non-current liabilities,Total liabilities,Other comprehensive income,Retained earnings (deficit),Total shareholders equity,Investments,Net Debt,Other Assets,Other Liabilities
2019-12-31,32426000.0,0.0,32426000.0,0.0,0.0,34107000.0,1041000.0,0.0,0.0,0.0,2285000.0,36392000.0,4953000.0,331000.0,8468000.0,1029000.0,1360000.0,0.0,0.0,0.0,1029000.0,9497000.0,83565000.0,-56688000.0,26895000.0,0.0,-31066000.0,0.0,0.0
2018-12-31,42565000.0,0.0,42565000.0,0.0,0.0,43171000.0,327000.0,0.0,0.0,0.0,378000.0,43549000.0,1604000.0,0.0,4660000.0,0.0,0.0,0.0,0.0,0.0,0.0,4660000.0,62593000.0,-23720000.0,38889000.0,0.0,-42565000.0,0.0,0.0
2017-12-31,887000.0,0.0,887000.0,0.0,0.0,890000.0,4000.0,0.0,0.0,0.0,465000.0,1355000.0,511000.0,371000.0,2337000.0,0.0,371000.0,0.0,0.0,0.0,0.0,2337000.0,0.0,-4450000.0,-982000.0,0.0,-516000.0,3000.0,1455000.0
2016-12-31,0.0,0.0,0.0,0.0,0.0,2000.0,5000.0,0.0,0.0,0.0,5000.0,7000.0,279000.0,0.0,331000.0,0.0,0.0,0.0,0.0,0.0,0.0,331000.0,0.0,0.0,-324000.0,0.0,0.0,2000.0,52000.0
2015-12-31,0.0,,0.0,0.0,0.0,1000.0,1000.0,,,,,2000.0,120000.0,,175000.0,0.0,,,,,,175000.0,,-173000.0,-173000.0,,,,
