,0,1,2,3,4,5,6,7,8,9,10,11,12,13,14
Date,Depreciation & Amortization,Stock-based compensation,Operating Cash Flow,Capital Expenditure,Acquisitions and disposals,Investment purchases and sales,Investing Cash flow,Issuance (repayment) of debt,Issuance (buybacks) of shares,Dividend payments,Financing Cash Flow,Effect of forex changes on cash,Net cash flow / Change in cash,Free Cash Flow,Net Cash/Marketcap
2017-12-31,10868000.0,3683000.0,193859000.0,170970000.0,-0.0,-50000000.0,-170970000.0,-4352000.0,-50000000.0,-0.0,-33468000.0,146000.0,-10433000.0,22889000.0,0.0
2017-12,11000000.0,4000000.0,194000000.0,-171000000.0,,0.0,-171000000.0,-385000000.0,-50000000.0,,-33000000.0,0.0,-10000000.0,23000000.0,
2016-12-31,9322000.0,4609000.0,127243000.0,56345000.0,-0.0,0.0,-56638000.0,-3960000.0,-292656000.0,-0.0,-2045000.0,-157000.0,68403000.0,70898000.0,0.0
2016-12,9000000.0,5000000.0,127000000.0,-56000000.0,,0.0,-57000000.0,-4000000.0,0.0,,-2000000.0,-0.0,68000000.0,71000000.0,
2015-12-31,8292000.0,3434000.0,138219000.0,9556000.0,-0.0,0.0,-9556000.0,-3960000.0,-224253000.0,-0.0,-173000.0,-25000.0,128465000.0,128663000.0,0.0
2015-12,8000000.0,3000000.0,138000000.0,-10000000.0,,0.0,-10000000.0,-4000000.0,0.0,,-0.0,-0.0,128000000.0,129000000.0,
2014-12,5000000.0,2000000.0,90000000.0,-33000000.0,,0.0,-33000000.0,-4000000.0,0.0,,-4000000.0,0.0,53000000.0,57000000.0,
2013-12,1000000.0,1000000.0,69000000.0,-64000000.0,,0.0,-63000000.0,-4000000.0,0.0,,-9000000.0,0.0,-3000000.0,5000000.0,
