,0,1,2,3,4,5,6,7,8,9,10,11,12,13,14
Date,Depreciation & Amortization,Stock-based compensation,Operating Cash Flow,Capital Expenditure,Acquisitions and disposals,Investment purchases and sales,Investing Cash flow,Issuance (repayment) of debt,Issuance (buybacks) of shares,Dividend payments,Financing Cash Flow,Effect of forex changes on cash,Net cash flow / Change in cash,Free Cash Flow,Net Cash/Marketcap
2019-12-31,3544314.0,126829.0,-4046550.0,472882.0,-0.0,0.0,678669.0,-0.0,153055.0,-0.0,3343397.0,1390.0,-23094.0,-4519432.0,0.0
2018-12-31,3359503.0,0.0,575218.0,2392864.0,-50000.0,0.0,-2442864.0,-455242.0,1667729.0,-0.0,2070262.0,-10903.0,191713.0,-1817646.0,0.0
2017-12-31,3070988.0,0.0,-724432.0,1625460.0,-0.0,0.0,-1164302.0,-293294.0,939712.0,-0.0,2081536.0,-22884.0,0.0,-2349892.0,0.0
2016-12-31,3381353.0,0.0,-509158.0,1191174.0,-72215.0,0.0,-1254487.0,-554159.0,0.0,-0.0,801687.0,6118.0,0.0,-1700332.0,0.0
2015-12-31,4767293.0,0.0,-5367824.0,1798221.0,-0.0,0.0,-10488868.0,-944336.0,13394017.0,-0.0,17138750.0,1783.0,1282058.0,-7166045.0,0.0
2014-12-31,3077750.0,0.0,-1026940.0,1970173.0,-0.0,0.0,-2199565.0,-250058.0,960918.0,-0.0,3029639.0,-28141.0,-196866.0,-2997113.0,0.0
2013-12-31,1189141.0,0.0,-2704199.0,3658224.0,-0.0,0.0,-3970652.0,-801655.0,2630703.0,-0.0,5893742.0,94553.0,-781109.0,-6362423.0,0.0
2012-12-31,114789.0,0.0,-1156677.0,219811.0,-0.0,0.0,-1576565.0,-7036.0,-1247774.0,-0.0,2852364.0,-4372.0,119122.0,-1376488.0,0.0
2011-12-31,11079.0,0.0,-760314.0,4517.0,-0.0,-26334.0,246371.0,-53424.0,0.0,-0.0,557576.0,0.0,43633.0,-764831.0,0.0
2010-12-31,11079.0,49375.0,-760314.0,-4517.0,0.0,250888.0,246371.0,606500.0,0.0,0.0,557576.0,0.0,43633.0,-764831.0,-0.2085
2009-12-31,11481.0,0.0,-636477.0,-7446.0,0.0,655568.0,648122.0,-100000.0,76578.0,0.0,-23422.0,0.0,-11777.0,-643923.0,-0.1041
