,0,1,2,3,4,5,6,7,8,9,10,11,12,13,14
Date,Depreciation & Amortization,Stock-based compensation,Operating Cash Flow,Capital Expenditure,Acquisitions and disposals,Investment purchases and sales,Investing Cash flow,Issuance (repayment) of debt,Issuance (buybacks) of shares,Dividend payments,Financing Cash Flow,Effect of forex changes on cash,Net cash flow / Change in cash,Free Cash Flow,Net Cash/Marketcap
2020-02-01,211154000.0,43928000.0,891725000.0,328357000.0,-0.0,-323080000.0,-324598000.0,-0.0,-323080000.0,-0.0,-291627000.0,0.0,275500000.0,563368000.0,0.0
2019-02-02,219480000.0,35485000.0,639653000.0,295772000.0,-0.0,-228874000.0,-298508000.0,-0.0,-228874000.0,-0.0,-368075000.0,0.0,-26930000.0,343881000.0,0.0
2018-02-03,203566000.0,27034000.0,607250000.0,268194000.0,-0.0,-289777000.0,-262208000.0,-0.0,-289777000.0,-0.0,-293353000.0,0.0,51689000.0,339056000.0,0.0
2017-01-28,186265000.0,15953000.0,602446000.0,187507000.0,-0.0,-202371000.0,-180351000.0,-0.0,-202371000.0,-0.0,-361413000.0,0.0,60682000.0,414939000.0,0.0
2016-01-30,174967000.0,11161000.0,327461000.0,201787000.0,-0.0,0.0,-194732000.0,-50000000.0,-20915000.0,-0.0,-137163000.0,0.0,-4434000.0,125674000.0,0.0
2015-01-31,173637000.0,6264000.0,302335000.0,220980000.0,-0.0,0.0,-216506000.0,-834507000.0,-25349000.0,-0.0,-193464000.0,0.0,-107635000.0,81355000.0,0.0
2014-02-01,174771000.0,10203000.0,289351000.0,168267000.0,-0.0,0.0,-164794000.0,-36533000.0,-132984000.0,-336000000.0,-34909000.0,0.0,89648000.0,121084000.0,0.0
2013-02-02,166786000.0,2747000.0,452509000.0,-165286000.0,0.0,0.0,-165816000.0,-279604000.0,2753000.0,-1711000.0,-279021000.0,0.0,7672000.0,287223000.0,-0.7292
2012-01-28,153070000.0,5829000.0,249983000.0,-152616000.0,0.0,-4536000.0,-158773000.0,210139000.0,2018000.0,-297917000.0,-85760000.0,0.0,5450000.0,97367000.0,-0.7292
2011-01-29,146759000.0,2230000.0,208704000.0,-132169000.0,0.0,-27419000.0,-159962000.0,-43027000.0,-251000.0,0.0,-43278000.0,0.0,5464000.0,76535000.0,-0.7292
