,0,1,2,3,4,5,6,7,8,9,10,11,12,13,14
Date,Depreciation & Amortization,Stock-based compensation,Operating Cash Flow,Capital Expenditure,Acquisitions and disposals,Investment purchases and sales,Investing Cash flow,Issuance (repayment) of debt,Issuance (buybacks) of shares,Dividend payments,Financing Cash Flow,Effect of forex changes on cash,Net cash flow / Change in cash,Free Cash Flow,Net Cash/Marketcap
2019-09-30,140100000.0,15700000.0,169700000.0,89900000.0,-64000000.0,-1200000.0,-145500000.0,-143000000.0,-1200000.0,-0.0,-20300000.0,0.0,39100000.0,79800000.0,0.0
2018-09-30,190590000.0,28795000.0,180383000.0,86425000.0,-104377000.0,-2922000.0,-179270000.0,-1662625000.0,498349000.0,-0.0,21332000.0,0.0,22445000.0,93958000.0,0.0
2017-09-30,149336000.0,2772000.0,78899000.0,-50633000.0,-53822000.0,0.0,-97462000.0,-39198000.0,-3002000.0,0.0,-36621000.0,0.0,-55184000.0,42302000.0,-0.7446
2016-12-31,210817000.0,3854000.0,111947000.0,-69645000.0,0.0,0.0,-69535000.0,-18133000.0,-28313000.0,0.0,-46446000.0,0.0,-4034000.0,57700000.0,-0.7502
2015-12-31,213487000.0,,123419000.0,-65719000.0,0.0,,-65444000.0,-21173000.0,-3673000.0,0.0,-24846000.0,,33129000.0,,-0.7502
