,0,1,2,3,4,5,6,7,8,9,10,11,12,13,14,15,16,17,18,19,20,21,22,23,24,25,26,27,28,29,30
Date,Revenue,Revenue Growth,Cost of Revenue,Gross Profit,R&D Expenses,SG&A Expense,Operating Expenses,Operating Income,Interest Expense,Earnings before Tax,Income Tax Expense,Net Income - Non-Controlling int,Net Income - Discontinued ops,Net Income,Preferred Dividends,Net Income Com,EPS,EPS Diluted,Weighted Average Shs Out,Weighted Average Shs Out (Dil),Dividend per Share,Gross Margin,EBITDA Margin,EBIT Margin,Profit Margin,Free Cash Flow margin,EBITDA,EBIT,Consolidated Income,Earnings Before Tax Margin,Net Profit Margin
2019-09-30,2404600000.0,0.0216676304372,1766400000.0,638200000.0,0.0,452200000.0,508500000.0,129700000.0,72500000.0,57200000.0,12800000.0,0.0,0.0,44400000.0,0.0,44400000.0,0.43,0.43,102800000.0,103363000.0,0.0,0.265407968061,0.112201613574,0.0539382849538,0.018464609498499998,0.0331863927472,269800000.0,129700000.0,44400000.0,0.023787740164700002,0.018464609498499998
2018-09-30,2353603000.0,0.0626519579978,1727524000.0,626079000.0,0.0,481183000.0,586126000.0,39953000.0,97782000.0,-81335000.0,-66248000.0,0.0,0.0,-15087000.0,0.0,-15087000.0,-0.18,-0.18,83369000.0,83369000.0,0.0,0.266008753388,0.09795322320710001,0.0169752502865,-0.006410171978880001,0.039920921242900004,230543000.0,39953000.0,-15087000.0,-0.034557654795599996,-0.006410171978880001
2017-09-30,2214839000.0,-0.0307050328228,1604569000.0,610270000.0,,452834000.0,592159000.0,18111000.0,89591000.0,-67717000.0,-27125000.0,,,,,-40592000.0,-0.52,-0.52,,,,0.2755,,0.0099,,,,21874000.0,,-0.0306,
2016-12-31,2285000000.0,0.045622069627,1604000000.0,481000000.0,0.0,416000000.0,2184682000.0,65000000.0,-98117000.0,-31000000.0,12000000.0,0.0,0.0,-52364000.0,0.0,-19000000.0,-0.18,-0.18,102000000.0,,0.0,0.2105,0.10099999999999999,0.018000000000000002,-0.024,0.0194,220610000.0,41170000.0,-52364000.0,-0.0136,-0.024
2015-12-31,2185302000.0,-0.0133,1578141000.0,607161000.0,0.0,468042000.0,599604000.0,7557000.0,94660000.0,-84867000.0,-32503000.0,0.0,0.0,-40592000.0,0.0,-52364000.0,-0.67,-0.67,102000000.0,,0.0,0.2778,0.106,0.0045,-0.018000000000000002,0.0261,235361000.0,9793000.0,-40592000.0,-0.0388,-0.0183
