,0,1,2,3,4,5,6,7,8,9,10,11,12,13,14,15,16,17,18,19,20,21,22,23,24,25,26,27,28
Date,Cash and cash equivalents,Short-term investments,Cash and short-term investments,Receivables,Inventories,Total current assets,Property Plant & Equipment Net,Goodwill and Intangible Assets,Long-term investments,Tax assets,Total non-current assets,Total assets,Payables,Short-term debt,Total current liabilities,Long-term debt,Total debt,Deferred revenue,Tax Liabilities,Deposit Liabilities,Total non-current liabilities,Total liabilities,Other comprehensive income,Retained earnings (deficit),Total shareholders equity,Investments,Net Debt,Other Assets,Other Liabilities
2018-12-31,8968000.0,101000.0,9069000.0,4409000.0,0.0,13478000.0,7626000.0,0.0,0.0,0.0,10124000.0,23602000.0,5702000.0,750000.0,8339000.0,2083000.0,2833000.0,2441000.0,0.0,0.0,8311000.0,16650000.0,-2188000.0,-61581000.0,6952000.0,101000.0,-6236000.0,0.0,1887000.0
2017-12-31,14509000.0,50000.0,14559000.0,3328000.0,0.0,17887000.0,7109000.0,0.0,0.0,0.0,9143000.0,27030000.0,3434000.0,0.0,6133000.0,2727000.0,2727000.0,2757000.0,0.0,0.0,8176000.0,14309000.0,-2188000.0,-55102000.0,12721000.0,50000.0,,,2699000.0
2016-12-31,9174000.0,585000.0,9759000.0,3351000.0,0.0,13110000.0,6821000.0,0.0,24000.0,,,19964000.0,810000.0,0.0,4395000.0,0.0,,,,,,4769000.0,,-44259000.0,10287000.0,535000.0,,,3585000.0
2015-12-31,6541000.0,5399000.0,11940000.0,2799000.0,0.0,14864000.0,7329000.0,16000.0,34000.0,,,22243000.0,944000.0,0.0,4896000.0,0.0,,,,,,5144000.0,,-41080000.0,12895000.0,495000.0,,,3952000.0
