,0,1,2,3,4,5,6,7,8,9,10,11,12,13,14
Date,Depreciation & Amortization,Stock-based compensation,Operating Cash Flow,Capital Expenditure,Acquisitions and disposals,Investment purchases and sales,Investing Cash flow,Issuance (repayment) of debt,Issuance (buybacks) of shares,Dividend payments,Financing Cash Flow,Effect of forex changes on cash,Net cash flow / Change in cash,Free Cash Flow,Net Cash/Marketcap
2019-12-31,61722000.0,12726000.0,279368000.0,182124000.0,-0.0,-24208000.0,-179995000.0,-0.0,-20000000.0,-65374000.0,-43713000.0,332000.0,92400000.0,97244000.0,0.0
2018-12-31,60097000.0,11883000.0,169290000.0,109338000.0,-212993000.0,-214759000.0,-336703000.0,-0.0,-214759000.0,-63821000.0,-9323000.0,-9979000.0,-176736000.0,59952000.0,0.0
2017-12-31,56557000.0,15222000.0,222154000.0,96880000.0,-715000.0,0.0,-90656000.0,-0.0,0.0,-42043000.0,-61178000.0,7443000.0,77763000.0,125274000.0,0.0
2016-12-31,50554000.0,15371000.0,239850000.0,52634000.0,-117780000.0,-292997000.0,-179689000.0,-0.0,-292997000.0,-37370000.0,-88897000.0,-352000.0,-29088000.0,187216000.0,0.0
2015-12-31,78621000.0,31699000.0,330164000.0,68335000.0,-0.0,-69747000.0,-78974000.0,-0.0,-69747000.0,-34479000.0,-409430000.0,-7087000.0,-158240000.0,261829000.0,0.0
2014-12-31,105798000.0,23461000.0,74925000.0,76751000.0,-127703000.0,-149774000.0,-212671000.0,-4539000.0,-149774000.0,-43469000.0,104599000.0,-12865000.0,-33147000.0,-1826000.0,0.0
2013-12-31,70525000.0,15072000.0,137886000.0,67150000.0,-0.0,-157093000.0,15561000.0,-211000.0,-157093000.0,-38011000.0,-190878000.0,-4492000.0,-37431000.0,70736000.0,0.0
2012-12-31,34217000.0,18009000.0,184927000.0,86635000.0,-318000.0,-96774000.0,-108583000.0,-4643000.0,-96774000.0,-9485000.0,-108006000.0,2814000.0,-31662000.0,98292000.0,0.0
2011-12-31,152073000.0,17927000.0,173591000.0,63874000.0,-11907000.0,0.0,-154322000.0,-1782000.0,-415209000.0,-0.0,7535000.0,-2737000.0,24067000.0,109717000.0,0.0
2010-12-31,71633000.0,11032000.0,192406000.0,-63649000.0,-29209000.0,2544000.0,-90314000.0,-58294000.0,211000.0,0.0,-183733000.0,3315000.0,-78326000.0,128757000.0,0.1863
2009-12-31,72712000.0,27704000.0,252823000.0,-93725000.0,-8252000.0,34341000.0,-67635000.0,-3787000.0,0.0,0.0,-5600000.0,10234000.0,189822000.0,159098000.0,0.1305
