,0,1,2,3,4,5,6,7,8,9,10,11,12,13,14,15,16,17,18,19,20,21,22,23,24,25,26,27,28,29,30
Date,Revenue,Revenue Growth,Cost of Revenue,Gross Profit,R&D Expenses,SG&A Expense,Operating Expenses,Operating Income,Interest Expense,Earnings before Tax,Income Tax Expense,Net Income - Non-Controlling int,Net Income - Discontinued ops,Net Income,Preferred Dividends,Net Income Com,EPS,EPS Diluted,Weighted Average Shs Out,Weighted Average Shs Out (Dil),Dividend per Share,Gross Margin,EBITDA Margin,EBIT Margin,Profit Margin,Free Cash Flow margin,EBITDA,EBIT,Consolidated Income,Earnings Before Tax Margin,Net Profit Margin
2019-12-31,1894920000.0,0.0527982558924,1361056000.0,533864000.0,17672000.0,216771000.0,257042000.0,325521000.0,35320000.0,313742000.0,69065000.0,0.0,0.0,244115000.0,0.0,244115000.0,2.56,2.55,95377414.0,95810538.0,0.682325779237,0.28173432123799996,0.204358495345,0.171786144006,0.12882601904000002,0.05131826145690001,387243000.0,325521000.0,244115000.0,0.16557005045099998,0.12882601904000002
2018-12-31,1799889000.0,0.0664504798731,1295876000.0,504013000.0,15223000.0,214092000.0,229827000.0,304977000.0,27823000.0,280145000.0,52840000.0,0.0,0.0,226958000.0,0.0,226958000.0,2.29,2.27,99062087.0,100019053.0,0.638088425012,0.280024490399,0.202831396825,0.169442115597,0.12609555367,0.0333087207044,365074000.0,304977000.0,226958000.0,0.155645709263,0.12609555367
2017-12-31,1687738000.0,0.08846084640969999,1170862000.0,516876000.0,7190000.0,214607000.0,222166000.0,308885000.0,14879000.0,295780000.0,147415000.0,0.0,0.0,147844000.0,0.0,147844000.0,1.49,1.47,99334472.0,100369190.0,0.418883523918,0.306253695775,0.216527683799,0.183017150766,0.0875989045693,0.07422597583269999,365442000.0,308885000.0,147844000.0,0.175252319969,0.0875989045693
2016-12-31,1550573000.0,0.0954017897196,1074529000.0,476044000.0,6407000.0,216486000.0,248640000.0,239263000.0,8393000.0,257268000.0,73656000.0,0.0,0.0,183057000.0,0.0,183057000.0,1.79,1.76,102471788.0,103840738.0,0.35987802783100004,0.30701166601,0.186909613414,0.15430618229499998,0.118057647076,0.120739881321,289817000.0,239263000.0,183057000.0,0.165918018694,0.118057647076
2015-12-31,1415529000.0,-0.515730482765,1027437000.0,388092000.0,10537000.0,207761000.0,213272000.0,205941000.0,10181000.0,221065000.0,80416000.0,0.0,0.0,131465000.0,0.0,131465000.0,1.23,1.22,106703145.0,107583022.0,0.320487372069,0.274167466721,0.201028732015,0.14548695222799998,0.0928734063378,0.184969011585,284562000.0,205941000.0,131465000.0,0.156171297091,0.0928734063378
2014-12-31,2923019000.0,-0.10589384340199999,2409376000.0,513643000.0,73234000.0,442615000.0,515849000.0,-2622000.0,7579000.0,5466000.0,-15991000.0,0.0,0.0,29388000.0,0.0,29388000.0,0.27,0.27,108477262.0,108761092.0,0.39967417759999996,0.175723455783,0.0352977520844,-0.0008970177751149999,0.0100539887014,-0.000377691694785,103176000.0,-2622000.0,29388000.0,0.0018699844236400001,0.0100539887014
2013-12-31,3269208000.0,-0.006730046767919999,2301648000.0,967560000.0,79226000.0,379382000.0,458608000.0,536362000.0,3115000.0,517173000.0,184583000.0,0.0,0.0,346078000.0,0.0,346078000.0,3.09,3.07,111901750.0,112685417.0,0.337319601879,0.295961590697,0.185637316439,0.164064813251,0.105859890224,0.022309990676599997,606887000.0,536362000.0,346078000.0,0.158195195901,0.105859890224
2012-12-31,3291359000.0,0.11494390319900001,2461205000.0,830154000.0,120562000.0,428293000.0,548855000.0,346589000.0,3735000.0,319418000.0,101861000.0,0.0,0.0,227695000.0,0.0,227695000.0,1.92,1.91,118418930.0,119021324.0,0.07969160215360001,0.25222225834399997,0.11569871290200001,0.10530270322999999,0.06917963066319999,0.0298636520659,380806000.0,346589000.0,227695000.0,0.0970474506123,0.06917963066319999
2011-12-31,2952040000.0,0.09789791844799998,2278208000.0,673832000.0,106396000.0,413210000.0,519606000.0,235968000.0,4543000.0,234935000.0,72982000.0,0.0,0.0,169654000.0,0.0,169654000.0,1.44,1.43,117560594.0,118404597.0,0.0,0.22825977967799999,0.131448422108,0.0799338762347,0.05747008848119999,0.0371665018089,388041000.0,235968000.0,169654000.0,0.079583948727,0.05747008848119999
2010-12-31,2688811000.0,-0.058088398084199994,2032347000.0,656464000.0,69167000.0,412486000.0,481691000.0,174773000.0,12938000.0,219944000.0,80005000.0,264000.0,0.0,139939000.0,0.0,139939000.0,1.2,1.19,116721150.0,116260425.0,0.0,0.2441,0.113,0.0866,0.052000000000000005,0.0479,304515000.0,232882000.0,140203000.0,0.0818,0.052000000000000005
2009-12-31,2854632000.0,-0.1601,2182131000.0,672501000.0,53246000.0,403559000.0,458031000.0,214470000.0,24590000.0,232145000.0,84381000.0,156000.0,0.0,147764000.0,0.0,147764000.0,1.27,1.26,116225732.0,116067535.0,0.0,0.2356,0.115,0.0899,0.052000000000000005,0.0557,329447000.0,256735000.0,147920000.0,0.0813,0.0518
