,0,1,2,3,4,5,6,7,8,9,10,11,12,13,14
Date,Depreciation & Amortization,Stock-based compensation,Operating Cash Flow,Capital Expenditure,Acquisitions and disposals,Investment purchases and sales,Investing Cash flow,Issuance (repayment) of debt,Issuance (buybacks) of shares,Dividend payments,Financing Cash Flow,Effect of forex changes on cash,Net cash flow / Change in cash,Free Cash Flow,Net Cash/Marketcap
2017-12,125000000.0,1000000.0,55000000.0,-123000000.0,,4000000.0,-81000000.0,-0.0,,,25000000.0,,,-68000000.0,
2016-12,137000000.0,4000000.0,38000000.0,-79000000.0,,0.0,206000000.0,-1803000000.0,,,-244000000.0,,,-41000000.0,
2015-12,698000000.0,4000000.0,103000000.0,-160000000.0,,0.0,-187000000.0,-3592000000.0,,,84000000.0,,,-57000000.0,
2014-12,182000000.0,4000000.0,295000000.0,-725000000.0,,0.0,-728000000.0,-2553000000.0,,,433000000.0,,,-430000000.0,
2013-12,86000000.0,5000000.0,128000000.0,-304000000.0,,0.0,-205000000.0,-1116000000.0,,,77000000.0,,,-175000000.0,
