,0,1,2,3,4,5,6,7,8,9,10,11,12,13,14,15,16,17,18,19,20,21,22,23,24,25,26,27,28
Date,Cash and cash equivalents,Short-term investments,Cash and short-term investments,Receivables,Inventories,Total current assets,Property Plant & Equipment Net,Goodwill and Intangible Assets,Long-term investments,Tax assets,Total non-current assets,Total assets,Payables,Short-term debt,Total current liabilities,Long-term debt,Total debt,Deferred revenue,Tax Liabilities,Deposit Liabilities,Total non-current liabilities,Total liabilities,Other comprehensive income,Retained earnings (deficit),Total shareholders equity,Investments,Net Debt,Other Assets,Other Liabilities
2019-12-31,190009000.0,0.0,190009000.0,449162000.0,346937000.0,986108000.0,99262000.0,61515000.0,0.0,0.0,373910000.0,1360018000.0,16653000.0,72081000.0,106808000.0,641056000.0,713137000.0,18074000.0,0.0,0.0,733560000.0,943893000.0,269534000.0,145847000.0,416125000.0,0.0,523128000.0,0.0,103525000.0
2018-12-31,219408000.0,0.0,219408000.0,439167000.0,334149000.0,992724000.0,98279000.0,61845000.0,0.0,0.0,353743000.0,1346467000.0,19515000.0,71323000.0,107360000.0,663645000.0,734968000.0,16522000.0,0.0,0.0,754701000.0,916713000.0,270369000.0,158641000.0,429754000.0,0.0,515560000.0,0.0,54652000.0
2017-12-31,197337000.0,0.0,197337000.0,431801000.0,281291000.0,910429000.0,74756000.0,61978000.0,0.0,0.0,325995000.0,1236424000.0,22955000.0,70384000.0,129650000.0,591696000.0,662080000.0,36311000.0,0.0,0.0,675324000.0,854193000.0,274366000.0,107118000.0,382231000.0,0.0,464743000.0,0.0,49219000.0
2016-12-31,190228000.0,0.0,190228000.0,0.0,238534000.0,947987000.0,70797000.0,61749000.0,0.0,0.0,,1128632000.0,21769000.0,0.0,92716000.0,575000000.0,582415000.0,37015000.0,126278000.0,0.0,,838424000.0,0.0,21592000.0,249436000.0,510480000.0,,,70947000.0
2015-12-31,172238000.0,0.0,172238000.0,0.0,220211000.0,897340000.0,71937000.0,61977000.0,0.0,0.0,,1083151000.0,14841000.0,0.0,84715000.0,571000000.0,570776000.0,28847000.0,111131000.0,0.0,,795469000.0,0.0,16641000.0,244485000.0,495598000.0,,,69874000.0
2012-12-31,0.0,0.0,0.0,0.0,0.0,0.0,0.0,0.0,0.0,0.0,0.0,0.0,0.0,0.0,0.0,0.0,0.0,0.0,0.0,0.0,0.0,0.0,0.0,0.0,0.0,0.0,0.0,0.0,0.0
2011-12-31,0.0,0.0,0.0,0.0,302843000.0,302843000.0,0.0,0.0,0.0,0.0,-302843000.0,0.0,0.0,0.0,0.0,0.0,0.0,0.0,0.0,0.0,0.0,0.0,0.0,0.0,0.0,0.0,0.0,0.0,0.0
