,0,1,2,3,4,5,6,7,8,9,10,11,12,13,14,15,16,17,18,19,20,21,22,23,24,25,26,27,28
Date,Cash and cash equivalents,Short-term investments,Cash and short-term investments,Receivables,Inventories,Total current assets,Property Plant & Equipment Net,Goodwill and Intangible Assets,Long-term investments,Tax assets,Total non-current assets,Total assets,Payables,Short-term debt,Total current liabilities,Long-term debt,Total debt,Deferred revenue,Tax Liabilities,Deposit Liabilities,Total non-current liabilities,Total liabilities,Other comprehensive income,Retained earnings (deficit),Total shareholders equity,Investments,Net Debt,Other Assets,Other Liabilities
2017-12-31,31566278.0,55814216.0,87380494.0,2176359.0,0.0,89556853.0,3306025.0,2241127.0,0.0,2469620.0,569416071.0,658972924.0,0.0,10000000.0,10000000.0,0.0,10000000.0,0.0,0.0,572754560.0,1806352.0,587096795.0,41692751.0,19180657.0,71876129.0,55814216.0,-21566278.0,0.0,575290443.0
2017-12,,,,5000000.0,,,,0.0,,,,659000000.0,,,,,,,,,,587000000.0,0.0,19000000.0,72000000.0,,0.0,0.0,0.0
2016-12-31,40027456.0,60232727.0,100260183.0,1884945.0,0.0,102145128.0,3882343.0,0.0,0.0,1153102.0,518158466.0,620303594.0,0.0,20000000.0,20000000.0,0.0,20000000.0,0.0,0.0,526458394.0,2984718.0,554575859.0,40814285.0,14426969.0,65727735.0,60232727.0,-20027456.0,0.0,531591141.0
2016-12,,,,3000000.0,,,,0.0,,,,620000000.0,,,,,,,,,,554000000.0,0.0,14000000.0,66000000.0,,0.0,0.0,0.0
2015-12-31,34413222.0,33352233.0,67765455.0,1271871.0,0.0,69037326.0,5060802.0,0.0,0.0,2775237.0,422124512.0,491161838.0,0.0,52300000.0,52300000.0,0.0,52300000.0,0.0,0.0,367415938.0,2723557.0,423479349.0,43378927.0,12667070.0,67682489.0,33352233.0,17886778.0,0.0,368455792.0
2015-12,,,,4000000.0,,,,0.0,,,,491000000.0,,,,,,,,,,423000000.0,1000000.0,13000000.0,68000000.0,,0.0,0.0,0.0
2014-12-31,16857325.0,35349889.0,52207214.0,1306111.0,0.0,53513325.0,5553957.0,0.0,0.0,3122885.0,426429660.0,479942985.0,0.0,22150000.0,22150000.0,0.0,22150000.0,0.0,0.0,387830132.0,3214100.0,413299699.0,43228950.0,10736305.0,66643286.0,35349889.0,5292675.0,0.0,387935599.0
2014-12,,,,4000000.0,,,,0.0,,,,480000000.0,,,,,,,,,,413000000.0,2000000.0,11000000.0,67000000.0,,0.0,0.0,0.0
2013-12-31,23273060.0,36586669.0,59859729.0,1186748.0,0.0,61046477.0,5998532.0,0.0,0.0,6564121.0,358042826.0,419089303.0,0.0,0.0,0.0,0.0,0.0,0.0,0.0,360993471.0,6564121.0,364535035.0,36357001.0,7703597.0,54554268.0,36586669.0,-23273060.0,0.0,357970914.0
2013-12,,,,1000000.0,,,,0.0,,,,419000000.0,,,,,,,,,,365000000.0,1000000.0,8000000.0,55000000.0,,0.0,0.0,0.0
2012-12-31,19321186.0,17632784.0,36953970.0,1101845.0,0.0,38055815.0,6720424.0,0.0,0.0,6065445.0,327130144.0,365185959.0,0.0,0.0,0.0,0.0,0.0,0.0,0.0,325147274.0,6065445.0,332842739.0,24840506.0,9233565.0,32343220.0,17632784.0,-19321186.0,0.0,326777294.0
2011-12-31,15597128.0,25470207.0,41067335.0,1215060.0,0.0,42282395.0,6660574.0,0.0,0.0,6087400.0,323077822.0,365360217.0,0.0,0.0,0.0,0.0,0.0,0.0,0.0,314992836.0,0.0,332716644.0,24738890.0,9886546.0,32643573.0,25470207.0,-15597128.0,0.0,332716644.0
