,0,1,2,3,4,5,6,7,8,9,10,11,12,13,14,15,16,17,18,19,20,21,22,23,24,25,26,27,28
Date,Cash and cash equivalents,Short-term investments,Cash and short-term investments,Receivables,Inventories,Total current assets,Property Plant & Equipment Net,Goodwill and Intangible Assets,Long-term investments,Tax assets,Total non-current assets,Total assets,Payables,Short-term debt,Total current liabilities,Long-term debt,Total debt,Deferred revenue,Tax Liabilities,Deposit Liabilities,Total non-current liabilities,Total liabilities,Other comprehensive income,Retained earnings (deficit),Total shareholders equity,Investments,Net Debt,Other Assets,Other Liabilities
2018-12-31,188105000000.0,288038000000.0,476143000000.0,128000000.0,0.0,476271000000.0,0.0,27266000000.0,164460000000.0,27685000000.0,1441112000000.0,1917383000000.0,0.0,32346000000.0,32953000000.0,231999000000.0,264345000000.0,0.0,607000000.0,1013170000000.0,236781000000.0,1721163000000.0,82012000000.0,151347000000.0,196220000000.0,452498000000.0,76240000000.0,0.0,1451429000000.0
2017-12-31,23775000000.0,290914000000.0,314689000000.0,167000000.0,0.0,314856000000.0,0.0,26844000000.0,156741000000.0,26797000000.0,1527609000000.0,1842465000000.0,0.0,44452000000.0,45465000000.0,236709000000.0,281161000000.0,0.0,1013000000.0,959822000000.0,241025000000.0,1641725000000.0,96952000000.0,138425000000.0,200740000000.0,447655000000.0,257386000000.0,0.0,1355235000000.0
2016-12-31,23043000000.0,299424000000.0,322467000000.0,187000000.0,0.0,322654000000.0,0.0,26773000000.0,137451000000.0,49690000000.0,1469423000000.0,1792077000000.0,0.0,30701000000.0,31793000000.0,206178000000.0,236879000000.0,0.0,1092000000.0,929406000000.0,209200000000.0,1566957000000.0,110993000000.0,146477000000.0,225120000000.0,436875000000.0,213836000000.0,0.0,1325964000000.0
2015-12-31,20900000000.0,299136000000.0,320036000000.0,250000000.0,0.0,320286000000.0,0.0,26070000000.0,112197000000.0,51192000000.0,1410924000000.0,1731210000000.0,0.0,21079000000.0,22314000000.0,201275000000.0,222354000000.0,0.0,1235000000.0,907887000000.0,204618000000.0,1509353000000.0,117329000000.0,133841000000.0,221857000000.0,411333000000.0,201454000000.0,0.0,1282421000000.0
2014-12-31,32108000000.0,300143000000.0,332251000000.0,0.0,0.0,332251000000.0,0.0,28158000000.0,128089000000.0,52983000000.0,1510279000000.0,1842530000000.0,0.0,58335000000.0,59395000000.0,223080000000.0,281415000000.0,0.0,1060000000.0,899332000000.0,226556000000.0,1631996000000.0,115518000000.0,118201000000.0,210534000000.0,428232000000.0,249307000000.0,0.0,1346045000000.0
2013-12-31,29885000000.0,282777000000.0,312662000000.0,0.0,0.0,312662000000.0,0.0,30065000000.0,169005000000.0,55781000000.0,1567720000000.0,1880382000000.0,0.0,58944000000.0,60518000000.0,221116000000.0,280060000000.0,0.0,1574000000.0,968273000000.0,224098000000.0,1676043000000.0,112273000000.0,111168000000.0,204339000000.0,451782000000.0,250175000000.0,0.0,1391427000000.0
2012-12-31,138587000000.0,,,22490000000.0,0.0,,0.0,33312000000.0,,0.0,,1864660000000.0,57013000000.0,,,,502726000000.0,0.0,0.0,930560000000.0,,1673663000000.0,-16896000000.0,97809000000.0,189049000000.0,1524575000000.0,,,
2011-12-31,184485000000.0,,,27777000000.0,0.0,,0.0,34582000000.0,,0.0,,1873878000000.0,56696000000.0,,,,576319000000.0,0.0,0.0,865936000000.0,,1694305000000.0,-17788000000.0,90520000000.0,177806000000.0,1478123000000.0,,,
2010-12-31,190409000000.0,,,31213000000.0,0.0,,0.0,38210000000.0,,0.0,,1913902000000.0,51749000000.0,,,,649531000000.0,0.0,0.0,844968000000.0,,1748113000000.0,-16277000000.0,79559000000.0,163468000000.0,1490292000000.0,,,
2009-12-31,192886000000.0,,,33634000000.0,0.0,,0.0,40636000000.0,,0.0,,1856646000000.0,60846000000.0,,,,587179000000.0,0.0,0.0,835903000000.0,,1701673000000.0,-18937000000.0,77440000000.0,152700000000.0,1426385000000.0,,,
