,0,1,2,3,4,5,6,7,8,9,10,11,12,13,14,15,16,17,18,19,20,21,22,23,24,25,26,27,28,29,30
Date,Revenue,Revenue Growth,Cost of Revenue,Gross Profit,R&D Expenses,SG&A Expense,Operating Expenses,Operating Income,Interest Expense,Earnings before Tax,Income Tax Expense,Net Income - Non-Controlling int,Net Income - Discontinued ops,Net Income,Preferred Dividends,Net Income Com,EPS,EPS Diluted,Weighted Average Shs Out,Weighted Average Shs Out (Dil),Dividend per Share,Gross Margin,EBITDA Margin,EBIT Margin,Profit Margin,Free Cash Flow margin,EBITDA,EBIT,Consolidated Income,Earnings Before Tax Margin,Net Profit Margin
2018-12-31,72854000000.0,0.0196643759885,101000000.0,72753000000.0,7193000000.0,21154000000.0,28347000000.0,23445000000.0,24266000000.0,23445000000.0,5357000000.0,0.0,0.0,18045000000.0,1173000000.0,18045000000.0,6.69,6.68,2493300000.0,2494800000.0,2.0121853455200003,0.998613665688,0.373335712521,0.321807999561,0.247687155132,0.455403958602,27199000000.0,23445000000.0,18045000000.0,0.321807999561,0.247687155132
2017-12-31,71449000000.0,0.022525939177099996,109000000.0,71340000000.0,6891000000.0,21181000000.0,28072000000.0,22761000000.0,16517000000.0,22761000000.0,29388000000.0,0.0,0.0,-6798000000.0,1213000000.0,-6798000000.0,-2.98,-2.98,2698500000.0,2698500000.0,1.4070780063,0.998474436311,0.36977424456600005,0.318562891013,-0.0951447885905,-0.167224173886,26420000000.0,22761000000.0,-6798000000.0,0.318562891013,-0.0951447885905
2016-12-31,69875000000.0,-0.08485475548100001,204000000.0,69671000000.0,6685000000.0,20970000000.0,27655000000.0,21477000000.0,0.0,21477000000.0,6444000000.0,0.0,0.0,14912000000.0,0.0,14912000000.0,4.72,4.72,2888100000.0,2888300000.0,0.791815254648,0.9970805008939999,0.361073345259,0.307363148479,0.213409660107,0.7323935599279999,25230000000.0,21477000000.0,14912000000.0,0.307363148479,0.213409660107
2015-12-31,76354000000.0,-0.00686766733436,731000000.0,75623000000.0,6581000000.0,21769000000.0,28350000000.0,24826000000.0,0.0,24826000000.0,7440000000.0,0.0,0.0,17242000000.0,0.0,17242000000.0,5.41,5.4,3004000000.0,3007700000.0,0.41659740000699996,0.9904261728270001,0.373562616235,0.325143410954,0.22581659114100003,0.47854729287299996,28523000000.0,24826000000.0,17242000000.0,0.325143410954,0.22581659114100003
2014-12-31,76882000000.0,0.00675693371396,801000000.0,76081000000.0,6436000000.0,23959000000.0,55051000000.0,14364000000.0,0.0,14364000000.0,6864000000.0,0.0,0.0,7313000000.0,0.0,7313000000.0,2.21,2.2,3031600000.0,3037000000.0,0.20842937109,0.989581436487,0.23624515491300002,0.186831768164,0.09511979397,0.546916053172,18163000000.0,14364000000.0,7313000000.0,0.186831768164,0.09511979397
2013-12-31,76366000000.0,0.103714409597,830000000.0,75536000000.0,6136000000.0,23967000000.0,48355000000.0,13673000000.0,0.0,13630000000.0,5867000000.0,0.0,0.0,13673000000.0,0.0,13673000000.0,4.35,4.35,3035800000.0,3041600000.0,0.1032351394,0.9891312887929999,0.224838278815,0.179045648587,0.179045648587,0.706073383443,17170000000.0,13673000000.0,13673000000.0,0.17848257077799998,0.179045648587
2012-12-31,69190000000.0,-0.10527472811699999,11329000000.0,57861000000.0,0.0,50036000000.0,50036000000.0,7825000000.0,0.0,7548000000.0,7000000.0,219000000.0,58000000.0,7541000000.0,0.0,7541000000.0,2.51,2.44,2932520700.0,2930600000.0,0.04,0.8363,0.145,0.1091,0.109,-0.1861,10055000000.0,7548000000.0,7760000000.0,0.1091,0.109
2011-12-31,77331000000.0,-0.107042643849,12359000000.0,64972000000.0,0.0,50250000000.0,50250000000.0,14722000000.0,0.0,14642000000.0,3575000000.0,148000000.0,-68000000.0,11067000000.0,0.0,11067000000.0,3.73,3.63,2923708189.0,2909800000.0,0.03,0.8402,0.226,0.1893,0.14300000000000002,0.8104,17514000000.0,14642000000.0,11215000000.0,0.1893,0.1431
2010-12-31,86601000000.0,0.07866973905460001,26042000000.0,60559000000.0,0.0,47375000000.0,47375000000.0,13184000000.0,0.0,12835000000.0,2233000000.0,281000000.0,68000000.0,10602000000.0,0.0,10602000000.0,3.65,3.54,2905016900.0,2877600000.0,0.0,0.6993,0.179,0.1482,0.122,0.415,15499000000.0,12835000000.0,10883000000.0,0.1482,0.1224
2009-12-31,80285000000.0,0.5559,40262000000.0,40023000000.0,0.0,47935000000.0,47822000000.0,-7799000000.0,0.0,-8339000000.0,-6733000000.0,95000000.0,445000000.0,-1606000000.0,0.0,-1606000000.0,-7.99,-7.99,2286394726.0,1156800000.0,0.1,0.4985,-0.068,-0.1039,-0.02,-0.6299,-5486000000.0,-8339000000.0,-1511000000.0,-0.1039,-0.02
