,0,1,2,3,4,5,6,7,8,9,10,11,12,13,14
Date,Depreciation & Amortization,Stock-based compensation,Operating Cash Flow,Capital Expenditure,Acquisitions and disposals,Investment purchases and sales,Investing Cash flow,Issuance (repayment) of debt,Issuance (buybacks) of shares,Dividend payments,Financing Cash Flow,Effect of forex changes on cash,Net cash flow / Change in cash,Free Cash Flow,Net Cash/Marketcap
2018-12-31,175829000.0,0.0,191661000.0,-11090000.0,-9839000.0,-37265000.0,-59185000.0,-322707000.0,239304000.0,-14965000.0,-65680000.0,-43532000.0,133592000.0,180571000.0,-0.7987
2017-12-31,138130000.0,0.0,-49422000.0,-11328000.0,-12762000.0,-19594000.0,-45162000.0,344163000.0,6600000.0,-23836000.0,128955000.0,5114000.0,68742000.0,-60750000.0,-0.6372
2016-12-31,122882000.0,0.0,172772000.0,-10122000.0,37640000.0,9174000.0,35844000.0,-90594000.0,29512000.0,-49733000.0,-159379000.0,-4762000.0,65978000.0,162650000.0,-0.6372
2015-12-31,72247000.0,0.0,43593000.0,-3394000.0,-59124000.0,-23475000.0,-86379000.0,129719000.0,8303000.0,-76875000.0,22813000.0,-14468000.0,-97552000.0,40199000.0,-0.6372
