,0,1,2,3,4,5,6,7,8,9,10,11,12,13,14,15,16,17,18,19,20,21,22,23,24,25,26,27,28
Date,Cash and cash equivalents,Short-term investments,Cash and short-term investments,Receivables,Inventories,Total current assets,Property Plant & Equipment Net,Goodwill and Intangible Assets,Long-term investments,Tax assets,Total non-current assets,Total assets,Payables,Short-term debt,Total current liabilities,Long-term debt,Total debt,Deferred revenue,Tax Liabilities,Deposit Liabilities,Total non-current liabilities,Total liabilities,Other comprehensive income,Retained earnings (deficit),Total shareholders equity,Investments,Net Debt,Other Assets,Other Liabilities
2018-12-31,86346000.0,17543000.0,103889000.0,237519000.0,88021000.0,495428000.0,129853000.0,605000.0,32620000.0,15336000.0,195071000.0,690499000.0,0.0,60952000.0,341300000.0,8726000.0,69678000.0,0.0,11137000.0,750000.0,12924000.0,404622000.0,282164000.0,1855000.0,285877000.0,50163000.0,-16668000.0,0.0,50398000.0
2017-12-31,64558000.0,29587000.0,94145000.0,274989000.0,79217000.0,532603000.0,126033000.0,661000.0,27596000.0,13367000.0,184766000.0,717369000.0,0.0,72711000.0,373463000.0,0.0,72711000.0,0.0,5927000.0,1128000.0,4393000.0,417921000.0,263885000.0,17780000.0,299448000.0,57183000.0,8153000.0,0.0,40065000.0
2016-12-31,31092000.0,30475000.0,61567000.0,285731000.0,68050000.0,485904000.0,101478000.0,617000.0,16431000.0,4641000.0,145795000.0,631699000.0,0.0,40820000.0,324860000.0,608000.0,41428000.0,0.0,11674000.0,700000.0,608000.0,331219000.0,302261000.0,-892000.0,300480000.0,46906000.0,10336000.0,0.0,5751000.0
2015-12-31,69676000.0,21209000.0,90885000.0,254397000.0,65570000.0,476059000.0,84151000.0,3401000.0,6152000.0,4899000.0,131636000.0,607695000.0,0.0,40929000.0,298212000.0,0.0,40929000.0,0.0,9284000.0,1613000.0,266000.0,308652000.0,262216000.0,18412000.0,299043000.0,27361000.0,-28747000.0,0.0,10174000.0
2014-12-31,68505000.0,41017000.0,109522000.0,282348000.0,64419000.0,522625000.0,82466000.0,4064000.0,4575000.0,4896000.0,106536000.0,629161000.0,0.0,43988000.0,324515000.0,0.0,43988000.0,0.0,11557000.0,1885000.0,321000.0,339904000.0,217016000.0,36119000.0,289257000.0,45592000.0,-24517000.0,0.0,15068000.0
2013-12-31,53979000.0,35510000.0,89489000.0,267639000.0,51392000.0,470407000.0,80018000.0,686000.0,4023000.0,4528000.0,95200000.0,565607000.0,0.0,37381000.0,291072000.0,0.0,37381000.0,0.0,7792000.0,1677000.0,117000.0,338907000.0,162575000.0,32061000.0,226700000.0,39533000.0,-16598000.0,0.0,47718000.0
2012-12-31,87649000.0,0.0,87649000.0,211306000.0,43542000.0,389562000.0,81691000.0,676000.0,3665000.0,4112000.0,96263000.0,485825000.0,0.0,40284000.0,250816000.0,0.0,40284000.0,0.0,5593000.0,870000.0,46000.0,292271000.0,141755000.0,25898000.0,193554000.0,3665000.0,-47365000.0,0.0,41409000.0
2011-12-31,72960500.0,0.0,72960500.0,206333110.0,51607193.0,365379535.0,84843250.0,837075.0,3485118.0,4340974.0,101067585.0,466447120.0,2052897.0,0.0,217559672.0,23571429.0,23571429.0,0.0,2029215.0,1181401.0,23881096.0,293318009.0,122543823.0,25291231.0,173129111.0,3485118.0,-49389071.0,0.0,51877241.0
2010-12-31,70408870.0,0.0,70408870.0,198660422.0,36870272.0,310875688.0,75380747.0,662089.0,3162136.0,6783015.0,94651977.0,405527665.0,149121406.0,36794812.0,256683891.0,0.0,36794812.0,0.0,7173250.0,720883.0,603983.0,257287874.0,15957500.0,67747648.0,112273018.0,3162136.0,-33614058.0,4936124.0,70767673.0
2009-12-31,56222363.0,0.0,56222363.0,155927516.0,27415697.0,244781261.0,58529447.0,561389.0,79084.0,6864477.0,69601311.0,314382572.0,107729774.0,35125802.0,232295238.0,0.0,35125802.0,0.0,11482177.0,1918835.0,233941.0,232529179.0,11187733.0,16009535.0,54715036.0,79084.0,-21096561.0,5215685.0,89439662.0
