,0,1,2,3,4,5,6,7,8,9,10,11,12,13,14,15,16,17,18,19,20,21,22,23,24,25,26,27,28,29,30
Date,Revenue,Revenue Growth,Cost of Revenue,Gross Profit,R&D Expenses,SG&A Expense,Operating Expenses,Operating Income,Interest Expense,Earnings before Tax,Income Tax Expense,Net Income - Non-Controlling int,Net Income - Discontinued ops,Net Income,Preferred Dividends,Net Income Com,EPS,EPS Diluted,Weighted Average Shs Out,Weighted Average Shs Out (Dil),Dividend per Share,Gross Margin,EBITDA Margin,EBIT Margin,Profit Margin,Free Cash Flow margin,EBITDA,EBIT,Consolidated Income,Earnings Before Tax Margin,Net Profit Margin
2019-12-31,0.0,0.0,0.0,0.0,11671000.0,7012000.0,18683000.0,-18683000.0,0.0,-16943000.0,0.0,0.0,0.0,-16943000.0,0.0,-16943000.0,-4.07,-4.07,4345530.0,5469391.0,0.0,0.0,0.0,0.0,0.0,0.0,-18579000.0,-18683000.0,-16943000.0,0.0,0.0
2018-12-31,0.0,,0.0,0.0,4467000.0,1726000.0,6193000.0,-6193000.0,0.0,-12202000.0,0.0,0.0,0.0,-12202000.0,0.0,-12202000.0,-6.87,-6.87,,1775468.0,0.0,0.0,,0.0,,0.0,-12202000.0,-12202000.0,-12202000.0,0.0,0.0
