,0,1,2,3,4,5,6,7,8,9,10,11,12,13,14,15,16,17,18,19,20,21,22,23,24,25,26,27,28,29,30
Date,Revenue,Revenue Growth,Cost of Revenue,Gross Profit,R&D Expenses,SG&A Expense,Operating Expenses,Operating Income,Interest Expense,Earnings before Tax,Income Tax Expense,Net Income - Non-Controlling int,Net Income - Discontinued ops,Net Income,Preferred Dividends,Net Income Com,EPS,EPS Diluted,Weighted Average Shs Out,Weighted Average Shs Out (Dil),Dividend per Share,Gross Margin,EBITDA Margin,EBIT Margin,Profit Margin,Free Cash Flow margin,EBITDA,EBIT,Consolidated Income,Earnings Before Tax Margin,Net Profit Margin
2019-12-31,1489000000.0,0.158033908851,30100000.0,1458900000.0,0.0,135300000.0,328600000.0,855900000.0,196200000.0,855900000.0,199800000.0,0.0,0.0,656100000.0,0.0,656100000.0,34.71,34.57,18900256.0,18976560.0,0.0,0.979785090665,0.589858965749,0.5748153122899999,0.44063129617200003,0.527535258563,878300000.0,855900000.0,656100000.0,0.5748153122899999,0.44063129617200003
2018-12-31,1285800000.0,0.158378378378,26000000.0,1259800000.0,0.0,123400000.0,291200000.0,755100000.0,156600000.0,755100000.0,181100000.0,0.0,0.0,574000000.0,0.0,574000000.0,29.52,29.39,19446067.0,19532312.0,0.0,0.979779125836,0.6024265049,0.587260849277,0.44641468346600005,0.5279203608649999,774600000.0,755100000.0,574000000.0,0.587260849277,0.44641468346600005
2017-12-31,1110000000.0,0.145274453157,22700000.0,1087300000.0,0.0,113900000.0,254000000.0,583800000.0,120200000.0,583800000.0,113600000.0,0.0,0.0,470200000.0,0.0,470200000.0,24.12,24.04,19497719.0,19558936.0,0.0,0.97954954955,0.540720720721,0.525945945946,0.423603603604,0.502342342342,600200000.0,583800000.0,470200000.0,0.525945945946,0.423603603604
2016-12-31,969200000.0,0.174360838483,26000000.0,943200000.0,0.0,97600000.0,224100000.0,531200000.0,97700000.0,531200000.0,198400000.0,0.0,0.0,332800000.0,0.0,332800000.0,16.37,16.31,20331769.0,20410116.0,0.0,0.973173751548,0.563867106892,0.548080891457,0.34337598019,0.517643417251,546500000.0,531200000.0,332800000.0,0.548080891457,0.34337598019
2015-12-31,825300000.0,0.140704906704,33200000.0,792100000.0,0.0,83700000.0,200100000.0,474500000.0,76000000.0,474500000.0,174800000.0,0.0,0.0,299700000.0,0.0,299700000.0,14.35,14.28,20891695.0,20980753.0,0.0,0.9597722040469999,0.592148309706,0.574942445171,0.363140676118,0.484914576518,488700000.0,474500000.0,299700000.0,0.574942445171,0.363140676118
2014-12-31,723500000.0,0.060694912769400006,40000000.0,683500000.0,0.0,71100000.0,171300000.0,420900000.0,56700000.0,420900000.0,154700000.0,0.0,0.0,266200000.0,0.0,266200000.0,11.96,11.92,22257104.0,22331401.0,0.0,0.9447131997239999,0.6,0.581755355909,0.36793365584,0.498825155494,434100000.0,420900000.0,266200000.0,0.581755355909,0.36793365584
2013-12-31,682100000.0,0.119665134603,40800000.0,641300000.0,0.0,68900000.0,156200000.0,398200000.0,65000000.0,398200000.0,145100000.0,0.0,0.0,253100000.0,0.0,253100000.0,10.61,10.54,23850789.0,24009593.0,0.0,0.9401847236480001,0.6031373698870001,0.583785368714,0.37105996188199997,0.469286028442,411400000.0,398200000.0,253100000.0,0.583785368714,0.37105996188199997
2012-12-31,609200000.0,0.15995673962999998,34800000.0,574400000.0,0.0,61700000.0,143900000.0,343100000.0,63400000.0,343100000.0,123400000.0,0.0,0.0,219700000.0,0.0,219700000.0,8.65,8.58,25409655.0,25598956.0,0.0,0.9428759028229999,0.583223900197,0.563197636244,0.360636900854,0.492120814183,355300000.0,343100000.0,219700000.0,0.563197636244,0.360636900854
2011-12-31,525192000.0,0.18794842795699998,30399000.0,494793000.0,0.0,49145000.0,112183000.0,296418000.0,57236000.0,296418000.0,108374000.0,0.0,0.0,188044000.0,0.0,188044000.0,7.15,7.07,26302000.0,26601000.0,0.0,0.9421183110179999,0.583533260217,0.564399305397,0.35804810431199996,0.5127915124369999,306467000.0,296418000.0,188044000.0,0.564399305397,0.35804810431199996
2010-12-31,442100000.0,0.161391673497,0.0,442100000.0,0.0,107400000.0,140800000.0,301300000.0,47800000.0,253500000.0,83400000.0,0.0,0.0,170100000.0,0.0,170100000.0,5.79,5.67,27141367.0,29393309.0,0.0,1.0,0.706,0.6815,0.385,0.4461,312300000.0,301300000.0,170100000.0,0.5734,0.3848
2009-12-31,380664000.0,0.2194,0.0,380664000.0,0.0,112092000.0,119227000.0,261437000.0,32399000.0,229247000.0,82992000.0,0.0,-209000.0,146255000.0,0.0,146255000.0,4.78,4.62,30983373.0,30590000.0,0.0,1.0,0.713,0.6873,0.384,0.4136,271306000.0,261646000.0,146255000.0,0.6022,0.3842
