,0,1,2,3,4,5,6,7,8,9,10,11,12,13,14
Date,Depreciation & Amortization,Stock-based compensation,Operating Cash Flow,Capital Expenditure,Acquisitions and disposals,Investment purchases and sales,Investing Cash flow,Issuance (repayment) of debt,Issuance (buybacks) of shares,Dividend payments,Financing Cash Flow,Effect of forex changes on cash,Net cash flow / Change in cash,Free Cash Flow,Net Cash/Marketcap
2014-12-31,0.0,0.0,-1011838.0,0.0,-0.0,0.0,0.0,-0.0,-146669.0,-0.0,-16920.0,0.0,-1028758.0,-1011838.0,0.0
2013-12-31,0.0,0.0,-36900.0,0.0,-0.0,0.0,-75001821.0,-0.0,0.0,-0.0,76115911.0,0.0,1077190.0,-36900.0,0.0
2012-12-31,0.0,0.0,24316.0,0.0,-0.0,0.0,0.0,-0.0,25000.0,-0.0,45958.0,0.0,70274.0,24316.0,0.0
