,0,1,2,3,4,5,6,7,8,9,10,11,12,13,14,15,16,17,18,19,20,21,22,23,24,25,26,27,28
Date,Cash and cash equivalents,Short-term investments,Cash and short-term investments,Receivables,Inventories,Total current assets,Property Plant & Equipment Net,Goodwill and Intangible Assets,Long-term investments,Tax assets,Total non-current assets,Total assets,Payables,Short-term debt,Total current liabilities,Long-term debt,Total debt,Deferred revenue,Tax Liabilities,Deposit Liabilities,Total non-current liabilities,Total liabilities,Other comprehensive income,Retained earnings (deficit),Total shareholders equity,Investments,Net Debt,Other Assets,Other Liabilities
2019-06-30,72028000.0,0.0,72028000.0,869840000.0,0.0,1031520000.0,149676000.0,3772194000.0,0.0,0.0,4055323000.0,5086843000.0,118917000.0,46920000.0,691722000.0,1618093000.0,1665013000.0,55667000.0,1530000.0,0.0,1938809000.0,2715512000.0,92000.0,2410164000.0,2371331000.0,0.0,1592985000.0,0.0,84981000.0
2018-06-30,66194000.0,0.0,66194000.0,806871000.0,0.0,931191000.0,101140000.0,2862590000.0,0.0,0.0,3103015000.0,4034206000.0,82017000.0,46920000.0,538981000.0,1015420000.0,1062340000.0,41744000.0,4122000.0,0.0,1306129000.0,1927454000.0,0.0,2126790000.0,2106752000.0,0.0,996146000.0,0.0,82344000.0
2017-06-30,65539000.0,0.0,65539000.0,757341000.0,0.0,879902000.0,91749000.0,2812806000.0,0.0,0.0,3031180000.0,3911082000.0,62874000.0,53965000.0,526744000.0,1177598000.0,1231563000.0,30277000.0,1639000.0,0.0,1515308000.0,2117496000.0,0.0,1825619000.0,1793586000.0,0.0,1166024000.0,0.0,75444000.0
2016-06-30,49082000.0,0.0,49082000.0,803817000.0,0.0,921838000.0,81362000.0,2860715000.0,0.0,-248458000.0,3065503000.0,3987341000.0,95270000.0,53965000.0,565176000.0,1402079000.0,1456044000.0,41407000.0,398000.0,0.0,1745091000.0,2380163000.0,0.0,1661948000.0,1607178000.0,0.0,1406962000.0,0.0,69896000.0
2015-06-30,35364000.0,0.0,35364000.0,596155000.0,0.0,676460000.0,63689000.0,2384998000.0,0.0,10350000.0,2580656000.0,3257116000.0,56840000.0,38965000.0,399681000.0,1029335000.0,1068300000.0,25898000.0,6220000.0,0.0,1308087000.0,1776979000.0,0.0,1519149000.0,1480137000.0,0.0,1032936000.0,0.0,69211000.0
2014-06-30,64461000.0,0.0,64461000.0,615580000.0,0.0,735849000.0,68485000.0,2418979000.0,0.0,22694000.0,2623289000.0,3359138000.0,55811000.0,41563000.0,422587000.0,1238728000.0,1280291000.0,33584000.0,9636000.0,0.0,1508325000.0,2002255000.0,0.0,1392954000.0,1356883000.0,0.0,1215830000.0,0.0,71343000.0
2013-06-30,64337000.0,0.0,64337000.0,614616000.0,0.0,727975000.0,65510000.0,1581153000.0,0.0,23147000.0,1773290000.0,2501265000.0,133073000.0,295517000.0,742494000.0,300790000.0,596307000.0,28741000.0,8184000.0,0.0,484798000.0,1296362000.0,0.0,1257638000.0,1204903000.0,0.0,531970000.0,0.0,69070000.0
2012-06-30,15740000.0,77400000.0,93140000.0,628842000.0,0.0,685792000.0,67449000.0,1521769000.0,0.0,16747000.0,1707084000.0,2392876000.0,149549000.0,7500000.0,484929000.0,531961000.0,539461000.0,28358000.0,7013000.0,0.0,675859000.0,1230881000.0,59818000.0,1105949000.0,1161995000.0,77400000.0,523721000.0,0.0,70093000.0
2011-06-30,164817000.0,66900000.0,231717000.0,573042000.0,0.0,782078000.0,62755000.0,1374387000.0,0.0,16080000.0,1538053000.0,2320131000.0,98893000.0,7500000.0,437221000.0,402437000.0,409937000.0,34127000.0,5897000.0,0.0,534409000.0,1010515000.0,370209000.0,938495000.0,1309616000.0,66900000.0,245120000.0,0.0,38885000.0
2010-06-30,254543000.0,0.0,254543000.0,540324000.0,0.0,840746000.0,58666000.0,1270159000.0,0.0,12641000.0,1404020000.0,2244766000.0,98421000.0,278653000.0,658423000.0,252451000.0,531104000.0,0.0,42990000.0,0.0,413188000.0,1071611000.0,-9807000.0,794277000.0,1173155000.0,0.0,276561000.0,45879000.0,281349000.0
2009-06-30,208488000.0,0.0,208488000.0,485702000.0,0.0,1281247000.0,30923000.0,1181579000.0,0.0,18191000.0,658567000.0,2006079000.0,87300000.0,9464000.0,317904000.0,570078000.0,579542000.0,0.0,29266000.0,0.0,658567000.0,976471000.0,-3248000.0,687762000.0,1029608000.0,0.0,371054000.0,30642000.0,221140000.0
