,0,1,2,3,4,5,6,7,8,9,10,11,12,13,14,15,16,17,18,19,20,21,22,23,24,25,26,27,28,29,30
Date,Revenue,Revenue Growth,Cost of Revenue,Gross Profit,R&D Expenses,SG&A Expense,Operating Expenses,Operating Income,Interest Expense,Earnings before Tax,Income Tax Expense,Net Income - Non-Controlling int,Net Income - Discontinued ops,Net Income,Preferred Dividends,Net Income Com,EPS,EPS Diluted,Weighted Average Shs Out,Weighted Average Shs Out (Dil),Dividend per Share,Gross Margin,EBITDA Margin,EBIT Margin,Profit Margin,Free Cash Flow margin,EBITDA,EBIT,Consolidated Income,Earnings Before Tax Margin,Net Profit Margin
2019-06-30,4986341000.0,0.11604683226399999,4608474000.0,377867000.0,0.0,1218544000.0,1218544000.0,377867000.0,49958000.0,327909000.0,62305000.0,0.0,0.0,265604000.0,0.0,265604000.0,10.7,10.46,24833000.0,25395000.0,0.0,0.075780416943,0.0934853833703,0.075780416943,0.053266312913600004,0.101756979717,466150000.0,377867000.0,265604000.0,0.0657614471212,0.053266312913600004
2018-06-30,4467860000.0,0.026005272105400004,4127160000.0,340700000.0,0.0,1076356000.0,1076356000.0,340700000.0,42036000.0,298664000.0,-2507000.0,0.0,0.0,301171000.0,0.0,301171000.0,12.23,11.93,24616000.0,25255000.0,0.0,0.076255746599,0.0933236493534,0.076255746599,0.0674083341913,0.0634605829189,416957000.0,340700000.0,301171000.0,0.0668472154454,0.0674083341913
2017-06-30,4354617000.0,0.314223655571,4057356000.0,297261000.0,0.0,1050792000.0,1050792000.0,297261000.0,48642000.0,248619000.0,84948000.0,0.0,0.0,163671000.0,0.0,163671000.0,6.71,6.53,24401000.0,25069000.0,0.0,0.0682634086993,0.08577218157189999,0.0682634086993,0.037585624637,0.054650500836199996,373505000.0,297261000.0,163671000.0,0.0570931955669,0.037585624637
2016-06-30,3313452000.0,-0.0704462427642,3077071000.0,236381000.0,0.0,817403000.0,817403000.0,236381000.0,34758000.0,201623000.0,75327000.0,0.0,0.0,126195000.0,0.0,126195000.0,5.27,5.17,23948000.0,24388000.0,0.0,0.0713397990977,0.0920801025637,0.0713397990977,0.0380856580992,0.0632023641809,305103000.0,236381000.0,126195000.0,0.0608498327424,0.0380856580992
2015-06-30,3564562000.0,-0.031892536373,3307159000.0,257403000.0,0.0,815458000.0,815458000.0,257403000.0,38158000.0,219245000.0,83326000.0,0.0,0.0,135316000.0,0.0,135316000.0,5.78,5.38,23429000.0,25155000.0,0.0,0.07221167705880001,0.09132229990669999,0.07221167705880001,0.0379614662334,0.0514408221824,325524000.0,257403000.0,135316000.0,0.0615068555407,0.0379614662334
2014-06-30,3681990000.0,0.0,3411149000.0,270841000.0,0.0,821465000.0,821465000.0,270841000.0,25818000.0,245023000.0,92347000.0,0.0,0.0,151689000.0,0.0,151689000.0,6.59,6.35,23010000.0,23885000.0,0.0,0.0735583203648,0.08880849757880001,0.0735583203648,0.041197558928699994,0.0635232578035,326992000.0,270841000.0,151689000.0,0.0665463512937,0.041197558928699994
2013-06-30,3681990000.0,-0.024502228523,3411149000.0,270841000.0,0.0,821465000.0,821465000.0,270841000.0,25818000.0,245023000.0,92347000.0,0.0,0.0,151689000.0,0.0,151689000.0,6.59,6.35,23010000.0,23885000.0,0.0,0.0735583203648,0.08880849757880001,0.0735583203648,0.041197558928699994,0.0635232578035,326992000.0,270841000.0,151689000.0,0.0665463512937,0.041197558928699994
2012-06-30,3774473000.0,0.0549762702011,3474624000.0,299849000.0,0.0,819772000.0,819772000.0,299849000.0,24101000.0,275748000.0,107537000.0,0.0,0.0,167454000.0,0.0,167454000.0,6.18,5.96,27077000.0,28111000.0,0.0,0.07944128888989999,0.09486039508030002,0.07944128888989999,0.0443648689499,0.0658115715757,358048000.0,299849000.0,167454000.0,0.07305602662939999,0.0443648689499
2011-06-30,3577780000.0,0.136116598516,3326379000.0,251401000.0,0.0,741652000.0,741652000.0,251401000.0,23144000.0,228257000.0,83105000.0,0.0,0.0,144218000.0,0.0,144218000.0,4.76,4.61,30281000.0,31300000.0,0.0,0.07026731660419999,0.08671662315739999,0.07026731660419999,0.040309353845099996,0.0591361123378,310253000.0,251401000.0,144218000.0,0.0637985007463,0.040309353845099996
2010-06-30,3149131000.0,0.153459391787,2207574000.0,941557000.0,0.0,693736000.0,746775000.0,194782000.0,26353000.0,167686000.0,61171000.0,743000.0,0.0,106515000.0,0.0,106515000.0,3.53,3.47,30236424.0,30138000.0,0.0,0.299,0.078,0.0616,0.034,0.0593,247078000.0,194039000.0,107258000.0,0.0532,0.0338
2009-06-30,2730162000.0,0.1279,1871884000.0,858278000.0,0.0,627572000.0,674164000.0,184114000.0,31125000.0,152270000.0,62572000.0,719000.0,0.0,89698000.0,0.0,89698000.0,2.99,2.95,29976000.0,30427000.0,0.0,0.3144,0.084,0.0672,0.033,0.0507,229987000.0,183395000.0,90417000.0,0.0558,0.0329
