,0,1,2,3,4,5,6,7,8,9,10,11,12,13,14
Date,Depreciation & Amortization,Stock-based compensation,Operating Cash Flow,Capital Expenditure,Acquisitions and disposals,Investment purchases and sales,Investing Cash flow,Issuance (repayment) of debt,Issuance (buybacks) of shares,Dividend payments,Financing Cash Flow,Effect of forex changes on cash,Net cash flow / Change in cash,Free Cash Flow,Net Cash/Marketcap
2018-06-30,1239383.0,1388501.0,2450018.0,138151.0,-0.0,0.0,-138151.0,-26639329.0,-498691.0,-0.0,-1409812.0,-28043.0,874012.0,2311867.0,0.0
2017-06-30,1178427.0,289000.0,1700657.0,210962.0,-0.0,0.0,-210962.0,-19237612.0,-224679.0,-0.0,-2248081.0,-23905.0,-782291.0,1489695.0,0.0
2016-06-30,1953087.0,498604.0,5865898.0,-208113.0,0.0,5131523.0,4923410.0,-18789899.0,0.0,0.0,-12307141.0,-167112.0,-1684945.0,5657785.0,-5.3488
2015-06-30,2127260.0,514809.0,-12970574.0,13382.0,0.0,9377145.0,9390527.0,-12955411.0,1167552.0,0.0,-9231572.0,72424.0,-12739195.0,-12957192.0,-4.9212
2014-06-30,2399263.0,0.0,7039127.0,-392006.0,0.0,-9533591.0,-9925597.0,21119356.0,0.0,0.0,14392812.0,-25171.0,11481171.0,6647121.0,-5.0144
2013-06-30,3299480.0,62706.0,-17143511.0,344699.0,0.0,-5097600.0,-4752901.0,23263937.0,0.0,0.0,23387434.0,49003.0,1540025.0,-16798812.0,-5.9852
2012-06-30,4386734.0,132641.0,-9840320.0,562366.0,0.0,12434600.0,12996966.0,3175330.0,0.0,0.0,-2363183.0,5752.0,799215.0,-9277954.0,-0.3484
2011-06-30,3898278.0,885674.0,-2700701.0,-1389677.0,0.0,-11880800.0,-13270477.0,14950040.0,0.0,0.0,14117366.0,163691.0,-1690121.0,-4090378.0,-0.0238
2010-06-20,2924616.0,595888.0,-192516.0,-2682293.0,0.0,78413.0,-7099316.0,-4508449.0,11875945.0,0.0,6936571.0,21276.0,-333985.0,-2874809.0,0.0495
2009-06-30,2184462.0,107477.0,3361128.0,-1771915.0,0.0,0.0,-1771915.0,223412.0,0.0,0.0,136572.0,-1475.0,1724310.0,1589213.0,-0.0116
