,0,1,2,3,4,5,6,7,8,9,10,11,12,13,14,15,16,17,18,19,20,21,22,23,24,25,26,27,28,29,30
Date,Revenue,Revenue Growth,Cost of Revenue,Gross Profit,R&D Expenses,SG&A Expense,Operating Expenses,Operating Income,Interest Expense,Earnings before Tax,Income Tax Expense,Net Income - Non-Controlling int,Net Income - Discontinued ops,Net Income,Preferred Dividends,Net Income Com,EPS,EPS Diluted,Weighted Average Shs Out,Weighted Average Shs Out (Dil),Dividend per Share,Gross Margin,EBITDA Margin,EBIT Margin,Profit Margin,Free Cash Flow margin,EBITDA,EBIT,Consolidated Income,Earnings Before Tax Margin,Net Profit Margin
2019-12-31,651173000.0,0.679401971935,29153000.0,622020000.0,0.0,213874000.0,237736000.0,262301000.0,208903000.0,262301000.0,60343000.0,0.0,0.0,201958000.0,0.0,201958000.0,1.56,1.56,128913962.0,129017599.0,0.6983155840620001,0.9552300233580001,0.40613477524400005,0.402813077324,0.31014492308499997,0.450219834053,264464000.0,262301000.0,201958000.0,0.402813077324,0.31014492308499997
2018-12-31,387741000.0,0.188602030556,24674000.0,363067000.0,0.0,154905000.0,157660000.0,211378000.0,124925000.0,211378000.0,45117000.0,0.0,0.0,166261000.0,0.0,166261000.0,1.99,1.97,83562109.0,84375289.0,0.545124058775,0.9363647383179999,0.597677315528,0.54515256318,0.42879396298,0.465442137922,231744000.0,211378000.0,166261000.0,0.54515256318,0.42879396298
2017-12-31,326216000.0,0.0242453547006,20729000.0,305487000.0,0.0,139118000.0,143770000.0,182999000.0,70651000.0,182999000.0,80646000.0,0.0,0.0,102353000.0,0.0,102353000.0,1.26,1.25,81072945.0,81605015.0,0.0,0.9364562130609999,0.6027723962039999,0.560974936852,0.313758368688,0.42386026436499996,196634000.0,182999000.0,102353000.0,0.560974936852,0.313758368688
2016-12-31,318494000.0,0.0918658745205,0.0,318494000.0,0.0,153050000.0,220180000.0,98314000.0,0.0,98314000.0,32540000.0,0.0,0.0,65774000.0,0.0,65774000.0,0.88,0.87,82500000.0,75000000.0,0.0,1.0,0.35,0.3087,0.207,0.3537,111564000.0,98314000.0,65774000.0,0.3087,0.2065
2015-12-31,291697000.0,-0.077025060119,0.0,291697000.0,0.0,158048000.0,232332000.0,59365000.0,0.0,59365000.0,20109000.0,0.0,0.0,39256000.0,0.0,39256000.0,0.52,0.52,83000000.0,75000000.0,0.0,1.0,0.266,0.2035,0.135,0.3397,77627000.0,59365000.0,39256000.0,0.2035,0.1346
2014-12-31,316040000.0,,0.0,316040000.0,0.0,163338000.0,245147000.0,70893000.0,0.0,70893000.0,26060000.0,0.0,0.0,44833000.0,3643000.0,41190000.0,0.55,0.55,,75000000.0,0.0,1.0,0.289,0.2243,0.13,0.2729,91192000.0,70893000.0,44833000.0,0.2243,0.1419
