,0,1,2,3,4,5,6,7,8,9,10,11,12,13,14,15,16,17,18,19,20,21,22,23,24,25,26,27,28,29,30
Date,Revenue,Revenue Growth,Cost of Revenue,Gross Profit,R&D Expenses,SG&A Expense,Operating Expenses,Operating Income,Interest Expense,Earnings before Tax,Income Tax Expense,Net Income - Non-Controlling int,Net Income - Discontinued ops,Net Income,Preferred Dividends,Net Income Com,EPS,EPS Diluted,Weighted Average Shs Out,Weighted Average Shs Out (Dil),Dividend per Share,Gross Margin,EBITDA Margin,EBIT Margin,Profit Margin,Free Cash Flow margin,EBITDA,EBIT,Consolidated Income,Earnings Before Tax Margin,Net Profit Margin
2018-12-31,35926700000.0,-0.0077398940445100005,19239845454.5455,16686854545.4545,2871290909.0909,10697818181.8182,13569109090.9091,3117745454.5455,7245454.5455,3171863636.3636,874090909.0909,127154545.4545,0.0,2297772727.2727,0.0,2297772727.2727,2.1281,2.128,9815961.6636,9815961.6636,0.0065,0.4645,0.0014,0.0885,0.0006,0.0464,5465963636.3636,3179109090.9091,2424927272.7273,0.0883,0.064
2017-12-31,36206937862.7336,0.24545316934300002,18542330014.3762,17664607848.3574,2958406545.6223,11551266350.7445,14810615338.1964,2853992510.161,7259109.3836,3016763395.6303,869886232.54,123679960.2435,0.0,2146877163.0904,0.0,2146877163.0904,1.9779,1.9779,9691249.614,9691249.614,0.0131,0.4879,0.0013,0.0835,0.0005,0.1048,5348011288.0038,3024022505.0139,2270557123.3339,0.0833,0.0593
2016-12-31,29071296098.4573,-0.0796148511288,14781325584.3767,14289970514.0806,2619862399.0428,9820400837.571,12440263236.6138,1849707277.4668,9067988.5475,1994196829.1953,706645015.1703,96748002.2221,0.0,1287551814.025,0.0,1287551814.025,1.179,1.179,9333555.1814,9333555.1814,0.0107,0.4915,0.0012,0.0689,0.0004,0.08800000000000001,4140746121.9606,2003264817.7428,1384299816.2472,0.0686,0.0443
2015-12-31,31586011719.237003,0.0148703633327,15508348917.4251,16077662801.8119,2730332876.2,10394996467.6059,13125329343.8058,2952333458.0061,4853925.1132,2795279059.1364,965008519.3035,92457299.5886,0.0,1830270539.8329,0.0,1830270539.8329,1.676,1.676,9074777.268,9074777.268,0.0097,0.509,0.0013,0.0887,0.0005,0.0594,5071894609.9821,2800132984.2497,1922727839.4215,0.0885,0.0579
2014-12-31,31123198450.2079,-0.12169953293199999,15579585497.4198,15543612952.7881,2580028056.5808,9928388917.6506,12508416974.2314,3035195978.5568,4175086.4243,3112919387.4313,985320396.1322,87192504.8849,0.0,2127598991.2991,0.0,2127598991.2991,1.9124,1.9124,9494141.5521,9494141.5521,0.01,0.4994,0.0014,0.1002,0.0006,0.0992,5317198015.9989,3117094473.8556,2214791496.184,0.1,0.0684
2013-12-31,35435707502.3742,-0.11929773786699999,18356685660.018997,17079021842.3552,2909059829.0598,10966951566.9516,13876011396.0114,3203010446.3438,5223171.8898,3215299145.2991,1026476733.1434,85783475.7835,0.0,2188822412.1557,0.0,2188822412.1557,1.9067,1.9067,10947685.5745,10947685.5745,0.0111,0.48200000000000004,0.0016,0.0909,0.0006,0.07400000000000001,5833751187.0845,3220522317.189,2274605887.9392,0.0907,0.0618
2012-12-31,40235740301.7864,-0.12709137037499998,21157680522.634,19078059779.1525,3427923917.4423,11905486500.5492,15333410417.9916,3744649361.1609,11817078.105999999,3869757761.4615,1273191882.9855,91125628.7217,0.0,2596565878.476,0.0,2596565878.476,2.2124,2.2124,13892954.4777,13892954.4777,0.0174,0.4742,0.002,0.0965,0.0008,0.0209,6866288951.8414,3881574839.5676,2687691507.1978,0.0962,0.0645
2011-12-31,46093873901.8891,0.00971532516816,23590530980.3312,22503342921.558,3988183161.0044,13616471015.0561,17604654176.0605,4898688745.4974,12801575.5785,4781738319.2101,1560224416.2844,70991733.3955,0.0,3221513902.9257,0.0,3221513902.9257,2.6496,2.6495,15917327.3342,15917327.3342,0.0179,0.4882,0.0023,0.10400000000000001,0.0009,0.066,8180776905.3357,4794539894.7887,3292505636.3212,0.1037,0.0699
2010-12-31,45650365754.5381,0.320548651972,23691694785.8427,21958670968.6954,3889276126.2038,13296704514.6671,17185980640.8709,4772690327.8244,23780202.4581,4762973818.3789,1726065860.4468,75121302.43100001,0.0,3036907957.9321,0.0,3036907957.9321,2.4594,2.4593,15202525.3442,15202525.3442,0.0163,0.48100000000000004,0.0022,0.1049,0.0008,0.14800000000000002,8188061870.3973,4786754020.8369,3112029260.363,0.1043,0.0665
2009-12-31,34569241872.5898,-0.2338,19193485145.5286,15375756727.0612,3281125449.7275,9756533166.7277,13037658616.4552,2338098110.606,3619363.5952,2324245427.3219,906155072.495,38628088.8468,0.0,1418090354.8269,0.0,1418090354.8269,1.1487,1.1487,13297802.7339,13297802.7339,0.0117,0.4448,0.0018,0.0673,0.0004,0.091,5725251524.226,2327864790.9171,1456718443.6737,0.0672,0.040999999999999995
