,0,1,2,3,4,5,6,7,8,9,10,11,12,13,14,15,16,17,18,19,20,21,22,23,24,25,26,27,28,29,30
Date,Revenue,Revenue Growth,Cost of Revenue,Gross Profit,R&D Expenses,SG&A Expense,Operating Expenses,Operating Income,Interest Expense,Earnings before Tax,Income Tax Expense,Net Income - Non-Controlling int,Net Income - Discontinued ops,Net Income,Preferred Dividends,Net Income Com,EPS,EPS Diluted,Weighted Average Shs Out,Weighted Average Shs Out (Dil),Dividend per Share,Gross Margin,EBITDA Margin,EBIT Margin,Profit Margin,Free Cash Flow margin,EBITDA,EBIT,Consolidated Income,Earnings Before Tax Margin,Net Profit Margin
2019-12-31,2482692000.0,0.0644681222348,561783000.0,1920909000.0,0.0,160199000.0,1692512000.0,103598000.0,0.0,140334000.0,13041000.0,0.0,0.0,127293000.0,0.0,127293000.0,2.9,2.86,43949000.0,44545000.0,1.3631608485799998,0.773720219826,0.0772270583705,0.041728091926,0.051272167469800005,0.0584027338067,191731000.0,103598000.0,127293000.0,0.056524933419,0.051272167469800005
2019-01-01,2332331000.0,0.0317756852239,532880000.0,1799451000.0,0.0,154770000.0,1555729000.0,118948000.0,0.0,107411000.0,8376000.0,0.0,0.0,99035000.0,0.0,99035000.0,2.19,2.14,45263000.0,46215000.0,1.21715893108,0.771524710686,0.0921498706659,0.050999622266300004,0.042461811809700004,0.080780129407,214924000.0,118948000.0,99035000.0,0.046053068796800004,0.042461811809700004
2018-01-02,2260502000.0,-0.006686677924649999,519388000.0,1741114000.0,0.0,141533000.0,1471919000.0,152845000.0,0.0,146466000.0,-10926000.0,0.0,0.0,157392000.0,0.0,157392000.0,3.35,3.27,46930000.0,48152000.0,1.03607326798,0.770233337551,0.108636931089,0.0676155119527,0.06962701205310001,0.0522083147903,245574000.0,152845000.0,157392000.0,0.0647935724012,0.06962701205310001
2017-01-03,2275719000.0,0.0833615394393,526628000.0,1749091000.0,0.0,146042000.0,1446405000.0,200993000.0,0.0,191768000.0,52274000.0,0.0,0.0,139494000.0,0.0,139494000.0,2.91,2.83,47981000.0,49372000.0,0.8581989791779999,0.7685883011040001,0.126994149981,0.08832065821830001,0.061296671513499996,0.08203956639639999,289003000.0,200993000.0,139494000.0,0.0842669942994,0.061296671513499996
2015-12-29,2100609000.0,0.0627256372482,504031000.0,1596578000.0,0.0,137402000.0,1322860000.0,165246000.0,0.0,159352000.0,42829000.0,0.0,0.0,116523000.0,0.0,116523000.0,2.39,2.3,48833000.0,50605000.0,0.710779567236,0.7600548221969999,0.119398231656,0.07866575835860001,0.055471056250800004,0.038789703367,250809000.0,165246000.0,116523000.0,0.07585990538930001,0.055471056250800004
2014-12-30,1976624000.0,0.0525658844141,490306000.0,1486318000.0,0.0,119094000.0,1243700000.0,144731000.0,0.0,138544000.0,37268000.0,0.0,0.0,101276000.0,0.0,101276000.0,2.04,1.96,49567000.0,51584000.0,0.5880117866,0.751947765483,0.11512862335000001,0.0732213106792,0.05123685637730001,0.06357658310330001,227566000.0,144731000.0,101276000.0,0.0700912262524,0.05123685637730001
2013-12-31,1877910000.0,0.038083113646800004,455685000.0,1422225000.0,0.0,114728000.0,1170368000.0,160954000.0,0.0,156450000.0,42094000.0,0.0,0.0,114356000.0,0.0,114356000.0,2.19,2.1,52229000.0,54377000.0,0.50004597532,0.757344601179,0.127541788478,0.08570911279030001,0.0608953570725,0.0524497979136,239512000.0,160954000.0,114356000.0,0.0833107017908,0.0608953570725
2013-01-01,1809017000.0,0.029240042238799998,450153000.0,1358864000.0,0.0,104156000.0,1123907000.0,138699000.0,0.0,133974000.0,35551000.0,0.0,0.0,98423000.0,0.0,98423000.0,1.85,1.78,53185000.0,55211000.0,0.231149589756,0.751161542429,0.117816471598,0.0766709212793,0.0544068961209,0.0602144700686,213132000.0,138699000.0,98423000.0,0.0740590055262,0.0544068961209
2012-01-03,1757624000.0,0.0591899260216,448468000.0,1309156000.0,0.0,96263000.0,1092063000.0,133450000.0,4918000.0,129143000.0,33423000.0,0.0,0.0,95720000.0,0.0,95720000.0,1.7,1.64,56378000.0,58190000.0,0.0,0.744844176001,0.116866861172,0.07592636422810001,0.054459884480400005,0.0678859642335,205408000.0,133450000.0,95720000.0,0.07347589700639999,0.054459884480400005
2010-12-28,1659404000.0,0.0358197775309,412855000.0,1246549000.0,0.0,95729000.0,1041045000.0,128211000.0,16808000.0,111089000.0,29376000.0,0.0,0.0,81713000.0,0.0,81713000.0,1.39,1.35,58905000.0,60446000.0,0.0,0.7512028415019999,0.120736722341,0.0772632824797,0.049242378588899995,0.07435741989289998,200351000.0,128211000.0,81713000.0,0.06694512005520001,0.049242378588899995
2009-12-29,1602020000.0,-0.0027,922987000.0,679033000.0,0.0,97432000.0,605316000.0,73717000.0,23433000.0,51307000.0,8474000.0,0.0,0.0,42833000.0,0.0,42833000.0,0.72,0.71,60236593.0,59362000.0,0.0,0.4239,0.094,0.0467,0.027000000000000003,0.0998,149924000.0,74740000.0,42833000.0,0.032,0.0267
