,0,1,2,3,4,5,6,7,8,9,10,11,12,13,14,15,16,17,18,19,20,21,22,23,24,25,26,27,28
Date,Cash and cash equivalents,Short-term investments,Cash and short-term investments,Receivables,Inventories,Total current assets,Property Plant & Equipment Net,Goodwill and Intangible Assets,Long-term investments,Tax assets,Total non-current assets,Total assets,Payables,Short-term debt,Total current liabilities,Long-term debt,Total debt,Deferred revenue,Tax Liabilities,Deposit Liabilities,Total non-current liabilities,Total liabilities,Other comprehensive income,Retained earnings (deficit),Total shareholders equity,Investments,Net Debt,Other Assets,Other Liabilities
2017-12-31,52638000.0,369000.0,53007000.0,2428000.0,1880000.0,63141000.0,2772000.0,42494000.0,0.0,2016000.0,77901000.0,141042000.0,3199000.0,0.0,51896000.0,0.0,0.0,42243000.0,10623000.0,0.0,84310000.0,104480000.0,0.0,28822000.0,36562000.0,369000.0,-52638000.0,0.0,0.0
2017-12,53000000.0,0.0,0.0,2000000.0,2000000.0,78000000.0,3000000.0,42000000.0,,32000000.0,53000000.0,141000000.0,3000000.0,,52000000.0,,,39000000.0,,,53000000.0,104000000.0,0.0,29000000.0,37000000.0,,-53000000.0,5000000.0,14000000.0
2016-12-31,52394000.0,447000.0,52841000.0,3171000.0,4441000.0,67269000.0,3805000.0,76039000.0,0.0,527000.0,107248000.0,174517000.0,2790000.0,0.0,61250000.0,0.0,0.0,48507000.0,1527000.0,0.0,81635000.0,116317000.0,0.0,53785000.0,58200000.0,447000.0,-52394000.0,0.0,0.0
2016-12,52000000.0,0.0,0.0,3000000.0,4000000.0,107000000.0,4000000.0,76000000.0,,27000000.0,54000000.0,175000000.0,3000000.0,,61000000.0,,,44000000.0,,,54000000.0,116000000.0,0.0,54000000.0,59000000.0,,-52000000.0,7000000.0,11000000.0
2015-12-31,78589000.0,367000.0,78956000.0,2925000.0,5723000.0,95103000.0,3302000.0,38991000.0,0.0,2747000.0,73733000.0,168836000.0,1086000.0,0.0,59924000.0,0.0,0.0,52554000.0,9929000.0,0.0,91933000.0,121168000.0,0.0,48094000.0,47668000.0,367000.0,-78589000.0,0.0,0.0
2015-12,79000000.0,0.0,0.0,3000000.0,6000000.0,74000000.0,3000000.0,39000000.0,,0.0,61000000.0,169000000.0,1000000.0,,60000000.0,,,50000000.0,,,61000000.0,121000000.0,0.0,48000000.0,48000000.0,,-79000000.0,36000000.0,11000000.0
2014-12,76000000.0,0.0,0.0,4000000.0,6000000.0,79000000.0,4000000.0,41000000.0,,0.0,68000000.0,194000000.0,3000000.0,,77000000.0,,,55000000.0,,,68000000.0,145000000.0,0.0,35000000.0,49000000.0,,-76000000.0,50000000.0,13000000.0
2013-12-31,0.0,0.0,0.0,0.0,0.0,0.0,0.0,0.0,0.0,0.0,0.0,0.0,0.0,0.0,0.0,0.0,0.0,0.0,0.0,0.0,0.0,0.0,0.0,0.0,0.0,0.0,0.0,0.0,0.0
2013-12,46000000.0,9000000.0,9000000.0,4000000.0,4000000.0,80000000.0,2000000.0,48000000.0,,0.0,66000000.0,172000000.0,4000000.0,,68000000.0,,,60000000.0,,,66000000.0,134000000.0,-1000000.0,31000000.0,37000000.0,,-46000000.0,47000000.0,6000000.0
2012-12-31,0.0,0.0,0.0,0.0,0.0,0.0,0.0,0.0,0.0,0.0,0.0,0.0,0.0,0.0,0.0,0.0,0.0,0.0,0.0,0.0,0.0,0.0,0.0,0.0,0.0,0.0,0.0,0.0,0.0
