,0,1,2,3,4,5,6,7,8,9,10,11,12,13,14
Date,Depreciation & Amortization,Stock-based compensation,Operating Cash Flow,Capital Expenditure,Acquisitions and disposals,Investment purchases and sales,Investing Cash flow,Issuance (repayment) of debt,Issuance (buybacks) of shares,Dividend payments,Financing Cash Flow,Effect of forex changes on cash,Net cash flow / Change in cash,Free Cash Flow,Net Cash/Marketcap
2018-12-31,2258000000.0,24000000.0,2609000000.0,0.0,-91000000.0,-216000000.0,-3426000000.0,-15000000.0,-216000000.0,-0.0,667000000.0,-16000000.0,-166000000.0,2609000000.0,0.0
2017-12-31,2240000000.0,13000000.0,2648000000.0,0.0,-21000000.0,-210000000.0,-2204000000.0,-9000000.0,-210000000.0,-0.0,-308000000.0,45000000.0,611000000.0,2648000000.0,0.0
2016-12-31,2167000000.0,27000000.0,2629000000.0,0.0,-55000000.0,-387000000.0,-2149000000.0,-20000000.0,-387000000.0,-0.0,-438000000.0,-4000000.0,38000000.0,2629000000.0,0.0
2015-12-31,2097000000.0,28000000.0,2584000000.0,0.0,-256000000.0,-393000000.0,-2830000000.0,-7000000.0,-393000000.0,-0.0,115000000.0,-41000000.0,-172000000.0,2584000000.0,0.0
2014-12-31,2061000000.0,34000000.0,2579000000.0,0.0,-0.0,-297000000.0,-2807000000.0,-17000000.0,-297000000.0,-0.0,182000000.0,-23000000.0,-69000000.0,2579000000.0,0.0
2013-12-31,1871000000.0,24000000.0,2253000000.0,0.0,-0.0,-48000000.0,-2242000000.0,-37000000.0,-48000000.0,-0.0,76000000.0,-8000000.0,87000000.0,2253000000.0,0.0
2012-12-31,1620000000.0,16000000.0,1889000000.0,0.0,-0.0,0.0,-2067000000.0,-16000000.0,-606000000.0,-0.0,250000000.0,6000000.0,72000000.0,1889000000.0,0.0
2011-12-31,1490000000.0,17000000.0,1578000000.0,0.0,-0.0,0.0,-2373000000.0,-78000000.0,-534000000.0,-0.0,424000000.0,-6000000.0,-377000000.0,1578000000.0,0.0
2010-12-31,1367000000.0,0.0,1640000000.0,0.0,-0.0,0.0,-1603000000.0,-46000000.0,0.0,-0.0,380000000.0,12000000.0,429000000.0,1640000000.0,0.0
2009-12-31,1487000000.0,0.0,1491000000.0,330000000.0,0.0,0.0,166000000.0,-1393000000.0,0.0,0.0,-1465000000.0,32000000.0,224000000.0,1821000000.0,-4.5012
