,0,1,2,3,4,5,6,7,8,9,10,11,12,13,14,15,16,17,18,19,20,21,22,23,24,25,26,27,28
Date,Cash and cash equivalents,Short-term investments,Cash and short-term investments,Receivables,Inventories,Total current assets,Property Plant & Equipment Net,Goodwill and Intangible Assets,Long-term investments,Tax assets,Total non-current assets,Total assets,Payables,Short-term debt,Total current liabilities,Long-term debt,Total debt,Deferred revenue,Tax Liabilities,Deposit Liabilities,Total non-current liabilities,Total liabilities,Other comprehensive income,Retained earnings (deficit),Total shareholders equity,Investments,Net Debt,Other Assets,Other Liabilities
2019-12-31,18305000.0,136701000.0,155006000.0,0.0,0.0,165656000.0,700000.0,0.0,63159000.0,816000.0,67303000.0,232959000.0,19665000.0,967000.0,42894000.0,3352000.0,4319000.0,22262000.0,0.0,0.0,4332000.0,46246000.0,587223000.0,-400727000.0,186713000.0,199860000.0,-13986000.0,0.0,-980000.0
2018-12-31,15081000.0,146302000.0,161383000.0,0.0,0.0,168139000.0,880000.0,0.0,21396000.0,664000.0,22684000.0,190823000.0,13622000.0,15184000.0,40447000.0,1562000.0,16746000.0,26825000.0,0.0,0.0,18308000.0,57193000.0,428059000.0,-294354000.0,133630000.0,167698000.0,1665000.0,0.0,-1562000.0
2017-12-31,9388000.0,83181000.0,92569000.0,123000.0,0.0,95058000.0,1177000.0,0.0,0.0,731000.0,1946000.0,97004000.0,8506000.0,0.0,8506000.0,1718000.0,1718000.0,0.0,0.0,0.0,3436000.0,10224000.0,307158000.0,-220341000.0,86780000.0,83181000.0,-7670000.0,0.0,-1718000.0
2016-12-31,12092000.0,46184000.0,58276000.0,87000.0,0.0,61445000.0,1614000.0,0.0,0.0,852000.0,2383000.0,63828000.0,11533000.0,0.0,11533000.0,1570000.0,1570000.0,0.0,0.0,0.0,3140000.0,13103000.0,212866000.0,-162171000.0,50725000.0,46184000.0,-10522000.0,0.0,-1570000.0
2015-12-31,15101000.0,91640000.0,106741000.0,80000.0,0.0,108934000.0,1263000.0,0.0,0.0,384000.0,1963000.0,110897000.0,5268000.0,0.0,5268000.0,585000.0,585000.0,0.0,0.0,0.0,1170000.0,5853000.0,209943000.0,-104891000.0,105044000.0,91640000.0,-14516000.0,0.0,-585000.0
2014-12-31,52663000.0,0.0,52663000.0,0.0,0.0,53150000.0,2084000.0,0.0,0.0,200000.0,2784000.0,55934000.0,1946000.0,0.0,3398000.0,874000.0,874000.0,1452000.0,0.0,0.0,1748000.0,4272000.0,131840000.0,-80201000.0,51662000.0,0.0,-51789000.0,0.0,-874000.0
2013-12-31,13057000.0,0.0,13057000.0,0.0,0.0,14558000.0,2825000.0,0.0,0.0,61000.0,3525000.0,18083000.0,1958000.0,0.0,5433000.0,0.0,0.0,3475000.0,0.0,0.0,66725000.0,72158000.0,0.0,-62456000.0,-54075000.0,0.0,-13057000.0,1501000.0,3475000.0
2012-12-31,1817000.0,0.0,1817000.0,0.0,0.0,1228000.0,3609000.0,0.0,0.0,31000.0,4309000.0,5537000.0,906000.0,780000.0,1686000.0,0.0,780000.0,0.0,0.0,0.0,61984000.0,63670000.0,0.0,-59384000.0,-58133000.0,0.0,-1037000.0,-589000.0,0.0
2011-12-31,5091000.0,0.0,5091000.0,18000.0,0.0,4558000.0,5427000.0,0.0,0.0,39000.0,6127000.0,10685000.0,2176000.0,753000.0,2929000.0,0.0,753000.0,0.0,0.0,0.0,59820000.0,62749000.0,0.0,-53113000.0,-52064000.0,0.0,-4338000.0,-551000.0,0.0
