,0,1,2,3,4,5,6,7,8,9,10,11,12,13,14,15,16,17,18,19,20,21,22,23,24,25,26,27,28,29,30
Date,Revenue,Revenue Growth,Cost of Revenue,Gross Profit,R&D Expenses,SG&A Expense,Operating Expenses,Operating Income,Interest Expense,Earnings before Tax,Income Tax Expense,Net Income - Non-Controlling int,Net Income - Discontinued ops,Net Income,Preferred Dividends,Net Income Com,EPS,EPS Diluted,Weighted Average Shs Out,Weighted Average Shs Out (Dil),Dividend per Share,Gross Margin,EBITDA Margin,EBIT Margin,Profit Margin,Free Cash Flow margin,EBITDA,EBIT,Consolidated Income,Earnings Before Tax Margin,Net Profit Margin
2019-03-31,17089000.0,-0.10430316054300001,994000.0,16095000.0,441000.0,416000.0,857000.0,-5936000.0,6141000.0,-5803000.0,133000.0,0.0,0.0,-5936000.0,0.0,-5936000.0,-1.6,-1.6,3698534.0,3698534.0,0.0,0.941833928258,-0.300953829949,-0.347357949558,-0.347357949558,-0.6814325004389999,-5143000.0,-5936000.0,-5936000.0,-0.33957516531099996,-0.347357949558
2018-03-31,19079000.0,-0.100386646548,763000.0,18316000.0,291000.0,763000.0,1054000.0,5354000.0,5280000.0,5321000.0,-33000.0,0.0,0.0,5354000.0,0.0,5354000.0,0.58,0.58,3698058.0,3701458.0,0.0,0.960008386184,0.32763771686099996,0.280622674144,0.280622674144,-0.345248702762,6251000.0,5354000.0,5354000.0,0.278893023743,0.280622674144
2017-03-31,21208000.0,28.2121212121,831000.0,20377000.0,311000.0,831000.0,1142000.0,-2853000.0,4918000.0,-2734000.0,119000.0,0.0,0.0,-2853000.0,0.0,-2853000.0,-0.77,-0.77,3696420.0,3696420.0,0.0,0.960816672954,-0.0936439079593,-0.134524707657,-0.134524707657,0.026640890230099995,-1986000.0,-2853000.0,-2853000.0,-0.12891361750299998,-0.134524707657
2016-03-31,726000.0,-0.43369734789399994,0.0,0.0,0.0,237000.0,237000.0,-170000.0,4539000.0,-42000.0,128000.0,0.0,0.0,-170000.0,0.0,-170000.0,-0.05,-0.05,3696420.0,3700420.0,0.0,0.0,1.71487603306,-0.23415977961399997,-0.23415977961399997,-0.115702479339,1245000.0,-170000.0,-170000.0,-0.0578512396694,-0.23415977961399997
2015-03-31,1282000.0,0.280719280719,0.0,0.0,0.0,167000.0,167000.0,364000.0,3942000.0,249000.0,166000.0,0.0,0.0,83000.0,0.0,83000.0,0.1,0.1,3696359.0,3696612.0,0.0,0.0,1.10452418097,0.283931357254,0.0647425897036,2.76443057722,1416000.0,364000.0,83000.0,0.194227769111,0.0647425897036
2014-03-31,1001000.0,0.5007496251870001,0.0,0.0,0.0,172000.0,172000.0,-836000.0,3951000.0,-844000.0,102000.0,0.0,0.0,-946000.0,0.0,-946000.0,-0.23,-0.23,3696000.0,3697000.0,0.0,0.0,0.242757242757,-0.835164835165,-0.945054945055,15.225774225799999,243000.0,-836000.0,-946000.0,-0.8431568431569999,-0.945054945055
2013-03-31,667000.0,-0.31449126413199996,0.0,0.0,0.0,36000.0,36000.0,662000.0,4878000.0,45000.0,328000.0,0.0,0.0,-283000.0,0.0,-283000.0,0.18,0.18,3696000.0,3696000.0,0.0,0.0,2.68965517241,0.9925037481260001,-0.424287856072,30.169415292399997,1794000.0,662000.0,-283000.0,0.0674662668666,-0.424287856072
2012-03-31,973000.0,-0.8611190408220001,0.0,0.0,0.0,12087000.0,12087000.0,-23739000.0,8053000.0,-23739000.0,-961000.0,0.0,0.0,-23407000.0,0.0,-23407000.0,-14.26,-14.26,0.0,0.0,0.0,0.0,-22.9126413155,-24.3977389517,-24.0565262076,32.2538540596,-22294000.0,-23739000.0,-23407000.0,-24.3977389517,-24.0565262076
2011-03-31,7006000.0,-0.7374358205600001,0.0,7006000.0,0.0,19143000.0,30758000.0,-23752000.0,0.0,-23809000.0,15718000.0,57000.0,0.0,-39527000.0,0.0,-39527000.0,-242.25,-242.25,165619.0,165619.0,0.75,1.0,-3.161,-3.3984,-5.642,0.5431,-22148000.0,-23809000.0,-39470000.0,-3.3984,-5.6419
2010-03-31,26683000.0,-0.0459,0.0,26683000.0,0.0,19781000.0,30570000.0,-3887000.0,0.0,-3887000.0,-2866000.0,0.0,0.0,-1021000.0,0.0,-1021000.0,-0.79,-0.79,164981.0,164981.0,6.0,1.0,-0.051,-0.1457,-0.038,0.1705,-1358000.0,-3887000.0,-1021000.0,-0.1457,-0.0383
