,0,1,2,3,4,5,6,7,8,9,10,11,12,13,14,15,16,17,18,19,20,21,22,23,24,25,26,27,28
Date,Cash and cash equivalents,Short-term investments,Cash and short-term investments,Receivables,Inventories,Total current assets,Property Plant & Equipment Net,Goodwill and Intangible Assets,Long-term investments,Tax assets,Total non-current assets,Total assets,Payables,Short-term debt,Total current liabilities,Long-term debt,Total debt,Deferred revenue,Tax Liabilities,Deposit Liabilities,Total non-current liabilities,Total liabilities,Other comprehensive income,Retained earnings (deficit),Total shareholders equity,Investments,Net Debt,Other Assets,Other Liabilities
2019-12-31,9899000.0,26345000.0,36244000.0,0.0,0.0,38958000.0,2349000.0,0.0,0.0,0.0,2822000.0,41780000.0,1197000.0,1225000.0,5032000.0,1028000.0,2253000.0,0.0,0.0,0.0,1028000.0,6060000.0,259305000.0,-223597000.0,35720000.0,26345000.0,-7646000.0,0.0,0.0
2018-12-31,15294000.0,22276000.0,37570000.0,0.0,0.0,38915000.0,56000.0,0.0,0.0,0.0,254000.0,39169000.0,1408000.0,0.0,4171000.0,9000.0,9000.0,0.0,0.0,0.0,65000.0,4227000.0,232243000.0,-197304000.0,34942000.0,22276000.0,-15285000.0,0.0,0.0
2017-12-31,16369000.0,0.0,16369000.0,0.0,0.0,17463000.0,321000.0,0.0,0.0,0.0,434000.0,17897000.0,773000.0,2479000.0,6016000.0,89000.0,2568000.0,0.0,0.0,0.0,178000.0,6105000.0,183202000.0,-171434000.0,11792000.0,0.0,-13801000.0,0.0,0.0
2016-12-31,23596000.0,14931000.0,38527000.0,0.0,0.0,39528000.0,568000.0,0.0,0.0,0.0,681000.0,40209000.0,1405000.0,3243000.0,8325000.0,2479000.0,5722000.0,0.0,0.0,0.0,2798000.0,11123000.0,173141000.0,-144070000.0,29086000.0,14931000.0,-17874000.0,0.0,0.0
2015-12-31,62780000.0,0.0,62780000.0,0.0,0.0,63584000.0,504000.0,0.0,0.0,0.0,639000.0,64223000.0,1328000.0,3205000.0,7811000.0,5742000.0,8947000.0,0.0,0.0,0.0,5919000.0,13730000.0,158488000.0,-108010000.0,50493000.0,0.0,-53833000.0,0.0,0.0
2014-12-31,14781000.0,0.0,14781000.0,0.0,0.0,15022000.0,288000.0,0.0,0.0,0.0,942000.0,15964000.0,1132000.0,309000.0,4234000.0,4439000.0,4748000.0,0.0,0.0,0.0,4637000.0,8871000.0,0.0,-75380000.0,-73053000.0,0.0,-10033000.0,241000.0,2793000.0
2013-12-31,30587000.0,0.0,30587000.0,0.0,0.0,30581000.0,308000.0,0.0,0.0,0.0,421000.0,31002000.0,651000.0,0.0,2930000.0,0.0,0.0,0.0,0.0,0.0,80256000.0,83186000.0,0.0,-53496000.0,-52184000.0,0.0,-30587000.0,-6000.0,2279000.0
