,0,1,2,3,4,5,6,7,8,9,10,11,12,13,14,15,16,17,18,19,20,21,22,23,24,25,26,27,28,29,30
Date,Revenue,Revenue Growth,Cost of Revenue,Gross Profit,R&D Expenses,SG&A Expense,Operating Expenses,Operating Income,Interest Expense,Earnings before Tax,Income Tax Expense,Net Income - Non-Controlling int,Net Income - Discontinued ops,Net Income,Preferred Dividends,Net Income Com,EPS,EPS Diluted,Weighted Average Shs Out,Weighted Average Shs Out (Dil),Dividend per Share,Gross Margin,EBITDA Margin,EBIT Margin,Profit Margin,Free Cash Flow margin,EBITDA,EBIT,Consolidated Income,Earnings Before Tax Margin,Net Profit Margin
2017-12-31,,0.0,,-10195472.0,,,78780681.0,-20405282.0,-87819.0,,,0.0,0.0,,0.0,,,,,23237205.0,0.0,,-0.336,,-0.368,,,-20405282.0,,,
2016-12-31,,0.0,,-2045991.0,,,20626290.0,-12256919.0,153.0,,,0.0,0.0,,0.0,,,,,17786374.0,0.0,,-1.047,,-1.22,,,-12256919.0,,,
2016-09-30,,0.0,,-1730188.0,,,22492131.0,-12122687.0,153.0,,,0.0,-1831237.0,,0.0,,,,,12718388.0,0.0,,1.561,,1.1420000000000001,,,-12122687.0,,,
2015-09-30,,0.0,,949861.0,,,17553418.0,-3649004.0,153.0,,,0.0,-64497429.0,,0.0,,,,,12619597.0,0.0,,0.511,,0.307,,,-3649004.0,,,
2014-09-30,,0.0,,9559685.0,,,20203904.0,-10644219.0,16800404.0,,,0.0,-397516.0,,0.0,,,,,12619597.0,0.0,,-0.426,,-0.625,,,54592795.0,,,
2013-09-30,,0.0,,-16607055.0,,,84072501.0,-100679556.0,11522580.0,,,0.0,0.0,,0.0,,,,,12619063.0,0.0,,-0.165,,-0.32,,,-98386535.0,,,
2012-09-30,,0.0,,1218174.0,,,54943806.0,-53725632.0,10904320.0,,,0.0,0.0,,0.0,,,,,12589009.0,0.0,,0.027999999999999997,,-0.11199999999999999,,,-52509309.0,,,
2011-09-30,,0.0,,26304034.0,,,40476523.0,-14172489.0,10828983.0,,,0.0,0.0,,0.0,,,,,12487631.0,0.0,,-0.040999999999999995,,-0.153,,,-12406261.0,,,
2010-09-30,,0.0,,22663398.0,,,50430595.0,-27767197.0,9005984.0,,,0.0,0.0,,0.0,,,,,11392826.0,0.0,,0.033,,-0.066,,,-27130748.0,,,
2009-09-30,,,,26756412.0,,,33809063.0,-7052651.0,9355983.0,,,,,,,,,,,,,,,,,,,-5888092.0,,,
