,0,1,2,3,4,5,6,7,8,9,10,11,12,13,14,15,16,17,18,19,20,21,22,23,24,25,26,27,28,29,30
Date,Revenue,Revenue Growth,Cost of Revenue,Gross Profit,R&D Expenses,SG&A Expense,Operating Expenses,Operating Income,Interest Expense,Earnings before Tax,Income Tax Expense,Net Income - Non-Controlling int,Net Income - Discontinued ops,Net Income,Preferred Dividends,Net Income Com,EPS,EPS Diluted,Weighted Average Shs Out,Weighted Average Shs Out (Dil),Dividend per Share,Gross Margin,EBITDA Margin,EBIT Margin,Profit Margin,Free Cash Flow margin,EBITDA,EBIT,Consolidated Income,Earnings Before Tax Margin,Net Profit Margin
2018-12-31,352000.0,-0.990984459616,0.0,0.0,0.0,20122843.0,20122843.0,14917670.0,8225519.0,14917670.0,3000270.0,0.0,0.0,11917400.0,0.0,11917400.0,1.41,1.4,8439454.0,8538608.0,0.197739139682,0.0,44.11391477270001,42.379744318200004,33.85625,34.5132159091,15528098.0,14917670.0,11917400.0,42.379744318200004,33.85625
2017-12-31,39043694.0,0.0246140228991,0.0,0.0,0.0,19222594.0,19222594.0,14528431.0,6872729.0,14528431.0,6777453.0,0.0,0.0,7750978.0,210600.0,7750978.0,0.89,0.87,8439258.0,8633581.0,0.0977501687886,0.0,0.37811181493199997,0.372106978402,0.19852061129299997,0.286864173252,14762882.0,14528431.0,7750978.0,0.372106978402,0.19852061129299997
2016-12-31,38105758.0,2.5581742209200002,0.0,0.0,0.0,18482693.0,18482693.0,12524543.0,6483331.0,12524543.0,3851333.0,0.0,0.0,8673210.0,1493310.0,8673210.0,0.85,0.84,8439258.0,8513295.0,0.18685432608600003,0.0,0.327757631799,0.328678490007,0.227608908869,0.265803189114,12489453.0,12524543.0,8673210.0,0.328678490007,0.227608908869
2015-12-31,10709357.0,-0.7179024803290001,0.0,0.0,0.0,17589631.0,17589631.0,8372697.0,6569247.0,12160500.0,3787803.0,0.0,0.0,8372697.0,2375010.0,8372697.0,0.71,0.71,8439258.0,8458461.0,0.29405751235399996,0.0,0.768745873352,0.781811363651,0.781811363651,1.0156835746500001,8232774.0,8372697.0,8372697.0,1.13550234622,0.781811363651
2014-12-31,37963315.0,0.00727637916293,0.0,0.0,0.0,17507926.0,17507926.0,7531625.0,6798787.0,0.0,3268287.0,0.0,0.0,7531625.0,2688604.0,7531625.0,0.57,0.57,8439258.0,8439258.0,0.65085686443,0.0,0.240413093535,0.198392184666,0.198392184666,0.34468696951300004,9126878.0,7531625.0,7531625.0,0.0,0.198392184666
2013-12-31,37689075.0,0.0390486205361,0.0,0.0,0.0,16691972.0,16691972.0,4629045.0,7496646.0,0.0,2334864.0,0.0,0.0,4629045.0,1508761.0,4629045.0,0.37,0.37,8439258.0,8439258.0,0.0,0.0,0.163348052453,0.12282193182,0.12282193182,0.461164833576,6156437.0,4629045.0,4629045.0,0.0,0.12282193182
2012-12-31,36272677.0,0.036740195475300004,0.0,0.0,0.0,15564893.0,15564893.0,2641298.0,11016750.0,0.0,1200851.0,0.0,0.0,2641298.0,1435385.0,2641298.0,0.14,0.14,8439258.0,8439258.0,0.0,0.0,0.11904602464299999,0.0728178402713,0.0728178402713,0.605450047153,4318118.0,2641298.0,2641298.0,0.0,0.0728178402713
2011-12-31,34987239.0,0.032944465037099996,0.0,0.0,0.0,14632693.0,14632693.0,3637478.0,16805573.0,3637478.0,1103883.0,0.0,0.0,2533595.0,1400000.0,2533595.0,0.13,0.13,8439258.0,8439258.0,0.0,0.0,0.254796984695,0.103965848806,0.0724148310188,0.42192729183300004,8914643.0,3637478.0,2533595.0,0.103965848806,0.0724148310188
2010-12-31,33871365.0,4.97856540335,0.0,33871365.0,0.0,21831728.0,33856363.0,15002.0,0.0,15002.0,-459214.0,0.0,0.0,474216.0,1400000.0,-925784.0,-0.11,-0.11,8444308.0,8149217.0,0.0,1.0,0.183,0.0004,-0.027000000000000003,0.7931,6199532.0,15002.0,474216.0,0.0004,0.013999999999999999
2009-12-31,5665467.0,-0.8306,0.0,5665467.0,0.0,22158254.0,34844222.0,-29178755.0,0.0,-29178755.0,-9994881.0,0.0,0.0,-19183874.0,1365000.0,-20548874.0,-2.85,-2.85,7229163.0,7213430.0,0.146,1.0,-4.109,-5.1503,-3.627,2.4516,-23278899.0,-29178755.0,-19183874.0,-5.1503,-3.3861
