,0,1,2,3,4,5,6,7,8,9,10,11,12,13,14,15,16,17,18,19,20,21,22,23,24,25,26,27,28,29,30
Date,Revenue,Revenue Growth,Cost of Revenue,Gross Profit,R&D Expenses,SG&A Expense,Operating Expenses,Operating Income,Interest Expense,Earnings before Tax,Income Tax Expense,Net Income - Non-Controlling int,Net Income - Discontinued ops,Net Income,Preferred Dividends,Net Income Com,EPS,EPS Diluted,Weighted Average Shs Out,Weighted Average Shs Out (Dil),Dividend per Share,Gross Margin,EBITDA Margin,EBIT Margin,Profit Margin,Free Cash Flow margin,EBITDA,EBIT,Consolidated Income,Earnings Before Tax Margin,Net Profit Margin
2018-12-31,6000.0,-0.994106090373,0.0,0.0,21474000.0,12354000.0,33828000.0,-33822000.0,0.0,0.0,0.0,0.0,0.0,-30055000.0,0.0,-30055000.0,-2.68,-2.68,11213884.0,11213884.0,0.0,0.0,-5612.16666667,-5637.0,-5009.16666667,-4821.5,-33673000.0,-33822000.0,-30055000.0,0.0,-5009.16666667
2017-12-31,1018000.0,1.5513784461200002,0.0,0.0,12847000.0,9993000.0,22840000.0,-21822000.0,0.0,0.0,0.0,0.0,0.0,-21561000.0,3951000.0,-21561000.0,-7.45,-7.45,3423901.0,3423901.0,0.0,0.0,-21.2662082515,-21.4361493124,-21.179764243599998,-19.6100196464,-21649000.0,-21822000.0,-21561000.0,0.0,-21.179764243599998
2016-12-31,399000.0,-0.772,0.0,0.0,11555000.0,9262000.0,20817000.0,-20418000.0,0.0,0.0,0.0,0.0,0.0,-16945000.0,0.0,-16945000.0,-21.75,-21.75,779166.0,779166.0,0.0,0.0,-50.1979949875,-51.1729323308,-42.4686716792,-47.4686716792,-20029000.0,-20418000.0,-16945000.0,0.0,-42.4686716792
2015-12-31,1750000.0,5.36363636364,0.0,0.0,5958000.0,9594000.0,15552000.0,-13802000.0,1478000.0,0.0,0.0,0.0,0.0,-14762000.0,0.0,-14762000.0,-3.33,-3.33,4429093.0,4429093.0,0.0,0.0,-7.618285714289999,-7.88685714286,-8.43542857143,-11.08,-13332000.0,-13802000.0,-14762000.0,0.0,-8.43542857143
2014-12-31,275000.0,-0.924221548636,0.0,0.0,19499000.0,10172000.0,29989000.0,-29714000.0,23000.0,0.0,3484000.0,0.0,0.0,-32623000.0,0.0,-32623000.0,-0.97,-0.97,33780433.0,33780433.0,0.0,0.0,-106.774545455,-108.05090909100001,-118.629090909,-125.407272727,-29363000.0,-29714000.0,-32623000.0,0.0,-118.629090909
2013-12-31,3629000.0,-0.9372796405120001,0.0,0.0,38840000.0,12005000.0,50845000.0,-47216000.0,53000.0,0.0,7000.0,0.0,0.0,-46705000.0,0.0,-46705000.0,-1.39,-1.39,33640323.0,33640323.0,0.0,0.0,-12.8600165335,-13.0107467622,-12.8699366217,-11.2163130339,-46669000.0,-47216000.0,-46705000.0,0.0,-12.8699366217
2012-12-31,57860000.0,-0.40739678605400004,0.0,0.0,49087000.0,13193000.0,65998000.0,-8138000.0,86000.0,0.0,-101000.0,0.0,0.0,-6998000.0,0.0,-6998000.0,-0.21,-0.21,33476316.0,33476316.0,0.0,0.0,-0.10241963359799999,-0.140649844452,-0.120947113723,-1.11600414794,-5926000.0,-8138000.0,-6998000.0,0.0,-0.120947113723
2011-12-31,97637000.0,0.139115420065,0.0,0.0,95215000.0,12167000.0,107382000.0,-9745000.0,132000.0,-8529000.0,0.0,0.0,0.0,-8529000.0,0.0,-8529000.0,-0.27,-0.27,31637283.0,31637283.0,0.0,0.0,-0.0650777881336,-0.09980847424639999,-0.08735417925580001,-0.8720976678919999,-6354000.0,-9745000.0,-8529000.0,-0.08735417925580001,-0.08735417925580001
2010-12-31,85713000.0,2.420038305,0.0,85713000.0,64546000.0,8052000.0,72598000.0,13115000.0,153000.0,14425000.0,3526000.0,0.0,0.0,10899000.0,0.0,10899000.0,39.9,37.8,272881.0,271842.0,0.0,1.0,0.193,0.1701,0.127,1.5754,16575000.0,14578000.0,10899000.0,0.1683,0.1272
2009-12-31,25062000.0,0.2478,691000.0,24371000.0,40179000.0,8167000.0,64696000.0,-40325000.0,217000.0,-39492000.0,-88000.0,0.0,0.0,-39404000.0,0.0,-39404000.0,-161.7,-161.7,263814.0,244156.0,0.0,0.9724,-1.494,-1.5671,-1.5719999999999998,-0.9764,-37440000.0,-39275000.0,-39404000.0,-1.5758,-1.5723
