,0,1,2,3,4,5,6,7,8,9,10,11,12,13,14,15,16,17,18,19,20,21,22,23,24,25,26,27,28,29,30
Date,Revenue,Revenue Growth,Cost of Revenue,Gross Profit,R&D Expenses,SG&A Expense,Operating Expenses,Operating Income,Interest Expense,Earnings before Tax,Income Tax Expense,Net Income - Non-Controlling int,Net Income - Discontinued ops,Net Income,Preferred Dividends,Net Income Com,EPS,EPS Diluted,Weighted Average Shs Out,Weighted Average Shs Out (Dil),Dividend per Share,Gross Margin,EBITDA Margin,EBIT Margin,Profit Margin,Free Cash Flow margin,EBITDA,EBIT,Consolidated Income,Earnings Before Tax Margin,Net Profit Margin
2019-12-31,768696000.0,-0.104665153275,0.0,0.0,0.0,64181000.0,173177000.0,-108777000.0,206261000.0,-131721000.0,3153000.0,0.0,0.0,-108777000.0,33669000.0,-108777000.0,-0.89,-0.89,173445.0,173445.0,149.667041425,0.0,0.20225941074200002,-0.14150847669299998,-0.14150847669299998,0.355677667114,155476000.0,-108777000.0,-108777000.0,-0.17135642698800002,-0.14150847669299998
2018-12-31,858557000.0,-0.0740844991437,122017000.0,736540000.0,0.0,61506000.0,774835000.0,-78568000.0,220038000.0,-99229000.0,-1551000.0,0.0,0.0,-78568000.0,44892000.0,-78568000.0,-0.72,-0.72,172486000.0,172486000.0,0.7989807868459999,0.857881305493,0.249027146712,-0.091511687634,-0.091511687634,0.439390745169,213804000.0,-78568000.0,-78568000.0,-0.11557648473,-0.091511687634
2017-12-31,927252000.0,-0.0982293337172,128030000.0,799222000.0,0.0,58466000.0,694690000.0,232562000.0,218680000.0,158982000.0,-1933000.0,0.0,0.0,120940000.0,44892000.0,120940000.0,0.44,0.44,171070000.0,171070000.0,1.05968901619,0.861925344998,0.5767763240199999,0.250807763154,0.130428405655,0.464164002882,534817000.0,232562000.0,120940000.0,0.17145500899399999,0.130428405655
2016-12-31,1028257000.0,-0.0253654440019,137760000.0,890497000.0,0.0,63332000.0,774629000.0,253628000.0,216318000.0,195531000.0,-2063000.0,0.0,0.0,172882000.0,44892000.0,172882000.0,0.75,0.75,170762000.0,170836000.0,1.0592615139700001,0.866025711471,0.5342886068370001,0.246658179813,0.16813111897100003,0.45570222230400004,549386000.0,253628000.0,172882000.0,0.19015771349,0.16813111897100003
2015-12-31,1055018000.0,-0.00539340968891,141030000.0,913988000.0,0.0,62118000.0,777434000.0,277584000.0,229343000.0,119015000.0,2941000.0,0.0,0.0,103371000.0,44892000.0,103371000.0,0.34,0.34,170476000.0,170499000.0,1.0596073877299999,0.8663245556,0.549861708521,0.263108307157,0.09798031881920001,0.469200525489,580114000.0,277584000.0,103371000.0,0.11280850184499999,0.09798031881920001
2014-12-31,1060739000.0,0.006751927868069999,149774000.0,910965000.0,0.0,50271000.0,685596000.0,375143000.0,239824000.0,252979000.0,4499000.0,0.0,0.0,219150000.0,44892000.0,219150000.0,1.02,1.02,170247000.0,170247000.0,0.979782316282,0.85880221242,0.632756031408,0.353661928146,0.20660124686700002,0.44125934843500003,671189000.0,375143000.0,219150000.0,0.238493163728,0.20660124686700002
2013-12-31,1053625000.0,0.0183493775613,151127000.0,902498000.0,0.0,48867000.0,722860000.0,330765000.0,231856000.0,115317000.0,1305000.0,0.0,0.0,85204000.0,44892000.0,85204000.0,0.24,0.24,167027000.0,167027000.0,0.906170858604,0.856564717048,0.589545616325,0.313930478111,0.0808674813145,0.441097164551,621160000.0,330765000.0,85204000.0,0.109447858583,0.0808674813145
2012-12-31,1034640000.0,-0.030636910450300002,145827000.0,888813000.0,0.0,51251000.0,655471000.0,379169000.0,244432000.0,193224000.0,1404000.0,0.0,0.0,131600000.0,47511000.0,131600000.0,0.54,0.54,154762000.0,154807000.0,0.863914422474,0.859055323591,0.632525322818,0.366474329235,0.127193999845,0.465393760148,654436000.0,379169000.0,131600000.0,0.186754813268,0.127193999845
2011-12-31,1067340000.0,-0.00416494060481,154047000.0,913293000.0,0.0,44751000.0,709673000.0,357667000.0,271334000.0,155754000.0,-269000.0,0.0,0.0,133936000.0,42376000.0,133936000.0,0.62,0.62,148289000.0,148334000.0,0.829506384241,0.855672044522,0.6027788708380001,0.335101279817,0.125485787097,0.413959937789,643370000.0,357667000.0,133936000.0,0.145927258418,0.125485787097
2010-12-31,1071804000.0,-0.00107273837207,0.0,0.0,0.0,43383000.0,701302000.0,370502000.0,286579000.0,97800000.0,-6417000.0,0.0,0.0,62151000.0,32619000.0,62151000.0,0.21,0.21,138375.0,138416.0,648.255981967,0.0,0.623531914417,0.345680740135,0.05798728125659999,0.400998690059,668304000.0,370502000.0,62151000.0,0.0912480266914,0.05798728125659999
2009-12-31,1072955000.0,-0.0523,253882000.0,819073000.0,0.0,41010000.0,532194000.0,286879000.0,290964000.0,-16211000.0,-1222000.0,7924000.0,5023000.0,-14989000.0,21818000.0,-36807000.0,-0.35,-0.35,137877757.0,106366000.0,0.58,0.7634,0.547,0.2561,-0.034,0.4023,587258000.0,274753000.0,-7065000.0,-0.0151,-0.013999999999999999
