,0,1,2,3,4,5,6,7,8,9,10,11,12,13,14,15,16,17,18,19,20,21,22,23,24,25,26,27,28
Date,Cash and cash equivalents,Short-term investments,Cash and short-term investments,Receivables,Inventories,Total current assets,Property Plant & Equipment Net,Goodwill and Intangible Assets,Long-term investments,Tax assets,Total non-current assets,Total assets,Payables,Short-term debt,Total current liabilities,Long-term debt,Total debt,Deferred revenue,Tax Liabilities,Deposit Liabilities,Total non-current liabilities,Total liabilities,Other comprehensive income,Retained earnings (deficit),Total shareholders equity,Investments,Net Debt,Other Assets,Other Liabilities
2018-12-31,3600000.0,503810.0,4103810.0,251846.0,0.0,4476287.0,27747.0,0.0,0.0,0.0,58120.0,4534407.0,139120.0,0.0,911921.0,0.0,0.0,0.0,504000.0,0.0,8459.0,5986352.0,163161523.0,-164058585.0,-1451945.0,503810.0,-3600000.0,0.0,5065972.0
2017-12-31,4230548.0,4561357.0,8791905.0,554468.0,0.0,9579990.0,18588.0,0.0,0.0,0.0,49272.0,9629262.0,201396.0,84429.0,2213398.0,0.0,84429.0,0.0,493000.0,0.0,7494.0,7429536.0,163106400.0,-160446612.0,2199726.0,4561357.0,-4146119.0,0.0,5208644.0
2016-12-31,6901816.0,8343657.0,15245473.0,352700.0,0.0,15887941.0,37376.0,0.0,0.0,0.0,67929.0,15955870.0,336435.0,110487.0,3109089.0,0.0,110487.0,0.0,482000.0,0.0,0.0,8431900.0,158773753.0,-150740156.0,7523970.0,8343657.0,-6791329.0,0.0,5322811.0
2015-12-31,5918424.0,13701273.0,19619697.0,631084.0,0.0,20693423.0,122958.0,0.0,0.0,0.0,187181.0,20880604.0,197134.0,0.0,5842752.0,0.0,0.0,11892.0,468000.0,0.0,0.0,10992422.0,158220132.0,-147978831.0,9888182.0,13701273.0,-5918424.0,0.0,5149670.0
2014-12-31,3103969.0,0.0,3103969.0,267199.0,0.0,3545347.0,244537.0,0.0,0.0,0.0,6268885.0,9814232.0,1057743.0,2640968.0,6529080.0,1499050.0,4140018.0,156317.0,453000.0,0.0,70034050.0,11421629.0,132693988.0,-133935562.0,-1607397.0,0.0,1036049.0,0.0,-65141501.0
2013-12-31,10048466.0,305538.0,10354004.0,458391.0,0.0,11156781.0,457912.0,0.0,0.0,64226000.0,3538860.0,14695641.0,794397.0,351527.0,5985753.0,7522.0,359049.0,1069438.0,445000.0,0.0,15044.0,24218586.0,125508471.0,-135564666.0,-9522945.0,305538.0,-9689417.0,0.0,18217789.0
2012-12-31,25652083.0,2633944.0,28286027.0,41896.0,0.0,29405963.0,986553.0,0.0,0.0,54373000.0,2604070.0,32010033.0,1523875.0,71679.0,11426723.0,97602.0,169281.0,0.0,437000.0,0.0,3510122.0,25676866.0,123864830.0,-118301789.0,6333167.0,2633944.0,-25482802.0,0.0,10740021.0
2011-12-31,22872589.0,5520000.0,28392589.0,1740629.0,0.0,31010107.0,1084204.0,0.0,0.0,0.0,1116694.0,32126801.0,909144.0,0.0,9881305.0,0.0,0.0,0.0,0.0,0.0,0.0,23066129.0,108865645.0,-100067647.0,9060672.0,5520000.0,-22872589.0,0.0,13184824.0
2010-12-31,10918537.0,459364.0,11377901.0,5382121.0,0.0,17751084.0,941124.0,1162287.0,0.0,0.0,2135519.0,19886603.0,1261493.0,0.0,30418631.0,0.0,0.0,2317218.0,0.0,0.0,1968107.0,32386738.0,-30544.0,-96053977.0,-15698008.0,459364.0,-11377901.0,991062.0,29157138.0
2009-12-31,986582.0,0.0,986582.0,3391347.0,0.0,4735477.0,1860321.0,929976.0,0.0,0.0,1818371.0,6553848.0,1208632.0,0.0,13354342.0,0.0,0.0,2329616.0,0.0,0.0,0.0,13354342.0,0.0,-69687932.0,-6800494.0,0.0,-986582.0,357548.0,12145710.0
