,0,1,2,3,4,5,6,7,8,9,10,11,12,13,14
Date,Depreciation & Amortization,Stock-based compensation,Operating Cash Flow,Capital Expenditure,Acquisitions and disposals,Investment purchases and sales,Investing Cash flow,Issuance (repayment) of debt,Issuance (buybacks) of shares,Dividend payments,Financing Cash Flow,Effect of forex changes on cash,Net cash flow / Change in cash,Free Cash Flow,Net Cash/Marketcap
2018-12-31,23225351.0,23130570.0,103941952.0,-31618586.0,97702278.0,-620055845.0,-558945397.0,0.0,581449534.0,0.0,571304139.0,3243017.0,119543711.0,72323366.0,0.9946
2017-12-31,12908690.0,33903283.0,102183885.0,-37439526.0,0.0,-22669000.0,-60895217.0,-402780.0,867546.0,0.0,-18324385.0,12607032.0,35571315.0,64744359.0,0.115
2016-12-31,12738036.0,24405511.0,123258611.0,51007209.0,-0.0,0.0,-52520361.0,-0.0,0.0,-7921952.0,-22083938.0,-9826672.0,38827640.0,72251402.0,0.0
2015-12-31,9033740.0,12114272.0,109392000.0,52291524.0,-0.0,0.0,-89755807.0,-66300000.0,0.0,-0.0,51579709.0,-7098233.0,64117669.0,57100476.0,0.0
2014-12-31,7747454.0,5396271.0,93514318.0,21871559.0,-0.0,-70000000.0,-13407612.0,-33700000.0,-70000000.0,-8846984.0,-142827560.0,-597409.0,-63318263.0,71642759.0,0.0
2013-12-31,7462384.0,5050796.0,74302995.0,21819307.0,-0.0,-29594080.0,-25567595.0,-8014000.0,-29594080.0,-16931149.0,-38524650.0,4318420.0,14529170.0,52483688.0,0.0
2012-12-31,8880738.0,4544927.0,71097317.0,-13802911.0,0.0,1109115.0,-26753193.0,-3210700.0,5227317.0,0.0,-5104076.0,957434.0,40197482.0,57294406.0,0.115
2011-12-31,7648469.0,4896232.0,38469919.0,-7912161.0,0.0,1209880.0,-7127252.0,7748000.0,300000.0,0.0,-10076504.0,3204304.0,24470467.0,30557758.0,0.115
2010-12-31,7173453.0,2341783.0,38787226.0,-10313432.0,-4063325.0,0.0,-15851475.0,-5162777.0,1330086.0,0.0,-14278870.0,2440536.0,11097417.0,28473794.0,0.115
2009-12-31,6068155.0,62281.0,50300987.0,-3485997.0,1573079.0,-2841333.0,-6860454.0,3375829.0,3999770.0,0.0,1564925.0,23877.0,45029335.0,46814990.0,0.115
