,0,1,2,3,4,5,6,7,8,9,10,11,12,13,14
Date,Depreciation & Amortization,Stock-based compensation,Operating Cash Flow,Capital Expenditure,Acquisitions and disposals,Investment purchases and sales,Investing Cash flow,Issuance (repayment) of debt,Issuance (buybacks) of shares,Dividend payments,Financing Cash Flow,Effect of forex changes on cash,Net cash flow / Change in cash,Free Cash Flow,Net Cash/Marketcap
2019-08-02,107537000.0,8181000.0,362796000.0,138293000.0,-0.0,0.0,-126918000.0,-400000000.0,0.0,-193475000.0,-198994000.0,0.0,36884000.0,224503000.0,0.0
2018-08-03,93692000.0,6977000.0,330620000.0,152249000.0,-0.0,-14772000.0,-151222000.0,-0.0,-14772000.0,-207155000.0,-225743000.0,0.0,-46345000.0,178371000.0,0.0
2017-07-28,86319000.0,8458000.0,320767000.0,110591000.0,-0.0,0.0,-109605000.0,-0.0,0.0,-196867000.0,-201127000.0,0.0,10035000.0,210176000.0,0.0
2016-07-29,78223000.0,13202000.0,271378000.0,114022000.0,-0.0,-14653000.0,152940000.0,-0.0,-14653000.0,-255546000.0,-273352000.0,0.0,150966000.0,157356000.0,0.0
2015-07-31,72955000.0,16210000.0,334055000.0,90855000.0,-0.0,0.0,30747000.0,-3537000.0,0.0,-95699000.0,-99347000.0,0.0,265455000.0,243200000.0,0.0
2014-08-01,68389000.0,7924000.0,177625000.0,91646000.0,-0.0,-12473000.0,-88815000.0,-0.0,-12473000.0,-71484000.0,-91167000.0,0.0,-2357000.0,85979000.0,0.0
2013-08-02,66120000.0,17839000.0,208499000.0,74417000.0,-0.0,-3570000.0,-73406000.0,-0.0,-3570000.0,-45400000.0,-165337000.0,0.0,-30244000.0,134082000.0,0.0
2012-08-03,64467000.0,14420000.0,219822000.0,80922000.0,-0.0,-14923000.0,-79547000.0,-263000.0,-14923000.0,-22372000.0,-40587000.0,0.0,99688000.0,138900000.0,0.0
2011-07-29,62788000.0,9796000.0,138212000.0,77962000.0,-0.0,-33563000.0,-69489000.0,-5125000.0,-33563000.0,-19846000.0,-64149000.0,0.0,4574000.0,60250000.0,0.0
2010-07-30,61024000.0,8130000.0,212106000.0,-69867000.0,0.0,0.0,-69626000.0,-64972000.0,-25027000.0,-18545000.0,-106389000.0,0.0,36091000.0,142239000.0,-0.4617
2009-07-31,59286000.0,6009000.0,164124000.0,-9349000.0,0.0,0.0,-9087000.0,-142330000.0,4362000.0,-17607000.0,-155406000.0,0.0,-369000.0,154775000.0,-0.9714
