,0,1,2,3,4,5,6,7,8,9,10,11,12,13,14
Date,Depreciation & Amortization,Stock-based compensation,Operating Cash Flow,Capital Expenditure,Acquisitions and disposals,Investment purchases and sales,Investing Cash flow,Issuance (repayment) of debt,Issuance (buybacks) of shares,Dividend payments,Financing Cash Flow,Effect of forex changes on cash,Net cash flow / Change in cash,Free Cash Flow,Net Cash/Marketcap
2019-12-31,1300000.0,431000.0,13671000.0,1213000.0,-0.0,9343000.0,-164546000.0,10000000.0,0.0,-0.0,154466000.0,0.0,3591000.0,12458000.0,0.0
2018-12-31,1095000.0,310000.0,14402000.0,1149000.0,-0.0,-86000.0,-139121000.0,-0.0,0.0,-0.0,133919000.0,0.0,9200000.0,13253000.0,0.0
2017-12-31,993000.0,285000.0,7617000.0,-1057000.0,0.0,-60704000.0,-61761000.0,5000000.0,21000.0,0.0,59654000.0,0.0,5510000.0,6560000.0,0.7859999999999999
2016-12-31,895000.0,143000.0,7117000.0,-911000.0,0.0,-118766000.0,-118686000.0,8129000.0,-4000.0,0.0,113205000.0,0.0,1636000.0,6206000.0,0.7859999999999999
2014-12-31,,,4122000.0,-5310000.0,,,-114660000.0,1000000.0,-4000.0,0.0,114561000.0,,,,
