,0,1,2,3,4,5,6,7,8,9,10,11,12,13,14,15,16,17,18,19,20,21,22,23,24,25,26,27,28,29,30
Date,Revenue,Revenue Growth,Cost of Revenue,Gross Profit,R&D Expenses,SG&A Expense,Operating Expenses,Operating Income,Interest Expense,Earnings before Tax,Income Tax Expense,Net Income - Non-Controlling int,Net Income - Discontinued ops,Net Income,Preferred Dividends,Net Income Com,EPS,EPS Diluted,Weighted Average Shs Out,Weighted Average Shs Out (Dil),Dividend per Share,Gross Margin,EBITDA Margin,EBIT Margin,Profit Margin,Free Cash Flow margin,EBITDA,EBIT,Consolidated Income,Earnings Before Tax Margin,Net Profit Margin
2018-10-31,83093000.0,0.5302,,82682000.0,,,,12708000.0,,12708000.0,,,,,,,0.52,0.52,24418000.0,,,0.9951,,,,,,,,0.1529,
2017-10-31,54302000.0,43.292,,53855000.0,,,,84534000.0,,84534000.0,,,,,,,3.47,3.47,24385000.0,,,0.9918,,,,,,,,1.5567,
2016-10-31,1226000.0,-0.9543,,788000.0,,,,-1535000.0,,-1535000.0,,,,,,,-0.06,-0.06,24385000.0,,,0.6427,,,,,,,,-1.252,
2015-10-31,26798000.0,,,26337000.0,,,,-33231000.0,,-33231000.0,,,,,,,-1.36,-1.36,24385000.0,,,0.9828,,,,,,,,-1.2401,
