,0,1,2,3,4,5,6,7,8,9,10,11,12,13,14,15,16,17,18,19,20,21,22,23,24,25,26,27,28
Date,Cash and cash equivalents,Short-term investments,Cash and short-term investments,Receivables,Inventories,Total current assets,Property Plant & Equipment Net,Goodwill and Intangible Assets,Long-term investments,Tax assets,Total non-current assets,Total assets,Payables,Short-term debt,Total current liabilities,Long-term debt,Total debt,Deferred revenue,Tax Liabilities,Deposit Liabilities,Total non-current liabilities,Total liabilities,Other comprehensive income,Retained earnings (deficit),Total shareholders equity,Investments,Net Debt,Other Assets,Other Liabilities
2018-12-31,355172413.7931,14942528.7356,370114942.5287,2025287356.3218,796551724.1379,3437931034.4828,4468965517.2414,12531034482.7586,2298850.5747,66666666.6667,17500000000.0,20937931034.4828,3470114942.5287,564367816.092,4358620689.6552,5893103448.2759,6457471264.3678,0.0,2605747126.4368,0.0,9034482758.6207,13393103448.2759,0.0,7668965517.2414,7544827586.2069,17241379.3103,,238045977.0116,324137931.0345
2017-12-31,432172869.1477,24009603.8415,456182472.9892,2169267707.0828,780312124.8499,3978391356.5426,4606242496.9988,13090036014.4058,2400960.3842,97238895.5582,17863145258.1032,21841536614.6459,3254501800.7203,328931572.6291,3945978391.3565,6571428571.4286,6900360144.0576,0.0,2788715486.1945,0.0,9870348139.2557,13816326530.6122,0.0,8126050420.1681,8025210084.0336,26410564.2257,,568237695.0781,362545018.0071
2016-12-31,406315789.4737,24210526.3158,430526315.7895,2057894736.8421,708421052.6316,3605263157.8947,4203157894.7368,11337894736.8421,36842105.2632,305263157.8947,15940000000.0,19545263157.8947,2715789473.6842,921052631.5789,3949473684.2105,5854736842.1053,6775789473.6842,0.0,2412631578.9474,0.0,8794736842.1053,12744210526.3158,0.0,6814736842.1053,6801052631.5789,61052631.5789,,,312631578.9474
2015-12-31,169381107.4919,21715526.6015,191096634.0934,1370249728.5559,402823018.4582,2044516829.5331,1837133550.4886,3564603691.6395,23887079.2617,102062975.0271,5551574375.6786,7596091205.2117,1603691639.5223,453854505.9718,2178067318.1325,3389793702.4973,3843648208.4691,0.0,882736156.3518,0.0,4472312703.5831,6650380021.7155,0.0,1765472312.7036,945711183.4962,45602605.8632,,,120521172.6384
2014-12-31,222760290.5569,81113801.4528,303874092.0097,1583535108.9588,452784503.63199997,2430992736.0775,2025423728.8136,3837772397.0944,0.0,184019370.46,6101694915.2542,8532687651.3317,1848668280.8717,633171912.8329,2608958837.7724,3306295399.5157,3939467312.3487,0.0,998789346.247,0.0,4486682808.7167,7095641646.4891,0.0,1631961259.0799,1437046004.8426,81113801.4528,,,127118644.0678
