,0,1,2,3,4,5,6,7,8,9,10,11,12,13,14,15,16,17,18,19,20,21,22,23,24,25,26,27,28,29,30
Date,Revenue,Revenue Growth,Cost of Revenue,Gross Profit,R&D Expenses,SG&A Expense,Operating Expenses,Operating Income,Interest Expense,Earnings before Tax,Income Tax Expense,Net Income - Non-Controlling int,Net Income - Discontinued ops,Net Income,Preferred Dividends,Net Income Com,EPS,EPS Diluted,Weighted Average Shs Out,Weighted Average Shs Out (Dil),Dividend per Share,Gross Margin,EBITDA Margin,EBIT Margin,Profit Margin,Free Cash Flow margin,EBITDA,EBIT,Consolidated Income,Earnings Before Tax Margin,Net Profit Margin
2017-12-31,128864570.7376,-0.15107690052699999,118171402.6602,10693168.0774,12356106.4087,30908555.0181,52702992.7449,-42009824.6675,2821191.0519999997,-46782496.977,9015719.468,-303053.2044,0.0,-55798216.445,0.0,-55798216.445,-2.104,-2.104,,64327349.7582,0.0,0.083,-0.0499,-0.3411,-0.0654,-0.2205,-42579050.786,-43961305.925,-56101269.6493,-0.363,-0.433
2016-12-31,151797696.1843,-0.272089840161,155192224.622,-3394528.4377,14977393.8085,50339812.815,129447948.1641,-132842476.6019,1677033.8373,-130921238.3009,608927.2858,-111735.0612,0.0,-131530165.5868,0.0,-131530165.5868,-5.1605,-5.1605,,58774617.9986,0.0,-0.0224,-0.1014,-0.8514,-0.1247,-0.4436,-106893592.5126,-129244204.4636,-131641900.6479,-0.8625,-0.8665
2015-12-31,208539054.0749,-0.0668813876019,160439377.5998,48099676.4751,15885071.6377,49012324.7574,66427206.9019,-18327530.4267,2027114.4662,-17147588.9693,-3483900.7857,-6778.6165,0.0,-13663688.1836,0.0,-13663688.1836,-0.5423,-0.5423,,62725236.3272,0.0,0.2307,0.0063,-0.0725,-0.0102,0.2884,8498844.554,-15120474.5032,-13670466.8002,-0.0822,-0.0655
2014-12-31,223486115.5957,0.228801612341,156047465.289,67438650.3067,18789312.2376,43888601.8728,70262189.2154,-2823538.9086,1327090.733,-1604455.9251,-500000.0,0.0,0.0,-1104455.9251,0.0,-1104455.9251,-0.0517,-0.0517,,65127854.0523,0.0,0.3018,0.0108,-0.0012,-0.0008,-0.0925,15031966.4191,-277365.1921,-1104455.9251,-0.0072,-0.0049
2013-12-31,181873227.8272,0.393777618098,124730794.5928,57142433.2344,16931091.3287,41942631.0584,62784371.908999994,-5641938.6746,590834.1576,-5429277.9426,213484.9984,0.0,0.0,-5642762.941000001,0.0,-5642762.941000001,-0.2374,-0.2374,,59827982.1958,0.0,0.3142,0.0046,-0.0266,-0.0051,-0.0273,5032311.243,-4838443.785,-5642762.941000001,-0.0299,-0.031
2012-12-31,130489416.2925,0.330168202794,89714560.6158,40774855.6767,10988293.7781,27417575.3688,42333707.5048,-1558851.8281,214881.3342,-1715522.771,1009140.4747,0.0,0.0,-2724663.2457,0.0,-2724663.2457,-0.1283,-0.1283,,58335611.7704,0.0,0.3125,0.0099,-0.0115,-0.0034,-0.0864,8103271.3278,-1500641.4368,-2724663.2457,-0.0131,-0.0209
2011-12-31,98099936.5482,0.638901680563,68644670.0508,29455266.4975,6496192.8934,20518401.0152,28969384.5178,485881.9797,198921.3198,5013959.3909,1767925.1269,0.0,-5072493.6548,3246034.264,0.0,3246034.264,0.1269,0.1269,,60593990.6409,0.0,0.3003,0.0257,0.0531,0.0052,-0.0306,15896732.2335,5212880.7107,3246034.264,0.0511,0.0331
2010-12-31,59857121.2121,0.572133137825,41735606.0606,18121515.1515,4347272.7273,17903333.3333,27986666.6667,-9865151.5152,100606.0606,-10098636.3636,-1652121.2121,0.0,-89696.9697,-8446515.1515,5526212.1212,-13972727.2727,-1.4061,-1.4061,,24183541.5152,0.0,0.3027,-0.0021,-0.16699999999999998,-0.0353,0.1236,-825909.0909,-9998030.303,-8446515.1515,-0.1687,-0.1411
2009-12-31,38073824.5203,-0.1084,28769591.3285,9304233.1917,2437234.51,9051999.4141,11489233.9241,-2185000.7324,1912992.5297,-5470777.7941,266295.591,0.0,1356964.9919,-5737073.3851,5284458.7667,-11021532.1518,-1.828,-1.828,,14185506.5182,0.0,0.2444,0.025,-0.0934,-0.0423,0.0815,6496411.307999999,-3557785.2644,-5737073.3851,-0.1437,-0.1507
