,0,1,2,3,4,5,6,7,8,9,10,11,12,13,14
Date,Depreciation & Amortization,Stock-based compensation,Operating Cash Flow,Capital Expenditure,Acquisitions and disposals,Investment purchases and sales,Investing Cash flow,Issuance (repayment) of debt,Issuance (buybacks) of shares,Dividend payments,Financing Cash Flow,Effect of forex changes on cash,Net cash flow / Change in cash,Free Cash Flow,Net Cash/Marketcap
2019-11-30,0.0,0.0,0.0,0.0,-0.0,0.0,0.0,-0.0,0.0,-0.0,0.0,0.0,0.0,0.0,0.0
2018-11-30,2017000000.0,65000000.0,5549000000.0,3749000000.0,-0.0,-1468000000.0,-3502000000.0,-1973000000.0,-1468000000.0,-1355000000.0,-1460000000.0,-1000000.0,587000000.0,1800000000.0,0.0
2017-11-30,1846000000.0,63000000.0,5322000000.0,2944000000.0,-0.0,-552000000.0,-3089000000.0,-1198000000.0,-552000000.0,-1087000000.0,-2452000000.0,11000000.0,-208000000.0,2378000000.0,0.0
2016-11-30,1738000000.0,55000000.0,5134000000.0,3062000000.0,-0.0,-2340000000.0,-3323000000.0,-1725000000.0,-2340000000.0,-977000000.0,-2591000000.0,-12000000.0,-792000000.0,2072000000.0,0.0
2015-11-30,1626000000.0,55000000.0,4545000000.0,2294000000.0,-0.0,-533000000.0,-2478000000.0,-605000000.0,-533000000.0,-816000000.0,-942000000.0,-61000000.0,1064000000.0,2251000000.0,0.0
2014-11-30,1635000000.0,52000000.0,3430000000.0,2583000000.0,-0.0,0.0,-2507000000.0,-3083000000.0,0.0,-776000000.0,-1028000000.0,-26000000.0,-131000000.0,847000000.0,0.0
2013-11-30,1588000000.0,42000000.0,2834000000.0,2149000000.0,-0.0,-138000000.0,-2057000000.0,-2216000000.0,-138000000.0,-1164000000.0,-780000000.0,-1000000.0,-3000000.0,685000000.0,0.0
2012-11-30,1527000000.0,39000000.0,2999000000.0,2332000000.0,-0.0,-90000000.0,-1794000000.0,-828000000.0,-90000000.0,-779000000.0,-1190000000.0,-22000000.0,15000000.0,667000000.0,0.0
2011-11-30,1522000000.0,46000000.0,3766000000.0,2696000000.0,-0.0,-454000000.0,-2652000000.0,-787000000.0,-454000000.0,-671000000.0,-1093000000.0,-6000000.0,21000000.0,1070000000.0,0.0
2010-11-30,1416000000.0,43000000.0,3818000000.0,3579000000.0,-0.0,-524000000.0,-3501000000.0,-2468000000.0,-524000000.0,-237000000.0,-404000000.0,-22000000.0,-109000000.0,239000000.0,0.0
2009-11-30,1309000000.0,50000000.0,3342000000.0,-3380000000.0,0.0,0.0,-3384000000.0,155000000.0,8000000.0,-314000000.0,-93000000.0,23000000.0,-112000000.0,-38000000.0,-0.3544
