,0,1,2,3,4,5,6,7,8,9,10,11,12,13,14,15,16,17,18,19,20,21,22,23,24,25,26,27,28,29,30
Date,Revenue,Revenue Growth,Cost of Revenue,Gross Profit,R&D Expenses,SG&A Expense,Operating Expenses,Operating Income,Interest Expense,Earnings before Tax,Income Tax Expense,Net Income - Non-Controlling int,Net Income - Discontinued ops,Net Income,Preferred Dividends,Net Income Com,EPS,EPS Diluted,Weighted Average Shs Out,Weighted Average Shs Out (Dil),Dividend per Share,Gross Margin,EBITDA Margin,EBIT Margin,Profit Margin,Free Cash Flow margin,EBITDA,EBIT,Consolidated Income,Earnings Before Tax Margin,Net Profit Margin
2018-12-31,27626338.6397,-0.44776870767399995,-24766425.4703,52392764.11,0.0,45379450.0724,40533719.2475,11859044.8625,6690593.342999999,-29062807.5253,4927785.8177,-3534298.1187,0.0,-33990593.343,0.0,-33990593.343,-1.1994,-1.1994,18826624.7467,18828478.5818,0.0,1.8965,-0.0831,-0.8098,-0.17800000000000002,-3.5589999999999997,-15857597.6845,-22372214.1823,-37524891.4616,-1.052,-1.2304
2017-12-31,50026753.3253,-0.236475310314,-35214480.0484,85241233.3736,0.0,42511185.006,51148881.4994,34092351.8742,13597188.6336,-38169740.0242,4804866.9891,-206166.8682,0.0,-42974607.0133,0.0,-42974607.0133,-0.9941,-0.9941,19663237.1524,19663237.1524,0.0,1.7039,-0.0334,-0.4912,-0.1298,-0.551,-11051844.0145,-24572551.3906,-43180773.8815,-0.763,-0.8590000000000001
2016-12-31,65520806.3355,-0.310128301705,-41258891.2887,106779697.6242,0.0,39740964.7228,47019870.4104,59759827.2138,12862059.0353,-28996544.2765,8709287.257000001,-463210.9431,0.0,-37705831.5335,0.0,-37705831.5335,-0.8648,-0.8648,19149632.9734,18809484.0893,0.0,1.6297,0.005,-0.2462,-0.0828,-0.4067,2268826.4939,-16134485.2412,-38169042.4766,-0.4426,-0.5755
2015-12-31,94975350.4853,-0.0306577694449,54434755.8157,40540594.6695,0.0,37862733.0149,39420120.1664,1120474.5032,8198120.4745,-659220.4591,11404252.0413,-150207.9803,0.0,-12063472.5004,0.0,-12063472.5004,-0.2684,-0.2684,20772808.5041,20728203.9747,0.1525,0.4269,0.0515,0.0794,-0.0196,-0.5775,31764905.2534,7538900.0154,-12213680.4807,-0.0069,-0.127
2014-12-31,97979173.3936,0.0554365749027,44327090.733,53652082.6606,0.0,24002583.145,24299967.7107,29352114.95,8632547.6267,33186793.6713,13052954.4721,-716338.392,-4113012.5928,20133839.1992,0.0,20133839.1992,0.4461,0.4461,21768856.9583,21768856.9583,0.2599,0.5476,0.1216,0.4268,0.0331,0.6728,73796900.22600001,41819341.298,19417500.8072,0.3387,0.2055
2013-12-31,92832838.7735,0.270502166332,35881140.7847,56951697.9888,0.0,31185789.6472,31058028.3548,25893669.634,6080448.4009,24683646.5546,10523903.7257,874216.9469,-1774645.5654,14159742.8289,0.0,14159742.8289,0.3168,0.3168,22335543.6861,22267914.9357,0.0,0.6135,0.1072,0.3314,0.0252,0.2076,60378997.6921,30764094.9555,15033959.7758,0.2659,0.1525
2012-12-31,73067831.9436,0.0233148849147,26382777.4214,46685054.5221,0.0,18444034.6376,16848460.5516,29836593.9705,1996792.8159,29679281.5908,8699326.4913,585150.7377,-1217767.7999,20979955.0994,0.0,20979955.0994,0.4575,0.4575,22827699.1661,22163434.4131,0.0,0.6389,0.1219,0.4335,0.046,-0.045,55501763.9513,31676074.4067,21565105.8371,0.4062,0.2871
2011-12-31,71403077.4112,0.20983639240200003,25288071.066,46115006.3452,0.0,18731123.0964,71702887.0558,-25587880.7107,1023794.4162,-26758090.1015,7347715.7360000005,579156.0914,0.0,-34105805.8376,0.0,-34105805.8376,-0.7194,-0.7194,22581461.2944,22565268.7183,0.027000000000000003,0.6458,-0.0149,-0.3604,-0.0758,-0.2676,-6715418.7817,-25734295.6853,-33526649.7462,-0.3747,-0.4777
2010-12-31,59018787.8788,0.377810067325,18590909.0909,40427878.7879,0.0,12718030.303,13123484.8485,27304393.9394,1128484.8485,26253484.8485,6647424.2424,230000.0,0.0,19606060.6061,0.0,19606060.6061,0.405,0.405,22341742.4242,22127362.7273,0.0,0.685,0.1129,0.46399999999999997,0.0503,-0.5408,43954242.4242,27381969.696999997,19836060.6061,0.4448,0.3322
2009-12-31,42835213.1244,0.7015,12825692.1049,30009521.0195,0.0,5492309.9458,5492309.9458,24517211.0737,1009374.5423,23615497.2902,5331185.0007,0.0,0.0,18284312.2894,11485132.5619,6799179.7276,0.2727,0.2727,21598872.1254,10934345.8327,0.0,0.7006,0.1233,0.5749,0.0233,0.1004,36075582.247,24624871.8324,18284312.2894,0.5513,0.4269
