,0,1,2,3,4,5,6,7,8,9,10,11,12,13,14,15,16,17,18,19,20,21,22,23,24,25,26,27,28,29,30
Date,Revenue,Revenue Growth,Cost of Revenue,Gross Profit,R&D Expenses,SG&A Expense,Operating Expenses,Operating Income,Interest Expense,Earnings before Tax,Income Tax Expense,Net Income - Non-Controlling int,Net Income - Discontinued ops,Net Income,Preferred Dividends,Net Income Com,EPS,EPS Diluted,Weighted Average Shs Out,Weighted Average Shs Out (Dil),Dividend per Share,Gross Margin,EBITDA Margin,EBIT Margin,Profit Margin,Free Cash Flow margin,EBITDA,EBIT,Consolidated Income,Earnings Before Tax Margin,Net Profit Margin
2019-09-30,1037696000.0,0.7584401895880001,595043000.0,442653000.0,51707000.0,213078000.0,332157000.0,110496000.0,45681000.0,63106000.0,23891000.0,0.0,0.0,39215000.0,0.0,39215000.0,1.37,1.35,28571052.0,29094027.0,1.5922168491799997,0.426572907672,0.218600630628,0.106482052547,0.03779045115330001,0.114685803935,226841000.0,110496000.0,39215000.0,0.0608135716048,0.03779045115330001
2018-09-30,590123000.0,0.163539894199,276018000.0,314105000.0,51950000.0,102037000.0,153987000.0,160118000.0,2905000.0,46254000.0,51668000.0,0.0,0.0,110043000.0,0.0,110043000.0,4.31,4.19,25517825.0,26243164.0,1.17097160998,0.532270391088,0.315178361121,0.271329875297,0.186474684091,0.250044482252,185994000.0,160118000.0,110043000.0,0.0783802698759,0.186474684091
2017-09-30,507179000.0,0.178255728321,253050000.0,254129000.0,55658000.0,86483000.0,142141000.0,111988000.0,4529000.0,33272000.0,22420000.0,0.0,0.0,86952000.0,0.0,86952000.0,3.47,3.4,25015458.0,25512487.0,0.746340409698,0.5010637270080001,0.27193160600099997,0.220805672159,0.171442429596,0.236987335832,137918000.0,111988000.0,86952000.0,0.0656020852598,0.171442429596
2016-09-30,430449000.0,0.039488332443800005,220247000.0,210202000.0,58532000.0,77162000.0,135694000.0,74508000.0,4723000.0,7130000.0,10589000.0,0.0,0.0,59849000.0,0.0,59849000.0,2.47,2.43,24076549.0,24476993.0,0.353719919763,0.48833195105599997,0.233567739732,0.173093676603,0.139038538828,0.18013980750300002,100539000.0,74508000.0,59849000.0,0.0165640993474,0.139038538828
2015-09-30,414097000.0,-0.024887794172400002,201866000.0,212231000.0,59778000.0,77413000.0,137191000.0,75040000.0,4524000.0,15305000.0,15051000.0,0.0,0.0,56146000.0,0.0,56146000.0,2.32,2.26,24039692.0,24631815.0,0.0,0.512515183641,0.226417964873,0.18121358039299998,0.135586589615,0.20375419285799998,93759000.0,75040000.0,56146000.0,0.036959939337900004,0.135586589615
2014-09-30,424666000.0,-0.0195437408082,221573000.0,203093000.0,59354000.0,71931000.0,131285000.0,71808000.0,3354000.0,68594000.0,17843000.0,0.0,0.0,50751000.0,0.0,50751000.0,2.12,2.04,23704024.0,24610908.0,0.0,0.478241724084,0.216049789717,0.16909288711599998,0.11950803690400001,0.129341647318,91749000.0,71808000.0,50751000.0,0.161524586381,0.11950803690400001
2013-09-30,433131000.0,0.012799977552100002,221015000.0,212116000.0,61373000.0,74272000.0,135645000.0,76471000.0,3643000.0,74220000.0,22835000.0,0.0,0.0,51385000.0,0.0,51385000.0,2.22,2.14,22924056.0,23760066.0,0.0,0.489727126435,0.223784490143,0.17655397558699998,0.118636163193,0.163576377586,96928000.0,76471000.0,51385000.0,0.17135693358399998,0.118636163193
2012-09-30,427657000.0,-0.0399266346685,223630000.0,204027000.0,58642000.0,78861000.0,137503000.0,66524000.0,0.0,62871000.0,22045000.0,0.0,0.0,40826000.0,0.0,40826000.0,1.81,1.75,22506000.0,23280000.0,0.0,0.477080931681,0.210610372331,0.155554568264,0.09546435578050001,0.109482599373,90069000.0,66524000.0,40826000.0,0.147012676046,0.09546435578050001
2011-09-30,445442000.0,0.0912320156002,231336000.0,214106000.0,58035000.0,75686000.0,133721000.0,80385000.0,0.0,78912000.0,27250000.0,0.0,0.0,51662000.0,0.0,51662000.0,2.26,2.2,22896000.0,23435000.0,0.0,0.480659659394,0.234322313567,0.180461204826,0.11597918472,0.147076387049,104377000.0,80385000.0,51662000.0,0.177154377001,0.11597918472
2010-09-30,408201000.0,0.40096165726300004,204704000.0,203497000.0,51818000.0,77668000.0,129486000.0,74011000.0,0.0,73277000.0,23819000.0,0.0,0.0,49458000.0,0.0,49458000.0,2.14,2.13,23084000.0,23273000.0,0.0,0.498521561682,0.24253982719300002,0.18131018787300002,0.121160898675,0.18796622252300002,99005000.0,74011000.0,49458000.0,0.179512054111,0.121160898675
2009-09-30,291372000.0,-0.2232,162918000.0,128454000.0,48150000.0,62871000.0,112431000.0,16023000.0,0.0,16622000.0,5435000.0,0.0,0.0,11187000.0,0.0,11187000.0,0.48,0.48,23428632.0,23079000.0,0.0,0.4409,0.142,0.057,0.038,0.1243,41454000.0,16622000.0,11187000.0,0.057,0.0384
