,0,1,2,3,4,5,6,7,8,9,10,11,12,13,14
Date,Depreciation & Amortization,Stock-based compensation,Operating Cash Flow,Capital Expenditure,Acquisitions and disposals,Investment purchases and sales,Investing Cash flow,Issuance (repayment) of debt,Issuance (buybacks) of shares,Dividend payments,Financing Cash Flow,Effect of forex changes on cash,Net cash flow / Change in cash,Free Cash Flow,Net Cash/Marketcap
2019-12-31,319624000.0,15770000.0,214526000.0,232464000.0,-0.0,0.0,-220042000.0,-5716036000.0,-65439000.0,-740000.0,220009000.0,-287000.0,214206000.0,-17938000.0,0.0
2018-12-31,329682000.0,8517000.0,187275000.0,211079000.0,-0.0,0.0,-203592000.0,-632000.0,-182456000.0,-30678000.0,40686000.0,-9810000.0,202869000.0,-23804000.0,0.0
2017-12-31,336518000.0,9590000.0,147588000.0,224238000.0,-0.0,0.0,-175901000.0,-748000.0,-144119000.0,-332824000.0,-379513000.0,9950000.0,-397876000.0,-76650000.0,0.0
2016-12-31,354696000.0,10238000.0,310293000.0,229772000.0,-0.0,0.0,551499000.0,-2334000.0,-541995000.0,-755538000.0,-726499000.0,-6041000.0,129252000.0,80521000.0,0.0
2015-12-31,384732000.0,8359000.0,298933000.0,23640000.0,-0.0,-234000.0,-257725000.0,-56000.0,-234000.0,-0.0,199054000.0,-13723000.0,226539000.0,275293000.0,0.0
2014-12-31,414903000.0,7743000.0,348423000.0,573000.0,-0.0,0.0,-206431000.0,-48000.0,0.0,-175022000.0,-261309000.0,-9024000.0,-128341000.0,347850000.0,0.0
2013-12-31,411732000.0,7725000.0,414640000.0,10483000.0,-0.0,-61143000.0,-177679000.0,-6626000.0,-61143000.0,-200010000.0,-484393000.0,-2000.0,-247434000.0,404157000.0,0.0
2012-12-31,410227000.0,10589000.0,355138000.0,5719000.0,-0.0,-7040000.0,-233748000.0,-2700786000.0,-7040000.0,-2170396000.0,-105549000.0,3483000.0,19324000.0,349419000.0,0.0
2011-12-31,432035000.0,10913000.0,517218000.0,14794000.0,-0.0,0.0,-298934000.0,-20099000.0,-542655000.0,-0.0,-298744000.0,-903000.0,-81363000.0,502424000.0,0.0
2010-12-31,413588000.0,12337000.0,525217000.0,-187520000.0,0.0,0.0,-198705000.0,-48793000.0,0.0,0.0,-314463000.0,2533000.0,14582000.0,337697000.0,-0.3882
2009-12-31,439647000.0,12104000.0,441264000.0,-157809000.0,0.0,0.0,-162864000.0,-2152000.0,0.0,0.0,231656000.0,4568000.0,514624000.0,283455000.0,-0.5411
