,0,1,2,3,4,5,6,7,8,9,10,11,12,13,14,15,16,17,18,19,20,21,22,23,24,25,26,27,28,29,30
Date,Revenue,Revenue Growth,Cost of Revenue,Gross Profit,R&D Expenses,SG&A Expense,Operating Expenses,Operating Income,Interest Expense,Earnings before Tax,Income Tax Expense,Net Income - Non-Controlling int,Net Income - Discontinued ops,Net Income,Preferred Dividends,Net Income Com,EPS,EPS Diluted,Weighted Average Shs Out,Weighted Average Shs Out (Dil),Dividend per Share,Gross Margin,EBITDA Margin,EBIT Margin,Profit Margin,Free Cash Flow margin,EBITDA,EBIT,Consolidated Income,Earnings Before Tax Margin,Net Profit Margin
2019-12-31,546159000.0,0.0499160888363,219801000.0,326358000.0,0.0,146913000.0,182879000.0,100257000.0,57453000.0,52674000.0,15154000.0,0.0,0.0,37520000.0,0.0,37520000.0,0.82,0.81,45542315.0,46080395.0,2.44457539915,0.597551262544,0.333719667716,0.183567422674,0.0686979432729,0.186485986682,182264000.0,100257000.0,37520000.0,0.0964444420032,0.0686979432729
2018-12-31,520193000.0,0.0721760189622,219526000.0,300667000.0,0.0,133858000.0,168379000.0,86558000.0,51056000.0,41382000.0,12715000.0,0.0,0.0,28667000.0,0.0,28667000.0,0.63,0.63,45280161.0,45780954.0,2.13815989942,0.577991245557,0.325502265505,0.166395933817,0.055108392462,0.161447770347,169324000.0,86558000.0,28667000.0,0.0795512434808,0.055108392462
2017-12-31,485175000.0,0.0856455582904,209278000.0,275897000.0,0.0,127915000.0,141205000.0,75918000.0,48467000.0,31118000.0,25242000.0,0.0,0.0,5876000.0,0.0,5876000.0,0.13,0.13,44855263.0,45184203.0,1.80720239771,0.568654609162,0.315521203689,0.156475498531,0.012111093935200002,0.135829339929,153083000.0,75918000.0,5876000.0,0.0641376822796,0.012111093935200002
2016-12-31,446900000.0,0.10554777678300001,194066000.0,252834000.0,0.0,120709000.0,131444000.0,64042000.0,40803000.0,24260000.0,9331000.0,0.0,0.0,14929000.0,0.0,14929000.0,0.33,0.33,44641805.0,44873030.0,1.52006673051,0.565750727232,0.314123965093,0.143302752294,0.0334056835981,0.140373685388,140382000.0,64042000.0,14929000.0,0.0542850749608,0.0334056835981
2015-12-31,404234000.0,0.0637652860635,174510000.0,229724000.0,0.0,113103000.0,124618000.0,53036000.0,41280000.0,12712000.0,7816000.0,0.0,0.0,4896000.0,0.0,4896000.0,0.11,0.11,44888723.0,45159489.0,1.4684399994,0.568294601642,0.306094984588,0.13120123492799998,0.012111796632600001,0.119304660172,123734000.0,53036000.0,4896000.0,0.0314471321067,0.012111796632600001
2014-12-31,380003000.0,0.09202854195219999,159893000.0,220110000.0,0.0,107679000.0,117250000.0,53900000.0,49945000.0,4491000.0,3694000.0,0.0,0.0,797000.0,0.0,797000.0,0.02,0.02,45960720.0,46349670.0,1.16971706595,0.579232269219,0.329884237756,0.141840985466,0.00209735186301,0.0342470980492,125357000.0,53900000.0,797000.0,0.01181832775,0.00209735186301
2013-12-31,347979000.0,0.0978190571437,150225000.0,197754000.0,0.0,87242000.0,95961000.0,46154000.0,41797000.0,6987000.0,-49702000.0,0.0,0.0,56689000.0,0.0,56689000.0,1.22,1.21,46286735.0,46996904.0,0.752219763242,0.568292914228,0.335071943997,0.132634440584,0.162909256018,0.09431603631249999,116598000.0,46154000.0,56689000.0,0.020078797858500003,0.162909256018
2012-12-31,316973000.0,0.037554828150599996,143642000.0,173331000.0,0.0,79885000.0,88208000.0,30968000.0,36319000.0,-3500000.0,751000.0,0.0,0.0,-4251000.0,0.0,-4251000.0,-0.09,-0.09,45514844.0,45514844.0,0.20979968645,0.546832064561,0.313834301344,0.0976991731157,-0.0134112369192,0.112331334215,99477000.0,30968000.0,-4251000.0,-0.0110419499453,-0.0134112369192
2011-12-31,305500000.0,0.159762504935,132160000.0,173340000.0,0.0,76984000.0,84679000.0,36506000.0,34511000.0,5582000.0,-1960000.0,0.0,0.0,7542000.0,0.0,7542000.0,0.17,0.17,45180485.0,45704052.0,0.0,0.567397708674,0.333764320786,0.119495908347,0.0246873977087,0.098062193126,101965000.0,36506000.0,7542000.0,0.018271685761,0.0246873977087
2010-12-31,263416000.0,0.117083038247,119023000.0,144393000.0,0.0,72060000.0,129178000.0,15215000.0,16682000.0,-508000.0,-1177000.0,0.0,0.0,669000.0,0.0,669000.0,0.01,0.01,45798581.0,44633878.0,0.0,0.5482,0.276,0.0614,0.003,0.0711,72698000.0,16174000.0,669000.0,-0.0019,0.0025
2009-12-31,235807000.0,0.0943,102775000.0,133032000.0,0.0,76905000.0,136818000.0,-3786000.0,15720000.0,-18398000.0,-1247000.0,0.0,0.0,-17151000.0,0.0,-17151000.0,-0.39,-0.39,44575614.0,44028736.0,0.0,0.5642,0.243,-0.0114,-0.073,0.0315,57235000.0,-2678000.0,-17151000.0,-0.078,-0.0727
