,0,1,2,3,4,5,6,7,8,9,10,11,12,13,14,15,16,17,18,19,20,21,22,23,24,25,26,27,28,29,30
Date,Revenue,Revenue Growth,Cost of Revenue,Gross Profit,R&D Expenses,SG&A Expense,Operating Expenses,Operating Income,Interest Expense,Earnings before Tax,Income Tax Expense,Net Income - Non-Controlling int,Net Income - Discontinued ops,Net Income,Preferred Dividends,Net Income Com,EPS,EPS Diluted,Weighted Average Shs Out,Weighted Average Shs Out (Dil),Dividend per Share,Gross Margin,EBITDA Margin,EBIT Margin,Profit Margin,Free Cash Flow margin,EBITDA,EBIT,Consolidated Income,Earnings Before Tax Margin,Net Profit Margin
2019-12-31,2535911000.0,0.180914430526,2040241000.0,495670000.0,0.0,301525000.0,301525000.0,132635000.0,0.0,132635000.0,19641000.0,0.0,0.0,112994000.0,0.0,112994000.0,3.66,3.62,30886382.0,31186952.0,0.0,0.195460329641,0.0575797021268,0.052302703052300004,0.044557557422199995,-0.0334885569722,146017000.0,132635000.0,112994000.0,0.052302703052300004,0.044557557422199995
2018-12-31,2147413000.0,0.508227636064,1741619000.0,405794000.0,0.0,263981000.0,263981000.0,128530000.0,0.0,128530000.0,32075000.0,0.0,0.0,96455000.0,0.0,96455000.0,3.2,3.17,30084913.0,30391346.0,0.0,0.18896877312399998,0.06545596957830001,0.0598534143176,0.0449168371431,-0.098435186897,140561000.0,128530000.0,96455000.0,0.0598534143176,0.0449168371431
2017-12-31,1423799000.0,0.431759583283,0.0,0.0,0.0,176304000.0,176304000.0,84164000.0,0.0,84164000.0,33869000.0,0.0,0.0,50295000.0,0.0,50295000.0,2.06,2.03,24280871.0,24555509.0,0.0,0.0,0.06400973732950001,0.05911227638169999,0.0353245085858,-0.09290286058639999,91137000.0,84164000.0,50295000.0,0.05911227638169999,0.0353245085858
2016-12-31,994440000.0,0.353920889217,0.0,0.0,0.0,122224000.0,122224000.0,71872000.0,0.0,73149000.0,23609000.0,0.0,0.0,49540000.0,0.0,49540000.0,2.34,2.33,20679189.0,20791937.0,0.0,0.0,0.077885040827,0.0722738425647,0.049816982422299996,-0.053897671051000004,77452000.0,71872000.0,49540000.0,0.073557982382,0.049816982422299996
2015-12-31,734489000.0,1.0267803925,0.0,0.0,0.0,87840000.0,87840000.0,59014000.0,10000.0,60305000.0,20415000.0,0.0,0.0,39890000.0,0.0,39890000.0,1.88,1.88,20569012.0,20569012.0,0.0,0.0,0.0867637228059,0.0803470167695,0.054309867132099995,-0.22938941223099998,63727000.0,59014000.0,39890000.0,0.0821047013638,0.054309867132099995
2014-12-31,362392000.0,1.1176044363200002,0.0,0.0,0.0,46795000.0,331290000.0,31102000.0,26000.0,30959000.0,10937000.0,0.0,0.0,20022000.0,0.0,20022000.0,1.03,1.03,19226504.0,19226504.0,0.0,0.0,0.0939397116934,0.0858241903795,0.055249564008,-0.360929601095,34043000.0,31102000.0,20022000.0,0.0854295900572,0.055249564008
2013-12-31,171133000.0,0.78207851713,129651000.0,41482000.0,0.0,23622000.0,23622000.0,17860000.0,0.0,18021000.0,5642000.0,52000.0,0.0,12379000.0,0.0,12379000.0,0.95,0.95,21452587.0,12873562.0,0.0,0.2424,0.111,0.1053,0.07200000000000001,-0.3976,18958000.0,18021000.0,12431000.0,0.1053,0.0723
2012-12-31,96030000.0,,75448000.0,20582000.0,0.0,13496000.0,13496000.0,7086000.0,0.0,6138000.0,0.0,1301000.0,0.0,6138000.0,0.0,6138000.0,0.0,0.0,,,0.0,0.2143,0.066,0.0639,0.064,-0.1743,6334000.0,6138000.0,7439000.0,0.0639,0.0639
