,0,1,2,3,4,5,6,7,8,9,10,11,12,13,14,15,16,17,18,19,20,21,22,23,24,25,26,27,28,29,30
Date,Revenue,Revenue Growth,Cost of Revenue,Gross Profit,R&D Expenses,SG&A Expense,Operating Expenses,Operating Income,Interest Expense,Earnings before Tax,Income Tax Expense,Net Income - Non-Controlling int,Net Income - Discontinued ops,Net Income,Preferred Dividends,Net Income Com,EPS,EPS Diluted,Weighted Average Shs Out,Weighted Average Shs Out (Dil),Dividend per Share,Gross Margin,EBITDA Margin,EBIT Margin,Profit Margin,Free Cash Flow margin,EBITDA,EBIT,Consolidated Income,Earnings Before Tax Margin,Net Profit Margin
2019-06-30,1914800000.0,-0.157663206053,899800000.0,1015000000.0,79500000.0,444700000.0,534700000.0,452300000.0,139100000.0,303900000.0,62200000.0,0.0,0.0,124000000.0,0.0,124000000.0,0.99,0.98,125500000.0,126400000.0,0.591772151899,0.53008147065,0.283110507625,0.236212659286,0.0647587215375,0.252297890119,542100000.0,452300000.0,124000000.0,0.158711092542,0.0647587215375
2018-06-30,2273200000.0,0.0238717232682,1182000000.0,1091200000.0,131300000.0,475800000.0,475800000.0,594500000.0,95900000.0,512000000.0,123300000.0,0.0,0.0,380800000.0,0.0,380800000.0,2.8,2.78,135800000.0,136800000.0,0.585526315789,0.48002815414399996,0.296322364948,0.26152560267499997,0.167517156431,0.20306176315299998,673600000.0,594500000.0,380800000.0,0.22523315150400003,0.167517156431
2017-06-30,2220200000.0,0.049938522652,1234900000.0,985300000.0,150000000.0,477700000.0,477700000.0,489200000.0,57200000.0,435300000.0,132800000.0,0.0,0.0,295600000.0,0.0,295600000.0,2.01,1.99,146700000.0,148200000.0,0.544534412955,0.443788847852,0.252004323935,0.220340509864,0.133141158454,0.194126655256,559500000.0,489200000.0,295600000.0,0.19606341770999997,0.133141158454
2016-06-30,2114600000.0,0.024763750908699998,1243400000.0,871200000.0,161000000.0,448500000.0,448500000.0,402500000.0,40200000.0,369100000.0,122300000.0,0.0,0.0,239300000.0,0.0,239300000.0,1.52,1.51,157000000.0,158000000.0,0.5208860759489999,0.411992811879,0.220609098647,0.190343327343,0.113165610517,0.151376146789,466500000.0,402500000.0,239300000.0,0.174548377944,0.113165610517
2015-06-30,2063500000.0,0.044017202125,1273200000.0,790300000.0,170100000.0,431100000.0,431100000.0,322200000.0,28800000.0,299900000.0,113600000.0,0.0,0.0,178400000.0,0.0,178400000.0,1.11,1.1,160600000.0,161600000.0,0.360148514851,0.382990065423,0.19321541070999998,0.156142476375,0.08645505209599999,0.1298279622,398700000.0,322200000.0,178400000.0,0.14533559486300002,0.08645505209599999
2014-06-30,1976500000.0,0.0745351745134,1204500000.0,772000000.0,0.0,411800000.0,421100000.0,350900000.0,1000000.0,345300000.0,117400000.0,8000000.0,0.0,227900000.0,0.0,227900000.0,1.42,1.42,160630650.0,160600000.0,0.0,0.3906,0.20199999999999999,0.1752,0.115,0.1021,398600000.0,346300000.0,235900000.0,0.1747,0.1153
2013-06-30,1839400000.0,0.08436007781639998,1104600000.0,734800000.0,0.0,416900000.0,416900000.0,317900000.0,900000.0,314400000.0,115000000.0,6300000.0,0.0,199400000.0,0.0,199400000.0,1.24,1.24,,160600000.0,0.0,0.3995,0.19899999999999998,0.1714,0.10800000000000001,0.1172,366400000.0,315300000.0,205700000.0,0.1709,0.1084
2012-06-30,1696300000.0,0.0,1021600000.0,674700000.0,0.0,423700000.0,423700000.0,251000000.0,1000000.0,252600000.0,91800000.0,0.0,0.0,160800000.0,0.0,160800000.0,,,,,0.0,0.3977,0.185,0.1495,0.095,0.1088,313500000.0,253600000.0,160800000.0,0.1489,0.0948
2011-06-30,,,,,,,,,,,,,,,,,,,,,0.0,,,,,,,,,,
