,0,1,2,3,4,5,6,7,8,9,10,11,12,13,14,15,16,17,18,19,20,21,22,23,24,25,26,27,28,29,30
Date,Revenue,Revenue Growth,Cost of Revenue,Gross Profit,R&D Expenses,SG&A Expense,Operating Expenses,Operating Income,Interest Expense,Earnings before Tax,Income Tax Expense,Net Income - Non-Controlling int,Net Income - Discontinued ops,Net Income,Preferred Dividends,Net Income Com,EPS,EPS Diluted,Weighted Average Shs Out,Weighted Average Shs Out (Dil),Dividend per Share,Gross Margin,EBITDA Margin,EBIT Margin,Profit Margin,Free Cash Flow margin,EBITDA,EBIT,Consolidated Income,Earnings Before Tax Margin,Net Profit Margin
2019-12-31,210430000.0,0.396498632901,0.0,0.0,11699000.0,80548000.0,91699000.0,-17325000.0,0.0,-17144000.0,0.0,0.0,0.0,-17144000.0,0.0,-17144000.0,-0.72,-0.72,23746000.0,23746000.0,0.0,0.0,-0.0466711020292,-0.0823314166231,-0.0814712731074,0.0151119137005,-9821000.0,-17325000.0,-17144000.0,-0.0814712731074,-0.0814712731074
2018-12-31,150684000.0,0.155862386377,0.0,0.0,16210000.0,76106000.0,89052000.0,-40917000.0,0.0,-53042000.0,0.0,0.0,0.0,-53042000.0,0.0,-53042000.0,-2.79,-2.79,19060000.0,19060000.0,0.0,0.0,-0.22171564333299998,-0.271541769531,-0.352008176051,-0.165346022139,-33409000.0,-40917000.0,-53042000.0,-0.352008176051,-0.352008176051
2017-12-31,130365000.0,0.155502964874,80259000.0,50106000.0,12150000.0,52027000.0,67205000.0,-17099000.0,8239000.0,-19641000.0,0.0,0.0,0.0,-19641000.0,5743000.0,-25384000.0,-7.86,-7.86,19996000.0,3230000.0,0.0,0.3844,-0.064,-0.0875,-0.195,-0.1822,-8374000.0,-11402000.0,-19641000.0,-0.1507,-0.1507
2016-12-31,112821000.0,0.45324213617700004,72412000.0,40409000.0,13902000.0,52616000.0,96641000.0,-56232000.0,6170000.0,-75696000.0,0.0,0.0,0.0,-75696000.0,982000.0,-76678000.0,-32.48,-32.48,19520000.0,2361000.0,0.0,0.3582,-0.579,-0.6163,-0.68,-0.3106,-65307000.0,-69526000.0,-75696000.0,-0.6709,-0.6709
2015-12-31,77634000.0,,52494000.0,25140000.0,11604000.0,50981000.0,64779000.0,-39639000.0,1484000.0,-40641000.0,-16000.0,0.0,0.0,-40625000.0,1001000.0,-41626000.0,-19.91,-19.91,19520000.0,2091000.0,0.0,0.3238,-0.47600000000000003,-0.5044,-0.536,-0.456,-36963000.0,-39157000.0,-40625000.0,-0.5235,-0.5233
