,0,1,2,3,4,5,6,7,8,9,10,11,12,13,14
Date,Depreciation & Amortization,Stock-based compensation,Operating Cash Flow,Capital Expenditure,Acquisitions and disposals,Investment purchases and sales,Investing Cash flow,Issuance (repayment) of debt,Issuance (buybacks) of shares,Dividend payments,Financing Cash Flow,Effect of forex changes on cash,Net cash flow / Change in cash,Free Cash Flow,Net Cash/Marketcap
2019-12-31,7504000.0,15851000.0,11457000.0,8308000.0,-0.0,0.0,-11020000.0,-46698000.0,-13242000.0,-0.0,44179000.0,101000.0,104458000.0,3149000.0,0.0
2018-12-31,7508000.0,26790000.0,-18995000.0,5943000.0,-0.0,0.0,-7342000.0,-52581000.0,32711000.0,-0.0,65191000.0,-246000.0,38608000.0,-24938000.0,0.0
2017-12-31,3028000.0,5147000.0,-22102000.0,-1647000.0,0.0,0.0,-1647000.0,12259000.0,230000.0,0.0,21761000.0,282000.0,-1706000.0,-23749000.0,0.11
2016-12-31,4219000.0,3447000.0,-32498000.0,-2545000.0,0.0,0.0,-2545000.0,32204000.0,279000.0,0.0,30809000.0,-407000.0,-4641000.0,-35043000.0,0.11
2015-12-31,2194000.0,2453000.0,-29158000.0,-6244000.0,0.0,0.0,-6301000.0,11855000.0,271000.0,0.0,11927000.0,-57000.0,-23589000.0,-35402000.0,0.11
