,0,1,2,3,4,5,6,7,8,9,10,11,12,13,14,15,16,17,18,19,20,21,22,23,24,25,26,27,28
Date,Cash and cash equivalents,Short-term investments,Cash and short-term investments,Receivables,Inventories,Total current assets,Property Plant & Equipment Net,Goodwill and Intangible Assets,Long-term investments,Tax assets,Total non-current assets,Total assets,Payables,Short-term debt,Total current liabilities,Long-term debt,Total debt,Deferred revenue,Tax Liabilities,Deposit Liabilities,Total non-current liabilities,Total liabilities,Other comprehensive income,Retained earnings (deficit),Total shareholders equity,Investments,Net Debt,Other Assets,Other Liabilities
2019-12-31,90500000.0,0.0,90500000.0,9029000.0,371000.0,114205000.0,6282000.0,0.0,0.0,0.0,34868000.0,149073000.0,2621000.0,1107000.0,15388000.0,24951000.0,26058000.0,57000.0,11330000.0,0.0,30155000.0,43556000.0,447920000.0,-342409000.0,105517000.0,0.0,-64442000.0,0.0,0.0
2018-12-31,53039000.0,588000.0,53627000.0,11551000.0,589000.0,68198000.0,4759000.0,0.0,588000.0,0.0,11085000.0,79283000.0,3050000.0,3352000.0,18113000.0,61000.0,3413000.0,4936000.0,9980000.0,0.0,8181000.0,22977000.0,386775000.0,-330474000.0,56306000.0,1176000.0,-49626000.0,0.0,0.0
2017-12-31,31219000.0,7449000.0,38668000.0,11800000.0,1036000.0,45039000.0,2815000.0,0.0,671000.0,0.0,8586000.0,53625000.0,3545000.0,230000.0,24952000.0,302000.0,532000.0,12292000.0,9422000.0,0.0,3741000.0,29078000.0,340079000.0,-315065000.0,24547000.0,8120000.0,-30687000.0,0.0,385000.0
2016-12-31,19240000.0,12314000.0,31554000.0,5924000.0,825000.0,27227000.0,2155000.0,3241000.0,1142000.0,0.0,8421000.0,35648000.0,4232000.0,0.0,12367000.0,0.0,0.0,1710000.0,8566000.0,0.0,3360000.0,16549000.0,311164000.0,-292069000.0,19099000.0,13456000.0,-19240000.0,0.0,822000.0
2015-12-31,23273000.0,12669000.0,35942000.0,7329000.0,992000.0,32839000.0,3109000.0,6053000.0,1549000.0,0.0,11808000.0,44647000.0,3399000.0,0.0,14841000.0,0.0,0.0,6098000.0,8152000.0,0.0,5711000.0,21768000.0,305981000.0,-283511000.0,22879000.0,14218000.0,-23273000.0,0.0,1216000.0
2014-12-31,26487000.0,0.0,26487000.0,3870000.0,1395000.0,33007000.0,3995000.0,9427000.0,688000.0,-110000.0,15115000.0,48122000.0,4673000.0,700000.0,13735000.0,700000.0,1400000.0,3497000.0,7838000.0,0.0,8962000.0,21811000.0,302379000.0,-275930000.0,26311000.0,688000.0,-25087000.0,0.0,-886000.0
2013-12-31,22130000.0,3005000.0,25135000.0,5413000.0,1487000.0,35781000.0,8446000.0,12801000.0,795000.0,0.0,23059000.0,58840000.0,3961000.0,707000.0,11199000.0,0.0,707000.0,2001000.0,8306000.0,0.0,6158000.0,17357000.0,298370000.0,-256859000.0,41483000.0,3800000.0,-21423000.0,0.0,0.0
2012-12-31,32003000.0,13524000.0,45527000.0,7545000.0,1302000.0,59769000.0,16650000.0,16175000.0,3623000.0,20000.0,40196000.0,99965000.0,3654000.0,0.0,16283000.0,0.0,0.0,2186000.0,7429000.0,0.0,5242000.0,21525000.0,294128000.0,-215556000.0,78440000.0,17147000.0,-32003000.0,0.0,0.0
2011-12-31,25762000.0,27720000.0,53482000.0,18917000.0,4488000.0,79232000.0,24176000.0,19683000.0,10348000.0,0.0,56690000.0,135922000.0,10364000.0,0.0,28292000.0,0.0,0.0,3789000.0,0.0,0.0,4940000.0,33232000.0,287792000.0,-184699000.0,102690000.0,38068000.0,-25762000.0,0.0,0.0
2010-12-31,73862000.0,0.0,73862000.0,15333000.0,2817000.0,92192000.0,21452000.0,23399000.0,1650000.0,0.0,49108000.0,141300000.0,9208000.0,0.0,27484000.0,0.0,0.0,9613000.0,0.0,0.0,6455000.0,33939000.0,-34000.0,-168149000.0,107361000.0,1650000.0,-73862000.0,180000.0,18276000.0
2009-12-31,32516000.0,23778000.0,56294000.0,7246000.0,2915000.0,67382000.0,21581000.0,4169000.0,0.0,0.0,31654000.0,99036000.0,11313000.0,5368000.0,50985000.0,2574000.0,7942000.0,24744000.0,0.0,0.0,192896000.0,243881000.0,-252000.0,-159608000.0,-144845000.0,23778000.0,-48352000.0,927000.0,34304000.0
