,0,1,2,3,4,5,6,7,8,9,10,11,12,13,14,15,16,17,18,19,20,21,22,23,24,25,26,27,28,29,30
Date,Revenue,Revenue Growth,Cost of Revenue,Gross Profit,R&D Expenses,SG&A Expense,Operating Expenses,Operating Income,Interest Expense,Earnings before Tax,Income Tax Expense,Net Income - Non-Controlling int,Net Income - Discontinued ops,Net Income,Preferred Dividends,Net Income Com,EPS,EPS Diluted,Weighted Average Shs Out,Weighted Average Shs Out (Dil),Dividend per Share,Gross Margin,EBITDA Margin,EBIT Margin,Profit Margin,Free Cash Flow margin,EBITDA,EBIT,Consolidated Income,Earnings Before Tax Margin,Net Profit Margin
2018-12-31,15281000000.0,0.175190340691,587000000.0,14678000000.0,5673000000.0,3250000000.0,8923000000.0,5191000000.0,741000000.0,4832000000.0,786000000.0,0.0,0.0,4046000000.0,0.0,4046000000.0,5.65,5.51,716300000.0,733800000.0,0.0,0.960539231726,0.381257771088,0.33970289902500006,0.264773247824,0.31679863883299997,5826000000.0,5191000000.0,4046000000.0,0.316209672142,0.264773247824
2017-12-31,13003000000.0,0.157963167456,461000000.0,12512000000.0,5915000000.0,2941000000.0,8856000000.0,4707000000.0,522000000.0,4314000000.0,1374000000.0,0.0,0.0,2940000000.0,0.0,2940000000.0,3.77,3.64,779200000.0,808700000.0,0.0,0.9622394831960001,0.398215796355,0.36199338614200005,0.226101668846,0.381988771822,5178000000.0,4707000000.0,2940000000.0,0.331769591633,0.226101668846
2016-12-31,11229200000.0,0.21318063958500003,438000000.0,10746600000.0,4470100000.0,2657700000.0,7127800000.0,3166600000.0,500100000.0,2372500000.0,373300000.0,0.0,0.0,1999200000.0,0.0,1999200000.0,2.57,2.49,777200000.0,803300000.0,0.0,0.957022762085,0.326942257685,0.281996936558,0.178035835144,0.333069141168,3671300000.0,3166600000.0,1999200000.0,0.211279521248,0.178035835144
2015-12-31,9256000000.0,0.206716729245,420100000.0,8741000000.0,3697300000.0,2305400000.0,6002700000.0,2254600000.0,310600000.0,2023500000.0,421500000.0,0.0,0.0,1602000000.0,0.0,1602000000.0,2.02,1.94,792200000.0,824900000.0,0.0,0.944360414866,0.287759291271,0.24358254105399998,0.173076923077,0.23742437337900002,2663500000.0,2254600000.0,1602000000.0,0.218614952463,0.173076923077
2014-12-31,7670400000.0,0.181170021097,385900000.0,7177900000.0,2430600000.0,2027900000.0,4458500000.0,2519000000.0,176100000.0,2327400000.0,327500000.0,0.0,0.0,1999900000.0,0.0,1999900000.0,2.49,2.39,802700000.0,836000000.0,0.0,0.935792136003,0.37711201501900005,0.32840529829,0.260729557781,0.34626616604099997,2892600000.0,2519000000.0,1999900000.0,0.303426157697,0.260729557781
2013-12-31,6493900000.0,0.17926973859,340400000.0,6021900000.0,2226200000.0,1684500000.0,3910700000.0,1808900000.0,91600000.0,1665400000.0,215500000.0,0.0,0.0,1449900000.0,0.0,1449900000.0,3.5,3.37,413800000.0,430300000.0,0.0,0.927316404626,0.336161628605,0.278553719645,0.22327106977299999,0.32433514529,2183000000.0,1808900000.0,1449900000.0,0.256456058763,0.22327106977299999
2012-12-31,5506713000.0,0.137264227903,299124000.0,5086475000.0,1724156000.0,1373541000.0,3097697000.0,1746442000.0,63205000.0,1681491000.0,225311000.0,0.0,0.0,1456180000.0,0.0,1456180000.0,3.38,3.3,430927000.0,440796000.0,0.0,0.9236862353280001,0.368883034217,0.317147815766,0.264437242326,0.346309858531,2031333000.0,1746442000.0,1456180000.0,0.305352939222,0.264437242326
2011-12-31,4842070000.0,0.335468986374,425859000.0,4273831000.0,1600264000.0,1226314000.0,2826578000.0,1442753000.0,42737000.0,1419522000.0,102066000.0,0.0,0.0,1318150000.0,0.0,1318150000.0,2.89,2.85,455348000.0,462748000.0,0.0,0.882645438831,0.37635680607699995,0.297962028637,0.27222861296900003,0.346249847689,1822346000.0,1442753000.0,1318150000.0,0.29316428717500004,0.27222861296900003
2010-12-31,3625745000.0,0.0,306521000.0,3201917000.0,1128495000.0,950634000.0,2079129000.0,989635000.0,12634000.0,0.0,132418000.0,0.0,0.0,880512000.0,0.0,880512000.0,1.9,1.88,462298000.0,469517000.0,0.0,0.883105954776,0.344404805081,0.272946663375,0.242849952217,0.298676272049,1248724000.0,989635000.0,880512000.0,0.0,0.242849952217
