,0,1,2,3,4,5,6,7,8,9,10,11,12,13,14
Date,Depreciation & Amortization,Stock-based compensation,Operating Cash Flow,Capital Expenditure,Acquisitions and disposals,Investment purchases and sales,Investing Cash flow,Issuance (repayment) of debt,Issuance (buybacks) of shares,Dividend payments,Financing Cash Flow,Effect of forex changes on cash,Net cash flow / Change in cash,Free Cash Flow,Net Cash/Marketcap
2018-12-31,635000000.0,921000000.0,5171000000.0,330000000.0,-8648000000.0,-7020000000.0,-6418000000.0,-0.0,-6096000000.0,-0.0,-1540000000.0,8000000.0,-2779000000.0,4841000000.0,0.0
2017-12-31,471000000.0,644000000.0,5246000000.0,279000000.0,-0.0,-3928000000.0,-2891000000.0,-1904000000.0,-3833000000.0,-0.0,-1584000000.0,72000000.0,843000000.0,4967000000.0,0.0
2016-12-31,504700000.0,606200000.0,3976300000.0,236200000.0,-0.0,-2292300000.0,-1002200000.0,-0.0,-2160000000.0,-0.0,-1645600000.0,-38900000.0,1289600000.0,3740100000.0,0.0
2015-12-31,408900000.0,576600000.0,2483900000.0,286300000.0,-7695100000.0,-3529300000.0,-6259000000.0,-513900000.0,-3256800000.0,-0.0,4584500000.0,-50700000.0,758700000.0,2197600000.0,0.0
2014-12-31,373600000.0,447600000.0,2806300000.0,175100000.0,-710000000.0,-3042500000.0,-1438000000.0,-3012200000.0,-2975100000.0,-0.0,-417400000.0,-63700000.0,4121600000.0,2631200000.0,0.0
2013-12-31,374100000.0,325800000.0,2225900000.0,139100000.0,-0.0,-2764600000.0,1562200000.0,-4227900000.0,-2764600000.0,-0.0,-553700000.0,400000.0,3234400000.0,2086800000.0,0.0
2012-12-31,284891000.0,231043000.0,2018553000.0,160389000.0,-352245000.0,-2073616000.0,-1553592000.0,-4712174000.0,-2043570000.0,-0.0,-248728000.0,14690000.0,2090387000.0,1858164000.0,0.0
2011-12-31,379593000.0,225154000.0,1808685000.0,132119000.0,-0.0,-2280405000.0,377696000.0,-1353061000.0,-2221157000.0,-0.0,-1654605000.0,-23440000.0,1859464000.0,1676566000.0,0.0
2010-12-31,259089000.0,186989000.0,1181556000.0,98632000.0,-2652377000.0,462522000.0,-2107305000.0,-0.0,-183116000.0,-0.0,1177167000.0,-2462000.0,248956000.0,1082924000.0,0.0
2009-12-31,126068000.0,157444000.0,909855000.0,-93384000.0,-3603000.0,-762424000.0,-856078000.0,0.0,-159710000.0,0.0,-61872000.0,17881000.0,9786000.0,816471000.0,0.1171
