,0,1,2,3,4,5,6,7,8,9,10,11,12,13,14,15,16,17,18,19,20,21,22,23,24,25,26,27,28,29,30
Date,Revenue,Revenue Growth,Cost of Revenue,Gross Profit,R&D Expenses,SG&A Expense,Operating Expenses,Operating Income,Interest Expense,Earnings before Tax,Income Tax Expense,Net Income - Non-Controlling int,Net Income - Discontinued ops,Net Income,Preferred Dividends,Net Income Com,EPS,EPS Diluted,Weighted Average Shs Out,Weighted Average Shs Out (Dil),Dividend per Share,Gross Margin,EBITDA Margin,EBIT Margin,Profit Margin,Free Cash Flow margin,EBITDA,EBIT,Consolidated Income,Earnings Before Tax Margin,Net Profit Margin
2019-12-31,401648000.0,0.27523495046999996,347924000.0,53724000.0,0.0,25626000.0,25626000.0,23675000.0,5330000.0,19678000.0,2254000.0,0.0,0.0,16014000.0,0.0,16014000.0,0.99,0.88,12039000.0,18289000.0,0.0,0.133758913277,0.07405738357969999,0.05894464805,0.0398707325818,0.04034129386930001,29745000.0,23675000.0,16014000.0,0.04899314822930001,0.0398707325818
2018-12-31,314960000.0,0.0999434242968,270914000.0,44046000.0,0.0,23744000.0,23744000.0,20006000.0,5800000.0,13416000.0,1318000.0,0.0,0.0,11413000.0,0.0,11413000.0,0.75,0.72,11929000.0,15757000.0,0.0,0.139846329693,0.0826962153924,0.0635191770384,0.0362363474727,0.0306292862586,26046000.0,20006000.0,11413000.0,0.042595885191800006,0.0362363474727
2017-12-31,286342000.0,-0.0391111319913,252739000.0,33603000.0,0.0,21055000.0,21055000.0,5077000.0,0.0,-1327000.0,596000.0,0.0,0.0,-1923000.0,-4050000.0,-1923000.0,0.29,0.29,11151646.0,11253069.0,0.0,0.11735267617,0.039166451306500004,0.017730545990500002,-0.00671574550712,0.017140342667200003,11215000.0,5077000.0,-1923000.0,-0.00463431840247,-0.00671574550712
2016-12-31,297997000.0,-0.19718689300099998,262517000.0,35480000.0,0.0,21853000.0,21853000.0,-1764000.0,0.0,-7967000.0,1195000.0,0.0,0.0,-9162000.0,-6298000.0,-9162000.0,0.13,0.13,5934226.0,5934226.0,0.0,0.119061601291,0.0154162625798,-0.00591952267976,-0.030745275959200003,0.07866857720039999,4594000.0,-1764000.0,-9162000.0,-0.0267351684749,-0.030745275959200003
2015-12-31,371191000.0,-0.08216004233239999,326261000.0,44930000.0,0.0,23795000.0,23795000.0,9063000.0,0.0,4543000.0,452000.0,0.0,0.0,4091000.0,-648000.0,4091000.0,0.35,0.35,0.0,0.0,0.0,0.121042805456,0.042064597471400005,0.0244160014656,0.0110212801496,0.0675231888704,15614000.0,9063000.0,4091000.0,0.0122389820874,0.0110212801496
2014-12-31,404418000.0,0.623301609983,355355000.0,49063000.0,0.0,21321000.0,21321000.0,-11149000.0,0.0,-14711000.0,468000.0,0.0,0.0,-15179000.0,149000.0,-15179000.0,-1.72,-1.72,0.0,0.0,0.0,0.121317547686,-0.00969788683985,-0.027568011315,-0.0375329485829,0.0309061416653,-3922000.0,-11149000.0,-15179000.0,-0.036375730061499995,-0.0375329485829
2013-12-31,249133000.0,19.4157174465,213690000.0,35443000.0,0.0,12467000.0,21762000.0,13681000.0,4000000.0,19570000.0,15237000.0,22000.0,0.0,4333000.0,0.0,4333000.0,,,11826000.0,11826000.0,0.0,0.1423,0.11599999999999999,0.0946,0.017,0.0133,28831000.0,23570000.0,4355000.0,0.0786,0.0174
2012-12-31,12203000.0,,3662000.0,8541000.0,0.0,477000.0,1875000.0,6666000.0,111000.0,6595000.0,0.0,0.0,0.0,6595000.0,0.0,6595000.0,,,,,0.0,0.6999,,0.5495,0.54,,,6706000.0,6595000.0,0.5404,0.5404
