,0,1,2,3,4,5,6,7,8,9,10,11,12,13,14,15,16,17,18,19,20,21,22,23,24,25,26,27,28,29,30
Date,Revenue,Revenue Growth,Cost of Revenue,Gross Profit,R&D Expenses,SG&A Expense,Operating Expenses,Operating Income,Interest Expense,Earnings before Tax,Income Tax Expense,Net Income - Non-Controlling int,Net Income - Discontinued ops,Net Income,Preferred Dividends,Net Income Com,EPS,EPS Diluted,Weighted Average Shs Out,Weighted Average Shs Out (Dil),Dividend per Share,Gross Margin,EBITDA Margin,EBIT Margin,Profit Margin,Free Cash Flow margin,EBITDA,EBIT,Consolidated Income,Earnings Before Tax Margin,Net Profit Margin
2018-11-30,86101000.0,-0.1524,,85171000.0,,,,6458000.0,,6422000.0,-41371000.0,,,,,,0.68,0.68,70000000.0,,,0.9892,,,,,,,,0.0746,
2017-11-30,101586000.0,5.079,,100945000.0,,,,-87138000.0,,-87181000.0,-9479000.0,,,,,,-1.11,-1.11,70000000.0,,,0.9937,,,,,,,,-0.8582,
2016-11-30,16711000.0,-0.752,,15691000.0,,,,4420000.0,,4357000.0,-13512000.0,,,,,,0.25,0.25,70000000.0,,,0.9390000000000001,,,,,,,,0.2607,
2015-11-30,67385000.0,,,66545000.0,,,,-703336000.0,,-703397000.0,-6862000.0,,,,,,-9.99,-9.99,70000000.0,,,0.9875,,,,,,,,-10.4385,
