,0,1,2,3,4,5,6,7,8,9,10,11,12,13,14,15,16,17,18,19,20,21,22,23,24,25,26,27,28,29,30
Date,Revenue,Revenue Growth,Cost of Revenue,Gross Profit,R&D Expenses,SG&A Expense,Operating Expenses,Operating Income,Interest Expense,Earnings before Tax,Income Tax Expense,Net Income - Non-Controlling int,Net Income - Discontinued ops,Net Income,Preferred Dividends,Net Income Com,EPS,EPS Diluted,Weighted Average Shs Out,Weighted Average Shs Out (Dil),Dividend per Share,Gross Margin,EBITDA Margin,EBIT Margin,Profit Margin,Free Cash Flow margin,EBITDA,EBIT,Consolidated Income,Earnings Before Tax Margin,Net Profit Margin
2018-12-31,33409251.0,0.391157900295,21427243.0,11982008.0,8526256.0,11100775.0,41391919.0,-7982668.0,0.0,-7933170.0,-67521.0,0.0,0.0,-7865649.0,0.0,-7865649.0,-0.55,-0.55,14432505.0,14432505.0,0.0,0.358643418854,-0.211922230762,-0.238935856419,-0.235433263679,-0.396555822218,-7080163.0,-7982668.0,-7865649.0,-0.237454290729,-0.235433263679
2017-12-31,24015427.0,0.343983473802,12921157.0,11094270.0,8555381.0,9021439.0,30497977.0,-6482550.0,2945.0,-6460065.0,-88305.0,0.0,0.0,-6371760.0,0.0,-6371760.0,-0.52,-0.52,12300031.0,12300031.0,0.0,0.461964303196,-0.21676012673,-0.269932739484,-0.26531945486499997,-0.25239896838000003,-5205587.0,-6482550.0,-6371760.0,-0.268996466313,-0.26531945486499997
2016-12-31,17868841.0,-0.26330720659699997,9417505.0,8451336.0,8427554.0,7595559.0,16023113.0,-7571777.0,0.0,-7546229.0,5800818.0,0.0,0.0,-13347047.0,0.0,-13347047.0,-1.26,-1.26,10622331.0,10622331.0,0.0,0.472964978534,-0.35998691801,-0.423741920363,-0.746945311114,-0.381862483415,-6432549.0,-7571777.0,-13347047.0,-0.42231216898699997,-0.746945311114
2015-12-31,24255485.0,-0.12261762259299999,13768658.0,10486827.0,6377839.0,7663035.0,14040874.0,-3554047.0,836.0,-3557285.0,-1160243.0,0.0,0.0,-2397042.0,0.0,-2397042.0,-0.25,-0.25,9626028.0,9626028.0,0.0,0.43234868319499997,-0.08993776046939998,-0.146525497223,-0.0988247400536,0.054107060732899996,-2181484.0,-3554047.0,-2397042.0,-0.146658992801,-0.0988247400536
2014-12-31,27645284.0,-0.0644450151608,16831261.0,10814023.0,4832537.0,7531739.0,12364276.0,-1550253.0,0.0,-1550121.0,-412918.0,0.0,0.0,-1137203.0,0.0,-1137203.0,-0.12,-0.12,9530320.0,9530320.0,0.0,0.391170624255,-0.029334334203300002,-0.056076580728900004,-0.0411355151931,-0.190734159215,-810956.0,-1550253.0,-1137203.0,-0.05607180595430001,-0.0411355151931
2013-12-31,29549609.0,0.153804079913,17249450.0,12300159.0,5834249.0,5461083.0,11295332.0,1004827.0,335.0,1017770.0,486952.0,0.0,0.0,530818.0,0.0,530818.0,0.06,0.06,8994080.0,9519968.0,0.0,0.416254543334,0.0545742923367,0.0340047477447,0.017963621786,0.0471073915056,1612649.0,1004827.0,530818.0,0.0344427569245,0.017963621786
2012-12-31,25610595.0,0.32094839312199996,14820604.0,10789991.0,4486302.0,4851587.0,9337889.0,1452102.0,9495.0,1450518.0,509237.0,0.0,0.0,941281.0,0.0,941281.0,0.12,0.11,7986030.0,8614944.0,0.0,0.42130965719499996,0.0771313591113,0.0566992684083,0.036753577962599995,-0.00434812232984,1975380.0,1452102.0,941281.0,0.0566374190057,0.036753577962599995
2011-12-31,19388036.0,0.1606333857,9997733.0,9390303.0,4878119.0,3424297.0,8302416.0,1087887.0,18623.0,1075562.0,-5133229.0,0.0,0.0,6208791.0,0.0,6208791.0,0.1,0.09,62998402.0,68450220.0,0.0,0.484334926962,0.0786936335377,0.0561112533523,0.320238264464,0.0795195552556,1525715.0,1087887.0,6208791.0,0.0554755520363,0.320238264464
2010-12-31,16704703.0,0.20748905180799998,8604004.0,8100699.0,2586308.0,2940721.0,5527029.0,2573670.0,14727.0,2559167.0,45823.0,0.0,0.0,2513344.0,0.0,2513344.0,0.32,0.32,7773519.0,7762858.0,0.0,0.4849,0.171,0.1541,0.15,0.05,2857637.0,2573894.0,2513344.0,0.1532,0.1505
2009-12-31,13834248.0,0.252,7973843.0,5860405.0,2883696.0,2659382.0,5543078.0,317327.0,10603.0,309060.0,0.0,0.0,0.0,309060.0,0.0,309060.0,0.0,0.0,7743113.0,7743304.0,0.0,0.4236,0.049,0.0231,0.022000000000000002,-0.009000000000000001,682001.0,319663.0,309060.0,0.0223,0.0223
