,0,1,2,3,4,5,6,7,8,9,10,11,12,13,14,15,16,17,18,19,20,21,22,23,24,25,26,27,28,29,30
Date,Revenue,Revenue Growth,Cost of Revenue,Gross Profit,R&D Expenses,SG&A Expense,Operating Expenses,Operating Income,Interest Expense,Earnings before Tax,Income Tax Expense,Net Income - Non-Controlling int,Net Income - Discontinued ops,Net Income,Preferred Dividends,Net Income Com,EPS,EPS Diluted,Weighted Average Shs Out,Weighted Average Shs Out (Dil),Dividend per Share,Gross Margin,EBITDA Margin,EBIT Margin,Profit Margin,Free Cash Flow margin,EBITDA,EBIT,Consolidated Income,Earnings Before Tax Margin,Net Profit Margin
2019-12-31,694804000.0,-0.0129307038156,381534000.0,313270000.0,0.0,125934000.0,134391000.0,187336000.0,30694000.0,154434000.0,35226000.0,0.0,0.0,119134000.0,0.0,119134000.0,0.32,0.32,264611000.0,266198000.0,0.0,0.450875354776,0.744713617078,0.26962423935400004,0.171464182705,0.22341408512299998,517430000.0,187336000.0,119134000.0,0.22226987754799998,0.171464182705
2018-12-31,703906000.0,0.225864314922,408105000.0,295801000.0,0.0,118214000.0,127216000.0,177587000.0,49106000.0,124893000.0,27828000.0,0.0,0.0,157692000.0,4777000.0,157692000.0,0.45,0.42,230562000.0,257694000.0,0.0,0.420227984987,0.757861134867,0.252287947538,0.224024230508,0.119960619742,533463000.0,177587000.0,157692000.0,0.17742852028499997,0.224024230508
2017-12-31,574212000.0,-0.0999995297901,339508000.0,234704000.0,0.0,104755000.0,113347000.0,129949000.0,70633000.0,75536000.0,21483000.0,0.0,0.0,49768000.0,9694000.0,49768000.0,0.14,0.12,155846000.0,236404000.0,0.0,0.40874102248000005,0.740790857732,0.22630840177499997,0.08667182155719999,0.12263066602600001,425371000.0,129949000.0,49768000.0,0.131547233426,0.08667182155719999
2016-12-31,638013000.0,0.0531030418872,413826000.0,224187000.0,0.0,112598000.0,120868000.0,111589000.0,132224000.0,-173280000.0,7317000.0,0.0,0.0,-180291000.0,13701000.0,-180291000.0,-1.28,-1.28,151017000.0,151017000.0,0.0,0.35138312228699997,0.749450246312,0.174900824905,-0.282582016354,0.006818042892539999,478159000.0,111589000.0,-180291000.0,-0.271593212051,-0.282582016354
2015-12-31,605841000.0,-0.11009513905099999,402543000.0,203298000.0,0.0,107001000.0,119272000.0,94583000.0,171444000.0,-102800000.0,-515000.0,0.0,0.0,-114901000.0,17272000.0,-114901000.0,-0.9,-0.9,146866000.0,146866000.0,0.0,0.335563291359,0.799075995187,0.156118519546,-0.189655371624,0.0864253162133,484113000.0,94583000.0,-114901000.0,-0.16968148408599998,-0.189655371624
2014-12-31,680793000.0,-0.014819820732400001,489041000.0,191752000.0,0.0,143616000.0,155964000.0,38280000.0,142005000.0,-152823000.0,-1358000.0,0.0,0.0,-227428000.0,16036000.0,-227428000.0,-1.66,-1.66,146509000.0,146509000.0,0.000313973885563,0.281659770297,0.691426028176,0.056228545240599996,-0.334063364341,-0.13796704725199999,470718000.0,38280000.0,-227428000.0,-0.22447792500799998,-0.334063364341
2013-12-31,691034000.0,-0.104976783644,625659000.0,65375000.0,0.0,150220000.0,166439000.0,-183121000.0,111869000.0,-298558000.0,-17025000.0,0.0,0.0,-277651000.0,7890000.0,-277651000.0,-2.21,-2.21,125723000.0,125723000.0,0.00326909157433,0.09460460700919998,0.444037485855,-0.26499564420899996,-0.401790649954,-0.136964317241,306845000.0,-183121000.0,-277651000.0,-0.432045311808,-0.401790649954
2012-12-31,772085000.0,-0.107191176505,641514000.0,130571000.0,0.0,96274000.0,142901000.0,-488193000.0,127968000.0,-560532000.0,-14139000.0,0.0,0.0,-535680000.0,0.0,-535680000.0,-6.96,-6.96,76919000.0,76919000.0,0.00400421222325,0.169114799536,-0.156063127764,-0.632304733287,-0.6938096194069999,-0.08128509166739999,-120494000.0,-488193000.0,-535680000.0,-0.725997785218,-0.6938096194069999
2011-12-31,864782000.0,0.173167972173,669655000.0,195127000.0,0.0,119587000.0,154468000.0,6792000.0,161457000.0,-175754000.0,3850000.0,0.0,0.0,-174611000.0,0.0,-174611000.0,-2.71,-2.71,64385000.0,64385000.0,0.0049079754601200004,0.225637212615,0.460159901571,0.00785400251162,-0.201913314569,-0.005266067055049999,397938000.0,6792000.0,-174611000.0,-0.20323503495700002,-0.201913314569
2010-12-31,737134000.0,0.0809288139073,594044000.0,143090000.0,0.0,119816000.0,145803000.0,22877000.0,133505000.0,-111899000.0,5025000.0,0.0,0.0,100175000.0,0.0,100175000.0,1.57,1.57,0.0,0.0,0.0,0.194116673495,0.523397374154,0.031035062824400002,0.135897950712,-0.12969283739499998,385814000.0,22877000.0,100175000.0,-0.151802792979,0.135897950712
2009-12-31,681945000.0,-0.2591,529286000.0,152659000.0,0.0,109787000.0,190245000.0,-37586000.0,115771000.0,-92420000.0,4737000.0,-10650000.0,36824000.0,-97157000.0,0.0,-97157000.0,-1.79,-1.79,61337112.0,54344000.0,0.0,0.2239,0.44,0.0342,-0.142,-0.1169,300017000.0,23351000.0,-107807000.0,-0.1355,-0.1425
