,0,1,2,3,4,5,6,7,8,9,10,11,12,13,14,15,16,17,18,19,20,21,22,23,24,25,26,27,28,29,30
Date,Revenue,Revenue Growth,Cost of Revenue,Gross Profit,R&D Expenses,SG&A Expense,Operating Expenses,Operating Income,Interest Expense,Earnings before Tax,Income Tax Expense,Net Income - Non-Controlling int,Net Income - Discontinued ops,Net Income,Preferred Dividends,Net Income Com,EPS,EPS Diluted,Weighted Average Shs Out,Weighted Average Shs Out (Dil),Dividend per Share,Gross Margin,EBITDA Margin,EBIT Margin,Profit Margin,Free Cash Flow margin,EBITDA,EBIT,Consolidated Income,Earnings Before Tax Margin,Net Profit Margin
2019-12-31,87152000.0,0.119098064897,10106000.0,77046000.0,52843000.0,24204000.0,78970000.0,-1924000.0,0.0,1367000.0,1339000.0,0.0,0.0,28000.0,0.0,28000.0,0.0,0.0,21932000.0,22323000.0,0.0,0.884041674316,0.0447379291353,-0.022076372315000002,0.00032127776757800004,0.0712892417845,3899000.0,-1924000.0,28000.0,0.0156852395814,0.00032127776757800004
2018-12-31,77877000.0,-0.11004833899000001,7951000.0,69926000.0,47755000.0,22515000.0,71171000.0,-1245000.0,0.0,1303000.0,729000.0,0.0,0.0,574000.0,0.0,574000.0,0.03,0.03,22034000.0,22503000.0,0.0,0.8979031036120001,0.04731820691599999,-0.0159867483339,0.007370597223829999,0.0679661517521,3685000.0,-1245000.0,574000.0,0.0167315125133,0.007370597223829999
2017-12-31,87507000.0,0.20445129588599997,6953000.0,80554000.0,40385000.0,23060000.0,64681000.0,15873000.0,0.0,18899000.0,1871000.0,0.0,0.0,17028000.0,0.0,17028000.0,0.78,0.75,21771000.0,22561000.0,0.0,0.9205434993770001,0.21853108894099998,0.181391202989,0.19459014707400002,0.23236998183000002,19123000.0,15873000.0,17028000.0,0.21597129372499999,0.19459014707400002
2016-12-31,72653000.0,0.221079345871,6086000.0,66567000.0,30838000.0,20107000.0,52181000.0,14386000.0,0.0,16425000.0,3325000.0,0.0,0.0,13100000.0,0.0,13100000.0,0.63,0.61,20850000.0,21565000.0,0.0,0.9162319518809999,0.23427800641399998,0.198009717424,0.18030914070999998,0.16615969058399999,17021000.0,14386000.0,13100000.0,0.226074628715,0.18030914070999998
2015-12-31,59499000.0,0.171055739254,5424000.0,54075000.0,28113000.0,18352000.0,47763000.0,6312000.0,0.0,7381000.0,1114000.0,0.0,0.0,6267000.0,0.0,6267000.0,0.31,0.3,20480000.0,20989000.0,0.0,0.908838804014,0.145683120725,0.106085816568,0.105329501336,0.289013260727,8668000.0,6312000.0,6267000.0,0.12405250508400001,0.105329501336
2014-12-31,50808000.0,0.039018404908,5000000.0,45808000.0,25828000.0,17869000.0,44346000.0,1462000.0,0.0,-2379000.0,2852000.0,0.0,0.0,-819000.0,0.0,-819000.0,-0.04,-0.04,20622000.0,20622000.0,0.0,0.90159030074,0.0563493937963,0.028774996063599997,-0.016119508738799998,0.151413163281,2863000.0,1462000.0,-819000.0,-0.0468233349079,-0.016119508738799998
2013-12-31,48900000.0,-0.08899528662180001,5163000.0,43737000.0,21216000.0,17762000.0,38978000.0,4759000.0,0.0,-4315000.0,788000.0,0.0,0.0,6685000.0,0.0,6685000.0,0.3,0.3,22009000.0,22465000.0,0.0,0.894417177914,0.111022494888,0.0973210633947,0.136707566462,0.26202453987700003,5429000.0,4759000.0,6685000.0,-0.08824130879349999,0.136707566462
2012-12-31,53677000.0,-0.108932751208,3952000.0,49725000.0,20243000.0,17115000.0,37358000.0,12367000.0,0.0,-1651000.0,2062000.0,0.0,0.0,13685000.0,0.0,13685000.0,0.6,0.59,22798000.0,23357000.0,0.0,0.9263744248000001,0.24017735715500002,0.23039663170400002,0.254950910073,0.334258621011,12892000.0,12367000.0,13685000.0,-0.0307580527973,0.254950910073
2011-12-31,60239000.0,0.34129723230400005,0.0,0.0,21543000.0,16576000.0,38119000.0,18562000.0,0.0,0.0,0.0,0.0,0.0,18562000.0,0.0,18562000.0,0.0,0.0,23173.0,24153.0,0.0,0.0,0.35086903833099997,0.308139245339,0.308139245339,0.44305184349,21136000.0,18562000.0,18562000.0,0.0,0.308139245339
2010-12-31,44911000.0,0.16752021212999998,3712000.0,41199000.0,17909000.0,13416000.0,31325000.0,9874000.0,0.0,11969000.0,591000.0,0.0,0.0,11378000.0,0.0,11378000.0,0.54,0.51,22004913.0,21251000.0,0.0,0.9173,0.278,0.2665,0.253,0.34600000000000003,12497000.0,11969000.0,11378000.0,0.2665,0.2533
2009-12-31,38467000.0,-0.047,4117000.0,34350000.0,16561000.0,12819000.0,29380000.0,4970000.0,0.0,10730000.0,2384000.0,0.0,0.0,8346000.0,0.0,8346000.0,0.42,0.41,19938668.0,19717000.0,0.0,0.893,0.292,0.2789,0.217,0.1467,11218000.0,10730000.0,8346000.0,0.2789,0.217
