,0,1,2,3,4,5,6,7,8,9,10,11,12,13,14,15,16,17,18,19,20,21,22,23,24,25,26,27,28,29,30
Date,Revenue,Revenue Growth,Cost of Revenue,Gross Profit,R&D Expenses,SG&A Expense,Operating Expenses,Operating Income,Interest Expense,Earnings before Tax,Income Tax Expense,Net Income - Non-Controlling int,Net Income - Discontinued ops,Net Income,Preferred Dividends,Net Income Com,EPS,EPS Diluted,Weighted Average Shs Out,Weighted Average Shs Out (Dil),Dividend per Share,Gross Margin,EBITDA Margin,EBIT Margin,Profit Margin,Free Cash Flow margin,EBITDA,EBIT,Consolidated Income,Earnings Before Tax Margin,Net Profit Margin
2019-12-31,0.0,-1.0,0.0,0.0,0.0,0.0,0.0,0.0,0.0,0.0,0.0,0.0,0.0,0.0,0.0,0.0,0.0,0.0,0.0,0.0,0.0,0.0,0.0,0.0,0.0,0.0,0.0,0.0,0.0,0.0,0.0
2018-12-31,2427200000.0,-0.339753005821,0.0,0.0,0.0,460700000.0,2364500000.0,360200000.0,82200000.0,360200000.0,31300000.0,0.0,0.0,116500000.0,0.0,116500000.0,0.89,0.82,104198089.0,113389443.0,1.14472737996,0.0,0.167724126566,0.148401450231,0.04799769281480001,-0.154416611734,407100000.0,360200000.0,116500000.0,0.148401450231,0.04799769281480001
2017-12-31,3676200000.0,0.6164094446639999,64400000.0,3611800000.0,0.0,276800000.0,3626500000.0,1132300000.0,65500000.0,1132300000.0,124900000.0,0.0,0.0,244100000.0,0.0,244100000.0,2.58,2.38,92136959.0,100082548.0,1.18002591221,0.982481910669,0.319242696262,0.308008269409,0.0664000870464,-0.0111800228497,1173600000.0,1132300000.0,244100000.0,0.308008269409,0.0664000870464
2016-12-31,2274300000.0,-0.243463508749,0.0,0.0,0.0,521100000.0,2192000000.0,45300000.0,61300000.0,45300000.0,30000000.0,0.0,0.0,6400000.0,0.0,6400000.0,0.08,-0.08,82714178.0,308522990.0,0.456692060452,0.0,0.051576309194,0.019918216594099997,0.00281405267555,-0.143340808161,117300000.0,45300000.0,6400000.0,0.019918216594099997,0.00281405267555
2015-12-31,3006200000.0,-0.225266087674,0.0,0.0,0.0,712800000.0,3417800000.0,402200000.0,58000000.0,402200000.0,2100000.0,0.0,0.0,-18400000.0,0.0,-18400000.0,-0.24,-0.3,74523935.0,298739382.0,0.8401972258210001,0.0,0.241168252279,0.133790166988,-0.006120683919899999,1.27752644535,725000000.0,402200000.0,-18400000.0,0.133790166988,-0.006120683919899999
2014-12-31,3880300000.0,-0.126294695127,0.0,0.0,0.0,526800000.0,3750000000.0,991900000.0,55700000.0,991900000.0,76800000.0,0.0,0.0,85800000.0,0.0,85800000.0,1.35,1.23,62788634.0,68461157.0,1.5001207180899998,0.0,0.305131046569,0.255624565111,0.0221116923949,0.674174677216,1184000000.0,991900000.0,85800000.0,0.255624565111,0.0221116923949
2013-12-31,4441200000.0,0.49379435605899996,0.0,0.0,0.0,496400000.0,3664900000.0,1444000000.0,45500000.0,1444000000.0,96200000.0,0.0,0.0,104100000.0,0.0,104100000.0,2.24,2.05,46135229.0,278250489.0,0.215273655817,0.0,0.36228947131399997,0.325137350266,0.023439610915999998,0.667567324147,1609000000.0,1444000000.0,104100000.0,0.325137350266,0.023439610915999998
2012-12-31,2973100000.0,0.044916177556,0.0,0.0,0.0,357500000.0,2266600000.0,2439900000.0,24600000.0,2439900000.0,40400000.0,0.0,0.0,20300000.0,0.0,20300000.0,0.48,0.41,42562928.0,259698987.0,0.0450521587903,0.0,0.857354276681,0.8206585718610001,0.00682789008106,0.6712522283140001,2549000000.0,2439900000.0,20300000.0,0.8206585718610001,0.00682789008106
2011-12-31,2845300000.0,0.0165779413341,477900000.0,2367400000.0,0.0,323500000.0,776600000.0,1590800000.0,60600000.0,1385400000.0,28500000.0,-202600000.0,0.0,1356900000.0,0.0,1356900000.0,,,,,0.0,0.8320000000000001,0.537,0.5082,0.47700000000000004,0.9292,1529100000.0,1446000000.0,1154300000.0,0.4869,0.4769
2010-12-31,2798900000.0,1.1239186523,429000000.0,2369900000.0,0.0,177200000.0,410500000.0,1959400000.0,17800000.0,1545900000.0,20300000.0,-66200000.0,0.0,1525600000.0,0.0,1525600000.0,,,,,0.0,0.8467,0.5670000000000001,0.5587,0.545,1.0203,1588200000.0,1563700000.0,1459400000.0,0.5523,0.5451
2009-12-31,1317800000.0,,348400000.0,969400000.0,0.0,236600000.0,237300000.0,732100000.0,30600000.0,708900000.0,14800000.0,-30500000.0,0.0,694100000.0,0.0,694100000.0,,,,,0.0,0.7356,0.583,0.5612,0.527,0.2969,768100000.0,739500000.0,663600000.0,0.5379,0.5267
