,0,1,2,3,4,5,6,7,8,9,10,11,12,13,14,15,16,17,18,19,20,21,22,23,24,25,26,27,28
Date,Cash and cash equivalents,Short-term investments,Cash and short-term investments,Receivables,Inventories,Total current assets,Property Plant & Equipment Net,Goodwill and Intangible Assets,Long-term investments,Tax assets,Total non-current assets,Total assets,Payables,Short-term debt,Total current liabilities,Long-term debt,Total debt,Deferred revenue,Tax Liabilities,Deposit Liabilities,Total non-current liabilities,Total liabilities,Other comprehensive income,Retained earnings (deficit),Total shareholders equity,Investments,Net Debt,Other Assets,Other Liabilities
2018-12-31,87186000.0,0.0,87186000.0,8060000.0,0.0,108636000.0,0.0,0.0,1972157000.0,0.0,,2084743000.0,59031000.0,0.0,60611000.0,515000000.0,960678000.0,0.0,0.0,0.0,,1021525000.0,0.0,-110105000.0,1063218000.0,1978013000.0,427814000.0,13390000.0,1580000.0
2017-12-31,32039000.0,0.0,32039000.0,7022000.0,0.0,50226000.0,0.0,0.0,1967531000.0,0.0,,2021383000.0,58565000.0,0.0,60064000.0,563000000.0,833946000.0,0.0,0.0,0.0,,894079000.0,0.0,-44507000.0,1127304000.0,1972639000.0,,,1499000.0
2016-12-31,38489000.0,0.0,38489000.0,19750000.0,0.0,64088000.0,0.0,0.0,1422759000.0,0.0,,1490155000.0,32126000.0,0.0,33069000.0,422000000.0,692734000.0,0.0,0.0,0.0,,726018000.0,-7222000.0,-28564000.0,764137000.0,1426166000.0,,,943000.0
2015-12-31,41837000.0,0.0,41837000.0,1987000.0,0.0,47489000.0,0.0,0.0,1052666000.0,0.0,,1104032000.0,26424000.0,0.0,27160000.0,234000000.0,504957000.0,0.0,0.0,0.0,,532306000.0,-27054000.0,-15405000.0,571726000.0,1055945000.0,,,736000.0
2014-12-31,8754000.0,,,0.0,0.0,,0.0,0.0,,0.0,,716720000.0,69262000.0,,,,308441000.0,0.0,0.0,0.0,,378463000.0,-9039000.0,-4445000.0,338257000.0,698662000.0,,,
2013-12-31,42010000.0,,,0.0,0.0,,0.0,0.0,,0.0,,260967000.0,7474000.0,,,,66822000.0,0.0,0.0,0.0,,74965000.0,-321000.0,-664000.0,186002000.0,212807000.0,,,
