,0,1,2,3,4,5,6,7,8,9,10,11,12,13,14,15,16,17,18,19,20,21,22,23,24,25,26,27,28
Date,Cash and cash equivalents,Short-term investments,Cash and short-term investments,Receivables,Inventories,Total current assets,Property Plant & Equipment Net,Goodwill and Intangible Assets,Long-term investments,Tax assets,Total non-current assets,Total assets,Payables,Short-term debt,Total current liabilities,Long-term debt,Total debt,Deferred revenue,Tax Liabilities,Deposit Liabilities,Total non-current liabilities,Total liabilities,Other comprehensive income,Retained earnings (deficit),Total shareholders equity,Investments,Net Debt,Other Assets,Other Liabilities
2017-12-31,20909605.0,6247265.0,27156870.0,8275518.0,7176695.0,43684253.0,2427479.0,26515698.0,0.0,113000.0,31059615.0,74743868.0,2983899.0,214000.0,9378694.0,586296.0,800296.0,774635.0,87441.0,0.0,1763939.0,10708029.0,145982121.0,-81999901.0,64035839.0,6247265.0,-20109309.0,0.0,0.0
2017-12,21000000.0,6000000.0,6000000.0,8000000.0,7000000.0,31000000.0,2000000.0,26000000.0,2000000.0,0.0,1000000.0,75000000.0,3000000.0,0.0,9000000.0,0.0,0.0,0.0,,,1000000.0,11000000.0,-1000000.0,-82000000.0,64000000.0,2000000.0,-21000000.0,1000000.0,5000000.0
2016-12-31,9369624.0,13573057.0,22942681.0,6770838.0,7235043.0,37520089.0,2115316.0,28232466.0,5344004.0,76000.0,35855213.0,73375302.0,2689035.0,409000.0,8908662.0,0.0,409000.0,597524.0,113191.0,0.0,993799.0,10135379.0,144430381.0,-81005654.0,63239923.0,18917061.0,-8960624.0,0.0,232918.0
2016-12,9000000.0,14000000.0,14000000.0,7000000.0,7000000.0,36000000.0,2000000.0,28000000.0,5000000.0,0.0,1000000.0,73000000.0,3000000.0,0.0,9000000.0,0.0,0.0,0.0,,,1000000.0,10000000.0,-1000000.0,-81000000.0,63000000.0,5000000.0,-9000000.0,1000000.0,6000000.0
2015-12-31,1976594.0,0.0,1976594.0,8191391.0,4584844.0,15586905.0,2554822.0,30595897.0,0.0,136000.0,33419840.0,49006745.0,2209473.0,329000.0,6461645.0,23336854.0,23665854.0,308000.0,20866.0,0.0,24301395.0,32047726.0,76485650.0,-58910707.0,16959019.0,0.0,21689260.0,0.0,1284686.0
2015-03-31,9261903.0,0.0,9261903.0,7306653.0,4825984.0,22144006.0,1813343.0,32498470.0,0.0,199194.0,34608673.0,56752679.0,3967975.0,102000.0,10253726.0,22529497.0,22631497.0,0.0,25998.0,0.0,22994457.0,34004769.0,75530641.0,-51883229.0,22747910.0,0.0,13369594.0,0.0,756586.0
2015-03,9000000.0,0.0,0.0,7000000.0,5000000.0,35000000.0,2000000.0,33000000.0,0.0,0.0,24000000.0,57000000.0,4000000.0,0.0,10000000.0,0.0,0.0,0.0,,,24000000.0,34000000.0,-1000000.0,-52000000.0,23000000.0,0.0,-9000000.0,1000000.0,29000000.0
2014-03-31,1237000.0,0.0,1237000.0,3818000.0,4194000.0,9704000.0,1062000.0,67000.0,0.0,0.0,1129000.0,10833000.0,1217000.0,22000.0,2841000.0,22414000.0,22436000.0,210000.0,0.0,0.0,22507000.0,25348000.0,102551000.0,-117542000.0,-14515000.0,0.0,21199000.0,0.0,0.0
2014-03,1000000.0,0.0,0.0,4000000.0,4000000.0,1000000.0,1000000.0,0.0,0.0,0.0,23000000.0,11000000.0,1000000.0,0.0,3000000.0,22000000.0,22000000.0,0.0,,,23000000.0,25000000.0,0.0,-118000000.0,-15000000.0,0.0,21000000.0,0.0,0.0
2013-03-31,788000.0,0.0,788000.0,3624000.0,5158000.0,9846000.0,1454000.0,77000.0,0.0,0.0,1531000.0,11377000.0,1300000.0,75000.0,2889000.0,22000.0,97000.0,130000.0,0.0,0.0,106000.0,19973000.0,100769000.0,-109828000.0,-8596000.0,0.0,-691000.0,0.0,16978000.0
2013-03,1000000.0,0.0,0.0,4000000.0,5000000.0,2000000.0,1000000.0,0.0,0.0,0.0,17000000.0,11000000.0,1000000.0,0.0,3000000.0,0.0,0.0,0.0,,,17000000.0,20000000.0,0.0,-110000000.0,-9000000.0,0.0,-1000000.0,0.0,18000000.0
2012-03-31,0.0,0.0,0.0,0.0,0.0,8973000.0,2033000.0,0.0,0.0,0.0,3626000.0,12599000.0,0.0,0.0,2951000.0,0.0,0.0,0.0,0.0,0.0,0.0,13048000.0,0.0,0.0,-449000.0,0.0,0.0,0.0,10097000.0
