,0,1,2,3,4,5,6,7,8,9,10,11,12,13,14,15,16,17,18,19,20,21,22,23,24,25,26,27,28
Date,Cash and cash equivalents,Short-term investments,Cash and short-term investments,Receivables,Inventories,Total current assets,Property Plant & Equipment Net,Goodwill and Intangible Assets,Long-term investments,Tax assets,Total non-current assets,Total assets,Payables,Short-term debt,Total current liabilities,Long-term debt,Total debt,Deferred revenue,Tax Liabilities,Deposit Liabilities,Total non-current liabilities,Total liabilities,Other comprehensive income,Retained earnings (deficit),Total shareholders equity,Investments,Net Debt,Other Assets,Other Liabilities
2017-09-30,152338389.0,183789821.0,336128210.0,4197708.0,0.0,340325918.0,29578513.0,42962211.0,53516317.0,5970282.0,1299832642.0,1640158560.0,0.0,6724646.0,6724646.0,60023100.0,66747746.0,0.0,0.0,1339143287.0,63761968.0,1425960055.0,80977630.0,134207368.0,214198505.0,237306138.0,-85590643.0,0.0,1355473441.0
2017-09,,,,4000000.0,,,,39000000.0,,,,1640000000.0,,,,67000000.0,67000000.0,,,,,1426000000.0,-6000000.0,134000000.0,214000000.0,,67000000.0,0.0,0.0
2016-09-30,91849499.0,206336287.0,298185786.0,3442051.0,0.0,301627837.0,28078591.0,32433364.0,49268973.0,4366522.0,1136761399.0,1438389236.0,0.0,0.0,0.0,50000000.0,50000000.0,0.0,0.0,1161843586.0,54231371.0,1235239700.0,78545454.0,123349890.0,203149536.0,255605260.0,-41849499.0,0.0,1181008329.0
2016-09,,,,3000000.0,,,,30000000.0,,,,1438000000.0,,,,57000000.0,57000000.0,,,,,1235000000.0,-4000000.0,123000000.0,203000000.0,,57000000.0,0.0,0.0
2015-09-30,30343225.0,184404089.0,214747314.0,2668406.0,0.0,217415720.0,19660012.0,4482508.0,48423510.0,5674095.0,809663614.0,1027079334.0,0.0,0.0,0.0,62000000.0,62000000.0,0.0,0.0,738855076.0,65643594.0,822148724.0,89803861.0,114362386.0,204930610.0,232827599.0,31656775.0,0.0,756505130.0
2015-09,,,,3000000.0,,,,4000000.0,,,,1027000000.0,,,,62000000.0,62000000.0,,,,,822000000.0,-5000000.0,114000000.0,205000000.0,,62000000.0,0.0,0.0
2014-09-30,99462953.0,188743273.0,288206226.0,0.0,0.0,288206226.0,20571541.0,4748958.0,47178128.0,8231002.0,722154912.0,1010361138.0,0.0,0.0,2770499.0,55000000.0,55000000.0,2770499.0,0.0,717192200.0,58214680.0,785406269.0,113601847.0,111924543.0,224954869.0,235921401.0,-44462953.0,0.0,724421090.0
2014-09,,,,13000000.0,,,,4000000.0,,,,1010000000.0,,,,55000000.0,55000000.0,,,,,785000000.0,-7000000.0,112000000.0,225000000.0,,55000000.0,0.0,0.0
2013-09-30,161452481.0,215118407.0,376570888.0,2728902.0,0.0,379299790.0,21750756.0,5129168.0,39825881.0,11350745.0,710106059.0,1089405849.0,0.0,0.0,4673371.0,60000000.0,60000000.0,4673371.0,0.0,751296668.0,63183332.0,815628013.0,165248621.0,110141286.0,273777836.0,254944288.0,-101452481.0,0.0,747771310.0
2013-09,,,,33000000.0,,,,4000000.0,,,,1089000000.0,,,,60000000.0,60000000.0,,,,,816000000.0,-8000000.0,110000000.0,274000000.0,,60000000.0,0.0,0.0
