,0,1,2,3,4,5,6,7,8,9,10,11,12,13,14,15,16,17,18,19,20,21,22,23,24,25,26,27,28,29,30
Date,Revenue,Revenue Growth,Cost of Revenue,Gross Profit,R&D Expenses,SG&A Expense,Operating Expenses,Operating Income,Interest Expense,Earnings before Tax,Income Tax Expense,Net Income - Non-Controlling int,Net Income - Discontinued ops,Net Income,Preferred Dividends,Net Income Com,EPS,EPS Diluted,Weighted Average Shs Out,Weighted Average Shs Out (Dil),Dividend per Share,Gross Margin,EBITDA Margin,EBIT Margin,Profit Margin,Free Cash Flow margin,EBITDA,EBIT,Consolidated Income,Earnings Before Tax Margin,Net Profit Margin
2018-12-31,321084000.0,0.258827127097,79996000.0,241088000.0,114291000.0,132428000.0,247308000.0,-6220000.0,0.0,-13458000.0,1430000.0,0.0,0.0,-14888000.0,0.0,-14888000.0,-0.13,-0.13,113251000.0,113251000.0,0.0,0.750856473695,0.08433618616939999,-0.019371877764099998,-0.0463679286417,0.136693201779,27079000.0,-6220000.0,-14888000.0,-0.0419142654259,-0.0463679286417
2017-12-31,255066000.0,0.0038411586445699997,80175000.0,174891000.0,81926000.0,115651000.0,197577000.0,-18967000.0,0.0,-18481000.0,1802000.0,0.0,0.0,-20283000.0,0.0,-20283000.0,-0.2,-0.2,100022000.0,100022000.0,0.0,0.6856695914000001,0.00145060494147,-0.0743611457427,-0.07952059466960001,0.09803737071969999,370000.0,-18967000.0,-20283000.0,-0.0724557565493,-0.07952059466960001
2016-12-31,254090000.0,-0.15689195780600002,119601000.0,134489000.0,66331000.0,109321000.0,175652000.0,-40070000.0,0.0,-40538000.0,1707000.0,0.0,0.0,-42245000.0,0.0,-42245000.0,-0.47,-0.47,90534000.0,90534000.0,0.0,0.529296705892,-0.0636703530245,-0.157700027549,-0.16625998661900002,0.00097996772797,-16178000.0,-40070000.0,-42245000.0,-0.159541894604,-0.16625998661900002
2015-12-31,301373000.0,-0.0113537203855,189849000.0,111524000.0,59391000.0,109291000.0,169224000.0,-57700000.0,0.0,-57731000.0,1479000.0,0.0,0.0,-59210000.0,0.0,-59210000.0,-0.68,-0.68,86818000.0,86818000.0,0.0,0.37005305717500003,-0.00824559598902,-0.191457098015,-0.19646750040600003,-0.0276567575728,-2485000.0,-57700000.0,-59210000.0,-0.19155996058,-0.19646750040600003
2014-12-31,304834000.0,0.19273794385200002,210985000.0,93849000.0,49386000.0,114152000.0,163538000.0,-65134000.0,317000.0,-64572000.0,186000.0,0.0,0.0,-64758000.0,0.0,-64758000.0,-0.78,-0.78,83241000.0,83205000.0,0.0,0.307869200942,0.0536652735587,-0.21367039109799998,-0.212436932888,0.207955805455,16359000.0,-65134000.0,-64758000.0,-0.21182676473099998,-0.212436932888
2013-12-31,255575000.0,0.198004068737,175060000.0,80515000.0,41944000.0,90788000.0,131546000.0,-51031000.0,3818000.0,-55208000.0,642000.0,0.0,0.0,-55850000.0,102557000.0,-158407000.0,-7.58,-7.58,86320115.0,20902000.0,0.0,0.315,0.092,-0.2011,-0.62,-0.1094,23447000.0,-51390000.0,-55850000.0,-0.21600000000000003,-0.2185
2012-12-31,213334000.0,0.24018416677299997,145669000.0,67665000.0,39315000.0,76199000.0,112920000.0,-45255000.0,4393000.0,-49014000.0,29000.0,0.0,0.0,-49043000.0,0.0,-49043000.0,-4.39,-4.39,,11183000.0,0.0,0.3172,0.109,-0.2092,-0.23,-0.1449,23352000.0,-44621000.0,-49043000.0,-0.2298,-0.2299
2011-12-31,172018000.0,0.155087898363,127012000.0,45006000.0,29591000.0,48728000.0,81104000.0,-36098000.0,3558000.0,-37801000.0,-200000.0,0.0,0.0,-37601000.0,0.0,-37601000.0,-4.45,-4.45,,8453000.0,0.0,0.2616,0.161,-0.1991,-0.21899999999999997,-0.0765,27743000.0,-34243000.0,-37601000.0,-0.2198,-0.2186
2010-12-31,148922000.0,,114215000.0,34707000.0,18885000.0,39784000.0,58298000.0,-23591000.0,5801000.0,-27652000.0,-1672000.0,0.0,0.0,-25980000.0,0.0,-25980000.0,-3.74,-3.74,,6953000.0,0.0,0.2331,0.22699999999999998,-0.1467,-0.174,-0.40700000000000003,33817000.0,-21851000.0,-25980000.0,-0.1857,-0.1745
