,0,1,2,3,4,5,6,7,8,9,10,11,12,13,14
Date,Depreciation & Amortization,Stock-based compensation,Operating Cash Flow,Capital Expenditure,Acquisitions and disposals,Investment purchases and sales,Investing Cash flow,Issuance (repayment) of debt,Issuance (buybacks) of shares,Dividend payments,Financing Cash Flow,Effect of forex changes on cash,Net cash flow / Change in cash,Free Cash Flow,Net Cash/Marketcap
2019-12-31,-13833000.0,1023000.0,69684000.0,0.0,-0.0,-3543000.0,-757115000.0,-112350000.0,569000.0,-39227000.0,739120000.0,0.0,91708000.0,69684000.0,0.0
2018-12-31,205000.0,662000.0,63638000.0,0.0,-0.0,0.0,-165884000.0,-2004000.0,37178000.0,-37870000.0,85770000.0,0.0,-16476000.0,63638000.0,0.0
2017-12-31,0.0,607000.0,40240000.0,0.0,-0.0,0.0,-1224475000.0,-10861000.0,53910000.0,-24214000.0,1195738000.0,0.0,11503000.0,40240000.0,0.0
2016-12-31,0.0,618000.0,34457000.0,0.0,-0.0,0.0,-146094000.0,-15427000.0,-15699000.0,-15872000.0,116858000.0,0.0,5221000.0,34457000.0,0.0
2015-12-31,0.0,463000.0,23375000.0,0.0,-3839000.0,0.0,-113147000.0,-4656000.0,-10529000.0,-15028000.0,87928000.0,0.0,-1844000.0,23375000.0,0.0
2014-12-31,0.0,320000.0,24971000.0,0.0,-0.0,0.0,-105807000.0,-0.0,-12267000.0,-14789000.0,82908000.0,0.0,2072000.0,24971000.0,0.0
2013-12-31,0.0,200000.0,-6080000.0,0.0,-0.0,0.0,-387414000.0,-0.0,137777000.0,-3375000.0,403868000.0,0.0,10374000.0,-6080000.0,0.0
