,0,1,2,3,4,5,6,7,8,9,10,11,12,13,14,15,16,17,18,19,20,21,22,23,24,25,26,27,28,29,30
Date,Revenue,Revenue Growth,Cost of Revenue,Gross Profit,R&D Expenses,SG&A Expense,Operating Expenses,Operating Income,Interest Expense,Earnings before Tax,Income Tax Expense,Net Income - Non-Controlling int,Net Income - Discontinued ops,Net Income,Preferred Dividends,Net Income Com,EPS,EPS Diluted,Weighted Average Shs Out,Weighted Average Shs Out (Dil),Dividend per Share,Gross Margin,EBITDA Margin,EBIT Margin,Profit Margin,Free Cash Flow margin,EBITDA,EBIT,Consolidated Income,Earnings Before Tax Margin,Net Profit Margin
2018-12-31,597172000.0,1.0,403282000.0,193890000.0,0.0,18992000.0,18992000.0,98061000.0,34399000.0,98061000.0,1095000.0,0.0,0.0,96966000.0,0.0,96966000.0,1.63,1.62,59138676.0,59390839.0,1.6007350898,0.324680326606,0.294310516903,0.16420897162,0.162375329051,0.266601582124,175754000.0,98061000.0,96966000.0,0.16420897162,0.162375329051
2017-12-31,0.0,0.0,88454000.0,0.0,0.0,19050000.0,213262000.0,107161000.0,33939000.0,79324000.0,3089000.0,0.0,0.0,76235000.0,5274000.0,76235000.0,1.12,1.11,59029490.0,59255244.0,1.61857404553,0.0,0.0,0.0,0.0,0.0,185593000.0,107161000.0,76235000.0,0.0,0.0
2016-12-31,0.0,0.0,92075000.0,0.0,0.0,19167000.0,227923000.0,109953000.0,31846000.0,78705000.0,1999000.0,0.0,0.0,76706000.0,9688000.0,76706000.0,1.13,1.13,58717647.0,58717647.0,1.6090563029499998,0.0,0.0,0.0,0.0,0.0,186984000.0,109953000.0,76706000.0,0.0,0.0
2015-12-31,0.0,0.0,87625000.0,0.0,0.0,18046000.0,214569000.0,101959000.0,31856000.0,70103000.0,2595000.0,0.0,0.0,67508000.0,9688000.0,67508000.0,1.0,0.99,57474256.0,57926399.0,1.40024240071,0.0,0.0,0.0,0.0,0.0,174104000.0,101959000.0,67508000.0,0.0,0.0
2014-12-31,0.0,0.0,71816000.0,0.0,0.0,15557000.0,176146000.0,81832000.0,27357000.0,61489000.0,535000.0,0.0,0.0,60954000.0,9688000.0,60954000.0,1.01,1.0,50488007.0,50890861.0,1.1572215294200001,0.0,0.0,0.0,0.0,0.0,136367000.0,81832000.0,60954000.0,0.0,0.0
2013-12-31,0.0,0.0,65090000.0,0.0,0.0,13125000.0,151245000.0,72878000.0,25780000.0,0.0,1655000.0,0.0,0.0,45318000.0,9688000.0,45318000.0,0.75,0.75,47295089.0,47295089.0,0.941239374769,0.0,0.0,0.0,0.0,0.0,120704000.0,72878000.0,45318000.0,0.0,0.0
2012-12-31,0.0,0.0,41678000.0,0.0,0.0,8132000.0,99000000.0,48692000.0,20976000.0,27915000.0,738000.0,0.0,0.0,27177000.0,4413000.0,27177000.0,0.66,0.66,34048752.0,34048752.0,0.860237109425,0.0,0.0,0.0,0.0,0.0,80123000.0,48692000.0,27177000.0,0.0,0.0
2011-12-31,0.0,-1.0,27682000.0,0.0,0.0,6902000.0,62452000.0,22085000.0,12868000.0,9154000.0,118000.0,0.0,0.0,9036000.0,0.0,9036000.0,0.3,0.3,0.0,0.0,0.0,0.0,0.0,0.0,0.0,0.0,43203000.0,22085000.0,9036000.0,0.0,0.0
2010-12-31,54194000.0,,37341000.0,16853000.0,0.0,7085000.0,15886000.0,967000.0,2344000.0,-1257000.0,-583000.0,0.0,0.0,-674000.0,0.0,-674000.0,-0.07,-0.07,18435271.0,18435271.0,0.4,0.311,0.10800000000000001,0.0201,-0.012,0.1437,5880000.0,1087000.0,-674000.0,-0.0232,-0.0124
