,0,1,2,3,4,5,6,7,8,9,10,11,12,13,14,15,16,17,18,19,20,21,22,23,24,25,26,27,28,29,30
Date,Revenue,Revenue Growth,Cost of Revenue,Gross Profit,R&D Expenses,SG&A Expense,Operating Expenses,Operating Income,Interest Expense,Earnings before Tax,Income Tax Expense,Net Income - Non-Controlling int,Net Income - Discontinued ops,Net Income,Preferred Dividends,Net Income Com,EPS,EPS Diluted,Weighted Average Shs Out,Weighted Average Shs Out (Dil),Dividend per Share,Gross Margin,EBITDA Margin,EBIT Margin,Profit Margin,Free Cash Flow margin,EBITDA,EBIT,Consolidated Income,Earnings Before Tax Margin,Net Profit Margin
2018-12-31,7041928104.5752,-0.08073672518660001,4560294117.6471,2481633986.9281,121732026.1438,907156862.7451,1058954248.366,1422679738.5621,588235.2941,1470130718.9542,209313725.4902,0.0,0.0,1260816993.4641,0.0,1260816993.4641,1.5817,1.5784,253511325.0,253511325.0,0.0509,0.3524,0.0117,0.2089,0.0058,0.3586,2512156862.7451,1470718954.2484,1260816993.4641,0.2088,0.179
2017-12-31,7660404040.404,0.073997366344,4944006734.0067,2716397306.3973,130841750.8418,1009528619.5286,1140370370.3704,1576026936.0269,740740.7407,1616464646.4646,264276094.2761,0.0,0.0,1352188552.1886,0.0,1352188552.1886,1.6936,1.6902,261193486.3636,261193486.3636,0.0552,0.3546,0.0118,0.2111,0.006,0.3373,2692289562.2896,1617205387.2054,1352188552.1886,0.21100000000000002,0.1765
2016-12-31,7132609706.9313,0.0126493360314,4575965265.9327,2556644440.9986,117382539.9287,932020468.2897,1049403008.2183,1507241432.7803,620251.2017,1532423631.5708,241494805.3962,0.0,0.0,1290928826.1746,0.0,1290928826.1746,1.6189,1.6158,240578277.0972,240578277.0972,0.0537,0.3584,0.011000000000000001,0.2149,0.0056,0.3217,2540486897.1934,1533043882.7725,1290928826.1746,0.2148,0.18100000000000002
2015-12-31,7043513932.3589,-0.0142891176569,4501078732.2617,2542435200.0972,109909143.3954,899024582.9408,1008933726.3363,1533501473.7610002,1002765.2009999999,1578686681.4549,276550487.7085,0.0,0.0,1302136193.7464,0.0,1302136193.7464,1.6469999999999998,1.6439,235724164.9701,235724164.9701,0.0478,0.361,0.0112,0.2243,0.0056,0.2522,2596067944.9391,1579689446.6559,1302136193.7464,0.2241,0.1849
2014-12-31,7145618516.066,-0.0639399906908,4678838331.2837,2466780184.7823,110490965.85,963611137.3885,1074102103.2384,1392678081.5438,1450509.2549,1467915365.9383,283322296.8499,0.0,0.0,1184593069.0884,0.0,1184593069.0884,1.5041,1.501,244614087.1252,244614087.1252,0.0251,0.3452,0.0112,0.2056,0.0052,0.2091,2545076151.7359,1469365875.1931,1184593069.0884,0.2054,0.1658
2013-12-31,7633718399.4643,0.00146442086369,4931826552.821,2701891846.6432,124761426.4189,982889670.1825,1107651096.6014,1594240750.0419,1205424.4098,1606294994.1403,216909425.7492,76678386.0707,0.0,1389385568.3911,0.0,1389385568.3911,1.7914,1.788,259750428.4279,259750428.4279,0.0595,0.3539,0.0118,0.2106,0.0061,0.2048,2685417713.0420003,1607500418.5501,1427021597.1873,0.2104,0.182
2012-12-31,7622555769.7604,0.0614794342748,4871695125.3098,2750860644.4506,127306527.1275,902953731.7543,1030260258.8819,1720600385.5687,757367.1165,1680941889.2867,252547507.5737,76631781.8783,0.0,1428394381.7129998,0.0,1428394381.7129998,1.8418,1.8349,267056132.7802,267056148.444,0.0628,0.3609,0.0126,0.2206,0.0064,0.1836,2788832277.6095,1681699256.4032,1467123381.9884,0.2205,0.1874
2011-12-31,7181067784.8582,0.0337928043587,4342820351.9662,2838247432.892,116386568.4947,903093736.5867,1019480305.0814,1818767127.8106,1023541.4534,1838148380.4933,284082279.5259,33908937.8281,0.0,1554066100.9674,0.0,1554066100.9674,1.9943,1.9909999999999999,256131229.4054,257183808.2346,0.0631,0.3952,0.0134,0.2561,0.0071,0.2259,2905834186.2845,1839171921.9467,1587975038.7955,0.256,0.2164
2010-12-31,6946331754.8555,0.11972090210000001,3957586987.8526,2988744767.003,111522887.9281,908688490.838,1020211378.766,1968533388.2369,3671676.6179,1946949420.081,313259213.5063,32564683.275,0.0,1633690206.5747,0.0,1633690206.5747,1.6849,1.6780000000000002,266194720.5065,332743394.4136,0.0545,0.4303,0.0154,0.2808,0.0081,0.2976,3119518221.1242,1950621096.6989,1666254889.8497,0.2803,0.2352
2009-12-31,6203627834.2455,0.0097,3525754495.6998,2677873338.5457,99233776.3878,814949179.0461,914182955.4339,1763690383.1118,469116.4973,1767005473.0258,398530101.6419,23080531.6654,0.0,1368475371.3839,0.0,1368475371.3839,1.4105,1.4073,242612145.2385,303262173.5731,0.0,0.4317,0.0146,0.2849,0.0069,0.2615,2903362001.5637,1767474589.5231,1391555903.0493,0.2848,0.2206
