,0,1,2,3,4,5,6,7,8,9,10,11,12,13,14,15,16,17,18,19,20,21,22,23,24,25,26,27,28,29,30
Date,Revenue,Revenue Growth,Cost of Revenue,Gross Profit,R&D Expenses,SG&A Expense,Operating Expenses,Operating Income,Interest Expense,Earnings before Tax,Income Tax Expense,Net Income - Non-Controlling int,Net Income - Discontinued ops,Net Income,Preferred Dividends,Net Income Com,EPS,EPS Diluted,Weighted Average Shs Out,Weighted Average Shs Out (Dil),Dividend per Share,Gross Margin,EBITDA Margin,EBIT Margin,Profit Margin,Free Cash Flow margin,EBITDA,EBIT,Consolidated Income,Earnings Before Tax Margin,Net Profit Margin
2018-12-31,42095079594.7902,0.013361204964299999,13785817655.5716,28309261939.2185,0.0,6967149059.3343,26987120115.7742,1322141823.4443,235166425.4703,1884370477.5687,408683068.0174,8683068.0174,0.0,1475687409.5514,0.0,1475687409.5514,0.4776,0.4776,4428093248.191,4428093248.191,0.012,0.6725,0.045,0.0504,0.0051,0.1471,13085817655.5716,2119536903.0391,1484370477.5687,0.0448,0.0351
2017-12-31,41540054413.5429,0.052147462963,14172762998.7908,27367291414.7521,0.0,6419437726.7231,26772823458.282997,594467956.4692,866686819.8307,388603385.7316,112303506.6505,3325272.0677,0.0,276299879.081,0.0,276299879.081,0.1058,0.1058,3619570901.2999,3619570901.2999,0.0,0.6588,0.0472,0.0302,0.0011,0.1898,12968107617.896002,1255290205.5623,279625151.1487,0.0094,0.0067
2016-12-31,39481209503.2397,-0.0749920379228,14860619150.468,24620590352.7718,0.0,5314182865.3708,24232829373.6501,387760979.1217,722390208.7833,112167026.6379,22174226.0619,719942.4046,0.0,89992800.576,0.0,89992800.576,0.0432,0.0432,3448103827.6458,3448103827.6458,0.0377,0.6236,0.0433,0.0211,0.0003,-0.0392,11893592512.598999,834557235.4212,90712742.9806,0.0028,0.0023
2015-12-31,42682021260.2064,-0.0713379548136,15633954706.5167,27048066553.6897,0.0,5413649668.7721,25389770451.3942,1658296102.2955,1068248343.8607,2162224618.7028,535048528.7321,0.0,0.0,1627176089.9707,0.0,1627176089.9707,0.6779,0.6779,3689257908.3346,3689257908.3346,0.0498,0.6337,0.0544,0.0757,0.0059,0.0182,15052688337.6984,3230472962.5635,1627176089.9707,0.0507,0.0381
2014-12-31,45960768485.6313,-0.055043683749799996,15474168550.2099,30486599935.4214,0.0,5594446238.2951,27434775589.2799,3051824346.1414,745398773.0061,2572005166.29,625766871.1656,0.0,0.0,1946238295.1243,0.0,1946238295.1243,0.8234,0.7911,3839485792.7026,3839485792.7026,0.0417,0.6633,0.0536,0.0722,0.0068,0.0993,15243138521.1495,3317403939.2961,1946238295.1243,0.055999999999999994,0.0423
2013-12-31,48637982195.8457,0.218460333486,19341905703.9235,29296076491.9222,0.0,5239531816.6832,26696834817.0129,2599241674.9093,513188262.4464,2260797889.878,545004945.5984,0.0,0.0,1715792944.2796,0.0,1715792944.2796,0.7254,0.7089,3884776115.8919,3884776115.8919,0.0318,0.6023,0.0475,0.057,0.0058,0.0522,14016320474.7774,2773986152.3244,1715792944.2796,0.0465,0.0353
2012-12-31,39917575368.8262,0.20305973277399997,15432488774.8557,24485086593.9705,0.0,4614817190.5067,22624599101.9885,1860487491.982,587556125.7216,1526779987.1713,388871071.1995,0.0,0.0,1137908915.9718,0.0,1137908915.9718,0.4811,0.4811,3778848928.6402,3778848928.6402,0.0255,0.6134,0.0478,0.053,0.0047,-0.0372,11905388069.2752,2114336112.8929,1137908915.9718,0.0382,0.0285
2011-12-31,33180044416.2437,0.277868315033,11987309644.6701,21192734771.5736,0.0,4219701776.6497,20337563451.7766,855171319.7969999,233819796.9543,888007614.2132,217480964.467,0.0,0.0,670526649.7462,0.0,670526649.7462,0.2855,0.2855,3737654974.4607,3737654974.4607,0.0194,0.6387,0.0493,0.0338,0.0032,-0.028999999999999998,10325666243.6548,1121827411.1675,670526649.7462,0.0268,0.0202
2010-12-31,25965151515.1515,0.150871212613,7697272727.2727,18267878787.8788,0.0,3537575757.5758,17515000000.0,752878787.8788,265000000.0,694545454.5455,133787878.7879,0.0,0.0,560757575.7576,0.0,560757575.7576,0.2424,0.2424,3570014016.8182,3570014016.8182,0.0355,0.7036,0.0539,0.037000000000000005,0.0033,-0.0343,9240454545.4545,959545454.5455,560757575.7576,0.0267,0.0216
2009-12-31,22561300717.7384,-0.0365,5768858942.4345,16792441775.3039,0.0,3214735608.6129,15195986524.0955,1596455251.2084,151750402.8124,1780577120.2578,394316683.7557,0.0,0.0,1386260436.5021,0.0,1386260436.5021,0.5859,0.5859,3481459692.6908,3481459692.6908,0.0857,0.7443,0.057999999999999996,0.0856,0.0089,-0.0878,8925882525.2673,1932327523.0702,1386260436.5021,0.0789,0.0614
