,0,1,2,3,4,5,6,7,8,9,10,11,12,13,14,15,16,17,18,19,20,21,22,23,24,25,26,27,28
Date,Cash and cash equivalents,Short-term investments,Cash and short-term investments,Receivables,Inventories,Total current assets,Property Plant & Equipment Net,Goodwill and Intangible Assets,Long-term investments,Tax assets,Total non-current assets,Total assets,Payables,Short-term debt,Total current liabilities,Long-term debt,Total debt,Deferred revenue,Tax Liabilities,Deposit Liabilities,Total non-current liabilities,Total liabilities,Other comprehensive income,Retained earnings (deficit),Total shareholders equity,Investments,Net Debt,Other Assets,Other Liabilities
2019-12-31,4619000000.0,937000000.0,5556000000.0,334000000.0,2661000000.0,29845000000.0,4417000000.0,81164000000.0,21542000000.0,1258000000.0,125929000000.0,155774000000.0,5090000000.0,5514000000.0,40138000000.0,31893000000.0,37407000000.0,0.0,1018000000.0,0.0,45740000000.0,110436000000.0,26113000000.0,20162000000.0,45338000000.0,22479000000.0,32788000000.0,0.0,24558000000.0
2018-12-31,3855000000.0,378000000.0,4233000000.0,276000000.0,2821000000.0,20430000000.0,4562000000.0,83508000000.0,378000000.0,0.0,132796000000.0,153226000000.0,4366000000.0,2955000000.0,31895000000.0,39523000000.0,42478000000.0,727000000.0,928000000.0,8006000000.0,52446000000.0,112198000000.0,27647000000.0,15088000000.0,41028000000.0,756000000.0,38623000000.0,0.0,27857000000.0
2017-12-31,2972000000.0,2136000000.0,5108000000.0,8918000000.0,228000000.0,9311000000.0,1563000000.0,6509000000.0,26483000000.0,39000000.0,52448000000.0,61759000000.0,489000000.0,240000000.0,11009000000.0,5199000000.0,5439000000.0,0.0,0.0,0.0,36990000000.0,47999000000.0,-1082000000.0,15800000000.0,13711000000.0,28619000000.0,331000000.0,-4943000000.0,10280000000.0
2016-12-31,3185000000.0,691000000.0,3876000000.0,9555000000.0,0.0,14230000000.0,1536000000.0,5980000000.0,2153000000.0,304000000.0,,59360000000.0,8946000000.0,250000000.0,13539000000.0,4756000000.0,5032000000.0,634000000.0,0.0,8458000000.0,,45575000000.0,-1382000000.0,13855000000.0,13723000000.0,26815000000.0,,,4343000000.0
2015-12-31,1968000000.0,381000000.0,2349000000.0,10507000000.0,0.0,13763000000.0,1534000000.0,6019000000.0,1785000000.0,379000000.0,,57088000000.0,8848000000.0,0.0,12960000000.0,5020000000.0,5169000000.0,629000000.0,0.0,8443000000.0,,44975000000.0,-1250000000.0,12121000000.0,12035000000.0,24713000000.0,,,4112000000.0
2014-12-31,1420000000.0,,,9837000000.0,0.0,,1502000000.0,5989000000.0,,293000000.0,,55870000000.0,8444000000.0,,,,5126000000.0,621000000.0,0.0,8430000000.0,,44991000000.0,-936000000.0,10289000000.0,10774000000.0,24342000000.0,,,
2013-12-31,2795000000.0,,,9290000000.0,0.0,,1464000000.0,6029000000.0,,92000000.0,,54336000000.0,7506000000.0,,,,5247000000.0,580000000.0,0.0,8470000000.0,,43659000000.0,-520000000.0,13676000000.0,10567000000.0,22365000000.0,,,
2012-12-31,2978000000.0,,,8033000000.0,0.0,,1120000000.0,6001000000.0,,374000000.0,,53734000000.0,8523000000.0,,,,5187000000.0,549000000.0,0.0,8508000000.0,,43851000000.0,-671000000.0,12330000000.0,9769000000.0,23660000000.0,,,
2011-12-31,4690000000.0,,,7614000000.0,0.0,,1024000000.0,3164000000.0,,803000000.0,,50697000000.0,7932000000.0,,,,5094000000.0,502000000.0,0.0,8553000000.0,,42703000000.0,-787000000.0,10787000000.0,7994000000.0,22490000000.0,,,
2010-12-31,1605000000.0,,,7813000000.0,0.0,,912000000.0,3119000000.0,,782000000.0,,45682000000.0,7182000000.0,,,,2840000000.0,416000000.0,0.0,8509000000.0,,39019000000.0,-614000000.0,9879000000.0,6645000000.0,20948000000.0,,,
2009-12-31,924000000.0,,,7958000000.0,0.0,,862000000.0,2876000000.0,,1029000000.0,,43013000000.0,6718000000.0,,,,2563000000.0,427000000.0,0.0,8484000000.0,,37584000000.0,-618000000.0,8625000000.0,5417000000.0,19839000000.0,,,
