,0,1,2,3,4,5,6,7,8,9,10,11,12,13,14
Date,Depreciation & Amortization,Stock-based compensation,Operating Cash Flow,Capital Expenditure,Acquisitions and disposals,Investment purchases and sales,Investing Cash flow,Issuance (repayment) of debt,Issuance (buybacks) of shares,Dividend payments,Financing Cash Flow,Effect of forex changes on cash,Net cash flow / Change in cash,Free Cash Flow,Net Cash/Marketcap
2017-12,2000000.0,0.0,,,,-71000000.0,-146000000.0,,,,129000000.0,,4000000.0,,
2016-12,2000000.0,0.0,,,,-42000000.0,-64000000.0,,,,47000000.0,,1000000.0,,
2015-12,2000000.0,0.0,,,,-30000000.0,-12000000.0,,,,3000000.0,,6000000.0,,
2014-12,2000000.0,0.0,,,,-58000000.0,-48000000.0,,,,29000000.0,,-4000000.0,,
2013-12,2000000.0,0.0,,,,-64000000.0,-56000000.0,,,,31000000.0,,-12000000.0,,
