,0,1,2,3,4,5,6,7,8,9,10,11,12,13,14
Date,Depreciation & Amortization,Stock-based compensation,Operating Cash Flow,Capital Expenditure,Acquisitions and disposals,Investment purchases and sales,Investing Cash flow,Issuance (repayment) of debt,Issuance (buybacks) of shares,Dividend payments,Financing Cash Flow,Effect of forex changes on cash,Net cash flow / Change in cash,Free Cash Flow,Net Cash/Marketcap
2018-12-31,25057.0,306639.0,-2199042.0,0.0,0.0,-66620894.0,-66620894.0,67227150.0,1190000.0,0.0,68917541.0,-6236.0,91369.0,-2199042.0,
2017-12-31,45093.0,0.0,9897820.0,0.0,0.0,-15826368.0,-15855097.0,3196569.0,0.0,-873600.0,2544458.0,136611.0,-3276208.0,9897820.0,
2016-12-31,37448.0,0.0,23428675.0,-16341.0,0.0,0.0,-24209963.0,441930.0,1690391.0,-7795182.0,-1270243.0,0.0,-171514.0,-1359503.0,
2016-03-31,0.0,0.0,23428675.0,-16341.0,0.0,0.0,-24209963.0,441930.0,1690391.0,-7795182.0,-1270243.0,0.0,-171514.0,-1359503.0,
2015-12-31,39415.0,,15942204.0,-156847.0,,,-22059336.0,18671333.0,1.0,-5647881.0,13023453.0,,,,
2015-03-31,0.0,0.0,-1359503.0,0.0,0.0,-69972643.0,0.0,1187989.0,0.0,0.0,1187989.0,0.0,224629.0,-308256.0,
