,0,1,2,3,4,5,6,7,8,9,10,11,12,13,14
Date,Depreciation & Amortization,Stock-based compensation,Operating Cash Flow,Capital Expenditure,Acquisitions and disposals,Investment purchases and sales,Investing Cash flow,Issuance (repayment) of debt,Issuance (buybacks) of shares,Dividend payments,Financing Cash Flow,Effect of forex changes on cash,Net cash flow / Change in cash,Free Cash Flow,Net Cash/Marketcap
2019-12-31,135500000.0,5900000.0,191900000.0,54900000.0,-0.0,0.0,14500000.0,-0.0,-19100000.0,-0.0,-343000000.0,0.0,19100000.0,137000000.0,0.0
2018-12-31,138800000.0,-1200000.0,75200000.0,49800000.0,-0.0,0.0,8300000.0,-0.0,-155700000.0,-0.0,-442100000.0,0.0,155700000.0,25400000.0,0.0
2017-12-31,189300000.0,11600000.0,-26500000.0,70000000.0,-0.0,0.0,453400000.0,-0.0,-164300000.0,-0.0,83200000.0,0.0,164300000.0,-96500000.0,0.0
2016-12-31,213900000.0,5600000.0,4100000.0,139400000.0,-0.0,0.0,-154200000.0,-75000000.0,-4200000.0,-0.0,148700000.0,0.0,-1400000.0,-135300000.0,0.0
2015-12-31,181000000.0,9800000.0,376400000.0,339300000.0,-0.0,0.0,-389000000.0,-0.0,-5600000.0,-0.0,9700000.0,0.0,-2900000.0,37100000.0,0.0
2014-12-31,169500000.0,6500000.0,226800000.0,289900000.0,-263600000.0,0.0,-658800000.0,-0.0,-8500000.0,-0.0,319400000.0,0.0,-112600000.0,-63100000.0,0.0
2013-12-31,140700000.0,4800000.0,39100000.0,160800000.0,-177700000.0,0.0,-370300000.0,-11900000.0,-121100000.0,-0.0,420100000.0,0.0,88900000.0,-121700000.0,0.0
2012-12-31,111106000.0,6512000.0,380108000.0,57053000.0,-569191000.0,0.0,-624234000.0,-0.0,-32174000.0,-0.0,276236000.0,0.0,32110000.0,323055000.0,0.0
2011-12-31,0.0,0.0,0.0,0.0,-0.0,0.0,0.0,-0.0,0.0,-0.0,0.0,0.0,0.0,0.0,0.0
2010-12-31,60287000.0,1540000.0,134143000.0,-34759000.0,0.0,0.0,-34759000.0,-34220000.0,545000.0,-65739000.0,-99396000.0,0.0,-12000.0,99384000.0,-0.4886
2009-12-31,61735000.0,1075000.0,100854000.0,-22714000.0,0.0,0.0,-22714000.0,-71044000.0,51061000.0,-59258000.0,-78139000.0,0.0,1000.0,78140000.0,-0.6148
