,0,1,2,3,4,5,6,7,8,9,10,11,12,13,14
Date,Depreciation & Amortization,Stock-based compensation,Operating Cash Flow,Capital Expenditure,Acquisitions and disposals,Investment purchases and sales,Investing Cash flow,Issuance (repayment) of debt,Issuance (buybacks) of shares,Dividend payments,Financing Cash Flow,Effect of forex changes on cash,Net cash flow / Change in cash,Free Cash Flow,Net Cash/Marketcap
2019-12-31,20638000.0,1510000.0,23772000.0,42623000.0,-0.0,0.0,-74903000.0,-4531000.0,-42500000.0,-17089000.0,62199000.0,0.0,42500000.0,-18851000.0,0.0
2018-12-31,17852000.0,1940000.0,27256000.0,45642000.0,-0.0,0.0,-39295000.0,-12325000.0,-37028000.0,-17038000.0,41127000.0,0.0,29088000.0,-18386000.0,0.0
2017-12-31,19460000.0,3110000.0,10440000.0,22725000.0,-0.0,0.0,-187656000.0,-4888000.0,-7940000.0,-16565000.0,147609000.0,0.0,-29607000.0,-12285000.0,0.0
2016-12-31,13502000.0,2523000.0,9350000.0,-121285000.0,0.0,0.0,-121285000.0,43850000.0,-1590000.0,-9951000.0,24150000.0,0.0,-87785000.0,-111935000.0,-5.8558
2015-12-31,11662000.0,709000.0,9440000.0,-9025000.0,0.0,0.0,-9025000.0,-737000.0,130199000.0,-15884000.0,115760000.0,0.0,116175000.0,415000.0,-5.8558
2014-12-31,4034000.0,0.0,7472000.0,-224822000.0,0.0,0.0,-226822000.0,199345000.0,0.0,-67450000.0,224707000.0,0.0,5357000.0,-217350000.0,-5.8558
