,0,1,2,3,4,5,6,7,8,9,10,11,12,13,14,15,16,17,18,19,20,21,22,23,24,25,26,27,28,29,30
Date,Revenue,Revenue Growth,Cost of Revenue,Gross Profit,R&D Expenses,SG&A Expense,Operating Expenses,Operating Income,Interest Expense,Earnings before Tax,Income Tax Expense,Net Income - Non-Controlling int,Net Income - Discontinued ops,Net Income,Preferred Dividends,Net Income Com,EPS,EPS Diluted,Weighted Average Shs Out,Weighted Average Shs Out (Dil),Dividend per Share,Gross Margin,EBITDA Margin,EBIT Margin,Profit Margin,Free Cash Flow margin,EBITDA,EBIT,Consolidated Income,Earnings Before Tax Margin,Net Profit Margin
2019-12-31,0.0,0.0,0.0,0.0,8996058.0,5182566.0,14221336.0,-14178624.0,0.0,0.0,0.0,0.0,0.0,-14092912.0,0.0,-14092912.0,-1.84,-1.84,7675092.0,7675092.0,0.0,0.0,0.0,0.0,0.0,0.0,-14045826.0,-14178624.0,-14092912.0,0.0,0.0
2018-12-31,0.0,0.0,0.0,0.0,6835229.0,4820073.0,11684989.0,-13330764.0,0.0,0.0,0.0,0.0,0.0,-13239027.0,2241795.0,-13239027.0,-5.23,-5.23,2961972.0,2961972.0,0.0,0.0,0.0,0.0,0.0,0.0,-13248499.0,-13330764.0,-13239027.0,0.0,0.0
2017-12-31,0.0,0.0,0.0,0.0,9465666.0,4135304.0,13617575.0,-13600970.0,0.0,0.0,0.0,0.0,0.0,-13562290.0,1448945.0,-13562290.0,-1.07,-1.07,14031329.0,14031329.0,0.0,0.0,0.0,0.0,0.0,0.0,-12054922.0,-13600970.0,-13562290.0,0.0,0.0
2016-12-31,0.0,0.0,0.0,0.0,4750414.0,4699338.0,9457649.0,-9449752.0,0.0,0.0,0.0,0.0,0.0,-6180326.0,0.0,-6180326.0,-1.36,-1.36,4536563.0,4536563.0,0.0,0.0,0.0,0.0,0.0,0.0,-9093087.0,-9449752.0,-6180326.0,0.0,0.0
2015-12-31,0.0,0.0,0.0,0.0,5158874.0,3395360.0,8553393.0,-8757865.0,0.0,0.0,0.0,0.0,0.0,-5495030.0,0.0,-5495030.0,-7.03,-7.03,781975.0,781975.0,0.0,0.0,0.0,0.0,0.0,0.0,-8395363.0,-8757865.0,-5495030.0,0.0,0.0
2014-12-31,0.0,0.0,0.0,0.0,5964453.0,3704676.0,9222815.0,-9890945.0,0.0,0.0,0.0,0.0,0.0,-8052102.0,0.0,-8052102.0,-1.75,-1.75,4592657.0,4592657.0,0.0,0.0,0.0,0.0,0.0,0.0,-9523748.0,-9890945.0,-8052102.0,0.0,0.0
2013-12-31,0.0,-1.0,0.0,0.0,6860163.0,4444767.0,11295582.0,-12401804.0,0.0,0.0,0.0,0.0,0.0,-10782168.0,0.0,-10782168.0,-0.19,-0.19,55891148.0,55891148.0,0.0,0.0,0.0,0.0,0.0,0.0,-11977046.0,-12401804.0,-10782168.0,0.0,0.0
2012-12-31,44479.0,0.0,0.0,0.0,3599080.0,2692433.0,6607697.0,-7037720.0,257973.0,0.0,1106296.0,0.0,0.0,-7435422.0,0.0,-7435422.0,-0.31,-0.31,23959008.0,23959008.0,0.0,0.0,-145.076980148,-158.225679534,-167.16702264,-136.884844533,-6452879.0,-7037720.0,-7435422.0,0.0,-167.16702264
2011-12-31,44479.0,0.0,0.0,0.0,3599080.0,2692433.0,6607697.0,-7037720.0,0.0,0.0,0.0,0.0,0.0,-7435422.0,0.0,-7435422.0,-0.31,-0.31,23959008.0,23959008.0,0.0,0.0,-145.076980148,-158.225679534,-167.16702264,-136.884844533,-6452879.0,-7037720.0,-7435422.0,0.0,-167.16702264
