,0,1,2,3,4,5,6,7,8,9,10,11,12,13,14,15,16,17,18,19,20,21,22,23,24,25,26,27,28
Date,Cash and cash equivalents,Short-term investments,Cash and short-term investments,Receivables,Inventories,Total current assets,Property Plant & Equipment Net,Goodwill and Intangible Assets,Long-term investments,Tax assets,Total non-current assets,Total assets,Payables,Short-term debt,Total current liabilities,Long-term debt,Total debt,Deferred revenue,Tax Liabilities,Deposit Liabilities,Total non-current liabilities,Total liabilities,Other comprehensive income,Retained earnings (deficit),Total shareholders equity,Investments,Net Debt,Other Assets,Other Liabilities
2019-12-31,6875273.0,7985886.0,14861159.0,1352670.0,0.0,16235198.0,405363.0,17712592.0,0.0,1819324.0,21637806.0,38278367.0,2862949.0,1840228.0,7894457.0,7963449.0,9803677.0,500000.0,0.0,0.0,8963449.0,23719332.0,304800475.0,-290516780.0,14559035.0,7985886.0,2928404.0,405363.0,6861426.0
2018-12-31,13353543.0,14257998.0,27611541.0,451293.0,0.0,28131143.0,184627.0,17712592.0,0.0,0.0,18539817.0,46855587.0,3020638.0,0.0,6106536.0,9417037.0,9417037.0,500000.0,3900000.0,0.0,10980315.0,25994515.0,294308125.0,-273665247.0,20861072.0,14257998.0,-3936506.0,184627.0,8907664.0
2017-12-31,11444055.0,12724020.0,24168075.0,89186.0,0.0,24311701.0,175771.0,22222592.0,0.0,0.0,23026961.0,47514433.0,3416863.0,0.0,6199690.0,0.0,0.0,500000.0,0.0,0.0,2071710.0,20809925.0,288323788.0,-261781888.0,26704508.0,12724020.0,-11444055.0,175771.0,12538525.0
2016-12-31,2624162.0,1680000.0,4304162.0,89186.0,0.0,4512578.0,462836.0,24742592.0,0.0,0.0,25874277.0,30849691.0,2878978.0,2560553.0,8423287.0,2560553.0,5121106.0,500000.0,0.0,0.0,5072905.0,24123865.0,247793275.0,-241379712.0,6725826.0,1680000.0,2496944.0,462836.0,10627673.0
2015-12-31,9265144.0,10799890.0,20065034.0,89186.0,0.0,20281316.0,854872.0,27777829.0,0.0,0.0,27918346.0,49054534.0,2830227.0,4099847.0,9349843.0,2350018.0,6449865.0,500000.0,0.0,0.0,5397615.0,28668870.0,238285930.0,-218130360.0,20385664.0,10799890.0,-2815279.0,854872.0,13921412.0
2014-12-31,12686881.0,24173406.0,36860287.0,200821.0,0.0,37506271.0,1170497.0,27777829.0,0.0,0.0,28017764.0,66694532.0,3480225.0,3654231.0,10090821.0,6053065.0,9707296.0,500000.0,0.0,0.0,9839657.0,33869196.0,227714094.0,-195073702.0,32825336.0,24173406.0,-2979585.0,1170497.0,13938718.0
2013-12-31,5718504.0,7797689.0,13516193.0,111635.0,0.0,43762119.0,832886.0,0.0,0.0,0.0,1075567.0,45670572.0,1452436.0,10891.0,4670980.0,5000000.0,5010891.0,500000.0,0.0,0.0,9472731.0,14146737.0,200717778.0,-169287157.0,31523835.0,7797689.0,-707613.0,832886.0,3026.0
2012-12-31,14991488.0,8037620.0,23029108.0,246352.0,0.0,23648984.0,1114621.0,28125.0,-4283932.0,0.0,1709934.0,25358918.0,2339768.0,1410455.0,5005202.0,3661147.0,5071602.0,0.0,0.0,0.0,4107926.0,13397060.0,162585558.0,-150876770.0,11961858.0,3753688.0,-9919886.0,0.0,4283932.0
2011-12-31,20145854.0,10400905.0,30546759.0,0.0,0.0,31508485.0,782720.0,35625.0,0.0,0.0,358254.0,32649459.0,4010203.0,110287.0,6152424.0,71602.0,181889.0,0.0,0.0,0.0,137069.0,6455891.0,150353100.0,-124221823.0,26193568.0,10400905.0,-19963965.0,782720.0,166398.0
2010-12-31,1138916.0,395556.0,1534472.0,0.0,0.0,2026656.0,378672.0,43125.0,0.0,0.0,498593.0,2525249.0,4548586.0,123465.0,6796240.0,56403.0,179868.0,0.0,0.0,0.0,304534.0,7100774.0,-18367.0,-100938261.0,-4575525.0,395556.0,-1354604.0,492184.0,2124189.0
2009-12-31,6923476.0,5695466.0,12618942.0,0.0,0.0,14120218.0,537407.0,50625.0,0.0,806255.0,685114.0,14805332.0,2190957.0,108332.0,3750831.0,179868.0,288200.0,0.0,0.0,0.0,1018707.0,4769538.0,68173.0,-82119826.0,10035794.0,5695466.0,-12330742.0,1501276.0,1451542.0
