,0,1,2,3,4,5,6,7,8,9,10,11,12,13,14,15,16,17,18,19,20,21,22,23,24,25,26,27,28
Date,Cash and cash equivalents,Short-term investments,Cash and short-term investments,Receivables,Inventories,Total current assets,Property Plant & Equipment Net,Goodwill and Intangible Assets,Long-term investments,Tax assets,Total non-current assets,Total assets,Payables,Short-term debt,Total current liabilities,Long-term debt,Total debt,Deferred revenue,Tax Liabilities,Deposit Liabilities,Total non-current liabilities,Total liabilities,Other comprehensive income,Retained earnings (deficit),Total shareholders equity,Investments,Net Debt,Other Assets,Other Liabilities
2019-12-31,18808000.0,0.0,18808000.0,2980000.0,0.0,32801000.0,146884000.0,41208000.0,0.0,865000.0,761477000.0,794278000.0,4458000.0,74279000.0,328009000.0,532977000.0,607256000.0,36047000.0,1155000.0,0.0,545306000.0,882194000.0,1919000.0,-91770000.0,-87916000.0,0.0,588448000.0,0.0,8879000.0
2018-12-31,48088000.0,0.0,48088000.0,3050000.0,0.0,61931000.0,157677000.0,31316000.0,0.0,746000.0,199523000.0,261454000.0,3672000.0,21080000.0,95106000.0,178002000.0,199082000.0,37459000.0,1155000.0,0.0,189558000.0,334444000.0,0.0,-73212000.0,-72990000.0,0.0,150994000.0,0.0,49780000.0
2017-12-31,30321000.0,0.0,30321000.0,2216000.0,0.0,68147000.0,151498000.0,11351000.0,0.0,13563000.0,168524000.0,236671000.0,2247000.0,2082000.0,62749000.0,193947000.0,196029000.0,33473000.0,1155000.0,0.0,204523000.0,314628000.0,0.0,-74893000.0,-77957000.0,0.0,165708000.0,0.0,47356000.0
2016-12-31,45596000.0,0.0,45596000.0,1221000.0,238000.0,58834000.0,170580000.0,1143000.0,0.0,0.0,177044000.0,235878000.0,2477000.0,2082000.0,65157000.0,194743000.0,196825000.0,34572000.0,1187000.0,0.0,206731000.0,321548000.0,0.0,-79265000.0,-85670000.0,0.0,151229000.0,0.0,49660000.0
2015-12-31,76217000.0,0.0,76217000.0,1923000.0,337000.0,100091000.0,195341000.0,1196000.0,0.0,219000.0,205269000.0,305360000.0,2615000.0,2810000.0,72144000.0,266189000.0,268999000.0,40225000.0,1187000.0,0.0,278297000.0,401605000.0,0.0,-87360000.0,-96245000.0,0.0,192782000.0,0.0,51164000.0
2014-12-31,93452000.0,0.0,93452000.0,3656000.0,573000.0,122886000.0,233644000.0,32987000.0,0.0,0.0,286947000.0,409833000.0,2873000.0,3114000.0,70606000.0,296757000.0,299871000.0,36950000.0,1187000.0,0.0,319853000.0,527917000.0,0.0,-108448000.0,-118084000.0,0.0,206419000.0,0.0,137458000.0
2013-12-31,73598000.0,0.0,73598000.0,3704000.0,473000.0,105641000.0,243992000.0,33778000.0,0.0,11340000.0,308151000.0,413792000.0,8116000.0,3250000.0,77811000.0,311659000.0,314909000.0,33913000.0,13830000.0,0.0,339218000.0,457308000.0,0.0,-31746000.0,-43516000.0,0.0,241311000.0,0.0,40279000.0
2012-12-31,37758000.0,0.0,37758000.0,6508000.0,438000.0,80017000.0,256871000.0,0.0,0.0,9296000.0,323893000.0,403910000.0,7467000.0,15787000.0,87839000.0,294552000.0,310339000.0,37138000.0,0.0,0.0,333933000.0,459406000.0,0.0,-40420000.0,-55496000.0,0.0,272581000.0,0.0,37634000.0
2011-12-31,47880000.0,0.0,47880000.0,5857000.0,290000.0,64699000.0,286041000.0,0.0,0.0,40000000.0,384843000.0,449542000.0,9180000.0,25507000.0,103034000.0,263487000.0,288994000.0,40822000.0,0.0,0.0,346154000.0,449188000.0,0.0,19014000.0,354000.0,0.0,241114000.0,0.0,0.0
2010-12-31,38803000.0,0.0,38803000.0,5258000.0,217000.0,64833000.0,309371000.0,32838000.0,0.0,49225000.0,399333000.0,464166000.0,4008000.0,14550000.0,87720000.0,301963000.0,316513000.0,38272000.0,0.0,0.0,383391000.0,471111000.0,2121000.0,12699000.0,-6945000.0,0.0,277710000.0,20555000.0,69162000.0
2009-12-31,10758000.0,0.0,10758000.0,4295000.0,224000.0,26815000.0,340277000.0,32785000.0,0.0,51855000.0,440651000.0,467466000.0,6011000.0,1850000.0,73436000.0,316513000.0,318363000.0,36834000.0,0.0,0.0,402263000.0,475699000.0,1327000.0,12989000.0,-8233000.0,0.0,307605000.0,11538000.0,65575000.0
