,0,1,2,3,4,5,6,7,8,9,10,11,12,13,14,15,16,17,18,19,20,21,22,23,24,25,26,27,28,29,30
Date,Revenue,Revenue Growth,Cost of Revenue,Gross Profit,R&D Expenses,SG&A Expense,Operating Expenses,Operating Income,Interest Expense,Earnings before Tax,Income Tax Expense,Net Income - Non-Controlling int,Net Income - Discontinued ops,Net Income,Preferred Dividends,Net Income Com,EPS,EPS Diluted,Weighted Average Shs Out,Weighted Average Shs Out (Dil),Dividend per Share,Gross Margin,EBITDA Margin,EBIT Margin,Profit Margin,Free Cash Flow margin,EBITDA,EBIT,Consolidated Income,Earnings Before Tax Margin,Net Profit Margin
2019-12-31,7296000.0,29.9152542373,9280000.0,-1984000.0,12213000.0,24138000.0,37689000.0,-39673000.0,1490000.0,-39612000.0,0.0,0.0,0.0,-39612000.0,0.0,-39612000.0,-1.21,-1.21,32805684.0,32805684.0,0.0,-0.27192982456099996,-5.217379385959999,-5.4376370614,-5.42927631579,-4.78618421053,-38066000.0,-39673000.0,-39612000.0,-5.42927631579,-5.42927631579
2018-12-31,236000.0,-0.535433070866,0.0,0.0,9846000.0,18505000.0,28615000.0,-28115000.0,1257000.0,-27897000.0,0.0,0.0,0.0,-27897000.0,0.0,-27897000.0,-0.91,-0.91,30683421.0,30683421.0,0.0,0.0,-114.55084745799999,-119.131355932,-118.207627119,-93.6398305085,-27034000.0,-28115000.0,-27897000.0,-118.207627119,-118.207627119
2017-12-31,508000.0,0.273182957393,0.0,0.0,11556000.0,14741000.0,26296000.0,-25789000.0,0.0,-25980000.0,0.0,0.0,0.0,-25980000.0,0.0,-25980000.0,-1.12,-1.12,23153661.0,23153661.0,0.0,0.0,-49.6811023622,-50.765748031499996,-51.141732283500005,-26.7007874016,-25238000.0,-25789000.0,-25980000.0,-51.141732283500005,-51.141732283500005
2016-12-31,399000.0,-0.6863207547169999,200000.0,199000.0,5638000.0,6670000.0,12308000.0,-12109000.0,5000.0,-12086000.0,0.0,0.0,0.0,-12086000.0,0.0,-12086000.0,-0.62,-0.62,25660606.0,19600000.0,0.0,0.4987,-29.414,-30.2782,-30.291,-49.2757,-11736000.0,-12081000.0,-12086000.0,-30.2907,-30.2907
2015-12-31,1272000.0,,751000.0,521000.0,2766000.0,3569000.0,6335000.0,-5814000.0,261000.0,-5889000.0,0.0,0.0,0.0,-5889000.0,0.0,-5889000.0,-0.88,-0.88,25661000.0,6725740.0,0.0,0.4096,-4.309,-4.4245,-4.63,-5.7829999999999995,-5481000.0,-5628000.0,-5889000.0,-4.6297,-4.6297
