,0,1,2,3,4,5,6,7,8,9,10,11,12,13,14
Date,Depreciation & Amortization,Stock-based compensation,Operating Cash Flow,Capital Expenditure,Acquisitions and disposals,Investment purchases and sales,Investing Cash flow,Issuance (repayment) of debt,Issuance (buybacks) of shares,Dividend payments,Financing Cash Flow,Effect of forex changes on cash,Net cash flow / Change in cash,Free Cash Flow,Net Cash/Marketcap
2018-12-31,11592908.8278,12318089.725,50013024.602,-7396960.9262,10349638.2055,75171201.1577,77950217.0767,-47633140.3763,-32091027.4964,0.0,-79089869.754,6457887.1201,55331259.0449,42616063.6758,2.1094
2017-12-31,20601723.0955,11081620.3144,94556831.9226,-3697702.5393,11375604.5949,-42667775.0907,-34989873.0351,-20957678.3555,0.0,0.0,76793530.8343,-11075423.2164,125285066.5054,90859129.3833,0.5175
2016-12-31,23521670.2664,44081929.4456,56671850.252,-16937508.9993,-51641468.6825,-78788768.8985,-147367746.5803,46537796.9762,-25772642.1886,0.0,21658747.3002,8469402.4478,-60567746.5803,39734341.2527,0.5175
2015-12-31,22621475.8897,48642736.0961,146123401.633,-8949468.4948,-38426128.4856,564782.0059,-52601910.3374,19616700.0462,0.0,0.0,12575412.1091,5980588.5072,112077491.9119,137173933.1382,0.5175
2014-12-31,12856151.114,28054730.3842,57995156.6032,-5886503.0675,-31735550.5328,-118095576.3642,-179144817.5654,0.0,227506780.7556,0.0,212070875.0404,-303358.0885,90617855.9897,52108653.5357,0.5175
2013-12-31,4266402.9014,6164853.2806,32670787.9987,-4544510.3858,-9196340.2572,-2485328.058,-16615067.5898,0.0,0.0,0.0,50160237.3887,-907682.1629,65308275.6347,28126277.6129,0.5175
2012-12-31,1740699.1661,3253207.1841,7342527.2611,-1974823.6049,-481077.6139,-4871071.1995,-8216484.9262,0.0,100705.5805,0.0,100705.5805,-24214.2399,-797466.3246,5367703.6562,0.5175
2011-12-31,2385310.9137,925602.7919,-1134676.3959,-1365164.9746,-1903553.2995,-1269035.533,-4562658.6294,0.0,2606440.3553,-6842163.7056,14796002.5381,-360564.7208,8738102.7919,-2499841.3706,0.5175
