,0,1,2,3,4,5,6,7,8,9,10,11,12,13,14
Date,Depreciation & Amortization,Stock-based compensation,Operating Cash Flow,Capital Expenditure,Acquisitions and disposals,Investment purchases and sales,Investing Cash flow,Issuance (repayment) of debt,Issuance (buybacks) of shares,Dividend payments,Financing Cash Flow,Effect of forex changes on cash,Net cash flow / Change in cash,Free Cash Flow,Net Cash/Marketcap
2018-12-31,10676000000.0,826000000.0,24297000000.0,11709000000.0,-38219000000.0,-6577000000.0,-50854000000.0,-9177000000.0,-5320000000.0,-3352000000.0,27140000000.0,-245000000.0,338000000.0,12588000000.0,0.0
2017-12-31,9825000000.0,751000000.0,21403000000.0,11297000000.0,-532000000.0,-7727000000.0,-13704000000.0,-4459000000.0,-5435000000.0,-2883000000.0,-7572000000.0,0.0,127000000.0,10106000000.0,0.0
2016-12-31,9558000000.0,640000000.0,19240000000.0,10821000000.0,-3929000000.0,-6697000000.0,-18385000000.0,-4842000000.0,-4977000000.0,-2601000000.0,151000000.0,0.0,1006000000.0,8419000000.0,0.0
2015-12-31,8680000000.0,567000000.0,18778000000.0,9869000000.0,-1786000000.0,-7534000000.0,-11964000000.0,-4513000000.0,-6714000000.0,-2437000000.0,-8429000000.0,0.0,-1615000000.0,8909000000.0,0.0
2014-12-31,8019000000.0,513000000.0,16945000000.0,8542000000.0,-477000000.0,-4442000000.0,-8733000000.0,-2671000000.0,-4216000000.0,-2254000000.0,-6020000000.0,0.0,2192000000.0,8403000000.0,0.0
2013-12-31,16120000000.0,419000000.0,14160000000.0,7605000000.0,-99000000.0,-3223000000.0,-9514000000.0,-3789000000.0,-1960000000.0,-1964000000.0,-13879000000.0,0.0,-9233000000.0,6555000000.0,0.0
2012-12-31,17252000000.0,371000000.0,14854000000.0,6637000000.0,-90000000.0,-3297000000.0,-1486000000.0,-2337000000.0,-2767000000.0,-1608000000.0,-4037000000.0,0.0,9331000000.0,8217000000.0,0.0
2011-12-31,14423000000.0,344000000.0,14345000000.0,6261000000.0,-6407000000.0,-2141000000.0,-12508000000.0,-3760000000.0,-1858000000.0,-1187000000.0,-6201000000.0,0.0,-4364000000.0,8084000000.0,0.0
2010-12-31,6616000000.0,300000000.0,11179000000.0,5497000000.0,-183000000.0,-1460000000.0,-5711000000.0,-1153000000.0,-1166000000.0,-1064000000.0,-155000000.0,0.0,5313000000.0,5682000000.0,0.0
2009-12-31,6500000000.0,257000000.0,10281000000.0,-5639000000.0,14000000.0,-346000000.0,-5897000000.0,-3174000000.0,-764000000.0,-761000000.0,-4908000000.0,0.0,-524000000.0,4642000000.0,-0.5895
