,0,1,2,3,4,5,6,7,8,9,10,11,12,13,14,15,16,17,18,19,20,21,22,23,24,25,26,27,28,29,30
Date,Revenue,Revenue Growth,Cost of Revenue,Gross Profit,R&D Expenses,SG&A Expense,Operating Expenses,Operating Income,Interest Expense,Earnings before Tax,Income Tax Expense,Net Income - Non-Controlling int,Net Income - Discontinued ops,Net Income,Preferred Dividends,Net Income Com,EPS,EPS Diluted,Weighted Average Shs Out,Weighted Average Shs Out (Dil),Dividend per Share,Gross Margin,EBITDA Margin,EBIT Margin,Profit Margin,Free Cash Flow margin,EBITDA,EBIT,Consolidated Income,Earnings Before Tax Margin,Net Profit Margin
2019-07-31,918155000.0,4.70211774935,490701000.0,427454000.0,31320000.0,172383000.0,343935000.0,83519000.0,0.0,75319000.0,20277000.0,0.0,0.0,55042000.0,0.0,55042000.0,1.32,1.32,41700926.0,41757116.0,0.19996591718600001,0.46555755836400003,0.137098855858,0.0909639439964,0.0599484836438,-0.031048134574199998,125878000.0,83519000.0,55042000.0,0.08203299007249999,0.0599484836438
2018-07-31,161020000.0,-0.7909257463089999,457951000.0,413971000.0,24646000.0,138019000.0,292307000.0,121664000.0,5289000.0,117513000.0,26472000.0,0.0,0.0,91041000.0,0.0,91041000.0,2.18,2.18,41567722.0,41635078.0,0.170313119144,2.57092907713,0.971891690473,0.7555831573720001,0.565401813439,0.5478449882,156494000.0,121664000.0,91041000.0,0.729803751087,0.565401813439
2017-07-31,770157000.0,0.158557664102,402997000.0,367160000.0,18367000.0,122270000.0,256750000.0,110410000.0,4303000.0,106233000.0,34855000.0,0.0,0.0,71378000.0,0.0,71378000.0,1.71,1.71,41468487.0,41542765.0,0.140602100029,0.476733964633,0.18731635237999997,0.143360379767,0.09267980424769999,0.105339560635,144263000.0,110410000.0,71378000.0,0.137936810287,0.09267980424769999
2016-07-31,664755000.0,0.176549192572,355569000.0,309186000.0,15410000.0,97463000.0,211935000.0,97251000.0,3408000.0,93931000.0,33978000.0,0.0,0.0,59953000.0,0.0,59953000.0,1.44,1.44,41344013.0,41390194.0,0.12092236146600001,0.465112710698,0.18463343637899998,0.146296003791,0.09018811441810001,0.09233326563920001,122736000.0,97251000.0,59953000.0,0.141301682575,0.09018811441810001
2015-07-31,565004000.0,0.156020779582,311537000.0,253467000.0,14022000.0,77897000.0,172706000.0,80761000.0,2432000.0,76191000.0,28238000.0,0.0,0.0,47953000.0,0.0,47953000.0,1.16,1.15,41139467.0,41202600.0,0.100818880362,0.44861098328500004,0.186050010265,0.142938811053,0.0848719655082,0.0819640214937,105119000.0,80761000.0,47953000.0,0.134850372741,0.0848719655082
2014-07-31,488749000.0,0.149927298565,275450000.0,213299000.0,10813000.0,65039000.0,142371000.0,70928000.0,2380000.0,68611000.0,25346000.0,0.0,0.0,43265000.0,0.0,43265000.0,1.05,1.04,40751629.0,40911314.0,0.09095283519860001,0.43641828423199996,0.184663293429,0.14512152454500002,0.0885219202495,0.103797654829,90254000.0,70928000.0,43265000.0,0.140380849884,0.0885219202495
2013-07-31,425026000.0,0.09970762503560002,241550000.0,183476000.0,9320000.0,53182000.0,120288000.0,63188000.0,2895000.0,60354000.0,21115000.0,0.0,0.0,39239000.0,0.0,39239000.0,0.96,0.95,40267885.0,40556892.0,0.07436467271700001,0.431681826524,0.190096605855,0.148668552042,0.0923214109254,0.105285323721,80796000.0,63188000.0,39239000.0,0.142000724662,0.0923214109254
2012-07-31,386490000.0,0.201581838701,222323000.0,164167000.0,9254000.0,47623000.0,112043000.0,52124000.0,3732000.0,47869000.0,16532000.0,0.0,0.0,31337000.0,0.0,31337000.0,1.17,1.15,26390780.0,26683282.0,0.09455358602439999,0.424763900748,0.177034334653,0.13486506765999998,0.0810810111516,0.116634324303,68422000.0,52124000.0,31337000.0,0.12385572718599999,0.0810810111516
2011-07-31,321651000.0,0.174114443406,198868000.0,122783000.0,6648000.0,84799000.0,91447000.0,31336000.0,960000.0,30462000.0,10037000.0,0.0,0.0,20425000.0,0.0,20425000.0,0.53,0.52,38723294.0,38723294.0,0.053,0.3817,0.136,0.0977,0.064,0.0698,43868000.0,31422000.0,20425000.0,0.0947,0.0635
2010-07-31,273952000.0,0.05345895020190001,162981000.0,110971000.0,5169000.0,73137000.0,78306000.0,32665000.0,1169000.0,31555000.0,11614000.0,0.0,0.0,19941000.0,0.0,19941000.0,0.527,0.52,37923824.0,37923824.0,0.044000000000000004,0.4051,0.161,0.1195,0.073,0.0855,44162000.0,32724000.0,19941000.0,0.1152,0.0728
2009-07-31,260050000.0,0.0428,160571000.0,99479000.0,4632000.0,67396000.0,72028000.0,27451000.0,2639000.0,24956000.0,9387000.0,0.0,0.0,15569000.0,0.0,15569000.0,0.418,0.418,37346654.0,,0.0,0.3825,0.15,0.1061,0.06,0.1094,38964000.0,27595000.0,15569000.0,0.096,0.0599
