,0,1,2,3,4,5,6,7,8,9,10,11,12,13,14,15,16,17,18,19,20,21,22,23,24,25,26,27,28,29,30
Date,Revenue,Revenue Growth,Cost of Revenue,Gross Profit,R&D Expenses,SG&A Expense,Operating Expenses,Operating Income,Interest Expense,Earnings before Tax,Income Tax Expense,Net Income - Non-Controlling int,Net Income - Discontinued ops,Net Income,Preferred Dividends,Net Income Com,EPS,EPS Diluted,Weighted Average Shs Out,Weighted Average Shs Out (Dil),Dividend per Share,Gross Margin,EBITDA Margin,EBIT Margin,Profit Margin,Free Cash Flow margin,EBITDA,EBIT,Consolidated Income,Earnings Before Tax Margin,Net Profit Margin
2019-12-31,284290000.0,0.0549381227156,262784000.0,21506000.0,1171000.0,28934000.0,30105000.0,-11528000.0,4144000.0,-15578000.0,-355000.0,0.0,0.0,-15223000.0,0.0,-15223000.0,-1.94,-1.94,7830000.0,7830000.0,0.0,0.07564810580749999,-0.00405220021809,-0.040550142460199994,-0.05354743395830001,0.0325055401175,-1152000.0,-11528000.0,-15223000.0,-0.0547961588519,-0.05354743395830001
2018-12-31,269485000.0,0.666852226408,242344000.0,27141000.0,1032000.0,27838000.0,28870000.0,-3100000.0,2394000.0,-5446000.0,-664000.0,0.0,0.0,-4782000.0,0.0,-4782000.0,-0.62,-0.62,7750000.0,7750000.0,0.102193548387,0.100714325473,0.023318552053,-0.011503423196100001,-0.017744957975400003,-0.04575022728540001,6284000.0,-3100000.0,-4782000.0,-0.0202089170084,-0.017744957975400003
2017-12-31,161673000.0,-0.07553092942669999,136993000.0,24680000.0,848000.0,16690000.0,17538000.0,7745000.0,245000.0,7745000.0,2286000.0,0.0,0.0,5459000.0,0.0,5459000.0,0.71,0.7,7690000.0,7747000.0,0.10145862914699999,0.152653813562,0.08650176591019999,0.0479053397908,0.0337656875298,0.0164096664254,13985000.0,7745000.0,5459000.0,0.0479053397908,0.0337656875298
2016-12-31,174882000.0,-0.121496172162,146958000.0,27924000.0,965000.0,16379000.0,17344000.0,11247000.0,298000.0,11247000.0,3836000.0,0.0,0.0,7411000.0,0.0,7411000.0,0.97,0.97,7621000.0,7661000.0,0.0,0.159673379765,0.100239018309,0.0643119360483,0.0423771457326,0.132695188756,17530000.0,11247000.0,7411000.0,0.0643119360483,0.0423771457326
2015-12-31,199068000.0,0.136206935915,162816000.0,36252000.0,719000.0,17754000.0,18473000.0,18168000.0,330000.0,18168000.0,6118000.0,0.0,0.0,12050000.0,0.0,12050000.0,1.59,1.58,7583000.0,7623000.0,0.0,0.182108626198,0.121611710571,0.0912652962807,0.0605320794904,0.0649627263046,24209000.0,18168000.0,12050000.0,0.0912652962807,0.0605320794904
2014-12-31,175204000.0,0.215639202082,145018000.0,30186000.0,475000.0,15539000.0,16014000.0,14525000.0,122000.0,14525000.0,4891000.0,0.0,0.0,9634000.0,0.0,9634000.0,1.28,1.28,7508000.0,7553000.0,0.0,0.17229058697299998,0.111572795142,0.0829033583708,0.054987329056400004,0.0008447295723839999,19548000.0,14525000.0,9634000.0,0.0829033583708,0.054987329056400004
2013-12-31,144125000.0,-0.112803939674,120551000.0,23574000.0,466000.0,13460000.0,13926000.0,6866000.0,214000.0,0.0,3034000.0,0.0,0.0,6866000.0,0.0,6866000.0,0.95,0.92,7220000.0,7435000.0,0.0,0.163566348656,0.0814848222029,0.0476392020815,0.0476392020815,-0.0167562879445,11744000.0,6866000.0,6866000.0,0.0,0.0476392020815
2012-12-31,162450000.0,0.132679314745,136602000.0,25848000.0,449000.0,13358000.0,13807000.0,12156000.0,334000.0,12156000.0,3966000.0,0.0,0.0,8190000.0,0.0,8190000.0,1.15,1.11,7104000.0,7379000.0,0.0,0.159113573407,0.10267159125900001,0.0748291782087,0.0504155124654,0.040258541089599996,16679000.0,12156000.0,8190000.0,0.0748291782087,0.0504155124654
2011-12-31,143421000.0,0.430519260308,113538000.0,29883000.0,0.0,12939000.0,12939000.0,16248000.0,696000.0,16248000.0,5722000.0,0.0,0.0,10526000.0,0.0,10526000.0,1.51,1.44,6954000.0,7300000.0,0.0,0.208358608572,0.140774363587,0.113288848913,0.07339232051089999,0.0186095481136,20190000.0,16248000.0,10526000.0,0.113288848913,0.07339232051089999
2010-12-31,100258000.0,0.20301887205400002,83909000.0,16349000.0,0.0,9932000.0,9932000.0,6417000.0,1341000.0,5076000.0,2643000.0,0.0,0.0,2433000.0,0.0,2433000.0,0.36,0.34,7083176.0,6847000.0,0.0,0.1631,0.10300000000000001,0.064,0.024,0.0515,10366000.0,6417000.0,2433000.0,0.0506,0.0243
2009-12-31,83338676.0,-0.2856,71913360.0,11425316.0,0.0,8939820.0,8939820.0,2485496.0,951051.0,1534445.0,427374.0,0.0,0.0,1107071.0,0.0,1107071.0,0.16,0.16,7001106.0,6772065.0,0.0,0.1371,0.076,0.0298,0.013000000000000001,-0.0218,6341099.0,2485496.0,1107071.0,0.0184,0.0133
