,0,1,2,3,4,5,6,7,8,9,10,11,12,13,14,15,16,17,18,19,20,21,22,23,24,25,26,27,28,29,30
Date,Revenue,Revenue Growth,Cost of Revenue,Gross Profit,R&D Expenses,SG&A Expense,Operating Expenses,Operating Income,Interest Expense,Earnings before Tax,Income Tax Expense,Net Income - Non-Controlling int,Net Income - Discontinued ops,Net Income,Preferred Dividends,Net Income Com,EPS,EPS Diluted,Weighted Average Shs Out,Weighted Average Shs Out (Dil),Dividend per Share,Gross Margin,EBITDA Margin,EBIT Margin,Profit Margin,Free Cash Flow margin,EBITDA,EBIT,Consolidated Income,Earnings Before Tax Margin,Net Profit Margin
2019-07-31,671797000.0,0.17737460764199997,424357000.0,247440000.0,56407000.0,128639000.0,206033000.0,41407000.0,9245000.0,28910000.0,3869000.0,0.0,0.0,25041000.0,0.0,25041000.0,1.04,1.03,24124000.0,24302000.0,0.40280635338699994,0.36832555072400003,0.10829610730599999,0.061636178786199994,0.0372746529085,0.08819033130540001,72753000.0,41407000.0,25041000.0,0.04303383313709999,0.0372746529085
2018-07-31,570589000.0,0.036740871562300007,346648000.0,223941000.0,53869000.0,113922000.0,188866000.0,35075000.0,10195000.0,24626000.0,-5143000.0,0.0,0.0,29769000.0,0.0,29769000.0,1.25,1.24,23825000.0,24040000.0,0.396755407654,0.39247339153099997,0.12618715047100001,0.0614715671,0.052172404304999996,0.0730858814313,72001000.0,35075000.0,29769000.0,0.0431589112303,0.052172404304999996
2017-07-31,550368000.0,0.339081858084,332183000.0,218185000.0,54260000.0,116080000.0,181143000.0,37042000.0,11629000.0,25481000.0,9654000.0,0.0,0.0,15827000.0,0.0,15827000.0,0.68,0.67,23433000.0,23489000.0,0.8034399080419999,0.39643474911300003,0.13844554916,0.0673040583755,0.028757122507099997,0.106301601837,76196000.0,37042000.0,15827000.0,0.046298113262400006,0.028757122507099997
2016-07-31,411004000.0,0.337516149293,239767000.0,171237000.0,42190000.0,94932000.0,171813000.0,-576000.0,7750000.0,-8192000.0,-454000.0,0.0,0.0,-7738000.0,0.0,-7738000.0,-0.46,-0.46,16972000.0,16972000.0,1.14341267971,0.416630981694,0.0570894687156,-0.00140144621464,-0.0188270673765,0.0226348162062,23464000.0,-576000.0,-7738000.0,-0.019931679497,-0.0188270673765
2015-07-31,307289000.0,-0.11482356330099999,168405000.0,138884000.0,35916000.0,62680000.0,104807000.0,34077000.0,479000.0,34003000.0,10758000.0,0.0,0.0,23245000.0,0.0,23245000.0,1.43,1.42,16203000.0,16418000.0,1.18321354611,0.451965413666,0.152553459447,0.11089560641599999,0.07564540221089999,0.059761332166099995,46878000.0,34077000.0,23245000.0,0.110654790767,0.07564540221089999
2014-07-31,347150000.0,0.0855323846065,195712000.0,151438000.0,34108000.0,67147000.0,107540000.0,43898000.0,6304000.0,38507000.0,13356000.0,0.0,0.0,25151000.0,0.0,25151000.0,1.58,1.37,15943000.0,20906000.0,0.8933798909399999,0.436232176293,0.167106438139,0.126452542129,0.0724499495895,0.0854126458303,58011000.0,43898000.0,25151000.0,0.110923232032,0.0724499495895
2013-07-31,319797000.0,-0.247660385348,178967000.0,140830000.0,36748000.0,63265000.0,106341000.0,34489000.0,8163000.0,27493000.0,9685000.0,0.0,0.0,17808000.0,0.0,17808000.0,1.05,0.97,16963000.0,23064000.0,0.8185483870970001,0.440373111693,0.156577453822,0.10784654014900001,0.05568532537830001,0.101151668089,50073000.0,34489000.0,17808000.0,0.08597016232169999,0.05568532537830001
2012-07-31,425070000.0,-0.30587103738000004,241561000.0,183509000.0,38489000.0,87106000.0,132232000.0,51277000.0,8832000.0,44040000.0,11624000.0,0.0,0.0,32416000.0,0.0,32416000.0,1.62,1.42,19995000.0,25991000.0,0.870493632411,0.43171477639,0.164140023996,0.120631895923,0.0762603806432,0.110758228057,69771000.0,51277000.0,32416000.0,0.103606464818,0.0762603806432
2011-07-31,612379000.0,-0.213087811052,371333000.0,241046000.0,43516000.0,94141000.0,137657000.0,107798000.0,8415000.0,101804000.0,33909000.0,0.0,0.0,67895000.0,0.0,67895000.0,2.53,2.22,26842000.0,32623000.0,0.617202587132,0.393622250273,0.214790187123,0.17603150989799998,0.110870882248,0.147330329747,131533000.0,107798000.0,67895000.0,0.166243453809,0.110870882248
2010-07-31,778205000.0,0.327152387904,507607000.0,270598000.0,46192000.0,99883000.0,166618000.0,103980000.0,7888000.0,97302000.0,36672000.0,0.0,0.0,60630000.0,0.0,60630000.0,2.14,1.91,28309540.0,28270000.0,0.0,0.3477,0.15,0.1352,0.078,0.1505,116963000.0,105190000.0,60630000.0,0.125,0.0779
2009-07-31,586372000.0,0.10300000000000001,345472000.0,240900000.0,50010000.0,100171000.0,163973000.0,76927000.0,6396000.0,73269000.0,25744000.0,0.0,0.0,47525000.0,0.0,47525000.0,1.81,1.73,26321000.0,29793000.0,0.0,0.4108,0.157,0.1359,0.081,0.128,92168000.0,79665000.0,47525000.0,0.125,0.081
