,0,1,2,3,4,5,6,7,8,9,10,11,12,13,14,15,16,17,18,19,20,21,22,23,24,25,26,27,28
Date,Cash and cash equivalents,Short-term investments,Cash and short-term investments,Receivables,Inventories,Total current assets,Property Plant & Equipment Net,Goodwill and Intangible Assets,Long-term investments,Tax assets,Total non-current assets,Total assets,Payables,Short-term debt,Total current liabilities,Long-term debt,Total debt,Deferred revenue,Tax Liabilities,Deposit Liabilities,Total non-current liabilities,Total liabilities,Other comprehensive income,Retained earnings (deficit),Total shareholders equity,Investments,Net Debt,Other Assets,Other Liabilities
2019-07-31,45576000.0,0.0,45576000.0,145032000.0,74839000.0,280314000.0,28026000.0,572379000.0,0.0,44578000.0,607397000.0,887711000.0,24330000.0,0.0,145347000.0,165000000.0,165000000.0,38682000.0,7203000.0,0.0,206957000.0,352629000.0,110821000.0,420333000.0,535082000.0,0.0,119424000.0,0.0,325000.0
2018-07-31,43484000.0,0.0,43484000.0,147439000.0,75076000.0,279793000.0,28987000.0,531429000.0,0.0,38395000.0,565364000.0,845157000.0,43928000.0,17211000.0,165316000.0,148087000.0,165298000.0,0.0,9137000.0,34452000.0,163131000.0,339473000.0,96604000.0,405194000.0,505684000.0,0.0,121814000.0,0.0,11026000.0
2017-07-31,41844000.0,0.0,41844000.0,124962000.0,60603000.0,241044000.0,32847000.0,552504000.0,0.0,63064000.0,591019000.0,832063000.0,29402000.0,15494000.0,144211000.0,176228000.0,191722000.0,0.0,8586000.0,25771000.0,196189000.0,351913000.0,91152000.0,385136000.0,480150000.0,0.0,149878000.0,0.0,11513000.0
2016-07-31,66805000.0,0.0,66805000.0,150967000.0,71354000.0,303639000.0,38667000.0,572312000.0,0.0,0.0,617557000.0,921196000.0,33462000.0,11067000.0,184146000.0,239969000.0,251036000.0,0.0,9108000.0,29665000.0,253872000.0,450795000.0,82948000.0,383616000.0,470401000.0,0.0,184231000.0,0.0,12777000.0
2015-07-31,150953000.0,0.0,150953000.0,69255000.0,62068000.0,300756000.0,15370000.0,157363000.0,0.0,11084000.0,173121000.0,473877000.0,15708000.0,0.0,64337000.0,0.0,0.0,0.0,2728000.0,14320000.0,6558000.0,72468000.0,0.0,413058000.0,401409000.0,0.0,-150953000.0,0.0,1573000.0
2014-07-31,154500000.0,0.0,154500000.0,54887000.0,61332000.0,290844000.0,18536000.0,163574000.0,0.0,10178000.0,183008000.0,473852000.0,18902000.0,0.0,66188000.0,0.0,0.0,0.0,2703000.0,12610000.0,7996000.0,76927000.0,0.0,409443000.0,396925000.0,0.0,-154500000.0,0.0,2743000.0
2013-07-31,356642000.0,0.0,356642000.0,49915000.0,65482000.0,489651000.0,20333000.0,169859000.0,0.0,10184000.0,192164000.0,681815000.0,18390000.0,200000000.0,269091000.0,0.0,200000000.0,0.0,2873000.0,14749000.0,5699000.0,277753000.0,0.0,403398000.0,404062000.0,0.0,-156642000.0,0.0,2963000.0
2012-07-31,367894000.0,0.0,367894000.0,56242000.0,72361000.0,516876000.0,22832000.0,176187000.0,0.0,12183000.0,202902000.0,719778000.0,20967000.0,0.0,82655000.0,200000000.0,200000000.0,0.0,0.0,14516000.0,205098000.0,290377000.0,22281000.0,404227000.0,429401000.0,0.0,-167894000.0,0.0,2624000.0
2011-07-31,558804000.0,0.0,558804000.0,70801000.0,74661000.0,723065000.0,26638000.0,182824000.0,0.0,11529000.0,214444000.0,937509000.0,23501000.0,0.0,96057000.0,200000000.0,200000000.0,0.0,4056000.0,11011000.0,208461000.0,308329000.0,233198000.0,393109000.0,629180000.0,0.0,-358804000.0,0.0,3811000.0
2010-07-31,607594000.0,0.0,607594000.0,135840000.0,73562000.0,840819000.0,33727000.0,185445000.0,0.0,14947000.0,225743000.0,1066562000.0,77844000.0,0.0,154219000.0,200000000.0,200000000.0,0.0,13886000.0,12780000.0,210711000.0,364930000.0,0.0,351449000.0,701632000.0,0.0,-407594000.0,23823000.0,76375000.0
2009-07-31,485450000.0,0.0,485450000.0,79477000.0,95597000.0,249620000.0,38486000.0,204525000.0,0.0,15129000.0,217016000.0,938671000.0,19233000.0,0.0,92526000.0,200000000.0,200000000.0,0.0,4830000.0,19571000.0,217016000.0,309542000.0,0.0,290819000.0,629129000.0,0.0,-285450000.0,28527000.0,73293000.0
