,0,1,2,3,4,5,6,7,8,9,10,11,12,13,14
Date,Depreciation & Amortization,Stock-based compensation,Operating Cash Flow,Capital Expenditure,Acquisitions and disposals,Investment purchases and sales,Investing Cash flow,Issuance (repayment) of debt,Issuance (buybacks) of shares,Dividend payments,Financing Cash Flow,Effect of forex changes on cash,Net cash flow / Change in cash,Free Cash Flow,Net Cash/Marketcap
2019-03-31,0.0,0.0,-444455.0,0.0,0.0,136914634.0,136914634.0,0.0,-136914634.0,0.0,-136889634.0,0.0,-419455.0,-444455.0,0.0
2018-03-31,0.0,0.0,-373391.0,0.0,0.0,-145187500.0,-145187500.0,-319197.0,146487500.0,0.0,145985833.0,0.0,424942.0,-373391.0,0.0024
2017-03-31,0.0,0.0,2194.0,0.0,0.0,0.0,0.0,-14631.0,0.0,0.0,6365.0,0.0,8559.0,2194.0,0.0041
