,0,1,2,3,4,5,6,7,8,9,10,11,12,13,14,15,16,17,18,19,20,21,22,23,24,25,26,27,28,29,30
Date,Revenue,Revenue Growth,Cost of Revenue,Gross Profit,R&D Expenses,SG&A Expense,Operating Expenses,Operating Income,Interest Expense,Earnings before Tax,Income Tax Expense,Net Income - Non-Controlling int,Net Income - Discontinued ops,Net Income,Preferred Dividends,Net Income Com,EPS,EPS Diluted,Weighted Average Shs Out,Weighted Average Shs Out (Dil),Dividend per Share,Gross Margin,EBITDA Margin,EBIT Margin,Profit Margin,Free Cash Flow margin,EBITDA,EBIT,Consolidated Income,Earnings Before Tax Margin,Net Profit Margin
2019-12-31,21717000.0,-0.353391293992,0.0,0.0,23527000.0,10196000.0,33723000.0,-12006000.0,0.0,0.0,0.0,0.0,0.0,-11385000.0,0.0,-11385000.0,-0.34,-0.34,33169000.0,33169000.0,0.0,0.0,-0.558870930607,-0.552838789888,-0.524243680066,-0.930745498918,-12137000.0,-12006000.0,-11385000.0,0.0,-0.524243680066
2018-12-31,33586000.0,-0.0506206384547,0.0,0.0,41368000.0,10495000.0,51863000.0,-18277000.0,696000.0,0.0,0.0,0.0,0.0,-18010000.0,0.0,-18010000.0,-0.59,-0.59,30370000.0,30370000.0,0.0,0.0,-0.551628654797,-0.544185077115,-0.536235336152,-1.03980825344,-18527000.0,-18277000.0,-18010000.0,0.0,-0.536235336152
2017-12-31,35376796.0,43.2737914964,0.0,0.0,43220446.0,9706834.0,52927280.0,-17550484.0,662395.0,0.0,0.0,0.0,0.0,-17396413.0,0.0,-17396413.0,-0.61,-0.61,28586625.0,28586625.0,0.0,0.0,-0.49495901211599996,-0.49610156894900004,-0.491746426104,-0.939473065905,-17510064.0,-17550484.0,-17396413.0,0.0,-0.491746426104
2016-12-31,799046.0,1.0,0.0,0.0,20293632.0,10337182.0,30630814.0,-29831768.0,70000.0,0.0,0.0,0.0,0.0,-29733441.0,0.0,-29733441.0,-1.31,-1.31,22649911.0,22649911.0,0.0,0.0,-37.1946183324,-37.3342310706,-37.211175576900004,33.6494369536,-29720211.0,-29831768.0,-29733441.0,0.0,-37.211175576900004
2015-12-31,0.0,0.0,0.0,0.0,16297617.0,7833085.0,24130702.0,-24148626.0,70000.0,0.0,0.0,0.0,0.0,-24148626.0,0.0,-24148626.0,-1.3,-1.3,18617537.0,18617537.0,0.0,0.0,0.0,0.0,0.0,0.0,-23752291.0,-24148626.0,-24148626.0,0.0,0.0
2014-12-31,0.0,0.0,0.0,0.0,14908843.0,7379339.0,22288182.0,-22319891.0,70000.0,0.0,0.0,0.0,0.0,-22319891.0,0.0,-22319891.0,-1.44,-1.44,15478999.0,15478999.0,0.0,0.0,0.0,0.0,0.0,0.0,-22858791.0,-22319891.0,-22319891.0,0.0,0.0
2013-12-31,0.0,0.0,0.0,0.0,6947439.0,4650807.0,11598246.0,-15616492.0,462570.0,0.0,0.0,0.0,0.0,-15616492.0,0.0,-15616492.0,-0.63,-0.63,7358201.0,7358201.0,0.0,0.0,0.0,0.0,0.0,0.0,-15606046.0,-15616492.0,-15616492.0,0.0,0.0
2012-12-31,0.0,0.0,0.0,0.0,5528106.0,3086479.0,8614585.0,-8614585.0,70000.0,-8749239.0,0.0,0.0,0.0,-8749239.0,0.0,-8749239.0,-8.6,-8.6,,1016951.0,0.0,0.0,,0.0,,0.0,-8670173.0,-8679239.0,-8749239.0,0.0,0.0
2011-12-31,0.0,,0.0,0.0,9486619.0,2874507.0,12361126.0,-12361126.0,113836.0,-11996580.0,0.0,0.0,0.0,-11996580.0,0.0,-11996580.0,-11.86,-11.86,,1011649.0,0.0,0.0,,0.0,,0.0,-11871793.0,-11882744.0,-11996580.0,0.0,0.0
