,0,1,2,3,4,5,6,7,8,9,10,11,12,13,14,15,16,17,18,19,20,21,22,23,24,25,26,27,28
Date,Cash and cash equivalents,Short-term investments,Cash and short-term investments,Receivables,Inventories,Total current assets,Property Plant & Equipment Net,Goodwill and Intangible Assets,Long-term investments,Tax assets,Total non-current assets,Total assets,Payables,Short-term debt,Total current liabilities,Long-term debt,Total debt,Deferred revenue,Tax Liabilities,Deposit Liabilities,Total non-current liabilities,Total liabilities,Other comprehensive income,Retained earnings (deficit),Total shareholders equity,Investments,Net Debt,Other Assets,Other Liabilities
2019-12-31,53043000.0,5375000.0,58418000.0,72000.0,0.0,116855000.0,7753000.0,0.0,0.0,2358000.0,20616000.0,137471000.0,881000.0,268000.0,17268000.0,15996000.0,16264000.0,7783000.0,0.0,0.0,21496000.0,36014000.0,296145000.0,-194681000.0,101457000.0,5375000.0,-36779000.0,0.0,0.0
2018-12-31,17770000.0,7525000.0,25295000.0,15000.0,0.0,180149000.0,8919000.0,0.0,0.0,2322000.0,12398000.0,192547000.0,1277000.0,9120000.0,8749000.0,2850000.0,11970000.0,1413000.0,390000.0,0.0,14820000.0,24807000.0,284369000.0,-116515000.0,167740000.0,7525000.0,-5800000.0,0.0,1238000.0
2017-12-31,27665000.0,175500000.0,203165000.0,155000.0,0.0,205734000.0,2165000.0,0.0,0.0,2246000.0,6002000.0,211736000.0,658000.0,0.0,6445000.0,0.0,0.0,1442000.0,46000.0,0.0,8859000.0,15304000.0,273059000.0,-76243000.0,196432000.0,175500000.0,-27665000.0,0.0,0.0
2016-12-31,40555000.0,55630000.0,96185000.0,27000.0,0.0,97729000.0,2199000.0,0.0,0.0,0.0,2666000.0,100395000.0,545000.0,0.0,5570000.0,104000.0,104000.0,1172000.0,0.0,0.0,8982000.0,14801000.0,257461000.0,-171882000.0,85594000.0,55630000.0,-40451000.0,0.0,249000.0
2015-12-31,92510000.0,49680000.0,142190000.0,70000.0,0.0,144108000.0,2346000.0,0.0,0.0,0.0,2824000.0,146932000.0,501000.0,0.0,6627000.0,206000.0,206000.0,1279000.0,75000.0,0.0,9097000.0,16297000.0,251793000.0,-121162000.0,130635000.0,49680000.0,-92304000.0,0.0,573000.0
2014-12-31,13396000.0,65836000.0,79232000.0,1021000.0,0.0,81720000.0,2284000.0,0.0,0.0,0.0,2734000.0,84454000.0,560000.0,7101000.0,18618000.0,257000.0,7358000.0,5955000.0,0.0,0.0,10123000.0,29629000.0,200157000.0,-145336000.0,54825000.0,65836000.0,-6038000.0,0.0,888000.0
2013-12-31,10344000.0,23039000.0,33383000.0,170000.0,0.0,34045000.0,3054000.0,0.0,0.0,0.0,5728000.0,39773000.0,971000.0,7818000.0,15917000.0,7101000.0,14919000.0,19631000.0,0.0,0.0,23716000.0,39633000.0,4000.0,-113637000.0,-112104000.0,23039000.0,-18464000.0,492000.0,7128000.0
2012-12-31,8196000.0,20067000.0,28263000.0,13000.0,0.0,28850000.0,4367000.0,0.0,0.0,0.0,4279000.0,33129000.0,813000.0,4812000.0,7910000.0,14919000.0,19731000.0,2750000.0,0.0,0.0,20058000.0,27968000.0,4000.0,-107581000.0,-106687000.0,20067000.0,-8532000.0,574000.0,2285000.0
2011-12-31,23655000.0,19705000.0,43360000.0,500000.0,0.0,44135000.0,5683000.0,0.0,0.0,0.0,5268000.0,49403000.0,1576000.0,0.0,10274000.0,7135000.0,7135000.0,11022000.0,0.0,0.0,14387000.0,24661000.0,9000.0,-87137000.0,-86718000.0,19705000.0,-36225000.0,275000.0,8698000.0
