,0,1,2,3,4,5,6,7,8,9,10,11,12,13,14
Date,Depreciation & Amortization,Stock-based compensation,Operating Cash Flow,Capital Expenditure,Acquisitions and disposals,Investment purchases and sales,Investing Cash flow,Issuance (repayment) of debt,Issuance (buybacks) of shares,Dividend payments,Financing Cash Flow,Effect of forex changes on cash,Net cash flow / Change in cash,Free Cash Flow,Net Cash/Marketcap
2018-12-31,1337000000.0,0.0,2554000000.0,-1895000000.0,0.0,-253000000.0,-1920000000.0,-710000000.0,0.0,-243000000.0,-723000000.0,-308000000.0,-397000000.0,659000000.0,
2017-12-31,1350000000.0,0.0,2865000000.0,-2218000000.0,0.0,306000000.0,-1869000000.0,-906000000.0,0.0,-168000000.0,-1045000000.0,395000000.0,346000000.0,647000000.0,
2016-12-31,1261000000.0,0.0,2768000000.0,-2122000000.0,0.0,618000000.0,-1656000000.0,-1141000000.0,0.0,-207000000.0,-1538000000.0,-31000000.0,-457000000.0,646000000.0,
2015-12-31,1146000000.0,0.0,2786000000.0,-1770000000.0,0.0,648000000.0,-948000000.0,-741000000.0,0.0,-297000000.0,-919000000.0,-698000000.0,221000000.0,1016000000.0,
2014-12-31,1140000000.0,0.0,681000000.0,-2234000000.0,0.0,39000000.0,-1970000000.0,2054000000.0,0.0,-382000000.0,1376000000.0,-491000000.0,-404000000.0,-1553000000.0,
2013-12-31,1103000000.0,0.0,1522000000.0,-2193000000.0,0.0,-1468000000.0,-3788000000.0,2476000000.0,0.0,-368000000.0,2616000000.0,18000000.0,368000000.0,-671000000.0,
2012-12-31,1039000000.0,0.0,842000000.0,-1725000000.0,0.0,-873000000.0,-2597000000.0,1859000000.0,0.0,-616000000.0,599000000.0,0.0,-1156000000.0,-883000000.0,
2011-12-31,1023000000.0,0.0,2165000000.0,-1420000000.0,0.0,-472000000.0,-2335000000.0,9396000000.0,0.0,-11000000.0,2815000000.0,-300000000.0,2345000000.0,745000000.0,
