,0,1,2,3,4,5,6,7,8,9,10,11,12,13,14,15,16,17,18,19,20,21,22,23,24,25,26,27,28
Date,Cash and cash equivalents,Short-term investments,Cash and short-term investments,Receivables,Inventories,Total current assets,Property Plant & Equipment Net,Goodwill and Intangible Assets,Long-term investments,Tax assets,Total non-current assets,Total assets,Payables,Short-term debt,Total current liabilities,Long-term debt,Total debt,Deferred revenue,Tax Liabilities,Deposit Liabilities,Total non-current liabilities,Total liabilities,Other comprehensive income,Retained earnings (deficit),Total shareholders equity,Investments,Net Debt,Other Assets,Other Liabilities
2019-12-31,201483000.0,11185000.0,212668000.0,20949000.0,0.0,233617000.0,19236000.0,0.0,135766000.0,20264000.0,5940415000.0,6174032000.0,0.0,16449000.0,16449000.0,500293000.0,516742000.0,0.0,0.0,4767542000.0,504837000.0,5442842000.0,0.0,271782000.0,731190000.0,146951000.0,315259000.0,0.0,4921556000.0
2018-12-31,172366000.0,11460000.0,183826000.0,18214000.0,0.0,202040000.0,19062000.0,0.0,133205000.0,15448000.0,5260052000.0,5462092000.0,27516000.0,128556000.0,156072000.0,600001000.0,728557000.0,0.0,0.0,4092092000.0,603843000.0,4848165000.0,0.0,211345000.0,613927000.0,144665000.0,556191000.0,0.0,4088250000.0
2017-12-31,149582000.0,435284000.0,584866000.0,15470000.0,0.0,600336000.0,21659000.0,0.0,97017000.0,14670000.0,4508106000.0,5108442000.0,23101000.0,54699000.0,77800000.0,670077000.0,724776000.0,0.0,0.0,3795128000.0,672498000.0,4543005000.0,0.0,160025000.0,565437000.0,532301000.0,575194000.0,0.0,3792707000.0
2016-12-31,200399000.0,353290000.0,553689000.0,12965000.0,0.0,566654000.0,22075000.0,0.0,163249000.0,18452000.0,3859694000.0,4426348000.0,20231000.0,54534000.0,74765000.0,476280000.0,530814000.0,0.0,0.0,3344271000.0,480656000.0,3895316000.0,0.0,126462000.0,531032000.0,516539000.0,330415000.0,0.0,3339895000.0
2015-12-31,200895000.0,195770000.0,396665000.0,12545000.0,0.0,409210000.0,22333000.0,0.0,169604000.0,21510000.0,3607511000.0,4016721000.0,21669000.0,55155000.0,76824000.0,671587000.0,726742000.0,0.0,0.0,2790966000.0,674367000.0,3539377000.0,3060000.0,104606000.0,477344000.0,365374000.0,525847000.0,0.0,2788186000.0
2014-12-31,126847000.0,289532000.0,416379000.0,11700000.0,0.0,428079000.0,20653000.0,0.0,95034000.0,15567000.0,3020493000.0,3448572000.0,26038000.0,5155000.0,31193000.0,495553000.0,500708000.0,0.0,0.0,2475607000.0,500906000.0,3002353000.0,548000.0,72398000.0,446219000.0,384566000.0,373861000.0,0.0,2470254000.0
2013-12-31,82692000.0,323070000.0,405762000.0,6802000.0,0.0,412564000.0,13681000.0,0.0,0.0,5196000.0,1260518000.0,1673082000.0,11338000.0,5155000.0,16493000.0,146000000.0,151155000.0,0.0,0.0,1342005000.0,149351000.0,1504498000.0,0.0,61914000.0,168584000.0,323070000.0,68463000.0,0.0,1338654000.0
2012-12-31,106138000.0,496815000.0,602953000.0,6849000.0,0.0,609802000.0,13563000.0,0.0,2004000.0,2074000.0,1019963000.0,1629765000.0,10997000.0,5155000.0,16152000.0,162992000.0,168147000.0,0.0,0.0,1306922000.0,170047000.0,1469074000.0,0.0,46753000.0,160691000.0,498819000.0,62009000.0,0.0,1282875000.0
2011-12-31,111101000.0,414507000.0,525608000.0,6219000.0,0.0,531827000.0,12327000.0,0.0,0.0,0.0,900911000.0,1432738000.0,9252000.0,5155000.0,14407000.0,0.0,5155000.0,0.0,0.0,1121415000.0,0.0,1296822000.0,0.0,32695000.0,135916000.0,414507000.0,-105946000.0,0.0,1282415000.0
2010-12-31,37497000.0,,,0.0,0.0,,12937000.0,16959000.0,,0.0,,1207385000.0,8086000.0,,,,218010000.0,0.0,0.0,860332000.0,,1086428000.0,-7675000.0,21633000.0,120957000.0,1087253000.0,,,
2009-12-31,89168000.0,,,0.0,0.0,,17860000.0,17028000.0,,0.0,,1195488000.0,5626000.0,,,,274408000.0,0.0,0.0,813705000.0,,1093739000.0,-10776000.0,17068000.0,101749000.0,1019691000.0,,,
