,0,1,2,3,4,5,6,7,8,9,10,11,12,13,14
Date,Depreciation & Amortization,Stock-based compensation,Operating Cash Flow,Capital Expenditure,Acquisitions and disposals,Investment purchases and sales,Investing Cash flow,Issuance (repayment) of debt,Issuance (buybacks) of shares,Dividend payments,Financing Cash Flow,Effect of forex changes on cash,Net cash flow / Change in cash,Free Cash Flow,Net Cash/Marketcap
2019-12-31,16016000.0,27811000.0,141445000.0,2752000.0,-0.0,-10408000.0,35949000.0,-0.0,-9667000.0,-162705000.0,-170130000.0,1355000.0,101352000.0,138693000.0,0.0
2018-12-31,6278000.0,24626000.0,72598000.0,3470000.0,-0.0,-10599000.0,-53194000.0,-0.0,-10002000.0,-178879000.0,-118110000.0,-2013000.0,92733000.0,69128000.0,0.0
2017-12-31,7117000.0,21769000.0,64253000.0,3242000.0,-0.0,-9141000.0,5709000.0,-0.0,-8505000.0,-98313000.0,-60423000.0,679000.0,193452000.0,61011000.0,0.0
2016-12-31,7610000.0,21649000.0,114958000.0,10183000.0,-0.0,-8040000.0,2898000.0,-0.0,-7398000.0,-70825000.0,-74542000.0,-2808000.0,183234000.0,104775000.0,0.0
2015-12-31,6213000.0,22686000.0,89796000.0,2427000.0,-0.0,-19234000.0,397000.0,-0.0,-18695000.0,-68177000.0,-71109000.0,-1294000.0,19084000.0,87369000.0,0.0
2014-12-31,6454000.0,24931000.0,54582000.0,5916000.0,-0.0,-11722000.0,9835000.0,-0.0,-11231000.0,-84237000.0,-65615000.0,-2141000.0,-1198000.0,48666000.0,0.0
2013-12-31,8615000.0,21539000.0,75872000.0,6230000.0,-0.0,-7962000.0,18016000.0,-0.0,-7554000.0,-79695000.0,-61755000.0,732000.0,32133000.0,69642000.0,0.0
2012-12-31,7903000.0,17562000.0,20343000.0,3361000.0,-0.0,-8484000.0,2453000.0,-0.0,-8045000.0,-97208000.0,-55654000.0,446000.0,-32858000.0,16982000.0,0.0
2011-12-31,6800000.0,18675000.0,72445000.0,2927000.0,-0.0,-6647000.0,-3035000.0,-0.0,-6181000.0,-69118000.0,-77550000.0,-227000.0,-8140000.0,69518000.0,0.0
2010-12-31,4531000.0,15100000.0,54040000.0,-2854000.0,0.0,35125000.0,32271000.0,0.0,-2960000.0,-102400000.0,-103017000.0,-105000.0,-16706000.0,51186000.0,0.2131
2009-12-31,4221000.0,13010000.0,22141000.0,-2486000.0,0.0,12781000.0,10295000.0,-27000.0,-1711000.0,-8472000.0,-1749000.0,458000.0,30687000.0,19655000.0,0.2632
