,0,1,2,3,4,5,6,7,8,9,10,11,12,13,14,15,16,17,18,19,20,21,22,23,24,25,26,27,28
Date,Cash and cash equivalents,Short-term investments,Cash and short-term investments,Receivables,Inventories,Total current assets,Property Plant & Equipment Net,Goodwill and Intangible Assets,Long-term investments,Tax assets,Total non-current assets,Total assets,Payables,Short-term debt,Total current liabilities,Long-term debt,Total debt,Deferred revenue,Tax Liabilities,Deposit Liabilities,Total non-current liabilities,Total liabilities,Other comprehensive income,Retained earnings (deficit),Total shareholders equity,Investments,Net Debt,Other Assets,Other Liabilities
2018-12-31,10600000.0,0.0,10600000.0,12529885.0575,1547126.4368,33062068.9655,44959770.1149,10109195.4023,0.0,0.0,55068965.5172,88131034.4828,6240229.8851,5806896.5517,27911494.2529,16812643.6782,22619540.2299,0.0,11494.2529,0.0,29732183.908000004,56773563.2184,0.0,-22947126.4368,31357471.2644,0.0,,,15864367.8161
2017-12-31,3789915.9664,0.0,3789915.9664,8393757.502999999,935174.0696,16134453.7815,40620648.2593,8979591.8367,0.0,0.0,50475390.1561,66609843.9376,6349339.7359,18595438.1753,28581032.413000003,4623049.2197,23218487.395,0.0,579831.9328,0.0,18396158.4634,46518607.443,0.0,-10795918.3673,20091236.4946,0.0,,,3636254.5018
