,0,1,2,3,4,5,6,7,8,9,10,11,12,13,14,15,16,17,18,19,20,21,22,23,24,25,26,27,28
Date,Cash and cash equivalents,Short-term investments,Cash and short-term investments,Receivables,Inventories,Total current assets,Property Plant & Equipment Net,Goodwill and Intangible Assets,Long-term investments,Tax assets,Total non-current assets,Total assets,Payables,Short-term debt,Total current liabilities,Long-term debt,Total debt,Deferred revenue,Tax Liabilities,Deposit Liabilities,Total non-current liabilities,Total liabilities,Other comprehensive income,Retained earnings (deficit),Total shareholders equity,Investments,Net Debt,Other Assets,Other Liabilities
2019-03-31,745949402.9851,0.0,745949402.9851,30116417.9104,15642686.5672,768347462.6866,81394029.8507,14543880.597000001,44252388.0597,6713582.0896,209406865.6716,977754328.3582,5009850.7463,0.0,88901791.0448,0.0,0.0,383645970.1493,5931194.0299,0.0,377992537.3134,466894328.3582,-13244477.6119,210033283.5821,510050000.0,44252388.0597,-745949402.9851,4356291492.5373,83891940.2985
2018-03-31,672458471.7608,0.0,672458471.7608,33163581.7118,15737383.3254,697424774.5610001,87479829.141,16146970.4161,54265306.1224,4950957.127,227181300.4271,924606074.9881,1799082.4237,0.0,74066603.3855,0.0,0.0,354435532.3525,6017244.1069,0.0,357145704.7935,431212308.1791,-8646416.7062,176692453.7257,492541211.8336,54265306.1224,-672458471.7608,3686640563.202,72267520.9618
2017-03-31,509398345.6683,0.0,509398345.6683,35942678.8565,14477144.101,532768538.6736,80022347.9901,15481932.955999998,56583804.963,3215063.1258,219359164.1271,752127702.8008,2283993.6149,149637788.4197,210002612.1027,0.0,149637788.4197,274745174.8658,4760702.3654,0.0,274740240.8939,484742852.9967,3544913.6555,127670149.4703,266703671.4555,56583804.963,,,58080830.0681
2016-03-31,465195917.7362,0.0,465195917.7362,44789856.193,14326271.8417,492624864.6977,88845987.3202,17211535.4879,54408999.5361,2578166.0739,232274934.2817,724899798.9794,10283438.998,9277872.2746,70206123.3957,140130199.4743,149408071.7489,244152002.4741,7052729.2408,0.0,389744703.8812,459950827.2769,13109478.8928,116527756.3012,264303850.317,54408999.5361,,,50644812.1231
2015-03-31,393516634.3669,1244832.0413,394761466.4082,50872093.0233,13247254.522,422917635.6589,97410691.2145,18722222.2222,50314114.9871,2081395.3488,241114018.0879,664031653.7468,5406169.2506,9689922.4806,67858042.6357,130498869.509,140188791.9897,213103843.6693,7177325.5814,0.0,346946705.4264,414804748.062,10211563.3075,107011466.4083,248345930.2326,51558947.0284,,,52761950.9045
2014-03-31,303546832.178,0.0,303546832.178,51711913.5902,12891826.5355,331782524.5849,101020796.3888,19433983.5563,53744317.2658,1523940.029,253582943.7369,585365468.3218,5138642.5923,9672738.9973,64055618.2492,125383362.8889,135056101.8862,164493470.9012,5547154.6026,0.0,289164758.9876,353220377.2368,13584233.4354,89524907.3029,231346445.2684,53744317.2658,,,49244236.6596
2013-03-31,240015903.6145,0.0,240015903.6145,51798554.2169,8031325.3012,256734779.1165,75224417.6707,20107630.5221,44583614.4578,1474859.4378,222988273.0924,479723052.2088,3394538.1526,8032128.5141,53405301.2048,120768032.1285,128800160.6426,112865220.8835,4522248.996,0.0,226885943.7751,280291244.9799,2932690.7631,68019277.1084,198736064.257,44583614.4578,,,41978634.5381
2012-03-31,126061101.4125,56181.5585,126117282.971,52888112.9979,6557213.1408,142385653.0709,42511029.9952,20598476.4323,36908744.6437,1631645.7705,147116013.3312,289501666.4022,1063799.3969,7141723.5359,31281860.0222,0.0,7141723.5359,65488652.5948,4825424.5358,0.0,62119663.5455,93401523.5677,4135375.3372,49352959.8476,190879860.3396,36964926.2022,,,23076337.0894
2011-03-31,93355779.5083,0.0,93355779.5083,48611085.6619,5852649.2594,108546801.0383,38226904.871,20524049.4732,28568636.433000002,1212093.4494,130206901.8171,238753702.8554,825469.5373,6871278.0577,38267216.3689,0.0,6871278.0577,37408306.6117,5809436.5552,0.0,33530920.7513,71798137.1202,-2837074.3625,27331348.2974,163502977.5538,28568636.433000002,,,30570468.7739
2010-03-31,41135930.8628,0.0,41135930.8628,34894243.4451,5083784.9714,53293393.8773,36691226.0144,3851911.5278,7100483.3748,546506.5182,100073238.6114,153366632.4886,1228504.4676,6591475.0256,16996338.0694,0.0,6591475.0256,18929105.0242,931155.7053,0.0,16316390.8012,33312728.8707,325325.9118,12785996.7775,118483374.8352,7100483.3748,,,9176358.5762
