,0,1,2,3,4,5,6,7,8,9,10,11,12,13,14,15,16,17,18,19,20,21,22,23,24,25,26,27,28
Date,Cash and cash equivalents,Short-term investments,Cash and short-term investments,Receivables,Inventories,Total current assets,Property Plant & Equipment Net,Goodwill and Intangible Assets,Long-term investments,Tax assets,Total non-current assets,Total assets,Payables,Short-term debt,Total current liabilities,Long-term debt,Total debt,Deferred revenue,Tax Liabilities,Deposit Liabilities,Total non-current liabilities,Total liabilities,Other comprehensive income,Retained earnings (deficit),Total shareholders equity,Investments,Net Debt,Other Assets,Other Liabilities
2019-10-31,11721683.0,2477502.0,11721683.0,4431971.0,5350514.0,24099606.0,5986812.0,3612891.0,0.0,631684.0,10231387.0,34330993.0,1273490.0,487140.0,2987199.0,572434.0,1059574.0,830148.0,0.0,0.0,716021.0,3703220.0,59521665.0,-26769207.0,30627773.0,2477502.0,-10662109.0,0.0,0.0
2018-10-31,7512422.0,3240595.0,7512422.0,3326623.0,3823243.0,18122307.0,5246183.0,3613952.0,0.0,1754169.0,10614304.0,28736611.0,988148.0,964695.0,3241211.0,1059544.0,2024239.0,602914.0,0.0,0.0,1108450.0,4349661.0,58599378.0,-31994406.0,24386950.0,3240595.0,-5488183.0,0.0,0.0
2017-10-31,6851539.0,3014795.0,6851539.0,1418114.0,3652249.0,15257511.0,5213281.0,3589281.0,0.0,4172200.0,8802562.0,24060073.0,981994.0,2212951.0,4117108.0,6066402.0,8279353.0,402955.0,0.0,-11255.0,6115545.0,10232653.0,52839652.0,-36982937.0,13827420.0,3014795.0,1427814.0,0.0,0.0
2016-10-31,5615461.0,0.0,5615461.0,6680897.0,2598925.0,15149121.0,3840500.0,3749525.0,0.0,96374.0,7686399.0,22835520.0,1396475.0,846994.0,3502077.0,9178930.0,10025924.0,464541.0,0.0,0.0,9178930.0,12681007.0,-2337437.0,-40322600.0,10154513.0,0.0,4410463.0,253838.0,1258608.0
2015-10-31,6324584.0,0.0,6324584.0,3543169.0,3781311.0,14081159.0,3935520.0,3849662.0,0.0,0.0,7799072.0,21880231.0,1032673.0,2050930.0,4285096.0,13302120.0,15353050.0,495566.0,0.0,0.0,13338083.0,17623179.0,373516.0,-45253148.0,4257052.0,0.0,9028466.0,432095.0,1201493.0
2010-10-31,215204.0,14875.0,230079.0,1863842.0,1780114.0,5686972.0,114469.0,3921847.0,0.0,0.0,4036316.0,9723288.0,2036340.0,14423516.0,22599587.0,160350.0,14583866.0,0.0,0.0,0.0,160350.0,22759937.0,47167911.0,-59285833.0,-13036649.0,14875.0,14368662.0,0.0,0.0
