,0,1,2,3,4,5,6,7,8,9,10,11,12,13,14
Date,Depreciation & Amortization,Stock-based compensation,Operating Cash Flow,Capital Expenditure,Acquisitions and disposals,Investment purchases and sales,Investing Cash flow,Issuance (repayment) of debt,Issuance (buybacks) of shares,Dividend payments,Financing Cash Flow,Effect of forex changes on cash,Net cash flow / Change in cash,Free Cash Flow,Net Cash/Marketcap
2019-12-31,91128000.0,6100000.0,84562000.0,34898000.0,-0.0,0.0,743126000.0,-0.0,-100314000.0,-0.0,-779522000.0,-1178000.0,46988000.0,49664000.0,0.0
2018-12-31,125058000.0,9000000.0,114452000.0,50315000.0,-552062000.0,0.0,-604080000.0,-0.0,-53326000.0,-0.0,500111000.0,2958000.0,13441000.0,64137000.0,0.0
2017-12-31,115058000.0,7000000.0,81771000.0,44767000.0,-164950000.0,0.0,-77278000.0,-0.0,-39885000.0,-0.0,-2588000.0,-1792000.0,113000.0,37004000.0,0.0
2016-12-31,89170000.0,4400000.0,111372000.0,23969000.0,-536175000.0,0.0,-363021000.0,-0.0,59587000.0,-0.0,208726000.0,-3174000.0,-46097000.0,87403000.0,0.0
2015-12-31,58410000.0,3200000.0,84548000.0,16588000.0,-130292000.0,0.0,233880000.0,-0.0,-85869000.0,-0.0,-254357000.0,-1905000.0,62166000.0,67960000.0,0.0
2014-12-31,58821000.0,4700000.0,70695000.0,15262000.0,-474657000.0,0.0,-424753000.0,-0.0,76165000.0,-0.0,265487000.0,-955000.0,-89526000.0,55433000.0,0.0
2013-12-31,49593000.0,4700000.0,72374000.0,20410000.0,-1117000.0,0.0,66736000.0,-0.0,-113229000.0,-0.0,-44122000.0,450000.0,94988000.0,51964000.0,0.0
2012-12-31,53619000.0,4200000.0,52566000.0,18546000.0,-126412000.0,0.0,-84463000.0,-0.0,-18241000.0,-69552000.0,-82232000.0,-37000.0,-114129000.0,34020000.0,0.0
2011-12-31,0.0,0.0,0.0,0.0,-0.0,0.0,0.0,-0.0,0.0,-0.0,0.0,0.0,0.0,0.0,0.0
2010-12-31,42120000.0,0.0,44841000.0,-8668000.0,-173732000.0,0.0,-182392000.0,19241000.0,152973000.0,-55165000.0,119592000.0,0.0,-17959000.0,36173000.0,-0.1114
2009-12-31,32996000.0,0.0,20213000.0,-3585000.0,-1435000.0,0.0,-4982000.0,-76500000.0,42085000.0,-46342000.0,-81209000.0,0.0,-65978000.0,16628000.0,-0.0963
