,0,1,2,3,4,5,6,7,8,9,10,11,12,13,14,15,16,17,18,19,20,21,22,23,24,25,26,27,28
Date,Cash and cash equivalents,Short-term investments,Cash and short-term investments,Receivables,Inventories,Total current assets,Property Plant & Equipment Net,Goodwill and Intangible Assets,Long-term investments,Tax assets,Total non-current assets,Total assets,Payables,Short-term debt,Total current liabilities,Long-term debt,Total debt,Deferred revenue,Tax Liabilities,Deposit Liabilities,Total non-current liabilities,Total liabilities,Other comprehensive income,Retained earnings (deficit),Total shareholders equity,Investments,Net Debt,Other Assets,Other Liabilities
2019-12-31,200200000.0,143232000.0,200200000.0,209200000.0,13932000.0,568248000.0,3855706000.0,0.0,0.0,129795000.0,3918997000.0,4487245000.0,189811000.0,87000000.0,328034000.0,1133025000.0,1220025000.0,9500000000.0,0.0,0.0,1903413000.0,2335758000.0,0.0,2143213000.0,2151487000.0,143232000.0,1019825000.0,0.0,104311000.0
2018-12-31,2287000.0,166346000.0,2287000.0,362973000.0,11076000.0,544545000.0,3463606000.0,0.0,0.0,109251000.0,3654284000.0,4198829000.0,241939000.0,0.0,287264000.0,1226104000.0,1226104000.0,10100000000.0,1134000.0,0.0,1744872000.0,2110670000.0,428454000.0,1607658000.0,2088159000.0,166346000.0,1223817000.0,0.0,78534000.0
2017-12-31,480047000.0,58599000.0,480047000.0,215511000.0,8006000.0,764957000.0,3072204000.0,0.0,0.0,56666000.0,3962387000.0,4727344000.0,238045000.0,304000000.0,630050000.0,1217891000.0,1521891000.0,0.0,700000.0,81500000.0,1484644000.0,2203439000.0,1311843000.0,1162430000.0,2523905000.0,58599000.0,1041844000.0,0.0,88745000.0
2016-12-31,498542000.0,15749000.0,498542000.0,185594000.0,13304000.0,715881000.0,4250125000.0,0.0,0.0,10298000.0,4406688000.0,5122569000.0,168411000.0,0.0,257812000.0,1520530000.0,1520530000.0,0.0,663000.0,0.0,2129098000.0,2554902000.0,1420475000.0,1098703000.0,2567667000.0,15749000.0,1021988000.0,0.0,167992000.0
2015-12-31,514000.0,7780000.0,514000.0,116772000.0,17049000.0,144786000.0,4976879000.0,0.0,0.0,4323000.0,5117113000.0,5261899000.0,160407000.0,20000000.0,235552000.0,2005000000.0,2025000000.0,0.0,663000.0,0.0,2838260000.0,3252711000.0,415162000.0,1552014000.0,2009188000.0,7780000.0,2024486000.0,0.0,178899000.0
2014-12-31,20954000.0,148777000.0,20954000.0,227835000.0,14026000.0,413447000.0,4925711000.0,0.0,0.0,0.0,5024269000.0,5437716000.0,400076000.0,0.0,499018000.0,1752000000.0,1752000000.0,0.0,0.0,0.0,2635483000.0,3294983000.0,403597000.0,1698995000.0,2142733000.0,148777000.0,1731046000.0,0.0,160482000.0
2013-12-31,23400000.0,120083000.0,23400000.0,215361000.0,17468000.0,378899000.0,4546227000.0,0.0,0.0,81855000.0,4602181000.0,4981080000.0,288801000.0,0.0,407905000.0,1147000000.0,1147000000.0,0.0,31591000.0,0.0,2261166000.0,2776478000.0,542957000.0,1627805000.0,2204602000.0,120083000.0,1123600000.0,0.0,107407000.0
2012-12-31,30736000.0,58173000.0,30736000.0,165070000.0,14173000.0,270310000.0,4310977000.0,0.0,0.0,5203000.0,4346003000.0,4616313000.0,312480000.0,75000000.0,444139000.0,1012000000.0,1087000000.0,0.0,1667000.0,0.0,1934847000.0,2484866000.0,713260000.0,1373264000.0,2131447000.0,58173000.0,1056264000.0,0.0,105880000.0
2011-12-31,29911000.0,178726000.0,29911000.0,111306000.0,21278000.0,345800000.0,3934584000.0,0.0,21249000.0,1388000.0,3985693000.0,4331493000.0,217294000.0,385000.0,343344000.0,950000000.0,950385000.0,0.0,0.0,0.0,1784531000.0,2226725000.0,721028000.0,1258291000.0,2104768000.0,199975000.0,920474000.0,0.0,98850000.0
2010-12-31,0.0,0.0,0.0,0.0,0.0,0.0,0.0,0.0,0.0,0.0,0.0,0.0,0.0,0.0,0.0,0.0,0.0,0.0,0.0,0.0,0.0,-1872700000.0,1872700000.0,0.0,1872700000.0,0.0,0.0,0.0,-1872700000.0
2009-12-31,40158000.0,114686000.0,154844000.0,80362000.0,27990000.0,281502000.0,3358199000.0,0.0,0.0,8909000.0,3401899000.0,3683401000.0,215588000.0,0.0,308741000.0,805000000.0,805000000.0,0.0,679905000.0,0.0,1562146000.0,1870887000.0,42436000.0,1057472000.0,1812514000.0,114686000.0,650156000.0,18306000.0,93153000.0
