,0,1,2,3,4,5,6,7,8,9,10,11,12,13,14,15,16,17,18,19,20,21,22,23,24,25,26,27,28
Date,Cash and cash equivalents,Short-term investments,Cash and short-term investments,Receivables,Inventories,Total current assets,Property Plant & Equipment Net,Goodwill and Intangible Assets,Long-term investments,Tax assets,Total non-current assets,Total assets,Payables,Short-term debt,Total current liabilities,Long-term debt,Total debt,Deferred revenue,Tax Liabilities,Deposit Liabilities,Total non-current liabilities,Total liabilities,Other comprehensive income,Retained earnings (deficit),Total shareholders equity,Investments,Net Debt,Other Assets,Other Liabilities
2009-12,29000000.0,279000000.0,279000000.0,22000000.0,17000000.0,273000000.0,38000000.0,8000000.0,218000000.0,9000000.0,32000000.0,641000000.0,4000000.0,,56000000.0,,,22000000.0,,,32000000.0,88000000.0,3000000.0,165000000.0,552000000.0,218000000.0,-29000000.0,1000000.0,10000000.0
2008-12,35000000.0,277000000.0,277000000.0,32000000.0,13000000.0,228000000.0,37000000.0,8000000.0,0.0,9000000.0,25000000.0,620000000.0,5000000.0,,76000000.0,,,0.0,,,25000000.0,101000000.0,1000000.0,147000000.0,519000000.0,0.0,-35000000.0,173000000.0,25000000.0
2007-12,9000000.0,344000000.0,344000000.0,33000000.0,11000000.0,141000000.0,34000000.0,1000000.0,0.0,15000000.0,6000000.0,551000000.0,4000000.0,,35000000.0,,,0.0,,,6000000.0,41000000.0,0.0,102000000.0,510000000.0,0.0,-9000000.0,91000000.0,6000000.0
2006-12,19000000.0,318000000.0,318000000.0,27000000.0,19000000.0,131000000.0,33000000.0,1000000.0,0.0,18000000.0,5000000.0,541000000.0,4000000.0,,45000000.0,,,0.0,,,5000000.0,50000000.0,-0.0,75000000.0,491000000.0,0.0,-19000000.0,78000000.0,9000000.0
2005-12,20000000.0,281000000.0,281000000.0,46000000.0,16000000.0,110000000.0,33000000.0,1000000.0,0.0,22000000.0,11000000.0,513000000.0,4000000.0,,44000000.0,,,0.0,,,11000000.0,55000000.0,-5000000.0,45000000.0,459000000.0,0.0,-20000000.0,54000000.0,12000000.0
