,0,1,2,3,4,5,6,7,8,9,10,11,12,13,14
Date,Depreciation & Amortization,Stock-based compensation,Operating Cash Flow,Capital Expenditure,Acquisitions and disposals,Investment purchases and sales,Investing Cash flow,Issuance (repayment) of debt,Issuance (buybacks) of shares,Dividend payments,Financing Cash Flow,Effect of forex changes on cash,Net cash flow / Change in cash,Free Cash Flow,Net Cash/Marketcap
2019-12-29,181229000.0,2000000.0,290370000.0,176028000.0,-0.0,0.0,-173677000.0,-0.0,-9614000.0,-9400000.0,-120627000.0,0.0,-3934000.0,114342000.0,0.0
2018-12-30,188733000.0,5606000.0,168879000.0,138235000.0,456000.0,0.0,-143945000.0,-0.0,-13548000.0,-9353000.0,-28288000.0,0.0,-3354000.0,30644000.0,0.0
2017-12-31,169923000.0,7922000.0,307816000.0,192199000.0,-265060000.0,0.0,-458895000.0,-0.0,-16902000.0,-9328000.0,146131000.0,0.0,-4948000.0,115617000.0,0.0
2017-01-01,118478000.0,7154000.0,161995000.0,172586000.0,-272637000.0,0.0,-452026000.0,-164757000.0,-21850000.0,-9307000.0,256383000.0,0.0,-33648000.0,-10591000.0,0.0
2016-01-03,83023000.0,7300000.0,108290000.0,163887000.0,-81707000.0,0.0,-217343000.0,-100000000.0,-55498000.0,-9287000.0,155456000.0,0.0,46403000.0,-55597000.0,0.0
2014-12-28,62507000.0,3542000.0,91903000.0,84364000.0,-41588000.0,0.0,-124251000.0,-0.0,-9095000.0,-9266000.0,29682000.0,0.0,-2666000.0,7539000.0,0.0
2013-12-29,60055000.0,2919000.0,96374000.0,61432000.0,-0.0,0.0,-55296000.0,-0.0,-11761000.0,-9245000.0,-39716000.0,0.0,1362000.0,34942000.0,0.0
2012-12-30,62681000.0,2623000.0,83172000.0,53271000.0,-0.0,0.0,-49570000.0,-0.0,-10399000.0,-9224000.0,-113961000.0,0.0,-80359000.0,29901000.0,0.0
2012-01-01,0.0,0.0,0.0,0.0,-0.0,0.0,0.0,-0.0,0.0,-0.0,0.0,0.0,0.0,0.0,0.0
2011-01-02,59161000.0,2223000.0,109756000.0,-56003000.0,-32000.0,0.0,-53617000.0,-18846000.0,0.0,-9180000.0,-28037000.0,0.0,28102000.0,53753000.0,-1.0188
2010-01-03,61015000.0,2161000.0,79503000.0,-35057000.0,0.0,0.0,-39557000.0,-57838000.0,0.0,-9162000.0,-67583000.0,0.0,-27637000.0,44446000.0,-1.1786
