,0,1,2,3,4,5,6,7,8,9,10,11,12,13,14
Date,Depreciation & Amortization,Stock-based compensation,Operating Cash Flow,Capital Expenditure,Acquisitions and disposals,Investment purchases and sales,Investing Cash flow,Issuance (repayment) of debt,Issuance (buybacks) of shares,Dividend payments,Financing Cash Flow,Effect of forex changes on cash,Net cash flow / Change in cash,Free Cash Flow,Net Cash/Marketcap
2020-01-31,46669000.0,12550000.0,80066000.0,57546000.0,-0.0,-66290000.0,-56822000.0,-559077000.0,-66290000.0,-0.0,-7326000.0,0.0,80855000.0,22520000.0,0.0
2019-01-31,42224000.0,12217000.0,151801000.0,32814000.0,-0.0,0.0,-32814000.0,-859525000.0,-5912000.0,-0.0,-150208000.0,0.0,64937000.0,118987000.0,0.0
2018-01-31,45083000.0,8680000.0,51361000.0,16918000.0,-0.0,0.0,-16918000.0,-1081642000.0,0.0,-0.0,-48723000.0,0.0,-14280000.0,34443000.0,0.0
2017-01-31,52890000.0,5001000.0,205130000.0,46556000.0,-0.0,0.0,-35750000.0,-1032842000.0,0.0,-0.0,-158068000.0,0.0,11312000.0,158574000.0,0.0
2016-01-31,36143000.0,4611000.0,-174122000.0,63405000.0,-0.0,0.0,-57758000.0,-423682000.0,-164035000.0,-0.0,231911000.0,0.0,31000.0,-237527000.0,0.0
2015-01-31,21604000.0,4097000.0,-189901000.0,61696000.0,-0.0,0.0,-42413000.0,-0.0,-12223000.0,-0.0,238810000.0,0.0,6496000.0,-251597000.0,0.0
2014-01-31,16817000.0,3949000.0,-210262000.0,52127000.0,-0.0,0.0,-52083000.0,-0.0,-5727000.0,-0.0,264223000.0,0.0,1878000.0,-262389000.0,0.0
2013-01-31,13891000.0,2945000.0,-22803000.0,32353000.0,-0.0,0.0,-9471000.0,-0.0,52146000.0,-0.0,29858000.0,0.0,-2416000.0,-55156000.0,0.0
2012-01-31,12869000.0,2354000.0,64517000.0,4386000.0,-0.0,0.0,-4386000.0,2937000.0,-6335000.0,-0.0,-64843000.0,0.0,-4712000.0,60131000.0,0.0
2011-01-31,17449000.0,2179000.0,63058000.0,-2319000.0,0.0,0.0,-2319000.0,-78419000.0,23545000.0,0.0,-62009000.0,0.0,-1270000.0,60739000.0,-3.6493
2010-01-31,14012000.0,2445000.0,64239000.0,-10103000.0,0.0,0.0,-10103000.0,-53586000.0,228000.0,0.0,-53798000.0,0.0,338000.0,54136000.0,-3.5555
