,0,1,2,3,4,5,6,7,8,9,10,11,12,13,14,15,16,17,18,19,20,21,22,23,24,25,26,27,28,29,30
Date,Revenue,Revenue Growth,Cost of Revenue,Gross Profit,R&D Expenses,SG&A Expense,Operating Expenses,Operating Income,Interest Expense,Earnings before Tax,Income Tax Expense,Net Income - Non-Controlling int,Net Income - Discontinued ops,Net Income,Preferred Dividends,Net Income Com,EPS,EPS Diluted,Weighted Average Shs Out,Weighted Average Shs Out (Dil),Dividend per Share,Gross Margin,EBITDA Margin,EBIT Margin,Profit Margin,Free Cash Flow margin,EBITDA,EBIT,Consolidated Income,Earnings Before Tax Margin,Net Profit Margin
2019-12-31,306486000.0,0.219859341604,5504000.0,300982000.0,89017000.0,100359000.0,194446000.0,111606000.0,0.0,116676000.0,22495000.0,0.0,0.0,94181000.0,0.0,94181000.0,0.82,0.77,114349000.0,122566000.0,0.0,0.98204159407,0.371230659802,0.364147138858,0.307292992176,0.440571510607,113777000.0,111606000.0,94181000.0,0.38068949315800005,0.307292992176
2018-12-31,251247000.0,0.578174760209,5215000.0,246032000.0,75247000.0,81289000.0,159193000.0,89496000.0,0.0,92153000.0,16743000.0,0.0,0.0,75410000.0,0.0,75410000.0,0.65,0.6,115343000.0,126688000.0,0.0,0.979243533256,0.357146552994,0.35620723829499995,0.300142887278,0.459177622021,89732000.0,89496000.0,75410000.0,0.36678248894500004,0.300142887278
2017-12-31,159201000.0,0.957686206515,3554000.0,155647000.0,40376000.0,62416000.0,102743000.0,52855000.0,0.0,52806000.0,-76316000.0,0.0,0.0,129122000.0,0.0,129122000.0,1.14,1.04,113527000.0,124515000.0,0.0,0.977676019623,0.332755447516,0.332001683407,0.811062744581,0.380123240432,52975000.0,52855000.0,129122000.0,0.331693896395,0.811062744581
2016-12-31,81321000.0,0.617169788808,2058000.0,79263000.0,23844000.0,45240000.0,71123000.0,10179000.0,2039000.0,0.0,0.0,0.0,0.0,8140000.0,0.0,8140000.0,0.07,0.07,110566000.0,116139000.0,0.0,0.9746928837569999,0.126498690375,0.125170620135,0.100097145879,0.22376753851999998,10287000.0,10179000.0,8140000.0,0.0,0.100097145879
2015-12-31,50286000.0,0.893939964596,1361000.0,48925000.0,15419000.0,36949000.0,55333000.0,-3443000.0,2800000.0,0.0,0.0,0.0,0.0,-6408000.0,0.0,-6408000.0,-0.06,-0.06,106883000.0,106883000.0,0.0,0.97293481287,-0.0649484946108,-0.0684683609752,-0.12743109414200002,0.0619058982619,-3266000.0,-3443000.0,-6408000.0,0.0,-0.12743109414200002
2014-12-31,26551000.0,1.5635801873100001,882000.0,25669000.0,18372000.0,34916000.0,54170000.0,-27619000.0,3700000.0,0.0,0.0,0.0,0.0,-31383000.0,0.0,-31383000.0,-0.31,-0.31,100978000.0,100978000.0,0.0,0.9667809122069999,-1.03382170163,-1.04022447365,-1.18198937893,-1.0376257014799999,-27449000.0,-27619000.0,-31383000.0,0.0,-1.18198937893
2013-12-31,10357000.0,2.1318415482299997,143000.0,10214000.0,20470000.0,31240000.0,51853000.0,-41496000.0,4515000.0,0.0,0.0,0.0,0.0,-46011000.0,0.0,-46011000.0,-0.46,-0.46,99819000.0,99819000.0,0.0,0.9861929130060001,-3.9960413247099997,-4.0065656078,-4.442502655209999,-3.5903253837999998,-41387000.0,-41496000.0,-46011000.0,0.0,-4.442502655209999
2012-12-31,3307000.0,1.0,91000.0,3216000.0,14074000.0,25414000.0,39579000.0,-36272000.0,0.0,0.0,0.0,0.0,0.0,-38048000.0,0.0,-38048000.0,-0.41,-0.41,93015000.0,93015000.0,0.0,0.97248261264,-10.954944058099999,-10.9682491684,-11.505291805299999,-10.9377078923,-36228000.0,-36272000.0,-38048000.0,0.0,-11.505291805299999
2011-12-31,0.0,0.0,0.0,0.0,21001000.0,11331000.0,32332000.0,-32332000.0,0.0,0.0,0.0,0.0,0.0,-32354000.0,0.0,-32354000.0,-0.39,-0.39,83309000.0,83309000.0,0.0,0.0,0.0,0.0,0.0,0.0,-32329000.0,-32332000.0,-32354000.0,0.0,0.0
2010-12-31,0.0,-1.0,0.0,0.0,18949000.0,8488000.0,27437000.0,-27437000.0,25000.0,-25966000.0,0.0,0.0,0.0,-25966000.0,0.0,-25966000.0,-0.38,-0.38,72382628.0,68336000.0,0.0,0.0,,0.0,,0.0,-25935000.0,-25941000.0,-25966000.0,0.0,0.0
2009-12-31,29000.0,-0.8612,0.0,29000.0,14402000.0,5877000.0,20296000.0,-20267000.0,0.0,-20166000.0,0.0,0.0,0.0,-20166000.0,0.0,-20166000.0,-0.38,-0.38,62474686.0,52443000.0,0.0,1.0,,-695.3793,,-619.5862,-20156000.0,-20166000.0,-20166000.0,-695.3793,-695.3793
