,0,1,2,3,4,5,6,7,8,9,10,11,12,13,14
Date,Depreciation & Amortization,Stock-based compensation,Operating Cash Flow,Capital Expenditure,Acquisitions and disposals,Investment purchases and sales,Investing Cash flow,Issuance (repayment) of debt,Issuance (buybacks) of shares,Dividend payments,Financing Cash Flow,Effect of forex changes on cash,Net cash flow / Change in cash,Free Cash Flow,Net Cash/Marketcap
2020-01-31,73706000.0,81376000.0,68156000.0,11970000.0,-308406000.0,-317474000.0,-637850000.0,-0.0,-268045000.0,-0.0,696655000.0,0.0,268045000.0,56186000.0,0.0
2019-01-31,29459000.0,52945000.0,37436000.0,7528000.0,-143885000.0,-178783000.0,-330196000.0,-0.0,-141250000.0,-0.0,21103000.0,0.0,141250000.0,29908000.0,0.0
2018-01-31,12022000.0,29694000.0,19770000.0,4488000.0,-46075000.0,0.0,-50529000.0,-0.0,-412903000.0,-0.0,241941000.0,0.0,211182000.0,15282000.0,0.0
2017-01-31,8579000.0,9452000.0,-20955000.0,4491000.0,-6750000.0,0.0,-11241000.0,-0.0,-201721000.0,-0.0,141569000.0,0.0,109373000.0,-25446000.0,0.0
2016-01-31,2758000.0,10568000.0,-22069000.0,-3868000.0,-1426000.0,0.0,-5294000.0,0.0,1506000.0,0.0,77737000.0,0.0,50374000.0,-25937000.0,0.0499
2015-01-31,1377000.0,1807000.0,-11929000.0,-2370000.0,0.0,0.0,-2370000.0,0.0,466000.0,0.0,40438000.0,0.0,26139000.0,-14299000.0,0.0499
