,0,1,2,3,4,5,6,7,8,9,10,11,12,13,14,15,16,17,18,19,20,21,22,23,24,25,26,27,28
Date,Cash and cash equivalents,Short-term investments,Cash and short-term investments,Receivables,Inventories,Total current assets,Property Plant & Equipment Net,Goodwill and Intangible Assets,Long-term investments,Tax assets,Total non-current assets,Total assets,Payables,Short-term debt,Total current liabilities,Long-term debt,Total debt,Deferred revenue,Tax Liabilities,Deposit Liabilities,Total non-current liabilities,Total liabilities,Other comprehensive income,Retained earnings (deficit),Total shareholders equity,Investments,Net Debt,Other Assets,Other Liabilities
2018-12-31,156158000.0,566200000.0,722358000.0,117231000.0,86530000.0,1064069000.0,2701322000.0,101168000.0,138846000.0,26398000.0,3023181000.0,4087250000.0,188420000.0,311965000.0,1047152000.0,975283000.0,1287248000.0,67814000.0,93689000.0,0.0,1199419000.0,2246571000.0,-4227000.0,1872700000.0,1840679000.0,705046000.0,564890000.0,137950000.0,546767000.0
2017-12-31,238792000.0,705108000.0,943900000.0,118085000.0,81825000.0,1198488000.0,2617407000.0,81115000.0,65953000.0,19099000.0,2846473000.0,4044961000.0,190911000.0,298462000.0,1057515000.0,876119000.0,1174581000.0,50312000.0,126242000.0,0.0,1092320000.0,2149835000.0,-3888000.0,1933953000.0,1895126000.0,771061000.0,,,568142000.0
2016-12-31,331687000.0,483002000.0,814689000.0,116100000.0,74502000.0,1069391000.0,2418164000.0,69502000.0,953000.0,18339000.0,2571204000.0,3640595000.0,164799000.0,222718000.0,862682000.0,961414000.0,1184132000.0,35368000.0,114858000.0,0.0,1141160000.0,2003842000.0,-1872000.0,1681573000.0,1636753000.0,483955000.0,,,475165000.0
2015-12-31,204715000.0,480233000.0,684948000.0,105777000.0,62247000.0,907585000.0,2453751000.0,69426000.0,861000.0,12708000.0,2610989000.0,3518574000.0,301917000.0,245514000.0,985667000.0,1055183000.0,1300697000.0,18884000.0,100107000.0,0.0,1142387000.0,2128054000.0,-768000.0,1441831000.0,1390520000.0,481094000.0,,,438236000.0
2014-12-31,221443000.0,545160000.0,766603000.0,122150000.0,59954000.0,1011449000.0,2505336000.0,57295000.0,396802000.0,17235000.0,3068163000.0,4079612000.0,322729000.0,187646000.0,981497000.0,928964000.0,1116610000.0,0.0,99406000.0,0.0,1023007000.0,2004504000.0,238000.0,2011485000.0,2075108000.0,941962000.0,,,471122000.0
2013-12-31,139110000.0,992579000.0,1131689000.0,135056000.0,56814000.0,1401153000.0,2348514000.0,53519000.0,37590000.0,7453000.0,2551611000.0,3952764000.0,182297000.0,156329000.0,1038849000.0,913507000.0,1069836000.0,0.0,159743000.0,0.0,1012009000.0,2050858000.0,4200000.0,1820583000.0,1901906000.0,1030169000.0,,,700223000.0
2012-12-31,76094000.0,575009000.0,651103000.0,136336000.0,50603000.0,917490000.0,2284631000.0,86957000.0,69445000.0,0.0,2562010000.0,3479500000.0,173277000.0,136268000.0,788690000.0,1069836000.0,1206104000.0,0.0,119800000.0,0.0,1154266000.0,1942956000.0,7569000.0,1458258000.0,1536544000.0,644454000.0,,,479145000.0
2011-12-31,243801000.0,262345000.0,506146000.0,143001000.0,42382000.0,754242000.0,2000191000.0,72146000.0,104834000.0,0.0,2311554000.0,3065796000.0,145388000.0,131069000.0,658660000.0,936657000.0,1067726000.0,0.0,101667000.0,0.0,1017605000.0,1676265000.0,1609000.0,1324394000.0,1389531000.0,367179000.0,,,382203000.0
2010-12-31,207690000.0,194913000.0,402603000.0,89387000.0,45982000.0,594383000.0,1772528000.0,68940000.0,6224000.0,0.0,1961614000.0,2555997000.0,127514000.0,100860000.0,460577000.0,888681000.0,989541000.0,0.0,72499000.0,0.0,950764000.0,1411341000.0,2410000.0,1086379000.0,1144656000.0,201137000.0,,,232203000.0
2009-12-31,262656000.0,89412000.0,352068000.0,80791000.0,27098000.0,503022000.0,1480172000.0,66445000.0,6407000.0,0.0,1658186000.0,2161208000.0,114045000.0,94550000.0,443616000.0,750971000.0,845521000.0,0.0,67147000.0,0.0,806459000.0,1250075000.0,808000.0,858543000.0,911133000.0,95819000.0,,,235021000.0
