,0,1,2,3,4,5,6,7,8,9,10,11,12,13,14,15,16,17,18,19,20,21,22,23,24,25,26,27,28,29,30
Date,Revenue,Revenue Growth,Cost of Revenue,Gross Profit,R&D Expenses,SG&A Expense,Operating Expenses,Operating Income,Interest Expense,Earnings before Tax,Income Tax Expense,Net Income - Non-Controlling int,Net Income - Discontinued ops,Net Income,Preferred Dividends,Net Income Com,EPS,EPS Diluted,Weighted Average Shs Out,Weighted Average Shs Out (Dil),Dividend per Share,Gross Margin,EBITDA Margin,EBIT Margin,Profit Margin,Free Cash Flow margin,EBITDA,EBIT,Consolidated Income,Earnings Before Tax Margin,Net Profit Margin
2019-12-31,25894000.0,-0.85032196904,0.0,0.0,0.0,82290000.0,84750000.0,77927000.0,32309000.0,77927000.0,19605000.0,0.0,0.0,58322000.0,0.0,58322000.0,2.05,2.03,28495699.0,28677100.0,0.89639468426,0.0,2.9835096933700003,3.00946165135,2.2523364486,2.5100409361200002,77255000.0,77927000.0,58322000.0,3.00946165135,2.2523364486
2018-12-31,172998000.0,0.031573674889500004,0.0,0.0,0.0,75352000.0,79217000.0,78244000.0,25296000.0,78244000.0,18758000.0,0.0,0.0,59486000.0,0.0,59486000.0,2.02,2.01,29409683.0,29609907.0,0.8153689911959999,0.0,0.44792425346000003,0.452282685349,0.34385368617,0.579550052602,77490000.0,78244000.0,59486000.0,0.452282685349,0.34385368617
2017-12-31,167703000.0,0.0617473884141,0.0,0.0,0.0,72286000.0,77248000.0,75056000.0,14859000.0,75056000.0,33852000.0,0.0,0.0,41204000.0,0.0,41204000.0,1.36,1.34,30401000.0,30638000.0,0.6951824531630001,0.0,0.445937162722,0.447553114733,0.245696260651,0.538171648688,74785000.0,75056000.0,41204000.0,0.447553114733,0.245696260651
2016-12-31,157950000.0,0.0563238992028,0.0,0.0,0.0,73500000.0,81241000.0,72220000.0,9189000.0,72220000.0,25228000.0,0.0,0.0,46992000.0,0.0,46992000.0,1.52,1.5,31009000.0,31225000.0,0.596285028022,0.0,0.462583095916,0.457233301678,0.297511870845,0.446907249129,73065000.0,72220000.0,46992000.0,0.457233301678,0.297511870845
2015-12-31,149528000.0,0.042602741636300005,0.0,0.0,0.0,66429000.0,66429000.0,72956000.0,6507000.0,72956000.0,27088000.0,0.0,0.0,45868000.0,0.0,45868000.0,1.42,1.4,32238000.0,32651000.0,0.8006799179199999,0.0,0.504514204697,0.48790861912199995,0.306751912685,0.45936547001199995,75439000.0,72956000.0,45868000.0,0.48790861912199995,0.306751912685
2014-12-31,143418000.0,0.0774478059335,0.0,0.0,0.0,67941000.0,67941000.0,60842000.0,6391000.0,60842000.0,20389000.0,0.0,0.0,40453000.0,0.0,40453000.0,1.08,1.07,37366000.0,37937000.0,0.353348973298,0.0,0.447705308957,0.42422847899099997,0.282063618235,0.456114295277,64209000.0,60842000.0,40453000.0,0.42422847899099997,0.282063618235
2013-12-31,133109000.0,0.111919539558,0.0,0.0,0.0,76294000.0,76294000.0,59828000.0,7169000.0,59828000.0,-112247000.0,0.0,0.0,172075000.0,0.0,172075000.0,4.1,4.07,41961000.0,42317000.0,0.159155894794,0.0,0.450533021809,0.449466226927,1.2927375309,0.5878190054770001,59970000.0,59828000.0,172075000.0,0.449466226927,1.2927375309
2012-12-31,119711000.0,0.0160412829631,0.0,0.0,0.0,69344000.0,69344000.0,47421000.0,8734000.0,47421000.0,0.0,0.0,0.0,47421000.0,0.0,47421000.0,1.14,1.13,41720000.0,42084000.0,0.0,0.0,0.40331297875699995,0.39612901070100004,0.39612901070100004,0.298151381243,48281000.0,47421000.0,47421000.0,0.39612901070100004,0.39612901070100004
2011-12-31,117821000.0,6.29948578155,0.0,0.0,0.0,63675000.0,70708000.0,36571000.0,18629000.0,36571000.0,0.0,0.0,0.0,120468000.0,-83897000.0,120468000.0,3.36,3.31,0.0,0.0,0.0,0.0,0.346975496728,0.310394581611,1.0224662836,0.189915210361,40881000.0,36571000.0,120468000.0,0.310394581611,1.0224662836
2010-12-31,16141000.0,-1.13811544846,0.0,16141000.0,0.0,99956000.0,261409000.0,-245268000.0,0.0,-250953000.0,0.0,0.0,0.0,-250953000.0,8432000.0,-259385000.0,-171.13,-171.13,1518240.0,1518240.0,0.0,1.0,-15.068,-15.5475,-16.07,14.819,-243216000.0,-250953000.0,-250953000.0,-15.5475,-15.5475
2009-12-31,-116866000.0,-2.3734,0.0,-116866000.0,0.0,107414000.0,216876000.0,-333742000.0,0.0,-333742000.0,-19995000.0,0.0,0.0,-313747000.0,7946000.0,-321693000.0,-220.56,-220.56,1516438.0,1516438.0,0.0,1.0,2.784,2.8558,2.753,-1.1307,-325332000.0,-333742000.0,-313747000.0,2.8558,2.6847
