,0,1,2,3,4,5,6,7,8,9,10,11,12,13,14
Date,Depreciation & Amortization,Stock-based compensation,Operating Cash Flow,Capital Expenditure,Acquisitions and disposals,Investment purchases and sales,Investing Cash flow,Issuance (repayment) of debt,Issuance (buybacks) of shares,Dividend payments,Financing Cash Flow,Effect of forex changes on cash,Net cash flow / Change in cash,Free Cash Flow,Net Cash/Marketcap
2018-12-31,73089000.0,613000.0,97890000.0,-4476000.0,0.0,0.0,-4476000.0,-73818000.0,0.0,-52600000.0,-126512000.0,0.0,-33098000.0,93414000.0,-1.3689
2017-12-31,73993000.0,1156000.0,126974000.0,-2038000.0,0.0,0.0,-2038000.0,-129262000.0,17815000.0,-51630000.0,-168317000.0,0.0,-43381000.0,124936000.0,-0.983
2016-12-31,71897000.0,1074000.0,155086000.0,-90782000.0,0.0,0.0,-90782000.0,17646000.0,4546000.0,-68193000.0,-46816000.0,0.0,17488000.0,64304000.0,-0.983
2015-12-31,62707000.0,34000.0,134209000.0,-207937000.0,0.0,0.0,-209937000.0,-6299000.0,133327000.0,-122773000.0,1719000.0,0.0,-74009000.0,-73728000.0,-0.983
2014-12-31,57476000.0,0.0,125277000.0,-30327000.0,0.0,0.0,-30327000.0,-5400000.0,113932000.0,-102798000.0,5277000.0,0.0,100227000.0,94950000.0,-0.983
2013-12-31,52613000.0,3528000.0,129576000.0,-330846000.0,0.0,0.0,-335346000.0,124950000.0,195771000.0,-88241000.0,226191000.0,0.0,20421000.0,-201270000.0,-0.983
2012-12-31,48715000.0,3826000.0,84798000.0,19685000.0,0.0,0.0,15935000.0,-175215000.0,140000000.0,-73316000.0,-110552000.0,0.0,-9819000.0,104483000.0,-0.983
2011-12-31,38023000.0,2455000.0,56539000.0,-27003000.0,11847000.0,0.0,-16656000.0,25000000.0,1470000.0,-45116000.0,-18984000.0,0.0,20899000.0,29536000.0,-0.983
2010-12-31,32016000.0,782000.0,50051000.0,-99842000.0,-9000000.0,30390000.0,-79202000.0,-1556000.0,105273000.0,-33665000.0,58070000.0,0.0,28919000.0,-49791000.0,-0.983
2009-12-31,31141000.0,0.0,72562000.0,-26460000.0,0.0,-29310000.0,-55770000.0,-25771000.0,0.0,-70463000.0,-56389000.0,0.0,-39597000.0,46102000.0,-0.983
