,0,1,2,3,4,5,6,7,8,9,10,11,12,13,14
Date,Depreciation & Amortization,Stock-based compensation,Operating Cash Flow,Capital Expenditure,Acquisitions and disposals,Investment purchases and sales,Investing Cash flow,Issuance (repayment) of debt,Issuance (buybacks) of shares,Dividend payments,Financing Cash Flow,Effect of forex changes on cash,Net cash flow / Change in cash,Free Cash Flow,Net Cash/Marketcap
2019-03-30,229000000.0,60000000.0,694000000.0,184000000.0,-1875000000.0,-207000000.0,-2125000000.0,-2560000000.0,-207000000.0,-0.0,1451000000.0,-11000000.0,9000000.0,510000000.0,0.0
2018-03-31,209000000.0,49600000.0,1062500000.0,123600000.0,-1414500000.0,-361000000.0,-1533400000.0,-1783200000.0,-361000000.0,-0.0,389600000.0,15100000.0,-66200000.0,938900000.0,0.0
2017-04-01,229900000.0,33900000.0,1028000000.0,170300000.0,-480600000.0,-1004800000.0,-650900000.0,-0.0,-1004800000.0,-0.0,-843600000.0,-5900000.0,229600000.0,857700000.0,0.0
2016-04-02,186700000.0,48400000.0,1228400000.0,380600000.0,-0.0,-1152400000.0,-381100000.0,-2400000.0,-1152400000.0,-0.0,-1128300000.0,4100000.0,-276900000.0,847800000.0,0.0
2015-03-28,144224000.0,48936000.0,857869000.0,385433000.0,-0.0,-495277000.0,-415447000.0,-0.0,-495277000.0,-0.0,-434694000.0,-27074000.0,7728000.0,472436000.0,0.0
2014-03-29,86733000.0,29078000.0,631779000.0,213560000.0,-0.0,-2447000.0,-220203000.0,-176000.0,-2447000.0,-0.0,71058000.0,-4683000.0,482634000.0,418219000.0,0.0
2013-03-30,58239000.0,20932000.0,356336000.0,129867000.0,-0.0,0.0,-140740000.0,-1708000.0,-472511000.0,-0.0,150561000.0,-1641000.0,366157000.0,226469000.0,0.0
2012-03-31,37554000.0,-5261000.0,115290000.0,-88187000.0,0.0,0.0,-88187000.0,7136000.0,19222000.0,0.0,58639000.0,-453000.0,85289000.0,27103000.0,0.0094
2011-04-02,25543000.0,0.0,110308000.0,-57348000.0,0.0,0.0,-57830000.0,-35876000.0,0.0,0.0,-37726000.0,649000.0,15401000.0,52960000.0,0.0094
2010-04-03,18843000.0,0.0,28592000.0,-30816000.0,0.0,0.0,-32175000.0,7443000.0,0.0,-1862000.0,5581000.0,1206000.0,3204000.0,-2224000.0,0.0094
