,0,1,2,3,4,5,6,7,8,9,10,11,12,13,14,15,16,17,18,19,20,21,22,23,24,25,26,27,28,29,30
Date,Revenue,Revenue Growth,Cost of Revenue,Gross Profit,R&D Expenses,SG&A Expense,Operating Expenses,Operating Income,Interest Expense,Earnings before Tax,Income Tax Expense,Net Income - Non-Controlling int,Net Income - Discontinued ops,Net Income,Preferred Dividends,Net Income Com,EPS,EPS Diluted,Weighted Average Shs Out,Weighted Average Shs Out (Dil),Dividend per Share,Gross Margin,EBITDA Margin,EBIT Margin,Profit Margin,Free Cash Flow margin,EBITDA,EBIT,Consolidated Income,Earnings Before Tax Margin,Net Profit Margin
2019-07-31,2041957000.0,0.13084269491800002,255504000.0,1786453000.0,0.0,181867000.0,181867000.0,716475000.0,19810000.0,704951000.0,113258000.0,0.0,0.0,591693000.0,0.0,591693000.0,2.57,2.46,230489000.0,240453000.0,0.0,0.8748729772470001,0.392666936669,0.350876634523,0.28976761019,0.133579208573,801809000.0,716475000.0,591693000.0,0.345233028903,0.28976761019
2018-07-31,1805695000.0,0.24704329683899998,196461000.0,1609234000.0,0.0,176890000.0,176890000.0,584345000.0,20368000.0,562511000.0,144504000.0,0.0,0.0,417867000.0,0.0,417867000.0,1.8,1.73,231793000.0,241877000.0,0.0,0.891199233536,0.367384857354,0.323612237947,0.23141615832100002,0.136877490385,663385000.0,584345000.0,417867000.0,0.311520494879,0.23141615832100002
2017-07-31,1447981000.0,0.141536632533,137552000.0,1310429000.0,0.0,151364000.0,151364000.0,461299000.0,23779000.0,440100000.0,45839000.0,0.0,0.0,394227000.0,0.0,394227000.0,1.72,1.66,228686000.0,237019000.0,0.0,0.905004278371,0.358250557155,0.318580837732,0.272259787939,0.22091450094999998,518740000.0,461299000.0,394227000.0,0.303940452257,0.272259787939
2016-07-31,1268449000.0,0.106772744287,140959000.0,1127490000.0,0.0,138116000.0,138116000.0,406470000.0,23606000.0,395865000.0,125505000.0,0.0,0.0,270360000.0,0.0,270360000.0,2.36,2.21,114423000.0,122147000.0,0.0,0.888872946409,0.359583239058,0.320446466511,0.213142191763,0.125019610564,456113000.0,406470000.0,270360000.0,0.312085862341,0.213142191763
2015-07-31,1146079000.0,0.09527363707080001,136412000.0,1009667000.0,0.0,138975000.0,138975000.0,344401000.0,18121000.0,332069000.0,112286000.0,0.0,0.0,219783000.0,0.0,219783000.0,1.75,1.67,125914000.0,131425000.0,0.0,0.8809750462229999,0.34316482546099997,0.300503717458,0.19176950280000002,0.162225291625,393294000.0,344401000.0,219783000.0,0.28974355171,0.19176950280000002
2014-07-31,1046386000.0,0.132218340148,167236000.0,103072000.0,0.0,137930000.0,137930000.0,282992000.0,10267000.0,276872000.0,96847000.0,0.0,0.0,180025000.0,0.0,180025000.0,1.44,1.39,124912.0,129781.0,0.0,0.0985028469418,0.324660307,0.270447043443,0.17204454188,0.0659995451009,339720000.0,282992000.0,180025000.0,0.264598341339,0.17204454188
2013-07-31,924191000.0,0.0,136971000.0,787220000.0,0.0,114492000.0,114492000.0,286353000.0,0.0,278056000.0,95937000.0,0.0,0.0,182119000.0,0.0,182119000.0,1.42,1.39,128120000.0,131428000.0,0.0,0.851793622747,0.361959811338,0.309841796771,0.19705775104899997,0.189182755513,334520000.0,286353000.0,182119000.0,0.300864215297,0.19705775104899997
2012-07-31,924191000.0,0.0595531535828,136971000.0,787220000.0,0.0,114492000.0,114492000.0,286353000.0,0.0,278056000.0,95937000.0,0.0,0.0,182119000.0,0.0,182119000.0,1.42,1.39,128120000.0,131428000.0,0.0,0.851793622747,0.361959811338,0.309841796771,0.19705775104899997,0.189182755513,334520000.0,286353000.0,182119000.0,0.300864215297,0.19705775104899997
2011-07-31,872246000.0,0.128567343659,125202000.0,747044000.0,0.0,107605000.0,107605000.0,265290000.0,4078000.0,263877000.0,97502000.0,0.0,0.0,166375000.0,0.0,166375000.0,2.2,2.17,75649000.0,76676000.0,0.0,0.856460218791,0.35653244612199997,0.304145848763,0.190743207765,0.198065683305,310984000.0,265290000.0,166375000.0,0.302525892925,0.190743207765
2010-07-31,772879000.0,0.0400992084319,424885000.0,347994000.0,0.0,108924000.0,108924000.0,239070000.0,216000.0,239495000.0,87868000.0,0.0,0.0,151627000.0,0.0,151627000.0,0.45,0.445,337345408.0,336660000.0,0.0,0.4503,0.366,0.3102,0.196,0.1631,282953000.0,239711000.0,151627000.0,0.3099,0.1962
2009-07-31,743082000.0,-0.0532,430822000.0,312260000.0,0.0,86935000.0,86935000.0,225325000.0,274000.0,229289000.0,88186000.0,0.0,-1557000.0,141103000.0,0.0,141103000.0,0.42200000000000004,0.415,334148000.0,339720000.0,0.0,0.4202,0.365,0.3089,0.19,0.1769,270917000.0,229563000.0,141103000.0,0.3086,0.1899
