,0,1,2,3,4,5,6,7,8,9,10,11,12,13,14,15,16,17,18,19,20,21,22,23,24,25,26,27,28,29,30
Date,Revenue,Revenue Growth,Cost of Revenue,Gross Profit,R&D Expenses,SG&A Expense,Operating Expenses,Operating Income,Interest Expense,Earnings before Tax,Income Tax Expense,Net Income - Non-Controlling int,Net Income - Discontinued ops,Net Income,Preferred Dividends,Net Income Com,EPS,EPS Diluted,Weighted Average Shs Out,Weighted Average Shs Out (Dil),Dividend per Share,Gross Margin,EBITDA Margin,EBIT Margin,Profit Margin,Free Cash Flow margin,EBITDA,EBIT,Consolidated Income,Earnings Before Tax Margin,Net Profit Margin
2019-12-31,0.0,-1.0,14759139.0,0.0,18842752.0,36881187.0,55723939.0,31823259.0,0.0,33409033.0,1533696.0,0.0,0.0,31875337.0,0.0,31875337.0,0.31,0.3,102944316.0,106020936.0,0.0,0.0,0.0,0.0,0.0,0.0,31877586.0,31823259.0,31875337.0,0.0,0.0
2018-12-31,500000.0,1.0,0.0,0.0,19919204.0,15875961.0,35795165.0,-35295165.0,0.0,-34003514.0,0.0,0.0,0.0,-34003514.0,0.0,-34003514.0,-0.33,-0.33,102633884.0,102633884.0,0.0,0.0,-70.514374,-70.59033000000001,-68.007028,-51.592848,-35257187.0,-35295165.0,-34003514.0,-68.007028,-68.007028
2017-12-31,0.0,0.0,0.0,0.0,11375237.0,7304399.0,18679636.0,-18679636.0,0.0,-18412377.0,0.0,0.0,0.0,-18412377.0,0.0,-18412377.0,-0.21,-0.21,85802487.0,85802487.0,0.0,0.0,0.0,0.0,0.0,0.0,-18633947.0,-18679636.0,-18412377.0,0.0,0.0
2016-12-31,0.0,0.0,0.0,0.0,11369941.0,7910260.0,19280201.0,-19280201.0,0.0,-18072452.0,0.0,0.0,0.0,-18072452.0,0.0,-18072452.0,-0.22,-0.22,82875281.0,82875281.0,0.0,0.0,0.0,0.0,0.0,0.0,-19236795.0,-19280201.0,-18072452.0,0.0,0.0
2015-12-31,0.0,0.0,0.0,0.0,11801342.0,8597010.0,20398352.0,-20398352.0,0.0,-20232958.0,0.0,0.0,0.0,-20232958.0,0.0,-20232958.0,-0.25,-0.25,80858393.0,80858393.0,0.0,0.0,0.0,0.0,0.0,0.0,-20363884.0,-20398352.0,-20232958.0,0.0,0.0
2014-12-31,0.0,0.0,0.0,0.0,10117774.0,4473654.0,14591428.0,-14591428.0,0.0,-15509061.0,0.0,0.0,0.0,-15509061.0,0.0,-15509061.0,-0.24,-0.24,64142534.0,64142534.0,0.0,0.0,0.0,0.0,0.0,0.0,-14564854.0,-14591428.0,-15509061.0,0.0,0.0
2013-12-31,0.0,0.0,0.0,0.0,8096774.0,2214884.0,10311658.0,-10311658.0,0.0,-12154596.0,0.0,0.0,0.0,-12154596.0,0.0,-12154596.0,-0.27,-0.27,45452447.0,45452447.0,0.0,0.0,0.0,0.0,0.0,0.0,-10289175.0,-10311658.0,-12154596.0,0.0,0.0
2012-12-31,0.0,0.0,0.0,0.0,2659597.0,2561543.0,5221140.0,-5221140.0,0.0,-4076386.0,0.0,0.0,0.0,-4076386.0,0.0,-4076386.0,-0.14,-0.14,0.0,0.0,0.0,0.0,0.0,0.0,0.0,0.0,-5210251.0,-5221140.0,-4076386.0,0.0,0.0
2011-12-31,0.0,0.0,0.0,0.0,3383965.0,2698174.0,6082139.0,-6082139.0,0.0,-6391062.0,0.0,0.0,0.0,-6391062.0,0.0,-6391062.0,-0.29,-0.29,21728292.0,21728292.0,0.0,0.0,0.0,0.0,0.0,0.0,-6039304.0,-6082139.0,-6391062.0,0.0,0.0
2010-12-31,0.0,0.0,0.0,0.0,2306781.0,2206358.0,4513139.0,-4513139.0,0.0,-4006323.0,0.0,0.0,0.0,-4006323.0,0.0,-4006323.0,-0.22,-0.22,19394737.0,18580223.0,0.0,0.0,,0.0,,0.0,-3980582.0,-4006323.0,-4006323.0,0.0,0.0
2009-12-31,0.0,0.0,0.0,0.0,5097440.0,2177954.0,7275394.0,-7275394.0,0.0,-7241928.0,0.0,0.0,0.0,-7241928.0,0.0,-7241928.0,-0.48,-0.48,18038385.0,15066799.0,0.0,0.0,,0.0,,0.0,-7211701.0,-7241928.0,-7241928.0,0.0,0.0
