,0,1,2,3,4,5,6,7,8,9,10,11,12,13,14,15,16,17,18,19,20,21,22,23,24,25,26,27,28,29,30
Date,Revenue,Revenue Growth,Cost of Revenue,Gross Profit,R&D Expenses,SG&A Expense,Operating Expenses,Operating Income,Interest Expense,Earnings before Tax,Income Tax Expense,Net Income - Non-Controlling int,Net Income - Discontinued ops,Net Income,Preferred Dividends,Net Income Com,EPS,EPS Diluted,Weighted Average Shs Out,Weighted Average Shs Out (Dil),Dividend per Share,Gross Margin,EBITDA Margin,EBIT Margin,Profit Margin,Free Cash Flow margin,EBITDA,EBIT,Consolidated Income,Earnings Before Tax Margin,Net Profit Margin
2018-12-29,21580904.0,0.480457781178,18668052.0,2912852.0,0.0,3813415.0,3813415.0,-900563.0,0.0,-921548.0,2784419.0,0.0,0.0,-3705967.0,0.0,-3705967.0,-0.28,-0.28,13205936.0,13205936.0,0.0,0.134973585907,-0.0154024595077,-0.041729623559800005,-0.17172436335400001,-0.0173097938807,-332399.0,-900563.0,-3705967.0,-0.0427020110001,-0.17172436335400001
2017-12-30,14577183.0,-0.0504115255155,12919065.0,1658118.0,0.0,3609328.0,3609328.0,-1951210.0,0.0,-1939734.0,-222032.0,0.0,0.0,-1717702.0,0.0,-1717702.0,-0.13,-0.13,13203436.0,13203436.0,0.0,0.113747491542,-0.09497191604170001,-0.133853708223,-0.11783497538599999,-0.12310540383600001,-1384423.0,-1951210.0,-1717702.0,-0.133066450493,-0.11783497538599999
2016-12-31,15351053.0,-0.294583309074,13195501.0,2155552.0,0.0,3336631.0,3336631.0,-1181079.0,0.0,-1129761.0,-676144.0,0.0,0.0,-453617.0,0.0,-453617.0,-0.03,-0.03,13201284.0,13201284.0,0.0,0.140417207862,-0.0410602451832,-0.0769379794337,-0.029549569010000002,0.038843980279399996,-630318.0,-1181079.0,-453617.0,-0.07359501657639998,-0.029549569010000002
2015-12-26,21761681.0,-0.059466392135,34970.0,4664991.0,0.0,4045834.0,4045834.0,619157.0,0.0,624851.0,174232.0,0.0,0.0,450619.0,0.0,450619.0,0.03,0.03,13180428.0,13639074.0,0.0,0.21436721731199998,0.0535266554087,0.028451708303200002,0.020706994096599998,0.071557201854,1164830.0,619157.0,450619.0,0.028713360884199998,0.020706994096599998
2014-12-27,23137590.0,0.08089279084800001,156224.0,5470810.0,0.0,4254977.0,4254977.0,1215833.0,0.0,1220916.0,218148.0,0.0,0.0,1002768.0,0.0,1002768.0,0.08,0.07,13096183.0,13703005.0,0.0,0.23644683824,0.0774747067434,0.0525479533521,0.043339345195399996,0.0,1792578.0,1215833.0,1002768.0,0.0527676391534,0.043339345195399996
2013-12-28,21405999.0,1.0,259082.0,5357077.0,0.0,3897588.0,3897588.0,1459489.0,0.0,1429162.0,462707.0,0.0,0.0,966455.0,0.0,966455.0,0.07,0.07,12985107.0,13265486.0,0.0,0.250260546121,0.0969278285027,0.06818130749239999,0.045148792167999996,0.0,2074837.0,1459489.0,966455.0,0.0667645551137,0.045148792167999996
2012-12-29,0.0,0.0,0.0,0.0,0.0,0.0,0.0,0.0,0.0,0.0,0.0,0.0,0.0,0.0,0.0,0.0,0.0,0.0,0.0,0.0,0.0,0.0,0.0,0.0,0.0,0.0,0.0,0.0,0.0,0.0,0.0
2011-12-31,0.0,-1.0,0.0,0.0,0.0,0.0,0.0,0.0,0.0,0.0,0.0,0.0,0.0,0.0,0.0,0.0,0.0,0.0,0.0,0.0,0.0,0.0,0.0,0.0,0.0,0.0,0.0,0.0,0.0,0.0,0.0
2010-12-25,21397318.0,0.6484638551340001,17381366.0,4015952.0,0.0,2962366.0,2962366.0,1053586.0,0.0,1021162.0,310973.0,0.0,0.0,710189.0,0.0,710189.0,0.06,0.06,12664959.0,12642517.0,0.0,0.1877,0.083,0.0477,0.033,0.0449,1770021.0,1021162.0,710189.0,0.0477,0.0332
2009-12-26,12980156.0,-0.1237,10732743.0,2247413.0,0.0,2098315.0,2098315.0,149098.0,0.0,110192.0,-452223.0,0.0,0.0,562415.0,0.0,562415.0,0.04,0.04,12624959.0,12624959.0,0.0,0.1731,0.064,0.0085,0.043,-0.0101,834500.0,110192.0,562415.0,0.0085,0.0433
