,0,1,2,3,4,5,6,7,8,9,10,11,12,13,14
Date,Depreciation & Amortization,Stock-based compensation,Operating Cash Flow,Capital Expenditure,Acquisitions and disposals,Investment purchases and sales,Investing Cash flow,Issuance (repayment) of debt,Issuance (buybacks) of shares,Dividend payments,Financing Cash Flow,Effect of forex changes on cash,Net cash flow / Change in cash,Free Cash Flow,Net Cash/Marketcap
2018-12-31,16065000.0,13147000.0,101850000.0,5265000.0,-0.0,0.0,127261000.0,-0.0,-228434000.0,-0.0,-677000.0,523000.0,228434000.0,96585000.0,0.0
2017-12-31,16760000.0,10849000.0,-73341000.0,17467000.0,-0.0,0.0,-13663000.0,-0.0,-137326000.0,-0.0,-332000.0,1700000.0,-85636000.0,-90808000.0,0.0
2016-12-31,14684000.0,11151000.0,-52313000.0,7503000.0,-0.0,0.0,8998000.0,-0.0,-222962000.0,-0.0,-540000.0,157000.0,-43698000.0,-59816000.0,0.0
2015-12-31,17017000.0,11353000.0,147756000.0,7467000.0,-0.0,0.0,7216000.0,-0.0,-266660000.0,-0.0,-1373000.0,428000.0,154027000.0,140289000.0,0.0
2014-12-31,16089000.0,10364000.0,-58109000.0,17193000.0,-0.0,0.0,-22755000.0,-0.0,-112633000.0,-0.0,-70000.0,934000.0,-80000000.0,-75302000.0,0.0
2013-12-31,12265000.0,7239000.0,-87350000.0,13136000.0,-0.0,0.0,27211000.0,-0.0,-192633000.0,-0.0,-93000.0,-200000.0,-60432000.0,-100486000.0,0.0
2012-12-31,8652000.0,5963000.0,156892000.0,10843000.0,-24246000.0,0.0,37694000.0,-0.0,-253065000.0,-0.0,7827000.0,241000.0,202654000.0,146049000.0,0.0
2011-12-31,8601000.0,3628000.0,-3823000.0,4916000.0,-0.0,0.0,-4779000.0,-0.0,-50411000.0,-0.0,1462000.0,170000.0,-6970000.0,-8739000.0,0.0
2010-12-31,9431000.0,4927000.0,-49164000.0,-3736000.0,0.0,3000000.0,500000.0,0.0,933000.0,0.0,933000.0,94000.0,-47637000.0,-52900000.0,0.2374
2009-12-31,8454000.0,5811000.0,66684000.0,-7581000.0,0.0,2369000.0,-7682000.0,-27314000.0,105000.0,0.0,-27209000.0,852000.0,32645000.0,59103000.0,0.5017
