,0,1,2,3,4,5,6,7,8,9,10,11,12,13,14
Date,Depreciation & Amortization,Stock-based compensation,Operating Cash Flow,Capital Expenditure,Acquisitions and disposals,Investment purchases and sales,Investing Cash flow,Issuance (repayment) of debt,Issuance (buybacks) of shares,Dividend payments,Financing Cash Flow,Effect of forex changes on cash,Net cash flow / Change in cash,Free Cash Flow,Net Cash/Marketcap
2018-12-29,2128000.0,17374000.0,32767000.0,900000.0,-9815000.0,0.0,-30989000.0,-0.0,0.0,-0.0,5230000.0,-749000.0,92432000.0,31867000.0,0.0
2017-12-30,2240000.0,9693000.0,22133000.0,792000.0,-0.0,0.0,-825000.0,-0.0,0.0,-0.0,3906000.0,420000.0,25634000.0,21341000.0,0.0
2016-12-31,3722000.0,6470000.0,15111000.0,244000.0,-420000.0,-30524000.0,-15580000.0,-0.0,-29118000.0,-0.0,598000.0,-275000.0,-146000.0,14867000.0,0.0
2015-12-26,5218000.0,4926000.0,-4964000.0,4396000.0,-0.0,0.0,-4325000.0,-0.0,-60463000.0,-0.0,-1063000.0,-289000.0,-10641000.0,-9360000.0,0.0
2014-12-27,5401000.0,5805000.0,-24284000.0,3038000.0,-23333000.0,0.0,-29269000.0,-0.0,-71094000.0,-0.0,94585000.0,890000.0,41922000.0,-27322000.0,0.0
2013-12-28,6702000.0,1862000.0,-12661000.0,-1420000.0,-398000.0,0.0,-1818000.0,0.0,821000.0,0.0,-253000.0,-85000.0,-14817000.0,-14081000.0,0.0418
2012-12-31,2440000.0,1952000.0,-15155000.0,-413000.0,-25305000.0,0.0,-25860000.0,0.0,253000.0,0.0,50157000.0,-29000.0,9113000.0,-15568000.0,0.0418
2011-12-31,173000.0,528000.0,-9594000.0,-488000.0,0.0,0.0,-488000.0,0.0,69000.0,0.0,25027000.0,0.0,14945000.0,-10082000.0,0.0418
