,0,1,2,3,4,5,6,7,8,9,10,11,12,13,14
Date,Depreciation & Amortization,Stock-based compensation,Operating Cash Flow,Capital Expenditure,Acquisitions and disposals,Investment purchases and sales,Investing Cash flow,Issuance (repayment) of debt,Issuance (buybacks) of shares,Dividend payments,Financing Cash Flow,Effect of forex changes on cash,Net cash flow / Change in cash,Free Cash Flow,Net Cash/Marketcap
2018-12-31,44079000.0,,52419000.0,-14052000.0,36687000.0,,6449000.0,,,,-58739000.0,-1021000.0,-892000.0,,
2017-12-31,41658000.0,,40757000.0,-19044000.0,-36029000.0,,-81866000.0,,,,10343000.0,3208000.0,-27558000.0,,
2016-12-31,40743000.0,,98864000.0,-10354000.0,-3672000.0,,-32966000.0,,,,-55151000.0,-5244000.0,5503000.0,,
2015-12-31,43498000.0,,61655000.0,-12144000.0,-68259000.0,,-101178000.0,,,,67889000.0,-4756000.0,23610000.0,,
