,0,1,2,3,4,5,6,7,8,9,10,11,12,13,14,15,16,17,18,19,20,21,22,23,24,25,26,27,28,29,30
Date,Revenue,Revenue Growth,Cost of Revenue,Gross Profit,R&D Expenses,SG&A Expense,Operating Expenses,Operating Income,Interest Expense,Earnings before Tax,Income Tax Expense,Net Income - Non-Controlling int,Net Income - Discontinued ops,Net Income,Preferred Dividends,Net Income Com,EPS,EPS Diluted,Weighted Average Shs Out,Weighted Average Shs Out (Dil),Dividend per Share,Gross Margin,EBITDA Margin,EBIT Margin,Profit Margin,Free Cash Flow margin,EBITDA,EBIT,Consolidated Income,Earnings Before Tax Margin,Net Profit Margin
2018-12-31,0.0,-1.0,0.0,0.0,0.0,5548475.0,66188920.0,-57988439.0,8738148.0,-66573097.0,2627458.0,0.0,0.0,-65996898.0,0.0,-65996898.0,-7.62,-7.62,8658267.0,8705895.0,0.0,0.0,0.0,0.0,0.0,0.0,-57969809.0,-57988439.0,-65996898.0,0.0,0.0
2017-12-31,4482850.0,-0.815940957895,74415.0,4408435.0,0.0,4531730.0,61900060.0,-45862215.0,7178248.0,-55576093.0,-6933525.0,0.0,0.0,-48295432.0,0.0,-48295432.0,-5.81,-5.81,8310198.0,8310198.0,0.0,0.983400069152,-10.2296536801,-10.230593261000001,-10.7733767581,8.81452892691,-45858003.0,-45862215.0,-48295432.0,-12.397491105,-10.7733767581
2016-12-31,24355500.0,0.0,21138645.0,3216855.0,0.0,2308608.0,2308608.0,23907081.0,3217689.0,21612538.0,3244695.0,0.0,0.0,18397425.0,0.0,18397425.0,2.21,2.21,8308116.0,8308116.0,0.0,0.132079201823,0.9826576748579999,0.981588593952,0.755370450206,2.62329346554,23933119.0,23907081.0,18397425.0,0.8873781281440001,0.755370450206
2015-12-31,24355500.0,0.238893866235,21138645.0,3216855.0,0.0,2308608.0,2308608.0,23907081.0,3217689.0,21612538.0,3244695.0,0.0,0.0,18397425.0,0.0,18397425.0,0.22,0.22,83081158.0,83081158.0,0.0,0.132079201823,0.9826576748579999,0.981588593952,0.755370450206,2.62329346554,23933119.0,23907081.0,18397425.0,0.8873781281440001,0.755370450206
2014-12-31,19659069.0,-0.688905260203,14585462.0,5073607.0,0.0,3494711.0,3494711.0,28037609.0,3431241.0,25836459.0,6111267.0,0.0,0.0,19811922.0,0.0,19811922.0,0.28,0.28,69627116.0,69627116.0,0.0,0.258079718831,1.43781427289,1.42619210503,1.00777519017,-1.7865716326599996,28266090.0,28037609.0,19811922.0,1.31422596869,1.00777519017
2013-12-31,63193190.0,1.02556480563,47847313.0,15345877.0,0.0,4160742.0,4160742.0,30529990.0,6718729.0,22702407.0,6886601.0,0.0,0.0,15629536.0,0.0,15629536.0,0.29,0.29,53850289.0,54383418.0,0.0,0.242840676345,0.48519565162,0.483121519898,0.247329435339,-1.11247082162,30661061.0,30529990.0,15629536.0,0.35925401138999996,0.247329435339
2012-12-31,31197812.0,-0.00294191115692,22921755.0,8276057.0,0.0,-4738266.0,-4738266.0,25641953.0,12572025.0,26630985.0,4232945.0,0.0,0.0,21449879.0,0.0,21449879.0,0.51,0.39,42454304.0,56055390.0,0.0,0.265276840568,1.21340823517,0.8219151073800001,0.687544338045,-0.552651929565,37855682.0,25641953.0,21449879.0,0.853617074172,0.687544338045
2011-12-31,31289864.0,-0.586143226704,23013807.0,8276057.0,0.0,4738266.0,4738266.0,25641953.0,19271974.0,23821101.0,4232945.0,0.0,0.0,18639995.0,0.0,18639995.0,0.44,0.34,42454304.0,56055390.0,0.0,0.26449641967099996,1.20983849594,0.819497106156,0.595719911087,-0.55102511791,37855682.0,25641953.0,18639995.0,0.761304075978,0.595719911087
2010-12-31,75605538.0,0.709171074769,57033984.0,18571554.0,0.0,6340426.0,6340426.0,12231128.0,2728685.0,25708521.0,6866040.0,1793472.0,0.0,18842481.0,0.0,18842481.0,4.9,3.8,3877804.0,3883766.0,0.0,0.2456,0.376,0.3761,0.249,-0.1903,28460837.0,28437206.0,20635953.0,0.34,0.2492
2009-12-31,44235208.0,1.3018,33601015.0,10634193.0,0.0,4194632.0,4194632.0,6439561.0,475995.0,12655663.0,2946387.0,0.0,0.0,9709276.0,0.0,9709276.0,2.6,2.1,3877804.0,3806893.0,0.0,0.2404,0.298,0.2969,0.21899999999999997,-0.8482,13166779.0,13131658.0,9709276.0,0.2861,0.2195
