,0,1,2,3,4,5,6,7,8,9,10,11,12,13,14
Date,Depreciation & Amortization,Stock-based compensation,Operating Cash Flow,Capital Expenditure,Acquisitions and disposals,Investment purchases and sales,Investing Cash flow,Issuance (repayment) of debt,Issuance (buybacks) of shares,Dividend payments,Financing Cash Flow,Effect of forex changes on cash,Net cash flow / Change in cash,Free Cash Flow,Net Cash/Marketcap
2019-12-31,1741000.0,448000.0,-970000.0,897000.0,-0.0,0.0,-687000.0,-0.0,-2534000.0,-0.0,1473000.0,0.0,-184000.0,-1867000.0,0.0
2018-12-31,2880000.0,1383000.0,-1564000.0,308000.0,-6274000.0,0.0,-6582000.0,-0.0,6201000.0,-0.0,9861000.0,0.0,1715000.0,-1872000.0,0.0
2017-12-31,2855000.0,273000.0,-4106000.0,292000.0,-0.0,0.0,-292000.0,-0.0,-836000.0,-0.0,4389000.0,0.0,-9000.0,-4398000.0,0.0
2016-12-31,2889000.0,254000.0,-1982000.0,639000.0,59000.0,0.0,-580000.0,-0.0,-1352000.0,-0.0,3350000.0,0.0,788000.0,-2621000.0,0.0
2015-12-31,817000.0,60000.0,-3719000.0,266000.0,-0.0,0.0,-1976000.0,-316000.0,-1361000.0,-0.0,6160000.0,0.0,465000.0,-3985000.0,0.0
2014-12-31,295000.0,0.0,-865000.0,76000.0,-0.0,0.0,-76000.0,283000.0,-573000.0,-0.0,1033000.0,0.0,92000.0,-941000.0,0.0
2013-12-31,213000.0,434000.0,-2826000.0,29000.0,-0.0,0.0,-29000.0,-0.0,-107000.0,-0.0,2073000.0,14000.0,-768000.0,-2855000.0,0.0
2012-12-31,0.0,484000.0,0.0,0.0,-0.0,0.0,0.0,-0.0,0.0,-0.0,0.0,0.0,0.0,0.0,0.0
2011-12-31,0.0,0.0,0.0,0.0,-0.0,0.0,0.0,-0.0,0.0,-0.0,0.0,0.0,0.0,0.0,0.0
2010-12-31,684000.0,868000.0,-7099000.0,-189000.0,0.0,0.0,-189000.0,-11000.0,1873000.0,0.0,2192000.0,-113000.0,-5209000.0,-7288000.0,0.2731
2009-12-31,771000.0,698000.0,-8247000.0,-133000.0,0.0,8301000.0,8168000.0,-71000.0,7051000.0,0.0,7050000.0,8000.0,6979000.0,-8380000.0,0.1986
