,0,1,2,3,4,5,6,7,8,9,10,11,12,13,14,15,16,17,18,19,20,21,22,23,24,25,26,27,28,29,30
Date,Revenue,Revenue Growth,Cost of Revenue,Gross Profit,R&D Expenses,SG&A Expense,Operating Expenses,Operating Income,Interest Expense,Earnings before Tax,Income Tax Expense,Net Income - Non-Controlling int,Net Income - Discontinued ops,Net Income,Preferred Dividends,Net Income Com,EPS,EPS Diluted,Weighted Average Shs Out,Weighted Average Shs Out (Dil),Dividend per Share,Gross Margin,EBITDA Margin,EBIT Margin,Profit Margin,Free Cash Flow margin,EBITDA,EBIT,Consolidated Income,Earnings Before Tax Margin,Net Profit Margin
2018-12-31,30793103448.2759,0.0170759386366,20864367816.092,9928735632.1839,0.0,7426436781.6092,7426436781.6092,2502298850.5747,389655172.4138,3387356321.8391,489655172.4138,0.0,-1247126436.7816,2897701149.4253,0.0,2897701149.4253,3.4759,3.4586,964320079.3103,964320079.3103,0.9309999999999999,0.3224,0.1874,0.1227,0.10800000000000001,0.0663,5008045977.0115,3777011494.2529,2897701149.4253,0.11,0.0941
2017-12-31,30276110444.1777,0.160285002298,20291716686.6747,9984393757.503,0.0,7469387755.101999,7469387755.101999,2515006002.401,361344537.8151,2369747899.1597,66026410.5642,0.0,-128451380.5522,2303721488.5954,0.0,2303721488.5954,2.7227,2.7059,999738199.2797,999738199.2797,0.8511,0.3298,0.1561,0.0902,0.0912,0.0768,3938775510.2041,2731092436.9748,2303721488.5954,0.0783,0.0761
2016-12-31,26093684210.5263,0.122689113234,17437894736.8421,8655789473.6842,0.0,6647368421.0526,6647368421.0526,2008421052.6316,342105263.1579,1790526315.7895,453684210.5263,0.0,-85263157.8947,1336842105.2632,0.0,1336842105.2632,1.5811,1.5695,867275003.1579,867275003.1579,0.7305,0.3317,0.1284,0.0817,0.0537,0.0933,3194736842.1053,2132631578.9474,1336842105.2632,0.0686,0.0512
2015-12-31,23242128121.6069,0.015122558610799999,16007600434.3105,7234527687.2964,0.0,5968512486.4278,5968512486.4278,1266015200.8686,328990228.013,1091205211.7264,299674267.101,0.0,-92290988.0565,791530944.6254,0.0,791530944.6254,0.9674,0.9631,808388638.4365,808388638.4365,0.7557,0.3113,0.1086,0.0611,0.0369,0.0889,2335504885.9935,1420195439.7394,791530944.6254,0.0469,0.0341
2014-12-31,22895883777.2397,-0.0768505625837,16255447941.8886,6640435835.3511,0.0,5530266343.8257,5530266343.8257,1110169491.5254,307506053.2688,918886198.5472,214285714.2857,2421307.5061,0.0,704600484.2615,0.0,704600484.2615,0.9552,0.9540000000000001,894953510.8959,894953510.8959,0.8789,0.29,0.1053,0.0536,0.0375,0.063,1990314769.9758,1226392251.816,707021791.7676,0.0401,0.0308
2013-12-31,24801925722.1458,0.039585252012099996,18092159559.8349,6709766162.3109,0.0,6572214580.4677,6572214580.4677,137551581.8432,360385144.4292,-297111416.7813,110041265.4746,1375515.8184,0.0,-407152682.2558,0.0,-407152682.2558,-0.5585,-0.5585,1009383002.751,1009383002.751,1.0646,0.2705,0.055,0.0026,-0.022000000000000002,0.054000000000000006,986244841.8157,63273727.6479,-405777166.4374,-0.012,-0.0164
2012-12-31,23857519788.9182,0.018638641504599998,17174142480.2111,6683377308.7071,0.0,5621372031.6623,5621372031.6623,1062005277.0449,357519788.9182,849604221.6359,139841688.6544,2638522.4274,0.0,709762532.9815,0.0,709762532.9815,0.9842,0.9828,960287474.9339999,960287474.9339999,1.0831,0.2801,0.1174,0.0506,0.0396,0.0455,2112137203.1662,1207124010.5541,712401055.4089999,0.0356,0.0298
2011-12-31,23420984455.9585,0.020141872302900002,17071243523.3161,6349740932.6425,0.0,5221502590.6736,5221502590.6736,1128238341.9689,339378238.342,895077720.2073,143782383.4197,9067357.513,0.0,751295336.7876,0.0,751295336.7876,1.0518,1.0518,710495308.2902,710495308.2902,1.0751,0.2711,0.1205,0.0527,0.0415,0.0432,2174870466.3212,1234455958.5492,760362694.3005,0.0382,0.0321
2010-12-31,22958556149.7326,-0.0789090176502,16528074866.3102,6430481283.4225,0.0,5497326203.2086,5497326203.2086,933155080.2139,340909090.9091,704545454.5455,127005347.5936,9358288.7701,0.0,577540106.9519,0.0,577540106.9519,0.8195,0.8182,733291949.1979,733291949.1979,1.1096,0.2801,0.1217,0.0455,0.0334,0.0742,2096256684.492,1045454545.4545,586898395.7219,0.0307,0.0252
2009-12-31,24925394548.0631,-0.1432,17948350071.736,6977044476.3271,0.0,5606886657.1019,5606886657.1019,1370157819.2253,437589670.0143,1041606886.6571,192252510.7604,8608321.3773,0.0,849354375.8967,0.0,849354375.8967,1.2669,1.2611,786947457.6758,786947457.6758,3.6571,0.2799,0.1506,0.0593,0.0488,0.1152,2618364418.9383,1479196556.6714,857962697.2739999,0.0418,0.0341
