,0,1,2,3,4,5,6,7,8,9,10,11,12,13,14,15,16,17,18,19,20,21,22,23,24,25,26,27,28
Date,Cash and cash equivalents,Short-term investments,Cash and short-term investments,Receivables,Inventories,Total current assets,Property Plant & Equipment Net,Goodwill and Intangible Assets,Long-term investments,Tax assets,Total non-current assets,Total assets,Payables,Short-term debt,Total current liabilities,Long-term debt,Total debt,Deferred revenue,Tax Liabilities,Deposit Liabilities,Total non-current liabilities,Total liabilities,Other comprehensive income,Retained earnings (deficit),Total shareholders equity,Investments,Net Debt,Other Assets,Other Liabilities
2019-12-31,18532000.0,75304000.0,93836000.0,120111000.0,0.0,289685000.0,4008803000.0,0.0,13888000.0,5109000.0,4367437000.0,4657122000.0,252994000.0,1994000.0,392376000.0,2500132000.0,2502126000.0,0.0,0.0,0.0,2718255000.0,3514100000.0,909423000.0,138596000.0,1143022000.0,89192000.0,2483594000.0,0.0,403469000.0
2018-12-31,23193000.0,15401000.0,38594000.0,87611000.0,0.0,159427000.0,1667979000.0,0.0,0.0,10218000.0,2028413000.0,2187840000.0,138767000.0,0.0,206853000.0,1244363000.0,1244363000.0,0.0,0.0,0.0,1406280000.0,1618269000.0,452513000.0,64122000.0,569571000.0,15401000.0,1221170000.0,0.0,5136000.0
2017-12-31,61255000.0,1318000.0,62573000.0,26700000.0,0.0,302505000.0,607929000.0,0.0,0.0,4220000.0,627914000.0,930419000.0,126034000.0,0.0,168489000.0,1110529000.0,1110529000.0,0.0,0.0,0.0,1120795000.0,1299691000.0,550253000.0,-927239000.0,-369272000.0,1318000.0,1049274000.0,0.0,10407000.0
2016-12-31,65904000.0,0.0,65904000.0,19339000.0,0.0,90172000.0,798662000.0,0.0,0.0,8220000.0,799702000.0,889874000.0,45311000.0,0.0,91707000.0,1044506000.0,1044506000.0,0.0,0.0,0.0,1053632000.0,1161143000.0,537596000.0,-815834000.0,-271269000.0,0.0,978602000.0,0.0,15804000.0
2015-12-31,134006000.0,1446000.0,135452000.0,15241000.0,0.0,156238000.0,1038420000.0,0.0,0.0,332983000.0,1039612000.0,1195850000.0,57276000.0,0.0,95720000.0,1249330000.0,1249330000.0,0.0,0.0,0.0,1251295000.0,1367108000.0,485582000.0,-680700000.0,-171258000.0,1446000.0,1115324000.0,0.0,20093000.0
2014-12-31,2071000.0,0.0,2071000.0,32849000.0,0.0,61217000.0,2198169000.0,0.0,0.0,-154547000.0,2213120000.0,2274337000.0,117329000.0,0.0,162171000.0,1070445000.0,1070445000.0,0.0,0.0,0.0,1226994000.0,1404065000.0,480434000.0,366409000.0,870272000.0,0.0,1068374000.0,0.0,14900000.0
2013-12-31,2967000.0,970000.0,3937000.0,35867000.0,0.0,57134000.0,2066735000.0,0.0,0.0,339000.0,2082264000.0,2139398000.0,101872000.0,0.0,194995000.0,798700000.0,798700000.0,0.0,1487000.0,0.0,977864000.0,1187393000.0,480816000.0,447349000.0,952005000.0,970000.0,795733000.0,0.0,14534000.0
2012-12-31,4471000.0,12312000.0,16783000.0,36150000.0,0.0,77146000.0,2470053000.0,0.0,0.0,5340000.0,2489997000.0,2567143000.0,86346000.0,0.0,139058000.0,1324383000.0,1324383000.0,0.0,0.0,0.0,1476557000.0,1633609000.0,480595000.0,424317000.0,933534000.0,12312000.0,1319912000.0,0.0,17994000.0
2011-12-31,0.0,0.0,0.0,0.0,0.0,0.0,0.0,0.0,0.0,0.0,0.0,0.0,0.0,0.0,0.0,0.0,0.0,0.0,0.0,0.0,0.0,0.0,0.0,0.0,0.0,0.0,0.0,0.0,0.0
2010-12-31,0.0,0.0,0.0,0.0,0.0,0.0,0.0,0.0,0.0,0.0,0.0,0.0,0.0,0.0,0.0,0.0,0.0,0.0,0.0,0.0,0.0,0.0,0.0,0.0,0.0,0.0,0.0,0.0,0.0
2009-12-31,90472000.0,95973000.0,186445000.0,40280000.0,0.0,273386000.0,1576287000.0,0.0,0.0,,,1858961000.0,67488000.0,0.0,94771000.0,470836000.0,,,,,,792850000.0,,577435000.0,1066111000.0,95973000.0,284391000.0,46661000.0,27283000.0
