,0,1,2,3,4,5,6,7,8,9,10,11,12,13,14,15,16,17,18,19,20,21,22,23,24,25,26,27,28
Date,Cash and cash equivalents,Short-term investments,Cash and short-term investments,Receivables,Inventories,Total current assets,Property Plant & Equipment Net,Goodwill and Intangible Assets,Long-term investments,Tax assets,Total non-current assets,Total assets,Payables,Short-term debt,Total current liabilities,Long-term debt,Total debt,Deferred revenue,Tax Liabilities,Deposit Liabilities,Total non-current liabilities,Total liabilities,Other comprehensive income,Retained earnings (deficit),Total shareholders equity,Investments,Net Debt,Other Assets,Other Liabilities
2019-12-31,16350237.0,11984157.0,28334394.0,35.0,338465.0,29349090.0,126820.0,0.0,0.0,0.0,126820.0,29475910.0,1024280.0,0.0,5826972.0,2678.0,2678.0,2206.0,0.0,0.0,2678.0,5829650.0,218944510.0,-195421172.0,23646260.0,11984157.0,-16347559.0,0.0,0.0
2018-12-31,17623770.0,0.0,17623770.0,10904.0,428515.0,18665054.0,160860.0,0.0,0.0,0.0,160860.0,18825914.0,2588977.0,0.0,7766230.0,6125428.0,6125428.0,11029.0,0.0,0.0,6125428.0,13891658.0,183716956.0,-178988098.0,4934256.0,0.0,-11498342.0,0.0,0.0
2017-12-31,10379729.0,1604198.0,11983927.0,64148.0,594194.0,13267651.0,186282.0,0.0,0.0,0.0,186282.0,13453933.0,1808311.0,0.0,6260582.0,0.0,0.0,88404.0,0.0,0.0,0.0,6260582.0,159198370.0,-152174866.0,7193351.0,1604198.0,-10379729.0,0.0,0.0
2016-12-31,8064490.0,12100920.0,20165410.0,12014.0,166733.0,21831691.0,69695.0,0.0,0.0,0.0,74695.0,21906386.0,1645298.0,0.0,4091860.0,0.0,0.0,104210.0,0.0,0.0,0.0,4091860.0,136857859.0,-119164952.0,17814526.0,12100920.0,-8064490.0,0.0,0.0
2015-12-31,11817418.0,23568386.0,35385804.0,315771.0,376569.0,37058863.0,37866.0,0.0,0.0,0.0,42866.0,37101729.0,1709397.0,0.0,3061363.0,0.0,0.0,130409.0,0.0,0.0,28878.0,3090241.0,128304989.0,-94391595.0,34011488.0,23568386.0,-11817418.0,0.0,0.0
2014-12-31,4339540.0,0.0,4339540.0,80183.0,463029.0,5037962.0,41458.0,0.0,0.0,0.0,59800.0,5097762.0,893385.0,0.0,1425387.0,403.0,403.0,8823.0,0.0,0.0,37903.0,1463290.0,3414067.0,98972.0,3634472.0,0.0,-4339137.0,0.0,0.0
2013-12-31,2373893.0,0.0,2373893.0,2339.0,80021.0,2916031.0,36061.0,0.0,0.0,0.0,51769.0,2967800.0,939785.0,0.0,1674081.0,7258.0,7258.0,2366.0,0.0,0.0,14516.0,6990143.0,0.0,-9323.0,-4022343.0,0.0,-2366635.0,0.0,5301546.0
2012-12-31,835471.0,0.0,835471.0,0.0,0.0,1135255.0,4668.0,0.0,0.0,0.0,18010.0,1153265.0,928553.0,16061.0,1476456.0,12185.0,28246.0,257886.0,0.0,0.0,24370.0,1488641.0,0.0,0.0,-335376.0,0.0,-807225.0,0.0,0.0
2011-12-31,1985334.0,0.0,1985334.0,0.0,0.0,2530974.0,11689.0,0.0,0.0,0.0,25031.0,2556005.0,1008493.0,0.0,1305005.0,14472.0,14472.0,0.0,0.0,0.0,28944.0,1319477.0,1225120.0,0.0,1236528.0,0.0,-1970862.0,0.0,0.0
2010-12-31,8283684.0,0.0,8283684.0,280920.0,0.0,8812148.0,22310.0,0.0,0.0,0.0,35652.0,8847800.0,1139276.0,0.0,1575643.0,0.0,0.0,0.0,0.0,0.0,16759.0,1592402.0,0.0,-36236279.0,7255398.0,0.0,-8283684.0,247544.0,436367.0
2009-12-31,1505179.0,0.0,1505179.0,0.0,0.0,1683293.0,24116.0,0.0,0.0,0.0,542359.0,2225652.0,701094.0,16158457.0,16934551.0,0.0,16158457.0,0.0,0.0,0.0,0.0,16934551.0,0.0,-25331043.0,-14708899.0,0.0,14653278.0,178114.0,75000.0
