,0,1,2,3,4,5,6,7,8,9,10,11,12,13,14,15,16,17,18,19,20,21,22,23,24,25,26,27,28,29,30
Date,Revenue,Revenue Growth,Cost of Revenue,Gross Profit,R&D Expenses,SG&A Expense,Operating Expenses,Operating Income,Interest Expense,Earnings before Tax,Income Tax Expense,Net Income - Non-Controlling int,Net Income - Discontinued ops,Net Income,Preferred Dividends,Net Income Com,EPS,EPS Diluted,Weighted Average Shs Out,Weighted Average Shs Out (Dil),Dividend per Share,Gross Margin,EBITDA Margin,EBIT Margin,Profit Margin,Free Cash Flow margin,EBITDA,EBIT,Consolidated Income,Earnings Before Tax Margin,Net Profit Margin
2019-12-31,283266.0,-0.340930718455,373234.0,-89968.0,11052903.0,9865005.0,20917908.0,-21007876.0,787488.0,-21493852.0,-5060778.0,0.0,0.0,-16433074.0,0.0,-16433074.0,-1.8,-1.8,24152088.0,24152088.0,0.0,-0.317609596634,-72.7990404779,-74.1630693412,-58.0128712941,-53.2665233385,-20621493.0,-21007876.0,-16433074.0,-75.8786864643,-58.0128712941
2018-12-31,429797.0,0.305076717062,396786.0,33011.0,18822488.0,8074719.0,26897207.0,-26864196.0,1873.0,-26829630.0,0.0,0.0,0.0,-26829630.0,0.0,-26829630.0,-0.3,-0.3,89083119.0,89083119.0,0.0,0.07680602703139999,-59.3724874766,-62.50438230140001,-62.423958287299996,-55.2573843,-25518117.0,-26864196.0,-26829630.0,-62.423958287299996,-62.423958287299996
2017-12-31,329327.0,0.469520983468,114964.0,214363.0,24486122.0,8652351.0,33138473.0,-32924110.0,5619.0,-33010023.0,0.0,0.0,0.0,-33009914.0,0.0,-33009914.0,-0.6,-0.6,55141133.0,55141133.0,0.0,0.650912315115,-99.8619123242,-99.9739165024,-100.23445997399999,-87.2663583611,-32887224.0,-32924110.0,-33009914.0,-100.23479095200001,-100.23445997399999
2016-12-31,224105.0,0.0665064483891,-366673.0,-142568.0,15735300.0,8883050.0,24618350.0,-24760918.0,1311.0,-24643627.0,0.0,0.0,0.0,-24643627.0,0.0,-24643627.0,-0.65,-0.65,37967373.0,37967373.0,0.0,-0.636166082863,-110.37380692100001,-110.48802124,-109.964646036,-99.6145467526,-24735322.0,-24760918.0,-24643627.0,-109.964646036,-109.964646036
2015-12-31,210130.0,0.110189460782,-318718.0,-108588.0,6281823.0,10263560.0,16545383.0,-16653971.0,3964.0,-18187529.0,0.0,0.0,0.0,-18187529.0,-33121.0,-18187529.0,-0.58,-0.58,31343545.0,31343545.0,0.0,-0.51676581164,-79.1838147813,-79.2555608433,-86.55370009040001,-59.6884975967,-16638895.0,-16653971.0,-18187529.0,-86.55370009040001,-86.55370009040001
2014-12-31,189274.0,93.5897051474,-445799.0,-256525.0,1318734.0,7326861.0,8645595.0,-8902120.0,2087.0,-20453427.0,0.0,0.0,0.0,-20453427.0,-82899.0,-20453427.0,-0.96,-0.96,21441906.0,21441906.0,0.0,-1.3553102909,-46.9533374896,-47.0329786447,-108.062528398,-33.5292803026,-8887046.0,-8902120.0,-20453427.0,-108.062528398,-108.062528398
2013-12-31,2001.0,1.0,-201605.0,-199604.0,1226874.0,3488917.0,4715791.0,-4915395.0,1444386.0,-9133098.0,0.0,0.0,0.0,-9133098.0,-384307.0,-9133098.0,-0.69,-0.69,13823130.0,13823130.0,0.0,-99.752123938,-1785.65367316,-2456.46926537,-4564.26686657,-1826.1944028,-3573093.0,-4915395.0,-9133098.0,-4564.26686657,-4564.26686657
2012-12-31,0.0,-1.0,0.0,0.0,1142631.0,1857080.0,2999711.0,-2999711.0,382936.0,-3380682.0,0.0,0.0,0.0,-3380682.0,0.0,-3380682.0,-0.3,-0.3,11408274.0,11408274.0,0.0,0.0,0.0,0.0,0.0,0.0,-2637005.0,-2999711.0,-3380682.0,0.0,0.0
2011-12-31,29819.0,1.0,0.0,0.0,4098225.0,3148759.0,7246984.0,-7246984.0,0.0,-7205128.0,-493855.0,0.0,0.0,-6711273.0,0.0,-6711273.0,-0.59,-0.59,11408274.0,11408274.0,0.0,0.0,-242.621751232,-243.032428988,-225.06700425900002,-211.219356786,-7234738.0,-7246984.0,-6711273.0,-241.628760186,-225.06700425900002
2010-12-31,0.0,0.0,0.0,0.0,5494297.0,3012706.0,8507003.0,-8507003.0,3093763.0,-11186156.0,-280920.0,0.0,0.0,-10905236.0,0.0,-10905236.0,-5.75,-5.75,2281658.0,1894652.0,0.0,0.0,,0.0,,0.0,-8080226.0,-8092393.0,-10905236.0,0.0,0.0
2009-12-31,0.0,0.0,0.0,0.0,4888538.0,1166845.0,6055383.0,-6055383.0,2068202.0,-8121455.0,0.0,0.0,0.0,-8121455.0,0.0,-8121455.0,-47.4,-47.4,2105768.0,171329.0,0.0,0.0,,0.0,,0.0,-6043308.0,-6053253.0,-8121455.0,0.0,0.0
