,0,1,2,3,4,5,6,7,8,9,10,11,12,13,14
Date,Depreciation & Amortization,Stock-based compensation,Operating Cash Flow,Capital Expenditure,Acquisitions and disposals,Investment purchases and sales,Investing Cash flow,Issuance (repayment) of debt,Issuance (buybacks) of shares,Dividend payments,Financing Cash Flow,Effect of forex changes on cash,Net cash flow / Change in cash,Free Cash Flow,Net Cash/Marketcap
2018-09-30,25765000.0,22043000.0,115259000.0,-6510000.0,-79802000.0,0.0,-86312000.0,0.0,0.0,0.0,-28947000.0,0.0,0.0,108749000.0,0.0
2017-09-30,19669000.0,19794000.0,96784000.0,-4714000.0,0.0,0.0,-4714000.0,0.0,0.0,0.0,-92070000.0,0.0,0.0,92070000.0,0.0
2016-09-30,19755000.0,18594000.0,113916000.0,-8294000.0,0.0,0.0,-8294000.0,0.0,0.0,0.0,-105622000.0,0.0,0.0,105622000.0,0.0
