,0,1,2,3,4,5,6,7,8,9,10,11,12,13,14,15,16,17,18,19,20,21,22,23,24,25,26,27,28
Date,Cash and cash equivalents,Short-term investments,Cash and short-term investments,Receivables,Inventories,Total current assets,Property Plant & Equipment Net,Goodwill and Intangible Assets,Long-term investments,Tax assets,Total non-current assets,Total assets,Payables,Short-term debt,Total current liabilities,Long-term debt,Total debt,Deferred revenue,Tax Liabilities,Deposit Liabilities,Total non-current liabilities,Total liabilities,Other comprehensive income,Retained earnings (deficit),Total shareholders equity,Investments,Net Debt,Other Assets,Other Liabilities
2019-12-31,108253000.0,0.0,108253000.0,108199000.0,172028000.0,425382000.0,47405000.0,48673000.0,0.0,24747000.0,313420000.0,738802000.0,95754000.0,48585000.0,257223000.0,205000000.0,253585000.0,1200000.0,4207000.0,0.0,209526000.0,606897000.0,0.0,240485000.0,131905000.0,0.0,145332000.0,0.0,140148000.0
2018-12-31,123367000.0,0.0,123367000.0,97627000.0,124491000.0,380298000.0,22211000.0,47304000.0,0.0,8663000.0,88603000.0,468901000.0,77231000.0,0.0,184491000.0,120000000.0,120000000.0,6400000.0,5089000.0,0.0,134102000.0,318593000.0,83744999.999,121215000.0,150308000.0,0.0,-3367000.0,0.0,0.0
2017-12-31,172128000.0,0.0,172128000.0,83518000.0,130347000.0,425049000.0,35032000.0,58115000.0,0.0,10174000.0,118646000.0,543695000.0,66381000.0,676000.0,157018000.0,30000.0,706000.0,0.0,5515000.0,0.0,18409000.0,357830000.0,38827999.999,190431000.0,185865000.0,0.0,-171422000.0,0.0,182403000.0
2016-12-31,147565000.0,0.0,147565000.0,78297000.0,147029000.0,425475000.0,44090000.0,74180000.0,0.0,6825000.0,140915000.0,566390000.0,61927000.0,2338000.0,149140000.0,40000.0,2378000.0,0.0,6593000.0,0.0,17966000.0,346007000.0,80253999.999,195725000.0,220383000.0,0.0,-145187000.0,0.0,178901000.0
2015-12-31,143341000.0,0.0,143341000.0,83616000.0,168192000.0,445949000.0,49490000.0,84270000.0,0.0,6608000.0,162071000.0,608020000.0,63336000.0,4772000.0,167097000.0,1627000.0,6399000.0,0.0,6416000.0,3236000.0,19064000.0,362048000.0,69421999.999,227463000.0,245972000.0,0.0,-136942000.0,0.0,175887000.0
2014-12-31,267512000.0,0.0,267512000.0,101217000.0,171012000.0,595408000.0,68288000.0,97337000.0,0.0,17886000.0,211523000.0,806931000.0,42923000.0,5300000.0,153885000.0,6381000.0,11681000.0,0.0,9078000.0,3075000.0,27501000.0,354413000.0,145399999.99899998,325470000.0,452518000.0,0.0,-255831000.0,0.0,173027000.0
2013-12-31,317144000.0,0.0,317144000.0,104405000.0,162341000.0,640077000.0,86971000.0,74822000.0,0.0,19628000.0,235082000.0,875159000.0,57450000.0,5100000.0,186928000.0,11670000.0,16770000.0,0.0,15992000.0,6940000.0,63487000.0,250415000.0,265659999.999,344432000.0,624744000.0,0.0,-300374000.0,0.0,0.0
2012-12-31,294348000.0,0.0,294348000.0,92278000.0,164804000.0,613115000.0,82241000.0,59931000.0,0.0,34112000.0,216523000.0,829638000.0,63976000.0,26000.0,157938000.0,4596000.0,4622000.0,0.0,8147000.0,0.0,54300000.0,212238000.0,263699999.999,334012000.0,617400000.0,0.0,-289726000.0,0.0,0.0
2011-12-31,257587000.0,0.0,257587000.0,84760000.0,129627000.0,525343000.0,67684000.0,48641000.0,0.0,30375000.0,170110000.0,695453000.0,66517000.0,1118000.0,155303000.0,0.0,1118000.0,0.0,8273000.0,0.0,48370000.0,203673000.0,274289999.999,202669000.0,491780000.0,0.0,-256469000.0,0.0,0.0
2010-12-31,145583000.0,0.0,145583000.0,75897000.0,121155000.0,381014000.0,70014000.0,45461000.0,0.0,59661000.0,168467000.0,549481000.0,35669000.0,1901000.0,137762000.0,0.0,1901000.0,0.0,70565000.0,0.0,35613000.0,173375000.0,30852000.0,89881000.0,376106000.0,0.0,-143682000.0,38379000.0,100192000.0
2009-12-31,77343000.0,0.0,77343000.0,66598000.0,93329000.0,267254000.0,71084000.0,35984000.0,0.0,34448000.0,142484000.0,409738000.0,23434000.0,640000.0,86656000.0,0.0,640000.0,0.0,36468000.0,0.0,35462000.0,122118000.0,24168000.0,22155000.0,287620000.0,0.0,-76703000.0,29984000.0,62582000.0
