,0,1,2,3,4,5,6,7,8,9,10,11,12,13,14,15,16,17,18,19,20,21,22,23,24,25,26,27,28,29,30
Date,Revenue,Revenue Growth,Cost of Revenue,Gross Profit,R&D Expenses,SG&A Expense,Operating Expenses,Operating Income,Interest Expense,Earnings before Tax,Income Tax Expense,Net Income - Non-Controlling int,Net Income - Discontinued ops,Net Income,Preferred Dividends,Net Income Com,EPS,EPS Diluted,Weighted Average Shs Out,Weighted Average Shs Out (Dil),Dividend per Share,Gross Margin,EBITDA Margin,EBIT Margin,Profit Margin,Free Cash Flow margin,EBITDA,EBIT,Consolidated Income,Earnings Before Tax Margin,Net Profit Margin
2019-03-30,1185524000.0,-0.226253209467,588027000.0,597497000.0,375139000.0,126502000.0,501641000.0,100769000.0,1057000.0,93744000.0,3753000.0,0.0,0.0,89991000.0,0.0,89991000.0,1.5,1.46,60116000.0,61583000.0,0.0,0.503994014461,0.152333482916,0.08499954450519999,0.0759082059916,0.147680688033,180595000.0,100769000.0,89991000.0,0.07907389475030001,0.0759082059916
2018-03-31,1532186000.0,-0.00438873510338,771470000.0,760716000.0,366444000.0,131811000.0,498255000.0,262461000.0,1153000.0,265099000.0,103104000.0,0.0,0.0,161995000.0,0.0,161995000.0,2.55,2.46,63407000.0,65951000.0,0.0,0.49649063494900003,0.224424449773,0.171298393276,0.105728025188,0.17199674191,343860000.0,262461000.0,161995000.0,0.173020116357,0.105728025188
2017-03-25,1538940000.0,0.316175910904,781125000.0,757815000.0,303658000.0,127265000.0,440765000.0,317050000.0,3600000.0,315047000.0,53838000.0,0.0,0.0,261209000.0,0.0,261209000.0,4.12,3.92,63329000.0,66561000.0,0.0,0.492426605326,0.247312435832,0.20601842826900002,0.169733063017,0.21307003521899998,380599000.0,317050000.0,261209000.0,0.20471688304900001,0.169733063017
2016-03-26,1169251000.0,0.275683855426,614411000.0,554840000.0,269217000.0,117082000.0,386299000.0,180211000.0,3308000.0,175989000.0,52359000.0,0.0,0.0,123630000.0,0.0,123630000.0,1.96,1.87,63197000.0,65993000.0,0.0,0.474525999978,0.203780881949,0.154125162176,0.105734354728,0.0972528567433,238271000.0,180211000.0,123630000.0,0.150514303601,0.105734354728
2015-03-28,916568000.0,0.283101276987,490820000.0,425748000.0,197878000.0,99509000.0,316979000.0,108769000.0,5627000.0,91549000.0,36371000.0,0.0,0.0,55178000.0,0.0,55178000.0,0.88,0.85,62503000.0,65235000.0,0.0,0.464502360981,0.156697593632,0.11866986410199999,0.0602006615985,0.143144862138,143624000.0,108769000.0,55178000.0,0.09988238734060001,0.0602006615985
2014-03-29,714338000.0,-0.117868177519,358175000.0,356163000.0,126189000.0,74861000.0,201147000.0,155016000.0,0.0,155737000.0,47626000.0,0.0,0.0,108111000.0,0.0,108111000.0,1.72,1.65,62926000.0,65535000.0,0.0,0.498591703087,0.237841190025,0.21700651512299998,0.151344321596,0.298150175407,169899000.0,155016000.0,108111000.0,0.21801584124,0.151344321596
2013-03-30,809786000.0,0.8971518801999999,414595000.0,395191000.0,114071000.0,76998000.0,194361000.0,200830000.0,0.0,201190000.0,64592000.0,0.0,0.0,136598000.0,0.0,136598000.0,2.12,2.0,64580000.0,68454000.0,0.0,0.488019056887,0.26475142815499997,0.248003793595,0.168684072088,0.133272247236,214392000.0,200830000.0,136598000.0,0.248448355491,0.168684072088
2012-03-31,426843000.0,0.15496886931099998,196402000.0,230441000.0,85697000.0,65208000.0,150905000.0,79536000.0,0.0,79983000.0,-8000000.0,0.0,0.0,87983000.0,0.0,87983000.0,1.35,1.29,64934000.0,68063000.0,0.0,0.539872974372,0.20969771086800001,0.18633549103500002,0.20612496866500002,0.110689410392,89508000.0,79536000.0,87983000.0,0.187382714488,0.20612496866500002
2011-03-26,369571000.0,0.672350207476,167576000.0,201995000.0,63934000.0,58734000.0,118668000.0,83327000.0,0.0,84214000.0,-119289000.0,0.0,0.0,203503000.0,0.0,203503000.0,3.0,2.82,67676904.0,67857000.0,0.0,0.5466,0.25,0.2279,0.551,0.18100000000000002,92359000.0,84214000.0,203503000.0,0.2279,0.5506
2010-03-27,220989000.0,0.2654,102258000.0,118731000.0,51421000.0,43306000.0,93327000.0,25404000.0,0.0,26683000.0,-11715000.0,0.0,0.0,38398000.0,0.0,38398000.0,0.59,0.59,65471862.0,65338000.0,0.0,0.5373,0.156,0.1207,0.174,0.0972,34571000.0,26683000.0,38398000.0,0.1207,0.1738
