,0,1,2,3,4,5,6,7,8,9,10,11,12,13,14,15,16,17,18,19,20,21,22,23,24,25,26,27,28
Date,Cash and cash equivalents,Short-term investments,Cash and short-term investments,Receivables,Inventories,Total current assets,Property Plant & Equipment Net,Goodwill and Intangible Assets,Long-term investments,Tax assets,Total non-current assets,Total assets,Payables,Short-term debt,Total current liabilities,Long-term debt,Total debt,Deferred revenue,Tax Liabilities,Deposit Liabilities,Total non-current liabilities,Total liabilities,Other comprehensive income,Retained earnings (deficit),Total shareholders equity,Investments,Net Debt,Other Assets,Other Liabilities
2019-12-31,490058000.0,1886724000.0,2376782000.0,40945000.0,0.0,2417727000.0,296706000.0,1208924000.0,0.0,28786000.0,14724298000.0,17142025000.0,90722000.0,71343000.0,162065000.0,150000000.0,221343000.0,0.0,0.0,13136392000.0,178786000.0,14245307000.0,2407385000.0,465680000.0,2896718000.0,1886724000.0,-268715000.0,0.0,13904456000.0
2018-12-31,367333000.0,1727348000.0,2094681000.0,33143000.0,0.0,2127824000.0,227454000.0,805833000.0,0.0,51462000.0,10209764000.0,12337588000.0,47842000.0,32415000.0,80257000.0,350000000.0,382415000.0,0.0,0.0,9477336000.0,401462000.0,10366244000.0,1699031000.0,293777000.0,1971344000.0,1727348000.0,15082000.0,0.0,9884525000.0
2017-12-31,280619000.0,1060143000.0,1340762000.0,18628000.0,0.0,1359390000.0,141886000.0,258234000.0,0.0,37725000.0,5764585000.0,7123975000.0,29512000.0,26192000.0,55704000.0,155000000.0,181192000.0,0.0,0.0,5560523000.0,192725000.0,6219225000.0,737905000.0,173248000.0,904750000.0,1060143000.0,-99427000.0,0.0,5970796000.0
2016-12-31,175654000.0,740702000.0,916356000.0,12112000.0,0.0,928468000.0,114815000.0,0.0,0.0,63208000.0,4150091000.0,5078559000.0,23645000.0,25958000.0,49603000.0,0.0,25958000.0,0.0,0.0,4152544000.0,63208000.0,4526102000.0,430459000.0,130090000.0,552457000.0,740702000.0,-149696000.0,0.0,4413291000.0
2015-12-31,152482000.0,604739000.0,757221000.0,10286000.0,0.0,767507000.0,101821000.0,0.0,0.0,46220000.0,3255210000.0,4022717000.0,39992000.0,24093000.0,64085000.0,0.0,24093000.0,0.0,0.0,3215178000.0,46220000.0,3532203000.0,393191000.0,95430000.0,490514000.0,604739000.0,-128389000.0,0.0,3421898000.0
2014-12-31,158413000.0,517457000.0,675870000.0,8999000.0,0.0,684869000.0,98848000.0,0.0,0.0,49587000.0,3092000000.0,3776869000.0,29085000.0,23917000.0,53002000.0,0.0,23917000.0,0.0,0.0,3092040000.0,49587000.0,3324392000.0,388698000.0,59273000.0,452477000.0,517457000.0,-134496000.0,0.0,3221803000.0
2013-12-31,174889000.0,457086000.0,631975000.0,6337000.0,0.0,638312000.0,96619000.0,0.0,0.0,5296000.0,1777255000.0,2415567000.0,18262000.0,16996000.0,35258000.0,0.0,16996000.0,0.0,0.0,2056231000.0,5296000.0,2142188000.0,229544000.0,48018000.0,273379000.0,457086000.0,-157893000.0,0.0,2101634000.0
2012-12-31,136748000.0,425758000.0,562506000.0,6100000.0,0.0,568606000.0,97954000.0,0.0,0.0,-1892000.0,1794634000.0,2363240000.0,15312000.0,16970000.0,32282000.0,0.0,16970000.0,0.0,0.0,1997232000.0,1892000.0,2089709000.0,228952000.0,36979000.0,273531000.0,425758000.0,-119778000.0,0.0,2055535000.0
2011-12-31,151095000.0,591164000.0,742259000.0,6929000.0,0.0,749188000.0,94358000.0,0.0,0.0,3451000.0,1535271000.0,2284459000.0,12439000.0,16945000.0,29384000.0,0.0,16945000.0,0.0,0.0,1919789000.0,0.0,2021826000.0,228342000.0,28277000.0,262633000.0,591164000.0,-134150000.0,0.0,1992442000.0
2010-12-31,177515000.0,,,0.0,0.0,,84982000.0,41956000.0,,8439000.0,,2062924000.0,7891000.0,,,,109784000.0,0.0,0.0,1685594000.0,,1810675000.0,2916000.0,21569000.0,252249000.0,1616635000.0,,,
2009-12-31,192407000.0,,,0.0,0.0,,62368000.0,35262000.0,,3670000.0,,1751299000.0,7584000.0,,,,208001000.0,0.0,0.0,1305036000.0,,1521889000.0,7065000.0,28623000.0,229410000.0,1406826000.0,,,
