,0,1,2,3,4,5,6,7,8,9,10,11,12,13,14
Date,Depreciation & Amortization,Stock-based compensation,Operating Cash Flow,Capital Expenditure,Acquisitions and disposals,Investment purchases and sales,Investing Cash flow,Issuance (repayment) of debt,Issuance (buybacks) of shares,Dividend payments,Financing Cash Flow,Effect of forex changes on cash,Net cash flow / Change in cash,Free Cash Flow,Net Cash/Marketcap
2019-06-30,3501000.0,11266000.0,10208000.0,3555000.0,-0.0,-47742000.0,-54352000.0,-0.0,-74237000.0,-0.0,2121000.0,0.0,-42023000.0,6653000.0,0.0
2018-06-30,3934000.0,10302000.0,9674000.0,3069000.0,-0.0,-2344000.0,-5095000.0,-0.0,-116260000.0,-0.0,3769000.0,0.0,8348000.0,6605000.0,0.0
2017-06-30,4135000.0,10354000.0,19588000.0,1825000.0,-0.0,46000.0,-1779000.0,-0.0,-107912000.0,-0.0,29465000.0,0.0,47274000.0,17763000.0,0.0
2016-06-30,3917000.0,12977000.0,-23583000.0,4631000.0,-0.0,1249000.0,-3769000.0,-0.0,-60638000.0,-0.0,4148000.0,0.0,-23204000.0,-28214000.0,0.0
2015-06-30,2321000.0,14718000.0,-22357000.0,21280000.0,-0.0,365000.0,-23027000.0,-2400000.0,-83842000.0,-0.0,2634000.0,0.0,-42750000.0,-43637000.0,0.0
2014-06-30,1504000.0,10928000.0,-26838000.0,13419000.0,-0.0,0.0,-13419000.0,-9850000.0,-42223000.0,-0.0,98952000.0,0.0,58695000.0,-40257000.0,0.0
2013-06-30,914000.0,7442000.0,-10765000.0,2455000.0,-0.0,0.0,-2455000.0,-4800000.0,-29688000.0,-0.0,45588000.0,0.0,32368000.0,-13220000.0,0.0
2012-06-30,0.0,0.0,0.0,0.0,-0.0,0.0,0.0,-0.0,0.0,-0.0,0.0,0.0,0.0,0.0,0.0
2011-06-30,662000.0,6468000.0,-8361000.0,-1081000.0,0.0,0.0,-1737000.0,5052000.0,2488000.0,0.0,7540000.0,0.0,-2558000.0,-9442000.0,0.0382
2010-06-30,548000.0,9094000.0,-13567000.0,-793000.0,0.0,22950000.0,21757000.0,-19366000.0,1482000.0,0.0,-17884000.0,0.0,-9694000.0,-14360000.0,0.1849
2009-06-30,417000.0,6771000.0,-29710000.0,-957000.0,37369000.0,50000.0,36026000.0,18900000.0,525000.0,0.0,19500000.0,0.0,25816000.0,-30667000.0,0.0302
