,0,1,2,3,4,5,6,7,8,9,10,11,12,13,14,15,16,17,18,19,20,21,22,23,24,25,26,27,28,29,30
Date,Revenue,Revenue Growth,Cost of Revenue,Gross Profit,R&D Expenses,SG&A Expense,Operating Expenses,Operating Income,Interest Expense,Earnings before Tax,Income Tax Expense,Net Income - Non-Controlling int,Net Income - Discontinued ops,Net Income,Preferred Dividends,Net Income Com,EPS,EPS Diluted,Weighted Average Shs Out,Weighted Average Shs Out (Dil),Dividend per Share,Gross Margin,EBITDA Margin,EBIT Margin,Profit Margin,Free Cash Flow margin,EBITDA,EBIT,Consolidated Income,Earnings Before Tax Margin,Net Profit Margin
2019-09-30,79061000.0,0.0842750562291,61035000.0,18026000.0,2800000.0,16052000.0,18852000.0,-826000.0,0.0,-442000.0,-71000.0,0.0,0.0,-371000.0,0.0,-371000.0,-0.09,-0.09,3924000.0,3924000.0,0.62869520897,0.228001163658,-0.0051858691390200004,-0.010447629045899999,-0.00469257914775,-0.0526302475304,-410000.0,-826000.0,-371000.0,-0.00559061990109,-0.00469257914775
2018-09-30,72916000.0,-0.345939254768,54517000.0,18399000.0,3277000.0,16723000.0,20000000.0,-1601000.0,0.0,-1106000.0,882000.0,0.0,0.0,14440000.0,0.0,14440000.0,3.62,3.55,3822000.0,3901000.0,0.492437836452,0.252331449888,-0.0133852652367,-0.021956772176200002,0.19803609633000002,0.0353694662351,-976000.0,-1601000.0,14440000.0,-0.015168138680100002,0.19803609633000002
2017-09-30,111482000.0,0.07850668008169999,85992000.0,25490000.0,2362000.0,19356000.0,21718000.0,3772000.0,0.0,3793000.0,1287000.0,0.0,0.0,2506000.0,0.0,2506000.0,0.64,0.63,3723000.0,3817000.0,0.45113963846,0.22864677705800002,0.0398719075725,0.0338350585745,0.0224789652141,0.020640103335099996,4445000.0,3772000.0,2506000.0,0.0340234297914,0.0224789652141
2016-09-30,103367000.0,0.157447427944,78326000.0,25041000.0,2984000.0,18256000.0,21240000.0,3801000.0,0.0,3600000.0,996000.0,0.0,0.0,2604000.0,0.0,2604000.0,0.69,0.67,3609000.0,3734000.0,0.447241564006,0.242253330367,0.0435342033724,0.0367718904486,0.0251917923515,0.0412994475993,4500000.0,3801000.0,2604000.0,0.034827362698,0.0251917923515
2015-09-30,89306000.0,0.05538945154159999,70119000.0,19187000.0,2826000.0,16135000.0,18961000.0,226000.0,0.0,16000.0,226000.0,0.0,0.0,-210000.0,0.0,-210000.0,-0.06,-0.06,3548000.0,3548000.0,0.45603156708000003,0.21484558708299997,0.00976418157795,0.00253062504199,-0.00235146574698,-0.034309004994099994,872000.0,226000.0,-210000.0,0.00017915929500799996,-0.00235146574698
2014-09-30,84619000.0,-0.034239149043,63798000.0,20821000.0,3484000.0,16116000.0,19600000.0,1683000.0,0.0,1455000.0,121000.0,0.0,0.0,1334000.0,0.0,1334000.0,0.37,0.37,3448000.0,3499000.0,0.441554729923,0.246055850341,0.0273815573335,0.019889150190900002,0.0157647809594,0.00629882177761,2317000.0,1683000.0,1334000.0,0.017194719862,0.0157647809594
2013-09-30,87619000.0,0.033157640289099996,69036000.0,18583000.0,1857000.0,16025000.0,17882000.0,701000.0,0.0,689000.0,321000.0,0.0,0.0,368000.0,0.0,368000.0,0.11,0.1,3389000.0,3441000.0,0.402208660273,0.212088702222,0.013935333660500001,0.00800054782638,0.00420000228261,-0.00720163434871,1221000.0,701000.0,368000.0,0.00786359123021,0.00420000228261
2012-09-30,84807000.0,0.151564939914,64386000.0,20421000.0,1720000.0,15847000.0,17567000.0,4969000.0,0.0,4869000.0,-1740000.0,0.0,0.0,6609000.0,0.0,6609000.0,1.93,1.91,3362000.0,3405000.0,0.220264317181,0.240793802398,0.06401594208030001,0.0585918615209,0.077929887863,0.06785996438969999,5429000.0,4969000.0,6609000.0,0.05741271357319999,0.077929887863
2011-09-30,73645000.0,-0.18273925781199998,57276000.0,16369000.0,1785000.0,13775000.0,15560000.0,809000.0,86000.0,715000.0,346000.0,0.0,0.0,369000.0,0.0,369000.0,0.11,0.1,3439000.0,3482000.0,0.0,0.222268993143,0.017543621427099997,0.0109851313735,0.00501052345713,0.0163486998438,1292000.0,809000.0,369000.0,0.00970873786408,0.00501052345713
2010-09-30,90112000.0,0.08103698549610001,72921000.0,17191000.0,1953000.0,14096000.0,16049000.0,1142000.0,90000.0,1140000.0,235000.0,9000.0,0.0,905000.0,0.0,905000.0,0.26,0.25,3577347.0,3538000.0,0.0,0.1908,0.019,0.0136,0.01,-0.0268,1742000.0,1230000.0,914000.0,0.0127,0.01
2009-09-30,83357000.0,0.0856,68406000.0,14951000.0,1970000.0,13969000.0,19880000.0,-4929000.0,112000.0,-4938000.0,-1173000.0,-18000.0,0.0,-3765000.0,0.0,-3765000.0,-1.05,-1.05,3542653.0,3577000.0,0.0,0.1794,-0.051,-0.0579,-0.045,0.0355,-4247000.0,-4826000.0,-3783000.0,-0.0592,-0.0452
