,0,1,2,3,4,5,6,7,8,9,10,11,12,13,14,15,16,17,18,19,20,21,22,23,24,25,26,27,28
Date,Cash and cash equivalents,Short-term investments,Cash and short-term investments,Receivables,Inventories,Total current assets,Property Plant & Equipment Net,Goodwill and Intangible Assets,Long-term investments,Tax assets,Total non-current assets,Total assets,Payables,Short-term debt,Total current liabilities,Long-term debt,Total debt,Deferred revenue,Tax Liabilities,Deposit Liabilities,Total non-current liabilities,Total liabilities,Other comprehensive income,Retained earnings (deficit),Total shareholders equity,Investments,Net Debt,Other Assets,Other Liabilities
2019-12-31,6447402.0,0.0,6447402.0,34661119.0,312033.0,41420554.0,0.0,33612049.0,0.0,0.0,126244930.0,167665484.0,26646390.0,3200000.0,29846390.0,5000000.0,8200000.0,0.0,0.0,0.0,5000000.0,113382445.0,86978243.0,-32695629.0,54283039.0,0.0,1752598.0,0.0,78536055.0
2018-12-31,6451758.0,0.0,6451758.0,12841099.0,262068.0,19554925.0,0.0,5508716.0,0.0,452000.0,58792043.0,78346968.0,5078805.0,1000000.0,6085274.0,0.0,1000000.0,6469.0,0.0,0.0,0.0,17336632.0,58728728.0,2281187.0,61010336.0,0.0,-5451758.0,0.0,11251358.0
2017-12-31,2172046.0,0.0,2172046.0,8058352.0,368964.0,10599362.0,0.0,5000000.0,0.0,0.0,51143446.0,61742808.0,1002536.0,1500000.0,3017536.0,1500000.0,3000000.0,515000.0,0.0,0.0,1757000.0,7078647.0,32325286.0,22338501.0,54664161.0,0.0,827954.0,0.0,2304111.0
2016-12-31,507247.0,0.0,507247.0,1523934.0,0.0,4636000.0,0.0,5000000.0,0.0,0.0,,11817917.0,694368.0,0.0,766000.0,5927000.0,5926594.0,71429.0,439000.0,0.0,,8193371.0,0.0,-450996.0,3624546.0,0.0,,,71632.0
2015-12-31,4000.0,0.0,4000.0,0.0,0.0,955000.0,0.0,0.0,0.0,,,3083000.0,23000.0,0.0,3523000.0,0.0,,,,,,3523000.0,,-440000.0,-440000.0,739039.0,,,3500000.0
