,0,1,2,3,4,5,6,7,8,9,10,11,12,13,14,15,16,17,18,19,20,21,22,23,24,25,26,27,28
Date,Cash and cash equivalents,Short-term investments,Cash and short-term investments,Receivables,Inventories,Total current assets,Property Plant & Equipment Net,Goodwill and Intangible Assets,Long-term investments,Tax assets,Total non-current assets,Total assets,Payables,Short-term debt,Total current liabilities,Long-term debt,Total debt,Deferred revenue,Tax Liabilities,Deposit Liabilities,Total non-current liabilities,Total liabilities,Other comprehensive income,Retained earnings (deficit),Total shareholders equity,Investments,Net Debt,Other Assets,Other Liabilities
2019-12-31,10800000.0,192000.0,10992000.0,88772000.0,0.0,101848000.0,6379000.0,25120000.0,3133000.0,453000.0,56858000.0,158706000.0,18612000.0,5904000.0,56854000.0,15349000.0,21253000.0,1704000.0,0.0,0.0,17980000.0,92470000.0,0.0,86673000.0,66236000.0,3325000.0,10453000.0,0.0,17636000.0
2018-12-31,12431000.0,192000.0,12623000.0,81313000.0,0.0,96018000.0,5656000.0,17600000.0,2626000.0,767000.0,28103000.0,124121000.0,12387000.0,7467000.0,44163000.0,3640000.0,11107000.0,2875000.0,0.0,0.0,5824000.0,59893000.0,0.0,82548000.0,64228000.0,2818000.0,-1324000.0,0.0,9906000.0
2017-12-31,11170000.0,0.0,11170000.0,68920000.0,0.0,83528000.0,6996000.0,0.0,31547000.0,3861000.0,44107000.0,127635000.0,9425000.0,4328000.0,32736000.0,4435000.0,8763000.0,1918000.0,0.0,0.0,4656000.0,49011000.0,7001000.0,85029000.0,78624000.0,31547000.0,-2407000.0,0.0,11619000.0
2016-12-31,9407000.0,0.0,9407000.0,71355000.0,0.0,83641000.0,5863000.0,0.0,30100000.0,6017000.0,43274000.0,126915000.0,6973000.0,4638000.0,29911000.0,4725000.0,9363000.0,935000.0,0.0,0.0,6061000.0,48096000.0,11089000.0,84223000.0,78819000.0,30100000.0,-44000.0,0.0,12124000.0
2015-12-31,10801000.0,0.0,10801000.0,71403000.0,0.0,84778000.0,5488000.0,0.0,28900000.0,5573000.0,78299000.0,163077000.0,8236000.0,4122000.0,31804000.0,1225000.0,5347000.0,945000.0,35000.0,0.0,2456000.0,45360000.0,10289000.0,121798000.0,117717000.0,28900000.0,-5454000.0,0.0,11100000.0
2014-12-31,40862000.0,0.0,40862000.0,67843000.0,0.0,113285000.0,6793000.0,0.0,4500000.0,6364000.0,57511000.0,170796000.0,8865000.0,4955000.0,44060000.0,0.0,4955000.0,1973000.0,0.0,0.0,1369000.0,59830000.0,7290000.0,118999000.0,110966000.0,4500000.0,-35907000.0,0.0,14401000.0
2013-12-31,46227000.0,0.0,46227000.0,67422000.0,0.0,116419000.0,8241000.0,0.0,2600000.0,6487000.0,58012000.0,174431000.0,9536000.0,4086000.0,48929000.0,0.0,4086000.0,2467000.0,632000.0,0.0,1549000.0,60589000.0,10000000.0,112277000.0,113842000.0,2600000.0,-42141000.0,0.0,10111000.0
2012-12-31,40614000.0,0.0,40614000.0,70459000.0,0.0,113668000.0,6916000.0,0.0,637000.0,6435000.0,52537000.0,166205000.0,10170000.0,4747000.0,50201000.0,0.0,4747000.0,2481000.0,641000.0,0.0,1521000.0,63424000.0,13547000.0,99644000.0,102781000.0,637000.0,-35867000.0,0.0,11702000.0
2011-12-31,22414000.0,0.0,22414000.0,67801000.0,0.0,93312000.0,7969000.0,0.0,550000.0,7062000.0,54180000.0,147492000.0,9532000.0,3972000.0,47926000.0,0.0,3972000.0,1756000.0,1695000.0,0.0,1751000.0,58687000.0,13286000.0,83479000.0,88805000.0,550000.0,-18442000.0,0.0,9010000.0
2010-12-31,14837000.0,0.0,14837000.0,57540000.0,0.0,75479000.0,8364000.0,35678000.0,631000.0,7210000.0,54794000.0,130273000.0,6595000.0,0.0,42434000.0,0.0,0.0,2331000.0,549000.0,0.0,9919000.0,52353000.0,-6161000.0,71541000.0,77920000.0,631000.0,-14837000.0,3102000.0,35839000.0
2009-12-31,10423000.0,0.0,10423000.0,45423000.0,0.0,59228000.0,8146000.0,35678000.0,631000.0,6948000.0,55494000.0,114722000.0,7741000.0,0.0,33455000.0,0.0,0.0,1510000.0,208000.0,0.0,9549000.0,43004000.0,-4526000.0,63169000.0,71718000.0,631000.0,-10423000.0,3382000.0,25714000.0
