,0,1,2,3,4,5,6,7,8,9,10,11,12,13,14,15,16,17,18,19,20,21,22,23,24,25,26,27,28
Date,Cash and cash equivalents,Short-term investments,Cash and short-term investments,Receivables,Inventories,Total current assets,Property Plant & Equipment Net,Goodwill and Intangible Assets,Long-term investments,Tax assets,Total non-current assets,Total assets,Payables,Short-term debt,Total current liabilities,Long-term debt,Total debt,Deferred revenue,Tax Liabilities,Deposit Liabilities,Total non-current liabilities,Total liabilities,Other comprehensive income,Retained earnings (deficit),Total shareholders equity,Investments,Net Debt,Other Assets,Other Liabilities
2019-06-30,345400000.0,0.0,345400000.0,716400000.0,257200000.0,1395800000.0,1536700000.0,3151700000.0,0.0,38600000.0,4788200000.0,6184000000.0,255800000.0,76500000.0,670700000.0,2882800000.0,2959300000.0,155200000.0,8500000.0,0.0,3081500000.0,4502400000.0,2757400000.0,-723400000.0,1681600000.0,0.0,2613900000.0,0.0,750200000.0
2018-06-30,410200000.0,0.0,410200000.0,555800000.0,209100000.0,1240300000.0,1270600000.0,1942100000.0,0.0,32900000.0,3290800000.0,4531100000.0,192100000.0,71900000.0,576900000.0,2649400000.0,2721300000.0,100900000.0,25900000.0,0.0,2735900000.0,3444400000.0,2283300000.0,-872100000.0,1086700000.0,0.0,2311100000.0,0.0,131600000.0
2017-06-30,288300000.0,0.0,288300000.0,488800000.0,184900000.0,1059800000.0,995900000.0,1317200000.0,0.0,53900000.0,2394500000.0,3454300000.0,163200000.0,24600000.0,469000000.0,2055100000.0,2079700000.0,84900000.0,24700000.0,0.0,2132300000.0,2730800000.0,1992000000.0,-955700000.0,723500000.0,0.0,1791400000.0,0.0,129500000.0
2016-06-30,131600000.0,0.0,131600000.0,414800000.0,154800000.0,790200000.0,905800000.0,1290500000.0,0.0,37500000.0,2300900000.0,3091100000.0,143700000.0,27700000.0,391200000.0,1832800000.0,1860500000.0,46200000.0,38800000.0,0.0,1913000000.0,2455200000.0,1976500000.0,-1036100000.0,635900000.0,0.0,1728900000.0,0.0,151000000.0
2015-06-30,151300000.0,0.0,151300000.0,372400000.0,132900000.0,737500000.0,885200000.0,1430200000.0,0.0,64100000.0,2407900000.0,3145400000.0,128200000.0,23800000.0,399000000.0,1864100000.0,1887900000.0,39000000.0,55800000.0,0.0,1962900000.0,2511400000.0,1973700000.0,-1166900000.0,634000000.0,0.0,1736600000.0,0.0,149500000.0
2014-06-30,74400000.0,0.0,74400000.0,403700000.0,134800000.0,687500000.0,873000000.0,1454700000.0,0.0,26300000.0,2402700000.0,3090200000.0,148100000.0,25200000.0,453000000.0,2685400000.0,2710600000.0,47100000.0,61500000.0,0.0,2849800000.0,3461400000.0,1031400000.0,-1379100000.0,-371200000.0,0.0,2636200000.0,0.0,158600000.0
2013-06-30,106400000.0,0.0,106400000.0,358000000.0,124900000.0,679100000.0,814500000.0,1395600000.0,0.0,23700000.0,2270400000.0,2949500000.0,150800000.0,35000000.0,410300000.0,2656600000.0,2691600000.0,0.0,111800000.0,0.0,2949500000.0,3359800000.0,-42800000.0,-1395300000.0,-410700000.0,0.0,2585200000.0,89800000.0,224500000.0
2012-06-30,139000000.0,0.0,139000000.0,338300000.0,118700000.0,704700000.0,809700000.0,1447600000.0,0.0,135200000.0,2434300000.0,3139000000.0,134200000.0,43200000.0,439300000.0,2640300000.0,2683500000.0,0.0,219900000.0,0.0,3050400000.0,3489700000.0,7500000.0,-1382100000.0,-350700000.0,0.0,2544500000.0,108700000.0,261900000.0
