,0,1,2,3,4,5,6,7,8,9,10,11,12,13,14
Date,Depreciation & Amortization,Stock-based compensation,Operating Cash Flow,Capital Expenditure,Acquisitions and disposals,Investment purchases and sales,Investing Cash flow,Issuance (repayment) of debt,Issuance (buybacks) of shares,Dividend payments,Financing Cash Flow,Effect of forex changes on cash,Net cash flow / Change in cash,Free Cash Flow,Net Cash/Marketcap
2019-02-02,18886000.0,2238000.0,30410000.0,13256000.0,-0.0,-42682000.0,-15343000.0,-0.0,-40400000.0,-4207000.0,-45655000.0,0.0,-30588000.0,17154000.0,0.0
2018-02-03,18883000.0,1632000.0,42304000.0,20986000.0,-0.0,-17269000.0,-12777000.0,-0.0,-25035000.0,-4232000.0,-30329000.0,0.0,-802000.0,21318000.0,0.0
2017-01-28,17090000.0,2923000.0,39743000.0,23932000.0,-0.0,-1156000.0,-24667000.0,-0.0,-49253000.0,-3513000.0,-4939000.0,0.0,49253000.0,15811000.0,0.0
2016-01-30,18577000.0,4148000.0,27488000.0,19601000.0,-0.0,-25264000.0,-44865000.0,-0.0,-39116000.0,-1797000.0,-18021000.0,0.0,39116000.0,7887000.0,0.0
2015-01-31,20177000.0,4007000.0,40326000.0,11002000.0,-0.0,-12516000.0,-23518000.0,-0.0,-74514000.0,-0.0,-1222000.0,0.0,74514000.0,29324000.0,0.0
2014-02-01,21974000.0,3355000.0,35368000.0,8469000.0,-0.0,-7256000.0,-12784000.0,-0.0,-58928000.0,-0.0,-919000.0,0.0,58928000.0,26899000.0,0.0
2013-02-02,23950000.0,2743000.0,2342000.0,7332000.0,-0.0,1217000.0,-6115000.0,-0.0,-37263000.0,-0.0,-950000.0,0.0,37263000.0,-4990000.0,0.0
2012-01-28,24958000.0,2573000.0,22103000.0,38437000.0,-0.0,-9951000.0,-48388000.0,-0.0,-41986000.0,-0.0,-960000.0,0.0,41986000.0,-16334000.0,0.0
2011-01-29,20324000.0,2712000.0,24259000.0,-40769000.0,0.0,23234000.0,-17535000.0,0.0,254000.0,0.0,-486000.0,0.0,6238000.0,-16510000.0,0.2055
2010-01-30,18319000.0,1925000.0,41253000.0,-22097000.0,0.0,10800000.0,-11297000.0,-1403000.0,843000.0,0.0,-479000.0,0.0,29477000.0,19156000.0,0.2157
