,0,1,2,3,4,5,6,7,8,9,10,11,12,13,14
Date,Depreciation & Amortization,Stock-based compensation,Operating Cash Flow,Capital Expenditure,Acquisitions and disposals,Investment purchases and sales,Investing Cash flow,Issuance (repayment) of debt,Issuance (buybacks) of shares,Dividend payments,Financing Cash Flow,Effect of forex changes on cash,Net cash flow / Change in cash,Free Cash Flow,Net Cash/Marketcap
2019-12-31,166366000.0,6694000.0,331768000.0,118300000.0,-117959000.0,0.0,-375664000.0,-200000000.0,141447000.0,-243859000.0,95855000.0,0.0,51959000.0,213468000.0,0.0
2018-12-31,145663000.0,5572000.0,304335000.0,227518000.0,-0.0,0.0,-322259000.0,-0.0,128066000.0,-221328000.0,15248000.0,0.0,-2676000.0,76817000.0,0.0
2017-12-31,148319000.0,5586000.0,293438000.0,80700000.0,-0.0,0.0,-147824000.0,-100000000.0,24375000.0,-195006000.0,-143319000.0,0.0,2295000.0,212738000.0,0.0
2016-12-31,164442000.0,3212000.0,263526000.0,403600000.0,-0.0,0.0,-544471000.0,-0.0,133149000.0,-149280000.0,221049000.0,0.0,-59896000.0,-140074000.0,0.0
2015-12-31,154113000.0,2155000.0,215705000.0,0.0,-0.0,0.0,-374608000.0,-0.0,171193000.0,-107093000.0,218871000.0,0.0,59968000.0,215705000.0,0.0
2014-12-31,129003000.0,1735000.0,166032000.0,0.0,-0.0,0.0,-522699000.0,-0.0,413105000.0,-75849000.0,356392000.0,0.0,-275000.0,166032000.0,0.0
2013-12-31,117074000.0,5617000.0,142862000.0,0.0,-0.0,0.0,-282924000.0,-100000000.0,97114000.0,-59159000.0,138743000.0,0.0,-1319000.0,142862000.0,0.0
2012-12-31,118573000.0,4550000.0,118428000.0,0.0,-81158000.0,0.0,-271936000.0,-0.0,97584000.0,-39755000.0,148934000.0,0.0,-4574000.0,118428000.0,0.0
2011-12-31,73702000.0,3204000.0,84327000.0,0.0,-0.0,0.0,-442100000.0,-200000000.0,194950000.0,-27849000.0,360951000.0,0.0,3178000.0,84327000.0,0.0
2010-12-31,70850000.0,3641000.0,71517000.0,-67137000.0,0.0,20112000.0,-44783000.0,-153205000.0,47767000.0,-9407000.0,-123611000.0,0.0,-96877000.0,4380000.0,-0.2722
2009-12-31,75908000.0,3396000.0,62214000.0,50375000.0,0.0,48641000.0,98852000.0,-208015000.0,170852000.0,-6736000.0,-62042000.0,0.0,99024000.0,112589000.0,-0.2722
