,0,1,2,3,4,5,6,7,8,9,10,11,12,13,14,15,16,17,18,19,20,21,22,23,24,25,26,27,28,29,30
Date,Revenue,Revenue Growth,Cost of Revenue,Gross Profit,R&D Expenses,SG&A Expense,Operating Expenses,Operating Income,Interest Expense,Earnings before Tax,Income Tax Expense,Net Income - Non-Controlling int,Net Income - Discontinued ops,Net Income,Preferred Dividends,Net Income Com,EPS,EPS Diluted,Weighted Average Shs Out,Weighted Average Shs Out (Dil),Dividend per Share,Gross Margin,EBITDA Margin,EBIT Margin,Profit Margin,Free Cash Flow margin,EBITDA,EBIT,Consolidated Income,Earnings Before Tax Margin,Net Profit Margin
2019-12-31,643915000.0,1.0,209739000.0,434176000.0,0.0,38560000.0,38560000.0,169117000.0,0.0,169117000.0,0.0,0.0,0.0,169117000.0,170825000.0,169117000.0,0.89,0.88,190874000.0,191576000.0,1.27290996785,0.6742753313709999,0.521005101605,0.262638702313,0.262638702313,0.331515805658,335483000.0,169117000.0,169117000.0,0.262638702313,0.262638702313
2018-12-31,0.0,0.0,196866000.0,0.0,0.0,37712000.0,37712000.0,163889000.0,0.0,165488000.0,0.0,0.0,0.0,163889000.0,165709000.0,163889000.0,0.89,0.88,184653000.0,185495000.0,1.1931750181899998,0.0,0.0,0.0,0.0,0.0,309552000.0,163889000.0,163889000.0,0.0,0.0
2017-12-31,0.0,0.0,181508000.0,0.0,0.0,34745000.0,34745000.0,195715000.0,0.0,135611000.0,0.0,0.0,0.0,134288000.0,134288000.0,134288000.0,0.74,0.74,180525000.0,181448000.0,1.0747211322299999,0.0,0.0,0.0,0.0,0.0,344034000.0,195715000.0,134288000.0,0.0,0.0
2016-12-31,0.0,0.0,165847000.0,0.0,0.0,32823000.0,32823000.0,142952000.0,0.0,88376000.0,0.0,0.0,0.0,87905000.0,5045000.0,87905000.0,0.45,0.45,178246000.0,179533000.0,0.831490589474,0.0,0.0,0.0,0.0,0.0,307394000.0,142952000.0,87905000.0,0.0,0.0
2015-12-31,0.0,0.0,153172000.0,0.0,0.0,28371000.0,28371000.0,107888000.0,0.0,78756000.0,0.0,0.0,0.0,77712000.0,6008000.0,77712000.0,0.43,0.42,168640000.0,170191000.0,0.629251840579,0.0,0.0,0.0,0.0,0.0,262001000.0,107888000.0,77712000.0,0.0,0.0
2014-12-31,0.0,0.0,132701000.0,0.0,0.0,28422000.0,28422000.0,81543000.0,0.0,26366000.0,0.0,0.0,0.0,26379000.0,6008000.0,26379000.0,0.14,0.14,149107000.0,150863000.0,0.502767411493,0.0,0.0,0.0,0.0,0.0,210546000.0,81543000.0,26379000.0,0.0,0.0
2013-12-31,0.0,0.0,118222000.0,0.0,0.0,29563000.0,29563000.0,58297000.0,0.0,10409000.0,0.0,0.0,0.0,41448000.0,6008000.0,41448000.0,0.26,0.26,135191000.0,137742000.0,0.42949136792,0.0,0.0,0.0,0.0,0.0,175371000.0,58297000.0,41448000.0,0.0,0.0
2012-12-31,0.0,0.0,110821000.0,0.0,0.0,26131000.0,26131000.0,32250000.0,0.0,-8296000.0,0.0,0.0,0.0,1817000.0,6008000.0,1817000.0,-0.03,-0.03,124548000.0,124548000.0,0.31919420625,0.0,0.0,0.0,0.0,0.0,150823000.0,32250000.0,1817000.0,0.0,0.0
2011-12-31,0.0,-1.0,99160000.0,0.0,0.0,24693000.0,24693000.0,45529000.0,0.0,-5052000.0,0.0,0.0,0.0,-398000.0,1218000.0,-398000.0,-0.02,-0.02,102976000.0,102976000.0,0.270441656308,0.0,0.0,0.0,0.0,0.0,119231000.0,45529000.0,-398000.0,0.0,0.0
2010-12-31,199691000.0,-0.0192812977305,85779000.0,113912000.0,0.0,25406000.0,84282000.0,29630000.0,37794000.0,-7393000.0,0.0,1374000.0,-8981000.0,-7393000.0,0.0,-7393000.0,-0.08,-0.08,95885503.0,93998000.0,0.1,0.5704,0.507,0.1522,-0.037000000000000005,0.0219,101251000.0,30401000.0,-6019000.0,-0.037000000000000005,-0.037000000000000005
2009-12-31,203617000.0,-0.0631,88395000.0,115222000.0,0.0,22569000.0,89553000.0,25669000.0,45269000.0,-937000.0,0.0,605000.0,-20959000.0,-937000.0,0.0,-937000.0,-0.01,-0.01,92854259.0,70988000.0,0.1,0.5659,0.591,0.2177,-0.005,0.5529,120240000.0,44332000.0,-332000.0,-0.0046,-0.0046
