,0,1,2,3,4,5,6,7,8,9,10,11,12,13,14,15,16,17,18,19,20,21,22,23,24,25,26,27,28
Date,Cash and cash equivalents,Short-term investments,Cash and short-term investments,Receivables,Inventories,Total current assets,Property Plant & Equipment Net,Goodwill and Intangible Assets,Long-term investments,Tax assets,Total non-current assets,Total assets,Payables,Short-term debt,Total current liabilities,Long-term debt,Total debt,Deferred revenue,Tax Liabilities,Deposit Liabilities,Total non-current liabilities,Total liabilities,Other comprehensive income,Retained earnings (deficit),Total shareholders equity,Investments,Net Debt,Other Assets,Other Liabilities
2019-12-31,212505000.0,278321000.0,490826000.0,38072000.0,0.0,528898000.0,9389000.0,15195000.0,179410000.0,36228000.0,10991819000.0,11520717000.0,126241000.0,181115000.0,307356000.0,850000000.0,1031115000.0,0.0,0.0,8648936000.0,861740000.0,10467922000.0,639909000.0,381519000.0,1052795000.0,457731000.0,818610000.0,0.0,9298826000.0
2018-12-31,62135000.0,663294000.0,725429000.0,32955000.0,0.0,758384000.0,11063000.0,16499000.0,44439000.0,10202000.0,9075041000.0,9833425000.0,66455000.0,108977000.0,177632000.0,1248070000.0,1357047000.0,2200000.0,0.0,7142236000.0,1268055000.0,8876609000.0,630576000.0,316651000.0,956816000.0,707733000.0,1294912000.0,0.0,7430922000.0
2017-12-31,146323000.0,471371000.0,617694000.0,27021000.0,0.0,644715000.0,11955000.0,16295000.0,125935000.0,12138000.0,9194840000.0,9839555000.0,56212000.0,108880000.0,165092000.0,1611860000.0,1720740000.0,0.0,0.0,6800142000.0,1619343000.0,8918591000.0,631334000.0,258076000.0,920964000.0,597306000.0,1574417000.0,0.0,7134156000.0
2016-12-31,244709000.0,493474000.0,738183000.0,23690000.0,0.0,761873000.0,12259000.0,3639000.0,227224000.0,29489000.0,8620863000.0,9382736000.0,47381000.0,108783000.0,156164000.0,868800000.0,977583000.0,0.0,0.0,6846980000.0,873021000.0,8526864000.0,636246000.0,193698000.0,855872000.0,720698000.0,732874000.0,0.0,7497679000.0
2015-12-31,264593000.0,560253000.0,824846000.0,19939000.0,0.0,844785000.0,11531000.0,0.0,211043000.0,28574000.0,7556528000.0,8401313000.0,44360000.0,110000000.0,154360000.0,1625300000.0,1735300000.0,0.0,0.0,5909501000.0,1629455000.0,7847411000.0,409943000.0,124511000.0,553902000.0,771296000.0,1470707000.0,0.0,6063596000.0
2014-12-31,371023000.0,416685000.0,787708000.0,15205000.0,0.0,802913000.0,10810000.0,0.0,308277000.0,13757000.0,6022457000.0,6825370000.0,33437000.0,110000000.0,143437000.0,1618000000.0,1728000000.0,0.0,0.0,4532538000.0,1627217000.0,6382225000.0,347568000.0,68421000.0,443145000.0,724962000.0,1356977000.0,0.0,4611571000.0
2013-12-31,233068000.0,497573000.0,730641000.0,8362000.0,0.0,739003000.0,11625000.0,0.0,173729000.0,11875000.0,3414170000.0,4153173000.0,21878000.0,624500000.0,646378000.0,706500000.0,1331000000.0,0.0,0.0,2959922000.0,718937000.0,3766550000.0,298977000.0,71008000.0,386623000.0,671302000.0,1097932000.0,0.0,2401235000.0
2012-12-31,186016000.0,129093000.0,315109000.0,0.0,0.0,315109000.0,9672000.0,0.0,173108000.0,9141000.0,2886125000.0,3201234000.0,12941000.0,2000000.0,14941000.0,60000000.0,62000000.0,0.0,0.0,2440818000.0,70623000.0,2931759000.0,211590000.0,38314000.0,269475000.0,302201000.0,-124016000.0,0.0,2846195000.0
2011-12-31,73570000.0,79137000.0,152707000.0,13077000.0,0.0,165784000.0,9420000.0,0.0,65805000.0,0.0,1911748000.0,2077532000.0,8595000.0,2000000.0,10595000.0,0.0,2000000.0,0.0,0.0,1583189000.0,0.0,1929784000.0,122102000.0,14496000.0,147748000.0,144942000.0,-71570000.0,0.0,1919189000.0
