,0,1,2,3,4,5,6,7,8,9,10,11,12,13,14,15,16,17,18,19,20,21,22,23,24,25,26,27,28,29,30
Date,Revenue,Revenue Growth,Cost of Revenue,Gross Profit,R&D Expenses,SG&A Expense,Operating Expenses,Operating Income,Interest Expense,Earnings before Tax,Income Tax Expense,Net Income - Non-Controlling int,Net Income - Discontinued ops,Net Income,Preferred Dividends,Net Income Com,EPS,EPS Diluted,Weighted Average Shs Out,Weighted Average Shs Out (Dil),Dividend per Share,Gross Margin,EBITDA Margin,EBIT Margin,Profit Margin,Free Cash Flow margin,EBITDA,EBIT,Consolidated Income,Earnings Before Tax Margin,Net Profit Margin
2018-12-31,475212000.0,0.019363557386,164678000.0,310534000.0,0.0,0.0,26378000.0,63104000.0,39430000.0,63104000.0,0.0,0.0,0.0,79164000.0,0.0,79164000.0,0.19,0.19,420305000.0,427473000.0,0.25069887454900003,0.653464138111,0.5267164970579999,0.13279125947999998,0.166586702356,0.481961734973,250302000.0,63104000.0,79164000.0,0.13279125947999998,0.166586702356
2017-12-31,466185000.0,0.798476916489,163882000.0,302303000.0,0.0,0.0,32846000.0,39785000.0,33524000.0,39785000.0,0.0,0.0,0.0,216275000.0,0.0,216275000.0,0.52,0.52,415610000.0,423297000.0,0.23423506426899998,0.648461447709,0.509207717966,0.0853416562094,0.463925265721,0.454002166522,237385000.0,39785000.0,216275000.0,0.0853416562094,0.463925265721
2016-12-31,259211000.0,-0.32080242530299996,96908000.0,162303000.0,0.0,0.0,34739000.0,-26735000.0,26650000.0,-26735000.0,0.0,0.0,0.0,79109000.0,0.0,79109000.0,0.31,0.31,253895000.0,256023000.0,0.197435386664,0.62614240908,0.4595291094899999,-0.10313991304400001,0.305191523508,0.42931048450900006,119115000.0,-26735000.0,79109000.0,-0.10313991304400001,0.305191523508
2015-12-31,381643000.0,0.0560624047064,156157000.0,225486000.0,0.0,0.0,21529000.0,37519000.0,30723000.0,37519000.0,0.0,0.0,0.0,125518000.0,0.0,125518000.0,0.58,0.58,215827000.0,215979000.0,0.320383000199,0.590829649699,0.460841676645,0.0983091527946,0.328888516231,0.397389707135,175877000.0,37519000.0,125518000.0,0.0983091527946,0.328888516231
2014-12-31,361383000.0,0.7148205617319999,155934000.0,205449000.0,0.0,0.0,26980000.0,8026000.0,29110000.0,8026000.0,-20000.0,0.0,0.0,52004000.0,2955000.0,52004000.0,0.22,0.22,204216000.0,204460000.0,0.30106133229000004,0.568507649779,0.419621288218,0.0222091243916,0.14390272923699998,0.39404177839000004,151644000.0,8026000.0,52004000.0,0.0222091243916,0.14390272923699998
2013-12-31,210741000.0,0.421256019099,90498000.0,120243000.0,0.0,0.0,30848000.0,-16595000.0,21709000.0,-16595000.0,-23000.0,0.0,0.0,121761000.0,10008000.0,121761000.0,0.63,0.76,144255000.0,144420000.0,0.188284171167,0.570572408786,0.27806644174600004,-0.07874594881869999,0.577775563369,0.651700428488,58600000.0,-16595000.0,121761000.0,-0.07874594881869999,0.577775563369
2012-12-31,148278000.0,1.0,54518000.0,93760000.0,0.0,0.0,34375000.0,-12507000.0,23933000.0,-12507000.0,91000.0,0.0,0.0,45728000.0,12907000.0,45728000.0,0.32,0.32,104117000.0,104125000.0,0.18005282112799997,0.632325766466,0.276426711987,-0.08434831869869999,0.308393692928,0.6428600331809999,40988000.0,-12507000.0,45728000.0,-0.08434831869869999,0.308393692928
2011-12-31,0.0,-1.0,0.0,0.0,0.0,0.0,0.0,0.0,0.0,0.0,0.0,0.0,0.0,0.0,0.0,0.0,0.0,0.0,0.0,0.0,0.0,0.0,0.0,0.0,0.0,0.0,0.0,0.0,0.0,0.0,0.0
2010-12-31,154234000.0,-0.241288050215,72397000.0,81837000.0,0.0,34814000.0,79452000.0,2385000.0,37180000.0,-15652000.0,-1079000.0,2540000.0,-22017000.0,-14573000.0,12907000.0,-27480000.0,-1.08,-1.08,25658113.0,25360000.0,1.44,0.5306,0.528,0.1396,-0.17800000000000002,0.9573,81484000.0,21528000.0,-12033000.0,-0.1015,-0.0945
2009-12-31,203284000.0,-0.0042,106526000.0,96758000.0,0.0,31576000.0,136269000.0,-39511000.0,39759000.0,31636000.0,4341000.0,2252000.0,-172123000.0,27295000.0,12907000.0,14388000.0,0.88,0.88,24742425.0,16373750.0,2.96,0.47600000000000003,0.626,0.3512,0.071,0.005,127228000.0,71395000.0,29547000.0,0.1556,0.1343
