,0,1,2,3,4,5,6,7,8,9,10,11,12,13,14
Date,Depreciation & Amortization,Stock-based compensation,Operating Cash Flow,Capital Expenditure,Acquisitions and disposals,Investment purchases and sales,Investing Cash flow,Issuance (repayment) of debt,Issuance (buybacks) of shares,Dividend payments,Financing Cash Flow,Effect of forex changes on cash,Net cash flow / Change in cash,Free Cash Flow,Net Cash/Marketcap
2019-12-31,123768000.0,13900000.0,74481000.0,29812000.0,-16434000.0,0.0,-38578000.0,-34942000.0,-3331000.0,-0.0,-44631000.0,-313000.0,3331000.0,44669000.0,0.0
2018-12-31,125846000.0,15400000.0,54391000.0,17108000.0,-171337000.0,0.0,-181947000.0,-26609000.0,-12372000.0,-0.0,109523000.0,-2242000.0,-20275000.0,37283000.0,0.0
2017-12-31,126443000.0,15400000.0,56826000.0,11194000.0,-0.0,0.0,-8738000.0,-40781000.0,32087000.0,-0.0,-18072000.0,846000.0,30862000.0,45632000.0,0.0
2016-12-31,131302000.0,9900000.0,62104000.0,19779000.0,-0.0,0.0,-12689000.0,-41023000.0,-1785000.0,-0.0,-58284000.0,2817000.0,-6052000.0,42325000.0,0.0
2015-12-31,152990000.0,5600000.0,186131000.0,62451000.0,-0.0,0.0,-49768000.0,-729425000.0,-7337000.0,-0.0,-349615000.0,-42225000.0,-255477000.0,123680000.0,0.0
2014-12-31,174970000.0,8900000.0,291053000.0,251158000.0,-0.0,0.0,-239072000.0,-0.0,-263314000.0,-27790000.0,16232000.0,-29027000.0,39186000.0,39895000.0,0.0
2013-12-31,167213000.0,4894000.0,337378000.0,-284206000.0,0.0,0.0,-284206000.0,-130663000.0,0.0,0.0,30335000.0,-20775000.0,62732000.0,53172000.0,-0.0237
2012-12-31,139047000.0,3258000.0,432663000.0,-305701000.0,0.0,0.0,-305701000.0,-13750000.0,0.0,0.0,1517000.0,843000.0,129322000.0,126962000.0,-0.0237
2011-12-31,110708000.0,2322000.0,283463000.0,-344508000.0,-2200000.0,0.0,-346708000.0,86682000.0,0.0,0.0,69436000.0,-11469000.0,-5278000.0,-61045000.0,-0.0237
2010-12-31,45691000.0,1592000.0,135957000.0,-106294000.0,-680927000.0,0.0,-787221000.0,329061000.0,0.0,0.0,653589000.0,17118000.0,19443000.0,29663000.0,-0.0237
