,0,1,2,3,4,5,6,7,8,9,10,11,12,13,14,15,16,17,18,19,20,21,22,23,24,25,26,27,28
Date,Cash and cash equivalents,Short-term investments,Cash and short-term investments,Receivables,Inventories,Total current assets,Property Plant & Equipment Net,Goodwill and Intangible Assets,Long-term investments,Tax assets,Total non-current assets,Total assets,Payables,Short-term debt,Total current liabilities,Long-term debt,Total debt,Deferred revenue,Tax Liabilities,Deposit Liabilities,Total non-current liabilities,Total liabilities,Other comprehensive income,Retained earnings (deficit),Total shareholders equity,Investments,Net Debt,Other Assets,Other Liabilities
2019-12-31,39511000.0,0.0,39511000.0,115099000.0,82872000.0,255972000.0,73686000.0,53074000.0,0.0,14654000.0,179854000.0,435826000.0,63058000.0,3256000.0,106607000.0,153128000.0,156384000.0,500000.0,2513000.0,0.0,161251000.0,307138000.0,234622000.0,-60307000.0,128688000.0,0.0,116873000.0,0.0,39280000.0
2018-12-31,70913000.0,0.0,70913000.0,134624000.0,92359000.0,314724000.0,65099000.0,20376000.0,0.0,15348000.0,103406000.0,418130000.0,86645000.0,9102000.0,132716000.0,154656000.0,163758000.0,600000.0,5275000.0,0.0,158811000.0,303092000.0,232762000.0,-70571000.0,115038000.0,0.0,92845000.0,0.0,11565000.0
2017-12-31,52244000.0,0.0,52244000.0,108595000.0,99015000.0,274646000.0,64630000.0,22593000.0,0.0,20273000.0,109742000.0,384388000.0,86608000.0,3191000.0,123743000.0,163758000.0,166949000.0,600000.0,3564000.0,0.0,190653000.0,309646000.0,230756000.0,-115083000.0,74742000.0,0.0,114705000.0,0.0,0.0
2016-12-31,130160000.0,0.0,130160000.0,97793000.0,71054000.0,308948000.0,66041000.0,23214000.0,0.0,28587000.0,119817000.0,428765000.0,60556000.0,0.0,106255000.0,233154000.0,233154000.0,0.0,628000.0,0.0,264469000.0,361075000.0,229614000.0,-113378000.0,67690000.0,0.0,102994000.0,0.0,0.0
2015-12-31,92194000.0,0.0,92194000.0,130240000.0,75658000.0,308277000.0,70961000.0,24780000.0,0.0,25253000.0,128402000.0,436679000.0,66657000.0,0.0,114853000.0,235000000.0,235000000.0,818000.0,2343000.0,0.0,263916000.0,370749000.0,227721000.0,-122431000.0,65930000.0,0.0,142806000.0,0.0,0.0
2014-12-31,70091000.0,9142000.0,70091000.0,139912000.0,83776000.0,309272000.0,73462000.0,26645000.0,0.0,9142000.0,132741000.0,442013000.0,70826000.0,0.0,107512000.0,250000000.0,250000000.0,757000.0,550000.0,0.0,275543000.0,383212000.0,225285000.0,-129492000.0,58801000.0,9142000.0,179909000.0,0.0,157000.0
2013-12-31,72695000.0,8180000.0,72695000.0,119069000.0,80133000.0,287613000.0,78876000.0,28568000.0,0.0,8180000.0,144828000.0,432441000.0,68280000.0,0.0,102565000.0,250000000.0,250000000.0,2100000.0,316000.0,0.0,277154000.0,372533000.0,223042000.0,-137122000.0,59908000.0,8180000.0,177305000.0,0.0,-7186000.0
2012-12-31,68369000.0,8381000.0,68369000.0,114573000.0,88481000.0,286250000.0,83304000.0,31987000.0,0.0,8381000.0,153415000.0,439665000.0,58063000.0,0.0,90932000.0,250000000.0,250000000.0,0.0,1750000.0,0.0,277767000.0,373379000.0,218558000.0,-124677000.0,66286000.0,8381000.0,181631000.0,0.0,4680000.0
2011-12-31,0.0,0.0,0.0,0.0,0.0,0.0,0.0,0.0,0.0,0.0,0.0,0.0,0.0,0.0,0.0,0.0,0.0,0.0,0.0,0.0,0.0,0.0,0.0,0.0,0.0,0.0,0.0,0.0,0.0
2010-12-31,42591000.0,0.0,42591000.0,91101000.0,66622000.0,211423000.0,59321000.0,3848000.0,0.0,0.0,74784000.0,286207000.0,61216000.0,0.0,95346000.0,164987000.0,164987000.0,0.0,0.0,0.0,190973000.0,286319000.0,-19673000.0,-193359000.0,-112000.0,0.0,122396000.0,11109000.0,34130000.0
2009-12-31,9524000.0,0.0,9524000.0,74063000.0,58051000.0,168419000.0,62315000.0,4087000.0,0.0,0.0,82090000.0,250509000.0,59657000.0,0.0,92634000.0,162644000.0,162644000.0,0.0,0.0,0.0,195640000.0,288274000.0,-23341000.0,-199846000.0,-37765000.0,0.0,153120000.0,26781000.0,32977000.0
