,0,1,2,3,4,5,6,7,8,9,10,11,12,13,14,15,16,17,18,19,20,21,22,23,24,25,26,27,28
Date,Cash and cash equivalents,Short-term investments,Cash and short-term investments,Receivables,Inventories,Total current assets,Property Plant & Equipment Net,Goodwill and Intangible Assets,Long-term investments,Tax assets,Total non-current assets,Total assets,Payables,Short-term debt,Total current liabilities,Long-term debt,Total debt,Deferred revenue,Tax Liabilities,Deposit Liabilities,Total non-current liabilities,Total liabilities,Other comprehensive income,Retained earnings (deficit),Total shareholders equity,Investments,Net Debt,Other Assets,Other Liabilities
2019-12-31,1429454.0,6574000.0,8003454.0,4609314.0,4951177.0,18049323.0,13674053.0,0.0,0.0,58186.0,13674053.0,31723376.0,490580.0,0.0,1622265.0,0.0,0.0,0.0,83475.0,152644.0,943084.0,2565349.0,0.0,31494895.0,29158027.0,6574000.0,-1429454.0,0.0,0.0
2018-12-31,7769873.0,0.0,7769873.0,5529307.0,6100391.0,19988479.0,13258146.0,0.0,0.0,150686.0,13258146.0,33246625.0,1060231.0,0.0,2565792.0,0.0,0.0,328154.0,921084.0,0.0,921084.0,3486876.0,0.0,32096617.0,29759749.0,0.0,-7769873.0,588908.0,1505561.0
2017-12-31,1152569.0,7810000.0,8962569.0,5326650.0,4528100.0,19259349.0,12556953.0,0.0,0.0,84112.0,12556953.0,31816302.0,737040.0,0.0,2219263.0,0.0,0.0,0.0,92620.0,312775.0,737084.0,2956347.0,0.0,31196823.0,28859955.0,7810000.0,-1152569.0,0.0,0.0
2016-12-31,353475.0,8059000.0,8412475.0,5323519.0,4537693.0,18753751.0,12450558.0,0.0,0.0,56112.0,12450558.0,31204309.0,703467.0,0.0,2284300.0,0.0,0.0,0.0,92044.0,286133.0,1028084.0,3312384.0,0.0,30228793.0,27891925.0,8059000.0,-353475.0,0.0,0.0
2015-12-31,800894.0,6565000.0,7365894.0,5438332.0,4538212.0,18424694.0,11698443.0,0.0,0.0,425191.0,11698443.0,30123137.0,768111.0,0.0,2312446.0,0.0,0.0,0.0,92526.0,467189.0,1319275.0,3631721.0,0.0,28828284.0,26491416.0,6565000.0,-800894.0,0.0,0.0
2014-12-31,6289252.0,0.0,6289252.0,5669654.0,5162474.0,18089640.0,10877995.0,0.0,0.0,619847.0,10877995.0,28967635.0,923819.0,0.0,2119437.0,0.0,0.0,69866.0,1107275.0,0.0,1107275.0,3226712.0,0.0,28077791.0,25740923.0,0.0,-6289252.0,968260.0,1195618.0
2013-12-31,6650956.0,0.0,6650956.0,5510770.0,4880788.0,17748226.0,10409120.0,0.0,0.0,410191.0,10409120.0,28157346.0,924943.0,0.0,2220969.0,0.0,0.0,126066.0,1065275.0,0.0,1065275.0,3286244.0,0.0,27207970.0,24871102.0,0.0,-6650956.0,705712.0,1296026.0
2012-12-31,7480810.0,0.0,7480810.0,4577932.0,4936372.0,17833637.0,8077866.0,0.0,0.0,416191.0,8077866.0,25911503.0,1003647.0,0.0,1958492.0,0.0,0.0,84905.0,952275.0,0.0,952275.0,2910767.0,0.0,25337604.0,23000736.0,0.0,-7480810.0,838523.0,954845.0
2011-12-31,6584345.0,0.0,6584345.0,4398426.0,5212040.0,16962739.0,7895525.0,0.0,0.0,420191.0,7895525.0,24858264.0,968266.0,0.0,1948476.0,0.0,0.0,151652.0,785275.0,0.0,785275.0,2733751.0,0.0,24461381.0,22124513.0,0.0,-6584345.0,767928.0,980210.0
2010-12-31,7105524.0,0.0,7105524.0,4017081.0,4310154.0,16179967.0,7478878.0,0.0,0.0,394191.0,7478878.0,23658845.0,748781.0,0.0,1551206.0,0.0,0.0,84698.0,745275.0,0.0,745275.0,2296481.0,0.0,23699232.0,21362364.0,0.0,-7105524.0,747208.0,802425.0
2009-12-31,6999286.0,0.0,6999286.0,3813663.0,3753936.0,15820596.0,7806475.0,0.0,0.0,1008296.0,7806475.0,23627071.0,1022747.0,0.0,1730682.0,0.0,0.0,102246.0,734275.0,0.0,734275.0,2464957.0,0.0,23498982.0,21162114.0,0.0,-6999286.0,1253711.0,707935.0
