,0,1,2,3,4,5,6,7,8,9,10,11,12,13,14,15,16,17,18,19,20,21,22,23,24,25,26,27,28,29,30
Date,Revenue,Revenue Growth,Cost of Revenue,Gross Profit,R&D Expenses,SG&A Expense,Operating Expenses,Operating Income,Interest Expense,Earnings before Tax,Income Tax Expense,Net Income - Non-Controlling int,Net Income - Discontinued ops,Net Income,Preferred Dividends,Net Income Com,EPS,EPS Diluted,Weighted Average Shs Out,Weighted Average Shs Out (Dil),Dividend per Share,Gross Margin,EBITDA Margin,EBIT Margin,Profit Margin,Free Cash Flow margin,EBITDA,EBIT,Consolidated Income,Earnings Before Tax Margin,Net Profit Margin
2018-12-31,83929270.0,0.0325543740014,65765007.0,18164263.0,0.0,9528883.0,9528883.0,8635380.0,1989417.0,6674672.0,4463109.0,0.0,0.0,2211563.0,0.0,2211563.0,0.23,0.23,9480948.0,9489630.0,0.0,0.21642345989700001,0.112493758137,0.10288877765799999,0.026350318547999997,-0.0368652676236,9441519.0,8635380.0,2211563.0,0.0795273448703,0.026350318547999997
2017-12-31,81283148.0,-0.0005743278194340001,62637232.0,18645916.0,0.0,8449594.0,8449594.0,10196322.0,1698914.0,8477634.0,2710000.0,0.0,0.0,5767634.0,0.0,5767634.0,0.65,0.65,8831064.0,8838445.0,0.0,0.229394609569,0.133699349341,0.125442016591,0.07095731577719999,0.0158775346644,10867504.0,10196322.0,5767634.0,0.104297559932,0.07095731577719999
2016-12-31,81329858.0,-0.18834548304,77010940.0,4318918.0,0.0,8614190.0,8614190.0,-4295272.0,1356645.0,-5674576.0,-2066000.0,0.0,0.0,-3608576.0,0.0,-3608576.0,0.42,0.42,8655848.0,8655848.0,0.0,0.0531037199155,-0.043819036300300006,-0.0528129779841,-0.0443696335975,-0.0828370067977,-3563796.0,-4295272.0,-3608576.0,-0.06977235838769999,-0.0443696335975
2015-12-31,100202557.0,1.5248200103799998,83600854.0,16601703.0,0.0,7636148.0,7636148.0,8965555.0,918129.0,8006993.0,2991000.0,0.0,0.0,5015993.0,0.0,5015993.0,0.59,0.58,8552817.0,8579986.0,0.0,0.165681430664,0.09799767884169999,0.0894743135148,0.05005853293740001,0.0184437808309,9819618.0,8965555.0,5015993.0,0.07990807060939999,0.05005853293740001
2014-12-31,39687010.0,-0.521777119973,69411709.0,-29724699.0,0.0,7308220.0,7308220.0,-37032919.0,794428.0,-37682275.0,-12473000.0,0.0,0.0,-25209275.0,0.0,-25209275.0,-2.98,-2.98,8465937.0,8465937.0,0.0,-0.7489780409260001,-0.913880461138,-0.933124440466,-0.635202173205,-0.10004996597100001,-36269183.0,-37032919.0,-25209275.0,-0.9494863684620001,-0.635202173205
2013-12-31,82988522.0,1.0,64555275.0,18433247.0,0.0,6704524.0,6704524.0,11728723.0,653786.0,11153894.0,3417000.0,0.0,0.0,7736894.0,0.0,7736894.0,0.92,0.91,8389048.0,8470578.0,0.0,0.222118029768,0.149817802515,0.14132945999399998,0.0932284828497,0.031697672601,12433158.0,11728723.0,7736894.0,0.134402851517,0.0932284828497
2013-02-22,0.0,-1.0,0.0,0.0,0.0,0.0,0.0,0.0,0.0,0.0,0.0,0.0,0.0,0.0,0.0,0.0,0.0,0.0,0.0,0.0,0.0,0.0,0.0,0.0,0.0,0.0,0.0,0.0,0.0,0.0,0.0
2012-12-31,89272582.0,1.0,65039969.0,24232613.0,0.0,7322630.0,7322630.0,16909983.0,416373.0,16525130.0,5514000.0,0.0,0.0,11011130.0,0.0,11011130.0,1.43,1.4,8353469.0,7721304.0,0.0,0.2714,0.19699999999999998,0.1898,0.12300000000000001,-0.2565,17565298.0,16941503.0,11011130.0,0.1851,0.1233
2012-02-29,0.0,-1.0,0.0,0.0,0.0,0.0,0.0,0.0,0.0,0.0,0.0,0.0,0.0,0.0,0.0,0.0,0.0,0.0,0.0,0.0,0.0,0.0,0.0,0.0,0.0,0.0,0.0,0.0,0.0,0.0,0.0
2011-12-31,74135669.0,0.6852545524079999,55325729.0,18809940.0,0.0,7931586.0,7931586.0,10878354.0,343491.0,10538928.0,3122000.0,0.0,0.0,7416928.0,0.0,7416928.0,1.08,1.04,6918646.0,6869624.0,0.0,0.2537,0.155,0.1468,0.1,-0.2062,11473792.0,10882419.0,7416928.0,0.1422,0.1
2010-12-31,43990784.0,0.00191220840951,37877960.0,6112824.0,0.0,5415292.0,5415292.0,697532.0,158406.0,542896.0,13000.0,0.0,0.0,529896.0,0.0,529896.0,0.08,0.08,6665756.0,6489942.0,0.0,0.139,0.025,0.0159,0.012,-0.0968,1087696.0,701302.0,529896.0,0.0123,0.012
2009-12-31,43906825.0,0.2337,32597208.0,11309617.0,0.0,5197663.0,5197663.0,6111954.0,252961.0,5861007.0,1915000.0,0.0,0.0,3946007.0,0.0,3946007.0,0.66,0.64,5995465.0,5994326.0,0.0,0.2576,0.147,0.1392,0.09,0.0121,6452963.0,6113968.0,3946007.0,0.1335,0.0899
