,0,1,2,3,4,5,6,7,8,9,10,11,12,13,14,15,16,17,18,19,20,21,22,23,24,25,26,27,28,29,30
Date,Revenue,Revenue Growth,Cost of Revenue,Gross Profit,R&D Expenses,SG&A Expense,Operating Expenses,Operating Income,Interest Expense,Earnings before Tax,Income Tax Expense,Net Income - Non-Controlling int,Net Income - Discontinued ops,Net Income,Preferred Dividends,Net Income Com,EPS,EPS Diluted,Weighted Average Shs Out,Weighted Average Shs Out (Dil),Dividend per Share,Gross Margin,EBITDA Margin,EBIT Margin,Profit Margin,Free Cash Flow margin,EBITDA,EBIT,Consolidated Income,Earnings Before Tax Margin,Net Profit Margin
2019-12-31,19646652.0,-0.19263644437199998,16850077.0,2796575.0,597456.0,6285496.0,7781290.0,-4984715.0,482844.0,-4913750.0,1413908.0,0.0,0.0,-6327658.0,0.0,-6327658.0,-0.96,-0.96,6562141.0,6562141.0,0.0,0.142343591163,-0.20063907071800002,-0.253718292562,-0.322073094184,-0.107780043134,-3941886.0,-4984715.0,-6327658.0,-0.25010622675,-0.322073094184
2018-12-31,24334331.0,-0.408336098843,19156201.0,5178130.0,606618.0,8205942.0,10432649.0,-5254519.0,463017.0,-5557583.0,-356562.0,0.0,0.0,-5201021.0,0.0,-5201021.0,-0.8,-0.8,6495597.0,6495597.0,0.0,0.21279113857700002,-0.169035179147,-0.21593028384500002,-0.213731826036,-0.08346705730269999,-4113358.0,-5254519.0,-5201021.0,-0.228384458155,-0.213731826036
2017-12-31,41128639.0,0.962679930807,23528427.0,17600212.0,437157.0,8539244.0,10381339.0,7218873.0,106280.0,7195355.0,1933944.0,0.0,0.0,5261411.0,0.0,5261411.0,0.83,0.82,6375848.0,6387464.0,0.0,0.42793081482699996,0.196606311237,0.175519374711,0.12792572591600002,-0.0794773442418,8086150.0,7218873.0,5261411.0,0.17494755904800002,0.12792572591600002
2016-12-31,20955347.0,-0.462206111285,13850824.0,7104523.0,433844.0,6926487.0,7829087.0,-724564.0,79861.0,-653186.0,-504061.0,0.0,0.0,-149124.0,0.0,-149124.0,-0.02,-0.02,6285815.0,6285815.0,0.0,0.339031513055,0.00425156405189,-0.0345765689301,-0.00711627442867,0.41709187636,89093.0,-724564.0,-149124.0,-0.031170373843,-0.00711627442867
2015-12-31,38965387.0,0.39209512182800005,23819864.0,15145523.0,605264.0,7745092.0,10553530.0,4591993.0,92101.0,4663191.0,1320195.0,0.0,0.0,3204996.0,0.0,3204996.0,0.52,0.51,6175254.0,6283307.0,0.0,0.388691712468,0.13905987896400002,0.11784800186899999,0.0822523846613,0.041716716428400004,5418522.0,4591993.0,3204996.0,0.119675213286,0.0822523846613
2014-12-31,27990463.0,0.565118388148,16465084.0,11525379.0,877788.0,8204514.0,15289403.0,-3764024.0,109418.0,-3709470.0,-1235940.0,0.0,0.0,-2473530.0,0.0,-2473530.0,-0.4,-0.4,6129831.0,6129831.0,0.0,0.411760927284,-0.10596809349,-0.13447523179600002,-0.0883704567516,0.0331357862855,-2966096.0,-3764024.0,-2473530.0,-0.132526210803,-0.0883704567516
2013-12-31,17883927.0,-0.19288115929900002,11173893.0,6710034.0,1013157.0,6081783.0,8516111.0,-1806077.0,163738.0,-1956730.0,-1396407.0,0.0,0.0,-560323.0,0.0,-560323.0,-0.09,-0.09,6071375.0,6071375.0,0.0,0.37519913831,-0.0648434205754,-0.100988837631,-0.031331094116000005,-0.175514974983,-1159655.0,-1806077.0,-560323.0,-0.10941277047299999,-0.031331094116000005
2012-12-31,22157737.0,-0.285093269205,14169163.0,7988574.0,1330000.0,5512840.0,7443357.0,545217.0,204874.0,400092.0,-35494.0,0.0,0.0,435586.0,0.0,435586.0,0.07,0.07,6007326.0,6132237.0,0.0,0.360532034476,0.0478583169391,0.024606168039599998,0.0196584154781,-0.5406193331019999,1060432.0,545217.0,435586.0,0.0180565370913,0.0196584154781
2011-12-31,30993885.0,0.90642590441,19544888.0,11448997.0,0.0,5449176.0,6692091.0,4756906.0,182969.0,4787640.0,1008517.0,0.0,0.0,3779123.0,0.0,3779123.0,0.69,0.67,5450565.0,5629907.0,0.0,0.369395350083,0.172742010238,0.153478855587,0.12193124547,0.128503929081,5353946.0,4756906.0,3779123.0,0.154470470546,0.12193124547
2010-12-31,16257587.0,0.5373577106580001,10377564.0,5880023.0,0.0,4809632.0,4934632.0,945391.0,226559.0,741567.0,209795.0,0.0,0.0,531772.0,0.0,531772.0,0.11,0.11,4819325.0,4798660.0,0.0,0.3617,0.096,0.0595,0.033,0.2112,1557113.0,968126.0,531772.0,0.0456,0.0327
2009-12-31,10575019.0,-0.4172,5755501.0,4819518.0,0.0,4451493.0,4516014.0,303504.0,248715.0,131388.0,-47636.0,0.0,0.0,179024.0,0.0,179024.0,0.04,0.04,4761100.0,4760749.0,0.0,0.4557,0.091,0.0359,0.017,-0.2133,960341.0,380103.0,179024.0,0.0124,0.0169
