,0,1,2,3,4,5,6,7,8,9,10,11,12,13,14,15,16,17,18,19,20,21,22,23,24,25,26,27,28,29,30
Date,Revenue,Revenue Growth,Cost of Revenue,Gross Profit,R&D Expenses,SG&A Expense,Operating Expenses,Operating Income,Interest Expense,Earnings before Tax,Income Tax Expense,Net Income - Non-Controlling int,Net Income - Discontinued ops,Net Income,Preferred Dividends,Net Income Com,EPS,EPS Diluted,Weighted Average Shs Out,Weighted Average Shs Out (Dil),Dividend per Share,Gross Margin,EBITDA Margin,EBIT Margin,Profit Margin,Free Cash Flow margin,EBITDA,EBIT,Consolidated Income,Earnings Before Tax Margin,Net Profit Margin
2018-12-31,1053000000.0,0.0436075322101,332000000.0,721000000.0,0.0,20000000.0,20000000.0,347000000.0,306000000.0,116000000.0,62000000.0,0.0,0.0,48000000.0,0.0,48000000.0,0.46,0.46,35000000.0,35000000.0,6.8,0.6847103513770001,0.7331433998100001,0.329534662868,0.045584045584000005,0.394112060779,772000000.0,347000000.0,48000000.0,0.11016144349500001,0.045584045584000005
2017-12-31,1009000000.0,-0.011753183153799997,326000000.0,683000000.0,0.0,19000000.0,19000000.0,283000000.0,306000000.0,49000000.0,72000000.0,0.0,0.0,-16000000.0,0.0,-16000000.0,-0.16,-0.16,35000000.0,35000000.0,5.77142857143,0.676907829534,0.7056491575820001,0.280475718533,-0.01585728444,0.480673934589,712000000.0,283000000.0,-16000000.0,0.04856293359759999,-0.01585728444
2016-12-31,1021000000.0,0.17491369390099998,306000000.0,715000000.0,0.0,16000000.0,16000000.0,218000000.0,274000000.0,-16000000.0,-1000000.0,0.0,0.0,57000000.0,0.0,57000000.0,0.58,0.58,35000000.0,35000000.0,5.22857142857,0.700293829579,0.600391772772,0.213516160627,0.0558276199804,0.52889324192,613000000.0,218000000.0,57000000.0,-0.015670910871700004,0.0558276199804
2015-12-31,869000000.0,0.490566037736,312000000.0,557000000.0,0.0,12000000.0,12000000.0,277000000.0,238000000.0,67000000.0,12000000.0,0.0,0.0,33000000.0,0.0,33000000.0,0.4,0.4,35000000.0,35000000.0,3.97142857143,0.640966628308,0.7042577675489999,0.31875719217500004,0.0379746835443,0.39585730725,612000000.0,277000000.0,33000000.0,0.0771001150748,0.0379746835443
2014-12-31,583000000.0,0.8626198083069999,214000000.0,369000000.0,0.0,8000000.0,8000000.0,221000000.0,166000000.0,85000000.0,4000000.0,0.0,0.0,16000000.0,0.0,16000000.0,0.59,0.59,28000000.0,28000000.0,3.60714285714,0.632933104631,0.658662092624,0.37907375643200003,0.027444253859299998,0.32590051458,384000000.0,221000000.0,16000000.0,0.145797598628,0.027444253859299998
2013-12-31,313000000.0,0.7885714285709999,127000000.0,186000000.0,0.0,7000000.0,7000000.0,128000000.0,35000000.0,117000000.0,8000000.0,0.0,0.0,109000000.0,0.0,109000000.0,0.57,0.57,0.0,0.0,0.0,0.5942492012780001,0.581469648562,0.40894568690099997,0.34824281150200004,-0.309904153355,182000000.0,128000000.0,109000000.0,0.373801916933,0.34824281150200004
2012-12-31,175000000.0,0.0670731707317,114000000.0,61000000.0,0.0,7000000.0,32000000.0,29000000.0,28000000.0,22000000.0,10000000.0,0.0,0.0,12000000.0,0.0,12000000.0,,,,,0.0,0.3486,0.429,0.2857,0.069,-2.9029,75000000.0,50000000.0,12000000.0,0.1257,0.0686
2011-12-31,164000000.0,,108000000.0,56000000.0,0.0,6000000.0,28000000.0,28000000.0,19000000.0,24000000.0,9000000.0,0.0,0.0,15000000.0,0.0,15000000.0,,,,,0.0,0.3415,0.396,0.2622,0.091,-0.6037,65000000.0,43000000.0,15000000.0,0.1463,0.0915
