,0,1,2,3,4,5,6,7,8,9,10,11,12,13,14,15,16,17,18,19,20,21,22,23,24,25,26,27,28,29,30
Date,Revenue,Revenue Growth,Cost of Revenue,Gross Profit,R&D Expenses,SG&A Expense,Operating Expenses,Operating Income,Interest Expense,Earnings before Tax,Income Tax Expense,Net Income - Non-Controlling int,Net Income - Discontinued ops,Net Income,Preferred Dividends,Net Income Com,EPS,EPS Diluted,Weighted Average Shs Out,Weighted Average Shs Out (Dil),Dividend per Share,Gross Margin,EBITDA Margin,EBIT Margin,Profit Margin,Free Cash Flow margin,EBITDA,EBIT,Consolidated Income,Earnings Before Tax Margin,Net Profit Margin
2019-12-31,743290000.0,0.125071897799,508656000.0,234634000.0,0.0,92782000.0,99060000.0,53075000.0,25102000.0,29779000.0,-1874000.0,0.0,0.0,31653000.0,0.0,31653000.0,0.67,0.66,47226000.0,47966000.0,0.0,0.31566952333500004,0.181837506222,0.0714055079444,0.042584993744,0.0183831344428,135158000.0,53075000.0,31653000.0,0.0400637705337,0.042584993744
2018-12-31,660660000.0,0.102369562279,453291000.0,207369000.0,0.0,84791000.0,86663000.0,39733000.0,26294000.0,6036000.0,-384000.0,0.0,0.0,6420000.0,0.0,6420000.0,0.15,0.15,42688000.0,44168000.0,0.0,0.31388157297200003,0.17057185239,0.0601413737777,0.0097175551721,0.072052190234,112690000.0,39733000.0,6420000.0,0.00913631822723,0.0097175551721
2017-12-31,599309000.0,0.060667575173000005,405188000.0,194121000.0,0.0,79243000.0,79243000.0,-12583000.0,25160000.0,-37052000.0,-15253000.0,0.0,0.0,-21799000.0,0.0,-21799000.0,-0.52,-0.52,402000.0,402000.0,0.0,0.323908034086,0.0871186649959,-0.0209958468837,-0.0363735568797,0.07199124324850001,52211000.0,-12583000.0,-21799000.0,-0.061824534589,-0.0363735568797
2016-12-31,565030000.0,0.0339066788655,381973000.0,183057000.0,0.0,75356000.0,76256000.0,44945000.0,38942000.0,-6364000.0,494000.0,0.0,0.0,-6849000.0,0.0,-6849000.0,-0.17,-0.17,239000.0,239000.0,0.0,0.323977487921,0.195886944056,0.07954444896730001,-0.012121480275399998,0.0464293931296,110682000.0,44945000.0,-6849000.0,-0.011263118772499999,-0.012121480275399998
2015-12-31,546500000.0,1.0,382615000.0,163885000.0,0.0,72892000.0,72892000.0,31866000.0,40420000.0,-10430000.0,1351000.0,0.0,0.0,-12969000.0,0.0,-12969000.0,-0.32,-0.32,295000.0,295000.0,0.0,0.299881061299,0.17371271729200002,0.0583092406221,-0.0237310155535,0.037533394327500004,94934000.0,31866000.0,-12969000.0,-0.019085086916700002,-0.0237310155535
2014-12-31,0.0,-1.0,0.0,0.0,0.0,0.0,0.0,0.0,0.0,-26773000.0,0.0,0.0,0.0,-27404000.0,0.0,-27404000.0,0.0,0.0,0.0,0.0,0.0,0.0,0.0,0.0,0.0,0.0,0.0,0.0,-27404000.0,0.0,0.0
2014-04-30,497633000.0,0.0928942427004,354592000.0,143041000.0,0.0,61865000.0,63659000.0,11916000.0,38175000.0,-25511000.0,1799000.0,0.0,0.0,-23095000.0,0.0,-23095000.0,-0.58,-0.58,124000.0,124000.0,0.0,0.28744275399700003,0.14568567599,0.023945357321599997,-0.0464097035365,0.00740103650682,72498000.0,11916000.0,-23095000.0,-0.0512646870284,-0.0464097035365
2013-04-30,455335000.0,-0.0529933550326,323014000.0,132321000.0,0.0,58205000.0,58205000.0,12421000.0,41570000.0,-52509000.0,-2526000.0,0.0,0.0,-54142000.0,0.0,-54142000.0,-1.59,-1.59,5501000.0,5501000.0,0.0,0.290601425324,0.152905004008,0.027278816695400002,-0.11890586052000002,-0.023938418966299998,69623000.0,12421000.0,-54142000.0,-0.11531949004599999,-0.11890586052000002
2012-04-30,480815000.0,0.0574683572143,330754000.0,150061000.0,0.0,60775000.0,60906000.0,-11526000.0,45541000.0,-77136000.0,1181000.0,0.0,0.0,-77586000.0,0.0,-77586000.0,-2.9,-2.9,26749000.0,26749000.0,0.0,0.31209716835,0.09985961336480001,-0.0239717978848,-0.161363518193,0.132639372732,48014000.0,-11526000.0,-77586000.0,-0.160427607292,-0.161363518193
2011-04-30,454685000.0,-0.00646138247801,306014000.0,148671000.0,0.0,63396000.0,122218000.0,26453000.0,45543000.0,14705000.0,-23723000.0,0.0,-41392000.0,38428000.0,0.0,38428000.0,1.47,1.47,26318694.0,26105000.0,0.0,0.327,0.26,0.1325,0.085,-0.0119,118369000.0,60248000.0,38428000.0,0.0323,0.0845
2010-04-30,457642000.0,-0.0522,303399000.0,154243000.0,0.0,57476000.0,121430000.0,32813000.0,44375000.0,-11616000.0,2242000.0,0.0,-2191000.0,-13858000.0,0.0,-13858000.0,-0.54,-0.54,25932683.0,25731000.0,0.0,0.337,0.21100000000000002,0.0716,-0.03,0.0343,96378000.0,32759000.0,-13858000.0,-0.0254,-0.0303
