,0,1,2,3,4,5,6,7,8,9,10,11,12,13,14,15,16,17,18,19,20,21,22,23,24,25,26,27,28,29,30
Date,Revenue,Revenue Growth,Cost of Revenue,Gross Profit,R&D Expenses,SG&A Expense,Operating Expenses,Operating Income,Interest Expense,Earnings before Tax,Income Tax Expense,Net Income - Non-Controlling int,Net Income - Discontinued ops,Net Income,Preferred Dividends,Net Income Com,EPS,EPS Diluted,Weighted Average Shs Out,Weighted Average Shs Out (Dil),Dividend per Share,Gross Margin,EBITDA Margin,EBIT Margin,Profit Margin,Free Cash Flow margin,EBITDA,EBIT,Consolidated Income,Earnings Before Tax Margin,Net Profit Margin
2019-12-31,664358000.0,-0.015380830428500001,0.0,0.0,0.0,108617000.0,108617000.0,99412000.0,0.0,0.0,17671000.0,0.0,0.0,63116000.0,0.0,63116000.0,1.31,1.31,48168000.0,48168000.0,0.789382992858,0.0,0.288097682274,0.149636190126,0.095002995373,0.254070847344,191400000.0,99412000.0,63116000.0,0.0,0.095002995373
2018-12-31,674736000.0,1.0,0.0,0.0,0.0,100781000.0,100781000.0,110540000.0,0.0,0.0,15872000.0,0.0,0.0,65584000.0,0.0,65584000.0,1.36,1.36,48060000.0,48060000.0,0.749958385352,0.0,0.29248031822799997,0.163827037538,0.09719949728489999,0.2653171018,197347000.0,110540000.0,65584000.0,0.0,0.09719949728489999
2017-12-31,0.0,0.0,0.0,0.0,0.0,102914000.0,102914000.0,94623000.0,0.0,0.0,33362000.0,0.0,0.0,67181000.0,0.0,67181000.0,1.4,1.4,48009000.0,48009000.0,0.719927513591,0.0,0.0,0.0,0.0,0.0,174135000.0,94623000.0,67181000.0,0.0,0.0
2016-12-31,0.0,0.0,0.0,0.0,0.0,98474000.0,98474000.0,76194000.0,0.0,0.0,26816000.0,0.0,0.0,48675000.0,0.0,48675000.0,1.02,1.01,47953000.0,47956000.0,0.689819834849,0.0,0.0,0.0,0.0,0.0,142268000.0,76194000.0,48675000.0,0.0,0.0
2015-12-31,0.0,0.0,0.0,0.0,0.0,113110000.0,113110000.0,71153000.0,0.0,0.0,25289000.0,0.0,0.0,45017000.0,0.0,45017000.0,0.94,0.94,47865000.0,47880000.0,0.669715956558,0.0,0.0,0.0,0.0,0.0,135135000.0,71153000.0,45017000.0,0.0,0.0
2014-12-31,0.0,0.0,0.0,0.0,0.0,97373000.0,97373000.0,81847000.0,0.0,0.0,27972000.0,0.0,0.0,56738000.0,0.0,56738000.0,1.19,1.19,47791000.0,47829000.0,0.649459532919,0.0,0.0,0.0,0.0,0.0,145966000.0,81847000.0,56738000.0,0.0,0.0
2013-12-31,0.0,0.0,0.0,0.0,0.0,98055000.0,98055000.0,74005000.0,0.0,0.0,20469000.0,0.0,0.0,47254000.0,0.0,47254000.0,1.02,1.02,46384000.0,46417000.0,0.638106728138,0.0,0.0,0.0,0.0,0.0,135336000.0,74005000.0,47254000.0,0.0,0.0
2012-12-31,0.0,0.0,0.0,0.0,0.0,93927000.0,93927000.0,73843000.0,0.0,0.0,21452000.0,0.0,0.0,48828000.0,0.0,48828000.0,1.17,1.17,41892000.0,41892000.0,0.6298816003059999,0.0,0.0,0.0,0.0,0.0,131816000.0,73843000.0,48828000.0,0.0,0.0
2011-12-31,0.0,0.0,0.0,0.0,0.0,85758000.0,85758000.0,67167000.0,0.0,0.0,23166000.0,0.0,0.0,37712000.0,0.0,37712000.0,0.9,0.9,41762000.0,41772000.0,0.61462223499,0.0,0.0,0.0,0.0,0.0,120230000.0,67167000.0,37712000.0,0.0,0.0
2010-12-31,0.0,-1.0,0.0,0.0,0.0,0.0,0.0,0.0,0.0,0.0,0.0,0.0,0.0,0.0,0.0,0.0,0.0,0.0,0.0,0.0,0.0,0.0,0.0,0.0,0.0,0.0,0.0,0.0,0.0,0.0,0.0
2009-12-31,449372000.0,0.0952,251420000.0,197952000.0,0.0,75243000.0,115021000.0,82931000.0,21313000.0,65366000.0,24812000.0,0.0,0.0,40554000.0,0.0,40554000.0,0.98,0.98,41489904.0,41490000.0,0.5920000000000001,0.4405,0.28600000000000003,0.1929,0.09,-0.0832,128322000.0,86679000.0,40554000.0,0.1455,0.0902
