,0,1,2,3,4,5,6,7,8,9,10,11,12,13,14
Date,Depreciation & Amortization,Stock-based compensation,Operating Cash Flow,Capital Expenditure,Acquisitions and disposals,Investment purchases and sales,Investing Cash flow,Issuance (repayment) of debt,Issuance (buybacks) of shares,Dividend payments,Financing Cash Flow,Effect of forex changes on cash,Net cash flow / Change in cash,Free Cash Flow,Net Cash/Marketcap
2018-12-31,1478000000.0,82000000.0,2558000000.0,0.0,-0.0,-64000000.0,-2216000000.0,-1690000000.0,-64000000.0,-0.0,-342000000.0,0.0,0.0,2558000000.0,0.0
2017-12-31,1146000000.0,60000000.0,1695000000.0,0.0,-0.0,-23000000.0,-1719000000.0,-2829000000.0,-23000000.0,-0.0,-29000000.0,0.0,-53000000.0,1695000000.0,0.0
2016-12-31,1167208000.0,58927000.0,1384448000.0,0.0,-0.0,-11953000.0,-2224656000.0,-1200000000.0,1315491000.0,-0.0,664919000.0,0.0,-175289000.0,1384448000.0,0.0
2015-12-31,1223253000.0,63073000.0,897505000.0,0.0,-0.0,-5131000.0,-1969725000.0,-1630400000.0,1530581000.0,-0.0,1300749000.0,0.0,228529000.0,897505000.0,0.0
2014-12-31,979740000.0,47130000.0,1673787000.0,0.0,-0.0,-15594000.0,-2545996000.0,-2191500000.0,916395000.0,-0.0,872209000.0,0.0,0.0,1673787000.0,0.0
2013-12-31,772608000.0,35078000.0,1362020000.0,0.0,-0.0,-3698000.0,-1896794000.0,-2729700000.0,-3698000.0,-0.0,531915000.0,0.0,-2859000.0,1362020000.0,0.0
2012-12-31,575128000.0,29872000.0,1237478000.0,0.0,-0.0,-3190000.0,-2240444000.0,-3241500000.0,-3190000.0,-0.0,1005504000.0,0.0,2538000.0,1237478000.0,0.0
2011-12-31,428377000.0,19271000.0,1199458000.0,0.0,-0.0,-2381000.0,-1651418000.0,-2389300000.0,-2381000.0,-0.0,451918000.0,0.0,-42000.0,1199458000.0,0.0
2010-12-31,0.0,0.0,0.0,0.0,-0.0,0.0,0.0,-0.0,0.0,-0.0,0.0,0.0,0.0,0.0,0.0
2009-12-31,191889000.0,9040000.0,359546000.0,-673663000.0,5099000.0,0.0,-586148000.0,209715000.0,5824000.0,0.0,212084000.0,0.0,-14518000.0,-314117000.0,-0.2355
