,0,1,2,3,4,5,6,7,8,9,10,11,12,13,14,15,16,17,18,19,20,21,22,23,24,25,26,27,28
Date,Cash and cash equivalents,Short-term investments,Cash and short-term investments,Receivables,Inventories,Total current assets,Property Plant & Equipment Net,Goodwill and Intangible Assets,Long-term investments,Tax assets,Total non-current assets,Total assets,Payables,Short-term debt,Total current liabilities,Long-term debt,Total debt,Deferred revenue,Tax Liabilities,Deposit Liabilities,Total non-current liabilities,Total liabilities,Other comprehensive income,Retained earnings (deficit),Total shareholders equity,Investments,Net Debt,Other Assets,Other Liabilities
2018-12-31,46600000.0,0.0,46600000.0,2425287.3563,0.0,59416091.953999996,3464367.8161,41567816.092,10571264.3678,0.0,48973563.2184,108389655.1724,6800000.0,1012643.6782,11088505.7471,879310.3448,1891954.023,0.0,0.0,0.0,33405747.1264,44494252.8736,0.0,-250319540.2299,63895402.2989,10571264.3678,-55238158.1822,10159507.6975,3275862.0689
2017-12-31,27914765.9064,0.0,27914765.9064,279711.8848,0.0,43690276.1104,3949579.8319,43827130.8523,12788715.4862,0.0,49498199.2797,93188475.3902,5762304.922,969987.9952,9537815.1261,763505.4022,1733493.3974,0.0,0.0,0.0,26585834.3337,36123649.4598,0.0,-216591836.7347,57064825.9304,12788715.4862,,,2805522.2089
2016-12-31,50902105.2632,0.0,50902105.2632,1430526.3158,0.0,89860000.0,3750526.3158,52174736.8421,36031578.9474,0.0,56251578.9474,146111578.9474,8524210.5263,965263.1579,11868421.0526,590526.3158,1555789.4737,0.0,0.0,0.0,38574736.8421,50443157.8947,0.0,-130553684.2105,95668421.0526,36031578.9474,,,2378947.3684
2015-12-31,108767643.8654,0.0,108767643.8654,596091.2052,0.0,118804560.2606,1233441.9109999998,52973941.3681,7967426.7101,0.0,54403908.7948,173208469.0554,9311617.8067,463626.4929,12475570.0326,269272.5299,732899.0228,0.0,0.0,0.0,39698154.1802,52173724.2128,0.0,-108917480.9989,121034744.8426,7967426.7101,,,2700325.733
2014-12-31,33453995.1574,82324.4552,33536319.6126,1004842.615,0.0,39872881.3559,723970.9443,12428571.4286,3233656.1743,0.0,13366828.0872,53239709.4431,4893462.4697,337772.3971,7328087.1671,162227.6029,500000.0,0.0,0.0,0.0,13606537.5303,20934624.6973,0.0,-86216707.0218,32305084.7458,3315980.6295,,,2096852.3003
2013-12-31,26214580.4677,0.0,26214580.4677,580467.6754,0.0,31090784.044,334250.3439,12929848.6933,4126547.4553,0.0,13456671.2517,44547455.2957,2983493.8102,37138.9271,4661623.1087,108665.7497,145804.6768,0.0,0.0,0.0,16642365.8872,21303988.9959,0.0,-75114167.8129,23243466.2999,4126547.4553,,,1640990.3714
