,0,1,2,3,4,5,6,7,8,9,10,11,12,13,14,15,16,17,18,19,20,21,22,23,24,25,26,27,28
Date,Cash and cash equivalents,Short-term investments,Cash and short-term investments,Receivables,Inventories,Total current assets,Property Plant & Equipment Net,Goodwill and Intangible Assets,Long-term investments,Tax assets,Total non-current assets,Total assets,Payables,Short-term debt,Total current liabilities,Long-term debt,Total debt,Deferred revenue,Tax Liabilities,Deposit Liabilities,Total non-current liabilities,Total liabilities,Other comprehensive income,Retained earnings (deficit),Total shareholders equity,Investments,Net Debt,Other Assets,Other Liabilities
2019-12-31,94895000.0,0.0,94895000.0,1474000.0,0.0,101197000.0,11613000.0,0.0,0.0,0.0,85281000.0,186478000.0,3230000.0,3420000.0,18249000.0,70500000.0,73920000.0,0.0,0.0,0.0,89115000.0,88749000.0,183376000.0,-85627000.0,97729000.0,0.0,-20975000.0,0.0,-18615000.0
2018-12-31,0.0,0.0,0.0,0.0,0.0,879000.0,6497000.0,0.0,0.0,0.0,6522000.0,7401000.0,2781000.0,0.0,17846000.0,0.0,0.0,0.0,0.0,0.0,0.0,17846000.0,0.0,0.0,-10445000.0,0.0,0.0,879000.0,15065000.0
2017-12-31,0.0,0.0,0.0,0.0,0.0,1259000.0,4131000.0,0.0,0.0,0.0,4211000.0,5470000.0,1802000.0,0.0,14037000.0,0.0,0.0,0.0,0.0,0.0,0.0,14037000.0,0.0,-8567000.0,-8567000.0,0.0,0.0,1259000.0,12235000.0
2016-12-31,0.0,0.0,0.0,0.0,0.0,275000.0,3600000.0,0.0,0.0,0.0,3600000.0,3875000.0,1410000.0,0.0,10636000.0,0.0,0.0,0.0,0.0,0.0,0.0,10636000.0,0.0,-6761000.0,-6761000.0,0.0,0.0,275000.0,9226000.0
