,0,1,2,3,4,5,6,7,8,9,10,11,12,13,14,15,16,17,18,19,20,21,22,23,24,25,26,27,28,29,30
Date,Revenue,Revenue Growth,Cost of Revenue,Gross Profit,R&D Expenses,SG&A Expense,Operating Expenses,Operating Income,Interest Expense,Earnings before Tax,Income Tax Expense,Net Income - Non-Controlling int,Net Income - Discontinued ops,Net Income,Preferred Dividends,Net Income Com,EPS,EPS Diluted,Weighted Average Shs Out,Weighted Average Shs Out (Dil),Dividend per Share,Gross Margin,EBITDA Margin,EBIT Margin,Profit Margin,Free Cash Flow margin,EBITDA,EBIT,Consolidated Income,Earnings Before Tax Margin,Net Profit Margin
2018-12-31,30799000.0,0.0,11899000.0,18900000.0,9825000.0,22837000.0,32662000.0,-13762000.0,117000.0,-15690000.0,-42000.0,0.0,0.0,-15648000.0,0.0,-15648000.0,-0.38,-0.38,40922453.0,40922453.0,0.0,0.613656287542,-0.28289879541499996,-0.44683268937299997,-0.508068443781,-0.291015942076,-8713000.0,-13762000.0,-15648000.0,-0.50943212442,-0.508068443781
2017-12-31,30799000.0,-0.005938740599680001,11899000.0,18900000.0,9825000.0,22837000.0,32662000.0,-13762000.0,2380000.0,-15690000.0,-42000.0,0.0,0.0,-15648000.0,0.0,-15648000.0,-0.304,-0.304,39174272.0,40922453.0,0.0,0.6137,-0.268,-0.4322,-0.508,-0.4068,-8261000.0,-13310000.0,-15648000.0,-0.5094,-0.5081
2016-12-31,30983000.0,0.116021900439,10042000.0,20941000.0,8656000.0,17459000.0,26115000.0,-5174000.0,147000.0,-6215000.0,-2000.0,0.0,0.0,-6213000.0,0.0,-6213000.0,-0.128,-0.128,39121198.0,39135321.0,0.0,0.6759,-0.064,-0.1958,-0.201,-0.0547,-1986000.0,-6068000.0,-6213000.0,-0.2006,-0.2005
2015-12-31,27762000.0,-0.13039937353199998,8866000.0,18896000.0,8842000.0,14589000.0,23431000.0,-4535000.0,243000.0,-4676000.0,123000.0,0.0,0.0,-4799000.0,0.0,-4799000.0,-0.11199999999999999,-0.11199999999999999,31396940.0,34315638.0,0.0,0.6806,-0.055999999999999994,-0.1597,-0.17300000000000001,-0.1787,-1547000.0,-4433000.0,-4799000.0,-0.1684,-0.1729
2014-12-31,31925000.0,-0.010016125031,8578000.0,23347000.0,11101000.0,19515000.0,30616000.0,-7269000.0,874000.0,-7212000.0,-196000.0,0.0,0.0,-7016000.0,0.0,-7016000.0,-0.2,-0.2,26472963.0,28598323.0,0.0,0.7313,-0.10400000000000001,-0.1985,-0.22,-0.1385,-3317000.0,-6338000.0,-7016000.0,-0.2259,-0.2198
2013-12-31,32248000.0,0.348724383103,7695000.0,24553000.0,9270000.0,20666000.0,29936000.0,-5383000.0,1255000.0,-4651000.0,5220000.0,0.0,0.0,-9871000.0,0.0,-9871000.0,-0.304,-0.304,25826234.0,26231254.0,0.0,0.7614,-0.016,-0.1053,-0.306,-0.0605,-505000.0,-3396000.0,-9871000.0,-0.1442,-0.3061
2012-12-31,23910000.0,0.038842544317,4397000.0,19513000.0,6528000.0,12205000.0,18733000.0,780000.0,-80000.0,860000.0,-625000.0,0.0,0.0,1485000.0,0.0,1485000.0,0.048,0.048,24093617.0,24610267.0,0.0,0.8161,0.081,0.0326,0.062,-0.0482,1929000.0,780000.0,1485000.0,0.036000000000000004,0.0621
2011-12-31,23016000.0,0.267331094103,4091000.0,18925000.0,5410000.0,10207000.0,15617000.0,3308000.0,27000.0,3281000.0,-1317000.0,0.0,0.0,4598000.0,0.0,4598000.0,0.152,0.152,23505713.0,23620171.0,0.0,0.8223,0.21100000000000002,0.1437,0.2,0.2683,4858000.0,3308000.0,4598000.0,0.1426,0.1998
2010-12-31,18161000.0,0.195667917572,2918000.0,15243000.0,3397000.0,8486000.0,11883000.0,3360000.0,55000.0,3305000.0,-1098000.0,0.0,0.0,4403000.0,0.0,4403000.0,0.152,0.14400000000000002,23958761.0,23575354.0,0.0,0.8393,0.222,0.185,0.242,0.2069,4038000.0,3360000.0,4403000.0,0.182,0.2424
2009-12-31,15189000.0,0.0778,2260000.0,12929000.0,2958000.0,7275000.0,10233000.0,2696000.0,-60000.0,2756000.0,-2404000.0,0.0,0.0,5160000.0,0.0,5160000.0,0.168,0.16,25206659.0,24531810.0,0.0,0.8512,0.21,0.1775,0.34,0.3075,3187000.0,2696000.0,5160000.0,0.1814,0.3397
