,0,1,2,3,4,5,6,7,8,9,10,11,12,13,14
Date,Depreciation & Amortization,Stock-based compensation,Operating Cash Flow,Capital Expenditure,Acquisitions and disposals,Investment purchases and sales,Investing Cash flow,Issuance (repayment) of debt,Issuance (buybacks) of shares,Dividend payments,Financing Cash Flow,Effect of forex changes on cash,Net cash flow / Change in cash,Free Cash Flow,Net Cash/Marketcap
2019-12-31,20659.0,2007774.0,-5718347.0,24658.0,-0.0,0.0,475484.0,-0.0,-16130410.0,-0.0,0.0,0.0,-5242863.0,-5743005.0,0.0
2018-12-31,1187240.0,1621266.0,-10867479.0,11478.0,-0.0,0.0,-11478.0,-9986362.0,-21373273.0,-0.0,-5245461.0,0.0,-16124418.0,-10878957.0,0.0
2017-12-31,2553128.0,3344520.0,-27197568.0,134598.0,-0.0,0.0,-134598.0,-15013638.0,-37643404.0,-0.0,8016085.0,0.0,-19316081.0,-27332166.0,0.0
2017-12,1000000.0,3000000.0,-27000000.0,-0.0,,0.0,-0.0,-15000000.0,0.0,,8000000.0,,-19000000.0,-27000000.0,
2016-12-31,1124468.0,6735576.0,-49850352.0,1020441.0,-0.0,35035420.0,34014979.0,-0.0,0.0,-0.0,50533486.0,0.0,34698113.0,-50870793.0,0.0
2016-12,1000000.0,7000000.0,-50000000.0,-1000000.0,,35000000.0,34000000.0,0.0,0.0,,51000000.0,,35000000.0,-51000000.0,
2015-12-31,317649.0,7384656.0,-47582447.0,331328.0,-0.0,10586173.0,10254845.0,-0.0,0.0,-0.0,27370069.0,0.0,-9957533.0,-47913775.0,0.0
2015-12,0.0,7000000.0,-48000000.0,-0.0,,11000000.0,10000000.0,0.0,0.0,,27000000.0,,-10000000.0,-48000000.0,
2014-12-31,182927.0,6596248.0,-40555807.0,956286.0,-0.0,-18719556.0,-19492899.0,-0.0,-182943.0,-0.0,80784499.0,0.0,20735793.0,-41512093.0,0.0
2014-12,0.0,7000000.0,-41000000.0,-1000000.0,,-18000000.0,-19000000.0,0.0,-0.0,,81000000.0,,21000000.0,-42000000.0,
2013-12-31,120399.0,3985106.0,-23750983.0,41809.0,-0.0,-3202050.0,-3126789.0,-0.0,23977460.0,-0.0,24016796.0,0.0,-2860976.0,-23792792.0,0.0
2013-12,0.0,4000000.0,-24000000.0,-0.0,,-3000000.0,-3000000.0,0.0,-0.0,,24000000.0,,-3000000.0,-24000000.0,
2012-12-31,113936.0,2391529.0,-19044650.0,141639.0,-0.0,-5942328.0,-6083967.0,-0.0,7132727.0,-0.0,21484115.0,0.0,-3644502.0,-19186289.0,0.0
2011-12-31,95517.0,1436840.0,-16671383.0,52868.0,-0.0,2510189.0,9395924.0,-0.0,-17988590.0,-0.0,18939619.0,0.0,11664160.0,-16724251.0,0.0
2010-12-31,107666.0,1664538.0,-14544090.0,-315751.0,8961248.0,2182139.0,10827636.0,0.0,147294.0,0.0,147294.0,0.0,-3569160.0,-14859841.0,0.2443
2009-12-31,475316.0,2910638.0,-12114264.0,-75520.0,1224951.0,-22750000.0,-21600569.0,0.0,18566651.0,0.0,18566651.0,0.0,-15148182.0,-12189784.0,0.2677
