,0,1,2,3,4,5,6,7,8,9,10,11,12,13,14
Date,Depreciation & Amortization,Stock-based compensation,Operating Cash Flow,Capital Expenditure,Acquisitions and disposals,Investment purchases and sales,Investing Cash flow,Issuance (repayment) of debt,Issuance (buybacks) of shares,Dividend payments,Financing Cash Flow,Effect of forex changes on cash,Net cash flow / Change in cash,Free Cash Flow,Net Cash/Marketcap
2018-12-31,2004000.0,355000.0,-11975000.0,-133000.0,0.0,0.0,-133000.0,0.0,8766000.0,0.0,7168000.0,16000.0,-4924000.0,-12108000.0,-2.325
2017-12-31,2151000.0,753000.0,-18128000.0,-295000.0,-1201000.0,0.0,-1383000.0,-4720000.0,23613000.0,0.0,16815000.0,11000.0,-2685000.0,-18423000.0,-0.3337
2016-12-31,1182000.0,1080000.0,-19533000.0,-67000.0,0.0,0.0,64000.0,0.0,21467000.0,0.0,17609000.0,82000.0,-1778000.0,-19600000.0,-0.1441
2015-12-31,1093000.0,2041000.0,-20468000.0,-611000.0,0.0,0.0,-613000.0,-7332000.0,34051000.0,0.0,20797000.0,0.0,-284000.0,-21079000.0,-0.0714
2014-12-31,779000.0,3101000.0,-30330000.0,-764000.0,0.0,0.0,-1343000.0,-1962000.0,23152000.0,0.0,30874000.0,-85000.0,-884000.0,-31094000.0,-0.2424
2013-12-31,1630000.0,3608000.0,-34563000.0,-519000.0,5000.0,0.0,3686000.0,4696000.0,18225000.0,0.0,20772000.0,-106000.0,-10211000.0,-35082000.0,-0.0634
2012-12-31,933000.0,3904000.0,-32193000.0,-1204000.0,0.0,0.0,-1204000.0,-2692000.0,26366000.0,0.0,22192000.0,0.0,-11205000.0,-33397000.0,0.0215
2011-12-31,855000.0,3316000.0,-35323000.0,-560000.0,0.0,0.0,-560000.0,4915000.0,16135000.0,0.0,20137000.0,0.0,-15746000.0,-35883000.0,0.1067
2010-12-31,931000.0,3055000.0,-23574000.0,-610000.0,-330000.0,0.0,-1290000.0,14546000.0,52614000.0,0.0,64678000.0,0.0,39814000.0,-24184000.0,0.1334
2009-12-31,1681000.0,2649000.0,-23807000.0,-221000.0,0.0,0.0,-221000.0,-2053000.0,27660000.0,0.0,24271000.0,0.0,243000.0,-24028000.0,0.0327
