,0,1,2,3,4,5,6,7,8,9,10,11,12,13,14,15,16,17,18,19,20,21,22,23,24,25,26,27,28,29,30
Date,Revenue,Revenue Growth,Cost of Revenue,Gross Profit,R&D Expenses,SG&A Expense,Operating Expenses,Operating Income,Interest Expense,Earnings before Tax,Income Tax Expense,Net Income - Non-Controlling int,Net Income - Discontinued ops,Net Income,Preferred Dividends,Net Income Com,EPS,EPS Diluted,Weighted Average Shs Out,Weighted Average Shs Out (Dil),Dividend per Share,Gross Margin,EBITDA Margin,EBIT Margin,Profit Margin,Free Cash Flow margin,EBITDA,EBIT,Consolidated Income,Earnings Before Tax Margin,Net Profit Margin
2019-12-31,2754000.0,0.0816967792616,0.0,0.0,0.0,0.0,0.0,23409000.0,10283000.0,23409000.0,3905000.0,0.0,0.0,19504000.0,0.0,19504000.0,1.46,1.46,13298736.0,13321559.0,1.05400576614,0.0,8.511982570810002,8.5,7.082062454610001,7.11365286855,23442000.0,23409000.0,19504000.0,8.5,7.082062454610001
2018-12-31,2546000.0,-0.93930580719,0.0,0.0,0.0,0.0,0.0,26263000.0,4625000.0,26263000.0,4250000.0,0.0,0.0,22013000.0,0.0,22013000.0,1.79,1.79,12219209.0,12257368.0,0.958280766311,0.0,10.5942655145,10.315396700700001,8.64611154753,9.711311861739999,26973000.0,26263000.0,22013000.0,10.315396700700001,8.64611154753
2017-12-31,41948000.0,0.0381883430269,0.0,0.0,0.0,0.0,0.0,20590000.0,3915000.0,20590000.0,7156000.0,0.0,0.0,13434000.0,0.0,13434000.0,1.1,1.1,12115840.0,12155136.0,0.916896363809,0.0,0.5023362258030001,0.490845809097,0.320253647373,0.42140268904399997,21072000.0,20590000.0,13434000.0,0.490845809097,0.320253647373
2016-12-31,40405000.0,0.0122253676378,0.0,0.0,0.0,0.0,0.0,21109000.0,3693000.0,21109000.0,5347000.0,0.0,0.0,15762000.0,0.0,15762000.0,1.3,1.3,12098129.0,12128364.0,0.916199414859,0.0,0.532508352927,0.522435342161,0.390100235119,0.41900754857100003,21516000.0,21109000.0,15762000.0,0.522435342161,0.390100235119
2015-12-31,39917000.0,-0.023723922029,0.0,0.0,0.0,0.0,0.0,21808000.0,4602000.0,21808000.0,5337000.0,0.0,0.0,16471000.0,0.0,16471000.0,1.35,1.35,12211941.0,12233773.0,0.919176774001,0.0,0.554525640704,0.5463336423080001,0.41263120975999995,0.467144324473,22135000.0,21808000.0,16471000.0,0.5463336423080001,0.41263120975999995
2014-12-31,40887000.0,1.0,0.0,0.0,0.0,0.0,0.0,22778000.0,5122000.0,22778000.0,5692000.0,0.0,0.0,17086000.0,0.0,17086000.0,1.38,1.38,12390067.0,12412050.0,0.9178177658,0.0,0.571770978551,0.557096387605,0.417883434833,0.525350355859,23378000.0,22778000.0,17086000.0,0.557096387605,0.417883434833
2013-12-31,0.0,-1.0,0.0,0.0,0.0,0.0,0.0,18594000.0,5765000.0,24777000.0,6183000.0,0.0,0.0,18594000.0,0.0,18594000.0,1.51,1.5,12352383.0,12382790.0,0.881546081295,0.0,0.0,0.0,0.0,0.0,18952000.0,18594000.0,18594000.0,0.0,0.0
2012-12-31,47601000.0,-0.00207547169811,0.0,0.0,0.0,0.0,105000.0,31131000.0,9031000.0,31131000.0,8426000.0,0.0,0.0,22705000.0,0.0,22705000.0,1.86,1.85,12235748.0,12260208.0,0.7390576081579999,0.0,0.664082687339,0.65399886557,0.47698577761000005,0.546837251318,31611000.0,31131000.0,22705000.0,0.65399886557,0.47698577761000005
2011-12-31,47700000.0,-0.153429763067,0.0,0.0,0.0,0.0,0.0,32082000.0,13556000.0,32082000.0,8714000.0,0.0,0.0,23368000.0,0.0,23368000.0,1.92,1.92,0.0,0.0,0.0,0.0,0.6915932914049999,0.6725786163519999,0.489895178197,0.764486373166,32989000.0,32082000.0,23368000.0,0.6725786163519999,0.489895178197
2010-12-31,56345000.0,-3.01383180242,0.0,56345000.0,0.0,21651000.0,31490000.0,24855000.0,0.0,24855000.0,5800000.0,0.0,0.0,19055000.0,1474000.0,17581000.0,1.45,1.45,12142757.0,12142757.0,0.39,1.0,0.486,0.4411,0.312,0.6113,27382000.0,24855000.0,19055000.0,0.4411,0.3382
2009-12-31,-27979000.0,-1.6072,0.0,-27979000.0,0.0,22113000.0,34011000.0,-61990000.0,0.0,-61990000.0,-22655000.0,0.0,0.0,-39335000.0,1428000.0,-40763000.0,-4.4,-4.4,9235611.0,9235611.0,0.72,1.0,2.103,2.2156,1.4569999999999999,-0.4187,-58850000.0,-61990000.0,-39335000.0,2.2156,1.4059
