,0,1,2,3,4,5,6,7,8,9,10,11,12,13,14
Date,Depreciation & Amortization,Stock-based compensation,Operating Cash Flow,Capital Expenditure,Acquisitions and disposals,Investment purchases and sales,Investing Cash flow,Issuance (repayment) of debt,Issuance (buybacks) of shares,Dividend payments,Financing Cash Flow,Effect of forex changes on cash,Net cash flow / Change in cash,Free Cash Flow,Net Cash/Marketcap
2019-12-31,3422000000.0,46000000.0,5204000000.0,4980000000.0,-0.0,-37000000.0,-4622000000.0,-9116000000.0,2349000000.0,-2983000000.0,-704000000.0,0.0,-122000000.0,224000000.0,0.0
2018-12-31,2280000000.0,48000000.0,4773000000.0,4254000000.0,-0.0,-90000000.0,-2358000000.0,-5682000000.0,2193000000.0,-2185000000.0,-2209000000.0,0.0,206000000.0,519000000.0,0.0
2017-12-31,2202000000.0,45000000.0,4549000000.0,5504000000.0,-0.0,-109000000.0,-5993000000.0,-1572000000.0,1182000000.0,-1931000000.0,1303000000.0,0.0,-141000000.0,-955000000.0,0.0
2016-12-31,2053000000.0,33000000.0,4127000000.0,6085000000.0,-0.0,-1546000000.0,-10703000000.0,-1610000000.0,1891000000.0,-1727000000.0,6230000000.0,0.0,-346000000.0,-1958000000.0,0.0
2015-12-31,1886000000.0,39000000.0,4475000000.0,5575000000.0,-497000000.0,-1338000000.0,-6503000000.0,-892000000.0,179000000.0,-1536000000.0,2317000000.0,0.0,289000000.0,-1100000000.0,0.0
2014-12-31,2852000000.0,39000000.0,3439000000.0,5345000000.0,-0.0,-1266000000.0,-5181000000.0,-3993000000.0,-113000000.0,-1398000000.0,1744000000.0,0.0,2000000.0,-1906000000.0,0.0
2013-12-31,1390000000.0,31000000.0,3433000000.0,4104000000.0,-0.0,-31000000.0,-3458000000.0,-1245000000.0,278000000.0,-1302000000.0,93000000.0,0.0,68000000.0,-671000000.0,0.0
2012-12-31,1443000000.0,25000000.0,4137000000.0,4145000000.0,-0.0,-1404000000.0,-3840000000.0,-1675000000.0,265000000.0,-1209000000.0,-151000000.0,0.0,146000000.0,-8000000.0,0.0
2011-12-31,1288000000.0,0.0,2983000000.0,3652000000.0,-0.0,-2452000000.0,-3321000000.0,-637000000.0,-563000000.0,-1129000000.0,378000000.0,0.0,40000000.0,-669000000.0,0.0
2010-12-31,1940000000.0,0.0,1825000000.0,3384000000.0,-0.0,-3751000000.0,419000000.0,1492000000.0,-826000000.0,-1076000000.0,-2232000000.0,0.0,12000000.0,-1559000000.0,0.0
2009-12-31,1319000000.0,0.0,3786000000.0,-3837000000.0,131000000.0,-33000000.0,-3695000000.0,513000000.0,456000000.0,-1039000000.0,-112000000.0,0.0,-21000000.0,-51000000.0,-0.72
