,0,1,2,3,4,5,6,7,8,9,10,11,12,13,14,15,16,17,18,19,20,21,22,23,24,25,26,27,28
Date,Cash and cash equivalents,Short-term investments,Cash and short-term investments,Receivables,Inventories,Total current assets,Property Plant & Equipment Net,Goodwill and Intangible Assets,Long-term investments,Tax assets,Total non-current assets,Total assets,Payables,Short-term debt,Total current liabilities,Long-term debt,Total debt,Deferred revenue,Tax Liabilities,Deposit Liabilities,Total non-current liabilities,Total liabilities,Other comprehensive income,Retained earnings (deficit),Total shareholders equity,Investments,Net Debt,Other Assets,Other Liabilities
2018-12-31,77275000.0,0.0,77275000.0,27195000.0,8884000.0,119750000.0,2480329000.0,0.0,7363000.0,0.0,2560092000.0,2679842000.0,10477000.0,113777000.0,222701000.0,1508108000.0,1621885000.0,61483000.0,0.0,0.0,1766288000.0,1988989000.0,-118710000.0,81849000.0,690853000.0,7363000.0,1544610000.0,-9354000.0,98447000.0
2017-12-31,69707000.0,0.0,69707000.0,40509000.0,8841000.0,125999000.0,2795971000.0,0.0,5998000.0,0.0,2860397000.0,2986396000.0,11371000.0,2329601000.0,2379839000.0,0.0,2329601000.0,79012000.0,0.0,0.0,57852000.0,2437691000.0,-114076000.0,114785000.0,548705000.0,5998000.0,,,38867000.0
2016-12-31,76529000.0,0.0,76529000.0,40631000.0,11395000.0,135954000.0,2906721000.0,0.0,5033000.0,0.0,2991110000.0,3127064000.0,11156000.0,2504932000.0,2566281000.0,0.0,2504932000.0,98313000.0,0.0,0.0,73070000.0,2639351000.0,-91163000.0,30880000.0,487713000.0,5033000.0,,,50193000.0
2015-12-31,75071000.0,0.0,75071000.0,29659000.0,11040000.0,127570000.0,3452587000.0,0.0,11289000.0,0.0,3534551000.0,3662121000.0,12971000.0,269979000.0,312145000.0,2470417000.0,2740396000.0,34279000.0,0.0,0.0,2508062000.0,2820207000.0,-103081000.0,397075000.0,841914000.0,11289000.0,,,29195000.0
2014-12-31,60554000.0,0.0,60554000.0,18501000.0,11665000.0,103073000.0,3624338000.0,0.0,0.0,0.0,3748119000.0,3851192000.0,12510000.0,224646000.0,328082000.0,2790841000.0,3015487000.0,44131000.0,0.0,0.0,2834961000.0,3163043000.0,-139742000.0,280059000.0,688149000.0,0.0,,,90926000.0
2013-12-31,82870000.0,0.0,82870000.0,22497000.0,14496000.0,126866000.0,3842617000.0,0.0,0.0,0.0,3939686000.0,4066552000.0,13124000.0,203850000.0,369888000.0,3030008000.0,3233858000.0,7305000.0,0.0,0.0,3098188000.0,3468076000.0,-232697000.0,283979000.0,598476000.0,0.0,,,152914000.0
2012-12-31,58449000.0,0.0,58449000.0,16405000.0,17731000.0,98673000.0,3986138000.0,0.0,430000.0,0.0,4113372000.0,4212045000.0,13982000.0,182464000.0,365252000.0,3219226000.0,3401690000.0,5447000.0,0.0,0.0,3406489000.0,3771741000.0,-353271000.0,246456000.0,440304000.0,430000.0,,,168806000.0
2011-12-31,54271000.0,0.0,54271000.0,13304000.0,16187000.0,93291000.0,3766237000.0,0.0,0.0,0.0,3894813000.0,3988104000.0,15144000.0,52816000.0,231693000.0,3014576000.0,3067392000.0,6993000.0,0.0,0.0,3313876000.0,3545569000.0,-456105000.0,351660000.0,442535000.0,0.0,,,163733000.0
2010-12-31,232742000.0,0.0,232742000.0,15218000.0,9918000.0,266830000.0,3177904000.0,0.0,0.0,0.0,3222300000.0,3489130000.0,14748000.0,21619000.0,246497000.0,2543907000.0,2565526000.0,11397000.0,0.0,0.0,2850221000.0,3096718000.0,-436566000.0,338223000.0,392412000.0,0.0,,,210130000.0
2009-12-31,276128000.0,0.0,276128000.0,12379000.0,7653000.0,300504000.0,2767847000.0,0.0,44393000.0,0.0,2842207000.0,3142711000.0,49542000.0,2331678000.0,2518007000.0,0.0,2331678000.0,9540000.0,0.0,0.0,219113000.0,2737120000.0,-324093000.0,440564000.0,405591000.0,44393000.0,,,136787000.0
