,0,1,2,3,4,5,6,7,8,9,10,11,12,13,14
Date,Depreciation & Amortization,Stock-based compensation,Operating Cash Flow,Capital Expenditure,Acquisitions and disposals,Investment purchases and sales,Investing Cash flow,Issuance (repayment) of debt,Issuance (buybacks) of shares,Dividend payments,Financing Cash Flow,Effect of forex changes on cash,Net cash flow / Change in cash,Free Cash Flow,Net Cash/Marketcap
2019-12-31,2581000000.0,161000000.0,8425000000.0,4880000000.0,-0.0,-2027000000.0,-4563000000.0,-3320000000.0,-2027000000.0,-980000000.0,-2880000000.0,0.0,2882000000.0,3545000000.0,0.0
2018-12-31,2329000000.0,159000000.0,7014000000.0,5168000000.0,-0.0,-1575000000.0,-3723000000.0,-3052000000.0,-1575000000.0,-909000000.0,-1726000000.0,0.0,1565000000.0,1846000000.0,0.0
2017-12-31,2235000000.0,108000000.0,5148000000.0,3891000000.0,-0.0,-1677000000.0,-5366000000.0,-1894000000.0,-1677000000.0,-731000000.0,-730000000.0,0.0,-948000000.0,1257000000.0,0.0
2016-12-31,1902000000.0,105000000.0,7205000000.0,3391000000.0,-0.0,-2601000000.0,-2155000000.0,-1920000000.0,-2601000000.0,-509000000.0,-4260000000.0,0.0,790000000.0,3814000000.0,0.0
2015-12-31,1835000000.0,76000000.0,7927000000.0,2945000000.0,-0.0,-3198000000.0,-3955000000.0,-2558000000.0,-2200000000.0,-359000000.0,-4088000000.0,0.0,-116000000.0,4982000000.0,0.0
2014-12-31,1830000000.0,81000000.0,4947000000.0,2249000000.0,-0.0,-2895000000.0,-2463000000.0,-2928000000.0,-1100000000.0,-251000000.0,-3240000000.0,0.0,-756000000.0,2698000000.0,0.0
2013-12-31,1812000000.0,90000000.0,4504000000.0,2568000000.0,-0.0,-250000000.0,-2756000000.0,-1461000000.0,-250000000.0,-102000000.0,-1320000000.0,0.0,428000000.0,1936000000.0,0.0
2012-12-31,1758000000.0,54000000.0,2476000000.0,0.0,-0.0,-958000000.0,-1962000000.0,-2864000000.0,-2416000000.0,-0.0,-755000000.0,0.0,-241000000.0,2476000000.0,0.0
2011-12-31,1716000000.0,72000000.0,2834000000.0,0.0,-0.0,-1078000000.0,-1498000000.0,-4172000000.0,-2657000000.0,-0.0,-1571000000.0,0.0,-235000000.0,2834000000.0,0.0
2010-12-31,0.0,0.0,0.0,0.0,-0.0,0.0,0.0,-0.0,0.0,-0.0,0.0,0.0,0.0,0.0,0.0
2009-12-31,1536000000.0,108000000.0,1379000000.0,-1202000000.0,0.0,256000000.0,-1008000000.0,75000000.0,0.0,0.0,-19000000.0,0.0,352000000.0,177000000.0,-1.3637
