,0,1,2,3,4,5,6,7,8,9,10,11,12,13,14
Date,Depreciation & Amortization,Stock-based compensation,Operating Cash Flow,Capital Expenditure,Acquisitions and disposals,Investment purchases and sales,Investing Cash flow,Issuance (repayment) of debt,Issuance (buybacks) of shares,Dividend payments,Financing Cash Flow,Effect of forex changes on cash,Net cash flow / Change in cash,Free Cash Flow,Net Cash/Marketcap
2018-12-30,1264000.0,278000.0,3877000.0,-953000.0,-229000.0,-750000.0,-745000.0,-6758000.0,5640000.0,0.0,-1118000.0,0.0,2014000.0,2924000.0,0.2077
2017-12-31,2785000.0,313000.0,3129000.0,-378000.0,0.0,0.0,1222000.0,-1553000.0,1464000.0,0.0,-89000.0,0.0,4262000.0,2751000.0,-0.0002
2017-01-01,2873000.0,339000.0,344000.0,-647000.0,0.0,0.0,1460000.0,-2653000.0,-1000.0,0.0,-2654000.0,0.0,-850000.0,-303000.0,-0.1878
2016-01-03,4452000.0,242000.0,1984000.0,-3197000.0,0.0,0.0,4245000.0,2466000.0,-5672000.0,0.0,-3062000.0,0.0,3167000.0,-1213000.0,-0.1812
2014-12-28,5183000.0,-1994000.0,12679000.0,-1568000.0,95000.0,0.0,-2790000.0,-7421000.0,-2805000.0,0.0,-9049000.0,0.0,840000.0,11111000.0,-0.0495
2013-12-29,5253000.0,989000.0,15600000.0,-6428000.0,0.0,0.0,-6813000.0,-3204000.0,-6877000.0,0.0,-9568000.0,0.0,-781000.0,9172000.0,-0.1293
2012-12-30,6000000.0,274000.0,9626000.0,-6712000.0,1200000.0,60000.0,-5473000.0,1633000.0,-5850000.0,0.0,-3227000.0,0.0,926000.0,2914000.0,-0.2941
2012-01-01,5616000.0,1179000.0,11852000.0,-5506000.0,0.0,378000.0,-5128000.0,-2776000.0,-5534000.0,0.0,-8230000.0,0.0,-1506000.0,6346000.0,-0.2522
2011-01-02,5547000.0,1154000.0,13884000.0,-5296000.0,-6822000.0,428000.0,-11754000.0,5860000.0,-8394000.0,0.0,-2472000.0,0.0,-342000.0,8588000.0,-0.2272
2010-01-03,5191000.0,1268000.0,14521000.0,-1984000.0,0.0,54000.0,-1930000.0,-11587000.0,-131000.0,0.0,-11282000.0,0.0,1309000.0,12537000.0,-0.2643
