,0,1,2,3,4,5,6,7,8,9,10,11,12,13,14,15,16,17,18,19,20,21,22,23,24,25,26,27,28,29,30
Date,Revenue,Revenue Growth,Cost of Revenue,Gross Profit,R&D Expenses,SG&A Expense,Operating Expenses,Operating Income,Interest Expense,Earnings before Tax,Income Tax Expense,Net Income - Non-Controlling int,Net Income - Discontinued ops,Net Income,Preferred Dividends,Net Income Com,EPS,EPS Diluted,Weighted Average Shs Out,Weighted Average Shs Out (Dil),Dividend per Share,Gross Margin,EBITDA Margin,EBIT Margin,Profit Margin,Free Cash Flow margin,EBITDA,EBIT,Consolidated Income,Earnings Before Tax Margin,Net Profit Margin
2018-12-31,28495402298.8506,-0.0843393852971,0.0,28495402298.8506,0.0,26551724137.931,26965517241.3793,1529885057.4713,0.0,1443678160.9195,1136781609.1954,86206896.5517,0.0,306896551.7241,0.0,306896551.7241,-0.0115,-0.0115,2375174759.7701,2416321839.0805,0.1483,1.0,0.0586,0.0507,0.0126,-2.1853,1443678160.9195,1443678160.9195,391954022.9885,0.0507,0.0108
2017-12-31,31120048019.2077,0.0325886493049,0.0,31120048019.2077,0.0,29082833133.2533,29644657863.1453,1475390156.0624,0.0,1454981992.7971,2356542617.0468,18007202.8812,0.0,-901560624.2497,0.0,-901560624.2497,-0.6363,-0.6363,1655545845.1381,2362184873.9496,0.0,1.0,0.0564,0.0468,-0.0348,1.5123,1454981992.7971,1454981992.7971,-882352941.1765,0.0468,-0.028999999999999998
2016-12-31,30137894736.8421,-0.147747826073,393684210.5263,29744210526.3158,0.0,28766315789.4737,30597894736.8421,-853684210.5263,0.0,-901052631.5789,574736842.1053,47368421.0526,0.0,-1475789473.6842,0.0,-1475789473.6842,-1.1368,-1.1368,1451471860.0,1637157894.7368,0.0,0.9869,-0.0316,-0.0299,-0.0516,2.4481,-901052631.5789,-901052631.5789,-1427368421.0526,-0.0299,-0.049
2015-12-31,35362649294.2454,-0.052099681419900006,277958740.4995,35084690553.7459,0.0,34663409337.6764,41705754614.5494,-6621064060.8035,0.0,-6643865363.7351,732899022.8013,22801302.9316,0.0,-7376764386.5364,0.0,-7376764386.5364,-4.9077,-4.9077,1497309390.8795,1688490770.9012,0.9034,0.9921,-0.2041,-0.1879,-0.2269,2.06,-6643865363.7351,-6643865363.7351,-7352877307.2747,-0.1879,-0.2086
2014-12-31,37306295399.5157,-0.09143155152429999,349878934.6247,36956416464.891,0.0,32888619854.7215,33184019370.46,3772397094.4309998,0.0,3738498789.3462,1725181598.063,33898305.0847,0.0,2013317191.2833,0.0,2013317191.2833,1.6223,1.5859999999999999,1234052949.1525,1503510895.8838,1.2421,0.9906,0.1211,0.1002,0.0654,0.0492,3738498789.3462,3738498789.3462,2047215496.3679998,0.1002,0.054000000000000006
2013-12-31,41060522696.011,-0.027834571183000003,632737276.4787,40427785419.5323,0.0,37764786795.0481,38422283356.2586,2005502063.2737,0.0,1982118294.3604,1066024759.2847,20632737.2765,0.0,916093535.0757,0.0,916093535.0757,0.8803,0.8528,1278107149.9312,1437964236.5887,1.3274,0.9846,0.066,0.0483,0.0303,0.2281,1982118294.3604,1982118294.3604,936726272.3521,0.0483,0.0223
2012-12-31,42236147757.2559,0.0387812949951,546174142.4802,41689973614.7757,0.0,37608179419.5251,40616094986.8074,1073878627.9683,0.0,1003957783.6412,656992084.4327,69920844.3272,0.0,346965699.2084,0.0,346965699.2084,0.3562,0.34299999999999997,1193417732.19,1291556728.2322,1.2243,0.9871,0.0317,0.0238,0.0106,-0.7612,1003957783.6412,1003957783.6412,416886543.5356,0.0238,0.0082
2011-12-31,40659326424.8705,0.114321480446,268134715.0259,40391191709.8446,0.0,33409326424.8705,33409326424.8705,6981865284.9741,0.0,6730569948.1865,1378238341.9689,251295336.7876,0.0,5352331606.2176,0.0,5352331606.2176,5.7642,5.5699,1190495284.9741,1202072538.8601,1.3821,0.9934,0.215,0.1655,0.171,0.2265,6730569948.1865,6730569948.1865,5603626943.0052,0.1655,0.1316
2010-12-31,36487967914.4385,0.00434853630691,648395721.9251,35839572192.5134,0.0,30486631016.0428,30525401069.5187,5314171122.9947,0.0,5287433155.0802,2199197860.9626,26737967.9144,0.0,3088235294.1176,0.0,3088235294.1176,4.1043,3.9037,829111390.3743,1007085561.4973,1.2299,0.9822,0.1939,0.1449,0.1136,-0.1627,5287433155.0802,5287433155.0802,3114973262.0321,0.1449,0.0846
2009-12-31,36329985652.7977,1.0806,777618364.4189,35552367288.3788,0.0,28281205164.9928,28088952654.2324,7463414634.1463,0.0,7484935437.5897,350071736.0115,-21520803.4433,0.0,7134863701.5782,0.0,7134863701.5782,10.3443,9.957,807269662.8407,989096126.2554,1.0014,0.9786,0.2956,0.20600000000000002,0.2812,-0.5663,7484935437.5897,7484935437.5897,7113342898.1349,0.20600000000000002,0.1964
