,0,1,2,3,4,5,6,7,8,9,10,11,12,13,14,15,16,17,18,19,20,21,22,23,24,25,26,27,28,29,30
Date,Revenue,Revenue Growth,Cost of Revenue,Gross Profit,R&D Expenses,SG&A Expense,Operating Expenses,Operating Income,Interest Expense,Earnings before Tax,Income Tax Expense,Net Income - Non-Controlling int,Net Income - Discontinued ops,Net Income,Preferred Dividends,Net Income Com,EPS,EPS Diluted,Weighted Average Shs Out,Weighted Average Shs Out (Dil),Dividend per Share,Gross Margin,EBITDA Margin,EBIT Margin,Profit Margin,Free Cash Flow margin,EBITDA,EBIT,Consolidated Income,Earnings Before Tax Margin,Net Profit Margin
2018-12-31,0.0,0.0,0.0,0.0,123185057.4713,84560919.5402,207745977.0115,-207745977.0115,403448.2759,-190874712.6437,17241.3793,0.0,0.0,-190891954.023,0.0,-190891954.023,-6.5977,-6.5977,28725082.7586,28725082.7586,0.0,0.0,-239.3442,0.0,-240.1281,0.0,-190471264.3678,-190471264.3678,-190891954.023,0.0,0.0
2017-12-31,0.0,0.0,0.0,0.0,126328931.5726,62018007.2029,188346938.7755,-188346938.7755,3991596.6387,-177301320.5282,1200.4802,0.0,0.0,-177302521.0084,0.0,-177302521.0084,-7.1669,-7.1669,29590429.7719,29590429.7719,0.0,0.0,-134.2276,0.0,-137.7736,0.0,-173309723.8896,-173309723.8896,-177302521.0084,0.0,0.0
2016-12-31,0.0,-1.0,0.0,0.0,82976842.1053,48723157.8947,131700000.0,-131700000.0,16842.1053,-120558947.3684,0.0,0.0,0.0,-120558947.3684,0.0,-120558947.3684,-4.9263,-4.9263,25479083.1579,25479083.1579,0.0,0.0,-143.1513,0.0,-145.9106,0.0,-120542105.2632,-120542105.2632,-120558947.3684,0.0,0.0
2015-12-31,219326.8187,-0.141403069961,138979.3702,80347.4484,37170466.8838,18838219.3268,56008686.2106,-55928338.7622,158523.3442,-48505971.7698,0.0,0.0,0.0,-48505971.7698,0.0,-48505971.7698,-2.2584,-2.2584,20804192.1824,20804192.1824,0.0,0.3663,-95.376,-220.4356,-97.6966,-154.8069,-48347448.4256,-48347448.4256,-48505971.7698,-221.1584,-221.1584
2014-12-31,255447.9419,0.020388207294700002,164648.9104,90799.0315,25596852.3002,9828087.1671,35424939.4673,-35334140.4358,124697.3366,-29070217.9177,0.0,0.0,0.0,-29070217.9177,0.0,-29070217.9177,-1.8039,-1.8039,23196926.1501,23196926.1501,0.0,0.3555,,-113.3128,,-102.0474,-28322033.8983,-28945520.5811,-29070217.9177,-113.8009,-113.8009
2013-12-31,250343.879,0.0883267968687,140302.6135,110041.2655,23887207.7029,8679504.8143,32566712.5172,-32456671.2517,33012.3796,-26555708.3906,0.0,0.0,0.0,-26555708.3906,0.0,-26555708.3906,-1.9532,-1.9532,,,0.0,0.4396,,-105.9451,,-79.2527,-26053645.1169,-26522696.011,-26555708.3906,-106.0769,-106.0769
2012-12-31,230026.3852,,109443.2718,120583.1135,15170670.1847,6066885.2243,21237555.409,-21116972.2955,33255.9367,-17034432.7177,0.0,0.0,0.0,-17034432.7177,0.0,-17034432.7177,-1.3852,-1.3852,,,0.0,0.5242,,-73.9097,,-61.9063,-16629748.0211,-17001176.781,-17034432.7177,-74.0543,-74.0543
