,0,1,2,3,4,5,6,7,8,9,10,11,12,13,14
Date,Depreciation & Amortization,Stock-based compensation,Operating Cash Flow,Capital Expenditure,Acquisitions and disposals,Investment purchases and sales,Investing Cash flow,Issuance (repayment) of debt,Issuance (buybacks) of shares,Dividend payments,Financing Cash Flow,Effect of forex changes on cash,Net cash flow / Change in cash,Free Cash Flow,Net Cash/Marketcap
2018-03,362000000.0,,880000000.0,-59000000.0,-2000000.0,0.0,58000000.0,-805000000.0,,,-992000000.0,-0.0,-53000000.0,821000000.0,
2017-03,377000000.0,,259000000.0,-277000000.0,0.0,0.0,-143000000.0,-462000000.0,,,-103000000.0,-2000000.0,11000000.0,-18000000.0,
2016-03,365000000.0,,570000000.0,-220000000.0,0.0,0.0,-256000000.0,-344000000.0,,,-323000000.0,0.0,-9000000.0,350000000.0,
2015-03,409000000.0,,644000000.0,-585000000.0,0.0,21000000.0,-535000000.0,-361000000.0,,,-62000000.0,0.0,46000000.0,59000000.0,
2014-03,226000000.0,,550000000.0,-1037000000.0,0.0,34000000.0,-957000000.0,-259000000.0,,,399000000.0,0.0,-8000000.0,-487000000.0,
