,0,1,2,3,4,5,6,7,8,9,10,11,12,13,14,15,16,17,18,19,20,21,22,23,24,25,26,27,28
Date,Cash and cash equivalents,Short-term investments,Cash and short-term investments,Receivables,Inventories,Total current assets,Property Plant & Equipment Net,Goodwill and Intangible Assets,Long-term investments,Tax assets,Total non-current assets,Total assets,Payables,Short-term debt,Total current liabilities,Long-term debt,Total debt,Deferred revenue,Tax Liabilities,Deposit Liabilities,Total non-current liabilities,Total liabilities,Other comprehensive income,Retained earnings (deficit),Total shareholders equity,Investments,Net Debt,Other Assets,Other Liabilities
2019-12-31,155488000.0,550995000.0,706483000.0,0.0,0.0,706483000.0,21692000.0,0.0,0.0,13292000.0,5647977000.0,6354460000.0,0.0,115000000.0,115000000.0,1092250000.0,1207250000.0,0.0,0.0,4282625000.0,1111360000.0,5757702000.0,20344000.0,581817000.0,596758000.0,550995000.0,1051762000.0,0.0,4531342000.0
2018-12-31,147256000.0,5667000.0,152923000.0,0.0,0.0,152923000.0,24713000.0,0.0,0.0,11394000.0,6167655000.0,6320578000.0,0.0,0.0,0.0,1125350000.0,1125350000.0,0.0,0.0,4356754000.0,1131187000.0,5718497000.0,42331000.0,565713000.0,602081000.0,5667000.0,978094000.0,0.0,4587310000.0
2017-12-31,169455000.0,355390000.0,524845000.0,0.0,0.0,524845000.0,24326000.0,0.0,0.0,9228000.0,5878615000.0,6403460000.0,0.0,0.0,0.0,1170000000.0,1170000000.0,0.0,0.0,4403447000.0,1177198000.0,5804893000.0,66542000.0,535130000.0,598567000.0,355390000.0,1000545000.0,0.0,4627695000.0
2016-12-31,113503000.0,7453000.0,120956000.0,0.0,0.0,120956000.0,18405000.0,0.0,0.0,22265000.0,5884474000.0,6005430000.0,0.0,70680000.0,70680000.0,831125000.0,901805000.0,0.0,0.0,4395426000.0,835902000.0,5439562000.0,67732000.0,503539000.0,565868000.0,7453000.0,788302000.0,0.0,4532980000.0
2015-12-31,64154000.0,3756000.0,67910000.0,485909000.0,0.0,553819000.0,15150000.0,0.0,0.0,25766000.0,4479053000.0,5032872000.0,0.0,70680000.0,70680000.0,1166725000.0,1237405000.0,0.0,0.0,3184310000.0,1170601000.0,4538925000.0,50609000.0,451606000.0,493947000.0,3756000.0,1173251000.0,0.0,3297644000.0
2014-12-31,78437000.0,3806000.0,82243000.0,1829000.0,0.0,84072000.0,25065000.0,0.0,0.0,32396000.0,4413035000.0,4497107000.0,0.0,70680000.0,70680000.0,1173725000.0,1244405000.0,0.0,0.0,2659792000.0,1174724000.0,4037382000.0,40617000.0,427126000.0,459725000.0,3806000.0,1165968000.0,0.0,2791978000.0
2013-12-31,45777000.0,18649000.0,64426000.0,2139000.0,0.0,66565000.0,26077000.0,0.0,0.0,29865000.0,3961625000.0,4028190000.0,0.0,70680000.0,70680000.0,910000000.0,980680000.0,0.0,0.0,2507146000.0,911654000.0,3592684000.0,36751000.0,402986000.0,435506000.0,18649000.0,934903000.0,0.0,2610350000.0
2012-12-31,79076000.0,32950000.0,112026000.0,2423000.0,0.0,114449000.0,30518000.0,0.0,0.0,32950000.0,3790950000.0,3905399000.0,0.0,70680000.0,70680000.0,0.0,70680000.0,0.0,0.0,2479429000.0,655000.0,3513825000.0,21528000.0,379166000.0,391574000.0,32950000.0,-8396000.0,0.0,3442490000.0
2011-12-31,44260000.0,174868000.0,219128000.0,0.0,0.0,219128000.0,32646000.0,0.0,0.0,0.0,3802052000.0,4021180000.0,0.0,70680000.0,70680000.0,0.0,70680000.0,0.0,0.0,2343701000.0,0.0,3660146000.0,12148000.0,358079000.0,361034000.0,174868000.0,26420000.0,0.0,3589466000.0
2010-12-31,90729000.0,,,0.0,0.0,,31613000.0,55638000.0,,0.0,,4040295000.0,0.0,,,,1185525000.0,0.0,0.0,2419123000.0,,3711561000.0,-6352000.0,329668000.0,328734000.0,3744335000.0,,,
2009-12-31,39338000.0,,,0.0,0.0,,29841000.0,55638000.0,,0.0,,3952274000.0,0.0,,,,1264675000.0,0.0,0.0,2282731000.0,,3657501000.0,-5082000.0,306787000.0,294773000.0,3707213000.0,,,
