,0,1,2,3,4,5,6,7,8,9,10,11,12,13,14,15,16,17,18,19,20,21,22,23,24,25,26,27,28,29,30
Date,Revenue,Revenue Growth,Cost of Revenue,Gross Profit,R&D Expenses,SG&A Expense,Operating Expenses,Operating Income,Interest Expense,Earnings before Tax,Income Tax Expense,Net Income - Non-Controlling int,Net Income - Discontinued ops,Net Income,Preferred Dividends,Net Income Com,EPS,EPS Diluted,Weighted Average Shs Out,Weighted Average Shs Out (Dil),Dividend per Share,Gross Margin,EBITDA Margin,EBIT Margin,Profit Margin,Free Cash Flow margin,EBITDA,EBIT,Consolidated Income,Earnings Before Tax Margin,Net Profit Margin
2019-12-31,25000000.0,1.0,0.0,0.0,157610000.0,68116000.0,225726000.0,-200726000.0,67000.0,0.0,0.0,0.0,0.0,-192300000.0,0.0,-192300000.0,-4.48,-4.48,42869058.0,42869058.0,0.0,0.0,-7.83708,-8.02904,-7.692,-6.16924,-195927000.0,-200726000.0,-192300000.0,0.0,-7.692
2018-12-31,0.0,0.0,0.0,0.0,82887000.0,21212000.0,104099000.0,-104099000.0,84000.0,0.0,0.0,0.0,0.0,-99854000.0,0.0,-99854000.0,-2.82,-2.82,35390480.0,35390480.0,0.0,0.0,0.0,0.0,0.0,0.0,-103782000.0,-104099000.0,-99854000.0,0.0,0.0
2017-12-31,0.0,0.0,0.0,0.0,39514000.0,11421000.0,50935000.0,-50935000.0,95000.0,0.0,0.0,0.0,0.0,-50284000.0,0.0,-50284000.0,-2.99,-2.99,16792179.0,16792179.0,0.0,0.0,0.0,0.0,0.0,0.0,-50785000.0,-50935000.0,-50284000.0,0.0,0.0
2016-12-31,0.0,0.0,0.0,0.0,20163000.0,5675000.0,25838000.0,-25838000.0,106000.0,-25940000.0,0.0,0.0,0.0,-25940000.0,0.0,-25940000.0,-2.23,-2.23,30675000.0,11626287.0,0.0,0.0,,0.0,,0.0,-25744000.0,-25834000.0,-25940000.0,0.0,0.0
2015-12-31,0.0,,0.0,0.0,12475000.0,5135000.0,17610000.0,-17610000.0,2209000.0,-19816000.0,0.0,0.0,0.0,-19816000.0,0.0,-19816000.0,-4.67,-4.67,30675000.0,4245698.0,0.0,0.0,,0.0,,0.0,-17534000.0,-17607000.0,-19816000.0,0.0,0.0
