,0,1,2,3,4,5,6,7,8,9,10,11,12,13,14
Date,Depreciation & Amortization,Stock-based compensation,Operating Cash Flow,Capital Expenditure,Acquisitions and disposals,Investment purchases and sales,Investing Cash flow,Issuance (repayment) of debt,Issuance (buybacks) of shares,Dividend payments,Financing Cash Flow,Effect of forex changes on cash,Net cash flow / Change in cash,Free Cash Flow,Net Cash/Marketcap
2019-12-31,17758000.0,19034000.0,24234000.0,13315000.0,-2138000.0,-176639000.0,-202220000.0,-0.0,-597297000.0,-0.0,714216000.0,-21000.0,597297000.0,10919000.0,0.0
2018-12-31,6026000.0,5244000.0,10829000.0,-15838000.0,-1618000.0,0.0,-17456000.0,0.0,7782000.0,0.0,7782000.0,47000.0,1202000.0,-5009000.0,0.0721
2017-12-31,2704000.0,3068000.0,13832000.0,-7803000.0,-4957000.0,0.0,-12760000.0,0.0,462000.0,0.0,462000.0,-54000.0,1480000.0,6029000.0,0.0721
