,0,1,2,3,4,5,6,7,8,9,10,11,12,13,14,15,16,17,18,19,20,21,22,23,24,25,26,27,28,29,30
Date,Revenue,Revenue Growth,Cost of Revenue,Gross Profit,R&D Expenses,SG&A Expense,Operating Expenses,Operating Income,Interest Expense,Earnings before Tax,Income Tax Expense,Net Income - Non-Controlling int,Net Income - Discontinued ops,Net Income,Preferred Dividends,Net Income Com,EPS,EPS Diluted,Weighted Average Shs Out,Weighted Average Shs Out (Dil),Dividend per Share,Gross Margin,EBITDA Margin,EBIT Margin,Profit Margin,Free Cash Flow margin,EBITDA,EBIT,Consolidated Income,Earnings Before Tax Margin,Net Profit Margin
2019-11-03,39258000000.0,0.050867692604199995,1578000000.0,37680000000.0,1783000000.0,3551000000.0,5334000000.0,4088000000.0,1466000000.0,4088000000.0,852000000.0,0.0,0.0,3253000000.0,0.0,3253000000.0,10.28,10.15,316500000.0,320600000.0,2.94135995009,0.9598043710840001,0.155560650059,0.10413164195800001,0.0828620918029,0.0583830047379,6107000000.0,4088000000.0,3253000000.0,0.10413164195800001,0.0828620918029
2018-10-28,37357700000.0,0.256240395189,1399100000.0,35958600000.0,1657600000.0,3455500000.0,5113100000.0,4070700000.0,1203600000.0,4070700000.0,1726900000.0,0.0,0.0,2368400000.0,0.0,2368400000.0,7.34,7.24,322600000.0,327300000.0,2.46196150321,0.962548550901,0.160550569227,0.10896548770400001,0.0633979072587,0.0247311799174,5997800000.0,4070700000.0,2368400000.0,0.10896548770400001,0.0633979072587
2017-10-29,29737700000.0,0.11611244557900001,19933500000.0,9804200000.0,1367700000.0,3066600000.0,4434300000.0,3153800000.0,899500000.0,3153800000.0,971100000.0,0.0,0.0,2159100000.0,0.0,2159100000.0,6.76,6.68,319500000.0,323300000.0,2.36313021961,0.329689249673,0.163741647807,0.10605393154100001,0.07260480803830001,0.0539685315273,4869300000.0,3153800000.0,2159100000.0,0.10605393154100001,0.07260480803830001
2016-10-31,26644000000.0,0.0,18248900000.0,8395100000.0,1389100000.0,2763700000.0,5407400000.0,2224000000.0,763700000.0,2224000000.0,700100000.0,0.0,0.0,1523900000.0,0.0,1523900000.0,4.83,4.81,315200000.0,316600000.0,2.40461149716,0.315084071461,0.14201321123,0.08347095030780001,0.0571948656358,0.117095781414,3783800000.0,2224000000.0,1523900000.0,0.08347095030780001,0.0571948656358
2016-10-30,,0.0,,10093100000.0,,,5110900000.0,4982200000.0,759400000.0,,,,,,,,,,,,,,,,,,,4982900000.0,,,
2015-11-01,,0.0,,8605800000.0,,,4769200000.0,3836600000.0,811400000.0,,,,,,,,,,,,,,,,,,,3838000000.0,,,
2015-10-31,28862800000.0,-0.19974270037099998,20143200000.0,8719600000.0,1425100000.0,2873300000.0,5259500000.0,2780100000.0,680000000.0,2780100000.0,840100000.0,0.0,0.0,1940000000.0,0.0,1940000000.0,5.81,5.77,333600000.0,336000000.0,2.42946428571,0.30210513186500004,0.144216777305,0.09632121623680001,0.06721454605930001,0.10554416065,4162500000.0,2780100000.0,1940000000.0,0.09632121623680001,0.06721454605930001
2014-10-31,36066900000.0,-0.045733078628599995,24775800000.0,11291100000.0,1452000000.0,3284400000.0,5829700000.0,3161700000.0,664000000.0,2073100000.0,1626500000.0,0.0,0.0,3161700000.0,0.0,3161700000.0,8.71,8.63,363000000.0,366100000.0,2.14695438405,0.31305989702500003,0.12388644435799999,0.0876620946075,0.0876620946075,0.0686945648226,4468200000.0,3161700000.0,3161700000.0,0.0574792954205,0.0876620946075
2013-10-31,37795400000.0,0.0453106028968,25667300000.0,8719600000.0,1477300000.0,3605500000.0,5259500000.0,3460100000.0,680000000.0,5483200000.0,1945900000.0,300000.0,0.0,3537300000.0,0.0,3537300000.0,9.18,9.09,382845951.0,385300000.0,1.99,0.3209,0.195,0.1647,0.094,0.048,7364800000.0,3460100000.0,3537600000.0,0.1451,0.0936
2012-10-31,36157100000.0,0.129468176494,25007800000.0,11149300000.0,1433600000.0,3417000000.0,4850600000.0,4734400000.0,782800000.0,4734400000.0,1659400000.0,0.0,0.0,3064700000.0,0.0,3064700000.0,7.72,7.63,397100000.0,401500000.0,1.73823163138,0.308357141474,0.158712949877,0.13093970478800002,0.0847606694121,-0.00419004842756,5738600000.0,4734400000.0,3064700000.0,0.13093970478800002,0.0847606694121
2011-10-31,32012500000.0,0.231032201995,21919400000.0,12128100000.0,1226200000.0,3168700000.0,5903400000.0,6224700000.0,741300000.0,4223500000.0,1423600000.0,7900000.0,0.0,2799900000.0,0.0,2799900000.0,6.71,6.63,413924013.0,417400000.0,1.52,0.3153,0.184,0.1557,0.087,0.0415,5897800000.0,6224500000.0,2807800000.0,0.1319,0.0875
2010-10-31,26004600000.0,0.125136290476,17398800000.0,8605800000.0,0.0,2968700000.0,2968700000.0,3025200000.0,811400000.0,3025200000.0,1161600000.0,0.0,0.0,1865000000.0,0.0,1865000000.0,4.4,4.35,424000000.0,428600000.0,0.0,0.330933757874,0.116333264115,0.116333264115,0.07171808064730001,0.0,3025200000.0,3025200000.0,1865000000.0,0.116333264115,0.07171808064730001
2009-10-31,23112400000.0,-0.1873,16255200000.0,10093100000.0,977000000.0,2780600000.0,5110900000.0,4982200000.0,759400000.0,1333500000.0,460000000.0,-600000.0,0.0,873500000.0,0.0,873500000.0,2.07,2.06,422947967.0,422800000.0,1.12,0.2967,0.141,0.1028,0.038,0.0499,3249200000.0,4982900000.0,872900000.0,0.0577,0.0378
