,0,1,2,3,4,5,6,7,8,9,10,11,12,13,14,15,16,17,18,19,20,21,22,23,24,25,26,27,28
Date,Cash and cash equivalents,Short-term investments,Cash and short-term investments,Receivables,Inventories,Total current assets,Property Plant & Equipment Net,Goodwill and Intangible Assets,Long-term investments,Tax assets,Total non-current assets,Total assets,Payables,Short-term debt,Total current liabilities,Long-term debt,Total debt,Deferred revenue,Tax Liabilities,Deposit Liabilities,Total non-current liabilities,Total liabilities,Other comprehensive income,Retained earnings (deficit),Total shareholders equity,Investments,Net Debt,Other Assets,Other Liabilities
2019-12-31,491225.0,0.0,491225.0,0.0,0.0,810464.0,0.0,0.0,403961209.0,205505.0,403961209.0,404771673.0,1493133.0,0.0,1493133.0,0.0,0.0,0.0,0.0,0.0,0.0,399771663.0,2690444.0,2309409.0,5000010.0,403961209.0,-491225.0,0.0,398278530.0
