,0,1,2,3,4,5,6,7,8,9,10,11,12,13,14,15,16,17,18,19,20,21,22,23,24,25,26,27,28,29,30
Date,Revenue,Revenue Growth,Cost of Revenue,Gross Profit,R&D Expenses,SG&A Expense,Operating Expenses,Operating Income,Interest Expense,Earnings before Tax,Income Tax Expense,Net Income - Non-Controlling int,Net Income - Discontinued ops,Net Income,Preferred Dividends,Net Income Com,EPS,EPS Diluted,Weighted Average Shs Out,Weighted Average Shs Out (Dil),Dividend per Share,Gross Margin,EBITDA Margin,EBIT Margin,Profit Margin,Free Cash Flow margin,EBITDA,EBIT,Consolidated Income,Earnings Before Tax Margin,Net Profit Margin
2019-12-31,936682000.0,0.06282196170269999,264482000.0,638519000.0,0.0,38068000.0,45284000.0,242708000.0,143308000.0,311406000.0,0.0,0.0,0.0,363713000.0,0.0,363713000.0,2.09,2.09,173358000.0,173358000.0,1.06435814903,0.6816817233600001,0.6386799362,0.259114619476,0.388299337449,0.501329159736,598240000.0,242708000.0,363713000.0,0.33245647936,0.388299337449
2018-12-31,881316000.0,0.0852950303675,252751000.0,628565000.0,0.0,38641000.0,629372000.0,251944000.0,133402000.0,143682000.0,0.0,0.0,0.0,116086000.0,0.0,116086000.0,0.68,0.68,169893000.0,169902000.0,1.0105531424,0.713211833213,0.621649896291,0.285872490684,0.13171892941899999,0.491290297691,547870000.0,251944000.0,116086000.0,0.16303119425899998,0.13171892941899999
2017-12-31,812052000.0,0.0935976114772,0.0,0.0,0.0,36234000.0,571029000.0,241023000.0,145176000.0,138717000.0,0.0,0.0,0.0,94443000.0,0.0,94443000.0,0.58,0.58,160905000.0,161230000.0,0.952477826707,0.0,0.628792244832,0.296807347313,0.116301665411,0.495900508834,510612000.0,241023000.0,94443000.0,0.17082280445099998,0.116301665411
2016-12-31,742551000.0,0.167948044431,0.0,0.0,0.0,34957000.0,521734000.0,220817000.0,146148000.0,136564000.0,0.0,0.0,0.0,85397000.0,0.0,85397000.0,0.569,0.5539999999999999,149299000.0,153190000.0,0.870526796788,0.0,0.620105555039,0.297376207156,0.115004895287,0.45713897092600003,460460000.0,220817000.0,85397000.0,0.183911946789,0.115004895287
2015-12-31,635774000.0,0.06043810327600001,0.0,0.0,0.0,30496000.0,446247000.0,189527000.0,135453000.0,93605000.0,0.0,0.0,0.0,58384000.0,0.0,58384000.0,0.39799999999999996,0.386,146089000.0,150604000.0,0.8260736766619999,0.0,0.602037831053,0.298104357838,0.09183137404169998,0.426923718177,382760000.0,189527000.0,58384000.0,0.147229990531,0.09183137404169998
2014-12-31,599539000.0,0.0135291850369,0.0,0.0,0.0,27332000.0,431685000.0,167854000.0,128507000.0,77899000.0,0.0,0.0,0.0,44621000.0,0.0,44621000.0,0.31,0.3,144013000.0,176221000.0,0.652810958966,0.0,0.597757610431,0.279971778316,0.07442551693880001,0.411507841858,358379000.0,167854000.0,44621000.0,0.129931497367,0.07442551693880001
2013-12-31,591536000.0,0.021652887138,0.0,0.0,0.0,26614000.0,412845000.0,178691000.0,130548000.0,92399000.0,0.0,0.0,0.0,45311000.0,0.0,45311000.0,0.32,0.31,142556000.0,174802000.0,0.585931511081,0.0,0.60615583836,0.302079670553,0.07659888831789999,0.41243981769500004,358563000.0,178691000.0,45311000.0,0.156201820346,0.07659888831789999
2012-12-31,578999000.0,0.006364965229069999,0.0,0.0,0.0,27943000.0,403189000.0,175810000.0,146693000.0,38836000.0,0.0,0.0,0.0,22942000.0,0.0,22942000.0,0.16,0.16,139791000.0,173120000.0,0.46243068391900005,0.0,0.628343054133,0.30364473859200003,0.039623557208199996,0.259439135473,363810000.0,175810000.0,22942000.0,0.06707438182099999,0.039623557208199996
2011-12-31,575337000.0,1.0,0.0,0.0,0.0,29286000.0,422863000.0,152474000.0,148455000.0,-34753000.0,0.0,0.0,0.0,1451000.0,0.0,1451000.0,0.01,0.01,126187.0,159966.0,361.18300138800004,0.0,0.614611957861,0.265016850993,0.00252200014948,0.361245669929,353609000.0,152474000.0,1451000.0,-0.06040459765319999,0.00252200014948
2011-02-25,0.0,-1.0,0.0,0.0,0.0,0.0,0.0,0.0,0.0,0.0,0.0,0.0,0.0,0.0,0.0,0.0,0.0,0.0,0.0,0.0,0.0,0.0,0.0,0.0,0.0,0.0,0.0,0.0,0.0,0.0,0.0
2010-12-31,570844000.0,-0.00037824396735900004,177482000.0,393362000.0,0.0,28305000.0,253631000.0,139731000.0,166907000.0,-26423000.0,0.0,-6533000.0,0.0,-26423000.0,0.0,-26423000.0,-0.22,-0.22,123496622.0,122714520.0,0.4,0.6891,0.594,0.2461,-0.046,-0.1655,339254000.0,140484000.0,-32956000.0,-0.0463,-0.0463
2009-12-31,571060000.0,-0.0609,172195000.0,398865000.0,0.0,23887000.0,250507000.0,148358000.0,184797000.0,-27064000.0,0.0,-7093000.0,0.0,-27064000.0,0.0,-27064000.0,-0.22,-0.22,121559388.0,121552731.0,0.4,0.6985,0.616,0.2762,-0.047,0.242,351885000.0,157733000.0,-34157000.0,-0.0474,-0.0474
