,0,1,2,3,4,5,6,7,8,9,10,11,12,13,14,15,16,17,18,19,20,21,22,23,24,25,26,27,28
Date,Cash and cash equivalents,Short-term investments,Cash and short-term investments,Receivables,Inventories,Total current assets,Property Plant & Equipment Net,Goodwill and Intangible Assets,Long-term investments,Tax assets,Total non-current assets,Total assets,Payables,Short-term debt,Total current liabilities,Long-term debt,Total debt,Deferred revenue,Tax Liabilities,Deposit Liabilities,Total non-current liabilities,Total liabilities,Other comprehensive income,Retained earnings (deficit),Total shareholders equity,Investments,Net Debt,Other Assets,Other Liabilities
2018-06-30,1018708.0,0.0,1018708.0,14007127.0,5067731.0,47081383.0,44346646.0,2032346.0,0.0,702391.0,0.0,67174949.0,21468563.0,67336545.0,89982235.0,0.0,67336545.0,0.0,864164.0,0.0,0.0,89982235.0,3282702.0,-83279164.0,-22807286.0,0.0,,,1177127.0
2017-06-30,57560.0,0.0,57560.0,81327991.0,5282737.0,49251209.0,46608189.0,2032547.0,0.0,610473.0,0.0,135919497.0,13131216.0,66414123.0,120307847.0,0.0,66414123.0,4423090.0,820670.0,0.0,0.0,120307847.0,-4139390.0,-35389829.0,15611650.0,0.0,,,40762508.0
2016-06-30,152374.0,0.0,152374.0,116228901.0,5880881.0,53881994.0,51064565.0,2125665.0,0.0,691764.0,0.0,176144150.0,21194399.0,68313619.0,132642058.0,0.0,68313619.0,6225058.0,859135.0,0.0,0.0,132642058.0,-2257504.0,-6962585.0,43502092.0,0.0,,,43134040.0
2015-06-30,26770327.0,0.0,26770327.0,120374988.0,9751596.0,68827875.0,65260454.0,2833833.0,0.0,733588.0,0.0,225724786.0,45279369.0,73986211.0,167316820.0,0.0,73986211.0,2233691.0,2911020.0,0.0,0.0,167316820.0,10005803.0,-206982.0,58407966.0,0.0,,,48051240.0
2014-06-30,31901057.0,0.0,31901057.0,77745875.0,14062567.0,82821801.0,76439788.0,5724636.0,0.0,657377.0,0.0,206531300.0,38708242.0,108752800.0,151071926.0,0.0,108752800.0,1776624.0,1834260.0,0.0,0.0,151071926.0,6039662.0,34370050.0,55459374.0,0.0,,,3610884.0
2013-06-30,28686771.0,0.0,28686771.0,61460604.0,13803489.0,63088136.0,57293878.0,5262766.0,0.0,531492.0,0.0,167039000.0,27336609.0,87983727.0,118724373.0,0.0,87983727.0,2428443.0,975594.0,0.0,0.0,118724373.0,5723223.0,30518696.0,48314627.0,0.0,,,3404037.0
2012-06-30,48401410.0,0.0,48401410.0,40293613.0,9586598.0,45363293.0,42489304.0,2424878.0,0.0,449111.0,27182551.0,143644914.0,43370265.0,35754719.0,81463352.0,27182551.0,62937270.0,1436529.0,901839.0,0.0,27182551.0,108645903.0,4113343.0,19531362.0,34999011.0,0.0,,,2338368.0
