,0,1,2,3,4,5,6,7,8,9,10,11,12,13,14,15,16,17,18,19,20,21,22,23,24,25,26,27,28,29,30
Date,Revenue,Revenue Growth,Cost of Revenue,Gross Profit,R&D Expenses,SG&A Expense,Operating Expenses,Operating Income,Interest Expense,Earnings before Tax,Income Tax Expense,Net Income - Non-Controlling int,Net Income - Discontinued ops,Net Income,Preferred Dividends,Net Income Com,EPS,EPS Diluted,Weighted Average Shs Out,Weighted Average Shs Out (Dil),Dividend per Share,Gross Margin,EBITDA Margin,EBIT Margin,Profit Margin,Free Cash Flow margin,EBITDA,EBIT,Consolidated Income,Earnings Before Tax Margin,Net Profit Margin
2019-12-25,541389000.0,-0.140896475446,258396000.0,282993000.0,0.0,69018000.0,206455000.0,164983000.0,18547000.0,149199000.0,31789000.0,0.0,0.0,117410000.0,0.0,117410000.0,1.96,1.9,59944000.0,61833000.0,0.0,0.522716567939,0.34252081220700004,0.304740214522,0.216868092998,0.0542160996991,185437000.0,164983000.0,117410000.0,0.275585577099,0.216868092998
2018-12-26,630179000.0,0.190884197676,100532000.0,529647000.0,0.0,63828000.0,145144000.0,73614000.0,20745000.0,52250000.0,8557000.0,0.0,0.0,43693000.0,0.0,43693000.0,0.69,0.67,63364000.0,65562000.0,0.0,0.840470723398,0.160684503927,0.116814428916,0.0693342685174,0.08198464245869999,101260000.0,73614000.0,43693000.0,0.08291295013,0.0693342685174
2017-12-27,529169000.0,0.043832898048700004,324713000.0,204456000.0,0.0,66415000.0,135937000.0,70698000.0,15640000.0,56801000.0,17207000.0,0.0,0.0,39594000.0,0.0,39594000.0,0.58,0.56,68077000.0,70403000.0,0.0,0.38637183962,0.17955322401700002,0.133601930574,0.0748229771585,0.112361079353,95014000.0,70698000.0,39594000.0,0.10733999913100001,0.0748229771585
2016-12-28,506948000.0,0.0318648952865,302096000.0,204852000.0,0.0,67960000.0,109836000.0,46999000.0,12232000.0,35876000.0,16474000.0,0.0,0.0,19402000.0,0.0,19402000.0,0.26,0.25,75325000.0,77206000.0,0.0,0.40408878228100004,0.137627527873,0.09270970592639999,0.038272169926699996,0.10141671335100001,69770000.0,46999000.0,19402000.0,0.0707685995408,0.038272169926699996
2015-12-30,491293000.0,0.0402248594628,294357000.0,196936000.0,0.0,66602000.0,132307000.0,63151000.0,9283000.0,53729000.0,17753000.0,0.0,0.0,35976000.0,0.0,35976000.0,0.44,0.42,82627000.0,84729000.0,0.0,0.400852444468,0.173277453577,0.12854040257000002,0.07322717807910001,0.109221991765,85130000.0,63151000.0,35976000.0,0.10936243748600001,0.07322717807910001
2014-12-31,472295000.0,0.020973080007700002,288808000.0,183487000.0,0.0,58907000.0,126340000.0,57331000.0,9182000.0,48761000.0,16036000.0,0.0,0.0,32725000.0,0.0,32725000.0,0.38,0.37,86323000.0,88355000.0,0.0,0.388500831048,0.167336092908,0.12138811547900001,0.0692893212928,0.111868641421,79032000.0,57331000.0,32725000.0,0.103242676717,0.0692893212928
2013-12-25,462593000.0,-0.052768125349399994,283556000.0,179037000.0,0.0,56835000.0,123546000.0,47521000.0,10282000.0,36100000.0,11528000.0,0.0,0.0,24572000.0,0.0,24572000.0,0.27,0.26,90829000.0,92903000.0,0.0,0.387029202777,0.150281132659,0.102727451561,0.0531179676303,0.08695332614199999,69519000.0,47521000.0,24572000.0,0.0780383620159,0.0531179676303
2012-12-26,488363000.0,-0.0931621773184,302206000.0,186157000.0,0.0,60307000.0,132737000.0,56389000.0,13369000.0,35094000.0,12785000.0,0.0,0.0,22309000.0,0.0,22309000.0,0.23,0.23,94949000.0,96754000.0,0.0,0.38118571636299997,0.16300374926,0.11546534033099999,0.0456811838735,0.09222647907400001,79605000.0,56389000.0,22309000.0,0.07186048083089999,0.0456811838735
2011-12-28,538534000.0,-0.0181086885969,357759000.0,180775000.0,0.0,55352000.0,143741000.0,50974000.0,-20040000.0,28327000.0,-83960000.0,0.0,0.0,112287000.0,0.0,112287000.0,1.15,1.13,97646.0,99588.0,0.0,0.33567982708599997,0.15017436225,0.0946532623753,0.208504941192,0.08062629286169999,80874000.0,50974000.0,112287000.0,0.0526002072293,0.208504941192
2010-12-29,548466000.0,-0.098070557126,412986000.0,135480000.0,0.0,55619000.0,80312000.0,55168000.0,25792000.0,24094000.0,1381000.0,0.0,0.0,22713000.0,0.0,22713000.0,0.23,0.22,99697084.0,98902000.0,0.0,0.247,0.145,0.091,0.040999999999999995,0.0539,79523000.0,49886000.0,22713000.0,0.0439,0.0414
2009-12-30,608103000.0,-0.2001,460532000.0,147571000.0,0.0,57282000.0,75142000.0,72429000.0,32600000.0,42954000.0,1400000.0,0.0,0.0,41554000.0,0.0,41554000.0,0.43,0.42,96605496.0,96318000.0,0.0,0.2427,0.177,0.1242,0.068,0.0913,107897000.0,75554000.0,41554000.0,0.0706,0.0683
