,0,1,2,3,4,5,6,7,8,9,10,11,12,13,14,15,16,17,18,19,20,21,22,23,24,25,26,27,28,29,30
Date,Revenue,Revenue Growth,Cost of Revenue,Gross Profit,R&D Expenses,SG&A Expense,Operating Expenses,Operating Income,Interest Expense,Earnings before Tax,Income Tax Expense,Net Income - Non-Controlling int,Net Income - Discontinued ops,Net Income,Preferred Dividends,Net Income Com,EPS,EPS Diluted,Weighted Average Shs Out,Weighted Average Shs Out (Dil),Dividend per Share,Gross Margin,EBITDA Margin,EBIT Margin,Profit Margin,Free Cash Flow margin,EBITDA,EBIT,Consolidated Income,Earnings Before Tax Margin,Net Profit Margin
2019-02-02,383750000.0,-0.05528462089530001,185603000.0,198147000.0,0.0,198331000.0,198331000.0,-9602000.0,4831000.0,-14430000.0,-103000.0,0.0,0.0,-14327000.0,0.0,-14327000.0,-1.03,-1.03,13889000.0,13889000.0,0.0,0.5163439739410001,0.0171804560261,-0.025021498371299997,-0.0373342019544,-0.016737459283399998,6593000.0,-9602000.0,-14327000.0,-0.037602605863199995,-0.0373342019544
2018-02-03,406207000.0,-0.06338958586490001,192355000.0,213852000.0,0.0,218656000.0,218656000.0,-16008000.0,4048000.0,-21595000.0,2000.0,0.0,0.0,-21597000.0,0.0,-21597000.0,-1.57,-1.57,13788000.0,13788000.0,0.0,0.526460646912,0.00509838579837,-0.0394084789282,-0.053167473726399996,0.0054651938543599995,2071000.0,-16008000.0,-21597000.0,-0.0531625501284,-0.053167473726399996
2017-01-28,433699000.0,-0.13043330065199998,206271000.0,227428000.0,0.0,223881000.0,223881000.0,-4135000.0,3578000.0,-7710000.0,25050000.0,0.0,0.0,-32760000.0,0.0,-32760000.0,-2.39,-2.39,13702000.0,13702000.0,0.0,0.5243913405380001,0.0327992455597,-0.009534262241790001,-0.0755362590184,-0.00456307254571,14225000.0,-4135000.0,-32760000.0,-0.017777306380700002,-0.0755362590184
2016-01-30,498753000.0,-0.0352174930701,252713000.0,246040000.0,0.0,246914000.0,246914000.0,-5769000.0,1529000.0,-7289000.0,-2806000.0,0.0,0.0,-4483000.0,0.0,-4483000.0,-0.33,-0.33,13596000.0,13596000.0,0.810973815828,0.493310315928,0.0233141454788,-0.011566847718200001,-0.008988417112280002,-0.0264218962091,11628000.0,-5769000.0,-4483000.0,-0.014614448434399999,-0.008988417112280002
2014-09-30,516959000.0,-0.0431274629391,247501000.0,269458000.0,0.0,250253000.0,250253000.0,14507000.0,0.0,14103000.0,3606000.0,0.0,0.0,10497000.0,0.0,10497000.0,0.78,0.77,13451000.0,13572000.0,0.793692897141,0.521236693819,0.0578421112699,0.028062186749800003,0.0203052853321,-0.0277391437232,29902000.0,14507000.0,10497000.0,0.0272806934399,0.0203052853321
2013-09-30,540259000.0,-0.00224756037202,249298000.0,290961000.0,0.0,252026000.0,252026000.0,37494000.0,532000.0,0.0,13010000.0,0.0,0.0,23943000.0,0.0,23943000.0,1.8,1.78,13272000.0,13439000.0,0.7291465138779999,0.5385583581210001,0.09277217038489999,0.06940004701449999,0.0443176328391,0.050150020638199996,50121000.0,37494000.0,23943000.0,0.0,0.0443176328391
2012-09-30,541476000.0,-0.00718379740151,250765000.0,290711000.0,0.0,255623000.0,255623000.0,33105000.0,1215000.0,0.0,12496000.0,0.0,0.0,19372000.0,0.0,19372000.0,1.48,1.46,13096000.0,13267000.0,0.7028717871410001,0.5368862147169999,0.0843158330194,0.061138443809099996,0.035776285560199995,0.0617589699266,45655000.0,33105000.0,19372000.0,0.0,0.035776285560199995
2011-09-30,545394000.0,0.0267360954231,248497000.0,296897000.0,0.0,257421000.0,257421000.0,38244000.0,2233000.0,35974000.0,12986000.0,0.0,0.0,22988000.0,0.0,22988000.0,1.79,1.75,12820000.0,13120000.0,0.525990853659,0.544371591913,0.09384591689680001,0.070121783518,0.042149345244000005,0.0168190335794,51183000.0,38244000.0,22988000.0,0.06595965485500001,0.042149345244000005
2010-09-30,531192000.0,-0.00011105861447799998,240166000.0,291026000.0,0.0,251653000.0,259593000.0,31433000.0,3300000.0,28082000.0,11253000.0,0.0,0.0,16829000.0,0.0,16829000.0,1.37,1.33,12707132.0,12304000.0,0.0,0.5479,0.083,0.0591,0.032,0.0287,44299000.0,31382000.0,16829000.0,0.0529,0.0317
2009-09-30,531251000.0,-0.0591,248476000.0,282775000.0,0.0,259552000.0,312034000.0,-29259000.0,4720000.0,-34102000.0,6580000.0,0.0,0.0,-40682000.0,0.0,-40682000.0,-3.39,-3.39,12215520.0,11985000.0,0.0,0.5323,-0.027000000000000003,-0.0553,-0.077,0.0556,-14400000.0,-29382000.0,-40682000.0,-0.0642,-0.0766
