,0,1,2,3,4,5,6,7,8,9,10,11,12,13,14
Date,Depreciation & Amortization,Stock-based compensation,Operating Cash Flow,Capital Expenditure,Acquisitions and disposals,Investment purchases and sales,Investing Cash flow,Issuance (repayment) of debt,Issuance (buybacks) of shares,Dividend payments,Financing Cash Flow,Effect of forex changes on cash,Net cash flow / Change in cash,Free Cash Flow,Net Cash/Marketcap
2019-12-31,63878073.0,11070075.0,60417846.0,21331581.0,-63538392.0,-20000000.0,-84869973.0,-194071757.0,105000000.0,-0.0,76144580.0,0.0,51692453.0,39086265.0,0.0
2018-12-31,0.0,0.0,-1634204.0,0.0,-0.0,0.0,-248869562.0,-0.0,-947098.0,-0.0,251331043.0,0.0,827277.0,-1634204.0,0.0
2017-12-31,,,-1634204.0,0.0,,,-248869562.0,1137852.0,0.0,0.0,1437852.0,,,,
