,0,1,2,3,4,5,6,7,8,9,10,11,12,13,14
Date,Depreciation & Amortization,Stock-based compensation,Operating Cash Flow,Capital Expenditure,Acquisitions and disposals,Investment purchases and sales,Investing Cash flow,Issuance (repayment) of debt,Issuance (buybacks) of shares,Dividend payments,Financing Cash Flow,Effect of forex changes on cash,Net cash flow / Change in cash,Free Cash Flow,Net Cash/Marketcap
2019-12-31,97915.0,515762.0,-9858375.0,0.0,-0.0,0.0,0.0,-162829.0,-14177349.0,-0.0,16044552.0,0.0,6186177.0,-9858375.0,0.0
2018-12-31,110371.0,1221591.0,-10772816.0,0.0,-0.0,0.0,0.0,-428542.0,2854890.0,-0.0,9867520.0,0.0,-905296.0,-10772816.0,0.0
2017-12-31,101498.0,1240551.0,-12332355.0,447823.0,-0.0,10000000.0,-447823.0,-125980.0,-8896468.0,-0.0,20123794.0,0.0,7343616.0,-12780178.0,0.0
2016-12-31,63788.0,1391068.0,-10768265.0,2331.0,-0.0,0.0,8498271.0,-54346.0,-1552852.0,-0.0,1825654.0,0.0,-444340.0,-10770596.0,0.0
2015-12-31,23269.0,2095086.0,-9599585.0,28227.0,-0.0,-250000.0,-278227.0,-0.0,-12006075.0,-0.0,0.0,0.0,-9877812.0,-9627812.0,0.0
2015-03-31,0.0,0.0,0.0,0.0,-0.0,0.0,19209918.0,-0.0,-19209918.0,-0.0,0.0,0.0,19209918.0,0.0,0.0
2014-12-31,566262.0,1606947.0,-9030133.0,50911.0,-0.0,0.0,-50911.0,-0.0,9966080.0,-0.0,30709967.0,0.0,21628923.0,-9081044.0,0.0
2013-12-31,675757.0,0.0,-1184630.0,0.0,-0.0,0.0,0.0,-0.0,172537.0,-0.0,1127501.0,0.0,-57129.0,-1184630.0,0.0
2012-12-31,0.0,0.0,0.0,0.0,-0.0,0.0,0.0,-0.0,0.0,-0.0,0.0,0.0,0.0,0.0,0.0
2011-12-31,119805.0,0.0,-12024479.0,0.0,-358768.0,0.0,-985893.0,-0.0,3890910.0,-0.0,13108821.0,0.0,98449.0,-12024479.0,0.0
2010-12-31,49672.0,1361993.0,-1981126.0,-13636.0,-1370809.0,0.0,-1384445.0,429851.0,2310000.0,0.0,3365571.0,0.0,0.0,-1994762.0,-0.051
2009-12-31,47204.0,158149.0,-1057070.0,-1122.0,-212000.0,0.0,-213122.0,-74631.0,1294000.0,0.0,1269392.0,0.0,-800.0,-1058192.0,-0.0126
