,0,1,2,3,4,5,6,7,8,9,10,11,12,13,14,15,16,17,18,19,20,21,22,23,24,25,26,27,28
Date,Cash and cash equivalents,Short-term investments,Cash and short-term investments,Receivables,Inventories,Total current assets,Property Plant & Equipment Net,Goodwill and Intangible Assets,Long-term investments,Tax assets,Total non-current assets,Total assets,Payables,Short-term debt,Total current liabilities,Long-term debt,Total debt,Deferred revenue,Tax Liabilities,Deposit Liabilities,Total non-current liabilities,Total liabilities,Other comprehensive income,Retained earnings (deficit),Total shareholders equity,Investments,Net Debt,Other Assets,Other Liabilities
2019-12-31,6924000000.0,10595000000.0,17519000000.0,0.0,0.0,17519000000.0,1057000000.0,410000000.0,10595000000.0,933000000.0,96477000000.0,113996000000.0,283000000.0,283000000.0,627000000.0,25701000000.0,25984000000.0,0.0,61000000.0,72746000000.0,26083000000.0,102137000000.0,0.0,21290000000.0,11859000000.0,21190000000.0,19060000000.0,0.0,75427000000.0
2018-12-31,13299000000.0,3370000000.0,16669000000.0,0.0,0.0,16669000000.0,936000000.0,416000000.0,3370000000.0,838000000.0,92884000000.0,109553000000.0,240000000.0,240000000.0,563000000.0,27228000000.0,27468000000.0,0.0,83000000.0,67759000000.0,27632000000.0,98423000000.0,0.0,18906000000.0,11130000000.0,6740000000.0,14169000000.0,0.0,70228000000.0
2017-12-31,13306000000.0,1568000000.0,14874000000.0,0.0,0.0,14874000000.0,825000000.0,418000000.0,1568000000.0,625000000.0,85213000000.0,100087000000.0,351000000.0,351000000.0,872000000.0,26326000000.0,26677000000.0,47000000.0,123000000.0,58764000000.0,26698000000.0,89195000000.0,0.0,16687000000.0,10892000000.0,3136000000.0,13371000000.0,0.0,61625000000.0
2016-12-31,11914000000.0,1757000000.0,13671000000.0,0.0,0.0,13671000000.0,734000000.0,421000000.0,1757000000.0,1033000000.0,78637000000.0,92308000000.0,221000000.0,221000000.0,641000000.0,25443000000.0,25664000000.0,41000000.0,158000000.0,51992000000.0,25966000000.0,80985000000.0,0.0,15130000000.0,11323000000.0,3514000000.0,13750000000.0,0.0,54378000000.0
2015-12-31,9572000000.0,3084000000.0,12656000000.0,0.0,0.0,12656000000.0,693000000.0,423000000.0,3084000000.0,956000000.0,74280000000.0,86936000000.0,314000000.0,0.0,636000000.0,24724000000.0,24724000000.0,36000000.0,286000000.0,47594000000.0,25124000000.0,75661000000.0,0.0,13250000000.0,11275000000.0,6168000000.0,15152000000.0,0.0,49901000000.0
2014-12-31,7284000000.0,3949000000.0,11233000000.0,0.0,0.0,11233000000.0,670000000.0,433000000.0,3949000000.0,1105000000.0,71893000000.0,83126000000.0,108000000.0,113000000.0,896000000.0,22544000000.0,22657000000.0,40000000.0,635000000.0,46089000000.0,22845000000.0,71992000000.0,0.0,11467000000.0,11134000000.0,7898000000.0,15373000000.0,0.0,48251000000.0
2013-12-31,6554000000.0,4991000000.0,11545000000.0,0.0,0.0,11545000000.0,654000000.0,469000000.0,4991000000.0,1026000000.0,67795000000.0,79340000000.0,146000000.0,140000000.0,952000000.0,20474000000.0,20614000000.0,37000000.0,629000000.0,44959000000.0,20746000000.0,68531000000.0,1261000000.0,9611000000.0,10809000000.0,9982000000.0,14060000000.0,0.0,46833000000.0
2012-11-30,3926000000.0,6221000000.0,10147000000.0,0.0,0.0,10147000000.0,534000000.0,476000000.0,6221000000.0,1345000000.0,65136000000.0,75283000000.0,1000000.0,284000000.0,893000000.0,19729000000.0,20013000000.0,35000000.0,573000000.0,42155000000.0,20009000000.0,65505000000.0,2475000000.0,7373000000.0,9778000000.0,12442000000.0,16087000000.0,0.0,44603000000.0
2011-11-30,2849843000.0,6206053000.0,9055896000.0,0.0,0.0,9055896000.0,483250000.0,443439000.0,6206053000.0,1387235000.0,59728041000.0,68783937000.0,0.0,0.0,547804000.0,18287178000.0,18287178000.0,40900000.0,506904000.0,39577462000.0,18456483000.0,60541726000.0,3045075000.0,5243318000.0,8242211000.0,12412106000.0,15437335000.0,0.0,41537439000.0
2010-11-30,5098733000.0,5075395000.0,10174128000.0,0.0,0.0,10174128000.0,460732000.0,444394000.0,5075395000.0,1586186000.0,50610840000.0,60784968000.0,0.0,0.0,417155000.0,17705728000.0,17705728000.0,43900000.0,373255000.0,34413383000.0,17822709000.0,54328122000.0,3407435000.0,3126488000.0,6456846000.0,10150790000.0,12606995000.0,0.0,36088258000.0
2009-11-30,13020719000.0,,,0.0,0.0,,499303000.0,451057000.0,,0.0,,46020987000.0,0.0,,,,2428101000.0,0.0,0.0,32093012000.0,,37585440000.0,-154818000.0,3873262000.0,8435547000.0,28252482000.0,,,
