,0,1,2,3,4,5,6,7,8,9,10,11,12,13,14,15,16,17,18,19,20,21,22,23,24,25,26,27,28
Date,Cash and cash equivalents,Short-term investments,Cash and short-term investments,Receivables,Inventories,Total current assets,Property Plant & Equipment Net,Goodwill and Intangible Assets,Long-term investments,Tax assets,Total non-current assets,Total assets,Payables,Short-term debt,Total current liabilities,Long-term debt,Total debt,Deferred revenue,Tax Liabilities,Deposit Liabilities,Total non-current liabilities,Total liabilities,Other comprehensive income,Retained earnings (deficit),Total shareholders equity,Investments,Net Debt,Other Assets,Other Liabilities
2018-12-31,52594461.0,16748760.0,69343221.0,156702250.0,0.0,226045471.0,4690704.0,6583364.0,41025975.0,19032604.0,1606032796.0,1832078267.0,1003810.0,60000000.0,567532416.0,60000000.0,120000000.0,506528606.0,0.0,0.0,73069755.0,1433208366.0,220290260.0,192751208.0,398869901.0,57774735.0,67405539.0,0.0,792606195.0
2017-12-31,37833435.0,11049915.0,48883350.0,160406432.0,0.0,209289782.0,7280415.0,6583364.0,38773420.0,10935105.0,1528629996.0,1737919778.0,4116159.0,59000000.0,566572700.0,59000000.0,118000000.0,503456541.0,0.0,0.0,66128843.0,1289223674.0,214231693.0,236893041.0,448696104.0,49823335.0,80166565.0,0.0,656522131.0
2016-12-31,24587214.0,9371007.0,33958221.0,159389667.0,0.0,193347888.0,6668489.0,6583364.0,37884918.0,1108250.0,1429783149.0,1623131037.0,4369528.0,69000000.0,539424756.0,69000000.0,138000000.0,466055228.0,0.0,0.0,88043413.0,1184515717.0,195681844.0,244942913.0,438615320.0,47255925.0,113412786.0,0.0,557047548.0
2015-12-31,28139144.0,13432482.0,41571626.0,141267411.0,0.0,182839037.0,7027143.0,6583364.0,38476708.0,1487656.0,1354995378.0,1537834415.0,582560.0,81000000.0,511075763.0,81000000.0,162000000.0,429493203.0,0.0,0.0,100443807.0,1129445847.0,178355436.0,229024370.0,408388568.0,51909190.0,133860856.0,0.0,517926277.0
2014-12-31,35578509.0,20293648.0,55872157.0,133306961.0,0.0,189179118.0,7668340.0,6583364.0,39283924.0,581477.0,1269475526.0,1458654644.0,7841172.0,53500000.0,469987535.0,53500000.0,107000000.0,408646363.0,0.0,0.0,70646303.0,1042520001.0,187470995.0,223253887.0,416134643.0,59577572.0,71421491.0,0.0,501886163.0
2013-12-31,1604000.0,791808307.0,793412307.0,123904629.0,0.0,917316936.0,6424703.0,6583364.0,35685433.0,20310558.0,468093566.0,1385410502.0,751641.0,58000000.0,441486283.0,58000000.0,116000000.0,382734642.0,0.0,0.0,77274840.0,988533391.0,176244622.0,222888887.0,396877111.0,827493740.0,114396000.0,0.0,469772268.0
2012-12-31,805000.0,806429032.0,807234032.0,117196478.0,0.0,924430510.0,5953833.0,6583364.0,37235530.0,6267536.0,412458677.0,1336889187.0,583977.0,52000000.0,415672080.0,52000000.0,104000000.0,363088103.0,0.0,0.0,83297652.0,936855093.0,163759884.0,209670214.0,400034094.0,843664562.0,103195000.0,0.0,437885361.0
2011-12-31,0.0,0.0,0.0,0.0,0.0,0.0,0.0,0.0,0.0,0.0,0.0,0.0,0.0,0.0,0.0,0.0,0.0,0.0,0.0,0.0,0.0,0.0,0.0,0.0,0.0,0.0,0.0,0.0,0.0
2010-12-31,16342212.0,,,360099449.0,0.0,,7069086.0,6451326.0,,12936494.0,,1174619523.0,30578676.0,,,,56082371.0,297272161.0,0.0,0.0,,794516713.0,8561086.0,213435095.0,380102810.0,728541814.0,,,
2009-12-31,12923898.0,,,202486050.0,0.0,,6592223.0,922040.0,,5749996.0,,935601927.0,14088586.0,,,,15465000.0,241821419.0,0.0,0.0,,550096228.0,15007044.0,214755495.0,385505699.0,666835186.0,,,
