,0,1,2,3,4,5,6,7,8,9,10,11,12,13,14,15,16,17,18,19,20,21,22,23,24,25,26,27,28,29,30
Date,Revenue,Revenue Growth,Cost of Revenue,Gross Profit,R&D Expenses,SG&A Expense,Operating Expenses,Operating Income,Interest Expense,Earnings before Tax,Income Tax Expense,Net Income - Non-Controlling int,Net Income - Discontinued ops,Net Income,Preferred Dividends,Net Income Com,EPS,EPS Diluted,Weighted Average Shs Out,Weighted Average Shs Out (Dil),Dividend per Share,Gross Margin,EBITDA Margin,EBIT Margin,Profit Margin,Free Cash Flow margin,EBITDA,EBIT,Consolidated Income,Earnings Before Tax Margin,Net Profit Margin
2018-12-31,7531000000.0,-0.023089894928000003,4926000000.0,2605000000.0,0.0,1424000000.0,1271000000.0,1101000000.0,169000000.0,926000000.0,182000000.0,0.0,0.0,736000000.0,0.0,736000000.0,5.39,5.29,136000000.0,139000000.0,1.9136690647499999,0.34590359846,0.187226131988,0.146195724339,0.09772938520780002,0.10848492895999999,1410000000.0,1101000000.0,736000000.0,0.122958438454,0.09772938520780002
2017-12-31,7709000000.0,0.0258150365935,4719000000.0,2990000000.0,0.0,1750000000.0,1598000000.0,1165000000.0,153000000.0,1030000000.0,241000000.0,0.0,0.0,772000000.0,0.0,772000000.0,5.63,5.5,137000000.0,140000000.0,1.7642857142900001,0.387858347386,0.186146063043,0.151122065119,0.100142690362,0.119730185497,1435000000.0,1165000000.0,772000000.0,0.133610066156,0.100142690362
2016-12-31,7515000000.0,0.00293607366876,4616000000.0,2899000000.0,0.0,1681000000.0,1551000000.0,1277000000.0,144000000.0,1086000000.0,429000000.0,0.0,0.0,645000000.0,0.0,645000000.0,4.58,4.51,140000000.0,142000000.0,1.57042253521,0.385761809714,0.20306054557599998,0.169926813041,0.0858283433134,0.103260146374,1526000000.0,1277000000.0,645000000.0,0.144510978044,0.0858283433134
2015-12-31,7493000000.0,0.00780094149294,4657000000.0,2836000000.0,0.0,1679000000.0,1515000000.0,1399000000.0,154000000.0,1103000000.0,373000000.0,0.0,0.0,709000000.0,0.0,709000000.0,4.92,4.87,144000000.0,145000000.0,1.46206896552,0.378486587482,0.227278793541,0.186707593754,0.09462164687039999,0.0730014680368,1703000000.0,1399000000.0,709000000.0,0.14720405712,0.09462164687039999
2014-12-31,7435000000.0,0.040442205429599996,4637000000.0,2798000000.0,0.0,1728000000.0,1721000000.0,983000000.0,167000000.0,587000000.0,262000000.0,0.0,0.0,556000000.0,0.0,556000000.0,3.83,3.81,145000000.0,145000000.0,1.28965517241,0.376328177539,0.174445191661,0.13221250840600002,0.07478143913919999,0.0847343644923,1297000000.0,983000000.0,556000000.0,0.0789509078682,0.07478143913919999
2013-12-31,7146000000.0,-0.0320433475533,4326000000.0,2820000000.0,0.0,1704000000.0,1740000000.0,1475000000.0,162000000.0,848000000.0,500000000.0,0.0,0.0,849000000.0,0.0,849000000.0,5.58,5.54,152000000.0,153000000.0,1.2091503268000001,0.3946263644,0.246011754828,0.206409179961,0.118807724601,0.0589140778058,1758000000.0,1475000000.0,849000000.0,0.11866778617399999,0.118807724601
2012-12-31,7382562000.0,-0.0170332428377,4364699000.0,3017863000.0,0.0,1745200000.0,1742318000.0,1200797000.0,167688000.0,666498000.0,401897000.0,0.0,0.0,555721000.0,0.0,555721000.0,3.49,3.46,158572000.0,160065000.0,0.675575547434,0.40878261503300006,0.201473824399,0.16265315482599998,0.0752748165203,0.136122663108,1487393000.0,1200797000.0,555721000.0,0.0902800409939,0.0752748165203
2011-12-31,7510490000.0,0.0192110789566,4395333000.0,3115157000.0,0.0,1814315000.0,2053077000.0,995048000.0,173349000.0,507232000.0,349000000.0,0.0,0.0,470567000.0,0.0,470567000.0,2.95,2.92,158672000.0,160172000.0,0.40370351871699994,0.414774135909,0.169915677938,0.132487760452,0.062654633719,0.09771905694569999,1276150000.0,995048000.0,470567000.0,0.0675364723207,0.062654633719
2010-12-31,7368925000.0,-0.011578160497299999,4317247000.0,3051678000.0,0.0,1707673000.0,1707673000.0,1295535000.0,-147502000.0,1184335000.0,425531000.0,0.0,0.0,720894000.0,0.0,720894000.0,4.08,4.05,175684000.0,177320000.0,0.0,0.414127976604,0.175810582955,0.175810582955,0.0978289234861,0.123850765207,1295535000.0,1295535000.0,720894000.0,0.160720186459,0.0978289234861
2009-12-31,7455243000.0,0.0284,4321475000.0,3133768000.0,0.0,1747618000.0,1774657000.0,1359111000.0,144068000.0,1189585000.0,460474000.0,37111000.0,0.0,729111000.0,0.0,729111000.0,3.91,3.87,184900647.0,184900647.0,0.4,0.4203,0.213,0.1789,0.098,0.1114,1590340000.0,1333653000.0,766222000.0,0.1596,0.0978
