,0,1,2,3,4,5,6,7,8,9,10,11,12,13,14,15,16,17,18,19,20,21,22,23,24,25,26,27,28,29,30
Date,Revenue,Revenue Growth,Cost of Revenue,Gross Profit,R&D Expenses,SG&A Expense,Operating Expenses,Operating Income,Interest Expense,Earnings before Tax,Income Tax Expense,Net Income - Non-Controlling int,Net Income - Discontinued ops,Net Income,Preferred Dividends,Net Income Com,EPS,EPS Diluted,Weighted Average Shs Out,Weighted Average Shs Out (Dil),Dividend per Share,Gross Margin,EBITDA Margin,EBIT Margin,Profit Margin,Free Cash Flow margin,EBITDA,EBIT,Consolidated Income,Earnings Before Tax Margin,Net Profit Margin
2018-12-31,11145000.0,2.2479,,10999000.0,,,,1915000.0,,-33126000.0,,,,,,,-0.92,-0.92,36113000.0,,,0.9869,,,,,,,,-2.9723,
2017-12-31,-8931000.0,-0.7601,,-9078000.0,,,,-15923000.0,,128650000.0,,,,,,,3.57,3.57,36085000.0,,,1.0165,,,,,,,,-14.4049,
2016-12-31,-5074000.0,-1.2622,,-5228000.0,,,,-8909000.0,,65249000.0,,,,,,,1.81,1.81,36085000.0,,,1.0304,,,,,,,,-12.8595,
2015-12-31,19354000.0,,,19185000.0,,,,13967000.0,,690000.0,,,,,,,0.02,0.02,36085000.0,,,0.9913,,,,,,,,0.0357,
