,0,1,2,3,4,5,6,7,8,9,10,11,12,13,14,15,16,17,18,19,20,21,22,23,24,25,26,27,28,29,30
Date,Revenue,Revenue Growth,Cost of Revenue,Gross Profit,R&D Expenses,SG&A Expense,Operating Expenses,Operating Income,Interest Expense,Earnings before Tax,Income Tax Expense,Net Income - Non-Controlling int,Net Income - Discontinued ops,Net Income,Preferred Dividends,Net Income Com,EPS,EPS Diluted,Weighted Average Shs Out,Weighted Average Shs Out (Dil),Dividend per Share,Gross Margin,EBITDA Margin,EBIT Margin,Profit Margin,Free Cash Flow margin,EBITDA,EBIT,Consolidated Income,Earnings Before Tax Margin,Net Profit Margin
2019-09-27,1241620000.0,0.059471433301099996,160854000.0,1080766000.0,237871000.0,549260000.0,823689000.0,257077000.0,170000.0,282307000.0,26802000.0,0.0,0.0,255151000.0,0.0,255151000.0,2.51,2.44,101629000.0,104572000.0,0.741077917607,0.870448285305,0.275319340861,0.207049660927,0.20549846168699998,0.18636378280000002,341842000.0,257077000.0,255151000.0,0.227369887727,0.20549846168699998
2018-09-28,1171924000.0,0.08365589289969999,128260000.0,1043664000.0,236794000.0,507318000.0,743666000.0,299998000.0,198000.0,312308000.0,190062000.0,559000.0,0.0,122246000.0,0.0,122246000.0,1.18,1.14,103647299.0,103377000.0,0.64,0.8906,0.336,0.2667,0.10400000000000001,0.2384,393789000.0,312506000.0,122805000.0,0.2665,0.1043
2017-09-29,1081454000.0,0.0543179642365,118307000.0,963147000.0,233312000.0,468347000.0,714515000.0,248632000.0,127000.0,256644000.0,54217000.0,0.0,0.0,201802000.0,0.0,201802000.0,1.98,1.95,101784000.0,103286000.0,0.552436922719,0.890603761233,0.30531303227,0.22990529416900002,0.186602481474,0.250989871044,330182000.0,248632000.0,201802000.0,0.237313838591,0.186602481474
2016-09-30,1025738000.0,0.05676678638169999,108982000.0,916756000.0,219607000.0,464121000.0,684961000.0,231795000.0,125000.0,235904000.0,49502000.0,0.0,0.0,185860000.0,0.0,185860000.0,1.85,1.81,100717000.0,102424000.0,0.472516207139,0.8937525956919999,0.305266062094,0.225978758708,0.181196367883,0.24965147045299999,313123000.0,231795000.0,185860000.0,0.22998465495099998,0.181196367883
2015-09-25,970638000.0,1.0,94816000.0,875822000.0,201324000.0,461350000.0,662674000.0,213228000.0,183000.0,245782000.0,62542000.0,0.0,0.0,181390000.0,0.0,181390000.0,1.77,1.75,102354000.0,103862000.0,0.394927885078,0.902315796414,0.28146332618299996,0.219678191045,0.186877084969,0.156417737612,273199000.0,213228000.0,181390000.0,0.25321695626999996,0.186877084969
2014-11-17,0.0,-1.0,0.0,0.0,0.0,0.0,0.0,0.0,0.0,0.0,0.0,0.0,0.0,0.0,0.0,0.0,0.0,0.0,0.0,0.0,0.0,0.0,0.0,0.0,0.0,0.0,0.0,0.0,0.0,0.0,0.0
2014-09-26,960176000.0,0.0555165916581,70176000.0,890000000.0,183128000.0,430751000.0,616282000.0,273718000.0,-183000.0,273482000.0,67379000.0,2617000.0,0.0,206103000.0,0.0,206103000.0,2.02,1.99,102126645.0,102151000.0,0.0,0.9269,0.34,0.2846,0.215,0.2981,326577000.0,273299000.0,208720000.0,0.2848,0.2147
2013-09-27,909674000.0,-0.017910660459700002,96719000.0,812955000.0,168746000.0,393073000.0,567693000.0,245262000.0,575000.0,187389000.0,60344000.0,0.0,0.0,189271000.0,0.0,189271000.0,1.86,1.84,101879000.0,102788000.0,3.9713390668199997,0.8936772953829999,0.328147226369,0.269615268767,0.208064647335,0.272570173491,298507000.0,245262000.0,189271000.0,0.20599577431,0.208064647335
2012-09-28,926264000.0,-0.0306026656061,92027000.0,834237000.0,140143000.0,330911000.0,472245000.0,361992000.0,196000.0,258684000.0,103857000.0,0.0,0.0,264302000.0,0.0,264302000.0,2.47,2.46,106926000.0,107541000.0,0.0,0.900647115725,0.43817745264799995,0.390808667939,0.285341975938,0.240156154185,405868000.0,361992000.0,264302000.0,0.279276750473,0.285341975938
2011-09-30,955505000.0,0.0355386777904,111171000.0,844334000.0,123920000.0,287275000.0,414601000.0,429733000.0,-1027000.0,440643000.0,130061000.0,0.0,0.0,309267000.0,0.0,309267000.0,2.78,2.75,111444000.0,112554000.0,0.0,0.8836521001980001,0.477903307675,0.449744376011,0.323668635957,0.372919032344,456639000.0,429733000.0,309267000.0,0.461162421965,0.323668635957
2010-09-24,922713000.0,0.282431067,131815000.0,790898000.0,104978000.0,249513000.0,361517000.0,429381000.0,703000.0,437012000.0,154185000.0,0.0,0.0,283447000.0,0.0,283447000.0,2.5,2.46,113452000.0,115388000.0,0.00227926647485,0.857144095726,0.493327827829,0.465346212744,0.30718869247499997,0.314091163775,455200000.0,429381000.0,283447000.0,0.473616389928,0.30718869247499997
2009-09-25,719503000.0,0.1238,64768000.0,654735000.0,81543000.0,204679000.0,291069000.0,363666000.0,935000.0,370064000.0,127073000.0,1355000.0,0.0,242991000.0,0.0,242991000.0,2.15,2.11,113562161.0,113101000.0,0.0,0.91,0.556,0.5156,0.33799999999999997,0.34700000000000003,399731000.0,370999000.0,244346000.0,0.5143,0.3377
