,0,1,2,3,4,5,6,7,8,9,10,11,12,13,14
Date,Depreciation & Amortization,Stock-based compensation,Operating Cash Flow,Capital Expenditure,Acquisitions and disposals,Investment purchases and sales,Investing Cash flow,Issuance (repayment) of debt,Issuance (buybacks) of shares,Dividend payments,Financing Cash Flow,Effect of forex changes on cash,Net cash flow / Change in cash,Free Cash Flow,Net Cash/Marketcap
2020-02-02,22083000.0,647000.0,6696000.0,24435000.0,-0.0,0.0,-30687000.0,-495000.0,0.0,-0.0,21495000.0,0.0,589000.0,-17739000.0,0.0
2019-02-03,12594000.0,1668000.0,31095000.0,53036000.0,-0.0,0.0,-53735000.0,-416000.0,0.0,-0.0,18642000.0,0.0,3085000.0,-21941000.0,0.0
2018-01-28,7330000.0,1597000.0,29868000.0,46464000.0,-0.0,0.0,-55805000.0,-54000.0,0.0,-0.0,4760000.0,0.0,-21177000.0,-16596000.0,0.0
2017-01-29,4698000.0,1224000.0,20253000.0,28672000.0,-0.0,0.0,-30341000.0,-4226000.0,0.0,-0.0,-3743000.0,0.0,-13831000.0,-8419000.0,0.0
2016-01-31,2837000.0,720000.0,14214000.0,7306000.0,-0.0,0.0,-7362000.0,-46899000.0,0.0,-0.0,23140000.0,0.0,29992000.0,6908000.0,0.0
2015-02-01,1821000.0,74000.0,22628000.0,-5269000.0,-1773000.0,0.0,-7147000.0,258000.0,0.0,-15078000.0,-15100000.0,0.0,381000.0,17359000.0,-0.0826
2014-02-02,1247000.0,76000.0,16370000.0,-3952000.0,0.0,0.0,-4214000.0,-748000.0,0.0,-4434000.0,-4898000.0,0.0,7258000.0,12418000.0,-0.0826
