,0,1,2,3,4,5,6,7,8,9,10,11,12,13,14,15,16,17,18,19,20,21,22,23,24,25,26,27,28
Date,Cash and cash equivalents,Short-term investments,Cash and short-term investments,Receivables,Inventories,Total current assets,Property Plant & Equipment Net,Goodwill and Intangible Assets,Long-term investments,Tax assets,Total non-current assets,Total assets,Payables,Short-term debt,Total current liabilities,Long-term debt,Total debt,Deferred revenue,Tax Liabilities,Deposit Liabilities,Total non-current liabilities,Total liabilities,Other comprehensive income,Retained earnings (deficit),Total shareholders equity,Investments,Net Debt,Other Assets,Other Liabilities
2019-12-31,15339000.0,0.0,15339000.0,7061000.0,0.0,28282000.0,843000.0,0.0,0.0,0.0,88601000.0,116883000.0,2052000.0,310000.0,2362000.0,2185000.0,2495000.0,0.0,0.0,0.0,2185000.0,4547000.0,112336000.0,0.0,112336000.0,0.0,-12844000.0,0.0,0.0
2018-12-31,18285000.0,0.0,18285000.0,6635000.0,0.0,30118000.0,935000.0,0.0,0.0,0.0,57805000.0,87923000.0,421000.0,0.0,486000.0,790000.0,790000.0,0.0,0.0,0.0,1580000.0,1276000.0,86647000.0,0.0,86647000.0,0.0,-17495000.0,0.0,0.0
2017-12-31,13827000.0,0.0,13827000.0,6198000.0,0.0,25355000.0,948000.0,0.0,0.0,0.0,66692000.0,92047000.0,599000.0,0.0,637000.0,664000.0,664000.0,0.0,0.0,0.0,1328000.0,1301000.0,90746000.0,0.0,90746000.0,0.0,-13163000.0,0.0,0.0
2016-12-31,8212000.0,0.0,8212000.0,4332000.0,0.0,14769000.0,23000.0,0.0,0.0,0.0,52442000.0,67211000.0,252000.0,0.0,275000.0,0.0,0.0,0.0,0.0,0.0,0.0,275000.0,66936000.0,0.0,66936000.0,0.0,-8212000.0,0.0,0.0
2015-12-31,7136000.0,0.0,7136000.0,2639000.0,0.0,12780000.0,77000.0,0.0,0.0,0.0,60949000.0,73729000.0,481000.0,0.0,535000.0,23000.0,23000.0,0.0,0.0,0.0,46000.0,558000.0,73171000.0,0.0,73171000.0,0.0,-7113000.0,0.0,0.0
2014-12-31,15912000.0,0.0,15912000.0,4761000.0,0.0,26465000.0,12000.0,0.0,0.0,0.0,71044000.0,97509000.0,975000.0,0.0,985000.0,0.0,0.0,0.0,0.0,0.0,0.0,985000.0,96524000.0,0.0,96524000.0,0.0,-15912000.0,0.0,0.0
2013-12-31,15175000.0,0.0,15175000.0,6508000.0,0.0,28198000.0,84507000.0,0.0,0.0,0.0,84587000.0,112785000.0,911000.0,0.0,950000.0,11000.0,11000.0,0.0,0.0,0.0,22000.0,961000.0,111824000.0,0.0,111824000.0,0.0,-15164000.0,0.0,0.0
2012-12-31,13792000.0,0.0,13792000.0,5806000.0,0.0,26070000.0,97601000.0,0.0,0.0,0.0,97730000.0,123800000.0,448000.0,0.0,487000.0,50000.0,50000.0,0.0,0.0,0.0,100000.0,537000.0,123263000.0,0.0,123263000.0,0.0,-13742000.0,0.0,0.0
2011-12-31,14238000.0,0.0,14238000.0,6602000.0,0.0,28456000.0,114136000.0,0.0,0.0,0.0,114313000.0,142769000.0,529000.0,0.0,568000.0,90000.0,90000.0,0.0,0.0,0.0,180000.0,658000.0,142111000.0,0.0,142111000.0,0.0,-14148000.0,0.0,0.0
2010-12-31,11253000.0,0.0,11253000.0,9199000.0,0.0,20452000.0,132640000.0,0.0,0.0,0.0,132659000.0,153111000.0,542000.0,0.0,581000.0,0.0,0.0,0.0,0.0,0.0,129000.0,710000.0,0.0,,152401000.0,0.0,-11253000.0,0.0,39000.0
2009-12-31,10124000.0,0.0,10124000.0,9122000.0,0.0,19246000.0,133503000.0,0.0,0.0,0.0,133522000.0,152768000.0,529000.0,0.0,568000.0,0.0,0.0,0.0,0.0,0.0,169000.0,737000.0,0.0,,152031000.0,0.0,-10124000.0,0.0,39000.0
