,0,1,2,3,4,5,6,7,8,9,10,11,12,13,14,15,16,17,18,19,20,21,22,23,24,25,26,27,28
Date,Cash and cash equivalents,Short-term investments,Cash and short-term investments,Receivables,Inventories,Total current assets,Property Plant & Equipment Net,Goodwill and Intangible Assets,Long-term investments,Tax assets,Total non-current assets,Total assets,Payables,Short-term debt,Total current liabilities,Long-term debt,Total debt,Deferred revenue,Tax Liabilities,Deposit Liabilities,Total non-current liabilities,Total liabilities,Other comprehensive income,Retained earnings (deficit),Total shareholders equity,Investments,Net Debt,Other Assets,Other Liabilities
2019-12-31,79449000.0,335907000.0,415356000.0,1200000.0,0.0,430031000.0,46732000.0,0.0,39886000.0,13562000.0,123200000.0,553231000.0,2590000.0,24015000.0,45344000.0,68900000.0,92915000.0,18739000.0,5299000.0,0.0,156785000.0,158341000.0,818803000.0,-425551000.0,394890000.0,375793000.0,13466000.0,0.0,0.0
2018-12-31,77123000.0,387174000.0,464297000.0,2300000.0,0.0,480836000.0,25162000.0,0.0,147881000.0,4159000.0,181148000.0,661984000.0,1891000.0,380000.0,32786000.0,24532000.0,24912000.0,11427000.0,2642000.0,0.0,106885000.0,115139000.0,774158000.0,-227937000.0,546845000.0,535055000.0,-52211000.0,0.0,0.0
2017-12-31,218375000.0,187851000.0,406226000.0,0.0,0.0,409607000.0,14923000.0,0.0,60750000.0,0.0,77114000.0,486721000.0,2716000.0,0.0,14164000.0,0.0,0.0,6294000.0,0.0,0.0,6761000.0,20925000.0,-368000.0,-191697000.0,465796000.0,248601000.0,-406226000.0,3381000.0,11448000.0
2016-12-31,39853000.0,138478000.0,178331000.0,0.0,0.0,181955000.0,15262000.0,0.0,72580000.0,0.0,89112000.0,271067000.0,1963000.0,0.0,9106000.0,0.0,0.0,0.0,0.0,0.0,7442000.0,16548000.0,-373000.0,-103512000.0,-94154000.0,211058000.0,-178331000.0,3624000.0,7143000.0
2015-12-31,30740000.0,0.0,30740000.0,0.0,0.0,33431000.0,3168000.0,0.0,0.0,0.0,3252000.0,36683000.0,1713000.0,0.0,3481000.0,0.0,0.0,0.0,0.0,0.0,528000.0,4009000.0,0.0,-16860000.0,-15634000.0,0.0,-30740000.0,2691000.0,1768000.0
