,0,1,2,3,4,5,6,7,8,9,10,11,12,13,14,15,16,17,18,19,20,21,22,23,24,25,26,27,28
Date,Cash and cash equivalents,Short-term investments,Cash and short-term investments,Receivables,Inventories,Total current assets,Property Plant & Equipment Net,Goodwill and Intangible Assets,Long-term investments,Tax assets,Total non-current assets,Total assets,Payables,Short-term debt,Total current liabilities,Long-term debt,Total debt,Deferred revenue,Tax Liabilities,Deposit Liabilities,Total non-current liabilities,Total liabilities,Other comprehensive income,Retained earnings (deficit),Total shareholders equity,Investments,Net Debt,Other Assets,Other Liabilities
2017-12-31,11985790.0,,,87318.0,0.0,,0.0,0.0,,0.0,,11402579.0,90753.0,,,,0.0,0.0,0.0,0.0,,90771.0,0.0,-671180.0,11311808.0,0.0,,,
2016-12-31,9587789.0,,,129950.0,0.0,,0.0,0.0,,0.0,,9388589.0,94476.0,,,,0.0,0.0,0.0,0.0,,94476.0,0.0,-329150.0,9294113.0,0.0,,,
2015-12-31,23714785.0,,,110677.0,0.0,,0.0,0.0,,0.0,,24473856.0,99279.0,,,,0.0,0.0,0.0,0.0,,99279.0,0.0,648394.0,24374577.0,0.0,,,
2014-12-31,9809332.0,,,94855.0,0.0,,0.0,0.0,,0.0,,11232377.0,96384.0,,,,0.0,0.0,0.0,0.0,,96384.0,0.0,1328190.0,11135993.0,0.0,,,
2013-12-31,10355492.0,,,79534.0,0.0,,0.0,0.0,,0.0,,10385706.0,116968.0,,,,0.0,0.0,0.0,0.0,,116968.0,0.0,-49320.0,10268738.0,0.0,,,
2012-12-31,14023228.0,,,107781.0,0.0,,0.0,0.0,,0.0,,13395752.0,132751.0,,,,0.0,0.0,0.0,0.0,,133166.0,0.0,-735330.0,13262586.0,0.0,,,
2011-12-31,10859241.0,,,121717.0,0.0,,0.0,0.0,,0.0,,10985150.0,137396.0,,,,0.0,0.0,0.0,0.0,,137985.0,0.0,4160.0,10847165.0,0.0,,,
2010-12-31,8318194.0,,,175648.0,0.0,,0.0,0.0,,0.0,,8288813.0,204425.0,,,,0.0,0.0,0.0,0.0,,205012.0,0.0,-205860.0,8083801.0,0.0,,,
2009-12-31,14233832.0,,,206897.0,0.0,,0.0,0.0,,0.0,,13416359.0,219163.0,,,,0.0,0.0,0.0,0.0,,220054.0,0.0,-1024370.0,13196305.0,0.0,,,
