,0,1,2,3,4,5,6,7,8,9,10,11,12,13,14,15,16,17,18,19,20,21,22,23,24,25,26,27,28,29,30
Date,Revenue,Revenue Growth,Cost of Revenue,Gross Profit,R&D Expenses,SG&A Expense,Operating Expenses,Operating Income,Interest Expense,Earnings before Tax,Income Tax Expense,Net Income - Non-Controlling int,Net Income - Discontinued ops,Net Income,Preferred Dividends,Net Income Com,EPS,EPS Diluted,Weighted Average Shs Out,Weighted Average Shs Out (Dil),Dividend per Share,Gross Margin,EBITDA Margin,EBIT Margin,Profit Margin,Free Cash Flow margin,EBITDA,EBIT,Consolidated Income,Earnings Before Tax Margin,Net Profit Margin
2019-12-31,1274883000.0,-0.134866061583,477220000.0,797663000.0,0.0,83029000.0,94216000.0,321311000.0,81632000.0,321311000.0,104352000.0,0.0,0.0,216959000.0,0.0,216959000.0,0.47,0.45,459524000.0,510341000.0,0.0,0.6256754541399999,0.445083980255,0.252031755071,0.17017953804400002,0.387598705136,567430000.0,321311000.0,216959000.0,0.252031755071,0.17017953804400002
2018-12-31,1473625000.0,0.304339936944,489720000.0,983905000.0,0.0,71495000.0,151436000.0,409931000.0,69688000.0,409931000.0,87233000.0,0.0,0.0,322698000.0,0.0,322698000.0,0.75,0.71,432483000.0,456169000.0,0.0,0.6676766477220001,0.42929917719899996,0.278178641106,0.21898244125900002,0.359443549071,632626000.0,409931000.0,322698000.0,0.278178641106,0.21898244125900002
2017-12-31,1129786000.0,0.158046978462,0.0,0.0,0.0,101806000.0,559707000.0,46500000.0,99263000.0,46500000.0,-116652000.0,0.0,0.0,163152000.0,0.0,163152000.0,0.42,0.41,390928000.0,395921000.0,0.0006945830102469999,0.0,0.23048966795499998,0.0411582370467,0.144409649261,0.236454514395,260404000.0,46500000.0,163152000.0,0.0411582370467,0.144409649261
2016-12-31,975596000.0,-0.224215146792,0.0,0.0,0.0,109926000.0,565639000.0,-1520347000.0,125145000.0,-1520347000.0,-544170000.0,0.0,0.0,-976177000.0,0.0,-976177000.0,-2.61,-2.61,373859000.0,373859000.0,0.00129995533075,0.0,-0.673739949733,-1.55837764812,-1.0005955334,0.224706743365,-657298000.0,-1520347000.0,-976177000.0,-1.55837764812,-1.0005955334
2015-12-31,1257560000.0,-0.48359173047,0.0,0.0,0.0,144564000.0,673763000.0,-6325982000.0,159268000.0,-6325982000.0,-1940534000.0,0.0,0.0,-4385448000.0,0.0,-4385448000.0,-12.57,-12.57,348802000.0,348802000.0,0.187573465748,0.0,-4.600337956040001,-5.0303619708,-3.48726740672,0.687286491301,-5785201000.0,-6325982000.0,-4385448000.0,-5.0303619708,-3.48726740672
2014-12-31,2435205000.0,1.0,0.0,0.0,0.0,158343000.0,843940000.0,1022557000.0,183003000.0,1022557000.0,387066000.0,0.0,0.0,635491000.0,0.0,635491000.0,1.82,1.81,348962000.0,351167000.0,0.247870671219,0.0,0.668939575929,0.419905921678,0.26095996025,0.50214458331,1629005000.0,1022557000.0,635491000.0,0.419905921678,0.26095996025
2013-12-31,0.0,-1.0,0.0,0.0,0.0,145211000.0,962189000.0,642380000.0,140709000.0,642380000.0,232783000.0,0.0,0.0,409597000.0,0.0,409597000.0,1.12,1.11,366659000.0,369877000.0,0.0,0.0,0.0,0.0,0.0,0.0,1166346000.0,642380000.0,409597000.0,0.0,0.0
2012-12-31,20152000.0,0.154048791662,0.0,0.0,0.0,144019000.0,765799000.0,525360000.0,153581000.0,525430000.0,331497000.0,0.0,0.0,525360000.0,0.0,525360000.0,1.36,1.35,385205000.0,388938000.0,0.0,0.0,51.9845672886,26.0698689956,26.0698689956,70.01245533939999,1047593000.0,525360000.0,525360000.0,26.0733425963,26.0698689956
2011-12-31,17462000.0,1.0,0.0,0.0,0.0,125525000.0,647180000.0,924045000.0,164360000.0,924045000.0,8249000.0,0.0,0.0,573333000.0,0.0,573333000.0,1.45,1.43,396023000.0,400958000.0,0.0,0.0,77.32189898060001,52.9174779521,32.8331806208,68.9963348986,1350195000.0,924045000.0,573333000.0,52.9174779521,32.8331806208
2010-12-31,0.0,-1.0,0.0,0.0,0.0,0.0,0.0,0.0,0.0,0.0,0.0,0.0,0.0,0.0,0.0,0.0,0.0,0.0,0.0,0.0,0.0,0.0,0.0,0.0,0.0,0.0,0.0,0.0,0.0,0.0,0.0
2009-12-31,889150000.0,-0.3515,335841000.0,553309000.0,0.0,101785000.0,391842000.0,161467000.0,47430000.0,-122189000.0,-47033000.0,0.0,0.0,-75156000.0,0.0,-75156000.0,-0.3,-0.3,249823000.0,246917000.0,0.0,0.6223,0.184,-0.0841,-0.085,-0.4669,163564000.0,-74759000.0,-75156000.0,-0.1374,-0.0845
