,0,1,2,3,4,5,6,7,8,9,10,11,12,13,14,15,16,17,18,19,20,21,22,23,24,25,26,27,28,29,30
Date,Revenue,Revenue Growth,Cost of Revenue,Gross Profit,R&D Expenses,SG&A Expense,Operating Expenses,Operating Income,Interest Expense,Earnings before Tax,Income Tax Expense,Net Income - Non-Controlling int,Net Income - Discontinued ops,Net Income,Preferred Dividends,Net Income Com,EPS,EPS Diluted,Weighted Average Shs Out,Weighted Average Shs Out (Dil),Dividend per Share,Gross Margin,EBITDA Margin,EBIT Margin,Profit Margin,Free Cash Flow margin,EBITDA,EBIT,Consolidated Income,Earnings Before Tax Margin,Net Profit Margin
2019-12-31,415281000.0,-0.017205023772299998,124819000.0,290462000.0,0.0,33099000.0,369376000.0,45905000.0,65022000.0,45905000.0,0.0,0.0,0.0,73274000.0,1209000.0,73274000.0,0.39,0.39,185770251.0,191626320.0,0.8917355402949999,0.699434840506,0.48197967159599997,0.110539610529,0.176444383442,0.484435839829,200157000.0,45905000.0,73274000.0,0.110539610529,0.176444383442
2018-12-31,422551000.0,0.627242724504,122620000.0,299931000.0,0.0,28816000.0,376008000.0,54890000.0,66183000.0,58802000.0,0.0,0.0,0.0,54890000.0,1340000.0,54890000.0,0.3,0.3,182064064.0,187526762.0,0.896192085906,0.70981017676,0.522732167241,0.129901479348,0.129901479348,0.49389067828500005,220881000.0,54890000.0,54890000.0,0.139159533405,0.129901479348
2017-12-31,259673000.0,0.39383578188,97035000.0,162638000.0,0.0,22957000.0,309868000.0,37415000.0,47008000.0,40017000.0,0.0,0.0,0.0,37415000.0,731000.0,37415000.0,0.23,0.23,163123109.0,168231299.0,0.850662158889,0.6263184851720001,0.6548813315209999,0.14408506082699998,0.14408506082699998,0.69499331852,170055000.0,37415000.0,37415000.0,0.154105355582,0.14408506082699998
2016-12-31,186301000.0,0.7918037201610001,65999000.0,120302000.0,0.0,18397000.0,209627000.0,31407000.0,23864000.0,31407000.0,0.0,0.0,0.0,28124000.0,1857000.0,28124000.0,0.22,0.22,126143114.0,130466893.0,0.804096714406,0.645739958454,0.665541247766,0.16858202586100002,0.150960005582,0.669770962045,123991000.0,31407000.0,28124000.0,0.16858202586100002,0.150960005582
2015-12-31,103974000.0,1.2409638554200002,31026000.0,72948000.0,0.0,14908000.0,116934000.0,12507000.0,10636000.0,12507000.0,0.0,0.0,0.0,10599000.0,1189000.0,10599000.0,0.15,0.15,72750724.0,76792073.0,0.829773145986,0.701598476542,0.593946563564,0.120289687807,0.101938946275,0.590070594572,61755000.0,12507000.0,10599000.0,0.120289687807,0.101938946275
2014-12-31,46397000.0,2.42034647991,10154000.0,36243000.0,0.0,11440000.0,57879000.0,-4545000.0,6907000.0,-4545000.0,0.0,0.0,0.0,-4037000.0,0.0,-4037000.0,-0.12,-0.12,33063093.0,33063093.0,0.8500112194589999,0.7811496432960001,0.29859689204,-0.0979589197577,-0.08700993598719999,0.286548699269,13854000.0,-4545000.0,-4037000.0,-0.0979589197577,-0.08700993598719999
2013-12-31,13565000.0,0.037952406458,4650000.0,8915000.0,0.0,3214000.0,15386000.0,1413000.0,4295000.0,-2636000.0,0.0,0.0,0.0,-1661000.0,0.0,-1661000.0,-0.13,-0.13,12883917.0,12883917.0,0.205993255002,0.657206044969,0.5286398820489999,0.104165130851,-0.12244747512,0.07408772576480001,7171000.0,1413000.0,-1661000.0,-0.194323626981,-0.12244747512
2012-12-31,13069000.0,-0.0561854553333,4758000.0,8311000.0,0.0,362000.0,6400000.0,1911000.0,4538000.0,-1534000.0,0.0,0.0,-1321000.0,-1534000.0,0.0,-1534000.0,,,,,0.0,0.6359,0.547,0.2299,-0.11699999999999999,1.3156,7154000.0,3004000.0,-1534000.0,-0.1174,-0.1174
2011-12-31,13847000.0,,4953000.0,8894000.0,0.0,301000.0,7277000.0,1617000.0,4617000.0,-3060000.0,0.0,0.0,-265000.0,-3060000.0,0.0,-3060000.0,,,,,0.0,0.6423,0.45799999999999996,0.1124,-0.221,0.2113,6340000.0,1557000.0,-3060000.0,-0.221,-0.221
