,0,1,2,3,4,5,6,7,8,9,10,11,12,13,14,15,16,17,18,19,20,21,22,23,24,25,26,27,28
Date,Cash and cash equivalents,Short-term investments,Cash and short-term investments,Receivables,Inventories,Total current assets,Property Plant & Equipment Net,Goodwill and Intangible Assets,Long-term investments,Tax assets,Total non-current assets,Total assets,Payables,Short-term debt,Total current liabilities,Long-term debt,Total debt,Deferred revenue,Tax Liabilities,Deposit Liabilities,Total non-current liabilities,Total liabilities,Other comprehensive income,Retained earnings (deficit),Total shareholders equity,Investments,Net Debt,Other Assets,Other Liabilities
2020-01-31,80843000.0,17967000.0,98810000.0,47967000.0,0.0,172262000.0,12816000.0,13343000.0,0.0,0.0,44476000.0,216738000.0,2298000.0,4454000.0,154061000.0,101074000.0,105528000.0,105290000.0,0.0,0.0,116311000.0,265918000.0,988166000.0,-1037738000.0,-49180000.0,17967000.0,24685000.0,0.0,0.0
2019-01-31,176973000.0,0.0,176973000.0,48421000.0,0.0,246754000.0,12595000.0,13893000.0,0.0,0.0,45878000.0,292632000.0,2609000.0,4943000.0,139707000.0,97245000.0,102188000.0,88959000.0,0.0,0.0,113341000.0,248105000.0,956168000.0,-912082000.0,44527000.0,0.0,-74785000.0,0.0,0.0
2018-01-31,61972000.0,0.0,61972000.0,35484000.0,0.0,113261000.0,14952000.0,12504000.0,0.0,0.0,42094000.0,155355000.0,12121000.0,0.0,128261000.0,46332000.0,46332000.0,70956000.0,0.0,0.0,55900000.0,184161000.0,506000.0,-757773000.0,-721964000.0,0.0,-15640000.0,15805000.0,116140000.0
2017-01-31,68984000.0,0.0,68984000.0,22298000.0,0.0,102670000.0,15722000.0,12269000.0,0.0,0.0,35252000.0,137922000.0,8035000.0,0.0,96908000.0,0.0,0.0,49936000.0,0.0,0.0,3023000.0,99931000.0,330000.0,-581211000.0,-556196000.0,0.0,-68984000.0,11388000.0,88873000.0
