,0,1,2,3,4,5,6,7,8,9,10,11,12,13,14,15,16,17,18,19,20,21,22,23,24,25,26,27,28,29,30
Date,Revenue,Revenue Growth,Cost of Revenue,Gross Profit,R&D Expenses,SG&A Expense,Operating Expenses,Operating Income,Interest Expense,Earnings before Tax,Income Tax Expense,Net Income - Non-Controlling int,Net Income - Discontinued ops,Net Income,Preferred Dividends,Net Income Com,EPS,EPS Diluted,Weighted Average Shs Out,Weighted Average Shs Out (Dil),Dividend per Share,Gross Margin,EBITDA Margin,EBIT Margin,Profit Margin,Free Cash Flow margin,EBITDA,EBIT,Consolidated Income,Earnings Before Tax Margin,Net Profit Margin
2020-01-31,173395000.0,0.217114499102,55930000.0,117465000.0,69224000.0,163508000.0,232732000.0,-115267000.0,0.0,-124902000.0,754000.0,0.0,0.0,-125656000.0,0.0,-125656000.0,-4.57,-4.57,27520000.0,27520000.0,0.0,0.677441679403,-0.5569537760600001,-0.6647654199949999,-0.724680642464,-0.499927910263,-96573000.0,-115267000.0,-125656000.0,-0.72033218951,-0.724680642464
2019-01-31,142464000.0,0.31274188198,49554000.0,92910000.0,75740000.0,161257000.0,236997000.0,-144087000.0,0.0,-153061000.0,1248000.0,0.0,0.0,-154309000.0,0.0,-154309000.0,-9.43,-9.43,16358000.0,16358000.0,0.0,0.652164757412,-0.8923798292899999,-1.0113923517499999,-1.08314381177,-0.9668407457320001,-127132000.0,-144087000.0,-154309000.0,-1.07438370395,-1.08314381177
2018-01-31,108524000.0,0.455916286558,44919000.0,63605000.0,78261000.0,161125000.0,239386000.0,-175781000.0,0.0,-176177000.0,385000.0,0.0,0.0,-176562000.0,0.0,-176562000.0,-110.7,-110.7,24954000.0,1595000.0,0.0,0.5861,-1.548,-1.6234,-1.6269999999999998,-1.4369,-168046000.0,-176177000.0,-176562000.0,-1.6234,-1.6269
2017-01-31,74540000.0,,33195000.0,41345000.0,76164000.0,148041000.0,224205000.0,-182860000.0,0.0,-182347000.0,773000.0,0.0,0.0,-183120000.0,0.0,-183120000.0,-124.9,-124.9,24954000.0,1466000.0,0.0,0.5547,-2.377,-2.4463,-2.457,-2.09,-177148000.0,-182347000.0,-183120000.0,-2.4463,-2.4567
