,0,1,2,3,4,5,6,7,8,9,10,11,12,13,14,15,16,17,18,19,20,21,22,23,24,25,26,27,28,29,30
Date,Revenue,Revenue Growth,Cost of Revenue,Gross Profit,R&D Expenses,SG&A Expense,Operating Expenses,Operating Income,Interest Expense,Earnings before Tax,Income Tax Expense,Net Income - Non-Controlling int,Net Income - Discontinued ops,Net Income,Preferred Dividends,Net Income Com,EPS,EPS Diluted,Weighted Average Shs Out,Weighted Average Shs Out (Dil),Dividend per Share,Gross Margin,EBITDA Margin,EBIT Margin,Profit Margin,Free Cash Flow margin,EBITDA,EBIT,Consolidated Income,Earnings Before Tax Margin,Net Profit Margin
2019-01-31,4002900763.3588,0.1148,3046106870.229,956793893.1298,169236641.2214,421068702.2901,596030534.3511,360763358.7786,0.0,250839694.6565,77557251.9084,229007.6336,0.0,173282442.7481,0.0,173282442.7481,1.7634,1.7405,74128647.3282,74128647.3282,0.1038,0.239,0.0733,0.0627,0.0328,0.0501,386183206.1069,250839694.6565,173511450.3817,0.0627,0.0433
2018-01-31,3590725806.4516,,2747903225.8065,842822580.6452,160161290.3226,366854838.7097,538225806.4516,304596774.1935,0.0,303548387.0968,110887096.7742,161290.3226,0.0,192661290.3226,0.0,192661290.3226,1.7984,1.7823,78313329.0323,78313329.0323,0.0,0.2347,0.0952,0.0845,0.0435,0.0742,423870967.7419,303548387.0968,192822580.6452,0.0845,0.0537
