,0,1,2,3,4,5,6,7,8,9,10,11,12,13,14,15,16,17,18,19,20,21,22,23,24,25,26,27,28
Date,Cash and cash equivalents,Short-term investments,Cash and short-term investments,Receivables,Inventories,Total current assets,Property Plant & Equipment Net,Goodwill and Intangible Assets,Long-term investments,Tax assets,Total non-current assets,Total assets,Payables,Short-term debt,Total current liabilities,Long-term debt,Total debt,Deferred revenue,Tax Liabilities,Deposit Liabilities,Total non-current liabilities,Total liabilities,Other comprehensive income,Retained earnings (deficit),Total shareholders equity,Investments,Net Debt,Other Assets,Other Liabilities
2019-01-31,76335877.8626,9770992.3664,86106870.229,296412213.7405,722290076.3359,1134198473.2824,690916030.5344,365419847.3282,15267175.5725,150916030.5344,1214809160.3053,2349007633.5878,766030534.3511,96717557.2519,1281221374.0458,935496183.2061,1032213740.4580001,153435114.5038,52824427.4809,0.0,1314198473.2824,2595419847.3282,0.0,,-246412213.7405,25038167.9389,,,418473282.4428
2018-01-31,182258064.5161,9274193.5484,191532258.0645,265161290.3226,599032258.0645,1088225806.4516,618387096.7742,253709677.4194,17258064.5161,152741935.4839,1027580645.1613,2115806451.6129,649596774.1935,123629032.2581,1163145161.2903,824838709.6774,948467741.9355,148709677.4194,35322580.6452,0.0,1188145161.2903,2351290322.5806,0.0,,-235483870.9677,26532258.0645,,,389919354.8387
