,0,1,2,3,4,5,6,7,8,9,10,11,12,13,14,15,16,17,18,19,20,21,22,23,24,25,26,27,28,29,30
Date,Revenue,Revenue Growth,Cost of Revenue,Gross Profit,R&D Expenses,SG&A Expense,Operating Expenses,Operating Income,Interest Expense,Earnings before Tax,Income Tax Expense,Net Income - Non-Controlling int,Net Income - Discontinued ops,Net Income,Preferred Dividends,Net Income Com,EPS,EPS Diluted,Weighted Average Shs Out,Weighted Average Shs Out (Dil),Dividend per Share,Gross Margin,EBITDA Margin,EBIT Margin,Profit Margin,Free Cash Flow margin,EBITDA,EBIT,Consolidated Income,Earnings Before Tax Margin,Net Profit Margin
2018-12-29,973705000.0,0.0780362724073,600424000.0,373281000.0,20100000.0,202138000.0,222238000.0,171143000.0,0.0,171135000.0,37533000.0,0.0,0.0,133602000.0,0.0,133602000.0,4.04,4.02,33097000.0,33207000.0,0.0,0.38336149039000006,0.20492243544,0.175764733672,0.137209935247,0.05341042718280001,199534000.0,171143000.0,133602000.0,0.17575651763099998,0.137209935247
2017-12-30,903221000.0,0.0507408062317,544572000.0,358649000.0,20000000.0,182409000.0,202409000.0,176240000.0,0.0,176588000.0,69989000.0,0.0,0.0,106599000.0,0.0,106599000.0,3.14,3.13,33964000.0,34052000.0,0.0,0.397077791593,0.21972916927299999,0.19512389548099998,0.118020949469,0.07726901832439999,198464000.0,176240000.0,106599000.0,0.195509183245,0.118020949469
2016-12-31,859604000.0,0.070547987003,521530000.0,338074000.0,18900000.0,169473000.0,188373000.0,168601000.0,241000.0,168360000.0,62311000.0,0.0,0.0,106049000.0,0.0,106049000.0,3.07,3.07,34516000.0,34598000.0,0.0,0.393290398835,0.218133000777,0.19613798912099997,0.123369598094,0.11805435991499999,187508000.0,168601000.0,106049000.0,0.195857627466,0.123369598094
2015-12-26,802957000.0,0.06850651251670001,494907000.0,308050000.0,16800000.0,161893000.0,178693000.0,146157000.0,216000.0,145941000.0,53612000.0,0.0,0.0,92329000.0,0.0,92329000.0,2.6,2.6,35466000.0,35538000.0,0.0,0.383644454186,0.202181436864,0.18202344583799998,0.114986232139,0.087641056744,162343000.0,146157000.0,92329000.0,0.18175444015099998,0.114986232139
2014-12-27,751476000.0,0.130947256895,464275000.0,287201000.0,15800000.0,146467000.0,162267000.0,140734000.0,204000.0,140530000.0,50543000.0,0.0,0.0,89987000.0,0.0,89987000.0,2.5,2.49,36052000.0,36190000.0,0.0,0.38218253144500003,0.204120956624,0.187276772645,0.11974700456199999,0.0396260160005,153392000.0,140734000.0,89987000.0,0.18700530688900002,0.11974700456199999
2013-12-28,664466000.0,0.164871498194,403498000.0,260968000.0,13400000.0,133029000.0,146429000.0,127939000.0,189000.0,127750000.0,45830000.0,0.0,0.0,81920000.0,0.0,81920000.0,2.25,2.24,36347000.0,36624000.0,0.0,0.39274846267499997,0.207833056921,0.192544088035,0.123286970289,0.0555227806991,138098000.0,127939000.0,81920000.0,0.192259649102,0.123286970289
2012-12-29,570420000.0,0.07771398126160001,355211000.0,215209000.0,10500000.0,110978000.0,121478000.0,104231000.0,123000.0,0.0,37703000.0,0.0,0.0,70962000.0,0.0,70962000.0,1.94,1.94,36124000.0,36494000.0,1.49931495588,0.37728165211599995,0.19714596262400003,0.182726762736,0.124403071421,0.0540531538165,112456000.0,104231000.0,70962000.0,0.0,0.124403071421
2011-12-31,529287000.0,0.207852489132,338211000.0,191076000.0,0.0,106413000.0,106413000.0,84663000.0,156000.0,84507000.0,31230000.0,0.0,0.0,53277000.0,0.0,53277000.0,2.97,2.93,17933000.0,18185000.0,0.0,0.361006410511,0.174574474718,0.159956696461,0.10065805508199999,0.037712998807800005,92400000.0,84663000.0,53277000.0,0.15966196033500002,0.10065805508199999
2010-12-25,438205000.0,0.161183216828,269273000.0,168932000.0,0.0,92125000.0,92125000.0,76807000.0,139000.0,74705000.0,28567000.0,0.0,1963000.0,46138000.0,0.0,46138000.0,1.29,1.27,35662016.0,35534000.0,0.0,0.3855,0.18899999999999997,0.1708,0.105,0.044000000000000004,82856000.0,74844000.0,46138000.0,0.1705,0.1053
2009-12-26,377378000.0,0.1024,245592000.0,131786000.0,0.0,88117000.0,88117000.0,43669000.0,343000.0,43326000.0,16831000.0,0.0,0.0,26495000.0,0.0,26495000.0,0.75,0.735,35351402.0,35316000.0,0.0,0.3492,0.136,0.1157,0.07,0.0523,51504000.0,43669000.0,26495000.0,0.1148,0.0702
