,0,1,2,3,4,5,6,7,8,9,10,11,12,13,14,15,16,17,18,19,20,21,22,23,24,25,26,27,28,29,30
Date,Revenue,Revenue Growth,Cost of Revenue,Gross Profit,R&D Expenses,SG&A Expense,Operating Expenses,Operating Income,Interest Expense,Earnings before Tax,Income Tax Expense,Net Income - Non-Controlling int,Net Income - Discontinued ops,Net Income,Preferred Dividends,Net Income Com,EPS,EPS Diluted,Weighted Average Shs Out,Weighted Average Shs Out (Dil),Dividend per Share,Gross Margin,EBITDA Margin,EBIT Margin,Profit Margin,Free Cash Flow margin,EBITDA,EBIT,Consolidated Income,Earnings Before Tax Margin,Net Profit Margin
2019-12-31,42951000000.0,-0.287451474833,36657000000.0,6294000000.0,765000000.0,1590000000.0,2774000000.0,-1247000000.0,0.0,-1247000000.0,470000000.0,0.0,0.0,-1359000000.0,0.0,-1359000000.0,-1.84,-1.84,742500000.0,742500000.0,0.720538720539,0.146539079416,0.0393704453913,-0.029033084212199998,-0.031640706852,0.0924076272962,1691000000.0,-1247000000.0,-1359000000.0,-0.029033084212199998,-0.031640706852
2018-12-31,60278000000.0,0.08593355912660001,47705000000.0,12573000000.0,1536000000.0,2846000000.0,6487000000.0,6086000000.0,1118000000.0,5784000000.0,1285000000.0,134000000.0,0.0,4499000000.0,0.0,4499000000.0,6.03,6.03,751587352.0,751587352.0,0.0,0.2086,0.17,0.1145,0.075,0.0202,10231000000.0,6902000000.0,4633000000.0,0.096,0.0746
2017-12-31,55508000000.0,0.152622617218,43612000000.0,11896000000.0,1648000000.0,2920000000.0,8883000000.0,3013000000.0,976000000.0,2670000000.0,2204000000.0,129000000.0,0.0,466000000.0,0.0,466000000.0,0.63,0.63,751587352.0,751587352.0,0.0,0.2143,0.12300000000000001,0.0657,0.008,-0.1515,6801000000.0,3646000000.0,595000000.0,0.0481,0.0084
2016-12-31,48158000000.0,-0.0127106482431,37668000000.0,10490000000.0,1593000000.0,2953000000.0,5661000000.0,4829000000.0,858000000.0,4327000000.0,9000000.0,86000000.0,0.0,4318000000.0,340000000.0,3978000000.0,5.84,5.76,,,0.0,0.2178,0.16699999999999998,0.1077,0.083,-0.1427,8047000000.0,5185000000.0,4404000000.0,0.0899,0.0897
2015-12-31,48778000000.0,,37745000000.0,11033000000.0,1598000000.0,2948000000.0,831000000.0,10202000000.0,946000000.0,9832000000.0,2147000000.0,98000000.0,0.0,7685000000.0,340000000.0,7345000000.0,,,,,0.0,0.2262,0.273,0.221,0.151,0.0792,13299000000.0,10778000000.0,7783000000.0,0.2016,0.1576
