,0,1,2,3,4,5,6,7,8,9,10,11,12,13,14,15,16,17,18,19,20,21,22,23,24,25,26,27,28,29,30
Date,Revenue,Revenue Growth,Cost of Revenue,Gross Profit,R&D Expenses,SG&A Expense,Operating Expenses,Operating Income,Interest Expense,Earnings before Tax,Income Tax Expense,Net Income - Non-Controlling int,Net Income - Discontinued ops,Net Income,Preferred Dividends,Net Income Com,EPS,EPS Diluted,Weighted Average Shs Out,Weighted Average Shs Out (Dil),Dividend per Share,Gross Margin,EBITDA Margin,EBIT Margin,Profit Margin,Free Cash Flow margin,EBITDA,EBIT,Consolidated Income,Earnings Before Tax Margin,Net Profit Margin
2018-10-31,50256000.0,0.1563,,49314000.0,,,,-30100000.0,,-30100000.0,,,,,,,-0.79,-0.79,37930000.0,,,0.9813,,,,,,,,-0.5989,
2017-10-31,43464000.0,-0.0745,,42369000.0,,,,15811000.0,,15811000.0,,,,,,,0.42,0.42,37930000.0,,,0.9748,,,,,,,,0.3638,
2016-10-31,46965000.0,-0.4312,,45752000.0,,,,22547000.0,,22547000.0,,,,,,,0.59,0.59,37930000.0,,,0.9742,,,,,,,,0.4801,
2015-10-31,82569000.0,,,81174000.0,,,,-140520000.0,,-140520000.0,,,,,,,-3.7,-3.7,37930000.0,,,0.9831,,,,,,,,-1.7018,
