,0,1,2,3,4,5,6,7,8,9,10,11,12,13,14,15,16,17,18,19,20,21,22,23,24,25,26,27,28
Date,Cash and cash equivalents,Short-term investments,Cash and short-term investments,Receivables,Inventories,Total current assets,Property Plant & Equipment Net,Goodwill and Intangible Assets,Long-term investments,Tax assets,Total non-current assets,Total assets,Payables,Short-term debt,Total current liabilities,Long-term debt,Total debt,Deferred revenue,Tax Liabilities,Deposit Liabilities,Total non-current liabilities,Total liabilities,Other comprehensive income,Retained earnings (deficit),Total shareholders equity,Investments,Net Debt,Other Assets,Other Liabilities
2018-12-31,902329.0,178597.0,1080926.0,1930971.0,3261126.0,12290069.0,9313299.0,12822868.0,178597.0,-104972.0,37135811.0,49425880.0,13065838.0,6388787.0,30735371.0,483659.0,6872446.0,48000000.0,0.0,0.0,1051582.0,31401747.0,77643735.0,-55721115.0,18024133.0,357194.0,5970117.0,0.0,-385206.0
2017-12-31,1478000.0,1572000.0,3050000.0,1898000.0,1993000.0,8522000.0,1217000.0,6550000.0,1572000.0,4662000.0,21988000.0,30510000.0,4273000.0,402000.0,11020000.0,525000.0,927000.0,0.0,0.0,0.0,5187000.0,12501000.0,36888000.0,-23412000.0,18009000.0,3144000.0,-551000.0,0.0,-3706000.0
2016-12-31,996000.0,1036000.0,2032000.0,1439000.0,1122000.0,3842000.0,570000.0,0.0,0.0,2848000.0,1630000.0,5472000.0,1231000.0,398000.0,1879000.0,34000.0,432000.0,0.0,0.0,0.0,2882000.0,1913000.0,8859363.0,-12158000.0,3559000.0,1036000.0,-564000.0,0.0,0.0
2015-12-31,1241000.0,90000.0,1331000.0,1240000.0,1542000.0,4287000.0,709000.0,0.0,0.0,2753000.0,812000.0,5099000.0,937000.0,480000.0,1628000.0,0.0,480000.0,211000.0,0.0,0.0,2753000.0,1628000.0,14965000.0,-11036000.0,3471000.0,90000.0,-761000.0,0.0,-2753000.0
2014-12-31,2110000.0,207000.0,2317000.0,1548000.0,1653000.0,5489000.0,567000.0,66000.0,0.0,2460000.0,853000.0,6342000.0,1061000.0,345000.0,1901000.0,0.0,345000.0,435000.0,0.0,0.0,2460000.0,1901000.0,7963029.0,-9940000.0,4441000.0,207000.0,-1765000.0,0.0,-2460000.0
2013-12-31,1696000.0,406000.0,2102000.0,2157000.0,1751000.0,5771000.0,616000.0,171000.0,0.0,2287000.0,1206000.0,6977000.0,1109000.0,445000.0,1930000.0,0.0,445000.0,128000.0,0.0,0.0,2287000.0,1930000.0,14582000.0,-9282000.0,5047000.0,406000.0,-1251000.0,0.0,-2287000.0
2012-12-31,1821000.0,780000.0,2601000.0,1390000.0,2012000.0,5362000.0,504000.0,267000.0,0.0,1965000.0,1570000.0,6932000.0,870000.0,419000.0,1405000.0,0.0,419000.0,6000.0,0.0,0.0,1965000.0,1405000.0,14476000.0,-8650000.0,5527000.0,780000.0,-1402000.0,0.0,-1965000.0
2011-12-31,1777000.0,483000.0,2260000.0,1845000.0,2332000.0,6062000.0,448000.0,350000.0,0.0,0.0,1287000.0,7349000.0,1032000.0,529000.0,2216000.0,0.0,529000.0,286000.0,0.0,0.0,0.0,2216000.0,14358000.0,-8321000.0,5133000.0,483000.0,-1248000.0,0.0,0.0
2010-12-31,2115000.0,0.0,2115000.0,2395000.0,1768000.0,6435000.0,256000.0,446000.0,0.0,0.0,744000.0,7179000.0,1761000.0,0.0,2852000.0,0.0,0.0,568000.0,0.0,0.0,0.0,2852000.0,-413000.0,-9445000.0,4327000.0,0.0,-2115000.0,157000.0,1091000.0
2009-12-31,3051000.0,0.0,3051000.0,1522000.0,1056000.0,5872000.0,231000.0,0.0,0.0,0.0,272000.0,6144000.0,1422000.0,0.0,2385000.0,0.0,0.0,471000.0,0.0,0.0,0.0,2385000.0,-351000.0,-9932000.0,3759000.0,0.0,-3051000.0,243000.0,963000.0
