,0,1,2,3,4,5,6,7,8,9,10,11,12,13,14
Date,Depreciation & Amortization,Stock-based compensation,Operating Cash Flow,Capital Expenditure,Acquisitions and disposals,Investment purchases and sales,Investing Cash flow,Issuance (repayment) of debt,Issuance (buybacks) of shares,Dividend payments,Financing Cash Flow,Effect of forex changes on cash,Net cash flow / Change in cash,Free Cash Flow,Net Cash/Marketcap
2018-12-30,61698000.0,22792000.0,394171000.0,119888000.0,-0.0,-497205000.0,-88257000.0,-8207000.0,-591212000.0,-92166000.0,-322803000.0,-538000.0,25438000.0,274283000.0,0.0
2017-12-31,55345000.0,20713000.0,339036000.0,90011000.0,-0.0,-1064253000.0,-149004000.0,-16846000.0,-1064253000.0,-84298000.0,-197145000.0,66000.0,-7047000.0,249025000.0,0.0
2017-01-01,44558000.0,18564000.0,287273000.0,58555000.0,-0.0,-300250000.0,-836000.0,-122334000.0,-300250000.0,-73925000.0,-375792000.0,-1279000.0,-90634000.0,228718000.0,0.0
2016-01-03,44827000.0,17623000.0,291786000.0,63282000.0,-0.0,-738557000.0,-109292000.0,-17367000.0,-738557000.0,-80329000.0,-80936000.0,1036000.0,102594000.0,228504000.0,0.0
2014-12-28,41534000.0,17587000.0,192339000.0,70093000.0,-0.0,-82407000.0,-56969000.0,-12332000.0,-82407000.0,-52843000.0,-118898000.0,474000.0,16472000.0,122246000.0,0.0
2013-12-29,31877000.0,21987000.0,193989000.0,40387000.0,-0.0,-97132000.0,-99615000.0,-24349000.0,-97132000.0,-34241000.0,-134804000.0,118000.0,-40430000.0,153602000.0,0.0
2012-12-30,37767000.0,17621000.0,176320000.0,29267000.0,-0.0,-88238000.0,7348000.0,-32538000.0,-88238000.0,-185484000.0,-177449000.0,-1698000.0,4521000.0,147053000.0,0.0
2012-01-01,30232000.0,13954000.0,153073000.0,24349000.0,-0.0,-165007000.0,-26941000.0,-3760000.0,-164444000.0,-0.0,-123485000.0,-300000.0,2347000.0,128724000.0,0.0
2011-01-02,24052000.0,11270000.0,128325000.0,-25421000.0,0.0,0.0,-18380000.0,-113899000.0,8614000.0,0.0,-104267000.0,-125000.0,5553000.0,102904000.0,-1.3482
2010-01-03,24064000.0,16871000.0,101274000.0,-22870000.0,0.0,0.0,-32891000.0,-75684000.0,5134000.0,0.0,-70796000.0,-567000.0,-2980000.0,78404000.0,-2.8377
