,0,1,2,3,4,5,6,7,8,9,10,11,12,13,14,15,16,17,18,19,20,21,22,23,24,25,26,27,28,29,30
Date,Revenue,Revenue Growth,Cost of Revenue,Gross Profit,R&D Expenses,SG&A Expense,Operating Expenses,Operating Income,Interest Expense,Earnings before Tax,Income Tax Expense,Net Income - Non-Controlling int,Net Income - Discontinued ops,Net Income,Preferred Dividends,Net Income Com,EPS,EPS Diluted,Weighted Average Shs Out,Weighted Average Shs Out (Dil),Dividend per Share,Gross Margin,EBITDA Margin,EBIT Margin,Profit Margin,Free Cash Flow margin,EBITDA,EBIT,Consolidated Income,Earnings Before Tax Margin,Net Profit Margin
2018-12-31,186135000.0,0.8481174788510001,100067000.0,86068000.0,0.0,28314000.0,44572000.0,41496000.0,21779000.0,21786000.0,6000.0,0.0,0.0,21780000.0,0.0,21780000.0,2.2,2.2,104274708.0,98113545.0,0.049,0.4624,0.373,0.2341,0.11699999999999999,1.1508,69446000.0,43565000.0,21780000.0,0.11699999999999999,0.11699999999999999
2017-12-31,100716000.0,0.939307582701,79964000.0,20752000.0,0.0,30972000.0,41813000.0,-21061000.0,14707000.0,-39587000.0,152000.0,-2805000.0,0.0,-39739000.0,0.0,-39739000.0,-11.3,-11.3,4708.0,35225784.0,27.261,0.20600000000000002,-0.098,-0.247,-0.395,-7.2284,-9914000.0,-24880000.0,-42544000.0,-0.3931,-0.3946
2016-12-31,51934000.0,-0.946450132756,56652000.0,-4718000.0,0.0,39708000.0,156519000.0,-161237000.0,8857000.0,-206343000.0,38000.0,7695000.0,0.0,-206381000.0,0.0,-206381000.0,-4555872.0,-4555872.0,57.0,453.0,0.0,-0.0908,-3.736,-3.8026,-3.9739999999999998,-0.3892,-194020000.0,-197486000.0,-198686000.0,-3.9732,-3.9739
2015-12-31,969825000.0,-0.556250583384,436360000.0,533465000.0,0.0,104912000.0,1414973000.0,-881508000.0,172132000.0,-2809942000.0,37119000.0,38975000.0,0.0,-2847061000.0,570000.0,-2847631000.0,-499584386.0,-499584386.0,57.0,57.0,0.0,0.5501,-2.485,-2.7199,-2.9360000000000004,0.3959,-2410158000.0,-2637810000.0,-2808086000.0,-2.8974,-2.9356
2014-12-31,2185524000.0,0.46481467332099996,961425000.0,1224099000.0,0.0,193686000.0,680920000.0,543179000.0,411021000.0,30311000.0,77823000.0,105532000.0,0.0,-47512000.0,697000.0,-48209000.0,-12431912.864,-12431912.864,37.0,39.0,0.0,0.5601,0.408,0.2019,-0.022000000000000002,-0.1517,891124000.0,441332000.0,58020000.0,0.0139,-0.0217
2013-12-31,1492014000.0,0.232927787634,712976000.0,779038000.0,0.0,184722000.0,623462000.0,155576000.0,332129000.0,-178502000.0,44591000.0,25065000.0,0.0,-223093000.0,56000.0,-223149000.0,-68349222.52399999,-68349222.52399999,35.0,33.0,0.0,0.5221,0.342,0.10300000000000001,-0.15,-0.8192,510999000.0,153627000.0,-198028000.0,-0.1196,-0.1495
2012-12-31,1210139000.0,0.122930009595,679734000.0,530405000.0,0.0,145935000.0,514551000.0,15854000.0,210128000.0,-202821000.0,43957000.0,-41815000.0,0.0,-246778000.0,0.0,-246778000.0,-76440114.66,-76440114.66,36.0,32.0,0.0,0.4383,0.28300000000000003,0.006,-0.204,-0.1638,342765000.0,7307000.0,-288593000.0,-0.1676,-0.2039
2011-12-31,1077662000.0,0.253467016383,393695000.0,683967000.0,0.0,123247000.0,514307000.0,169660000.0,146173000.0,-42700000.0,27428000.0,22842000.0,0.0,-70128000.0,4466000.0,-74594000.0,-24696037.044,-24696037.044,31.0,30.0,1328881.993,0.6347,0.35100000000000003,0.096,-0.069,-1.6996,377754000.0,103473000.0,-47286000.0,-0.0396,-0.0651
2010-12-31,859745000.0,0.0486818063169,218047000.0,641698000.0,0.0,88576000.0,275620000.0,366078000.0,66825000.0,208763000.0,20436000.0,2123000.0,0.0,188327000.0,15763000.0,172564000.0,75264112.896,71736107.604,24.0,23.0,0.0,0.7464,0.545,0.3205,0.201,-0.8004,468479000.0,275588000.0,190450000.0,0.2428,0.21899999999999997
2009-12-31,819834000.0,-0.2414,230666000.0,589168000.0,0.0,90823000.0,530854000.0,58314000.0,84430000.0,-6412000.0,12797000.0,7178000.0,0.0,-19209000.0,7497000.0,-26706000.0,-15288022.932,-15288022.932,6.0,18.0,0.0,0.7186,0.335,0.0952,-0.033,0.1791,274327000.0,78018000.0,-12031000.0,-0.0078,-0.0234
