,0,1,2,3,4,5,6,7,8,9,10,11,12,13,14
Date,Depreciation & Amortization,Stock-based compensation,Operating Cash Flow,Capital Expenditure,Acquisitions and disposals,Investment purchases and sales,Investing Cash flow,Issuance (repayment) of debt,Issuance (buybacks) of shares,Dividend payments,Financing Cash Flow,Effect of forex changes on cash,Net cash flow / Change in cash,Free Cash Flow,Net Cash/Marketcap
2018-11-30,,,19000000.0,,,,,,,,-17000000.0,,1000000.0,,
2017-11-30,,,16000000.0,,,,,,,,-16000000.0,,0.0,,
2016-11-30,,,39000000.0,,,,,,,,-39000000.0,,0.0,,
2015-11-30,,,138000000.0,,,,,,,,-138000000.0,,0.0,,
