,0,1,2,3,4,5,6,7,8,9,10,11,12,13,14,15,16,17,18,19,20,21,22,23,24,25,26,27,28
Date,Cash and cash equivalents,Short-term investments,Cash and short-term investments,Receivables,Inventories,Total current assets,Property Plant & Equipment Net,Goodwill and Intangible Assets,Long-term investments,Tax assets,Total non-current assets,Total assets,Payables,Short-term debt,Total current liabilities,Long-term debt,Total debt,Deferred revenue,Tax Liabilities,Deposit Liabilities,Total non-current liabilities,Total liabilities,Other comprehensive income,Retained earnings (deficit),Total shareholders equity,Investments,Net Debt,Other Assets,Other Liabilities
2017-12-31,80500000.0,45400000.0,125900000.0,6700000.0,0.0,1037700000.0,349800000.0,1082200000.0,199700000.0,0.0,1900500000.0,2938200000.0,101200000.0,83700000.0,971300000.0,537100000.0,620800000.0,28300000.0,5000000.0,0.0,650700000.0,1697000000.0,0.0,1489300000.0,1241200000.0,245100000.0,540300000.0,0.0,75000000.0
2017-12,80000000.0,,,364000000.0,,1900000000.0,350000000.0,1082000000.0,294000000.0,,726000000.0,2938000000.0,101000000.0,84000000.0,971000000.0,537000000.0,537000000.0,28000000.0,62000000.0,,726000000.0,1697000000.0,1000000.0,1489000000.0,1241000000.0,294000000.0,541000000.0,768000000.0,880000000.0
2016-12-31,195500000.0,-8200000.0,187300000.0,19700000.0,0.0,1118200000.0,235700000.0,659000000.0,377400000.0,0.0,1653600000.0,2771800000.0,62900000.0,208500000.0,1091400000.0,299700000.0,508200000.0,23500000.0,22000000.0,0.0,474100000.0,1656600000.0,0.0,2379200000.0,1115200000.0,369200000.0,312700000.0,0.0,91100000.0
2016-12,196000000.0,,,216000000.0,,1654000000.0,236000000.0,659000000.0,709000000.0,,565000000.0,2772000000.0,63000000.0,208000000.0,1091000000.0,300000000.0,300000000.0,24000000.0,152000000.0,,565000000.0,1657000000.0,17000000.0,2379000000.0,1115000000.0,709000000.0,312000000.0,757000000.0,888000000.0
2015-12-31,89600000.0,-10700000.0,78900000.0,19900000.0,0.0,1055500000.0,321300000.0,639500000.0,418500000.0,0.0,1757700000.0,2813200000.0,84900000.0,5600000.0,948700000.0,556500000.0,562100000.0,55900000.0,0.0,0.0,729600000.0,1767200000.0,0.0,1996600000.0,1046000000.0,407800000.0,472500000.0,0.0,88900000.0
2015-12,90000000.0,,,355000000.0,,1758000000.0,321000000.0,639000000.0,731000000.0,,818000000.0,2813000000.0,85000000.0,6000000.0,949000000.0,556000000.0,556000000.0,56000000.0,108000000.0,,818000000.0,1767000000.0,42000000.0,1997000000.0,1046000000.0,731000000.0,472000000.0,677000000.0,956000000.0
2014-12-31,151700000.0,500600000.0,652300000.0,19700000.0,0.0,971900000.0,403600000.0,537200000.0,656600000.0,-190600000.0,1971000000.0,2942900000.0,101800000.0,167300000.0,1021900000.0,385600000.0,552900000.0,53900000.0,17600000.0,0.0,604500000.0,1706500000.0,0.0,1682900000.0,1236400000.0,1157200000.0,401200000.0,0.0,80100000.0
2014-12,152000000.0,,,350000000.0,,1971000000.0,404000000.0,537000000.0,955000000.0,,685000000.0,2943000000.0,102000000.0,167000000.0,1022000000.0,386000000.0,386000000.0,54000000.0,186000000.0,,685000000.0,1706000000.0,187000000.0,1683000000.0,1236000000.0,955000000.0,401000000.0,546000000.0,794000000.0
2013-12-31,62500000.0,654000000.0,716500000.0,14600000.0,0.0,842400000.0,445200000.0,561100000.0,0.0,-263800000.0,2248100000.0,3090500000.0,86700000.0,283600000.0,1072800000.0,399400000.0,683000000.0,71600000.0,0.0,0.0,709700000.0,1906700000.0,0.0,3777700000.0,1183800000.0,654000000.0,620500000.0,0.0,124200000.0
2013-12,62000000.0,,,343000000.0,,2248000000.0,445000000.0,561000000.0,1169000000.0,,834000000.0,3090000000.0,87000000.0,284000000.0,1073000000.0,399000000.0,399000000.0,72000000.0,255000000.0,,834000000.0,1907000000.0,308000000.0,3778000000.0,1184000000.0,1169000000.0,621000000.0,508000000.0,810000000.0
2012-12-31,88300000.0,0.0,88300000.0,17100000.0,0.0,954300000.0,475000000.0,574800000.0,0.0,11400000.0,2438200000.0,3392500000.0,94100000.0,519400000.0,1378500000.0,492200000.0,1011600000.0,67600000.0,9500000.0,0.0,857900000.0,2312800000.0,0.0,3477700000.0,1079700000.0,0.0,923300000.0,0.0,76400000.0
2011-12-31,40900000.0,0.0,40900000.0,17000000.0,0.0,766900000.0,523900000.0,656000000.0,0.0,8400000.0,2661700000.0,3428600000.0,96000000.0,320800000.0,1073700000.0,1059500000.0,1380300000.0,101300000.0,93500000.0,0.0,1458500000.0,2608600000.0,0.0,3191300000.0,820000000.0,0.0,1339400000.0,0.0,76400000.0
2010-12-31,139800000.0,0.0,139800000.0,0.0,0.0,997200000.0,516800000.0,279700000.0,1494600000.0,12100000.0,2342200000.0,3339400000.0,65100000.0,286100000.0,1104900000.0,923300000.0,1209400000.0,58900000.0,0.0,0.0,1335600000.0,2515000000.0,0.0,3039800000.0,824400000.0,1494600000.0,1069600000.0,0.0,74500000.0
