,0,1,2,3,4,5,6,7,8,9,10,11,12,13,14,15,16,17,18,19,20,21,22,23,24,25,26,27,28
Date,Cash and cash equivalents,Short-term investments,Cash and short-term investments,Receivables,Inventories,Total current assets,Property Plant & Equipment Net,Goodwill and Intangible Assets,Long-term investments,Tax assets,Total non-current assets,Total assets,Payables,Short-term debt,Total current liabilities,Long-term debt,Total debt,Deferred revenue,Tax Liabilities,Deposit Liabilities,Total non-current liabilities,Total liabilities,Other comprehensive income,Retained earnings (deficit),Total shareholders equity,Investments,Net Debt,Other Assets,Other Liabilities
2019-12-31,180886000.0,0.0,180886000.0,965000.0,0.0,193672000.0,39571000.0,1432000.0,0.0,1463000.0,41561000.0,235233000.0,2037000.0,65895000.0,26932000.0,4092000.0,69987000.0,16486000.0,0.0,0.0,74079000.0,96919000.0,0.0,-177067000.0,138314000.0,0.0,-110899000.0,0.0,0.0
2018-12-31,103193000.0,0.0,103193000.0,523000.0,0.0,115675000.0,21147000.0,1466000.0,0.0,0.0,22925000.0,138600000.0,2218000.0,0.0,14075000.0,0.0,0.0,91243000.0,0.0,0.0,84565000.0,98640000.0,0.0,-85187000.0,39960000.0,0.0,-103193000.0,11959000.0,11857000.0
2017-12-31,62802000.0,0.0,62802000.0,0.0,0.0,64331000.0,8137000.0,90000.0,0.0,0.0,8351000.0,72682000.0,1806000.0,0.0,9203000.0,0.0,0.0,94420000.0,0.0,0.0,89848000.0,99051000.0,0.0,-39111000.0,-26369000.0,0.0,-62802000.0,1529000.0,7397000.0
2016-12-31,93423000.0,,93423000.0,386000.0,0.0,94402000.0,3544000.0,,,,,98414000.0,1286000.0,,8340000.0,0.0,,,,,,103163000.0,,-18009000.0,-4752000.0,,,,
