,0,1,2,3,4,5,6,7,8,9,10,11,12,13,14,15,16,17,18,19,20,21,22,23,24,25,26,27,28
Date,Cash and cash equivalents,Short-term investments,Cash and short-term investments,Receivables,Inventories,Total current assets,Property Plant & Equipment Net,Goodwill and Intangible Assets,Long-term investments,Tax assets,Total non-current assets,Total assets,Payables,Short-term debt,Total current liabilities,Long-term debt,Total debt,Deferred revenue,Tax Liabilities,Deposit Liabilities,Total non-current liabilities,Total liabilities,Other comprehensive income,Retained earnings (deficit),Total shareholders equity,Investments,Net Debt,Other Assets,Other Liabilities
2018-03-31,9928000.0,0.0,9928000.0,6605000.0,0.0,18103000.0,90000.0,19410000.0,0.0,489000.0,23961000.0,42064000.0,2371000.0,12128000.0,28259000.0,7475000.0,19603000.0,9487000.0,48000.0,0.0,9213000.0,37124000.0,325470000.0,-321697000.0,4940000.0,0.0,9675000.0,0.0,0.0
2018-03,10000000.0,,,7000000.0,,24000000.0,0.0,22000000.0,,,9000000.0,42000000.0,3000000.0,12000000.0,28000000.0,7000000.0,7000000.0,0.0,0.0,,9000000.0,37000000.0,1000000.0,-322000000.0,5000000.0,,9000000.0,1000000.0,1000000.0
2017-03-31,9429000.0,0.0,9429000.0,7042000.0,0.0,18058000.0,85000.0,20308000.0,0.0,23000.0,24333000.0,42391000.0,2478000.0,174000.0,28377000.0,7599000.0,7773000.0,10070000.0,1410000.0,0.0,8938000.0,37292000.0,316895000.0,-311749000.0,5099000.0,0.0,-1656000.0,0.0,0.0
2017-03,9000000.0,,,7000000.0,,24000000.0,0.0,22000000.0,,,9000000.0,42000000.0,3000000.0,12000000.0,28000000.0,8000000.0,8000000.0,0.0,0.0,,9000000.0,37000000.0,-0.0,-312000000.0,5000000.0,,11000000.0,2000000.0,1000000.0
2016-03-31,9418000.0,0.0,9418000.0,7031000.0,0.0,18034000.0,136000.0,22501000.0,0.0,14000.0,26179000.0,44213000.0,1973000.0,407000.0,24247000.0,5420000.0,5827000.0,10366000.0,1348000.0,0.0,9059000.0,33419000.0,313202000.0,-302297000.0,10794000.0,0.0,-3591000.0,0.0,113000.0
2016-03,9000000.0,,,7000000.0,,26000000.0,0.0,24000000.0,,,9000000.0,44000000.0,2000000.0,8000000.0,24000000.0,5000000.0,5000000.0,0.0,0.0,,9000000.0,33000000.0,-0.0,-302000000.0,11000000.0,,4000000.0,2000000.0,3000000.0
2015-03-31,13178000.0,0.0,13178000.0,5203000.0,0.0,20062000.0,290000.0,14155000.0,0.0,0.0,17224000.0,37286000.0,1535000.0,7447000.0,20179000.0,2900000.0,10347000.0,8410000.0,1280000.0,0.0,3119000.0,28163000.0,297394000.0,-288276000.0,9123000.0,0.0,-2831000.0,0.0,4865000.0
2015-03,13000000.0,,,5000000.0,,17000000.0,0.0,17000000.0,,,8000000.0,37000000.0,2000000.0,7000000.0,20000000.0,3000000.0,3000000.0,0.0,0.0,,8000000.0,28000000.0,0.0,-288000000.0,9000000.0,,-3000000.0,1000000.0,5000000.0
2014-03-31,16907000.0,0.0,16907000.0,3006000.0,0.0,20602000.0,312000.0,0.0,0.0,90331000.0,1198000.0,21800000.0,1371000.0,6949000.0,14444000.0,0.0,6949000.0,5131000.0,2109000.0,0.0,90949000.0,18715000.0,277611000.0,-274530000.0,3085000.0,0.0,-9958000.0,0.0,-86678000.0
2014-03,17000000.0,,,3000000.0,,1000000.0,0.0,1000000.0,,,4000000.0,22000000.0,1000000.0,7000000.0,14000000.0,0.0,0.0,1000000.0,0.0,,4000000.0,19000000.0,0.0,-275000000.0,3000000.0,,-10000000.0,0.0,4000000.0
2013-03-31,12098000.0,0.0,12098000.0,3455000.0,0.0,16406000.0,407000.0,0.0,0.0,87217000.0,446000.0,16852000.0,1010000.0,6000000.0,14540000.0,0.0,6000000.0,6153000.0,2121000.0,0.0,89009000.0,16332000.0,266867000.0,-266351000.0,520000.0,0.0,-6098000.0,0.0,0.0
2012-03-31,15877000.0,199000.0,16076000.0,2446000.0,0.0,19053000.0,362000.0,0.0,0.0,0.0,401000.0,19454000.0,395000.0,6000000.0,13648000.0,0.0,6000000.0,5394000.0,0.0,0.0,1368000.0,15016000.0,266036000.0,-261602000.0,4438000.0,199000.0,-9877000.0,0.0,0.0
