,0,1,2,3,4,5,6,7,8,9,10,11,12,13,14
Date,Depreciation & Amortization,Stock-based compensation,Operating Cash Flow,Capital Expenditure,Acquisitions and disposals,Investment purchases and sales,Investing Cash flow,Issuance (repayment) of debt,Issuance (buybacks) of shares,Dividend payments,Financing Cash Flow,Effect of forex changes on cash,Net cash flow / Change in cash,Free Cash Flow,Net Cash/Marketcap
2019-06-30,36306.0,0.0,75952.0,-18918.0,0.0,0.0,-566385.0,60867.0,5148335.0,0.0,5609202.0,-77618.0,5041151.0,57034.0,0.2199
2018-06-30,32694.0,0.0,-1484730.0,-25916.0,0.0,0.0,-27454.0,-123850.0,1432128.0,0.0,1235870.0,132850.0,-143464.0,-1510646.0,0.0029
2017-06-30,50097.0,0.0,-1061538.0,-10676.0,0.0,0.0,-10676.0,-131660.0,1687740.0,0.0,2227905.0,7457.0,1163148.0,-1072214.0,0.0194
2016-06-30,29825.0,0.0,-1136983.0,-99908.0,12618.0,0.0,-87290.0,126636.0,1104228.0,0.0,1230864.0,-694.0,5898.0,-1236891.0,0.0194
2015-06-30,2000.0,,-196000.0,-53000.0,,,-53000.0,,,,255000.0,0.0,6000.0,,0.0194
