,0,1,2,3,4,5,6,7,8,9,10,11,12,13,14
Date,Depreciation & Amortization,Stock-based compensation,Operating Cash Flow,Capital Expenditure,Acquisitions and disposals,Investment purchases and sales,Investing Cash flow,Issuance (repayment) of debt,Issuance (buybacks) of shares,Dividend payments,Financing Cash Flow,Effect of forex changes on cash,Net cash flow / Change in cash,Free Cash Flow,Net Cash/Marketcap
2020-02-01,24702000.0,1922000.0,15803000.0,13399000.0,-0.0,0.0,-13399000.0,-0.0,-4338000.0,-0.0,-2934000.0,0.0,-530000.0,2404000.0,0.0
2019-02-02,30289000.0,2004000.0,15741000.0,12961000.0,-0.0,0.0,-12961000.0,-12251000.0,-4868000.0,-0.0,-3274000.0,0.0,-494000.0,2780000.0,0.0
2018-02-03,31343000.0,1636000.0,30959000.0,22565000.0,-0.0,-4681000.0,-22565000.0,-7088000.0,-4681000.0,-0.0,-8604000.0,0.0,-210000.0,8394000.0,0.0
2017-01-28,30897000.0,1256000.0,34960000.0,29239000.0,-0.0,0.0,-29239000.0,-7312000.0,-5572000.0,-0.0,-5319000.0,0.0,402000.0,5721000.0,0.0
2016-01-30,28638000.0,2195000.0,18390000.0,33447000.0,-0.0,0.0,-33447000.0,-7489000.0,-5170000.0,-0.0,15641000.0,0.0,584000.0,-15057000.0,0.0
2015-01-31,24002000.0,2996000.0,13805000.0,40927000.0,-0.0,0.0,-40927000.0,-6478000.0,-4586000.0,-0.0,27164000.0,0.0,42000.0,-27122000.0,0.0
2014-02-01,20841000.0,1893000.0,24898000.0,54125000.0,-0.0,0.0,-54125000.0,-817000.0,-4544000.0,-0.0,25609000.0,0.0,-3618000.0,-29227000.0,0.0
2013-02-02,15469000.0,777000.0,29895000.0,32390000.0,-0.0,0.0,-32117000.0,-0.0,-8162000.0,-0.0,31000.0,0.0,-2191000.0,-2495000.0,0.0
2012-01-28,12551000.0,1292000.0,23426000.0,18038000.0,-0.0,0.0,-17780000.0,-0.0,-10353000.0,-0.0,593000.0,0.0,6239000.0,5388000.0,0.0
2011-01-29,13227000.0,1959000.0,18733000.0,-9031000.0,397000.0,0.0,-8634000.0,-11051000.0,478000.0,0.0,-10287000.0,0.0,-188000.0,9702000.0,0.0205
2010-01-30,15501000.0,547000.0,30768000.0,-4634000.0,635000.0,0.0,-3999000.0,-40117000.0,12697000.0,0.0,-27420000.0,0.0,-651000.0,26134000.0,-0.0499
