,0,1,2,3,4,5,6,7,8,9,10,11,12,13,14
Date,Depreciation & Amortization,Stock-based compensation,Operating Cash Flow,Capital Expenditure,Acquisitions and disposals,Investment purchases and sales,Investing Cash flow,Issuance (repayment) of debt,Issuance (buybacks) of shares,Dividend payments,Financing Cash Flow,Effect of forex changes on cash,Net cash flow / Change in cash,Free Cash Flow,Net Cash/Marketcap
2018-09-30,1257000.0,457000.0,2129000.0,2317000.0,-0.0,0.0,-2317000.0,533000.0,-2310000.0,-0.0,133000.0,-33000.0,-88000.0,-188000.0,0.0
2017-09-30,949000.0,456000.0,1488000.0,982000.0,-0.0,0.0,-979000.0,-621000.0,-2398000.0,-0.0,-710000.0,9000.0,-192000.0,506000.0,0.0
2016-09-30,1267000.0,698000.0,2109000.0,1616000.0,-0.0,0.0,-1612000.0,-349000.0,-2591000.0,-0.0,934000.0,-119000.0,1312000.0,493000.0,0.0
2015-09-30,1196000.0,459000.0,836000.0,1310000.0,-0.0,0.0,-1066000.0,-5244000.0,-1283000.0,-0.0,-2265000.0,-52000.0,-2547000.0,-474000.0,0.0
2014-09-30,1123000.0,467000.0,1898000.0,1448000.0,-0.0,0.0,2397000.0,-7135000.0,-3828000.0,-0.0,-2896000.0,6000.0,1405000.0,450000.0,0.0
2013-09-30,1596451.0,417683.0,1701186.0,544902.0,-0.0,0.0,-464650.0,-2165444.0,21009.0,-0.0,-2220832.0,6244.0,-978052.0,1156284.0,0.0
2012-09-30,1233073.0,563443.0,3892646.0,1543262.0,-0.0,0.0,-1843262.0,-1858943.0,135302.0,-79770.0,-1803411.0,121901.0,367874.0,2349384.0,0.0
2011-09-30,1040132.0,329686.0,3109026.0,363406.0,-0.0,0.0,-4366352.0,-2058892.0,-4208585.0,-445183.0,2247810.0,16704.0,1007188.0,2745620.0,0.0
2010-09-30,1040132.0,329686.0,3109026.0,-363406.0,0.0,0.0,-4366352.0,2567793.0,271255.0,0.0,2247810.0,16704.0,1007188.0,2745620.0,-0.1614
2009-09-30,946932.0,184163.0,2380435.0,-445646.0,0.0,0.0,-445646.0,-2181319.0,30593.0,0.0,-2712966.0,0.0,-778177.0,1934789.0,-0.3106
