,0,1,2,3,4,5,6,7,8,9,10,11,12,13,14,15,16,17,18,19,20,21,22,23,24,25,26,27,28
Date,Cash and cash equivalents,Short-term investments,Cash and short-term investments,Receivables,Inventories,Total current assets,Property Plant & Equipment Net,Goodwill and Intangible Assets,Long-term investments,Tax assets,Total non-current assets,Total assets,Payables,Short-term debt,Total current liabilities,Long-term debt,Total debt,Deferred revenue,Tax Liabilities,Deposit Liabilities,Total non-current liabilities,Total liabilities,Other comprehensive income,Retained earnings (deficit),Total shareholders equity,Investments,Net Debt,Other Assets,Other Liabilities
2018-12-31,12455172413.7931,7875862068.9655,20331034482.7586,16208045977.0115,6744827586.2069,45344827586.2069,69312643678.1609,3643678160.9195,9152873563.2184,5382758620.6897,90716091954.02301,136060919540.2299,19249425287.3563,6647126436.7816,32622988505.7471,23082758620.6897,29729885057.4713,0.0,7062068965.5172,0.0,44733333333.3333,77356321839.0805,7591954022.9885,45189655172.4138,58639080459.7701,17028735632.1839,17274712643.6782,1957091954.0229998,6726436781.6092
2017-12-31,8839135654.2617,7845138055.2221,16684273709.4838,18512605042.0168,7087635054.0216,43737094837.9352,75819927971.1885,3511404561.8247,4477791116.4466,6000000000.0,94231692677.0708,137968787515.00598,20105642256.9028,5435774309.7239,29693877551.0204,24224489795.9184,29660264105.6423,0.0,9416566626.6507,0.0,50557022809.1236,80250900360.1441,5783913565.4262,45496998799.5198,57659063625.4502,12322929171.6687,,,4152460984.3937
2016-12-31,5972631578.9474,6741052631.5789,12713684210.5263,18518947368.4211,6127368421.0526,39969473684.2105,74518947368.4211,3441052631.5789,6501052631.5789,5117894736.8421,91130526315.7895,131100000000.0,17582105263.1579,7026315789.4737,29153684210.5263,21646315789.4737,28672631578.9474,0.0,8827368421.0526,0.0,46066315789.4737,75220000000.0,198947368.4211,-3057894736.8421,55828421052.6316,13242105263.1579,,,4545263157.8947
2015-12-31,5655808903.3659,5765472312.7036,11421281216.0695,23496199782.8447,5958740499.4571,44918566775.2443,73838219326.8187,3294245385.4506,4928338762.215,5258414766.5581,106005428881.6504,150923995656.8947,16223669923.9957,9116178067.3181,32502714440.8252,21060803474.4843,30176981541.8024,0.0,10108577633.0076,0.0,48637350705.7546,81140065146.5798,-514657980.456,-1563517915.3094,69783930510.3149,10693811074.9186,,,7162866449.5114
2014-12-31,8007263922.5182,6393462469.7337,14400726392.2519,34625907990.3148,11060532687.6513,65868038740.9201,87121065375.3027,4412832929.7821,7447941888.6199,8719128329.2978,111138014527.845,177006053268.7651,28696125907.9903,7960048426.1501,45004842615.0121,23384987893.4625,31345036319.6126,0.0,12414043583.5351,0.0,56687651331.7191,101692493946.7312,-343825665.8596,-882566585.9564,72341404358.3535,13841404358.3535,,,8348668280.8717
2013-12-31,7470426409.9037,7206327372.7648,14676753782.6685,39738651994.4979,14459422283.3563,69409903713.8927,87707015130.67401,5331499312.2421,9680880330.1238,8658872077.0289,120880330123.7964,190290233837.6891,32601100412.6547,6444291609.3535,45211829436.0385,28713892709.7662,35158184319.1197,0.0,13474552957.359,0.0,61104539202.2008,106316368638.2393,-211829436.0385,4356258596.9739,80068775790.9216,16887207702.8886,,,6166437414.0303
2012-12-31,10469656992.0844,312664907.6517,10782321899.7361,43556728232.19,14668865435.3562,64638522427.4406,85485488126.6491,5919525065.9631,12468337730.8707,9254617414.248001,120311345646.438,184949868073.8786,31221635883.905,6658311345.6464,44791556728.2322,25257255936.6755,31915567282.3219,0.0,13939313984.1689,0.0,57813984168.8654,102605540897.0976,-21108179.4195,7696569920.8443,77915567282.3219,12781002638.5224,,,6911609498.6808
2011-12-31,1943005181.3472,339378238.342,2282383419.6892,37331606217.6166,12963730569.9482,49475388601.0363,95308290155.4404,14183937823.8342,10129533678.7565,9651554404.1451,135686528497.4093,185161917098.4456,29678756476.6839,8413212435.2332,46155440414.5078,29924870466.3212,38338082901.5544,0.0,14388601036.2694,0.0,60777202072.5389,106932642487.0466,63471502.5907,6445595854.9223,71854922279.7927,10468911917.0984,,,8063471502.5907
2010-12-31,2070855614.9733,510695187.1658,2581550802.1391,36084224598.9305,11514705882.3529,46672459893.0481,90112299465.2406,14935828877.0053,10177807486.631,8381016042.7807,129610962566.8449,176283422459.893,30180481283.4225,9997326203.2086,46586898395.7219,27145721925.1337,37143048128.3422,0.0,12163101604.2781,0.0,55193850267.3797,101780748663.1016,-232620320.8556,6025401069.5187,68457219251.3369,10688502673.7968,,,6409090909.0908
2009-12-31,2307030129.1248,499282639.8852,2806312769.01,31974175035.867996,10374461979.9139,44661406025.825,85746054519.3687,16454806312.769,10605451936.8723,8007173601.1478,123959827833.5725,168621233859.3974,27509325681.4921,9664275466.2841,43741750358.6801,25916786226.6858,35581061692.9699,0.0,10945480631.2769,0.0,53070301291.2482,96812051649.9283,0.0,3667144906.7432,66101865136.2984,11104734576.7575,,,6568149210.9039
