,0,1,2,3,4,5,6,7,8,9,10,11,12,13,14,15,16,17,18,19,20,21,22,23,24,25,26,27,28
Date,Cash and cash equivalents,Short-term investments,Cash and short-term investments,Receivables,Inventories,Total current assets,Property Plant & Equipment Net,Goodwill and Intangible Assets,Long-term investments,Tax assets,Total non-current assets,Total assets,Payables,Short-term debt,Total current liabilities,Long-term debt,Total debt,Deferred revenue,Tax Liabilities,Deposit Liabilities,Total non-current liabilities,Total liabilities,Other comprehensive income,Retained earnings (deficit),Total shareholders equity,Investments,Net Debt,Other Assets,Other Liabilities
2019-12-31,35351000.0,1401778000.0,1437129000.0,5016000.0,0.0,1442145000.0,0.0,0.0,1375929000.0,0.0,46964000.0,1489109000.0,588000.0,0.0,588000.0,0.0,0.0,0.0,0.0,0.0,0.0,1328265000.0,230358000.0,-69638000.0,160844000.0,2777707000.0,-35351000.0,0.0,1327677000.0
2018-12-31,18585000.0,1540296000.0,1558881000.0,5607000.0,0.0,1564488000.0,0.0,0.0,1563665000.0,0.0,111078000.0,1675566000.0,838000.0,0.0,838000.0,0.0,0.0,0.0,0.0,0.0,0.0,1521744000.0,230888000.0,-77191000.0,153822000.0,3103961000.0,-18585000.0,0.0,1520906000.0
2017-12-31,56117000.0,1685998000.0,1742115000.0,5784000.0,0.0,1747899000.0,0.0,0.0,1697535000.0,0.0,139188000.0,1887087000.0,728000.0,0.0,728000.0,0.0,0.0,0.0,0.0,0.0,0.0,1694384000.0,240062000.0,-47493000.0,192703000.0,3383533000.0,-56117000.0,0.0,1693656000.0
2016-12-31,33504000.0,1226994000.0,1260498000.0,4633000.0,0.0,1265131000.0,0.0,0.0,1234754000.0,0.0,164003000.0,1429134000.0,647000.0,0.0,647000.0,0.0,0.0,0.0,0.0,0.0,0.0,1287457000.0,180996000.0,-39411000.0,141677000.0,2461748000.0,-33504000.0,0.0,1286810000.0
2015-12-31,40166000.0,1242266000.0,1282432000.0,4325000.0,0.0,1286757000.0,0.0,0.0,1239215000.0,0.0,269927000.0,1556684000.0,533000.0,0.0,533000.0,0.0,0.0,0.0,0.0,0.0,0.0,1411829000.0,181027000.0,-36264000.0,144855000.0,2481481000.0,-40166000.0,0.0,1411296000.0
2014-12-31,45237000.0,0.0,45237000.0,4793000.0,0.0,50030000.0,0.0,0.0,1370751000.0,0.0,1471044000.0,1521074000.0,890000.0,0.0,890000.0,0.0,0.0,0.0,0.0,0.0,0.0,1357709000.0,181282000.0,-18008000.0,163365000.0,1370751000.0,-45237000.0,0.0,1356819000.0
2013-12-31,50112000.0,0.0,50112000.0,4766000.0,0.0,54878000.0,0.0,0.0,1352076000.0,0.0,1456212000.0,1511090000.0,996000.0,0.0,996000.0,0.0,0.0,0.0,0.0,0.0,0.0,1343910000.0,181147000.0,-14058000.0,167180000.0,1352076000.0,-50112000.0,0.0,1342914000.0
2012-12-31,18161000.0,,,0.0,0.0,,0.0,0.0,,0.0,,32156000.0,116000.0,,,,0.0,0.0,0.0,0.0,,1192000.0,0.0,-1726000.0,30964000.0,13596000.0,,,
