,0,1,2,3,4,5,6,7,8,9,10,11,12,13,14
Date,Depreciation & Amortization,Stock-based compensation,Operating Cash Flow,Capital Expenditure,Acquisitions and disposals,Investment purchases and sales,Investing Cash flow,Issuance (repayment) of debt,Issuance (buybacks) of shares,Dividend payments,Financing Cash Flow,Effect of forex changes on cash,Net cash flow / Change in cash,Free Cash Flow,Net Cash/Marketcap
2018-12-31,74196.9388,28295.9184,-13502208.1633,69551.0204,0.0,0.0,-1860158.1633,-9461559.1837,17803570.4082,0.0,5849592.8571,-262902.0408,-9512773.4694,-13432657.1429,
2017-12-31,125932.3077,363949.7436,-24898220.5128,-6552.8205,0.0,0.0,-101947.6923,-2140590.7692,13373401.0256,0.0,8432143.5897,-1348747.6923,-16568024.6154,-24904773.3333,
2016-12-31,104273.5043,310665.5983,-31467533.1197,-261029.9145,0.0,0.0,-188857.90600000002,12806272.4359,0.0,0.0,12220768.1624,423787.3932,-19435622.8632,-31728563.0342,
2015-12-31,92869.8699,311982.983,-28755902.9029,-80000.0,0.0,0.0,-43401.4014,0.0,21151432.4324,0.0,20939906.9069,1155668.6687,-7859397.3974,-28835902.9029,
2014-12-31,74505.5388,272655.5891,-19452202.4169,-114296.0725,0.0,0.0,-1194726.0826,0.0,50646537.7644,0.0,49958864.0483,3989658.6103,29311935.5488,-19566498.4894,
2013-12-31,42059.417,123540.3587,-15743956.277999999,-122125.5605,0.0,0.0,-39125.5605,15437192.8251,27041275.7848,0.0,42467353.139,-554.9327,26684271.3004,-15866081.8386,
2012-12-31,10100.5464,61216.3934,-4916357.377,-143990.1639,0.0,79617.4863,-58006.5574,0.0,4220854.6448,0.0,4220854.6448,605.4645,-753509.2896,-5060347.541,
