,0,1,2,3,4,5,6,7,8,9,10,11,12,13,14,15,16,17,18,19,20,21,22,23,24,25,26,27,28,29,30
Date,Revenue,Revenue Growth,Cost of Revenue,Gross Profit,R&D Expenses,SG&A Expense,Operating Expenses,Operating Income,Interest Expense,Earnings before Tax,Income Tax Expense,Net Income - Non-Controlling int,Net Income - Discontinued ops,Net Income,Preferred Dividends,Net Income Com,EPS,EPS Diluted,Weighted Average Shs Out,Weighted Average Shs Out (Dil),Dividend per Share,Gross Margin,EBITDA Margin,EBIT Margin,Profit Margin,Free Cash Flow margin,EBITDA,EBIT,Consolidated Income,Earnings Before Tax Margin,Net Profit Margin
2018-12,,,,,16000000.0,14000000.0,30000000.0,-30000000.0,1000000.0,-44000000.0,-3000000.0,,,-41000000.0,,-41000000.0,-1.31,-1.31,31000000.0,31000000.0,,,,,,,-42000000.0,-43000000.0,-41000000.0,,
2017-12,,,,,34000000.0,18000000.0,52000000.0,-52000000.0,2000000.0,-53000000.0,-3000000.0,,,-51000000.0,,-51000000.0,-1.67,-1.67,30000000.0,30000000.0,,,,,,,-51000000.0,-52000000.0,-51000000.0,,
2016-12,,,,,25000000.0,15000000.0,40000000.0,-40000000.0,1000000.0,-41000000.0,-2000000.0,,,-39000000.0,,-39000000.0,-1.34,-1.34,29000000.0,29000000.0,,,,,,,-39000000.0,-40000000.0,-39000000.0,,
2015-12,,,,,18000000.0,9000000.0,26000000.0,-26000000.0,1000000.0,-29000000.0,-1000000.0,,,-28000000.0,,-28000000.0,-4.01,-4.01,8000000.0,8000000.0,,,,,,,-28000000.0,-28000000.0,-28000000.0,,
2014-12,,,,,8000000.0,5000000.0,13000000.0,-13000000.0,0.0,-13000000.0,-1000000.0,,,-12000000.0,,-12000000.0,-1.46,-1.46,8000000.0,8000000.0,,,,,,,-13000000.0,-13000000.0,-12000000.0,,
