,0,1,2,3,4,5,6,7,8,9,10,11,12,13,14,15,16,17,18,19,20,21,22,23,24,25,26,27,28,29,30
Date,Revenue,Revenue Growth,Cost of Revenue,Gross Profit,R&D Expenses,SG&A Expense,Operating Expenses,Operating Income,Interest Expense,Earnings before Tax,Income Tax Expense,Net Income - Non-Controlling int,Net Income - Discontinued ops,Net Income,Preferred Dividends,Net Income Com,EPS,EPS Diluted,Weighted Average Shs Out,Weighted Average Shs Out (Dil),Dividend per Share,Gross Margin,EBITDA Margin,EBIT Margin,Profit Margin,Free Cash Flow margin,EBITDA,EBIT,Consolidated Income,Earnings Before Tax Margin,Net Profit Margin
2017-12-31,331066000.0,0.00019939577039300002,14147000.0,316919000.0,0.0,14369000.0,42181000.0,62961000.0,15268000.0,46130000.0,584000.0,0.0,0.0,47440000.0,0.0,47440000.0,0.6,0.6,74263000.0,74465000.0,1.5277110051700002,0.957268339244,0.48339606,0.190176581105,0.143294690485,0.45744353089699996,160036000.0,62961000.0,47440000.0,0.139337775549,0.143294690485
2017-12,331000000.0,0.14545555217199999,,,,28000000.0,,65000000.0,,,1000000.0,,,47000000.0,,47000000.0,0.6,0.6,74000000.0,74000000.0,,0.0,0.47432024169184,0.14501510574018,0.14199395770393,,157000000.0,48000000.0,47000000.0,0.0,0.14199395770393
2016-12-31,288968000.0,-0.000110726643599,12462000.0,276506000.0,0.0,11603000.0,20432000.0,49066000.0,15454000.0,21760000.0,684000.0,0.0,0.0,44924000.0,0.0,44924000.0,0.65,0.65,69336000.0,69600000.0,1.4859051724099999,0.956874117549,0.457247861355,0.169797347803,0.155463580743,0.458981617342,132130000.0,49066000.0,44924000.0,0.0753024556352,0.155463580743
2016-12,289000000.0,0.132613790455,,,,24000000.0,,61000000.0,,,1000000.0,,,45000000.0,,45000000.0,0.65,0.65,69000000.0,70000000.0,,0.0,0.4083044982699,0.15916955017301002,0.15570934256055,,118000000.0,46000000.0,45000000.0,0.0,0.15570934256055
2015-12-31,255162000.0,0.0006352941176469999,11268000.0,243894000.0,0.0,9452000.0,18088000.0,45055000.0,24449000.0,18327000.0,347000.0,0.0,0.0,19911000.0,0.0,19911000.0,0.4,0.4,49676000.0,49991000.0,1.4104938888999998,0.955839819409,0.448040852478,0.176574098024,0.0780327791756,0.39149638269000003,114323000.0,45055000.0,19911000.0,0.07182495826179999,0.0780327791756
2015-12,255000000.0,0.129352991457,,,,21000000.0,,45000000.0,,,0.0,,,20000000.0,,20000000.0,0.4,0.4,50000000.0,50000000.0,,0.0,0.43137254901961,0.07843137254902001,0.07843137254902001,,110000000.0,20000000.0,20000000.0,0.0,0.07843137254902001
2014-12-31,225793000.0,-0.00091592920354,8988000.0,216805000.0,0.0,10117000.0,18824000.0,23940000.0,20656000.0,15394000.0,261000.0,0.0,0.0,47055000.0,0.0,47055000.0,1.1,1.09,42933958.0,43277347.0,1.36674274419,0.960193628678,0.3731913744,0.106026316139,0.20839884318799998,0.395145110787,84264000.0,23940000.0,47055000.0,0.0681774900019,0.20839884318799998
2014-12,226000000.0,0.22575606369600001,,,,19000000.0,,37000000.0,,,0.0,,,47000000.0,,47000000.0,1.1,1.1,43000000.0,43000000.0,,0.0,0.41592920353982,0.20796460176991,0.20796460176991,,94000000.0,47000000.0,47000000.0,0.0,0.20796460176991
2013-12-31,184376000.0,0.00204347826087,7622000.0,176754000.0,0.0,7678000.0,17892000.0,24330000.0,17526000.0,5493000.0,203000.0,0.0,0.0,4323000.0,0.0,4323000.0,0.04,0.04,114431996.0,115469596.0,0.415780444923,0.958660563197,0.40773744956,0.131958606326,0.0234466524927,0.419832299215,75177000.0,24330000.0,4323000.0,0.0297923807871,0.0234466524927
2013-12,184000000.0,0.269394485033,,,,15000000.0,,24000000.0,,,0.0,,,4000000.0,,4000000.0,0.12,0.12,38000000.0,38000000.0,,0.0,0.39673913043478004,0.021739130434783,0.021739130434783,,73000000.0,4000000.0,4000000.0,0.0,0.021739130434783
2012-12-31,144951000.0,0.15547601775999997,6395000.0,138556000.0,0.0,7908000.0,17501000.0,16157000.0,14390000.0,835000.0,-884000.0,0.0,0.0,8421000.0,0.0,8421000.0,0.08,0.08,101243974.0,102316958.0,0.331900016027,0.9558816427619999,0.380583783485,0.111465253775,0.0580954943395,0.354561196542,55166000.0,16157000.0,8421000.0,0.0057605673641400006,0.0580954943395
2011-12-31,125447000.0,0.0,5498000.0,119949000.0,0.0,11016000.0,19620000.0,7249000.0,18242000.0,-12413000.0,-95000.0,0.0,0.0,-11014000.0,0.0,-11014000.0,-0.15,-0.15,75485418.0,75485418.0,0.234773820819,0.956172726331,0.30019051870499996,0.05778535955419999,-0.0877980342296,0.327516799923,37658000.0,7249000.0,-11014000.0,-0.0989501542484,-0.0877980342296
