,0,1,2,3,4,5,6,7,8,9,10,11,12,13,14
Date,Depreciation & Amortization,Stock-based compensation,Operating Cash Flow,Capital Expenditure,Acquisitions and disposals,Investment purchases and sales,Investing Cash flow,Issuance (repayment) of debt,Issuance (buybacks) of shares,Dividend payments,Financing Cash Flow,Effect of forex changes on cash,Net cash flow / Change in cash,Free Cash Flow,Net Cash/Marketcap
2018-12-31,315900000.0,42500000.0,672200000.0,321900000.0,-138300000.0,0.0,-474000000.0,-100000000.0,0.0,-187900000.0,-311000000.0,-12500000.0,-112800000.0,350300000.0,0.0
2017-12-31,290900000.0,38300000.0,816000000.0,218200000.0,-139900000.0,-77100000.0,-349500000.0,-322500000.0,-77100000.0,-187400000.0,-263700000.0,4300000.0,207100000.0,597800000.0,0.0
2016-12-31,268700000.0,37100000.0,795800000.0,173500000.0,-1791600000.0,0.0,-1975900000.0,-350000000.0,0.0,-157600000.0,1187500000.0,28600000.0,36000000.0,622300000.0,0.0
2015-12-31,200000000.0,38400000.0,742100000.0,146200000.0,-4400000.0,-196300000.0,-147800000.0,-0.0,-196300000.0,-137800000.0,-612000000.0,-17300000.0,-35000000.0,595900000.0,0.0
2014-12-31,204200000.0,38100000.0,616200000.0,86400000.0,-341000000.0,-301600000.0,-429300000.0,-290000000.0,-301600000.0,-121200000.0,-283400000.0,-11100000.0,-107600000.0,529800000.0,0.0
2013-12-31,190300000.0,32200000.0,566300000.0,83300000.0,-91400000.0,-11900000.0,-133600000.0,-15000000.0,-11900000.0,-106700000.0,-333100000.0,-10500000.0,89100000.0,483000000.0,0.0
2012-12-31,164900000.0,24400000.0,408700000.0,75000000.0,-127400000.0,-142300000.0,-204100000.0,-16700000.0,-142300000.0,-78100000.0,-195900000.0,-400000.0,8300000.0,333700000.0,0.0
2011-12-31,164900000.0,24400000.0,408700000.0,75000000.0,-127400000.0,-142300000.0,-204100000.0,-16700000.0,-142300000.0,-78100000.0,-195900000.0,-400000.0,8300000.0,333700000.0,0.0
2010-12-31,167800000.0,21800000.0,352600000.0,99800000.0,-82600000.0,-167500000.0,1000000.0,-20800000.0,-167500000.0,-35200000.0,-335300000.0,-2000000.0,16300000.0,252800000.0,0.0
2009-12-31,158800000.0,18300000.0,418400000.0,-70700000.0,-199400000.0,0.0,-270100000.0,-70800000.0,-13600000.0,-20200000.0,-108300000.0,4900000.0,44900000.0,347700000.0,-0.2741
