,0,1,2,3,4,5,6,7,8,9,10,11,12,13,14,15,16,17,18,19,20,21,22,23,24,25,26,27,28,29,30
Date,Revenue,Revenue Growth,Cost of Revenue,Gross Profit,R&D Expenses,SG&A Expense,Operating Expenses,Operating Income,Interest Expense,Earnings before Tax,Income Tax Expense,Net Income - Non-Controlling int,Net Income - Discontinued ops,Net Income,Preferred Dividends,Net Income Com,EPS,EPS Diluted,Weighted Average Shs Out,Weighted Average Shs Out (Dil),Dividend per Share,Gross Margin,EBITDA Margin,EBIT Margin,Profit Margin,Free Cash Flow margin,EBITDA,EBIT,Consolidated Income,Earnings Before Tax Margin,Net Profit Margin
2019-03-31,352586000.0,0.189160202361,22780000.0,329806000.0,62063000.0,251539000.0,443574000.0,-90988000.0,0.0,-88170000.0,569000.0,0.0,0.0,-88739000.0,0.0,-88739000.0,-0.94,-0.94,94533000.0,94533000.0,0.0,0.9353916491299998,-0.143959204279,-0.258059026734,-0.251680441084,-0.0679663968507,-50758000.0,-90988000.0,-88739000.0,-0.250066650406,-0.251680441084
2018-03-31,296500000.0,0.170142232466,20482000.0,276018000.0,34797000.0,222959000.0,338396000.0,-41896000.0,0.0,-38203000.0,66294000.0,0.0,0.0,-104497000.0,0.0,-104497000.0,-1.14,-1.14,92017000.0,92017000.0,0.0,0.93092074199,-0.0882934232715,-0.141301854975,-0.352435075885,0.0433827993255,-26179000.0,-41896000.0,-104497000.0,-0.128846543002,-0.352435075885
2017-03-31,253388000.0,0.210436809722,19714000.0,233674000.0,27452000.0,170491000.0,260057000.0,-6669000.0,0.0,-4877000.0,-126000.0,0.0,0.0,-4751000.0,0.0,-4751000.0,-0.05,-0.05,90340000.0,90340000.0,0.0,0.9221983677210001,0.014870475318499998,-0.026319320567700002,-0.018749901337099997,0.0774582853174,3768000.0,-6669000.0,-4751000.0,-0.019247162454400002,-0.018749901337099997
2016-03-31,209336000.0,0.288911601904,20168000.0,189168000.0,24040000.0,135124000.0,216410000.0,-7074000.0,0.0,-5967000.0,-847000.0,0.0,0.0,-5120000.0,0.0,-5120000.0,-0.06,-0.06,88477000.0,88477000.0,0.0,0.9036572782510001,0.00923395880307,-0.0337925631521,-0.0244582871556,0.08920109297969998,1933000.0,-7074000.0,-5120000.0,-0.0285044139565,-0.0244582871556
2015-03-31,162413000.0,0.262961033306,15863000.0,146550000.0,15118000.0,98849000.0,158531000.0,3882000.0,0.0,4715000.0,2789000.0,0.0,0.0,1926000.0,0.0,1926000.0,0.02,0.02,89071000.0,91652000.0,0.0,0.902329247043,0.0615406402197,0.0239020275471,0.0118586566346,0.09490619593260001,9995000.0,3882000.0,1926000.0,0.0290309273272,0.0118586566346
2014-03-31,128597000.0,1.0,15170000.0,113427000.0,11633000.0,76274000.0,125522000.0,3075000.0,0.0,3817000.0,2219000.0,0.0,0.0,2514000.0,0.0,2514000.0,0.03,0.03,78310000.0,81658000.0,0.0,0.882034573124,0.0577929500688,0.0239119108533,0.0195494451659,0.0938124528566,7432000.0,3075000.0,2514000.0,0.0296818743828,0.0195494451659
2013-03-31,0.0,0.0,0.0,0.0,0.0,0.0,0.0,0.0,0.0,0.0,0.0,0.0,0.0,0.0,0.0,0.0,0.0,0.0,0.0,0.0,0.0,0.0,0.0,0.0,0.0,0.0,0.0,0.0,0.0,0.0,0.0
2012-03-31,0.0,-1.0,0.0,0.0,0.0,0.0,0.0,0.0,0.0,0.0,0.0,0.0,0.0,0.0,0.0,0.0,0.0,0.0,0.0,0.0,0.0,0.0,0.0,0.0,0.0,0.0,0.0,0.0,0.0,0.0,0.0
2011-03-31,70163000.0,0.106741750268,22623000.0,47540000.0,4819000.0,36477000.0,41296000.0,6244000.0,0.0,6549000.0,55000.0,0.0,0.0,6494000.0,0.0,6494000.0,0.1,0.1,62436804.0,63087000.0,0.0,0.6776,0.11199999999999999,0.0933,0.09300000000000001,0.0932,7878000.0,6549000.0,6494000.0,0.0933,0.0926
2010-03-31,63396000.0,-0.0198,20856000.0,42540000.0,5049000.0,33516000.0,38565000.0,3975000.0,0.0,3882000.0,3000.0,0.0,0.0,3879000.0,0.0,3879000.0,0.06,0.06,63130350.0,62861000.0,0.0,0.6709999999999999,0.077,0.0612,0.061,0.0228,4880000.0,3882000.0,3879000.0,0.0612,0.0612
