,0,1,2,3,4,5,6,7,8,9,10,11,12,13,14
Date,Depreciation & Amortization,Stock-based compensation,Operating Cash Flow,Capital Expenditure,Acquisitions and disposals,Investment purchases and sales,Investing Cash flow,Issuance (repayment) of debt,Issuance (buybacks) of shares,Dividend payments,Financing Cash Flow,Effect of forex changes on cash,Net cash flow / Change in cash,Free Cash Flow,Net Cash/Marketcap
2018-12-31,91704000.0,5283000.0,164731000.0,0.0,-0.0,0.0,-241435000.0,-387420000.0,156945000.0,-97667000.0,77062000.0,0.0,358000.0,164731000.0,0.0
2017-12-31,83874000.0,5521000.0,155014000.0,0.0,-0.0,0.0,-179426000.0,-329089000.0,109191000.0,-86560000.0,23906000.0,0.0,-506000.0,155014000.0,0.0
2016-12-31,77935000.0,4590000.0,138864000.0,0.0,-0.0,0.0,-186472000.0,-394392000.0,58761000.0,-80272000.0,48082000.0,0.0,474000.0,138864000.0,0.0
2015-12-31,73290000.0,6733000.0,131385000.0,0.0,-0.0,0.0,-156418000.0,-471006000.0,6185000.0,-75906000.0,25070000.0,0.0,37000.0,131385000.0,0.0
2014-12-31,70314000.0,5146000.0,117401000.0,0.0,-0.0,0.0,-159514000.0,-388611000.0,78857000.0,-70624000.0,42116000.0,0.0,3000.0,117401000.0,0.0
2013-12-31,65919000.0,4229000.0,109750000.0,0.0,-0.0,0.0,-176111000.0,-519536000.0,53239000.0,-65535000.0,65111000.0,0.0,-1250000.0,109750000.0,0.0
2012-12-31,62274000.0,3497000.0,91808000.0,0.0,-0.0,0.0,-119908000.0,-437541000.0,108330000.0,-61073000.0,29184000.0,0.0,1084000.0,91808000.0,0.0
2011-12-31,57463000.0,2452000.0,86547000.0,0.0,-0.0,0.0,-150833000.0,-354481000.0,25007000.0,-0.0,64323000.0,0.0,37000.0,86547000.0,0.0
2011-02-28,0.0,0.0,0.0,0.0,-0.0,0.0,0.0,-0.0,0.0,-0.0,0.0,0.0,0.0,0.0,0.0
2010-12-31,58350000.0,1998000.0,76858000.0,-56771000.0,0.0,37000.0,-63501000.0,43028000.0,969000.0,-56294000.0,-14282000.0,0.0,-925000.0,20087000.0,-0.3266
2009-12-31,54004000.0,1827000.0,80584000.0,-67256000.0,0.0,939000.0,-80324000.0,-3957000.0,58629000.0,-54316000.0,509000.0,0.0,769000.0,13328000.0,-0.3266
