,0,1,2,3,4,5,6,7,8,9,10,11,12,13,14,15,16,17,18,19,20,21,22,23,24,25,26,27,28
Date,Cash and cash equivalents,Short-term investments,Cash and short-term investments,Receivables,Inventories,Total current assets,Property Plant & Equipment Net,Goodwill and Intangible Assets,Long-term investments,Tax assets,Total non-current assets,Total assets,Payables,Short-term debt,Total current liabilities,Long-term debt,Total debt,Deferred revenue,Tax Liabilities,Deposit Liabilities,Total non-current liabilities,Total liabilities,Other comprehensive income,Retained earnings (deficit),Total shareholders equity,Investments,Net Debt,Other Assets,Other Liabilities
2018-12-31,374000.0,0.0,374000.0,5433000.0,0.0,5807000.0,0.0,0.0,0.0,0.0,2125898000.0,2131705000.0,86563000.0,15000.0,86578000.0,0.0,15000.0,0.0,0.0,0.0,0.0,1228646000.0,889653000.0,6701000.0,903059000.0,0.0,-359000.0,0.0,1142068000.0
2017-12-31,16000.0,0.0,16000.0,5427000.0,0.0,5443000.0,0.0,0.0,0.0,0.0,1947778000.0,1953221000.0,64967000.0,15000.0,64982000.0,0.0,15000.0,0.0,0.0,0.0,0.0,1203749000.0,738773000.0,5348000.0,749472000.0,0.0,-1000.0,0.0,1138767000.0
2016-12-31,522000.0,0.0,522000.0,6015000.0,0.0,6537000.0,0.0,0.0,0.0,0.0,1819227000.0,1825764000.0,52701000.0,16000.0,52717000.0,0.0,16000.0,0.0,0.0,0.0,0.0,1188103000.0,633668000.0,1995000.0,637661000.0,0.0,-506000.0,0.0,1135386000.0
2015-12-31,48000.0,0.0,48000.0,5221000.0,0.0,5269000.0,0.0,0.0,0.0,0.0,1660963000.0,1666232000.0,44181000.0,82000.0,44263000.0,0.0,82000.0,0.0,0.0,0.0,0.0,1111370000.0,561771000.0,-3456000.0,554862000.0,0.0,34000.0,0.0,1067107000.0
2014-12-31,11000.0,0.0,11000.0,4080000.0,0.0,4091000.0,0.0,0.0,0.0,0.0,1571733000.0,1575824000.0,39439000.0,16000.0,39455000.0,0.0,16000.0,0.0,0.0,0.0,0.0,1004695000.0,575840000.0,-2357000.0,571129000.0,0.0,5000.0,0.0,965240000.0
2013-12-31,8000.0,0.0,8000.0,4514000.0,0.0,4522000.0,0.0,0.0,0.0,0.0,1468890000.0,1473412000.0,37104000.0,56000.0,37160000.0,0.0,56000.0,0.0,0.0,0.0,0.0,959414000.0,510737000.0,1629000.0,513998000.0,0.0,48000.0,0.0,922254000.0
2012-12-31,1258000.0,0.0,1258000.0,3104000.0,0.0,4362000.0,0.0,0.0,0.0,0.0,1349740000.0,1354102000.0,28914000.0,693000.0,29607000.0,0.0,693000.0,0.0,0.0,0.0,0.0,867790000.0,487093000.0,-392000.0,486312000.0,0.0,-565000.0,0.0,838183000.0
2011-12-31,174000.0,0.0,174000.0,3427000.0,0.0,3601000.0,0.0,0.0,0.0,0.0,1282915000.0,1286516000.0,31205000.0,1459000.0,32664000.0,0.0,1459000.0,0.0,0.0,0.0,0.0,883687000.0,0.0,405609000.0,402829000.0,0.0,1285000.0,0.0,851023000.0
2011-02-28,0.0,0.0,0.0,0.0,0.0,0.0,0.0,0.0,0.0,0.0,0.0,0.0,0.0,0.0,0.0,0.0,0.0,0.0,0.0,0.0,0.0,0.0,0.0,0.0,0.0,0.0,0.0,0.0,0.0
2010-12-31,137000.0,,,0.0,0.0,,1521177000.0,0.0,,0.0,,1183276000.0,20969000.0,,,,735718000.0,0.0,0.0,0.0,,771770000.0,0.0,-182253000.0,408856000.0,2740000.0,,,
2009-12-31,1062000.0,,,0.0,0.0,,1468182000.0,0.0,,0.0,,1178518000.0,23602000.0,,,,692105000.0,0.0,0.0,0.0,,731422000.0,-318000.0,-144363000.0,444519000.0,2725000.0,,,
