,0,1,2,3,4,5,6,7,8,9,10,11,12,13,14,15,16,17,18,19,20,21,22,23,24,25,26,27,28,29,30
Date,Revenue,Revenue Growth,Cost of Revenue,Gross Profit,R&D Expenses,SG&A Expense,Operating Expenses,Operating Income,Interest Expense,Earnings before Tax,Income Tax Expense,Net Income - Non-Controlling int,Net Income - Discontinued ops,Net Income,Preferred Dividends,Net Income Com,EPS,EPS Diluted,Weighted Average Shs Out,Weighted Average Shs Out (Dil),Dividend per Share,Gross Margin,EBITDA Margin,EBIT Margin,Profit Margin,Free Cash Flow margin,EBITDA,EBIT,Consolidated Income,Earnings Before Tax Margin,Net Profit Margin
2019-12-31,84521000.0,-0.194600878572,12251000.0,72270000.0,0.0,14855000.0,11016000.0,21193000.0,0.0,21042000.0,23890000.0,0.0,0.0,2563000.0,0.0,2563000.0,0.04,0.04,59143000.0,59143000.0,0.0,0.855053773618,0.334544077803,0.25074241904399996,0.0303238248483,0.19076915796100002,28276000.0,21193000.0,2563000.0,0.24895588078699998,0.0303238248483
2018-12-31,104943000.0,0.362453748783,15076000.0,89867000.0,14000.0,11398000.0,15742000.0,51287000.0,145000.0,55474000.0,-43254000.0,0.0,0.0,98232000.0,0.0,98232000.0,1.64,1.62,59248000.0,59997000.0,0.0,0.856341061338,0.546010691518,0.488712920347,0.936050999114,0.219633515337,57300000.0,51287000.0,98232000.0,0.528610769656,0.936050999114
2017-12-31,77025000.0,0.288388197511,0.0,0.0,7000.0,10377000.0,49734000.0,19951000.0,1414000.0,20650000.0,10378000.0,0.0,0.0,9651000.0,0.0,9651000.0,0.16,0.16,58717000.0,58720000.0,0.0,0.0,0.347640376501,0.259019798767,0.12529698150000002,0.0629146381045,26777000.0,19951000.0,9651000.0,0.26809477442400004,0.12529698150000002
2016-12-31,59784000.0,-0.256833861645,0.0,0.0,5000.0,9561000.0,52333000.0,-4391000.0,2616000.0,-9019000.0,9248000.0,0.0,0.0,-26550000.0,0.0,-26550000.0,-0.45,-0.45,58384000.0,58384000.0,0.0,0.0,0.06622173156700001,-0.07344774521610001,-0.44409875552,-0.203348722066,3959000.0,-4391000.0,-26550000.0,-0.150859761809,-0.44409875552
2015-12-31,80445000.0,-0.37000258436399996,0.0,0.0,46453000.0,14829000.0,100882000.0,-143553000.0,1337000.0,-144069000.0,14587000.0,0.0,0.0,-158656000.0,0.0,-158656000.0,-2.72,-2.72,58288740.0,58288740.0,0.0,0.0,-1.3703648455500002,-1.78448629498,-1.97222947355,-0.6224003977870001,-110239000.0,-143553000.0,-158656000.0,-1.79090061533,-1.97222947355
2014-12-31,127691000.0,-0.245668342421,0.0,0.0,15358000.0,14194000.0,63670000.0,-54406000.0,0.0,-55064000.0,22486000.0,0.0,0.0,-77550000.0,0.0,-77550000.0,-1.36,-1.36,57229435.0,57229435.0,0.0,0.0,-0.266205135836,-0.42607544776100004,-0.607325496707,-0.5387145531009999,-33992000.0,-54406000.0,-77550000.0,-0.43122851258100003,-0.607325496707
2013-12-31,169277000.0,-0.133188589102,0.0,0.0,23928000.0,11254000.0,75123000.0,77225000.0,0.0,77187000.0,34115000.0,0.0,0.0,43072000.0,0.0,43072000.0,0.75,0.74,57298910.0,57925001.0,0.0,0.0,0.556212598286,0.456204918565,0.254446853382,0.44542968034599995,94154000.0,77225000.0,43072000.0,0.455980434436,0.254446853382
2012-12-31,195287000.0,-0.0719886331236,0.0,0.0,41037000.0,11779000.0,79540000.0,86593000.0,0.0,87152000.0,81813000.0,0.0,0.0,631000.0,0.0,631000.0,0.01,0.01,57673342.0,58832059.0,0.0951012100392,0.0,0.545381925064,0.443414052139,0.00323114185788,0.48112777604199997,106506000.0,86593000.0,631000.0,0.446276505861,0.00323114185788
2011-12-31,210436000.0,0.564905705277,0.0,0.0,5708000.0,10417000.0,42856000.0,132561000.0,0.0,134030000.0,93468000.0,0.0,0.0,34145000.0,0.0,34145000.0,0.6,0.59,57048000.0,57973000.0,0.12405775102199999,0.0,0.751568172746,0.629934992112,0.162258358836,0.425711380182,158157000.0,132561000.0,34145000.0,0.636915736851,0.162258358836
2010-12-31,134472000.0,0.16629950215999997,22112000.0,112360000.0,6813000.0,7403000.0,34237000.0,78123000.0,0.0,72600000.0,35260000.0,5047000.0,0.0,37340000.0,0.0,37340000.0,0.66,0.65,56470585.0,56466000.0,0.0,0.8356,0.6890000000000001,0.5399,0.278,0.0409,92621000.0,72600000.0,42387000.0,0.5399,0.2777
2009-12-31,115298000.0,-0.3199,21978000.0,93320000.0,36464000.0,9580000.0,60301000.0,33019000.0,450000.0,29013000.0,36902000.0,3745000.0,0.0,-7889000.0,0.0,-7889000.0,-0.14,-0.14,56593564.0,57407000.0,0.001,0.8094,0.436,0.2555,-0.068,-0.3283,50223000.0,29463000.0,-4144000.0,0.2516,-0.0684
