,0,1,2,3,4,5,6,7,8,9,10,11,12,13,14,15,16,17,18,19,20,21,22,23,24,25,26,27,28,29,30
Date,Revenue,Revenue Growth,Cost of Revenue,Gross Profit,R&D Expenses,SG&A Expense,Operating Expenses,Operating Income,Interest Expense,Earnings before Tax,Income Tax Expense,Net Income - Non-Controlling int,Net Income - Discontinued ops,Net Income,Preferred Dividends,Net Income Com,EPS,EPS Diluted,Weighted Average Shs Out,Weighted Average Shs Out (Dil),Dividend per Share,Gross Margin,EBITDA Margin,EBIT Margin,Profit Margin,Free Cash Flow margin,EBITDA,EBIT,Consolidated Income,Earnings Before Tax Margin,Net Profit Margin
2019-12-31,4605000000.0,0.0766137516658,0.0,0.0,0.0,247000000.0,3693800000.0,562300000.0,159700000.0,562300000.0,115900000.0,0.0,0.0,358700000.0,0.0,358700000.0,3.65,3.61,98000000.0,99400000.0,1.09356136821,0.0,0.170575461455,0.12210640608,0.0778935939197,0.0570901194354,785500000.0,562300000.0,358700000.0,0.12210640608,0.0778935939197
2018-12-31,4277300000.0,0.0914263842817,438400000.0,3838900000.0,0.0,220200000.0,3448000000.0,493200000.0,147300000.0,493200000.0,118900000.0,0.0,0.0,292300000.0,0.0,292300000.0,2.98,2.93,97900000.0,99800000.0,1.01002004008,0.897505435672,0.162929885676,0.115306384869,0.0683375026302,0.11874313234999999,696900000.0,493200000.0,292300000.0,0.115306384869,0.0683375026302
2017-12-31,3919000000.0,0.0748765770708,368400000.0,3550600000.0,0.0,171700000.0,3085800000.0,496400000.0,154400000.0,496400000.0,160600000.0,0.0,0.0,256300000.0,0.0,256300000.0,2.73,2.69,93700000.0,99300000.0,0.921450151057,0.90599642766,0.17578463893899998,0.126664965552,0.06539933656550001,0.110079101812,688900000.0,496400000.0,256300000.0,0.126664965552,0.06539933656550001
2016-12-31,3646000000.0,0.152739574441,336500000.0,3309500000.0,0.0,133400000.0,2822700000.0,482000000.0,172100000.0,482000000.0,163900000.0,0.0,0.0,247600000.0,0.0,247600000.0,2.77,2.59,89100000.0,99500000.0,0.842211055276,0.907707076248,0.183324190894,0.13219967087200002,0.06791003839819999,0.117334064728,668400000.0,482000000.0,247600000.0,0.13219967087200002,0.06791003839819999
2015-12-31,3162900000.0,0.314643168877,244800000.0,2918100000.0,0.0,133300000.0,2507800000.0,395600000.0,142900000.0,395600000.0,141900000.0,0.0,0.0,183100000.0,1600000.0,183100000.0,2.02,1.91,89400000.0,101000000.0,0.764356435644,0.922602674761,0.173764583136,0.125075089317,0.0578899111575,0.11268139998099999,549600000.0,395600000.0,183100000.0,0.125075089317,0.0578899111575
2014-12-31,2405900000.0,0.0583758578216,0.0,0.0,0.0,124800000.0,1859200000.0,386900000.0,109200000.0,386900000.0,110700000.0,0.0,0.0,222000000.0,6300000.0,222000000.0,2.46,2.29,86800000.0,100700000.0,0.653426017875,0.0,0.210856644083,0.160813001372,0.0922731618105,0.113886695208,507300000.0,386900000.0,222000000.0,0.160813001372,0.0922731618105
2013-12-31,2273200000.0,0.051482492252199995,0.0,0.0,0.0,119100000.0,1714100000.0,395200000.0,100400000.0,395200000.0,12700000.0,0.0,0.0,323600000.0,21000000.0,323600000.0,2.58,2.58,88100000.0,102100000.0,0.153770812929,0.0,0.215511173676,0.173851838818,0.142354390287,0.121018828084,489900000.0,395200000.0,323600000.0,0.173851838818,0.142354390287
2012-12-31,2161900000.0,0.0666041738616,0.0,0.0,0.0,117900000.0,1664900000.0,340000000.0,94100000.0,340000000.0,108600000.0,0.0,0.0,185000000.0,0.0,185000000.0,1.69,1.69,94600000.0,108100000.0,0.0,0.0,0.19542994588100002,0.157269068875,0.0855728757112,0.125213932189,422500000.0,340000000.0,185000000.0,0.157269068875,0.0855728757112
2011-12-31,2026900000.0,1.0,0.0,0.0,0.0,110500000.0,604400000.0,242900000.0,119400000.0,242900000.0,37100000.0,0.0,0.0,208700000.0,0.0,208700000.0,1.96,1.96,93300000.0,109200000.0,0.0,0.0,0.160787409344,0.119838176526,0.10296511914699999,0.1195914944,325900000.0,242900000.0,208700000.0,0.119838176526,0.10296511914699999
2010-12-31,0.0,-1.0,0.0,0.0,0.0,0.0,0.0,0.0,0.0,0.0,0.0,0.0,0.0,0.0,0.0,0.0,0.0,0.0,0.0,0.0,0.0,0.0,0.0,0.0,0.0,0.0,0.0,0.0,0.0,0.0,0.0
2009-12-31,1784900000.0,-0.0244,0.0,1784900000.0,0.0,1000700000.0,1527500000.0,257400000.0,125700000.0,91900000.0,-2900000.0,34000000.0,-18400000.0,94800000.0,26000000.0,68800000.0,0.77,0.77,93305496.0,88800000.0,0.0,1.0,0.16,0.1219,0.039,0.1876,285200000.0,217600000.0,128800000.0,0.0515,0.0531
