,0,1,2,3,4,5,6,7,8,9,10,11,12,13,14,15,16,17,18,19,20,21,22,23,24,25,26,27,28,29,30
Date,Revenue,Revenue Growth,Cost of Revenue,Gross Profit,R&D Expenses,SG&A Expense,Operating Expenses,Operating Income,Interest Expense,Earnings before Tax,Income Tax Expense,Net Income - Non-Controlling int,Net Income - Discontinued ops,Net Income,Preferred Dividends,Net Income Com,EPS,EPS Diluted,Weighted Average Shs Out,Weighted Average Shs Out (Dil),Dividend per Share,Gross Margin,EBITDA Margin,EBIT Margin,Profit Margin,Free Cash Flow margin,EBITDA,EBIT,Consolidated Income,Earnings Before Tax Margin,Net Profit Margin
2018-12-31,0.0,0.0,0.0,0.0,28539000.0,9240000.0,37779000.0,-37779000.0,0.0,-40725000.0,0.0,0.0,0.0,-40725000.0,6523000.0,-39812000.0,-1.86,-1.86,36747182.0,21366995.0,0.0,0.0,,0.0,,0.0,-40669000.0,-40725000.0,-40725000.0,0.0,0.0
2017-12-31,0.0,0.0,0.0,0.0,9286000.0,2730000.0,12016000.0,-12016000.0,0.0,-11941000.0,0.0,0.0,0.0,-11941000.0,0.0,-11941000.0,-3.32,-3.32,36737000.0,3596673.0,0.0,0.0,,0.0,,0.0,-11937000.0,-11941000.0,-11941000.0,0.0,0.0
2016-12-31,0.0,,0.0,0.0,1734000.0,651000.0,2385000.0,-2385000.0,0.0,-2542000.0,0.0,0.0,0.0,-2542000.0,0.0,-2542000.0,-0.98,-0.98,36737000.0,2599641.0,0.0,0.0,,0.0,,0.0,-2542000.0,-2542000.0,-2542000.0,0.0,0.0
