,0,1,2,3,4,5,6,7,8,9,10,11,12,13,14,15,16,17,18,19,20,21,22,23,24,25,26,27,28
Date,Cash and cash equivalents,Short-term investments,Cash and short-term investments,Receivables,Inventories,Total current assets,Property Plant & Equipment Net,Goodwill and Intangible Assets,Long-term investments,Tax assets,Total non-current assets,Total assets,Payables,Short-term debt,Total current liabilities,Long-term debt,Total debt,Deferred revenue,Tax Liabilities,Deposit Liabilities,Total non-current liabilities,Total liabilities,Other comprehensive income,Retained earnings (deficit),Total shareholders equity,Investments,Net Debt,Other Assets,Other Liabilities
2017-11-30,33107.0,0.0,33107.0,0.0,0.0,54493.0,0.0,0.0,133738124.0,0.0,133738124.0,133792617.0,0.0,397125.0,3570978.0,0.0,397125.0,0.0,0.0,0.0,0.0,128792616.0,0.0,-298697.0,5000001.0,133738124.0,364018.0,0.0,125221638.0
2017-11,0.0,,,,,134000000.0,,0.0,134000000.0,,7000000.0,134000000.0,1000000.0,,4000000.0,,,,,,7000000.0,10000000.0,,-0.0,123000000.0,134000000.0,0.0,0.0,10000000.0
2016-11-30,252937.0,0.0,252937.0,0.0,0.0,306028.0,0.0,0.0,200815168.0,0.0,200815168.0,201121196.0,0.0,30257.0,119328.0,0.0,30257.0,0.0,0.0,0.0,0.0,196121195.0,0.0,-204874.0,5000001.0,200815168.0,-222680.0,0.0,196001867.0
2016-11,0.0,,,,,201000000.0,,0.0,201000000.0,,7000000.0,201000000.0,0.0,,0.0,,,,,,7000000.0,7000000.0,,-0.0,194000000.0,201000000.0,0.0,0.0,7000000.0
2015-11-30,864561.0,0.0,864561.0,0.0,0.0,946957.0,0.0,0.0,200061928.0,0.0,200102839.0,201049796.0,0.0,60095.0,108092.0,0.0,60095.0,0.0,0.0,0.0,0.0,196049795.0,0.0,-265037.0,5000001.0,200061928.0,-804466.0,0.0,195941703.0
2015-11,1000000.0,,,,,200000000.0,,0.0,200000000.0,,7000000.0,201000000.0,0.0,,0.0,,,,,,7000000.0,7000000.0,,-0.0,194000000.0,200000000.0,-1000000.0,0.0,7000000.0
2014-11,0.0,,,,,0.0,,0.0,0.0,,0.0,0.0,0.0,,0.0,,,,,,0.0,0.0,,0.0,0.0,0.0,0.0,0.0,0.0
2013-11,0.0,,,,,0.0,,0.0,0.0,,0.0,0.0,0.0,,0.0,,,,,,0.0,0.0,,0.0,0.0,0.0,0.0,0.0,0.0
