,0,1,2,3,4,5,6,7,8,9,10,11,12,13,14,15,16,17,18,19,20,21,22,23,24,25,26,27,28,29,30
Date,Revenue,Revenue Growth,Cost of Revenue,Gross Profit,R&D Expenses,SG&A Expense,Operating Expenses,Operating Income,Interest Expense,Earnings before Tax,Income Tax Expense,Net Income - Non-Controlling int,Net Income - Discontinued ops,Net Income,Preferred Dividends,Net Income Com,EPS,EPS Diluted,Weighted Average Shs Out,Weighted Average Shs Out (Dil),Dividend per Share,Gross Margin,EBITDA Margin,EBIT Margin,Profit Margin,Free Cash Flow margin,EBITDA,EBIT,Consolidated Income,Earnings Before Tax Margin,Net Profit Margin
2018-12-31,18117000.0,0.328615429745,12158000.0,5959000.0,2878000.0,3600000.0,5594000.0,365000.0,5521000.0,1272000.0,215000.0,453000.0,0.0,1057000.0,0.0,1057000.0,0.1,0.1,10675508.0,10675508.0,0.0,0.3289,0.696,0.375,0.057999999999999996,0.1591,12609000.0,6793000.0,604000.0,0.0702,0.0583
2017-12-31,13636000.0,0.17228335625900001,7067000.0,6569000.0,2739000.0,2420000.0,5141000.0,1428000.0,7405000.0,-5743000.0,372000.0,526000.0,0.0,-6115000.0,0.0,-6115000.0,-0.57,-0.57,10677370.0,10677370.0,0.0,0.4817,0.45299999999999996,0.1219,-0.44799999999999995,-0.3866,6180000.0,1662000.0,-6641000.0,-0.4212,-0.4484
2016-12-31,11632000.0,-0.0654025389683,6493000.0,5139000.0,2201000.0,2032000.0,4143000.0,996000.0,3333000.0,360000.0,569000.0,423000.0,0.0,-209000.0,0.0,-209000.0,-0.02,-0.02,10678888.0,10678888.0,0.225,0.4418,0.6970000000000001,0.3175,-0.018000000000000002,0.1887,8104000.0,3693000.0,-632000.0,0.0309,-0.018000000000000002
2015-12-31,12446000.0,-0.211380053225,6999000.0,5447000.0,1044000.0,2328000.0,3354000.0,2093000.0,3177000.0,6601000.0,-1739000.0,230000.0,0.0,8340000.0,0.0,8340000.0,0.78,0.78,10692371.0,10692371.0,0.0,0.4377,1.141,0.7856,0.67,0.3756,14206000.0,9778000.0,8110000.0,0.5304,0.6701
2014-12-31,15782000.0,0.21568325373599997,8539000.0,7243000.0,0.0,4253000.0,2815000.0,4428000.0,4592000.0,6859000.0,201000.0,12000.0,0.0,6658000.0,0.0,6658000.0,0.62,0.62,10692371.0,10692371.0,0.0,0.4589,1.071,0.7256,0.42200000000000004,0.1665,16903000.0,11451000.0,6646000.0,0.4346,0.4219
2013-12-31,12982000.0,0.460292463442,6402000.0,6580000.0,0.0,3449000.0,3491000.0,3089000.0,4201000.0,10313000.0,245000.0,-19000.0,0.0,10068000.0,0.0,10068000.0,0.94,0.94,10692371.0,10692371.0,0.0,0.5069,1.4280000000000002,1.1179999999999999,0.7759999999999999,-0.2128,18535000.0,14514000.0,10087000.0,0.7944,0.7755
2012-12-31,8890000.0,0.454039908407,4671000.0,4219000.0,0.0,3110000.0,3358000.0,861000.0,2046000.0,-3121000.0,-1011000.0,23000.0,0.0,-2110000.0,0.0,-2110000.0,-0.2,-0.2,10769326.0,10769326.0,0.0,0.4746,0.185,-0.1209,-0.237,0.528,1642000.0,-1075000.0,-2133000.0,-0.3511,-0.2373
2011-12-31,6114000.0,1.0,3168000.0,2946000.0,0.0,3102000.0,3102000.0,-156000.0,652000.0,-1990000.0,-1018000.0,0.0,0.0,-972000.0,0.0,-972000.0,-0.09,-0.09,10750071.0,10750071.0,0.0,0.4818,0.07200000000000001,-0.2188,-0.159,-4.5762,439000.0,-1338000.0,-972000.0,-0.3255,-0.159
2010-12-31,0.0,0.0,0.0,0.0,0.0,3211000.0,3211000.0,-3211000.0,80000.0,5158000.0,-44000.0,0.0,-7035000.0,5202000.0,0.0,5202000.0,0.7,0.6,7378643.0,7378643.0,0.0,0.0,,0.0,,0.0,5260000.0,5238000.0,5202000.0,0.0,0.0
2009-12-31,0.0,-1.0,0.0,0.0,0.0,1931000.0,1931000.0,-1931000.0,9000.0,-950000.0,69000.0,0.0,376000.0,-1019000.0,0.0,-1019000.0,-0.1,-0.1,7378643.0,7378643.0,0.0,0.0,,0.0,,0.0,-930000.0,-941000.0,-1019000.0,0.0,0.0
