,0,1,2,3,4,5,6,7,8,9,10,11,12,13,14
Date,Depreciation & Amortization,Stock-based compensation,Operating Cash Flow,Capital Expenditure,Acquisitions and disposals,Investment purchases and sales,Investing Cash flow,Issuance (repayment) of debt,Issuance (buybacks) of shares,Dividend payments,Financing Cash Flow,Effect of forex changes on cash,Net cash flow / Change in cash,Free Cash Flow,Net Cash/Marketcap
2019-06-30,927185.0,924071.0,2589874.0,1388388.0,-0.0,0.0,-1386638.0,-1103001.0,0.0,-0.0,-851152.0,0.0,0.0,1201486.0,0.0
2018-06-30,796378.0,862674.0,2442200.0,571777.0,-0.0,0.0,-571777.0,-50700.0,0.0,-0.0,11712.0,0.0,0.0,1870423.0,0.0
2017-06-30,768194.0,479482.0,1191121.0,687148.0,-0.0,0.0,-687148.0,-4872.0,0.0,-0.0,-53619.0,0.0,0.0,503973.0,0.0
2016-06-30,756718.0,222763.0,2166903.0,579521.0,-0.0,0.0,-579521.0,-13520.0,0.0,-0.0,-62267.0,0.0,0.0,1587382.0,0.0
2015-06-30,755425.0,110350.0,2781214.0,624507.0,-0.0,0.0,-624507.0,-14797.0,-3598240.0,-0.0,-61169.0,0.0,2095538.0,2156707.0,0.0
2014-06-30,713565.0,82228.0,2062661.0,935799.0,-0.0,0.0,-935799.0,-35296.0,-1502702.0,-0.0,-127724.0,0.0,999138.0,1126862.0,0.0
2013-06-30,600870.0,175802.0,1876657.0,1053372.0,-0.0,0.0,-1053372.0,-254028.0,-503564.0,-0.0,-2022156.0,0.0,-1198871.0,823285.0,0.0
2012-06-30,545450.0,135605.0,-1171777.0,853751.0,-0.0,0.0,-848751.0,-11313.0,4243565.0,-0.0,-368776.0,0.0,-2389304.0,-2025528.0,0.0
2011-06-30,335620.0,156169.0,-1415104.0,-451503.0,0.0,0.0,-1110713.0,-435968.0,6449513.0,0.0,6006829.0,0.0,3481012.0,-1866607.0,0.0113
2010-06-30,298928.0,168895.0,607937.0,-269616.0,-125000.0,0.0,-909121.0,639384.0,399832.0,0.0,549995.0,0.0,248811.0,338321.0,-0.1101
2009-06-30,302162.0,153233.0,-1157706.0,-648716.0,0.0,0.0,-712320.0,385990.0,424643.0,0.0,-790317.0,0.0,-1079709.0,-1806422.0,-0.1143
