,0,1,2,3,4,5,6,7,8,9,10,11,12,13,14,15,16,17,18,19,20,21,22,23,24,25,26,27,28
Date,Cash and cash equivalents,Short-term investments,Cash and short-term investments,Receivables,Inventories,Total current assets,Property Plant & Equipment Net,Goodwill and Intangible Assets,Long-term investments,Tax assets,Total non-current assets,Total assets,Payables,Short-term debt,Total current liabilities,Long-term debt,Total debt,Deferred revenue,Tax Liabilities,Deposit Liabilities,Total non-current liabilities,Total liabilities,Other comprehensive income,Retained earnings (deficit),Total shareholders equity,Investments,Net Debt,Other Assets,Other Liabilities
2018-12-31,58313000.0,0.0,58313000.0,41600000.0,0.0,99913000.0,41579000.0,17739000.0,0.0,21628000.0,653360000.0,753273000.0,44950000.0,50000000.0,123211000.0,562590000.0,612590000.0,28261000.0,0.0,4650000.0,563271000.0,636482000.0,183244000.0,-66525000.0,116791000.0,0.0,554277000.0,0.0,0.0
2017-12-31,41142000.0,0.0,41142000.0,36600000.0,0.0,77742000.0,24249000.0,18150000.0,0.0,23545000.0,609801000.0,687543000.0,42213000.0,0.0,81162000.0,513295000.0,513295000.0,33023000.0,5926000.0,31200000.0,514179000.0,591387000.0,174090000.0,-79954000.0,96156000.0,0.0,472153000.0,0.0,0.0
2016-12-31,55359000.0,0.0,55359000.0,45158000.0,0.0,504494000.0,16159000.0,18331000.0,0.0,31197000.0,,570181000.0,31390000.0,0.0,34166000.0,493478000.0,493478000.0,28970000.0,1026000.0,0.0,,556614000.0,1087000.0,-76385000.0,13567000.0,392663000.0,,,2776000.0
2015-12-31,31046000.0,0.0,31046000.0,23570000.0,0.0,346376000.0,17770000.0,18511000.0,0.0,26856000.0,,409513000.0,34529000.0,0.0,35332000.0,339077000.0,339077000.0,1729000.0,803000.0,0.0,,376138000.0,286000.0,-54012000.0,33375000.0,274208000.0,,,803000.0
