,0,1,2,3,4,5,6,7,8,9,10,11,12,13,14
Date,Depreciation & Amortization,Stock-based compensation,Operating Cash Flow,Capital Expenditure,Acquisitions and disposals,Investment purchases and sales,Investing Cash flow,Issuance (repayment) of debt,Issuance (buybacks) of shares,Dividend payments,Financing Cash Flow,Effect of forex changes on cash,Net cash flow / Change in cash,Free Cash Flow,Net Cash/Marketcap
2019-12-31,1363000.0,368000.0,10428000.0,1809000.0,-0.0,-20772000.0,-11862000.0,-6000000.0,-14986000.0,-3313000.0,5465000.0,0.0,4031000.0,8619000.0,0.0
2018-12-31,1430000.0,269000.0,6612000.0,885000.0,1557000.0,2952000.0,-19444000.0,-6000000.0,-17693000.0,-2753000.0,16151000.0,0.0,3319000.0,5727000.0,0.0
2017-12-31,970000.0,230000.0,8214000.0,204000.0,2517000.0,11453000.0,-42364000.0,7000000.0,-14374000.0,-2374000.0,30956000.0,0.0,-3194000.0,8010000.0,0.0
2016-12-31,912000.0,205000.0,5660000.0,2142000.0,-3309000.0,22790000.0,-14513000.0,4750000.0,-17564000.0,-2232000.0,14875000.0,0.0,6022000.0,3518000.0,0.0
2015-12-31,873000.0,184000.0,3419000.0,2009000.0,-0.0,27873000.0,-20822000.0,-7750000.0,-3395000.0,-1957000.0,17093000.0,0.0,-310000.0,1410000.0,0.0
2014-12-31,835000.0,198000.0,5525000.0,3735000.0,-0.0,14813000.0,-55911000.0,17650000.0,-11856000.0,-1658000.0,45584000.0,0.0,-4802000.0,1790000.0,0.0
2013-12-31,722000.0,172000.0,6736000.0,3807000.0,-0.0,29953000.0,-27416000.0,-24150000.0,-16658000.0,-1830000.0,16914000.0,0.0,-3766000.0,2929000.0,0.0
2012-12-31,1036000.0,98000.0,6607000.0,583000.0,-0.0,73780000.0,261000.0,10000000.0,-15848000.0,-1537000.0,2298000.0,0.0,9166000.0,6024000.0,0.0
2011-12-31,1714000.0,127000.0,2594000.0,985000.0,-0.0,113674000.0,-36077000.0,-0.0,-28193000.0,-1185000.0,13558000.0,0.0,-19925000.0,1609000.0,0.0
2010-12-31,914000.0,127000.0,2594000.0,-985000.0,0.0,-35314000.0,-36077000.0,-10000000.0,410000.0,-1185000.0,13558000.0,0.0,-19925000.0,1609000.0,0.1621
2009-12-31,860000.0,121000.0,3239000.0,-1327000.0,54923000.0,-31054000.0,22641000.0,-8188000.0,0.0,-1394000.0,-3499000.0,0.0,22381000.0,1912000.0,0.1621
