,0,1,2,3,4,5,6,7,8,9,10,11,12,13,14,15,16,17,18,19,20,21,22,23,24,25,26,27,28,29,30
Date,Revenue,Revenue Growth,Cost of Revenue,Gross Profit,R&D Expenses,SG&A Expense,Operating Expenses,Operating Income,Interest Expense,Earnings before Tax,Income Tax Expense,Net Income - Non-Controlling int,Net Income - Discontinued ops,Net Income,Preferred Dividends,Net Income Com,EPS,EPS Diluted,Weighted Average Shs Out,Weighted Average Shs Out (Dil),Dividend per Share,Gross Margin,EBITDA Margin,EBIT Margin,Profit Margin,Free Cash Flow margin,EBITDA,EBIT,Consolidated Income,Earnings Before Tax Margin,Net Profit Margin
2018-12-31,660727000.0,0.0028565140510999998,457159000.0,203568000.0,0.0,0.0,0.0,-14676000.0,0.0,-14676000.0,-7208000.0,0.0,0.0,-7468000.0,0.0,-7468000.0,-0.35,-0.35,21549436.0,21549436.0,0.8873086052,0.308096990134,-0.022211896895400002,-0.022211896895400002,-0.011302701418299999,0.10862277460999999,-14676000.0,-14676000.0,-7468000.0,-0.022211896895400002,-0.011302701418299999
2017-12-31,658845000.0,0.021492039325099997,421969000.0,236876000.0,0.0,0.0,0.0,39816000.0,0.0,39816000.0,578000.0,0.0,0.0,39238000.0,0.0,39238000.0,1.84,1.84,21326358.0,21326358.0,0.843932189453,0.35953221167300004,0.060433030530699997,0.060433030530699997,0.0595557376925,0.0894019078843,39816000.0,39816000.0,39238000.0,0.060433030530699997,0.0595557376925
2016-12-31,644983000.0,0.0340806700378,386897000.0,258086000.0,0.0,0.0,0.0,63207000.0,0.0,63207000.0,17004000.0,0.0,0.0,46203000.0,0.0,46203000.0,2.2,2.2,21006302.0,21006302.0,0.7710067197930001,0.40014387976099997,0.09799793172839999,0.09799793172839999,0.0716344461792,0.129358448207,63207000.0,63207000.0,46203000.0,0.09799793172839999,0.0716344461792
2015-12-31,623726000.0,0.049218880106,370736000.0,252990000.0,0.0,0.0,0.0,71656000.0,0.0,71656000.0,21494000.0,0.0,0.0,50162000.0,0.0,50162000.0,2.43,2.43,20621919.0,20621919.0,0.687326916569,0.40561079704899994,0.11488377909499999,0.11488377909499999,0.08042313451739999,0.13725898872300002,71656000.0,71656000.0,50162000.0,0.11488377909499999,0.08042313451739999
2014-12-31,594467000.0,0.045949839193400004,385474000.0,208993000.0,0.0,0.0,0.0,40907000.0,0.0,40907000.0,10915000.0,0.0,0.0,29992000.0,0.0,29992000.0,2.23,2.23,13470623.0,13470623.0,0.9344779376569999,0.35156366964,0.068812902987,0.068812902987,0.0504519174319,0.154449279775,40907000.0,40907000.0,29992000.0,0.068812902987,0.0504519174319
2013-12-31,568351347.0,0.110348512106,0.0,0.0,0.0,0.0,0.0,60852420.0,0.0,60852420.0,17333747.0,0.0,0.0,43518673.0,0.0,43518673.0,3.33,3.33,13086612.0,13086612.0,0.8615792231020001,0.0,0.10706831315,0.10706831315,0.0765700182285,0.152780399762,60852420.0,60852420.0,43518673.0,0.10706831315,0.0765700182285
2012-12-31,511867527.0,0.0829859953918,0.0,0.0,0.0,0.0,0.0,51633614.0,0.0,51633614.0,13667185.0,0.0,0.0,37966429.0,0.0,37966429.0,2.95,2.95,0.0,0.0,0.0,0.0,0.101456285583,0.100873001854,0.07417237272800001,0.107524187601,51932178.0,51633614.0,37966429.0,0.100873001854,0.07417237272800001
2011-12-31,472644641.0,0.0662836576258,0.0,0.0,0.0,0.0,0.0,-10007416.0,0.0,-10007416.0,-7909802.0,0.0,0.0,-2097614.0,0.0,-2097614.0,-0.16,-0.16,0.0,0.0,0.0,0.0,-0.019770489685900002,-0.021173234882799995,-0.00443803614395,0.0248928898783,-9344416.0,-10007416.0,-2097614.0,-0.021173234882799995,-0.00443803614395
2010-12-31,443263514.0,-0.0159488941818,262654362.0,180609152.0,0.0,135519200.0,137260470.0,43348682.0,900000.0,42448682.0,11100111.0,0.0,0.0,31348571.0,0.0,31348571.0,1.6,1.6,19376115.0,19557395.0,0.48700000000000004,0.4075,0.098,0.0978,0.071,0.0684,43348682.0,43348682.0,31348571.0,0.0958,0.0707
2009-12-31,450447656.0,0.0883,257840114.0,192607542.0,0.0,127009728.0,129182725.0,63424817.0,900000.0,62524817.0,17154203.0,0.0,0.0,45370614.0,0.0,45370614.0,2.293,2.293,19662548.0,19810658.0,0.48,0.4276,0.141,0.1408,0.10099999999999999,0.0757,63424817.0,63424817.0,45370614.0,0.1388,0.1007
