,0,1,2,3,4,5,6,7,8,9,10,11,12,13,14,15,16,17,18,19,20,21,22,23,24,25,26,27,28
Date,Cash and cash equivalents,Short-term investments,Cash and short-term investments,Receivables,Inventories,Total current assets,Property Plant & Equipment Net,Goodwill and Intangible Assets,Long-term investments,Tax assets,Total non-current assets,Total assets,Payables,Short-term debt,Total current liabilities,Long-term debt,Total debt,Deferred revenue,Tax Liabilities,Deposit Liabilities,Total non-current liabilities,Total liabilities,Other comprehensive income,Retained earnings (deficit),Total shareholders equity,Investments,Net Debt,Other Assets,Other Liabilities
2019-12-31,204000000.0,395000000.0,204000000.0,980000000.0,1662000000.0,3321000000.0,5571000000.0,6442000000.0,0.0,66000000.0,12687000000.0,16008000000.0,1618000000.0,171000000.0,1789000000.0,5611000000.0,5782000000.0,0.0,36000000.0,0.0,7171000000.0,10050000000.0,0.0,7965000000.0,5958000000.0,395000000.0,5578000000.0,0.0,1090000000.0
2018-12-31,226000000.0,329000000.0,226000000.0,1154000000.0,1583000000.0,3365000000.0,5600000000.0,6652000000.0,0.0,43000000.0,12630000000.0,15995000000.0,1608000000.0,243000000.0,1851000000.0,5925000000.0,6168000000.0,0.0,43000000.0,0.0,7341000000.0,10192000000.0,0.0,7573000000.0,5803000000.0,329000000.0,5942000000.0,0.0,1000000000.0
2017-12-31,191000000.0,360000000.0,191000000.0,1026000000.0,1509000000.0,3143000000.0,5607000000.0,6900000000.0,0.0,21000000.0,12856000000.0,15999000000.0,1589000000.0,393000000.0,1982000000.0,6147000000.0,6540000000.0,0.0,58000000.0,0.0,7574000000.0,10596000000.0,0.0,6802000000.0,5403000000.0,360000000.0,6349000000.0,0.0,1040000000.0
2016-12-31,181000000.0,399000000.0,181000000.0,812000000.0,1404000000.0,2866000000.0,5276000000.0,6930000000.0,0.0,34000000.0,12591000000.0,15457000000.0,1512000000.0,283000000.0,1795000000.0,6311000000.0,6594000000.0,0.0,56000000.0,0.0,8036000000.0,10925000000.0,0.0,5721000000.0,4532000000.0,399000000.0,6413000000.0,0.0,1094000000.0
2015-12-31,293000000.0,246000000.0,293000000.0,792000000.0,1479000000.0,2878000000.0,5130000000.0,7168000000.0,0.0,27000000.0,12733000000.0,15611000000.0,1625000000.0,431000000.0,2056000000.0,6608000000.0,7039000000.0,0.0,33000000.0,0.0,8237000000.0,11670000000.0,0.0,5146000000.0,3941000000.0,246000000.0,6746000000.0,0.0,1377000000.0
2014-12-31,214000000.0,264000000.0,214000000.0,936000000.0,1509000000.0,3173000000.0,5087000000.0,7391000000.0,0.0,28000000.0,12899000000.0,16072000000.0,1721000000.0,301000000.0,2022000000.0,7248000000.0,7549000000.0,0.0,23000000.0,0.0,8962000000.0,12562000000.0,0.0,4545000000.0,3510000000.0,264000000.0,7335000000.0,0.0,1578000000.0
2013-12-31,237000000.0,208000000.0,237000000.0,880000000.0,1264000000.0,2840000000.0,4290000000.0,4398000000.0,0.0,7000000.0,9005000000.0,11845000000.0,1470000000.0,0.0,1470000000.0,4254000000.0,4254000000.0,0.0,35000000.0,0.0,5203000000.0,8049000000.0,0.0,4012000000.0,3796000000.0,208000000.0,4017000000.0,0.0,1376000000.0
2012-12-31,249000000.0,151000000.0,249000000.0,846000000.0,1260000000.0,2594000000.0,4181000000.0,4493000000.0,0.0,30000000.0,9025000000.0,11619000000.0,1360000000.0,4000000.0,1364000000.0,4779000000.0,4783000000.0,0.0,44000000.0,0.0,5371000000.0,8676000000.0,0.0,3038000000.0,2943000000.0,151000000.0,4534000000.0,0.0,1941000000.0
2011-12-31,577000000.0,272000000.0,577000000.0,632000000.0,779000000.0,2302000000.0,3107000000.0,0.0,0.0,18000000.0,3882000000.0,6184000000.0,961000000.0,153000000.0,1114000000.0,1445000000.0,1598000000.0,0.0,8000000.0,0.0,1789000000.0,4314000000.0,0.0,3436000000.0,1870000000.0,272000000.0,1021000000.0,0.0,1411000000.0
2010-12-31,516000000.0,348000000.0,516000000.0,545000000.0,619000000.0,2047000000.0,3219000000.0,0.0,0.0,0.0,3939000000.0,5986000000.0,0.0,6000000.0,1070000000.0,1598000000.0,1604000000.0,0.0,0.0,0.0,2012000000.0,4359000000.0,0.0,2880000000.0,1627000000.0,348000000.0,1088000000.0,0.0,1277000000.0
2009-12-31,793000000.0,0.0,793000000.0,379000000.0,531000000.0,1735000000.0,3110000000.0,315000000.0,0.0,0.0,3780000000.0,5515000000.0,800000000.0,0.0,800000000.0,1604000000.0,1604000000.0,0.0,258000000.0,0.0,3202000000.0,4002000000.0,-385000000.0,2571000000.0,1513000000.0,0.0,811000000.0,32000000.0,0.0
