,0,1,2,3,4,5,6,7,8,9,10,11,12,13,14,15,16,17,18,19,20,21,22,23,24,25,26,27,28,29,30
Date,Revenue,Revenue Growth,Cost of Revenue,Gross Profit,R&D Expenses,SG&A Expense,Operating Expenses,Operating Income,Interest Expense,Earnings before Tax,Income Tax Expense,Net Income - Non-Controlling int,Net Income - Discontinued ops,Net Income,Preferred Dividends,Net Income Com,EPS,EPS Diluted,Weighted Average Shs Out,Weighted Average Shs Out (Dil),Dividend per Share,Gross Margin,EBITDA Margin,EBIT Margin,Profit Margin,Free Cash Flow margin,EBITDA,EBIT,Consolidated Income,Earnings Before Tax Margin,Net Profit Margin
2019-12-31,2914364000.0,-0.0111004866515,1569338000.0,1345026000.0,130732000.0,632420000.0,763152000.0,-344904000.0,0.0,-344904000.0,15680000.0,0.0,0.0,-422636000.0,0.0,-422636000.0,-1.87,-1.87,226050000.0,226050000.0,0.0,0.461516131822,0.0981569220592,-0.11834623266,-0.145018261274,0.0117342926278,286065000.0,-344904000.0,-422636000.0,-0.11834623266,-0.145018261274
2018-12-31,2947078000.0,-0.150418379766,1631682000.0,1315396000.0,185826000.0,646037000.0,831863000.0,-469129000.0,0.0,-938832000.0,22935000.0,0.0,0.0,-1031469000.0,0.0,-1031469000.0,-4.61,-4.61,223960000.0,223960000.0,0.0,0.44633905176600003,0.09334398343039998,-0.159184453211,-0.34999718365099997,0.0623912906275,275092000.0,-469129000.0,-1031469000.0,-0.318563675614,-0.34999718365099997
2017-12-31,3468858000.0,-0.13500723392,2228530000.0,1240328000.0,172067000.0,629874000.0,801941000.0,-960065000.0,0.0,-1483004000.0,-250293000.0,0.0,0.0,-2035433000.0,0.0,-2035433000.0,-9.12,-9.12,223198000.0,223198000.0,0.0,0.35756090332900003,0.0133744304321,-0.276766878321,-0.586773226232,0.12347896627699999,46394000.0,-960065000.0,-2035433000.0,-0.42751937381099997,-0.586773226232
2016-12-31,4010274000.0,0.22686447714400002,2634973000.0,1375301000.0,183372000.0,770728000.0,954100000.0,-3471515000.0,0.0,-3923856000.0,-700084000.0,0.0,0.0,-3347066000.0,0.0,-3347066000.0,-15.03,-15.03,222651000.0,222651000.0,0.0,0.342944397315,-0.613347616647,-0.8656553143250001,-0.834622771412,0.09614879182819999,-2459692000.0,-3471515000.0,-3347066000.0,-0.9784508489939999,-0.834622771412
2015-12-31,3268718000.0,0.136080784433,2075651000.0,1193067000.0,102197000.0,741304000.0,843501000.0,-933475000.0,1100000.0,-1437864000.0,-1137465000.0,0.0,0.0,-1495042000.0,0.0,-1495042000.0,-7.59,-7.59,197100000.0,197100000.0,0.0,0.36499538963,-0.0847778853973,-0.285578321532,-0.45737870321,-0.006041512299319999,-277115000.0,-933475000.0,-1495042000.0,-0.439886218389,-0.45737870321
2014-12-31,2877188000.0,0.35417410895999996,1400555000.0,1476633000.0,154203000.0,795855000.0,950058000.0,-896943000.0,-4100000.0,-1125701000.0,-401840000.0,0.0,0.0,-721319000.0,0.0,-721319000.0,-4.91,-4.91,146896000.0,146896000.0,0.036018679882400005,0.513220894846,-0.186364603217,-0.311742923994,-0.25070276951,0.0894453195273,-536206000.0,-896943000.0,-721319000.0,-0.391250415336,-0.25070276951
2013-12-31,2124681000.0,-0.24542606267099998,886603000.0,1238078000.0,97465000.0,574313000.0,667794000.0,570284000.0,173606000.0,-541597000.0,143742000.0,52925000.0,874038000.0,-685339000.0,0.0,-685339000.0,-6.05,-5.72,114889113.0,113295000.0,0.0,0.5827,-0.053,-0.1732,-0.32299999999999995,0.096,-112328000.0,-367991000.0,-632414000.0,-0.2549,-0.3226
2012-12-31,2815736000.0,0.11517830267899999,1135681000.0,1680055000.0,219139000.0,864339000.0,2220429000.0,-540374000.0,182834000.0,-776752000.0,-36415000.0,52316000.0,-5987000.0,-740337000.0,0.0,-740337000.0,-6.4,-6.4,114095441.0,115719000.0,0.0,0.5967,-0.11,-0.2109,-0.263,0.2257,-308394000.0,-593918000.0,-688021000.0,-0.2759,-0.2629
2011-12-31,2524920000.0,0.471202269627,948080000.0,1576840000.0,179838000.0,783920000.0,1110455000.0,466385000.0,148024000.0,299697000.0,112084000.0,54452000.0,-47707000.0,187613000.0,0.0,187613000.0,1.61,1.55,116836364.0,116706000.0,0.0,0.6245,0.271,0.1773,0.07400000000000001,0.2552,685135000.0,447721000.0,242065000.0,0.1187,0.0743
2010-12-31,1716229000.0,0.174822585073,504757000.0,1211472000.0,144525000.0,547605000.0,744173000.0,467299000.0,46601000.0,392684000.0,133678000.0,28014000.0,0.0,259006000.0,0.0,259006000.0,2.23,2.2,115590411.0,116164000.0,0.0,0.7059,0.319,0.256,0.151,0.2529,547689000.0,439285000.0,287020000.0,0.2288,0.1509
2009-12-31,1460841000.0,0.1589,375058000.0,1085783000.0,185317000.0,534523000.0,692430000.0,393353000.0,37718000.0,359660000.0,93324000.0,0.0,0.0,266336000.0,0.0,266336000.0,2.27,2.27,117259235.0,117112000.0,0.0,0.7433,0.327,0.272,0.182,0.1937,477759000.0,397378000.0,266336000.0,0.2462,0.1823
