,0,1,2,3,4,5,6,7,8,9,10,11,12,13,14,15,16,17,18,19,20,21,22,23,24,25,26,27,28,29,30
Date,Revenue,Revenue Growth,Cost of Revenue,Gross Profit,R&D Expenses,SG&A Expense,Operating Expenses,Operating Income,Interest Expense,Earnings before Tax,Income Tax Expense,Net Income - Non-Controlling int,Net Income - Discontinued ops,Net Income,Preferred Dividends,Net Income Com,EPS,EPS Diluted,Weighted Average Shs Out,Weighted Average Shs Out (Dil),Dividend per Share,Gross Margin,EBITDA Margin,EBIT Margin,Profit Margin,Free Cash Flow margin,EBITDA,EBIT,Consolidated Income,Earnings Before Tax Margin,Net Profit Margin
2018-12-31,3540578423.6311,-0.136388934678,1861926680.1153,1678651743.5159,0.0,177421230.5476,471425890.4899,1207225853.0259,176057909.2219,742352242.0749,221156367.4352,73685619.5965,0.0,521195874.6398,0.0,521195874.6398,0.0082,0.0082,70738865.6513,92094177.9308,0.0006,0.4741,0.0004,0.2594,0.0002,0.1789,918410151.2968,918410151.2968,594881494.2363,0.2097,0.1472
2017-12-31,4099737214.8196,0.07925991078160001,2461467209.9448,1638270004.8749,0.0,197438701.6575,435061282.0929,1203208722.7819,86953009.4248,800658015.9246,232925415.9896,282800242.1189,0.0,567732599.935,0.0,567732599.935,0.0116,0.0116,79773761.3942,79773761.3942,0.0004,0.3996,0.0004,0.2165,0.0002,0.1482,887611025.3494,887611025.3494,850532842.0539,0.1953,0.1385
2016-12-31,3798656073.3556,0.122129008444,2238061159.5199,1560594913.8356,0.0,185478990.2402,456736807.8079,1103858106.0278,86985490.3074,740674439.1469,166504524.1903,270691035.3177,0.0,574169914.9566,0.0,574169914.9566,0.0117,0.0117,73374643.553,73374643.553,0.0002,0.4108,0.0003,0.2179,0.0002,0.1604,827659929.4543,827659929.4543,844860950.2743,0.195,0.1512
2015-12-31,3385222238.0577,0.000972870870648,2091200305.6399,1294021932.4177,0.0,192689647.0465,374920347.3515,919101585.0663,94120026.4719,510036319.7903,154672155.2978,134235701.1727,0.0,355364164.4924,0.0,355364164.4924,0.0072,0.0072,69273833.8651,69273833.8651,0.0,0.3823,0.0003,0.1785,0.0001,0.1113,604156346.2621,604156346.2621,489599865.6652,0.1507,0.105
2014-12-31,3381932054.875,0.022635424317799996,2161136390.3441,1220795664.5310001,0.0,208523324.5198,406773500.2954,814022164.2355,124819667.3962,487131526.3928,218996862.4461,61233265.0036,0.0,268134663.9467,0.0,268134663.9467,0.0055,0.0055,,81026418.7652,0.0,0.361,0.0003,0.1809,0.0001,0.0347,611951193.7889,611951193.7889,329367928.9503,0.14400000000000002,0.0793
2013-12-31,3307075008.8001,,1900628805.1906,1406446203.6094,0.0,228542429.5758,443337950.5865,963108253.0229,132749772.15,554144781.3306,117421141.0577,157654819.0994,0.0,436723640.2728,0.0,436723640.2728,,,,,0.0,0.4253,0.0004,0.2077,0.0003,0.1842,686894553.4805,686894553.4805,594378459.3723,0.1676,0.1321
