,0,1,2,3,4,5,6,7,8,9,10,11,12,13,14
Date,Depreciation & Amortization,Stock-based compensation,Operating Cash Flow,Capital Expenditure,Acquisitions and disposals,Investment purchases and sales,Investing Cash flow,Issuance (repayment) of debt,Issuance (buybacks) of shares,Dividend payments,Financing Cash Flow,Effect of forex changes on cash,Net cash flow / Change in cash,Free Cash Flow,Net Cash/Marketcap
2018-12-31,0.0,0.0,1059835046.1095,-426365995.6772,-2230575716.1383,-52477204.611,-2711181115.2738,1072574913.5447,855102590.7781,-333418938.0403,1392762069.1643,7454170.0288,-251129829.9712,633469050.4323,
2017-12-31,0.0,0.0,1032846473.8382,-425090877.4781,259052320.442,-72962637.3091,-238000937.6016,-13205589.8603,0.0,-423794369.5158,-516079819.6295,3094592.1352,281860308.7423,607755596.3601,
2016-12-31,0.0,0.0,918715315.2884,-309552967.552,105388093.9214,106078911.0258,-94890806.6421,-29548728.8326,0.0,-482468538.419,-666398092.8752,-5368563.8274,152057851.9437,609162347.7364,
2015-12-31,0.0,0.0,813532154.9874,-436691869.4977,5770827.8948,14341022.7791,-418725804.5626,-144656876.1227,0.0,-190061774.2639,-385849195.0494,6912156.0316,15869311.407,376840285.4897,
2014-12-31,0.0,0.0,437288336.4197,-319883562.2543,-178566.595,-5012512.2548,-311508222.669,-88818611.0919,0.0,-265940813.9485,-262664067.1678,1724091.6608,-135159861.7562,117404774.1654,
2013-12-31,0.0,0.0,842827302.0464,-233609252.8993,-360162.8723,4356100.5775,-201925657.1499,-24290377.0228,0.0,-192811536.1563,-411768411.1385,740020.7396,229873254.4975,609218049.1471,
