,0,1,2,3,4,5,6,7,8,9,10,11,12,13,14,15,16,17,18,19,20,21,22,23,24,25,26,27,28
Date,Cash and cash equivalents,Short-term investments,Cash and short-term investments,Receivables,Inventories,Total current assets,Property Plant & Equipment Net,Goodwill and Intangible Assets,Long-term investments,Tax assets,Total non-current assets,Total assets,Payables,Short-term debt,Total current liabilities,Long-term debt,Total debt,Deferred revenue,Tax Liabilities,Deposit Liabilities,Total non-current liabilities,Total liabilities,Other comprehensive income,Retained earnings (deficit),Total shareholders equity,Investments,Net Debt,Other Assets,Other Liabilities
2019-06-30,12282224.0,0.0,12282224.0,20794.0,0.0,12494987.0,687517.0,166557299.0,0.0,0.0,167382366.0,179877353.0,773563.0,0.0,1110416.0,0.0,0.0,0.0,0.0,0.0,5667000.0,6777416.0,101818.0,-52771840.0,173099937.0,0.0,-12282224.0,191969.0,336853.0
2018-06-30,15600865.0,0.0,15600865.0,122866.0,0.0,15762015.0,27402.0,166575489.0,0.0,0.0,166740441.0,182502456.0,806809.0,0.0,873722.0,0.0,0.0,0.0,0.0,0.0,22891000.0,23764722.0,205680.0,-34755360.0,158737734.0,0.0,-15600865.0,38284.0,66913.0
2017-06-30,3944451.0,0.0,3944451.0,223777.0,0.0,4198880.0,0.0,124393.0,196140.0,0.0,323272.0,4522152.0,669973.0,2089844.0,2989418.0,0.0,2089844.0,0.0,0.0,0.0,0.0,2989418.0,352832.0,-28443524.0,1532734.0,196140.0,-1854607.0,30652.0,229601.0
2016-06-30,23000.0,,23000.0,695000.0,0.0,732000.0,0.0,,,,,871000.0,1185000.0,,1508000.0,0.0,,,,,,1508000.0,,-26301000.0,-637000.0,,,,
2015-06-30,1474000.0,,1474000.0,432000.0,,1906000.0,0.0,,,,,2073000.0,879000.0,,996000.0,,,,,,,996000.0,,-24565000.0,1077000.0,,,,
