,0,1,2,3,4,5,6,7,8,9,10,11,12,13,14,15,16,17,18,19,20,21,22,23,24,25,26,27,28
Date,Cash and cash equivalents,Short-term investments,Cash and short-term investments,Receivables,Inventories,Total current assets,Property Plant & Equipment Net,Goodwill and Intangible Assets,Long-term investments,Tax assets,Total non-current assets,Total assets,Payables,Short-term debt,Total current liabilities,Long-term debt,Total debt,Deferred revenue,Tax Liabilities,Deposit Liabilities,Total non-current liabilities,Total liabilities,Other comprehensive income,Retained earnings (deficit),Total shareholders equity,Investments,Net Debt,Other Assets,Other Liabilities
2017-12,211027000000.0,82000000.0,82000000.0,393141000000.0,31741000000.0,2891658000000.0,2788205000000.0,43468000000.0,15309000000.0,0.0,1049588000000.0,3554462000000.0,240723000000.0,15456000000.0,543357000000.0,748124000000.0,748124000000.0,,160294000000.0,,1049588000000.0,1592944000000.0,-74789000000.0,1398018000000.0,1961518000000.0,15309000000.0,552553000000.0,71490000000.0,297392000000.0
2016-12,114486000000.0,366000000.0,366000000.0,377606000000.0,33391000000.0,2856310000000.0,2726839000000.0,44127000000.0,22008000000.0,18696000000.0,1142943000000.0,3399682000000.0,237993000000.0,16173000000.0,555777000000.0,786138000000.0,786138000000.0,,185277000000.0,,1142943000000.0,1698720000000.0,-136756000000.0,1199429000000.0,1700962000000.0,22008000000.0,687825000000.0,62164000000.0,344847000000.0
2015-12,37425000000.0,935000000.0,935000000.0,447200000000.0,36755000000.0,2866209000000.0,2729717000000.0,45765000000.0,48719000000.0,19867000000.0,2102705000000.0,7278770000000.0,292074000000.0,16613000000.0,2527875000000.0,807552000000.0,807552000000.0,,217760000000.0,,2102705000000.0,4630580000000.0,-1107906000000.0,2218373000000.0,2648190000000.0,48719000000.0,786740000000.0,3912385000000.0,2356170000000.0
2014-12,336629000000.0,20670000000.0,20670000000.0,561789000000.0,65771000000.0,6199614000000.0,5230429000000.0,178062000000.0,585424000000.0,58375000000.0,3144654000000.0,7237672000000.0,390706000000.0,277645000000.0,1392738000000.0,1751280000000.0,1751280000000.0,,390320000000.0,,3144654000000.0,4537391000000.0,-848186000000.0,2010744000000.0,2700280000000.0,585424000000.0,1692296000000.0,200524000000.0,730083000000.0
2013-12,323807000000.0,945000000.0,945000000.0,534067000000.0,46155000000.0,5796693000000.0,4692289000000.0,156145000000.0,764725000000.0,51865000000.0,2871766000000.0,6762125000000.0,286088000000.0,342757000000.0,1238391000000.0,1492765000000.0,1492765000000.0,,305690000000.0,,2871766000000.0,4110157000000.0,-793967000000.0,1908212000000.0,2651968000000.0,764725000000.0,1511715000000.0,192126000000.0,593306000000.0
