,0,1,2,3,4,5,6,7,8,9,10,11,12,13,14,15,16,17,18,19,20,21,22,23,24,25,26,27,28
Date,Cash and cash equivalents,Short-term investments,Cash and short-term investments,Receivables,Inventories,Total current assets,Property Plant & Equipment Net,Goodwill and Intangible Assets,Long-term investments,Tax assets,Total non-current assets,Total assets,Payables,Short-term debt,Total current liabilities,Long-term debt,Total debt,Deferred revenue,Tax Liabilities,Deposit Liabilities,Total non-current liabilities,Total liabilities,Other comprehensive income,Retained earnings (deficit),Total shareholders equity,Investments,Net Debt,Other Assets,Other Liabilities
2019-12-31,109892000.0,19911000.0,129803000.0,10661000.0,6407000.0,152197000.0,902000.0,80846000.0,0.0,14131000.0,88245000.0,240442000.0,5796000.0,1200000.0,24439000.0,73508000.0,74708000.0,0.0,2761000.0,0.0,73508000.0,160985000.0,292509000.0,-213059000.0,79457000.0,19911000.0,-35184000.0,0.0,63038000.0
2018-12-31,93162000.0,0.0,93162000.0,0.0,0.0,94339000.0,0.0,77276000.0,0.0,0.0,77505000.0,171844000.0,1558000.0,0.0,5276000.0,16904000.0,16904000.0,0.0,2435000.0,0.0,31984000.0,87460000.0,207408000.0,-123025000.0,84384000.0,0.0,-76258000.0,0.0,50200000.0
2017-12-31,0.0,0.0,0.0,72639000.0,0.0,72824000.0,0.0,77284000.0,0.0,0.0,79409000.0,152233000.0,445000.0,211326000.0,212748000.0,0.0,211326000.0,0.0,0.0,0.0,15028000.0,227776000.0,0.0,-75543000.0,-75543000.0,0.0,211326000.0,185000.0,977000.0
2016-12-31,187000.0,0.0,187000.0,0.0,0.0,211000.0,0.0,77284000.0,0.0,0.0,77284000.0,77495000.0,2877000.0,59760000.0,63312000.0,0.0,59760000.0,0.0,0.0,0.0,21289000.0,84601000.0,0.0,-66806000.0,-7106000.0,0.0,59573000.0,24000.0,675000.0
2015-12-31,4000000.0,0.0,4000000.0,0.0,0.0,4017000.0,0.0,77284000.0,0.0,0.0,77284000.0,81301000.0,230000.0,46167000.0,48101000.0,0.0,46167000.0,0.0,0.0,0.0,21198000.0,69299000.0,0.0,-46741000.0,12002000.0,0.0,42167000.0,17000.0,1704000.0
