,0,1,2,3,4,5,6,7,8,9,10,11,12,13,14,15,16,17,18,19,20,21,22,23,24,25,26,27,28,29,30
Date,Revenue,Revenue Growth,Cost of Revenue,Gross Profit,R&D Expenses,SG&A Expense,Operating Expenses,Operating Income,Interest Expense,Earnings before Tax,Income Tax Expense,Net Income - Non-Controlling int,Net Income - Discontinued ops,Net Income,Preferred Dividends,Net Income Com,EPS,EPS Diluted,Weighted Average Shs Out,Weighted Average Shs Out (Dil),Dividend per Share,Gross Margin,EBITDA Margin,EBIT Margin,Profit Margin,Free Cash Flow margin,EBITDA,EBIT,Consolidated Income,Earnings Before Tax Margin,Net Profit Margin
2019-08-31,654758000.0,-0.446345417048,362106000.0,292652000.0,9300000.0,0.0,18222000.0,47516000.0,0.0,18724000.0,10657000.0,0.0,0.0,-249145000.0,0.0,-249145000.0,-4.07,-4.04,61151000.0,61607000.0,0.0395896570195,0.446962083701,0.105280118761,0.07257032369210001,-0.380514632887,0.05944486359849999,68933000.0,47516000.0,-249145000.0,0.0285968250865,-0.380514632887
2018-08-31,1182611000.0,0.07923733144489999,767351000.0,415260000.0,25900000.0,0.0,46465000.0,18198000.0,0.0,-12672000.0,8976000.0,0.0,0.0,-21648000.0,0.0,-21648000.0,-0.36,-0.36,60441000.0,60441000.0,0.0395426945285,0.351138286385,0.05183784016890001,0.015387984721899998,-0.018305258449299998,0.07206342575880001,61304000.0,18198000.0,-21648000.0,-0.010715273238600002,-0.018305258449299998
2017-08-31,1095784000.0,-0.04665524051469999,716067000.0,379717000.0,21900000.0,0.0,42374000.0,-50236000.0,0.0,-82691000.0,-16478000.0,0.0,0.0,-66213000.0,0.0,-66213000.0,-1.11,-1.11,59436000.0,59436000.0,0.039672925499699994,0.34652541011699994,-0.00499094712097,-0.0458448015302,-0.0604252297898,0.054437735904199994,-5469000.0,-50236000.0,-66213000.0,-0.0754628649442,-0.0604252297898
2016-08-31,1149410000.0,-0.07992289798550001,746013000.0,403397000.0,18300000.0,0.0,41243000.0,-100217000.0,0.0,-130344000.0,-25170000.0,0.0,0.0,-105174000.0,0.0,-105174000.0,-1.78,-1.78,59010000.0,59010000.0,0.0402643619725,0.350960057769,-0.04418614767580001,-0.0871899496263,-0.09150259698449999,0.0848156880487,-50788000.0,-100217000.0,-105174000.0,-0.11340078823,-0.09150259698449999
2015-08-31,1249254000.0,-0.107587747935,787413000.0,461841000.0,17700000.0,0.0,42033000.0,53554000.0,0.0,25391000.0,5519000.0,0.0,0.0,19872000.0,0.0,19872000.0,0.32,0.32,61262000.0,62055000.0,0.0418660865361,0.369693433041,0.0870039239418,0.042868784090300004,0.015907093353299998,0.08521245479299999,108690000.0,53554000.0,19872000.0,0.0203249299182,0.015907093353299998
2014-08-31,1399862000.0,0.0938626691943,852990000.0,546872000.0,20000000.0,0.0,45166000.0,203108000.0,0.0,84854000.0,32573000.0,0.0,0.0,163573000.0,0.0,163573000.0,2.31,2.26,70942000.0,72486000.0,0.0402698452115,0.39066136519199995,0.189712985994,0.145091444728,0.116849375153,0.059560871000100005,265572000.0,203108000.0,163573000.0,0.0606159750033,0.116849375153
2013-08-31,1279742000.0,-0.202822825292,772792000.0,506950000.0,21000000.0,0.0,43939000.0,190145000.0,0.0,162949000.0,15372000.0,0.0,0.0,30048000.0,0.0,30048000.0,0.41,0.4,72979000.0,74580000.0,0.039031912040800004,0.396134533367,0.192216087305,0.148580729553,0.0234797326336,0.132933825724,245987000.0,190145000.0,30048000.0,0.127329571117,0.0234797326336
2012-08-31,1605342000.0,0.110715044319,987971000.0,617371000.0,22500000.0,0.0,51774000.0,169942000.0,16830000.0,120314000.0,33024000.0,0.0,0.0,87290000.0,0.0,87290000.0,1.25,1.17,70099000.0,74940000.0,0.0366693354684,0.384572882289,0.140901440316,0.105860308894,0.054374706448800006,0.09941121580319999,226195000.0,169942000.0,87290000.0,0.0749460239625,0.054374706448800006
2011-08-31,1445323000.0,0.245422694199,889424000.0,555899000.0,0.0,0.0,27467000.0,193570000.0,0.0,159207000.0,34711000.0,0.0,0.0,111559000.0,0.0,111559000.0,1.63,1.5,68254000.0,75305000.0,0.0360666622402,0.38461921660400006,0.172605016318,0.133928540541,0.0771862068202,0.10272444291,249470000.0,193570000.0,111559000.0,0.110153232184,0.0771862068202
2010-08-31,1160508000.0,0.0384,733256000.0,427252000.0,0.0,267866000.0,305480000.0,121772000.0,31859000.0,42877000.0,18846000.0,0.0,46325000.0,24031000.0,0.0,24031000.0,0.36,0.35,67934619.0,67624000.0,0.04,0.3682,0.109,0.0644,0.021,0.0882,126611000.0,74736000.0,24031000.0,0.0369,0.0207
