,0,1,2,3,4,5,6,7,8,9,10,11,12,13,14
Date,Depreciation & Amortization,Stock-based compensation,Operating Cash Flow,Capital Expenditure,Acquisitions and disposals,Investment purchases and sales,Investing Cash flow,Issuance (repayment) of debt,Issuance (buybacks) of shares,Dividend payments,Financing Cash Flow,Effect of forex changes on cash,Net cash flow / Change in cash,Free Cash Flow,Net Cash/Marketcap
2019-08-31,21417000.0,10882000.0,53845000.0,14923000.0,-0.0,-22481000.0,11046000.0,-0.0,-22481000.0,-2439000.0,-99517000.0,-4713000.0,-39339000.0,38922000.0,0.0
2018-08-31,43106000.0,14457000.0,106093000.0,20870000.0,-23218000.0,0.0,-62751000.0,-0.0,0.0,-2390000.0,-17993000.0,-4430000.0,20919000.0,85223000.0,0.0
2017-08-31,44767000.0,16733000.0,87847000.0,28195000.0,-0.0,0.0,-27625000.0,-500000.0,0.0,-2358000.0,-14498000.0,4243000.0,49967000.0,59652000.0,0.0
2016-08-31,49429000.0,10442000.0,117697000.0,20209000.0,-81916000.0,-17101000.0,-83134000.0,-0.0,-17101000.0,-2376000.0,-18430000.0,-5375000.0,10758000.0,97488000.0,0.0
2015-08-31,55136000.0,12046000.0,128968000.0,22516000.0,-0.0,-212003000.0,-21272000.0,-11941000.0,-212003000.0,-2598000.0,-12951000.0,-34911000.0,59834000.0,106452000.0,0.0
2014-08-31,62464000.0,17115000.0,125234000.0,41857000.0,-30500000.0,-283712000.0,260784000.0,-0.0,-283712000.0,-2919000.0,-380992000.0,-723000.0,5026000.0,83377000.0,0.0
2013-08-31,55842000.0,13440000.0,193789000.0,23668000.0,-235489000.0,-41832000.0,-252682000.0,-0.0,-41832000.0,-2911000.0,98605000.0,-3910000.0,35802000.0,170121000.0,0.0
2012-08-31,56253000.0,13346000.0,182329000.0,22740000.0,-70267000.0,-63083000.0,-84506000.0,-102000.0,-63083000.0,-2748000.0,-71177000.0,-2683000.0,23963000.0,159589000.0,0.0
2011-08-31,55900000.0,10758000.0,171566000.0,23096000.0,-313456000.0,0.0,-331310000.0,-34000.0,-44221000.0,-2716000.0,158492000.0,5251000.0,3999000.0,148470000.0,0.0
2010-08-31,51875000.0,8399000.0,121086000.0,-18730000.0,-38350000.0,0.0,-57080000.0,-14313000.0,3315000.0,-2702000.0,-36594000.0,1425000.0,28837000.0,102356000.0,-0.243
