,0,1,2,3,4,5,6,7,8,9,10,11,12,13,14,15,16,17,18,19,20,21,22,23,24,25,26,27,28
Date,Cash and cash equivalents,Short-term investments,Cash and short-term investments,Receivables,Inventories,Total current assets,Property Plant & Equipment Net,Goodwill and Intangible Assets,Long-term investments,Tax assets,Total non-current assets,Total assets,Payables,Short-term debt,Total current liabilities,Long-term debt,Total debt,Deferred revenue,Tax Liabilities,Deposit Liabilities,Total non-current liabilities,Total liabilities,Other comprehensive income,Retained earnings (deficit),Total shareholders equity,Investments,Net Debt,Other Assets,Other Liabilities
2018-09-30,11386775.0,0.0,11386775.0,225264.3939,0.0,11815641.6667,0.0,165930.303,0.0,0.0,318505.303,12134146.9697,396718.9394,2133293.1818,2533589.3939,2652284.8485,4785578.0303,0.0,3577.2727,0.0,2667169.6969999997,5200759.0909,-1573090.1515,-33612943.9394,6933387.8788,0.0,-6601196.9697,373395.94,3577.2727
2017-09-30,3168282.6261,0.0,3168282.6261,23598.8791,0.0,4050250.6005,79969.5757,190012.8102,0.0,0.0,438975.9808,4489226.5813,1313933.5468,1622568.4548,3024188.9512,4750273.8191,6372842.2738,0.0,87686.9496,0.0,4886977.5821,7911166.5332,-1662513.2106,-26212686.9496,-3421939.952,0.0,,,87686.9496
2016-09-30,6843179.7411,0.0,6843179.7411,12095.9634,0.0,7630776.0853,97281.0358,194686.2148,0.0,0.0,291967.2506,7922743.3359,2695172.1249,0.0,2764624.5239999997,0.0,0.0,0.0,69452.3991,0.0,5566996.9535,8331621.4775,-1581476.7708,-21508479.8172,-408878.1417,0.0,,,69452.3991
2015-09-30,1177694.258,0.0,1177694.258,2870697.2409,0.0,5287269.2021,123388.516,211842.6547,0.0,0.0,335231.1708,5622500.3729,1559404.9217,0.0,1559404.9217,0.0,0.0,0.0,0.0,0.0,740565.9955,2299970.9172,-1296581.6555,-11652346.0104,3322529.4556,0.0,,,0.0
2014-09-30,3315394.2652,0.0,3315394.2652,57798.3871,0.0,3429113.7993,12636.2007,323333.3333,0.0,0.0,335969.5341,3765083.3333,526301.9713,0.0,526301.9713,0.0,0.0,0.0,0.0,0.0,1469849.4624,1996151.4337,-65862.9032,-5330832.4373,1768931.8996,0.0,,,0.0
