,0,1,2,3,4,5,6,7,8,9,10,11,12,13,14
Date,Depreciation & Amortization,Stock-based compensation,Operating Cash Flow,Capital Expenditure,Acquisitions and disposals,Investment purchases and sales,Investing Cash flow,Issuance (repayment) of debt,Issuance (buybacks) of shares,Dividend payments,Financing Cash Flow,Effect of forex changes on cash,Net cash flow / Change in cash,Free Cash Flow,Net Cash/Marketcap
2019-12-31,470000.0,2252000.0,-22949000.0,74000.0,-0.0,0.0,-2166000.0,-0.0,-13375000.0,-0.0,9836000.0,-10000.0,-15289000.0,-23023000.0,0.0
2018-12-31,6102.0,441914.0,-7526250.0,34858.0,-0.0,0.0,-37434329.0,-0.0,-28508534.0,-0.0,66365560.0,0.0,21404981.0,-7561108.0,0.0
2017-12-31,0.0,,-662000.0,-2000.0,,,-2000.0,9321424.0,0.0,0.0,7768000.0,,7104000.0,,-0.0441
