,0,1,2,3,4,5,6,7,8,9,10,11,12,13,14
Date,Depreciation & Amortization,Stock-based compensation,Operating Cash Flow,Capital Expenditure,Acquisitions and disposals,Investment purchases and sales,Investing Cash flow,Issuance (repayment) of debt,Issuance (buybacks) of shares,Dividend payments,Financing Cash Flow,Effect of forex changes on cash,Net cash flow / Change in cash,Free Cash Flow,Net Cash/Marketcap
2017-12-31,97485000.0,451000.0,647828000.0,301584000.0,-0.0,0.0,-456968000.0,-344000000.0,-2857000.0,-0.0,-248456000.0,0.0,-57596000.0,346244000.0,0.0
2017-12,97000000.0,,648000000.0,-302000000.0,,0.0,-457000000.0,-344000000.0,,,-248000000.0,,-58000000.0,346000000.0,
2016-12-31,62691000.0,373000.0,535357000.0,584819000.0,-62372000.0,0.0,-732033000.0,-1039000000.0,156649000.0,-0.0,-103828000.0,0.0,-300504000.0,-49462000.0,0.0
2016-12,63000000.0,,535000000.0,-585000000.0,,0.0,-732000000.0,-1039000000.0,,,-104000000.0,,-301000000.0,-49000000.0,
2015-12-31,51640000.0,1549000.0,462099000.0,408955000.0,-386791000.0,0.0,-994721000.0,-318000000.0,-350815000.0,-0.0,712146000.0,0.0,179524000.0,53144000.0,0.0
2015-12,52000000.0,,462000000.0,-409000000.0,,0.0,-995000000.0,-325000000.0,,,712000000.0,,180000000.0,53000000.0,
2014-12,46000000.0,,301000000.0,-318000000.0,,0.0,-486000000.0,-462000000.0,,,109000000.0,,-77000000.0,-18000000.0,
2013-12,31000000.0,,261000000.0,-283000000.0,,0.0,-283000000.0,0.0,,,-93000000.0,,-115000000.0,-22000000.0,
