,0,1,2,3,4,5,6,7,8,9,10,11,12,13,14,15,16,17,18,19,20,21,22,23,24,25,26,27,28,29,30
Date,Revenue,Revenue Growth,Cost of Revenue,Gross Profit,R&D Expenses,SG&A Expense,Operating Expenses,Operating Income,Interest Expense,Earnings before Tax,Income Tax Expense,Net Income - Non-Controlling int,Net Income - Discontinued ops,Net Income,Preferred Dividends,Net Income Com,EPS,EPS Diluted,Weighted Average Shs Out,Weighted Average Shs Out (Dil),Dividend per Share,Gross Margin,EBITDA Margin,EBIT Margin,Profit Margin,Free Cash Flow margin,EBITDA,EBIT,Consolidated Income,Earnings Before Tax Margin,Net Profit Margin
2019-12-31,1630242000.0,0.0903913990922,0.0,0.0,0.0,110620000.0,320604000.0,204186000.0,0.0,0.0,0.0,0.0,0.0,183373000.0,0.0,183373000.0,0.58,0.56,189085000.0,196085000.0,0.247239717469,0.0,0.29483107416,0.125248889429,0.112482073214,0.0165233137166,480646000.0,204186000.0,183373000.0,0.0,0.112482073214
2018-12-31,1495098000.0,53.6114621763,0.0,0.0,0.0,129851000.0,7757000.0,726653000.0,0.0,671348000.0,0.0,0.0,0.0,668002000.0,-6104000.0,668002000.0,2.43,2.43,99303000.0,99303000.0,0.0,0.0,0.628797577149,0.48602365865,0.446794792047,0.23425621598000002,940114000.0,726653000.0,668002000.0,0.449032772434,0.446794792047
2017-12-31,27377000.0,-0.277994619969,0.0,0.0,0.0,71186000.0,35005000.0,580708000.0,0.0,571904000.0,0.0,0.0,0.0,571904000.0,0.0,571904000.0,5.19,5.19,80603000.0,80603000.0,0.0,0.0,24.7723636629,21.2115279249,20.8899441137,12.7466851737,678193000.0,580708000.0,571904000.0,20.8899441137,20.8899441137
2016-12-31,37918000.0,5.72424188686,0.0,0.0,0.0,72761000.0,55995000.0,526949000.0,0.0,548101000.0,10147000.0,0.0,0.0,537954000.0,0.0,537954000.0,5.21,5.21,79367000.0,79367000.0,4.15123414013,0.0,15.5503982278,13.897067355899999,14.187298908199999,-1.23727517274,589640000.0,526949000.0,537954000.0,14.4549026847,14.187298908199999
2015-12-31,5639000.0,1.4005959983,0.0,0.0,0.0,56425000.0,10764000.0,437808000.0,0.0,400153000.0,6703000.0,0.0,0.0,393450000.0,-54447000.0,393450000.0,4.7,4.7,69612000.0,69612000.0,3.0492156524699996,0.0,86.7969498138,77.6392977478,69.7730093988,9.66855825501,489448000.0,437808000.0,393450000.0,70.9616953361,69.7730093988
2014-12-31,2349000.0,0.891304347826,0.0,0.0,0.0,37190000.0,6334000.0,273736000.0,0.0,245229000.0,12456000.0,0.0,0.0,232773000.0,-15705000.0,232773000.0,3.52,3.52,55745000.0,55745000.0,2.1459861871,0.0,132.11366539,116.532992763,99.0945083014,22.822051936999998,310335000.0,273736000.0,232773000.0,104.397190294,99.0945083014
2013-12-31,1242000.0,-0.838722243864,0.0,0.0,0.0,21497000.0,19825000.0,114250000.0,0.0,113820000.0,4053000.0,0.0,0.0,109767000.0,2927000.0,109767000.0,2.46,2.46,40739000.0,40739000.0,1.62438940573,0.0,109.049919485,91.9887278583,88.3792270531,30.8494363929,135440000.0,114250000.0,109767000.0,91.6425120773,88.3792270531
2012-12-31,7701000.0,-0.9297437347759999,0.0,0.0,0.0,16575000.0,45980000.0,70691000.0,9955000.0,68437000.0,13131000.0,0.0,0.0,55306000.0,640000.0,55306000.0,0.0,0.0,34679000.0,34679000.0,0.35716139450400003,0.0,11.8075574601,9.17945721335,7.18166471887,-11.703025581099999,90930000.0,70691000.0,55306000.0,8.88676795221,7.18166471887
2011-12-31,109613000.0,0.19664847161600002,26221000.0,83392000.0,0.0,17302000.0,28772000.0,54620000.0,5050000.0,53396000.0,20807000.0,0.0,0.0,32589000.0,0.0,32589000.0,,,34679436.0,34679436.0,0.0,0.7608,0.638,0.5332,0.297,-0.8053,69916000.0,58446000.0,32589000.0,0.4871,0.2973
2010-12-31,91600000.0,0.0,24300000.0,67300000.0,0.0,18477000.0,29363000.0,37937000.0,5164000.0,33271000.0,14030000.0,0.0,0.0,19241000.0,0.0,19241000.0,,,,,0.0,0.7347,0.5379999999999999,0.4196,0.21,-0.0839,49321000.0,38435000.0,19241000.0,0.3632,0.2101
2009-12-31,,,,,,,,,,,,,,,,,,,,,0.0,,,,,,,,,,
