,0,1,2,3,4,5,6,7,8,9,10,11,12,13,14,15,16,17,18,19,20,21,22,23,24,25,26,27,28
Date,Cash and cash equivalents,Short-term investments,Cash and short-term investments,Receivables,Inventories,Total current assets,Property Plant & Equipment Net,Goodwill and Intangible Assets,Long-term investments,Tax assets,Total non-current assets,Total assets,Payables,Short-term debt,Total current liabilities,Long-term debt,Total debt,Deferred revenue,Tax Liabilities,Deposit Liabilities,Total non-current liabilities,Total liabilities,Other comprehensive income,Retained earnings (deficit),Total shareholders equity,Investments,Net Debt,Other Assets,Other Liabilities
2019-12-31,4596000.0,676009000.0,680605000.0,610088000.0,0.0,1754855000.0,16155490000.0,26006000.0,0.0,299000000.0,17054372000.0,18809227000.0,796438000.0,16204000.0,1345902000.0,999353000.0,1015557000.0,57741000.0,57850000.0,0.0,3382315000.0,9005639000.0,7785698000.0,2023089000.0,9803588000.0,676009000.0,1010961000.0,0.0,4277422000.0
2018-12-31,3487000.0,1013002000.0,1016489000.0,1241843000.0,0.0,1969664000.0,17392507000.0,77333000.0,0.0,131573000.0,18751680000.0,20721344000.0,1059873000.0,704390000.0,2355001000.0,800000000.0,1504390000.0,75601000.0,75978000.0,0.0,3415123000.0,9763115000.0,7779360000.0,3184275000.0,10958229000.0,1013002000.0,1500903000.0,0.0,3992991000.0
2017-12-31,147315000.0,0.0,147315000.0,725236000.0,0.0,1163055000.0,24885015000.0,2735086000.0,0.0,971184000.0,28359549000.0,29522604000.0,654624000.0,7999000.0,1232237000.0,5562555000.0,5570554000.0,0.0,78749000.0,0.0,8114754000.0,16202986000.0,9325301000.0,3996775000.0,13319618000.0,0.0,5423239000.0,0.0,6855995000.0
2016-12-31,1103540000.0,0.0,1103540000.0,341628000.0,0.0,1828219000.0,13162216000.0,0.0,0.0,875407000.0,13644703000.0,15472922000.0,309978000.0,0.0,804640000.0,3289459000.0,3289459000.0,0.0,56874000.0,0.0,5549035000.0,9612641000.0,0.0,2509073000.0,5860281000.0,0.0,2185919000.0,0.0,3258966000.0
2015-12-31,1601232000.0,0.0,1601232000.0,176957000.0,0.0,2251019000.0,11472021000.0,0.0,0.0,827161000.0,11725153000.0,13976172000.0,291550000.0,0.0,795819000.0,2793343000.0,2793343000.0,0.0,44925000.0,0.0,5152311000.0,8898381000.0,0.0,2982212000.0,5077791000.0,0.0,1192111000.0,0.0,2950251000.0
2014-12-31,1077429000.0,0.0,1077429000.0,306085000.0,4145000.0,1904323000.0,10076814000.0,0.0,0.0,961556000.0,10160577000.0,12064900000.0,444077000.0,166011000.0,833479000.0,2822889000.0,2988900000.0,0.0,52035000.0,0.0,4858358000.0,7482085000.0,0.0,2917129000.0,4582815000.0,0.0,1911471000.0,0.0,1790248000.0
2013-12-31,845641000.0,0.0,845641000.0,235781000.0,19656000.0,1255425000.0,8333762000.0,0.0,0.0,31005000.0,8536628000.0,9792053000.0,330329000.0,11162000.0,523410000.0,2490354000.0,2501516000.0,0.0,39073000.0,0.0,4404515000.0,5757265000.0,0.0,2567980000.0,4034788000.0,0.0,1655875000.0,0.0,829340000.0
2012-12-31,182055000.0,0.0,182055000.0,205479000.0,76787000.0,852845000.0,7715298000.0,0.0,0.0,15828000.0,7997017000.0,8849862000.0,289032000.0,23204000.0,570465000.0,2502969000.0,2526173000.0,0.0,37048000.0,0.0,4341572000.0,5246042000.0,0.0,2195502000.0,3603820000.0,0.0,2344118000.0,0.0,334005000.0
2011-12-31,831251000.0,0.0,831251000.0,153321000.0,123960000.0,1690134000.0,6806309000.0,0.0,0.0,26867000.0,7082585000.0,8772719000.0,256757000.0,219315000.0,804910000.0,2527627000.0,2746942000.0,0.0,33000000.0,0.0,4312779000.0,5178889000.0,0.0,2143910000.0,3593830000.0,0.0,1915691000.0,0.0,61200000.0
2010-12-31,0.0,1744000.0,1744000.0,156709000.0,137853000.0,827940000.0,5910091000.0,0.0,28968000.0,33586000.0,6270498000.0,7098438000.0,212134000.0,6000000.0,596984000.0,1943200000.0,1949200000.0,0.0,41500000.0,0.0,3337172000.0,4019742000.0,0.0,1795766000.0,3078696000.0,30712000.0,1949200000.0,0.0,85586000.0
2009-12-31,0.0,163879000.0,163879000.0,193874000.0,182957000.0,695166000.0,4914731000.0,0.0,218022000.0,0.0,5262091000.0,5957257000.0,248987000.0,137518000.0,612674000.0,1949200000.0,2086718000.0,0.0,1096094000.0,0.0,3193553000.0,3806227000.0,-14440000.0,1695358000.0,2151030000.0,381901000.0,1922839000.0,154456000.0,226169000.0
