,0,1,2,3,4,5,6,7,8,9,10,11,12,13,14
Date,Depreciation & Amortization,Stock-based compensation,Operating Cash Flow,Capital Expenditure,Acquisitions and disposals,Investment purchases and sales,Investing Cash flow,Issuance (repayment) of debt,Issuance (buybacks) of shares,Dividend payments,Financing Cash Flow,Effect of forex changes on cash,Net cash flow / Change in cash,Free Cash Flow,Net Cash/Marketcap
2018-12-31,0.0,0.0,263585000.0,56297000.0,-0.0,-23101000.0,-81398000.0,-24983000.0,-266417000.0,-156474000.0,-131491000.0,0.0,50696000.0,207288000.0,0.0
2017-12-31,0.0,0.0,197126000.0,0.0,-0.0,194980000.0,-74663000.0,-49951000.0,-215721000.0,-145765000.0,-95814000.0,0.0,26649000.0,197126000.0,0.0
2016-12-31,0.0,0.0,254336000.0,0.0,-0.0,146285000.0,-136944000.0,-24776000.0,0.0,-135985000.0,-111209000.0,0.0,189072000.0,254336000.0,0.0
2015-12-31,0.0,0.0,217378000.0,0.0,-0.0,0.0,622000.0,-0.0,0.0,-126858000.0,-126858000.0,0.0,182889000.0,217378000.0,0.0
2014-12-31,0.0,0.0,779000000.0,0.0,-0.0,-799000000.0,-596000000.0,-0.0,-20000000.0,-119000000.0,-121000000.0,0.0,514000000.0,779000000.0,0.0
2013-12-31,0.0,0.0,903000000.0,0.0,-0.0,-895000000.0,-759000000.0,-0.0,-32000000.0,-84000000.0,-92000000.0,0.0,452000000.0,903000000.0,0.0
2012-12-31,0.0,0.0,577000000.0,0.0,-0.0,-62000000.0,-85000000.0,-0.0,-70000000.0,-229000000.0,-277000000.0,0.0,400000000.0,577000000.0,0.0
2011-12-31,0.0,0.0,360000000.0,0.0,-0.0,-220000000.0,-375000000.0,-0.0,-155000000.0,-102000000.0,-230000000.0,0.0,185000000.0,360000000.0,0.0
2010-12-31,0.0,0.0,721000000.0,0.0,-0.0,-246000000.0,-405000000.0,-0.0,-57000000.0,-98000000.0,-120000000.0,0.0,196000000.0,721000000.0,0.0
2009-12-31,0.0,0.0,889000000.0,-14000000.0,0.0,-876000000.0,-890000000.0,0.0,-3000000.0,-93000000.0,-42000000.0,0.0,-43000000.0,875000000.0,0.0554
