,0,1,2,3,4,5,6,7,8,9,10,11,12,13,14
Date,Depreciation & Amortization,Stock-based compensation,Operating Cash Flow,Capital Expenditure,Acquisitions and disposals,Investment purchases and sales,Investing Cash flow,Issuance (repayment) of debt,Issuance (buybacks) of shares,Dividend payments,Financing Cash Flow,Effect of forex changes on cash,Net cash flow / Change in cash,Free Cash Flow,Net Cash/Marketcap
2018-12-31,118205000.0,1387000.0,191659000.0,-97913000.0,-514858000.0,19901000.0,-592870000.0,528873000.0,48000.0,-75305000.0,453616000.0,0.0,52405000.0,93746000.0,
2017-12-31,114017000.0,13000.0,100893000.0,-101610000.0,-30404000.0,16445000.0,-115569000.0,23121000.0,119000.0,-75300000.0,-52060000.0,0.0,-66736000.0,-717000.0,
2016-12-31,122888000.0,70000.0,208002000.0,-108476000.0,-20815000.0,11474000.0,-117817000.0,-98755000.0,505000.0,-68447000.0,-166697000.0,0.0,-76512000.0,99526000.0,
2015-12-31,122354000.0,139000.0,434828000.0,-87612000.0,-165288000.0,71337000.0,-181563000.0,-86174000.0,1616000.0,-69792000.0,-154350000.0,0.0,98915000.0,347216000.0,
2014-12-31,122408000.0,322000.0,177837000.0,-46242000.0,-3833000.0,-30043000.0,-80118000.0,-24314000.0,3542000.0,-68277000.0,-89049000.0,0.0,8670000.0,131595000.0,
2013-12-31,129348000.0,440000.0,166975000.0,-59264000.0,-6222000.0,-7807000.0,-73293000.0,-44001000.0,18364000.0,-75549000.0,-101186000.0,0.0,-7504000.0,107711000.0,
2012-12-31,138796000.0,3028000.0,198383000.0,-74302000.0,-4241000.0,-39095000.0,-117638000.0,-6937000.0,-24654000.0,-50616000.0,-84081000.0,0.0,-3336000.0,124081000.0,
2011-12-31,150618000.0,1996000.0,190915000.0,-106918000.0,-25728000.0,77580000.0,-55066000.0,56522000.0,-6268000.0,-61633000.0,-84331000.0,0.0,51518000.0,83997000.0,
2010-12-31,132141000.0,5211000.0,186028000.0,-127977000.0,-234512000.0,106902000.0,-255587000.0,141276000.0,3590000.0,-63137000.0,79909000.0,0.0,10350000.0,58051000.0,
2009-12-31,123473000.0,5134000.0,209722000.0,-98838000.0,-67649000.0,-30816000.0,-197303000.0,100171000.0,9871000.0,-76172000.0,-76380000.0,0.0,-63961000.0,110884000.0,
