,0,1,2,3,4,5,6,7,8,9,10,11,12,13,14,15,16,17,18,19,20,21,22,23,24,25,26,27,28,29,30
Date,Revenue,Revenue Growth,Cost of Revenue,Gross Profit,R&D Expenses,SG&A Expense,Operating Expenses,Operating Income,Interest Expense,Earnings before Tax,Income Tax Expense,Net Income - Non-Controlling int,Net Income - Discontinued ops,Net Income,Preferred Dividends,Net Income Com,EPS,EPS Diluted,Weighted Average Shs Out,Weighted Average Shs Out (Dil),Dividend per Share,Gross Margin,EBITDA Margin,EBIT Margin,Profit Margin,Free Cash Flow margin,EBITDA,EBIT,Consolidated Income,Earnings Before Tax Margin,Net Profit Margin
2019-12-31,89565000.0,0.46328911253399996,34704000.0,54861000.0,14991000.0,70811000.0,85802000.0,-30941000.0,8696000.0,-37510000.0,640000.0,0.0,0.0,-38150000.0,0.0,-38150000.0,-1.86,-1.86,20541528.0,20541528.0,0.0,0.612527214872,-0.281639033104,-0.34545860548199997,-0.42594763579499995,-0.404968458661,-25225000.0,-30941000.0,-38150000.0,-0.418801987383,-0.42594763579499995
2018-12-31,61208000.0,0.7648856722699999,25090000.0,36118000.0,12687000.0,47295000.0,59982000.0,-23864000.0,8814000.0,-20883000.0,215000.0,0.0,0.0,-21098000.0,0.0,-21098000.0,-1.22,-1.22,17350705.0,17350705.0,0.0,0.5900862632339999,-0.289782381388,-0.38988367533699997,-0.344693504117,-0.5818847209520001,-17737000.0,-23864000.0,-21098000.0,-0.34118089138700003,-0.344693504117
2017-12-31,34681000.0,0.7514771981209999,16979000.0,17702000.0,6864000.0,30821000.0,39270000.0,-21568000.0,10420000.0,-34792000.0,105000.0,0.0,0.0,-34897000.0,0.0,-34897000.0,-3.41,-3.41,17896000.0,10230586.0,0.0,0.5104,-0.647,-0.7027,-1.006,-0.9478,-22433000.0,-24372000.0,-34897000.0,-1.0032,-1.0062
2016-12-31,19801000.0,1.06389410048,9105000.0,10096000.0,2740000.0,25929000.0,,-15833000.0,,-22025000.0,-134000.0,,,,,-22159000.0,-1.24,-1.24,17896000.0,,,0.5099,,,,,,,,-1.1123,
2015-12-31,9594000.0,,4623000.0,4971000.0,604000.0,5331000.0,,-360000.0,,-1594000.0,0.0,,,,,-1594000.0,-0.09,-0.09,,,,0.5181,,,,,,,,-0.1661,
