,0,1,2,3,4,5,6,7,8,9,10,11,12,13,14,15,16,17,18,19,20,21,22,23,24,25,26,27,28,29,30
Date,Revenue,Revenue Growth,Cost of Revenue,Gross Profit,R&D Expenses,SG&A Expense,Operating Expenses,Operating Income,Interest Expense,Earnings before Tax,Income Tax Expense,Net Income - Non-Controlling int,Net Income - Discontinued ops,Net Income,Preferred Dividends,Net Income Com,EPS,EPS Diluted,Weighted Average Shs Out,Weighted Average Shs Out (Dil),Dividend per Share,Gross Margin,EBITDA Margin,EBIT Margin,Profit Margin,Free Cash Flow margin,EBITDA,EBIT,Consolidated Income,Earnings Before Tax Margin,Net Profit Margin
2019-04-30,271653000.0,0.6985212742679999,78010000.0,193643000.0,101167000.0,193832000.0,294999000.0,-101356000.0,0.0,-97915000.0,4388000.0,0.0,0.0,-102303000.0,0.0,-102303000.0,-1.86,-1.86,54893365.0,54893365.0,0.0,0.712832179288,-0.27346283678100003,-0.37310834041999996,-0.37659440536300004,-0.100805071175,-74287000.0,-101356000.0,-102303000.0,-0.36044144552100005,-0.37659440536300004
2018-04-30,159935000.0,0.8137949805500001,40740000.0,119195000.0,55641000.0,111548000.0,167189000.0,-47994000.0,0.0,-49351000.0,3376000.0,0.0,0.0,-52727000.0,0.0,-52727000.0,-1.65,-1.65,69493000.0,32033792.0,0.0,0.7453,-0.27699999999999997,-0.3086,-0.33,-0.1487,-44285000.0,-49351000.0,-52727000.0,-0.3086,-0.3297
2017-04-30,88177000.0,,19845000.0,68332000.0,32601000.0,82903000.0,115504000.0,-47172000.0,0.0,-47755000.0,4213000.0,0.0,0.0,-51968000.0,0.0,-51968000.0,-1.71,-1.71,69493000.0,30359419.0,0.0,0.7749,-0.506,-0.5416,-0.589,-0.1922,-44605000.0,-47755000.0,-51968000.0,-0.5416,-0.5894
