,0,1,2,3,4,5,6,7,8,9,10,11,12,13,14,15,16,17,18,19,20,21,22,23,24,25,26,27,28,29,30
Date,Revenue,Revenue Growth,Cost of Revenue,Gross Profit,R&D Expenses,SG&A Expense,Operating Expenses,Operating Income,Interest Expense,Earnings before Tax,Income Tax Expense,Net Income - Non-Controlling int,Net Income - Discontinued ops,Net Income,Preferred Dividends,Net Income Com,EPS,EPS Diluted,Weighted Average Shs Out,Weighted Average Shs Out (Dil),Dividend per Share,Gross Margin,EBITDA Margin,EBIT Margin,Profit Margin,Free Cash Flow margin,EBITDA,EBIT,Consolidated Income,Earnings Before Tax Margin,Net Profit Margin
2019-12-31,49957000.0,18.903187251,0.0,0.0,0.0,21423000.0,21423000.0,19257000.0,15492000.0,19257000.0,3552000.0,0.0,0.0,15705000.0,0.0,15705000.0,0.71,0.7,22264000.0,22531000.0,0.128667169677,0.0,0.421602578217,0.38547150549500003,0.314370358508,0.42064175190700004,21062000.0,19257000.0,15705000.0,0.38547150549500003,0.314370358508
2018-12-31,2510000.0,-0.9431045425700001,0.0,0.0,0.0,21477000.0,21477000.0,16773000.0,12054000.0,16773000.0,3085000.0,0.0,0.0,13688000.0,0.0,13688000.0,0.62,0.61,22103000.0,22569000.0,0.0,0.0,6.85856573705,6.6824701195200005,5.4533864541799995,7.8442231075699995,17215000.0,16773000.0,13688000.0,6.6824701195200005,5.4533864541799995
2017-12-31,44116000.0,0.0636769138035,0.0,0.0,0.0,19604000.0,19604000.0,14106000.0,9199000.0,14106000.0,6903000.0,0.0,0.0,7203000.0,0.0,7203000.0,0.33,0.32,22014000.0,22512000.0,0.0,0.0,0.336816574485,0.319747937256,0.163274095566,0.339650013601,14859000.0,14106000.0,7203000.0,0.319747937256,0.163274095566
2016-12-31,41475000.0,0.035451254525,0.0,0.0,0.0,18412000.0,18412000.0,13738000.0,7820000.0,13738000.0,3816000.0,0.0,0.0,9922000.0,0.0,9922000.0,0.45,0.45,21914000.0,22161000.0,0.0,0.0,0.37357444243500004,0.331235684147,0.239228450874,0.40841470765500004,15494000.0,13738000.0,9922000.0,0.331235684147,0.239228450874
2015-12-31,40055000.0,-0.0415629785605,0.0,0.0,0.0,18141000.0,18141000.0,-5124000.0,7497000.0,-5124000.0,-2627000.0,0.0,0.0,-2497000.0,0.0,-2497000.0,-0.11,-0.11,21827000.0,21827000.0,0.0,0.0,-0.10425664711000002,-0.127924104357,-0.062339283485199994,0.381600299588,-4176000.0,-5124000.0,-2497000.0,-0.127924104357,-0.062339283485199994
2014-12-31,41792000.0,-0.0273465682966,0.0,0.0,0.0,16136000.0,16136000.0,10244000.0,6933000.0,10244000.0,2728000.0,0.0,0.0,7516000.0,247000.0,7516000.0,0.33,0.33,21755000.0,21981000.0,0.0112369773896,0.0,0.24566902756499998,0.24511868300200002,0.179843032159,0.469922473201,10267000.0,10244000.0,7516000.0,0.24511868300200002,0.179843032159
2013-12-31,42967000.0,-0.024076135098900005,0.0,0.0,0.0,15981000.0,15981000.0,8403000.0,7078000.0,8403000.0,2497000.0,0.0,0.0,5906000.0,885000.0,5906000.0,0.22,0.22,21700000.0,21922000.0,0.0403704041602,0.0,0.20380757325399998,0.19556869225200002,0.137454325413,0.7035864733399999,8757000.0,8403000.0,5906000.0,0.19556869225200002,0.137454325413
2012-12-31,44027000.0,0.005022028442939999,0.0,0.0,0.0,16511000.0,16511000.0,7730000.0,9692000.0,7730000.0,2148000.0,0.0,0.0,5582000.0,884000.0,5582000.0,0.21,0.21,21647000.0,21717000.0,0.10176359534,0.0,0.192995207486,0.175574079542,0.126785835964,0.538033479456,8497000.0,7730000.0,5582000.0,0.175574079542,0.126785835964
2011-12-31,43807000.0,1.43602291053,0.0,0.0,0.0,16603000.0,18864000.0,1504000.0,12228000.0,1504000.0,60000.0,0.0,0.0,1444000.0,884000.0,1444000.0,0.02,0.02,21565000.0,21565000.0,0.0,0.0,0.0798730796448,0.034332412628099995,0.032962768507300004,0.7488529230490001,3499000.0,1504000.0,1444000.0,0.034332412628099995,0.032962768507300004
2010-12-31,17983000.0,-0.613576294132,0.0,17983000.0,0.0,26294000.0,48418000.0,-30435000.0,0.0,-30435000.0,-9442000.0,0.0,0.0,-20993000.0,1078000.0,-22071000.0,-1.03,-1.03,21468455.0,21468000.0,0.04,1.0,-1.455,-1.6924,-1.227,1.4902,-26165000.0,-30435000.0,-20993000.0,-1.6924,-1.1674
2009-12-31,46537000.0,2.3281,0.0,46537000.0,0.0,30063000.0,75960000.0,-29423000.0,0.0,-29423000.0,404000.0,0.0,0.0,-29827000.0,977000.0,-30804000.0,-1.43,-1.43,21468455.0,21468000.0,0.16,1.0,-0.541,-0.6322,-0.662,-0.4638,-25196000.0,-29423000.0,-29827000.0,-0.6322,-0.6409
