,0,1,2,3,4,5,6,7,8,9,10,11,12,13,14
Date,Depreciation & Amortization,Stock-based compensation,Operating Cash Flow,Capital Expenditure,Acquisitions and disposals,Investment purchases and sales,Investing Cash flow,Issuance (repayment) of debt,Issuance (buybacks) of shares,Dividend payments,Financing Cash Flow,Effect of forex changes on cash,Net cash flow / Change in cash,Free Cash Flow,Net Cash/Marketcap
2018-12-31,,,-28000000.0,,,,,,,,-18000000.0,,-45000000.0,,
2017-12-31,,,53000000.0,,,,,,,,-19000000.0,,35000000.0,,
2016-12-31,,,31000000.0,,,,,,,,-31000000.0,,24000000000.0,,
2015-12-31,,,12000000.0,,,,,,,,-32000000.0,,-19000000.0,,
