,0,1,2,3,4,5,6,7,8,9,10,11,12,13,14,15,16,17,18,19,20,21,22,23,24,25,26,27,28,29,30
Date,Revenue,Revenue Growth,Cost of Revenue,Gross Profit,R&D Expenses,SG&A Expense,Operating Expenses,Operating Income,Interest Expense,Earnings before Tax,Income Tax Expense,Net Income - Non-Controlling int,Net Income - Discontinued ops,Net Income,Preferred Dividends,Net Income Com,EPS,EPS Diluted,Weighted Average Shs Out,Weighted Average Shs Out (Dil),Dividend per Share,Gross Margin,EBITDA Margin,EBIT Margin,Profit Margin,Free Cash Flow margin,EBITDA,EBIT,Consolidated Income,Earnings Before Tax Margin,Net Profit Margin
2019-06-30,746684000.0,-0.026213379517599996,337193000.0,409491000.0,0.0,357164000.0,357164000.0,33947000.0,0.0,33860000.0,8162000.0,0.0,0.0,25698000.0,0.0,25698000.0,0.96,0.96,26695000.0,26751000.0,1.7565698478599998,0.548412715419,0.0717626197963,0.0454636767361,0.034416165339,0.0617757980618,53584000.0,33947000.0,25698000.0,0.045347161583699995,0.034416165339
2018-06-30,766784000.0,0.00445253705535,350820000.0,415964000.0,0.0,367097000.0,367097000.0,48867000.0,325000.0,49067000.0,12696000.0,0.0,0.0,36371000.0,0.0,36371000.0,1.33,1.32,27321000.0,27625000.0,1.06819909502,0.542478716301,0.0895923754278,0.0637298117853,0.0474331754445,0.0309396127201,68698000.0,48867000.0,36371000.0,0.0639906414323,0.0474331754445
2017-06-30,763385000.0,-0.038802470907900004,343662000.0,419723000.0,0.0,361773000.0,361773000.0,57950000.0,1223000.0,56995000.0,20801000.0,0.0,0.0,36194000.0,0.0,36194000.0,1.31,1.29,27679000.0,27958000.0,0.7164675584810001,0.549818243743,0.102261637313,0.07591189242650001,0.047412511380199994,0.0798915357257,78065000.0,57950000.0,36194000.0,0.07466088539860001,0.047412511380199994
2016-06-30,794202000.0,0.0524807845216,351966000.0,442236000.0,0.0,353057000.0,353057000.0,89179000.0,1618000.0,87956000.0,31319000.0,0.0,0.0,56637000.0,0.0,56637000.0,2.02,2.0,28072000.0,28324000.0,0.5876994774750001,0.556830629991,0.136655410085,0.11228755404799999,0.0713130916316,0.0445755613811,108532000.0,89179000.0,56637000.0,0.110747643547,0.0713130916316
2015-06-30,754600000.0,0.0106353770597,343437000.0,411163000.0,0.0,345229000.0,345229000.0,65934000.0,5918000.0,56683000.0,19541000.0,0.0,0.0,37142000.0,0.0,37142000.0,1.29,1.27,28874000.0,29182000.0,0.45740524981200004,0.5448754306920001,0.11274317519200001,0.0873760932945,0.0492207792208,0.046804929764099994,85076000.0,65934000.0,37142000.0,0.0751166180758,0.0492207792208
2014-06-30,746659000.0,0.024106994676900004,340163000.0,406496000.0,0.0,336860000.0,336860000.0,69636000.0,7510000.0,62402000.0,19471000.0,0.0,0.0,42931000.0,0.0,42931000.0,1.48,1.47,28918000.0,29276000.0,0.38587921847199996,0.54441987574,0.117277097042,0.0932634576159,0.0574974653758,0.054354129529,87566000.0,69636000.0,42931000.0,0.0835749652787,0.0574974653758
2013-06-30,729083000.0,-0.00039760177577199995,330734000.0,398349000.0,0.0,337912000.0,337912000.0,60437000.0,8778000.0,50174000.0,17696000.0,0.0,0.0,32478000.0,0.0,32478000.0,1.13,1.11,28864000.0,29239000.0,0.75994391053,0.546369892042,0.10759405993599999,0.08289454012780001,0.0445463685205,0.058012599388499994,78445000.0,60437000.0,32478000.0,0.0688179535115,0.0445463685205
2012-06-30,729373000.0,0.074250324025,339085000.0,390288000.0,0.0,166813000.0,340591000.0,49697000.0,9020000.0,41239000.0,-8455000.0,0.0,0.0,49694000.0,0.0,49694000.0,1.72,1.71,28824.0,29109.0,276.95901611200003,0.535100696077,0.093611910504,0.06813660500180001,0.06813249187999999,0.0203147086607,68278000.0,49697000.0,49694000.0,0.0565403435554,0.06813249187999999
2011-06-30,678960000.0,0.15067434506,329500000.0,349460000.0,0.0,317527000.0,317527000.0,31933000.0,11126000.0,26371000.0,-2879000.0,0.0,0.0,29250000.0,0.0,29250000.0,1.02,1.01,28775873.0,28758000.0,0.2,0.5147,0.086,0.0552,0.043,0.0843,58313000.0,37497000.0,29250000.0,0.0388,0.0431
2010-06-30,590054000.0,-0.12490860580999999,309777000.0,280277000.0,0.0,289575000.0,292012000.0,-11735000.0,11924000.0,-18787000.0,25529000.0,0.0,0.0,-44316000.0,0.0,-44316000.0,-1.53,-1.53,29114424.0,28982000.0,0.2,0.475,0.038,-0.0116,-0.075,0.0925,22535000.0,-6863000.0,-44316000.0,-0.0318,-0.0751
2009-06-30,674277000.0,-0.312,326935000.0,347342000.0,0.0,353112000.0,420113000.0,-72771000.0,11764000.0,-81180000.0,-28493000.0,0.0,0.0,-52687000.0,0.0,-52687000.0,-1.83,-1.83,28814000.0,28814000.0,0.82,0.5151,-0.065,-0.1029,-0.078,0.0086,-43781000.0,-69416000.0,-52687000.0,-0.1204,-0.0781
