,0,1,2,3,4,5,6,7,8,9,10,11,12,13,14,15,16,17,18,19,20,21,22,23,24,25,26,27,28,29,30
Date,Revenue,Revenue Growth,Cost of Revenue,Gross Profit,R&D Expenses,SG&A Expense,Operating Expenses,Operating Income,Interest Expense,Earnings before Tax,Income Tax Expense,Net Income - Non-Controlling int,Net Income - Discontinued ops,Net Income,Preferred Dividends,Net Income Com,EPS,EPS Diluted,Weighted Average Shs Out,Weighted Average Shs Out (Dil),Dividend per Share,Gross Margin,EBITDA Margin,EBIT Margin,Profit Margin,Free Cash Flow margin,EBITDA,EBIT,Consolidated Income,Earnings Before Tax Margin,Net Profit Margin
2019-12-31,1489929000.0,0.018708202769500002,1086617000.0,403312000.0,0.0,84304000.0,1770786000.0,-280857000.0,100103000.0,-383006000.0,37206000.0,0.0,0.0,-420212000.0,0.0,-420212000.0,-3.07,-3.07,136967455.0,136967455.0,0.221023308055,0.270692093382,-0.15797329939899998,-0.188503613259,-0.282034915758,0.041419423341599995,-235369000.0,-280857000.0,-420212000.0,-0.257063256034,-0.282034915758
2018-12-31,1462567000.0,1.4668687297999998,1099278000.0,363289000.0,0.0,69492000.0,1728186000.0,-265619000.0,101121000.0,-366740000.0,-4153000.0,0.0,0.0,-361435000.0,0.0,-361435000.0,-2.62,-2.62,138069608.0,138069608.0,0.36047035057899995,0.248391355746,-0.151106923649,-0.18161150908,-0.247123721512,0.0495102104724,-221004000.0,-265619000.0,-361435000.0,-0.25075090577,-0.247123721512
2017-12-31,592884000.0,0.288192158524,443512000.0,149372000.0,0.0,47859000.0,580300000.0,12584000.0,32521000.0,-24072000.0,-257085000.0,0.0,0.0,233849000.0,2015000.0,233849000.0,4.51,4.16,51392899.0,55678189.0,0.52616653893,0.251941357837,0.049758468773,0.0212250625755,0.394426228402,0.0144750069153,29501000.0,12584000.0,233849000.0,-0.040601534195599996,0.394426228402
2016-12-31,460245000.0,0.118788559427,318744000.0,141501000.0,0.0,33328000.0,362188000.0,98057000.0,36639000.0,52859000.0,14794000.0,0.0,0.0,38065000.0,1901000.0,38065000.0,0.94,0.91,38500495.0,39568062.0,0.219015022773,0.307447120555,0.240626188226,0.21305391693599998,0.0827059500918,0.140564264685,110747000.0,98057000.0,38065000.0,0.11484969961699999,0.0827059500918
2015-12-31,411378000.0,0.0831751314546,287711000.0,123667000.0,0.0,26479000.0,325796000.0,85582000.0,37961000.0,47621000.0,18437000.0,0.0,0.0,29184000.0,752000.0,29184000.0,0.75,0.73,38083947.0,39037623.0,0.0105795375912,0.300616464663,0.23628876605000002,0.208037376816,0.07094205329410001,0.140374546038,97204000.0,85582000.0,29184000.0,0.115759714909,0.07094205329410001
2014-12-31,379789000.0,0.0057491962777200005,259184000.0,120605000.0,0.0,26572000.0,294213000.0,85576000.0,38821000.0,46734000.0,19911000.0,0.0,0.0,26823000.0,0.0,26823000.0,0.71,0.69,37763353.0,38664066.0,0.0,0.317557907154,0.256813651791,0.225325114735,0.0706260581533,0.149788435157,97535000.0,85576000.0,26823000.0,0.123052537067,0.0706260581533
2013-12-31,377618000.0,-0.0290699468277,252596000.0,125022000.0,0.0,24381000.0,285051000.0,92567000.0,44232000.0,48500000.0,22476000.0,0.0,0.0,26024000.0,0.0,26024000.0,0.7,0.68,37417807.0,38301495.0,0.0,0.33108061586,0.278736712763,0.245133971368,0.0689162063249,0.156306108289,105256000.0,92567000.0,26024000.0,0.128436674099,0.0689162063249
2012-12-31,388924000.0,0.0161916979988,252934000.0,135990000.0,0.0,25874000.0,312330000.0,76594000.0,53446000.0,23742000.0,12474000.0,0.0,0.0,11268000.0,0.0,11268000.0,0.31,0.3,36906468.0,37809646.0,0.0,0.349657002396,0.236766051979,0.196938219292,0.0289722413634,0.169734961072,92084000.0,76594000.0,11268000.0,0.0610453456202,0.0289722413634
2011-12-31,382727000.0,-0.022276323487,263420000.0,119307000.0,0.0,26609000.0,303254000.0,79473000.0,24919000.0,52066000.0,-16444000.0,0.0,0.0,68510000.0,0.0,68510000.0,1.88,1.81,36369410.0,37763965.0,0.0,0.311728725697,0.24649685023499998,0.207649316615,0.179004878151,0.20853767829300002,94341000.0,79473000.0,68510000.0,0.136039526869,0.179004878151
2010-12-31,391447000.0,0.0510563002105,258896000.0,132551000.0,0.0,21954000.0,34842000.0,97709000.0,30491000.0,67031000.0,20595000.0,0.0,0.0,46436000.0,0.0,46436000.0,1.3,1.23,37111505.0,35712026.0,0.0,0.3386,0.281,0.2491,0.11900000000000001,0.2243,110182000.0,97522000.0,46436000.0,0.1712,0.1186
2009-12-31,372432000.0,-0.1513,254042000.0,118390000.0,0.0,22875000.0,107569000.0,10821000.0,31171000.0,-131000.0,-5529000.0,0.0,0.0,5398000.0,0.0,5398000.0,0.15,0.15,39144499.0,35321431.0,0.0,0.3179,0.128,0.0833,0.013999999999999999,0.1921,47640000.0,31040000.0,5398000.0,-0.0004,0.0145
