,0,1,2,3,4,5,6,7,8,9,10,11,12,13,14,15,16,17,18,19,20,21,22,23,24,25,26,27,28
Date,Cash and cash equivalents,Short-term investments,Cash and short-term investments,Receivables,Inventories,Total current assets,Property Plant & Equipment Net,Goodwill and Intangible Assets,Long-term investments,Tax assets,Total non-current assets,Total assets,Payables,Short-term debt,Total current liabilities,Long-term debt,Total debt,Deferred revenue,Tax Liabilities,Deposit Liabilities,Total non-current liabilities,Total liabilities,Other comprehensive income,Retained earnings (deficit),Total shareholders equity,Investments,Net Debt,Other Assets,Other Liabilities
2019-10-31,557668000.0,1060739000.0,1618407000.0,237864000.0,0.0,1856271000.0,72798000.0,335607000.0,20904000.0,62661000.0,2397358000.0,4253629000.0,89984000.0,0.0,97027000.0,620513000.0,620513000.0,6300000.0,743000.0,0.0,650246000.0,3069510000.0,0.0,1250439000.0,1184119000.0,1081643000.0,62845000.0,0.0,2322237000.0
2018-10-31,600696000.0,10329000.0,611025000.0,236736000.0,0.0,847761000.0,52428000.0,340566000.0,0.0,45826000.0,2751567000.0,3599328000.0,91410000.0,0.0,92105000.0,619678000.0,619678000.0,0.0,695000.0,0.0,645467000.0,2491897000.0,9912000.0,1150698000.0,1107431000.0,10329000.0,18982000.0,0.0,1754325000.0
2017-10-31,610555000.0,898192000.0,1508747000.0,200453000.0,0.0,1709200000.0,48989000.0,349493000.0,17000000.0,67100000.0,621701000.0,2330901000.0,68115000.0,0.0,69144000.0,618843000.0,618843000.0,0.0,1029000.0,0.0,647778000.0,1319505000.0,137174000.0,921235000.0,1011396000.0,915192000.0,8288000.0,0.0,602583000.0
2016-10-31,424174000.0,589773000.0,1013947000.0,186172000.0,0.0,1200119000.0,44427000.0,294900000.0,17000000.0,73295000.0,532457000.0,1732576000.0,59927000.0,0.0,61786000.0,573967000.0,573967000.0,0.0,1859000.0,0.0,595497000.0,1028787000.0,0.0,773000000.0,703789000.0,606773000.0,149793000.0,0.0,371504000.0
2015-10-31,465558000.0,507020000.0,972578000.0,187753000.0,0.0,1160331000.0,44943000.0,293394000.0,0.0,42164000.0,956140000.0,2116471000.0,65249000.0,0.0,67349000.0,573811000.0,573811000.0,0.0,2100000.0,0.0,629357000.0,1496240000.0,0.0,684845000.0,620231000.0,507020000.0,108253000.0,0.0,799534000.0
2014-10-31,385215000.0,624605000.0,1009820000.0,186344000.0,0.0,1196164000.0,45651000.0,294002000.0,0.0,46099000.0,663922000.0,1860086000.0,64598000.0,0.0,66396000.0,573655000.0,573655000.0,0.0,1798000.0,0.0,609200000.0,1204910000.0,0.0,679061000.0,655176000.0,624605000.0,188440000.0,0.0,529314000.0
2013-10-31,461906000.0,536323000.0,998229000.0,170220000.0,0.0,1168449000.0,48746000.0,303410000.0,0.0,61139000.0,1238800000.0,2407249000.0,58529000.0,0.0,59386000.0,573499000.0,573499000.0,0.0,857000.0,0.0,599639000.0,1737465000.0,127966000.0,541521000.0,669784000.0,536323000.0,111593000.0,0.0,1078440000.0
2012-10-31,462076000.0,486933000.0,949009000.0,133589000.0,0.0,1082598000.0,54889000.0,213864000.0,0.0,51234000.0,896893000.0,1979491000.0,59397000.0,0.0,68935000.0,500000000.0,500000000.0,0.0,9538000.0,0.0,535349000.0,1367419000.0,41276000.0,566420000.0,612072000.0,486933000.0,37924000.0,0.0,763135000.0
2011-10-31,510913000.0,287735000.0,798648000.0,130525000.0,0.0,929173000.0,67227000.0,209526000.0,0.0,41343000.0,902127000.0,1831300000.0,51333000.0,0.0,60807000.0,500000000.0,500000000.0,0.0,9474000.0,0.0,544447000.0,1370885000.0,0.0,466931000.0,460415000.0,287735000.0,-10913000.0,0.0,765631000.0
2010-10-31,307886000.0,4732000.0,312618000.0,129380000.0,0.0,499274000.0,71219000.0,208804000.0,329677000.0,119341000.0,781333000.0,1280607000.0,60843000.0,28736000.0,258001000.0,500000000.0,528736000.0,0.0,0.0,0.0,544732000.0,870322000.0,47069000.0,363190000.0,410285000.0,334409000.0,220850000.0,0.0,67589000.0
