,0,1,2,3,4,5,6,7,8,9,10,11,12,13,14,15,16,17,18,19,20,21,22,23,24,25,26,27,28,29,30
Date,Revenue,Revenue Growth,Cost of Revenue,Gross Profit,R&D Expenses,SG&A Expense,Operating Expenses,Operating Income,Interest Expense,Earnings before Tax,Income Tax Expense,Net Income - Non-Controlling int,Net Income - Discontinued ops,Net Income,Preferred Dividends,Net Income Com,EPS,EPS Diluted,Weighted Average Shs Out,Weighted Average Shs Out (Dil),Dividend per Share,Gross Margin,EBITDA Margin,EBIT Margin,Profit Margin,Free Cash Flow margin,EBITDA,EBIT,Consolidated Income,Earnings Before Tax Margin,Net Profit Margin
2019-12-31,200882000.0,0.365670931513,63535000.0,137347000.0,50024000.0,134551000.0,184575000.0,-47228000.0,7478000.0,-51825000.0,425000.0,0.0,0.0,-52250000.0,0.0,-52250000.0,-1.58,-1.58,33161656.0,33161656.0,0.0,0.6837197957009999,-0.0974452663753,-0.23510319491,-0.260102946008,0.0513585089754,-19575000.0,-47228000.0,-52250000.0,-0.257987276112,-0.260102946008
2018-12-31,147094000.0,0.409594449555,46810000.0,100284000.0,41305000.0,101070000.0,142375000.0,-42091000.0,6346000.0,-46719000.0,796000.0,0.0,0.0,-47515000.0,0.0,-47515000.0,-1.63,-1.63,29107267.0,29107267.0,0.0,0.681768121065,-0.155859518403,-0.286150352836,-0.323024732484,0.010700640406799999,-22926000.0,-42091000.0,-47515000.0,-0.31761322691599997,-0.323024732484
2017-12-31,104352000.0,0.357936652526,31503000.0,72849000.0,22241000.0,69893000.0,92134000.0,-19285000.0,691000.0,-19587000.0,47000.0,0.0,0.0,-19634000.0,0.0,-19634000.0,-0.7,-0.7,27862375.0,27862375.0,0.0,0.698108325667,-0.0869940202392,-0.18480719104600002,-0.188151640601,0.030627108248999998,-9078000.0,-19285000.0,-19634000.0,-0.18770124195000001,-0.188151640601
2016-12-31,76846000.0,0.308685286104,23767000.0,53079000.0,14765000.0,49140000.0,63905000.0,-10826000.0,506000.0,-11310000.0,-24000.0,0.0,0.0,-11286000.0,0.0,-11286000.0,-0.68,-0.68,16659561.0,16659561.0,0.0,0.690719100539,-0.0401322124769,-0.140879160919,-0.146865158889,0.111040262343,-3084000.0,-10826000.0,-11286000.0,-0.147177471827,-0.146865158889
2015-12-31,58720000.0,0.384220079678,19789000.0,38931000.0,11521000.0,38197000.0,49718000.0,-10787000.0,538000.0,-11386000.0,-562000.0,0.0,0.0,-10824000.0,0.0,-10824000.0,-0.88,-0.88,26924000.0,12257413.0,0.0,0.6629999999999999,-0.083,-0.1847,-0.184,-0.0503,-4872000.0,-10848000.0,-10824000.0,-0.1939,-0.1843
2014-12-31,42421000.0,,12089000.0,30332000.0,7365000.0,23253000.0,30618000.0,-286000.0,350000.0,-712000.0,-89000.0,0.0,0.0,-623000.0,0.0,-623000.0,-0.05,-0.05,,11788883.0,0.0,0.715,0.051,-0.0085,-0.015,0.0916,2150000.0,-362000.0,-623000.0,-0.0168,-0.0147
