,0,1,2,3,4,5,6,7,8,9,10,11,12,13,14
Date,Depreciation & Amortization,Stock-based compensation,Operating Cash Flow,Capital Expenditure,Acquisitions and disposals,Investment purchases and sales,Investing Cash flow,Issuance (repayment) of debt,Issuance (buybacks) of shares,Dividend payments,Financing Cash Flow,Effect of forex changes on cash,Net cash flow / Change in cash,Free Cash Flow,Net Cash/Marketcap
2019-12-31,76006000.0,15618000.0,-42645000.0,35534000.0,-0.0,0.0,-181634000.0,-0.0,-101008000.0,-0.0,-35545000.0,30000.0,-259794000.0,-78179000.0,0.0
2018-12-31,49673000.0,17609000.0,-20651000.0,39550000.0,-0.0,0.0,-160411000.0,-0.0,-228320000.0,-0.0,274024000.0,-36000.0,92962000.0,-60201000.0,0.0
2017-12-31,33282000.0,20437000.0,-27958000.0,27848000.0,-0.0,0.0,157801000.0,-0.0,-238433000.0,-0.0,165557000.0,0.0,295400000.0,-55806000.0,0.0
2016-12-31,17224000.0,18604000.0,-35510000.0,15526000.0,-0.0,0.0,-97797000.0,-0.0,-134563000.0,-0.0,122144000.0,0.0,-11163000.0,-51036000.0,0.0
2015-12-31,7166000.0,14730000.0,-18468000.0,6515000.0,-0.0,0.0,-43684000.0,-0.0,-145726000.0,-0.0,207878000.0,0.0,145726000.0,-24983000.0,0.0
2014-12-31,0.0,0.0,0.0,0.0,0.0,0.0,0.0,0.0,0.0,0.0,0.0,0.0,0.0,0.0,0.0316
2013-12-31,1208000.0,91000.0,-13629000.0,-10438000.0,-15521000.0,0.0,-25909000.0,23000000.0,0.0,0.0,34286000.0,0.0,-5252000.0,-24067000.0,0.0316
