,0,1,2,3,4,5,6,7,8,9,10,11,12,13,14
Date,Depreciation & Amortization,Stock-based compensation,Operating Cash Flow,Capital Expenditure,Acquisitions and disposals,Investment purchases and sales,Investing Cash flow,Issuance (repayment) of debt,Issuance (buybacks) of shares,Dividend payments,Financing Cash Flow,Effect of forex changes on cash,Net cash flow / Change in cash,Free Cash Flow,Net Cash/Marketcap
2019-06-30,2743000.0,1740000.0,-8725000.0,-2979000.0,-12542000.0,0.0,-15521000.0,30256000.0,-683000.0,-1619000.0,27954000.0,0.0,3708000.0,-11704000.0,-0.0807
2018-06-30,1579000.0,1575000.0,11345000.0,-829000.0,-13352000.0,0.0,-14181000.0,5549000.0,-707000.0,-1403000.0,3439000.0,0.0,603000.0,10516000.0,-0.0194
2017-06-30,576000.0,421000.0,2590000.0,-237000.0,-14708000.0,0.0,-14945000.0,4180000.0,6000000.0,-1040000.0,9140000.0,0.0,-3215000.0,2353000.0,-0.0133
2016-06-30,61000.0,0.0,1441000.0,-1000.0,0.0,0.0,-1000.0,0.0,0.0,-1407000.0,-1407000.0,0.0,33000.0,1440000.0,0.1463
2015-06-30,58806.0,0.0,-3850599.0,-58021.0,0.0,0.0,-58021.0,0.0,0.0,-1406746.0,-1406746.0,0.0,-5315366.0,-3908620.0,0.1243
2014-06-30,59870.0,0.0,6158684.0,65110.0,-0.0,0.0,-65110.0,-0.0,-9224340.0,-2813494.0,-2813494.0,0.0,3280080.0,6093574.0,0.0
2013-06-30,57865.0,0.0,3660098.0,23540.0,-0.0,0.0,-23540.0,-0.0,-5944260.0,-4220238.0,-4220238.0,0.0,-583680.0,3636558.0,0.0
2012-06-30,0.0,0.0,0.0,0.0,-0.0,0.0,0.0,-0.0,0.0,-0.0,0.0,0.0,0.0,0.0,0.0
2011-06-30,55872.0,0.0,868997.0,-23355.0,0.0,0.0,-23355.0,0.0,0.0,0.0,0.0,0.0,845642.0,845642.0,0.7457
2010-06-30,75054.0,0.0,617994.0,-17570.0,0.0,0.0,-17570.0,0.0,0.0,0.0,0.0,0.0,600424.0,600424.0,0.7706
2009-06-30,128219.0,0.0,1597048.0,-25715.0,0.0,0.0,-25715.0,0.0,-115.0,0.0,-115.0,0.0,1571218.0,1571333.0,0.8439
