,0,1,2,3,4,5,6,7,8,9,10,11,12,13,14,15,16,17,18,19,20,21,22,23,24,25,26,27,28
Date,Cash and cash equivalents,Short-term investments,Cash and short-term investments,Receivables,Inventories,Total current assets,Property Plant & Equipment Net,Goodwill and Intangible Assets,Long-term investments,Tax assets,Total non-current assets,Total assets,Payables,Short-term debt,Total current liabilities,Long-term debt,Total debt,Deferred revenue,Tax Liabilities,Deposit Liabilities,Total non-current liabilities,Total liabilities,Other comprehensive income,Retained earnings (deficit),Total shareholders equity,Investments,Net Debt,Other Assets,Other Liabilities
2019-02-02,20935000.0,0.0,20935000.0,81763000.0,65272000.0,52964000.0,51118000.0,0.0,0.0,0.0,68982000.0,229987000.0,56157000.0,2488000.0,96054000.0,68932000.0,71420000.0,35000.0,0.0,0.0,68982000.0,165036000.0,0.0,-377925000.0,64951000.0,0.0,50485000.0,9053000.0,37409000.0
2018-02-03,24390000.0,0.0,24390000.0,96559000.0,68811000.0,54154000.0,52048000.0,0.0,0.0,0.0,71641000.0,249258000.0,55614000.0,2326000.0,93621000.0,71573000.0,73899000.0,35000.0,0.0,0.0,71641000.0,165262000.0,0.0,-355768000.0,83996000.0,0.0,49509000.0,5344000.0,35681000.0
2017-01-28,33097000.0,0.0,33097000.0,99062000.0,70192000.0,66919000.0,52715000.0,12000000.0,0.0,0.0,86096000.0,274780000.0,65796000.0,3242000.0,106981000.0,82146000.0,85388000.0,85000.0,0.0,0.0,86096000.0,193077000.0,0.0,-355911000.0,81703000.0,0.0,52291000.0,5510000.0,37943000.0
2016-01-30,12347000.0,0.0,12347000.0,114949000.0,65840000.0,66448000.0,52629000.0,12000000.0,0.0,0.0,73169000.0,265497000.0,77779000.0,2143000.0,115349000.0,70271000.0,72414000.0,85000.0,0.0,0.0,73169000.0,188518000.0,0.0,-347166000.0,76979000.0,0.0,60067000.0,5913000.0,35427000.0
2015-01-31,21928000.0,0.0,21928000.0,112275000.0,61456000.0,56748000.0,42759000.0,12000000.0,0.0,0.0,53202000.0,257691000.0,81457000.0,1736000.0,119961000.0,51007000.0,52743000.0,334000.0,0.0,0.0,53202000.0,173163000.0,0.0,-334882000.0,84528000.0,0.0,30815000.0,5284000.0,36768000.0
2014-02-01,31277000.0,0.0,31277000.0,107386000.0,51162000.0,37848000.0,24952000.0,12000000.0,0.0,0.0,39581000.0,233705000.0,77296000.0,0.0,115916000.0,38088000.0,38088000.0,420000.0,0.0,0.0,39581000.0,155497000.0,0.0,-333504000.0,78208000.0,0.0,6811000.0,6032000.0,38620000.0
2013-02-02,28577000.0,0.0,28577000.0,98360000.0,37155000.0,41387000.0,24665000.0,15997000.0,0.0,0.0,38420000.0,212099000.0,65719000.0,0.0,96400000.0,38000000.0,38000000.0,505000.0,0.0,0.0,38420000.0,134820000.0,0.0,-330989000.0,77279000.0,0.0,9423000.0,6620000.0,30681000.0
2012-01-28,35057000.0,0.0,35057000.0,80274000.0,43476000.0,55189000.0,27992000.0,24326000.0,0.0,0.0,25507000.0,218460000.0,53437000.0,0.0,91364000.0,25000000.0,25000000.0,592000.0,0.0,0.0,25507000.0,116871000.0,0.0,-303313000.0,101589000.0,0.0,-10057000.0,4464000.0,37927000.0
2011-01-29,51432000.0,0.0,51432000.0,90183000.0,39800000.0,53002000.0,25775000.0,24039000.0,0.0,0.0,51409000.0,238359000.0,63204000.0,0.0,103798000.0,25000000.0,25000000.0,1153000.0,0.0,0.0,51409000.0,155207000.0,0.0,-255249000.0,83152000.0,0.0,-26432000.0,3942000.0,40594000.0
2010-01-30,22060000.0,0.0,22060000.0,68891000.0,44077000.0,56853000.0,28342000.0,27265000.0,0.0,0.0,21918000.0,196214000.0,63618000.0,0.0,85992000.0,0.0,0.0,1881000.0,0.0,0.0,21918000.0,107910000.0,0.0,-229381000.0,88304000.0,0.0,-22060000.0,4333000.0,22374000.0
