,0,1,2,3,4,5,6,7,8,9,10,11,12,13,14,15,16,17,18,19,20,21,22,23,24,25,26,27,28,29,30
Date,Revenue,Revenue Growth,Cost of Revenue,Gross Profit,R&D Expenses,SG&A Expense,Operating Expenses,Operating Income,Interest Expense,Earnings before Tax,Income Tax Expense,Net Income - Non-Controlling int,Net Income - Discontinued ops,Net Income,Preferred Dividends,Net Income Com,EPS,EPS Diluted,Weighted Average Shs Out,Weighted Average Shs Out (Dil),Dividend per Share,Gross Margin,EBITDA Margin,EBIT Margin,Profit Margin,Free Cash Flow margin,EBITDA,EBIT,Consolidated Income,Earnings Before Tax Margin,Net Profit Margin
2019-12-31,5147800000.0,0.20391028789299998,0.0,0.0,0.0,0.0,1295400000.0,1185800000.0,374000000.0,772800000.0,97000000.0,0.0,0.0,669900000.0,0.0,669900000.0,2.8,2.79,239500000.0,239900000.0,1.92788661942,0.0,0.41652744861900004,0.230350829481,0.13013326080999998,0.104685496717,2144200000.0,1185800000.0,669900000.0,0.150122382377,0.13013326080999998
2018-12-31,4275900000.0,0.663127187865,0.0,0.0,0.0,0.0,1194500000.0,933600000.0,279600000.0,599600000.0,59000000.0,0.0,0.0,535800000.0,0.0,535800000.0,2.5,2.5,213900000.0,214100000.0,2.21858944418,0.0,0.384784489815,0.218339998597,0.125306952922,0.100119273135,1645300000.0,933600000.0,535800000.0,0.140227788302,0.125306952922
2017-12-31,2571000000.0,0.00347371296983,1352900000.0,1218100000.0,0.0,0.0,539300000.0,678800000.0,171000000.0,475100000.0,151200000.0,12600000.0,0.0,323900000.0,0.0,323900000.0,2.27,2.27,142000000.0,142500000.0,0.0,0.4738,0.396,0.2513,0.126,0.0576,1017800000.0,646100000.0,336500000.0,0.1848,0.126
2016-12-31,2562100000.0,0.0419276128508,1329500000.0,1232600000.0,0.0,0.0,530200000.0,702400000.0,161700000.0,531100000.0,184500000.0,14600000.0,0.0,346600000.0,0.0,346600000.0,2.43,2.43,142000000.0,142100000.0,0.0,0.4811,0.40299999999999997,0.2704,0.135,-0.1105,1031300000.0,692800000.0,361200000.0,0.2073,0.1353
2015-12-31,2459000000.0,,534000000.0,1588000000.0,,581000000.0,,621000000.0,,454000000.0,-152000000.0,,,,,291000000.0,2.11,2.09,141000000.0,,,0.6458,,,,,,,,0.1846,
