,0,1,2,3,4,5,6,7,8,9,10,11,12,13,14,15,16,17,18,19,20,21,22,23,24,25,26,27,28,29,30
Date,Revenue,Revenue Growth,Cost of Revenue,Gross Profit,R&D Expenses,SG&A Expense,Operating Expenses,Operating Income,Interest Expense,Earnings before Tax,Income Tax Expense,Net Income - Non-Controlling int,Net Income - Discontinued ops,Net Income,Preferred Dividends,Net Income Com,EPS,EPS Diluted,Weighted Average Shs Out,Weighted Average Shs Out (Dil),Dividend per Share,Gross Margin,EBITDA Margin,EBIT Margin,Profit Margin,Free Cash Flow margin,EBITDA,EBIT,Consolidated Income,Earnings Before Tax Margin,Net Profit Margin
2018-12-31,6162402.0,3.3641775527900006,6354502.0,-192100.0,0.0,2337446.0,2337446.0,-2529546.0,1089223.0,-3598780.0,0.0,0.0,0.0,-3598780.0,0.0,-3598780.0,-1.0,-1.0,2902880.0,2891280.0,0.0,-0.0312,-0.397,-0.4072,-0.584,-0.1113,-2446718.0,-2509557.0,-3598780.0,-0.584,-0.584
2017-12-31,1412042.0,-0.492303704095,1884793.0,-472751.0,0.0,2227645.0,2227645.0,-2700396.0,474601.0,-3040630.0,800.0,0.0,0.0,-3041430.0,0.0,-3041430.0,-1.0,-1.0,2666297.0,2549415.0,0.0,-0.3348,-1.768,-1.8172,-2.154,-2.4512,-2496648.0,-2566029.0,-3041430.0,-2.1534,-2.1539
2016-12-31,2781273.0,0.052632515166300006,2925994.0,-144721.0,0.0,2643672.0,2643672.0,-2788393.0,275776.0,-2631916.0,1600.0,0.0,0.0,-2633516.0,0.0,-2633516.0,-1.0,-1.0,2394575.0,2249397.0,0.0,-0.052000000000000005,-0.81,-0.8471,-0.9470000000000001,-0.6884,-2253702.0,-2356140.0,-2633516.0,-0.9463,-0.9469
2015-12-31,2642207.0,1.55671554559,2720437.0,-78230.0,0.0,1647781.0,1647781.0,-1726011.0,384240.0,-1837933.0,1600.0,0.0,0.0,-1839533.0,0.0,-1839533.0,-1.0,-1.0,2102765.0,2014783.0,0.0,-0.0296,-0.498,-0.5502,-0.696,-1.0205,-1314661.0,-1453693.0,-1839533.0,-0.6956,-0.6962
2014-12-31,1033438.0,2.6775320802500002,1133556.0,-100118.0,0.0,2396699.0,2396699.0,-2496817.0,1037700.0,-3144702.0,1600.0,0.0,0.0,-3146302.0,0.0,-3146302.0,-2.0,-2.0,1903948.0,1704407.0,0.0,-0.0969,-1.999,-2.0388,-3.045,-1.8319999999999999,-2065610.0,-2107002.0,-3146302.0,-3.043,-3.0445
2013-12-31,281014.0,-0.610694964916,525552.0,-244538.0,0.0,2190133.0,2190133.0,-2434671.0,647854.0,-2792310.0,1600.0,0.0,0.0,-2793910.0,0.0,-2793910.0,-2.0,-2.0,1434059.0,1390972.0,0.0,-0.8702,-7.473,-7.6311,-9.942,-5.8133,-2100097.0,-2144456.0,-2793910.0,-9.9366,-9.9422
2012-12-31,721835.0,-0.686586845275,553228.0,168607.0,0.0,2368793.0,2368793.0,-2200186.0,972027.0,-2479980.0,1748.0,0.0,0.0,-2481728.0,0.0,-2481728.0,-2.0,-2.0,1161952.0,1109594.0,0.0,0.2336,-2.005,-2.0891,-3.438,-1.6242,-1447525.0,-1507953.0,-2481728.0,-3.4357,-3.4381
2011-12-31,2303142.0,5.62875776737,1742791.0,560351.0,0.0,3571558.0,3571558.0,-3011207.0,754126.0,-2534333.0,13160.0,0.0,0.0,-2547493.0,0.0,-2547493.0,-2.5,-2.5,986376.0,948805.0,0.0,0.2433,-0.745,-0.7729,-1.1059999999999999,-0.8613,-1715181.0,-1780207.0,-2547493.0,-1.1004,-1.1061
2010-12-31,347447.0,-0.641314671281,222927.0,124520.0,0.0,1710767.0,1710767.0,-1586247.0,1058099.0,-2359517.0,1334.0,0.0,0.0,-2360851.0,0.0,-2360851.0,-3.0,-3.0,846451.0,778479.0,0.0,0.3584,-3.565,-3.7457,-6.795,-3.2465,-1238673.0,-1301418.0,-2360851.0,-6.791,-6.7949
2009-12-31,968668.0,0.0,726043.0,242625.0,0.0,3929864.0,3929864.0,-3687239.0,610545.0,-4264092.0,3218.0,0.0,0.0,-4267310.0,0.0,-4267310.0,-8.5,-8.5,180000.0,516902.0,0.0,0.2505,-3.687,-3.7717,-4.405,-0.2838,-3571429.0,-3653547.0,-4267310.0,-4.402,-4.4053
