,0,1,2,3,4,5,6,7,8,9,10,11,12,13,14,15,16,17,18,19,20,21,22,23,24,25,26,27,28,29,30
Date,Revenue,Revenue Growth,Cost of Revenue,Gross Profit,R&D Expenses,SG&A Expense,Operating Expenses,Operating Income,Interest Expense,Earnings before Tax,Income Tax Expense,Net Income - Non-Controlling int,Net Income - Discontinued ops,Net Income,Preferred Dividends,Net Income Com,EPS,EPS Diluted,Weighted Average Shs Out,Weighted Average Shs Out (Dil),Dividend per Share,Gross Margin,EBITDA Margin,EBIT Margin,Profit Margin,Free Cash Flow margin,EBITDA,EBIT,Consolidated Income,Earnings Before Tax Margin,Net Profit Margin
2019-03-31,125630000.0,-0.116003827859,,104511000.0,,,,54099000.0,,64451000.0,,,,,,,0.52,0.52,116000000.0,,,0.8319,,,,,,,,0.513,
2018-03-31,142116000.0,0.0414709395634,,120317000.0,,,,82341000.0,,74745000.0,,,,,,,0.6,0.6,116000000.0,,,0.8466,,,,,,,,0.5259,
2017-03-31,136457000.0,0.213231502392,,114576000.0,,,,197914000.0,,201757000.0,,,,,,,1.72,1.72,116000000.0,,,0.8396,,,,,,,,1.4785,
2016-03-31,112474000.0,,,89430000.0,,,,-37856000.0,,-35146000.0,,,,,,,-0.31,-0.31,116000000.0,,,0.7951,,,,,,,,-0.3125,
