,0,1,2,3,4,5,6,7,8,9,10,11,12,13,14,15,16,17,18,19,20,21,22,23,24,25,26,27,28,29,30
Date,Revenue,Revenue Growth,Cost of Revenue,Gross Profit,R&D Expenses,SG&A Expense,Operating Expenses,Operating Income,Interest Expense,Earnings before Tax,Income Tax Expense,Net Income - Non-Controlling int,Net Income - Discontinued ops,Net Income,Preferred Dividends,Net Income Com,EPS,EPS Diluted,Weighted Average Shs Out,Weighted Average Shs Out (Dil),Dividend per Share,Gross Margin,EBITDA Margin,EBIT Margin,Profit Margin,Free Cash Flow margin,EBITDA,EBIT,Consolidated Income,Earnings Before Tax Margin,Net Profit Margin
2019-12-31,991346000.0,0.122559765919,655490000.0,335856000.0,0.0,198751000.0,259403000.0,76453000.0,13612000.0,83100000.0,15172000.0,0.0,0.0,67659000.0,0.0,67659000.0,1.97,1.95,34350150.0,34732683.0,0.0,0.338787870229,0.159836222671,0.07712039994110001,0.0682496323181,0.129401843554,158453000.0,76453000.0,67659000.0,0.0838254252299,0.0682496323181
2018-12-31,883112000.0,0.158468339652,584855000.0,298257000.0,0.0,179814000.0,248436000.0,49821000.0,7227000.0,60370000.0,3397000.0,0.0,0.0,56726000.0,0.0,56726000.0,1.65,1.62,34451008.0,35030984.0,0.0,0.33773405864699996,0.11158267580999999,0.0564152678256,0.06423420811859999,0.0588804138093,98540000.0,49821000.0,56726000.0,0.0683605250523,0.06423420811859999
2017-12-31,762310000.0,0.11125850597999999,495586000.0,266724000.0,0.0,155950000.0,194499000.0,72225000.0,1889000.0,85034000.0,36146000.0,0.0,0.0,48888000.0,0.0,48888000.0,1.44,1.39,33897916.0,35110210.0,0.0,0.349889152707,0.14588422033,0.0947449200457,0.0641313901169,0.10230221301,111209000.0,72225000.0,48888000.0,0.111547795516,0.0641313901169
2016-12-31,685988000.0,0.0914824691484,447956000.0,238032000.0,0.0,139230000.0,173810000.0,64222000.0,1343000.0,83884000.0,22151000.0,0.0,0.0,61733000.0,0.0,61733000.0,1.84,1.79,33566367.0,34563319.0,0.0,0.34699149256300005,0.144028758521,0.09361971346439998,0.0899913701114,0.10846836970899999,98802000.0,64222000.0,61733000.0,0.12228202242599999,0.0899913701114
2015-12-31,628492000.0,0.25880170966899996,402917000.0,225575000.0,0.0,126767000.0,158232000.0,67343000.0,1338000.0,75776000.0,24211000.0,0.0,0.0,51565000.0,0.0,51565000.0,1.55,1.51,33298104.0,34178340.0,0.0,0.358914671945,0.157214411639,0.107150130789,0.0820455948524,0.113137478281,98808000.0,67343000.0,51565000.0,0.120567962679,0.0820455948524
2014-12-31,499278000.0,0.0435278774046,332535000.0,166743000.0,0.0,104675000.0,132703000.0,34040000.0,0.0,37638000.0,5193000.0,0.0,0.0,32445000.0,0.0,32445000.0,0.99,0.96,32804606.0,33636593.0,0.0,0.33396825015299997,0.124315511599,0.0681784496813,0.06498383666009999,0.0780747399245,62068000.0,34040000.0,32445000.0,0.07538485573169999,0.06498383666009999
2013-12-31,478452000.0,0.0801977739146,290942000.0,187510000.0,0.0,95173000.0,120090000.0,67420000.0,0.0,24026000.0,16880000.0,0.0,0.0,48097000.0,0.0,48097000.0,1.47,1.42,32750178.0,33842938.0,0.0,0.391909742252,0.193306747594,0.14091277703900001,0.100526280588,0.13977577687999998,92488000.0,67420000.0,48097000.0,0.0502161136331,0.100526280588
2012-12-31,442930000.0,0.22851492618,271876000.0,171054000.0,0.0,88199000.0,113822000.0,57232000.0,0.0,45047000.0,14884000.0,0.0,0.0,41836000.0,0.0,41836000.0,1.31,1.26,31968386.0,33171105.0,0.0,0.38618743368,0.187061160906,0.129212290881,0.0944528480798,0.10606190594499999,82855000.0,57232000.0,41836000.0,0.10170230058900001,0.0944528480798
2011-12-31,360541000.0,0.42645586798199997,219987000.0,140554000.0,0.0,76242000.0,99236000.0,41318000.0,0.0,46648000.0,11868000.0,0.0,0.0,34780000.0,0.0,34780000.0,1.15,1.1,30264805.0,31546144.0,0.0,0.38984193198600003,0.178626009247,0.114600003883,0.09646614393369998,0.101977306326,64402000.0,41318000.0,34780000.0,0.12938334336500001,0.09646614393369998
2010-12-31,252753000.0,0.32334877876400003,151285000.0,101468000.0,0.0,59110000.0,74945000.0,26523000.0,0.0,32089000.0,5497000.0,0.0,0.0,26592000.0,0.0,26592000.0,0.91,0.88,29327450.0,29281364.0,0.0,0.4015,0.19,0.127,0.105,0.0659,47924000.0,32089000.0,26592000.0,0.127,0.1052
2009-12-31,190995000.0,0.0511,109389000.0,81606000.0,0.0,45800000.0,57205000.0,24401000.0,0.0,19356000.0,3703000.0,0.0,139000.0,15653000.0,0.0,15653000.0,0.54,0.53,28957823.0,28963770.0,0.0,0.4273,0.161,0.1013,0.08199999999999999,0.1271,30761000.0,19356000.0,15653000.0,0.1013,0.08199999999999999
