,0,1,2,3,4,5,6,7,8,9,10,11,12,13,14
Date,Depreciation & Amortization,Stock-based compensation,Operating Cash Flow,Capital Expenditure,Acquisitions and disposals,Investment purchases and sales,Investing Cash flow,Issuance (repayment) of debt,Issuance (buybacks) of shares,Dividend payments,Financing Cash Flow,Effect of forex changes on cash,Net cash flow / Change in cash,Free Cash Flow,Net Cash/Marketcap
2018-12-31,1001000000.0,203000000.0,1975000000.0,878000000.0,-53000000.0,-589000000.0,-559000000.0,-500000000.0,-923000000.0,-0.0,-1489000000.0,-139000000.0,-212000000.0,1097000000.0,0.0
2017-12-31,889544000.0,149350000.0,1799154000.0,710330000.0,-170639000.0,-1027040000.0,-1582390000.0,-0.0,-312089000.0,-0.0,687514000.0,145640000.0,1049918000.0,1088824000.0,0.0
2016-12-31,794202000.0,242417000.0,1564334000.0,749348000.0,-777000.0,-440163000.0,-718321000.0,-0.0,-455746000.0,-0.0,-690619000.0,-34882000.0,120512000.0,814986000.0,0.0
2015-12-31,500345000.0,178068000.0,1368045000.0,787041000.0,-2063649000.0,-60546000.0,-2498645000.0,-0.0,-60546000.0,-0.0,1404199000.0,-127385000.0,273599000.0,581004000.0,0.0
2014-12-31,345432000.0,85011000.0,1366959000.0,328387000.0,-560668000.0,-537861000.0,-1033441000.0,-0.0,-537861000.0,-0.0,48149000.0,-109184000.0,381667000.0,1038572000.0,0.0
2013-12-31,283475000.0,130173000.0,763200000.0,308581000.0,-541247000.0,-522900000.0,-542812000.0,-0.0,-522900000.0,-0.0,-492516000.0,-30936000.0,-272128000.0,454619000.0,0.0
2012-12-31,195952000.0,64596000.0,1237182000.0,235697000.0,-199360000.0,-335135000.0,-367825000.0,-0.0,-417571000.0,-0.0,-272787000.0,15064000.0,604027000.0,1001485000.0,0.0
2011-12-31,154934000.0,63847000.0,825729000.0,207837000.0,-35221000.0,-510137000.0,-463460000.0,-0.0,-294027000.0,-76550000.0,-353494000.0,-17743000.0,67935000.0,617892000.0,0.0
2010-12-31,155525000.0,59690000.0,777483000.0,155189000.0,-50465000.0,-1126386000.0,-817696000.0,-0.0,-501993000.0,-79076000.0,131881000.0,-19880000.0,71788000.0,622294000.0,0.0
2009-12-31,117327000.0,55756000.0,676004000.0,-78842000.0,-36000.0,77171000.0,-47819000.0,-650000000.0,7831000.0,0.0,-660919000.0,9279000.0,-46231000.0,597162000.0,-0.0259
