,0,1,2,3,4,5,6,7,8,9,10,11,12,13,14,15,16,17,18,19,20,21,22,23,24,25,26,27,28,29,30
Date,Revenue,Revenue Growth,Cost of Revenue,Gross Profit,R&D Expenses,SG&A Expense,Operating Expenses,Operating Income,Interest Expense,Earnings before Tax,Income Tax Expense,Net Income - Non-Controlling int,Net Income - Discontinued ops,Net Income,Preferred Dividends,Net Income Com,EPS,EPS Diluted,Weighted Average Shs Out,Weighted Average Shs Out (Dil),Dividend per Share,Gross Margin,EBITDA Margin,EBIT Margin,Profit Margin,Free Cash Flow margin,EBITDA,EBIT,Consolidated Income,Earnings Before Tax Margin,Net Profit Margin
2020-01-03,417199000.0,0.09927198088130001,0.0,0.0,0.0,20520000.0,332088000.0,85111000.0,0.0,104190000.0,21730000.0,0.0,0.0,82460000.0,0.0,82460000.0,1.56,1.53,52691000.0,53884000.0,0.621761561874,0.0,0.22155613987599998,0.204005762238,0.197651480469,0.203790037848,92433000.0,85111000.0,82460000.0,0.24973693609,0.197651480469
2018-12-28,379523000.0,0.0912136032594,0.0,0.0,0.0,17532000.0,288067000.0,91456000.0,0.0,93317000.0,21063000.0,0.0,0.0,72254000.0,0.0,72254000.0,1.37,1.33,52906000.0,54168000.0,0.502510707429,0.0,0.257855255149,0.240976172722,0.19038108362300002,0.19732664423500001,97862000.0,91456000.0,72254000.0,0.24587969635600002,0.19038108362300002
2017-12-29,347799000.0,0.10385748200400001,0.0,0.0,0.0,17780000.0,275748000.0,72051000.0,0.0,82509000.0,41204000.0,0.0,0.0,41305000.0,0.0,41305000.0,1.57,1.53,26362000.0,26986000.0,0.809123249092,0.0,0.225233540062,0.2071627578,0.118761123522,0.18146400651,78336000.0,72051000.0,41305000.0,0.23723184943000003,0.118761123522
2016-12-30,315076000.0,0.0071731792143999995,0.0,0.0,0.0,15492000.0,253165000.0,61911000.0,0.0,69122000.0,21642000.0,0.0,0.0,47480000.0,0.0,47480000.0,1.79,1.75,26488000.0,27166000.0,0.691342118825,0.0,0.215947898285,0.196495448717,0.150693800861,0.166794678109,68040000.0,61911000.0,47480000.0,0.219381990377,0.150693800861
2016-01-01,312832000.0,0.026675068263,0.0,0.0,0.0,15295000.0,243899000.0,68933000.0,0.0,71133000.0,27534000.0,0.0,0.0,43599000.0,0.0,43599000.0,1.64,1.6,26606000.0,27298000.0,0.573192175251,0.0,0.235963712152,0.22035149856800001,0.139368734656,0.176164842471,73817000.0,68933000.0,43599000.0,0.227384027209,0.139368734656
2015-01-02,304704000.0,0.028821479700700002,0.0,0.0,0.0,15842000.0,241155000.0,63549000.0,0.0,67965000.0,27264000.0,0.0,0.0,40701000.0,0.0,40701000.0,3.02,2.94,13455000.0,13833000.0,0.9439745536040001,0.0,0.22339056920800002,0.208559782609,0.133575535602,0.142121534342,68068000.0,63549000.0,40701000.0,0.223052536232,0.133575535602
2014-01-03,296168000.0,0.0870704653399,0.0,0.0,0.0,14714000.0,240222000.0,55946000.0,0.0,63945000.0,25305000.0,0.0,0.0,38640000.0,0.0,38640000.0,2.84,2.76,13616000.0,14025000.0,0.565204991087,0.0,0.20446840982099998,0.188899543502,0.130466491991,0.18761648793900002,60557000.0,55946000.0,38640000.0,0.215907863105,0.130466491991
2012-12-28,272446000.0,0.0,0.0,0.0,0.0,13116000.0,218986000.0,53460000.0,0.0,54819000.0,22124000.0,0.0,0.0,32695000.0,0.0,32695000.0,2.31,2.22,14181000.0,14751000.0,0.0,0.0,0.21115009946899999,0.19622237067200002,0.120005432269,0.156952203372,57527000.0,53460000.0,32695000.0,0.20121051511100002,0.120005432269
2011-12-30,272446000.0,0.09524709249739999,0.0,0.0,0.0,13116000.0,218986000.0,53460000.0,0.0,54819000.0,22124000.0,0.0,0.0,32695000.0,0.0,32695000.0,2.31,2.22,14181000.0,14751000.0,0.0,0.0,0.21115009946899999,0.19622237067200002,0.120005432269,0.156952203372,57527000.0,53460000.0,32695000.0,0.20121051511100002,0.120005432269
2010-12-31,248753000.0,0.0915868739084,193148000.0,55605000.0,0.0,12364000.0,12364000.0,43241000.0,0.0,46708000.0,19187000.0,0.0,0.0,27521000.0,0.0,27521000.0,0.48,0.45799999999999996,55490340.0,57416000.0,0.0,0.2235,0.205,0.1878,0.111,0.135,51066000.0,46708000.0,27521000.0,0.1878,0.1106
2010-01-01,227882000.0,-0.0042,183615000.0,44267000.0,0.0,11005000.0,11005000.0,33262000.0,0.0,37021000.0,14894000.0,0.0,0.0,22127000.0,0.0,22127000.0,0.39,0.36700000000000005,55047780.0,56744000.0,0.0,0.1943,0.182,0.1625,0.09699999999999999,0.1088,41543000.0,37021000.0,22127000.0,0.1625,0.0971
