,0,1,2,3,4,5,6,7,8,9,10,11,12,13,14,15,16,17,18,19,20,21,22,23,24,25,26,27,28
Date,Cash and cash equivalents,Short-term investments,Cash and short-term investments,Receivables,Inventories,Total current assets,Property Plant & Equipment Net,Goodwill and Intangible Assets,Long-term investments,Tax assets,Total non-current assets,Total assets,Payables,Short-term debt,Total current liabilities,Long-term debt,Total debt,Deferred revenue,Tax Liabilities,Deposit Liabilities,Total non-current liabilities,Total liabilities,Other comprehensive income,Retained earnings (deficit),Total shareholders equity,Investments,Net Debt,Other Assets,Other Liabilities
2019-12-31,123000000.0,46000000.0,169000000.0,429000000.0,37000000.0,869000000.0,21835000000.0,0.0,7000000.0,142000000.0,22662000000.0,23531000000.0,179000000.0,8000000.0,1263000000.0,5371000000.0,5379000000.0,278000000.0,68000000.0,0.0,7257000000.0,10282000000.0,12357000000.0,890000000.0,13249000000.0,53000000.0,5256000000.0,0.0,1762000000.0
2018-12-31,214516000.0,230527000.0,445043000.0,296525000.0,37570000.0,925021000.0,20371975000.0,0.0,14525000.0,96670000.0,20670666000.0,21595687000.0,127979000.0,891633000.0,1019612000.0,4464338000.0,5355971000.0,143272000.0,49160000.0,0.0,6248870000.0,7896400000.0,12935885000.0,761833000.0,13699287000.0,245052000.0,5141455000.0,0.0,627918000.0
2017-12-31,112446000.0,531000.0,112977000.0,158575000.0,9108000.0,358601000.0,7343617000.0,0.0,0.0,101217000.0,7412384000.0,7770985000.0,94590000.0,482838000.0,577428000.0,1477347000.0,1960185000.0,68703000.0,3306000.0,0.0,1585395000.0,2516125000.0,5291011000.0,-37133000.0,5254860000.0,531000.0,1847739000.0,0.0,353302000.0
2016-12-31,1666574000.0,0.0,1666574000.0,70349000.0,1983000.0,1792166000.0,3390857000.0,0.0,709000.0,42187000.0,3557514000.0,5349680000.0,47648000.0,161693000.0,209342000.0,1105912000.0,1267605000.0,23405000.0,776000.0,0.0,1105912000.0,1652218000.0,4215955000.0,-519394000.0,3697462000.0,709000.0,-398969000.0,0.0,336964000.0
2015-12-31,20115000.0,4623000.0,24738000.0,1591000.0,1728000.0,108745000.0,2597625000.0,0.0,0.0,0.0,2649667000.0,2758412000.0,20008000.0,121196000.0,141421000.0,495500000.0,616696000.0,0.0,518000.0,0.0,495500000.0,882440000.0,2229664000.0,-354360000.0,1875972000.0,4623000.0,596581000.0,0.0,245519000.0
2014-12-31,30183000.0,115607000.0,145790000.0,4001000.0,2827000.0,251711000.0,2791807000.0,0.0,1934000.0,0.0,2843770000.0,3095481000.0,26230000.0,240499000.0,266729000.0,673500000.0,913999000.0,0.0,9952000.0,0.0,835092000.0,1344470000.0,1554174000.0,196268000.0,1751011000.0,117541000.0,883816000.0,0.0,242649000.0
2013-12-31,15555000.0,213000.0,15768000.0,1303000.0,5631000.0,61968000.0,1446337000.0,0.0,218000.0,112000.0,1459646000.0,1521614000.0,2679000.0,0.0,121320000.0,460000000.0,460000000.0,0.0,0.0,0.0,551764000.0,676073000.0,842557000.0,2513000.0,845541000.0,431000.0,444445000.0,0.0,2989000.0
2012-12-31,26358000.0,0.0,26358000.0,772000.0,6195000.0,50275000.0,554242000.0,0.0,0.0,1857000.0,556426000.0,606701000.0,12141000.0,145000.0,79232000.0,193000.0,338000.0,0.0,0.0,0.0,62888000.0,606701000.0,51704000.0,-52074000.0,0.0,0.0,-26020000.0,0.0,464581000.0
2011-12-31,6959000.0,0.0,6959000.0,17510000.0,6007000.0,30812000.0,221149000.0,0.0,10310000.0,0.0,232766000.0,263578000.0,15165000.0,8320000.0,42298000.0,91139000.0,99459000.0,0.0,0.0,0.0,92243000.0,134541000.0,0.0,0.0,129037000.0,10310000.0,92500000.0,336000.0,18813000.0
