,0,1,2,3,4,5,6,7,8,9,10,11,12,13,14
Date,Depreciation & Amortization,Stock-based compensation,Operating Cash Flow,Capital Expenditure,Acquisitions and disposals,Investment purchases and sales,Investing Cash flow,Issuance (repayment) of debt,Issuance (buybacks) of shares,Dividend payments,Financing Cash Flow,Effect of forex changes on cash,Net cash flow / Change in cash,Free Cash Flow,Net Cash/Marketcap
2019-12-31,7953000.0,13188000.0,-94961000.0,4745000.0,-0.0,0.0,20097000.0,-134000.0,-128858000.0,-2559000.0,146714000.0,0.0,71850000.0,-99706000.0,0.0
2018-12-31,4478000.0,15012000.0,-98848000.0,8282000.0,-0.0,0.0,18824000.0,-0.0,-55508000.0,-2344000.0,50648000.0,0.0,-29376000.0,-107130000.0,0.0
2017-12-31,5148000.0,14005000.0,-85430000.0,2080000.0,-0.0,0.0,-41629000.0,-0.0,-103915000.0,-299000.0,154207000.0,0.0,27148000.0,-87510000.0,0.0
2016-12-31,2756000.0,12128000.0,-45813000.0,6720000.0,-0.0,0.0,-6060000.0,-0.0,-88294000.0,-0.0,41985000.0,0.0,-9888000.0,-52533000.0,0.0
2015-12-31,340000.0,14291000.0,-20378000.0,1533000.0,-0.0,20002000.0,7885000.0,-855000.0,-98182000.0,-0.0,60916000.0,0.0,48423000.0,-21911000.0,0.0
2014-12-31,23000.0,5546000.0,-16334000.0,0.0,-0.0,0.0,-23273000.0,-0.0,-45642000.0,-0.0,-10155000.0,0.0,-49762000.0,-16334000.0,0.0
2013-12-31,17000.0,0.0,-29646000.0,40000.0,-0.0,0.0,-188000.0,-0.0,-7122000.0,-0.0,89156000.0,0.0,59322000.0,-29686000.0,0.0
2012-12-31,3000.0,0.0,-23194000.0,0.0,-0.0,0.0,-279000.0,-0.0,-11344000.0,-0.0,40512000.0,0.0,17039000.0,-23194000.0,0.0
2011-12-31,22000.0,0.0,-10952000.0,0.0,-0.0,0.0,-3843000.0,-0.0,-22967000.0,-0.0,23093000.0,0.0,8298000.0,-10952000.0,0.0
2010-12-31,5000.0,2329000.0,-5677000.0,-13000.0,0.0,0.0,-13000.0,-348000.0,0.0,0.0,19042000.0,0.0,13352000.0,-5690000.0,0.3358
2009-12-31,5000.0,39000.0,-2351000.0,-2000.0,0.0,0.0,-2000.0,3856000.0,0.0,0.0,3856000.0,0.0,1503000.0,-2353000.0,0.3358
