,0,1,2,3,4,5,6,7,8,9,10,11,12,13,14,15,16,17,18,19,20,21,22,23,24,25,26,27,28,29,30
Date,Revenue,Revenue Growth,Cost of Revenue,Gross Profit,R&D Expenses,SG&A Expense,Operating Expenses,Operating Income,Interest Expense,Earnings before Tax,Income Tax Expense,Net Income - Non-Controlling int,Net Income - Discontinued ops,Net Income,Preferred Dividends,Net Income Com,EPS,EPS Diluted,Weighted Average Shs Out,Weighted Average Shs Out (Dil),Dividend per Share,Gross Margin,EBITDA Margin,EBIT Margin,Profit Margin,Free Cash Flow margin,EBITDA,EBIT,Consolidated Income,Earnings Before Tax Margin,Net Profit Margin
2019-12-31,69856000.0,0.0373318285765,0.0,0.0,0.0,42021000.0,42021000.0,24499000.0,32184000.0,24499000.0,1175000.0,0.0,0.0,23324000.0,0.0,23324000.0,2.68,2.68,8515375.0,8515375.0,0.612539083716,0.0,0.394354099863,0.35070716903300003,0.333886852955,0.411704076958,27548000.0,24499000.0,23324000.0,0.35070716903300003,0.333886852955
2018-12-31,67342000.0,0.11108911217800001,0.0,0.0,0.0,37439000.0,37439000.0,17654000.0,23933000.0,17654000.0,1351000.0,0.0,0.0,16303000.0,0.0,16303000.0,1.86,1.86,8640198.0,8640198.0,0.568968442621,0.0,0.284087196697,0.262154376169,0.24209260194200002,0.367155712631,19131000.0,17654000.0,16303000.0,0.262154376169,0.24209260194200002
2017-12-31,60609000.0,-0.0429351945427,0.0,0.0,0.0,31663000.0,31663000.0,14231000.0,15202000.0,14231000.0,2326000.0,0.0,0.0,11905000.0,0.0,11905000.0,1.36,1.36,8612770.0,8612770.0,0.526892045184,0.0,0.260571862265,0.23480011219500002,0.196422973486,0.34922206273,15793000.0,14231000.0,11905000.0,0.23480011219500002,0.196422973486
2016-12-31,63328000.0,0.0799454297408,0.0,0.0,0.0,31545000.0,31545000.0,17065000.0,14789000.0,17065000.0,2156000.0,0.0,0.0,14909000.0,0.0,14909000.0,1.71,1.71,8573722.0,8573722.0,0.48706967639,0.0,0.293393127842,0.269470060637,0.235425088428,0.40389717028800004,18580000.0,17065000.0,14909000.0,0.269470060637,0.235425088428
2015-12-31,58640000.0,0.271190114893,0.0,0.0,0.0,28543000.0,28543000.0,24891000.0,13831000.0,24891000.0,8377000.0,0.0,0.0,16514000.0,0.0,16514000.0,1.9,1.9,8549176.0,8550322.0,0.44629898148900005,0.0,0.422936562074,0.424471350614,0.281616643929,0.382520463847,24801000.0,24891000.0,16514000.0,0.424471350614,0.281616643929
2014-12-31,46130000.0,0.09559434746470001,0.0,0.0,0.0,21477000.0,21477000.0,21222000.0,11571000.0,21222000.0,7083000.0,0.0,0.0,14139000.0,0.0,14139000.0,3.52,3.51,3929969.0,3948372.0,0.8601013278380001,0.0,0.500585302406,0.460047691307,0.30650336006900003,0.188250596141,23092000.0,21222000.0,14139000.0,0.460047691307,0.30650336006900003
2013-12-31,42105000.0,0.111507087986,0.0,0.0,0.0,18278000.0,18278000.0,13746000.0,11705000.0,0.0,7389000.0,0.0,0.0,13746000.0,0.0,13746000.0,3.5,3.49,3832296.0,3847610.0,0.643256463103,0.0,0.381617385109,0.326469540435,0.326469540435,0.365063531647,16068000.0,13746000.0,13746000.0,0.0,0.326469540435
2012-12-31,37881000.0,1.0,0.0,0.0,0.0,17018000.0,17018000.0,13676000.0,16885000.0,13676000.0,4750000.0,0.0,0.0,8926000.0,0.0,8926000.0,3.3,3.29,2608961.0,2610872.0,0.282664182695,0.0,0.441646207861,0.361025316122,0.235632639054,0.407513001241,16730000.0,13676000.0,8926000.0,0.361025316122,0.235632639054
2011-12-31,0.0,-1.0,0.0,0.0,0.0,0.0,0.0,0.0,0.0,0.0,0.0,0.0,0.0,0.0,0.0,0.0,0.0,0.0,0.0,0.0,0.0,0.0,0.0,0.0,0.0,0.0,0.0,0.0,0.0,0.0,0.0
2010-12-31,31650000.0,0.205301039644,0.0,31650000.0,0.0,18655000.0,28360000.0,3290000.0,0.0,3290000.0,2349000.0,0.0,0.0,941000.0,0.0,941000.0,0.185,0.185,5070190.0,5070190.0,0.14,1.0,0.154,0.1039,0.03,0.3691,4883000.0,3290000.0,941000.0,0.1039,0.0297
2009-12-31,26259000.0,-0.0297,0.0,26259000.0,0.0,17856000.0,24501000.0,1758000.0,0.0,1758000.0,717000.0,0.0,0.0,1041000.0,0.0,1041000.0,0.205,0.205,5078612.0,5078612.0,0.14,1.0,0.099,0.0669,0.04,0.0297,2605000.0,1758000.0,1041000.0,0.0669,0.0396
