,0,1,2,3,4,5,6,7,8,9,10,11,12,13,14,15,16,17,18,19,20,21,22,23,24,25,26,27,28
Date,Cash and cash equivalents,Short-term investments,Cash and short-term investments,Receivables,Inventories,Total current assets,Property Plant & Equipment Net,Goodwill and Intangible Assets,Long-term investments,Tax assets,Total non-current assets,Total assets,Payables,Short-term debt,Total current liabilities,Long-term debt,Total debt,Deferred revenue,Tax Liabilities,Deposit Liabilities,Total non-current liabilities,Total liabilities,Other comprehensive income,Retained earnings (deficit),Total shareholders equity,Investments,Net Debt,Other Assets,Other Liabilities
2018-12-31,3081000.0,492224000.0,495305000.0,10778000.0,0.0,506083000.0,74783000.0,0.0,50796000.0,2826000.0,2497903000.0,3003986000.0,0.0,80521000.0,80521000.0,85500000.0,166021000.0,0.0,0.0,2457459000.0,95274000.0,2640732000.0,278195000.0,71998000.0,363254000.0,543020000.0,162940000.0,0.0,2464937000.0
2017-12-31,20435721.0,356893081.0,377328802.0,6704915.0,0.0,384033717.0,46426031.0,0.0,27053909.0,4348717.0,1429204726.0,1813238443.0,0.0,10310000.0,10310000.0,88072294.0,98382294.0,0.0,0.0,1470564517.0,89624358.0,1590770523.0,157992334.0,53720927.0,222467920.0,383946990.0,77946573.0,0.0,1490836165.0
2016-12-31,69158.0,243205963.0,243275121.0,4358098.0,0.0,247633219.0,34624352.0,0.0,21250476.0,5321850.0,1029734027.0,1277367246.0,0.0,10310000.0,10310000.0,48000000.0,58310000.0,0.0,0.0,1039191262.0,50025678.0,1122840539.0,102110514.0,44476386.0,154526707.0,264456439.0,58240842.0,0.0,1062504861.0
2015-12-31,213621.0,239732426.0,239946047.0,3953338.0,0.0,243899385.0,33623011.0,0.0,14871742.0,4108078.0,901231334.0,1145130719.0,0.0,10310000.0,10310000.0,99981245.0,110291245.0,0.0,0.0,916695112.0,102286614.0,1041694629.0,61309629.0,35624715.0,103436090.0,254604168.0,110077624.0,0.0,929098015.0
2014-12-31,63707.0,254746446.0,254810153.0,3659006.0,0.0,258469159.0,34809843.0,0.0,14463207.0,3992034.0,835298560.0,1093767719.0,0.0,10310000.0,10310000.0,84450067.0,94760067.0,0.0,0.0,892775486.0,86905312.0,997552135.0,61079504.0,27975049.0,96215584.0,269209653.0,94696360.0,0.0,900336823.0
2013-12-31,8314.0,244050671.0,244058985.0,3291887.0,0.0,247350872.0,32071741.0,0.0,6593403.0,3507303.0,693539203.0,940890075.0,0.0,10310000.0,10310000.0,47000000.0,57310000.0,0.0,0.0,779971035.0,48520680.0,855781735.0,58725325.0,22508918.0,85108340.0,250644074.0,57301686.0,0.0,796951055.0
2012-12-31,48525.0,214392682.0,214441207.0,2887287.0,0.0,217328494.0,22242838.0,0.0,6441109.0,287296.0,504056786.0,721385280.0,0.0,10310000.0,10310000.0,31770773.0,42080773.0,0.0,0.0,596626585.0,34495915.0,655499814.0,40267669.0,19951173.0,65885466.0,220833791.0,42032248.0,0.0,610693899.0
2011-12-31,23180953.0,212528385.0,235709338.0,2771676.0,0.0,238481014.0,22990441.0,0.0,6270191.0,0.0,442932233.0,681413247.0,0.0,10310000.0,10310000.0,0.0,10310000.0,0.0,0.0,573394177.0,0.0,620987966.0,39979157.0,16791561.0,60425281.0,218798576.0,-12870953.0,0.0,610677966.0
2010-12-31,33976708.0,,,0.0,0.0,,14993926.0,702213.0,,0.0,,503044775.0,0.0,,,,40416895.0,0.0,0.0,396479419.0,,445946690.0,-576814.0,14722496.0,57098085.0,441175077.0,,,
2009-12-31,15990873.0,,,0.0,0.0,,14279291.0,702213.0,,0.0,,477552269.0,0.0,,,,42347082.0,0.0,0.0,383753904.0,,433935603.0,-101106.0,12943540.0,43616666.0,434507541.0,,,
