,0,1,2,3,4,5,6,7,8,9,10,11,12,13,14,15,16,17,18,19,20,21,22,23,24,25,26,27,28,29,30
Date,Revenue,Revenue Growth,Cost of Revenue,Gross Profit,R&D Expenses,SG&A Expense,Operating Expenses,Operating Income,Interest Expense,Earnings before Tax,Income Tax Expense,Net Income - Non-Controlling int,Net Income - Discontinued ops,Net Income,Preferred Dividends,Net Income Com,EPS,EPS Diluted,Weighted Average Shs Out,Weighted Average Shs Out (Dil),Dividend per Share,Gross Margin,EBITDA Margin,EBIT Margin,Profit Margin,Free Cash Flow margin,EBITDA,EBIT,Consolidated Income,Earnings Before Tax Margin,Net Profit Margin
2019-12-31,216204000.0,-0.20761728843,0.0,0.0,0.0,95973000.0,100831000.0,116276000.0,33903000.0,116276000.0,24230000.0,0.0,0.0,92046000.0,0.0,92046000.0,3.1,3.1,29547851.0,29720499.0,0.459682726054,0.0,0.589827200237,0.5378068860890001,0.425736804129,0.22064346635600002,127523000.0,116276000.0,92046000.0,0.5378068860890001,0.425736804129
2018-12-31,272853000.0,0.281625770329,0.0,272853000.0,0.0,108385000.0,159375000.0,113478000.0,0.0,113478000.0,24189000.0,0.0,0.0,89289000.0,0.0,89289000.0,3.02,3.01,29729285.0,29566259.0,0.4,1.0,0.46299999999999997,0.4159,0.327,0.1409,126318000.0,113478000.0,89289000.0,0.4159,0.3272
2017-12-31,212896000.0,0.429273466976,0.0,212896000.0,0.0,96240000.0,145157000.0,67739000.0,0.0,67739000.0,21767000.0,0.0,0.0,45972000.0,0.0,45972000.0,1.82,1.82,29643990.0,25210606.0,0.32,1.0,0.364,0.3182,0.21600000000000003,0.1049,77472000.0,67739000.0,45972000.0,0.3182,0.2159
2016-12-31,148954000.0,0.06937275200839998,0.0,148954000.0,0.0,74266000.0,106821000.0,42133000.0,0.0,42133000.0,14624000.0,0.0,0.0,27509000.0,175000.0,27334000.0,1.37,1.33,20119411.0,19964727.0,0.32,1.0,0.322,0.2829,0.184,0.2323,47946000.0,42133000.0,27509000.0,0.2829,0.1847
2015-12-31,139291000.0,0.025842895229099997,0.0,139291000.0,0.0,67901000.0,98131000.0,41160000.0,0.0,41160000.0,14126000.0,0.0,0.0,27034000.0,603000.0,26431000.0,1.34,1.3,19785314.0,19767470.0,0.32,1.0,0.33299999999999996,0.2955,0.19,0.2404,46376000.0,41160000.0,27034000.0,0.2955,0.1941
2014-12-31,135782000.0,-0.00544951144837,0.0,135782000.0,0.0,66450000.0,97251000.0,38531000.0,0.0,38531000.0,13535000.0,0.0,0.0,24996000.0,868000.0,24128000.0,1.22,1.19,19705381.0,19699801.0,0.32,1.0,0.324,0.2838,0.17800000000000002,0.3268,43926000.0,38531000.0,24996000.0,0.2838,0.1841
2013-12-31,136526000.0,1.0,0.0,0.0,0.0,54764000.0,55624000.0,32780000.0,10985000.0,32780000.0,12081000.0,0.0,0.0,20699000.0,895000.0,20699000.0,1.01,0.98,19675597.0,20404303.0,0.308611374767,0.0,0.406069173637,0.240100786663,0.151612147137,0.480399337855,55439000.0,32780000.0,20699000.0,0.240100786663,0.151612147137
2012-12-31,0.0,0.0,0.0,0.0,0.0,0.0,0.0,0.0,0.0,0.0,0.0,0.0,0.0,0.0,0.0,0.0,0.0,0.0,0.0,0.0,0.0,0.0,0.0,0.0,0.0,0.0,16117000.0,0.0,0.0,0.0,0.0
2011-12-31,0.0,-1.0,0.0,0.0,0.0,0.0,0.0,0.0,0.0,0.0,0.0,0.0,0.0,0.0,0.0,0.0,0.0,0.0,0.0,0.0,0.0,0.0,0.0,0.0,0.0,0.0,-11628000.0,0.0,0.0,0.0,0.0
2010-12-31,101898000.0,-0.422438615186,0.0,101898000.0,0.0,56416000.0,86956000.0,14942000.0,0.0,14942000.0,4960000.0,0.0,0.0,9982000.0,4107000.0,5875000.0,0.35,0.35,16797070.0,16764879.0,0.32,1.0,0.19399999999999998,0.1466,0.057999999999999996,0.457,19809000.0,14942000.0,9982000.0,0.1466,0.098
2009-12-31,176428000.0,0.8126,0.0,176428000.0,0.0,51993000.0,78551000.0,97877000.0,0.0,97877000.0,37618000.0,0.0,0.0,60259000.0,3972000.0,56287000.0,3.38,3.37,16682166.0,16648822.0,0.32,1.0,0.579,0.5548,0.319,0.0552,102131000.0,97877000.0,60259000.0,0.5548,0.3416
