,0,1,2,3,4,5,6,7,8,9,10,11,12,13,14
Date,Depreciation & Amortization,Stock-based compensation,Operating Cash Flow,Capital Expenditure,Acquisitions and disposals,Investment purchases and sales,Investing Cash flow,Issuance (repayment) of debt,Issuance (buybacks) of shares,Dividend payments,Financing Cash Flow,Effect of forex changes on cash,Net cash flow / Change in cash,Free Cash Flow,Net Cash/Marketcap
2019-12-31,27012000.0,3949000.0,294284000.0,22478000.0,-0.0,626716000.0,-342968000.0,-205000000.0,-1959000.0,-30356000.0,106580000.0,0.0,644099000.0,271806000.0,0.0
2018-12-31,11385000.0,5825000.0,288323000.0,20514000.0,-0.0,384990000.0,-223258000.0,-21434000.0,-2827000.0,-6517000.0,-195257000.0,0.0,-130192000.0,267809000.0,0.0
2017-12-31,13970000.0,7296000.0,235964000.0,9417000.0,-0.0,230480000.0,-73256000.0,-5930000.0,-2497000.0,-2676000.0,254002000.0,0.0,416710000.0,226547000.0,0.0
2016-12-31,16607000.0,6876000.0,199432000.0,10370000.0,-0.0,389154000.0,83194000.0,-7025000.0,-1132000.0,-223000.0,-735399000.0,0.0,-452773000.0,189062000.0,0.0
2015-12-31,24537000.0,6037000.0,261891000.0,12456000.0,-0.0,295777000.0,438979000.0,-0.0,-1173000.0,-0.0,-744520000.0,0.0,-43650000.0,249435000.0,0.0
2014-12-31,30157000.0,4221000.0,264353000.0,22262000.0,-0.0,232100000.0,254733000.0,-0.0,-946000.0,-0.0,-378649000.0,0.0,140437000.0,242091000.0,0.0
2013-12-31,33755000.0,2930000.0,341685000.0,11789000.0,-0.0,330791000.0,-431448000.0,-0.0,455000.0,-0.0,-201417000.0,0.0,-291180000.0,329896000.0,0.0
2012-12-31,34462000.0,826000.0,228852000.0,11937000.0,-0.0,1203065000.0,305082000.0,-0.0,-945814000.0,-0.0,-33649000.0,0.0,500285000.0,216915000.0,0.0
2011-12-31,0.0,0.0,0.0,0.0,-0.0,0.0,0.0,-0.0,0.0,-0.0,0.0,0.0,0.0,0.0,0.0
2010-12-31,23499000.0,93000.0,237170000.0,-31991000.0,0.0,2948920000.0,3018562000.0,-2949036000.0,0.0,0.0,-3589533000.0,0.0,-333801000.0,205179000.0,-0.0063
2009-12-31,20774000.0,92000.0,243249000.0,-40271000.0,0.0,-420616000.0,-381793000.0,473589000.0,0.0,-43066000.0,436895000.0,0.0,298351000.0,202978000.0,-0.0063
