,0,1,2,3,4,5,6,7,8,9,10,11,12,13,14,15,16,17,18,19,20,21,22,23,24,25,26,27,28,29,30
Date,Revenue,Revenue Growth,Cost of Revenue,Gross Profit,R&D Expenses,SG&A Expense,Operating Expenses,Operating Income,Interest Expense,Earnings before Tax,Income Tax Expense,Net Income - Non-Controlling int,Net Income - Discontinued ops,Net Income,Preferred Dividends,Net Income Com,EPS,EPS Diluted,Weighted Average Shs Out,Weighted Average Shs Out (Dil),Dividend per Share,Gross Margin,EBITDA Margin,EBIT Margin,Profit Margin,Free Cash Flow margin,EBITDA,EBIT,Consolidated Income,Earnings Before Tax Margin,Net Profit Margin
2019-12-31,567081000.0,25.158079247199996,0.0,0.0,6891000.0,162374000.0,169265000.0,239372000.0,108816000.0,239372000.0,71995000.0,0.0,0.0,167377000.0,0.0,167377000.0,0.76,0.76,216614.0,217134.0,139.803070915,0.0,0.469745944583,0.422112537715,0.295155365812,0.47930718891999996,266384000.0,239372000.0,167377000.0,0.422112537715,0.295155365812
2018-12-31,21679000.0,-0.9558967431659999,0.0,0.0,6372000.0,159494000.0,165866000.0,190638000.0,99584000.0,190638000.0,10970000.0,0.0,0.0,201608000.0,0.0,201608000.0,0.92,0.92,215709.0,216677.0,30.0770270956,0.0,9.31883389455,8.7936712948,9.29969094515,12.3533834586,202023000.0,190638000.0,201608000.0,8.7936712948,9.29969094515
2017-12-31,491551000.0,0.0153536947604,0.0,0.0,6148000.0,151845000.0,157993000.0,61983000.0,96872000.0,61983000.0,-4973000.0,0.0,0.0,66956000.0,0.0,66956000.0,0.3,0.3,213963000.0,216118000.0,0.012382124580099999,0.0,0.154517028752,0.12609678344699998,0.13621373977499998,0.46088198376199996,75953000.0,61983000.0,66956000.0,0.12609678344699998,0.13621373977499998
2016-12-31,484118000.0,-0.0361322486491,0.0,0.0,6759000.0,151493000.0,158252000.0,130259000.0,101174000.0,130259000.0,37030000.0,0.0,0.0,93229000.0,0.0,93229000.0,0.44,0.43,212818000.0,215794000.0,0.0010333929581,0.0,0.303368187095,0.269064566903,0.192574950735,0.39052875538599996,146866000.0,130259000.0,93229000.0,0.269064566903,0.192574950735
2015-12-31,502266000.0,-0.030511144182400002,508498000.0,-6232000.0,7726000.0,150059000.0,157785000.0,21297000.0,103303000.0,118146000.0,6419000.0,0.0,0.0,21297000.0,0.0,21297000.0,0.1,0.1,211457000.0,212971000.0,0.0,-0.0124077679954,0.091254434901,0.0424018348843,0.0424018348843,0.496619321236,45834000.0,21297000.0,21297000.0,0.235225955968,0.0424018348843
2014-12-31,518073000.0,0.006074435133850001,0.0,0.0,7766000.0,135422000.0,143188000.0,392287000.0,115876000.0,193190000.0,-300649000.0,0.0,0.0,392287000.0,0.0,392287000.0,1.89,1.87,208752000.0,210540000.0,0.0,0.0,0.8154140439669999,0.75720410058,0.75720410058,0.46729128906499995,422444000.0,392287000.0,392287000.0,0.372901116252,0.75720410058
2013-12-31,514945000.0,0.115311725019,0.0,0.0,7401000.0,130969000.0,138370000.0,-164487000.0,130843000.0,-48579000.0,5164000.0,0.0,0.0,-164487000.0,0.0,-164487000.0,-0.8,-0.8,205542000.0,205542000.0,0.0,0.0,-0.253875656624,-0.319426346503,-0.319426346503,0.640643175485,-130732000.0,-164487000.0,-164487000.0,-0.0943382302964,-0.319426346503
2012-12-31,461705000.0,1.0,0.0,0.0,7085000.0,125610000.0,132695000.0,29782000.0,176072000.0,142286000.0,5932000.0,0.0,0.0,29782000.0,0.0,29782000.0,0.15,0.14,205366000.0,205828000.0,0.0,0.0,0.139145125134,0.0645043913321,0.0645043913321,0.46981297581799997,64244000.0,29782000.0,29782000.0,0.308175133473,0.0645043913321
2011-12-31,0.0,-1.0,0.0,0.0,0.0,0.0,0.0,0.0,0.0,0.0,0.0,0.0,0.0,0.0,0.0,0.0,0.0,0.0,0.0,0.0,0.0,0.0,0.0,0.0,0.0,0.0,0.0,0.0,0.0,0.0,0.0
2010-12-31,-55009000.0,-1.67538797761,0.0,-55009000.0,0.0,281513000.0,366158000.0,-421167000.0,0.0,-421167000.0,103141000.0,0.0,0.0,-524308000.0,0.0,-524308000.0,-10.79,-10.79,21303862.0,21303862.0,0.0,1.0,7.229,7.6563,9.531,-3.7299,-397668000.0,-421167000.0,-524308000.0,7.6563,9.5313
2009-12-31,81448000.0,-0.8021,0.0,81448000.0,0.0,270049000.0,352101000.0,-270653000.0,0.0,-270653000.0,4534000.0,0.0,0.0,-275187000.0,0.0,-275187000.0,-52.22,-52.22,6169515.0,6169515.0,2.1,1.0,-3.068,-3.323,-3.3789999999999996,2.4921,-249879000.0,-270653000.0,-275187000.0,-3.323,-3.3787
