,0,1,2,3,4,5,6,7,8,9,10,11,12,13,14,15,16,17,18,19,20,21,22,23,24,25,26,27,28
Date,Cash and cash equivalents,Short-term investments,Cash and short-term investments,Receivables,Inventories,Total current assets,Property Plant & Equipment Net,Goodwill and Intangible Assets,Long-term investments,Tax assets,Total non-current assets,Total assets,Payables,Short-term debt,Total current liabilities,Long-term debt,Total debt,Deferred revenue,Tax Liabilities,Deposit Liabilities,Total non-current liabilities,Total liabilities,Other comprehensive income,Retained earnings (deficit),Total shareholders equity,Investments,Net Debt,Other Assets,Other Liabilities
2019-08-31,27699000.0,3906000.0,27699000.0,73227000.0,3481000.0,119340000.0,18579000.0,71910000.0,0.0,5045000.0,105573000.0,224913000.0,9668000.0,2335000.0,103544000.0,16648000.0,18983000.0,56250000.0,764000.0,0.0,24355000.0,142899000.0,20989000.0,59403000.0,82014000.0,3906000.0,-8716000.0,0.0,15000000.0
2018-08-31,10153000.0,4043000.0,10153000.0,71914000.0,3160000.0,100163000.0,21401000.0,76154000.0,0.0,3222000.0,113712000.0,213875000.0,9790000.0,2092000.0,94844000.0,11337000.0,13429000.0,51888000.0,0.0,0.0,17048000.0,133375000.0,15237000.0,63569000.0,80500000.0,4043000.0,3276000.0,0.0,21483000.0
2017-08-31,8924000.0,4848000.0,8924000.0,66343000.0,3353000.0,91835000.0,19730000.0,81514000.0,0.0,259000.0,118896000.0,210731000.0,9119000.0,1868000.0,80626000.0,4377000.0,6245000.0,40772000.0,0.0,0.0,11152000.0,125666000.0,13589000.0,69456000.0,85065000.0,4848000.0,-2679000.0,0.0,33888000.0
2016-08-31,10456000.0,4882000.0,10456000.0,65960000.0,5042000.0,89741000.0,16083000.0,70099000.0,0.0,0.0,101130000.0,190871000.0,10376000.0,1662000.0,54057000.0,22943000.0,24605000.0,20847000.0,4000.0,0.0,32786000.0,97156000.0,14512000.0,76628000.0,93715000.0,4882000.0,14149000.0,0.0,10313000.0
2015-08-31,16234000.0,7474000.0,16234000.0,65182000.0,3949000.0,95425000.0,15499000.0,73352000.0,0.0,2479000.0,105220000.0,200645000.0,8306000.0,1473000.0,39634000.0,24605000.0,26078000.0,0.0,221000.0,0.0,31703000.0,75139000.0,54349000.0,69612000.0,125506000.0,7474000.0,9844000.0,0.0,3802000.0
2014-08-31,10483000.0,0.0,10483000.0,61490000.0,6367000.0,93016000.0,17271000.0,76818000.0,0.0,4340000.0,112170000.0,205186000.0,12001000.0,1298000.0,42885000.0,26078000.0,27376000.0,0.0,0.0,0.0,31653000.0,78472000.0,65414000.0,58496000.0,126714000.0,0.0,16893000.0,0.0,3934000.0
2013-08-31,12291000.0,0.0,12291000.0,52684000.0,4321000.0,81108000.0,17180000.0,76789000.0,0.0,4685000.0,108297000.0,189405000.0,9294000.0,1139000.0,42938000.0,27376000.0,28515000.0,0.0,1365000.0,0.0,33855000.0,82899000.0,63038000.0,40429000.0,106506000.0,0.0,16224000.0,0.0,6106000.0
2012-08-31,11011000.0,0.0,11011000.0,38087000.0,4161000.0,64195000.0,18496000.0,68377000.0,0.0,3634000.0,99885000.0,164080000.0,7758000.0,992000.0,36649000.0,28515000.0,29507000.0,0.0,869000.0,0.0,35516000.0,73525000.0,59682000.0,26110000.0,90555000.0,0.0,18496000.0,0.0,1360000.0
2011-08-31,3016000.0,0.0,3016000.0,38129000.0,4301000.0,52056000.0,19143000.0,70875000.0,0.0,3005000.0,99371000.0,151427000.0,9154000.0,3149000.0,35401000.0,32215000.0,35364000.0,0.0,4369000.0,0.0,36710000.0,72111000.0,3592000.0,18269000.0,79316000.0,0.0,32348000.0,6610000.0,23098000.0
2010-08-31,3484000.0,0.0,3484000.0,35695000.0,4470000.0,50278000.0,20330000.0,69001000.0,0.0,2543000.0,98727000.0,149005000.0,8509000.0,10266000.0,45716000.0,30364000.0,40630000.0,0.0,1835000.0,0.0,32254000.0,77970000.0,3014000.0,13462000.0,71035000.0,0.0,37146000.0,6629000.0,26941000.0
2009-08-31,1688000.0,0.0,1688000.0,22877000.0,6770000.0,103736000.0,22629000.0,69499000.0,0.0,3059000.0,31570000.0,143878000.0,8758000.0,13570000.0,43304000.0,31098000.0,44668000.0,0.0,0.0,0.0,31570000.0,74874000.0,1961000.0,13980000.0,69004000.0,0.0,42980000.0,8807000.0,20976000.0
