,0,1,2,3,4,5,6,7,8,9,10,11,12,13,14,15,16,17,18,19,20,21,22,23,24,25,26,27,28,29,30
Date,Revenue,Revenue Growth,Cost of Revenue,Gross Profit,R&D Expenses,SG&A Expense,Operating Expenses,Operating Income,Interest Expense,Earnings before Tax,Income Tax Expense,Net Income - Non-Controlling int,Net Income - Discontinued ops,Net Income,Preferred Dividends,Net Income Com,EPS,EPS Diluted,Weighted Average Shs Out,Weighted Average Shs Out (Dil),Dividend per Share,Gross Margin,EBITDA Margin,EBIT Margin,Profit Margin,Free Cash Flow margin,EBITDA,EBIT,Consolidated Income,Earnings Before Tax Margin,Net Profit Margin
2018-12-31,126910344827.5862,-0.00012941226350799998,109208045977.0115,17702298850.5747,3506896551.7241,8411494252.8736,12036781609.1954,5665517241.3793,1213793103.4483,5041379310.3448,894252873.5632,35632183.908,-347126436.7816,4147126436.7816,0.0,4147126436.7816,2.6782,2.6437,2240266042.5287,2240266042.5287,0.0,0.1395,0.1138,0.0493,0.0379,0.0413,12585057471.2644,6255172413.7931,4174712643.6782,0.0397,0.0327
2017-12-31,126926770708.2833,0.139723172204,107695078031.2125,19231692677.0708,3484993997.5990005,8615846338.5354,12204081632.6531,7027611044.4178,1614645858.3433,7297719087.6351,3106842737.0948,34813925.5702,-262905162.0648,4190876350.5402,0.0,4190876350.5402,2.7251,2.6891,2325219070.8283,2325219070.8283,0.0,0.1515,0.1465,0.0702,0.0396,0.0216,15483793517.407,8912364945.9784,4213685474.1897,0.0575,0.033
2016-12-31,111366315789.4737,-0.0725767273195,95712631578.9474,15653684210.5263,3084210526.3158,7776842105.2632,10932631578.9474,4721052631.5789,1955789473.6842,3200000000.0,1302105263.1579,16842105.2632,-106315789.4737,1897894736.8421,0.0,1897894736.8421,1.2526,1.2421,1787260818.9474,1787260818.9474,5.0411,0.1406,0.1042,0.0463,0.0179,0.0222,10996842105.2632,5155789473.6842,1909473684.2105,0.0287,0.017
2015-12-31,120081433224.7557,0.0592403229779,105993485342.0195,14087947882.7362,3109663409.3377,8225841476.6558,11393051031.4875,2694896851.2486,2568946796.9598,542888165.038,180238870.7926,57546145.493999995,-308360477.7416,362649294.2454,0.0,362649294.2454,0.2389,0.2389,1839154475.57,1839154475.57,0.0,0.1173,0.0814,0.0259,0.0033,0.0084,8990228013.0293,3111834961.9978,409337676.4387,0.0045,0.003
2014-12-31,113365617433.414,-0.0249993626631,98779661016.9492,14585956416.4649,2825665859.5642,8441888619.8547,11328087167.0702,3257869249.3947,2483050847.4576,1200968523.0024,513317191.2833,116222760.2906,-330508474.5763,687651331.7191,0.0,687651331.7191,0.563,0.5569,2050679506.0533,2050679506.0533,0.0,0.1287,0.0993,0.0325,0.0073,0.0039,9261501210.6538,3684019370.46,765133171.9128,0.0106,0.0061
2013-12-31,116272352132.0495,0.052163110082900005,100464924346.63,15807427785.4195,3129298486.9326,9099037138.9271,12266850068.7758,3540577716.6437,2735900962.8611,-213204951.8569,-1456671251.7194,2840440165.0619,-334250343.879,1243466299.8624,0.0,1243466299.8624,1.0234,1.0124,2329932973.8652,2329932973.8652,0.0,0.136,0.1004,0.0217,0.0151,0.0047,8525447042.641,2522696011.0041,2683631361.7607,-0.0018,0.0107
2012-12-31,110507915567.2823,0.432396628854,94291556728.2322,16216358839.0501,2451187335.0923,8937994722.9551,11408970976.2533,4807387862.7968,2519788918.2058,886543535.6201,828496042.2164,1124010554.0897,0.0,58047493.4037,0.0,58047493.4037,0.0475,0.0475,,,0.0,0.1467,0.1069,0.0308,0.0013,-0.0128,8948548812.6649,3406332453.8259,1182058047.4934,0.008,0.0005
2011-12-31,77148963730.5699,,66123056994.8187,11025906735.7513,1794041450.7772,6582901554.4041,8509067357.5130005,2516839378.2383,1760362694.3005,2244818652.8497,691709844.5596,257772020.7254,0.0,1553108808.2902,0.0,1553108808.2902,1.2461,1.237,,,0.0,0.1429,0.1399,0.0519,0.0259,-0.0056,8354922279.7927,4005181347.1503,1810880829.0155,0.0291,0.0201
