,0,1,2,3,4,5,6,7,8,9,10,11,12,13,14
Date,Depreciation & Amortization,Stock-based compensation,Operating Cash Flow,Capital Expenditure,Acquisitions and disposals,Investment purchases and sales,Investing Cash flow,Issuance (repayment) of debt,Issuance (buybacks) of shares,Dividend payments,Financing Cash Flow,Effect of forex changes on cash,Net cash flow / Change in cash,Free Cash Flow,Net Cash/Marketcap
2018-12-31,6329885057.4713,0.0,11434482758.6207,-6197701149.4253,-3448275.8621,-863218390.8046,-7744827586.2069,-3109195402.2989,0.0,-1149425.2874,-3201149425.2874,121839080.4598,610344827.5862,5236781609.1954,-0.0824
2017-12-31,6571428571.4286,0.0,12466986794.7179,-9729891956.7827,-10804321.7287,-789915966.3866,-11159663865.5462,-5142857142.8571,0.0,-1200480.1921,-5369747899.1597,-1555822328.9316,-5618247298.9196,2737094837.9352,-0.0184
2016-12-31,5841052631.5789,0.0,11151578947.3684,-8674736842.1053,-118947368.4211,-138947368.4211,-9514736842.1053,-5251578947.3684,0.0,-18947368.4211,-5396842105.2632,240000000.0,-3520000000.0,2476842105.2632,-0.0184
2015-12-31,5878393051.0315,0.0,10587404994.5711,-9575461454.9403,-288816503.8002,185667752.443,-10097719869.7068,-6284473398.4799,0.0,-307274701.4115,-3396308360.4777,739413680.7818,-2167209554.8317,1011943539.6308,-0.0184
2014-12-31,5577481840.1937,0.0,9889830508.4746,-9447941888.6199,-20581113.8015,188861985.4722,-9854721549.6368,2438256658.5956,176755447.9419,0.0,2587167070.2179,1475786924.9395,4098062953.9952,441888619.8547,-0.0184
2013-12-31,6002751031.6369,0.0,10478679504.8143,-9929848693.26,-228335625.8597,-569463548.8308,-11078404401.6506,3436038514.4429,5502063.2737,-1375515.8184,4313617606.6025,-1253094910.5915,2460797799.1747,548830811.5543,-0.0184
2012-12-31,5542216358.8391,0.0,8564643799.4723,-9978891820.5805,-13192612.1372,-75197889.1821,-9949868073.8786,1945910290.2375,29023746.7018,-76517150.3958,2124010554.0897,-554089709.7625,184696569.9208,-1414248021.1082,-0.0184
2011-12-31,4349740932.6425,0.0,6729274611.399,-7160621761.658001,7138601036.2694,-1471502590.6736,-1111398963.7306,-2194300518.1347,53108808.2902,-234455958.5492,818652849.7409,764248704.6632,7200777202.0725,-431347150.2591,-0.0184
