,0,1,2,3,4,5,6,7,8,9,10,11,12,13,14,15,16,17,18,19,20,21,22,23,24,25,26,27,28,29,30
Date,Revenue,Revenue Growth,Cost of Revenue,Gross Profit,R&D Expenses,SG&A Expense,Operating Expenses,Operating Income,Interest Expense,Earnings before Tax,Income Tax Expense,Net Income - Non-Controlling int,Net Income - Discontinued ops,Net Income,Preferred Dividends,Net Income Com,EPS,EPS Diluted,Weighted Average Shs Out,Weighted Average Shs Out (Dil),Dividend per Share,Gross Margin,EBITDA Margin,EBIT Margin,Profit Margin,Free Cash Flow margin,EBITDA,EBIT,Consolidated Income,Earnings Before Tax Margin,Net Profit Margin
2018-12-31,57757000.0,0.473505625431,0.0,57757000.0,0.0,24357000.0,36192000.0,21565000.0,0.0,21565000.0,6435000.0,0.0,0.0,15130000.0,0.0,15130000.0,1.66,1.64,11758183.0,9015203.0,0.6,1.0,0.389,0.3734,0.262,-0.0081,22481000.0,21565000.0,15130000.0,0.3734,0.262
2017-12-31,39197000.0,0.0,0.0,39197000.0,0.0,18855000.0,23754000.0,15443000.0,0.0,15443000.0,8089000.0,0.0,0.0,7354000.0,0.0,7354000.0,1.02,1.02,7000000.0,7102683.0,0.0,1.0,0.40700000000000003,0.39399999999999996,0.188,0.2795,15969000.0,15443000.0,7354000.0,0.39399999999999996,0.1876
2016-12-31,,0.0,,34130000.0,,,19423000.0,13807000.0,0.0,,5868000.0,,,,,8349000.0,1.19,1.18,7000000.0,,,,,,,,,0.0,,,
2015-12-31,,,,27717357.0,,,18441185.0,9276172.0,0.0,,,,,,,,,,,,,,,,,,,0.0,,,
