,0,1,2,3,4,5,6,7,8,9,10,11,12,13,14
Date,Depreciation & Amortization,Stock-based compensation,Operating Cash Flow,Capital Expenditure,Acquisitions and disposals,Investment purchases and sales,Investing Cash flow,Issuance (repayment) of debt,Issuance (buybacks) of shares,Dividend payments,Financing Cash Flow,Effect of forex changes on cash,Net cash flow / Change in cash,Free Cash Flow,Net Cash/Marketcap
2019-10-31,18450000.0,2804000.0,-30572000.0,2151000.0,-0.0,0.0,-69300000.0,-48395000.0,-6434000.0,-500000.0,59655000.0,-244000.0,-40461000.0,-32723000.0,0.0
2018-10-31,14605000.0,3238000.0,16322000.0,10028000.0,-0.0,0.0,-51260000.0,-16616000.0,-31291000.0,-500000.0,27717000.0,12000.0,-7209000.0,6294000.0,0.0
2017-10-31,14774000.0,4585000.0,-71845000.0,12351000.0,-0.0,0.0,-31315000.0,-8571000.0,-36694000.0,-500000.0,72292000.0,129000.0,-30868000.0,-84196000.0,0.0
2016-10-31,8156000.0,3425000.0,-46595000.0,7726000.0,-0.0,0.0,-41452000.0,-30452000.0,-13258000.0,-500000.0,120658000.0,-35000.0,32576000.0,-54321000.0,0.0
2015-10-31,5929000.0,3157000.0,-44274000.0,6930000.0,-0.0,0.0,-6930000.0,-1535000.0,-31792000.0,-500000.0,26454000.0,-108000.0,-24858000.0,-51204000.0,0.0
2014-10-31,6524000.0,2908000.0,-57468000.0,7079000.0,-0.0,0.0,-7079000.0,-5971000.0,22134000.0,-0.0,80821000.0,-260000.0,16014000.0,-64547000.0,0.0
2013-10-31,6577000.0,2226000.0,-16658000.0,6551000.0,-0.0,0.0,-6194000.0,-374000.0,-62656000.0,-0.0,43634000.0,35000.0,20817000.0,-23209000.0,0.0
2012-10-31,7210000.0,2054000.0,-58659000.0,4453000.0,-0.0,0.0,7598000.0,-173000.0,6489000.0,-500000.0,57160000.0,51000.0,6099000.0,-63112000.0,0.0
2011-10-31,0.0,0.0,0.0,0.0,-0.0,0.0,0.0,-0.0,0.0,-0.0,0.0,0.0,0.0,0.0,0.0
2010-10-31,7438000.0,2965000.0,-34992000.0,-2481000.0,0.0,-27777000.0,-30258000.0,-377000.0,31953000.0,0.0,27881000.0,13000.0,-37356000.0,-37473000.0,0.3142
2009-10-31,8591000.0,4815000.0,-65203000.0,-2588000.0,0.0,40400000.0,37812000.0,199000.0,50605000.0,0.0,47173000.0,-2000.0,19780000.0,-67791000.0,0.2353
