,0,1,2,3,4,5,6,7,8,9,10,11,12,13,14
Date,Depreciation & Amortization,Stock-based compensation,Operating Cash Flow,Capital Expenditure,Acquisitions and disposals,Investment purchases and sales,Investing Cash flow,Issuance (repayment) of debt,Issuance (buybacks) of shares,Dividend payments,Financing Cash Flow,Effect of forex changes on cash,Net cash flow / Change in cash,Free Cash Flow,Net Cash/Marketcap
2019-12-31,28362000.0,3602000.0,104673000.0,205154000.0,-0.0,0.0,-207353000.0,-0.0,-5083000.0,-78488000.0,14521000.0,0.0,-88159000.0,-100481000.0,0.0
2018-12-31,24188000.0,3967000.0,80882000.0,268266000.0,-0.0,0.0,-247046000.0,-1481000.0,4284000.0,-69494000.0,190034000.0,0.0,23871000.0,-187384000.0,0.0
2017-12-31,23955000.0,2676000.0,78945000.0,95112000.0,-0.0,0.0,-85319000.0,-5500000.0,-32321000.0,-58695000.0,44197000.0,0.0,37823000.0,-16167000.0,0.0
2016-12-31,22167000.0,1550000.0,70939000.0,83263000.0,-0.0,0.0,-59322000.0,-0.0,-26003000.0,-121604000.0,-83047000.0,0.0,-71430000.0,-12324000.0,0.0
2015-12-31,4023000.0,101000.0,21693000.0,556000.0,-0.0,0.0,-556000.0,-7964000.0,-98073000.0,-0.0,76929000.0,0.0,98066000.0,21137000.0,0.0
2014-12-31,863000.0,117000.0,961000.0,-55000.0,0.0,0.0,-55000.0,0.0,0.0,0.0,-906000.0,0.0,0.0,906000.0,0.0
2013-12-31,875000.0,118000.0,914000.0,-26000.0,0.0,0.0,-26000.0,0.0,0.0,0.0,-888000.0,0.0,0.0,888000.0,0.0
