,0,1,2,3,4,5,6,7,8,9,10,11,12,13,14
Date,Depreciation & Amortization,Stock-based compensation,Operating Cash Flow,Capital Expenditure,Acquisitions and disposals,Investment purchases and sales,Investing Cash flow,Issuance (repayment) of debt,Issuance (buybacks) of shares,Dividend payments,Financing Cash Flow,Effect of forex changes on cash,Net cash flow / Change in cash,Free Cash Flow,Net Cash/Marketcap
2018-12-31,,,49000000.0,,,,,,,,-39000000.0,,9000000.0,,
2017-12-31,,,46000000.0,,,,,,,,-16000000.0,,29000000.0,,
2016-12-31,,,18000000.0,,,,,,,,-29000000.0,,-11000000.0,,
2015-12-31,,,-403000000.0,,,,,,,,415000000.0,,13000000.0,,
