,0,1,2,3,4,5,6,7,8,9,10,11,12,13,14,15,16,17,18,19,20,21,22,23,24,25,26,27,28,29,30
Date,Revenue,Revenue Growth,Cost of Revenue,Gross Profit,R&D Expenses,SG&A Expense,Operating Expenses,Operating Income,Interest Expense,Earnings before Tax,Income Tax Expense,Net Income - Non-Controlling int,Net Income - Discontinued ops,Net Income,Preferred Dividends,Net Income Com,EPS,EPS Diluted,Weighted Average Shs Out,Weighted Average Shs Out (Dil),Dividend per Share,Gross Margin,EBITDA Margin,EBIT Margin,Profit Margin,Free Cash Flow margin,EBITDA,EBIT,Consolidated Income,Earnings Before Tax Margin,Net Profit Margin
2019-12-31,841517000.0,-0.238439951095,33585000.0,807932000.0,0.0,29841000.0,29841000.0,-197884000.0,0.0,-320448000.0,0.0,0.0,0.0,-320448000.0,0.0,-320448000.0,-2.2,-2.17,145908000.0,80953000.0,0.0,0.960089932824,-0.0359089596526,-0.235151518032,-0.380798011211,-0.0188195841558,-30218000.0,-197884000.0,-320448000.0,0.0,-0.380798011211
2018-12-31,1104991000.0,1.0,33071000.0,1071920000.0,0.0,39568000.0,39568000.0,84523000.0,18400000.0,-61613000.0,0.0,0.0,0.0,-61613000.0,0.0,-61613000.0,-0.43,-0.32,144971000.0,80016000.0,0.0,0.970071249449,0.349649906651,0.0764920257269,-0.055758825185,0.044543349221800005,386360000.0,84523000.0,-61613000.0,0.0,-0.055758825185
2017-12-31,0.0,-1.0,0.0,0.0,0.0,0.0,0.0,0.0,0.0,0.0,0.0,0.0,0.0,0.0,0.0,0.0,0.0,0.0,0.0,0.0,0.0,0.0,0.0,0.0,0.0,0.0,0.0,0.0,0.0,0.0,0.0
2016-12-31,875832000.0,-0.11069773864700001,13921000.0,861911000.0,0.0,25265000.0,25265000.0,22729000.0,16300000.0,-178789000.0,0.0,0.0,0.0,-178789000.0,0.0,-178789000.0,-1.37,-1.37,130784000.0,65829000.0,0.0,0.984105399209,0.227807387718,0.0259513239982,-0.204136181368,0.194827318481,199521000.0,22729000.0,-178789000.0,0.0,-0.204136181368
2015-12-31,984853000.0,1.0,3319000.0,981534000.0,0.0,31357000.0,31357000.0,82557000.0,18800000.0,-39454000.0,0.0,0.0,0.0,-39454000.0,0.0,-39454000.0,-0.3,-0.25,130032000.0,65098000.0,0.0,0.996629953912,0.289230981679,0.083826723379,-0.040060800952,0.117160632094,284850000.0,82557000.0,-39454000.0,0.0,-0.040060800952
2014-12-31,0.0,-1.0,449905000.0,0.0,0.0,33679000.0,33679000.0,257056000.0,113030000.0,135200000.0,0.0,0.0,0.0,135200000.0,0.0,135200000.0,0.54,0.54,129529000.0,64790000.0,0.0,0.0,0.0,0.0,0.0,0.0,431117000.0,257056000.0,135200000.0,0.0,0.0
2013-12-31,1109404000.0,0.15875297155200002,689315000.0,420089000.0,0.0,33683000.0,236934000.0,183155000.0,113030000.0,137567000.0,0.0,2256000.0,0.0,8517000.0,0.0,70192000.0,0.54,0.54,129525170.0,,0.0,0.3787,0.299,0.2259,0.009000000000000001,-0.0308,286591000.0,250597000.0,10773000.0,0.124,0.0089
2012-12-31,957412000.0,0.131845189541,559662000.0,397750000.0,0.0,32295000.0,195699000.0,202051000.0,115897000.0,8517000.0,0.0,-160000.0,0.0,125831000.0,0.0,8517000.0,,,,,0.0,0.4154,0.39399999999999996,0.1299,0.149,0.0031,332963000.0,124414000.0,125671000.0,0.0089,0.1488
2011-12-31,845886000.0,0.6891,481480000.0,364406000.0,0.0,41528000.0,156155000.0,208251000.0,82580000.0,125831000.0,0.0,104000.0,0.0,82093000.0,0.0,125831000.0,,,,,0.0,0.4308,0.381,0.2464,0.16399999999999998,-0.4586,190697000.0,208411000.0,82197000.0,0.1488,0.1639
