,0,1,2,3,4,5,6,7,8,9,10,11,12,13,14
Date,Depreciation & Amortization,Stock-based compensation,Operating Cash Flow,Capital Expenditure,Acquisitions and disposals,Investment purchases and sales,Investing Cash flow,Issuance (repayment) of debt,Issuance (buybacks) of shares,Dividend payments,Financing Cash Flow,Effect of forex changes on cash,Net cash flow / Change in cash,Free Cash Flow,Net Cash/Marketcap
2019-12-31,12231000.0,21000.0,34638000.0,6971000.0,-0.0,11288000.0,4219000.0,-0.0,-243331000.0,-10498000.0,-10498000.0,0.0,28359000.0,27667000.0,0.0
2018-12-31,11113000.0,357000.0,85613000.0,4867000.0,-0.0,28571000.0,25406000.0,-0.0,-214972000.0,-10498000.0,-10674000.0,0.0,100345000.0,80746000.0,0.0
2017-12-31,11762000.0,998000.0,39347000.0,3581000.0,-0.0,-7705000.0,-13183000.0,-0.0,-114627000.0,-110688000.0,-110809000.0,0.0,-84645000.0,35766000.0,0.0
2016-12-31,10963000.0,1908000.0,90975000.0,4495000.0,-0.0,-30177000.0,-35207000.0,-0.0,-199059000.0,-10493000.0,-10545000.0,0.0,45223000.0,86480000.0,0.0
2015-12-31,10187000.0,2043000.0,39623000.0,8630000.0,-0.0,9410000.0,2025000.0,-721000.0,-154049000.0,-10493000.0,-11678000.0,0.0,29970000.0,30993000.0,0.0
2014-12-31,8981000.0,1440000.0,51952000.0,8117000.0,-0.0,15729000.0,6708000.0,-0.0,-124079000.0,-20928000.0,-21044000.0,0.0,37616000.0,43835000.0,0.0
2013-12-31,10316000.0,0.0,62454000.0,18542000.0,-0.0,-8150000.0,-24111000.0,-0.0,-67171000.0,-29904000.0,-10617000.0,0.0,27726000.0,43912000.0,0.0
2012-12-31,10454000.0,281000.0,64888000.0,9112000.0,-0.0,-25108000.0,-32613000.0,-0.0,-55588000.0,-66538000.0,-63283000.0,0.0,-31008000.0,55776000.0,0.0
2011-12-31,9098000.0,0.0,0.0,23208000.0,-0.0,-47124000.0,-51367000.0,-0.0,-73873000.0,-16254000.0,-374000.0,0.0,-1312000.0,-23208000.0,0.0
2010-12-31,7564000.0,0.0,17839000.0,-9668000.0,0.0,-13000.0,-30767000.0,0.0,70736000.0,-31053000.0,38473000.0,0.0,25545000.0,8171000.0,0.2989
2009-12-31,7517000.0,873000.0,25883000.0,-23145000.0,-312000.0,44887000.0,21430000.0,0.0,0.0,-8457000.0,-9256000.0,0.0,38057000.0,2738000.0,0.2989
