,0,1,2,3,4,5,6,7,8,9,10,11,12,13,14
Date,Depreciation & Amortization,Stock-based compensation,Operating Cash Flow,Capital Expenditure,Acquisitions and disposals,Investment purchases and sales,Investing Cash flow,Issuance (repayment) of debt,Issuance (buybacks) of shares,Dividend payments,Financing Cash Flow,Effect of forex changes on cash,Net cash flow / Change in cash,Free Cash Flow,Net Cash/Marketcap
2019-12-31,-11000.0,338000.0,2741000.0,96000.0,-0.0,-4967000.0,5821000.0,-0.0,-1461000.0,-0.0,26327000.0,0.0,34889000.0,2645000.0,0.0
2018-12-31,-184000.0,18000.0,2030000.0,109000.0,-0.0,8091000.0,-14666000.0,-0.0,-4488000.0,-0.0,5311000.0,0.0,-7325000.0,1921000.0,0.0
2017-12-31,-70000.0,0.0,1999000.0,99000.0,-0.0,11789000.0,3394000.0,-0.0,-11813000.0,-0.0,-1575000.0,0.0,3818000.0,1900000.0,0.0
2016-12-31,473000.0,0.0,1999000.0,-74000.0,0.0,3382000.0,3394000.0,-2000000.0,0.0,0.0,-1575000.0,0.0,3818000.0,1925000.0,-0.7119
2015-12-31,329000.0,0.0,954000.0,-4502000.0,0.0,404000.0,-5602000.0,9510000.0,0.0,0.0,378000.0,0.0,-4270000.0,-3548000.0,-0.7119
