,0,1,2,3,4,5,6,7,8,9,10,11,12,13,14
Date,Depreciation & Amortization,Stock-based compensation,Operating Cash Flow,Capital Expenditure,Acquisitions and disposals,Investment purchases and sales,Investing Cash flow,Issuance (repayment) of debt,Issuance (buybacks) of shares,Dividend payments,Financing Cash Flow,Effect of forex changes on cash,Net cash flow / Change in cash,Free Cash Flow,Net Cash/Marketcap
2019-12-31,25875000.0,1200000.0,213054000.0,0.0,-0.0,-817264000.0,-154611000.0,-55000000.0,-17277000.0,-84474000.0,-60201000.0,0.0,-1758000.0,213054000.0,0.0
2018-12-31,36371000.0,1700000.0,239177000.0,0.0,-0.0,-705250000.0,-211892000.0,-27000000.0,-19035000.0,-83128000.0,-60946000.0,0.0,-33661000.0,239177000.0,0.0
2017-12-31,25016000.0,1900000.0,241718000.0,0.0,-0.0,-690013000.0,-235402000.0,-0.0,-52696000.0,-81401000.0,12797000.0,0.0,19113000.0,241718000.0,0.0
2016-12-31,30898000.0,2300000.0,239794000.0,0.0,-0.0,-829184000.0,-387516000.0,-15000000.0,-33583000.0,-91602000.0,151815000.0,0.0,4093000.0,239794000.0,0.0
2015-12-31,38306000.0,1700000.0,224910000.0,0.0,-0.0,-871406000.0,-369357000.0,-0.0,-29490000.0,-89347000.0,97305000.0,0.0,-47142000.0,224910000.0,0.0
2014-12-31,37171000.0,1000000.0,208758000.0,0.0,-0.0,-777547000.0,-308643000.0,-0.0,-76632000.0,-34749000.0,170147000.0,0.0,70262000.0,208758000.0,0.0
2013-12-31,33076000.0,1000000.0,182275000.0,0.0,-0.0,-893555000.0,-277961000.0,-50000000.0,-6370000.0,-64775000.0,23982000.0,0.0,-71704000.0,182275000.0,0.0
2012-12-31,43466000.0,200000.0,206479000.0,0.0,-0.0,-1086107000.0,-548706000.0,-174258000.0,-78074000.0,-11082000.0,123962000.0,0.0,-218265000.0,206479000.0,0.0
2011-12-31,157416000.0,0.0,359426000.0,0.0,-0.0,-1769476000.0,272128000.0,-211627000.0,-302208000.0,-8917000.0,-340009000.0,0.0,291545000.0,359426000.0,0.0
2010-12-31,0.0,0.0,515751000.0,-5572000.0,0.0,-650479000.0,-657800000.0,0.0,4244000.0,-7709000.0,135153000.0,0.0,-6896000.0,510179000.0,-0.0291
2009-12-31,0.0,0.0,359054000.0,-833000.0,0.0,265511000.0,239703000.0,-60000000.0,2437000.0,-9500000.0,-624777000.0,0.0,-26020000.0,358221000.0,-0.0291
