,0,1,2,3,4,5,6,7,8,9,10,11,12,13,14
Date,Depreciation & Amortization,Stock-based compensation,Operating Cash Flow,Capital Expenditure,Acquisitions and disposals,Investment purchases and sales,Investing Cash flow,Issuance (repayment) of debt,Issuance (buybacks) of shares,Dividend payments,Financing Cash Flow,Effect of forex changes on cash,Net cash flow / Change in cash,Free Cash Flow,Net Cash/Marketcap
2019-12-31,25074000.0,66267000.0,-78705000.0,5762000.0,-0.0,0.0,120018000.0,-403000.0,-105488000.0,-0.0,-4300000.0,-5000.0,37008000.0,-84467000.0,0.0
2018-12-31,6604000.0,52142000.0,-76144000.0,8020000.0,-0.0,0.0,-522123000.0,-403000.0,-59411000.0,-0.0,13875000.0,-8000.0,-584400000.0,-84164000.0,0.0
2017-12-31,7943000.0,37539000.0,-66513000.0,8500000.0,-0.0,57421000.0,69866000.0,-0.0,-638748000.0,-0.0,496472000.0,51000.0,499876000.0,-75013000.0,0.0
2016-12-31,8769000.0,32132000.0,7108000.0,1252000.0,-0.0,12617000.0,6622000.0,-0.0,-163901000.0,-0.0,6738000.0,-10000.0,20458000.0,5856000.0,0.0
2015-12-31,8676000.0,27681000.0,-18571000.0,1977000.0,-0.0,22501000.0,-5868000.0,-403000.0,-140575000.0,-0.0,12346000.0,-38000.0,-12131000.0,-20548000.0,0.0
2014-12-31,4470000.0,18698000.0,22414000.0,-8108000.0,0.0,-99181000.0,-107289000.0,-403000.0,177630000.0,0.0,174092000.0,-94000.0,89123000.0,14306000.0,0.0593
2013-12-31,5084000.0,3444000.0,25918000.0,-6804000.0,0.0,17582000.0,10778000.0,421000.0,84000.0,0.0,680000.0,84000.0,37460000.0,19114000.0,0.07
2012-12-31,5598000.0,4561000.0,-5605000.0,-742000.0,0.0,19894000.0,19152000.0,-714000.0,150000.0,0.0,6807000.0,-66000.0,20288000.0,-6347000.0,0.07
