,0,1,2,3,4,5,6,7,8,9,10,11,12,13,14,15,16,17,18,19,20,21,22,23,24,25,26,27,28
Date,Cash and cash equivalents,Short-term investments,Cash and short-term investments,Receivables,Inventories,Total current assets,Property Plant & Equipment Net,Goodwill and Intangible Assets,Long-term investments,Tax assets,Total non-current assets,Total assets,Payables,Short-term debt,Total current liabilities,Long-term debt,Total debt,Deferred revenue,Tax Liabilities,Deposit Liabilities,Total non-current liabilities,Total liabilities,Other comprehensive income,Retained earnings (deficit),Total shareholders equity,Investments,Net Debt,Other Assets,Other Liabilities
2019-12-31,694017000.0,4075644000.0,4769661000.0,45239000.0,0.0,4814900000.0,316885000.0,0.0,333642000.0,107713000.0,15351834000.0,20166734000.0,0.0,400000000.0,550813000.0,200019000.0,600019000.0,1800000.0,149013000.0,16444994000.0,253962000.0,17526476000.0,2233536000.0,437072000.0,2640258000.0,4409286000.0,-93998000.0,0.0,16721701000.0
2018-12-31,1003637000.0,4498342000.0,5501979000.0,48920000.0,0.0,5550899000.0,304996000.0,0.0,606801000.0,144557000.0,15144779000.0,20695678000.0,0.0,26000.0,146720000.0,600026000.0,600052000.0,2600000.0,144094000.0,17150068000.0,636734000.0,18170839000.0,2363718000.0,291919000.0,2524839000.0,5105143000.0,-403585000.0,0.0,17387385000.0
2017-12-31,1034644000.0,5234658000.0,6269302000.0,47987000.0,0.0,6317289000.0,289215000.0,1008688000.0,667560000.0,127494000.0,14232172000.0,20549461000.0,0.0,0.0,141279000.0,34000.0,34000.0,0.0,141279000.0,17612122000.0,29029000.0,18016910000.0,2488361000.0,139177000.0,2532551000.0,5902218000.0,-1034610000.0,0.0,17846602000.0
2016-12-31,1052058000.0,5077514000.0,6129572000.0,41971000.0,0.0,6171543000.0,300788000.0,1012301000.0,798231000.0,202818000.0,13490286000.0,19661829000.0,0.0,9151000.0,146201000.0,41000.0,9192000.0,0.0,137050000.0,16794532000.0,51023000.0,17185344000.0,2484251000.0,78850000.0,2476485000.0,5875745000.0,-1042866000.0,0.0,16988120000.0
2015-12-31,2650195000.0,0.0,2650195000.0,0.0,0.0,2695566000.0,305104000.0,1016927000.0,2361000000.0,0.0,,19352681000.0,133910000.0,0.0,16301197000.0,41000000000.0,216199000.0,0.0,0.0,16061924000.0,,16615740000.0,-51259000.0,0.0,2736941000.0,14613811000.0,,,16167287000.0
2014-12-31,1261453000.0,,,0.0,0.0,,307460000.0,1020683000.0,,0.0,,18133696000.0,138764000.0,,,,386205000.0,0.0,0.0,14725379000.0,,15458656000.0,-51457000.0,,2675040000.0,14866746000.0,,,
