,0,1,2,3,4,5,6,7,8,9,10,11,12,13,14,15,16,17,18,19,20,21,22,23,24,25,26,27,28
Date,Cash and cash equivalents,Short-term investments,Cash and short-term investments,Receivables,Inventories,Total current assets,Property Plant & Equipment Net,Goodwill and Intangible Assets,Long-term investments,Tax assets,Total non-current assets,Total assets,Payables,Short-term debt,Total current liabilities,Long-term debt,Total debt,Deferred revenue,Tax Liabilities,Deposit Liabilities,Total non-current liabilities,Total liabilities,Other comprehensive income,Retained earnings (deficit),Total shareholders equity,Investments,Net Debt,Other Assets,Other Liabilities
2019-12-31,369268000.0,4445403000.0,4814671000.0,697888000.0,0.0,5512559000.0,455006000.0,1562987000.0,482405000.0,250603000.0,37798341000.0,43310900000.0,0.0,505581000.0,529997000.0,0.0,505581000.0,0.0,24416000.0,32429535000.0,181602000.0,38530323000.0,3027075000.0,1798442000.0,4780577000.0,4927808000.0,136313000.0,0.0,37818724000.0
2018-12-31,334485000.0,4626470000.0,4960955000.0,622763000.0,0.0,5583718000.0,494041000.0,1587821000.0,1277611000.0,254624000.0,35248540000.0,40832258000.0,0.0,335380000.0,355564000.0,0.0,335380000.0,0.0,20184000.0,32682992000.0,126757000.0,36342309000.0,3125049000.0,1542408000.0,4489949000.0,5904081000.0,895000.0,0.0,35859988000.0
2017-12-31,254938000.0,5170255000.0,5425193000.0,529516000.0,0.0,5954709000.0,532251000.0,1571242000.0,1185600000.0,353200000.0,35468679000.0,41423388000.0,0.0,638515000.0,642815000.0,0.0,638515000.0,0.0,4300000.0,30620362000.0,131396000.0,37138331000.0,3243237000.0,1160434000.0,4285057000.0,6355855000.0,383577000.0,0.0,36364120000.0
2016-12-31,226326000.0,3943499000.0,4169825000.0,466257000.0,0.0,4636082000.0,289385000.0,212388000.0,1060034000.0,297016000.0,23919149000.0,28555231000.0,0.0,561848000.0,566092000.0,0.0,561848000.0,0.0,4244000.0,22672363000.0,97403000.0,26145578000.0,1482260000.0,1029032000.0,2409653000.0,5003533000.0,335522000.0,0.0,25482083000.0
2015-12-31,138139000.0,3929846000.0,4067985000.0,565285000.0,0.0,4633270000.0,275619000.0,217522000.0,602836000.0,352642000.0,21561866000.0,26195136000.0,0.0,566019000.0,569692000.0,0.0,566019000.0,0.0,3673000.0,19967478000.0,93323000.0,23850981000.0,1534927000.0,874303000.0,2344155000.0,4532682000.0,427880000.0,0.0,23187966000.0
2014-12-31,167562000.0,3556613000.0,3724175000.0,450661000.0,0.0,4174836000.0,302996000.0,175450000.0,1621967000.0,370408000.0,21498051000.0,25672887000.0,0.0,594314000.0,599521000.0,0.0,594314000.0,0.0,5207000.0,18068939000.0,86044000.0,23377350000.0,1476433000.0,860963000.0,2295537000.0,5178580000.0,426752000.0,0.0,22691785000.0
2013-12-31,81271000.0,3398457000.0,3479728000.0,239141000.0,0.0,3718869000.0,305244000.0,163931000.0,730297000.0,405717000.0,20070964000.0,23789833000.0,0.0,368348000.0,374969000.0,0.0,368348000.0,0.0,6621000.0,16734956000.0,130007000.0,21584513000.0,1512391000.0,695207000.0,2205320000.0,4128754000.0,287077000.0,0.0,21079537000.0
2012-12-31,20421000.0,3061808000.0,3082229000.0,223753000.0,0.0,3305982000.0,303273000.0,156942000.0,353373000.0,430297000.0,22214158000.0,25520140000.0,0.0,564429000.0,582067000.0,500000000.0,1064429000.0,0.0,17638000.0,16629709000.0,669035000.0,23306099000.0,1488463000.0,719672000.0,2214041000.0,3415181000.0,1044008000.0,0.0,22054997000.0
2011-12-31,828255000.0,3066272000.0,3894527000.0,0.0,0.0,3894527000.0,321253000.0,159902000.0,452856000.0,339348000.0,20894857000.0,24789384000.0,0.0,347285000.0,380261000.0,500000000.0,847285000.0,0.0,32976000.0,16213009000.0,673505000.0,22399912000.0,1601346000.0,757364000.0,2389472000.0,3519128000.0,19030000.0,0.0,21346146000.0
2010-12-31,0.0,0.0,0.0,0.0,0.0,0.0,0.0,0.0,0.0,0.0,0.0,0.0,0.0,0.0,0.0,0.0,0.0,0.0,0.0,0.0,0.0,0.0,0.0,0.0,0.0,0.0,0.0,0.0,0.0
2009-12-31,1457895000.0,,,334404000.0,0.0,,313824000.0,203784000.0,,0.0,,26068678000.0,292975000.0,,,,6527244000.0,0.0,0.0,14867215000.0,,22766210000.0,-114209000.0,891580000.0,3007303000.0,21376450000.0,,,
