,0,1,2,3,4,5,6,7,8,9,10,11,12,13,14,15,16,17,18,19,20,21,22,23,24,25,26,27,28,29,30
Date,Revenue,Revenue Growth,Cost of Revenue,Gross Profit,R&D Expenses,SG&A Expense,Operating Expenses,Operating Income,Interest Expense,Earnings before Tax,Income Tax Expense,Net Income - Non-Controlling int,Net Income - Discontinued ops,Net Income,Preferred Dividends,Net Income Com,EPS,EPS Diluted,Weighted Average Shs Out,Weighted Average Shs Out (Dil),Dividend per Share,Gross Margin,EBITDA Margin,EBIT Margin,Profit Margin,Free Cash Flow margin,EBITDA,EBIT,Consolidated Income,Earnings Before Tax Margin,Net Profit Margin
2019-12-31,579920000.0,0.10990960644400001,338325000.0,81346000.0,0.0,120444000.0,120444000.0,-212890000.0,0.0,-211535000.0,23794000.0,0.0,0.0,-235329000.0,0.0,-235329000.0,-1.05,-1.05,225159000.0,225159000.0,0.0,0.140271071872,-0.20644054352299998,-0.36710235894599996,-0.405795626983,-0.0170609739274,-119719000.0,-212890000.0,-235329000.0,-0.36476582977,-0.405795626983
2018-12-31,522493000.0,0.14885387922,84429000.0,74742000.0,0.0,155584000.0,155584000.0,-92881000.0,0.0,-93683000.0,-2950000.0,0.0,0.0,-90733000.0,0.0,-90733000.0,-0.41,-0.41,223999000.0,223999000.0,0.0,0.143048806395,0.0353478419807,-0.177765060967,-0.173654001106,-0.100246319089,18469000.0,-92881000.0,-90733000.0,-0.17930000976100002,-0.173654001106
2017-12-31,454795000.0,-0.06714649940209999,87200000.0,37190000.0,0.0,163704000.0,163704000.0,-214742000.0,0.0,-86539000.0,72918000.0,0.0,0.0,-159457000.0,0.0,-159457000.0,-0.72,-0.72,222940000.0,222940000.0,0.224966358662,0.0817731065645,-0.20310909310800002,-0.47217317692599997,-0.35061291350999996,0.0063083367231400005,-92373000.0,-214742000.0,-159457000.0,-0.190281335547,-0.35061291350999996
2016-12-31,487531000.0,-0.499762979684,59037000.0,428494000.0,0.0,228802000.0,228802000.0,-163362000.0,0.0,-181722000.0,-25643000.0,0.0,0.0,-135338000.0,1000.0,-135338000.0,-0.77,-0.77,176584000.0,176584000.0,0.447452770353,0.878906161865,-0.100471559757,-0.33508023079599997,-0.277598757823,-0.108624887443,-48983000.0,-163362000.0,-135338000.0,-0.372739374522,-0.277598757823
2015-12-31,974600000.0,-0.154456929879,113918000.0,860682000.0,0.0,270678000.0,270678000.0,143655000.0,0.0,143429000.0,37319000.0,0.0,0.0,79110000.0,2000.0,79110000.0,0.51,0.5,154662000.0,209152000.0,0.443906823745,0.8831130720299999,0.259368971886,0.147398932896,0.0811717627745,0.336584239688,252781000.0,143655000.0,79110000.0,0.14716704288899998,0.0811717627745
2014-12-31,1152632000.0,0.069507720915,110126000.0,1042506000.0,0.0,267378000.0,267378000.0,314943000.0,0.0,304724000.0,75412000.0,0.0,0.0,159037000.0,1000.0,159037000.0,1.03,1.03,153814000.0,207828000.0,0.33350174182500003,0.9044569298790001,0.35155973459,0.27323811936500003,0.137977255533,0.16996578266100001,405219000.0,314943000.0,159037000.0,0.264372323517,0.137977255533
2013-12-31,1077722000.0,0.0372146202219,124092000.0,953630000.0,0.0,224755000.0,224755000.0,340671000.0,0.0,346922000.0,38727000.0,0.0,0.0,255462000.0,0.0,255462000.0,1.93,1.85,132257000.0,185506000.0,0.0620680732699,0.8848571338429999,0.38880713208000006,0.316102853983,0.23703886530999999,0.08622539022119999,419026000.0,340671000.0,255462000.0,0.321903051065,0.23703886530999999
2012-12-31,1039054000.0,0.44431007545100004,425607000.0,613447000.0,0.0,186112000.0,249319000.0,364128000.0,-260000.0,292796000.0,31877000.0,90015000.0,-6684000.0,260919000.0,0.0,260919000.0,2.19,2.04,,119024000.0,0.0,0.5904,0.345,0.2815,0.251,0.1635,358751000.0,292536000.0,350934000.0,0.2818,0.2511
2011-12-31,719412000.0,0.18283876568500002,322472000.0,396940000.0,0.0,159602000.0,213771000.0,183169000.0,661000.0,147267000.0,20287000.0,43807000.0,-7989000.0,126980000.0,0.0,126980000.0,1.07,0.99,,119024000.0,0.0,0.5518,0.281,0.2056,0.177,0.0879,202509000.0,147928000.0,170787000.0,0.2047,0.1765
2010-12-31,608208000.0,,293042000.0,315166000.0,0.0,134449000.0,182482000.0,132684000.0,1658000.0,133002000.0,14601000.0,0.0,0.0,118401000.0,0.0,118401000.0,,,,,0.0,0.5182,0.301,0.2214,0.195,0.1754,182857000.0,134660000.0,118401000.0,0.2187,0.1947
