,0,1,2,3,4,5,6,7,8,9,10,11,12,13,14,15,16,17,18,19,20,21,22,23,24,25,26,27,28,29,30
Date,Revenue,Revenue Growth,Cost of Revenue,Gross Profit,R&D Expenses,SG&A Expense,Operating Expenses,Operating Income,Interest Expense,Earnings before Tax,Income Tax Expense,Net Income - Non-Controlling int,Net Income - Discontinued ops,Net Income,Preferred Dividends,Net Income Com,EPS,EPS Diluted,Weighted Average Shs Out,Weighted Average Shs Out (Dil),Dividend per Share,Gross Margin,EBITDA Margin,EBIT Margin,Profit Margin,Free Cash Flow margin,EBITDA,EBIT,Consolidated Income,Earnings Before Tax Margin,Net Profit Margin
2018-03-03,1838956000.0,-0.00294785330458,1306859000.0,532097000.0,0.0,486484000.0,486484000.0,8922000.0,0.0,8995000.0,-5719000.0,0.0,0.0,14410000.0,0.0,14410000.0,0.35,0.35,40281.0,40339.0,446.49098886900003,0.28934732533,0.033601673993299996,0.0048516658364899995,0.007835967799119999,0.0215209064273,61792000.0,8922000.0,14410000.0,0.004891362272939999,0.007835967799119999
2017-02-25,1844393000.0,-0.023556187555900002,1295989000.0,548404000.0,0.0,480897000.0,480897000.0,54195000.0,0.0,53916000.0,18760000.0,0.0,0.0,-18208000.0,0.0,-18208000.0,-0.45,-0.44,40911.0,41367.0,404.887954166,0.29733576304000003,0.0561545180447,0.0293836508813,-0.00987208257676,0.0486637067046,103571000.0,54195000.0,-18208000.0,0.029232381601999997,-0.00987208257676
2016-02-27,1888888000.0,0.0375164919427,1305896000.0,582992000.0,0.0,0.0,0.0,30640000.0,0.0,30575000.0,8779000.0,0.0,0.0,21892000.0,0.0,21892000.0,0.49,0.48,44565000.0,44787000.0,0.36633398084299995,0.308642968773,0.0394867244643,0.0162211841041,0.011589887807,0.017609831816400003,74586000.0,30640000.0,21892000.0,0.016186772323200004,0.011589887807
2015-02-28,1820586000.0,0.08990367634289999,1236783000.0,583803000.0,0.0,0.0,0.0,120430000.0,0.0,120415000.0,40673000.0,0.0,0.0,81993000.0,0.0,81993000.0,1.71,1.7,47268000.0,47658000.0,0.323492383231,0.320667631191,0.087281238019,0.06614903113609999,0.0450365981063,0.00753328873231,158903000.0,120430000.0,81993000.0,0.0661407920307,0.0450365981063
2014-03-01,1670410000.0,0.157302553408,1122967000.0,547443000.0,0.0,0.0,0.0,120105000.0,0.0,122218000.0,47166000.0,0.0,0.0,76903000.0,0.0,76903000.0,1.57,1.56,48286000.0,48701000.0,0.280774522084,0.327729719051,0.0928328973126,0.0719015092103,0.0460383977586,0.022339425649999998,155069000.0,120105000.0,76903000.0,0.07316646811260001,0.0460383977586
2013-03-02,1443365000.0,0.05412124368,958921000.0,484444000.0,0.0,0.0,0.0,112297000.0,0.0,112495000.0,43314000.0,0.0,0.0,71473000.0,0.0,71473000.0,1.42,1.4,49824000.0,50491000.0,0.240577528668,0.33563513040700005,0.09940590218,0.07780221911989998,0.0495183131086,-6.44327664866e-05,143479000.0,112297000.0,71473000.0,0.0779393985582,0.0495183131086
2012-03-03,1369259000.0,0.0,889130000.0,480129000.0,0.0,343629000.0,343629000.0,134335000.0,0.0,134782000.0,49978000.0,0.0,0.0,84804000.0,0.0,84804000.0,1.62,1.59,52020000.0,52818000.0,0.19902306032000003,0.350648781567,0.117846221935,0.0981078086761,0.0619342286594,0.047915697468499996,161362000.0,134335000.0,84804000.0,0.09843426261939998,0.0619342286594
