,0,1,2,3,4,5,6,7,8,9,10,11,12,13,14,15,16,17,18,19,20,21,22,23,24,25,26,27,28
Date,Cash and cash equivalents,Short-term investments,Cash and short-term investments,Receivables,Inventories,Total current assets,Property Plant & Equipment Net,Goodwill and Intangible Assets,Long-term investments,Tax assets,Total non-current assets,Total assets,Payables,Short-term debt,Total current liabilities,Long-term debt,Total debt,Deferred revenue,Tax Liabilities,Deposit Liabilities,Total non-current liabilities,Total liabilities,Other comprehensive income,Retained earnings (deficit),Total shareholders equity,Investments,Net Debt,Other Assets,Other Liabilities
2019-12-31,112947000.0,417917000.0,530864000.0,11308000.0,0.0,542172000.0,41424000.0,74923000.0,471959000.0,4376000.0,3842006000.0,4384178000.0,0.0,275500000.0,275500000.0,39273000.0,314773000.0,0.0,0.0,3555675000.0,46412000.0,3945231000.0,139935000.0,313364000.0,438947000.0,889876000.0,201826000.0,0.0,3623319000.0
2018-12-31,102755000.0,445677000.0,548432000.0,11990000.0,0.0,560422000.0,42839000.0,76173000.0,0.0,7858000.0,3751276000.0,4311698000.0,0.0,469500000.0,469500000.0,39202000.0,508702000.0,0.0,0.0,3366907000.0,46375000.0,3915405000.0,137546000.0,279867000.0,396293000.0,445677000.0,405947000.0,0.0,3399530000.0
2017-12-31,99195000.0,524973000.0,624168000.0,10776000.0,0.0,634944000.0,45189000.0,74703000.0,409127000.0,0.0,3470266000.0,4105210000.0,0.0,446200000.0,446200000.0,39131000.0,485331000.0,0.0,0.0,3210174000.0,44910000.0,3724033000.0,135854000.0,257078000.0,381177000.0,934100000.0,386136000.0,0.0,3232923000.0
2016-12-31,71277000.0,539926000.0,611203000.0,9192000.0,0.0,620395000.0,42398000.0,75640000.0,344741000.0,7903000.0,3089945000.0,3710340000.0,0.0,331500000.0,331500000.0,39061000.0,370561000.0,0.0,0.0,2995222000.0,49581000.0,3390286000.0,96171000.0,237687000.0,320054000.0,884667000.0,299284000.0,0.0,3009205000.0
2015-12-31,60121000.0,544395000.0,604516000.0,8609000.0,0.0,613125000.0,39445000.0,66946000.0,318928000.0,6333000.0,2767899000.0,3381024000.0,0.0,293100000.0,293100000.0,38990000.0,332090000.0,0.0,0.0,2730531000.0,48205000.0,3087180000.0,86107000.0,218920000.0,293844000.0,863323000.0,271969000.0,0.0,2745875000.0
2014-12-31,58151000.0,622494000.0,680645000.0,8104000.0,0.0,688749000.0,36394000.0,68639000.0,273237000.0,6675000.0,2400772000.0,3089521000.0,0.0,334804000.0,334804000.0,0.0,334804000.0,0.0,0.0,2450527000.0,10821000.0,2809989000.0,85087000.0,203312000.0,279532000.0,895731000.0,276653000.0,0.0,2464364000.0
2013-12-31,59692000.0,609400000.0,669092000.0,8150000.0,0.0,677242000.0,36009000.0,50002000.0,245071000.0,12157000.0,2251394000.0,2928636000.0,0.0,337042000.0,337042000.0,0.0,337042000.0,0.0,0.0,2320056000.0,8474000.0,2673797000.0,78747000.0,186137000.0,254839000.0,854471000.0,277350000.0,0.0,2328281000.0
2012-12-31,60436000.0,823796000.0,884232000.0,7843000.0,0.0,892075000.0,36618000.0,50820000.0,246535000.0,4625000.0,1871959000.0,2764034000.0,0.0,179806000.0,179806000.0,0.0,179806000.0,0.0,0.0,2261794000.0,14692000.0,2510137000.0,78258000.0,172244000.0,253897000.0,1070331000.0,119370000.0,0.0,2315639000.0
2011-12-31,57583000.0,0.0,57583000.0,0.0,0.0,57583000.0,33085000.0,0.0,0.0,0.0,2278770000.0,2336353000.0,0.0,150698000.0,150698000.0,0.0,150698000.0,0.0,0.0,1931599000.0,0.0,2099159000.0,78028000.0,158079000.0,237194000.0,0.0,93115000.0,0.0,1948461000.0
2010-12-31,39058000.0,,,0.0,0.0,,33263000.0,37369000.0,,0.0,,2214307000.0,0.0,,,,103877000.0,0.0,0.0,1882890000.0,,2002163000.0,-4722000.0,144599000.0,212144000.0,2023192000.0,,,
2009-12-31,42959000.0,,,0.0,0.0,,34783000.0,37369000.0,,0.0,,2062389000.0,0.0,,,,106390000.0,0.0,0.0,1742955000.0,,1864095000.0,-3702000.0,131371000.0,198294000.0,1863760000.0,,,
