,0,1,2,3,4,5,6,7,8,9,10,11,12,13,14,15,16,17,18,19,20,21,22,23,24,25,26,27,28
Date,Cash and cash equivalents,Short-term investments,Cash and short-term investments,Receivables,Inventories,Total current assets,Property Plant & Equipment Net,Goodwill and Intangible Assets,Long-term investments,Tax assets,Total non-current assets,Total assets,Payables,Short-term debt,Total current liabilities,Long-term debt,Total debt,Deferred revenue,Tax Liabilities,Deposit Liabilities,Total non-current liabilities,Total liabilities,Other comprehensive income,Retained earnings (deficit),Total shareholders equity,Investments,Net Debt,Other Assets,Other Liabilities
2019-12-31,893000000.0,0.0,893000000.0,2782000000.0,0.0,17046000000.0,1606000000.0,53680000000.0,167000000.0,112000000.0,60493000000.0,77539000000.0,3080000000.0,287000000.0,15727000000.0,21612000000.0,21899000000.0,492000000.0,137000000.0,650000000.0,26955000000.0,44560000000.0,20623000000.0,12528000000.0,32979000000.0,167000000.0,21006000000.0,0.0,1878000000.0
2018-12-31,415000000.0,0.0,415000000.0,1049000000.0,0.0,2224000000.0,398000000.0,7845000000.0,0.0,177000000.0,9038000000.0,11262000000.0,1626000000.0,4000000.0,2010000000.0,5955000000.0,5959000000.0,380000000.0,49000000.0,0.0,6959000000.0,8969000000.0,0.0,11635000000.0,2293000000.0,0.0,5544000000.0,0.0,0.0
2017-12-31,325000000.0,0.0,325000000.0,997000000.0,0.0,1975000000.0,390000000.0,7472000000.0,0.0,140000000.0,8314000000.0,10289000000.0,1383000000.0,3000000.0,1938000000.0,4897000000.0,4900000000.0,552000000.0,42000000.0,0.0,5620000000.0,7558000000.0,0.0,10240000000.0,2731000000.0,0.0,4575000000.0,0.0,0.0
2016-12-31,300000000.0,0.0,300000000.0,902000000.0,0.0,1728000000.0,405000000.0,7206000000.0,0.0,212000000.0,8015000000.0,9743000000.0,1242000000.0,95000000.0,1820000000.0,4467000000.0,4562000000.0,483000000.0,45000000.0,0.0,5382000000.0,7202000000.0,0.0,8994000000.0,2541000000.0,0.0,4262000000.0,0.0,0.0
2015-12-31,275000000.0,0.0,275000000.0,802000000.0,0.0,1506000000.0,396000000.0,7072000000.0,0.0,248000000.0,7834000000.0,9340000000.0,1024000000.0,5000000.0,1502000000.0,4288000000.0,4293000000.0,473000000.0,54000000.0,0.0,5178000000.0,6680000000.0,0.0,8064000000.0,2660000000.0,0.0,4018000000.0,0.0,0.0
2014-12-31,294000000.0,0.0,294000000.0,798000000.0,0.0,1486000000.0,317000000.0,7212000000.0,0.0,42000000.0,7851000000.0,9337000000.0,905000000.0,92000000.0,1486000000.0,3711000000.0,3803000000.0,489000000.0,55000000.0,0.0,4556000000.0,6042000000.0,0.0,7352000000.0,3295000000.0,0.0,3509000000.0,0.0,0.0
2013-12-31,400000000.0,0.0,400000000.0,751000000.0,0.0,1572000000.0,266000000.0,7358000000.0,0.0,55000000.0,7941000000.0,9513000000.0,756000000.0,92000000.0,1332000000.0,3756000000.0,3848000000.0,484000000.0,60000000.0,0.0,4596000000.0,5928000000.0,0.0,6598000000.0,3585000000.0,0.0,3448000000.0,0.0,0.0
2012-12-31,358000000.0,0.0,358000000.0,663000000.0,0.0,1412000000.0,249000000.0,6479000000.0,-8498000000.0,42000000.0,7085000000.0,8497000000.0,724000000.0,2000000.0,1105000000.0,3228000000.0,3230000000.0,379000000.0,56000000.0,0.0,3975000000.0,5080000000.0,0.0,5950000000.0,3417000000.0,-8498000000.0,2872000000.0,0.0,0.0
2011-12-31,337000000.0,0.0,337000000.0,666000000.0,0.0,1356000000.0,258000000.0,6601000000.0,7864000000.0,44000000.0,7192000000.0,8548000000.0,836000000.0,179000000.0,1384000000.0,3216000000.0,3395000000.0,369000000.0,27000000.0,114000000.0,3906000000.0,5290000000.0,0.0,5339000000.0,3258000000.0,7864000000.0,3058000000.0,0.0,0.0
2010-12-31,563000000.0,0.0,563000000.0,572000000.0,0.0,1417000000.0,267000000.0,6256000000.0,7387000000.0,37000000.0,6864000000.0,8281000000.0,537000000.0,3000000.0,891000000.0,3353000000.0,3356000000.0,351000000.0,41000000.0,63000000.0,4161000000.0,5052000000.0,0.0,4867000000.0,3229000000.0,7387000000.0,2793000000.0,0.0,0.0
2009-12-31,363000000.0,0.0,363000000.0,554000000.0,0.0,1277000000.0,293000000.0,6377000000.0,0.0,46000000.0,7101000000.0,8378000000.0,565000000.0,259000000.0,1161000000.0,3382000000.0,3641000000.0,337000000.0,580000000.0,0.0,4191000000.0,5352000000.0,-69000000.0,4371000000.0,3026000000.0,0.0,3278000000.0,360000000.0,337000000.0
