,0,1,2,3,4,5,6,7,8,9,10,11,12,13,14,15,16,17,18,19,20,21,22,23,24,25,26,27,28,29,30
Date,Revenue,Revenue Growth,Cost of Revenue,Gross Profit,R&D Expenses,SG&A Expense,Operating Expenses,Operating Income,Interest Expense,Earnings before Tax,Income Tax Expense,Net Income - Non-Controlling int,Net Income - Discontinued ops,Net Income,Preferred Dividends,Net Income Com,EPS,EPS Diluted,Weighted Average Shs Out,Weighted Average Shs Out (Dil),Dividend per Share,Gross Margin,EBITDA Margin,EBIT Margin,Profit Margin,Free Cash Flow margin,EBITDA,EBIT,Consolidated Income,Earnings Before Tax Margin,Net Profit Margin
2019-12-31,1434788000.0,-0.051055468216199995,1007116000.0,427672000.0,300354000.0,448031000.0,748385000.0,-320713000.0,0.0,-309065000.0,11600000.0,0.0,0.0,-320711000.0,0.0,-320711000.0,-1.25,-1.25,257500000.0,257500000.0,0.0,0.29807330420899997,-0.179729688288,-0.223526402507,-0.22352500857299998,-0.134767645116,-257874000.0,-320713000.0,-320711000.0,-0.21540812998199999,-0.22352500857299998
2018-12-31,1511983000.0,-0.0640883827426,908404000.0,603579000.0,332169000.0,460718000.0,792887000.0,-189308000.0,600000.0,-184142000.0,1687000.0,0.0,0.0,-185829000.0,0.0,-185829000.0,-0.76,-0.76,244603000.0,244603000.0,0.0,0.399196948643,-0.08712664097410001,-0.125205111433,-0.12290415963700001,0.0398992581266,-131734000.0,-189308000.0,-185829000.0,-0.121788406351,-0.12290415963700001
2017-12-31,1615519000.0,-0.255336233286,924618000.0,690901000.0,343012000.0,548976000.0,891988000.0,-201087000.0,1100000.0,-194644000.0,82500000.0,0.0,0.0,-277192000.0,0.0,-277192000.0,-1.19,-1.19,232032000.0,232032000.0,0.0,0.42766504138899997,-0.09559961845079999,-0.12447207367999999,-0.171580773733,-0.0154247644255,-154443000.0,-201087000.0,-277192000.0,-0.12048388164999999,-0.171580773733
2016-12-31,2169461000.0,0.167633657302,1323577000.0,845884000.0,320191000.0,638158000.0,958349000.0,-112465000.0,500000.0,-109295000.0,-6500000.0,0.0,0.0,-102777000.0,0.0,-102777000.0,-0.47,-0.47,220405000.0,220405000.0,0.0,0.389905142337,-0.034048088442199996,-0.0518400653434,-0.04737444001069999,0.0142404034919,-73866000.0,-112465000.0,-102777000.0,-0.050378872909000005,-0.04737444001069999
2015-12-31,1857998000.0,1.49250838103,956935000.0,901063000.0,150035000.0,410534000.0,560569000.0,348198000.0,1000000.0,287949000.0,112300000.0,0.0,0.0,175677000.0,2526000.0,175677000.0,0.88,0.75,129886000.0,164213000.0,0.0,0.48496446174900004,0.199282238194,0.18740493800299998,0.09455177023870001,0.04229875382,370266000.0,348198000.0,175677000.0,0.154978100084,0.09455177023870001
2014-12-31,745433000.0,1.7497925020400003,387776000.0,357657000.0,54167000.0,145561000.0,199728000.0,157929000.0,2222000.0,139773000.0,7996000.0,0.0,0.0,131777000.0,103429000.0,28348000.0,0.7,0.63,,40351000.0,0.0,0.4798,0.19899999999999998,0.1905,0.038,-0.0104,148126000.0,141995000.0,131777000.0,0.1875,0.1768
2013-12-31,271087000.0,2.54951357155,210836000.0,60251000.0,27873000.0,41332000.0,69205000.0,-8954000.0,1082000.0,-13685000.0,37937000.0,0.0,0.0,-51622000.0,0.0,-51622000.0,-1.32,-1.32,,39179000.0,0.0,0.2223,-0.035,-0.0465,-0.19,0.0946,-9591000.0,-12603000.0,-51622000.0,-0.0505,-0.1904
2012-12-31,76373000.0,,49733000.0,26640000.0,16210000.0,14205000.0,30415000.0,-3775000.0,176000.0,-3925000.0,291000.0,0.0,0.0,-4216000.0,0.0,-4216000.0,-0.11,-0.11,,36759000.0,0.0,0.3488,-0.034,-0.0491,-0.055,-0.1229,-2570000.0,-3749000.0,-4216000.0,-0.0514,-0.0552
