,0,1,2,3,4,5,6,7,8,9,10,11,12,13,14,15,16,17,18,19,20,21,22,23,24,25,26,27,28
Date,Cash and cash equivalents,Short-term investments,Cash and short-term investments,Receivables,Inventories,Total current assets,Property Plant & Equipment Net,Goodwill and Intangible Assets,Long-term investments,Tax assets,Total non-current assets,Total assets,Payables,Short-term debt,Total current liabilities,Long-term debt,Total debt,Deferred revenue,Tax Liabilities,Deposit Liabilities,Total non-current liabilities,Total liabilities,Other comprehensive income,Retained earnings (deficit),Total shareholders equity,Investments,Net Debt,Other Assets,Other Liabilities
2020-02-01,202490000.0,59229000.0,261719000.0,0.0,324028000.0,665713000.0,439086000.0,0.0,0.0,4063000.0,1292948000.0,1958661000.0,130242000.0,110470000.0,351345000.0,837623000.0,948093000.0,0.0,9505000.0,0.0,847538000.0,1198883000.0,322330000.0,436891000.0,759778000.0,59229000.0,745603000.0,0.0,0.0
2019-02-02,251748000.0,85412000.0,337160000.0,0.0,243636000.0,642257000.0,301297000.0,0.0,0.0,1337000.0,310007000.0,952264000.0,103692000.0,0.0,253105000.0,84065000.0,84065000.0,0.0,20626000.0,0.0,174256000.0,337170000.0,352702000.0,261835000.0,615094000.0,85412000.0,-167683000.0,0.0,0.0
2018-02-03,112669000.0,131958000.0,244627000.0,0.0,187037000.0,479362000.0,180349000.0,0.0,27702000.0,2264000.0,216346000.0,695708000.0,73033000.0,0.0,164460000.0,72547000.0,72547000.0,0.0,25275000.0,0.0,151770000.0,237150000.0,346300000.0,111704000.0,458558000.0,159660000.0,-40122000.0,0.0,0.0
2017-01-28,76088000.0,77791000.0,153879000.0,0.0,154448000.0,339789000.0,138376000.0,0.0,10514000.0,1552000.0,160747000.0,500536000.0,51178000.0,0.0,116563000.0,52372000.0,52372000.0,0.0,23939000.0,0.0,115783000.0,169131000.0,321603000.0,9253000.0,331405000.0,88305000.0,-23716000.0,0.0,0.0
2016-01-30,53081000.0,46335000.0,99416000.0,0.0,148370000.0,264745000.0,119784000.0,0.0,0.0,1341000.0,128549000.0,393294000.0,58225000.0,0.0,102196000.0,46384000.0,46384000.0,0.0,11942000.0,0.0,101275000.0,148813000.0,306522000.0,-62587000.0,244481000.0,46335000.0,-6697000.0,0.0,0.0
2015-01-31,63186000.0,0.0,63186000.0,0.0,115652000.0,207580000.0,86998000.0,0.0,0.0,8623000.0,87282000.0,294862000.0,39222000.0,0.0,79401000.0,40122000.0,40122000.0,0.0,14442000.0,0.0,80986000.0,120593000.0,293992000.0,-120267000.0,174269000.0,0.0,-23064000.0,0.0,0.0
2014-02-01,50184000.0,0.0,50184000.0,0.0,89377000.0,160899000.0,70381000.0,0.0,0.0,4586000.0,71155000.0,232054000.0,34013000.0,19500000.0,79742000.0,0.0,19500000.0,0.0,6007000.0,0.0,35198000.0,115181000.0,284622000.0,-168291000.0,116873000.0,0.0,-30684000.0,0.0,241000.0
2013-02-02,56081000.0,0.0,56081000.0,0.0,60831000.0,129676000.0,59040000.0,0.0,0.0,1295000.0,59984000.0,189660000.0,27952000.0,15000000.0,68784000.0,19500000.0,34500000.0,0.0,7083000.0,0.0,49951000.0,118916000.0,270637000.0,-200433000.0,70744000.0,0.0,-21581000.0,0.0,181000.0
2012-01-28,41293000.0,0.0,41293000.0,0.0,38790000.0,92249000.0,42040000.0,0.0,0.0,4863000.0,42278000.0,134527000.0,23588000.0,0.0,49942000.0,250000.0,250000.0,0.0,10445000.0,0.0,22489000.0,72431000.0,0.0,-133612000.0,-129759000.0,0.0,-41043000.0,12166000.0,26354000.0
2011-01-28,12153000.0,0.0,12153000.0,0.0,26754000.0,45942000.0,29743000.0,0.0,0.0,3633000.0,30640000.0,76582000.0,10023000.0,0.0,18215000.0,250000.0,250000.0,0.0,141000.0,0.0,15309000.0,33524000.0,0.0,-149690000.0,-148797000.0,0.0,-11903000.0,7035000.0,8192000.0
