,0,1,2,3,4,5,6,7,8,9,10,11,12,13,14
Date,Depreciation & Amortization,Stock-based compensation,Operating Cash Flow,Capital Expenditure,Acquisitions and disposals,Investment purchases and sales,Investing Cash flow,Issuance (repayment) of debt,Issuance (buybacks) of shares,Dividend payments,Financing Cash Flow,Effect of forex changes on cash,Net cash flow / Change in cash,Free Cash Flow,Net Cash/Marketcap
2019-12-31,33005000.0,42065000.0,51221000.0,19228000.0,-0.0,-359470000.0,-63631000.0,-0.0,-77976000.0,-0.0,8474000.0,0.0,-3936000.0,31993000.0,0.0
2018-12-31,11073000.0,28484000.0,38622000.0,9261000.0,-0.0,-220704000.0,-216749000.0,-318000.0,-81912000.0,-0.0,191092000.0,0.0,12965000.0,29361000.0,0.0
2017-12-31,8394000.0,15343000.0,11106000.0,2650000.0,-0.0,0.0,-2650000.0,-699000.0,-68947000.0,-0.0,2369000.0,0.0,10825000.0,8456000.0,0.0
2016-12-31,8631000.0,9643000.0,6838000.0,1131000.0,-0.0,0.0,-2397000.0,-24351000.0,-58122000.0,-0.0,-4803000.0,0.0,-362000.0,5707000.0,0.0
2015-12-31,7738000.0,7730000.0,-12939000.0,1116000.0,-0.0,0.0,19690000.0,-3447000.0,-58484000.0,-0.0,-6556000.0,0.0,195000.0,-14055000.0,0.0
2014-12-31,6763000.0,6753000.0,-24279000.0,1025000.0,-0.0,0.0,-21042000.0,-1556000.0,-58289000.0,-0.0,85862000.0,0.0,40541000.0,-25304000.0,0.0
2013-12-31,4415000.0,1949000.0,-20959000.0,-554000.0,-2836000.0,2490000.0,-1021000.0,12092000.0,702000.0,0.0,33767000.0,0.0,11787000.0,-21513000.0,0.1271
2012-12-31,2624000.0,464000.0,-8301000.0,-2680000.0,0.0,1091000.0,-1589000.0,-1510000.0,120000.0,0.0,10473000.0,0.0,583000.0,-10981000.0,0.1271
2011-12-31,1539000.0,357000.0,-699000.0,-3142000.0,0.0,-3581000.0,-7423000.0,1826000.0,109000.0,0.0,9843000.0,0.0,1721000.0,-3841000.0,0.1271
