,0,1,2,3,4,5,6,7,8,9,10,11,12,13,14,15,16,17,18,19,20,21,22,23,24,25,26,27,28,29,30
Date,Revenue,Revenue Growth,Cost of Revenue,Gross Profit,R&D Expenses,SG&A Expense,Operating Expenses,Operating Income,Interest Expense,Earnings before Tax,Income Tax Expense,Net Income - Non-Controlling int,Net Income - Discontinued ops,Net Income,Preferred Dividends,Net Income Com,EPS,EPS Diluted,Weighted Average Shs Out,Weighted Average Shs Out (Dil),Dividend per Share,Gross Margin,EBITDA Margin,EBIT Margin,Profit Margin,Free Cash Flow margin,EBITDA,EBIT,Consolidated Income,Earnings Before Tax Margin,Net Profit Margin
2019-12-31,2615277000.0,0.198086105551,2113334000.0,501943000.0,0.0,340005000.0,340005000.0,163639000.0,9317000.0,151742000.0,37418000.0,0.0,0.0,114324000.0,0.0,114324000.0,3.1,3.08,36854000.0,37131000.0,0.391667339959,0.191927279596,0.0824448041259,0.06257042753019999,0.0437139163461,0.042166852688999994,215616000.0,163639000.0,114324000.0,0.0580213874094,0.0437139163461
2018-12-31,2182879000.0,0.220902813434,1736600000.0,446279000.0,0.0,296986000.0,296986000.0,150238000.0,3710000.0,148676000.0,35773000.0,0.0,0.0,112903000.0,0.0,112903000.0,3.03,3.0,37202000.0,37592000.0,0.32634603107,0.20444513873700002,0.0885573593406,0.0688256197435,0.0517220606364,0.054937538910800006,193310000.0,150238000.0,112903000.0,0.06811005099230001,0.0517220606364
2017-12-31,1787922000.0,0.09397187855650001,1421641000.0,366281000.0,0.0,266586000.0,266586000.0,99260000.0,3156000.0,100938000.0,45666000.0,0.0,0.0,55272000.0,0.0,55272000.0,1.48,1.47,37239000.0,37672000.0,0.291648970057,0.204864082438,0.0766767230338,0.055516963268,0.0309141002795,0.0439745134296,137092000.0,99260000.0,55272000.0,0.056455482957300004,0.0309141002795
2016-12-31,1634340000.0,0.0340527383726,1290331000.0,344009000.0,0.0,243201000.0,243201000.0,101569000.0,2345000.0,101061000.0,36165000.0,0.0,0.0,64896000.0,0.0,64896000.0,1.74,1.72,37335000.0,37811000.0,0.271455396578,0.210488025747,0.0783814873282,0.062146799319599995,0.0397077719446,0.0415892653915,128102000.0,101569000.0,64896000.0,0.0618359704835,0.0397077719446
2015-12-31,1580519000.0,0.12030380034000002,1262390000.0,318129000.0,0.0,228965000.0,228965000.0,90044000.0,1753000.0,88664000.0,31224000.0,0.0,0.0,49364000.0,0.0,49364000.0,1.32,1.3,37442000.0,37868000.0,0.24712158022599998,0.201281351252,0.07198711309389999,0.0569711594736,0.031232778599900004,0.0487555037301,113777000.0,90044000.0,49364000.0,0.056098028559,0.031232778599900004
2014-12-31,1410795000.0,0.03943424752,1161024000.0,249771000.0,0.0,207652000.0,207652000.0,42222000.0,1858000.0,40228000.0,11614000.0,0.0,0.0,23063000.0,0.0,23063000.0,0.61,0.61,37547000.0,37797000.0,0.22340397386,0.177042731226,0.045251790657,0.0299278066622,0.0163475203697,0.016564419352200002,63841000.0,42222000.0,23063000.0,0.028514419175,0.0163475203697
2013-12-31,1357272000.0,0.019596825384900003,1117389000.0,239883000.0,0.0,194214000.0,194214000.0,46258000.0,1351000.0,46780000.0,18148000.0,0.0,0.0,27269000.0,0.0,27269000.0,0.73,0.73,37245000.0,37536000.0,0.20979859335,0.176739076618,0.0479454376131,0.034081598972099995,0.0200910355478,0.015486947347299999,65075000.0,46258000.0,27269000.0,0.0344661939538,0.0200910355478
2012-12-31,1331185000.0,0.07351897550039999,1123564000.0,207621000.0,0.0,185809000.0,185809000.0,22303000.0,1595000.0,21539000.0,10045000.0,0.0,0.0,13463000.0,0.0,13463000.0,0.36,0.36,37112000.0,37259000.0,0.20123996886700002,0.155967051912,0.0324237427555,0.0167542452777,0.0101135454501,0.0140686681415,43162000.0,22303000.0,13463000.0,0.0161803205415,0.0101135454501
2011-12-31,1240020000.0,0.165958327065,1058568000.0,181452000.0,0.0,172137000.0,172137000.0,-49368000.0,1886000.0,-44664000.0,-8172000.0,0.0,0.0,-36830000.0,0.0,-36830000.0,-0.99,-0.99,37389000.0,37389000.0,0.201128674209,0.146329897905,-0.023458492605,-0.0398122610926,-0.0297011338527,0.0169465008629,-29089000.0,-49368000.0,-36830000.0,-0.0360187738907,-0.0297011338527
2010-12-31,1063520000.0,-0.0579206258797,873589000.0,189931000.0,0.0,159016000.0,158489000.0,31442000.0,1699000.0,25933000.0,11193000.0,0.0,-723000.0,14740000.0,0.0,14740000.0,0.39,0.39,37865589.0,37549000.0,0.2,0.1786,0.042,0.026000000000000002,0.013999999999999999,0.0249,45074000.0,27632000.0,14740000.0,0.0244,0.0139
2009-12-31,1128907000.0,-0.1459,903357000.0,225550000.0,0.0,169023000.0,168917000.0,56633000.0,1202000.0,55619000.0,21437000.0,0.0,75000.0,34182000.0,0.0,34182000.0,0.9,0.9,38223710.0,38046000.0,0.19,0.1998,0.062,0.0503,0.03,0.0404,70320000.0,56821000.0,34182000.0,0.0493,0.0303
