,0,1,2,3,4,5,6,7,8,9,10,11,12,13,14
Date,Depreciation & Amortization,Stock-based compensation,Operating Cash Flow,Capital Expenditure,Acquisitions and disposals,Investment purchases and sales,Investing Cash flow,Issuance (repayment) of debt,Issuance (buybacks) of shares,Dividend payments,Financing Cash Flow,Effect of forex changes on cash,Net cash flow / Change in cash,Free Cash Flow,Net Cash/Marketcap
2019-12-31,17741000.0,11393000.0,-35210000.0,2531000.0,-0.0,-62370000.0,-39301000.0,-51826000.0,-21661000.0,-0.0,2790000.0,56000.0,-71665000.0,-37741000.0,0.0
2018-12-31,24951000.0,11023000.0,-25201000.0,372000.0,-0.0,-1450000.0,4719000.0,-0.0,-35932000.0,-0.0,57660000.0,167000.0,37345000.0,-25573000.0,0.0
2017-12-31,18609000.0,9100000.0,-24098000.0,1616000.0,-0.0,-6276000.0,17658000.0,-0.0,-29041000.0,-0.0,28997000.0,454000.0,23011000.0,-25714000.0,0.0
2016-12-31,17938000.0,13858000.0,-39098000.0,5065000.0,-0.0,-38594000.0,45102000.0,-0.0,-35045000.0,-0.0,76000.0,-152000.0,5928000.0,-44163000.0,0.0
2015-12-31,16115000.0,16830000.0,-34696000.0,10652000.0,-0.0,-66973000.0,25744000.0,-0.0,-29117000.0,-0.0,5303000.0,-947000.0,-4596000.0,-45348000.0,0.0
2014-12-31,13861000.0,20940000.0,-22623000.0,7403000.0,-113190000.0,-132644000.0,-178385000.0,-0.0,-33713000.0,-0.0,200326000.0,-866000.0,-1548000.0,-30026000.0,0.0
2013-12-31,2551000.0,6438000.0,-1591000.0,4686000.0,-0.0,-59436000.0,-27565000.0,-0.0,-35261000.0,-0.0,5806000.0,-38000.0,-23388000.0,-6277000.0,0.0
2012-12-31,2191000.0,4088000.0,-17478000.0,2384000.0,-0.0,-35385000.0,14001000.0,-10190000.0,-58649000.0,-0.0,48521000.0,52000.0,45096000.0,-19862000.0,0.0
2011-12-31,1244000.0,2799000.0,-17542000.0,3676000.0,-0.0,-71379000.0,-45110000.0,-4742000.0,-13553000.0,-0.0,70367000.0,115000.0,7830000.0,-21218000.0,0.0
2010-12-31,1140000.0,1586000.0,-11508000.0,-1529000.0,0.0,0.0,-1333000.0,3125000.0,39000.0,0.0,3797000.0,165000.0,-8879000.0,-13037000.0,0.2221
2009-12-31,1632000.0,2111000.0,-19513000.0,-688000.0,0.0,0.0,-688000.0,9476000.0,53000.0,0.0,16939000.0,68000.0,-3194000.0,-20201000.0,0.2221
