,0,1,2,3,4,5,6,7,8,9,10,11,12,13,14,15,16,17,18,19,20,21,22,23,24,25,26,27,28,29,30
Date,Revenue,Revenue Growth,Cost of Revenue,Gross Profit,R&D Expenses,SG&A Expense,Operating Expenses,Operating Income,Interest Expense,Earnings before Tax,Income Tax Expense,Net Income - Non-Controlling int,Net Income - Discontinued ops,Net Income,Preferred Dividends,Net Income Com,EPS,EPS Diluted,Weighted Average Shs Out,Weighted Average Shs Out (Dil),Dividend per Share,Gross Margin,EBITDA Margin,EBIT Margin,Profit Margin,Free Cash Flow margin,EBITDA,EBIT,Consolidated Income,Earnings Before Tax Margin,Net Profit Margin
2019-12-31,100169000.0,-0.0228081984645,0.0,0.0,0.0,37111000.0,37111000.0,49783000.0,43681000.0,49783000.0,8228000.0,0.0,0.0,41555000.0,0.0,41555000.0,1.68,1.67,24663726.0,24848526.0,0.694165923564,0.0,0.546446505406,0.496990086753,0.41484890534999996,0.470325150496,54737000.0,49783000.0,41555000.0,0.496990086753,0.41484890534999996
2018-12-31,102507000.0,0.061632627697900004,0.0,0.0,0.0,0.0,0.0,46635000.0,35730000.0,46635000.0,5062000.0,0.0,0.0,41573000.0,0.0,41573000.0,1.64,1.63,25293698.0,25457999.0,0.61218479897,0.0,0.477908825739,0.454944540373,0.405562546948,0.523739842157,48989000.0,46635000.0,41573000.0,0.454944540373,0.405562546948
2017-12-31,96556000.0,0.12116673052999999,0.0,0.0,0.0,0.0,0.0,45011000.0,21709000.0,45011000.0,9889000.0,0.0,0.0,35122000.0,0.0,35122000.0,1.44,1.43,24219813.0,24475146.0,0.559874086144,0.0,0.471954099176,0.46616471270599996,0.363747462612,0.39646422801299996,45570000.0,45011000.0,35122000.0,0.46616471270599996,0.363747462612
2016-12-31,86121000.0,0.139076263789,0.0,0.0,0.0,0.0,0.0,39929000.0,18002000.0,39929000.0,9049000.0,0.0,0.0,30880000.0,0.0,30880000.0,1.35,1.34,22745967.0,23017896.0,0.524722155318,0.0,0.454546510143,0.46363836927100005,0.358565274439,0.32906027565900003,39146000.0,39929000.0,30880000.0,0.46363836927100005,0.358565274439
2015-12-31,75606000.0,0.129661726034,0.0,0.0,0.0,0.0,0.0,25890000.0,16529000.0,0.0,7466000.0,0.0,0.0,25890000.0,0.0,25890000.0,1.85,1.83,14011872.0,14174840.0,0.7590209131110001,0.0,0.382284474777,0.34243314022699994,0.34243314022699994,0.394770256329,28903000.0,25890000.0,25890000.0,0.0,0.34243314022699994
2014-12-31,66928000.0,0.0710707827228,0.0,0.0,0.0,0.0,0.0,23014000.0,15048000.0,0.0,6095000.0,0.0,0.0,23014000.0,0.0,23014000.0,1.67,1.65,13807482.0,13954587.0,0.697691733908,0.0,0.386519842219,0.343862060722,0.343862060722,0.438351661487,25869000.0,23014000.0,23014000.0,0.0,0.343862060722
2013-12-31,62487000.0,0.0396825396825,0.0,0.0,0.0,0.0,0.0,21300000.0,12364000.0,0.0,5735000.0,0.0,0.0,21300000.0,0.0,21300000.0,2.34,2.32,9088986.0,9172150.0,0.7527133769069999,0.0,0.38606430137500003,0.34087090114699997,0.34087090114699997,0.586842063149,24124000.0,21300000.0,21300000.0,0.0,0.34087090114699997
2012-12-31,60102000.0,0.0230998382841,0.0,0.0,0.0,0.0,0.0,20393000.0,16127000.0,0.0,5017000.0,0.0,0.0,20393000.0,0.0,20393000.0,2.29,2.27,8915226.0,9000767.0,1.17789961678,0.0,0.386160194336,0.339306512262,0.339306512262,0.490016971149,23209000.0,20393000.0,20393000.0,0.0,0.339306512262
2011-12-31,58745000.0,-0.014163687929,0.0,0.0,0.0,0.0,0.0,24401000.0,17567000.0,24401000.0,4944000.0,0.0,0.0,19457000.0,0.0,19457000.0,2.22,2.2,8761895.0,8854964.0,0.879732543238,0.0,0.36891650353200006,0.415371520981,0.331211166908,0.441348199847,21672000.0,24401000.0,19457000.0,0.415371520981,0.331211166908
2010-12-31,59589000.0,0.15884560782600002,0.0,59589000.0,0.0,27247000.0,35826000.0,23763000.0,0.0,23763000.0,5371000.0,0.0,0.0,18392000.0,0.0,18392000.0,1.036,1.022,19572224.0,17773292.0,0.373,1.0,0.441,0.3988,0.309,0.3612,26250000.0,23763000.0,18392000.0,0.3988,0.3086
2009-12-31,51421000.0,0.0876,0.0,51421000.0,0.0,26721000.0,34840000.0,16581000.0,0.0,16581000.0,3118000.0,0.0,0.0,13463000.0,0.0,13463000.0,0.831,0.818,16224865.0,16206894.0,0.33799999999999997,1.0,0.364,0.3225,0.262,0.0627,18735000.0,16581000.0,13463000.0,0.3225,0.2618
