,0,1,2,3,4,5,6,7,8,9,10,11,12,13,14,15,16,17,18,19,20,21,22,23,24,25,26,27,28,29,30
Date,Revenue,Revenue Growth,Cost of Revenue,Gross Profit,R&D Expenses,SG&A Expense,Operating Expenses,Operating Income,Interest Expense,Earnings before Tax,Income Tax Expense,Net Income - Non-Controlling int,Net Income - Discontinued ops,Net Income,Preferred Dividends,Net Income Com,EPS,EPS Diluted,Weighted Average Shs Out,Weighted Average Shs Out (Dil),Dividend per Share,Gross Margin,EBITDA Margin,EBIT Margin,Profit Margin,Free Cash Flow margin,EBITDA,EBIT,Consolidated Income,Earnings Before Tax Margin,Net Profit Margin
2019-12-31,1887026000.0,0.0627025273613,957523000.0,929503000.0,204207000.0,441937000.0,656243000.0,273260000.0,27711000.0,241916000.0,70319000.0,0.0,0.0,171597000.0,0.0,171597000.0,1.27,1.26,135016000.0,136637000.0,0.671121292183,0.49257561898999996,0.199463070461,0.144809875434,0.09093515404660002,0.17253498362,376392000.0,273260000.0,171597000.0,0.12819961145199998,0.09093515404660002
2018-12-31,1775686000.0,-0.0137455746781,875368000.0,900318000.0,176281000.0,386869000.0,581712000.0,318606000.0,16147000.0,307103000.0,24678000.0,0.0,0.0,282425000.0,0.0,282425000.0,2.05,2.01,137815000.0,140209000.0,0.628511721787,0.507025453825,0.216855908083,0.179426993286,0.159051206125,0.193381036963,385068000.0,318606000.0,282425000.0,0.172948933539,0.159051206125
2017-12-31,1800434000.0,0.08318478227519999,941658000.0,858776000.0,170735000.0,373867000.0,568815000.0,289961000.0,16804000.0,279065000.0,171842000.0,0.0,0.0,107223000.0,0.0,107223000.0,0.78,0.77,137456000.0,139646000.0,0.591531443794,0.476982771932,0.200491103812,0.161050613352,0.0595539742084,0.147821580797,360971000.0,289961000.0,107223000.0,0.154998739193,0.0595539742084
2016-12-31,1662167000.0,0.0674987010835,895046000.0,767121000.0,147537000.0,322435000.0,471403000.0,295718000.0,18071000.0,275957000.0,109331000.0,0.0,0.0,166626000.0,0.0,166626000.0,1.22,1.2,137138000.0,138497000.0,0.475966988455,0.461518607938,0.212512340818,0.177911124454,0.10024624481200001,0.166252849443,353231000.0,295718000.0,166626000.0,0.166022427349,0.10024624481200001
2015-12-31,1557067000.0,0.017256022589,803506000.0,753561000.0,132892000.0,313544000.0,447797000.0,305764000.0,14086000.0,305446000.0,63760000.0,0.0,0.0,241686000.0,0.0,241686000.0,1.73,1.72,139353000.0,140774000.0,0.436152982795,0.48396183337,0.22818414364999998,0.196371768203,0.155218754235,0.133314751388,355298000.0,305764000.0,241686000.0,0.19616753807,0.155218754235
2014-12-31,1530654000.0,0.0229100785099,780281000.0,750373000.0,142751000.0,331995000.0,491129000.0,259244000.0,14593000.0,249529000.0,49268000.0,0.0,0.0,200261000.0,0.0,200261000.0,1.42,1.39,141143000.0,143569000.0,0.39362954398199995,0.49023031985,0.206767172725,0.16936812630399997,0.130833617526,0.107785299617,316489000.0,259244000.0,200261000.0,0.163021166116,0.130833617526
2013-12-31,1496372000.0,0.0647621460155,759362000.0,737010000.0,147696000.0,322739000.0,496267000.0,240743000.0,14091000.0,118269000.0,51971000.0,0.0,0.0,177015000.0,0.0,177015000.0,1.24,1.22,142446000.0,144595000.0,0.355503302327,0.49253126896300004,0.202849959769,0.160884459212,0.11829611888000001,0.202425600051,303539000.0,240743000.0,177015000.0,0.0790371645553,0.11829611888000001
2012-12-31,1405358000.0,-0.0898305897043,673968000.0,731390000.0,137762000.0,290298000.0,428060000.0,303330000.0,11659000.0,291912000.0,66556000.0,0.0,0.0,222398000.0,0.0,222398000.0,1.47,1.45,151634000.0,153594000.0,0.276377983515,0.520429669878,0.258329194412,0.215838241928,0.158250068666,0.16184915160399999,363045000.0,303330000.0,222398000.0,0.207713621725,0.158250068666
2011-12-31,1544062000.0,0.114603974154,715458000.0,828604000.0,147177000.0,368232000.0,515409000.0,313195000.0,5487000.0,311079000.0,88427000.0,0.0,0.0,221474000.0,0.0,221474000.0,1.4,1.38,158323000.0,160851000.0,0.23647350653700003,0.536639072783,0.253029347267,0.20283835752700002,0.143435950111,0.130744102245,390693000.0,313195000.0,221474000.0,0.201467946235,0.143435950111
2010-12-31,1385301000.0,0.207668642396,622690000.0,762611000.0,116381000.0,285658000.0,402039000.0,360572000.0,2884000.0,362939000.0,114326000.0,0.0,0.0,248126000.0,0.0,248126000.0,1.59,1.54,0.0,0.0,0.0,0.55050202086,0.304532372387,0.260284227038,0.17911342011599998,0.13663312161,421869000.0,360572000.0,248126000.0,0.26199288097,0.17911342011599998
2009-12-31,1147087000.0,0.0651,488558000.0,658529000.0,91301000.0,219941000.0,311242000.0,347287000.0,6882000.0,340393000.0,110180000.0,0.0,0.0,230213000.0,0.0,230213000.0,1.54,1.45,151782318.0,151782318.0,0.0,0.5741,0.34,0.3027,0.201,0.2029,389701000.0,347275000.0,230213000.0,0.2967,0.2007
