,0,1,2,3,4,5,6,7,8,9,10,11,12,13,14
Date,Depreciation & Amortization,Stock-based compensation,Operating Cash Flow,Capital Expenditure,Acquisitions and disposals,Investment purchases and sales,Investing Cash flow,Issuance (repayment) of debt,Issuance (buybacks) of shares,Dividend payments,Financing Cash Flow,Effect of forex changes on cash,Net cash flow / Change in cash,Free Cash Flow,Net Cash/Marketcap
2018-12-31,228158.0,1939611.0,-23598660.0,4805.0,0.0,14119433.0,14124238.0,0.0,118010.0,0.0,118010.0,0.0,-9356412.0,-23593855.0,1.6697
2017-12-31,324548.0,4219165.0,-27722198.0,-108154.0,0.0,24597716.0,24489562.0,0.0,2632.0,0.0,2632.0,0.0,-3230004.0,-27830352.0,0.0209
2016-12-31,277231.0,6572963.0,-32052113.0,-554123.0,0.0,-11686757.0,-12240880.0,0.0,22098.0,0.0,22098.0,0.0,-44270895.0,-32606236.0,0.0254
2015-12-31,49881.0,6597359.0,-20746118.0,-265617.0,0.0,-26999474.0,-27265091.0,0.0,80843751.0,0.0,80843751.0,0.0,32832542.0,-21011735.0,0.0164
