,0,1,2,3,4,5,6,7,8,9,10,11,12,13,14,15,16,17,18,19,20,21,22,23,24,25,26,27,28,29,30
Date,Revenue,Revenue Growth,Cost of Revenue,Gross Profit,R&D Expenses,SG&A Expense,Operating Expenses,Operating Income,Interest Expense,Earnings before Tax,Income Tax Expense,Net Income - Non-Controlling int,Net Income - Discontinued ops,Net Income,Preferred Dividends,Net Income Com,EPS,EPS Diluted,Weighted Average Shs Out,Weighted Average Shs Out (Dil),Dividend per Share,Gross Margin,EBITDA Margin,EBIT Margin,Profit Margin,Free Cash Flow margin,EBITDA,EBIT,Consolidated Income,Earnings Before Tax Margin,Net Profit Margin
2019-12-31,68463000.0,-0.295640901655,0.0,0.0,0.0,14308000.0,31307000.0,37156000.0,2489000.0,34832000.0,3918000.0,0.0,0.0,14350000.0,0.0,14350000.0,0.31,0.31,45893000.0,45893000.0,0.660078879132,0.0,0.553203920366,0.542716503805,0.209602266918,0.798051502271,37874000.0,37156000.0,14350000.0,0.508771161065,0.209602266918
2018-12-31,97199000.0,1.0,0.0,0.0,0.0,11912000.0,34017000.0,63182000.0,2350000.0,102260000.0,3292000.0,0.0,0.0,90125000.0,0.0,90125000.0,0.2,0.2,45855000.0,45855000.0,0.09499509322869999,0.0,0.654728958117,0.6500272636550001,0.927221473472,0.8013045401700001,63639000.0,63182000.0,90125000.0,1.05206843692,0.927221473472
2017-12-31,0.0,-1.0,0.0,0.0,0.0,0.0,532.0,-532.0,0.0,0.0,0.0,0.0,0.0,-532.0,0.0,-532.0,-0.0,-0.0,6250000.0,6250000.0,0.0,0.0,0.0,0.0,0.0,0.0,-532.0,-532.0,-532.0,0.0,0.0
2016-12-31,70121000.0,,11136000.0,58985000.0,0.0,6114000.0,41954000.0,17031000.0,3096000.0,14711000.0,0.0,69000.0,-22000.0,14711000.0,0.0,14711000.0,0.0,0.0,7188000.0,,0.0,0.8412,0.254,0.2539,0.21,0.6595,17807000.0,17807000.0,14780000.0,0.2098,0.2098
