,0,1,2,3,4,5,6,7,8,9,10,11,12,13,14,15,16,17,18,19,20,21,22,23,24,25,26,27,28,29,30
Date,Revenue,Revenue Growth,Cost of Revenue,Gross Profit,R&D Expenses,SG&A Expense,Operating Expenses,Operating Income,Interest Expense,Earnings before Tax,Income Tax Expense,Net Income - Non-Controlling int,Net Income - Discontinued ops,Net Income,Preferred Dividends,Net Income Com,EPS,EPS Diluted,Weighted Average Shs Out,Weighted Average Shs Out (Dil),Dividend per Share,Gross Margin,EBITDA Margin,EBIT Margin,Profit Margin,Free Cash Flow margin,EBITDA,EBIT,Consolidated Income,Earnings Before Tax Margin,Net Profit Margin
2019-12-31,281684000.0,0.125475467476,194435000.0,87249000.0,8055000.0,59610000.0,67665000.0,5219000.0,6892000.0,-1673000.0,74000.0,0.0,0.0,-1747000.0,0.0,-1747000.0,-0.02,-0.02,79373789.0,79373789.0,0.0,0.309740702347,0.0729398900896,0.0185278539072,-0.00620198520328,0.08495335198310001,20546000.0,5219000.0,-1747000.0,-0.005939279476289999,-0.00620198520328
2018-12-31,250280000.0,0.136252201863,161560000.0,88720000.0,5279000.0,49670000.0,54949000.0,11372000.0,8134000.0,3238000.0,46000.0,0.0,0.0,-17932000.0,0.0,-17932000.0,-0.23,-0.23,76705877.0,76705877.0,0.0,0.354482979063,0.105385967716,0.0454371104363,-0.07164775451489999,0.09287997442859999,26376000.0,11372000.0,-17932000.0,0.012937509988799998,-0.07164775451489999
2017-12-31,220268000.0,0.17893767796399998,147407000.0,72861000.0,0.0,97560000.0,97560000.0,-42518000.0,9683000.0,-53206000.0,0.0,0.0,0.0,-53206000.0,0.0,-53206000.0,-0.96,-0.96,55648235.0,55648235.0,0.0,0.33078340930100003,-0.114850999691,-0.193028492564,-0.241551201264,0.00501661612218,-25298000.0,-42518000.0,-53206000.0,-0.241551201264,-0.241551201264
2016-12-31,186836000.0,12.259243488800001,133798000.0,53038000.0,0.0,70390000.0,87076000.0,-34038000.0,7593000.0,-43128000.0,-14042000.0,0.0,0.0,-29086000.0,0.0,-29086000.0,-0.65,-0.65,44536906.0,44536906.0,0.0,0.283874628016,-0.101094007579,-0.18218116423,-0.155676636194,0.00715600847802,-18888000.0,-34038000.0,-29086000.0,-0.23083345821999998,-0.155676636194
2015-12-31,14091000.0,3.6876247505,10253000.0,3838000.0,0.0,47397000.0,47397000.0,-44400000.0,468000.0,-59168000.0,-16583000.0,0.0,0.0,-84535000.0,0.0,-84535000.0,-6.48,-6.48,13036082.0,13036082.0,0.0,0.272372436307,-3.0805478674299995,-3.15094741324,-5.9992193598800005,-0.80441416507,-43408000.0,-44400000.0,-84535000.0,-4.198992264569999,-5.9992193598800005
2014-12-31,3006000.0,0.0,2791000.0,215000.0,0.0,3816000.0,3816000.0,-3601000.0,0.0,-3574000.0,-41000.0,0.0,0.0,-3533000.0,0.0,-3533000.0,-0.49,-0.49,7279949.0,7279949.0,0.0,0.0715236194278,-0.8652694610780001,-1.19793745842,-1.1753160346,-0.481703260146,-2601000.0,-3601000.0,-3533000.0,-1.18895542249,-1.1753160346
