,0,1,2,3,4,5,6,7,8,9,10,11,12,13,14,15,16,17,18,19,20,21,22,23,24,25,26,27,28,29,30
Date,Revenue,Revenue Growth,Cost of Revenue,Gross Profit,R&D Expenses,SG&A Expense,Operating Expenses,Operating Income,Interest Expense,Earnings before Tax,Income Tax Expense,Net Income - Non-Controlling int,Net Income - Discontinued ops,Net Income,Preferred Dividends,Net Income Com,EPS,EPS Diluted,Weighted Average Shs Out,Weighted Average Shs Out (Dil),Dividend per Share,Gross Margin,EBITDA Margin,EBIT Margin,Profit Margin,Free Cash Flow margin,EBITDA,EBIT,Consolidated Income,Earnings Before Tax Margin,Net Profit Margin
2019-12-31,2648848000.0,0.088496695284,76400000.0,2572448000.0,0.0,407210000.0,407210000.0,1231430000.0,0.0,1077819000.0,182746000.0,0.0,0.0,895073000.0,0.0,895073000.0,10.36,9.94,86401000.0,90070000.0,0.0,0.971157272898,0.5703468073669999,0.464892662773,0.337910291568,0.41032969804200004,1510762000.0,1231430000.0,895073000.0,0.406901037734,0.337910291568
2018-12-31,2433492000.0,0.0817741242869,83900000.0,2349592000.0,0.0,389172000.0,389172000.0,1090698000.0,0.0,1095125000.0,283642000.0,0.0,0.0,811483000.0,0.0,811483000.0,9.14,8.81,88750000.0,92151000.0,0.0,0.965522796048,0.563216562865,0.448202829514,0.333464420676,0.33778413900700005,1370583000.0,1090698000.0,811483000.0,0.45002202596100005,0.333464420676
2017-12-31,2249538000.0,0.228218128292,96800000.0,2152738000.0,0.0,387694000.0,387694000.0,883760000.0,0.0,893590000.0,153390000.0,0.0,0.0,740200000.0,0.0,740200000.0,8.12,7.91,91129000.0,93594000.0,0.0,0.956968942067,0.513537890891,0.392862890069,0.329045341755,0.269224169585,1155223000.0,883760000.0,740200000.0,0.39723267622100006,0.329045341755
2016-12-31,1831546000.0,0.07556735266739999,91600000.0,1739946000.0,0.0,283625000.0,283625000.0,754153000.0,0.0,642919000.0,190534000.0,0.0,0.0,452385000.0,0.0,452385000.0,4.89,4.75,92597000.0,95213000.0,0.0,0.949987606099,0.526896403366,0.41175760805399997,0.246996253438,0.353199428243,965035000.0,754153000.0,452385000.0,0.351025308674,0.246996253438
2015-12-31,1702865000.0,0.419775886075,84100000.0,1618765000.0,0.0,297715000.0,297715000.0,667534000.0,0.0,536004000.0,173573000.0,0.0,0.0,362431000.0,0.0,362431000.0,3.94,3.85,92023000.0,94139000.0,0.0,0.950612643985,0.509749745282,0.39200641272200004,0.21283601459899998,0.418535233269,868035000.0,667534000.0,362431000.0,0.314765997305,0.21283601459899998
2014-12-31,1199390000.0,0.33984456600999996,15100000.0,1184290000.0,0.0,205963000.0,205963000.0,565449000.0,0.0,512943000.0,144236000.0,0.0,0.0,368707000.0,0.0,368707000.0,4.37,4.24,84317000.0,86982000.0,0.0,0.9874102668860001,0.565912672275,0.471447152302,0.307412101151,0.484633021786,678750000.0,565449000.0,368707000.0,0.427669898865,0.307412101151
2013-12-31,895171000.0,0.265198562896,9300000.0,885871000.0,0.0,142283000.0,142283000.0,420632000.0,0.0,403569000.0,119068000.0,0.0,0.0,284501000.0,0.0,284501000.0,3.48,3.36,81793000.0,84655000.0,0.0,0.9896109234999999,0.55114497677,0.469890110381,0.31781748961899997,0.39646056451800005,493369000.0,420632000.0,284501000.0,0.45082894776500004,0.31781748961899997
2012-12-31,707534000.0,0.361713347614,4700000.0,702834000.0,0.0,110122000.0,110122000.0,324928000.0,13017000.0,310790000.0,94591000.0,0.0,0.0,216199000.0,0.0,216199000.0,2.59,2.52,83328.0,85736.0,0.0,0.993357209689,0.532785703585,0.45924012132299996,0.305566940953,0.164442980832,376964000.0,324928000.0,216199000.0,0.43925804272299995,0.305566940953
2011-12-31,519591000.0,0.19765305722600002,0.0,0.0,0.0,84765000.0,84765000.0,226334000.0,0.0,210877000.0,63542000.0,0.0,0.0,147335000.0,0.0,147335000.0,1.83,1.76,80610.0,83654.0,0.0,0.0,0.505214678468,0.43560030870399996,0.283559568969,0.512270227929,262505000.0,226334000.0,147335000.0,0.405851910445,0.283559568969
2010-12-31,433841000.0,0.22528687587,118737000.0,315104000.0,0.0,110866000.0,143292000.0,171812000.0,20532000.0,151280000.0,43384000.0,0.0,0.0,107896000.0,1488000.0,106408000.0,3.0,1.34,78719146.0,35434000.0,0.0,0.7263,0.462,0.396,0.245,0.2963,200278000.0,171812000.0,107896000.0,0.3487,0.2487
2009-12-31,354073000.0,0.0382,97706000.0,256367000.0,0.0,81954000.0,109389000.0,146978000.0,17363000.0,129615000.0,40563000.0,0.0,0.0,89052000.0,15789000.0,73263000.0,2.17,1.13,,33802000.0,0.0,0.7241,0.48200000000000004,0.4151,0.207,0.4776,170526000.0,146978000.0,89052000.0,0.3661,0.2515
