,0,1,2,3,4,5,6,7,8,9,10,11,12,13,14,15,16,17,18,19,20,21,22,23,24,25,26,27,28
Date,Cash and cash equivalents,Short-term investments,Cash and short-term investments,Receivables,Inventories,Total current assets,Property Plant & Equipment Net,Goodwill and Intangible Assets,Long-term investments,Tax assets,Total non-current assets,Total assets,Payables,Short-term debt,Total current liabilities,Long-term debt,Total debt,Deferred revenue,Tax Liabilities,Deposit Liabilities,Total non-current liabilities,Total liabilities,Other comprehensive income,Retained earnings (deficit),Total shareholders equity,Investments,Net Debt,Other Assets,Other Liabilities
2019-06-30,172923000.0,0.0,172923000.0,12374000.0,92361000.0,303238000.0,166681000.0,122205000.0,1600000.0,8897000.0,303202000.0,606440000.0,25704000.0,5000000.0,127497000.0,91973000.0,96973000.0,17305000.0,900000.0,0.0,136232000.0,263729000.0,233925000.0,108525000.0,342711000.0,1600000.0,-75950000.0,0.0,0.0
2018-07-01,147240000.0,0.0,147240000.0,12935000.0,88825000.0,273021000.0,163340000.0,122413000.0,1700000.0,8240000.0,297868000.0,570889000.0,41437000.0,10063000.0,124799000.0,92267000.0,102330000.0,13524000.0,600000.0,0.0,131186000.0,255985000.0,241155000.0,73429000.0,314904000.0,1700000.0,-44910000.0,0.0,0.0
2017-07-02,149732000.0,0.0,149732000.0,14073000.0,75862000.0,257402000.0,161381000.0,123680000.0,1700000.0,10086000.0,295068000.0,552470000.0,27781000.0,7188000.0,125175000.0,101377000.0,108565000.0,13865000.0,400000.0,0.0,145056000.0,270231000.0,249275000.0,32638000.0,282239000.0,1700000.0,-41167000.0,0.0,0.0
2016-07-03,27826000.0,0.0,27826000.0,19123000.0,103328000.0,166659000.0,171362000.0,156667000.0,1700000.0,13763000.0,339855000.0,506514000.0,35201000.0,19594000.0,120861000.0,97969000.0,117563000.0,0.0,1200000.0,0.0,143067000.0,263928000.0,253647000.0,-11403000.0,242586000.0,1700000.0,89737000.0,0.0,0.0
2015-06-28,27940000.0,0.0,27940000.0,16191000.0,93163000.0,159968000.0,170100000.0,159222000.0,700000.0,4873000.0,341978000.0,501946000.0,35425000.0,14543000.0,123607000.0,117563000.0,132106000.0,0.0,600000.0,0.0,168083000.0,293497000.0,256669000.0,-48278000.0,208449000.0,700000.0,104166000.0,0.0,1807000.0
2014-06-29,5203000.0,0.0,5203000.0,13339000.0,58520000.0,91818000.0,60147000.0,104782000.0,800000.0,2002000.0,175751000.0,267569000.0,24447000.0,343000.0,74307000.0,0.0,343000.0,0.0,500000.0,0.0,7144000.0,84370000.0,251458000.0,-68565000.0,183199000.0,800000.0,-4860000.0,0.0,2919000.0
2013-06-30,154000.0,0.0,154000.0,14957000.0,55756000.0,92649000.0,52943000.0,91219000.0,2400000.0,2127000.0,157424000.0,250073000.0,26235000.0,0.0,75763000.0,0.0,0.0,0.0,800000.0,0.0,10785000.0,80802000.0,252846000.0,-83937000.0,169271000.0,2400000.0,-154000.0,0.0,0.0
2012-07-01,28854000.0,0.0,28854000.0,14968000.0,55744000.0,115741000.0,48669000.0,89739000.0,1700000.0,2824000.0,149107000.0,264848000.0,17619000.0,15756000.0,86020000.0,13500000.0,29256000.0,0.0,500000.0,0.0,22073000.0,103100000.0,257679000.0,-96258000.0,161748000.0,1700000.0,402000.0,0.0,0.0
2011-07-03,21442000.0,0.0,21442000.0,11916000.0,51185000.0,101625000.0,49908000.0,87720000.0,0.0,16825000.0,157450000.0,259075000.0,24186000.0,16488000.0,84322000.0,29250000.0,45738000.0,0.0,0.0,0.0,32242000.0,116564000.0,-158000.0,-113904000.0,142511000.0,0.0,24296000.0,17082000.0,43648000.0
2010-06-27,27843000.0,0.0,27843000.0,13943000.0,45121000.0,97678000.0,51324000.0,82253000.0,0.0,24374000.0,158408000.0,256086000.0,59914000.0,14801000.0,74715000.0,45707000.0,60508000.0,0.0,0.0,0.0,48745000.0,123460000.0,-334000.0,-120477000.0,132626000.0,0.0,32665000.0,10771000.0,0.0
2009-06-28,29562000.0,0.0,29562000.0,11335000.0,45854000.0,164059000.0,54770000.0,84027000.0,0.0,24391000.0,73943000.0,286156000.0,53460000.0,22337000.0,78430000.0,70518000.0,92855000.0,0.0,0.0,0.0,73943000.0,152373000.0,0.0,-116256000.0,133783000.0,0.0,63293000.0,35346000.0,2633000.0
