,0,1,2,3,4,5,6,7,8,9,10,11,12,13,14,15,16,17,18,19,20,21,22,23,24,25,26,27,28,29,30
Date,Revenue,Revenue Growth,Cost of Revenue,Gross Profit,R&D Expenses,SG&A Expense,Operating Expenses,Operating Income,Interest Expense,Earnings before Tax,Income Tax Expense,Net Income - Non-Controlling int,Net Income - Discontinued ops,Net Income,Preferred Dividends,Net Income Com,EPS,EPS Diluted,Weighted Average Shs Out,Weighted Average Shs Out (Dil),Dividend per Share,Gross Margin,EBITDA Margin,EBIT Margin,Profit Margin,Free Cash Flow margin,EBITDA,EBIT,Consolidated Income,Earnings Before Tax Margin,Net Profit Margin
2019-12-31,125674000.0,0.12472032791,0.0,0.0,0.0,62578000.0,62578000.0,63266000.0,24047000.0,63266000.0,15323000.0,0.0,0.0,47943000.0,0.0,47943000.0,2.88,2.87,16675269.0,16709476.0,0.709956434301,0.0,0.589684421599,0.5034135939019999,0.381487021977,0.46728042395400005,74108000.0,63266000.0,47943000.0,0.5034135939019999,0.381487021977
2018-12-31,111738000.0,0.200541510427,0.0,0.0,0.0,46803000.0,46803000.0,48505000.0,12827000.0,48505000.0,11905000.0,0.0,0.0,36600000.0,0.0,36600000.0,2.53,2.52,14487126.0,14500585.0,0.606320365696,0.0,0.504626895058,0.43409583132,0.32755195188700004,0.34959458733800003,56386000.0,48505000.0,36600000.0,0.43409583132,0.32755195188700004
2017-12-31,93073000.0,0.307131621819,0.0,0.0,0.0,39756000.0,39756000.0,41726000.0,6482000.0,41726000.0,15042000.0,0.0,0.0,26684000.0,0.0,26684000.0,2.13,2.13,12531659.0,12536534.0,0.576554891488,0.0,0.535708529864,0.44831476368,0.286699687342,0.482202142404,49860000.0,41726000.0,26684000.0,0.44831476368,0.286699687342
2016-12-31,71204000.0,0.27715597646699996,0.0,0.0,0.0,32354000.0,32354000.0,33780000.0,4292000.0,33780000.0,11940000.0,0.0,0.0,21840000.0,825000.0,21840000.0,2.07,2.05,10149099.0,10663710.0,0.494855917875,0.0,0.585865962586,0.474411549913,0.306724341329,0.37535812594800005,41716000.0,33780000.0,21840000.0,0.474411549913,0.306724341329
2015-12-31,55752000.0,0.08294161066000001,0.0,0.0,0.0,26337000.0,26337000.0,25730000.0,3499000.0,25730000.0,9218000.0,0.0,0.0,16512000.0,2200000.0,16512000.0,1.84,1.81,7775490.0,9137689.0,0.381606333943,0.0,0.541182379107,0.461508107332,0.29616874731,0.362964557325,30172000.0,25730000.0,16512000.0,0.461508107332,0.29616874731
2014-12-31,51482000.0,0.0312074353017,0.0,0.0,0.0,24771000.0,24771000.0,24715000.0,3252000.0,24715000.0,9254000.0,0.0,0.0,15461000.0,4152000.0,15461000.0,1.88,1.85,6002766.0,8371687.0,0.316304228765,0.0,0.556990792898,0.480070704324,0.300318557943,0.32242337127500004,28675000.0,24715000.0,15461000.0,0.480070704324,0.300318557943
2013-12-31,49924000.0,0.006329369078810001,0.0,0.0,0.0,24128000.0,24128000.0,23568000.0,3535000.0,23568000.0,8846000.0,0.0,0.0,14722000.0,4417000.0,14722000.0,1.74,1.73,5934628.0,5944902.0,0.338777661936,0.0,0.565439467991,0.472077557888,0.29488823011,0.466008332666,28229000.0,23568000.0,14722000.0,0.472077557888,0.29488823011
2012-12-31,49610000.0,0.027803099361900004,0.0,0.0,0.0,23433000.0,23433000.0,22435000.0,6157000.0,22435000.0,8410000.0,0.0,0.0,14025000.0,4252000.0,14025000.0,1.62,1.62,6023289.0,6027878.0,0.47164192772299995,0.0,0.561136867567,0.452227373513,0.282705099778,0.431425115904,27838000.0,22435000.0,14025000.0,0.452227373513,0.282705099778
2011-12-31,48268000.0,-0.0386775542721,0.0,0.0,0.0,22247000.0,23381000.0,17901000.0,8504000.0,17901000.0,6529000.0,0.0,0.0,11372000.0,3576000.0,11372000.0,1.29,1.29,0.0,0.0,0.0,0.0,0.482700754123,0.370866826883,0.23560122648499998,0.29731913483100003,23299000.0,17901000.0,11372000.0,0.370866826883,0.23560122648499998
2010-12-31,50210000.0,0.105143838179,0.0,50210000.0,0.0,28411000.0,36927000.0,13283000.0,0.0,13283000.0,4522000.0,0.0,0.0,8761000.0,2240000.0,6521000.0,1.07,1.07,6063207.0,6063207.0,0.38,1.0,0.34299999999999997,0.2645,0.13,0.111,17221000.0,13283000.0,8761000.0,0.2645,0.1745
2009-12-31,45433000.0,-0.042,0.0,45433000.0,0.0,25366000.0,33212000.0,12221000.0,0.0,12221000.0,4007000.0,0.0,0.0,8214000.0,1821000.0,6393000.0,1.04,1.04,6134982.0,6134982.0,0.38,1.0,0.337,0.26899999999999996,0.141,0.1402,15291000.0,12221000.0,8214000.0,0.26899999999999996,0.1808
