,0,1,2,3,4,5,6,7,8,9,10,11,12,13,14
Date,Depreciation & Amortization,Stock-based compensation,Operating Cash Flow,Capital Expenditure,Acquisitions and disposals,Investment purchases and sales,Investing Cash flow,Issuance (repayment) of debt,Issuance (buybacks) of shares,Dividend payments,Financing Cash Flow,Effect of forex changes on cash,Net cash flow / Change in cash,Free Cash Flow,Net Cash/Marketcap
2018-12-31,879438775.5102,0.0,3062091836.7347,-1077397959.1837,208112244.898,-2073979591.8367,-2991020408.1633,-52397959.1837,0.0,-659846938.7755,-1175918367.3469,-132755102.0408,-1647704081.6327,1984693877.551,-0.0958
2017-12-31,795119471.2761,0.0,2648398576.5125,-965582104.728,2740061006.6089997,-183629893.2384,1597153024.911,-22826639.5526,0.0,-632943568.8866,-1095017793.5943,167513980.6812,2542552109.8119,1682816471.7844,-0.1591
2016-12-31,661248311.7885,0.0,2964113447.8101,-892774454.9489,-721300405.1708,-108286706.5406,-1864026625.5065,1021174995.1765,0.0,-580985915.493,62560293.2664,70326065.985,616583060.0039,2071338992.8613,-0.1591
2015-12-31,628009514.4167,0.0,2638800255.2648,-977838370.9462,-615420316.7605,5685444.1028,-1645239890.9323,-411788594.30300003,0.0,-620815687.1845,-797180483.8429,-43104948.657,-310842954.1103,1660961884.3186,-0.1591
2014-12-31,679099416.791,0.0,2934626339.3463,-1137664451.3766,128238166.2824,-4001085.04,-1058456530.5846,-24888105.2489,0.0,-213752882.1375,-629865726.2987,-286857452.8686,845517428.4552,1796961887.9696,-0.1591
2013-12-31,743330266.7893,0.0,2890754369.8252,-1236430542.7783,-3009122968.4146,101042624.9617,-4234207298.3747,2985663906.7771,0.0,-1264412756.8231,1578043544.9249,-258586323.2137,-451471941.1224,1654323827.0469,-0.1591
2012-12-31,608326908.2498,0.0,2991518889.7456,-1116576715.4973,33230531.9969,18658442.5598,-1128989976.8697,630377794.9113,0.0,-708249807.2475,-263531225.9059,-157594448.7278,981033153.4310001,1874942174.2483,-0.1591
2011-12-31,441697126.0661,0.0,1982799397.9789,-824983874.4356,-259442413.8178,-158173869.4188,-1296423708.1631,205977209.2023,0.0,-474808284.9566,-448505697.6994,160252275.4963,-222174442.7722,1157815523.5433,-0.1591
2010-12-31,444606060.6061,0.0,1529616161.6162,-724525252.5253,1057373737.3737,189575757.5758,498909090.9091,-284444444.4444,0.0,-308121212.1212,1098585858.5859,-81292929.2929,1098585858.5859,805090909.0909,-0.1591
2009-12-31,396106870.22900003,0.0,2360687022.9008,-506564885.4962,-54732824.4275,-152748091.6031,-1127099236.6412,-108854961.8321,0.0,-171450381.6794,561984732.8244,-89541984.7328,561984732.8244,1854122137.4046,-0.1591
