,0,1,2,3,4,5,6,7,8,9,10,11,12,13,14
Date,Depreciation & Amortization,Stock-based compensation,Operating Cash Flow,Capital Expenditure,Acquisitions and disposals,Investment purchases and sales,Investing Cash flow,Issuance (repayment) of debt,Issuance (buybacks) of shares,Dividend payments,Financing Cash Flow,Effect of forex changes on cash,Net cash flow / Change in cash,Free Cash Flow,Net Cash/Marketcap
2019-12-31,2241000.0,405000.0,14652000.0,4540000.0,-0.0,33289000.0,37061000.0,-5000000.0,-13223000.0,-4030000.0,-53629000.0,0.0,-1916000.0,10112000.0,0.0
2018-12-31,2144000.0,279000.0,23150000.0,6015000.0,-0.0,-11021000.0,-88818000.0,-0.0,-36364000.0,-2857000.0,64403000.0,0.0,-1265000.0,17135000.0,0.0
2017-12-31,1585000.0,301000.0,11767000.0,1093000.0,-0.0,8895000.0,-53476000.0,-5000000.0,-37290000.0,-2176000.0,-32990000.0,0.0,-74699000.0,10674000.0,0.0
2016-12-31,2604000.0,265000.0,433000.0,-861000.0,0.0,-21407000.0,-20340000.0,-81265000.0,433000.0,-1492000.0,111269000.0,0.0,91362000.0,-428000.0,-1.1483
2015-12-31,280000.0,316000.0,4461000.0,1419000.0,-0.0,8615000.0,-108863000.0,-11000000.0,-21083000.0,-0.0,89818000.0,0.0,21083000.0,3042000.0,0.0
2014-12-31,114000.0,170000.0,8512000.0,0.0,-0.0,8331000.0,-21536000.0,-0.0,-35667000.0,-0.0,-54865000.0,0.0,35667000.0,8512000.0,0.0
2013-12-31,778000.0,61000.0,18434000.0,0.0,-0.0,14596000.0,-68764000.0,-0.0,-103556000.0,-0.0,38615000.0,0.0,103556000.0,18434000.0,0.0
2012-12-31,2877000.0,46000.0,-11044000.0,1601000.0,-0.0,33170000.0,89860000.0,-0.0,-115271000.0,-0.0,-132191000.0,0.0,115271000.0,-12645000.0,0.0
2011-12-31,2631000.0,0.0,3294000.0,893000.0,-0.0,29449000.0,170151000.0,407000.0,-168617000.0,-0.0,-79304000.0,0.0,168646000.0,2401000.0,0.0
2010-12-31,1601000.0,0.0,5792000.0,-1180000.0,0.0,146040000.0,150856000.0,-79863000.0,528000.0,0.0,-168507000.0,0.0,-11859000.0,4612000.0,-1.1483
2009-12-31,1811000.0,158000.0,4364000.0,-4377000.0,0.0,-22164000.0,-26160000.0,-27731000.0,1743000.0,-2738000.0,89989000.0,0.0,68193000.0,-13000.0,-1.1483
