,0,1,2,3,4,5,6,7,8,9,10,11,12,13,14,15,16,17,18,19,20,21,22,23,24,25,26,27,28,29,30
Date,Revenue,Revenue Growth,Cost of Revenue,Gross Profit,R&D Expenses,SG&A Expense,Operating Expenses,Operating Income,Interest Expense,Earnings before Tax,Income Tax Expense,Net Income - Non-Controlling int,Net Income - Discontinued ops,Net Income,Preferred Dividends,Net Income Com,EPS,EPS Diluted,Weighted Average Shs Out,Weighted Average Shs Out (Dil),Dividend per Share,Gross Margin,EBITDA Margin,EBIT Margin,Profit Margin,Free Cash Flow margin,EBITDA,EBIT,Consolidated Income,Earnings Before Tax Margin,Net Profit Margin
2019-12-31,13150000.0,-0.8402187120290001,1931000.0,11219000.0,1955000.0,31675000.0,33630000.0,-22411000.0,411000.0,-22708000.0,-6218000.0,0.0,0.0,-16490000.0,0.0,-16490000.0,-0.6,-0.6,27618284.0,27618284.0,0.0,0.853155893536,-1.56912547529,-1.7042585551299998,-1.25399239544,-0.785627376426,-20634000.0,-22411000.0,-16490000.0,-1.72684410646,-1.25399239544
2018-12-31,82300000.0,0.6302194754770001,15271000.0,67029000.0,2094000.0,32190000.0,34284000.0,32745000.0,829000.0,28790000.0,8052000.0,0.0,0.0,19813000.0,0.0,19813000.0,0.72,0.7,27484655.0,28416512.0,0.0,0.8144471445929999,0.41974483596600004,0.39787363305,0.24074119076499997,0.311069258809,34545000.0,32745000.0,19813000.0,0.34981773997599996,0.24074119076499997
2017-12-31,50484000.0,1.7456355033400002,6008000.0,44476000.0,1473000.0,28596000.0,30069000.0,14407000.0,0.0,16651000.0,-6160000.0,0.0,0.0,17929000.0,0.0,17929000.0,0.71,0.68,25353966.0,26269727.0,0.0,0.880991997465,0.301521274067,0.285377545361,0.355142223279,0.32853973536200004,15222000.0,14407000.0,17929000.0,0.329827272007,0.355142223279
2016-12-31,18387000.0,2.9229784510299996,3037000.0,15350000.0,570000.0,14430000.0,15000000.0,350000.0,0.0,350000.0,3000.0,0.0,0.0,350000.0,0.0,350000.0,-0.28,-0.28,22837263.0,22837263.0,0.0,0.8348289552399999,0.022461521727299996,0.0190351879045,0.0190351879045,0.07173546527439999,413000.0,350000.0,350000.0,0.0190351879045,0.0190351879045
2015-12-31,4687000.0,-0.062224889956,814000.0,3873000.0,391000.0,17362000.0,17753000.0,-13880000.0,0.0,-12597000.0,5000.0,0.0,0.0,-12602000.0,0.0,-12602000.0,-0.56,-0.56,22548932.0,22548932.0,0.0,0.8263281416680001,-2.9507147429100002,-2.96138254747,-2.68871346277,-2.46084915724,-13830000.0,-13880000.0,-12602000.0,-2.68764668231,-2.68871346277
2014-12-31,4998000.0,5.717741935479999,800000.0,4198000.0,0.0,13813000.0,13813000.0,-9615000.0,0.0,-8525000.0,5000.0,0.0,0.0,-10479000.0,0.0,-10479000.0,-0.47,-0.47,22403601.0,22403601.0,0.0,0.83993597439,-1.92096838735,-1.9237695078000001,-2.0966386554599996,-1.47699079632,-9601000.0,-9615000.0,-10479000.0,-1.70568227291,-2.0966386554599996
2013-12-31,744000.0,1.0,762000.0,-18000.0,0.0,6689000.0,7479000.0,-7497000.0,0.0,0.0,-263000.0,0.0,0.0,-6072000.0,0.0,-6072000.0,-0.28,-0.28,21601974.0,21601974.0,0.0,-0.024193548387099997,-9.75268817204,-10.076612903200001,-8.16129032258,-44.1922043011,-7256000.0,-7497000.0,-6072000.0,0.0,-8.16129032258
2013-03-31,0.0,0.0,0.0,0.0,0.0,0.0,0.0,0.0,0.0,0.0,0.0,0.0,0.0,0.0,0.0,0.0,0.0,0.0,0.0,0.0,0.0,0.0,0.0,0.0,0.0,0.0,0.0,0.0,0.0,0.0,0.0
2012-12-31,0.0,0.0,0.0,0.0,0.0,0.0,0.0,0.0,0.0,0.0,0.0,0.0,0.0,0.0,0.0,0.0,0.0,0.0,0.0,0.0,0.0,0.0,0.0,0.0,0.0,0.0,581851.0,0.0,0.0,0.0,0.0
2011-12-31,0.0,0.0,0.0,0.0,0.0,0.0,0.0,0.0,0.0,0.0,0.0,0.0,0.0,0.0,0.0,0.0,0.0,0.0,0.0,0.0,0.0,0.0,0.0,0.0,0.0,0.0,0.0,0.0,0.0,0.0,0.0
