,0,1,2,3,4,5,6,7,8,9,10,11,12,13,14
Date,Depreciation & Amortization,Stock-based compensation,Operating Cash Flow,Capital Expenditure,Acquisitions and disposals,Investment purchases and sales,Investing Cash flow,Issuance (repayment) of debt,Issuance (buybacks) of shares,Dividend payments,Financing Cash Flow,Effect of forex changes on cash,Net cash flow / Change in cash,Free Cash Flow,Net Cash/Marketcap
2019-12-31,1206000.0,565000.0,26053000.0,1573000.0,-0.0,-11276000.0,-116280000.0,-25362000.0,470000.0,-12963000.0,85526000.0,0.0,14433000.0,24480000.0,0.0
2018-12-31,201000.0,381000.0,33840000.0,1484000.0,-0.0,-24850000.0,-112077000.0,-141559000.0,451000.0,-12052000.0,78164000.0,0.0,-73000.0,32356000.0,0.0
2017-12-31,-1305000.0,392000.0,22526000.0,2529000.0,-0.0,156859000.0,-130313000.0,100143000.0,478000.0,-11460000.0,109628000.0,0.0,1841000.0,19997000.0,0.0
2016-12-31,-828000.0,298000.0,21646000.0,2131000.0,-0.0,79094000.0,-148633000.0,93556000.0,402000.0,-9810000.0,130054000.0,0.0,3067000.0,19515000.0,0.0
2015-12-31,1261000.0,296000.0,20742000.0,927000.0,-0.0,36408000.0,-86347000.0,-2541000.0,285000.0,-9349000.0,66847000.0,0.0,1242000.0,19815000.0,0.0
2014-12-31,1615000.0,431000.0,20463000.0,1909000.0,-0.0,30226000.0,-16751000.0,-30791000.0,-12600000.0,-8893000.0,-7225000.0,0.0,-3513000.0,18554000.0,0.0
2013-12-31,756000.0,214000.0,24984000.0,2363000.0,-0.0,55399000.0,-75957000.0,-0.0,-4597000.0,-8657000.0,52585000.0,0.0,1612000.0,22621000.0,0.0
2012-12-31,4749000.0,85000.0,25023000.0,1726000.0,-0.0,61776000.0,-19270000.0,-0.0,-14459000.0,-8310000.0,-4910000.0,0.0,843000.0,23297000.0,0.0
2011-12-31,5572000.0,22000.0,29725000.0,1222000.0,-0.0,42756000.0,16185000.0,-30000000.0,431000.0,-8751000.0,-45633000.0,0.0,277000.0,28503000.0,0.0
2010-12-31,2844000.0,37000.0,25084000.0,2043000.0,-0.0,101223000.0,-78130000.0,-50000000.0,416000.0,-8865000.0,50986000.0,0.0,-2060000.0,23041000.0,0.0
2009-12-31,1483000.0,37000.0,18735000.0,-3797000.0,0.0,-8864000.0,-11841000.0,-22289000.0,573000.0,-8649000.0,-8418000.0,0.0,-1524000.0,14938000.0,-0.5774
