,0,1,2,3,4,5,6,7,8,9,10,11,12,13,14
Date,Depreciation & Amortization,Stock-based compensation,Operating Cash Flow,Capital Expenditure,Acquisitions and disposals,Investment purchases and sales,Investing Cash flow,Issuance (repayment) of debt,Issuance (buybacks) of shares,Dividend payments,Financing Cash Flow,Effect of forex changes on cash,Net cash flow / Change in cash,Free Cash Flow,Net Cash/Marketcap
2018-12-31,4406888.0,105276.0,11577584.0,-14529852.0,-18684.0,103967.0,-8732084.0,-2171115.0,0.0,0.0,-2772093.0,-1146890.0,-1073483.0,-2952268.0,
2017-12-31,3611510.0,58867.0,2474638.0,-15728253.0,64208.0,1479874.0,-14345859.0,14020061.0,0.0,0.0,13837979.0,-356466.0,1610292.0,-13253615.0,
2016-12-31,2354193.0,123339.0,5145157.0,-17140675.0,435085.0,1505061.0,-23648496.0,5673952.0,0.0,0.0,7979826.0,-400727.0,-10924240.0,-11995518.0,
2015-12-31,2681293.0,23088.0,7960607.0,-6518981.0,0.0,-1986668.0,-8770226.0,-3634887.0,18594972.0,0.0,15058013.0,-74554.0,14173840.0,1441626.0,
2014-12-31,1707496.0,0.0,5390068.0,-4660586.0,0.0,-1352782.0,-6013368.0,-661144.0,7530000.0,-10274848.0,-800526.0,124745.0,-1299081.0,729482.0,
2013-12-31,1347359.0,0.0,6232006.0,-8529311.0,0.0,0.0,-8529311.0,5030130.0,0.0,0.0,4075232.0,134087.0,1912014.0,-2297305.0,
