,0,1,2,3,4,5,6,7,8,9,10,11,12,13,14,15,16,17,18,19,20,21,22,23,24,25,26,27,28,29,30
Date,Revenue,Revenue Growth,Cost of Revenue,Gross Profit,R&D Expenses,SG&A Expense,Operating Expenses,Operating Income,Interest Expense,Earnings before Tax,Income Tax Expense,Net Income - Non-Controlling int,Net Income - Discontinued ops,Net Income,Preferred Dividends,Net Income Com,EPS,EPS Diluted,Weighted Average Shs Out,Weighted Average Shs Out (Dil),Dividend per Share,Gross Margin,EBITDA Margin,EBIT Margin,Profit Margin,Free Cash Flow margin,EBITDA,EBIT,Consolidated Income,Earnings Before Tax Margin,Net Profit Margin
2018-10-31,135458000.0,-0.0772,,117169000.0,,,,-39718000.0,,-39718000.0,,,,,,,-0.65,-0.65,61000000.0,,,0.865,,,,,,,,-0.2932,
2017-10-31,146787000.0,-0.0197,,134385000.0,,,,190153000.0,,190153000.0,,,,,,,3.13,3.13,61000000.0,,,0.9155,,,,,,,,1.2954,
2016-10-31,149743000.0,0.1434,,141160000.0,,,,138555000.0,,138555000.0,,,,,,,2.28,2.28,61000000.0,,,0.9427,,,,,,,,0.9253,
2015-10-31,130964000.0,,,123788000.0,,,,83695000.0,,83695000.0,,,,,,,1.38,1.38,61000000.0,,,0.9452,,,,,,,,0.6391,
