,0,1,2,3,4,5,6,7,8,9,10,11,12,13,14,15,16,17,18,19,20,21,22,23,24,25,26,27,28,29,30
Date,Revenue,Revenue Growth,Cost of Revenue,Gross Profit,R&D Expenses,SG&A Expense,Operating Expenses,Operating Income,Interest Expense,Earnings before Tax,Income Tax Expense,Net Income - Non-Controlling int,Net Income - Discontinued ops,Net Income,Preferred Dividends,Net Income Com,EPS,EPS Diluted,Weighted Average Shs Out,Weighted Average Shs Out (Dil),Dividend per Share,Gross Margin,EBITDA Margin,EBIT Margin,Profit Margin,Free Cash Flow margin,EBITDA,EBIT,Consolidated Income,Earnings Before Tax Margin,Net Profit Margin
2019-12-31,53564000.0,-0.044677094294499994,0.0,0.0,0.0,6102000.0,27227000.0,26337000.0,19588000.0,14850000.0,0.0,0.0,0.0,13886000.0,0.0,13886000.0,0.04,0.04,30169000.0,30169000.0,0.204746594186,0.0,0.652994548577,0.491692181316,0.25924128145799996,0.335934582929,34977000.0,26337000.0,13886000.0,0.27723844373100004,0.25924128145799996
2018-12-31,56069000.0,0.305265853431,0.0,0.0,0.0,7477000.0,26376000.0,29693000.0,18799000.0,14040000.0,0.0,0.0,0.0,12254000.0,0.0,12254000.0,-0.01,-0.01,32162000.0,32162000.0,0.44875940551000004,0.0,0.688169933475,0.529579625105,0.218552141112,0.356756853163,38585000.0,29693000.0,12254000.0,0.25040575005800003,0.218552141112
2017-12-31,42956000.0,0.447889982473,0.0,0.0,0.0,7258000.0,23691000.0,22528000.0,13561000.0,9158000.0,0.0,0.0,0.0,7914000.0,0.0,7914000.0,0.03,0.03,31210000.0,31210000.0,0.470618391541,0.0,0.7107505354320001,0.524443616724,0.184235031195,0.0216267808921,30531000.0,22528000.0,7914000.0,0.213194897104,0.184235031195
2016-12-31,29668000.0,1.1898950824099999,0.0,0.0,0.0,7023000.0,15369000.0,15632000.0,9959000.0,6010000.0,11000.0,0.0,0.0,4302000.0,0.0,4302000.0,0.09,0.09,13204000.0,13204000.0,0.499848530748,0.0,0.589557772684,0.526897667521,0.14500471888900002,0.169913711743,17491000.0,15632000.0,4302000.0,0.202575165161,0.14500471888900002
2015-12-31,13547681.0,2.41211788757,0.0,0.0,0.0,4192125.0,7539410.0,6216737.0,4616434.0,1698669.0,9951.0,0.0,0.0,1227214.0,0.0,1227214.0,0.08,0.08,9618714.0,9628651.0,0.45984427102,0.0,0.549123720879,0.45887831282700003,0.0905848019303,0.567976984401,7439353.0,6216737.0,1227214.0,0.125384484621,0.0905848019303
2014-12-31,3970461.0,0.689539898512,0.0,0.0,0.0,2275426.0,3661280.0,556845.0,1372162.0,0.0,0.0,0.0,0.0,-568192.0,0.0,-568192.0,-0.15,-0.15,4264906.0,4264906.0,0.38495197784,0.0,0.257851670121,0.14024693857999998,-0.143104793121,0.44896071262299997,1023790.0,556845.0,-568192.0,0.0,-0.143104793121
2013-12-31,2350025.0,0.106875460408,37535.0,2312490.0,0.0,787220.0,936024.0,1376466.0,1342294.0,34172.0,0.0,0.0,0.0,34172.0,0.0,34172.0,,,,,0.0,0.9840000000000001,0.649,0.5857,0.015,-0.2037,1525013.0,1376466.0,34172.0,0.0145,0.0145
2012-12-31,2123116.0,,185621.0,1937495.0,0.0,50050.0,189165.0,1748330.0,1161978.0,586352.0,0.0,0.0,0.0,586352.0,0.0,586352.0,,,,,0.0,0.9126,0.882,0.8235,0.276,0.1582,1872906.0,1748330.0,586352.0,0.2762,0.2762
