,0,1,2,3,4,5,6,7,8,9,10,11,12,13,14
Date,Depreciation & Amortization,Stock-based compensation,Operating Cash Flow,Capital Expenditure,Acquisitions and disposals,Investment purchases and sales,Investing Cash flow,Issuance (repayment) of debt,Issuance (buybacks) of shares,Dividend payments,Financing Cash Flow,Effect of forex changes on cash,Net cash flow / Change in cash,Free Cash Flow,Net Cash/Marketcap
2018-12-31,2575000.0,2116000.0,39630000.0,18161000.0,-0.0,48796000.0,-450763000.0,-91422000.0,0.0,-0.0,421664000.0,0.0,10531000.0,21469000.0,0.0
2017-12-31,2239000.0,1842000.0,-984000.0,22525000.0,-0.0,48547000.0,-357899000.0,-0.0,0.0,-0.0,386271000.0,0.0,27388000.0,-23509000.0,0.0
2016-12-31,1605000.0,759000.0,5289000.0,14291000.0,-0.0,36982000.0,-459481000.0,66666000.0,64621000.0,-0.0,461607000.0,0.0,34554000.0,-9002000.0,0.0
2015-12-31,2240000.0,600000.0,4636000.0,14214000.0,-0.0,31159000.0,-330455000.0,-47000000.0,-27139000.0,-0.0,224132000.0,0.0,-101687000.0,-9578000.0,0.0
2014-12-31,1842000.0,420000.0,9701000.0,14664000.0,-0.0,0.0,-164305000.0,-0.0,-83973000.0,-0.0,247550000.0,0.0,92946000.0,-4963000.0,0.0
2013-12-31,1374000.0,325000.0,560000.0,0.0,-0.0,0.0,-73017000.0,-0.0,0.0,-0.0,-19667000.0,0.0,-92124000.0,560000.0,0.0
2012-12-31,1566000.0,370000.0,7204000.0,0.0,-0.0,0.0,-46745000.0,-0.0,0.0,-0.0,-63410000.0,0.0,-102951000.0,7204000.0,0.0
2011-12-31,2032000.0,359000.0,7914000.0,0.0,-0.0,0.0,-7705000.0,-0.0,0.0,-0.0,194881000.0,0.0,195090000.0,7914000.0,0.0
2010-12-31,2029000.0,276000.0,9791000.0,-3035000.0,0.0,90993000.0,91904000.0,-25000000.0,28816000.0,0.0,-121448000.0,0.0,-19753000.0,6756000.0,0.1035
2009-12-31,1858000.0,278000.0,-2666000.0,-12139000.0,0.0,-31605000.0,-42233000.0,-77309000.0,166000.0,0.0,66099000.0,0.0,21200000.0,-14805000.0,0.1035
