,0,1,2,3,4,5,6,7,8,9,10,11,12,13,14
Date,Depreciation & Amortization,Stock-based compensation,Operating Cash Flow,Capital Expenditure,Acquisitions and disposals,Investment purchases and sales,Investing Cash flow,Issuance (repayment) of debt,Issuance (buybacks) of shares,Dividend payments,Financing Cash Flow,Effect of forex changes on cash,Net cash flow / Change in cash,Free Cash Flow,Net Cash/Marketcap
2019-12-31,813000.0,3609000.0,34215000.0,1064000.0,-0.0,-265421000.0,-18261000.0,-0.0,-120096000.0,-0.0,142015000.0,0.0,157969000.0,33151000.0,0.0
2018-12-31,654000.0,455000.0,-17024000.0,-436000.0,0.0,0.0,-436000.0,5000000.0,73000.0,0.0,41712000.0,0.0,24252000.0,-17460000.0,0.3873
2017-12-31,531000.0,91000.0,-14614000.0,-1863000.0,0.0,0.0,-1863000.0,0.0,27000.0,0.0,27978000.0,0.0,11501000.0,-16477000.0,0.3873
