,0,1,2,3,4,5,6,7,8,9,10,11,12,13,14
Date,Depreciation & Amortization,Stock-based compensation,Operating Cash Flow,Capital Expenditure,Acquisitions and disposals,Investment purchases and sales,Investing Cash flow,Issuance (repayment) of debt,Issuance (buybacks) of shares,Dividend payments,Financing Cash Flow,Effect of forex changes on cash,Net cash flow / Change in cash,Free Cash Flow,Net Cash/Marketcap
2019-12-31,105220000.0,7919000.0,146786000.0,53709000.0,-0.0,0.0,-42295000.0,-95741000.0,-34800000.0,-0.0,-106181000.0,697000.0,-993000.0,93077000.0,0.0
2018-12-31,113566000.0,6240000.0,27196000.0,50609000.0,-4500000.0,0.0,-51052000.0,-12510000.0,-35793000.0,-0.0,-43451000.0,-1434000.0,-68741000.0,-23413000.0,0.0
2017-12-31,123782000.0,3696000.0,42334000.0,52514000.0,-36709000.0,0.0,-66023000.0,-12008000.0,-104534000.0,-0.0,86250000.0,1949000.0,64510000.0,-10180000.0,0.0
2016-12-31,108117000.0,300000.0,76925000.0,54289000.0,-1008158000.0,0.0,-1062447000.0,-1300536000.0,-40024000.0,-0.0,981728000.0,228000.0,-3566000.0,22636000.0,0.0
2015-12-31,39824000.0,,73193000.0,-17467000.0,-885528000.0,,-900801000.0,725038000.0,228392000.0,0.0,883487000.0,-2498000.0,53381000.0,,-0.7516
