,0,1,2,3,4,5,6,7,8,9,10,11,12,13,14,15,16,17,18,19,20,21,22,23,24,25,26,27,28
Date,Cash and cash equivalents,Short-term investments,Cash and short-term investments,Receivables,Inventories,Total current assets,Property Plant & Equipment Net,Goodwill and Intangible Assets,Long-term investments,Tax assets,Total non-current assets,Total assets,Payables,Short-term debt,Total current liabilities,Long-term debt,Total debt,Deferred revenue,Tax Liabilities,Deposit Liabilities,Total non-current liabilities,Total liabilities,Other comprehensive income,Retained earnings (deficit),Total shareholders equity,Investments,Net Debt,Other Assets,Other Liabilities
2018-12-31,6291000.0,18331000.0,24622000.0,876000.0,0.0,25498000.0,2731000.0,0.0,4710000.0,731000.0,302771000.0,328269000.0,0.0,13750000.0,13750000.0,58076000.0,71826000.0,0.0,0.0,222615000.0,58298000.0,296756000.0,15465000.0,16212000.0,31513000.0,23041000.0,65535000.0,0.0,224708000.0
2017-12-31,10397000.0,18313000.0,28710000.0,824000.0,0.0,29534000.0,3064000.0,0.0,8725000.0,610000.0,284848000.0,314382000.0,0.0,13000000.0,13000000.0,51447000.0,64447000.0,0.0,0.0,216691000.0,51689000.0,283326000.0,15125000.0,16077000.0,31056000.0,27038000.0,54050000.0,0.0,218637000.0
2016-12-31,7407000.0,17747000.0,25154000.0,652000.0,0.0,25806000.0,3175000.0,0.0,5773000.0,814000.0,247915000.0,273721000.0,0.0,0.0,0.0,56813000.0,56813000.0,0.0,0.0,182934000.0,57121000.0,241862000.0,16002000.0,15923000.0,31859000.0,23520000.0,49406000.0,0.0,184741000.0
2015-12-31,6147000.0,0.0,6147000.0,0.0,0.0,10682000.0,2744000.0,0.0,35335000.0,0.0,,255807000.0,0.0,0.0,186675000.0,46092000.0,47206000.0,0.0,0.0,185561000.0,,234047000.0,-212000.0,14985000.0,21760000.0,241045000.0,,,186675000.0
2014-12-31,4335000.0,,,0.0,0.0,,2836000.0,0.0,,0.0,,246194000.0,0.0,,,,48383000.0,0.0,0.0,175307000.0,,224990000.0,-226000.0,14472000.0,21204000.0,233624000.0,,,
