,0,1,2,3,4,5,6,7,8,9,10,11,12,13,14,15,16,17,18,19,20,21,22,23,24,25,26,27,28,29,30
Date,Revenue,Revenue Growth,Cost of Revenue,Gross Profit,R&D Expenses,SG&A Expense,Operating Expenses,Operating Income,Interest Expense,Earnings before Tax,Income Tax Expense,Net Income - Non-Controlling int,Net Income - Discontinued ops,Net Income,Preferred Dividends,Net Income Com,EPS,EPS Diluted,Weighted Average Shs Out,Weighted Average Shs Out (Dil),Dividend per Share,Gross Margin,EBITDA Margin,EBIT Margin,Profit Margin,Free Cash Flow margin,EBITDA,EBIT,Consolidated Income,Earnings Before Tax Margin,Net Profit Margin
2019-12-31,11605000.0,-0.08399898967569999,0.0,0.0,0.0,7289000.0,7289000.0,-268000.0,3843000.0,-268000.0,-189000.0,0.0,0.0,-79000.0,0.0,-79000.0,-0.03,-0.03,2694561.0,2694561.0,0.0,0.0,0.0312796208531,-0.0230934941835,-0.00680741059888,0.0664368806549,363000.0,-268000.0,-79000.0,-0.0230934941835,-0.00680741059888
2018-12-31,12669200.0,0.018830413372900003,0.0,12669200.0,0.0,9529867.0,11356417.0,1312783.0,0.0,1312783.0,232262.0,0.0,0.0,1080521.0,0.0,1080521.0,0.18,0.18,6083500.0,6083500.0,0.0,1.0,0.146,0.1036,0.085,-0.0671,1852319.0,1312783.0,1080521.0,0.1036,0.0853
2017-12-31,12435043.0,0.0,0.0,12435043.0,0.0,9039845.0,10822449.0,1612594.0,0.0,1612594.0,700560.0,0.0,0.0,912034.0,0.0,912034.0,0.19,0.19,6084000.0,,0.0,1.0,0.175,0.1297,0.073,0.1582,2172963.0,1612594.0,912034.0,0.1297,0.0733
2016-12-31,,0.0,,,,,,,,,430000.0,,,,,1002000.0,0.16,0.16,6084000.0,,,,,,,,,,,,
2015-12-31,,,,,,,,,,,479000.0,,,,,1079000.0,0.18,0.18,6084000.0,,,,,,,,,,,,
