,0,1,2,3,4,5,6,7,8,9,10,11,12,13,14,15,16,17,18,19,20,21,22,23,24,25,26,27,28
Date,Cash and cash equivalents,Short-term investments,Cash and short-term investments,Receivables,Inventories,Total current assets,Property Plant & Equipment Net,Goodwill and Intangible Assets,Long-term investments,Tax assets,Total non-current assets,Total assets,Payables,Short-term debt,Total current liabilities,Long-term debt,Total debt,Deferred revenue,Tax Liabilities,Deposit Liabilities,Total non-current liabilities,Total liabilities,Other comprehensive income,Retained earnings (deficit),Total shareholders equity,Investments,Net Debt,Other Assets,Other Liabilities
2019-12-31,4009000.0,44785000.0,48794000.0,1235000.0,0.0,50029000.0,5338000.0,0.0,2735000.0,1564000.0,359464000.0,409493000.0,0.0,0.0,0.0,2300000.0,2300000.0,0.0,0.0,281616000.0,3138000.0,352427000.0,55963000.0,521000.0,57066000.0,47520000.0,-1709000.0,0.0,349289000.0
2018-12-31,12350000.0,,,0.0,0.0,,5581000.0,0.0,6461000.0,0.0,,387114000.0,0.0,,,0.0,75737000.0,0.0,0.0,274446000.0,,354387000.0,-465000.0,,32727000.0,361777000.0,,,
2017-12-31,10619167.0,,,0.0,0.0,,5943723.0,0.0,4969000.0,0.0,,359747193.0,0.0,,,0.0,72225426.0,0.0,0.0,249560898.0,,327848998.0,-213703.0,,31898195.0,336563746.0,,,
2016-12-31,,,,,,,,,,,,330375000.0,,,,50131000.0,,,,,,,,,,,,,
2015-12-31,,,,,,,,,,,,311580000.0,,,,50234000.0,,,,,,,,,,,,,
