,0,1,2,3,4,5,6,7,8,9,10,11,12,13,14,15,16,17,18,19,20,21,22,23,24,25,26,27,28
Date,Cash and cash equivalents,Short-term investments,Cash and short-term investments,Receivables,Inventories,Total current assets,Property Plant & Equipment Net,Goodwill and Intangible Assets,Long-term investments,Tax assets,Total non-current assets,Total assets,Payables,Short-term debt,Total current liabilities,Long-term debt,Total debt,Deferred revenue,Tax Liabilities,Deposit Liabilities,Total non-current liabilities,Total liabilities,Other comprehensive income,Retained earnings (deficit),Total shareholders equity,Investments,Net Debt,Other Assets,Other Liabilities
2019-12-31,1578075.0,0.0,1578075.0,0.0,0.0,1704097.0,0.0,0.0,250567358.0,0.0,250567358.0,252271455.0,118805.0,0.0,221255.0,0.0,0.0,0.0,102450.0,0.0,0.0,247271445.0,4706859.0,292962.0,5000010.0,250567358.0,-1578075.0,0.0,247050190.0
