,0,1,2,3,4,5,6,7,8,9,10,11,12,13,14,15,16,17,18,19,20,21,22,23,24,25,26,27,28,29,30
Date,Revenue,Revenue Growth,Cost of Revenue,Gross Profit,R&D Expenses,SG&A Expense,Operating Expenses,Operating Income,Interest Expense,Earnings before Tax,Income Tax Expense,Net Income - Non-Controlling int,Net Income - Discontinued ops,Net Income,Preferred Dividends,Net Income Com,EPS,EPS Diluted,Weighted Average Shs Out,Weighted Average Shs Out (Dil),Dividend per Share,Gross Margin,EBITDA Margin,EBIT Margin,Profit Margin,Free Cash Flow margin,EBITDA,EBIT,Consolidated Income,Earnings Before Tax Margin,Net Profit Margin
2018-12-31,1931473000.0,0.11708407772900001,1320252000.0,611221000.0,0.0,426377000.0,483653000.0,127568000.0,12620000.0,90787000.0,24922000.0,24415000.0,0.0,65865000.0,0.0,65865000.0,1.83,1.8,34590689.0,34590689.0,0.54,0.3165,0.081,0.0535,0.034,0.0305,156179000.0,103407000.0,90280000.0,0.047,0.0341
2017-12-31,1729031000.0,0.16598814880999999,1188814000.0,540217000.0,0.0,385037000.0,435255000.0,104962000.0,9867000.0,73020000.0,21568000.0,23595000.0,0.0,51452000.0,0.0,51452000.0,1.43,1.41,34516917.0,34516917.0,0.49,0.3124,0.07200000000000001,0.0479,0.03,0.0459,124936000.0,82887000.0,75047000.0,0.0422,0.0298
2016-12-31,1482889000.0,0.173100214623,1050087000.0,432802000.0,0.0,305222000.0,342252000.0,90550000.0,9152000.0,60984000.0,27387000.0,20646000.0,0.0,33597000.0,0.0,33597000.0,0.93,0.92,34613317.0,34613317.0,0.44,0.2919,0.07200000000000001,0.0473,0.023,0.0539,107105000.0,70136000.0,54243000.0,0.0411,0.0227
2015-12-31,1264077000.0,0.116673822131,883963000.0,380114000.0,0.0,279235000.0,309367000.0,70747000.0,9077000.0,44807000.0,23412000.0,16803000.0,0.0,21395000.0,0.0,21395000.0,0.59,0.59,34613317.0,34613317.0,0.3,0.3007,0.066,0.0426,0.017,0.0533,82868000.0,53884000.0,38198000.0,0.0354,0.0169
2014-12-31,1132002000.0,0.0904692959261,800046000.0,331956000.0,0.0,258678000.0,286335000.0,45621000.0,6932000.0,25212000.0,12242000.0,13222000.0,0.0,12970000.0,0.0,12970000.0,0.36,0.36,,,0.0,0.2932,0.052000000000000005,0.0284,0.011000000000000001,0.0201,58618000.0,32144000.0,26192000.0,0.0223,0.0115
2013-12-31,1038087000.0,,731204000.0,306883000.0,0.0,229829000.0,269800000.0,37083000.0,12826000.0,8980000.0,5785000.0,15257000.0,0.0,3195000.0,0.0,3195000.0,0.09,0.09,,,0.0,0.2956,0.059000000000000004,0.021,0.003,0.017,61122000.0,21806000.0,18452000.0,0.0087,0.0031
