,0,1,2,3,4,5,6,7,8,9,10,11,12,13,14
Date,Depreciation & Amortization,Stock-based compensation,Operating Cash Flow,Capital Expenditure,Acquisitions and disposals,Investment purchases and sales,Investing Cash flow,Issuance (repayment) of debt,Issuance (buybacks) of shares,Dividend payments,Financing Cash Flow,Effect of forex changes on cash,Net cash flow / Change in cash,Free Cash Flow,Net Cash/Marketcap
2018-12-31,52772000.0,0.0,99461000.0,-40597000.0,-59444000.0,0.0,-106199000.0,62288000.0,-5316000.0,-18780000.0,20442000.0,-754000.0,12950000.0,58864000.0,
2017-12-31,42049000.0,0.0,115635000.0,-36257000.0,-39573000.0,0.0,-79661000.0,17422000.0,-12567000.0,-17141000.0,-26328000.0,414000.0,10060000.0,79378000.0,
2016-12-31,36969000.0,-1605000.0,109005000.0,-29122000.0,-90852000.0,0.0,-130843000.0,49385000.0,-7609000.0,-15471000.0,19500000.0,162000.0,-2176000.0,79883000.0,
2015-12-31,28984000.0,-10017000.0,87090000.0,-19694000.0,-12340000.0,0.0,-32278000.0,-38162000.0,-12687000.0,-7196000.0,-75137000.0,-905000.0,-21230000.0,67396000.0,
2014-12-31,26474000.0,0.0,45177000.0,-22439000.0,-16686000.0,0.0,-39901000.0,13492000.0,0.0,0.0,-24626000.0,-226000.0,-19576000.0,22738000.0,
2013-12-31,39316000.0,0.0,34425000.0,-16744000.0,-6423000.0,0.0,-24559000.0,9055000.0,0.0,0.0,-7440000.0,-530000.0,1896000.0,17681000.0,
