,0,1,2,3,4,5,6,7,8,9,10,11,12,13,14,15,16,17,18,19,20,21,22,23,24,25,26,27,28
Date,Cash and cash equivalents,Short-term investments,Cash and short-term investments,Receivables,Inventories,Total current assets,Property Plant & Equipment Net,Goodwill and Intangible Assets,Long-term investments,Tax assets,Total non-current assets,Total assets,Payables,Short-term debt,Total current liabilities,Long-term debt,Total debt,Deferred revenue,Tax Liabilities,Deposit Liabilities,Total non-current liabilities,Total liabilities,Other comprehensive income,Retained earnings (deficit),Total shareholders equity,Investments,Net Debt,Other Assets,Other Liabilities
2018-12-31,2300398.0,0.0,2300398.0,0.0,0.0,2392894.0,0.0,0.0,345940028.0,0.0,345940028.0,348332922.0,111269.0,0.0,293295.0,0.0,0.0,0.0,182026.0,0.0,14700000.0,14993295.0,0.0,541905.0,5000007.0,345940028.0,-2300398.0,92496.0,182026.0
2017-12-31,0.0,0.0,0.0,0.0,0.0,0.0,0.0,0.0,0.0,,,1931.0,1057.0,0.0,2988.0,0.0,,,,,,2988.0,,-1057.0,-1057.0,0.0,0.0,0.0,1931.0
