,0,1,2,3,4,5,6,7,8,9,10,11,12,13,14,15,16,17,18,19,20,21,22,23,24,25,26,27,28
Date,Cash and cash equivalents,Short-term investments,Cash and short-term investments,Receivables,Inventories,Total current assets,Property Plant & Equipment Net,Goodwill and Intangible Assets,Long-term investments,Tax assets,Total non-current assets,Total assets,Payables,Short-term debt,Total current liabilities,Long-term debt,Total debt,Deferred revenue,Tax Liabilities,Deposit Liabilities,Total non-current liabilities,Total liabilities,Other comprehensive income,Retained earnings (deficit),Total shareholders equity,Investments,Net Debt,Other Assets,Other Liabilities
2019-12-31,428000000.0,7000000.0,435000000.0,11000000.0,0.0,461000000.0,51000000.0,692000000.0,785000000.0,6000000.0,789000000.0,1250000000.0,48000000.0,7000000.0,364000000.0,973000000.0,980000000.0,188000000.0,2000000.0,0.0,1045000000.0,1429000000.0,29000000.0,-188000000.0,-179000000.0,792000000.0,552000000.0,0.0,20000000.0
2018-12-31,296000000.0,9000000.0,305000000.0,12000000.0,0.0,330000000.0,47000000.0,634000000.0,601000000.0,3000000.0,711000000.0,1041000000.0,41000000.0,7000000.0,345000000.0,977000000.0,984000000.0,185000000.0,0.0,0.0,1040000000.0,1385000000.0,0.0,-336000000.0,-344000000.0,610000000.0,688000000.0,0.0,0.0
2017-12-31,282000000.0,25000000.0,307000000.0,406000000.0,0.0,741000000.0,31000000.0,641000000.0,2000000.0,0.0,675000000.0,1416000000.0,33000000.0,9000000.0,705000000.0,0.0,9000000.0,573000000.0,38000000.0,0.0,50000000.0,755000000.0,0.0,0.0,661000000.0,27000000.0,-298000000.0,28000000.0,663000000.0
2016-12-31,168000000.0,25000000.0,193000000.0,372000000.0,0.0,594000000.0,24000000.0,648000000.0,5000000.0,0.0,682000000.0,1276000000.0,28000000.0,4000000.0,641000000.0,10000000.0,14000000.0,528000000.0,56000000.0,0.0,75000000.0,716000000.0,0.0,0.0,560000000.0,30000000.0,-179000000.0,29000000.0,609000000.0
2015-12-31,0.0,0.0,0.0,0.0,0.0,0.0,0.0,0.0,0.0,,,0.0,0.0,0.0,0.0,0.0,,,,,,0.0,,0.0,0.0,26000000.0,,,0.0
