,0,1,2,3,4,5,6,7,8,9,10,11,12,13,14,15,16,17,18,19,20,21,22,23,24,25,26,27,28,29,30
Date,Revenue,Revenue Growth,Cost of Revenue,Gross Profit,R&D Expenses,SG&A Expense,Operating Expenses,Operating Income,Interest Expense,Earnings before Tax,Income Tax Expense,Net Income - Non-Controlling int,Net Income - Discontinued ops,Net Income,Preferred Dividends,Net Income Com,EPS,EPS Diluted,Weighted Average Shs Out,Weighted Average Shs Out (Dil),Dividend per Share,Gross Margin,EBITDA Margin,EBIT Margin,Profit Margin,Free Cash Flow margin,EBITDA,EBIT,Consolidated Income,Earnings Before Tax Margin,Net Profit Margin
2019-03-31,102314781.8182,-0.036824681737500004,57745763.6364,44569018.1818,0.0,41367781.8182,41367781.8182,3201236.3636,1103618.1818,2904781.8182,920827.2727,92118.1818,0.0,1983954.5455,0.0,1983954.5455,0.1036,0.1,345726.0182,345726.0182,0.0,0.4356,0.001,0.0392,0.0002,-0.0209,11425372.7273,4008400.0,2076072.7273,0.0284,0.0194
2018-03-31,106226540.359,0.04888149994419999,61196712.8512,45029827.5078,0.0,43262263.3918,50096978.7621,-5067151.2543,826738.0428,-6967207.2356,-890950.2817,92867.6393,0.0,-6076256.9539,0.0,-6076256.9539,-0.3201,-0.3201,331705.1713,331705.1713,0.0,0.4239,0.0002,-0.0578,-0.0005,0.0777,2755073.3004,-6140469.1928,-5983389.3146,-0.0656,-0.0572
2017-03-31,101276016.7518,0.0773623834444,62437622.976,38838393.7758,0.0,49478419.408999994,49478419.408999994,-10640025.6332,1134926.0790000001,-11942848.8907,-4134781.6669,56176.3272,0.0,-7808067.2239,0.0,-7808067.2239,-0.4296,-0.4296,322683.1778,322683.1778,0.0,0.3835,-0.0001,-0.1067,-0.0007,-0.1074,-1343267.686,-10807922.8117,-7751890.8966,-0.1179,-0.0771
2016-03-31,94003668.8751,0.787805270802,51408937.0948,42594731.7803,0.0,43220568.8537,43220568.8537,-625837.0734,487933.6753,-2088293.4388,1630734.8436,51266.2962,0.0,-3719028.2824,0.0,-3719028.2824,-0.2084,-0.2084,316051.8629,316051.8629,0.0,0.4531,0.0006,-0.017,-0.0004,-0.0416,6376994.7282,-1600359.7635,-3667761.9862,-0.0222,-0.0396
2015-03-31,52580485.36399999,0.29030480989,26398056.876,26182428.488,0.0,23885522.4752,23885522.4752,2296906.0128,234984.5718,3807413.8938,1985605.8711,14594.278999999999,0.0,1821808.0227,0.0,1821808.0227,0.1051,0.1017,286976.5658,286976.5658,0.0,0.4979,0.0014,0.0769,0.0003,0.0712,8958852.4727,4042398.4655,1836402.3017,0.0724,0.0346
2014-03-31,40750437.3858,-0.185354470036,22678181.2527,18072256.1331,0.0,24273346.6817,24273346.6817,-6201090.5486,300017.4954,-5384714.8245,-1026894.3665,46635.0453,0.0,-4357820.458000001,0.0,-4357820.458000001,-0.2566,-0.2566,310362.7386,310362.7386,0.0,0.4435,-0.0002,-0.1248,-0.001,-0.1217,-782735.8967,-5084697.329,-4311185.4127,-0.1321,-0.1069
2013-03-31,50022292.9936,-0.192004421159,19720201.6985,30302091.2951,0.0,20690265.3928,20690265.3928,9611825.9023,249193.2059,11103025.4777,4775838.6412,47664.5435,0.0,6327186.8365,0.0,6327186.8365,0.4013,0.3885,362328.6624,362328.6624,0.0,0.6058,0.0031,0.2269,0.0013,-0.1935,14600530.7856,11352218.6837,6374851.38,0.222,0.1265
2012-03-31,61909117.2075,0.9104501315970001,19440383.7809,42468733.4265,0.0,13902873.5355,13902873.5355,28565859.891,161033.7014,28580203.4617,12094896.5816,35569.6447,0.0,16485306.8801,0.0,16485306.8801,1.2415,1.0173,411399.6432,411399.6432,0.0,0.6859999999999999,0.0059,0.4642,0.0032,0.297,30300515.8864,28741237.1631,16520876.5248,0.4616,0.2663
2011-03-31,32405513.3309,,11777669.2001,20627844.1308,0.0,8079889.0095,8079889.0095,12547955.1212,172059.3558,11962058.1494,2446941.73,-11255.8813,0.0,9515116.4194,0.0,9515116.4194,0.8059,0.6008,,,0.0,0.6366,0.0048,0.3744,0.0035,0.0843,12836409.6996,12134117.5051,9503860.5381,0.3691,0.2936
