,0,1,2,3,4,5,6,7,8,9,10,11,12,13,14,15,16,17,18,19,20,21,22,23,24,25,26,27,28,29,30
Date,Revenue,Revenue Growth,Cost of Revenue,Gross Profit,R&D Expenses,SG&A Expense,Operating Expenses,Operating Income,Interest Expense,Earnings before Tax,Income Tax Expense,Net Income - Non-Controlling int,Net Income - Discontinued ops,Net Income,Preferred Dividends,Net Income Com,EPS,EPS Diluted,Weighted Average Shs Out,Weighted Average Shs Out (Dil),Dividend per Share,Gross Margin,EBITDA Margin,EBIT Margin,Profit Margin,Free Cash Flow margin,EBITDA,EBIT,Consolidated Income,Earnings Before Tax Margin,Net Profit Margin
2018-12-31,888670.0,-0.974172142278,975042.0,-86372.0,0.0,11944924.0,190430250.0,-190516623.0,0.0,-189752121.0,237.0,0.0,0.0,-169997054.0,0.0,-169997054.0,-7.85,-7.74,21636146.0,21966612.0,0.0,-0.0971924336368,-214.383992933,-214.383992933,-191.29379184599998,-5.49150640845,-190516623.0,-190516623.0,-169997054.0,-213.52371634,-191.29379184599998
2017-12-31,34407422.0,-0.6019520825460001,25233950.0,9173472.0,0.0,5010222.0,6942370.0,2231102.0,0.0,968131.0,1601967.0,0.0,0.0,-5292575.0,0.0,-5292575.0,-1.41,-1.41,3933999.0,3933999.0,0.0,0.266613174332,0.222544746305,0.0648436258898,-0.1538207367,-1.25453819237,7657191.0,2231102.0,-5292575.0,0.0281372722432,-0.1538207367
2016-12-31,86440402.0,-0.127395258088,60315601.0,26124801.0,0.0,10684077.0,15880734.0,10244067.0,3885018.0,3646850.0,4267350.0,0.0,0.0,2948735.0,0.0,2948735.0,0.11,0.11,26828166.0,26828166.0,0.0,0.302229054881,0.206637389308,0.118510173055,0.0341129255739,1.20294555085,17861819.0,10244067.0,2948735.0,0.0421891837106,0.0341129255739
2015-12-31,99060202.0,0.254144161919,69783694.0,29276508.0,0.0,6134623.0,11834098.0,17442410.0,4547914.0,12962367.0,4331551.0,0.0,0.0,7871448.0,0.0,7871448.0,0.3,0.3,26661499.0,26661499.0,0.0,0.295542583287,0.232579971925,0.17607888584800002,0.07946125528800001,-0.113132335426,23039419.0,17442410.0,7871448.0,0.130853427898,0.07946125528800001
2014-12-31,78986296.0,-0.228317878499,51433323.0,27552973.0,20183.0,5296910.0,9375877.0,18177096.0,1983831.0,17022453.0,4639259.0,0.0,0.0,13169578.0,0.0,13169578.0,0.46,0.46,26661499.0,26661499.0,0.0,0.348832321495,0.295579033102,0.23012974301300002,0.16673244179000002,0.155613652272,23346693.0,18177096.0,13169578.0,0.215511473028,0.16673244179000002
2013-12-31,102356001.0,1.0,69283010.0,33072991.0,570278.0,4409055.0,7878474.0,25194517.0,888574.0,26054125.0,6871238.0,0.0,0.0,19182887.0,-377718.0,19182887.0,0.68,0.68,26107264.0,26661499.0,0.0,0.323117264028,0.291050770926,0.24614596851999998,0.18741340822799998,0.123774022785,29790793.0,25194517.0,19182887.0,0.254544186422,0.18741340822799998
2012-12-31,0.0,-1.0,0.0,0.0,0.0,0.0,0.0,0.0,0.0,0.0,0.0,0.0,0.0,0.0,0.0,0.0,0.0,0.0,0.0,0.0,0.0,0.0,0.0,0.0,0.0,0.0,0.0,0.0,0.0,0.0,0.0
2011-12-31,84021429.0,-0.09896232402170001,56548845.0,27472584.0,557361.0,7866517.0,8423878.0,19048706.0,849743.0,18294455.0,5089285.0,926192.0,0.0,13205170.0,0.0,13205170.0,4.0,4.0,3211300.0,3211300.0,0.0,0.327,0.27,0.2278,0.157,0.2164,22696938.0,19144198.0,14131362.0,0.2177,0.1572
2010-12-31,93249629.0,0.573834728974,55233139.0,38016490.0,1087443.0,5046565.0,6134008.0,31882482.0,801496.0,29701460.0,8520884.0,1791873.0,0.0,21180576.0,0.0,21180576.0,7.36,7.36,3198925.0,2709246.0,0.0,0.4077,0.353,0.3271,0.22699999999999998,0.0321,32896812.0,30502956.0,22972449.0,0.3185,0.2271
2009-12-31,59249950.0,0.4226,33869358.0,25380592.0,1102658.0,3351611.0,4454269.0,20926323.0,817759.0,21214448.0,6025675.0,1215827.0,0.0,15188773.0,0.0,15188773.0,6.72,6.72,2193487.0,1916677.0,0.0,0.4284,0.406,0.3719,0.256,0.0487,24044419.0,22032207.0,16404600.0,0.3581,0.2564
