,0,1,2,3,4,5,6,7,8,9,10,11,12,13,14,15,16,17,18,19,20,21,22,23,24,25,26,27,28,29,30
Date,Revenue,Revenue Growth,Cost of Revenue,Gross Profit,R&D Expenses,SG&A Expense,Operating Expenses,Operating Income,Interest Expense,Earnings before Tax,Income Tax Expense,Net Income - Non-Controlling int,Net Income - Discontinued ops,Net Income,Preferred Dividends,Net Income Com,EPS,EPS Diluted,Weighted Average Shs Out,Weighted Average Shs Out (Dil),Dividend per Share,Gross Margin,EBITDA Margin,EBIT Margin,Profit Margin,Free Cash Flow margin,EBITDA,EBIT,Consolidated Income,Earnings Before Tax Margin,Net Profit Margin
2019-12-31,119353000.0,-0.328621331698,149225000.0,-29872000.0,8863000.0,27975000.0,36838000.0,-76625000.0,2019000.0,-76936000.0,-201000.0,0.0,0.0,-32279000.0,0.0,-32279000.0,-0.55,-0.55,58750000.0,58750000.0,0.0,-0.250282774627,-0.559349157541,-0.642003133562,-0.270449842065,-0.177456787848,-66760000.0,-76625000.0,-32279000.0,-0.64460884938,-0.270449842065
2018-12-31,177773000.0,-0.439375208926,159808000.0,17965000.0,10356000.0,31467000.0,41823000.0,-69811000.0,2866000.0,-80657000.0,-7216000.0,0.0,0.0,-70340000.0,0.0,-70340000.0,-1.21,-1.21,57995000.0,57995000.0,0.0,0.101055840876,-0.33860597503600004,-0.392697428743,-0.395673133715,-0.137113059913,-60195000.0,-69811000.0,-70340000.0,-0.453707818398,-0.395673133715
2017-12-31,317098000.0,0.206466488099,215129000.0,101969000.0,13645000.0,37236000.0,50881000.0,-2855000.0,2168000.0,-4211000.0,8842000.0,0.0,0.0,-27395000.0,0.0,-27395000.0,-0.48,-0.48,57580000.0,57580000.0,0.0,0.321569357107,0.0308295858063,-0.00900352572391,-0.0863928501599,0.025768059085800002,9776000.0,-2855000.0,-27395000.0,-0.013279806242899999,-0.0863928501599
2016-12-31,262832000.0,-0.21392275966899998,172154000.0,90678000.0,9320000.0,80150000.0,97982000.0,-7304000.0,1979000.0,3144000.0,1237000.0,0.0,0.0,-49130000.0,0.0,-49130000.0,-0.88,-0.88,56087000.0,56350000.0,0.0,0.345003652523,0.013502922018600002,-0.0277896146588,-0.186925488525,-0.045298898155500006,3549000.0,-7304000.0,-49130000.0,0.011962013757799999,-0.186925488525
2015-12-31,334359000.0,-0.255585463435,219249000.0,115110000.0,7455000.0,95483000.0,134283000.0,-19173000.0,1762000.0,-21116000.0,-7654000.0,0.0,0.0,-13462000.0,0.0,-13462000.0,-0.25,-0.25,54459000.0,54459000.0,0.0,0.34427067912,-0.00240161024528,-0.057342556952300006,-0.040262113476800004,0.018551915755200002,-803000.0,-19173000.0,-13462000.0,-0.06315367613850001,-0.040262113476800004
2014-12-31,449157000.0,0.210453694097,266198000.0,182959000.0,4976000.0,87146000.0,102071000.0,80888000.0,1610000.0,78884000.0,25281000.0,0.0,0.0,53603000.0,0.0,53603000.0,0.98,0.97,54511000.0,55526000.0,0.0,0.407338636601,0.22058879189199998,0.180088476858,0.119341343895,0.0643761535499,99079000.0,80888000.0,53603000.0,0.17562678528900003,0.119341343895
2013-12-31,371065000.0,0.186163003312,223538000.0,147527000.0,3752000.0,78197000.0,88801000.0,58726000.0,2092000.0,56950000.0,20772000.0,0.0,0.0,36178000.0,0.0,36178000.0,0.7,0.67,51346000.0,53841000.0,0.0,0.397577243879,0.199584978373,0.15826337703600002,0.097497742983,0.0661366606929,74059000.0,58726000.0,36178000.0,0.153477153598,0.097497742983
2012-12-31,312828000.0,0.208833587727,181209000.0,131619000.0,3182000.0,66415000.0,72998000.0,58621000.0,8103000.0,0.0,-4333000.0,0.0,0.0,49791000.0,0.0,49791000.0,1.03,0.97,48185000.0,53554000.0,0.0,0.420739192144,0.239300829849,0.187390514916,0.159164141317,0.0921081233138,74860000.0,58621000.0,49791000.0,0.0,0.159164141317
2011-12-31,258785000.0,0.7606577676180001,152965000.0,105820000.0,2337000.0,50612000.0,56932000.0,48888000.0,15960000.0,39270000.0,7862000.0,0.0,0.0,31408000.0,0.0,31408000.0,0.6,0.56,44229000.0,47638000.0,0.0,0.408910871959,0.260501961087,0.18891357690699997,0.12136715806600001,0.0867090441873,67414000.0,48888000.0,31408000.0,0.15174758969799998,0.12136715806600001
2010-12-31,146982000.0,0.305926254998,94012000.0,52970000.0,1441000.0,41861000.0,59237000.0,-6267000.0,19399000.0,-49010000.0,-5545000.0,0.0,0.0,-43465000.0,6543000.0,-50008000.0,-1.94,-1.94,30810792.0,25731000.0,0.0,0.3604,-0.10800000000000001,-0.2015,-0.34,0.0411,-15843000.0,-29611000.0,-43465000.0,-0.3334,-0.2957
2009-12-31,112550000.0,-0.5021,83166000.0,29384000.0,2118000.0,36943000.0,62487000.0,-33103000.0,15524000.0,-48317000.0,2016000.0,0.0,0.0,-50333000.0,2231000.0,-52564000.0,-2.68,-2.68,23437714.0,19595000.0,0.0,0.2611,-0.165,-0.2914,-0.467,-0.0388,-18607000.0,-32793000.0,-50333000.0,-0.4293,-0.4472
