,0,1,2,3,4,5,6,7,8,9,10,11,12,13,14,15,16,17,18,19,20,21,22,23,24,25,26,27,28,29,30
Date,Revenue,Revenue Growth,Cost of Revenue,Gross Profit,R&D Expenses,SG&A Expense,Operating Expenses,Operating Income,Interest Expense,Earnings before Tax,Income Tax Expense,Net Income - Non-Controlling int,Net Income - Discontinued ops,Net Income,Preferred Dividends,Net Income Com,EPS,EPS Diluted,Weighted Average Shs Out,Weighted Average Shs Out (Dil),Dividend per Share,Gross Margin,EBITDA Margin,EBIT Margin,Profit Margin,Free Cash Flow margin,EBITDA,EBIT,Consolidated Income,Earnings Before Tax Margin,Net Profit Margin
2018-12-31,1801200000.0,0.204872468945,450400000.0,1350800000.0,244500000.0,875300000.0,1119800000.0,231000000.0,0.0,250900000.0,-81300000.0,0.0,0.0,332200000.0,0.0,332200000.0,1.96,1.91,169100000.0,174200000.0,0.0,0.7499444814569999,0.209971130358,0.128247834777,0.184432600489,0.32528314456999996,378200000.0,231000000.0,332200000.0,0.139296024872,0.184432600489
2017-12-31,1494930000.0,0.172086874913,385284000.0,1109646000.0,210614000.0,788888000.0,999842000.0,109804000.0,0.0,123994000.0,92595000.0,0.0,0.0,31399000.0,0.0,31399000.0,0.18,0.18,174315000.0,178079000.0,0.0,0.7422728823420001,0.10885994662000001,0.0734509308128,0.021003659034199998,0.307099997993,162738000.0,109804000.0,31399000.0,0.0829430140542,0.021003659034199998
2016-12-31,1275443000.0,0.26373074347,337837000.0,937606000.0,183084000.0,707581000.0,894662000.0,42944000.0,0.0,43148000.0,10961000.0,0.0,0.0,32187000.0,0.0,32187000.0,0.19,0.18,172621000.0,176338000.0,0.0,0.735121836099,0.0679638368786,0.0336698699981,0.0252359376311,0.218375889789,86684000.0,42944000.0,32187000.0,0.0338298144253,0.0252359376311
2015-12-31,1009268000.0,0.310118333671,286777000.0,722491000.0,158129000.0,541885000.0,707614000.0,14877000.0,0.0,17005000.0,9018000.0,0.0,0.0,7987000.0,0.0,7987000.0,0.05,0.05,170385000.0,176141000.0,0.0,0.715856442491,0.038650784529,0.014740386101599999,0.007913656234020001,0.242937455661,39009000.0,14877000.0,7987000.0,0.0168488449054,0.007913656234020001
2014-12-31,770364000.0,0.252019756313,231009000.0,539355000.0,122880000.0,357151000.0,480031000.0,59324000.0,0.0,61549000.0,36206000.0,0.0,0.0,25343000.0,0.0,25343000.0,0.15,0.15,163831000.0,169289000.0,0.0,0.7001300683830001,0.0943047702125,0.07700775217950001,0.032897435498000005,0.21338613953899999,72649000.0,59324000.0,25343000.0,0.0798959972169,0.032897435498000005
2013-12-31,615297000.0,0.153021049811,180643000.0,434654000.0,102660000.0,259904000.0,362564000.0,72090000.0,0.0,83076000.0,31668000.0,0.0,0.0,44273000.0,0.0,44273000.0,0.27,0.26,162435000.0,168183000.0,0.0,0.706413325597,0.142553921115,0.117162931072,0.0719538694322,0.216979767494,87713000.0,72090000.0,44273000.0,0.135017723148,0.0719538694322
2012-12-31,533639000.0,0.230785375574,147420000.0,386219000.0,81078000.0,204666000.0,285744000.0,100475000.0,0.0,104996000.0,38160000.0,0.0,0.0,66836000.0,0.0,66836000.0,0.42,0.4,158074000.0,166329000.0,0.0,0.7237458281720001,0.185662966912,0.188282715469,0.125245718548,0.303169371054,99077000.0,100475000.0,66836000.0,0.196754734943,0.125245718548
2011-12-31,433576000.0,0.335329046246,113598000.0,319978000.0,63577000.0,167497000.0,231074000.0,88904000.0,0.0,92073000.0,29581000.0,0.0,0.0,62492000.0,0.0,62492000.0,0.41,0.38,152581000.0,163781000.0,0.0,0.7379974906360001,0.19230307950599998,0.205048249903,0.144131594,0.298028488662,83378000.0,88904000.0,62492000.0,0.21235723379500002,0.144131594
2010-12-31,324696000.0,0.287888463598,85206000.0,239490000.0,49801000.0,134348000.0,184149000.0,55341000.0,0.0,56341000.0,15096000.0,0.0,0.0,41245000.0,0.0,41245000.0,0.29,0.26,147395388.0,140726000.0,0.0,0.7376,0.191,0.1735,0.127,0.3068,62037000.0,56341000.0,41245000.0,0.1735,0.127
2009-12-31,252115000.0,0.1904,69975000.0,182140000.0,42195000.0,114611000.0,156806000.0,25334000.0,0.0,27513000.0,-32666000.0,0.0,0.0,60179000.0,0.0,60179000.0,0.97,0.39,128787938.0,52668000.0,0.0,0.7224,0.133,0.1091,0.239,0.2276,33448000.0,27513000.0,60179000.0,0.1091,0.2387
