,0,1,2,3,4,5,6,7,8,9,10,11,12,13,14,15,16,17,18,19,20,21,22,23,24,25,26,27,28,29,30
Date,Revenue,Revenue Growth,Cost of Revenue,Gross Profit,R&D Expenses,SG&A Expense,Operating Expenses,Operating Income,Interest Expense,Earnings before Tax,Income Tax Expense,Net Income - Non-Controlling int,Net Income - Discontinued ops,Net Income,Preferred Dividends,Net Income Com,EPS,EPS Diluted,Weighted Average Shs Out,Weighted Average Shs Out (Dil),Dividend per Share,Gross Margin,EBITDA Margin,EBIT Margin,Profit Margin,Free Cash Flow margin,EBITDA,EBIT,Consolidated Income,Earnings Before Tax Margin,Net Profit Margin
2017-12-31,243409000.0,18.8393512104,206394000.0,37015000.0,0.0,32890000.0,38764000.0,-1749000.0,5819000.0,-19469000.0,560000.0,0.0,0.0,-20029000.0,80000.0,-20109000.0,-4.23,-4.23,5597296.0,4748563.0,0.0,0.1521,-0.016,-0.0561,-0.083,-0.0044,-3804000.0,-13650000.0,-20029000.0,-0.08,-0.0823
2016-12-31,12269000.0,0.0,8848000.0,3421000.0,0.0,4049000.0,5823000.0,-2402000.0,2272000.0,-6235000.0,0.0,0.0,0.0,-6235000.0,79000.0,-6314000.0,-0.1,-0.1,3425010.0,2590806.0,0.0,0.2788,-0.281,-0.32299999999999995,-0.515,-1.013,-3447000.0,-3963000.0,-6235000.0,-0.5082,-0.5082
2015-12-31,,0.0,,4411000.0,,,,-848000.0,,,,,,,,,,,,,,,,,,,,,,,
2015-09-30,14388682.0,-0.15020777226600002,11072080.0,2593752.0,0.0,4289073.0,19126009.0,-4610557.0,-1553219.0,-3554914.0,0.0,0.0,0.0,-3554914.0,79561.0,-3634475.0,-42.75,-42.75,91000.0,85089.0,0.0,0.2305,-0.149,-0.1562,-0.253,-0.0132,-2138514.0,-4610557.0,-3554914.0,-0.2471,-0.2471
2014-09-30,16932000.0,,12480000.0,3316602.0,,5259000.0,4923423.0,-1606821.0,1308076.0,516000.0,0.0,,,,,436000.0,5.45,5.28,80000.0,,,0.2605,,,,,,-2246838.0,,0.0305,
