,0,1,2,3,4,5,6,7,8,9,10,11,12,13,14
Date,Depreciation & Amortization,Stock-based compensation,Operating Cash Flow,Capital Expenditure,Acquisitions and disposals,Investment purchases and sales,Investing Cash flow,Issuance (repayment) of debt,Issuance (buybacks) of shares,Dividend payments,Financing Cash Flow,Effect of forex changes on cash,Net cash flow / Change in cash,Free Cash Flow,Net Cash/Marketcap
2019-12-31,1810000000.0,15000000.0,1508000000.0,1226000000.0,-0.0,0.0,-1134000000.0,-2008000000.0,-760000000.0,-0.0,32000000.0,0.0,810000000.0,282000000.0,0.0
2018-12-31,1988000000.0,18000000.0,1812000000.0,1192000000.0,-0.0,0.0,-1176000000.0,-2515000000.0,-354000000.0,-107000000.0,-608000000.0,0.0,404000000.0,620000000.0,0.0
2018-12,1954000000.0,18000000.0,1812000000.0,-1192000000.0,,0.0,-1176000000.0,-2818000000.0,,,-608000000.0,,28000000.0,620000000.0,
2017-12-31,2217000000.0,14000000.0,1850000000.0,1154000000.0,-0.0,0.0,-1054000000.0,-1811000000.0,-362000000.0,-266000000.0,-942000000.0,0.0,376000000.0,696000000.0,0.0
2017-12,2184000000.0,14000000.0,1850000000.0,-1188000000.0,,0.0,-1054000000.0,-1939000000.0,,,-942000000.0,,-146000000.0,662000000.0,
2016-12-31,2077000000.0,24000000.0,1666000000.0,1259000000.0,-9871000000.0,0.0,-11259000000.0,-453000000.0,-522000000.0,-493000000.0,735000000.0,0.0,522000000.0,407000000.0,0.0
2016-12,2031000000.0,24000000.0,1666000000.0,-1401000000.0,,0.0,-11259000000.0,-453000000.0,,,735000000.0,,-8858000000.0,265000000.0,
2015-12-31,1511000000.0,27000000.0,1301000000.0,710000000.0,-17000000.0,0.0,-9322000000.0,-298000000.0,-137000000.0,-456000000.0,8275000000.0,0.0,254000000.0,591000000.0,0.0
2015-12,1320000000.0,27000000.0,1301000000.0,-863000000.0,,0.0,-9322000000.0,-298000000.0,,,8275000000.0,,254000000.0,438000000.0,
2014-12-31,1138942000.0,23462000.0,1270072000.0,572443000.0,-2017787000.0,0.0,-2675721000.0,-259935000.0,-682134000.0,-400892000.0,1207744000.0,0.0,-197905000.0,697629000.0,0.0
2014-12,1139000000.0,23000000.0,1270000000.0,-688000000.0,,0.0,-2676000000.0,-260000000.0,,,1208000000.0,,-198000000.0,582000000.0,
2013-12-31,1169500000.0,16932000.0,1495627000.0,634685000.0,-0.0,0.0,-542493000.0,-1563022000.0,-880039000.0,-399768000.0,-1399627000.0,0.0,-446493000.0,860942000.0,0.0
2012-12-31,1266807000.0,16775000.0,1552473000.0,748407000.0,-0.0,0.0,-634939000.0,-756953000.0,-1326532000.0,-399390000.0,82904000.0,0.0,1000438000.0,804066000.0,0.0
2011-12-31,1403175000.0,14209000.0,1572681000.0,748361000.0,-0.0,0.0,-762672000.0,-552394000.0,-326094000.0,-746387000.0,-735178000.0,0.0,74831000.0,824320000.0,0.0
2010-12-31,893719000.0,14473000.0,1222180000.0,480888000.0,-82560000.0,0.0,-773955000.0,-7236000.0,-251263000.0,-529389000.0,-555655000.0,0.0,-107430000.0,741292000.0,0.0
