,0,1,2,3,4,5,6,7,8,9,10,11,12,13,14,15,16,17,18,19,20,21,22,23,24,25,26,27,28
Date,Cash and cash equivalents,Short-term investments,Cash and short-term investments,Receivables,Inventories,Total current assets,Property Plant & Equipment Net,Goodwill and Intangible Assets,Long-term investments,Tax assets,Total non-current assets,Total assets,Payables,Short-term debt,Total current liabilities,Long-term debt,Total debt,Deferred revenue,Tax Liabilities,Deposit Liabilities,Total non-current liabilities,Total liabilities,Other comprehensive income,Retained earnings (deficit),Total shareholders equity,Investments,Net Debt,Other Assets,Other Liabilities
2019-12-31,49979000.0,131305000.0,181284000.0,4116000.0,0.0,185400000.0,38710000.0,0.0,1467000.0,7441000.0,1256627000.0,1442027000.0,0.0,48728000.0,48728000.0,100929000.0,149657000.0,0.0,0.0,0.0,105659000.0,1316087000.0,32359000.0,119481000.0,125940000.0,132772000.0,99678000.0,0.0,1161700000.0
2018-12-31,23541000.0,137641000.0,161182000.0,4175000.0,0.0,165357000.0,37855000.0,0.0,1354000.0,7844000.0,1219159000.0,1384516000.0,0.0,77707000.0,77707000.0,100929000.0,178636000.0,0.0,0.0,0.0,108773000.0,1267450000.0,31921000.0,109477000.0,117066000.0,138995000.0,155095000.0,0.0,1080970000.0
2017-12-31,83752000.0,146470000.0,230222000.0,3814000.0,0.0,234036000.0,30881000.0,0.0,1479000.0,9252000.0,1106803000.0,1340839000.0,0.0,48845000.0,48845000.0,120929000.0,169774000.0,0.0,0.0,0.0,130181000.0,1232449000.0,31553000.0,101359000.0,108390000.0,147949000.0,86022000.0,0.0,1053423000.0
2016-12-31,63310000.0,140000000.0,203310000.0,3862000.0,0.0,207172000.0,27160000.0,0.0,2603000.0,19337000.0,1111018000.0,1318190000.0,0.0,36000000.0,36000000.0,131737000.0,167737000.0,0.0,0.0,0.0,151074000.0,1204492000.0,42178000.0,92922000.0,113698000.0,142603000.0,104427000.0,0.0,1017418000.0
2015-12-31,52141000.0,170232000.0,222373000.0,4218000.0,0.0,226591000.0,25198000.0,0.0,1953000.0,19790000.0,1096867000.0,1323458000.0,0.0,35828000.0,35828000.0,147537000.0,183365000.0,0.0,0.0,0.0,167327000.0,1202687000.0,51986000.0,87666000.0,120771000.0,172185000.0,131224000.0,0.0,999532000.0
2014-12-31,35451000.0,221117000.0,256568000.0,4152000.0,0.0,260720000.0,25629000.0,0.0,7897000.0,25907000.0,1071576000.0,1332296000.0,0.0,39801000.0,39801000.0,182606000.0,222407000.0,0.0,0.0,0.0,208513000.0,1223297000.0,51795000.0,77375000.0,108999000.0,229014000.0,186956000.0,0.0,974983000.0
2013-12-31,43063000.0,336589000.0,379652000.0,4342000.0,0.0,383994000.0,26905000.0,0.0,10168000.0,29209000.0,949509000.0,1333503000.0,0.0,43676000.0,43676000.0,182672000.0,226348000.0,0.0,0.0,0.0,211881000.0,1232163000.0,51655000.0,73836000.0,101340000.0,346757000.0,183285000.0,0.0,976606000.0
2012-12-31,83068000.0,223273000.0,306341000.0,4494000.0,0.0,310835000.0,29455000.0,11004000.0,11778000.0,28882000.0,1009948000.0,1320783000.0,0.0,39257000.0,39257000.0,182735000.0,221992000.0,0.0,0.0,0.0,211617000.0,1221878000.0,51498000.0,69168000.0,98905000.0,235051000.0,138924000.0,0.0,971004000.0
2011-12-31,65107000.0,245023000.0,310130000.0,0.0,0.0,310130000.0,30826000.0,0.0,13058000.0,28711000.0,1080735000.0,1390865000.0,0.0,0.0,0.0,207044000.0,207044000.0,0.0,0.0,0.0,207044000.0,1294209000.0,51360000.0,66196000.0,96656000.0,258081000.0,141937000.0,0.0,1087165000.0
2010-12-31,299313000.0,,,0.0,0.0,,32945000.0,14700000.0,,26400000.0,,1696445000.0,0.0,,,,282239000.0,0.0,0.0,1301646000.0,,1600805000.0,-19821000.0,64179000.0,95640000.0,1229751000.0,,,
2009-12-31,189671000.0,,,0.0,0.0,,31719000.0,15241000.0,,29189000.0,,1743796000.0,0.0,,,,318107000.0,0.0,0.0,1304166000.0,,1643230000.0,-26659000.0,76120000.0,100566000.0,1389439000.0,,,
