,0,1,2,3,4,5,6,7,8,9,10,11,12,13,14
Date,Depreciation & Amortization,Stock-based compensation,Operating Cash Flow,Capital Expenditure,Acquisitions and disposals,Investment purchases and sales,Investing Cash flow,Issuance (repayment) of debt,Issuance (buybacks) of shares,Dividend payments,Financing Cash Flow,Effect of forex changes on cash,Net cash flow / Change in cash,Free Cash Flow,Net Cash/Marketcap
2019-12-31,3503000.0,268000.0,16390000.0,3973000.0,-0.0,26553000.0,-32522000.0,28979000.0,-49809000.0,-3125000.0,42570000.0,0.0,49979000.0,12417000.0,0.0
2018-12-31,2378000.0,249000.0,18294000.0,9483000.0,-0.0,10888000.0,-113712000.0,-20000000.0,-23422000.0,-0.0,35207000.0,0.0,-60211000.0,8811000.0,0.0
2017-12-31,1787000.0,192000.0,12924000.0,6561000.0,-0.0,17878000.0,-7656000.0,-10808000.0,-74561000.0,-1215000.0,15174000.0,0.0,20442000.0,6363000.0,0.0
2016-12-31,1551000.0,192000.0,11679000.0,3924000.0,-0.0,38387000.0,11708000.0,-15800000.0,-63310000.0,-2025000.0,-12218000.0,0.0,11169000.0,7755000.0,0.0
2015-12-31,1695000.0,191000.0,22199000.0,1371000.0,-0.0,42020000.0,18761000.0,-35069000.0,-52140000.0,-2700000.0,-24270000.0,0.0,16690000.0,20828000.0,0.0
2014-12-31,1905000.0,134000.0,3887000.0,720000.0,-0.0,125720000.0,-2382000.0,-66000.0,-35451000.0,-9096000.0,-9117000.0,0.0,-7612000.0,3167000.0,0.0
2013-12-31,482000.0,88000.0,18676000.0,941000.0,-0.0,35891000.0,-63556000.0,-63000.0,-43063000.0,-1709000.0,4875000.0,0.0,-40005000.0,17735000.0,0.0
2012-12-31,427000.0,73000.0,15205000.0,1280000.0,-0.0,70562000.0,75576000.0,-44309000.0,-83068000.0,-1626000.0,-72820000.0,0.0,17961000.0,13925000.0,0.0
2011-12-31,832000.0,78000.0,63036000.0,236000.0,-0.0,80315000.0,14947000.0,-36056000.0,-65107000.0,-0.0,-312189000.0,0.0,-234206000.0,62800000.0,0.0
2010-12-31,3247000.0,70000.0,141939000.0,-3851000.0,0.0,11819000.0,7968000.0,-35868000.0,48000.0,-800000.0,-40265000.0,0.0,109642000.0,138088000.0,-0.5257
2009-12-31,3800000.0,-16000.0,3946000.0,-2466000.0,0.0,72075000.0,70525000.0,-9791000.0,488000.0,-4893000.0,95895000.0,0.0,170366000.0,1480000.0,-0.5257
