,0,1,2,3,4,5,6,7,8,9,10,11,12,13,14,15,16,17,18,19,20,21,22,23,24,25,26,27,28,29,30
Date,Revenue,Revenue Growth,Cost of Revenue,Gross Profit,R&D Expenses,SG&A Expense,Operating Expenses,Operating Income,Interest Expense,Earnings before Tax,Income Tax Expense,Net Income - Non-Controlling int,Net Income - Discontinued ops,Net Income,Preferred Dividends,Net Income Com,EPS,EPS Diluted,Weighted Average Shs Out,Weighted Average Shs Out (Dil),Dividend per Share,Gross Margin,EBITDA Margin,EBIT Margin,Profit Margin,Free Cash Flow margin,EBITDA,EBIT,Consolidated Income,Earnings Before Tax Margin,Net Profit Margin
2018-12-31,15521000.0,-0.1415,,13053000.0,,,,-39136000.0,,-39136000.0,,,,,,,-1.44,-1.44,27154000.0,,,0.841,,,,,,,,-2.5215,
2017-12-31,18079000.0,0.3963,,15639000.0,,,,35537000.0,,35537000.0,,,,,,,1.39,1.39,25519000.0,,,0.865,,,,,,,,1.9657,
2016-12-31,12948000.0,0.4742,,10829000.0,,,,39042000.0,,39042000.0,,,,,,,1.6,1.6,24449000.0,,,0.8363,,,,,,,,3.0153,
2015-12-31,8783000.0,,,6706000.0,,,,-21080000.0,,-21080000.0,,,,,,,-0.89,-0.89,23583000.0,,,0.7635,,,,,,,,-2.4001,
