,0,1,2,3,4,5,6,7,8,9,10,11,12,13,14
Date,Depreciation & Amortization,Stock-based compensation,Operating Cash Flow,Capital Expenditure,Acquisitions and disposals,Investment purchases and sales,Investing Cash flow,Issuance (repayment) of debt,Issuance (buybacks) of shares,Dividend payments,Financing Cash Flow,Effect of forex changes on cash,Net cash flow / Change in cash,Free Cash Flow,Net Cash/Marketcap
2018-09-30,0.0,0.0,-8550000.0,0.0,0.0,0.0,0.0,64735000.0,0.0,-71062000.0,-8303000.0,0.0,-16853000.0,-8550000.0,-0.7076
2017-09-30,0.0,0.0,62195000.0,0.0,0.0,0.0,0.0,-84075000.0,74014000.0,-76781000.0,-89177000.0,0.0,-26982000.0,62195000.0,-0.735
2016-09-30,0.0,0.0,-56078000.0,0.0,0.0,0.0,0.0,51570000.0,58555000.0,-59509000.0,48134000.0,0.0,-7944000.0,-56078000.0,-0.735
2015-09-30,0.0,0.0,-103250000.0,0.0,0.0,0.0,0.0,116066000.0,67602000.0,-60030000.0,120791000.0,0.0,17541000.0,-103250000.0,-0.735
2014-09-30,0.0,0.0,-255573000.0,0.0,0.0,-36400000.0,-36400000.0,276487000.0,64170000.0,-54991000.0,280799000.0,0.0,-11174000.0,-255573000.0,-0.735
2013-09-30,0.0,0.0,-297607000.0,0.0,0.0,-1372000.0,-1372000.0,68479000.0,280856000.0,-43322000.0,301397000.0,0.0,2418000.0,-297607000.0,-0.735
2012-09-30,0.0,0.0,-158266000.0,0.0,0.0,-13620000.0,-13620000.0,114617000.0,57164000.0,-29648000.0,139427000.0,0.0,-32459000.0,-158266000.0,-0.735
2011-09-30,0.0,0.0,-118129000.0,0.0,0.0,8355000.0,8355000.0,63683000.0,59420000.0,-23940000.0,94905000.0,0.0,-14869000.0,-118129000.0,-0.735
2010-09-30,0.0,0.0,65918000.0,0.0,0.0,-1157000.0,-1157000.0,-141306000.0,165347000.0,-9742000.0,-3542000.0,0.0,61219000.0,65918000.0,-0.735
2009-09-30,0.0,0.0,-221399000.0,0.0,0.0,-26362000.0,-26362000.0,192223000.0,58906000.0,0.0,247761000.0,0.0,0.0,-221399000.0,-0.735
