,0,1,2,3,4,5,6,7,8,9,10,11,12,13,14
Date,Depreciation & Amortization,Stock-based compensation,Operating Cash Flow,Capital Expenditure,Acquisitions and disposals,Investment purchases and sales,Investing Cash flow,Issuance (repayment) of debt,Issuance (buybacks) of shares,Dividend payments,Financing Cash Flow,Effect of forex changes on cash,Net cash flow / Change in cash,Free Cash Flow,Net Cash/Marketcap
2017-12-31,4763000.0,3023000.0,51844000.0,1549000.0,21717000.0,123719000.0,-187126000.0,-2409000.0,-1515000.0,-14063000.0,136724000.0,0.0,1442000.0,50295000.0,0.0
2017-12,6000000.0,3000000.0,,,,-135000000.0,-187000000.0,,,,137000000.0,,1000000.0,,
2016-12-31,5142000.0,3121000.0,28750000.0,1464000.0,-23915000.0,410154000.0,-61667000.0,-50026000.0,-1307000.0,-10524000.0,56317000.0,0.0,50111000.0,27286000.0,0.0
2016-12,4000000.0,3000000.0,,,,-213000000.0,-62000000.0,,,,56000000.0,,23000000.0,,
2015-12-31,5258000.0,2739000.0,33282000.0,5136000.0,-0.0,60660000.0,-260155000.0,-45547000.0,-616000.0,-8429000.0,221143000.0,0.0,26711000.0,28146000.0,0.0
2015-12,5000000.0,3000000.0,,,,-58000000.0,-260000000.0,,,,221000000.0,,-6000000.0,,
2014-12-31,5069000.0,2454000.0,27872000.0,0.0,-0.0,67149000.0,-209795000.0,-95459000.0,-455000.0,-4190000.0,186287000.0,0.0,32441000.0,27872000.0,0.0
2014-12,5000000.0,2000000.0,,,,-65000000.0,-210000000.0,,,,186000000.0,,4000000.0,,
2013-12-31,4915000.0,1125000.0,29629000.0,0.0,-0.0,77206000.0,-197616000.0,-163000.0,-275000.0,-1566000.0,32847000.0,0.0,28077000.0,29629000.0,0.0
2013-12,5000000.0,1000000.0,,,,-121000000.0,-198000000.0,,,,33000000.0,,-135000000.0,,
2012-12-31,5909000.0,691000.0,12521000.0,0.0,-1368000.0,198243000.0,-149865000.0,-14000.0,-43000.0,-0.0,191336000.0,0.0,163217000.0,12521000.0,0.0
2011-12-31,7091000.0,593000.0,22675000.0,0.0,-0.0,294630000.0,160328000.0,-53062000.0,-92000.0,-28000.0,-215243000.0,0.0,109225000.0,22675000.0,0.0
