,0,1,2,3,4,5,6,7,8,9,10,11,12,13,14,15,16,17,18,19,20,21,22,23,24,25,26,27,28,29,30
Date,Revenue,Revenue Growth,Cost of Revenue,Gross Profit,R&D Expenses,SG&A Expense,Operating Expenses,Operating Income,Interest Expense,Earnings before Tax,Income Tax Expense,Net Income - Non-Controlling int,Net Income - Discontinued ops,Net Income,Preferred Dividends,Net Income Com,EPS,EPS Diluted,Weighted Average Shs Out,Weighted Average Shs Out (Dil),Dividend per Share,Gross Margin,EBITDA Margin,EBIT Margin,Profit Margin,Free Cash Flow margin,EBITDA,EBIT,Consolidated Income,Earnings Before Tax Margin,Net Profit Margin
2019-12-31,590000.0,-0.134897360704,1011000.0,-421000.0,686000.0,412000.0,3383000.0,-2793000.0,15000.0,0.0,0.0,0.0,0.0,-2352000.0,0.0,-2352000.0,-0.46,-0.46,5132.0,5132.0,0.0,-0.713559322034,-4.59152542373,-4.73389830508,-3.98644067797,0.510169491525,-2709000.0,-2793000.0,-2352000.0,0.0,-3.98644067797
2018-12-31,682000.0,-0.137800252845,353000.0,329000.0,844000.0,353000.0,1197000.0,-515000.0,18000.0,0.0,0.0,0.0,0.0,-484000.0,0.0,-484000.0,-0.21,-0.21,2358.0,2358.0,0.0,0.482404692082,-0.384164222874,-0.755131964809,-0.709677419355,-0.934017595308,-262000.0,-515000.0,-484000.0,0.0,-0.709677419355
2017-12-31,791000.0,0.0353403141361,1115000.0,-324000.0,1027000.0,408000.0,4061000.0,-3270000.0,24000.0,0.0,0.0,0.0,0.0,-3246000.0,0.0,-3246000.0,-1.59,-1.59,2037000.0,2037000.0,0.0,-0.409608091024,-3.6333754740800006,-4.13400758534,-4.1036662452599995,0.255372945638,-2874000.0,-3270000.0,-3246000.0,0.0,-4.1036662452599995
2016-12-31,764000.0,-0.799842808488,1181000.0,-417000.0,0.0,352000.0,352000.0,-769000.0,38000.0,48000.0,0.0,0.0,-4000.0,48000.0,0.0,48000.0,0.02,0.02,1946934.0,1947000.0,0.0,-0.5458,0.982,0.1126,0.063,0.4372,750000.0,86000.0,48000.0,0.0628,0.0628
2015-12-31,3817000.0,1.56346541303,0.0,0.0,1800000.0,605000.0,7787000.0,-3970000.0,62000.0,0.0,0.0,0.0,0.0,-2622000.0,0.0,-2622000.0,-1.35,-1.35,1947.0,1947.0,0.0,0.0,-0.8511920356300001,-1.0400838354700002,-0.6869269059469999,0.159811370186,-3249000.0,-3970000.0,-2622000.0,0.0,-0.6869269059469999
2014-12-31,1489000.0,-0.647323543344,1853000.0,-364000.0,0.0,823000.0,823000.0,-1187000.0,91000.0,-779000.0,0.0,0.0,-297000.0,-779000.0,0.0,-779000.0,-0.4,-0.4,1946934.0,1947000.0,0.0,-0.2445,0.03,-0.4621,-0.523,-0.3936,44000.0,-688000.0,-779000.0,-0.5232,-0.5232
2013-12-31,4222000.0,0.0704868154158,4364000.0,-142000.0,0.0,500000.0,700000.0,-842000.0,114000.0,426000.0,0.0,0.0,0.0,426000.0,0.0,426000.0,0.22,0.22,1946935.0,1947000.0,0.0,-0.0336,0.309,0.1279,0.10099999999999999,0.2845,1303000.0,540000.0,426000.0,0.1009,0.1009
2012-12-31,3944000.0,0.0110228146629,4209000.0,-265000.0,0.0,577000.0,1557000.0,-1822000.0,208000.0,168000.0,0.0,0.0,0.0,168000.0,0.0,168000.0,0.09,0.09,1946935.0,1947000.0,0.0,-0.0672,0.293,0.0953,0.043,0.07400000000000001,1155000.0,376000.0,168000.0,0.0426,0.0426
2011-12-31,3901000.0,-0.07405649181110001,3626000.0,275000.0,0.0,579000.0,2136000.0,-1861000.0,131000.0,-11793000.0,0.0,0.0,0.0,-11793000.0,0.0,-11793000.0,-6.06,-6.06,1946935.0,1947000.0,0.0,0.0705,-2.883,-2.9895,-3.023,-0.1974,-11246000.0,-11662000.0,-11793000.0,-3.0231,-3.0231
2010-12-31,4213000.0,0.0280624694973,3403000.0,810000.0,0.0,731000.0,854000.0,-44000.0,124000.0,-11000.0,0.0,0.0,0.0,-11000.0,0.0,-11000.0,-0.01,-0.01,1946935.0,1947000.0,0.0,0.1923,0.113,0.0268,-0.003,-0.0387,476000.0,113000.0,-11000.0,-0.0026,-0.0026
2009-12-31,4098000.0,0.1511,3673000.0,425000.0,0.0,1342000.0,3154000.0,-2729000.0,123000.0,-2210000.0,0.0,0.0,0.0,-2210000.0,0.0,-2210000.0,-1.14,-1.14,1946935.0,1947000.0,0.0,0.1037,-0.42200000000000004,-0.5093,-0.539,0.0695,-1728000.0,-2087000.0,-2210000.0,-0.5393,-0.5393
