,0,1,2,3,4,5,6,7,8,9,10,11,12,13,14,15,16,17,18,19,20,21,22,23,24,25,26,27,28
Date,Cash and cash equivalents,Short-term investments,Cash and short-term investments,Receivables,Inventories,Total current assets,Property Plant & Equipment Net,Goodwill and Intangible Assets,Long-term investments,Tax assets,Total non-current assets,Total assets,Payables,Short-term debt,Total current liabilities,Long-term debt,Total debt,Deferred revenue,Tax Liabilities,Deposit Liabilities,Total non-current liabilities,Total liabilities,Other comprehensive income,Retained earnings (deficit),Total shareholders equity,Investments,Net Debt,Other Assets,Other Liabilities
2019-12-31,156042000.0,0.0,156042000.0,438523000.0,55090000.0,779115000.0,815807000.0,1926895000.0,0.0,76297000.0,3240987000.0,4020102000.0,146995000.0,3300000.0,718453000.0,1636335000.0,1639635000.0,218823000.0,34074000.0,0.0,2318443000.0,3038746000.0,1087818000.0,-115958000.0,981356000.0,0.0,1483593000.0,0.0,1850000.0
2018-12-31,48651000.0,28054000.0,48651000.0,174274000.0,25022000.0,297609000.0,339608000.0,796791000.0,0.0,0.0,1146255000.0,1443864000.0,16612000.0,12395000.0,247844000.0,428180000.0,440575000.0,105187000.0,6329000.0,0.0,452924000.0,726641000.0,719732000.0,3767000.0,717223000.0,28054000.0,391924000.0,0.0,25873000.0
2017-12-31,43056000.0,26484000.0,43056000.0,151692000.0,18654000.0,263197000.0,373123000.0,640048000.0,0.0,0.0,1020349000.0,1283546000.0,15750000.0,2716000.0,203657000.0,357195000.0,359911000.0,88164000.0,4631000.0,0.0,380034000.0,609153000.0,682087000.0,-2767000.0,674393000.0,26484000.0,316855000.0,0.0,25462000.0
2016-12-25,172246000.0,22126000.0,172246000.0,138115000.0,18167000.0,370348000.0,381319000.0,579431000.0,0.0,0.0,965682000.0,1336030000.0,20129000.0,14387000.0,195868000.0,338860000.0,353247000.0,77987000.0,3504000.0,0.0,359243000.0,581057000.0,742126000.0,16293000.0,754973000.0,22126000.0,181001000.0,0.0,25946000.0
2015-12-27,146638000.0,21516000.0,146638000.0,136249000.0,15744000.0,331910000.0,384824000.0,474694000.0,0.0,0.0,865210000.0,1197120000.0,9571000.0,3509000.0,175547000.0,350266000.0,353775000.0,62294000.0,5503000.0,0.0,363446000.0,550047000.0,605033000.0,44753000.0,647073000.0,21516000.0,207137000.0,0.0,11054000.0
2014-12-28,123709000.0,19865000.0,123709000.0,80151000.0,9824000.0,244181000.0,283786000.0,290784000.0,0.0,4269000.0,580914000.0,825095000.0,9306000.0,2250000.0,95073000.0,219802000.0,222052000.0,35806000.0,3029000.0,0.0,232501000.0,340968000.0,484220000.0,4001000.0,484127000.0,19865000.0,98343000.0,0.0,13394000.0
2013-12-29,78596000.0,0.0,78596000.0,400918000.0,49427000.0,602281000.0,1001543000.0,622417000.0,75593000.0,196331000.0,1892455000.0,2494736000.0,103189000.0,0.0,436233000.0,0.0,0.0,78946000.0,85484000.0,0.0,793282000.0,1229515000.0,-441981000.0,,1265221000.0,75593000.0,-78596000.0,73340000.0,333044000.0
