,0,1,2,3,4,5,6,7,8,9,10,11,12,13,14,15,16,17,18,19,20,21,22,23,24,25,26,27,28
Date,Cash and cash equivalents,Short-term investments,Cash and short-term investments,Receivables,Inventories,Total current assets,Property Plant & Equipment Net,Goodwill and Intangible Assets,Long-term investments,Tax assets,Total non-current assets,Total assets,Payables,Short-term debt,Total current liabilities,Long-term debt,Total debt,Deferred revenue,Tax Liabilities,Deposit Liabilities,Total non-current liabilities,Total liabilities,Other comprehensive income,Retained earnings (deficit),Total shareholders equity,Investments,Net Debt,Other Assets,Other Liabilities
2018-12-31,4167000.0,78085000.0,82252000.0,11456000.0,0.0,19292000.0,0.0,0.0,262271000.0,0.0,,281563000.0,94034000.0,0.0,95146000.0,76301000.0,76301000.0,0.0,0.0,0.0,,171447000.0,0.0,-88238000.0,110116000.0,262271000.0,72134000.0,-74416000.0,1112000.0
2017-12-31,2916000.0,65890000.0,68806000.0,908000.0,0.0,9153000.0,0.0,0.0,230760000.0,0.0,,239913000.0,75373000.0,0.0,76430000.0,31196000.0,31196000.0,0.0,0.0,0.0,,107626000.0,0.0,-66246000.0,132287000.0,230760000.0,,,1057000.0
2016-12-31,66782000.0,0.0,66782000.0,9798000.0,0.0,81867000.0,0.0,0.0,154677000.0,0.0,,236544000.0,27363000.0,0.0,29026000.0,34534000.0,34534000.0,0.0,0.0,0.0,,63560000.0,-13455000.0,-33006000.0,172984000.0,154677000.0,,,1663000.0
2016-06-30,33390695.0,0.0,33390695.0,1213863.0,0.0,34670707.0,0.0,0.0,81122215.0,,,115859694.0,0.0,0.0,1878909.0,33105977.0,,,,,,35189199.0,,-47638886.0,80670495.0,0.0,,,1878909.0
