,0,1,2,3,4,5,6,7,8,9,10,11,12,13,14
Date,Depreciation & Amortization,Stock-based compensation,Operating Cash Flow,Capital Expenditure,Acquisitions and disposals,Investment purchases and sales,Investing Cash flow,Issuance (repayment) of debt,Issuance (buybacks) of shares,Dividend payments,Financing Cash Flow,Effect of forex changes on cash,Net cash flow / Change in cash,Free Cash Flow,Net Cash/Marketcap
2019-12-31,139434000.0,22344000.0,338143000.0,117244000.0,-0.0,0.0,-104137000.0,-848335000.0,0.0,-232546000.0,-250654000.0,-352000.0,-17000000.0,220899000.0,0.0
2018-12-31,135290000.0,22049000.0,274475000.0,195666000.0,-0.0,-95175000.0,-188483000.0,-300902000.0,-95175000.0,-229498000.0,-124966000.0,-10099000.0,-49073000.0,78809000.0,0.0
2017-12-31,140837000.0,19844000.0,381042000.0,148406000.0,-0.0,0.0,-529409000.0,-1448202000.0,-81377000.0,-227463000.0,164719000.0,-3013000.0,13339000.0,232636000.0,0.0
2016-12-31,127037000.0,12773000.0,-28028000.0,0.0,-0.0,0.0,-84360000.0,-944070000.0,-68038000.0,-194748000.0,119668000.0,1120000.0,8400000.0,-28028000.0,0.0
2015-12-31,113719000.0,11709000.0,142157000.0,0.0,-307404000.0,0.0,-452880000.0,-323893000.0,-59638000.0,-186984000.0,332250000.0,-3226000.0,18301000.0,142157000.0,0.0
2014-12-31,101503000.0,8909000.0,202541000.0,0.0,-0.0,0.0,-121170000.0,-696726000.0,0.0,-170234000.0,-88900000.0,-3259000.0,-10788000.0,202541000.0,0.0
2013-12-31,100580000.0,7889000.0,192189000.0,0.0,-0.0,0.0,-102779000.0,-1134544000.0,0.0,-147156000.0,-69040000.0,-3803000.0,20370000.0,192189000.0,0.0
2012-12-31,95549000.0,6988000.0,264240000.0,0.0,-0.0,-8666000.0,-55316000.0,-456485000.0,-8666000.0,-102435000.0,-222282000.0,1735000.0,-11623000.0,264240000.0,0.0
2012-01-01,0.0,0.0,0.0,0.0,-0.0,0.0,0.0,-0.0,0.0,-0.0,0.0,0.0,0.0,0.0,0.0
2011-01-02,0.0,0.0,0.0,0.0,-0.0,0.0,0.0,-0.0,0.0,-0.0,0.0,0.0,0.0,0.0,0.0
2010-01-03,39306000.0,4721000.0,131105000.0,-149600000.0,-38386000.0,2713000.0,-185273000.0,48273000.0,1457000.0,0.0,51874000.0,4495000.0,2201000.0,-18495000.0,-0.4448
