,0,1,2,3,4,5,6,7,8,9,10,11,12,13,14,15,16,17,18,19,20,21,22,23,24,25,26,27,28
Date,Cash and cash equivalents,Short-term investments,Cash and short-term investments,Receivables,Inventories,Total current assets,Property Plant & Equipment Net,Goodwill and Intangible Assets,Long-term investments,Tax assets,Total non-current assets,Total assets,Payables,Short-term debt,Total current liabilities,Long-term debt,Total debt,Deferred revenue,Tax Liabilities,Deposit Liabilities,Total non-current liabilities,Total liabilities,Other comprehensive income,Retained earnings (deficit),Total shareholders equity,Investments,Net Debt,Other Assets,Other Liabilities
2018-11-30,4314000.0,,4314000.0,3718000.0,,,,,,,,,,,,232500000.0,,,,,,,,-820998000.0,,,,,
2017-11-30,2775000.0,,2775000.0,1230000.0,,,,,,,,,,,,240000000.0,,,,,,,,-43723000.0,,,,,
2016-11-30,816000.0,,816000.0,1340000.0,,,,,,,,,,,,255500000.0,,,,,,,,984000.0,,,,,
2015-11-30,3838000.0,,3838000.0,10632000.0,,,,,,,,,,,,283000000.0,,,,,,,,11244000.0,,,,,
