,0,1,2,3,4,5,6,7,8,9,10,11,12,13,14,15,16,17,18,19,20,21,22,23,24,25,26,27,28,29,30
Date,Revenue,Revenue Growth,Cost of Revenue,Gross Profit,R&D Expenses,SG&A Expense,Operating Expenses,Operating Income,Interest Expense,Earnings before Tax,Income Tax Expense,Net Income - Non-Controlling int,Net Income - Discontinued ops,Net Income,Preferred Dividends,Net Income Com,EPS,EPS Diluted,Weighted Average Shs Out,Weighted Average Shs Out (Dil),Dividend per Share,Gross Margin,EBITDA Margin,EBIT Margin,Profit Margin,Free Cash Flow margin,EBITDA,EBIT,Consolidated Income,Earnings Before Tax Margin,Net Profit Margin
2019-06-30,378206000.0,0.0889830752486,93183000.0,285023000.0,0.0,81965000.0,81965000.0,61590000.0,35344000.0,-1646000.0,5820000.0,0.0,0.0,-11124000.0,3658000.0,-11124000.0,-0.38,-0.38,29318511.0,29318511.0,0.12476759136900001,0.7536183984389999,0.28189135021699996,0.162847760215,-0.029412542371099998,-0.0497189362411,106613000.0,61590000.0,-11124000.0,-0.0043521255612,-0.029412542371099998
2018-06-30,347302000.0,0.000870317002882,87779000.0,259523000.0,0.0,77650000.0,77650000.0,43699000.0,33991000.0,-9786000.0,-679000.0,0.0,0.0,-11964000.0,3658000.0,-11964000.0,-0.46,-0.46,26269931.0,26269931.0,0.0395128559721,0.747254550794,0.24856464978599999,0.12582421062899998,-0.034448405134400006,0.029395166166599998,86327000.0,43699000.0,-11964000.0,-0.028177206005099997,-0.034448405134400006
2018-06,347000000.0,0.253033279408,186000000.0,161000000.0,,78000000.0,117000000.0,44000000.0,34000000.0,-10000000.0,-1000000.0,,,-8000000.0,,-8000000.0,,,,,,0.46397694524496,0.18731988472622,0.072046109510086,-0.023054755043227997,,65000000.0,25000000.0,-8000000.0,-0.028818443804035,-0.023054755043227997
2017-06-30,276928000.0,-0.000259927797834,68215000.0,208713000.0,0.0,67705000.0,67705000.0,19066000.0,19653000.0,-872000.0,-25000.0,0.0,0.0,-6620000.0,3658000.0,-6620000.0,-0.25,-0.25,26348344.0,26348344.0,0.0713137797199,0.7536724347120001,0.21905332794100002,0.06884822047610001,-0.023905130575500002,-0.037934047839099996,60662000.0,19066000.0,-6620000.0,-0.00314883290964,-0.023905130575500002
2017-06,277000000.0,-0.030963683877300002,151000000.0,126000000.0,,68000000.0,107000000.0,19000000.0,20000000.0,-1000000.0,-0.0,,,-3000000.0,,-3000000.0,,,,,,0.45487364620939,0.2129963898917,0.061371841155235,-0.010830324909747,,59000000.0,17000000.0,-3000000.0,-0.0036101083032491,-0.010830324909747
2016-06-30,285851000.0,-0.0005209790209790001,82683000.0,203168000.0,0.0,68697000.0,68697000.0,14383000.0,19648000.0,-5477000.0,-2191000.0,0.0,0.0,-9025000.0,3668000.0,-9025000.0,-0.35,-0.35,26060823.0,26060823.0,0.118223434463,0.7107479071259999,0.19059929823600003,0.05031642359130001,-0.0315723926101,-0.00174216637339,54483000.0,14383000.0,-9025000.0,-0.0191603317812,-0.0315723926101
2016-06,286000000.0,-0.0586686414877,162000000.0,124000000.0,,69000000.0,107000000.0,17000000.0,20000000.0,-5000000.0,-2000000.0,,,-5000000.0,,-5000000.0,,,,,,0.43356643356643,0.18531468531468998,0.045454545454545005,-0.017482517482516998,,53000000.0,13000000.0,-5000000.0,-0.017482517482516998,-0.017482517482516998
2015-06-30,303825000.0,-0.000575657894737,64772000.0,239053000.0,0.0,70602000.0,70602000.0,43043000.0,21096000.0,21742000.0,8697000.0,0.0,0.0,3475000.0,3658000.0,3475000.0,0.13,0.13,25805679.0,26233144.0,0.149505526291,0.786811486876,0.273769439645,0.141670369456,0.0114375051428,-0.132596066815,83178000.0,43043000.0,3475000.0,0.0715609314573,0.0114375051428
2015-06,304000000.0,0.058846066770000004,152000000.0,151000000.0,,71000000.0,108000000.0,43000000.0,21000000.0,22000000.0,9000000.0,,,7000000.0,,7000000.0,,,,,,0.49671052631579,0.26644736842105,0.12171052631578999,0.023026315789474,,81000000.0,37000000.0,7000000.0,0.07236842105263201,0.023026315789474
2014-06-30,287105000.0,0.00036585365853699996,88139000.0,198966000.0,0.0,62612000.0,62612000.0,40041000.0,11952000.0,26769000.0,11620000.0,0.0,0.0,3904000.0,3489000.0,3904000.0,0.16,0.15,24631284.0,25643565.0,0.181722003161,0.693007784608,0.235844029188,0.139464655788,0.013597812646899998,-0.149102244823,67712000.0,40041000.0,3904000.0,0.0932376656624,0.013597812646899998
2014-06,287000000.0,0.16883804466,158000000.0,129000000.0,,63000000.0,89000000.0,40000000.0,12000000.0,27000000.0,12000000.0,,,7000000.0,,7000000.0,,,,,,0.44947735191638,0.22996515679442997,0.10801393728223,0.024390243902439,,66000000.0,31000000.0,7000000.0,0.094076655052265,0.024390243902439
2013-06-30,245543000.0,1.0,75135000.0,170408000.0,0.0,54418000.0,54418000.0,29491000.0,10969000.0,-1929000.0,8195000.0,0.0,0.0,3545000.0,153000.0,3545000.0,0.16,0.16,22160101.0,22633702.0,0.20668293679900002,0.6940047160780001,0.21199138236499998,0.12010523615,0.0144373897851,-0.165751008988,52053000.0,29491000.0,3545000.0,-0.00785605779843,0.0144373897851
2012-06-30,0.0,0.0,0.0,0.0,0.0,0.0,0.0,0.0,0.0,3176000.0,0.0,0.0,0.0,3518000.0,0.0,3518000.0,0.0,0.0,0.0,0.0,0.0,0.0,0.0,0.0,0.0,0.0,0.0,0.0,3518000.0,0.0,0.0
