,0,1,2,3,4,5,6,7,8,9,10,11,12,13,14,15,16,17,18,19,20,21,22,23,24,25,26,27,28,29,30
Date,Revenue,Revenue Growth,Cost of Revenue,Gross Profit,R&D Expenses,SG&A Expense,Operating Expenses,Operating Income,Interest Expense,Earnings before Tax,Income Tax Expense,Net Income - Non-Controlling int,Net Income - Discontinued ops,Net Income,Preferred Dividends,Net Income Com,EPS,EPS Diluted,Weighted Average Shs Out,Weighted Average Shs Out (Dil),Dividend per Share,Gross Margin,EBITDA Margin,EBIT Margin,Profit Margin,Free Cash Flow margin,EBITDA,EBIT,Consolidated Income,Earnings Before Tax Margin,Net Profit Margin
2018-12-31,,0.0,,,,,,782000000.0,,,239000000.0,,,,,532000000.0,3.89,3.73,115000000.0,,,,,,,,,,,,
2017-12-31,,0.0,,,,,,815000000.0,,,260000000.0,,,,,518000000.0,,3.89,115000000.0,,,,,,,,,,,,
2017-12,,0.0,,,,,,,,,,,,8329000000.0,,8329000000.0,62.51,62.51,133000000.0,133000000.0,,,,,,,,8329000000.0,8329000000.0,,
2016-12-31,,0.0,,,,,,855000000.0,,,224000000.0,,,,,402000000.0,,3.09,102000000.0,,,,,,,,,,,,
2016-12,,0.0,,,,,,,,,,,,6018000000.0,,6018000000.0,46.28,46.28,130000000.0,130000000.0,,,,,,,,6018000000.0,6018000000.0,,
2015-12-31,,0.0,,,,,,883000000.0,,,300000000.0,,,,,465000000.0,,3.57,102000000.0,,,,,,,,,,,,
2015-12,,0.0,,,,,,,,,,,,4338000000.0,,4338000000.0,33.37,33.37,130000000.0,130000000.0,,,,,,,,4338000000.0,4338000000.0,,
2014-12,,0.0,,,,,,,,,,,,3338000000.0,,3338000000.0,25.67,25.67,130000000.0,130000000.0,,,,,,,,3338000000.0,3338000000.0,,
2013-12,,,,,,,,,,,,,,1824000000.0,,1824000000.0,14.69,14.46,126000000.0,126000000.0,,,,,,,,1824000000.0,1824000000.0,,
