,0,1,2,3,4,5,6,7,8,9,10,11,12,13,14,15,16,17,18,19,20,21,22,23,24,25,26,27,28
Date,Cash and cash equivalents,Short-term investments,Cash and short-term investments,Receivables,Inventories,Total current assets,Property Plant & Equipment Net,Goodwill and Intangible Assets,Long-term investments,Tax assets,Total non-current assets,Total assets,Payables,Short-term debt,Total current liabilities,Long-term debt,Total debt,Deferred revenue,Tax Liabilities,Deposit Liabilities,Total non-current liabilities,Total liabilities,Other comprehensive income,Retained earnings (deficit),Total shareholders equity,Investments,Net Debt,Other Assets,Other Liabilities
2018-09-30,139462878.7879,0.0,139462878.7879,1122248484.8485,714262121.2121,2351842424.2424,294009848.4848,5925034848.4848,89193939.3939,109325757.5758,6677753030.303,9029595454.5455,859698484.8485,264075757.5758,2363384090.9091,1100237121.2121,1364312878.7879,302688636.3636,286585606.0606,248730303.0303,1601963636.3636,3965347727.2727,152724242.4242,3220775757.5758,5064247727.2727,89193939.3939,1224850000.0,409665491.5597,1239609848.4848
2017-09-30,132803843.0745,0.0,132803843.0745,1029527622.0977,738686949.5596,2292248999.1994,317544435.5484,6045200960.7686,89116893.5148,122612489.99200001,6832020016.0128,9124269015.2122,804088871.0969,98052041.6333,2162970376.301,1392742994.3955,1490795036.0288,327727782.2258,310341873.4988,251587670.1361,1995224979.984,4158195356.285,127614891.9135,3037981585.2682,4966073658.9271,89116893.5148,,,1260829463.5708
2016-09-30,454325209.444,0.0,454325209.444,838999238.3854,712487433.3587,2439951256.6641,334571972.5819,5668784463.0617,98539984.7677,143011424.2193,6465861386.1386,8905812642.8027,843764661.0815,146257425.7426,2116271134.8058,1309169078.4463,1455426504.1889,297309215.5369,261225437.9284,278746382.3305,1866001523.2292,3982272658.035,231628332.064,2878025894.8972,4923539984.7677,98539984.7677,,,1126249047.9817
2015-09-30,227637583.8926,0.0,227637583.8926,818689783.7435,651080536.9128,2211430275.9135,352803131.9911,5746304250.5593,91588366.8904,199204325.1305,6578480238.6279,8789910514.5414,830451901.5660001,172189410.8874,2317513049.9627,1414005219.9851,1586194630.8725,310461595.824,246494407.1588,367609992.5429,1936850111.8568,4254363161.8195,446104399.7017,2280073079.7912,4535547352.7218,91588366.8904,,,1314871737.5093
2014-09-30,480031362.0072,0.0,480031362.0072,928376344.0860001,724004480.2867,2569519713.2616,436272401.4337,6488706989.2473,75337813.6201,297437275.9857,7496835125.448001,10066354838.7097,950161290.3226,72013440.8602,2489443548.3871,2329154121.8638,2401167562.724,409548387.0968,279798387.0968,261879032.2581,3106727598.5663,5596171146.9534,204860215.0538,2111118279.5699,4470183691.7563,75337813.6201,,,1467268817.2043
2013-09-30,103005819.5926,0.0,103005819.5926,1169374393.7924,884430649.8545,2602486905.9166,460856450.0485,6888414161.0087,50331716.7798,373860329.7769,7949668283.2202,10552155189.1368,1085387002.9098,518111542.192,3377303588.7488,2262247332.6867,2780358874.8788,492984481.0863,302315227.934,213655674.1028,3241100872.9389,6618404461.6877,118191076.6246,1505291949.5635,3933750727.4491,50331716.7798,,,1773805043.647
2012-09-30,114942073.1707,14694105.6911,129636178.8618,1435909552.8455,708467479.6748,2760035569.1057,489308943.0894,6992797764.2276,0.0,394884146.3415,8104021341.4634,10864056910.5691,1306942073.1707,53198170.7317,3071625000.0,3248029471.5447,3301227642.2764,544615853.6585,329689024.3902,201205284.5528,4313871951.2195,7385496951.2195,298780.4878,1131326219.5122,3478559959.3496,14694105.6911,,,1711484756.0976
2011-09-30,130345454.5455,9728229.6651,140073684.2106,469362679.4258,374225837.3206,1320773205.7416,239139712.9187,2706368421.0526,25237320.5742,13525358.8517,3136024880.3828,4456798086.1244,290565550.2392,929712918.6603,1837873684.2105,104946411.4833,1034659330.1435,146352153.11,192551196.1722,234124401.9139,370856459.3301,2208730143.5407,13944497.6077,1012056459.3301,2248067942.5837,34965550.2392,,,617595215.311
2010-09-30,105367961.165,12811650.4854,118179611.6504,413826213.5922,347248543.6893,1194848543.6893,229739805.8252,2810144660.1942,22149514.5631,29181553.3981,3253898058.2524,4448746601.9417,289127184.46599996,111239805.8252,1054910679.6117,1009028155.3398,1120267961.165,139128155.3398,266401941.7476,241451456.3107,1307200000.0,2362110679.6117,14047572.8155,820669902.9126,2086635922.3301,34961165.0485,,,654543689.3205
2009-09-30,320660130.71900004,0.0,320660130.71900004,430710550.88699996,232513538.7488,2253692810.4575,198336134.4538,1989314659.197,0.0,26183006.5359,486516339.8693,3641372549.0196,286485527.5444,16528478.0579,1024514472.4556,247831932.7731,264360410.83099997,127110177.4043,289401493.9309,310325863.6788,486516339.8693,1511030812.3249,-267030812.3249,1103862745.098,2124420168.0672,0.0,,,721500466.8533
