,0,1,2,3,4,5,6,7,8,9,10,11,12,13,14
Date,Depreciation & Amortization,Stock-based compensation,Operating Cash Flow,Capital Expenditure,Acquisitions and disposals,Investment purchases and sales,Investing Cash flow,Issuance (repayment) of debt,Issuance (buybacks) of shares,Dividend payments,Financing Cash Flow,Effect of forex changes on cash,Net cash flow / Change in cash,Free Cash Flow,Net Cash/Marketcap
2019-09-30,0.0,0.0,-1953021.0,0.0,-0.0,0.0,68955393.0,-0.0,0.0,-0.0,-67129933.0,0.0,-127561.0,-1953021.0,0.0
2018-09-30,0.0,0.0,-1537356.0,0.0,-0.0,0.0,-143370877.0,-0.0,-597268.0,-0.0,145505501.0,0.0,597268.0,-1537356.0,0.0
