,0,1,2,3,4,5,6,7,8,9,10,11,12,13,14
Date,Depreciation & Amortization,Stock-based compensation,Operating Cash Flow,Capital Expenditure,Acquisitions and disposals,Investment purchases and sales,Investing Cash flow,Issuance (repayment) of debt,Issuance (buybacks) of shares,Dividend payments,Financing Cash Flow,Effect of forex changes on cash,Net cash flow / Change in cash,Free Cash Flow,Net Cash/Marketcap
2019-05-26,620100000.0,84900000.0,2807000000.0,537600000.0,-0.0,-1100000.0,-579600000.0,-1493800000.0,-1100000.0,-1181700000.0,-2176400000.0,-23100000.0,51000000.0,2269400000.0,0.0
2018-05-27,618800000.0,77000000.0,2841000000.0,622700000.0,-8035800000.0,-601600000.0,-8653600000.0,-600100000.0,368300000.0,-1139700000.0,5445500000.0,31800000.0,-367100000.0,2218300000.0,0.0
2017-05-28,603600000.0,95700000.0,2313300000.0,684400000.0,-0.0,-1651500000.0,-665400000.0,-1000000000.0,-1651500000.0,-1135100000.0,-1645500000.0,-18500000.0,2400000.0,1628900000.0,0.0
2016-05-29,608100000.0,89800000.0,2629800000.0,729300000.0,-84000000.0,-606700000.0,85300000.0,-1000400000.0,-606700000.0,-1071700000.0,-2285600000.0,-8100000.0,429500000.0,1900500000.0,0.0
2015-05-31,588300000.0,106400000.0,2542800000.0,712400000.0,-822300000.0,-1161900000.0,-1691100000.0,-1145800000.0,-1161900000.0,-1017700000.0,-1384800000.0,-88900000.0,-533100000.0,1830400000.0,0.0
2014-05-25,585400000.0,108500000.0,2541000000.0,663500000.0,-0.0,-1745300000.0,-591000000.0,-1444800000.0,-1745300000.0,-983300000.0,-1824100000.0,-29200000.0,125900000.0,1877500000.0,0.0
2013-05-26,588000000.0,100400000.0,2926000000.0,613900000.0,-898000000.0,-1044900000.0,-1515400000.0,-542300000.0,-1044900000.0,-867600000.0,-1140200000.0,-200000.0,270200000.0,2312100000.0,0.0
2012-05-27,541500000.0,108300000.0,2402000000.0,675900000.0,-1050100000.0,-313000000.0,-1870800000.0,-1450100000.0,-313000000.0,-800100000.0,-661400000.0,-18200000.0,-148400000.0,1726100000.0,0.0
2011-05-29,472600000.0,105300000.0,1526800000.0,648800000.0,-123300000.0,-1163500000.0,-643800000.0,-7400000.0,-1163500000.0,-729400000.0,-936600000.0,71300000.0,-53600000.0,878000000.0,0.0
2010-05-30,0.0,0.0,0.0,649900000.0,-0.0,-691800000.0,-721200000.0,-906900000.0,-691800000.0,-643700000.0,-1503800000.0,-32800000.0,-76600000.0,-649900000.0,0.0
2009-05-31,453600000.0,28600000.0,1828200000.0,-558500000.0,250600000.0,0.0,-288900000.0,89200000.0,-991200000.0,-579500000.0,-1404500000.0,-46000000.0,88800000.0,1269700000.0,-0.3758
