,0,1,2,3,4,5,6,7,8,9,10,11,12,13,14
Date,Depreciation & Amortization,Stock-based compensation,Operating Cash Flow,Capital Expenditure,Acquisitions and disposals,Investment purchases and sales,Investing Cash flow,Issuance (repayment) of debt,Issuance (buybacks) of shares,Dividend payments,Financing Cash Flow,Effect of forex changes on cash,Net cash flow / Change in cash,Free Cash Flow,Net Cash/Marketcap
2019-12-31,301000.0,0.0,2992000.0,336000.0,-0.0,-20962000.0,26348000.0,-0.0,-43000.0,-1128000.0,-32004000.0,0.0,-2664000.0,2656000.0,0.0
2018-12-31,1315000.0,0.0,4136000.0,209000.0,-0.0,-5440000.0,-23028000.0,-0.0,-135000.0,-1122000.0,22241000.0,0.0,3349000.0,3927000.0,0.0
2017-12-31,925000.0,0.0,3253000.0,205000.0,-0.0,0.0,-1295000.0,-0.0,-12605000.0,-1117000.0,25000.0,0.0,1983000.0,3048000.0,0.0
2016-12-31,1139547.0,0.0,2138177.0,90392.0,-0.0,42119140.0,1517721.0,-0.0,-10622162.0,-1023304.0,-4564724.0,0.0,-908826.0,2047785.0,0.0
2015-12-31,812331.0,0.0,2519211.0,442529.0,-0.0,39379629.0,-14319776.0,-0.0,-12371408.0,-1100984.0,14127330.0,0.0,2326765.0,2076682.0,0.0
2014-12-31,1187689.0,0.0,4111763.0,262598.0,-0.0,40797930.0,-2598094.0,-0.0,-13280234.0,-822073.0,-9188782.0,0.0,-7675113.0,3849165.0,0.0
2013-12-31,1716701.0,0.0,4089173.0,182548.0,-0.0,37419205.0,-14326934.0,254749.0,-10953469.0,-1363093.0,18912753.0,0.0,8674992.0,3906625.0,0.0
2012-12-31,1310578.0,0.0,4407392.0,411804.0,-0.0,36002569.0,-16009513.0,-0.0,-18628582.0,-1043839.0,12555408.0,0.0,953287.0,3995588.0,0.0
2011-12-31,1310578.0,0.0,4407392.0,411804.0,-0.0,36002569.0,-16009513.0,4019199.0,-9953590.0,-1043839.0,12555408.0,0.0,953287.0,3995588.0,0.0
2010-12-31,1001488.0,0.0,4991092.0,-377912.0,155000.0,1168216.0,1396131.0,-7996053.0,162975.0,-1074655.0,-8820742.0,0.0,-2433519.0,4613180.0,0.2612
2009-12-31,652780.0,0.0,959301.0,-1398320.0,0.0,-30019587.0,-30868913.0,-586566.0,-2662042.0,-1236100.0,20105531.0,0.0,-9804081.0,-439019.0,0.2612
