,0,1,2,3,4,5,6,7,8,9,10,11,12,13,14,15,16,17,18,19,20,21,22,23,24,25,26,27,28
Date,Cash and cash equivalents,Short-term investments,Cash and short-term investments,Receivables,Inventories,Total current assets,Property Plant & Equipment Net,Goodwill and Intangible Assets,Long-term investments,Tax assets,Total non-current assets,Total assets,Payables,Short-term debt,Total current liabilities,Long-term debt,Total debt,Deferred revenue,Tax Liabilities,Deposit Liabilities,Total non-current liabilities,Total liabilities,Other comprehensive income,Retained earnings (deficit),Total shareholders equity,Investments,Net Debt,Other Assets,Other Liabilities
2018-12-31,24159000.0,66029000.0,90188000.0,218000.0,0.0,90406000.0,194000.0,0.0,0.0,0.0,194000.0,90600000.0,2706000.0,0.0,2706000.0,0.0,0.0,0.0,0.0,0.0,0.0,2706000.0,-11000.0,-86475000.0,87894000.0,66029000.0,-90188000.0,0.0,0.0
2017-12-31,13021000.0,5976000.0,18997000.0,155000.0,0.0,19152000.0,491000.0,0.0,0.0,0.0,491000.0,19643000.0,3310000.0,0.0,3848000.0,0.0,0.0,538000.0,0.0,0.0,0.0,3848000.0,-7000.0,-76619000.0,15795000.0,5976000.0,,,538000.0
2016-12-31,3097000.0,12351000.0,15448000.0,284000.0,0.0,15732000.0,718000.0,0.0,0.0,0.0,718000.0,16450000.0,3485000.0,0.0,4579000.0,0.0,0.0,1623000.0,0.0,0.0,796000.0,5375000.0,-85000.0,-64320000.0,11075000.0,12351000.0,,,1094000.0
2015-12-31,4156000.0,18845000.0,23001000.0,379000.0,0.0,23380000.0,883000.0,0.0,0.0,0.0,883000.0,24263000.0,2541000.0,0.0,2541000.0,0.0,0.0,0.0,0.0,0.0,177000.0,2718000.0,-206000.0,-47367000.0,21545000.0,18845000.0,,,0.0
2014-12-31,23736000.0,8250000.0,31986000.0,165000.0,0.0,32151000.0,774000.0,0.0,0.0,0.0,774000.0,32925000.0,1118000.0,0.0,1118000.0,0.0,0.0,0.0,0.0,0.0,400000.0,1518000.0,4000.0,-36745000.0,31407000.0,8250000.0,,,0.0
2013-12-31,137000.0,0.0,137000.0,16000.0,0.0,153000.0,13000.0,0.0,0.0,0.0,13000.0,166000.0,1689000.0,0.0,1689000.0,0.0,0.0,0.0,0.0,0.0,428000.0,2117000.0,0.0,-27642000.0,-1951000.0,0.0,,,0.0
2012-12-31,718000.0,0.0,718000.0,14000.0,0.0,732000.0,30000.0,0.0,0.0,0.0,30000.0,762000.0,493000.0,20000.0,513000.0,1824000.0,1844000.0,0.0,0.0,0.0,2228000.0,2741000.0,0.0,-10157000.0,-1979000.0,0.0,,,0.0
