,0,1,2,3,4,5,6,7,8,9,10,11,12,13,14,15,16,17,18,19,20,21,22,23,24,25,26,27,28,29,30
Date,Revenue,Revenue Growth,Cost of Revenue,Gross Profit,R&D Expenses,SG&A Expense,Operating Expenses,Operating Income,Interest Expense,Earnings before Tax,Income Tax Expense,Net Income - Non-Controlling int,Net Income - Discontinued ops,Net Income,Preferred Dividends,Net Income Com,EPS,EPS Diluted,Weighted Average Shs Out,Weighted Average Shs Out (Dil),Dividend per Share,Gross Margin,EBITDA Margin,EBIT Margin,Profit Margin,Free Cash Flow margin,EBITDA,EBIT,Consolidated Income,Earnings Before Tax Margin,Net Profit Margin
2018-12-31,522310000.0,0.263330261538,318554000.0,203756000.0,0.0,133187000.0,133493000.0,70263000.0,16968000.0,67464000.0,15868000.0,0.0,0.0,51596000.0,0.0,51596000.0,1.45,1.41,35364916.0,35746000.0,0.0,0.3901,0.201,0.1617,0.099,0.11699999999999999,104975000.0,84432000.0,51596000.0,0.1292,0.0988
2017-12-31,413439000.0,0.28056780732,263171000.0,150268000.0,0.0,110813000.0,115521000.0,34747000.0,11036000.0,38544000.0,8081000.0,0.0,0.0,30463000.0,0.0,30463000.0,0.87,0.84,34791236.0,34919000.0,0.0,0.3635,0.159,0.1199,0.07400000000000001,0.0842,65708000.0,49580000.0,30463000.0,0.0932,0.0737
2016-12-31,322856000.0,0.27210830746,191395000.0,131461000.0,0.0,80961000.0,80961000.0,50500000.0,19227000.0,50189000.0,14327000.0,0.0,0.0,35862000.0,0.0,35862000.0,1.04,1.01,34208406.0,34402000.0,0.0,0.4072,0.249,0.215,0.111,0.0684,80334000.0,69416000.0,35862000.0,0.1555,0.1111
2015-12-31,253796000.0,0.27149119510999997,160292000.0,93504000.0,0.0,71594000.0,69774000.0,23730000.0,20952000.0,50040000.0,18420000.0,0.0,0.0,31620000.0,0.0,31620000.0,0.93,0.9,33603900.0,33960000.0,0.0,0.3684,0.316,0.2797,0.125,-0.0325,80293000.0,70992000.0,31620000.0,0.1972,0.1246
2014-12-31,199605000.0,0.26073747505100003,121693000.0,77912000.0,0.0,57288000.0,55783000.0,22129000.0,11213000.0,34194000.0,8931000.0,0.0,0.0,25263000.0,0.0,25263000.0,0.81,0.79,33603900.0,30926000.0,0.0,0.3903,0.268,0.2275,0.127,0.0695,53441000.0,45407000.0,25263000.0,0.1713,0.1266
2013-12-31,158324000.0,0.228756140909,99603000.0,58721000.0,0.0,54841000.0,64420000.0,-5699000.0,10040000.0,19778000.0,6009000.0,0.0,0.0,13769000.0,0.0,13769000.0,0.5,0.48,,27891000.0,0.0,0.3709,0.23399999999999999,0.1883,0.087,-0.0053,36974000.0,29818000.0,13769000.0,0.1249,0.087
2012-12-31,128849000.0,,80612000.0,48237000.0,0.0,47680000.0,47389000.0,848000.0,2687000.0,-1461000.0,-160000.0,0.0,0.0,-1301000.0,0.0,-1301000.0,-0.06,-0.06,,27288000.0,0.0,0.3744,0.047,0.0095,-0.01,0.0189,5996000.0,1226000.0,-1301000.0,-0.0113,-0.0101
