,0,1,2,3,4,5,6,7,8,9,10,11,12,13,14
Date,Depreciation & Amortization,Stock-based compensation,Operating Cash Flow,Capital Expenditure,Acquisitions and disposals,Investment purchases and sales,Investing Cash flow,Issuance (repayment) of debt,Issuance (buybacks) of shares,Dividend payments,Financing Cash Flow,Effect of forex changes on cash,Net cash flow / Change in cash,Free Cash Flow,Net Cash/Marketcap
2019-12-31,114132000.0,1966000.0,94402000.0,82864000.0,-0.0,0.0,-67214000.0,-0.0,0.0,-0.0,-23267000.0,0.0,3921000.0,11538000.0,0.0
2018-12-31,114038000.0,2738000.0,168856000.0,69174000.0,-171620000.0,0.0,-225720000.0,-0.0,0.0,-0.0,50127000.0,0.0,-6737000.0,99682000.0,0.0
2017-12-31,113372000.0,2755000.0,348442000.0,49866000.0,-38479000.0,0.0,-61644000.0,-0.0,-14858000.0,-0.0,-281968000.0,0.0,4830000.0,298576000.0,0.0
2016-12-31,120606000.0,4145000.0,-119886000.0,71279000.0,-0.0,0.0,6447000.0,-0.0,-10028000.0,-0.0,122351000.0,0.0,10028000.0,-191165000.0,0.0
2015-12-31,123633000.0,4208000.0,62506000.0,92925000.0,-561170000.0,0.0,-649764000.0,-0.0,-1116000.0,-0.0,583136000.0,0.0,-4122000.0,-30419000.0,0.0
2014-12-31,92550000.0,3485000.0,344902000.0,95114000.0,-0.0,0.0,-91093000.0,-0.0,-5238000.0,-0.0,-257788000.0,0.0,5238000.0,249788000.0,0.0
2013-12-31,84399000.0,1806000.0,255147000.0,67132000.0,-185262000.0,0.0,-237230000.0,-115000000.0,-9217000.0,-0.0,-8700000.0,0.0,9217000.0,188015000.0,0.0
2012-12-31,51211000.0,6000.0,232452000.0,44872000.0,-188748000.0,0.0,-222160000.0,-0.0,-5977000.0,-0.0,-4315000.0,0.0,5977000.0,187580000.0,0.0
2011-12-31,35082000.0,361000.0,-17357000.0,15957000.0,-0.0,0.0,-13369000.0,-0.0,-4328000.0,-0.0,32693000.0,0.0,1967000.0,-33314000.0,0.0
2010-12-31,20082000.0,228000.0,-87194000.0,-14638000.0,-248359000.0,0.0,-262997000.0,252900000.0,130954000.0,-31964000.0,351890000.0,0.0,1699000.0,-101832000.0,-1.6816
2009-12-31,14740000.0,1946000.0,-61129000.0,-9062000.0,0.0,0.0,-9062000.0,100300000.0,-4342000.0,-26050000.0,69908000.0,0.0,-283000.0,-70191000.0,-1.7662
