,0,1,2,3,4,5,6,7,8,9,10,11,12,13,14
Date,Depreciation & Amortization,Stock-based compensation,Operating Cash Flow,Capital Expenditure,Acquisitions and disposals,Investment purchases and sales,Investing Cash flow,Issuance (repayment) of debt,Issuance (buybacks) of shares,Dividend payments,Financing Cash Flow,Effect of forex changes on cash,Net cash flow / Change in cash,Free Cash Flow,Net Cash/Marketcap
2019-12-31,899302.0,6215090.0,-51984139.0,144928.0,-0.0,0.0,-144928.0,-0.0,-158201441.0,-0.0,412913.0,0.0,-51716154.0,-52129067.0,0.0
2018-12-31,275123.0,4587098.0,-43331130.0,125618.0,-0.0,0.0,-125618.0,-0.0,-81492515.0,-0.0,129449605.0,0.0,85992857.0,-43456748.0,0.0
2017-12-31,263541.0,3760802.0,-29768361.0,294107.0,-0.0,0.0,-294107.0,-0.0,-10352549.0,-0.0,113945565.0,0.0,83883097.0,-30062468.0,0.0
2016-12-31,190540.0,2964767.0,-29731265.0,704202.0,-0.0,0.0,-704202.0,-0.0,-16439686.0,-0.0,23674548.0,0.0,-6760919.0,-30435467.0,0.0
2015-12-31,191484.0,2323603.0,-8241890.0,268594.0,-0.0,0.0,-268594.0,-0.0,-46802560.0,-0.0,114121.0,0.0,-8396363.0,-8510484.0,0.0
2014-12-31,158708.0,1635065.0,-4281587.0,212603.0,-0.0,0.0,-212603.0,-0.0,2049296.0,-0.0,57382510.0,0.0,52888320.0,-4494190.0,0.0
2013-12-31,133051.0,425689.0,-15539070.0,-82091.0,0.0,0.0,-82091.0,0.0,0.0,0.0,558932.0,0.0,-15062229.0,-15621161.0,0.1875
2012-12-31,99923.0,415208.0,-10473399.0,-316180.0,0.0,0.0,-326180.0,0.0,0.0,0.0,237.0,0.0,-10799342.0,-10789579.0,0.1875
2011-12-31,83861.0,376243.0,13853184.0,-182438.0,0.0,0.0,-240138.0,-24166.0,3.0,0.0,-24163.0,0.0,13588883.0,13670746.0,0.1875
