,0,1,2,3,4,5,6,7,8,9,10,11,12,13,14,15,16,17,18,19,20,21,22,23,24,25,26,27,28
Date,Cash and cash equivalents,Short-term investments,Cash and short-term investments,Receivables,Inventories,Total current assets,Property Plant & Equipment Net,Goodwill and Intangible Assets,Long-term investments,Tax assets,Total non-current assets,Total assets,Payables,Short-term debt,Total current liabilities,Long-term debt,Total debt,Deferred revenue,Tax Liabilities,Deposit Liabilities,Total non-current liabilities,Total liabilities,Other comprehensive income,Retained earnings (deficit),Total shareholders equity,Investments,Net Debt,Other Assets,Other Liabilities
2017-12,247000000.0,,,29000000.0,4000000.0,2116000000.0,1695000000.0,73000000.0,0.0,0.0,1476000000.0,2427000000.0,5000000.0,119000000.0,180000000.0,1252000000.0,1252000000.0,15000000.0,5000000.0,,1476000000.0,1656000000.0,,,,0.0,1124000000.0,348000000.0,13000000.0
2016-12,66000000.0,,,47000000.0,1000000.0,2092000000.0,1764000000.0,86000000.0,0.0,5000000.0,1501000000.0,2253000000.0,2000000.0,78000000.0,215000000.0,1297000000.0,1297000000.0,0.0,19000000.0,,1501000000.0,1716000000.0,,,,0.0,1309000000.0,237000000.0,105000000.0
2015-12,41000000.0,,,31000000.0,1000000.0,2113000000.0,1847000000.0,99000000.0,0.0,10000000.0,1450000000.0,2245000000.0,4000000.0,122000000.0,266000000.0,1223000000.0,1223000000.0,0.0,0.0,,1450000000.0,1716000000.0,,,,0.0,1304000000.0,157000000.0,130000000.0
2014-12,99000000.0,,,11000000.0,0.0,1815000000.0,1623000000.0,16000000.0,0.0,6000000.0,1144000000.0,1956000000.0,3000000.0,144000000.0,278000000.0,908000000.0,908000000.0,0.0,0.0,,1144000000.0,1422000000.0,,,,0.0,953000000.0,169000000.0,106000000.0
2013-12,103000000.0,,,4000000.0,1000000.0,1585000000.0,1409000000.0,0.0,5000000.0,0.0,981000000.0,1721000000.0,2000000.0,156000000.0,241000000.0,733000000.0,733000000.0,0.0,0.0,,981000000.0,1222000000.0,,,,5000000.0,786000000.0,170000000.0,63000000.0
