,0,1,2,3,4,5,6,7,8,9,10,11,12,13,14,15,16,17,18,19,20,21,22,23,24,25,26,27,28,29,30
Date,Revenue,Revenue Growth,Cost of Revenue,Gross Profit,R&D Expenses,SG&A Expense,Operating Expenses,Operating Income,Interest Expense,Earnings before Tax,Income Tax Expense,Net Income - Non-Controlling int,Net Income - Discontinued ops,Net Income,Preferred Dividends,Net Income Com,EPS,EPS Diluted,Weighted Average Shs Out,Weighted Average Shs Out (Dil),Dividend per Share,Gross Margin,EBITDA Margin,EBIT Margin,Profit Margin,Free Cash Flow margin,EBITDA,EBIT,Consolidated Income,Earnings Before Tax Margin,Net Profit Margin
2018-12-31,0.0,0.0,0.0,0.0,0.0,9553000.0,10342000.0,-10342000.0,774000.0,-11116000.0,0.0,0.0,0.0,-10744000.0,0.0,-10744000.0,-0.08,-0.08,129421000.0,129421000.0,0.0,0.0,0.0,0.0,0.0,0.0,-8472000.0,-10342000.0,-10744000.0,0.0,0.0
2017-12-31,0.0,0.0,0.0,0.0,0.0,6373000.0,7129000.0,-7129000.0,942000.0,-8071000.0,0.0,0.0,0.0,-8045000.0,0.0,-8045000.0,-0.07,-0.07,114315000.0,114315000.0,0.0,0.0,0.0,0.0,0.0,0.0,-6864000.0,-7129000.0,-8045000.0,0.0,0.0
2016-12-31,0.0,0.0,0.0,0.0,0.0,6050000.0,7127000.0,-7127000.0,961000.0,-8088000.0,0.0,0.0,0.0,-8067000.0,0.0,-8067000.0,-0.07,-0.07,110521000.0,110521000.0,0.0,0.0,0.0,0.0,0.0,0.0,-6890000.0,-7127000.0,-8067000.0,0.0,0.0
2015-12-31,0.0,0.0,0.0,0.0,0.0,8703000.0,9735000.0,-9735000.0,1100000.0,-16123000.0,0.0,0.0,0.0,-15223000.0,0.0,-15223000.0,-0.16,-0.16,97056000.0,97056000.0,0.0,0.0,0.0,0.0,0.0,0.0,-9484000.0,-9735000.0,-15223000.0,0.0,0.0
2014-12-31,0.0,0.0,0.0,0.0,0.0,8872000.0,10969000.0,-10969000.0,29000.0,-10998000.0,0.0,0.0,0.0,-10960000.0,0.0,-10960000.0,-0.12,-0.12,91907000.0,91907000.0,0.0,0.0,0.0,0.0,0.0,0.0,-10630000.0,-10969000.0,-10960000.0,0.0,0.0
2013-12-31,0.0,0.0,0.0,0.0,0.0,8985000.0,9757000.0,-9757000.0,753000.0,-16304000.0,0.0,0.0,0.0,-16304000.0,0.0,-16304000.0,-0.18,-0.18,91568000.0,91568000.0,0.0,0.0,0.0,0.0,0.0,0.0,-9416000.0,-9757000.0,-16304000.0,0.0,0.0
2012-12-31,0.0,0.0,500000.0,0.0,0.0,10600000.0,11378000.0,-11378000.0,548000.0,-9920000.0,0.0,0.0,0.0,-9920000.0,0.0,-9920000.0,-0.11,-0.11,91230.0,91230.0,0.0,0.0,0.0,0.0,0.0,0.0,-11068000.0,-11378000.0,-9920000.0,0.0,0.0
2011-12-31,0.0,0.0,0.0,0.0,0.0,10248000.0,11816000.0,-15219000.0,250000.0,-15448000.0,0.0,0.0,0.0,-14768000.0,0.0,-14768000.0,-0.16,-0.16,90588000.0,90588000.0,0.0,0.0,0.0,0.0,0.0,0.0,-14807000.0,-15219000.0,-14768000.0,0.0,0.0
2010-12-31,0.0,0.0,0.0,0.0,623000.0,10919000.0,16580000.0,-16580000.0,164000.0,-15723000.0,0.0,-1008000.0,0.0,-15723000.0,0.0,-15723000.0,-0.22,-0.22,72592538.0,72987000.0,0.0,0.0,,0.0,,0.0,-15224000.0,-15559000.0,-16731000.0,0.0,0.0
2009-12-31,0.0,0.0,0.0,0.0,806000.0,9703000.0,10509000.0,-10509000.0,0.0,-10239000.0,0.0,-239000.0,0.0,-10239000.0,0.0,-10239000.0,-0.14,-0.14,72437538.0,72226000.0,0.0,0.0,,0.0,,0.0,-9895000.0,-10239000.0,-10478000.0,0.0,0.0
