,0,1,2,3,4,5,6,7,8,9,10,11,12,13,14,15,16,17,18,19,20,21,22,23,24,25,26,27,28,29,30
Date,Revenue,Revenue Growth,Cost of Revenue,Gross Profit,R&D Expenses,SG&A Expense,Operating Expenses,Operating Income,Interest Expense,Earnings before Tax,Income Tax Expense,Net Income - Non-Controlling int,Net Income - Discontinued ops,Net Income,Preferred Dividends,Net Income Com,EPS,EPS Diluted,Weighted Average Shs Out,Weighted Average Shs Out (Dil),Dividend per Share,Gross Margin,EBITDA Margin,EBIT Margin,Profit Margin,Free Cash Flow margin,EBITDA,EBIT,Consolidated Income,Earnings Before Tax Margin,Net Profit Margin
2019-04-30,3116032000.0,0.240720868942,2111913000.0,1004119000.0,0.0,739460000.0,856919000.0,147200000.0,73677000.0,70041000.0,14039000.0,0.0,0.0,56002000.0,0.0,56002000.0,1.33,1.31,40914000.0,41589000.0,0.0,0.32224283961100003,0.08600393063999999,0.0472395662175,0.017972215946400003,0.05611142632680001,267991000.0,147200000.0,56002000.0,0.022477625390200002,0.017972215946400003
2018-04-30,2511469000.0,0.0829283710469,1692893000.0,818576000.0,0.0,633877000.0,699407000.0,119169000.0,31395000.0,83854000.0,20883000.0,0.0,0.0,62971000.0,0.0,62971000.0,1.54,1.49,41015000.0,42163000.0,0.0,0.325935139952,0.07467740991430001,0.0474499187527,0.0250733733922,0.025831495431599998,187550000.0,119169000.0,62971000.0,0.0333884272511,0.0250733733922
2017-04-30,2319146000.0,0.248072578466,1560575000.0,758571000.0,0.0,585078000.0,654318000.0,104253000.0,36463000.0,71540000.0,22654000.0,0.0,0.0,48886000.0,0.0,48886000.0,1.21,1.19,40260405.0,41070025.0,0.0,0.327090661821,0.07903167804010001,0.0449531853536,0.021079311091200002,0.023985122109599997,183286000.0,104253000.0,48886000.0,0.0308475619905,0.021079311091200002
2016-04-30,1858182000.0,0.183491339641,1265018000.0,593164000.0,0.0,470035000.0,534250000.0,58914000.0,37418000.0,25148000.0,12584000.0,0.0,0.0,12564000.0,0.0,12564000.0,0.38,0.38,33000000.0,32799000.0,0.0,0.3192,0.068,0.0337,0.006999999999999999,0.0216,126781000.0,62566000.0,12564000.0,0.0135,0.0068
2015-04-30,1570085000.0,,1091114000.0,478971000.0,0.0,396155000.0,460320000.0,18651000.0,36396000.0,-18323000.0,-6626000.0,0.0,0.0,-11697000.0,0.0,-11697000.0,-0.36,-0.36,,32450401.0,0.0,0.3051,0.052000000000000005,0.0115,-0.006999999999999999,0.0217,82238000.0,18073000.0,-11697000.0,-0.0117,-0.0074
