,0,1,2,3,4,5,6,7,8,9,10,11,12,13,14
Date,Depreciation & Amortization,Stock-based compensation,Operating Cash Flow,Capital Expenditure,Acquisitions and disposals,Investment purchases and sales,Investing Cash flow,Issuance (repayment) of debt,Issuance (buybacks) of shares,Dividend payments,Financing Cash Flow,Effect of forex changes on cash,Net cash flow / Change in cash,Free Cash Flow,Net Cash/Marketcap
2018-12-31,1489160.0,4060375.0,-13577316.0,-10897339.0,710081.0,0.0,-10216436.0,45837422.0,0.0,0.0,29132121.0,-77281.0,5261088.0,-24474655.0,-0.0352
2017-12-31,789004.0,0.0,3124047.0,-289835.0,0.0,0.0,-886574.0,-1603909.0,0.0,0.0,-1886381.0,38109.0,389201.0,2834212.0,-0.0351
2016-12-31,572000.0,,2644000.0,-76000.0,,,-76000.0,,,,-1286000.0,-5000.0,1277000.0,,-0.0351
