,0,1,2,3,4,5,6,7,8,9,10,11,12,13,14,15,16,17,18,19,20,21,22,23,24,25,26,27,28
Date,Cash and cash equivalents,Short-term investments,Cash and short-term investments,Receivables,Inventories,Total current assets,Property Plant & Equipment Net,Goodwill and Intangible Assets,Long-term investments,Tax assets,Total non-current assets,Total assets,Payables,Short-term debt,Total current liabilities,Long-term debt,Total debt,Deferred revenue,Tax Liabilities,Deposit Liabilities,Total non-current liabilities,Total liabilities,Other comprehensive income,Retained earnings (deficit),Total shareholders equity,Investments,Net Debt,Other Assets,Other Liabilities
2018-12-31,7341000.0,0.0,7341000.0,8218000.0,29502000.0,57105000.0,11641000.0,9108000.0,0.0,0.0,20916000.0,78021000.0,20226000.0,263000.0,30434000.0,48613000.0,48876000.0,0.0,0.0,0.0,48613000.0,79047000.0,-286000.0,0.0,-11059000.0,0.0,41535000.0,12044000.0,9945000.0
2017-12-31,2080397.0,0.0,2080397.0,3759551.0,14159693.0,23288456.0,597494.0,4706005.0,915920.0,0.0,6283371.0,29571827.0,15500519.0,70947.0,19519682.0,656312.0,727259.0,0.0,0.0,0.0,656312.0,20175994.0,-208711.0,3154623.0,9395833.0,915920.0,-1353138.0,3288815.0,3948216.0
2016-12-31,1691000.0,,1691000.0,1337000.0,5618000.0,10004000.0,355000.0,,,,,16000000.0,4603000.0,,6440000.0,2111000.0,,,,,,8551000.0,,1246000.0,7449000.0,,,,
