,0,1,2,3,4,5,6,7,8,9,10,11,12,13,14,15,16,17,18,19,20,21,22,23,24,25,26,27,28
Date,Cash and cash equivalents,Short-term investments,Cash and short-term investments,Receivables,Inventories,Total current assets,Property Plant & Equipment Net,Goodwill and Intangible Assets,Long-term investments,Tax assets,Total non-current assets,Total assets,Payables,Short-term debt,Total current liabilities,Long-term debt,Total debt,Deferred revenue,Tax Liabilities,Deposit Liabilities,Total non-current liabilities,Total liabilities,Other comprehensive income,Retained earnings (deficit),Total shareholders equity,Investments,Net Debt,Other Assets,Other Liabilities
2018-12-31,12076000.0,0.0,12076000.0,0.0,0.0,12246000.0,20000.0,0.0,0.0,0.0,31000.0,12277000.0,1582000.0,0.0,4345000.0,0.0,0.0,0.0,0.0,0.0,0.0,4345000.0,253678000.0,-245753000.0,7932000.0,0.0,-12076000.0,0.0,0.0
2017-12-31,33729000.0,0.0,33729000.0,0.0,0.0,34622000.0,85000.0,0.0,0.0,0.0,139000.0,34761000.0,943000.0,0.0,4140000.0,0.0,0.0,0.0,0.0,0.0,0.0,4140000.0,245593000.0,-214978000.0,30621000.0,0.0,-33729000.0,0.0,0.0
2016-12-31,39838000.0,0.0,39838000.0,0.0,0.0,40173000.0,377000.0,0.0,0.0,0.0,388000.0,40561000.0,137000.0,0.0,5583000.0,0.0,0.0,0.0,0.0,0.0,0.0,5583000.0,215008000.0,-180034000.0,34978000.0,0.0,-39838000.0,0.0,0.0
2015-12-31,53064000.0,0.0,53064000.0,0.0,0.0,53811000.0,424000.0,0.0,0.0,0.0,447000.0,54258000.0,1322000.0,0.0,3908000.0,0.0,0.0,0.0,0.0,0.0,0.0,3908000.0,188476000.0,-138130000.0,50350000.0,0.0,-53064000.0,0.0,0.0
2014-12-31,33288000.0,0.0,33288000.0,0.0,0.0,33603000.0,495000.0,0.0,0.0,0.0,677000.0,34280000.0,1076000.0,0.0,3638000.0,0.0,0.0,0.0,0.0,0.0,980000.0,4618000.0,129797000.0,-100138000.0,29662000.0,0.0,-33288000.0,0.0,0.0
2013-12-31,22390000.0,0.0,22390000.0,0.0,0.0,22592000.0,357000.0,0.0,0.0,0.0,495000.0,23087000.0,1062000.0,0.0,3014000.0,0.0,0.0,0.0,0.0,0.0,1650000.0,4664000.0,18421000.0,0.0,18423000.0,0.0,-22390000.0,0.0,0.0
2012-12-31,6431000.0,0.0,6431000.0,0.0,0.0,6970000.0,352000.0,0.0,0.0,0.0,737000.0,7707000.0,877000.0,0.0,2350000.0,0.0,0.0,0.0,0.0,0.0,3423000.0,5773000.0,1933000.0,0.0,1934000.0,0.0,-6431000.0,0.0,0.0
2011-12-31,4995000.0,0.0,4995000.0,0.0,0.0,6117000.0,434000.0,0.0,0.0,0.0,745000.0,6862000.0,903000.0,0.0,2059000.0,0.0,0.0,0.0,0.0,0.0,1806000.0,3865000.0,2996000.0,0.0,2997000.0,0.0,-4995000.0,0.0,0.0
2010-12-31,2859000.0,0.0,2859000.0,983000.0,0.0,3842000.0,243000.0,0.0,0.0,0.0,1279000.0,5121000.0,1978000.0,5460000.0,7438000.0,0.0,5460000.0,0.0,0.0,0.0,4757000.0,12195000.0,0.0,-41409000.0,-7074000.0,0.0,2601000.0,0.0,0.0
2009-12-31,470000.0,0.0,470000.0,11000.0,0.0,481000.0,303000.0,0.0,0.0,0.0,603000.0,1084000.0,2637000.0,0.0,3420000.0,1013000.0,1013000.0,0.0,0.0,0.0,5377000.0,8797000.0,0.0,-37262000.0,-7713000.0,0.0,543000.0,0.0,783000.0
