,0,1,2,3,4,5,6,7,8,9,10,11,12,13,14,15,16,17,18,19,20,21,22,23,24,25,26,27,28,29,30
Date,Revenue,Revenue Growth,Cost of Revenue,Gross Profit,R&D Expenses,SG&A Expense,Operating Expenses,Operating Income,Interest Expense,Earnings before Tax,Income Tax Expense,Net Income - Non-Controlling int,Net Income - Discontinued ops,Net Income,Preferred Dividends,Net Income Com,EPS,EPS Diluted,Weighted Average Shs Out,Weighted Average Shs Out (Dil),Dividend per Share,Gross Margin,EBITDA Margin,EBIT Margin,Profit Margin,Free Cash Flow margin,EBITDA,EBIT,Consolidated Income,Earnings Before Tax Margin,Net Profit Margin
2018-12-31,188000.0,5.96296296296,0.0,0.0,7111000.0,8663000.0,15774000.0,-30962000.0,0.0,-30775000.0,0.0,0.0,0.0,-30775000.0,0.0,-30775000.0,-0.5,-0.5,61381611.0,61381611.0,0.0,0.0,-164.345744681,-164.691489362,-163.696808511,-141.75,-30897000.0,-30962000.0,-30775000.0,-163.696808511,-163.696808511
2017-12-31,27000.0,0.8,0.0,0.0,25176000.0,9524000.0,34700000.0,-34700000.0,0.0,-34714000.0,0.0,0.0,0.0,-34714000.0,0.0,-34714000.0,-0.83,-0.83,41675814.0,41675814.0,0.0,0.0,-1281.03703704,-1285.18518519,-1285.7037037,-1231.48148148,-34588000.0,-34700000.0,-34714000.0,-1285.7037037,-1285.7037037
2016-12-31,15000.0,14.0,0.0,0.0,28356000.0,13523000.0,41879000.0,-41879000.0,0.0,-41888000.0,16000.0,0.0,0.0,-41904000.0,0.0,-41904000.0,1.19,1.19,35161823.0,35161823.0,0.0,0.0,-2774.06666667,-2791.93333333,-2793.6,-2198.0,-41611000.0,-41879000.0,-41904000.0,-2792.53333333,-2793.6
2015-12-31,1000.0,-0.9982935153579999,0.0,0.0,15444000.0,12954000.0,28398000.0,-36568000.0,0.0,-37975000.0,17000.0,0.0,0.0,-37992000.0,0.0,-37992000.0,-1.42,-1.45,26783623.0,26846270.0,0.0,0.0,-36328.0,-36568.0,-37992.0,-24534.0,-36328000.0,-36568000.0,-37992000.0,-37975.0,-37992.0
2014-12-31,586000.0,1.0,0.0,0.0,8253000.0,10686000.0,18939000.0,-18939000.0,0.0,-18421000.0,12000.0,0.0,0.0,-18433000.0,0.0,-18433000.0,-0.96,-1.0,19246611.0,19294259.0,0.0,0.0,-31.935153583600002,-32.319112628,-31.4556313993,-21.4317406143,-18714000.0,-18939000.0,-18433000.0,-31.435153583600002,-31.4556313993
2013-12-31,0.0,0.0,0.0,0.0,7297000.0,10521000.0,17818000.0,-17818000.0,0.0,-17112000.0,17000.0,0.0,0.0,-17129000.0,0.0,-17129000.0,-0.97,-1.06,17629436.0,17683510.0,0.0,0.0,0.0,0.0,0.0,0.0,-17641000.0,-17818000.0,-17129000.0,0.0,0.0
2012-12-31,0.0,0.0,0.0,0.0,5052000.0,4924000.0,9976000.0,-9976000.0,71000.0,-8093000.0,3000.0,0.0,0.0,-8096000.0,0.0,-8096000.0,-0.96,-0.96,8447908.0,8447908.0,0.0,0.0,0.0,0.0,0.0,0.0,-9878000.0,-9976000.0,-8096000.0,0.0,0.0
2011-12-31,0.0,0.0,0.0,0.0,5052000.0,4924000.0,9976000.0,-9976000.0,0.0,-8093000.0,3000.0,0.0,0.0,-8096000.0,0.0,-8096000.0,-0.96,-0.96,0.0,0.0,0.0,0.0,0.0,0.0,0.0,0.0,-9878000.0,-9976000.0,-8096000.0,0.0,0.0
2010-12-31,0.0,0.0,0.0,0.0,1526000.0,4405000.0,5931000.0,-5931000.0,1664000.0,-4145000.0,2000.0,0.0,0.0,-4147000.0,0.0,-4147000.0,-0.95,-0.95,9191514.0,4374520.0,0.0,0.0,,0.0,,0.0,-2361000.0,-2481000.0,-4147000.0,0.0,0.0
2009-12-31,0.0,,0.0,0.0,1689000.0,2534000.0,4223000.0,-4223000.0,3055000.0,-6941000.0,1000.0,0.0,0.0,-6942000.0,3000.0,-6945000.0,-2.06,-2.06,,3367024.0,0.0,0.0,,0.0,,,,-3886000.0,-6942000.0,0.0,0.0
