,0,1,2,3,4,5,6,7,8,9,10,11,12,13,14
Date,Depreciation & Amortization,Stock-based compensation,Operating Cash Flow,Capital Expenditure,Acquisitions and disposals,Investment purchases and sales,Investing Cash flow,Issuance (repayment) of debt,Issuance (buybacks) of shares,Dividend payments,Financing Cash Flow,Effect of forex changes on cash,Net cash flow / Change in cash,Free Cash Flow,Net Cash/Marketcap
2019-12-28,52685000.0,31439000.0,132835000.0,100267000.0,-0.0,0.0,-108019000.0,-415678000.0,-28101000.0,-3645000.0,-17778000.0,0.0,7038000.0,32568000.0,0.0
2018-12-29,47057000.0,,105811000.0,-64762000.0,,,-73550000.0,,,,-16999000.0,,15262000.0,,-0.3554
2017-12-30,43156000.0,,84703000.0,-71066000.0,,,-77820000.0,,,,-7935000.0,,-1052000.0,,-0.3554
2016-12-31,37152000.0,,70875000.0,-58701000.0,,,-65416000.0,,,,-4328000.0,,1131000.0,,-0.3554
