,0,1,2,3,4,5,6,7,8,9,10,11,12,13,14,15,16,17,18,19,20,21,22,23,24,25,26,27,28,29,30
Date,Revenue,Revenue Growth,Cost of Revenue,Gross Profit,R&D Expenses,SG&A Expense,Operating Expenses,Operating Income,Interest Expense,Earnings before Tax,Income Tax Expense,Net Income - Non-Controlling int,Net Income - Discontinued ops,Net Income,Preferred Dividends,Net Income Com,EPS,EPS Diluted,Weighted Average Shs Out,Weighted Average Shs Out (Dil),Dividend per Share,Gross Margin,EBITDA Margin,EBIT Margin,Profit Margin,Free Cash Flow margin,EBITDA,EBIT,Consolidated Income,Earnings Before Tax Margin,Net Profit Margin
2019-12-31,835726000.0,-0.0649366051888,0.0,0.0,71500000.0,138999000.0,247609000.0,36724000.0,130572000.0,-144998000.0,1006000.0,0.0,0.0,-146004000.0,0.0,-146004000.0,-1.81,-1.81,80766000.0,80766000.0,0.0,0.0,0.17480609673500003,0.0439426319152,-0.17470319219500002,-0.043150506266400004,146090000.0,36724000.0,-146004000.0,-0.173499448384,-0.17470319219500002
2018-12-31,893764000.0,0.278467722325,0.0,0.0,72700000.0,153092000.0,273182000.0,-26921000.0,122809000.0,-165324000.0,-3293000.0,0.0,0.0,-162031000.0,0.0,-162031000.0,-2.02,-2.02,80038000.0,80038000.0,0.0,0.0,0.103742151172,-0.030120926777099998,-0.18129058677700002,-0.21363917096700002,92721000.0,-26921000.0,-162031000.0,-0.184975004587,-0.18129058677700002
2017-12-31,699090000.0,0.171888358059,0.0,0.0,78100000.0,157688000.0,290974000.0,-64262000.0,111944000.0,-173992000.0,-1997000.0,0.0,0.0,-171995000.0,0.0,-171995000.0,-2.17,-2.17,79407000.0,79407000.0,0.0,0.0,0.0953882904919,-0.09192235620589999,-0.24602697792800002,-0.27481297114799996,66685000.0,-64262000.0,-171995000.0,-0.248883548613,-0.24602697792800002
2016-12-31,596550000.0,0.190984810976,0.0,0.0,45900000.0,146104000.0,242817000.0,-26637000.0,83647000.0,-123191000.0,1314000.0,0.0,0.0,-124505000.0,0.0,-124505000.0,-1.58,-1.58,78915000.0,78915000.0,0.0,0.0,0.138811499455,-0.044651747548400005,-0.208708406672,-0.139646299556,82808000.0,-26637000.0,-124505000.0,-0.206505741346,-0.208708406672
2015-12-31,500888000.0,0.22619102991300002,0.0,0.0,50100000.0,142896000.0,230333000.0,-44842000.0,58889000.0,-106375000.0,1238000.0,0.0,0.0,-107613000.0,0.0,-107613000.0,-1.35,-1.35,79701000.0,79701000.0,0.0,0.0,0.0925616105796,-0.0895250035936,-0.214844436281,-0.06058240564759999,46363000.0,-44842000.0,-107613000.0,-0.212372825861,-0.214844436281
2014-12-31,408491000.0,0.24492874644999998,0.0,0.0,36900000.0,120129000.0,185249000.0,-50669000.0,32738000.0,-83355000.0,1183000.0,0.0,0.0,-84538000.0,0.0,-84538000.0,-0.99,-0.99,85147000.0,85147000.0,0.0,0.0,0.0415064224181,-0.124039452522,-0.206951927949,-0.252455990462,16955000.0,-50669000.0,-84538000.0,-0.204055903312,-0.206951927949
2013-12-31,328124000.0,0.40515170331699996,0.0,0.0,29800000.0,99597000.0,149284000.0,-44667000.0,29272000.0,-110182000.0,1107000.0,0.0,0.0,-111289000.0,0.0,-111289000.0,-3.05,-3.05,47832000.0,47832000.0,0.0,0.0,0.0416732698614,-0.136128414868,-0.33916750984399996,-0.266478526411,13674000.0,-44667000.0,-111289000.0,-0.33579378527599996,-0.33916750984399996
2012-12-31,233515000.0,0.458047154025,113140000.0,120375000.0,35354000.0,75551000.0,147812000.0,-27437000.0,8913000.0,-31678000.0,1036000.0,0.0,0.0,-32714000.0,62926000.0,-95640000.0,-14.07,-14.07,,6798000.0,0.0,0.5155,0.061,-0.0975,-0.41,-0.2079,14142000.0,-22765000.0,-32714000.0,-0.1357,-0.1401
2011-12-31,160156000.0,0.691925754551,77845000.0,82311000.0,22245000.0,61217000.0,116135000.0,-33824000.0,280000.0,24668000.0,1053000.0,0.0,0.0,23615000.0,41512000.0,-17897000.0,-2.63,-2.63,,6798000.0,0.0,0.5139,0.36,0.1558,-0.11199999999999999,-0.1453,57621000.0,24948000.0,23615000.0,0.154,0.1474
2010-12-31,94659000.0,,61393000.0,33266000.0,19228000.0,60008000.0,110227000.0,-76961000.0,37000.0,-110119000.0,3260000.0,0.0,0.0,-113379000.0,26764000.0,-140143000.0,-20.62,-20.62,,6798000.0,0.0,0.3514,-0.836,-1.1629,-1.4809999999999999,-0.8673,-79091000.0,-110082000.0,-113379000.0,-1.1633,-1.1978
