,0,1,2,3,4,5,6,7,8,9,10,11,12,13,14,15,16,17,18,19,20,21,22,23,24,25,26,27,28,29,30
Date,Revenue,Revenue Growth,Cost of Revenue,Gross Profit,R&D Expenses,SG&A Expense,Operating Expenses,Operating Income,Interest Expense,Earnings before Tax,Income Tax Expense,Net Income - Non-Controlling int,Net Income - Discontinued ops,Net Income,Preferred Dividends,Net Income Com,EPS,EPS Diluted,Weighted Average Shs Out,Weighted Average Shs Out (Dil),Dividend per Share,Gross Margin,EBITDA Margin,EBIT Margin,Profit Margin,Free Cash Flow margin,EBITDA,EBIT,Consolidated Income,Earnings Before Tax Margin,Net Profit Margin
2018-12-31,7243000000.0,-0.13506090279400002,5220000000.0,2023000000.0,383000000.0,265000000.0,1625000000.0,398000000.0,545000000.0,-347000000.0,1198000000.0,110000000.0,0.0,-1545000000.0,0.0,-1545000000.0,-1.32,-1.32,1166577478.0,1166577478.0,0.19,0.2793,0.228,0.0273,-0.213,0.0504,1655000000.0,198000000.0,-1435000000.0,-0.0479,-0.2133
2017-12-31,8374000000.0,-0.0215003505492,5300000000.0,3074000000.0,354000000.0,248000000.0,-354000000.0,3428000000.0,691000000.0,2669000000.0,1231000000.0,78000000.0,0.0,1438000000.0,0.0,1438000000.0,1.23,1.23,1165574071.0,1165574071.0,0.39,0.3671,0.598,0.4012,0.172,0.0799,5007000000.0,3360000000.0,1516000000.0,0.3187,0.1717
2016-12-31,8558000000.0,-0.052165245320600004,5405000000.0,3153000000.0,237000000.0,256000000.0,433000000.0,2720000000.0,775000000.0,1572000000.0,917000000.0,206000000.0,0.0,655000000.0,0.0,655000000.0,0.56,0.56,1165081379.0,1165081379.0,0.08,0.3684,0.45799999999999996,0.2742,0.077,0.1769,3921000000.0,2347000000.0,861000000.0,0.1837,0.0765
2015-12-31,9029000000.0,-0.11817560308599999,6907000000.0,2122000000.0,355000000.0,233000000.0,4375000000.0,-2253000000.0,726000000.0,-2869000000.0,-31000000.0,275000000.0,0.0,-2838000000.0,0.0,-2838000000.0,-2.44,-2.44,1164669608.0,1164669608.0,0.14,0.235,-0.040999999999999995,-0.2373,-0.314,0.1197,-372000000.0,-2143000000.0,-3113000000.0,-0.3178,-0.3143
2014-12-31,10239000000.0,-0.182645485751,6830000000.0,3409000000.0,392000000.0,385000000.0,4952000000.0,-1543000000.0,796000000.0,-2601000000.0,306000000.0,52000000.0,0.0,-2907000000.0,0.0,-2907000000.0,-2.5,-2.5,1164652426.0,1164652426.0,0.2,0.3329,-0.015,-0.1763,-0.284,-0.0133,-157000000.0,-1805000000.0,-2959000000.0,-0.254,-0.2839
2013-12-31,12527000000.0,-0.129706822287,7329000000.0,5198000000.0,680000000.0,390000000.0,13913000000.0,-8715000000.0,657000000.0,-9736000000.0,630000000.0,237000000.0,506000000.0,-10366000000.0,0.0,-10366000000.0,-10.14,-9.65,1001107981.0,1001107981.0,0.5,0.4149,-0.586,-0.7248,-0.8270000000000001,-0.1007,-7347000000.0,-9079000000.0,-10603000000.0,-0.7772,-0.8275
2012-12-31,14394000000.0,0.0110986232088,7257000000.0,7137000000.0,359000000.0,503000000.0,7459000000.0,-322000000.0,174000000.0,-640000000.0,-102000000.0,11000000.0,185000000.0,-538000000.0,0.0,-538000000.0,-0.54,-0.35,1000422260.0,1000422260.0,0.75,0.4958,0.08199999999999999,-0.0324,-0.037000000000000005,-0.0549,1185000000.0,-466000000.0,-549000000.0,-0.0445,-0.0374
2011-12-31,14236000000.0,0.29406417598400003,6240000000.0,7996000000.0,346000000.0,166000000.0,1323000000.0,6673000000.0,199000000.0,6771000000.0,2287000000.0,53000000.0,0.0,4484000000.0,0.0,4484000000.0,4.49,4.48,998499673.0,998499673.0,0.51,0.5617,0.589,0.4896,0.315,0.024,8389000000.0,6970000000.0,4537000000.0,0.4756,0.315
2010-12-31,11001000000.0,0.352138643068,5162000000.0,5839000000.0,229000000.0,156000000.0,767000000.0,5072000000.0,180000000.0,5143000000.0,1561000000.0,48000000.0,-124000000.0,3582000000.0,0.0,3582000000.0,3.63,3.47,984327816.0,984327816.0,0.44,0.5308,0.596,0.4839,0.326,0.0734,6556000000.0,5323000000.0,3630000000.0,0.4675,0.3256
2009-12-31,8136000000.0,0.0687,3807000000.0,4329000000.0,141000000.0,171000000.0,8023000000.0,-3694000000.0,57000000.0,-3626000000.0,648000000.0,6000000.0,-97000000.0,-4274000000.0,0.0,-4274000000.0,-4.73,-4.84,872471775.0,872471775.0,0.4,0.5321,-0.307,-0.4387,-0.525,-0.5744,-2496000000.0,-3569000000.0,-4268000000.0,-0.4457,-0.5253
