,0,1,2,3,4,5,6,7,8,9,10,11,12,13,14,15,16,17,18,19,20,21,22,23,24,25,26,27,28,29,30
Date,Revenue,Revenue Growth,Cost of Revenue,Gross Profit,R&D Expenses,SG&A Expense,Operating Expenses,Operating Income,Interest Expense,Earnings before Tax,Income Tax Expense,Net Income - Non-Controlling int,Net Income - Discontinued ops,Net Income,Preferred Dividends,Net Income Com,EPS,EPS Diluted,Weighted Average Shs Out,Weighted Average Shs Out (Dil),Dividend per Share,Gross Margin,EBITDA Margin,EBIT Margin,Profit Margin,Free Cash Flow margin,EBITDA,EBIT,Consolidated Income,Earnings Before Tax Margin,Net Profit Margin
2018-12-31,106798000.0,2052.80769231,0.0,0.0,0.0,2358000.0,71137000.0,12320000.0,26172000.0,12141000.0,0.0,0.0,0.0,12320000.0,0.0,12320000.0,0.03,0.03,28675934.0,28675934.0,1.90281509227,0.0,0.567351448529,0.11535796550499999,0.11535796550499999,0.5205996366969999,60592000.0,12320000.0,12320000.0,0.113681904156,0.11535796550499999
2017-12-31,52000.0,-0.8483965014579999,0.0,0.0,0.0,2366000.0,68337000.0,5937000.0,24570000.0,5972000.0,0.0,0.0,0.0,5937000.0,0.0,5937000.0,-0.19,-0.19,26358237.0,26358237.0,1.91241925627,0.0,951.826923077,114.173076923,114.173076923,900.807692308,49495000.0,5937000.0,5937000.0,114.846153846,114.173076923
2016-12-31,343000.0,23.5,0.0,0.0,0.0,2127000.0,55595000.0,3958000.0,25902000.0,0.0,0.0,0.0,0.0,3958000.0,0.0,3958000.0,-0.16,-0.16,23193962.0,23193962.0,1.83211475469,0.0,124.10787172,11.5393586006,11.5393586006,120.00291545200001,42569000.0,3958000.0,3958000.0,0.0,11.5393586006
2015-12-31,14000.0,-0.919540229885,0.0,0.0,0.0,2094000.0,50965000.0,3596000.0,28014000.0,0.0,0.0,0.0,0.0,3596000.0,0.0,3596000.0,-0.07,-0.07,21159597.0,21159597.0,1.7425190092200002,0.0,2857.85714286,256.857142857,256.857142857,2249.07142857,40010000.0,3596000.0,3596000.0,0.0,256.857142857
2014-12-31,174000.0,0.722772277228,0.0,0.0,0.0,2689000.0,57406000.0,-5902000.0,26197000.0,0.0,0.0,0.0,0.0,-5902000.0,0.0,-5902000.0,-0.61,-0.61,17253503.0,17253503.0,1.7598165427599999,0.0,137.712643678,-33.9195402299,-33.9195402299,162.051724138,23962000.0,-5902000.0,-5902000.0,0.0,-33.9195402299
2013-12-31,101000.0,-0.204724409449,0.0,0.0,0.0,1655000.0,32823000.0,1527000.0,24351000.0,0.0,0.0,0.0,0.0,1527000.0,0.0,1527000.0,-0.22,-0.22,13164244.0,13164244.0,1.8185624635900002,0.0,253.762376238,15.1188118812,15.1188118812,196.88118811900003,25630000.0,1527000.0,1527000.0,0.0,15.1188118812
2012-12-31,127000.0,1.0,0.0,0.0,0.0,1594000.0,24895000.0,3761000.0,20226000.0,0.0,0.0,0.0,0.0,3761000.0,0.0,3761000.0,-0.04,-0.04,10953325.0,10953325.0,1.88189431063,0.0,167.960629921,29.6141732283,29.6141732283,184.291338583,21331000.0,3761000.0,3761000.0,0.0,29.6141732283
2011-12-31,0.0,-1.0,0.0,0.0,0.0,0.0,0.0,0.0,0.0,0.0,0.0,0.0,0.0,0.0,0.0,0.0,0.0,0.0,0.0,0.0,0.0,0.0,0.0,0.0,0.0,0.0,0.0,0.0,0.0,0.0,0.0
2010-12-31,41928000.0,-0.0159825389002,5267000.0,36661000.0,0.0,4471000.0,18147000.0,18514000.0,17063000.0,4928000.0,0.0,0.0,0.0,4928000.0,4114000.0,814000.0,0.09,0.09,8605264.0,8576303.0,1.5,0.8744,0.841,0.5245,0.019,0.3743,35255000.0,21991000.0,4928000.0,0.1175,0.1175
2009-12-31,42609000.0,0.0441,4829000.0,37780000.0,0.0,2510000.0,15712000.0,22068000.0,17895000.0,4603000.0,0.0,0.0,-203000.0,4603000.0,4094000.0,509000.0,0.06,0.06,8563264.0,8563000.0,1.5,0.8867,0.8370000000000001,0.528,0.012,0.3981,35670000.0,22498000.0,4603000.0,0.10800000000000001,0.10800000000000001
