,0,1,2,3,4,5,6,7,8,9,10,11,12,13,14
Date,Depreciation & Amortization,Stock-based compensation,Operating Cash Flow,Capital Expenditure,Acquisitions and disposals,Investment purchases and sales,Investing Cash flow,Issuance (repayment) of debt,Issuance (buybacks) of shares,Dividend payments,Financing Cash Flow,Effect of forex changes on cash,Net cash flow / Change in cash,Free Cash Flow,Net Cash/Marketcap
2018-12-31,48272000.0,0.0,55599000.0,0.0,-0.0,-34000.0,-34440000.0,-386000.0,18531000.0,-54565000.0,-21157000.0,0.0,6591000.0,55599000.0,0.0
2018-12,48000000.0,,56000000.0,,,0.0,-34000000.0,-87000000.0,,,-21000000.0,,0.0,56000000.0,
2017-12-31,43558000.0,0.0,46842000.0,0.0,-0.0,-24000.0,-99232000.0,-1990000.0,86236000.0,-50408000.0,54415000.0,0.0,2025000.0,46842000.0,0.0
2017-12,43000000.0,,47000000.0,,,1000000.0,-99000000.0,-195000000.0,,,54000000.0,,2000000.0,47000000.0,
2016-12-31,38611000.0,0.0,41161000.0,0.0,-0.0,-178000.0,-58674000.0,-1500000.0,118184000.0,-42494000.0,17019000.0,0.0,-494000.0,41161000.0,0.0
2016-12,38000000.0,,41000000.0,,,1000000.0,-59000000.0,-224000000.0,,,17000000.0,,-0.0,41000000.0,
2015-12-31,36414000.0,0.0,31487000.0,0.0,-0.0,0.0,-74482000.0,-1880000.0,45013000.0,-36871000.0,39548000.0,0.0,-3447000.0,31487000.0,0.0
2015-12,35000000.0,,31000000.0,,,4000000.0,-74000000.0,-142000000.0,,,40000000.0,,-3000000.0,31000000.0,
2014-12-31,29864000.0,0.0,28197000.0,0.0,-0.0,0.0,-130441000.0,-1029000.0,65332000.0,-30363000.0,102297000.0,0.0,53000.0,28197000.0,0.0
2014-12,29000000.0,,28000000.0,,,-6000000.0,-130000000.0,-88000000.0,,,102000000.0,,0.0,28000000.0,
2013-12-31,24103000.0,0.0,19885000.0,0.0,-0.0,0.0,-137056000.0,-2051000.0,79575000.0,-23940000.0,120171000.0,0.0,3000000.0,19885000.0,0.0
2012-12-31,17570000.0,0.0,23405000.0,0.0,-0.0,0.0,-91984000.0,-4598000.0,-1355000.0,-20613000.0,70796000.0,0.0,2217000.0,23405000.0,0.0
2011-12-31,0.0,0.0,0.0,0.0,-0.0,0.0,0.0,-0.0,0.0,-0.0,0.0,0.0,0.0,0.0,0.0
