,0,1,2,3,4,5,6,7,8,9,10,11,12,13,14
Date,Depreciation & Amortization,Stock-based compensation,Operating Cash Flow,Capital Expenditure,Acquisitions and disposals,Investment purchases and sales,Investing Cash flow,Issuance (repayment) of debt,Issuance (buybacks) of shares,Dividend payments,Financing Cash Flow,Effect of forex changes on cash,Net cash flow / Change in cash,Free Cash Flow,Net Cash/Marketcap
2018-12-31,241635000.0,20716000.0,1145164000.0,232422000.0,-0.0,-91983000.0,-496124000.0,-5124265000.0,-91983000.0,-415983000.0,-608830000.0,-21562000.0,18648000.0,912742000.0,0.0
2017-12-31,167691000.0,16892000.0,815043000.0,156760000.0,-0.0,-173524000.0,-1630280000.0,-4350222000.0,-173524000.0,-395475000.0,872059000.0,15198000.0,72020000.0,658283000.0,0.0
2016-12-31,147487000.0,19719000.0,946078000.0,160643000.0,-0.0,-181417000.0,-593999000.0,-4100000000.0,-181417000.0,-386863000.0,-322406000.0,1575000.0,31248000.0,785435000.0,0.0
2015-12-31,141675000.0,17717000.0,1159373000.0,109544000.0,-0.0,-292275000.0,-263627000.0,-4005191000.0,-292275000.0,-368284000.0,-806074000.0,-15771000.0,73901000.0,1049829000.0,0.0
2014-12-31,148313000.0,16239000.0,790145000.0,107681000.0,-0.0,-95946000.0,-386715000.0,-0.0,-95946000.0,-347271000.0,-455440000.0,-7153000.0,-59163000.0,682464000.0,0.0
2013-12-31,133957000.0,12648000.0,1056731000.0,124063000.0,-0.0,-120673000.0,-825579000.0,-0.0,-120673000.0,-326217000.0,-425117000.0,-12237000.0,-206202000.0,932668000.0,0.0
2012-12-31,98383000.0,10747000.0,906438000.0,101987000.0,-0.0,-81826000.0,-651867000.0,-0.0,-81826000.0,-300983000.0,-378834000.0,2304000.0,-121959000.0,804451000.0,0.0
2011-12-31,0.0,0.0,0.0,0.0,-0.0,0.0,0.0,-0.0,0.0,-0.0,0.0,0.0,0.0,0.0,0.0
2010-12-31,0.0,0.0,0.0,0.0,-0.0,0.0,0.0,-0.0,0.0,-0.0,0.0,0.0,0.0,0.0,0.0
2009-12-31,90411000.0,9262000.0,845298000.0,-130217000.0,-134203000.0,0.0,-264420000.0,-52000000.0,-24141000.0,-253558000.0,-330383000.0,18531000.0,269026000.0,715081000.0,-0.0269
