,0,1,2,3,4,5,6,7,8,9,10,11,12,13,14,15,16,17,18,19,20,21,22,23,24,25,26,27,28,29,30
Date,Revenue,Revenue Growth,Cost of Revenue,Gross Profit,R&D Expenses,SG&A Expense,Operating Expenses,Operating Income,Interest Expense,Earnings before Tax,Income Tax Expense,Net Income - Non-Controlling int,Net Income - Discontinued ops,Net Income,Preferred Dividends,Net Income Com,EPS,EPS Diluted,Weighted Average Shs Out,Weighted Average Shs Out (Dil),Dividend per Share,Gross Margin,EBITDA Margin,EBIT Margin,Profit Margin,Free Cash Flow margin,EBITDA,EBIT,Consolidated Income,Earnings Before Tax Margin,Net Profit Margin
2018-12-31,6023000000.0,0.367713513636,5077000000.0,946000000.0,8700000.0,465700000.0,474400000.0,458200000.0,123700000.0,347500000.0,54700000.0,0.0,0.0,221100000.0,0.0,221100000.0,0.71,0.71,309500000.0,310100000.0,0.357949048694,0.157064585755,0.148298190271,0.0760750456583,0.0367092810892,-0.12495434169000001,893200000.0,458200000.0,221100000.0,0.0576955005811,0.0367092810892
2017-12-31,4403700000.0,0.024568995602700004,3684200000.0,719500000.0,14400000.0,342700000.0,357100000.0,342700000.0,89700000.0,253000000.0,-45500000.0,0.0,0.0,300200000.0,0.0,300200000.0,0.97,0.96,311100000.0,311900000.0,0.299454953511,0.163385335059,0.153984149692,0.07782092331450001,0.06816994799829999,0.0625156118718,678100000.0,342700000.0,300200000.0,0.057451688353000005,0.06816994799829999
2016-12-31,4298100000.0,0.0331474448344,3506200000.0,791900000.0,14900000.0,355700000.0,370600000.0,396000000.0,76600000.0,319400000.0,93200000.0,0.0,0.0,228000000.0,0.0,228000000.0,0.71,0.71,320900000.0,321500000.0,0.200311041991,0.184244200926,0.16288592634000001,0.09213373351019999,0.053046695051300004,0.0844093901957,700100000.0,396000000.0,228000000.0,0.07431190526050001,0.053046695051300004
2015-12-31,4160200000.0,-0.018936446173799998,3371100000.0,789100000.0,13800000.0,347700000.0,361500000.0,427100000.0,67800000.0,359300000.0,130400000.0,0.0,0.0,230100000.0,0.0,230100000.0,0.7,0.7,329500000.0,330700000.0,0.148170547324,0.189678380847,0.171073506081,0.102663333494,0.055309840873,0.0829527426566,711700000.0,427100000.0,230100000.0,0.0863660400942,0.055309840873
2014-12-31,4240500000.0,-0.053058216654400005,3453300000.0,787200000.0,14900000.0,365500000.0,380400000.0,227800000.0,80700000.0,132700000.0,45400000.0,0.0,0.0,89700000.0,0.0,89700000.0,0.27,0.27,328600000.0,330500000.0,0.0,0.185638486028,0.118523758991,0.0537200801792,0.0211531659002,0.07668906968519999,502600000.0,227800000.0,89700000.0,0.0312934795425,0.0211531659002
2013-12-31,4478100000.0,0.03251020267,3752500000.0,725600000.0,16800000.0,384300000.0,401100000.0,341600000.0,101900000.0,212600000.0,67400000.0,0.0,0.0,146600000.0,0.0,146600000.0,0.42,0.42,347300000.0,349700000.0,0.0,0.162033005069,0.139791429401,0.0762823518903,0.032737098322900005,0.0555592773721,626000000.0,341600000.0,146600000.0,0.0474754918381,0.032737098322900005
2012-12-31,4337100000.0,0.031096212823600002,3617500000.0,719600000.0,16100000.0,378100000.0,394200000.0,322400000.0,111100000.0,200300000.0,82500000.0,0.0,0.0,122600000.0,0.0,122600000.0,0.31,0.31,393400000.0,396200000.0,0.0,0.165917318024,0.137280671416,0.07433538539580001,0.028267736505999997,0.061169906158499994,595400000.0,322400000.0,122600000.0,0.046182933296400004,0.028267736505999997
2011-12-31,4206300000.0,0.0271794871795,3568800000.0,637500000.0,16000000.0,342400000.0,358400000.0,190300000.0,144900000.0,43300000.0,-229800000.0,0.0,0.0,276900000.0,0.0,276900000.0,0.74,0.73,376300000.0,381700000.0,0.0,0.151558376721,0.113092266362,0.045241661317499994,0.0658298266885,0.05413308608519999,475700000.0,190300000.0,276900000.0,0.0102940826855,0.0658298266885
2010-12-31,4095000000.0,-0.000195322037209,3501800000.0,593200000.0,0.0,320400000.0,375500000.0,217700000.0,174500000.0,38200000.0,27500000.0,0.0,0.0,10700000.0,0.0,10700000.0,0.03,0.03,343627679.0,343800000.0,0.0,0.1449,0.122,0.0519,0.003,0.0526,501400000.0,212700000.0,10700000.0,0.0093,0.0026
2009-12-31,4095800000.0,0.004,3567200000.0,528600000.0,0.0,314600000.0,261500000.0,267100000.0,196400000.0,80500000.0,24100000.0,0.0,0.0,56400000.0,0.0,56400000.0,0.16,0.16,343245250.0,343100000.0,0.0,0.1291,0.142,0.0676,0.013999999999999999,0.0912,582300000.0,276900000.0,56400000.0,0.0197,0.0138
