,0,1,2,3,4,5,6,7,8,9,10,11,12,13,14
Date,Depreciation & Amortization,Stock-based compensation,Operating Cash Flow,Capital Expenditure,Acquisitions and disposals,Investment purchases and sales,Investing Cash flow,Issuance (repayment) of debt,Issuance (buybacks) of shares,Dividend payments,Financing Cash Flow,Effect of forex changes on cash,Net cash flow / Change in cash,Free Cash Flow,Net Cash/Marketcap
2018-12-31,,,95000000.0,,,,,,,,-95000000.0,,-145000000000.0,,
2017-12-31,,,886000000000.0,,,,,,,,-6000000.0,,-5000000.0,,
2016-12-31,,,30000000.0,,,,,,,,-26000000.0,,3000000.0,,
2015-12-31,,,25000000.0,,,,,,,,-23000000.0,,2000000.0,,
