,0,1,2,3,4,5,6,7,8,9,10,11,12,13,14,15,16,17,18,19,20,21,22,23,24,25,26,27,28,29,30
Date,Revenue,Revenue Growth,Cost of Revenue,Gross Profit,R&D Expenses,SG&A Expense,Operating Expenses,Operating Income,Interest Expense,Earnings before Tax,Income Tax Expense,Net Income - Non-Controlling int,Net Income - Discontinued ops,Net Income,Preferred Dividends,Net Income Com,EPS,EPS Diluted,Weighted Average Shs Out,Weighted Average Shs Out (Dil),Dividend per Share,Gross Margin,EBITDA Margin,EBIT Margin,Profit Margin,Free Cash Flow margin,EBITDA,EBIT,Consolidated Income,Earnings Before Tax Margin,Net Profit Margin
2019-12-31,109275000.0,0.18318048442499998,0.0,0.0,0.0,14854000.0,149550000.0,70210000.0,136982000.0,70210000.0,-4000.0,0.0,0.0,70214000.0,100000.0,70214000.0,1.32,1.32,53087395.0,53087395.0,1.62584734097,0.0,0.85546556852,0.642507435369,0.642544040265,0.587343857241,93481000.0,70210000.0,70214000.0,0.642507435369,0.642544040265
2018-12-31,92357000.0,0.225316422108,0.0,0.0,0.0,12509000.0,123087000.0,63073000.0,91523000.0,63073000.0,-2000.0,0.0,0.0,63075000.0,100000.0,63075000.0,1.45,1.42,43445384.0,52039997.0,1.31762113668,0.0,0.863269703433,0.682926037009,0.6829476921080001,0.621707071473,79729000.0,63073000.0,63075000.0,0.682926037009,0.6829476921080001
2017-12-31,75374000.0,0.507419703212,0.0,0.0,0.0,0.0,87710000.0,53301000.0,42463000.0,53301000.0,-4000.0,0.0,0.0,53305000.0,50000.0,53305000.0,0.6,0.6,43084671.0,43234671.0,0.320020938751,0.0,0.8734709581550001,0.707153660413,0.707206729111,0.257940403853,65837000.0,53301000.0,53305000.0,0.707153660413,0.707206729111
2016-12-31,50002000.0,4.645478152869999,0.0,50002000.0,0.0,6878000.0,14656000.0,35346000.0,0.0,35346000.0,-11000.0,0.0,0.0,35357000.0,0.0,35357000.0,0.0,0.0,43000000.0,,0.0,1.0,0.7070000000000001,0.7069,0.7070000000000001,0.7101,35346000.0,35346000.0,35357000.0,0.7069,0.7071
2015-12-31,8857000.0,,0.0,8857000.0,0.0,7398000.0,8649000.0,208000.0,0.0,208000.0,70000.0,0.0,0.0,138000.0,0.0,138000.0,0.0,0.0,43000000.0,,0.0,1.0,0.023,0.0235,0.016,0.3643,208000.0,208000.0,138000.0,0.0235,0.0156
