,0,1,2,3,4,5,6,7,8,9,10,11,12,13,14
Date,Depreciation & Amortization,Stock-based compensation,Operating Cash Flow,Capital Expenditure,Acquisitions and disposals,Investment purchases and sales,Investing Cash flow,Issuance (repayment) of debt,Issuance (buybacks) of shares,Dividend payments,Financing Cash Flow,Effect of forex changes on cash,Net cash flow / Change in cash,Free Cash Flow,Net Cash/Marketcap
2019-12-31,23271000.0,4782000.0,64182000.0,0.0,-0.0,0.0,-1034262000.0,-0.0,127233000.0,-86312000.0,1006421000.0,0.0,36341000.0,64182000.0,0.0
2018-12-31,16656000.0,3496000.0,57419000.0,0.0,-0.0,0.0,-835322000.0,-0.0,-88608000.0,-68569000.0,790608000.0,0.0,12705000.0,57419000.0,0.0
2017-12-31,12536000.0,1087000.0,19442000.0,0.0,-0.0,0.0,-925680000.0,-0.0,74199000.0,-13836000.0,960677000.0,0.0,107765000.0,19442000.0,0.0
2016-12-31,0.0,0.0,35505000.0,0.0,0.0,-757144000.0,-757393000.0,818188000.0,0.0,0.0,721829000.0,0.0,-59000.0,35505000.0,-2.1508
2015-12-31,0.0,0.0,3227000.0,0.0,0.0,-660304000.0,-660304000.0,226611000.0,0.0,0.0,713415000.0,0.0,56338000.0,3227000.0,-2.1508
