,0,1,2,3,4,5,6,7,8,9,10,11,12,13,14
Date,Depreciation & Amortization,Stock-based compensation,Operating Cash Flow,Capital Expenditure,Acquisitions and disposals,Investment purchases and sales,Investing Cash flow,Issuance (repayment) of debt,Issuance (buybacks) of shares,Dividend payments,Financing Cash Flow,Effect of forex changes on cash,Net cash flow / Change in cash,Free Cash Flow,Net Cash/Marketcap
2019-12-31,100300000.0,14600000.0,392100000.0,194100000.0,-22800000.0,-29800000.0,-210100000.0,-0.0,-29800000.0,-72600000.0,-99400000.0,-700000.0,81900000.0,198000000.0,0.0
2018-12-31,100800000.0,18600000.0,342000000.0,216300000.0,-418000000.0,-80000000.0,-621000000.0,-11800000.0,-80000000.0,-64600000.0,316500000.0,-2500000.0,37500000.0,125700000.0,0.0
2017-12-31,111500000.0,0.0,319200000.0,125200000.0,-3500000.0,-65000000.0,-129900000.0,-143900000.0,-65000000.0,-57300000.0,-134800000.0,7700000.0,62200000.0,194000000.0,0.0
2016-12-31,100300000.0,0.0,267500000.0,116900000.0,-246500000.0,-195100000.0,-345000000.0,-300000.0,-195100000.0,-36000000.0,-60200000.0,-3000000.0,-95900000.0,150600000.0,0.0
2015-12-31,131500000.0,0.0,13400000.0,154800000.0,-0.0,-301500000.0,-144500000.0,-2500000.0,-301500000.0,-0.0,-38200000.0,-58300000.0,329900000.0,-141400000.0,0.0
2014-12-31,137100000.0,0.0,-1472100000.0,169800000.0,-0.0,-469500000.0,235300000.0,-46600000.0,-469500000.0,-0.0,849900000.0,-20400000.0,557500000.0,-1641900000.0,0.0
2013-12-31,123100000.0,0.0,515900000.0,156200000.0,-526200000.0,0.0,-880700000.0,-64500000.0,-964800000.0,-0.0,-8400000.0,1100000.0,964800000.0,359700000.0,0.0
2012-12-31,119000000.0,0.0,453600000.0,138500000.0,-80000000.0,0.0,-280300000.0,-35900000.0,-1336900000.0,-0.0,110300000.0,5000000.0,1336900000.0,315100000.0,0.0
2011-12-31,120000000.0,0.0,217000000.0,141600000.0,-55800000.0,0.0,-218500000.0,-21600000.0,-1048300000.0,-0.0,39700000.0,-5600000.0,1048300000.0,75400000.0,0.0
2010-12-31,115600000.0,0.0,327700000.0,112900000.0,-34700000.0,0.0,-244900000.0,-28900000.0,-1015700000.0,-0.0,41500000.0,-1600000.0,122700000.0,214800000.0,0.0
2009-12-31,113000000.0,0.0,433400000.0,-93800000.0,23100000.0,22500000.0,26100000.0,-400000.0,1400000.0,0.0,-41300000.0,14700000.0,432900000.0,339600000.0,-0.0068
