,0,1,2,3,4,5,6,7,8,9,10,11,12,13,14,15,16,17,18,19,20,21,22,23,24,25,26,27,28,29,30
Date,Revenue,Revenue Growth,Cost of Revenue,Gross Profit,R&D Expenses,SG&A Expense,Operating Expenses,Operating Income,Interest Expense,Earnings before Tax,Income Tax Expense,Net Income - Non-Controlling int,Net Income - Discontinued ops,Net Income,Preferred Dividends,Net Income Com,EPS,EPS Diluted,Weighted Average Shs Out,Weighted Average Shs Out (Dil),Dividend per Share,Gross Margin,EBITDA Margin,EBIT Margin,Profit Margin,Free Cash Flow margin,EBITDA,EBIT,Consolidated Income,Earnings Before Tax Margin,Net Profit Margin
2019-12-31,398179000.0,-0.0389902832015,295504000.0,102675000.0,0.0,58835000.0,58835000.0,43840000.0,0.0,45166000.0,9351000.0,0.0,0.0,35815000.0,0.0,35815000.0,1.37,1.37,26127168.0,26127168.0,0.550002204602,0.257861414088,0.14463093231899998,0.110101235876,0.089946983643,0.12874109383,57589000.0,43840000.0,35815000.0,0.11343139643200001,0.089946983643
2018-12-31,414334000.0,0.0921086272928,304413000.0,109921000.0,0.0,59282000.0,59282000.0,50639000.0,0.0,50316000.0,10337000.0,0.0,0.0,39979000.0,0.0,39979000.0,1.53,1.53,26112138.0,26112138.0,2.5103651030000003,0.265295631061,0.157175129244,0.122217824267,0.0964897884316,0.0730401077392,65123000.0,50639000.0,39979000.0,0.121438259955,0.0964897884316
2017-12-31,379389000.0,-0.00701963771132,280644000.0,98745000.0,0.0,56789000.0,56789000.0,37858000.0,0.0,39378000.0,12823000.0,0.0,0.0,26555000.0,0.0,26555000.0,1.02,1.02,26100865.0,26100865.0,0.470022736794,0.26027375596,0.13946371666,0.09978676239949999,0.06999412212789999,0.09360049975089998,52911000.0,37858000.0,26555000.0,0.10379320433599999,0.06999412212789999
2016-12-31,382071000.0,-0.059285978086900004,290046000.0,92025000.0,0.0,54528000.0,54528000.0,35697000.0,0.0,36482000.0,11599000.0,0.0,0.0,24883000.0,0.0,24883000.0,0.95,0.95,26087721.0,26087721.0,0.43001073186899996,0.24085837449099998,0.13407455682299999,0.09343027866550001,0.0651266387661,0.121854315036,51226000.0,35697000.0,24883000.0,0.0954848706131,0.0651266387661
2015-12-31,406150000.0,-0.0661608323274,313570000.0,92580000.0,0.0,56189000.0,56189000.0,36391000.0,0.0,37266000.0,12157000.0,0.0,0.0,25109000.0,0.0,25109000.0,0.96,0.96,26192072.0,26192072.0,0.404664434337,0.22794534039099998,0.127226394189,0.0895999015142,0.0618219869506,0.0798301120276,51673000.0,36391000.0,25109000.0,0.0917542779761,0.0618219869506
2014-12-31,434925000.0,0.11045153383600001,327366000.0,107559000.0,0.0,54254000.0,54254000.0,53305000.0,0.0,53734000.0,17593000.0,0.0,0.0,36141000.0,0.0,36141000.0,1.38,1.38,26256824.0,26256824.0,0.369999052437,0.24730470770799998,0.15616485601,0.122561361154,0.08309708570439998,0.0361625567627,67920000.0,53305000.0,36141000.0,0.12354773811599999,0.08309708570439998
2013-12-31,391665000.0,0.042518985016900004,298010000.0,93655000.0,0.0,51734000.0,51734000.0,41921000.0,0.0,44277000.0,14173000.0,0.0,0.0,30104000.0,0.0,30104000.0,1.15,1.15,26249324.0,26249324.0,0.329989450395,0.23912016646899997,0.141725709471,0.10703279588400001,0.07686160366639999,0.0749901063409,55509000.0,41921000.0,30104000.0,0.11304814062999999,0.07686160366639999
2012-12-31,375691000.0,0.045066622159199994,285540000.0,90151000.0,0.0,47968000.0,47968000.0,42183000.0,0.0,42447000.0,14244000.0,0.0,0.0,28203000.0,0.0,28203000.0,1.34,1.34,20993893.0,20993893.0,0.390018182907,0.23996049945300002,0.144397922761,0.112281103354,0.07506967161839999,0.043280248928,54249000.0,42183000.0,28203000.0,0.11298380850199999,0.07506967161839999
2011-12-31,359490000.0,0.211187029999,271653000.0,87837000.0,0.0,44843000.0,44843000.0,42994000.0,0.0,42685000.0,13881000.0,0.0,0.0,28804000.0,0.0,28804000.0,1.37,1.37,20987663000.0,20987663000.0,0.00035401750066199996,0.2443378119,0.15147291997,0.11959720715500001,0.0801246209908,0.027697571559700002,54453000.0,42994000.0,28804000.0,0.11873765612400002,0.0801246209908
2010-12-31,296808000.0,0.114805327484,220471000.0,76337000.0,0.0,37378000.0,38366000.0,37971000.0,0.0,38333000.0,12370000.0,0.0,0.0,25963000.0,0.0,25963000.0,0.992,0.992,26232086.0,26132160.0,0.26899999999999996,0.2572,0.165,0.1292,0.087,0.0685,48934000.0,38333000.0,25963000.0,0.1292,0.0875
2009-12-31,266242000.0,-0.1948,204469000.0,61773000.0,0.0,35380000.0,35727000.0,26046000.0,0.0,27255000.0,8986000.0,0.0,0.0,18269000.0,0.0,18269000.0,0.696,0.696,26110211.0,26107886.0,0.259,0.23199999999999998,0.136,0.1024,0.069,0.0438,36210000.0,27255000.0,18269000.0,0.1024,0.0686
