,0,1,2,3,4,5,6,7,8,9,10,11,12,13,14
Date,Depreciation & Amortization,Stock-based compensation,Operating Cash Flow,Capital Expenditure,Acquisitions and disposals,Investment purchases and sales,Investing Cash flow,Issuance (repayment) of debt,Issuance (buybacks) of shares,Dividend payments,Financing Cash Flow,Effect of forex changes on cash,Net cash flow / Change in cash,Free Cash Flow,Net Cash/Marketcap
2019-12-31,0.0,0.0,5368545.0,0.0,-0.0,0.0,-5979767.0,-0.0,-244960.0,-0.0,0.0,0.0,244960.0,5368545.0,0.0
2018-12-31,0.0,0.0,2258829.0,0.0,-0.0,-400000000.0,-402605952.0,-0.0,-856182.0,-0.0,401093568.0,0.0,746445.0,2258829.0,0.0
