,0,1,2,3,4,5,6,7,8,9,10,11,12,13,14,15,16,17,18,19,20,21,22,23,24,25,26,27,28,29,30
Date,Revenue,Revenue Growth,Cost of Revenue,Gross Profit,R&D Expenses,SG&A Expense,Operating Expenses,Operating Income,Interest Expense,Earnings before Tax,Income Tax Expense,Net Income - Non-Controlling int,Net Income - Discontinued ops,Net Income,Preferred Dividends,Net Income Com,EPS,EPS Diluted,Weighted Average Shs Out,Weighted Average Shs Out (Dil),Dividend per Share,Gross Margin,EBITDA Margin,EBIT Margin,Profit Margin,Free Cash Flow margin,EBITDA,EBIT,Consolidated Income,Earnings Before Tax Margin,Net Profit Margin
2018-12-31,0.0,0.0,0.0,0.0,0.0,0.0,0.0,-410669.0,0.0,2198391.0,461662.0,0.0,0.0,1736729.0,0.0,1736729.0,-0.05,-0.05,8919047.0,8919047.0,0.0,0.0,0.0,0.0,0.0,0.0,-410669.0,-410669.0,1736729.0,0.0,0.0
2017-12-31,,,,0.0,,,142104.0,-142104.0,0.0,,,,,,,,,,,,,,,,,,,-142104.0,,,
