,0,1,2,3,4,5,6,7,8,9,10,11,12,13,14,15,16,17,18,19,20,21,22,23,24,25,26,27,28
Date,Cash and cash equivalents,Short-term investments,Cash and short-term investments,Receivables,Inventories,Total current assets,Property Plant & Equipment Net,Goodwill and Intangible Assets,Long-term investments,Tax assets,Total non-current assets,Total assets,Payables,Short-term debt,Total current liabilities,Long-term debt,Total debt,Deferred revenue,Tax Liabilities,Deposit Liabilities,Total non-current liabilities,Total liabilities,Other comprehensive income,Retained earnings (deficit),Total shareholders equity,Investments,Net Debt,Other Assets,Other Liabilities
2019-12-31,14337000.0,0.0,14337000.0,11491000.0,0.0,26733000.0,9542000.0,445000.0,0.0,15537000.0,37895000.0,64628000.0,5033000.0,4000000.0,13410000.0,42161000.0,46161000.0,2771000.0,0.0,0.0,82209000.0,73635000.0,14652000.0,-23811000.0,-9007000.0,0.0,31824000.0,0.0,-21984000.0
2018-12-31,18635000.0,0.0,18635000.0,2070000.0,0.0,22839000.0,7575000.0,248000.0,0.0,1958000.0,11959000.0,34798000.0,3978000.0,2500000.0,7812000.0,45947000.0,48447000.0,530000.0,0.0,0.0,52453000.0,-47797000.0,89035000.0,-6578000.0,82595000.0,0.0,29812000.0,0.0,-108062000.0
2017-12-31,5366000.0,0.0,5366000.0,3193000.0,0.0,7719000.0,6845000.0,216000.0,0.0,0.0,8987000.0,16706000.0,3177000.0,500000.0,5767000.0,48156000.0,48656000.0,1062000.0,0.0,0.0,52072000.0,57839000.0,0.0,0.0,-41133000.0,0.0,43290000.0,-840000.0,2090000.0
2016-12-31,4078382.0,2233.0,4080615.0,2712336.0,0.0,6097748.0,1438317.0,47098.0,12414.0,0.0,2596775.0,8694523.0,1729228.0,300000.0,3476200.0,29073000.0,29373000.0,755000.0,0.0,0.0,29458508.0,32934708.0,0.0,0.0,-24240185.0,14647.0,25292385.0,-695203.0,1446972.0
