,0,1,2,3,4,5,6,7,8,9,10,11,12,13,14
Date,Depreciation & Amortization,Stock-based compensation,Operating Cash Flow,Capital Expenditure,Acquisitions and disposals,Investment purchases and sales,Investing Cash flow,Issuance (repayment) of debt,Issuance (buybacks) of shares,Dividend payments,Financing Cash Flow,Effect of forex changes on cash,Net cash flow / Change in cash,Free Cash Flow,Net Cash/Marketcap
2019-12-31,8979000.0,13754000.0,153327000.0,15381000.0,-0.0,-104272000.0,-15381000.0,-3958000.0,-104272000.0,-2800000.0,-150604000.0,0.0,-12658000.0,137946000.0,0.0
2018-12-31,6162000.0,6038000.0,256426000.0,6581000.0,-0.0,-41847000.0,-6581000.0,-352094000.0,-41718000.0,-1400000.0,-145184000.0,0.0,104661000.0,249845000.0,0.0
2017-12-31,3983000.0,3951000.0,160394000.0,-4135000.0,0.0,0.0,-4135000.0,337332000.0,15000.0,0.0,-30535000.0,0.0,125724000.0,156259000.0,0.0313
2016-12-31,3708000.0,1897000.0,121943000.0,-4666000.0,0.0,0.0,-4666000.0,0.0,0.0,0.0,725000.0,0.0,118002000.0,117277000.0,-0.0104
2015-12-31,2356000.0,999000.0,118173000.0,-3251000.0,0.0,0.0,-3251000.0,0.0,-906000.0,-39485000.0,-40487000.0,0.0,74435000.0,114922000.0,0.0313
