,0,1,2,3,4,5,6,7,8,9,10,11,12,13,14,15,16,17,18,19,20,21,22,23,24,25,26,27,28,29,30
Date,Revenue,Revenue Growth,Cost of Revenue,Gross Profit,R&D Expenses,SG&A Expense,Operating Expenses,Operating Income,Interest Expense,Earnings before Tax,Income Tax Expense,Net Income - Non-Controlling int,Net Income - Discontinued ops,Net Income,Preferred Dividends,Net Income Com,EPS,EPS Diluted,Weighted Average Shs Out,Weighted Average Shs Out (Dil),Dividend per Share,Gross Margin,EBITDA Margin,EBIT Margin,Profit Margin,Free Cash Flow margin,EBITDA,EBIT,Consolidated Income,Earnings Before Tax Margin,Net Profit Margin
2019-12-31,570983000.0,-0.0691976766743,142086000.0,428897000.0,0.0,34730000.0,34730000.0,95975000.0,0.0,95975000.0,57285000.0,0.0,0.0,38690000.0,0.0,38690000.0,0.1,0.1,376495306.0,376507812.0,0.0,0.7511554634729999,0.571277953985,0.168087316085,0.0677603361221,0.311156374183,326190000.0,95975000.0,38690000.0,0.168087316085,0.0677603361221
2018-12-31,613431000.0,0.454544807865,111272000.0,502159000.0,0.0,39483000.0,39483000.0,151487000.0,0.0,151487000.0,48871000.0,0.0,0.0,102616000.0,0.0,102616000.0,0.26,0.26,390930453.0,427119872.0,0.0,0.8186071457100002,0.574697072694,0.24695034975400001,0.167282057803,0.46379951453400003,352537000.0,151487000.0,102616000.0,0.24695034975400001,0.167282057803
2017-12-31,421734000.0,0.457930161891,109869000.0,311865000.0,0.0,39014000.0,39014000.0,37330000.0,0.0,37330000.0,69038000.0,0.0,0.0,-31708000.0,0.0,-31708000.0,-0.08,-0.08,396683593.0,396683593.0,0.0,0.739482707109,0.405658543063,0.0885155097763,-0.07518483214539999,0.449676810501,171080000.0,37330000.0,-31708000.0,0.0885155097763,-0.07518483214539999
2016-12-31,289269000.0,0.048034317472900004,86925000.0,202344000.0,0.0,33218000.0,34147000.0,-650234000.0,0.0,-650234000.0,-184669000.0,0.0,0.0,-465565000.0,0.0,-465565000.0,-1.45,-1.45,320851538.0,320851538.0,0.0,0.6995011563629999,-1.74580753555,-2.24785234505,-1.60945348447,0.321645250614,-505008000.0,-650234000.0,-465565000.0,-2.24785234505,-1.60945348447
2015-12-31,276011000.0,-0.506592801547,75565000.0,200446000.0,0.0,32353000.0,32353000.0,-368088000.0,0.0,-368088000.0,-100059000.0,0.0,0.0,-268029000.0,0.0,-268029000.0,-0.94,-0.94,285333869.0,285333869.0,0.0,0.726224679451,-0.6945447826350001,-1.33359902323,-0.971080862719,0.22573375698800002,-191702000.0,-368088000.0,-268029000.0,-1.33359902323,-0.971080862719
2014-12-31,559398000.0,-0.223543618572,113949000.0,445449000.0,0.0,51249000.0,51249000.0,-17134000.0,0.0,-17134000.0,127215000.0,0.0,0.0,-171339000.0,0.0,-171339000.0,-0.6,-0.6,284715785.0,284715785.0,0.0,0.796300666073,0.775599841258,-0.030629355128200003,-0.30629176364599997,0.373008126593,433869000.0,-17134000.0,-171339000.0,-0.030629355128200003,-0.30629176364599997
2013-12-31,720450000.0,0.23553229327599998,149059000.0,571391000.0,0.0,53400000.0,53400000.0,126288000.0,0.0,-13566000.0,135548000.0,0.0,0.0,126288000.0,0.0,126288000.0,0.45,0.44,282808497.0,286127897.0,0.0,0.793102921785,0.54609480186,0.17529044347300002,0.17529044347300002,0.72296620168,393434000.0,126288000.0,126288000.0,-0.018829897980400002,0.17529044347300002
2012-12-31,583109000.0,-0.0219426324785,124903000.0,458206000.0,0.0,58882000.0,68218000.0,197363000.0,0.0,197363000.0,97704000.0,0.0,0.0,197363000.0,0.0,197363000.0,0.35,0.35,280741255.0,284172254.0,0.0,0.785798195535,0.6506502214850001,0.338466736065,0.338466736065,0.268078523912,379400000.0,197363000.0,197363000.0,0.338466736065,0.338466736065
2011-12-31,596191000.0,1.0,86497000.0,509694000.0,0.0,60389000.0,60389000.0,234247000.0,1600000.0,234247000.0,107330000.0,0.0,0.0,234247000.0,0.0,234247000.0,0.46,0.45,273491564.0,281287002.0,0.0,0.854917299993,0.7807598571600001,0.39290596469899997,0.39290596469899997,0.598616886199,465482000.0,234247000.0,234247000.0,0.39290596469899997,0.39290596469899997
2010-12-31,0.0,-1.0,0.0,0.0,0.0,0.0,0.0,0.0,0.0,0.0,0.0,0.0,0.0,0.0,0.0,0.0,0.0,0.0,0.0,0.0,0.0,0.0,0.0,0.0,0.0,0.0,0.0,0.0,0.0,0.0,0.0
2009-12-31,263716000.0,1.3127,40784000.0,222932000.0,0.0,28787000.0,164650000.0,58282000.0,0.0,38295000.0,24354000.0,0.0,0.0,13941000.0,0.0,13941000.0,0.06,0.05,216259799.0,241258568.0,0.0,0.8453,0.66,0.1452,0.053,0.341,174158000.0,38295000.0,13941000.0,0.1452,0.0529
