,0,1,2,3,4,5,6,7,8,9,10,11,12,13,14
Date,Depreciation & Amortization,Stock-based compensation,Operating Cash Flow,Capital Expenditure,Acquisitions and disposals,Investment purchases and sales,Investing Cash flow,Issuance (repayment) of debt,Issuance (buybacks) of shares,Dividend payments,Financing Cash Flow,Effect of forex changes on cash,Net cash flow / Change in cash,Free Cash Flow,Net Cash/Marketcap
2019-12-31,82000000.0,18000000.0,242000000.0,102000000.0,-0.0,0.0,-86000000.0,-163000000.0,-187000000.0,-0.0,-163000000.0,-2000000.0,-9000000.0,140000000.0,0.0
2018-12-31,72000000.0,21000000.0,373000000.0,95000000.0,-0.0,291000000.0,181000000.0,-6000000.0,-196000000.0,-0.0,-658000000.0,-11000000.0,-104000000.0,278000000.0,0.0
2017-12-31,64000000.0,15000000.0,71000000.0,-103000000.0,0.0,127000000.0,30000000.0,79000000.0,0.0,0.0,60000000.0,20000000.0,181000000.0,-32000000.0,0.2111
2016-12-31,59000000.0,12000000.0,305000000.0,-84000000.0,-63000000.0,-12000000.0,-182000000.0,-54000000.0,0.0,0.0,-149000000.0,-1000000.0,-27000000.0,221000000.0,0.2111
2015-12-31,64000000.0,10000000.0,367000000.0,-50000000.0,0.0,-92000000.0,-144000000.0,430000000.0,0.0,0.0,-275000000.0,-13000000.0,-65000000.0,317000000.0,0.2111
