,0,1,2,3,4,5,6,7,8,9,10,11,12,13,14
Date,Depreciation & Amortization,Stock-based compensation,Operating Cash Flow,Capital Expenditure,Acquisitions and disposals,Investment purchases and sales,Investing Cash flow,Issuance (repayment) of debt,Issuance (buybacks) of shares,Dividend payments,Financing Cash Flow,Effect of forex changes on cash,Net cash flow / Change in cash,Free Cash Flow,Net Cash/Marketcap
2012-12-31,60355135.0,2486492.0,31272303.0,79334481.0,-0.0,-196278.0,-78933581.0,-210301303.0,-196278.0,-0.0,47661278.0,0.0,0.0,-48062178.0,0.0
2011-12-31,59241673.0,1935886.0,71650215.0,87511475.0,-0.0,-176338.0,-88466162.0,-139975774.0,-176338.0,-0.0,16815947.0,0.0,0.0,-15861260.0,0.0
