,0,1,2,3,4,5,6,7,8,9,10,11,12,13,14,15,16,17,18,19,20,21,22,23,24,25,26,27,28,29,30
Date,Revenue,Revenue Growth,Cost of Revenue,Gross Profit,R&D Expenses,SG&A Expense,Operating Expenses,Operating Income,Interest Expense,Earnings before Tax,Income Tax Expense,Net Income - Non-Controlling int,Net Income - Discontinued ops,Net Income,Preferred Dividends,Net Income Com,EPS,EPS Diluted,Weighted Average Shs Out,Weighted Average Shs Out (Dil),Dividend per Share,Gross Margin,EBITDA Margin,EBIT Margin,Profit Margin,Free Cash Flow margin,EBITDA,EBIT,Consolidated Income,Earnings Before Tax Margin,Net Profit Margin
2018-12-31,2348550000.0,0.0636336957053,138207000.0,2210343000.0,0.0,709735000.0,1925038000.0,423512000.0,107719000.0,318861000.0,64535000.0,0.0,0.0,244418000.0,0.0,244418000.0,4.09,4.03,59745000.0,60628000.0,0.524510127334,0.941152200294,0.29240510102,0.180329139256,0.10407187413499999,0.11453492580499999,686728000.0,423512000.0,244418000.0,0.13576930446399998,0.10407187413499999
2017-12-31,2208044000.0,0.103179722282,132903000.0,2075141000.0,0.0,660284000.0,1809582000.0,398462000.0,107291000.0,295519000.0,-261259000.0,0.0,0.0,549051000.0,0.0,549051000.0,8.92,8.79,61579000.0,62464000.0,0.0,0.939809623359,0.293888618162,0.18045926621,0.24865944700399997,0.11355480235,648919000.0,398462000.0,549051000.0,0.133837459761,0.24865944700399997
2016-12-31,2001527000.0,0.000562887141128,159372000.0,1842155000.0,0.0,633114000.0,1711915000.0,289612000.0,75641000.0,215491000.0,74395000.0,0.0,0.0,141137000.0,0.0,141137000.0,2.46,2.42,57324000.0,58256000.0,0.0,0.920374793845,0.247211254207,0.144695524967,0.0705146620555,0.0936759783905,494800000.0,289612000.0,141137000.0,0.107663299071,0.0705146620555
2015-12-31,2000401000.0,0.220491979314,149825000.0,1850576000.0,0.0,614967000.0,1616140000.0,384261000.0,67073000.0,300931000.0,75894000.0,0.0,0.0,225037000.0,0.0,225037000.0,3.97,3.89,56734000.0,57848000.0,0.0,0.925102516945,0.28634058871199997,0.192091985557,0.112495944563,0.0518111118721,572796000.0,384261000.0,225037000.0,0.150435337715,0.112495944563
2014-12-31,1639012000.0,0.0446147286412,82730000.0,1556282000.0,0.0,471713000.0,1217441000.0,421571000.0,56162000.0,368113000.0,107107000.0,0.0,0.0,260755000.0,0.0,260755000.0,4.71,4.58,55305000.0,56972000.0,0.0,0.9495244696200001,0.35304927602700004,0.257210441412,0.159092794928,0.09759843125,578652000.0,421571000.0,260755000.0,0.224594450803,0.159092794928
2013-12-31,1569011000.0,0.79332758802,0.0,0.0,0.0,441318000.0,1188823000.0,380188000.0,67894000.0,230909000.0,46296000.0,0.0,0.0,269157000.0,2139000.0,269157000.0,5.0,4.79,53788000.0,56679000.0,0.0377388450749,0.0,0.33258657842399997,0.242310602029,0.171545642446,0.104642988481,521832000.0,380188000.0,269157000.0,0.147168502961,0.171545642446
2012-12-31,874916000.0,0.0552650115306,0.0,0.0,0.0,257618000.0,684594000.0,190322000.0,62845000.0,52551000.0,46402000.0,0.0,0.0,52433000.0,4375000.0,52433000.0,1.13,1.02,42693000.0,51316000.0,0.08525606048800001,0.0,0.301431223112,0.21753174019000002,0.0599291817729,-0.0697381234313,263727000.0,190322000.0,52433000.0,0.0600640518633,0.0599291817729
2011-12-31,829096000.0,0.31561818167399996,0.0,0.0,0.0,236152000.0,637317000.0,191779000.0,38617000.0,158024000.0,38531000.0,0.0,0.0,119484000.0,0.0,119484000.0,2.99,2.79,39912000.0,42772000.0,0.0,0.0,0.311495894323,0.23131097001999998,0.144113588776,-0.00627550971178,258260000.0,191779000.0,119484000.0,0.190597952469,0.144113588776
2010-12-31,630195000.0,0.15660547731,0.0,0.0,0.0,207736000.0,499785000.0,130410000.0,23147000.0,78669000.0,30164000.0,0.0,0.0,81260000.0,0.0,81260000.0,2.09,1.94,38886000.0,41889000.0,0.0,0.0,0.28812669094500004,0.206935948397,0.128944215679,0.0838549972628,181576000.0,130410000.0,81260000.0,0.12483278985099999,0.128944215679
2009-12-31,544866000.0,-0.0949,156322000.0,388544000.0,0.0,238014000.0,289222000.0,99322000.0,26902000.0,77243000.0,15916000.0,146000.0,-1398000.0,61327000.0,0.0,61327000.0,1.7,1.57,40989935.0,36146000.0,0.0,0.7131,0.27899999999999997,0.1911,0.113,0.0838,152255000.0,104145000.0,61473000.0,0.1418,0.1126
