,0,1,2,3,4,5,6,7,8,9,10,11,12,13,14
Date,Depreciation & Amortization,Stock-based compensation,Operating Cash Flow,Capital Expenditure,Acquisitions and disposals,Investment purchases and sales,Investing Cash flow,Issuance (repayment) of debt,Issuance (buybacks) of shares,Dividend payments,Financing Cash Flow,Effect of forex changes on cash,Net cash flow / Change in cash,Free Cash Flow,Net Cash/Marketcap
2019-12-31,8441000.0,0.0,11566000.0,11187000.0,-0.0,0.0,-10056000.0,-64000.0,-7513000.0,-6165000.0,-5612000.0,0.0,7513000.0,379000.0,0.0
2018-12-31,7570000.0,1221000.0,11307000.0,4787000.0,-0.0,0.0,-13325000.0,-0.0,-12756000.0,-5791000.0,9526000.0,0.0,7508000.0,6520000.0,0.0
2017-12-31,6952000.0,1100000.0,11156000.0,20885000.0,-0.0,0.0,-20998000.0,-0.0,-5248000.0,-5399000.0,-5408000.0,0.0,-15250000.0,-9729000.0,0.0
2016-12-31,6707000.0,1800000.0,1895000.0,8588000.0,-0.0,0.0,-6167000.0,-106695000.0,-20498000.0,-5036000.0,13257000.0,0.0,8985000.0,-6693000.0,0.0
2015-12-31,8213000.0,0.0,4245000.0,-3355000.0,0.0,0.0,51972000.0,-23593000.0,-464000.0,-27607000.0,-51281000.0,0.0,4936000.0,890000.0,-0.5168
2014-12-31,9205000.0,0.0,11646000.0,-1655000.0,0.0,0.0,-1431000.0,-1388000.0,0.0,-3454000.0,-5598000.0,0.0,4617000.0,9991000.0,-0.5168
