,0,1,2,3,4,5,6,7,8,9,10,11,12,13,14,15,16,17,18,19,20,21,22,23,24,25,26,27,28,29,30
Date,Revenue,Revenue Growth,Cost of Revenue,Gross Profit,R&D Expenses,SG&A Expense,Operating Expenses,Operating Income,Interest Expense,Earnings before Tax,Income Tax Expense,Net Income - Non-Controlling int,Net Income - Discontinued ops,Net Income,Preferred Dividends,Net Income Com,EPS,EPS Diluted,Weighted Average Shs Out,Weighted Average Shs Out (Dil),Dividend per Share,Gross Margin,EBITDA Margin,EBIT Margin,Profit Margin,Free Cash Flow margin,EBITDA,EBIT,Consolidated Income,Earnings Before Tax Margin,Net Profit Margin
2018-12-31,2837411000.0,0.05259739103469999,96000000.0,2741411000.0,0.0,684719000.0,1098717000.0,314368000.0,0.0,301158000.0,67958000.0,0.0,0.0,233200000.0,0.0,233200000.0,4.63,4.62,50338000.0,50488000.0,0.478747425131,0.966166339667,0.161855649393,0.110793959705,0.082187599893,0.00765874242399,459251000.0,314368000.0,233200000.0,0.106138307069,0.082187599893
2017-12-31,2695628000.0,0.0999959193334,0.0,0.0,0.0,632997000.0,1105848000.0,483772000.0,0.0,410555000.0,46514000.0,0.0,0.0,364041000.0,0.0,364041000.0,6.86,6.82,53074000.0,53413000.0,0.117218654635,0.0,0.22363990877099998,0.17946541585099998,0.135048678824,-0.0038506796931900003,602850000.0,483772000.0,364041000.0,0.152304027114,0.135048678824
2016-12-31,2450580000.0,0.057439005604,0.0,0.0,0.0,555534000.0,1014170000.0,395462000.0,0.0,379464000.0,144032000.0,0.0,0.0,235432000.0,0.0,235432000.0,4.4,4.36,53502000.0,53958000.0,0.0,0.0,0.208278856434,0.161374858197,0.09607195031379999,0.0973443021652,510404000.0,395462000.0,235432000.0,0.154846607742,0.09607195031379999
2015-12-31,2317467000.0,0.00111798500051,0.0,0.0,0.0,499506000.0,815250000.0,426103000.0,0.0,295688000.0,113042000.0,0.0,0.0,182646000.0,0.0,182646000.0,3.38,2.98,54031000.0,61256000.0,0.0,0.0,0.232839129964,0.183865832825,0.0788127727385,0.154133802121,539597000.0,426103000.0,182646000.0,0.127591029344,0.0788127727385
2014-12-31,2314879000.0,0.07375879287430001,0.0,0.0,0.0,447446000.0,752397000.0,245132000.0,0.0,113447000.0,44521000.0,0.0,0.0,68926000.0,0.0,68926000.0,1.29,1.1,53591000.0,62822000.0,0.0,0.0,0.152067559471,0.10589408776900001,0.0297752063931,-0.061255469508300006,352018000.0,245132000.0,68926000.0,0.049007745113199996,0.0297752063931
2013-12-31,2155865000.0,0.09861222725980001,0.0,0.0,0.0,427438000.0,726393000.0,133747000.0,0.0,0.0,34556000.0,0.0,0.0,51854000.0,0.0,51854000.0,1.0,0.98,52099000.0,53155000.0,0.0,0.0,0.10435764762599999,0.0620386712526,0.024052526480099996,-0.045901761010099996,224981000.0,133747000.0,51854000.0,0.0,0.024052526480099996
2012-12-31,1962353000.0,0.18897409750900002,0.0,0.0,0.0,376574000.0,643829000.0,129398000.0,0.0,0.0,32549000.0,0.0,0.0,53237000.0,0.0,53237000.0,0.0,0.0,0.0,0.0,0.0,0.0,0.11379502057,0.0659402258411,0.027129165853400004,0.0103538965721,223306000.0,129398000.0,53237000.0,0.0,0.027129165853400004
2011-12-31,1650459000.0,0.25980293002099997,0.0,0.0,0.0,321241000.0,543187000.0,20283000.0,0.0,-1082000.0,1567000.0,0.0,0.0,-2649000.0,0.0,-2649000.0,0.0,0.0,0.0,0.0,0.0,0.0,0.05843344184859999,0.0122893086105,-0.0016050080613900003,-0.0624911009604,96442000.0,20283000.0,-2649000.0,-0.0006555752066549999,-0.0016050080613900003
2010-12-31,1310093000.0,0.107146418593,679688000.0,630405000.0,0.0,375764000.0,539127000.0,91278000.0,16835000.0,81989000.0,-28266000.0,0.0,0.0,110255000.0,0.0,110255000.0,2.15,2.1,49896137.0,51232000.0,0.0,0.4812,0.124,0.0754,0.084,0.0075,162635000.0,98824000.0,110255000.0,0.0626,0.0842
2009-12-31,1183306000.0,-0.0228,584743000.0,598563000.0,0.0,337918000.0,491079000.0,107484000.0,20653000.0,97196000.0,-19524000.0,0.0,0.0,116720000.0,0.0,116720000.0,2.26,2.22,51467919.0,51656000.0,0.0,0.5058,0.149,0.0996,0.099,0.0814,176560000.0,117849000.0,116720000.0,0.0821,0.0986
