,0,1,2,3,4,5,6,7,8,9,10,11,12,13,14,15,16,17,18,19,20,21,22,23,24,25,26,27,28,29,30
Date,Revenue,Revenue Growth,Cost of Revenue,Gross Profit,R&D Expenses,SG&A Expense,Operating Expenses,Operating Income,Interest Expense,Earnings before Tax,Income Tax Expense,Net Income - Non-Controlling int,Net Income - Discontinued ops,Net Income,Preferred Dividends,Net Income Com,EPS,EPS Diluted,Weighted Average Shs Out,Weighted Average Shs Out (Dil),Dividend per Share,Gross Margin,EBITDA Margin,EBIT Margin,Profit Margin,Free Cash Flow margin,EBITDA,EBIT,Consolidated Income,Earnings Before Tax Margin,Net Profit Margin
2018-12-31,21956000.0,0.030943325351,12450000.0,9506000.0,8374000.0,27038000.0,35412000.0,-25906000.0,0.0,-28679000.0,47000.0,0.0,0.0,-28726000.0,0.0,-28726000.0,-0.86,-0.86,33512181.0,33512181.0,0.0,0.43295682273599995,-1.12147021315,-1.17990526508,-1.30834396065,-1.35293313901,-24623000.0,-25906000.0,-28726000.0,-1.3062033157200001,-1.30834396065
2017-12-31,21297000.0,0.36519230769199995,12150000.0,9147000.0,7135000.0,19294000.0,26429000.0,-17282000.0,0.0,-17786000.0,56000.0,0.0,0.0,-17842000.0,0.0,-17842000.0,-2.42,-2.42,7382715.0,7382715.0,0.0,0.42949711226899995,-0.758651453256,-0.811475794713,-0.837770578016,-0.9149175940270001,-16157000.0,-17282000.0,-17842000.0,-0.835141099685,-0.837770578016
2016-12-31,15600000.0,-0.09460243760880001,10431000.0,5169000.0,7474000.0,16627000.0,24101000.0,-18932000.0,2483000.0,-21846000.0,0.0,0.0,0.0,-21846000.0,0.0,-21846000.0,-13.54,-13.54,28042000.0,1612933.0,0.0,0.3313,-1.199,-1.2412,-1.4,-1.1112,-18709000.0,-19363000.0,-21846000.0,-1.4004,-1.4004
2015-12-31,17230000.0,,12513000.0,4717000.0,7399000.0,17843000.0,25242000.0,-20525000.0,2892000.0,-22971000.0,0.0,0.0,0.0,-22971000.0,0.0,-22971000.0,-14.7,-14.7,28042000.0,1562829.0,0.0,0.2738,-1.115,-1.1654,-1.3330000000000002,-1.4262,-19219000.0,-20079000.0,-22971000.0,-1.3332,-1.3332
