,0,1,2,3,4,5,6,7,8,9,10,11,12,13,14,15,16,17,18,19,20,21,22,23,24,25,26,27,28,29,30
Date,Revenue,Revenue Growth,Cost of Revenue,Gross Profit,R&D Expenses,SG&A Expense,Operating Expenses,Operating Income,Interest Expense,Earnings before Tax,Income Tax Expense,Net Income - Non-Controlling int,Net Income - Discontinued ops,Net Income,Preferred Dividends,Net Income Com,EPS,EPS Diluted,Weighted Average Shs Out,Weighted Average Shs Out (Dil),Dividend per Share,Gross Margin,EBITDA Margin,EBIT Margin,Profit Margin,Free Cash Flow margin,EBITDA,EBIT,Consolidated Income,Earnings Before Tax Margin,Net Profit Margin
2019-12-31,195992000.0,0.290592775019,45546000.0,150446000.0,140804000.0,77252000.0,218056000.0,-67610000.0,11627000.0,-72251000.0,-11000.0,0.0,0.0,-72240000.0,0.0,-72240000.0,-0.5,-0.5,144329000.0,144329000.0,0.0,0.767612963794,-0.298772398873,-0.344963059717,-0.368586472917,-0.45646250867399996,-58557000.0,-67610000.0,-72240000.0,-0.36864259765699997,-0.368586472917
2018-12-31,151862000.0,-0.520354502184,10136000.0,141726000.0,150252000.0,60804000.0,211056000.0,-69330000.0,18041000.0,-79793000.0,537000.0,0.0,0.0,-80330000.0,0.0,-80330000.0,-0.56,-0.56,143599000.0,143599000.0,0.0,0.9332551922139999,-0.41028697106600004,-0.456532904874,-0.5289670885409999,-0.356659335449,-62307000.0,-69330000.0,-80330000.0,-0.525430983393,-0.5289670885409999
2017-12-31,316613000.0,1.15836690731,31152000.0,285461000.0,150643000.0,53816000.0,204459000.0,81002000.0,21984000.0,61610000.0,-1361000.0,0.0,0.0,62971000.0,0.0,62971000.0,0.46,0.45,136419000.0,139068000.0,0.0,0.901608588403,0.269306693029,0.255839147477,0.19888949600900002,0.41913313729999996,85266000.0,81002000.0,62971000.0,0.194590872769,0.19888949600900002
2016-12-31,146691000.0,0.0861414069615,33206000.0,113485000.0,150842000.0,45853000.0,196695000.0,-83210000.0,19977000.0,-101861000.0,1162000.0,0.0,0.0,-103023000.0,0.0,-103023000.0,-0.81,-0.81,127964000.0,127964000.0,0.0,0.773633010887,-0.534838538152,-0.56724679769,-0.702313025339,-0.364848559216,-78456000.0,-83210000.0,-103023000.0,-0.6943916123010001,-0.702313025339
2015-12-31,135057000.0,0.792776170122,29245000.0,105812000.0,93236000.0,40028000.0,133264000.0,-27452000.0,5201000.0,0.0,0.0,0.0,0.0,-32231000.0,0.0,-32231000.0,-0.25,-0.25,126704000.0,126704000.0,0.0,0.783461797611,-0.188150188439,-0.203262326277,-0.23864738591899998,-0.292047061611,-25411000.0,-27452000.0,-32231000.0,0.0,-0.23864738591899998
2014-12-31,75334000.0,0.374721901847,22732000.0,52602000.0,79696000.0,35942000.0,115638000.0,-63036000.0,5581000.0,0.0,0.0,0.0,0.0,-68375000.0,0.0,-68375000.0,-0.56,-0.56,122690000.0,122690000.0,0.0,0.698250457961,-0.805824727215,-0.8367536570469999,-0.907624711286,-0.648923460854,-60706000.0,-63036000.0,-68375000.0,0.0,-0.907624711286
2013-12-31,54799447.0,0.294723080746,6245761.0,48553686.0,96639575.0,32347748.0,128987323.0,-80433637.0,3274143.0,0.0,0.0,0.0,0.0,-83478551.0,0.0,-83478551.0,-0.74,-0.74,112805439.0,112805439.0,0.0,0.886025108976,-1.46290757277,-1.46778191028,-1.52334659509,-0.9422904760330001,-80166526.0,-80433637.0,-83478551.0,0.0,-1.52334659509
2012-12-31,42325226.0,1.0,1094400.0,41230826.0,70044073.0,24812199.0,94915300.0,-53625446.0,0.0,0.0,0.0,0.0,0.0,-53552002.0,0.0,-53552002.0,-0.48,-0.48,0.0,0.0,0.0,0.9741430795899999,-1.24148237271,-1.26698546158,-1.26525023162,-1.55325528563,-52546022.0,-53625446.0,-53552002.0,0.0,-1.26525023162
2011-12-31,0.0,-1.0,0.0,0.0,0.0,0.0,0.0,0.0,0.0,0.0,0.0,0.0,0.0,0.0,0.0,0.0,0.0,0.0,0.0,0.0,0.0,0.0,0.0,0.0,0.0,0.0,0.0,0.0,0.0,0.0,0.0
2010-12-31,13624115.0,-0.00345175533718,985283.0,12638832.0,51773504.0,15122960.0,66896464.0,-54257632.0,0.0,-53241650.0,0.0,0.0,0.0,-53241650.0,0.0,-53241650.0,-0.56,-0.56,100434905.0,94357695.0,0.0,0.9277,-3.7969999999999997,-3.9079,-3.908,-3.3787,-51733725.0,-53241650.0,-53241650.0,-3.9079,-3.9079
2009-12-31,13671305.0,0.5599,311891.0,13359414.0,56614266.0,15203408.0,71817674.0,-58458260.0,0.0,-58360523.0,0.0,0.0,0.0,-58360523.0,0.0,-58360523.0,-0.67,-0.67,91647241.0,86700094.0,0.0,0.9772,-4.163,-4.2688,-4.269,-3.0435,-56916785.0,-58360523.0,-58360523.0,-4.2688,-4.2688
