,0,1,2,3,4,5,6,7,8,9,10,11,12,13,14,15,16,17,18,19,20,21,22,23,24,25,26,27,28
Date,Cash and cash equivalents,Short-term investments,Cash and short-term investments,Receivables,Inventories,Total current assets,Property Plant & Equipment Net,Goodwill and Intangible Assets,Long-term investments,Tax assets,Total non-current assets,Total assets,Payables,Short-term debt,Total current liabilities,Long-term debt,Total debt,Deferred revenue,Tax Liabilities,Deposit Liabilities,Total non-current liabilities,Total liabilities,Other comprehensive income,Retained earnings (deficit),Total shareholders equity,Investments,Net Debt,Other Assets,Other Liabilities
2019-12-31,120179000.0,301083000.0,421262000.0,59442000.0,29359000.0,543436000.0,10855000.0,0.0,0.0,18036000.0,22438000.0,565874000.0,6434000.0,19542000.0,85637000.0,383045000.0,402587000.0,4012000.0,21483000.0,0.0,404825000.0,474109000.0,695066000.0,-603678000.0,91765000.0,301083000.0,282408000.0,0.0,-16353000.0
2018-12-31,57936000.0,296590000.0,354526000.0,30005000.0,22625000.0,427849000.0,7465000.0,0.0,0.0,3817000.0,12399000.0,440248000.0,4079000.0,91506000.0,149361000.0,34874000.0,126380000.0,4247000.0,20000000.0,0.0,42858000.0,191361000.0,780457000.0,-531438000.0,248887000.0,296590000.0,68444000.0,0.0,-858000.0
2017-12-31,168740000.0,300474000.0,469214000.0,22133000.0,5146000.0,510372000.0,3520000.0,0.0,0.0,5705000.0,9573000.0,519945000.0,7948000.0,77211000.0,131328000.0,125140000.0,202351000.0,6568000.0,14400000.0,0.0,180424000.0,311579000.0,731044000.0,-522371000.0,208366000.0,300474000.0,33611000.0,0.0,-173000.0
2016-12-31,66764000.0,138217000.0,204981000.0,15680000.0,14623000.0,256532000.0,4264000.0,0.0,0.0,340000.0,4983000.0,261515000.0,3578000.0,17393000.0,54585000.0,199228000.0,216621000.0,4793000.0,12800000.0,0.0,239751000.0,293996000.0,552737000.0,-585342000.0,-32481000.0,138217000.0,149857000.0,0.0,-340000.0
2015-12-31,43292000.0,65047000.0,108339000.0,32410000.0,9489000.0,171772000.0,3943000.0,0.0,0.0,380000.0,10017000.0,181789000.0,4499000.0,21862000.0,62457000.0,27971000.0,49833000.0,9304000.0,4900000.0,0.0,76713000.0,138790000.0,525628000.0,-482658000.0,42999000.0,65047000.0,6541000.0,0.0,-380000.0
2014-12-31,61389000.0,74234000.0,135623000.0,9149000.0,6406000.0,161321000.0,2951000.0,0.0,0.0,194000.0,4656000.0,165977000.0,3003000.0,0.0,24331000.0,49860000.0,49860000.0,7367000.0,0.0,0.0,100488000.0,124625000.0,491694000.0,-450427000.0,41352000.0,74234000.0,-11529000.0,0.0,-194000.0
2013-12-31,27356947.0,44145697.0,71502644.0,9097084.0,6169982.0,95195394.0,3421506.0,0.0,0.0,143000.0,6597198.0,101792592.0,3134757.0,0.0,25453032.0,0.0,0.0,7397829.0,0.0,0.0,45763717.0,121783268.0,361929935.0,-382052199.0,-19990676.0,44145697.0,-27356947.0,0.0,50566519.0
2012-12-31,99901264.0,0.0,99901264.0,15703087.0,2670696.0,131027935.0,3700462.0,0.0,0.0,0.0,3700462.0,134728397.0,2271689.0,1450000.0,18946153.0,1450000.0,2900000.0,8891017.0,0.0,0.0,37854966.0,85874678.0,347314658.0,-298573648.0,48853719.0,0.0,-97001264.0,0.0,29073559.0
2011-12-31,0.0,0.0,0.0,0.0,0.0,0.0,0.0,0.0,0.0,0.0,0.0,0.0,0.0,0.0,0.0,0.0,0.0,0.0,0.0,0.0,0.0,0.0,0.0,0.0,0.0,0.0,0.0,0.0,0.0
2010-12-31,83255848.0,0.0,83255848.0,2328268.0,193422.0,89498434.0,1846899.0,0.0,0.0,0.0,1846899.0,91345333.0,3820368.0,0.0,15343066.0,0.0,0.0,58093551.0,0.0,0.0,55650811.0,70993877.0,0.0,-225251795.0,20351456.0,0.0,-83255848.0,3720896.0,11522698.0
2009-12-31,67464506.0,0.0,67464506.0,4243909.0,1159551.0,74441743.0,2708016.0,0.0,0.0,0.0,2708016.0,77149759.0,2820491.0,0.0,14396949.0,0.0,0.0,60482192.0,0.0,0.0,55849421.0,70246370.0,0.0,-172010145.0,6903389.0,0.0,-67464506.0,1573777.0,11576458.0
