,0,1,2,3,4,5,6,7,8,9,10,11,12,13,14,15,16,17,18,19,20,21,22,23,24,25,26,27,28
Date,Cash and cash equivalents,Short-term investments,Cash and short-term investments,Receivables,Inventories,Total current assets,Property Plant & Equipment Net,Goodwill and Intangible Assets,Long-term investments,Tax assets,Total non-current assets,Total assets,Payables,Short-term debt,Total current liabilities,Long-term debt,Total debt,Deferred revenue,Tax Liabilities,Deposit Liabilities,Total non-current liabilities,Total liabilities,Other comprehensive income,Retained earnings (deficit),Total shareholders equity,Investments,Net Debt,Other Assets,Other Liabilities
2018-12-31,2672000000.0,13780000000.0,16452000000.0,0.0,0.0,16452000000.0,790000000.0,2524000000.0,53000000.0,0.0,92329000000.0,108781000000.0,0.0,2017000000.0,2030000000.0,8625000000.0,10642000000.0,13000000.0,0.0,84774000000.0,8689000000.0,97679000000.0,10339000000.0,1361000000.0,11102000000.0,13833000000.0,7970000000.0,0.0,86960000000.0
2017-12-31,1520000000.0,15469000000.0,16989000000.0,0.0,0.0,16989000000.0,864000000.0,2339000000.0,47000000.0,0.0,87196000000.0,104185000000.0,0.0,5056000000.0,5116000000.0,9206000000.0,14262000000.0,10000000.0,50000000.0,77041000000.0,9238000000.0,93371000000.0,10743000000.0,588000000.0,10814000000.0,15516000000.0,12742000000.0,0.0,79017000000.0
2016-12-31,1384770000.0,15562837000.0,16947607000.0,0.0,0.0,16947607000.0,815508000.0,2395307000.0,58267000.0,117095000.0,82766490000.0,99714097000.0,0.0,3692654000.0,3724415000.0,8309159000.0,12001813000.0,8000000.0,23761000.0,75607717000.0,9016592000.0,89405951000.0,10925120000.0,-226844000.0,10308146000.0,15621104000.0,10617043000.0,0.0,76664944000.0
2015-12-31,847156000.0,8775441000.0,9622597000.0,0.0,0.0,9622597000.0,620540000.0,731847000.0,51838000.0,50723000.0,61421954000.0,71044551000.0,0.0,615279000.0,645383000.0,7067614000.0,7682893000.0,7000000.0,23104000.0,55294979000.0,7570738000.0,64449945000.0,7406861000.0,-594067000.0,6594606000.0,8827279000.0,6835737000.0,0.0,56233824000.0
2014-12-31,1220565000.0,9384670000.0,10605235000.0,0.0,0.0,10605235000.0,616407000.0,597212000.0,64559000.0,117447000.0,55692775000.0,66298010000.0,0.0,2397101000.0,2402673000.0,4335962000.0,6733063000.0,4400000.0,1172000.0,51732151000.0,4799309000.0,59969840000.0,7594655000.0,-1052324000.0,6328170000.0,9449229000.0,5512498000.0,0.0,52767858000.0
2013-12-31,1001132000.0,7308753000.0,8309885000.0,0.0,0.0,8309885000.0,634657000.0,537461000.0,57043000.0,137568000.0,51166459000.0,59476344000.0,0.0,552143000.0,554947000.0,1034266000.0,1586409000.0,2100000.0,704000.0,47506718000.0,1455174000.0,53377021000.0,7775164000.0,-1470154000.0,6099323000.0,7365796000.0,585277000.0,0.0,51366900000.0
2012-12-31,921471000.0,7566175000.0,8487646000.0,0.0,0.0,8487646000.0,617257000.0,576425000.0,70921000.0,203875000.0,47665539000.0,56153185000.0,0.0,589814000.0,597460000.0,662894000.0,1252708000.0,1400000.0,6246000.0,46252683000.0,1049581000.0,50362974000.0,7850520000.0,-1917933000.0,5790211000.0,7637096000.0,331237000.0,0.0,48715933000.0
2011-12-31,917954000.0,8078014000.0,8995968000.0,0.0,0.0,8995968000.0,564429000.0,619570000.0,90943000.0,364826000.0,45454684000.0,54450652000.0,0.0,1441092000.0,1454588000.0,899779000.0,2340871000.0,1600000.0,11896000.0,43279625000.0,1229027000.0,49032552000.0,7972846000.0,-2389639000.0,5418100000.0,8168957000.0,1422917000.0,0.0,46348937000.0
2010-12-31,847888000.0,9895244000.0,10743132000.0,0.0,0.0,10743132000.0,491602000.0,672888000.0,135038000.0,0.0,43076510000.0,53819642000.0,0.0,2040732000.0,2040732000.0,1497216000.0,3537948000.0,0.0,0.0,41853898000.0,1497216000.0,48839100000.0,7983829000.0,-2814433000.0,4980542000.0,10030282000.0,2690060000.0,0.0,45301152000.0
2009-12-31,1840719000.0,,,0.0,0.0,,496021000.0,733366000.0,,0.0,,51554665000.0,0.0,,,,4678911000.0,0.0,0.0,40493927000.0,,46218663000.0,-156985000.0,-2922026000.0,5336002000.0,44441402000.0,,,
