,0,1,2,3,4,5,6,7,8,9,10,11,12,13,14
Date,Depreciation & Amortization,Stock-based compensation,Operating Cash Flow,Capital Expenditure,Acquisitions and disposals,Investment purchases and sales,Investing Cash flow,Issuance (repayment) of debt,Issuance (buybacks) of shares,Dividend payments,Financing Cash Flow,Effect of forex changes on cash,Net cash flow / Change in cash,Free Cash Flow,Net Cash/Marketcap
2018-12,493000000.0,78000000.0,,,,-2830000000.0,-3663000000.0,,,,3089000000.0,,1152000000.0,,
2017-12,413000000.0,92000000.0,,,,-6774000000.0,-4866000000.0,,,,3047000000.0,,135000000.0,,
2016-12,380000000.0,66000000.0,,,,-10888000000.0,-3445000000.0,,,,2768000000.0,,538000000.0,,
2015-12,341000000.0,51000000.0,,,,-4886000000.0,-4929000000.0,,,,3522000000.0,,-373000000.0,,
2014-12,333000000.0,44000000.0,,,,-4554000000.0,-5005000000.0,,,,4335000000.0,,219000000.0,,
