,0,1,2,3,4,5,6,7,8,9,10,11,12,13,14
Date,Depreciation & Amortization,Stock-based compensation,Operating Cash Flow,Capital Expenditure,Acquisitions and disposals,Investment purchases and sales,Investing Cash flow,Issuance (repayment) of debt,Issuance (buybacks) of shares,Dividend payments,Financing Cash Flow,Effect of forex changes on cash,Net cash flow / Change in cash,Free Cash Flow,Net Cash/Marketcap
2019-12-31,4002000.0,2632000.0,202000.0,4122000.0,-0.0,-5960000.0,-4122000.0,-11873000.0,-5960000.0,-0.0,1062000.0,-765000.0,2142000.0,-3920000.0,0.0
2018-12-31,5309000.0,3618000.0,11824000.0,8076000.0,-0.0,0.0,-8064000.0,-0.0,-6352000.0,-0.0,-9255000.0,941000.0,-4554000.0,3748000.0,0.0
2017-12-31,5815000.0,0.0,33440000.0,7374000.0,-0.0,0.0,-7353000.0,-70000.0,-10906000.0,-38000000.0,-26602000.0,81000.0,-434000.0,26066000.0,0.0
2016-12-31,6226000.0,0.0,62563000.0,-6002000.0,0.0,0.0,-5925000.0,-19651000.0,0.0,0.0,-61837000.0,-259000.0,-5458000.0,56561000.0,-0.1895
2015-12-31,6308000.0,0.0,26488000.0,-6171000.0,-413000.0,0.0,-6543000.0,4912000.0,0.0,0.0,-10088000.0,-46000.0,9811000.0,20317000.0,-0.1895
