,0,1,2,3,4,5,6,7,8,9,10,11,12,13,14,15,16,17,18,19,20,21,22,23,24,25,26,27,28,29,30
Date,Revenue,Revenue Growth,Cost of Revenue,Gross Profit,R&D Expenses,SG&A Expense,Operating Expenses,Operating Income,Interest Expense,Earnings before Tax,Income Tax Expense,Net Income - Non-Controlling int,Net Income - Discontinued ops,Net Income,Preferred Dividends,Net Income Com,EPS,EPS Diluted,Weighted Average Shs Out,Weighted Average Shs Out (Dil),Dividend per Share,Gross Margin,EBITDA Margin,EBIT Margin,Profit Margin,Free Cash Flow margin,EBITDA,EBIT,Consolidated Income,Earnings Before Tax Margin,Net Profit Margin
2017-12,,,,,,,,,,,,,,216000000.0,,216000000.0,2.49,2.48,85000000.0,85000000.0,,,,,,,,216000000.0,216000000.0,,
2016-12,,,,,,,,,,,,,,149000000.0,,149000000.0,1.87,1.87,78000000.0,78000000.0,,,,,,,,149000000.0,149000000.0,,
2015-12,,,,,,,,,,,,,,131000000.0,,131000000.0,1.64,1.64,78000000.0,78000000.0,,,,,,,,131000000.0,131000000.0,,
2014-12,,,,,,,,,,,,,,176000000.0,,176000000.0,2.1,2.1,82000000.0,82000000.0,,,,,,,,176000000.0,176000000.0,,
2013-12,,,,,,,,,,,,,,163000000.0,,163000000.0,1.93,1.93,83000000.0,83000000.0,,,,,,,,163000000.0,163000000.0,,
