,0,1,2,3,4,5,6,7,8,9,10,11,12,13,14
Date,Depreciation & Amortization,Stock-based compensation,Operating Cash Flow,Capital Expenditure,Acquisitions and disposals,Investment purchases and sales,Investing Cash flow,Issuance (repayment) of debt,Issuance (buybacks) of shares,Dividend payments,Financing Cash Flow,Effect of forex changes on cash,Net cash flow / Change in cash,Free Cash Flow,Net Cash/Marketcap
2019-12-31,3759000.0,215000.0,174952000.0,4612000.0,-0.0,248422000.0,-94725000.0,-0.0,-97126000.0,-20835000.0,-39888000.0,0.0,98831000.0,170340000.0,0.0
2018-12-31,6813000.0,251000.0,72440000.0,3434000.0,-0.0,123377000.0,-303916000.0,182637000.0,-57870000.0,-15418000.0,229988000.0,0.0,-1488000.0,69006000.0,0.0
2017-12-31,5936000.0,325000.0,49064000.0,2689000.0,-0.0,85587000.0,-279874000.0,251821000.0,-74837000.0,-11720000.0,236419000.0,0.0,5609000.0,46375000.0,0.0
2016-12-31,11437000.0,324000.0,25548000.0,1383000.0,-0.0,269587000.0,226390000.0,-32099000.0,-70260000.0,-8382000.0,-229756000.0,0.0,22182000.0,24165000.0,0.0
2015-12-31,7572000.0,288000.0,35230000.0,5622000.0,-0.0,121724000.0,-124188000.0,156340000.0,-44345000.0,-6216000.0,94132000.0,0.0,5174000.0,29608000.0,0.0
2014-12-31,6078000.0,203000.0,17665000.0,6255000.0,-735000.0,117533000.0,-149046000.0,190838000.0,-43311000.0,-4744000.0,143136000.0,0.0,11755000.0,11410000.0,0.0
2013-12-31,6217000.0,48000.0,46965000.0,6318000.0,-0.0,121309000.0,49797000.0,-0.0,-31526000.0,-3655000.0,-95776000.0,0.0,986000.0,40647000.0,0.0
2012-12-31,0.0,0.0,0.0,0.0,-0.0,0.0,0.0,-0.0,0.0,-0.0,0.0,0.0,0.0,0.0,0.0
2011-12-31,0.0,0.0,0.0,0.0,-0.0,0.0,0.0,-0.0,0.0,-0.0,0.0,0.0,0.0,0.0,0.0
2010-12-31,2320000.0,30000.0,24910000.0,-2414000.0,3412000.0,20680000.0,27815000.0,-31979000.0,197000.0,-2240000.0,-105744000.0,0.0,-53019000.0,22496000.0,-0.6222
2009-12-31,2280000.0,39000.0,14712000.0,-4066000.0,0.0,-55859000.0,-51683000.0,-40367000.0,164000.0,-2229000.0,66993000.0,0.0,30022000.0,10646000.0,-0.6222
