,0,1,2,3,4,5,6,7,8,9,10,11,12,13,14,15,16,17,18,19,20,21,22,23,24,25,26,27,28
Date,Cash and cash equivalents,Short-term investments,Cash and short-term investments,Receivables,Inventories,Total current assets,Property Plant & Equipment Net,Goodwill and Intangible Assets,Long-term investments,Tax assets,Total non-current assets,Total assets,Payables,Short-term debt,Total current liabilities,Long-term debt,Total debt,Deferred revenue,Tax Liabilities,Deposit Liabilities,Total non-current liabilities,Total liabilities,Other comprehensive income,Retained earnings (deficit),Total shareholders equity,Investments,Net Debt,Other Assets,Other Liabilities
2018-12-31,502000000.0,47000000.0,549000000.0,6789000000.0,1732000000.0,10213000000.0,19757000000.0,7953000000.0,362000000.0,1309000000.0,28994000000.0,39207000000.0,2577000000.0,788000000.0,7569000000.0,32033000000.0,32821000000.0,0.0,308000000.0,0.0,32864000000.0,44157000000.0,0.0,-4572000000.0,-4950000000.0,409000000.0,32319000000.0,0.0,3724000000.0
2017-12-31,732000000.0,54000000.0,786000000.0,6501000000.0,1573000000.0,9977000000.0,17895000000.0,7394000000.0,418000000.0,1271000000.0,26616000000.0,36593000000.0,2606000000.0,200000000.0,6158000000.0,32858000000.0,33058000000.0,0.0,299000000.0,0.0,33619000000.0,43399000000.0,3999999.99,-6532000000.0,-6806000000.0,472000000.0,32326000000.0,0.0,3622000000.0
2016-12-31,646000000.0,49000000.0,695000000.0,5826000000.0,1503000000.0,9086000000.0,16352000000.0,6704000000.0,336000000.0,1999000000.0,24672000000.0,33758000000.0,2318000000.0,216000000.0,5834000000.0,31160000000.0,31376000000.0,0.0,283000000.0,0.0,32313000000.0,41060000000.0,0.0,-6968000000.0,-7302000000.0,385000000.0,30730000000.0,0.0,2913000000.0
2015-12-31,741000000.0,50000000.0,791000000.0,5889000000.0,1439000000.0,9232000000.0,15014000000.0,6731000000.0,432000000.0,1985000000.0,23512000000.0,32744000000.0,2170000000.0,233000000.0,5516000000.0,30255000000.0,30488000000.0,0.0,277000000.0,0.0,31297000000.0,40343000000.0,0.0,-7338000000.0,-7599000000.0,482000000.0,29747000000.0,0.0,3530000000.0
2014-12-31,566000000.0,64000000.0,630000000.0,5694000000.0,1279000000.0,8930000000.0,14355000000.0,6416000000.0,494000000.0,366000000.0,22269000000.0,31199000000.0,2035000000.0,338000000.0,5480000000.0,29307000000.0,29645000000.0,0.0,255000000.0,0.0,29673000000.0,39093000000.0,0.0,-7575000000.0,-7894000000.0,558000000.0,29079000000.0,0.0,3940000000.0
2013-12-31,414000000.0,62000000.0,476000000.0,5208000000.0,1179000000.0,8037000000.0,13619000000.0,5903000000.0,448000000.0,489000000.0,20794000000.0,28831000000.0,1803000000.0,786000000.0,5695000000.0,27590000000.0,28376000000.0,0.0,252000000.0,0.0,28079000000.0,37101000000.0,1386000000.0,-9403000000.0,-8270000000.0,510000000.0,27962000000.0,0.0,3327000000.0
2012-12-31,705000000.0,55000000.0,760000000.0,4672000000.0,1086000000.0,7763000000.0,13185000000.0,0.0,515000000.0,385000000.0,20312000000.0,28075000000.0,1768000000.0,1435000000.0,6172000000.0,27495000000.0,28930000000.0,0.0,235000000.0,0.0,27880000000.0,37735000000.0,1753000000.0,-10960000000.0,-9660000000.0,570000000.0,28225000000.0,0.0,3683000000.0
2011-12-31,373000000.0,80000000.0,453000000.0,4533000000.0,1054000000.0,7233000000.0,12834000000.0,0.0,548000000.0,594000000.0,19665000000.0,26898000000.0,1597000000.0,1407000000.0,5554000000.0,25645000000.0,27052000000.0,0.0,232000000.0,0.0,26239000000.0,18640000000.0,18120999999.99,-9423000000.0,8258000000.0,628000000.0,26679000000.0,0.0,-13153000000.0
2010-12-31,411000000.0,0.0,411000000.0,3832000000.0,897000000.0,6919000000.0,11352000000.0,2693000000.0,1511000000.0,931000000.0,16933000000.0,23852000000.0,1537000000.0,592000000.0,4269000000.0,27633000000.0,28225000000.0,0.0,1608000000.0,0.0,30377000000.0,34646000000.0,-428000000.0,-11888000000.0,-11926000000.0,1511000000.0,27814000000.0,1779000000.0,2140000000.0
2009-12-31,312000000.0,0.0,312000000.0,3692000000.0,802000000.0,6577000000.0,11427000000.0,2577000000.0,2019000000.0,1192000000.0,17554000000.0,24131000000.0,1460000000.0,846000000.0,4313000000.0,24824000000.0,25670000000.0,0.0,1768000000.0,0.0,27796000000.0,32109000000.0,-450000000.0,-8763000000.0,-8986000000.0,2019000000.0,25358000000.0,1771000000.0,2007000000.0
