,0,1,2,3,4,5,6,7,8,9,10,11,12,13,14,15,16,17,18,19,20,21,22,23,24,25,26,27,28,29,30
Date,Revenue,Revenue Growth,Cost of Revenue,Gross Profit,R&D Expenses,SG&A Expense,Operating Expenses,Operating Income,Interest Expense,Earnings before Tax,Income Tax Expense,Net Income - Non-Controlling int,Net Income - Discontinued ops,Net Income,Preferred Dividends,Net Income Com,EPS,EPS Diluted,Weighted Average Shs Out,Weighted Average Shs Out (Dil),Dividend per Share,Gross Margin,EBITDA Margin,EBIT Margin,Profit Margin,Free Cash Flow margin,EBITDA,EBIT,Consolidated Income,Earnings Before Tax Margin,Net Profit Margin
2018-12-31,16183921.0,-0.13474679030300002,6139466.0,10044455.0,0.0,1071024.0,1071024.0,8973431.0,3045772.0,5012058.0,-54740.0,0.0,0.0,5066798.0,0.0,5066798.0,0.79,0.79,6405882.0,6406869.0,1.157,0.6206,0.498,0.4979,0.313,1.587,8057830.0,8057830.0,5066798.0,0.3097,0.3131
2017-12-31,18704260.0,-0.104779798707,5159824.0,13544436.0,0.0,1148817.0,1148817.0,12395619.0,4030550.0,1760801.0,128215.0,0.0,0.0,1632586.0,0.0,1632586.0,0.25,0.25,6487874.0,6412215.0,1.45,0.7241,0.31,0.3096,0.087,1.1358,5791351.0,5791351.0,1632586.0,0.0941,0.0873
2016-12-31,20893474.0,0.027873316220999998,6027177.0,14866297.0,0.0,1021516.0,1021516.0,13844781.0,3730768.0,6068078.0,61591.0,0.0,0.0,6006487.0,0.0,6006487.0,0.96,0.96,6281610.0,6282360.0,1.35,0.7115,0.469,0.469,0.287,0.7465,9798846.0,9798846.0,6006487.0,0.2904,0.2875
2015-12-31,20326896.0,0.38164974595299994,6422554.0,13904342.0,0.0,869391.0,869391.0,13034951.0,3382543.0,6412406.0,1393.0,0.0,0.0,6411013.0,0.0,6411013.0,1.03,1.03,6262563.0,6249346.0,1.35,0.684,0.48200000000000004,0.4819,0.315,-1.0472,9794949.0,9794949.0,6411013.0,0.3155,0.3154
2014-12-31,14712047.0,0.679463555118,4778124.0,9933923.0,0.0,701593.0,701593.0,9232330.0,923350.0,9439209.0,43727.0,0.0,0.0,9395482.0,0.0,9395482.0,1.52,1.52,6211237.0,6185061.0,1.349,0.6752,0.7040000000000001,0.7044,0.639,-2.4041,10362559.0,10362559.0,9395482.0,0.6416,0.6386
2013-12-31,8759968.0,1.11593378842,1394905.0,7365063.0,0.0,504852.0,504852.0,6860211.0,1028841.0,4122161.0,0.0,0.0,0.0,4122161.0,0.0,4122161.0,0.93,0.93,6120076.0,4429639.0,0.765,0.8408,0.588,0.588,0.47100000000000003,-2.7322,5151002.0,5151002.0,4122161.0,0.4706,0.4706
2012-12-31,4140001.0,,1305600.0,2834401.0,0.0,154177.0,154177.0,2680224.0,974369.0,3686859.0,0.0,0.0,0.0,3686859.0,0.0,3686859.0,4.26,4.26,,866217.0,0.0,0.6846,1.126,1.1259,0.8909999999999999,-7.0326,4661228.0,4661228.0,3686859.0,0.8905,0.8905
