,0,1,2,3,4,5,6,7,8,9,10,11,12,13,14
Date,Depreciation & Amortization,Stock-based compensation,Operating Cash Flow,Capital Expenditure,Acquisitions and disposals,Investment purchases and sales,Investing Cash flow,Issuance (repayment) of debt,Issuance (buybacks) of shares,Dividend payments,Financing Cash Flow,Effect of forex changes on cash,Net cash flow / Change in cash,Free Cash Flow,Net Cash/Marketcap
2019-12-28,18249000.0,3976000.0,53254000.0,31293000.0,-3521000.0,-1428000.0,-34814000.0,-0.0,-945000.0,-0.0,-1325000.0,0.0,17115000.0,21961000.0,0.0
2018-12-29,16157000.0,4381000.0,30072000.0,22820000.0,-4805000.0,-1030000.0,-27536000.0,-0.0,-608000.0,-0.0,-846000.0,0.0,1690000.0,7252000.0,0.0
2017-12-30,17967000.0,3036000.0,45331000.0,14400000.0,-0.0,-355000.0,-10008000.0,-64195000.0,47000.0,-0.0,-30044000.0,0.0,5279000.0,30931000.0,0.0
2016-12-31,17991000.0,1919000.0,38099000.0,15875000.0,-3393000.0,0.0,-18901000.0,-6699000.0,-36187000.0,-0.0,-6196000.0,0.0,13002000.0,22224000.0,0.0
2016-01-02,17197000.0,945000.0,28877000.0,19734000.0,-0.0,0.0,-18535000.0,-7994000.0,-23135000.0,-0.0,-8289000.0,0.0,2053000.0,9143000.0,0.0
2015-01-03,12877000.0,627000.0,14677000.0,20358000.0,-86865000.0,0.0,-107105000.0,-2527000.0,12253000.0,-0.0,91351000.0,0.0,-1077000.0,-5681000.0,0.0
2013-12-28,9524000.0,1367000.0,15383000.0,18404000.0,-21165000.0,0.0,-39569000.0,-1000000.0,-22194000.0,-0.0,-948000.0,0.0,-25134000.0,-3021000.0,0.0
2012-12-29,8185000.0,1066000.0,2645000.0,23186000.0,-0.0,0.0,-23056000.0,-500000.0,18166000.0,-0.0,65991000.0,0.0,45580000.0,-20541000.0,0.0
2011-12-31,5698000.0,1060000.0,4903000.0,-43363000.0,2252000.0,0.0,45615000.0,534000.0,-1912000.0,-0.0,21141000.0,0.0,-19571000.0,48266000.0,0.0
2011-01-01,4629000.0,612000.0,7900000.0,-12968000.0,0.0,0.0,-12968000.0,0.0,25735000.0,0.0,25735000.0,0.0,20667000.0,-5068000.0,0.1532
2010-01-02,4308000.0,373000.0,10263000.0,-9683000.0,0.0,0.0,-9683000.0,-20000.0,203000.0,0.0,183000.0,0.0,763000.0,580000.0,0.0091
