,0,1,2,3,4,5,6,7,8,9,10,11,12,13,14,15,16,17,18,19,20,21,22,23,24,25,26,27,28,29,30
Date,Revenue,Revenue Growth,Cost of Revenue,Gross Profit,R&D Expenses,SG&A Expense,Operating Expenses,Operating Income,Interest Expense,Earnings before Tax,Income Tax Expense,Net Income - Non-Controlling int,Net Income - Discontinued ops,Net Income,Preferred Dividends,Net Income Com,EPS,EPS Diluted,Weighted Average Shs Out,Weighted Average Shs Out (Dil),Dividend per Share,Gross Margin,EBITDA Margin,EBIT Margin,Profit Margin,Free Cash Flow margin,EBITDA,EBIT,Consolidated Income,Earnings Before Tax Margin,Net Profit Margin
2019-12-31,1984100000.0,0.00374361309253,1424900000.0,559200000.0,0.0,214300000.0,219900000.0,29100000.0,95100000.0,-56700000.0,-20600000.0,0.0,0.0,-31500000.0,0.0,-31500000.0,-0.66,-0.66,44800000.0,44800000.0,0.0,0.281840633033,0.04667103472609999,0.0146665994658,-0.0158762159165,0.0348268736455,92600000.0,29100000.0,-31500000.0,-0.028577188649800002,-0.0158762159165
2018-12-31,1976700000.0,0.209639666047,1585200000.0,391500000.0,0.0,218400000.0,2032500000.0,-55800000.0,75700000.0,182300000.0,2400000.0,0.0,0.0,162000000.0,6400000.0,162000000.0,2.9,2.9,44300000.0,46800000.0,0.010683760683799998,0.19805736834100002,-0.00177062781403,-0.028228866292300002,0.08195477310669999,0.15262811757,-3500000.0,-55800000.0,162000000.0,0.0922244144281,0.08195477310669999
2017-12-31,1634123000.0,0.048774617713800004,1313069000.0,321054000.0,0.0,182880000.0,1635255000.0,-1132000.0,55098000.0,-39751000.0,10740000.0,0.0,0.0,-46911000.0,2767000.0,-46911000.0,-1.16,-1.16,42824000.0,42824000.0,0.0116756958715,0.196468686874,0.030346552860500003,-0.0006927263125239999,-0.028707141384099997,-0.0157778820811,49590000.0,-1132000.0,-46911000.0,-0.0243255862625,-0.028707141384099997
2016-12-31,1558126000.0,0.390183492951,411064000.0,1147062000.0,0.0,152890000.0,1559547000.0,-1421000.0,43375000.0,-45793000.0,51638000.0,0.0,0.0,-94549000.0,10849000.0,-94549000.0,-2.83,-2.83,37260000.0,37260000.0,0.035480407944199994,0.736180514284,0.0269991002011,-0.0009119929967150001,-0.0606812286041,0.0321540106513,42068000.0,-1421000.0,-94549000.0,-0.029389792609799997,-0.0606812286041
2015-12-31,1120806000.0,1.0473660944299998,437968000.0,682838000.0,0.0,108527000.0,1118577000.0,2229000.0,39017000.0,-46623000.0,-10882000.0,0.0,0.0,-35565000.0,4285000.0,-35565000.0,-1.5,-1.5,26482000.0,26482000.0,0.21474964126600002,0.609238351686,0.031128491460599997,0.00198874738358,-0.0317316288457,-0.048077008866800004,34889000.0,2229000.0,-35565000.0,-0.04159774305280001,-0.0317316288457
2014-12-31,547438000.0,1.3730872267899998,296530000.0,250908000.0,0.0,80239000.0,561044000.0,-13606000.0,10754000.0,-37220000.0,-22869000.0,0.0,0.0,-14391000.0,-2049000.0,-14391000.0,-0.83,-0.83,19729000.0,19729000.0,0.0824167469208,0.458331354418,-0.00198926636441,-0.024853956064400003,-0.026287908402400004,-0.00393834552954,-1089000.0,-13606000.0,-14391000.0,-0.06798943442000001,-0.026287908402400004
2013-12-31,230686000.0,-0.11463266731699999,220315000.0,10371000.0,0.0,34692000.0,269822000.0,-39136000.0,8000.0,-25054000.0,-7442000.0,0.0,0.0,111606000.0,0.0,111606000.0,7.95,7.95,14047000.0,14047000.0,8.52765715099,0.0449572145687,-0.0653962529152,-0.169650520621,0.48380049071000003,-0.142583425089,-15086000.0,-39136000.0,111606000.0,-0.108606504079,0.48380049071000003
2012-12-31,260554000.0,-0.7366170032320001,125263000.0,135291000.0,0.0,102760000.0,269217000.0,-8663000.0,23934000.0,-50363000.0,-4518000.0,0.0,0.0,27887000.0,0.0,27887000.0,2.02,2.02,13844000.0,13844000.0,4.001011268419999,0.519243611689,0.133473291525,-0.0332483861311,0.107029636851,-0.0313869677687,34777000.0,-8663000.0,27887000.0,-0.193291985539,0.107029636851
2011-12-31,989259000.0,2.50779917523,695738000.0,293521000.0,0.0,214585000.0,976508000.0,12751000.0,32506000.0,-27200000.0,869000.0,0.0,0.0,-38730000.0,0.0,-38730000.0,-2.98,-2.98,12994000.0,12994000.0,0.0,0.296707939983,0.0789601105474,0.012889445534500001,-0.039150515689,0.011522766029900001,78112000.0,12751000.0,-38730000.0,-0.027495327310599997,-0.039150515689
2010-12-31,282017000.0,,134892000.0,147125000.0,0.0,113008000.0,152988000.0,-5863000.0,35331000.0,-25602000.0,-6515000.0,-105000.0,-22840000.0,-19087000.0,0.0,-19087000.0,-1.96,-1.96,9743157.0,9721000.0,0.0,0.5217,0.276,0.0345,-0.068,0.0555,77949000.0,9729000.0,-19192000.0,-0.0908,-0.0677
