,0,1,2,3,4,5,6,7,8,9,10,11,12,13,14,15,16,17,18,19,20,21,22,23,24,25,26,27,28,29,30
Date,Revenue,Revenue Growth,Cost of Revenue,Gross Profit,R&D Expenses,SG&A Expense,Operating Expenses,Operating Income,Interest Expense,Earnings before Tax,Income Tax Expense,Net Income - Non-Controlling int,Net Income - Discontinued ops,Net Income,Preferred Dividends,Net Income Com,EPS,EPS Diluted,Weighted Average Shs Out,Weighted Average Shs Out (Dil),Dividend per Share,Gross Margin,EBITDA Margin,EBIT Margin,Profit Margin,Free Cash Flow margin,EBITDA,EBIT,Consolidated Income,Earnings Before Tax Margin,Net Profit Margin
2018-12-31,842840000.0,-0.000189798339265,616258000.0,226582000.0,0.0,59328000.0,62591000.0,163991000.0,25347000.0,137595000.0,0.0,0.0,0.0,137595000.0,0.0,137595000.0,1.46,1.42,91248042.0,93638180.0,1.4,0.2688,0.243,0.1933,0.163,0.1172,205091000.0,162942000.0,137595000.0,0.1633,0.1633
2018-12,843000000.0,0.39888454307300003,616000000.0,227000000.0,,59000000.0,,,25000000.0,,,,,138000000.0,,138000000.0,1.46,1.42,91000000.0,94000000.0,,0.26927639383155,0.24317912218268,0.19335705812574,0.16370106761566,,205000000.0,163000000.0,138000000.0,0.0,0.16370106761566
2017-12-31,602623000.0,-0.0006252072968489999,467797000.0,134826000.0,0.0,43667000.0,41436000.0,93390000.0,12971000.0,76162000.0,0.0,0.0,0.0,76162000.0,0.0,76162000.0,0.97,0.96,86518249.0,87900982.0,0.15,0.2237,0.2,0.1479,0.126,-0.0635,120686000.0,89133000.0,76162000.0,0.1264,0.1264
2017-12,603000000.0,1.9496649219799997,468000000.0,135000000.0,,39000000.0,,,11000000.0,,,,,83000000.0,,83000000.0,0.97,0.96,87000000.0,88000000.0,,0.22388059701493,0.20729684908789,0.1558872305141,0.13764510779435998,,125000000.0,94000000.0,83000000.0,0.0,0.13764510779435998
2016-12-31,204430000.0,0.0021078431372500003,205340000.0,-910000.0,0.0,36807000.0,71262000.0,-72172000.0,20853000.0,-93025000.0,0.0,0.0,0.0,-93025000.0,0.0,-93025000.0,-1.64,-1.64,49567268.0,49567268.0,0.0,-0.0045,-0.259,-0.353,-0.455,-0.373,-52874000.0,-72172000.0,-93025000.0,-0.455,-0.455
2016-12,204000000.0,-0.399364032505,205000000.0,-0.0,,33000000.0,,,13000000.0,,,,,-81000000.0,,-81000000.0,-1.64,-1.64,50000000.0,50000000.0,,-0.0,-0.25,-0.33333333333333,-0.39705882352940997,,-51000000.0,-68000000.0,-81000000.0,0.0,-0.39705882352940997
2015-12-31,339640000.0,-0.00105882352941,256238000.0,83402000.0,0.0,27811000.0,41554000.0,41848000.0,14126000.0,27722000.0,0.0,0.0,0.0,27722000.0,0.0,27722000.0,0.73,0.73,36958988.0,37150878.0,1.825,0.2456,0.177,0.1232,0.08199999999999999,-0.0779,60152000.0,41848000.0,27722000.0,0.0816,0.0816
2015-12,340000000.0,-0.120417439535,261000000.0,78000000.0,,22000000.0,,,14000000.0,,,,,28000000.0,,28000000.0,0.73,0.73,37000000.0,37000000.0,,0.22941176470587998,0.16764705882353,0.12352941176471001,0.08235294117647099,,57000000.0,42000000.0,28000000.0,0.0,0.08235294117647099
2014-12-31,386547000.0,-0.00117054263566,225984000.0,160563000.0,0.0,26451000.0,26697000.0,133866000.0,9946000.0,122965000.0,0.0,955000.0,0.0,122965000.0,0.0,122965000.0,3.09,3.0,36952426.0,,2.235,0.4154,0.38,0.3438,0.318,0.0571,146955000.0,132911000.0,123920000.0,0.3181,0.3181
2014-12,387000000.0,1.16237358216,226000000.0,161000000.0,,26000000.0,,,10000000.0,,,,,123000000.0,,123000000.0,3.09,3.0,33000000.0,36000000.0,,0.41602067183463,0.38242894056848,0.34366925064599,0.31782945736434004,,148000000.0,133000000.0,123000000.0,0.0,0.31782945736434004
2013-12-31,178970000.0,7.79329828527,95884000.0,83086000.0,0.0,19096000.0,19371000.0,63715000.0,3671000.0,59770000.0,0.0,274000.0,0.0,59770000.0,0.0,59770000.0,2.08,2.08,28168265.0,,1.915,0.4642,0.409,0.3545,0.33399999999999996,0.3,73260000.0,63441000.0,60044000.0,0.33399999999999996,0.33399999999999996
2011-12-31,20353000.0,,6447000.0,13906000.0,381000.0,2324000.0,2733000.0,11173000.0,1893000.0,9280000.0,0.0,0.0,0.0,9280000.0,0.0,9280000.0,,,,,0.0,0.6832,0.5710000000000001,0.5489999999999999,0.456,-1.5418,11622000.0,11173000.0,9280000.0,0.456,0.456
