,0,1,2,3,4,5,6,7,8,9,10,11,12,13,14
Date,Depreciation & Amortization,Stock-based compensation,Operating Cash Flow,Capital Expenditure,Acquisitions and disposals,Investment purchases and sales,Investing Cash flow,Issuance (repayment) of debt,Issuance (buybacks) of shares,Dividend payments,Financing Cash Flow,Effect of forex changes on cash,Net cash flow / Change in cash,Free Cash Flow,Net Cash/Marketcap
2017-12-31,9060000.0,554000.0,25115000.0,3207000.0,-0.0,-80000.0,-2623000.0,-6088000.0,-80000.0,-526000.0,-7441000.0,1652000.0,44958000.0,21908000.0,0.0
2016-12-31,8920000.0,244000.0,5297000.0,2479000.0,-0.0,-368000.0,-2361000.0,-5761000.0,-368000.0,-1052000.0,-6475000.0,-980000.0,28255000.0,2818000.0,0.0
2015-12-31,8547000.0,-286000.0,26727000.0,4210000.0,-0.0,-201000.0,-4141000.0,-4464000.0,-201000.0,-1037000.0,-5702000.0,-403000.0,32774000.0,22517000.0,0.0
2014-12-31,9889000.0,329000.0,3179000.0,3186000.0,-5683000.0,0.0,-8500000.0,-9296000.0,-10615000.0,-1012000.0,-12130000.0,-978000.0,16293000.0,-7000.0,0.0
2013-12-31,9643000.0,621000.0,25828000.0,3871000.0,-34250000.0,0.0,-31687000.0,-15743000.0,-25838000.0,-944000.0,13740000.0,-14000.0,34722000.0,21957000.0,0.0
2012-12-31,7529000.0,662000.0,23439000.0,7641000.0,-8768000.0,0.0,-15852000.0,-1562000.0,-26855000.0,-931000.0,-3139000.0,671000.0,26855000.0,15798000.0,0.0
2011-12-31,7860000.0,0.0,-7132000.0,19217000.0,-0.0,0.0,-18317000.0,-614000.0,-21736000.0,-581000.0,16463000.0,-223000.0,21736000.0,-26349000.0,0.0
