,0,1,2,3,4,5,6,7,8,9,10,11,12,13,14
Date,Depreciation & Amortization,Stock-based compensation,Operating Cash Flow,Capital Expenditure,Acquisitions and disposals,Investment purchases and sales,Investing Cash flow,Issuance (repayment) of debt,Issuance (buybacks) of shares,Dividend payments,Financing Cash Flow,Effect of forex changes on cash,Net cash flow / Change in cash,Free Cash Flow,Net Cash/Marketcap
2020-02-02,113000000.0,23000000.0,677000000.0,106000000.0,-9000000.0,-385000000.0,-112000000.0,-11000000.0,-385000000.0,-0.0,-569000000.0,0.0,-4000000.0,571000000.0,0.0
2019-02-03,106000000.0,26000000.0,584000000.0,115000000.0,-362000000.0,-596000000.0,-477000000.0,-1243000000.0,-596000000.0,-0.0,-627000000.0,0.0,-520000000.0,469000000.0,0.0
2018-01-28,97000000.0,26000000.0,502000000.0,94000000.0,-0.0,-584000000.0,2329000000.0,-1529000000.0,-584000000.0,-0.0,-2348000000.0,0.0,483000000.0,408000000.0,0.0
2017-01-29,102000000.0,20000000.0,513000000.0,81000000.0,-0.0,-34000000.0,-21000000.0,-2631000000.0,-34000000.0,-0.0,-687000000.0,1000000.0,-194000000.0,432000000.0,0.0
2016-01-31,134000000.0,16000000.0,422000000.0,86000000.0,-0.0,-71000000.0,726000000.0,-1152000000.0,-71000000.0,-0.0,-962000000.0,-2000000.0,184000000.0,336000000.0,0.0
2015-02-01,226000000.0,17000000.0,295000000.0,119000000.0,-0.0,-52000000.0,84000000.0,-1385000000.0,-52000000.0,-0.0,-404000000.0,-5000000.0,-30000000.0,176000000.0,0.0
2014-02-02,246000000.0,16000000.0,-367000000.0,131000000.0,3000000.0,0.0,820000000.0,-1624000000.0,924000000.0,-0.0,-474000000.0,-5000000.0,-26000000.0,-498000000.0,0.0
2013-02-03,342000000.0,16000000.0,-681000000.0,-98000000.0,233000000.0,-936000000.0,-800000000.0,1641000000.0,0.0,0.0,1511000000.0,0.0,30000000.0,-779000000.0,-1.2628
2012-01-29,350000000.0,20000000.0,-165000000.0,-111000000.0,107000000.0,-2000000.0,-6000000.0,-10000000.0,0.0,0.0,-10000000.0,0.0,-181000000.0,-276000000.0,-1.2628
