,0,1,2,3,4,5,6,7,8,9,10,11,12,13,14,15,16,17,18,19,20,21,22,23,24,25,26,27,28,29,30
Date,Revenue,Revenue Growth,Cost of Revenue,Gross Profit,R&D Expenses,SG&A Expense,Operating Expenses,Operating Income,Interest Expense,Earnings before Tax,Income Tax Expense,Net Income - Non-Controlling int,Net Income - Discontinued ops,Net Income,Preferred Dividends,Net Income Com,EPS,EPS Diluted,Weighted Average Shs Out,Weighted Average Shs Out (Dil),Dividend per Share,Gross Margin,EBITDA Margin,EBIT Margin,Profit Margin,Free Cash Flow margin,EBITDA,EBIT,Consolidated Income,Earnings Before Tax Margin,Net Profit Margin
2019-12-31,162059000.0,-0.026818795976599998,144894000.0,17165000.0,0.0,30018000.0,32949000.0,-15784000.0,18911000.0,-25284000.0,656000.0,0.0,0.0,-25940000.0,0.0,-25940000.0,-0.61,-0.61,42613478.0,42613478.0,0.0,0.105918214971,-0.0364558586688,-0.0973966271543,-0.16006516145400002,0.202457129811,-5908000.0,-15784000.0,-25940000.0,-0.156017252976,-0.16006516145400002
2018-12-31,166525000.0,0.186244479271,173890000.0,-7365000.0,0.0,32270000.0,35243000.0,-42608000.0,14755000.0,-57363000.0,-1704000.0,0.0,0.0,-55659000.0,0.0,-55659000.0,-1.31,-1.31,42484972.0,42484972.0,0.0,-0.044227593454400006,-0.20667767602499998,-0.255865485663,-0.33423810238699997,0.211613871791,-34417000.0,-42608000.0,-55659000.0,-0.34447080018,-0.33423810238699997
2017-12-31,140380000.0,0.330855793934,102396000.0,37984000.0,0.0,21745000.0,22852000.0,15132000.0,3156000.0,12004000.0,847000.0,0.0,0.0,11157000.0,0.0,11157000.0,0.27,0.26,41764230.0,42766843.0,0.0,0.27057985468,0.133416441088,0.10779313292500001,0.0794771334948,0.12355036330000001,18729000.0,15132000.0,11157000.0,0.085510756518,0.0794771334948
2016-12-31,105481000.0,0.323110308321,74395000.0,31086000.0,0.0,12139000.0,12139000.0,18947000.0,1118000.0,17265000.0,6628000.0,0.0,0.0,10637000.0,0.0,10637000.0,0.31,0.3,34104476.0,35416910.0,0.0,0.294707103649,0.20217859140500002,0.179624766546,0.100842805813,0.072193096387,21326000.0,18947000.0,10637000.0,0.163678766792,0.100842805813
2015-12-31,79722000.0,0.42845368213600005,61233000.0,18489000.0,0.0,10308000.0,10308000.0,8181000.0,776000.0,7707000.0,2944000.0,0.0,0.0,4763000.0,0.0,4763000.0,0.15,0.14,32546840.0,33936099.0,0.0,0.231918416497,0.129550186899,0.102619101377,0.0597451142721,-0.14289656556500002,10328000.0,8181000.0,4763000.0,0.09667344020469999,0.0597451142721
2014-12-31,55810000.0,-0.0481631817717,49364000.0,6446000.0,0.0,7431000.0,7431000.0,-985000.0,641000.0,1330000000.0,-906000.0,0.0,0.0,-720000.0,0.0,-720000.0,-0.02,-0.02,29122746.0,29122746.0,0.0,0.115499014514,0.0018993012005,-0.017649166816,-0.012900913814700002,0.017649166816,106000.0,-985000.0,-720000.0,23.8308546855,-0.012900913814700002
2013-12-31,58634000.0,0.32290961599199997,44664000.0,-730000.0,0.0,7755000.0,7755000.0,-8485000.0,933000.0,2154000.0,-3576000.0,0.0,0.0,-5842000.0,0.0,-5842000.0,-0.24,-0.24,24826101.0,24826101.0,0.0,-0.012450114268200002,-0.129310638878,-0.144711259679,-0.0996350240475,-0.118821843981,-7582000.0,-8485000.0,-5842000.0,0.0367363645666,-0.0996350240475
2012-12-31,44322000.0,0.0,35637000.0,8685000.0,0.0,6157000.0,6157000.0,2528000.0,881000.0,0.0,634000.0,0.0,0.0,1034000.0,0.0,1034000.0,0.04,0.04,23780814.0,24803047.0,0.0,0.19595234872099998,0.0683859031632,0.0570371373133,0.0233292721448,-0.00654302603673,3031000.0,2528000.0,1034000.0,0.0,0.0233292721448
2011-12-31,44322000.0,0.189118128404,35637000.0,8685000.0,0.0,6157000.0,6157000.0,2528000.0,881000.0,0.0,634000.0,0.0,0.0,1034000.0,0.0,1034000.0,0.04,0.04,23780814.0,24803047.0,0.0,0.19595234872099998,0.0683859031632,0.0570371373133,0.0233292721448,-0.00654302603673,3031000.0,2528000.0,1034000.0,0.0,0.0233292721448
2010-12-31,37273000.0,0.542309761245,29241000.0,8032000.0,0.0,5880000.0,5880000.0,2152000.0,1102000.0,1064000.0,363000.0,0.0,0.0,701000.0,0.0,701000.0,0.03,0.03,23780606.0,22373773.0,0.0,0.2155,0.073,0.0581,0.019,0.068,2706000.0,2166000.0,701000.0,0.0285,0.0188
2009-12-31,24167000.0,-0.2714,20356000.0,3811000.0,0.0,5025000.0,5025000.0,-1214000.0,1401000.0,-2614000.0,-119000.0,0.0,0.0,-2495000.0,0.0,-2495000.0,-0.12,-0.12,20931706.0,20054000.0,0.0,0.1577,-0.028999999999999998,-0.0502,-0.10300000000000001,0.1229,-689000.0,-1213000.0,-2495000.0,-0.1082,-0.1032
