,0,1,2,3,4,5,6,7,8,9,10,11,12,13,14,15,16,17,18,19,20,21,22,23,24,25,26,27,28,29,30
Date,Revenue,Revenue Growth,Cost of Revenue,Gross Profit,R&D Expenses,SG&A Expense,Operating Expenses,Operating Income,Interest Expense,Earnings before Tax,Income Tax Expense,Net Income - Non-Controlling int,Net Income - Discontinued ops,Net Income,Preferred Dividends,Net Income Com,EPS,EPS Diluted,Weighted Average Shs Out,Weighted Average Shs Out (Dil),Dividend per Share,Gross Margin,EBITDA Margin,EBIT Margin,Profit Margin,Free Cash Flow margin,EBITDA,EBIT,Consolidated Income,Earnings Before Tax Margin,Net Profit Margin
2018-12-31,662042000.0,0.0862442942977,366185000.0,295857000.0,0.0,0.0,40695000.0,94734000.0,0.0,153523000.0,37535000.0,0.0,0.0,115988000.0,0.0,115988000.0,2.96,2.88,39205214.0,40276729.0,1.68265898653,0.446885545026,0.179243915039,0.143093640585,0.175197343975,0.211525854855,118667000.0,94734000.0,115988000.0,0.231893142731,0.175197343975
2017-12-31,609478000.0,0.17790370023899998,342208000.0,267270000.0,0.0,0.0,52583000.0,105328000.0,0.0,201728000.0,106768000.0,0.0,0.0,94960000.0,0.0,94960000.0,2.46,2.39,38662118.0,39673152.0,1.51278627924,0.438522801479,0.200711100319,0.172816738258,0.155805459754,0.18666957625999997,122329000.0,105328000.0,94960000.0,0.330984875582,0.155805459754
2016-12-31,517426000.0,0.030749616526200004,291290000.0,226136000.0,0.0,0.0,43618000.0,95773000.0,0.0,128231000.0,51036000.0,0.0,0.0,77195000.0,0.0,77195000.0,2.02,1.99,38245682.0,38843156.0,1.75994968071,0.437040272425,0.20796403737,0.185095066734,0.149190415634,0.143135443522,107606000.0,95773000.0,77195000.0,0.247824809731,0.149190415634
2015-12-31,501990000.0,0.178607149733,280674000.0,221316000.0,0.0,0.0,33576000.0,107773000.0,0.0,141912000.0,57949000.0,0.0,0.0,83963000.0,0.0,83963000.0,2.21,2.18,37975997.0,38449212.0,1.7639113124099999,0.440877308313,0.233018586028,0.21469152772,0.16726030399,0.14301679316299998,116973000.0,107773000.0,83963000.0,0.282698858543,0.16726030399
2014-12-31,425918000.0,0.19772781597600003,242393000.0,183525000.0,0.0,0.0,23701000.0,84827000.0,0.0,103512000.0,42226000.0,0.0,0.0,61286000.0,0.0,61286000.0,1.62,1.61,37758519.0,37982351.0,1.7946756376400004,0.43089280096199994,0.20794613047600002,0.199162749637,0.14389154719900002,0.245608309581,88568000.0,84827000.0,61286000.0,0.243032696435,0.14389154719900002
2013-12-31,355605000.0,1.0,202542000.0,153063000.0,0.0,0.0,18991000.0,69977000.0,0.0,86004000.0,34578000.0,0.0,0.0,51426000.0,0.0,51426000.0,1.38,1.36,37345918.0,37745685.0,0.0,0.430429830852,0.20990705979899998,0.19678294737100002,0.144615514405,0.233762179947,74644000.0,69977000.0,51426000.0,0.24185261737,0.144615514405
2012-12-31,0.0,0.0,0.0,0.0,0.0,0.0,0.0,0.0,0.0,0.0,0.0,0.0,0.0,0.0,0.0,0.0,0.0,0.0,0.0,0.0,0.0,0.0,0.0,0.0,0.0,0.0,0.0,0.0,0.0,0.0,0.0
2011-12-31,0.0,-1.0,0.0,0.0,0.0,0.0,0.0,0.0,0.0,0.0,0.0,0.0,0.0,0.0,0.0,0.0,0.0,0.0,0.0,0.0,0.0,0.0,0.0,0.0,0.0,0.0,0.0,0.0,0.0,0.0,0.0
2010-12-31,139972000.0,0.806649801229,80050000.0,59922000.0,0.0,34199000.0,43224000.0,16698000.0,1397000.0,19503000.0,8612000.0,6098000.0,0.0,10891000.0,0.0,10891000.0,0.4,0.4,,26900261.0,0.0,0.4281,0.149,0.1493,0.078,0.2426,20900000.0,20900000.0,16989000.0,0.1393,0.0778
2009-12-31,77476000.0,-0.4117,47923000.0,29553000.0,0.0,23382000.0,31488000.0,-1935000.0,2398000.0,1456000.0,2208000.0,2531000.0,0.0,-752000.0,0.0,-752000.0,-0.05,-0.05,,16637216.0,0.0,0.3814,0.05,0.0497,-0.01,0.075,3854000.0,3854000.0,1779000.0,0.0188,-0.0097
