,0,1,2,3,4,5,6,7,8,9,10,11,12,13,14,15,16,17,18,19,20,21,22,23,24,25,26,27,28,29,30
Date,Revenue,Revenue Growth,Cost of Revenue,Gross Profit,R&D Expenses,SG&A Expense,Operating Expenses,Operating Income,Interest Expense,Earnings before Tax,Income Tax Expense,Net Income - Non-Controlling int,Net Income - Discontinued ops,Net Income,Preferred Dividends,Net Income Com,EPS,EPS Diluted,Weighted Average Shs Out,Weighted Average Shs Out (Dil),Dividend per Share,Gross Margin,EBITDA Margin,EBIT Margin,Profit Margin,Free Cash Flow margin,EBITDA,EBIT,Consolidated Income,Earnings Before Tax Margin,Net Profit Margin
2018-12-31,154909000.0,0.0131459329361,52905000.0,102004000.0,35646000.0,84195000.0,119841000.0,-17837000.0,748000.0,-18177000.0,160000.0,0.0,0.0,-18337000.0,0.0,-18337000.0,-0.33,-0.33,55050119.0,55050119.0,0.0,0.658476912252,-0.09555932837989999,-0.115145020625,-0.11837272205,0.0673363071222,-14803000.0,-17837000.0,-18337000.0,-0.11733985759400001,-0.11837272205
2017-12-31,152899000.0,-0.0996673045782,50230000.0,102669000.0,36418000.0,88419000.0,124837000.0,-22168000.0,567000.0,-22323000.0,603000.0,0.0,0.0,-22926000.0,0.0,-22926000.0,-0.43,-0.43,53227342.0,53227342.0,0.0,0.6714824818999999,-0.124820960242,-0.144984597676,-0.149942118653,0.05705727310190001,-19085000.0,-22168000.0,-22926000.0,-0.145998338773,-0.149942118653
2016-12-31,169825000.0,0.119781879084,55297000.0,114528000.0,41504000.0,109837000.0,151341000.0,-36813000.0,474000.0,-36642000.0,269000.0,0.0,0.0,-36911000.0,0.0,-36911000.0,-0.73,-0.73,50332872.0,50332872.0,0.0,0.6743883409389999,-0.195960547623,-0.216770204622,-0.21734726924800002,-0.09842484910939998,-33279000.0,-36813000.0,-36911000.0,-0.215763285735,-0.21734726924800002
2015-12-31,151659000.0,0.104645572939,50393000.0,101266000.0,36924000.0,109369000.0,146293000.0,-45027000.0,1209000.0,-45843000.0,352000.0,0.0,0.0,-46195000.0,0.0,-46195000.0,-0.98,-0.98,47323253.0,47323253.0,0.0,0.667721665051,-0.271009303767,-0.296896326627,-0.304597814835,-0.047652958281399996,-41101000.0,-45027000.0,-46195000.0,-0.302276818389,-0.304597814835
2014-12-31,137292000.0,0.281485975638,44765000.0,92527000.0,27546000.0,93544000.0,121090000.0,-28563000.0,1843000.0,-30114000.0,441000.0,0.0,0.0,-30555000.0,0.0,-30555000.0,-4.2,-0.85,36097405.0,36097405.0,0.0,0.6739431285140001,-0.189639600268,-0.20804562538199997,-0.222554846604,-0.08108993969060001,-26036000.0,-28563000.0,-30555000.0,-0.21934271479800002,-0.222554846604
2013-12-31,107135000.0,0.50438812048,35681000.0,71454000.0,25742000.0,75462000.0,101204000.0,-29750000.0,604000.0,-32801000.0,426000.0,0.0,0.0,-33227000.0,0.0,-33227000.0,-4.84,-4.84,,6866839.0,0.0,0.667,-0.28600000000000003,-0.3005,-0.31,-0.1427,-30626000.0,-32197000.0,-33227000.0,-0.3062,-0.3101
2012-12-31,71215000.0,1.09727294145,26000000.0,45215000.0,16081000.0,51286000.0,67367000.0,-22152000.0,221000.0,-24399000.0,339000.0,0.0,0.0,-24738000.0,0.0,-24738000.0,-4.2,-4.2,,5884751.0,0.0,0.6349,-0.32799999999999996,-0.3395,-0.34700000000000003,-0.2404,-23338000.0,-24178000.0,-24738000.0,-0.3426,-0.3474
2011-12-31,33956000.0,,13593000.0,20363000.0,9595000.0,25349000.0,34944000.0,-14581000.0,260000.0,-14737000.0,64000.0,0.0,0.0,-14801000.0,0.0,-14801000.0,-2.87,-2.87,,5153514.0,0.0,0.5997,-0.41600000000000004,-0.4263,-0.436,-0.39799999999999996,-14123000.0,-14477000.0,-14801000.0,-0.434,-0.4359
