,0,1,2,3,4,5,6,7,8,9,10,11,12,13,14
Date,Depreciation & Amortization,Stock-based compensation,Operating Cash Flow,Capital Expenditure,Acquisitions and disposals,Investment purchases and sales,Investing Cash flow,Issuance (repayment) of debt,Issuance (buybacks) of shares,Dividend payments,Financing Cash Flow,Effect of forex changes on cash,Net cash flow / Change in cash,Free Cash Flow,Net Cash/Marketcap
2019-12-31,396665.0,941962.0,-5896400.0,363891.0,-0.0,0.0,-363891.0,-0.0,-1307231.0,-0.0,5636932.0,0.0,-623359.0,-6260291.0,0.0
2018-12-31,6696155.0,1922455.0,-6355838.0,12422.0,-0.0,0.0,-12422.0,-120864.0,-2740645.0,-0.0,9031217.0,0.0,2662957.0,-6368260.0,0.0
2017-12-31,139213.0,878404.0,-4202240.0,-10938.0,376000.0,-160000.0,165312.0,2975666.0,0.0,0.0,4058102.0,0.0,21174.0,-4213178.0,0.1611
2016-12-31,151174.0,1510219.0,-3417157.0,-3416.0,0.0,0.0,-372766.0,1376.0,0.0,0.0,2261232.0,0.0,-1528691.0,-3420573.0,0.1611
2015-12-31,,,-2019463.0,-2620.0,,,-77620.0,698512.0,0.0,0.0,3624262.0,,,,
