,0,1,2,3,4,5,6,7,8,9,10,11,12,13,14
Date,Depreciation & Amortization,Stock-based compensation,Operating Cash Flow,Capital Expenditure,Acquisitions and disposals,Investment purchases and sales,Investing Cash flow,Issuance (repayment) of debt,Issuance (buybacks) of shares,Dividend payments,Financing Cash Flow,Effect of forex changes on cash,Net cash flow / Change in cash,Free Cash Flow,Net Cash/Marketcap
2018-12-31,43000000000.0,,10000000.0,-2000000000.0,,,-2000000000.0,,,,-5000000.0,,5000000.0,,
2017-12-31,49000000000.0,,11000000.0,-18000000000.0,,,-18000000000.0,,,,-9000000.0,,2000000.0,,
