,0,1,2,3,4,5,6,7,8,9,10,11,12,13,14,15,16,17,18,19,20,21,22,23,24,25,26,27,28,29,30
Date,Revenue,Revenue Growth,Cost of Revenue,Gross Profit,R&D Expenses,SG&A Expense,Operating Expenses,Operating Income,Interest Expense,Earnings before Tax,Income Tax Expense,Net Income - Non-Controlling int,Net Income - Discontinued ops,Net Income,Preferred Dividends,Net Income Com,EPS,EPS Diluted,Weighted Average Shs Out,Weighted Average Shs Out (Dil),Dividend per Share,Gross Margin,EBITDA Margin,EBIT Margin,Profit Margin,Free Cash Flow margin,EBITDA,EBIT,Consolidated Income,Earnings Before Tax Margin,Net Profit Margin
2019-06-30,217250000.0,0.226196136651,148826521.7391,68423478.2609,0.0,14154202.8986,14154202.8986,54269275.3623,0.0,58280289.8551,15755507.2464,3240434.7826,0.0,42524782.6087,0.0,42524782.6087,1.6464,1.6464,59775399.4203,59775399.4203,0.0,0.315,0.0517,0.2683,0.0284,0.4813,77631014.4928,58280289.8551,45765217.3913,0.2683,0.1957
2018-06-30,177173939.3939,0.414825146087,121920303.0303,55253636.3636,0.0,13320151.5152,13320151.5152,41933484.8485,0.0,43769090.9091,10043636.3636,1259696.9697,0.0,33725454.5455,0.0,33725454.5455,1.3091,1.3091,62304242.4242,62304242.4242,0.0,0.3119,0.0521,0.247,0.0288,0.4349,60977272.7273,43769090.9091,34985151.5152,0.247,0.1904
2017-06-30,125226739.0666,0.27187295908500003,95169063.6924,30057675.3742,0.0,7379953.0379,7379953.0379,22677722.3364,0.0,24617405.3419,0.0,0.0,0.0,24617405.3419,0.0,24617405.3419,0.9627,0.9627,60347519.8122,60347519.8122,0.0,0.24,0.048,0.1966,0.0289,0.2087,40928969.7681,24617405.3419,24617405.3419,0.1966,0.1966
2016-06-30,98458527.7736,0.183521281351,75108234.2315,23350293.5421,0.0,7964172.8135,9512569.6222,13837723.9199,0.0,14967936.1734,0.0,0.0,0.0,14967936.1734,0.0,14967936.1734,0.5781,0.5781,54945054.9451,54945054.9451,0.0,0.2372,0.0381,0.152,0.0229,-0.1982,24901098.9011,14967936.1734,14967936.1734,0.152,0.152
2015-06-30,83191176.4706,0.11567796534800001,54060762.7666,29130413.7039,0.0,7898190.0452,7898190.0452,21232223.6587,0.0,22785067.8733,0.0,0.0,0.0,22785067.8733,0.0,22785067.8733,1.0084,1.0084,62680025.8565,62680025.8565,0.0,0.3502,0.0525,0.2739,0.0443,0.1774,27016968.3258,22785067.8733,22785067.8733,0.2739,0.2739
2014-06-30,74565581.6951,0.0531466569838,48289236.223000005,26276345.4721,0.0,7131324.5247,7131324.5247,19145020.9475,0.0,22667096.3584,0.0,0.0,0.0,22667096.3584,0.0,22667096.3584,1.0055,1.0055,,,0.0,0.3524,0.0577,0.304,0.049,0.3039,26703351.5952,22667096.3584,22667096.3584,0.304,0.304
2013-06-30,70802657.1614,,47596079.0668,23206578.0946,0.0,6595917.0447,6595917.0447,16610661.0499,0.0,19959494.4913,0.0,0.0,0.0,19959494.4913,0.0,19959494.4913,0.8814,0.8814,,,0.0,0.3278,0.0533,0.2819,0.0457,0.3086,23311082.3072,19959494.4913,19959494.4913,0.2819,0.2819
