,0,1,2,3,4,5,6,7,8,9,10,11,12,13,14
Date,Depreciation & Amortization,Stock-based compensation,Operating Cash Flow,Capital Expenditure,Acquisitions and disposals,Investment purchases and sales,Investing Cash flow,Issuance (repayment) of debt,Issuance (buybacks) of shares,Dividend payments,Financing Cash Flow,Effect of forex changes on cash,Net cash flow / Change in cash,Free Cash Flow,Net Cash/Marketcap
2019-06-30,19350724.6377,0.0,116178840.5797,-11613478.2609,0.0,-171462898.5507,-178870434.7826,0.0,0.0,0.0,-1064202.8986,-102028.9855,-79888695.6522,104565362.3188,
2018-06-30,17208181.8182,0.0,90434848.4848,-13386969.697,0.0,29848484.8485,19870454.5455,0.0,0.0,0.0,2819545.4545,-434242.4242,111770454.5455,77047878.7879,
2017-06-30,16311564.4262,0.0,42112268.8582,-15981068.3886,0.0,-58849427.649,-88384355.7382,0.0,0.0,0.0,14617405.3419,364690.3434,-31654681.538000003,26131200.4696,
2016-06-30,9933162.7277,219629.6854,32543880.7768,-52059762.1557,0.0,9032063.8266,-42536203.5225,0.0,18420743.6399,0.0,17239951.829,1427969.291,7247629.0832,-19515881.3789,
2015-06-30,4231900.4525,0.0,38159663.8655,-23403361.3445,0.0,14852456.3672,-7214932.1267,0.0,0.0,0.0,0.0,-17776.3413,30944731.7388,14756302.521,
2014-06-30,4036255.2369,0.0,24072188.205,-1415082.1785,0.0,-25432323.5578,-21546245.5688,0.0,0.0,0.0,0.0,-12246.2133,2525942.6362,22657106.0264,
2013-06-30,3351587.8159,0.0,24386098.5094,-2536941.024,0.0,-22740278.6779,-24762961.7628,0.0,0.0,0.0,0.0,-68535.3208,-376863.2534,21849157.4854,
