,0,1,2,3,4,5,6,7,8,9,10,11,12,13,14,15,16,17,18,19,20,21,22,23,24,25,26,27,28,29,30
Date,Revenue,Revenue Growth,Cost of Revenue,Gross Profit,R&D Expenses,SG&A Expense,Operating Expenses,Operating Income,Interest Expense,Earnings before Tax,Income Tax Expense,Net Income - Non-Controlling int,Net Income - Discontinued ops,Net Income,Preferred Dividends,Net Income Com,EPS,EPS Diluted,Weighted Average Shs Out,Weighted Average Shs Out (Dil),Dividend per Share,Gross Margin,EBITDA Margin,EBIT Margin,Profit Margin,Free Cash Flow margin,EBITDA,EBIT,Consolidated Income,Earnings Before Tax Margin,Net Profit Margin
2019-12-31,1390674000.0,0.0516153376734,844180000.0,546494000.0,0.0,662606000.0,689163000.0,-163164000.0,48778000.0,-209632000.0,4201000.0,0.0,0.0,-213833000.0,0.0,-213833000.0,-1.72,-1.72,124152984.0,124152984.0,0.0,0.39297060274400003,0.0933094312542,-0.117327281592,-0.153762132606,0.156337142997,129763000.0,-163164000.0,-213833000.0,-0.150741295228,-0.153762132606
2018-12-31,1322417000.0,-0.060457076356800005,725437000.0,596980000.0,0.0,649295000.0,684008000.0,-90525000.0,45680000.0,-131860000.0,5597000.0,0.0,0.0,-94155000.0,0.0,-94155000.0,-0.76,-0.76,123444943.0,123444943.0,0.0,0.45143097827699996,0.124107599948,-0.0684542016626,-0.0711991754492,0.0462592359294,164122000.0,-90525000.0,-94155000.0,-0.0997113618473,-0.0711991754492
2017-12-31,1407511000.0,0.025370715058400002,790078000.0,617433000.0,0.0,654860000.0,701098000.0,-113521000.0,42805000.0,-153622000.0,-50435000.0,0.0,0.0,-103187000.0,0.0,-103187000.0,-0.84,-0.84,122949064.0,122949064.0,0.0,0.438670106308,0.120196573952,-0.08065372135639999,-0.07331168282169999,0.05458998188999999,169178000.0,-113521000.0,-103187000.0,-0.109144440079,-0.07331168282169999
2016-12-31,1372685000.0,-0.0306300796789,802309000.0,570376000.0,0.0,699544000.0,760895000.0,-310773000.0,38663000.0,-350050000.0,-65492000.0,0.0,0.0,-284558000.0,0.0,-284558000.0,-2.32,-2.32,122418474.0,122418474.0,0.0,0.415518491132,-0.00613614922579,-0.226397899008,-0.207300291035,0.027827214546699997,-8423000.0,-310773000.0,-284558000.0,-0.255011164251,-0.207300291035
2015-12-31,1416059000.0,0.0318753115172,824181000.0,591878000.0,0.0,681124000.0,762131000.0,-116051000.0,32045000.0,-153509000.0,-19640000.0,0.0,0.0,-133869000.0,0.0,-133869000.0,-0.98,-0.98,136760107.0,136760107.0,0.0,0.41797552220600004,0.132603231927,-0.0819535061745,-0.0945363152242,0.187401796112,187774000.0,-116051000.0,-133869000.0,-0.108405793826,-0.0945363152242
2014-12-31,1372316000.0,-0.00456691222766,824043000.0,548273000.0,0.0,612535000.0,718159000.0,-85411000.0,18245000.0,-105249000.0,6242000.0,0.0,0.0,-111491000.0,0.0,-111491000.0,-0.79,-0.79,140594689.0,140594689.0,0.0,0.399523870595,0.174242667141,-0.0622385806185,-0.0812429498745,0.308892412535,239116000.0,-85411000.0,-111491000.0,-0.0766944348095,-0.0812429498745
2013-12-31,1378612000.0,0.07231489972710001,846362000.0,532250000.0,0.0,580887000.0,609895000.0,-77645000.0,21344000.0,-108839000.0,2347000.0,0.0,0.0,-111186000.0,0.0,-111186000.0,-0.79,-0.79,139955578.0,139928650.0,0.0,0.3861,0.185,-0.0635,-0.081,0.0707,254484000.0,-87495000.0,-111186000.0,-0.0789,-0.0807
2012-12-31,1285641000.0,-0.00745312843792,831424000.0,454217000.0,0.0,533462000.0,597652000.0,-143435000.0,123197000.0,-93082000.0,-5943000.0,0.0,0.0,-87139000.0,0.0,-87139000.0,-0.26,-0.26,139955578.0,340918128.0,0.0,0.3533,0.35700000000000004,0.0234,-0.068,0.0419,458537000.0,30115000.0,-87139000.0,-0.0724,-0.0678
2011-12-31,1295295000.0,,920065000.0,375230000.0,0.0,638023000.0,2412360000.0,-2037130000.0,244582000.0,-2282523000.0,-100153000.0,0.0,0.0,-2182370000.0,0.0,-2182370000.0,-3.85,-3.85,,567272470.0,0.0,0.2897,-1.162,-1.5733,-1.685,0.0239,-1504945000.0,-2037941000.0,-2182370000.0,-1.7622,-1.6848
