,0,1,2,3,4,5,6,7,8,9,10,11,12,13,14,15,16,17,18,19,20,21,22,23,24,25,26,27,28,29,30
Date,Revenue,Revenue Growth,Cost of Revenue,Gross Profit,R&D Expenses,SG&A Expense,Operating Expenses,Operating Income,Interest Expense,Earnings before Tax,Income Tax Expense,Net Income - Non-Controlling int,Net Income - Discontinued ops,Net Income,Preferred Dividends,Net Income Com,EPS,EPS Diluted,Weighted Average Shs Out,Weighted Average Shs Out (Dil),Dividend per Share,Gross Margin,EBITDA Margin,EBIT Margin,Profit Margin,Free Cash Flow margin,EBITDA,EBIT,Consolidated Income,Earnings Before Tax Margin,Net Profit Margin
2018-12-31,146561000.0,0.021110422138799996,24195000.0,122366000.0,0.0,8916000.0,30062000.0,92304000.0,26814000.0,85927000.0,8305000.0,0.0,0.0,77622000.0,12303000.0,65319000.0,1.93,1.93,32920964.0,32920964.0,1.75,0.8349,0.914,0.7692,0.446,0.6205,133887000.0,112741000.0,77622000.0,0.5863,0.5296
2017-12-31,143531000.0,0.5754113295359999,23942000.0,119589000.0,0.0,9910000.0,30964000.0,88625000.0,30085000.0,52660000.0,3878000.0,10408000.0,0.0,48782000.0,2480000.0,46302000.0,1.37,1.37,32911159.0,32911159.0,1.703,0.8332,0.723,0.5765,0.32299999999999995,0.5569,103799000.0,82745000.0,59190000.0,0.3669,0.3399
2016-12-31,91107000.0,0.585434612373,16395000.0,74712000.0,0.0,9718000.0,20270000.0,54442000.0,25178000.0,45249000.0,3872000.0,0.0,0.0,41377000.0,0.0,41377000.0,1.58,1.58,26312120.0,26312120.0,1.652,0.82,0.889,0.773,0.45399999999999996,0.3958,80979000.0,70427000.0,41377000.0,0.4967,0.4542
2015-12-31,57465000.0,-0.229371454626,9679000.0,47786000.0,0.0,8733000.0,11386000.0,36400000.0,17770000.0,41592000.0,313000.0,0.0,0.0,41279000.0,0.0,41279000.0,1.56,1.56,26312120.0,26312120.0,1.3519999999999999,0.8316,1.079,1.033,0.718,0.7279,62015000.0,59362000.0,41279000.0,0.7238,0.7183
2014-12-31,74569000.0,0.445892230431,45906000.0,28663000.0,0.0,12566000.0,13883000.0,14780000.0,9665000.0,1795000.0,481000.0,0.0,0.0,1314000.0,0.0,1314000.0,0.5,0.5,26312120.0,26312120.0,0.183,0.3844,0.171,0.1537,0.018000000000000002,-1.9167,12777000.0,11460000.0,1314000.0,0.0241,0.0176
2013-12-31,51573000.0,8.35649492017,43958000.0,7615000.0,0.0,8043000.0,8051000.0,-436000.0,352000.0,40466000.0,0.0,0.0,0.0,40466000.0,0.0,40466000.0,0.0,0.0,,,0.0,0.1477,0.792,0.7915,0.785,-1.5035,40826000.0,40818000.0,40466000.0,0.7846,0.7846
2012-12-31,5512000.0,,5512000.0,0.0,0.0,3185000.0,3185000.0,-3185000.0,114000.0,4188000.0,0.0,0.0,0.0,4188000.0,0.0,4188000.0,0.0,0.0,,,0.0,0.0,0.78,0.7805,0.76,-11.8656,4302000.0,4302000.0,4188000.0,0.7598,0.7598
