,0,1,2,3,4,5,6,7,8,9,10,11,12,13,14,15,16,17,18,19,20,21,22,23,24,25,26,27,28,29,30
Date,Revenue,Revenue Growth,Cost of Revenue,Gross Profit,R&D Expenses,SG&A Expense,Operating Expenses,Operating Income,Interest Expense,Earnings before Tax,Income Tax Expense,Net Income - Non-Controlling int,Net Income - Discontinued ops,Net Income,Preferred Dividends,Net Income Com,EPS,EPS Diluted,Weighted Average Shs Out,Weighted Average Shs Out (Dil),Dividend per Share,Gross Margin,EBITDA Margin,EBIT Margin,Profit Margin,Free Cash Flow margin,EBITDA,EBIT,Consolidated Income,Earnings Before Tax Margin,Net Profit Margin
2017-12-31,6759700.0,0.0,4860927.0,1898773.0,133462.0,3602267.0,3995108.0,-2096335.0,5210413.0,-7395736.0,-14665.0,0.0,0.0,-7381071.0,0.0,-7381071.0,-2.74,-2.74,2691448.0,2691448.0,0.0,0.28089604568300003,0.320065091646,-0.310122490643,-1.0919228664,-0.317377546341,2163544.0,-2096335.0,-7381071.0,-1.0940923413799999,-1.0919228664
2016-12-31,6759700.0,-0.30573907099,4860927.0,1898773.0,0.0,3735729.0,3995108.0,-2096335.0,5210413.0,-7395736.0,-14665.0,0.0,0.0,-7381071.0,0.0,-7381071.0,-2.74,-2.74,2691448.0,2691448.0,0.0,0.28089604568300003,0.320065091646,-0.310122490643,-1.0919228664,-0.317377546341,2163544.0,-2096335.0,-7381071.0,-1.0940923413799999,-1.0919228664
2015-12-31,9736541.0,-0.08505611096589999,6989991.0,2746550.0,0.0,2436957.0,2794013.0,-47463.0,0.0,-2038872.0,71245.0,0.0,0.0,-2110117.0,0.0,-2110117.0,-0.91,-0.91,2330438.0,2330438.0,0.0,0.282086831453,-0.00353801211334,-0.00487472912608,-0.216721420882,-0.0306182657681,-34448.0,-47463.0,-2110117.0,-0.209404140546,-0.216721420882
2014-12-31,10641681.0,-0.199337526366,8468103.0,2173578.0,0.0,2345168.0,2356297.0,-182719.0,0.0,-169171.0,8541.0,0.0,0.0,-177712.0,0.0,-177712.0,-0.08,-0.08,2330438.0,2330438.0,0.07999998283580001,0.204251377203,-0.0161243322366,-0.0171701256597,-0.0166996172879,0.074063204864,-171590.0,-182719.0,-177712.0,-0.0158970185256,-0.0166996172879
2013-12-31,13291095.0,0.07455582217360002,10558446.0,2732649.0,0.0,2346926.0,2357521.0,375128.0,0.0,381565.0,-1446.0,0.0,0.0,383011.0,0.0,383011.0,0.16,0.16,2330438.0,2330438.0,0.0899998197764,0.205599990069,0.0290211604085,0.028224010136099997,0.0288171140151,-0.147007752183,385723.0,375128.0,383011.0,0.028708319367200003,0.0288171140151
2012-12-31,12368920.0,-0.0685742105063,9582191.0,2786729.0,0.0,2266666.0,2280758.0,505971.0,0.0,432848.0,11155.0,0.0,0.0,421693.0,0.0,421693.0,0.18,0.18,2330438.0,2330438.0,0.0,0.22530091552099998,0.042045950657,0.0409066434256,0.0340929523354,0.0750420408572,520063.0,505971.0,421693.0,0.034994809571099995,0.0340929523354
2011-12-31,13279555.0,0.0,10532901.0,2746654.0,0.0,3639720.0,3688038.0,-941384.0,0.0,-935358.0,4472.0,0.0,0.0,-939830.0,0.0,-939830.0,-0.56,-0.56,0.0,0.0,0.0,0.206833286206,-0.067251199306,-0.07088972484389999,-0.0707727028504,-0.126028997207,-893066.0,-941384.0,-939830.0,-0.070435944578,-0.0707727028504
2010-12-31,13279555.0,-0.108214239905,10532901.0,2746654.0,0.0,3639720.0,3688038.0,-941384.0,0.0,-935358.0,4472.0,0.0,0.0,-939830.0,0.0,-939830.0,-140.0,-140.0,9322.0,9322.0,0.0,0.2068,-0.067,-0.0704,-0.071,-0.127,-887040.0,-935358.0,-939830.0,-0.0704,-0.0708
2009-12-31,14890970.0,-0.2422,11201957.0,3689013.0,0.0,5623108.0,5747770.0,-2058757.0,0.0,-2053746.0,21931.0,0.0,0.0,-2075677.0,0.0,-2075677.0,-525.0,-525.0,3835.0,3835.0,0.0,0.2477,-0.13,-0.1379,-0.139,-0.0358,-1929084.0,-2053746.0,-2075677.0,-0.1379,-0.1394
