,0,1,2,3,4,5,6,7,8,9,10,11,12,13,14,15,16,17,18,19,20,21,22,23,24,25,26,27,28,29,30
Date,Revenue,Revenue Growth,Cost of Revenue,Gross Profit,R&D Expenses,SG&A Expense,Operating Expenses,Operating Income,Interest Expense,Earnings before Tax,Income Tax Expense,Net Income - Non-Controlling int,Net Income - Discontinued ops,Net Income,Preferred Dividends,Net Income Com,EPS,EPS Diluted,Weighted Average Shs Out,Weighted Average Shs Out (Dil),Dividend per Share,Gross Margin,EBITDA Margin,EBIT Margin,Profit Margin,Free Cash Flow margin,EBITDA,EBIT,Consolidated Income,Earnings Before Tax Margin,Net Profit Margin
2019-12-31,189390000.0,-0.0646437408324,0.0,0.0,28325000.0,33862000.0,63821000.0,48708000.0,88216000.0,48708000.0,7988000.0,0.0,0.0,17512000.0,505000.0,17512000.0,0.66,0.65,25573488.0,25770783.0,0.0,0.0,0.465742647447,0.257183589419,0.09246528327789999,1.35473361846,88207000.0,48708000.0,17512000.0,0.257183589419,0.09246528327789999
2018-12-31,202479000.0,0.0413550849114,0.0,0.0,35139000.0,53753000.0,90517000.0,45865000.0,68223000.0,45865000.0,5838000.0,0.0,0.0,40027000.0,0.0,40027000.0,1.48,1.47,26970916.0,27168135.0,0.0,0.0,0.349458462359,0.22651731784499998,0.19768469816599998,1.36452175287,70758000.0,45865000.0,40027000.0,0.22651731784499998,0.19768469816599998
2017-12-31,194438000.0,0.0799171336692,0.0,0.0,33143000.0,65036000.0,99889000.0,66189000.0,43245000.0,66189000.0,-2757000.0,0.0,0.0,68946000.0,0.0,68946000.0,2.57,2.54,26864657.0,27092019.0,0.0,0.0,0.456875713595,0.34041185365000004,0.354591180736,0.608327590286,88834000.0,66189000.0,68946000.0,0.34041185365000004,0.354591180736
2016-12-31,180049000.0,0.213775296957,0.0,0.0,33063000.0,63206000.0,98435000.0,90777000.0,29488000.0,90777000.0,32626000.0,0.0,0.0,58151000.0,0.0,58151000.0,2.36,2.34,24615990.0,24843683.0,0.0,0.0,0.591194619243,0.504179417825,0.322973190631,-0.38486745274899997,106444000.0,90777000.0,58151000.0,0.504179417825,0.322973190631
2015-12-31,148338000.0,0.503390122531,0.0,0.0,29054000.0,58745000.0,87799000.0,56907000.0,16776000.0,56907000.0,15588000.0,0.0,0.0,41319000.0,0.0,41319000.0,1.98,1.96,20818045.0,21059201.0,0.0,0.0,0.48392185414399996,0.383630627351,0.27854629292599997,-0.08257493022689999,71784000.0,56907000.0,41319000.0,0.383630627351,0.27854629292599997
2014-12-31,98669000.0,0.325412390522,0.0,0.0,20052000.0,42833000.0,62885000.0,33315000.0,12624000.0,33315000.0,11056000.0,0.0,0.0,22259000.0,0.0,22259000.0,1.5,1.49,14800689.0,14961081.0,0.108815666462,0.0,0.515035117413,0.337644042202,0.225592638012,-3.73505356292,50818000.0,33315000.0,22259000.0,0.337644042202,0.225592638012
2013-12-31,74444000.0,0.225556854288,0.0,0.0,14491000.0,40366000.0,54857000.0,34794000.0,14532000.0,34794000.0,10985000.0,0.0,0.0,23809000.0,0.0,23809000.0,1.65,1.61,14412059.0,14798168.0,0.320715375038,0.0,0.668166675622,0.46738487991000005,0.319824297458,3.7772553866000003,49741000.0,34794000.0,23809000.0,0.46738487991000005,0.319824297458
2012-12-31,60743000.0,-0.573430993195,0.0,0.0,8867000.0,27352000.0,36219000.0,103672000.0,19948000.0,103672000.0,21546000.0,0.0,0.0,82126000.0,0.0,82126000.0,6.17,5.98,13312939.0,13739398.0,0.0,0.0,1.7865597681999998,1.70673163986,1.3520241015399999,-6.638987208400001,108521000.0,103672000.0,82126000.0,1.70673163986,1.3520241015399999
2011-12-31,142399000.0,0.540281233099,0.0,142399000.0,0.0,90679000.0,126494000.0,15905000.0,0.0,15905000.0,-214000.0,0.0,0.0,16119000.0,0.0,16119000.0,2.98,2.8,11933840.0,5403498.0,0.0,1.0,0.153,0.1117,0.113,0.611,21761000.0,15905000.0,16119000.0,0.1117,0.1132
2010-12-31,92450000.0,-2.47253237341,0.0,92450000.0,0.0,86185000.0,126000000.0,-33550000.0,0.0,-33550000.0,697000.0,0.0,0.0,-34247000.0,0.0,-34247000.0,-6.34,-6.34,11933840.0,5403498.0,0.0,1.0,-0.23399999999999999,-0.3629,-0.37,-0.4906,-21625000.0,-33550000.0,-34247000.0,-0.3629,-0.3704
2009-12-31,-62783000.0,-1.7673,0.0,-62783000.0,0.0,73203000.0,92439000.0,-155222000.0,0.0,-157231000.0,-46955000.0,0.0,0.0,-110276000.0,0.0,-110276000.0,-20.41,-20.41,,5403498.0,0.0,1.0,2.155,2.5044,1.756,0.4285,-135273000.0,-157231000.0,-110276000.0,2.5044,1.7565
