,0,1,2,3,4,5,6,7,8,9,10,11,12,13,14,15,16,17,18,19,20,21,22,23,24,25,26,27,28
Date,Cash and cash equivalents,Short-term investments,Cash and short-term investments,Receivables,Inventories,Total current assets,Property Plant & Equipment Net,Goodwill and Intangible Assets,Long-term investments,Tax assets,Total non-current assets,Total assets,Payables,Short-term debt,Total current liabilities,Long-term debt,Total debt,Deferred revenue,Tax Liabilities,Deposit Liabilities,Total non-current liabilities,Total liabilities,Other comprehensive income,Retained earnings (deficit),Total shareholders equity,Investments,Net Debt,Other Assets,Other Liabilities
2019-04-30,817000.0,,817000.0,3645000.0,,,,,,,,,,,,61000000.0,,,,,,,,-35947000.0,,,,,
2018-04-30,383000.0,,383000.0,2089000.0,,,,,,,,,,,,64000000.0,,,,,,,,-33999000.0,,,,,
2017-04-30,,,,2293000.0,,,,,,,,,,,,57000000.0,,,,,,,,-54363000.0,,,,,
2016-04-30,,,,3806000.0,,,,,,,,,,,,57000000.0,,,,,,,,-50499000.0,,,,,
