,0,1,2,3,4,5,6,7,8,9,10,11,12,13,14,15,16,17,18,19,20,21,22,23,24,25,26,27,28
Date,Cash and cash equivalents,Short-term investments,Cash and short-term investments,Receivables,Inventories,Total current assets,Property Plant & Equipment Net,Goodwill and Intangible Assets,Long-term investments,Tax assets,Total non-current assets,Total assets,Payables,Short-term debt,Total current liabilities,Long-term debt,Total debt,Deferred revenue,Tax Liabilities,Deposit Liabilities,Total non-current liabilities,Total liabilities,Other comprehensive income,Retained earnings (deficit),Total shareholders equity,Investments,Net Debt,Other Assets,Other Liabilities
2019-12-31,211616000.0,239473000.0,451089000.0,9807000.0,0.0,460896000.0,47951000.0,75837000.0,0.0,6034000.0,3598025000.0,4058921000.0,0.0,183000000.0,186052000.0,171132000.0,354132000.0,0.0,3052000.0,2942873000.0,181811000.0,3393127000.0,426374000.0,237356000.0,665794000.0,239473000.0,142516000.0,0.0,3025264000.0
2018-12-31,105521000.0,0.0,105521000.0,0.0,0.0,162827000.0,57045000.0,78467000.0,278950000.0,6727000.0,,3653121000.0,0.0,90000000.0,3075046000.0,173735000.0,553735000.0,0.0,0.0,2689612000.0,,3295547000.0,-2358000.0,219088000.0,357574000.0,3321057000.0,158214000.0,57306000.0,2985046000.0
2017-12-31,80791000.0,0.0,80791000.0,0.0,0.0,150804000.0,24487000.0,13497000.0,233254000.0,843000.0,,2684920000.0,0.0,111250000.0,2176999000.0,135115000.0,290365000.0,0.0,0.0,2018959000.0,,2341436000.0,-528000.0,207590000.0,343484000.0,2502782000.0,,,2065749000.0
2016-12-31,50215000.0,0.0,50215000.0,0.0,0.0,146998000.0,24193000.0,13585000.0,83231000.0,610000.0,,2448310000.0,0.0,40000000.0,1931156000.0,155119000.0,275119000.0,0.0,0.0,1809787000.0,,2118926000.0,-1290000.0,197211000.0,329384000.0,2300662000.0,,,1891156000.0
2015-12-31,40652000.0,0.0,40652000.0,0.0,0.0,114603000.0,24606000.0,13674000.0,90175000.0,0.0,,2163142000.0,0.0,45000000.0,1742694000.0,204598000.0,249598000.0,0.0,989000.0,1695698000.0,,1972454000.0,-592000.0,191280000.0,190688000.0,2028606000.0,,,1697694000.0
2014-12-31,52983000.0,,,0.0,0.0,,25230000.0,3324000.0,,3721000.0,,2041879000.0,0.0,,,,329602000.0,0.0,0.0,1503625000.0,,1858421000.0,-417000.0,183458000.0,183458000.0,1906718000.0,,,
