,0,1,2,3,4,5,6,7,8,9,10,11,12,13,14
Date,Depreciation & Amortization,Stock-based compensation,Operating Cash Flow,Capital Expenditure,Acquisitions and disposals,Investment purchases and sales,Investing Cash flow,Issuance (repayment) of debt,Issuance (buybacks) of shares,Dividend payments,Financing Cash Flow,Effect of forex changes on cash,Net cash flow / Change in cash,Free Cash Flow,Net Cash/Marketcap
2019-12-31,1400000.0,5565000.0,-41731000.0,1999000.0,-0.0,0.0,-1999000.0,-800000.0,-38395000.0,-0.0,109751000.0,-1026000.0,66021000.0,-43730000.0,0.0
2018-12-31,640000.0,867000.0,-14998000.0,-2150000.0,0.0,0.0,-2150000.0,425000.0,9000.0,0.0,6873000.0,-2507000.0,-10275000.0,-17148000.0,0.1635
2017-12-31,398000.0,770000.0,-11913000.0,-1297000.0,0.0,0.0,-1297000.0,747000.0,0.0,0.0,58892000.0,2494000.0,45682000.0,-13210000.0,0.1635
