,0,1,2,3,4,5,6,7,8,9,10,11,12,13,14,15,16,17,18,19,20,21,22,23,24,25,26,27,28
Date,Cash and cash equivalents,Short-term investments,Cash and short-term investments,Receivables,Inventories,Total current assets,Property Plant & Equipment Net,Goodwill and Intangible Assets,Long-term investments,Tax assets,Total non-current assets,Total assets,Payables,Short-term debt,Total current liabilities,Long-term debt,Total debt,Deferred revenue,Tax Liabilities,Deposit Liabilities,Total non-current liabilities,Total liabilities,Other comprehensive income,Retained earnings (deficit),Total shareholders equity,Investments,Net Debt,Other Assets,Other Liabilities
2019-12-31,698567000.0,49090000.0,747657000.0,12181863000.0,0.0,12929520000.0,52012000.0,476333000.0,415437000.0,31663000.0,2737920000.0,15667440000.0,1355000.0,199458000.0,200954000.0,199458000.0,398916000.0,0.0,141000.0,12527364000.0,221126000.0,13627440000.0,1268235000.0,762480000.0,2040000000.0,464527000.0,-299651000.0,0.0,13205360000.0
2018-12-31,459606000.0,1846265000.0,2305871000.0,32225000.0,0.0,2338096000.0,53794000.0,478511000.0,240240000.0,50913000.0,12967856000.0,15305952000.0,1098000.0,194543000.0,197955000.0,194543000.0,389086000.0,0.0,2314000.0,12155656000.0,214336000.0,13405952000.0,1270194000.0,662375000.0,1900000000.0,2086505000.0,-70520000.0,0.0,12993661000.0
2017-12-31,492000000.0,1720257000.0,2212257000.0,29979000.0,0.0,2242236000.0,56714000.0,480973000.0,306473000.0,55203000.0,11964481000.0,14206717000.0,444000.0,100853000.0,103422000.0,1227593000.0,1328446000.0,0.0,2125000.0,10846609000.0,1244599000.0,12278462000.0,1405014000.0,544886000.0,1928255000.0,2026730000.0,836446000.0,0.0,10930441000.0
2016-12-31,437334000.0,1556740000.0,1994074000.0,26880000.0,0.0,2020954000.0,55316000.0,482223000.0,268507000.0,88110000.0,11420468000.0,13441422000.0,461000.0,99808000.0,102456000.0,754290000.0,854098000.0,0.0,2187000.0,10642035000.0,780543000.0,11585949000.0,1400490000.0,469505000.0,1855473000.0,1825247000.0,416764000.0,0.0,10702950000.0
2015-12-31,298389000.0,1010556000.0,1308945000.0,15195000.0,0.0,1324140000.0,34575000.0,108220000.0,203455000.0,67004000.0,6588508000.0,7912648000.0,376000.0,42327000.0,44519000.0,530591000.0,572918000.0,0.0,1816000.0,6340976000.0,545258000.0,6974553000.0,541596000.0,398251000.0,938095000.0,1214011000.0,274529000.0,0.0,6384776000.0
2014-12-31,462160000.0,796523000.0,1258683000.0,13634000.0,0.0,1272317000.0,30722000.0,109288000.0,376041000.0,63023000.0,5868013000.0,7140330000.0,1544000.0,42158000.0,45518000.0,480975000.0,523133000.0,0.0,1816000.0,5693452000.0,498052000.0,6257557000.0,541589000.0,339400000.0,882773000.0,1172564000.0,60973000.0,0.0,5713987000.0
2013-12-31,316705000.0,705751000.0,1022456000.0,13403000.0,0.0,1035859000.0,30894000.0,110585000.0,220644000.0,89297000.0,5439340000.0,6475199000.0,3631000.0,57410000.0,62330000.0,421352000.0,478762000.0,0.0,1289000.0,5148057000.0,436080000.0,5665825000.0,540876000.0,278604000.0,809374000.0,926395000.0,162057000.0,0.0,5167415000.0
2012-12-31,312916000.0,704403000.0,1017319000.0,12117000.0,0.0,1029436000.0,22609000.0,92911000.0,224410000.0,60240000.0,4611225000.0,5640661000.0,1387000.0,41846000.0,43981000.0,0.0,41846000.0,0.0,748000.0,4384035000.0,21486000.0,4889557000.0,525354000.0,216590000.0,751104000.0,928813000.0,-271070000.0,0.0,4824090000.0
2011-12-31,300110000.0,740920000.0,1041030000.0,13439000.0,0.0,1054469000.0,20913000.0,94749000.0,217800000.0,72604000.0,4112135000.0,5166604000.0,0.0,52102000.0,52102000.0,0.0,52102000.0,0.0,0.0,3940892000.0,0.0,4370665000.0,643994000.0,142909000.0,795939000.0,958720000.0,-248008000.0,0.0,4318563000.0
2010-12-31,172331000.0,,,0.0,0.0,,10915000.0,3043000.0,,37072000.0,,2963296000.0,0.0,,,,412554000.0,0.0,0.0,2176114000.0,,2604733000.0,2597000.0,120361000.0,358563000.0,2672696000.0,,,
2009-12-31,125592000.0,,,0.0,0.0,,10865000.0,3551000.0,,28875000.0,,3227957000.0,0.0,,,,399756000.0,0.0,0.0,2434190000.0,,2859982000.0,2977000.0,131891000.0,367975000.0,2973789000.0,,,
