,0,1,2,3,4,5,6,7,8,9,10,11,12,13,14
Date,Depreciation & Amortization,Stock-based compensation,Operating Cash Flow,Capital Expenditure,Acquisitions and disposals,Investment purchases and sales,Investing Cash flow,Issuance (repayment) of debt,Issuance (buybacks) of shares,Dividend payments,Financing Cash Flow,Effect of forex changes on cash,Net cash flow / Change in cash,Free Cash Flow,Net Cash/Marketcap
2018-12-31,113089000.0,3692000.0,-42352000.0,7915000.0,-0.0,0.0,-52524000.0,-0.0,-224936000.0,-0.0,133805000.0,-842000.0,38087000.0,-50267000.0,0.0
2017-12-31,120020000.0,6999000.0,-14658000.0,1687000.0,-0.0,0.0,-21300000.0,-5636000.0,-186849000.0,-0.0,6226000.0,-446000.0,-30178000.0,-16345000.0,0.0
2016-12-31,124927000.0,9983000.0,53050000.0,20689000.0,-0.0,0.0,-97011000.0,-1102000.0,0.0,-0.0,198000.0,989000.0,-42774000.0,32361000.0,0.0
2015-12-31,118704000.0,10293000.0,215843000.0,86792000.0,-0.0,0.0,-141349000.0,-2089000.0,0.0,-0.0,1023000.0,-839000.0,74678000.0,129051000.0,0.0
2014-12-31,123604000.0,10324000.0,163106000.0,55089000.0,-0.0,-25000000.0,-401515000.0,-0.0,-25000000.0,-0.0,-19664000.0,-107000.0,-254168000.0,108017000.0,0.0
2013-12-31,102788000.0,11888000.0,207067000.0,73593000.0,-0.0,0.0,-526630000.0,-7807000.0,-439291000.0,-0.0,-61344000.0,-537000.0,-137387000.0,133474000.0,0.0
2012-12-31,107682000.0,10891000.0,145440000.0,17641000.0,-0.0,0.0,-259777000.0,-16186000.0,-576678000.0,-0.0,334345000.0,-179000.0,219829000.0,127799000.0,0.0
2011-12-31,97471000.0,6525000.0,63735000.0,29028000.0,-0.0,0.0,-62299000.0,-3273000.0,-115349000.0,-0.0,228830000.0,-383000.0,229883000.0,34707000.0,0.0
2010-12-31,92254000.0,8710000.0,131012000.0,24169000.0,-0.0,0.0,-56987000.0,-89000.0,-126966000.0,-0.0,1866000.0,56000.0,75947000.0,106843000.0,0.0
2009-12-31,93369000.0,8704000.0,183244000.0,-273646000.0,0.0,0.0,-263050000.0,117808000.0,2296000.0,0.0,110590000.0,19000.0,30803000.0,-90402000.0,-1.1442
