,0,1,2,3,4,5,6,7,8,9,10,11,12,13,14,15,16,17,18,19,20,21,22,23,24,25,26,27,28,29,30
Date,Revenue,Revenue Growth,Cost of Revenue,Gross Profit,R&D Expenses,SG&A Expense,Operating Expenses,Operating Income,Interest Expense,Earnings before Tax,Income Tax Expense,Net Income - Non-Controlling int,Net Income - Discontinued ops,Net Income,Preferred Dividends,Net Income Com,EPS,EPS Diluted,Weighted Average Shs Out,Weighted Average Shs Out (Dil),Dividend per Share,Gross Margin,EBITDA Margin,EBIT Margin,Profit Margin,Free Cash Flow margin,EBITDA,EBIT,Consolidated Income,Earnings Before Tax Margin,Net Profit Margin
2019-10-31,2016916000.0,0.012898038552000002,1681790000.0,335126000.0,0.0,166784000.0,255279000.0,-39668000.0,161115000.0,-39668000.0,2449000.0,0.0,0.0,-42117000.0,0.0,-42117000.0,-7.06,-7.06,5968000.0,5968000.0,0.0,0.166157638692,-0.0135692314405,-0.0196676510078,-0.0208818810501,-0.125504483082,-27368000.0,-39668000.0,-42117000.0,-0.0196676510078,-0.0208818810501
2018-10-31,1991233000.0,-0.187803798643,1630741000.0,360492000.0,0.0,159202000.0,260915000.0,8146000.0,164086000.0,8146000.0,3626000.0,0.0,0.0,4520000.0,0.0,4520000.0,0.03,0.03,148515000.0,151786000.0,0.0,0.18103958702999998,0.010106300970299999,0.0040909326030700004,0.0022699503272600005,-0.0361660338092,20124000.0,8146000.0,4520000.0,0.0040909326030700004,0.0022699503272600005
2017-10-31,2451665000.0,-0.109213308253,0.0,0.0,0.0,196320000.0,293624000.0,-45244000.0,185210000.0,-45244000.0,286949000.0,0.0,0.0,-332193000.0,0.0,-332193000.0,-2.25,-2.25,147703000.0,147703000.0,0.0,0.0,-0.0110618701984,-0.018454397317700003,-0.135496897007,0.118725437611,-27120000.0,-45244000.0,-332193000.0,-0.018454397317700003,-0.135496897007
2016-10-31,2752247000.0,0.281020535448,0.0,0.0,0.0,192938000.0,283905000.0,2436000.0,182595000.0,2436000.0,5255000.0,0.0,0.0,-2819000.0,0.0,-2819000.0,-0.02,-0.02,147451.0,147451.0,0.0,0.0,0.006842045790220001,0.0008850949787569999,-0.0010242540004600001,0.137944741152,18831000.0,2436000.0,-2819000.0,0.0008850949787569999,-0.0010242540004600001
2015-10-31,2148480000.0,0.0412430090434,0.0,0.0,0.0,188403000.0,280238000.0,-21765000.0,150382000.0,-21765000.0,-5665000.0,0.0,0.0,-16100000.0,0.0,-16100000.0,-0.11,-0.11,146899000.0,146899000.0,0.0,0.0,-0.0031138293118899998,-0.0101304177837,-0.0074936699434,-0.150147546172,-6690000.0,-21765000.0,-16100000.0,-0.0101304177837,-0.0074936699434
2014-10-31,2063380000.0,0.114585634703,0.0,0.0,0.0,191537000.0,278915000.0,20180000.0,141225000.0,20180000.0,-286964000.0,0.0,0.0,307144000.0,0.0,307144000.0,2.05,1.87,146271000.0,162441000.0,0.0,0.0,0.0164375926877,0.009780069594549998,0.148854791653,-0.09402436778489999,33917000.0,20180000.0,307144000.0,0.009780069594549998,0.148854791653
2013-10-31,1851253000.0,0.246338749105,0.0,0.0,0.0,0.0,91344000.0,21935000.0,144073000.0,21935000.0,-9360000.0,0.0,0.0,31295000.0,0.0,31295000.0,0.22,0.22,145087.0,162329.0,0.0,0.0,0.0186306247714,0.011848731642799998,0.0169047666634,0.00416474679582,34490000.0,21935000.0,31295000.0,0.011848731642799998,0.0169047666634
2012-10-31,1485353000.0,0.308788297191,0.0,0.0,0.0,0.0,0.0,-66197000.0,152986000.0,0.0,-35051000.0,0.0,0.0,-66197000.0,0.0,-66197000.0,-0.52,-0.52,126350000.0,126350000.0,0.0,0.0,-0.0353707165906,-0.044566510452399996,-0.044566510452399996,-0.04851170058569999,-52538000.0,-66197000.0,-66197000.0,0.0,-0.044566510452399996
2011-10-31,1134907000.0,-0.172713038382,0.0,0.0,0.0,0.0,0.0,-286087000.0,0.0,0.0,-5501000.0,0.0,0.0,-286087000.0,0.0,-286087000.0,-2.85,-2.85,100444000.0,100444000.0,0.0,0.0,-0.238521746716,-0.25207968582400003,-0.25207968582400003,-0.18348728133699999,-270700000.0,-286087000.0,-286087000.0,0.0,-0.25207968582400003
2010-10-31,1371842000.0,-0.140606030233,1324188000.0,47654000.0,0.0,238231000.0,247946000.0,-200292000.0,97919000.0,-295282000.0,-297870000.0,0.0,0.0,2588000.0,0.0,2588000.0,0.75,0.75,3107153.0,3147640.0,0.0,0.0347,-0.135,-0.1439,0.002,0.0222,-184787000.0,-197363000.0,2588000.0,-0.2152,0.0019
2009-10-31,1596290000.0,-0.5175,2163376000.0,-567086000.0,0.0,321586000.0,345127000.0,-912213000.0,94655000.0,-672019000.0,44693000.0,0.0,0.0,-716712000.0,0.0,-716712000.0,-229.0,-229.0,3088968.0,3129520.0,0.0,-0.3553,-0.35,-0.3617,-0.449,-0.0184,-558837000.0,-577364000.0,-716712000.0,-0.42100000000000004,-0.449
