,0,1,2,3,4,5,6,7,8,9,10,11,12,13,14
Date,Depreciation & Amortization,Stock-based compensation,Operating Cash Flow,Capital Expenditure,Acquisitions and disposals,Investment purchases and sales,Investing Cash flow,Issuance (repayment) of debt,Issuance (buybacks) of shares,Dividend payments,Financing Cash Flow,Effect of forex changes on cash,Net cash flow / Change in cash,Free Cash Flow,Net Cash/Marketcap
2019-12-31,400132.0,758053.0,4957813.0,0.0,-0.0,-8368926.0,9812905.0,-5535797.0,-8368926.0,-0.0,-11874585.0,0.0,2896133.0,4957813.0,0.0
2018-12-28,323852.0,332089.0,2622950.0,0.0,-0.0,-1829153.0,-116903.0,-0.0,-1829153.0,-0.0,-2283821.0,0.0,222226.0,2622950.0,0.0
2017-12-29,386413.0,156790.0,4747668.0,0.0,-0.0,-375218.0,-103665.0,-0.0,-375218.0,-0.0,90064.0,0.0,4734067.0,4747668.0,0.0
2016-12-30,298300.0,147168.0,13174.0,0.0,-1980000.0,-1528665.0,-2080609.0,-417190.0,-1528665.0,-0.0,-2539248.0,0.0,-4606683.0,13174.0,0.0
2015-12-25,171511.0,741656.0,3334253.0,0.0,-0.0,-1615710.0,-297121.0,-0.0,-1615710.0,-0.0,-4007957.0,0.0,-970825.0,3334253.0,0.0
2014-12-26,540746.0,420408.0,7758143.0,0.0,-0.0,0.0,-245709.0,-0.0,-8600249.0,-0.0,-4732494.0,0.0,2779940.0,7758143.0,0.0
2013-12-27,351240.0,104724.0,5207277.0,0.0,-0.0,0.0,-18595.0,-0.0,-5820309.0,-0.0,-1001366.0,0.0,4187316.0,5207277.0,0.0
2012-12-28,370768.0,0.0,0.0,0.0,-0.0,0.0,0.0,-0.0,0.0,-0.0,0.0,0.0,0.0,0.0,0.0
2011-12-30,431425.0,0.0,0.0,0.0,-0.0,0.0,0.0,-0.0,0.0,-0.0,0.0,0.0,0.0,0.0,0.0
2010-12-31,569905.0,197954.0,2640352.0,74801.0,-150000.0,0.0,-75199.0,-1372843.0,420000.0,0.0,-967843.0,0.0,1597310.0,2715153.0,0.0823
2009-12-25,786142.0,24720.0,-1431681.0,-17577.0,0.0,0.0,-17577.0,-707731.0,52000.0,0.0,-655731.0,0.0,-2104989.0,-1449258.0,-0.6975
