,0,1,2,3,4,5,6,7,8,9,10,11,12,13,14,15,16,17,18,19,20,21,22,23,24,25,26,27,28
Date,Cash and cash equivalents,Short-term investments,Cash and short-term investments,Receivables,Inventories,Total current assets,Property Plant & Equipment Net,Goodwill and Intangible Assets,Long-term investments,Tax assets,Total non-current assets,Total assets,Payables,Short-term debt,Total current liabilities,Long-term debt,Total debt,Deferred revenue,Tax Liabilities,Deposit Liabilities,Total non-current liabilities,Total liabilities,Other comprehensive income,Retained earnings (deficit),Total shareholders equity,Investments,Net Debt,Other Assets,Other Liabilities
2018-09-30,0.0,,0.0,11192000.0,,,,,,,,,,,,0.0,,,,,,,,141708000.0,,,,,
2017-09-30,615000.0,,615000.0,18000.0,,,,,,,,,,,,0.0,,,,,,,,,,,,,
2016-09-30,10000.0,,10000.0,9855000.0,,,,,,,,,,,,0.0,,,,,,,,,,,,,
2015-09-30,0.0,,0.0,1267000.0,,,,,,,,,,,,0.0,,,,,,,,,,,,,
