,0,1,2,3,4,5,6,7,8,9,10,11,12,13,14
Date,Depreciation & Amortization,Stock-based compensation,Operating Cash Flow,Capital Expenditure,Acquisitions and disposals,Investment purchases and sales,Investing Cash flow,Issuance (repayment) of debt,Issuance (buybacks) of shares,Dividend payments,Financing Cash Flow,Effect of forex changes on cash,Net cash flow / Change in cash,Free Cash Flow,Net Cash/Marketcap
2018-12-31,295144000.0,49286000.0,1599993000.0,328601000.0,-1338459000.0,-247500000.0,-1502894000.0,-910844000.0,-247500000.0,-562521000.0,116108000.0,-5388000.0,207819000.0,1271392000.0,0.0
2017-12-31,261853000.0,51061000.0,1249515000.0,257675000.0,-0.0,-300312000.0,-328664000.0,-0.0,-300312000.0,-526272000.0,-843768000.0,6129000.0,83212000.0,991840000.0,0.0
2016-12-31,301837000.0,54785000.0,983475000.0,269476000.0,-285374000.0,-592550000.0,-595454000.0,-500000000.0,-592550000.0,-499475000.0,-434443000.0,-3140000.0,-49562000.0,713999000.0,0.0
2015-12-31,244928000.0,51533000.0,1214456000.0,329707000.0,-218654000.0,-582623000.0,-477255000.0,-355446000.0,-582623000.0,-476132000.0,-755162000.0,-10364000.0,-28325000.0,884749000.0,0.0
2014-12-31,211532000.0,54068000.0,838221000.0,345947000.0,-396265000.0,-576755000.0,-862573000.0,-118957000.0,-576755000.0,-440414000.0,-719302000.0,0.0,-743654000.0,492274000.0,0.0
2013-12-31,201033000.0,53967000.0,1188405000.0,323551000.0,-0.0,-305564000.0,-351580000.0,-305112000.0,-305564000.0,-393801000.0,-446589000.0,0.0,390236000.0,864854000.0,0.0
2012-12-31,210037000.0,50500000.0,1094827000.0,258727000.0,-0.0,-510630000.0,-473369000.0,-177079000.0,-510630000.0,255596000.0,-586872000.0,0.0,34586000.0,836100000.0,0.0
2011-12-31,215763000.0,0.0,580867000.0,323961000.0,-0.0,-384515000.0,-333005000.0,-267023000.0,-384515000.0,-228269000.0,-438818000.0,0.0,-190956000.0,256906000.0,0.0
2010-12-31,197116000.0,0.0,901423000.0,179538000.0,-0.0,-169099000.0,-199286000.0,-1156000.0,-169099000.0,213013000.0,-71100000.0,0.0,631037000.0,721885000.0,0.0
2009-12-31,182411000.0,30472000.0,1065749000.0,-135106000.0,-15220000.0,0.0,-150326000.0,-466299000.0,19004000.0,-263403000.0,-698921000.0,0.0,216502000.0,930643000.0,-0.1581
