,0,1,2,3,4,5,6,7,8,9,10,11,12,13,14
Date,Depreciation & Amortization,Stock-based compensation,Operating Cash Flow,Capital Expenditure,Acquisitions and disposals,Investment purchases and sales,Investing Cash flow,Issuance (repayment) of debt,Issuance (buybacks) of shares,Dividend payments,Financing Cash Flow,Effect of forex changes on cash,Net cash flow / Change in cash,Free Cash Flow,Net Cash/Marketcap
2019-06-30,-556000.0,1601000.0,7662000.0,2124000.0,-0.0,-26883000.0,-150489000.0,-45000000.0,-30638000.0,-3176000.0,143124000.0,0.0,297000.0,5538000.0,0.0
2018-06-30,505000.0,3027000.0,31342000.0,3458000.0,-0.0,20675000.0,-134017000.0,61500000.0,0.0,-0.0,86436000.0,0.0,-16239000.0,27884000.0,0.0
2017-06-30,-19000.0,4166000.0,15115000.0,2821000.0,-0.0,27145000.0,-106756000.0,-158031000.0,0.0,-0.0,126030000.0,0.0,34389000.0,12294000.0,0.0
2016-06-30,2956000.0,2939000.0,28700000.0,742000.0,-0.0,73102000.0,-10888000.0,-16000000.0,-27734000.0,-0.0,-81376000.0,0.0,-63564000.0,27958000.0,0.0
2015-06-30,1517000.0,2821000.0,2661000.0,4937000.0,-7759000.0,41340000.0,-190224000.0,-409828000.0,-116160000.0,-0.0,257893000.0,0.0,70330000.0,-2276000.0,0.0
2014-06-30,1097000.0,2623000.0,23760000.0,-1688000.0,-0.0,45225000.0,-15100000.0,-0.0,-45830000.0,-0.0,-88543000.0,0.0,-79883000.0,25448000.0,0.0
2013-06-30,2077000.0,1113000.0,23931000.0,-1581000.0,-0.0,6100000.0,29423000.0,-0.0,82491000.0,-0.0,-152442000.0,0.0,-99088000.0,25512000.0,0.0
2012-06-30,2089000.0,0.0,8339000.0,-3218000.0,-0.0,37332000.0,103221000.0,-0.0,-224801000.0,-0.0,78570000.0,0.0,190130000.0,11557000.0,0.0
2011-06-30,2195000.0,0.0,32707000.0,-3095000.0,8190000.0,-24898000.0,-19803000.0,16361000.0,0.0,0.0,-95063000.0,0.0,-82159000.0,29612000.0,-0.5556
2010-06-30,2115000.0,0.0,23213000.0,-1779000.0,22815000.0,33549000.0,54585000.0,-147508000.0,0.0,0.0,66000.0,0.0,77864000.0,21434000.0,-0.5556
2009-06-30,1838000.0,0.0,-2109000.0,-8044000.0,0.0,-121500000.0,-129544000.0,-4741000.0,0.0,0.0,125754000.0,0.0,-5899000.0,-10153000.0,-0.9231
