,0,1,2,3,4,5,6,7,8,9,10,11,12,13,14,15,16,17,18,19,20,21,22,23,24,25,26,27,28
Date,Cash and cash equivalents,Short-term investments,Cash and short-term investments,Receivables,Inventories,Total current assets,Property Plant & Equipment Net,Goodwill and Intangible Assets,Long-term investments,Tax assets,Total non-current assets,Total assets,Payables,Short-term debt,Total current liabilities,Long-term debt,Total debt,Deferred revenue,Tax Liabilities,Deposit Liabilities,Total non-current liabilities,Total liabilities,Other comprehensive income,Retained earnings (deficit),Total shareholders equity,Investments,Net Debt,Other Assets,Other Liabilities
2019-12-31,7619748.0,25410222.0,33029970.0,3164176.0,1269667.0,41367582.0,2240133.0,0.0,0.0,417425.0,3751687.0,45119269.0,1662583.0,758932.0,8898859.0,636340.0,1395272.0,426014.0,2731015.0,0.0,1297879.0,21149635.0,194234151.0,-170317643.0,23969634.0,25410222.0,-6224476.0,0.0,10952897.0
2018-12-31,8432600.0,22681049.0,31113649.0,5012678.0,1306609.0,38001145.0,2373790.0,0.0,0.0,0.0,5770135.0,43771280.0,1849921.0,186043.0,7017374.0,6704641.0,6890684.0,332711.0,1538220.0,0.0,6985112.0,22679218.0,172086909.0,-151019979.0,21092062.0,22681049.0,-1541916.0,0.0,8676732.0
2017-12-31,9968600.0,0.0,9968600.0,6356268.0,1180521.0,17948457.0,3304890.0,0.0,0.0,0.0,3307843.0,21256300.0,2438798.0,5793599.0,13341967.0,11000000.0,16793599.0,665882.0,0.0,0.0,11492197.0,24315837.0,131492595.0,-134566061.0,-3059537.0,0.0,6824999.0,0.0,0.0
2016-12-31,7507659.0,4304901.0,11812560.0,1377441.0,1511053.0,15134382.0,3270197.0,0.0,0.0,0.0,3319827.0,18454209.0,761663.0,6389782.0,10020991.0,5389137.0,11778919.0,335659.0,0.0,0.0,6008724.0,24047071.0,110006334.0,-115606044.0,-5592862.0,4304901.0,4271260.0,0.0,8017356.0
2015-12-31,3293983.0,28201507.0,31495490.0,716246.0,2201301.0,34858254.0,1932213.0,0.0,2603901.0,0.0,4588491.0,39446745.0,724805.0,3059068.0,6319610.0,7789963.0,10849031.0,47476.0,0.0,0.0,7818615.0,22553347.0,106494405.0,-89566494.0,16893398.0,30805408.0,7555048.0,0.0,8415122.0
2014-12-31,3613392.0,0.0,3613392.0,801125.0,1685814.0,6212366.0,1146599.0,0.0,0.0,0.0,2515880.0,8728246.0,948429.0,813715.0,3303142.0,9705655.0,10519370.0,41248.0,0.0,0.0,19172437.0,22475579.0,0.0,-68168703.0,-69669926.0,0.0,6905978.0,112035.0,1540998.0
2013-12-31,1815289.0,0.0,1815289.0,603853.0,744171.0,3327440.0,1070407.0,0.0,0.0,0.0,1070407.0,4397847.0,750236.0,0.0,2402317.0,0.0,0.0,136690.0,0.0,0.0,9379141.0,11781458.0,0.0,-58177007.0,-58251910.0,0.0,-1815289.0,164127.0,1652081.0
