,0,1,2,3,4,5,6,7,8,9,10,11,12,13,14
Date,Depreciation & Amortization,Stock-based compensation,Operating Cash Flow,Capital Expenditure,Acquisitions and disposals,Investment purchases and sales,Investing Cash flow,Issuance (repayment) of debt,Issuance (buybacks) of shares,Dividend payments,Financing Cash Flow,Effect of forex changes on cash,Net cash flow / Change in cash,Free Cash Flow,Net Cash/Marketcap
2019-12-31,1749258.0,1156567.0,-16695936.0,1103176.0,-0.0,-34601208.0,-3504384.0,-1327922.0,-7602498.0,-0.0,19391804.0,-4336.0,-812852.0,-17799112.0,0.0
2018-12-31,1532045.0,1888055.0,-13173918.0,949514.0,-0.0,-53970921.0,-23220435.0,-1684626.0,-8422603.0,-0.0,38129745.0,-1145.0,1734247.0,-14123432.0,0.0
2017-12-31,1842852.0,1376969.0,-16572308.0,1020531.0,-0.0,0.0,3279469.0,-40509.0,-9837951.0,-0.0,15753780.0,0.0,2460941.0,-17592839.0,0.0
2016-12-31,2403929.0,903584.0,-22234208.0,1946515.0,-0.0,0.0,24422214.0,-4446396.0,-7507659.0,-0.0,2025670.0,0.0,4213676.0,-24180723.0,0.0
2015-12-31,1127111.0,405426.0,-19243273.0,1338124.0,-0.0,0.0,-32184889.0,-75523.0,-3273983.0,-0.0,51108753.0,0.0,-319409.0,-20581397.0,0.0
2014-12-31,496595.0,184966.0,-12996616.0,-857677.0,0.0,0.0,-857677.0,10658068.0,21482.0,0.0,15652396.0,0.0,1798103.0,-13854293.0,0.2491
2013-12-31,315086.0,88097.0,-11823157.0,-777767.0,0.0,0.0,-777767.0,0.0,4109.0,0.0,7100159.0,0.0,-5500765.0,-12600924.0,-0.1219
