,0,1,2,3,4,5,6,7,8,9,10,11,12,13,14,15,16,17,18,19,20,21,22,23,24,25,26,27,28,29,30
Date,Revenue,Revenue Growth,Cost of Revenue,Gross Profit,R&D Expenses,SG&A Expense,Operating Expenses,Operating Income,Interest Expense,Earnings before Tax,Income Tax Expense,Net Income - Non-Controlling int,Net Income - Discontinued ops,Net Income,Preferred Dividends,Net Income Com,EPS,EPS Diluted,Weighted Average Shs Out,Weighted Average Shs Out (Dil),Dividend per Share,Gross Margin,EBITDA Margin,EBIT Margin,Profit Margin,Free Cash Flow margin,EBITDA,EBIT,Consolidated Income,Earnings Before Tax Margin,Net Profit Margin
2017-12,32000000.0,,20000000.0,12000000.0,,,6000000.0,6000000.0,5000000.0,,2000000.0,,,-2000000.0,,-2000000.0,-0.12,-0.12,19000000.0,19000000.0,,0.375,0.40625,0.15625,-0.0625,,13000000.0,5000000.0,-2000000.0,0.0,-0.0625
2016-12,31000000.0,,16000000.0,15000000.0,,,6000000.0,9000000.0,4000000.0,,1000000.0,,,0.0,,0.0,0.02,0.02,19000000.0,19000000.0,,0.48387096774194,0.48387096774194,0.16129032258065001,0.0,,15000000.0,5000000.0,0.0,0.0,0.0
2015-12,31000000.0,,16000000.0,15000000.0,,,5000000.0,10000000.0,4000000.0,,1000000.0,,,2000000.0,,2000000.0,0.12,0.12,18000000.0,18000000.0,,0.48387096774194,0.54838709677419,0.2258064516129,0.064516129032258,,17000000.0,7000000.0,2000000.0,0.0,0.064516129032258
2014-12,31000000.0,,16000000.0,15000000.0,,,6000000.0,9000000.0,4000000.0,,-10000000.0,,,12000000.0,,12000000.0,0.66,0.54,17000000.0,21000000.0,,0.48387096774194,0.48387096774194,0.19354838709677,0.38709677419355,,15000000.0,6000000.0,12000000.0,0.0,0.38709677419355
2013-12,27000000.0,,14000000.0,13000000.0,,,5000000.0,8000000.0,4000000.0,,0.0,,,2000000.0,,2000000.0,0.12,0.12,17000000.0,21000000.0,,0.48148148148148,0.55555555555556,0.22222222222222002,0.074074074074074,,15000000.0,6000000.0,2000000.0,0.0,0.074074074074074
