,0,1,2,3,4,5,6,7,8,9,10,11,12,13,14,15,16,17,18,19,20,21,22,23,24,25,26,27,28,29,30
Date,Revenue,Revenue Growth,Cost of Revenue,Gross Profit,R&D Expenses,SG&A Expense,Operating Expenses,Operating Income,Interest Expense,Earnings before Tax,Income Tax Expense,Net Income - Non-Controlling int,Net Income - Discontinued ops,Net Income,Preferred Dividends,Net Income Com,EPS,EPS Diluted,Weighted Average Shs Out,Weighted Average Shs Out (Dil),Dividend per Share,Gross Margin,EBITDA Margin,EBIT Margin,Profit Margin,Free Cash Flow margin,EBITDA,EBIT,Consolidated Income,Earnings Before Tax Margin,Net Profit Margin
2019-12-31,9779000000.0,0.0289351851852,0.0,0.0,0.0,969000000.0,969000000.0,13000000.0,61000000.0,13000000.0,63000000.0,0.0,0.0,-58000000.0,0.0,-58000000.0,-0.49,-0.49,117000000.0,117000000.0,0.0,0.0,0.312813171081,0.00132937928214,-0.0059310767972200005,0.296553839861,3059000000.0,13000000.0,-58000000.0,0.00132937928214,-0.0059310767972200005
2018-12-31,9504000000.0,0.0796319436556,148000000.0,9356000000.0,0.0,1017000000.0,1017000000.0,-257000000.0,73000000.0,-257000000.0,-30000000.0,0.0,0.0,-225000000.0,0.0,-225000000.0,-2.68,-2.68,84000000.0,84000000.0,0.0,0.984427609428,0.269044612795,-0.0270412457912,-0.0236742424242,0.268939393939,2557000000.0,-257000000.0,-225000000.0,-0.0270412457912,-0.0236742424242
2017-12-31,8803000000.0,0.0,0.0,0.0,0.0,880000000.0,880000000.0,-575000000.0,71000000.0,-575000000.0,-902000000.0,0.0,0.0,327000000.0,0.0,327000000.0,3.94,3.94,83000000.0,83000000.0,0.0,0.0,0.276383051233,-0.06531864137230001,0.0371464273543,0.271952743383,2433000000.0,-575000000.0,327000000.0,-0.06531864137230001,0.0371464273543
2016-12-31,8803000000.0,-0.0237329488743,0.0,0.0,0.0,899000000.0,899000000.0,-470000000.0,76000000.0,-470000000.0,4000000.0,0.0,0.0,-491000000.0,0.0,-491000000.0,-5.85,-5.85,84000000.0,84000000.0,0.0,0.0,0.26968079064,-0.0533908894695,-0.0557764398501,0.287288424401,2374000000.0,-470000000.0,-491000000.0,-0.0533908894695,-0.0557764398501
2015-12-31,9017000000.0,-0.048337730870699994,5055000000.0,3962000000.0,0.0,873000000.0,3191000000.0,771000000.0,599000000.0,290000000.0,17000000.0,0.0,-158000000.0,273000000.0,0.0,273000000.0,3.03,3.0,88871741.0,90000000.0,0.0,0.4394,0.391,0.0986,0.03,0.0048,3524000000.0,889000000.0,273000000.0,0.0322,0.0303
2014-12-31,9475000000.0,-0.120649651972,5458000000.0,4017000000.0,0.0,936000000.0,3631000000.0,386000000.0,617000000.0,-99000000.0,-17000000.0,0.0,-132000000.0,-82000000.0,0.0,-82000000.0,-0.9,-0.9,89535462.0,91000000.0,0.0,0.424,0.36200000000000004,0.0547,-0.009000000000000001,0.0043,3434000000.0,518000000.0,-82000000.0,-0.0104,-0.0087
2013-12-31,10775000000.0,0.19549539554,8310000000.0,2465000000.0,0.0,1053000000.0,1155000000.0,1310000000.0,707000000.0,603000000.0,301000000.0,0.0,0.0,302000000.0,0.0,302000000.0,3.6,3.35,89796217.0,84400000.0,0.0,0.2288,0.381,0.1216,0.027999999999999997,0.0291,4101000000.0,1310000000.0,302000000.0,0.055999999999999994,0.027999999999999997
2012-12-31,9013000000.0,0.08599520441479999,6989000000.0,2024000000.0,0.0,978000000.0,1012000000.0,1012000000.0,647000000.0,365000000.0,181000000.0,0.0,0.0,184000000.0,0.0,184000000.0,2.2,2.05,84191537.0,84000000.0,0.0,0.2246,0.368,0.1123,0.02,0.0058,3321000000.0,1012000000.0,184000000.0,0.0405,0.0204
2011-12-31,8299300000.0,0.09742316530410002,6469300000.0,1830000000.0,0.0,767700000.0,830200000.0,999800000.0,699700000.0,286000000.0,121800000.0,19600000.0,0.0,164200000.0,0.0,164200000.0,1.95,1.85,83337935.0,83180000.0,0.0,0.2205,0.355,0.1188,0.02,0.0484,2943700000.0,985700000.0,183800000.0,0.0345,0.0198
2010-12-31,7562534000.0,0.0649196008678,6151541000.0,1410993000.0,0.0,664512000.0,664517000.0,746476000.0,773427000.0,-32019000.0,16662000.0,17383000.0,0.0,-48681000.0,0.0,-48681000.0,-0.6,-0.6,82503330.0,82388200.0,0.0,0.1866,0.355,0.098,-0.006,0.1515,2685342000.0,741408000.0,-31298000.0,-0.0042,-0.0064
2009-12-31,7101507000.0,-0.16699999999999998,6020621000.0,1080886000.0,0.0,641944000.0,593472000.0,487414000.0,680273000.0,-191571000.0,-62043000.0,14679000.0,0.0,-129528000.0,0.0,-129528000.0,-1.75,-1.75,81947855.0,74291200.0,0.0,0.1522,0.35200000000000004,0.0688,-0.018000000000000002,0.0275,2499556000.0,488702000.0,-114849000.0,-0.027000000000000003,-0.0182
