,0,1,2,3,4,5,6,7,8,9,10,11,12,13,14,15,16,17,18,19,20,21,22,23,24,25,26,27,28
Date,Cash and cash equivalents,Short-term investments,Cash and short-term investments,Receivables,Inventories,Total current assets,Property Plant & Equipment Net,Goodwill and Intangible Assets,Long-term investments,Tax assets,Total non-current assets,Total assets,Payables,Short-term debt,Total current liabilities,Long-term debt,Total debt,Deferred revenue,Tax Liabilities,Deposit Liabilities,Total non-current liabilities,Total liabilities,Other comprehensive income,Retained earnings (deficit),Total shareholders equity,Investments,Net Debt,Other Assets,Other Liabilities
2018-12-31,234200000.0,0.0,234200000.0,48100000.0,190700000.0,473800000.0,243000000.0,616600000.0,6500000.0,84700000.0,977400000.0,1451200000.0,105500000.0,51400000.0,280700000.0,492600000.0,544000000.0,0.0,42300000.0,0.0,533600000.0,814300000.0,0.0,553600000.0,552100000.0,6500000.0,309800000.0,800000.0,123800000.0
2017-12-31,137400000.0,0.0,137400000.0,64000000.0,186000000.0,388800000.0,264900000.0,685800000.0,3100000.0,91700000.0,1069000000.0,1457800000.0,97100000.0,80700000.0,314000000.0,520400000.0,601100000.0,0.0,54200000.0,0.0,571400000.0,885400000.0,0.0,473100000.0,493700000.0,3100000.0,,,136200000.0
2016-12-31,187600000.0,0.0,187600000.0,55500000.0,161400000.0,409000000.0,256300000.0,691200000.0,2400000.0,157500000.0,1134000000.0,1543000000.0,91300000.0,1500000.0,264500000.0,475200000.0,476700000.0,0.0,75600000.0,0.0,548100000.0,812600000.0,0.0,0.0,658200000.0,2400000.0,,,171700000.0
2015-12-31,160400000.0,0.0,160400000.0,63300000.0,146700000.0,371400000.0,227200000.0,718500000.0,3300000.0,147500000.0,1125100000.0,1496500000.0,83500000.0,900000.0,215100000.0,483100000.0,484000000.0,0.0,111900000.0,0.0,593500000.0,808600000.0,0.0,0.0,620100000.0,3300000.0,,,130700000.0
