,0,1,2,3,4,5,6,7,8,9,10,11,12,13,14
Date,Depreciation & Amortization,Stock-based compensation,Operating Cash Flow,Capital Expenditure,Acquisitions and disposals,Investment purchases and sales,Investing Cash flow,Issuance (repayment) of debt,Issuance (buybacks) of shares,Dividend payments,Financing Cash Flow,Effect of forex changes on cash,Net cash flow / Change in cash,Free Cash Flow,Net Cash/Marketcap
2019-12-31,19578000.0,20902000.0,351949000.0,42716000.0,-0.0,109681000.0,-459022000.0,-14222000.0,-180735000.0,-94871000.0,155805000.0,0.0,432104000.0,309233000.0,0.0
2018-12-31,15421000.0,19793000.0,449184000.0,50664000.0,-0.0,318874000.0,-846902000.0,-90216000.0,-3574000.0,-88838000.0,394142000.0,0.0,383372000.0,398520000.0,0.0
2017-12-31,19742000.0,17633000.0,411085000.0,20297000.0,-0.0,338843000.0,-895321000.0,-204111000.0,15312000.0,-83266000.0,498495000.0,0.0,14259000.0,390788000.0,0.0
2016-12-31,25014000.0,14266000.0,340737000.0,19272000.0,-0.0,408311000.0,-1321031000.0,-21271000.0,259299000.0,-76551000.0,1049109000.0,0.0,68815000.0,321465000.0,0.0
2015-12-31,58694000.0,12944000.0,232345000.0,23804000.0,-0.0,746501000.0,-2276431000.0,-157933000.0,-95613000.0,-77013000.0,1991505000.0,0.0,-52581000.0,208541000.0,0.0
2014-12-31,69210000.0,13958000.0,352428000.0,20449000.0,-0.0,236364000.0,-1910459000.0,-35360000.0,-47618000.0,-80392000.0,1566046000.0,0.0,8015000.0,331979000.0,0.0
2013-12-31,61698000.0,13079000.0,473532000.0,32029000.0,-0.0,477147000.0,-4497000.0,-35278000.0,-115000000.0,-81212000.0,-569086000.0,0.0,-100051000.0,441503000.0,0.0
2012-12-31,15036000.0,11019000.0,443032000.0,42979000.0,-0.0,1081193000.0,-17733000.0,-192087000.0,0.0,-82690000.0,-414755000.0,0.0,10544000.0,400053000.0,0.0
2011-12-31,11633000.0,7196000.0,273046000.0,72975000.0,74736000.0,998726000.0,-301023000.0,-16641000.0,213994000.0,-70617000.0,326237000.0,0.0,298260000.0,200071000.0,0.0
2010-12-31,9339000.0,4077000.0,194798000.0,21899000.0,-0.0,-726757000.0,334375000.0,-295000.0,0.0,-35721000.0,-594200000.0,0.0,-65027000.0,172899000.0,0.0
2009-12-31,16966000.0,3254000.0,18142000.0,-9605000.0,378367000.0,-123082000.0,253695000.0,-106890000.0,169585000.0,-32011000.0,-266898000.0,0.0,4939000.0,8537000.0,0.0735
