,0,1,2,3,4,5,6,7,8,9,10,11,12,13,14,15,16,17,18,19,20,21,22,23,24,25,26,27,28
Date,Cash and cash equivalents,Short-term investments,Cash and short-term investments,Receivables,Inventories,Total current assets,Property Plant & Equipment Net,Goodwill and Intangible Assets,Long-term investments,Tax assets,Total non-current assets,Total assets,Payables,Short-term debt,Total current liabilities,Long-term debt,Total debt,Deferred revenue,Tax Liabilities,Deposit Liabilities,Total non-current liabilities,Total liabilities,Other comprehensive income,Retained earnings (deficit),Total shareholders equity,Investments,Net Debt,Other Assets,Other Liabilities
2018-12-31,32700000.0,0.0,32700000.0,260900000.0,297800000.0,675800000.0,1876500000.0,142300000.0,0.0,32100000.0,2148300000.0,2824100000.0,161900000.0,9400000.0,326700000.0,947400000.0,956800000.0,0.0,7500000.0,0.0,1278100000.0,1502100000.0,0.0,1726500000.0,1322000000.0,0.0,924100000.0,0.0,0.0
2017-12-31,60100000.0,0.0,60100000.0,248700000.0,314000000.0,656700000.0,1866300000.0,148700000.0,0.0,14300000.0,2124200000.0,2780900000.0,144100000.0,4300000.0,262100000.0,805600000.0,809900000.0,0.0,12300000.0,0.0,1107000000.0,1285800000.0,42900000.0,1496100000.0,1495100000.0,0.0,749800000.0,0.0,0.0
2016-12-31,35200000.0,0.0,35200000.0,245600000.0,291000000.0,607000000.0,1625600000.0,72200000.0,0.0,8900000.0,1793600000.0,2400600000.0,137300000.0,4300000.0,271900000.0,684400000.0,688700000.0,0.0,16700000.0,0.0,966400000.0,1155700000.0,163500000.0,1254700000.0,1244900000.0,0.0,653500000.0,0.0,0.0
2015-12-31,51800000.0,0.0,51800000.0,234000000.0,307200000.0,633800000.0,1425600000.0,58900000.0,0.0,15700000.0,1553600000.0,2187400000.0,148900000.0,0.0,292600000.0,576500000.0,576500000.0,0.0,25300000.0,0.0,740900000.0,1007800000.0,258000000.0,1044400000.0,1179600000.0,0.0,524700000.0,0.0,0.0
2014-12-31,70900000.0,0.0,70900000.0,233500000.0,290100000.0,681700000.0,1238200000.0,59800000.0,0.0,8500000.0,1354700000.0,2036400000.0,175000000.0,1300000.0,310600000.0,415000000.0,416300000.0,0.0,43100000.0,0.0,615800000.0,886500000.0,373100000.0,845500000.0,1149900000.0,0.0,345400000.0,0.0,0.0
2013-12-31,65500000.0,0.0,65500000.0,232400000.0,265300000.0,656400000.0,1067400000.0,61000000.0,0.0,10300000.0,1179700000.0,1836100000.0,135900000.0,3000000.0,268700000.0,292000000.0,295000000.0,0.0,42700000.0,0.0,317000000.0,675700000.0,512600000.0,636100000.0,1160400000.0,0.0,229500000.0,0.0,90000000.0
2012-12-31,32600000.0,0.0,32600000.0,229000000.0,232800000.0,575700000.0,914400000.0,57800000.0,22600000.0,15400000.0,1027400000.0,1603100000.0,115700000.0,16600000.0,235300000.0,240000000.0,256600000.0,0.0,32600000.0,0.0,307500000.0,609000000.0,576800000.0,448200000.0,994100000.0,22600000.0,224000000.0,0.0,66200000.0
2011-12-31,49500000.0,0.0,49500000.0,199300000.0,215700000.0,524300000.0,722100000.0,57400000.0,21700000.0,33000000.0,851800000.0,1376100000.0,141700000.0,12600000.0,247500000.0,238300000.0,250900000.0,0.0,12500000.0,0.0,259100000.0,573900000.0,557100000.0,283900000.0,802200000.0,21700000.0,201400000.0,0.0,67300000.0
2010-12-31,117200000.0,0.0,117200000.0,173900000.0,169900000.0,497700000.0,598300000.0,56200000.0,19900000.0,63600000.0,760400000.0,1258100000.0,83000000.0,27600000.0,205900000.0,304600000.0,332200000.0,0.0,0.0,0.0,330900000.0,598700000.0,525100000.0,148400000.0,659400000.0,19900000.0,215000000.0,0.0,61900000.0
2009-12-31,110100000.0,0.0,110100000.0,158400000.0,157200000.0,461100000.0,602100000.0,56700000.0,17700000.0,85600000.0,785500000.0,1246600000.0,74300000.0,33500000.0,201700000.0,358800000.0,392300000.0,0.0,0.0,0.0,469300000.0,671000000.0,-7000000.0,71000000.0,575600000.0,17700000.0,282200000.0,35400000.0,93900000.0
