,0,1,2,3,4,5,6,7,8,9,10,11,12,13,14
Date,Depreciation & Amortization,Stock-based compensation,Operating Cash Flow,Capital Expenditure,Acquisitions and disposals,Investment purchases and sales,Investing Cash flow,Issuance (repayment) of debt,Issuance (buybacks) of shares,Dividend payments,Financing Cash Flow,Effect of forex changes on cash,Net cash flow / Change in cash,Free Cash Flow,Net Cash/Marketcap
2019-12-31,0.0,0.0,-646044.0,0.0,-0.0,0.0,-400000000.0,-562030.0,-791926.0,-0.0,401462970.0,0.0,816926.0,-646044.0,0.0
2018-12,,,-1000000.0,,,0.0,0.0,,,,0.0,,-1000000.0,-1000000.0,
2017-12,,,-0.0,,,-330000000.0,-330000000.0,,,,331000000.0,,1000000.0,-0.0,
2016-12,,,0.0,,,0.0,0.0,,,,0.0,,0.0,0.0,
2015-12,,,0.0,,,0.0,0.0,,,,0.0,,0.0,0.0,
2014-12,,,0.0,,,0.0,0.0,,,,0.0,,0.0,0.0,
