,0,1,2,3,4,5,6,7,8,9,10,11,12,13,14
Date,Depreciation & Amortization,Stock-based compensation,Operating Cash Flow,Capital Expenditure,Acquisitions and disposals,Investment purchases and sales,Investing Cash flow,Issuance (repayment) of debt,Issuance (buybacks) of shares,Dividend payments,Financing Cash Flow,Effect of forex changes on cash,Net cash flow / Change in cash,Free Cash Flow,Net Cash/Marketcap
2018-12-31,33710000.0,1550000.0,-70500000.0,13870000.0,-0.0,0.0,-13670000.0,-9090000.0,0.0,-0.0,82360000.0,-110000.0,-1920000.0,-84370000.0,0.0
2017-12-31,32700000.0,3630000.0,14160000.0,27290000.0,-19800000.0,-10000000.0,-40740000.0,-189760000.0,69920000.0,-0.0,3700000.0,2210000.0,-20670000.0,-13130000.0,0.0
2016-12-31,26990000.0,3860000.0,35410000.0,14540000.0,-94370000.0,0.0,-108440000.0,-10000000.0,-50240000.0,-0.0,100500000.0,-750000.0,26720000.0,20870000.0,0.0
2015-12-31,17910000.0,2530000.0,26910000.0,8320000.0,-0.0,0.0,-6810000.0,-5000000.0,-23520000.0,-0.0,-910000.0,-1390000.0,17800000.0,18590000.0,0.0
2014-12-31,18930000.0,2660000.0,28010000.0,-11110000.0,0.0,0.0,-11110000.0,-340000.0,0.0,0.0,-19060000.0,0.0,-2160000.0,16900000.0,0.0169
2013-12-31,19450000.0,3600000.0,13950000.0,-10880000.0,-21000000.0,0.0,-31880000.0,-2290000.0,0.0,0.0,22030000.0,0.0,4100000.0,3070000.0,0.0169
