,0,1,2,3,4,5,6,7,8,9,10,11,12,13,14,15,16,17,18,19,20,21,22,23,24,25,26,27,28,29,30
Date,Revenue,Revenue Growth,Cost of Revenue,Gross Profit,R&D Expenses,SG&A Expense,Operating Expenses,Operating Income,Interest Expense,Earnings before Tax,Income Tax Expense,Net Income - Non-Controlling int,Net Income - Discontinued ops,Net Income,Preferred Dividends,Net Income Com,EPS,EPS Diluted,Weighted Average Shs Out,Weighted Average Shs Out (Dil),Dividend per Share,Gross Margin,EBITDA Margin,EBIT Margin,Profit Margin,Free Cash Flow margin,EBITDA,EBIT,Consolidated Income,Earnings Before Tax Margin,Net Profit Margin
2019-09-30,1237153000.0,0.050775838711800005,914321000.0,322832000.0,0.0,262300000.0,262300000.0,60532000.0,11579000.0,48953000.0,12968000.0,0.0,0.0,35985000.0,0.0,35985000.0,1.61,1.57,22294114.0,22881147.0,0.0,0.260947514172,0.058304833759399995,0.048928467214599994,0.029086943975400004,-0.0238345620954,72132000.0,60532000.0,35985000.0,0.0395690751265,0.029086943975400004
2018-09-30,1177371000.0,0.118833624753,879138000.0,298233000.0,0.0,235050000.0,235050000.0,63183000.0,9903000.0,53280000.0,13968000.0,0.0,0.0,39312000.0,0.0,39312000.0,1.77,1.71,22269378.0,23030662.0,0.0,0.253304183643,0.0627295899084,0.053664477891800004,0.033389645235,0.048081700670400004,73856000.0,63183000.0,39312000.0,0.0452533653368,0.033389645235
2017-09-30,1052320000.0,0.11705323496600001,787005000.0,265315000.0,0.0,220026000.0,220026000.0,45289000.0,7481000.0,37808000.0,14261000.0,0.0,0.0,23547000.0,0.0,23547000.0,0.98,0.95,23966611.0,24678800.0,0.0,0.252123878668,0.051935722973999995,0.0430372890376,0.0223762733769,-0.009143606507530001,54653000.0,45289000.0,23547000.0,0.035928234757500004,0.0223762733769
2016-09-30,942050000.0,0.253776435045,716022000.0,226028000.0,0.0,185776000.0,185776000.0,40252000.0,5462000.0,34790000.0,12208000.0,0.0,0.0,22582000.0,0.0,22582000.0,0.93,0.91,24203947.0,24820847.0,0.0,0.239932063054,0.0511819967093,0.0427280929887,0.0239711267979,0.0105620720769,48216000.0,40252000.0,22582000.0,0.0369300992516,0.0239711267979
2015-09-30,751370000.0,0.20278473231600003,566603000.0,184767000.0,0.0,159435000.0,159435000.0,25332000.0,4454000.0,20878000.0,-27414000.0,0.0,0.0,48292000.0,0.0,48292000.0,1.97,1.92,24466243.0,25102289.0,0.0,0.245906810227,0.0441726446358,0.0337144150019,0.0642719299413,-0.009606452213959999,33190000.0,25332000.0,48292000.0,0.027786576520199998,0.0642719299413
2014-09-30,624692000.0,0.0687685308907,462872000.0,161820000.0,0.0,146433000.0,146433000.0,15387000.0,4024000.0,11363000.0,91000.0,0.0,0.0,11272000.0,0.0,11272000.0,0.47,0.46,23916238.0,24655262.0,0.0,0.25903965474199997,0.0362866820769,0.024631338323499997,0.0180440921286,0.00258527402304,22668000.0,15387000.0,11272000.0,0.0181897639157,0.0180440921286
2013-09-30,584497000.0,1.0,433644000.0,150853000.0,0.0,132505000.0,132505000.0,18348000.0,4218000.0,14130000.0,-894000.0,0.0,0.0,15024000.0,0.0,15024000.0,0.65,0.63,23253992.0,24003728.0,0.0,0.258090289599,0.04298567828409999,0.0313910935385,0.0257041524593,-0.0034405651354899995,25125000.0,18348000.0,15024000.0,0.024174632205099997,0.0257041524593
2012-09-30,0.0,0.0,0.0,0.0,0.0,0.0,0.0,0.0,0.0,0.0,-176000.0,0.0,0.0,0.0,0.0,0.0,0.05,0.05,0.0,0.0,0.0,0.0,0.0,0.0,0.0,0.0,0.0,0.0,0.0,0.0,0.0
2011-09-30,0.0,-1.0,0.0,0.0,0.0,0.0,0.0,0.0,0.0,0.0,0.0,0.0,0.0,0.0,0.0,0.0,0.0,0.0,0.0,0.0,0.0,0.0,0.0,0.0,0.0,0.0,0.0,0.0,0.0,0.0,0.0
2010-09-30,450340000.0,-0.234876865703,339533000.0,110807000.0,0.0,123972000.0,123972000.0,-13165000.0,3926000.0,-17091000.0,-19588000.0,0.0,0.0,2497000.0,0.0,2497000.0,0.11,0.11,22135831.0,21998743.0,0.0,0.2461,-0.013000000000000001,-0.0292,0.006,0.0849,-5808000.0,-13165000.0,2497000.0,-0.038,0.0055
2009-09-30,588585000.0,-0.3352,499925000.0,88660000.0,0.0,159998000.0,159998000.0,-71338000.0,14064000.0,-85402000.0,-8630000.0,0.0,0.0,-76772000.0,0.0,-76772000.0,-4.11,-4.11,18679715.0,18685423.0,0.0,0.1506,-0.10300000000000001,-0.1212,-0.13,0.3521,-60369000.0,-71338000.0,-76772000.0,-0.1451,-0.1304
