,0,1,2,3,4,5,6,7,8,9,10,11,12,13,14,15,16,17,18,19,20,21,22,23,24,25,26,27,28
Date,Cash and cash equivalents,Short-term investments,Cash and short-term investments,Receivables,Inventories,Total current assets,Property Plant & Equipment Net,Goodwill and Intangible Assets,Long-term investments,Tax assets,Total non-current assets,Total assets,Payables,Short-term debt,Total current liabilities,Long-term debt,Total debt,Deferred revenue,Tax Liabilities,Deposit Liabilities,Total non-current liabilities,Total liabilities,Other comprehensive income,Retained earnings (deficit),Total shareholders equity,Investments,Net Debt,Other Assets,Other Liabilities
2018-05-31,0.0,0.0,0.0,0.0,0.0,52895652.0,0.0,0.0,0.0,0.0,1820000.0,53356883.0,0.0,0.0,245197.0,0.0,81618.0,0.0,0.0,0.0,1820000.0,48356882.0,0.0,-9534.0,5000001.0,0.0,0.0,461231.0,245197.0
2017-05-31,0.0,0.0,0.0,0.0,0.0,,0.0,0.0,0.0,,,55000.0,0.0,0.0,30672.0,0.0,,,,,,30672.0,,-672.0,24328.0,0.0,0.0,55000.0,30672.0
