,0,1,2,3,4,5,6,7,8,9,10,11,12,13,14,15,16,17,18,19,20,21,22,23,24,25,26,27,28
Date,Cash and cash equivalents,Short-term investments,Cash and short-term investments,Receivables,Inventories,Total current assets,Property Plant & Equipment Net,Goodwill and Intangible Assets,Long-term investments,Tax assets,Total non-current assets,Total assets,Payables,Short-term debt,Total current liabilities,Long-term debt,Total debt,Deferred revenue,Tax Liabilities,Deposit Liabilities,Total non-current liabilities,Total liabilities,Other comprehensive income,Retained earnings (deficit),Total shareholders equity,Investments,Net Debt,Other Assets,Other Liabilities
2018-12-31,138838000.0,0.0,138838000.0,265737000.0,280347000.0,775082000.0,300112000.0,2005971000.0,0.0,6805000.0,2332805000.0,3107887000.0,76050000.0,22500000.0,262552000.0,1210513000.0,1233013000.0,3764000.0,676000.0,0.0,1357239000.0,1732091000.0,1071986000.0,348373000.0,1375796000.0,0.0,1094175000.0,0.0,112300000.0
2017-12-31,174935000.0,0.0,174935000.0,251799000.0,296332000.0,822146000.0,269251000.0,2097532000.0,0.0,6250000.0,2389111000.0,3211257000.0,93967000.0,60000000.0,348911000.0,1781142000.0,1841142000.0,11051000.0,424000.0,0.0,1900040000.0,2248951000.0,700114000.0,285186000.0,962306000.0,0.0,1666207000.0,0.0,0.0
2016-12-31,102055000.0,0.0,102055000.0,148186000.0,217263000.0,495170000.0,222369000.0,1071746000.0,0.0,6935000.0,1312784000.0,1807954000.0,29057000.0,0.0,123601000.0,0.0,0.0,6812000.0,754000.0,0.0,179686000.0,968287000.0,675601000.0,220443000.0,839667000.0,0.0,-102055000.0,0.0,665000000.0
2015-12-31,48132000.0,0.0,48132000.0,132241000.0,211429000.0,438495000.0,205181000.0,1116129000.0,0.0,6932000.0,1336209000.0,1774704000.0,34772000.0,14375000.0,139127000.0,218720000.0,233095000.0,5666000.0,1085000.0,0.0,402259000.0,1023261000.0,653007000.0,145879000.0,751443000.0,0.0,184963000.0,0.0,481875000.0
2014-12-31,71994000.0,0.0,71994000.0,131918000.0,237114000.0,529321000.0,209986000.0,823347000.0,0.0,5603000.0,1049304000.0,1578625000.0,34060000.0,3750000.0,126025000.0,213121000.0,216871000.0,5176000.0,1245000.0,0.0,335153000.0,874303000.0,412434000.0,314960000.0,704322000.0,0.0,144877000.0,0.0,413125000.0
2013-12-31,120614000.0,0.0,120614000.0,118145000.0,213431000.0,525242000.0,200310000.0,446927000.0,0.0,15412000.0,670987000.0,1196229000.0,50752000.0,1600000.0,119382000.0,205182000.0,206782000.0,4197000.0,3399000.0,0.0,219792000.0,526049000.0,383797000.0,285046000.0,670180000.0,0.0,86168000.0,0.0,186875000.0
2012-12-31,96938000.0,0.0,96938000.0,114916000.0,171806000.0,453051000.0,177898000.0,506334000.0,0.0,15957000.0,710548000.0,1163599000.0,36742000.0,321900000.0,106929000.0,197672000.0,519572000.0,3505000.0,6136000.0,0.0,217020000.0,645824000.0,216653000.0,302023000.0,517775000.0,0.0,422634000.0,0.0,321875000.0
2011-12-31,100808000.0,0.0,100808000.0,118129000.0,171261000.0,452257000.0,131383000.0,530102000.0,0.0,17239000.0,691852000.0,1144109000.0,27656000.0,179700000.0,101868000.0,352576000.0,532276000.0,4543000.0,3927000.0,0.0,369915000.0,651471000.0,237956000.0,260819000.0,492638000.0,0.0,431468000.0,0.0,179688000.0
2010-12-31,0.0,0.0,0.0,0.0,0.0,0.0,0.0,0.0,0.0,0.0,0.0,0.0,0.0,0.0,0.0,0.0,0.0,0.0,0.0,0.0,0.0,0.0,0.0,0.0,0.0,0.0,0.0,0.0,0.0
2009-12-31,71891000.0,0.0,71891000.0,103228000.0,140240000.0,365363000.0,83526000.0,473058000.0,0.0,45813000.0,574739000.0,940102000.0,24598000.0,76760000.0,156730000.0,308754000.0,385514000.0,4077000.0,9319000.0,0.0,338487000.0,495217000.0,8905000.0,167161000.0,444885000.0,0.0,313623000.0,50004000.0,55372000.0
