,0,1,2,3,4,5,6,7,8,9,10,11,12,13,14,15,16,17,18,19,20,21,22,23,24,25,26,27,28
Date,Cash and cash equivalents,Short-term investments,Cash and short-term investments,Receivables,Inventories,Total current assets,Property Plant & Equipment Net,Goodwill and Intangible Assets,Long-term investments,Tax assets,Total non-current assets,Total assets,Payables,Short-term debt,Total current liabilities,Long-term debt,Total debt,Deferred revenue,Tax Liabilities,Deposit Liabilities,Total non-current liabilities,Total liabilities,Other comprehensive income,Retained earnings (deficit),Total shareholders equity,Investments,Net Debt,Other Assets,Other Liabilities
2019-06-30,4421000.0,0.0,4421000.0,97000.0,0.0,4808000.0,24380000.0,1374000.0,0.0,0.0,25778000.0,30586000.0,1001000.0,213000.0,3458000.0,24671000.0,24884000.0,1279000.0,0.0,0.0,49342000.0,28123000.0,108295000.0,-105821000.0,2463000.0,0.0,20463000.0,0.0,-24677000.0
2018-06-30,15934000.0,0.0,15934000.0,75000.0,0.0,16285000.0,25152000.0,1620000.0,0.0,0.0,26798000.0,43083000.0,790000.0,197000.0,2035000.0,24884000.0,25081000.0,0.0,0.0,0.0,49768000.0,26917000.0,104408000.0,-88228000.0,16166000.0,0.0,9147000.0,0.0,-24886000.0
2017-06-30,8088000.0,0.0,8088000.0,175000.0,26000.0,8572000.0,25589000.0,1823000.0,0.0,0.0,27438000.0,36010000.0,749000.0,183000.0,2013000.0,25082000.0,25265000.0,157000.0,0.0,0.0,50164000.0,27096000.0,80977000.0,-72123000.0,8914000.0,0.0,17177000.0,0.0,-25081000.0
2016-06-30,23014000.0,0.0,23014000.0,484000.0,22000.0,23906000.0,25574000.0,2092000.0,0.0,0.0,27694000.0,51600000.0,1177000.0,170000.0,2291000.0,25265000.0,25435000.0,24000.0,0.0,0.0,50530000.0,41663000.0,67468000.0,-57591000.0,9937000.0,0.0,2421000.0,0.0,-11158000.0
2015-06-30,9494000.0,0.0,9494000.0,445000.0,0.0,10121000.0,13000.0,2360000.0,0.0,0.0,2373000.0,12494000.0,1104000.0,0.0,1104000.0,0.0,0.0,0.0,0.0,0.0,0.0,1263000.0,59006000.0,-47827000.0,11231000.0,0.0,-9494000.0,0.0,159000.0
2014-06-30,3590000.0,0.0,3590000.0,205000.0,0.0,3913000.0,6000.0,2575000.0,0.0,0.0,2581000.0,6494000.0,297000.0,0.0,395000.0,0.0,0.0,0.0,0.0,0.0,0.0,395000.0,47235000.0,-41202000.0,6099000.0,0.0,-3590000.0,0.0,0.0
2013-06-30,4414000.0,0.0,4414000.0,1007000.0,0.0,6635000.0,6000.0,2713000.0,0.0,0.0,2719000.0,9354000.0,2401000.0,0.0,4286000.0,0.0,0.0,0.0,0.0,0.0,0.0,4286000.0,42547000.0,-37536000.0,5068000.0,0.0,-4414000.0,0.0,0.0
2012-06-30,5624403.0,0.0,5624403.0,351409.0,0.0,6900145.0,2497.0,2861940.0,0.0,0.0,2864437.0,9764582.0,2845518.0,0.0,3595543.0,0.0,0.0,0.0,0.0,0.0,0.0,3595543.0,37459053.0,-31337781.0,6169039.0,0.0,-5624403.0,0.0,0.0
2011-06-30,2843300.0,0.0,2843300.0,344085.0,0.0,4300178.0,8412.0,3027239.0,0.0,0.0,3035651.0,7335829.0,2895359.0,0.0,7139187.0,0.0,0.0,0.0,0.0,0.0,0.0,7139187.0,0.0,-25661943.0,196642.0,0.0,-2843300.0,1112793.0,4243828.0
2010-06-30,909932.0,0.0,909932.0,0.0,0.0,1025542.0,11050.0,3893653.0,0.0,0.0,3904703.0,4930245.0,2007166.0,0.0,3854115.0,0.0,0.0,0.0,0.0,0.0,0.0,3854115.0,0.0,-13519492.0,1076130.0,0.0,-909932.0,115610.0,1846949.0
2009-06-30,1039244.0,0.0,1039244.0,209795.0,0.0,3664756.0,14878.0,3649878.0,0.0,0.0,0.0,4930364.0,112331.0,0.0,542140.0,0.0,0.0,0.0,0.0,0.0,0.0,542140.0,0.0,-8684868.0,4388224.0,0.0,-1039244.0,16569.0,429809.0
