,0,1,2,3,4,5,6,7,8,9,10,11,12,13,14,15,16,17,18,19,20,21,22,23,24,25,26,27,28
Date,Cash and cash equivalents,Short-term investments,Cash and short-term investments,Receivables,Inventories,Total current assets,Property Plant & Equipment Net,Goodwill and Intangible Assets,Long-term investments,Tax assets,Total non-current assets,Total assets,Payables,Short-term debt,Total current liabilities,Long-term debt,Total debt,Deferred revenue,Tax Liabilities,Deposit Liabilities,Total non-current liabilities,Total liabilities,Other comprehensive income,Retained earnings (deficit),Total shareholders equity,Investments,Net Debt,Other Assets,Other Liabilities
2018-12,,,,85000000.0,,,,1236000000.0,,,,30833000000.0,,,,1166000000.0,1166000000.0,,,,,26777000000.0,-43000000.0,1043000000.0,4056000000.0,,1166000000.0,0.0,0.0
2017-12,,,,0.0,,,,1189000000.0,,,,27904000000.0,,,,1496000000.0,1496000000.0,,,,,24207000000.0,-46000000.0,769000000.0,3697000000.0,,1496000000.0,0.0,0.0
2016-12,,,,0.0,,,,727000000.0,,,,21659000000.0,,,,629000000.0,629000000.0,,,,,18719000000.0,-26000000.0,704000000.0,2940000000.0,,629000000.0,0.0,0.0
2015-12,,,,40000000.0,,,,725000000.0,,,,19504000000.0,,,,340000000.0,340000000.0,,,,,17005000000.0,-2000000.0,584000000.0,2499000000.0,,340000000.0,0.0,0.0
2014-12,,,,70000000.0,,,,518000000.0,,,,15759000000.0,,,,403000000.0,403000000.0,,,,,13906000000.0,8000000.0,497000000.0,1853000000.0,,403000000.0,0.0,0.0
