,0,1,2,3,4,5,6,7,8,9,10,11,12,13,14,15,16,17,18,19,20,21,22,23,24,25,26,27,28,29,30
Date,Revenue,Revenue Growth,Cost of Revenue,Gross Profit,R&D Expenses,SG&A Expense,Operating Expenses,Operating Income,Interest Expense,Earnings before Tax,Income Tax Expense,Net Income - Non-Controlling int,Net Income - Discontinued ops,Net Income,Preferred Dividends,Net Income Com,EPS,EPS Diluted,Weighted Average Shs Out,Weighted Average Shs Out (Dil),Dividend per Share,Gross Margin,EBITDA Margin,EBIT Margin,Profit Margin,Free Cash Flow margin,EBITDA,EBIT,Consolidated Income,Earnings Before Tax Margin,Net Profit Margin
2019-12-31,2580000000.0,0.09044801352489999,0.0,0.0,0.0,288000000.0,288000000.0,1157000000.0,0.0,1157000000.0,68000000.0,0.0,0.0,161000000.0,0.0,161000000.0,2.11,2.1,76121570.0,76825863.0,0.40350994820600006,0.0,0.46860465116300004,0.448449612403,0.0624031007752,1.0333333333299999,1209000000.0,1157000000.0,161000000.0,0.448449612403,0.0624031007752
2018-12-31,2366000000.0,0.22781525687600002,0.0,0.0,0.0,264000000.0,264000000.0,1196000000.0,0.0,1196000000.0,71000000.0,0.0,0.0,169000000.0,0.0,169000000.0,2.3,2.28,73438209.0,74266370.0,0.390486299519,0.0,0.516483516484,0.5054945054950001,0.07142857142860001,0.995773457312,1222000000.0,1196000000.0,169000000.0,0.5054945054950001,0.07142857142860001
2017-12-31,1927000000.0,1.0,0.0,0.0,0.0,249000000.0,249000000.0,1049000000.0,0.0,1049000000.0,256000000.0,0.0,0.0,76000000.0,0.0,76000000.0,1.09,1.07,69926933.0,70904921.0,0.39489501723000003,0.0,0.5573430202390001,0.544369486248,0.0394395433316,0.0736896730669,1074000000.0,1049000000.0,76000000.0,0.544369486248,0.0394395433316
2017-03-31,0.0,-1.0,0.0,0.0,0.0,0.0,0.0,0.0,0.0,0.0,0.0,0.0,0.0,0.0,0.0,0.0,0.0,0.0,0.0,0.0,0.0,0.0,0.0,0.0,0.0,0.0,0.0,0.0,0.0,0.0,0.0
2016-12-31,1475000000.0,0.17436305732500001,0.0,0.0,0.0,242000000.0,242000000.0,761000000.0,0.0,761000000.0,62000000.0,0.0,0.0,84000000.0,0.0,84000000.0,1.28,1.25,66013247.0,67299413.0,0.38633323592299995,0.0,0.532881355932,0.5159322033899999,0.056949152542399996,0.368813559322,786000000.0,761000000.0,84000000.0,0.5159322033899999,0.056949152542399996
2015-12-31,1256000000.0,0.125904039988,0.0,0.0,0.0,227000000.0,227000000.0,49000000.0,0.0,352000000.0,43000000.0,0.0,0.0,49000000.0,0.0,49000000.0,0.8,0.78,61043071.0,62509796.0,0.39993731542499994,0.0,0.0565286624204,0.0390127388535,0.0390127388535,0.577229299363,71000000.0,49000000.0,49000000.0,0.28025477706999996,0.0390127388535
2014-12-31,1115548000.0,0.0367546468401,0.0,0.0,0.0,204805000.0,204805000.0,44533000.0,0.0,351831000.0,47254000.0,0.0,0.0,44533000.0,0.0,44533000.0,0.79,0.77,56492381.0,57709668.0,0.393885475134,0.0,0.057560947623899995,0.0399202902968,0.0399202902968,0.37377683434500003,64212000.0,44533000.0,44533000.0,0.315388490679,0.0399202902968
2013-12-31,1076000000.0,-0.0482255953013,243000000.0,833000000.0,0.0,315000000.0,382000000.0,451000000.0,0.0,70000000.0,33000000.0,381000000.0,0.0,37000000.0,0.0,37000000.0,0.74,,49971727.0,49742428.0,0.4,0.7742,0.083,0.0651,0.034,0.1143,89000000.0,70000000.0,418000000.0,0.0651,0.0344
2012-12-31,1130520000.0,-0.167702265753,250990000.0,879530000.0,0.0,352530000.0,352530000.0,527000000.0,0.0,70682000.0,30014000.0,456318000.0,0.0,40668000.0,0.0,40668000.0,0.89,,47488923.0,46814676.0,1.4,0.778,0.08,0.0625,0.036000000000000004,0.6258,89951000.0,70682000.0,496986000.0,0.0625,0.036000000000000004
2011-12-31,1358312000.0,0.47305087907300003,281348000.0,1076964000.0,0.0,335896000.0,335896000.0,741068000.0,0.0,115747000.0,53889000.0,625321000.0,0.0,61858000.0,0.0,61858000.0,1.39,,45569085.0,43924554.0,0.3,0.7929,0.099,0.0852,0.046,0.72,134447000.0,115747000.0,687179000.0,0.0852,0.0455
2010-12-31,922108000.0,-0.161979024665,272608000.0,649500000.0,0.0,312085000.0,312085000.0,337415000.0,0.0,50731000.0,60281000.0,286684000.0,0.0,-9550000.0,0.0,-9550000.0,-0.23,,42222349.0,41870926.0,1.79,0.7044,0.075,0.055,-0.01,1.8167,69433000.0,50731000.0,277134000.0,0.055,-0.0104
2009-12-31,1100340000.0,-0.4053,273203000.0,827137000.0,0.0,288854000.0,288854000.0,538283000.0,0.0,89927000.0,54138000.0,448356000.0,0.0,35789000.0,0.0,35789000.0,0.8,,41214498.0,40973290.0,0.0,0.7517,0.10099999999999999,0.0817,0.033,0.1201,111001000.0,89927000.0,484145000.0,0.0817,0.0325
