,0,1,2,3,4,5,6,7,8,9,10,11,12,13,14,15,16,17,18,19,20,21,22,23,24,25,26,27,28,29,30
Date,Revenue,Revenue Growth,Cost of Revenue,Gross Profit,R&D Expenses,SG&A Expense,Operating Expenses,Operating Income,Interest Expense,Earnings before Tax,Income Tax Expense,Net Income - Non-Controlling int,Net Income - Discontinued ops,Net Income,Preferred Dividends,Net Income Com,EPS,EPS Diluted,Weighted Average Shs Out,Weighted Average Shs Out (Dil),Dividend per Share,Gross Margin,EBITDA Margin,EBIT Margin,Profit Margin,Free Cash Flow margin,EBITDA,EBIT,Consolidated Income,Earnings Before Tax Margin,Net Profit Margin
2019-12-31,9998000.0,0.636333878887,0.0,0.0,0.0,19112000.0,19112000.0,21068000.0,25550000.0,21068000.0,4616000.0,0.0,0.0,16452000.0,472000.0,16452000.0,2.37,2.36,6747581.0,6768925.0,0.198554423339,0.0,2.24654930986,2.1072214442900004,1.6455291058200001,2.1298259651900002,22461000.0,21068000.0,16452000.0,2.1072214442900004,1.6455291058200001
2018-12-31,6110000.0,-0.842870001286,0.0,0.0,0.0,16785000.0,16785000.0,14251000.0,22262000.0,0.0,5059000.0,0.0,0.0,14251000.0,413000.0,14251000.0,2.06,2.04,6704051.0,6772927.0,0.276689827013,0.0,2.62422258592,2.3324058919799997,2.3324058919799997,3.0292962356800004,16034000.0,14251000.0,14251000.0,0.0,2.3324058919799997
2017-12-31,38885000.0,0.09328872269239999,0.0,0.0,0.0,15437000.0,15437000.0,10425000.0,14167000.0,0.0,7791000.0,0.0,0.0,10425000.0,353000.0,10425000.0,1.52,1.49,6635383.0,6746846.0,0.23625854214000003,0.0,0.309348077665,0.26809823839499997,0.26809823839499997,0.22047061849,12029000.0,10425000.0,10425000.0,0.0,0.26809823839499997
2016-12-31,35567000.0,0.35508820055600004,0.0,0.0,0.0,13101000.0,13101000.0,10694000.0,10014000.0,0.0,6483000.0,0.0,0.0,10694000.0,342000.0,10694000.0,1.65,1.61,6260.0,6415.0,197.97349961,0.0,0.33958444625600004,0.300671971209,0.300671971209,0.669862513004,12078000.0,10694000.0,10694000.0,0.0,0.300671971209
2015-12-31,26247000.0,-0.122731374712,0.0,0.0,0.0,10769000.0,10769000.0,10974000.0,7520000.0,0.0,6519000.0,0.0,0.0,10974000.0,485000.0,10974000.0,1.85,1.82,5664.0,5778.0,158.87850467299998,0.0,0.440659884939,0.418104926277,0.418104926277,0.148664609289,11566000.0,10974000.0,10974000.0,0.0,0.418104926277
2014-12-31,29919000.0,0.0641271873666,0.0,29919000.0,0.0,10508000.0,17025000.0,12894000.0,0.0,12894000.0,4684000.0,0.0,0.0,8210000.0,0.0,8210000.0,1.73,1.69,,5719540.0,0.0,1.0,0.451,0.431,0.27399999999999997,0.4694,13505000.0,12894000.0,8210000.0,0.431,0.2744
2013-12-31,28116000.0,0.0246729108204,0.0,28116000.0,0.0,9228000.0,16964000.0,11152000.0,0.0,11152000.0,4140000.0,0.0,0.0,7012000.0,0.0,7012000.0,1.45,1.43,,,0.0,1.0,0.413,0.3966,0.249,0.4729,11614000.0,11152000.0,7012000.0,0.3966,0.2494
2012-12-31,27439000.0,,0.0,27439000.0,0.0,10006000.0,15204000.0,12235000.0,0.0,12235000.0,4601000.0,0.0,0.0,7634000.0,0.0,7634000.0,1.56,1.53,,,0.0,1.0,0.465,0.4459,0.278,0.1783,12763000.0,12235000.0,7634000.0,0.4459,0.2782
