,0,1,2,3,4,5,6,7,8,9,10,11,12,13,14
Date,Depreciation & Amortization,Stock-based compensation,Operating Cash Flow,Capital Expenditure,Acquisitions and disposals,Investment purchases and sales,Investing Cash flow,Issuance (repayment) of debt,Issuance (buybacks) of shares,Dividend payments,Financing Cash Flow,Effect of forex changes on cash,Net cash flow / Change in cash,Free Cash Flow,Net Cash/Marketcap
2019-12-31,6132000.0,55982000.0,-236613000.0,1136000.0,-0.0,-603014000.0,-188988000.0,-0.0,157245000.0,-0.0,457519000.0,-386000.0,70055000.0,-237749000.0,0.0
2018-12-31,6157000.0,49914000.0,-240714000.0,167000.0,-0.0,0.0,-48070000.0,-0.0,218114000.0,-0.0,263545000.0,-1526000.0,-26765000.0,-240881000.0,0.0
2017-12-31,9447000.0,56968000.0,-265402000.0,10392000.0,-0.0,0.0,287775000.0,-0.0,-70013000.0,-0.0,2838000.0,1127000.0,26338000.0,-275794000.0,0.0
2016-12-31,9455000.0,46205000.0,-342441000.0,5079000.0,-0.0,0.0,-60135000.0,-0.0,-43675000.0,-0.0,414382000.0,-873000.0,10933000.0,-347520000.0,0.0
2015-12-31,7993000.0,34189000.0,-162902000.0,5935000.0,-0.0,0.0,-389472000.0,-0.0,526014000.0,-0.0,565469000.0,-376000.0,12719000.0,-168837000.0,0.0
2014-12-31,3809021.0,20126794.0,-87738344.0,4643171.0,-0.0,0.0,-96585176.0,-0.0,163452295.0,-0.0,190983262.0,0.0,6659742.0,-92381515.0,0.0
2013-12-31,1720565.0,9446095.0,-28006409.0,1629140.0,-0.0,0.0,-70213569.0,-0.0,47806152.0,-0.0,66071523.0,0.0,-32148456.0,-29635549.0,0.0
2012-12-31,410601.0,1865755.0,2605786.0,62817.0,-0.0,0.0,-66044.0,-0.0,-45511641.0,-0.0,-249667.0,-6345.0,2283730.0,2542969.0,0.0
2011-12-31,410601.0,1865755.0,2605786.0,-62817.0,0.0,-3227.0,-66044.0,-249667.0,0.0,0.0,-249667.0,-6345.0,2283730.0,2542969.0,0.1236
2010-12-31,479500.0,1692885.0,-13657823.0,-29063.0,0.0,86922.0,57859.0,-270206.0,24888296.0,0.0,24618090.0,-29099.0,10989027.0,-13686886.0,0.1236
