,0,1,2,3,4,5,6,7,8,9,10,11,12,13,14,15,16,17,18,19,20,21,22,23,24,25,26,27,28,29,30
Date,Revenue,Revenue Growth,Cost of Revenue,Gross Profit,R&D Expenses,SG&A Expense,Operating Expenses,Operating Income,Interest Expense,Earnings before Tax,Income Tax Expense,Net Income - Non-Controlling int,Net Income - Discontinued ops,Net Income,Preferred Dividends,Net Income Com,EPS,EPS Diluted,Weighted Average Shs Out,Weighted Average Shs Out (Dil),Dividend per Share,Gross Margin,EBITDA Margin,EBIT Margin,Profit Margin,Free Cash Flow margin,EBITDA,EBIT,Consolidated Income,Earnings Before Tax Margin,Net Profit Margin
2019-12-31,1266208000.0,-0.09559155452700001,794344000.0,471864000.0,48611000.0,276982000.0,364504000.0,107360000.0,549000.0,114707000.0,13672000.0,0.0,0.0,101035000.0,0.0,101035000.0,4.9,4.69,20629000.0,21545000.0,0.0,0.372659152367,0.152418086128,0.08478859713410002,0.0797933672825,0.00363763299553,192993000.0,107360000.0,101035000.0,0.0905909613586,0.0797933672825
2018-12-31,1400040000.0,0.0831084013545,830012000.0,570028000.0,52867000.0,328146000.0,548416000.0,21612000.0,709000.0,22374000.0,-6419000.0,0.0,0.0,28793000.0,0.0,28793000.0,1.41,1.33,20394000.0,21601000.0,0.0,0.407151224251,0.0692673066484,0.015436701808499998,0.020565840976,0.0482093368761,96977000.0,21612000.0,28793000.0,0.0159809719722,0.020565840976
2017-12-31,1292613000.0,2.40724407705,866518000.0,426095000.0,51253000.0,303953000.0,441173000.0,-15078000.0,2047000.0,51283000.0,-17361000.0,0.0,0.0,68644000.0,0.0,68644000.0,3.5,3.29,19614000.0,20858000.0,0.0,0.329638491954,0.039951632855300005,-0.0116647442042,0.053104834935099994,0.0618468172609,51642000.0,-15078000.0,68644000.0,0.039673900850400005,0.053104834935099994
2016-12-31,379372000.0,0.110352740087,177974000.0,201398000.0,12955000.0,89426000.0,118457000.0,82941000.0,0.0,85164000.0,22080000.0,0.0,0.0,63084000.0,0.0,63084000.0,3.9,3.66,16168000.0,17254000.0,0.0,0.530872072794,0.272413356811,0.218627099522,0.16628533471100002,0.17550056409,103346000.0,82941000.0,63084000.0,0.22448678342099998,0.16628533471100002
2015-12-31,341668000.0,0.10479208433000001,160871000.0,180797000.0,15714000.0,83216000.0,112232000.0,68565000.0,0.0,69699000.0,24714000.0,0.0,0.0,44985000.0,0.0,44985000.0,2.84,2.73,15848000.0,16496000.0,0.0,0.529159886205,0.258461430394,0.20067726565000002,0.131662900828,0.122578058232,88308000.0,68565000.0,44985000.0,0.203996277088,0.131662900828
2014-12-31,309260000.0,-0.0142039296689,157859000.0,151401000.0,18332000.0,88939000.0,112364000.0,39037000.0,0.0,39792000.0,13457000.0,0.0,0.0,26335000.0,0.0,26335000.0,1.72,1.68,15282000.0,15647000.0,0.0,0.489558947164,0.196184440277,0.126227122809,0.08515488585660001,0.14239151523,60672000.0,39037000.0,26335000.0,0.128668434327,0.08515488585660001
2013-12-31,313716000.0,-0.00995048426952,158984000.0,154732000.0,12407000.0,90376000.0,102783000.0,51949000.0,0.0,48964000.0,12296000.0,0.0,0.0,40418000.0,0.0,40418000.0,2.75,2.65,14688000.0,15274000.0,0.0,0.493223170001,0.22776970253400003,0.165592446672,0.12883627229699998,0.150808374453,71455000.0,51949000.0,40418000.0,0.15607747134400002,0.12883627229699998
2012-12-31,316869000.0,0.0485580502656,160359000.0,156510000.0,10630000.0,84604000.0,95234000.0,61276000.0,0.0,62204000.0,20558000.0,0.0,0.0,41281000.0,0.0,41281000.0,2.9,2.8,14223000.0,14725000.0,0.0,0.493926512218,0.253344442025,0.19337959850900002,0.130277811966,0.148676582436,80277000.0,61276000.0,41281000.0,0.196308253569,0.130277811966
2011-12-31,302195000.0,0.0618907731339,159841000.0,142354000.0,8588000.0,85287000.0,93875000.0,65221000.0,0.0,66422000.0,21753000.0,0.0,0.0,44669000.0,0.0,44669000.0,3.23,3.15,13835000.0,14161000.0,0.0,0.471066695346,0.280643293238,0.215824219461,0.147815152468,0.161031784113,84809000.0,65221000.0,44669000.0,0.21979847449499998,0.147815152468
2010-12-31,284582000.0,0.242873551672,153989000.0,130593000.0,4678000.0,76636000.0,81314000.0,49279000.0,0.0,49408000.0,18479000.0,0.0,0.0,30929000.0,0.0,30929000.0,2.27,2.23,13611000.0,13855000.0,0.0,0.458894097308,0.23794899185499999,0.173162743954,0.108682207589,0.034872198522699994,67716000.0,49279000.0,30929000.0,0.17361604036800002,0.108682207589
2009-12-31,228971000.0,0.1184,122695000.0,106276000.0,2645000.0,68205000.0,70850000.0,35426000.0,0.0,36607000.0,11626000.0,0.0,0.0,24981000.0,0.0,24981000.0,1.7,1.67,14809239.0,14720000.0,0.0,0.4641,0.228,0.1599,0.109,0.1505,52278000.0,36607000.0,24981000.0,0.1599,0.1091
