,0,1,2,3,4,5,6,7,8,9,10,11,12,13,14,15,16,17,18,19,20,21,22,23,24,25,26,27,28,29,30
Date,Revenue,Revenue Growth,Cost of Revenue,Gross Profit,R&D Expenses,SG&A Expense,Operating Expenses,Operating Income,Interest Expense,Earnings before Tax,Income Tax Expense,Net Income - Non-Controlling int,Net Income - Discontinued ops,Net Income,Preferred Dividends,Net Income Com,EPS,EPS Diluted,Weighted Average Shs Out,Weighted Average Shs Out (Dil),Dividend per Share,Gross Margin,EBITDA Margin,EBIT Margin,Profit Margin,Free Cash Flow margin,EBITDA,EBIT,Consolidated Income,Earnings Before Tax Margin,Net Profit Margin
2018-12-31,53064000.0,0.295571072806,27266000.0,25798000.0,6863000.0,24671000.0,31534000.0,-5736000.0,0.0,-5812000.0,0.0,0.0,0.0,-5812000.0,0.0,-5812000.0,-0.34,-0.34,17233000.0,17233000.0,0.0,0.486167646615,-0.0786785768129,-0.108095884215,-0.10952811699100001,-0.0368046132972,-4175000.0,-5736000.0,-5812000.0,-0.10952811699100001,-0.10952811699100001
2017-12-31,40958000.0,0.112324154038,20031000.0,20927000.0,3965000.0,21053000.0,25018000.0,-4091000.0,0.0,-4181000.0,-311000.0,0.0,0.0,-3870000.0,0.0,-3870000.0,-0.26,-0.26,14961000.0,14961000.0,0.0,0.510938034084,-0.0722447385126,-0.0998828067777,-0.09448703549979999,0.08623467942770001,-2959000.0,-4091000.0,-3870000.0,-0.102080179696,-0.09448703549979999
2016-12-31,36822000.0,-0.118753589891,18528000.0,18294000.0,4536000.0,20126000.0,24662000.0,-6368000.0,293000.0,-6370000.0,0.0,0.0,0.0,-6370000.0,0.0,-6370000.0,-0.49,-0.49,12984000.0,12984000.0,0.0,0.496822551735,-0.154337081093,-0.172940090163,-0.17299440551800002,-0.081174297974,-5683000.0,-6368000.0,-6370000.0,-0.17299440551800002,-0.17299440551800002
2015-12-31,41784000.0,-0.0843468542502,24761000.0,17023000.0,4556000.0,22750000.0,27306000.0,-10283000.0,0.0,-9952000.0,0.0,0.0,0.0,-9952000.0,0.0,-9952000.0,-0.79,-0.79,12614000.0,12614000.0,0.0,0.40740474822899997,-0.22891537430599998,-0.246098985258,-0.23817729274399999,-0.217403790925,-9565000.0,-10283000.0,-9952000.0,-0.23817729274399999,-0.23817729274399999
2014-12-31,45633000.0,0.142367195714,25627000.0,20006000.0,6649000.0,25094000.0,32184000.0,-12178000.0,0.0,-11575000.0,0.0,0.0,0.0,-11575000.0,0.0,-11575000.0,-0.96,-0.96,12098000.0,12098000.0,0.0,0.438410799202,-0.218306927005,-0.266868275152,-0.253654153792,-0.0155808296627,-9962000.0,-12178000.0,-11575000.0,-0.253654153792,-0.253654153792
2013-12-31,39946000.0,0.016644609589700002,22036000.0,17910000.0,4389000.0,21769000.0,26158000.0,-8248000.0,0.0,-7562000.0,-63000.0,0.0,0.0,-7499000.0,0.0,-7499000.0,-0.63,-0.63,11912000.0,11912000.0,0.0,0.448355279627,-0.152130376008,-0.206478746308,-0.187728433385,-0.0420818104441,-6077000.0,-8248000.0,-7499000.0,-0.189305562509,-0.187728433385
2012-12-31,39292000.0,0.51935346661,18723000.0,20569000.0,3534000.0,21995000.0,25529000.0,-4960000.0,0.0,-4430000.0,-390000.0,0.0,0.0,-4040000.0,0.0,-4040000.0,-0.36,-0.36,11162000.0,11162000.0,0.0,0.523490786929,-0.06599307747119999,-0.12623434795900002,-0.10281991245,-0.17894227832600001,-2593000.0,-4960000.0,-4040000.0,-0.11274559706800001,-0.10281991245
2011-12-31,25861000.0,0.0,11440000.0,14421000.0,4429000.0,23326000.0,27755000.0,-13334000.0,56000.0,-12611000.0,0.0,0.0,0.0,-12611000.0,0.0,-12611000.0,-1.12,-1.12,0.0,0.0,0.0,0.557635048915,-0.42144541974399996,-0.515602644909,-0.48764548934699997,-0.195429411082,-10899000.0,-13334000.0,-12611000.0,-0.48764548934699997,-0.48764548934699997
2010-12-31,25861000.0,1.5068825125999998,11440000.0,14421000.0,4429000.0,23326000.0,27755000.0,-13334000.0,56000.0,-12611000.0,0.0,0.0,0.0,-12611000.0,0.0,-12611000.0,-1.12,-1.12,11253253.0,11239000.0,0.0,0.5576,-0.391,-0.4855,-0.488,-0.1954,-10120000.0,-12555000.0,-12611000.0,-0.4876,-0.4876
2009-12-31,10316000.0,-0.6186,5554000.0,4762000.0,2604000.0,16543000.0,19147000.0,-14385000.0,130000.0,-13192000.0,0.0,0.0,0.0,-13192000.0,0.0,-13192000.0,-1.2,-1.2,11074059.0,10991000.0,0.0,0.4616,-1.215,-1.2662,-1.2790000000000001,-0.7008,-12529000.0,-13062000.0,-13192000.0,-1.2788,-1.2788
