,0,1,2,3,4,5,6,7,8,9,10,11,12,13,14
Date,Depreciation & Amortization,Stock-based compensation,Operating Cash Flow,Capital Expenditure,Acquisitions and disposals,Investment purchases and sales,Investing Cash flow,Issuance (repayment) of debt,Issuance (buybacks) of shares,Dividend payments,Financing Cash Flow,Effect of forex changes on cash,Net cash flow / Change in cash,Free Cash Flow,Net Cash/Marketcap
2019-12-31,88011000.0,39278000.0,459158000.0,155224000.0,-50304000.0,-301658000.0,-205528000.0,110275000.0,-301658000.0,-0.0,-286409000.0,-689000.0,-33468000.0,303934000.0,0.0
2018-12-31,83173000.0,25157000.0,400084000.0,122936000.0,-22500000.0,-85281000.0,133834000.0,256040000.0,-369319000.0,-0.0,-597799000.0,-4768000.0,-63881000.0,277148000.0,0.0
2017-12-31,83178000.0,23517000.0,373276000.0,76704000.0,-14579000.0,-329970000.0,-138688000.0,-44000000.0,-282565000.0,-0.0,-208016000.0,6202000.0,32774000.0,296572000.0,0.0
2016-12-31,79061000.0,19891000.0,334571000.0,64787000.0,-1964000.0,-328121000.0,-90786000.0,-38000000.0,-304086000.0,-0.0,-217824000.0,-54000.0,25907000.0,269784000.0,0.0
2015-12-31,70388000.0,19884000.0,216364000.0,82921000.0,-10302000.0,-617164000.0,-308406000.0,-24000000.0,-401981000.0,-0.0,-95552000.0,-5948000.0,-193542000.0,133443000.0,0.0
2014-12-31,58888000.0,18099000.0,235846000.0,60698000.0,-25115000.0,-618158000.0,-80413000.0,-273394000.0,-618158000.0,-0.0,-103438000.0,-8517000.0,43478000.0,175148000.0,0.0
2013-12-31,54596000.0,16539000.0,245996000.0,78636000.0,-10923000.0,-367761000.0,-86059000.0,-66107000.0,-367761000.0,-0.0,-102451000.0,-2414000.0,55072000.0,167360000.0,0.0
2012-12-31,52408000.0,15952000.0,230282000.0,66392000.0,-2658000.0,-132268000.0,-66005000.0,30083000.0,-132268000.0,-0.0,-125343000.0,1157000.0,40091000.0,163890000.0,0.0
2011-12-31,48202000.0,15496000.0,220700000.0,53464000.0,-46757000.0,-255505000.0,-96996000.0,-114766000.0,-255505000.0,-0.0,-97657000.0,933000.0,26980000.0,167236000.0,0.0
2010-12-31,0.0,0.0,0.0,0.0,-0.0,0.0,156915000.0,-0.0,-156915000.0,-0.0,0.0,0.0,156915000.0,0.0,0.0
2009-12-31,49773000.0,6429000.0,174952000.0,-48584000.0,-4537000.0,0.0,-53621000.0,-33756000.0,-66733000.0,0.0,-95295000.0,1824000.0,27860000.0,126368000.0,-0.0055
