,0,1,2,3,4,5,6,7,8,9,10,11,12,13,14,15,16,17,18,19,20,21,22,23,24,25,26,27,28,29,30
Date,Revenue,Revenue Growth,Cost of Revenue,Gross Profit,R&D Expenses,SG&A Expense,Operating Expenses,Operating Income,Interest Expense,Earnings before Tax,Income Tax Expense,Net Income - Non-Controlling int,Net Income - Discontinued ops,Net Income,Preferred Dividends,Net Income Com,EPS,EPS Diluted,Weighted Average Shs Out,Weighted Average Shs Out (Dil),Dividend per Share,Gross Margin,EBITDA Margin,EBIT Margin,Profit Margin,Free Cash Flow margin,EBITDA,EBIT,Consolidated Income,Earnings Before Tax Margin,Net Profit Margin
2019-09-30,156981000.0,0.342613024067,135337000.0,21644000.0,0.0,14076000.0,14076000.0,7568000.0,1645000.0,5923000.0,1176000.0,0.0,0.0,4747000.0,0.0,4747000.0,0.0,0.0,10306947.0,10518126.0,0.0,0.13787655830999998,0.0655238532052,0.0482096559456,0.0302393283264,-0.0800988654678,10286000.0,7568000.0,4747000.0,0.037730680783,0.0302393283264
2018-09-30,116922000.0,0.21219221398600002,102765000.0,14157000.0,0.0,11438000.0,11438000.0,2719000.0,1146000.0,1573000.0,-8837000.0,0.0,0.0,10410000.0,0.0,10410000.0,0.0,0.0,10228596.0,10320203.0,0.0,0.12108072048,0.042652366535,0.023254819452299996,0.08903371478420001,-0.0353825627341,4987000.0,2719000.0,10410000.0,0.0134534133867,0.08903371478420001
2017-09-30,96455000.0,-0.240571608535,85198000.0,11257000.0,0.0,10197000.0,10197000.0,1060000.0,917000.0,143000.0,62000.0,0.0,0.0,81000.0,0.0,81000.0,10.0,10.0,10181868.0,10181868.0,0.0,0.116707272822,0.0374060442693,0.0109895806335,0.0008397698408580001,-0.0183919962677,3608000.0,1060000.0,81000.0,0.0014825566326300001,0.0008397698408580001
2016-09-30,127010000.0,8.66148552351e-05,106723000.0,20287000.0,0.0,14026000.0,14026000.0,6248000.0,1392000.0,4856000.0,70000.0,0.0,0.0,4786000.0,0.0,4786000.0,0.47,0.47,10211210.0,10211210.0,0.0,0.159727580505,0.07402566727030001,0.049192976931,0.0376820722778,0.0946145972758,9402000.0,6248000.0,4786000.0,0.0382332099835,0.0376820722778
2015-09-30,126999000.0,-0.0635742252306,110704000.0,16295000.0,0.0,16630000.0,16630000.0,-1660000.0,2110000.0,-3770000.0,1000.0,0.0,0.0,-10186000.0,0.0,-10186000.0,-1.01,-1.01,10089306.0,10089306.0,0.0,0.128308096914,0.0173150969693,-0.013070969062700001,-0.0802053559477,-0.030575043898,2199000.0,-1660000.0,-10186000.0,-0.0296852731124,-0.0802053559477
2014-09-30,135621000.0,-0.037780426546300004,120297000.0,15324000.0,0.0,14567000.0,14567000.0,-379000.0,1795000.0,-2192000.0,12879000.0,0.0,0.0,-15071000.0,0.0,-15071000.0,-1.53,-1.53,9827043.0,9827043.0,0.0,0.112991350897,0.032937376954900004,-0.00279455246606,-0.11112585809,0.0341908701455,4467000.0,-379000.0,-15071000.0,-0.016162688669200002,-0.11112585809
2013-09-30,140946000.0,0.0573910694995,123269000.0,17677000.0,0.0,15453000.0,15453000.0,-13835000.0,1170000.0,-15052000.0,-5522000.0,0.0,0.0,-9530000.0,0.0,-9530000.0,-0.98,-0.98,9711549.0,9711549.0,0.0,0.12541682630200002,-0.0641380386815,-0.0981581598626,-0.0676145474153,-0.0669830999106,-9040000.0,-13835000.0,-9530000.0,-0.106792672371,-0.0676145474153
2012-09-30,133296000.0,0.0,107539000.0,25757000.0,0.0,15368000.0,15368000.0,10389000.0,199000.0,9816000.0,3056000.0,0.0,0.0,6760000.0,0.0,6760000.0,0.71,0.68,9461240.0,9967702.0,0.0,0.193231604849,0.102373664626,0.07793932301039999,0.050714199976000005,0.059491657664099994,13646000.0,10389000.0,6760000.0,0.0736406193734,0.050714199976000005
2011-09-30,133296000.0,0.378819537828,109039000.0,24257000.0,0.0,13868000.0,13868000.0,10389000.0,1601000.0,9816000.0,3056000.0,0.0,0.0,6760000.0,0.0,6760000.0,0.71,0.68,9461240.0,9967702.0,0.0,0.181978453967,0.102373664626,0.07793932301039999,0.050714199976000005,0.068711739287,13646000.0,10389000.0,6760000.0,0.0736406193734,0.050714199976000005
2010-09-30,96674000.0,0.425638908142,80411000.0,16263000.0,0.0,8576000.0,8576000.0,7687000.0,814000.0,7055000.0,2400000.0,0.0,0.0,4655000.0,0.0,4655000.0,0.52,0.48,9087029.0,8990180.0,0.0,0.1682,0.094,0.0814,0.048,0.0586,9093000.0,7869000.0,4655000.0,0.073,0.0482
2009-09-30,67811000.0,0.3272,56985000.0,10826000.0,0.0,6006000.0,6006000.0,4820000.0,389000.0,4718000.0,-238000.0,0.0,0.0,4956000.0,0.0,4956000.0,0.57,0.52,8549113.0,8728930.0,0.0,0.1596,0.079,0.0753,0.073,0.018000000000000002,5389000.0,5107000.0,4956000.0,0.0696,0.0731
