,0,1,2,3,4,5,6,7,8,9,10,11,12,13,14,15,16,17,18,19,20,21,22,23,24,25,26,27,28
Date,Cash and cash equivalents,Short-term investments,Cash and short-term investments,Receivables,Inventories,Total current assets,Property Plant & Equipment Net,Goodwill and Intangible Assets,Long-term investments,Tax assets,Total non-current assets,Total assets,Payables,Short-term debt,Total current liabilities,Long-term debt,Total debt,Deferred revenue,Tax Liabilities,Deposit Liabilities,Total non-current liabilities,Total liabilities,Other comprehensive income,Retained earnings (deficit),Total shareholders equity,Investments,Net Debt,Other Assets,Other Liabilities
2018-12-31,63662068.9655,116303448.2759,179965517.2414,0.0,0.0,181791954.023,718390.8046,256321.8391,237931.0345,0.0,1212643.6782,183004597.7011,7651724.1379,0.0,8914942.5287,0.0,0.0,0.0,356321.8391,0.0,78160.9195,8993103.4483,0.0,-93226436.7816,174012643.6782,116541379.3103,-179512767.3855,1409482.7586,1263218.3908
2017-12-31,147997599.0396,0.0,147997599.0396,0.0,0.0,148834333.7335,207683.0732,49219.6879,24009.6038,0.0,280912.3649,149115246.0984,5364945.9784,0.0,5721488.5954,0.0,0.0,0.0,2400.9604,0.0,20408.1633,5741896.7587,0.0,-61576230.4922,143372148.8595,24009.6038,,658400.9604,356542.617
2016-12-31,30649473.6842,0.0,30649473.6842,0.0,0.0,30927368.4211,137894.7368,5263.1579,1052.6316,0.0,144210.5263,31071578.9474,1614736.8421,0.0,1837894.7368,0.0,0.0,20000.0,0.0,0.0,56274736.8421,58112631.5789,0.0,-28478947.3684,-27041052.6316,1052.6316,,,223157.8947
2015-12-31,3585233.4419,0.0,3585233.4419,0.0,0.0,3766558.0889999997,118349.62,7600.4343,1085.7763,0.0,127035.8306,3893593.9197,401737.2421,0.0,473398.4799,0.0,0.0,24972.8556,0.0,0.0,22550488.5993,23023887.0793,0.0,-19669923.9957,-19130293.1596,1085.7763,,,71661.2378
