,0,1,2,3,4,5,6,7,8,9,10,11,12,13,14
Date,Depreciation & Amortization,Stock-based compensation,Operating Cash Flow,Capital Expenditure,Acquisitions and disposals,Investment purchases and sales,Investing Cash flow,Issuance (repayment) of debt,Issuance (buybacks) of shares,Dividend payments,Financing Cash Flow,Effect of forex changes on cash,Net cash flow / Change in cash,Free Cash Flow,Net Cash/Marketcap
2018-12-31,200000.0,13890804.5977,-27255172.4138,-926436.7816,0.0,-113382758.6207,-114311494.2529,0.0,61428735.6322,0.0,57059770.1149,6466666.6667,-78041379.3103,-28181609.1954,0.15
2017-12-31,85234.0936,5462184.8739,-14588235.2941,-178871.5486,0.0,-22809.1236,-200480.1921,0.0,109128451.3806,0.0,130613445.3782,-2781512.605,113043217.2869,-14767106.8427,0.0
2016-12-31,34736.8421,913684.2105,-5254736.8421,-55789.4737,0.0,0.0,-55789.4737,0.0,0.0,0.0,32484210.5263,1052.6316,27173684.2105,-5310526.3158,0.0
2015-12-31,43431.0532,263843.6482,-3591748.0999,-14115.0923,0.0,0.0,-14115.0923,0.0,0.0,0.0,0.0,1085.7763,-3604777.4159,-3605863.1922,0.0
