,0,1,2,3,4,5,6,7,8,9,10,11,12,13,14,15,16,17,18,19,20,21,22,23,24,25,26,27,28
Date,Cash and cash equivalents,Short-term investments,Cash and short-term investments,Receivables,Inventories,Total current assets,Property Plant & Equipment Net,Goodwill and Intangible Assets,Long-term investments,Tax assets,Total non-current assets,Total assets,Payables,Short-term debt,Total current liabilities,Long-term debt,Total debt,Deferred revenue,Tax Liabilities,Deposit Liabilities,Total non-current liabilities,Total liabilities,Other comprehensive income,Retained earnings (deficit),Total shareholders equity,Investments,Net Debt,Other Assets,Other Liabilities
2018-12-31,2086435000.0,,,520140000.0,0.0,,183095588.2353,280748823.5294,,23375000.0,,18748355588.2353,514812647.0588,,,,3173570294.1176,0.0,15294.1176,9906455882.3529,,16663509705.8824,35790000.0,353836176.4706,2072962941.1765,15548068235.2941,,,
2017-12-31,2839207384.6154,,,305665846.1538,0.0,,188504307.6923,283567384.6154,,16392923.0769,,18582922153.8462,416528923.0769,,,,3079923076.9231,0.0,79076.9231,10033119076.9231,,16786950769.2308,-70376923.0769,481521538.4615,1784782461.5385,14838257846.1538,,,
2016-12-31,2534356695.4966,,,327037578.2881,0.0,,175908141.9624,79749776.3197,,10223083.8055,,15424801371.9058,346574410.9752,,,,3011629287.2055,0.0,1176856.5464,8976394273.7847,,13934092752.7587,-138120489.1142,606266626.9013,1455147927.2293,12300923053.9815,,,
