,0,1,2,3,4,5,6,7,8,9,10,11,12,13,14,15,16,17,18,19,20,21,22,23,24,25,26,27,28,29,30
Date,Revenue,Revenue Growth,Cost of Revenue,Gross Profit,R&D Expenses,SG&A Expense,Operating Expenses,Operating Income,Interest Expense,Earnings before Tax,Income Tax Expense,Net Income - Non-Controlling int,Net Income - Discontinued ops,Net Income,Preferred Dividends,Net Income Com,EPS,EPS Diluted,Weighted Average Shs Out,Weighted Average Shs Out (Dil),Dividend per Share,Gross Margin,EBITDA Margin,EBIT Margin,Profit Margin,Free Cash Flow margin,EBITDA,EBIT,Consolidated Income,Earnings Before Tax Margin,Net Profit Margin
2019-03-31,5116000.0,1.3333135698,4984000.0,132000.0,1256000.0,3519000.0,4775000.0,-4643000.0,0.0,0.0,2000.0,0.0,0.0,-4097000.0,0.0,-4097000.0,-0.13,-0.13,35393407.0,35393.0,0.0,0.0258014073495,-0.892494136044,-0.907544956998,-0.80082095387,-0.653831118061,-4566000.0,-4643000.0,-4097000.0,0.0,-0.80082095387
2018-03-31,2192590.0,2.7779045164099996,2111066.0,81524.0,0.0,1870477.0,1870477.0,-1788953.0,30742.0,-1785810.0,464.0,0.0,0.0,-1786274.0,0.0,-1786274.0,-0.06,-0.06,27937287.0,27937287.0,0.0,0.0371815980188,-0.8070542144220001,-0.815908583,-0.8146867403389999,-0.942633597709,-1769539.0,-1788953.0,-1786274.0,-0.8144751184669999,-0.8146867403389999
2017-03-31,580372.0,-0.908840423777,362135.0,218237.0,0.0,1875344.0,1875344.0,-2054385.0,223464.0,-1838430.0,14431.0,0.0,0.0,-1867260.0,0.0,-1867260.0,-0.07,-0.07,25658544.0,25658544.0,0.0,0.37602951210600005,-2.63317837525,-3.53977276643,-3.2173502512199996,-2.6478775681799998,-1528223.0,-2054385.0,-1867260.0,-3.1676752152099996,-3.2173502512199996
2016-03-31,6366550.0,-0.171049875024,5523256.0,843294.0,0.0,2702753.0,2702753.0,-2905710.0,213928.0,-2833367.0,579.0,0.0,0.0,-2808244.0,0.0,-2808244.0,-0.17,-0.17,16387290.0,16387290.0,0.0,0.132456982196,-0.327135732854,-0.45640260423600004,-0.441093527892,-0.043962114489000004,-2082726.0,-2905710.0,-2808244.0,-0.445039621145,-0.441093527892
2015-03-31,7680257.0,2.37867721295,7100568.0,579689.0,0.0,4140434.0,4140434.0,-4342291.0,286332.0,-4678191.0,5157.0,0.0,0.0,-4614183.0,0.0,-4614183.0,-0.31,-0.31,14755893.0,14755893.0,0.0,0.0754778127867,-0.437057509924,-0.565383554222,-0.600784973732,-0.346364581289,-3356714.0,-4342291.0,-4614183.0,-0.609119069844,-0.600784973732
2014-03-31,2273155.0,-0.716917749603,1891559.0,381596.0,0.0,2178740.0,2178740.0,-2527702.0,291520.0,0.0,0.0,0.0,0.0,-3022593.0,0.0,-3022593.0,-0.37,-0.37,8205684.0,8205684.0,0.0,0.167870646744,-0.6796131368080001,-1.11197960544,-1.32969067222,-0.770092228643,-1544866.0,-2527702.0,-3022593.0,0.0,-1.32969067222
2013-03-31,8030016.0,0.9121129854119999,6496891.0,1533125.0,0.0,3041632.0,3041632.0,-2483564.0,419436.0,0.0,-365116.0,0.0,0.0,-2252347.0,0.0,-2252347.0,-0.32,-0.32,6966798.0,6966798.0,0.0,0.190924277112,-0.162932178466,-0.309285062446,-0.28049097286999997,0.029734311861900002,-1308348.0,-2483564.0,-2252347.0,0.0,-0.28049097286999997
2012-03-31,4199551.0,0.0308381192655,4817980.0,-618429.0,0.0,4702492.0,4702492.0,-7746925.0,0.0,-7746925.0,172828.0,0.0,0.0,-7751925.0,0.0,-7751925.0,-0.27,-0.27,29089358.0,29089358.0,0.0,-0.147260742875,-1.49048672108,-1.8447031599300001,-1.8458937634,-1.19723322803,-6259375.0,-7746925.0,-7751925.0,-1.8447031599300001,-1.8458937634
2011-03-31,4073919.0,-0.772379114648,3914655.0,159264.0,0.0,7283089.0,13861004.0,-13701740.0,1395433.0,-16140522.0,4100385.0,-769046.0,0.0,-20240907.0,0.0,-20240907.0,-13.4,-13.4,1713204.0,1510892.0,0.0,0.0391,-3.427,-3.6194,-4.968,-0.7093,-13960023.0,-14745089.0,-21009953.0,-3.9619,-4.9684
2010-03-31,17897826.0,-0.4935,15671840.0,2225986.0,0.0,5614673.0,6217826.0,-3991840.0,1221466.0,-7899015.0,-3109704.0,-18490.0,0.0,-4789311.0,0.0,-4789311.0,-4.2,-4.2,1289829.0,1153786.0,0.0,0.1244,-0.33899999999999997,-0.3731,-0.268,-0.1524,-6074396.0,-6677549.0,-4807801.0,-0.4413,-0.2676
