,0,1,2,3,4,5,6,7,8,9,10,11,12,13,14,15,16,17,18,19,20,21,22,23,24,25,26,27,28,29,30
Date,Revenue,Revenue Growth,Cost of Revenue,Gross Profit,R&D Expenses,SG&A Expense,Operating Expenses,Operating Income,Interest Expense,Earnings before Tax,Income Tax Expense,Net Income - Non-Controlling int,Net Income - Discontinued ops,Net Income,Preferred Dividends,Net Income Com,EPS,EPS Diluted,Weighted Average Shs Out,Weighted Average Shs Out (Dil),Dividend per Share,Gross Margin,EBITDA Margin,EBIT Margin,Profit Margin,Free Cash Flow margin,EBITDA,EBIT,Consolidated Income,Earnings Before Tax Margin,Net Profit Margin
2019-12-31,90628000.0,-0.136876190476,0.0,0.0,0.0,22410000.0,96920000.0,-6292000.0,155868000.0,-8222000.0,-245000.0,0.0,0.0,-7977000.0,0.0,-7977000.0,-0.38,-0.38,21189000.0,21189000.0,0.0,0.0,-0.0629275720528,-0.0694266672552,-0.08801915522800001,-4.16519177296,-5703000.0,-6292000.0,-7977000.0,-0.0907225140133,-0.08801915522800001
2018-12-31,105000000.0,-0.242997728993,0.0,0.0,0.0,35339000.0,249352000.0,-144352000.0,184331000.0,-140406000.0,5004000.0,0.0,0.0,-145410000.0,0.0,-145410000.0,-6.92,-6.92,21026000.0,21026000.0,0.0,0.0,-1.3377333333299999,-1.37478095238,-1.38485714286,1.9139904761900002,-140462000.0,-144352000.0,-145410000.0,-1.3372,-1.38485714286
2017-12-31,138705000.0,-0.534165558377,0.0,0.0,0.0,37775000.0,156430000.0,-17725000.0,225987000.0,-11383000.0,20138000.0,0.0,0.0,-31521000.0,0.0,-31521000.0,-1.62,-1.62,19438000.0,19438000.0,0.0,0.0,-0.09221729569949999,-0.12778919289100002,-0.227252081756,-0.994088172741,-12791000.0,-17725000.0,-31521000.0,-0.08206625572260001,-0.227252081756
2016-12-31,297756000.0,0.783429266218,0.0,0.0,0.0,33771000.0,238043000.0,59713000.0,260810000.0,47763000.0,1093000.0,0.0,0.0,46670000.0,0.0,46670000.0,3.54,3.31,13193000.0,14856000.0,0.0,0.0,0.218037587824,0.20054339795,0.15673907494699998,0.21989817165699999,64922000.0,59713000.0,46670000.0,0.160409865796,0.15673907494699998
2015-12-31,166957000.0,2.69463807564,0.0,0.0,0.0,27988000.0,95681000.0,71276000.0,274853000.0,58923000.0,-21876000.0,0.0,0.0,80799000.0,0.0,80799000.0,8.0,6.4,10094000.0,13045000.0,0.0,0.0,0.450331522488,0.426912318741,0.48395095743199995,0.184316919925,75186000.0,71276000.0,80799000.0,0.352923207772,0.48395095743199995
2014-12-31,45189000.0,-0.477481123458,0.0,0.0,0.0,10505000.0,56035000.0,-2662000.0,294521000.0,-2662000.0,1305000.0,0.0,0.0,-6322000.0,0.0,-6322000.0,-0.68,-0.68,9344000.0,9344000.0,0.0,0.0,-0.0578459359579,-0.058908141361800004,-0.13990130341499998,0.663059594149,-2614000.0,-2662000.0,-6322000.0,-0.058908141361800004,-0.13990130341499998
2013-12-31,86483000.0,46.54425508520001,0.0,0.0,0.0,14805000.0,88074000.0,-8184000.0,310477000.0,-5011000.0,-1031000.0,0.0,0.0,-8184000.0,0.0,-8184000.0,-0.94,-0.94,8749000.0,8749000.0,0.0,0.0,-0.0942844258409,-0.09463131482489999,-0.09463131482489999,2.01408369275,-8154000.0,-8184000.0,-8184000.0,-0.0579420232878,-0.09463131482489999
2012-12-31,1819000.0,-0.491473301649,0.0,0.0,0.0,9427000.0,9427000.0,-3375000.0,476828000.0,13045000.0,1244000.0,0.0,0.0,-3375000.0,0.0,-3375000.0,-0.42,-0.42,7914000.0,7914000.0,0.0,0.0,-1.8064870808099998,-1.85541506322,-1.85541506322,100.63826278200001,-3286000.0,-3375000.0,-3375000.0,7.17152281473,-1.85541506322
2011-12-31,3577000.0,-0.9482898198749999,0.0,0.0,0.0,9583000.0,9583000.0,6923000.0,733872000.0,6923000.0,1194000.0,0.0,0.0,3224000.0,0.0,3224000.0,0.41,0.39,0.0,0.0,0.0,0.0,2.62566396422,1.9354207436400002,0.901313950238,48.3908303047,9392000.0,6923000.0,3224000.0,1.9354207436400002,0.901313950238
2010-12-31,69174000.0,0.049331027577999995,0.0,69174000.0,0.0,61370000.0,61370000.0,7804000.0,0.0,10499000.0,205000.0,-457000.0,-2238000.0,10294000.0,0.0,10294000.0,1.33,1.24,7768748.0,7768748.0,0.0,1.0,0.152,0.1518,0.149,3.9009,10499000.0,10499000.0,9837000.0,0.1518,0.1488
2009-12-31,65922000.0,0.1735,0.0,65922000.0,0.0,55633000.0,55633000.0,10289000.0,0.0,12854000.0,2017000.0,-250000.0,-2315000.0,10837000.0,7443000.0,3394000.0,0.44,0.44,7698146.0,7698146.0,0.0,1.0,0.195,0.195,0.051,5.8847,12854000.0,12854000.0,10587000.0,0.195,0.1644
