,0,1,2,3,4,5,6,7,8,9,10,11,12,13,14,15,16,17,18,19,20,21,22,23,24,25,26,27,28
Date,Cash and cash equivalents,Short-term investments,Cash and short-term investments,Receivables,Inventories,Total current assets,Property Plant & Equipment Net,Goodwill and Intangible Assets,Long-term investments,Tax assets,Total non-current assets,Total assets,Payables,Short-term debt,Total current liabilities,Long-term debt,Total debt,Deferred revenue,Tax Liabilities,Deposit Liabilities,Total non-current liabilities,Total liabilities,Other comprehensive income,Retained earnings (deficit),Total shareholders equity,Investments,Net Debt,Other Assets,Other Liabilities
2019-12-31,86478000.0,3019000.0,89497000.0,3385000.0,0.0,106960000.0,1226000.0,0.0,0.0,470000.0,17888000.0,124848000.0,809000.0,3478000.0,11823000.0,2664000.0,6142000.0,4692000.0,46000.0,0.0,57884000.0,41091000.0,202197999.999,-118565000.0,83757000.0,3019000.0,-80336000.0,0.0,0.0
2018-12-31,110988000.0,13930000.0,124918000.0,1051000.0,0.0,135825000.0,2343000.0,0.0,0.0,295000.0,10170000.0,145995000.0,3612000.0,3194000.0,15345000.0,0.0,3194000.0,4591000.0,204000.0,0.0,61193000.0,46335000.0,198064999.999,-98521000.0,99660000.0,13930000.0,-107794000.0,0.0,0.0
2017-12-31,24622000.0,21916000.0,46538000.0,806000.0,0.0,48080000.0,3150000.0,0.0,0.0,0.0,3895000.0,51975000.0,6647000.0,3896000.0,19100000.0,0.0,3896000.0,4424000.0,219000.0,0.0,23619000.0,42318000.0,181173999.999,-171616000.0,9657000.0,21916000.0,-20726000.0,0.0,0.0
2016-12-31,56865000.0,32907000.0,89772000.0,1382000.0,0.0,94030000.0,4016000.0,0.0,0.0,359000.0,9737000.0,103767000.0,5951000.0,4409000.0,21022000.0,0.0,4409000.0,5909000.0,164000.0,0.0,27771000.0,48427000.0,0.0,-119329000.0,55340000.0,32907000.0,-52456000.0,0.0,0.0
2015-12-31,25013000.0,39918000.0,64931000.0,1213000.0,0.0,68934000.0,4589000.0,0.0,0.0,0.0,36481000.0,105415000.0,650000.0,2999000.0,15185000.0,0.0,2999000.0,6696000.0,129000.0,0.0,28248000.0,18800000.0,0.0,-79948000.0,86615000.0,39918000.0,-22014000.0,0.0,0.0
2014-12-31,14380000.0,42981000.0,57361000.0,3021000.0,0.0,70604000.0,1207000.0,0.0,0.0,9377000.0,26917000.0,97521000.0,669000.0,2225000.0,12579000.0,0.0,2225000.0,7779000.0,69000.0,0.0,33758000.0,20918000.0,0.0,-82806000.0,76603000.0,42981000.0,-12155000.0,0.0,0.0
2013-12-31,14136000.0,56976000.0,71112000.0,598000.0,0.0,80184000.0,944000.0,0.0,0.0,29066000.0,30391000.0,110575000.0,682000.0,1653000.0,15935000.0,0.0,1653000.0,8920000.0,41000.0,0.0,21753000.0,29904000.0,0.0,-86929000.0,80671000.0,56976000.0,-12483000.0,0.0,0.0
2012-12-31,4558000.0,0.0,4558000.0,0.0,0.0,4558000.0,1281000.0,0.0,0.0,0.0,58884000.0,63442000.0,0.0,0.0,628000.0,0.0,0.0,0.0,628000.0,0.0,11005000.0,18801000.0,0.0,-111721000.0,44641000.0,0.0,-4558000.0,0.0,7168000.0
2011-12-31,7298000.0,48987000.0,56285000.0,1487000.0,423000.0,58889000.0,1737000.0,0.0,0.0,215000.0,15790000.0,74679000.0,365000.0,2054000.0,9369000.0,0.0,2054000.0,4120000.0,0.0,0.0,13689000.0,23058000.0,0.0,-106157000.0,51621000.0,48987000.0,-5244000.0,0.0,0.0
2010-12-31,12243000.0,48961000.0,61204000.0,815000.0,406000.0,66588000.0,1931000.0,12356000.0,0.0,342000.0,14287000.0,80875000.0,393000.0,0.0,9817000.0,0.0,0.0,20923000.0,342000.0,0.0,17374000.0,27191000.0,120000.0,-104553000.0,53684000.0,48961000.0,-61204000.0,4163000.0,9424000.0
2009-12-31,19828000.0,43900000.0,63728000.0,2988000.0,2001000.0,73439000.0,3498000.0,10897000.0,0.0,248000.0,14395000.0,87834000.0,1382000.0,0.0,12434000.0,0.0,0.0,25429000.0,248000.0,0.0,19659000.0,32093000.0,66000.0,-98626000.0,55741000.0,43900000.0,-63728000.0,4722000.0,11052000.0
