,0,1,2,3,4,5,6,7,8,9,10,11,12,13,14,15,16,17,18,19,20,21,22,23,24,25,26,27,28,29,30
Date,Revenue,Revenue Growth,Cost of Revenue,Gross Profit,R&D Expenses,SG&A Expense,Operating Expenses,Operating Income,Interest Expense,Earnings before Tax,Income Tax Expense,Net Income - Non-Controlling int,Net Income - Discontinued ops,Net Income,Preferred Dividends,Net Income Com,EPS,EPS Diluted,Weighted Average Shs Out,Weighted Average Shs Out (Dil),Dividend per Share,Gross Margin,EBITDA Margin,EBIT Margin,Profit Margin,Free Cash Flow margin,EBITDA,EBIT,Consolidated Income,Earnings Before Tax Margin,Net Profit Margin
2019-12-31,35953000.0,-0.6760378089550001,170000.0,35783000.0,7840000.0,49394000.0,57234000.0,-21451000.0,0.0,-19573000.0,471000.0,0.0,0.0,-20044000.0,0.0,-20044000.0,-0.64,-0.64,31529000.0,31529000.0,0.0,0.995271604595,-0.535532500765,-0.596640057853,-0.557505632353,-0.952604789586,-19254000.0,-21451000.0,-20044000.0,-0.544405195672,-0.557505632353
2018-12-31,110979000.0,2.16965127238,218000.0,110761000.0,9727000.0,47933000.0,57660000.0,53101000.0,0.0,54735000.0,392000.0,0.0,0.0,54343000.0,0.0,54343000.0,1.78,1.73,30459000.0,31407000.0,0.0,0.998035664405,0.48618207048199996,0.478477910235,0.489669216699,0.629398354644,53956000.0,53101000.0,54343000.0,0.493201416484,0.489669216699
2017-12-31,35013000.0,-0.386662228918,197000.0,34816000.0,11759000.0,66859000.0,78618000.0,-45422000.0,0.0,-44811000.0,480000.0,0.0,0.0,-45291000.0,0.0,-45291000.0,-1.55,-1.55,29179000.0,29179000.0,0.0,0.9943735184070001,-1.2696427041399998,-1.29728957816,-1.2935481107,-1.25536229401,-44454000.0,-45422000.0,-45291000.0,-1.2798389169700002,-1.2935481107
2016-12-31,57086000.0,-0.09949048002149999,191000.0,56895000.0,13388000.0,58764000.0,72215000.0,-15263000.0,0.0,-14509000.0,25521000.0,0.0,0.0,-39381000.0,0.0,-39381000.0,-1.37,-1.37,28759000.0,28759000.0,0.0,0.9966541709000001,-0.251427670532,-0.26736853168900004,-0.689853904635,0.380110710157,-14353000.0,-15263000.0,-39381000.0,-0.25416038958799997,-0.689853904635
2015-12-31,63393000.0,0.19751780418200002,440000.0,62953000.0,14785000.0,43429000.0,58661000.0,4719000.0,0.0,4449000.0,1591000.0,0.0,0.0,2858000.0,0.0,2858000.0,0.1,0.1,28097000.0,29015000.0,0.0,0.993059170571,0.0904674017636,0.07444039562730001,0.0450838420646,0.08857444828289998,5735000.0,4719000.0,2858000.0,0.0701812502958,0.0450838420646
2014-12-31,52937000.0,0.11516747419399999,460000.0,52477000.0,11793000.0,34650000.0,46443000.0,5967000.0,0.0,6319000.0,2196000.0,0.0,0.0,4123000.0,0.0,4123000.0,0.15,0.14,28246000.0,29144000.0,0.0,0.9913104256,0.123429737235,0.112718892268,0.07788503315260001,-0.009218505015399999,6534000.0,5967000.0,4123000.0,0.11936830572200001,0.07788503315260001
2013-12-31,47470000.0,0.47564425378499997,462000.0,47008000.0,10883000.0,32442000.0,43325000.0,3604000.0,0.0,3672000.0,-36483000.0,0.0,0.0,40155000.0,0.0,40155000.0,1.42,1.37,28190000.0,29338000.0,0.0,0.9902675373919999,0.0898883505372,0.07592163471669999,0.8459026753740001,0.44065725721500004,4267000.0,3604000.0,40155000.0,0.07735411839060001,0.8459026753740001
2012-12-31,32169000.0,0.0500734454056,1188000.0,30981000.0,8421000.0,26101000.0,34522000.0,-5095000.0,0.0,-4925000.0,792000.0,0.0,0.0,-5564000.0,0.0,-5564000.0,-0.2,-0.2,27735000.0,27735000.0,0.0,0.9630700363700001,-0.0897447853524,-0.158382293512,-0.172961546831,-0.16316951102,-2887000.0,-5095000.0,-5564000.0,-0.153097702757,-0.172961546831
2011-12-31,30635000.0,-0.015711348155799998,1255000.0,29380000.0,8386000.0,19653000.0,28039000.0,-53000.0,0.0,151000.0,1816000.0,0.0,0.0,-1604000.0,0.0,-1604000.0,-0.06,-0.06,0.0,0.0,0.0,0.959033784887,0.08059409172519999,-0.00173004733148,-0.05235841357919999,0.0720744246777,2469000.0,-53000.0,-1604000.0,0.0049290027746000005,-0.05235841357919999
2010-12-31,31124000.0,0.122596934175,2901000.0,28223000.0,8738000.0,23076000.0,33051000.0,-4828000.0,0.0,-4426000.0,1501000.0,0.0,-130000.0,-5927000.0,0.0,-5927000.0,-0.21,-0.21,28175759.0,28113000.0,0.0,0.9068,-0.107,-0.1422,-0.19,-0.0637,-3331000.0,-4426000.0,-5927000.0,-0.1422,-0.1904
2009-12-31,27725000.0,-0.0091,8289000.0,19436000.0,12493000.0,35043000.0,49892000.0,-30456000.0,0.0,-28589000.0,-310000.0,0.0,-577000.0,-28279000.0,0.0,-28279000.0,-1.01,-1.01,27957359.0,27973000.0,0.0,0.701,-0.975,-1.0312,-1.02,-0.7173,-27026000.0,-28589000.0,-28279000.0,-1.0312,-1.02
