,0,1,2,3,4,5,6,7,8,9,10,11,12,13,14,15,16,17,18,19,20,21,22,23,24,25,26,27,28
Date,Cash and cash equivalents,Short-term investments,Cash and short-term investments,Receivables,Inventories,Total current assets,Property Plant & Equipment Net,Goodwill and Intangible Assets,Long-term investments,Tax assets,Total non-current assets,Total assets,Payables,Short-term debt,Total current liabilities,Long-term debt,Total debt,Deferred revenue,Tax Liabilities,Deposit Liabilities,Total non-current liabilities,Total liabilities,Other comprehensive income,Retained earnings (deficit),Total shareholders equity,Investments,Net Debt,Other Assets,Other Liabilities
2019-12-31,608628000.0,4550000.0,613178000.0,295000.0,0.0,638704000.0,32762000.0,0.0,0.0,1430000.0,33018000.0,671722000.0,60860000.0,337000.0,71758000.0,0.0,337000.0,0.0,2521000.0,0.0,139965000.0,403461000.0,1577110000.0,-1310406000.0,268261000.0,4550000.0,-608291000.0,0.0,191738000.0
2018-12-31,492860000.0,4941000.0,497801000.0,0.0,0.0,504503000.0,23469000.0,0.0,0.0,1867000.0,23537000.0,528040000.0,31722000.0,0.0,31722000.0,7055000.0,7055000.0,0.0,2521000.0,0.0,9174000.0,261289000.0,1218413000.0,-953216000.0,266751000.0,4941000.0,-485805000.0,0.0,220393000.0
2018-06-30,612056502.0,26745252.0,638801754.0,45773.0,0.0,648379820.0,15733429.0,0.0,0.0,845000.0,15793429.0,664173249.0,31664000.0,19762808.0,43739531.0,19762808.0,39525616.0,93669.0,0.0,0.0,22595057.0,263666419.0,1194539403.0,-795547786.0,400506830.0,26745252.0,-572530886.0,0.0,197331831.0
2017-06-30,43393570.0,111508225.0,154901795.0,488723.0,580016.0,157298162.0,5245230.0,0.0,0.0,0.0,5275230.0,162573392.0,31366976.0,0.0,122244149.0,98084219.0,98084219.0,170967.0,0.0,0.0,99792491.0,221265559.0,462217996.0,-521710899.0,-58692167.0,111508225.0,54690649.0,0.0,-771081.0
2016-06-30,13203625.0,37424221.0,50627846.0,513992.0,350524.0,52951105.0,3969163.0,0.0,0.0,0.0,3999163.0,56950268.0,15188189.0,0.0,15423561.0,97354398.0,97354398.0,235372.0,0.0,0.0,99053674.0,113766495.0,310862281.0,-368504954.0,-56816227.0,37424221.0,84150773.0,0.0,-710740.0
2015-06-30,13452775.0,86165532.0,99618307.0,345627.0,584424.0,103487202.0,2241838.0,0.0,20566.0,0.0,2292404.0,105779606.0,11808223.0,0.0,12079890.0,96624577.0,96624577.0,271667.0,0.0,0.0,98224337.0,109692253.0,304770984.0,-309468004.0,-3912647.0,86186098.0,83171802.0,0.0,-611974.0
2014-06-30,6961494.0,34871120.0,41832614.0,674617.0,778989.0,44742320.0,1895475.0,0.0,34871120.0,0.0,2101585.0,46843905.0,6244105.0,0.0,6484263.0,0.0,0.0,240158.0,0.0,0.0,1500244.0,7494138.0,299622434.0,-261465638.0,39349767.0,69742240.0,-6961494.0,0.0,-490369.0
2013-06-30,41326000.0,1060417.0,41326000.0,622830.0,1030480.0,45215610.0,2086911.0,0.0,594832.0,0.0,2711743.0,47927353.0,3950866.0,0.0,6731175.0,0.0,0.0,2780309.0,0.0,0.0,1400728.0,7746886.0,265230038.0,-226039812.0,40180467.0,1655249.0,-41326000.0,0.0,-385017.0
2012-06-30,32838096.0,971603.0,32838096.0,659958.0,415876.0,35479433.0,2527500.0,0.0,598288.0,0.0,3155788.0,38635221.0,5594800.0,0.0,5594800.0,0.0,0.0,0.0,0.0,0.0,1301212.0,6608452.0,248279080.0,-217088442.0,32026769.0,1569891.0,-32838096.0,0.0,-287560.0
2011-06-30,27097610.0,0.0,27097610.0,1711311.0,289604.0,30257618.0,3456150.0,0.0,0.0,0.0,13122418.0,34324773.0,5548318.0,0.0,5548318.0,0.0,0.0,0.0,0.0,0.0,979278.0,6682810.0,341214.0,-217898394.0,27815949.0,0.0,-27097610.0,1159093.0,0.0
2010-06-30,29533230.0,957000.0,30490230.0,1195015.0,534709.0,32999691.0,4327801.0,0.0,8222154.0,,,46122109.0,4424216.0,0.0,4424216.0,0.0,,,,,,5403494.0,,-202827973.0,40718615.0,9179154.0,-30490230.0,779737.0,0.0
2009-06-30,27390778.0,0.0,27390778.0,1830856.0,232920.0,,5079354.0,0.0,17458349.0,,,53280912.0,4746286.0,0.0,50431671.0,0.0,,,,,,51304371.0,,-239824199.0,1976541.0,17458349.0,-27390778.0,772227.0,45685385.0
