,0,1,2,3,4,5,6,7,8,9,10,11,12,13,14,15,16,17,18,19,20,21,22,23,24,25,26,27,28,29,30
Date,Revenue,Revenue Growth,Cost of Revenue,Gross Profit,R&D Expenses,SG&A Expense,Operating Expenses,Operating Income,Interest Expense,Earnings before Tax,Income Tax Expense,Net Income - Non-Controlling int,Net Income - Discontinued ops,Net Income,Preferred Dividends,Net Income Com,EPS,EPS Diluted,Weighted Average Shs Out,Weighted Average Shs Out (Dil),Dividend per Share,Gross Margin,EBITDA Margin,EBIT Margin,Profit Margin,Free Cash Flow margin,EBITDA,EBIT,Consolidated Income,Earnings Before Tax Margin,Net Profit Margin
2019-12-31,295000.0,1.0,0.0,0.0,254871000.0,70262000.0,325133000.0,-324838000.0,40337000.0,-357319000.0,0.0,0.0,0.0,-357190000.0,0.0,-357190000.0,-1.84,-1.84,193617000.0,193617000.0,0.0,0.0,-1087.2,-1101.14576271,-1210.81355932,-777.257627119,-320724000.0,-324838000.0,-357190000.0,-1211.25084746,-1210.81355932
2018-12-31,0.0,-1.0,0.0,0.0,0.0,0.0,0.0,0.0,0.0,0.0,0.0,0.0,0.0,0.0,0.0,0.0,0.0,0.0,0.0,0.0,0.0,0.0,0.0,0.0,0.0,0.0,0.0,0.0,0.0,0.0,0.0
2018-06-30,2155996.0,-0.302548807117,613591.0,1542405.0,99282874.0,43306815.0,142589689.0,141047284.0,23254787.0,-273731162.0,156000.0,0.0,0.0,-273836887.0,0.0,-273836887.0,-1.78,-1.78,153474943.0,153474943.0,0.0,0.715402533214,66.8240460557,65.4209395565,-127.011778779,-66.7559536289,144072376.0,141047284.0,-273836887.0,-126.962741118,-127.011778779
2017-06-30,3091250.0,-0.0439177705879,482657.0,2608593.0,51776395.0,29981931.0,89061153.0,-79149733.0,5479821.0,-153245419.0,20867.0,0.0,0.0,-153205945.0,0.0,-153205945.0,-1.47,-1.47,104535577.0,104535577.0,0.0,0.843863485645,-25.111751556799998,-25.6044425394,-49.56116296,-20.731843429,-77626702.0,-79149733.0,-153205945.0,-49.573932551599995,-49.56116296
2016-06-30,3233247.0,-0.428056792293,1159173.0,2074074.0,53492471.0,7589694.0,61082165.0,-59008091.0,5479821.0,-64189549.0,-5053833.0,0.0,0.0,-59036950.0,0.0,-59036950.0,-0.62,-0.62,94770172.0,94770172.0,0.0,0.641483313833,-17.910435856,-18.250412356400002,-18.259338058599997,-15.6771369462,-57908863.0,-59008091.0,-59036950.0,-19.852967929800002,-18.259338058599997
2015-06-30,5653091.0,-0.374769081374,264915.0,5388176.0,41735888.0,9871797.0,51607685.0,-46219509.0,2090750.0,-48065742.0,58229.0,0.0,0.0,-48002366.0,0.0,-48002366.0,-0.51,-0.51,93314872.0,93314872.0,0.0,0.953138026612,-8.101520389460001,-8.17597116339,-8.49134853835,-7.06173631381,-45798632.0,-46219509.0,-48002366.0,-8.50255939627,-8.49134853835
2014-06-30,9041605.0,0.8221705897849999,338572.0,8703033.0,33680158.0,9413946.0,43094104.0,-35580241.0,0.0,-35523387.0,7791.0,0.0,0.0,-35425826.0,0.0,-35425826.0,-0.42,-0.42,84631567.0,84631567.0,0.0,0.9625539934559999,-3.5764061800999998,-3.9351687006900002,-3.91809042753,-3.46057751915,-32336452.0,-35580241.0,-35425826.0,-3.9288806577999997,-3.91809042753
2013-06-30,4961997.0,-0.848413783087,392722.0,4569275.0,28381184.0,6980589.0,35361773.0,-30792498.0,0.0,-11442214.0,44070.0,0.0,0.0,-11381523.0,0.0,-11381523.0,-0.15,-0.15,78040005.0,78040005.0,0.0,0.9208540432410001,-5.961268416729999,-6.205666387949999,-2.2937383879900004,-1.30894960235,-29579796.0,-30792498.0,-11381523.0,-2.30596955218,-2.2937383879900004
2012-06-30,32733827.0,-0.462766399703,427035.0,32306792.0,24824024.0,6608601.0,31432625.0,874167.0,0.0,906163.0,209785.0,0.0,0.0,809952.0,0.0,809952.0,0.01,0.01,75481007.0,76174377.0,0.0,0.9869543209839999,0.0724311886905,0.026705310075699998,0.0247435779507,0.121790556295,2370950.0,874167.0,809952.0,0.0276827698759,0.0247435779507
2011-06-30,60930342.0,0.0,960222.0,14290127.0,19853880.0,6183109.0,32201737.0,-17911610.0,0.0,35767341.0,-1228885.0,0.0,0.0,36996226.0,0.0,36996226.0,0.49,0.49,75267578.0,75200866.0,0.0,0.9842,0.611,0.5870000000000001,0.607,-0.1272,37203358.0,-14128499.0,36996226.0,0.5870000000000001,0.6072
2010-06-30,,0.0,,59970120.0,,,26036989.0,33933131.0,0.0,,,,,,,,,,,,,,,,,,,35767341.0,,,
2009-06-30,30020766.0,7.2233,283612.0,29737154.0,21484857.0,5770008.0,27254865.0,2482289.0,6500.0,1373307.0,-900386.0,,,2273693.0,,2273693.0,,,,,,0.9906,,0.046,,,,1379807.0,,0.0457,0.0757
