,0,1,2,3,4,5,6,7,8,9,10,11,12,13,14,15,16,17,18,19,20,21,22,23,24,25,26,27,28,29,30
Date,Revenue,Revenue Growth,Cost of Revenue,Gross Profit,R&D Expenses,SG&A Expense,Operating Expenses,Operating Income,Interest Expense,Earnings before Tax,Income Tax Expense,Net Income - Non-Controlling int,Net Income - Discontinued ops,Net Income,Preferred Dividends,Net Income Com,EPS,EPS Diluted,Weighted Average Shs Out,Weighted Average Shs Out (Dil),Dividend per Share,Gross Margin,EBITDA Margin,EBIT Margin,Profit Margin,Free Cash Flow margin,EBITDA,EBIT,Consolidated Income,Earnings Before Tax Margin,Net Profit Margin
2019-12-31,319601000.0,0.16684860588300002,0.0,0.0,0.0,30705000.0,283159000.0,36442000.0,8510000.0,27932000.0,8323000.0,0.0,0.0,19609000.0,0.0,19609000.0,0.52,0.52,37428345.0,37594158.0,0.0,0.0,0.155916283116,0.114023422955,0.06135462655,0.144132840636,49831000.0,36442000.0,19609000.0,0.0873964724766,0.06135462655
2018-12-31,273901000.0,1.0,0.0,0.0,0.0,32926000.0,260829000.0,13072000.0,18448000.0,-5376000.0,1868000.0,0.0,0.0,-7244000.0,0.0,-7244000.0,-0.28,-0.28,25484386.0,25484386.0,0.0,0.0,0.121178820085,0.047725273000099995,-0.0264475120573,0.0529643922439,33191000.0,13072000.0,-7244000.0,-0.0196275296549,-0.0264475120573
2017-12-31,0.0,0.0,1131812.0,0.0,0.0,1131812.0,1131812.0,-1131812.0,0.0,251374.0,436721.0,0.0,0.0,-185347.0,0.0,-185347.0,-0.02,-0.02,7594116.0,7594116.0,0.0,0.0,0.0,0.0,0.0,0.0,-1131812.0,-1131812.0,-185347.0,0.0,0.0
2016-12-31,0.0,0.0,0.0,0.0,0.0,0.0,0.0,-2187.0,0.0,0.0,0.0,0.0,0.0,-2187.0,0.0,-2187.0,0.0,0.0,5271666.0,5271666.0,0.0,0.0,0.0,0.0,0.0,0.0,-2187.0,-2187.0,-2187.0,0.0,0.0
2015-12-31,0.0,,0.0,0.0,,2000.0,108406441.0,-2000.0,-4234371.0,-2000.0,0.0,,,,,-2000.0,0.0,0.0,18560000.0,,,0.0,,0.0,,,,-1803718.0,,0.0,
