,0,1,2,3,4,5,6,7,8,9,10,11,12,13,14,15,16,17,18,19,20,21,22,23,24,25,26,27,28
Date,Cash and cash equivalents,Short-term investments,Cash and short-term investments,Receivables,Inventories,Total current assets,Property Plant & Equipment Net,Goodwill and Intangible Assets,Long-term investments,Tax assets,Total non-current assets,Total assets,Payables,Short-term debt,Total current liabilities,Long-term debt,Total debt,Deferred revenue,Tax Liabilities,Deposit Liabilities,Total non-current liabilities,Total liabilities,Other comprehensive income,Retained earnings (deficit),Total shareholders equity,Investments,Net Debt,Other Assets,Other Liabilities
2018-12-31,17823000.0,2309000.0,20132000.0,20054000.0,0.0,54098000.0,478061000.0,189259000.0,0.0,0.0,690833000.0,744931000.0,23435000.0,321000.0,59987000.0,415278000.0,415599000.0,8022000.0,462000.0,0.0,421919000.0,747668000.0,1398303000.0,-1400000000.0,-2737000.0,2309000.0,397776000.0,0.0,265762000.0
2017-12-31,14603000.0,0.0,14603000.0,17794000.0,0.0,41070000.0,458565000.0,75875000.0,0.0,0.0,545455000.0,586525000.0,20388000.0,867000.0,64594000.0,287845000.0,288712000.0,4861000.0,162000.0,0.0,297240000.0,591626000.0,1319925000.0,-1323723000.0,-5101000.0,0.0,274109000.0,0.0,229792000.0
2016-12-31,10389000.0,0.0,10389000.0,18044000.0,0.0,38488000.0,302680000.0,78187000.0,0.0,-1513000.0,392127000.0,430615000.0,20875000.0,757000.0,54359000.0,283421000.0,284178000.0,5746000.0,187000.0,0.0,294436000.0,434339000.0,1276409000.0,-1278699000.0,-3724000.0,0.0,273789000.0,0.0,85544000.0
2015-12-31,17772000.0,0.0,17772000.0,20292000.0,0.0,50710000.0,328700000.0,163200000.0,0.0,-880000.0,504845000.0,555555000.0,22607000.0,1456000.0,54424000.0,286001000.0,287457000.0,6603000.0,0.0,0.0,296280000.0,441119000.0,1271118000.0,-1153957000.0,114436000.0,0.0,269685000.0,0.0,90415000.0
2014-12-31,20084000.0,0.0,20084000.0,19606000.0,0.0,52599000.0,342145000.0,182858000.0,0.0,633000.0,539185000.0,591784000.0,30589000.0,1537000.0,63356000.0,287457000.0,288994000.0,7345000.0,408000.0,0.0,302122000.0,441448000.0,1257719000.0,-1105514000.0,150336000.0,0.0,268910000.0,0.0,75970000.0
2013-12-31,35018000.0,0.0,35018000.0,23927000.0,0.0,81849000.0,331963000.0,188086000.0,0.0,371000.0,532392000.0,614241000.0,29774000.0,1613000.0,61933000.0,288994000.0,290607000.0,6729000.0,408000.0,0.0,303804000.0,432031000.0,1249632000.0,-1066020000.0,182210000.0,0.0,255589000.0,0.0,66294000.0
2012-12-31,28553000.0,0.0,28553000.0,19035000.0,0.0,61026000.0,248095000.0,80947000.0,3000000.0,1909000.0,339686000.0,400712000.0,22158000.0,3261000.0,46977000.0,61612000.0,64873000.0,2991000.0,341000.0,0.0,67093000.0,205107000.0,1241956000.0,-1046190000.0,195605000.0,3000000.0,36320000.0,0.0,91037000.0
2011-12-31,29772000.0,0.0,29772000.0,18539000.0,0.0,61581000.0,198369000.0,86357000.0,2936000.0,2096000.0,295129000.0,356710000.0,21746000.0,2794000.0,41281000.0,55383000.0,58177000.0,2475000.0,283000.0,0.0,60822000.0,164540000.0,1234288000.0,-1041872000.0,192170000.0,2936000.0,28405000.0,0.0,62437000.0
2010-12-31,0.0,0.0,0.0,0.0,0.0,0.0,0.0,0.0,0.0,0.0,0.0,0.0,0.0,0.0,0.0,0.0,0.0,0.0,0.0,0.0,0.0,0.0,0.0,0.0,0.0,0.0,0.0,0.0,0.0
2009-12-31,73926000.0,7000000.0,80926000.0,18685000.0,375000.0,108754000.0,91151000.0,60246000.0,1804000.0,2910000.0,158748000.0,267502000.0,17237000.0,25000.0,34215000.0,23217000.0,23242000.0,6309000.0,0.0,0.0,48885000.0,83100000.0,-430000.0,-1036548000.0,184402000.0,8804000.0,-57684000.0,8768000.0,16953000.0
