,0,1,2,3,4,5,6,7,8,9,10,11,12,13,14,15,16,17,18,19,20,21,22,23,24,25,26,27,28
Date,Cash and cash equivalents,Short-term investments,Cash and short-term investments,Receivables,Inventories,Total current assets,Property Plant & Equipment Net,Goodwill and Intangible Assets,Long-term investments,Tax assets,Total non-current assets,Total assets,Payables,Short-term debt,Total current liabilities,Long-term debt,Total debt,Deferred revenue,Tax Liabilities,Deposit Liabilities,Total non-current liabilities,Total liabilities,Other comprehensive income,Retained earnings (deficit),Total shareholders equity,Investments,Net Debt,Other Assets,Other Liabilities
2019-12-31,327361000.0,540852000.0,868213000.0,18607000.0,0.0,886820000.0,14630000.0,0.0,322300000.0,9891000.0,3213263000.0,4100083000.0,0.0,69528000.0,69528000.0,514910000.0,584438000.0,0.0,0.0,3153963000.0,524801000.0,3795170000.0,0.0,99681000.0,304913000.0,863152000.0,257077000.0,0.0,3200841000.0
2018-12-31,188712000.0,481345000.0,670057000.0,16822000.0,0.0,686879000.0,10697000.0,0.0,181632000.0,6605000.0,2854813000.0,3541692000.0,0.0,33875000.0,33875000.0,525153000.0,559028000.0,0.0,0.0,2671351000.0,531758000.0,3252957000.0,0.0,77689000.0,288735000.0,662977000.0,370316000.0,0.0,2687324000.0
2017-12-31,47981000.0,473275000.0,521256000.0,11944000.0,0.0,533200000.0,10058000.0,0.0,43442000.0,3385000.0,2234487000.0,2767687000.0,0.0,36726000.0,36726000.0,410176000.0,446902000.0,0.0,0.0,2084941000.0,413561000.0,2543560000.0,0.0,57103000.0,224127000.0,516717000.0,398921000.0,0.0,2093273000.0
2016-12-31,39452000.0,456700000.0,496152000.0,6708000.0,0.0,502860000.0,10044000.0,0.0,37170000.0,3262000.0,1351475000.0,1854335000.0,0.0,36578000.0,36578000.0,189981000.0,226559000.0,0.0,0.0,1462867000.0,193243000.0,1700393000.0,0.0,43704000.0,153942000.0,493870000.0,187107000.0,0.0,1470572000.0
2015-12-31,25152000.0,213698000.0,238850000.0,4105000.0,0.0,242955000.0,8521000.0,0.0,24089000.0,2364000.0,1026915000.0,1269870000.0,0.0,12724000.0,12724000.0,190957000.0,203681000.0,0.0,0.0,956054000.0,193321000.0,1165540000.0,0.0,32980000.0,104330000.0,237787000.0,178529000.0,0.0,959495000.0
2014-12-31,28289000.0,137518000.0,165807000.0,2833000.0,0.0,168640000.0,7061000.0,0.0,26349000.0,2212000.0,801863000.0,970503000.0,0.0,2873000.0,2873000.0,106897000.0,109770000.0,0.0,0.0,758598000.0,109109000.0,873718000.0,0.0,25146000.0,96785000.0,163867000.0,81481000.0,0.0,761736000.0
2013-12-31,53690000.0,181409000.0,235099000.0,2904000.0,0.0,238003000.0,7134000.0,0.0,51112000.0,1917000.0,564339000.0,802342000.0,0.0,2789000.0,2789000.0,31793000.0,34582000.0,0.0,0.0,673095000.0,33710000.0,711434000.0,0.0,21902000.0,90908000.0,232521000.0,-19108000.0,0.0,674935000.0
2012-12-31,32513000.0,,,0.0,0.0,,793000.0,4687000.0,,0.0,,636367000.0,0.0,,,,40686000.0,0.0,0.0,530691000.0,,575017000.0,1818000.0,18024000.0,61350000.0,575198000.0,,,
2011-12-31,34778000.0,,,0.0,0.0,,0.0,4687000.0,,0.0,,585440000.0,0.0,,,,40573000.0,0.0,0.0,486665000.0,,530017000.0,1220000.0,12897000.0,55423000.0,526874000.0,,,
2010-12-31,32417000.0,,,0.0,0.0,,0.0,4687000.0,,0.0,,503915000.0,0.0,,,,30455000.0,0.0,0.0,422703000.0,,455018000.0,-2060000.0,9711000.0,48897000.0,444748000.0,,,
