,0,1,2,3,4,5,6,7,8,9,10,11,12,13,14
Date,Depreciation & Amortization,Stock-based compensation,Operating Cash Flow,Capital Expenditure,Acquisitions and disposals,Investment purchases and sales,Investing Cash flow,Issuance (repayment) of debt,Issuance (buybacks) of shares,Dividend payments,Financing Cash Flow,Effect of forex changes on cash,Net cash flow / Change in cash,Free Cash Flow,Net Cash/Marketcap
2019-11-30,573100000.0,223800000.0,1251300000.0,278100000.0,-136500000.0,-500000000.0,-271500000.0,-3188900000.0,-500000000.0,-0.0,-958000000.0,-30300000.0,-8500000.0,973200000.0,0.0
2018-11-30,541200000.0,241700000.0,1289500000.0,222700000.0,-1876200000.0,-672500000.0,-2112100000.0,-3122600000.0,-672500000.0,-0.0,873000000.0,-64200000.0,-13800000.0,1066800000.0,0.0
2017-11-30,492500000.0,261900000.0,961500000.0,260200000.0,-401100000.0,-1317800000.0,-646300000.0,-2381200000.0,-1317800000.0,-0.0,-329300000.0,9000000.0,-5100000.0,701300000.0,0.0
2016-11-30,335700000.0,206200000.0,638300000.0,147600000.0,-1014400000.0,-605800000.0,-982800000.0,-3364800000.0,-605800000.0,-0.0,177500000.0,12800000.0,-154200000.0,490700000.0,0.0
2015-12-31,107000000.0,37300000.0,475600000.0,-16600000.0,-316000000.0,-1100000.0,-434100000.0,472000000.0,-411500000.0,0.0,58500000.0,-1700000.0,30000000.0,459000000.0,-0.3298
2015-11-30,100100000.0,20700000.0,612600000.0,-122900000.0,-130200000.0,0.0,-496000000.0,288800000.0,147300000.0,0.0,45400000.0,-1300000.0,43700000.0,401900000.0,-0.0659
2014-12-31,86000000.0,8100000.0,421300000.0,-19400000.0,-45600000.0,5200000.0,-250900000.0,-40000000.0,-31200000.0,0.0,-75300000.0,-200000.0,-34700000.0,378800000.0,-0.0659
2013-12-31,66700000.0,16200000.0,413800000.0,-35000000.0,-380800000.0,0.0,-170600000.0,20000000.0,-45500000.0,0.0,-203900000.0,1500000.0,-39600000.0,373300000.0,-0.0659
2012-12-31,,,402100000.0,-28800000.0,,,-479600000.0,240500000.0,-26700000.0,0.0,99400000.0,,,,
