,0,1,2,3,4,5,6,7,8,9,10,11,12,13,14,15,16,17,18,19,20,21,22,23,24,25,26,27,28,29,30
Date,Revenue,Revenue Growth,Cost of Revenue,Gross Profit,R&D Expenses,SG&A Expense,Operating Expenses,Operating Income,Interest Expense,Earnings before Tax,Income Tax Expense,Net Income - Non-Controlling int,Net Income - Discontinued ops,Net Income,Preferred Dividends,Net Income Com,EPS,EPS Diluted,Weighted Average Shs Out,Weighted Average Shs Out (Dil),Dividend per Share,Gross Margin,EBITDA Margin,EBIT Margin,Profit Margin,Free Cash Flow margin,EBITDA,EBIT,Consolidated Income,Earnings Before Tax Margin,Net Profit Margin
2019-12-31,361943000.0,0.010700592832899999,190082000.0,171861000.0,9401000.0,142671000.0,152072000.0,19789000.0,0.0,24272000.0,3322000.0,0.0,0.0,20950000.0,0.0,20950000.0,0.96,0.94,21821104.0,22241064.0,0.0,0.474828909524,0.0928958427156,0.05467435480169999,0.0578820422,0.10346933080600001,33623000.0,19789000.0,20950000.0,0.0670602829727,0.0578820422
2018-12-31,358111000.0,0.43567138928300003,179531000.0,178580000.0,7029000.0,133659000.0,140688000.0,37892000.0,0.0,40455000.0,-11390000.0,0.0,0.0,51845000.0,0.0,51845000.0,2.44,2.3,21266696.0,22514513.0,0.0,0.498672199402,0.137351268182,0.10581076817,0.144773547866,0.145022074161,49187000.0,37892000.0,51845000.0,0.11296776697699999,0.144773547866
2017-12-31,249438000.0,0.22979455600499998,128201000.0,121237000.0,5313000.0,88334000.0,93647000.0,27590000.0,0.0,29656000.0,8654000.0,0.0,0.0,21002000.0,0.0,21002000.0,1.02,0.96,20683807.0,21897988.0,0.0,0.486040619312,0.159927517058,0.110608648241,0.08419727547530001,0.23083892590500002,39892000.0,27590000.0,21002000.0,0.118891267569,0.08419727547530001
2016-12-31,202829000.0,0.275613974403,105519000.0,97310000.0,5113000.0,69333000.0,74446000.0,22864000.0,6000.0,22725000.0,2206000.0,0.0,0.0,20519000.0,0.0,20519000.0,1.02,0.97,20067152.0,21095867.0,0.0,0.479763741871,0.179569982596,0.112725497833,0.101164034729,0.14453554472000002,36422000.0,22864000.0,20519000.0,0.112040191491,0.101164034729
2015-12-31,159005000.0,0.41291308636299995,82747000.0,76258000.0,4180000.0,57027000.0,61207000.0,15051000.0,22000.0,14727000.0,3142000.0,0.0,0.0,11585000.0,0.0,11585000.0,0.6,0.56,19398991.0,20708170.0,0.0,0.47959498128999994,0.18278041570999998,0.0946574007107,0.0728593440458,0.226112386403,29063000.0,15051000.0,11585000.0,0.09261972893930001,0.0728593440458
2014-12-31,112537000.0,0.491682462256,57020000.0,55517000.0,2977000.0,42029000.0,45006000.0,10511000.0,449000.0,10052000.0,3226000.0,0.0,0.0,6826000.0,0.0,6826000.0,0.33,0.3,16182569.0,18037498.0,0.0,0.493322196255,0.20074286679,0.09340039275969998,0.0606556066005,0.125700880599,22591000.0,10511000.0,6826000.0,0.0893217341852,0.0606556066005
2013-12-31,75443000.0,0.553092061924,36452000.0,38991000.0,2398000.0,32129000.0,34527000.0,4464000.0,562000.0,3848000.0,-21587000.0,0.0,0.0,25435000.0,0.0,25435000.0,0.76,0.68,18147544.0,276535.0,0.0,0.5168,0.172,0.0585,0.337,-0.062,12954000.0,4410000.0,25435000.0,0.051,0.3371
2012-12-31,48576000.0,0.58568910361,24627000.0,23949000.0,2262000.0,20858000.0,23120000.0,829000.0,493000.0,582000.0,18000.0,0.0,0.0,564000.0,0.0,564000.0,-19.97,-19.97,,261268.0,0.0,0.493,0.125,0.0221,0.012,-0.1738,6059000.0,1075000.0,564000.0,0.012,0.0116
2011-12-31,30634000.0,,15930000.0,14704000.0,1789000.0,14637000.0,16426000.0,-1722000.0,261000.0,-1989000.0,13000.0,0.0,0.0,-2002000.0,3027000.0,-5029000.0,-20.15,-20.15,,249519.0,0.0,0.48,0.048,-0.0564,-0.16399999999999998,-0.2318,1470000.0,-1728000.0,-2002000.0,-0.0649,-0.0654
