,0,1,2,3,4,5,6,7,8,9,10,11,12,13,14,15,16,17,18,19,20,21,22,23,24,25,26,27,28,29,30
Date,Revenue,Revenue Growth,Cost of Revenue,Gross Profit,R&D Expenses,SG&A Expense,Operating Expenses,Operating Income,Interest Expense,Earnings before Tax,Income Tax Expense,Net Income - Non-Controlling int,Net Income - Discontinued ops,Net Income,Preferred Dividends,Net Income Com,EPS,EPS Diluted,Weighted Average Shs Out,Weighted Average Shs Out (Dil),Dividend per Share,Gross Margin,EBITDA Margin,EBIT Margin,Profit Margin,Free Cash Flow margin,EBITDA,EBIT,Consolidated Income,Earnings Before Tax Margin,Net Profit Margin
2018-12-31,5841000000.0,0.00154320987654,4473000000.0,1368000000.0,0.0,0.0,0.0,703000000.0,0.0,621000000.0,167000000.0,0.0,0.0,443000000.0,0.0,443000000.0,6.25,6.17,70900000.0,71800000.0,2.5348189415,0.234206471495,0.162643382982,0.12035610340700001,0.0758431775381,0.060434857045,950000000.0,703000000.0,443000000.0,0.106317411402,0.0758431775381
2017-12-31,5832000000.0,0.0224403927069,4359000000.0,1473000000.0,0.0,0.0,0.0,842000000.0,0.0,769000000.0,237000000.0,0.0,0.0,519000000.0,0.0,519000000.0,7.21,7.06,72000000.0,73500000.0,2.24489795918,0.25257201646099997,0.180212620027,0.144375857339,0.08899176954730001,0.07801783264750001,1051000000.0,842000000.0,519000000.0,0.131858710562,0.08899176954730001
2016-12-31,5704000000.0,0.0147660558619,4302000000.0,1402000000.0,0.0,579000000.0,594000000.0,808000000.0,0.0,742000000.0,246000000.0,0.0,0.0,485000000.0,0.0,485000000.0,6.7,6.55,72300000.0,74100000.0,1.9028340081,0.245792426367,0.176016830295,0.141654978962,0.0850280504909,0.08537868162689999,1004000000.0,808000000.0,485000000.0,0.13008415147299998,0.0850280504909
2015-12-31,5621000000.0,-0.0628542847616,4379000000.0,1242000000.0,0.0,555000000.0,582000000.0,660000000.0,0.0,599000000.0,187000000.0,0.0,0.0,402000000.0,0.0,402000000.0,5.62,5.51,71600000.0,73000000.0,1.7260273972599998,0.22095712506700002,0.15193026151900002,0.117416829746,0.0715175235723,0.0722291407223,854000000.0,660000000.0,402000000.0,0.10656466820900001,0.0715175235723
2014-12-31,5998000000.0,-0.0984518262438,4553000000.0,1115000000.0,0.0,525000000.0,534000000.0,581000000.0,0.0,520000000.0,157000000.0,0.0,0.0,355000000.0,0.0,355000000.0,4.82,4.74,73600000.0,74900000.0,1.70894526035,0.185895298433,0.12937645882,0.096865621874,0.05918639546519999,0.07585861953980001,776000000.0,581000000.0,355000000.0,0.0866955651884,0.05918639546519999
2013-12-31,6653000000.0,0.018524188609900002,5197000000.0,1131000000.0,0.0,534000000.0,534000000.0,613000000.0,0.0,547000000.0,144000000.0,0.0,0.0,396000000.0,0.0,396000000.0,5.14,5.05,77000000.0,78300000.0,1.43039591315,0.169998496919,0.121298662258,0.0921388847137,0.0595220201413,0.048248910266000006,807000000.0,613000000.0,396000000.0,0.08221854802339999,0.0595220201413
2012-12-31,6532000000.0,0.0503296349895,5294000000.0,1238000000.0,0.0,556000000.0,570000000.0,668000000.0,0.0,601000000.0,167000000.0,0.0,0.0,428000000.0,0.0,428000000.0,5.59,5.47,76500000.0,78200000.0,0.8823529411759999,0.189528475199,0.134568279241,0.10226576852399999,0.06552357623999999,0.0641457440294,879000000.0,668000000.0,428000000.0,0.09200857317819999,0.06552357623999999
2011-12-31,6219000000.0,0.42408976414000005,5093000000.0,1126000000.0,0.0,543000000.0,543000000.0,671000000.0,0.0,593000000.0,170000000.0,0.0,0.0,416000000.0,0.0,416000000.0,5.44,5.32,76400000.0,78200000.0,0.6393861892580001,0.181058047918,0.141823444284,0.107895159994,0.0668917832449,0.00594950956745,882000000.0,671000000.0,416000000.0,0.0953529506352,0.0668917832449
2010-12-31,4367000000.0,0.189270152505,3643000000.0,724000000.0,0.0,370000000.0,385000000.0,339000000.0,0.0,294000000.0,99000000.0,0.0,0.0,169000000.0,0.0,169000000.0,2.24,2.2,75600000.0,76800000.0,0.5859375,0.165788871079,0.113121135791,0.0776276620105,0.0386993359286,0.0538126860545,494000000.0,339000000.0,169000000.0,0.0673231051065,0.0386993359286
2009-12-31,3672000000.0,-0.069,3152000000.0,520000000.0,0.0,247000000.0,372000000.0,148000000.0,38000000.0,109000000.0,68000000.0,6000000.0,0.0,41000000.0,0.0,41000000.0,0.55,0.54,74853506.0,74900000.0,0.7,0.1416,0.075,0.04,0.011000000000000001,0.1198,277000000.0,147000000.0,47000000.0,0.0297,0.0112
