,0,1,2,3,4,5,6,7,8,9,10,11,12,13,14
Date,Depreciation & Amortization,Stock-based compensation,Operating Cash Flow,Capital Expenditure,Acquisitions and disposals,Investment purchases and sales,Investing Cash flow,Issuance (repayment) of debt,Issuance (buybacks) of shares,Dividend payments,Financing Cash Flow,Effect of forex changes on cash,Net cash flow / Change in cash,Free Cash Flow,Net Cash/Marketcap
2019-12-31,100930000.0,6219000.0,148478000.0,0.0,-0.0,0.0,-182164000.0,-3840000.0,-42238000.0,-90783000.0,30963000.0,0.0,-2723000.0,148478000.0,0.0
2018-12-31,102986000.0,6665000.0,161651000.0,0.0,-0.0,0.0,-63057000.0,-3978000.0,-44088000.0,-92245000.0,-92045000.0,0.0,6549000.0,161651000.0,0.0
2017-12-31,87949000.0,5887000.0,146923000.0,0.0,-0.0,0.0,-515520000.0,-1796000.0,-36545000.0,-85635000.0,370448000.0,0.0,1851000.0,146923000.0,0.0
2016-12-31,74549000.0,4221000.0,137935000.0,0.0,-0.0,0.0,-154443000.0,-1948000.0,-34694000.0,-66713000.0,21876000.0,0.0,5368000.0,137935000.0,0.0
2015-12-31,65775000.0,4753000.0,132216000.0,0.0,-0.0,0.0,-131112000.0,-2250000.0,-29326000.0,-57602000.0,-10359000.0,0.0,-9255000.0,132216000.0,0.0
2014-12-31,65325000.0,3524000.0,102139000.0,0.0,-0.0,0.0,-200548000.0,-782000.0,-38581000.0,-56550000.0,90284000.0,0.0,-8125000.0,102139000.0,0.0
2013-12-31,53190000.0,2124000.0,72436000.0,0.0,-0.0,0.0,-453454000.0,-3421000.0,-46706000.0,-47594000.0,427724000.0,0.0,46706000.0,72436000.0,0.0
2012-12-31,34944000.0,1205000.0,34703000.0,0.0,-216892000.0,0.0,-233005000.0,-2394000.0,-13980000.0,-23066000.0,201745000.0,0.0,3443000.0,34703000.0,0.0
2011-12-31,29854930.0,479559.0,24145574.0,0.0,-50017000.0,0.0,-83485544.0,-4275770.0,-10537132.0,-19206619.0,61899684.0,0.0,2559714.0,24145574.0,0.0
2010-12-31,27251000.0,0.0,10423000.0,-2770000.0,15000.0,0.0,-3165000.0,-5746000.0,0.0,-535000.0,-7520000.0,0.0,-262000.0,7653000.0,-1.5531
2009-12-31,24125066.0,0.0,9031439.0,-21424293.0,207814.0,0.0,-18977295.0,-1827296.0,15075451.0,0.0,31646.0,0.0,-9914210.0,-12392854.0,-1.5531
