,0,1,2,3,4,5,6,7,8,9,10,11,12,13,14,15,16,17,18,19,20,21,22,23,24,25,26,27,28,29,30
Date,Revenue,Revenue Growth,Cost of Revenue,Gross Profit,R&D Expenses,SG&A Expense,Operating Expenses,Operating Income,Interest Expense,Earnings before Tax,Income Tax Expense,Net Income - Non-Controlling int,Net Income - Discontinued ops,Net Income,Preferred Dividends,Net Income Com,EPS,EPS Diluted,Weighted Average Shs Out,Weighted Average Shs Out (Dil),Dividend per Share,Gross Margin,EBITDA Margin,EBIT Margin,Profit Margin,Free Cash Flow margin,EBITDA,EBIT,Consolidated Income,Earnings Before Tax Margin,Net Profit Margin
2019-12-31,0.0,0.0,0.0,0.0,13715968.0,10566813.0,25548561.0,25548561.0,1825148.0,-27048808.0,0.0,0.0,0.0,-27048808.0,0.0,-27048808.0,-0.81,-0.81,33328591.0,33328591.0,0.0,0.0,0.0,0.0,0.0,0.0,26637547.0,25548561.0,-27048808.0,0.0,0.0
2018-12-31,0.0,-1.0,0.0,0.0,7559077.0,10664991.0,18224068.0,18224068.0,6152043.0,-24162279.0,0.0,0.0,0.0,-24162279.0,0.0,-24162279.0,-0.98,-0.98,24762151.0,24762151.0,0.0,0.0,0.0,0.0,0.0,0.0,20757098.0,18224068.0,-24162279.0,0.0,0.0
2017-12-31,1883000.0,-0.536777367774,1947000.0,-64000.0,190000.0,6412000.0,8888000.0,-8952000.0,93000.0,-7925000.0,0.0,0.0,0.0,-7925000.0,0.0,-7925000.0,-9.36,-9.36,942000.0,942000.0,0.0,-0.033988316516200004,-4.679235262880001,-4.7541157727,-4.20870950611,-2.12533191715,-8811000.0,-8952000.0,-7925000.0,-4.20870950611,-4.20870950611
2016-12-31,4065000.0,-0.508226469877,3329000.0,736000.0,270000.0,6409000.0,6679000.0,-5943000.0,825000.0,-6211000.0,2000.0,0.0,0.0,-6213000.0,0.0,-6213000.0,1.12,1.12,5524000.0,5524000.0,0.0,0.181057810578,-1.24772447724,-1.46199261993,-1.5284132841299998,-2.07306273063,-5072000.0,-5943000.0,-6213000.0,-1.52792127921,-1.5284132841299998
2015-12-31,8266000.0,-0.27126862382100003,7840000.0,426000.0,333000.0,6553000.0,6886000.0,-6460000.0,1381000.0,-8739000.0,2000.0,0.0,0.0,-8741000.0,0.0,-8741000.0,-26.5,-26.5,765073.0,329400.0,0.0,0.0515,-0.8270000000000001,-0.8902,-0.975,-0.2093,-7358000.0,-7358000.0,-8741000.0,-1.0572,-1.0575
2014-12-31,11343000.0,,11109000.0,234000.0,542000.0,6368000.0,6910000.0,-6676000.0,1661000.0,-11044000.0,13000.0,0.0,0.0,-11057000.0,0.0,-11057000.0,-39.5,-39.5,,280063.0,0.0,0.0206,,-0.8272,,-0.657,-9383000.0,-9383000.0,-11057000.0,-0.9736,-0.9748
