,0,1,2,3,4,5,6,7,8,9,10,11,12,13,14,15,16,17,18,19,20,21,22,23,24,25,26,27,28
Date,Cash and cash equivalents,Short-term investments,Cash and short-term investments,Receivables,Inventories,Total current assets,Property Plant & Equipment Net,Goodwill and Intangible Assets,Long-term investments,Tax assets,Total non-current assets,Total assets,Payables,Short-term debt,Total current liabilities,Long-term debt,Total debt,Deferred revenue,Tax Liabilities,Deposit Liabilities,Total non-current liabilities,Total liabilities,Other comprehensive income,Retained earnings (deficit),Total shareholders equity,Investments,Net Debt,Other Assets,Other Liabilities
2019-12-31,22196097.0,67338017.0,89534114.0,700073.0,0.0,94200969.0,12773017.0,14207222.0,0.0,8070000.0,49750628.0,143951597.0,18237258.0,2074842.0,31989321.0,20409922.0,22484764.0,92353.0,11204000.0,0.0,20478911.0,140516498.0,742646785.0,-739785655.0,3435099.0,67338017.0,288667.0,0.0,88048266.0
2018-12-31,23693633.0,57538852.0,81232485.0,3316361.0,0.0,87814824.0,15949014.0,15273516.0,6381926.0,1243000.0,43298441.0,131113265.0,23134733.0,977792.0,35299759.0,8518207.0,9495999.0,223577.0,9632000.0,0.0,17148513.0,44177127.0,707794215.0,-620426436.0,86936138.0,63920778.0,-14197634.0,0.0,-8271145.0
2017-12-31,23786579.0,103638844.0,127425423.0,6003205.0,0.0,138362160.0,18320176.0,16523100.0,9069401.0,1952000.0,48877110.0,187239270.0,23278798.0,926943.0,35405426.0,9104416.0,10031359.0,1175353.0,8313000.0,0.0,9345035.0,44846730.0,665775504.0,-523356317.0,142392540.0,112708245.0,-13755220.0,0.0,96269.0
2016-12-31,19136472.0,85629412.0,104765884.0,15821511.0,0.0,124597233.0,9025446.0,18141765.0,16052065.0,4751000.0,49109933.0,173707166.0,19597787.0,1072579.0,43823027.0,5926424.0,6999003.0,14762720.0,6855000.0,0.0,6419025.0,50425015.0,556718356.0,-434838235.0,123282151.0,101681477.0,-12137469.0,0.0,182963.0
2015-12-31,57632693.0,105357277.0,162989970.0,7333059.0,0.0,171850938.0,7306695.0,14019231.0,14941277.0,0.0,41989921.0,213840859.0,13064899.0,165047.0,31466406.0,5485313.0,5650360.0,13449768.0,5455000.0,0.0,5764029.0,38153634.0,534004564.0,-361097896.0,175687225.0,120298554.0,-51982333.0,0.0,923199.0
2014-12-31,40543982.0,53075974.0,93619956.0,2804207.0,0.0,98947084.0,4583204.0,14889430.0,12340811.0,342573.0,32838013.0,131785097.0,6383170.0,28407.0,14023752.0,4709229.0,4737636.0,3187223.0,2759000.0,0.0,5387057.0,20558121.0,443327915.0,-331910290.0,111226976.0,65416785.0,-35806346.0,0.0,1147312.0
2013-12-31,33719796.0,18905608.0,52625404.0,3301563.0,0.0,58683589.0,2886545.0,15832149.0,0.0,61839.0,29603618.0,88287207.0,5444508.0,522255.0,28966456.0,3013263.0,3535518.0,1624388.0,2416000.0,0.0,5206374.0,35832183.0,348109661.0,-295788577.0,52455024.0,18905608.0,-30184278.0,0.0,1659353.0
2012-12-31,5646021.0,0.0,5646021.0,830433.0,0.0,15967912.0,363021.0,17602686.0,0.0,62728.0,29170842.0,45138754.0,3181574.0,187275.0,8376577.0,65076.0,252351.0,353391.0,1896000.0,0.0,318078.0,10784092.0,263897116.0,-229760129.0,34354662.0,0.0,-5393670.0,0.0,2089437.0
2011-12-31,17350116.0,12863420.0,30213536.0,467909.0,0.0,31907086.0,295785.0,19423856.0,9071513.0,0.0,29199475.0,61106561.0,4318942.0,20344.0,11043021.0,80875.0,101219.0,79502.0,0.0,0.0,240184.0,13791667.0,257235707.0,-210091174.0,47314894.0,21934933.0,-17248897.0,0.0,2508462.0
2010-12-31,19998489.0,1846271.0,21844760.0,105036.0,0.0,22877207.0,276795.0,21293373.0,11360888.0,0.0,33190184.0,56067391.0,5091557.0,0.0,6436708.0,0.0,0.0,3205371.0,53186.0,0.0,2529772.0,8966480.0,2850.0,-194838229.0,46502993.0,13207159.0,-21844760.0,927411.0,1345151.0
2009-12-31,30296215.0,13542686.0,43838901.0,318060.0,0.0,44566806.0,343457.0,23082305.0,12330802.0,0.0,36062111.0,80628917.0,3890841.0,12114760.0,19350038.0,0.0,12114760.0,352920.0,0.0,0.0,93932.0,19443970.0,105796.0,-177224433.0,60562079.0,25873488.0,-31724141.0,409845.0,3344437.0
