,0,1,2,3,4,5,6,7,8,9,10,11,12,13,14,15,16,17,18,19,20,21,22,23,24,25,26,27,28,29,30
Date,Revenue,Revenue Growth,Cost of Revenue,Gross Profit,R&D Expenses,SG&A Expense,Operating Expenses,Operating Income,Interest Expense,Earnings before Tax,Income Tax Expense,Net Income - Non-Controlling int,Net Income - Discontinued ops,Net Income,Preferred Dividends,Net Income Com,EPS,EPS Diluted,Weighted Average Shs Out,Weighted Average Shs Out (Dil),Dividend per Share,Gross Margin,EBITDA Margin,EBIT Margin,Profit Margin,Free Cash Flow margin,EBITDA,EBIT,Consolidated Income,Earnings Before Tax Margin,Net Profit Margin
2018-06,104000000.0,,0.0,104000000.0,,56000000.0,127000000.0,-23000000.0,1000000.0,-63000000.0,-2000000.0,,,-62000000.0,,-62000000.0,-0.54,-0.54,116000000.0,116000000.0,,1.0,-0.53846153846154,-0.60576923076923,-0.5961538461538499,,-56000000.0,-63000000.0,-62000000.0,-0.60576923076923,-0.5961538461538499
2017-06,103000000.0,,41000000.0,62000000.0,,46000000.0,60000000.0,2000000.0,1000000.0,11000000.0,1000000.0,,,10000000.0,,10000000.0,0.12,0.11,89000000.0,91000000.0,,0.6019417475728199,0.13592233009708998,0.11650485436892999,0.09708737864077699,,14000000.0,12000000.0,10000000.0,0.10679611650485002,0.09708737864077699
2016-06,43000000.0,,12000000.0,31000000.0,,27000000.0,33000000.0,-2000000.0,1000000.0,8000000.0,1000000.0,,,7000000.0,,7000000.0,0.12,0.11,61000000.0,65000000.0,,0.72093023255814,0.2093023255814,0.2093023255814,0.16279069767442,,9000000.0,9000000.0,7000000.0,0.18604651162791,0.16279069767442
2015-06,43000000.0,,11000000.0,33000000.0,,23000000.0,32000000.0,1000000.0,0.0,9000000.0,1000000.0,,,8000000.0,,8000000.0,0.14,0.14,55000000.0,55000000.0,,0.76744186046512,0.23255813953488,0.2093023255814,0.18604651162791,,10000000.0,9000000.0,8000000.0,0.2093023255814,0.18604651162791
2014-04,0.0,,0.0,0.0,,0.0,0.0,0.0,0.0,0.0,0.0,,,0.0,,0.0,61.0,61.0,,,,,,,,,0.0,0.0,0.0,,
