,0,1,2,3,4,5,6,7,8,9,10,11,12,13,14,15,16,17,18,19,20,21,22,23,24,25,26,27,28
Date,Cash and cash equivalents,Short-term investments,Cash and short-term investments,Receivables,Inventories,Total current assets,Property Plant & Equipment Net,Goodwill and Intangible Assets,Long-term investments,Tax assets,Total non-current assets,Total assets,Payables,Short-term debt,Total current liabilities,Long-term debt,Total debt,Deferred revenue,Tax Liabilities,Deposit Liabilities,Total non-current liabilities,Total liabilities,Other comprehensive income,Retained earnings (deficit),Total shareholders equity,Investments,Net Debt,Other Assets,Other Liabilities
2019-12-31,4777000.0,0.0,4777000.0,1108000.0,400000.0,6765000.0,145000.0,10470000.0,0.0,1989000.0,14454000.0,21219000.0,2383000.0,776000.0,13740000.0,837000.0,1613000.0,912000.0,0.0,0.0,931000.0,15197000.0,157687000.0,-151763000.0,6022000.0,0.0,-3164000.0,0.0,526000.0
2018-12-31,1008000.0,0.0,1008000.0,1280000.0,568000.0,3356000.0,202000.0,4509000.0,0.0,451000.0,8822000.0,12178000.0,1129000.0,4127000.0,7282000.0,74000.0,4201000.0,234000.0,0.0,0.0,544000.0,7393000.0,122529000.0,-117772000.0,4785000.0,0.0,3193000.0,0.0,-433000.0
2017-12-31,141000.0,0.0,141000.0,2310000.0,790000.0,9208000.0,520000.0,13314000.0,0.0,911000.0,18483000.0,27691000.0,25834000.0,3058000.0,42031000.0,767000.0,3825000.0,5611000.0,0.0,0.0,4427000.0,44538000.0,77607000.0,-94486000.0,-16847000.0,0.0,3684000.0,0.0,-1920000.0
2016-12-31,1821000.0,0.0,1821000.0,11788000.0,1061000.0,30144000.0,1385000.0,26719000.0,0.0,6358000.0,36329000.0,66473000.0,23027000.0,6887000.0,51167000.0,4047000.0,10934000.0,15043000.0,0.0,0.0,16736000.0,61765000.0,64096000.0,-59473000.0,4708000.0,0.0,9113000.0,0.0,-6138000.0
2015-12-31,4060000.0,0.0,4060000.0,12209000.0,755000.0,28612000.0,1392000.0,30327000.0,0.0,5919000.0,40103000.0,68715000.0,9320000.0,9417000.0,32850000.0,1226000.0,10643000.0,9095000.0,0.0,0.0,15053000.0,44153000.0,56865000.0,-32359000.0,24562000.0,0.0,6583000.0,0.0,-3750000.0
2014-12-31,3228000.0,8535000.0,3228000.0,8225000.0,610000.0,22061000.0,1308000.0,30842000.0,0.0,7584000.0,39999000.0,62060000.0,7468000.0,5418000.0,24874000.0,100000.0,5518000.0,8689000.0,0.0,0.0,381000.0,31243000.0,51456000.0,-20641000.0,30817000.0,8535000.0,2290000.0,0.0,5988000.0
2013-12-31,2104000.0,125000.0,2229000.0,10958000.0,75000.0,19835000.0,291000.0,13093000.0,0.0,0.0,19039000.0,38874000.0,8435000.0,7761000.0,27440000.0,292000.0,8053000.0,12247000.0,0.0,0.0,5137000.0,32577000.0,3000.0,-13771000.0,7777000.0,125000.0,5824000.0,6573000.0,11244000.0
