,0,1,2,3,4,5,6,7,8,9,10,11,12,13,14,15,16,17,18,19,20,21,22,23,24,25,26,27,28,29,30
Date,Revenue,Revenue Growth,Cost of Revenue,Gross Profit,R&D Expenses,SG&A Expense,Operating Expenses,Operating Income,Interest Expense,Earnings before Tax,Income Tax Expense,Net Income - Non-Controlling int,Net Income - Discontinued ops,Net Income,Preferred Dividends,Net Income Com,EPS,EPS Diluted,Weighted Average Shs Out,Weighted Average Shs Out (Dil),Dividend per Share,Gross Margin,EBITDA Margin,EBIT Margin,Profit Margin,Free Cash Flow margin,EBITDA,EBIT,Consolidated Income,Earnings Before Tax Margin,Net Profit Margin
2019-12-31,6301000.0,0.6012706480300001,1609000.0,4692000.0,3893000.0,16703000.0,25502000.0,-20810000.0,0.0,-34566000.0,-584000.0,0.0,0.0,-33991000.0,0.0,-33991000.0,-47.52,-47.52,741530.0,741530.0,0.0,0.744643707348,-2.12172671005,-3.30265037296,-5.394540549119999,-1.70671322012,-13369000.0,-20810000.0,-33991000.0,-5.48579590541,-5.394540549119999
2018-12-31,3935000.0,-0.925987924841,1232000.0,2703000.0,964000.0,13241000.0,17733000.0,-15030000.0,0.0,-16260000.0,10830000.0,0.0,0.0,-35013000.0,0.0,-35013000.0,-5511.4,-5511.4,6490.0,6490.0,0.0,0.6869123252860001,-1.4,-3.8195679796699995,-8.89783989835,0.545870393901,-5509000.0,-15030000.0,-35013000.0,-4.13214739517,-8.89783989835
2017-12-31,53167000.0,-0.205953074361,38240000.0,14927000.0,2277000.0,23769000.0,38650000.0,-23723000.0,1743000.0,-24860000.0,0.0,0.0,0.0,-27114000.0,0.0,-27114000.0,-468.26,-468.26,57904000.0,57904000.0,0.0,0.280756860459,-0.32798540448,-0.446197829481,-0.509977993868,-0.0623318976057,-17438000.0,-23723000.0,-27114000.0,-0.46758327533999994,-0.509977993868
2016-12-31,66957000.0,0.063670590478,47628000.0,19329000.0,635000.0,25757000.0,30741000.0,-11412000.0,448000.0,-13691000.0,-4993000.0,0.0,0.0,-11719000.0,0.0,-11719000.0,-8.3,-8.3,1412094000.0,1412094000.0,0.0,0.28867780814599997,-0.100691488567,-0.170437743627,-0.17502277581099998,-0.12778350284499998,-6742000.0,-11412000.0,-11719000.0,-0.20447451349399998,-0.17502277581099998
2015-12-31,62949000.0,0.244740172427,44209000.0,18740000.0,616000.0,21901000.0,26446000.0,-7706000.0,387000.0,-6431000.0,-1976000.0,0.0,0.0,-7536000.0,0.0,-7536000.0,-0.42,-0.42,18111210.0,18111210.0,0.0,0.29770131376200004,-0.070040826701,-0.122416559437,-0.119715960539,-0.0888020461008,-4409000.0,-7706000.0,-7536000.0,-0.102162067706,-0.119715960539
2014-12-31,50572000.0,0.0,38317000.0,12255000.0,0.0,0.0,16171000.0,-3916000.0,0.0,-3989000.0,1191000.0,0.0,0.0,-4263000.0,0.0,-4263000.0,-0.35,-0.35,12287778.0,12287778.0,0.0,0.24232777030799998,-0.057838329510399994,-0.07743415328639999,-0.0842956576762,-0.0555050225421,-2925000.0,-3916000.0,-4263000.0,-0.07887763980069999,-0.0842956576762
2013-12-31,50572000.0,,38317000.0,12255000.0,0.0,12993000.0,16171000.0,-3916000.0,315000.0,-4263000.0,0.0,-272000.0,0.0,-4263000.0,0.0,-4263000.0,-6300.003000000001,-6300.003000000001,,683.0,0.0,0.2423,-0.059000000000000004,-0.0781,-0.084,-0.0566,-3004000.0,-3948000.0,-4535000.0,-0.0843,-0.0843
