,0,1,2,3,4,5,6,7,8,9,10,11,12,13,14,15,16,17,18,19,20,21,22,23,24,25,26,27,28,29,30
Date,Revenue,Revenue Growth,Cost of Revenue,Gross Profit,R&D Expenses,SG&A Expense,Operating Expenses,Operating Income,Interest Expense,Earnings before Tax,Income Tax Expense,Net Income - Non-Controlling int,Net Income - Discontinued ops,Net Income,Preferred Dividends,Net Income Com,EPS,EPS Diluted,Weighted Average Shs Out,Weighted Average Shs Out (Dil),Dividend per Share,Gross Margin,EBITDA Margin,EBIT Margin,Profit Margin,Free Cash Flow margin,EBITDA,EBIT,Consolidated Income,Earnings Before Tax Margin,Net Profit Margin
2019-12-31,258473000.0,0.23350227159899997,82826000.0,175647000.0,83526000.0,178114000.0,261640000.0,-85993000.0,16000.0,-84439000.0,-3620000.0,0.0,0.0,-80819000.0,0.0,-80819000.0,-2.19,-2.19,36892000.0,36892000.0,0.0,0.6795564720489999,-0.255372901618,-0.33269625841,-0.312678693713,0.0333419738232,-66007000.0,-85993000.0,-80819000.0,-0.326684025024,-0.312678693713
2018-12-31,209544000.0,0.31949674445500004,61843000.0,147701000.0,59391000.0,133083000.0,192474000.0,-44773000.0,68000.0,-43126000.0,339000.0,0.0,0.0,-43465000.0,0.0,-43465000.0,-1.27,-1.27,34248000.0,34248000.0,0.0,0.704868667201,-0.15852995074999998,-0.213668728286,-0.20742660252700001,-0.05265719848809999,-33219000.0,-44773000.0,-43465000.0,-0.205808803879,-0.20742660252700001
2017-12-31,158806000.0,0.432233044733,46377000.0,112429000.0,48293000.0,114912000.0,163205000.0,-50776000.0,55000.0,-50213000.0,-391000.0,0.0,0.0,-49822000.0,0.0,-49822000.0,-1.69,-1.69,29401000.0,29401000.0,0.0,0.707964434593,-0.27697945921399997,-0.319736030125,-0.313728700427,-0.232226742063,-43986000.0,-50776000.0,-49822000.0,-0.316190824024,-0.313728700427
2016-12-31,110880000.0,0.514898965748,32749000.0,78131000.0,35973000.0,95533000.0,131506000.0,-53375000.0,87000.0,-53401000.0,167000.0,0.0,0.0,-53568000.0,0.0,-53568000.0,-1.92,-1.92,27838000.0,27838000.0,0.0,0.704644660895,-0.44140512265500004,-0.481376262626,-0.483116883117,-0.258198051948,-48943000.0,-53375000.0,-53568000.0,-0.481610750361,-0.483116883117
2015-12-31,73193000.0,0.65027507215,24073000.0,49120000.0,24151000.0,76941000.0,101092000.0,-51972000.0,74000.0,-52861000.0,117000.0,0.0,0.0,-52978000.0,632000.0,-53610000.0,-6.07,-6.07,26388514.0,8838000.0,0.0,0.6711,-0.68,-0.7212,-0.732,-0.355,-49806000.0,-52787000.0,-52978000.0,-0.7222,-0.7238
2014-12-31,44352000.0,0.702245250432,15113000.0,29239000.0,21290000.0,46658000.0,67948000.0,-38709000.0,136000.0,-41370000.0,57000.0,0.0,0.0,-41427000.0,0.0,-41427000.0,-7.5,-7.5,,5525000.0,0.0,0.6592,-0.883,-0.9297,-0.934,-0.514,-39168000.0,-41234000.0,-41427000.0,-0.9328,-0.9341
2013-12-31,26055000.0,,10620000.0,15435000.0,11242000.0,26023000.0,37265000.0,-21830000.0,150000.0,-22499000.0,0.0,0.0,0.0,-22499000.0,353000.0,-22852000.0,-6.26,-6.26,,3650000.0,0.0,0.5924,-0.799,-0.8578,-0.877,-0.3696,-20812000.0,-22349000.0,-22499000.0,-0.8635,-0.8635
