,0,1,2,3,4,5,6,7,8,9,10,11,12,13,14,15,16,17,18,19,20,21,22,23,24,25,26,27,28
Date,Cash and cash equivalents,Short-term investments,Cash and short-term investments,Receivables,Inventories,Total current assets,Property Plant & Equipment Net,Goodwill and Intangible Assets,Long-term investments,Tax assets,Total non-current assets,Total assets,Payables,Short-term debt,Total current liabilities,Long-term debt,Total debt,Deferred revenue,Tax Liabilities,Deposit Liabilities,Total non-current liabilities,Total liabilities,Other comprehensive income,Retained earnings (deficit),Total shareholders equity,Investments,Net Debt,Other Assets,Other Liabilities
2019-12-31,406724.0,0.0,406724.0,0.0,0.0,480658.0,0.0,0.0,153238186.0,0.0,153238186.0,153718844.0,214787.0,500000.0,712175.0,500000.0,1000000.0,0.0,497388.0,0.0,500000.0,148718842.0,3675686.0,1324153.0,5000002.0,153238186.0,593276.0,0.0,147506667.0
