,0,1,2,3,4,5,6,7,8,9,10,11,12,13,14,15,16,17,18,19,20,21,22,23,24,25,26,27,28,29,30
Date,Revenue,Revenue Growth,Cost of Revenue,Gross Profit,R&D Expenses,SG&A Expense,Operating Expenses,Operating Income,Interest Expense,Earnings before Tax,Income Tax Expense,Net Income - Non-Controlling int,Net Income - Discontinued ops,Net Income,Preferred Dividends,Net Income Com,EPS,EPS Diluted,Weighted Average Shs Out,Weighted Average Shs Out (Dil),Dividend per Share,Gross Margin,EBITDA Margin,EBIT Margin,Profit Margin,Free Cash Flow margin,EBITDA,EBIT,Consolidated Income,Earnings Before Tax Margin,Net Profit Margin
2019-12-31,366184000.0,0.354426119152,0.0,0.0,0.0,26798000.0,233780000.0,55168000.0,66267000.0,-829000.0,1000.0,0.0,0.0,-830000.0,0.0,-830000.0,-0.03,-0.03,29225483.0,29225483.0,0.0,0.0,0.376152426103,0.150656500557,-0.00226662005986,0.238912677779,137741000.0,55168000.0,-830000.0,-0.00226388919232,-0.00226662005986
2018-12-31,270361000.0,-0.0680452669932,0.0,0.0,0.0,24304000.0,231478000.0,-54531000.0,60231000.0,-89045000.0,-105000.0,0.0,0.0,-88940000.0,0.0,-88940000.0,-3.05,-3.05,29136634.0,29136634.0,0.0,0.0,0.0891733645015,-0.20169699032000002,-0.328967565588,-0.5970757616669999,24109000.0,-54531000.0,-88940000.0,-0.329355935213,-0.328967565588
2017-12-31,290101000.0,-0.271686763624,0.0,0.0,0.0,24736000.0,222777000.0,-108228000.0,40438000.0,-106044000.0,44000.0,0.0,0.0,-106088000.0,0.0,-106088000.0,-3.64,-3.64,29159440.0,29159440.0,0.0,0.0,-0.0791172729498,-0.3730700687,-0.36569332749600003,-0.6113732803399999,-22952000.0,-108228000.0,-106088000.0,-0.36554165618199996,-0.36569332749600003
2016-12-31,398319000.0,-0.199574385995,0.0,0.0,0.0,31618000.0,224247000.0,5941000.0,39476000.0,-17652000.0,440000.0,0.0,0.0,-18223000.0,0.0,-18223000.0,-0.62,-0.62,29157992.0,29157992.0,0.0,0.0,0.23214810239999997,0.014915181048399999,-0.0457497633806,0.288160996588,92469000.0,5941000.0,-18223000.0,-0.0443162389944,-0.0457497633806
2015-12-31,497634000.0,-0.0374919248459,202571000.0,295063000.0,0.0,41516000.0,124408000.0,170655000.0,42970000.0,173310000.0,140000.0,0.0,0.0,173170000.0,0.0,173170000.0,5.94,5.94,29000000.0,29157387.0,0.0,0.5929,0.599,0.4346,0.348,0.4799,297933000.0,216280000.0,173170000.0,0.3483,0.348
2014-12-31,517018000.0,-0.116752084188,364758000.0,152260000.0,0.0,52597000.0,252184000.0,-99924000.0,56258000.0,-118355000.0,744000.0,0.0,0.0,-119099000.0,0.0,-119099000.0,-4.08,-4.08,,29157387.0,0.0,0.2945,0.044000000000000004,-0.1201,-0.23,-0.3797,22834000.0,-62097000.0,-119099000.0,-0.2289,-0.2304
2013-12-31,585360000.0,,474547000.0,110813000.0,0.0,69848000.0,867540000.0,-756727000.0,350000.0,-719588000.0,4217000.0,0.0,0.0,-723805000.0,0.0,-723805000.0,-24.824,-24.824,,29157344.0,0.0,0.1893,-1.043,-1.2287,-1.237,0.1134,-610563000.0,-719238000.0,-723805000.0,-1.2293,-1.2365
