,0,1,2,3,4,5,6,7,8,9,10,11,12,13,14,15,16,17,18,19,20,21,22,23,24,25,26,27,28,29,30
Date,Revenue,Revenue Growth,Cost of Revenue,Gross Profit,R&D Expenses,SG&A Expense,Operating Expenses,Operating Income,Interest Expense,Earnings before Tax,Income Tax Expense,Net Income - Non-Controlling int,Net Income - Discontinued ops,Net Income,Preferred Dividends,Net Income Com,EPS,EPS Diluted,Weighted Average Shs Out,Weighted Average Shs Out (Dil),Dividend per Share,Gross Margin,EBITDA Margin,EBIT Margin,Profit Margin,Free Cash Flow margin,EBITDA,EBIT,Consolidated Income,Earnings Before Tax Margin,Net Profit Margin
2019-07-31,6784000000.0,0.13749161636499999,77000000.0,6707000000.0,1233000000.0,2524000000.0,3757000000.0,1854000000.0,0.0,1881000000.0,324000000.0,0.0,0.0,1557000000.0,0.0,1557000000.0,5.99,5.89,260000000.0,264000000.0,1.89772727273,0.9886497641509999,0.30645636792500003,0.27329009434,0.22951061320799998,0.33136792452799996,2079000000.0,1854000000.0,1557000000.0,0.27727004717,0.22951061320799998
2018-07-31,5964000000.0,0.15201854355799999,112000000.0,5852000000.0,1186000000.0,2298000000.0,3484000000.0,1497000000.0,0.0,1503000000.0,292000000.0,0.0,0.0,1211000000.0,0.0,1211000000.0,4.72,4.64,256000000.0,261000000.0,1.5593869731799999,0.9812206572769999,0.293427230047,0.251006036217,0.203051643192,0.347753185781,1750000000.0,1497000000.0,1211000000.0,0.252012072435,0.203051643192
2017-07-31,5177000000.0,0.102897315722,120000000.0,5057000000.0,998000000.0,1973000000.0,2971000000.0,1395000000.0,0.0,1367000000.0,396000000.0,0.0,0.0,971000000.0,0.0,971000000.0,3.78,3.72,257000000.0,261000000.0,1.35249042146,0.9768205524439999,0.315047324705,0.26946107784400003,0.187560363145,0.289163608267,1631000000.0,1395000000.0,971000000.0,0.264052540081,0.187560363145
2016-07-31,4694000000.0,0.119751908397,131000000.0,4563000000.0,881000000.0,1807000000.0,2688000000.0,1242000000.0,0.0,1203000000.0,397000000.0,0.0,0.0,979000000.0,0.0,979000000.0,3.73,3.69,262000000.0,265000000.0,1.2,0.9720920323819999,0.31529612270999996,0.264593097571,0.208564124414,0.209842351939,1480000000.0,1242000000.0,979000000.0,0.256284618662,0.208564124414
2015-07-31,4192000000.0,-0.06968486462489999,139000000.0,4053000000.0,798000000.0,1771000000.0,2569000000.0,738000000.0,0.0,712000000.0,299000000.0,0.0,0.0,365000000.0,0.0,365000000.0,1.3,1.28,281000000.0,286000000.0,0.9895104895100001,0.9668416030529999,0.23115458015299997,0.176049618321,0.087070610687,0.324904580153,969000000.0,738000000.0,365000000.0,0.169847328244,0.087070610687
2014-07-31,4506000000.0,0.0803164708703,141000000.0,4365000000.0,758000000.0,1746000000.0,2504000000.0,1314000000.0,0.0,1314000000.0,453000000.0,0.0,0.0,907000000.0,0.0,907000000.0,3.18,3.12,285000000.0,291000000.0,0.756013745704,0.9687083888150001,0.33533067021699997,0.29161118508699996,0.201287172659,0.29782512205899997,1511000000.0,1314000000.0,907000000.0,0.29161118508699996,0.201287172659
2013-07-31,4171000000.0,0.0048181161166,130000000.0,4041000000.0,685000000.0,1641000000.0,2326000000.0,1233000000.0,0.0,1210000000.0,387000000.0,0.0,0.0,858000000.0,0.0,858000000.0,2.89,2.83,297000000.0,303000000.0,0.6699669967,0.968832414289,0.35123471589500005,0.295612562935,0.205706065692,0.296571565572,1465000000.0,1233000000.0,858000000.0,0.29009829777,0.205706065692
2012-07-31,4151000000.0,0.077901843677,145000000.0,4006000000.0,669000000.0,1506000000.0,2175000000.0,1177000000.0,0.0,1151000000.0,384000000.0,0.0,0.0,792000000.0,0.0,792000000.0,2.67,2.6,296000000.0,305000000.0,0.583606557377,0.9650686581550001,0.341845338473,0.283546133462,0.19079739821699998,0.267646350277,1419000000.0,1177000000.0,792000000.0,0.27728258251,0.19079739821699998
2011-07-31,3851000000.0,1.0,144000000.0,3707000000.0,634000000.0,1465000000.0,2099000000.0,1007000000.0,0.0,966000000.0,332000000.0,0.0,0.0,634000000.0,0.0,634000000.0,2.07,2.0,307000000.0,317000000.0,0.0,0.962607115035,0.324071669696,0.261490521942,0.164632562971,0.233445858219,1248000000.0,1007000000.0,634000000.0,0.25084393664,0.164632562971
2010-07-31,0.0,-1.0,0.0,0.0,0.0,0.0,0.0,0.0,0.0,0.0,0.0,0.0,0.0,0.0,0.0,0.0,0.0,0.0,0.0,0.0,0.0,0.0,0.0,0.0,0.0,0.0,0.0,0.0,0.0,0.0,0.0
2009-07-31,3109000000.0,0.0388,578000000.0,2531000000.0,556000000.0,1191000000.0,1848000000.0,683000000.0,51000000.0,653000000.0,206000000.0,0.0,0.0,447000000.0,0.0,447000000.0,1.39,1.35,322000000.0,330000000.0,0.0,0.8141,0.315,0.2264,0.14400000000000002,0.1962,979000000.0,704000000.0,447000000.0,0.21,0.1438
