,0,1,2,3,4,5,6,7,8,9,10,11,12,13,14,15,16,17,18,19,20,21,22,23,24,25,26,27,28
Date,Cash and cash equivalents,Short-term investments,Cash and short-term investments,Receivables,Inventories,Total current assets,Property Plant & Equipment Net,Goodwill and Intangible Assets,Long-term investments,Tax assets,Total non-current assets,Total assets,Payables,Short-term debt,Total current liabilities,Long-term debt,Total debt,Deferred revenue,Tax Liabilities,Deposit Liabilities,Total non-current liabilities,Total liabilities,Other comprehensive income,Retained earnings (deficit),Total shareholders equity,Investments,Net Debt,Other Assets,Other Liabilities
2019-12-31,9383000.0,348000.0,9731000.0,18363000.0,16145000.0,46183000.0,2042000.0,20342000.0,0.0,4431000.0,28135000.0,74318000.0,8799000.0,1814000.0,34475000.0,3013000.0,4827000.0,2193000.0,2687000.0,0.0,4657000.0,38852000.0,438927000.0,-405504000.0,35466000.0,348000.0,-4556000.0,0.0,0.0
2018-12-31,10866000.0,300000.0,11166000.0,14952000.0,13631000.0,42192000.0,2624000.0,20266000.0,0.0,3256000.0,24114000.0,66306000.0,5654000.0,2000000.0,29478000.0,0.0,2000000.0,2174000.0,2879000.0,0.0,1904000.0,32436000.0,435997000.0,-404353000.0,33870000.0,300000.0,-8866000.0,0.0,1054000.0
2017-12-31,19052000.0,300000.0,19352000.0,12282000.0,11126000.0,44239000.0,2043000.0,4365000.0,0.0,1895000.0,7123000.0,51362000.0,5863000.0,888000.0,21205000.0,2998000.0,3886000.0,1090000.0,19000.0,0.0,5278000.0,27331000.0,420988000.0,-399647000.0,24031000.0,300000.0,-15166000.0,0.0,848000.0
2016-12-31,9116000.0,300000.0,9416000.0,9430000.0,11596000.0,31652000.0,2416000.0,5820000.0,0.0,3711000.0,8948000.0,40600000.0,6024000.0,786000.0,22566000.0,3987000.0,4773000.0,1085000.0,334000.0,0.0,8033000.0,36487000.0,393558000.0,-391509000.0,4113000.0,300000.0,-4343000.0,0.0,5888000.0
2015-12-31,16667000.0,841000.0,16667000.0,7915000.0,14726000.0,41274000.0,4218000.0,7275000.0,0.0,4563000.0,12622000.0,53896000.0,6280000.0,681000.0,16216000.0,4878000.0,5559000.0,1515000.0,282000.0,0.0,9949000.0,39550000.0,389920000.0,-377814000.0,14346000.0,841000.0,-11108000.0,0.0,13385000.0
2014-12-31,36547000.0,1002000.0,36547000.0,13612000.0,9254000.0,61615000.0,5311000.0,17583000.0,0.0,4442000.0,24265000.0,85880000.0,8372000.0,635000.0,19635000.0,13938000.0,14573000.0,508000.0,275000.0,0.0,14568000.0,38011000.0,384829000.0,-338670000.0,47869000.0,1002000.0,-21974000.0,0.0,3808000.0
2013-12-31,5095000.0,3581000.0,5095000.0,13289000.0,9098000.0,32829000.0,5888000.0,19175000.0,0.0,4995000.0,25930000.0,58759000.0,9353000.0,2971000.0,24378000.0,3051000.0,6022000.0,729000.0,2800000.0,0.0,3989000.0,32265000.0,346068000.0,-320876000.0,26494000.0,3581000.0,927000.0,0.0,3898000.0
2012-12-31,7378000.0,0.0,7378000.0,17261000.0,8892000.0,37190000.0,8892000.0,57152000.0,0.0,5528000.0,67715000.0,104905000.0,12926000.0,4532000.0,37318000.0,9795000.0,14327000.0,2843000.0,2311000.0,0.0,11820000.0,54442000.0,335034000.0,-286011000.0,50463000.0,0.0,6949000.0,0.0,5304000.0
2011-12-31,17239000.0,0.0,17239000.0,13578000.0,9263000.0,42506000.0,6699000.0,94405000.0,0.0,170000.0,101605000.0,144111000.0,11941000.0,55000.0,25762000.0,423000.0,478000.0,2085000.0,428000.0,0.0,12180000.0,48432000.0,328981000.0,-235398000.0,95679000.0,0.0,-16761000.0,0.0,10490000.0
2010-12-31,10799000.0,0.0,10799000.0,15231000.0,10584000.0,38828000.0,5373000.0,80991000.0,0.0,126000.0,87157000.0,125985000.0,12833000.0,1670000.0,29523000.0,1790000.0,3460000.0,1244000.0,502000.0,0.0,16658000.0,46181000.0,323000.0,-225896000.0,77901000.0,0.0,-7339000.0,2214000.0,15020000.0
2009-12-31,4836000.0,0.0,4836000.0,6739000.0,5379000.0,18875000.0,683000.0,43977000.0,0.0,274000.0,45696000.0,64571000.0,5530000.0,0.0,14761000.0,0.0,0.0,190000.0,644000.0,0.0,11870000.0,26631000.0,3159000.0,-216378000.0,37940000.0,0.0,-4836000.0,1921000.0,9231000.0
