,0,1,2,3,4,5,6,7,8,9,10,11,12,13,14
Date,Depreciation & Amortization,Stock-based compensation,Operating Cash Flow,Capital Expenditure,Acquisitions and disposals,Investment purchases and sales,Investing Cash flow,Issuance (repayment) of debt,Issuance (buybacks) of shares,Dividend payments,Financing Cash Flow,Effect of forex changes on cash,Net cash flow / Change in cash,Free Cash Flow,Net Cash/Marketcap
2019-12-31,8729000.0,3394000.0,76452000.0,11494000.0,-0.0,0.0,-8988000.0,-22321000.0,-192417000.0,-34579000.0,-68183000.0,-3350000.0,-719000.0,64958000.0,0.0
2018-12-31,11031000.0,2205000.0,63041000.0,12465000.0,-0.0,0.0,-22366000.0,-23487000.0,-193136000.0,-26287000.0,-55882000.0,-8730000.0,-15207000.0,50576000.0,0.0
2017-12-31,11914000.0,2093000.0,35891000.0,4069000.0,-0.0,0.0,58254000.0,-22362000.0,-208343000.0,-21192000.0,-47630000.0,21330000.0,46515000.0,31822000.0,0.0
2016-12-31,15341000.0,1198000.0,54564000.0,5742000.0,-0.0,-77000.0,-25067000.0,-21884000.0,-77000.0,-18015000.0,-44636000.0,-4640000.0,-15139000.0,48822000.0,0.0
2015-12-31,9078000.0,787000.0,50084000.0,123946000.0,-0.0,-32000.0,-45030000.0,-11761000.0,-32000.0,-15806000.0,81775000.0,-10440000.0,86829000.0,-73862000.0,0.0
2014-12-31,10166000.0,186000.0,36613000.0,-4224000.0,0.0,-33048000.0,-37272000.0,-5765000.0,863000.0,-14841000.0,-22710000.0,-12143000.0,-35512000.0,32389000.0,0.3296
2013-12-31,0.0,0.0,0.0,0.0,-0.0,0.0,0.0,-0.0,0.0,-0.0,0.0,0.0,0.0,0.0,0.0
2012-12-31,0.0,0.0,0.0,0.0,-0.0,0.0,0.0,-0.0,0.0,-0.0,0.0,0.0,0.0,0.0,0.0
2011-12-31,13073000.0,1060000.0,-23721000.0,14551000.0,-0.0,0.0,36737000.0,-11673000.0,-33100000.0,-9304000.0,-13797000.0,-911000.0,-1692000.0,-38272000.0,0.0
2010-12-31,9188000.0,895000.0,37845000.0,-28294000.0,0.0,-48985000.0,-77279000.0,-10611000.0,2903000.0,-6918000.0,-15943000.0,-7542000.0,-62919000.0,9551000.0,0.1142
2009-12-31,10963000.0,947000.0,84640000.0,-6301000.0,0.0,0.0,-6301000.0,-21413000.0,988000.0,-3974000.0,-23457000.0,3181000.0,58063000.0,78339000.0,0.1799
