,0,1,2,3,4,5,6,7,8,9,10,11,12,13,14,15,16,17,18,19,20,21,22,23,24,25,26,27,28,29,30
Date,Revenue,Revenue Growth,Cost of Revenue,Gross Profit,R&D Expenses,SG&A Expense,Operating Expenses,Operating Income,Interest Expense,Earnings before Tax,Income Tax Expense,Net Income - Non-Controlling int,Net Income - Discontinued ops,Net Income,Preferred Dividends,Net Income Com,EPS,EPS Diluted,Weighted Average Shs Out,Weighted Average Shs Out (Dil),Dividend per Share,Gross Margin,EBITDA Margin,EBIT Margin,Profit Margin,Free Cash Flow margin,EBITDA,EBIT,Consolidated Income,Earnings Before Tax Margin,Net Profit Margin
2017-12-31,54401000.0,0.00742592592593,38548000.0,15853000.0,7953000.0,21727000.0,35982000.0,-20062000.0,0.0,-20361000.0,194000.0,0.0,0.0,-20555000.0,0.0,-20555000.0,-0.31,-0.31,66060470.0,66060470.0,0.0,0.291410084373,-0.33953419973899995,-0.36877998566200004,-0.377842319075,-0.227183323836,-18471000.0,-20062000.0,-20555000.0,-0.37427620815800006,-0.377842319075
2017-12,54000000.0,-0.145866945051,45000000.0,10000000.0,8000000.0,22000000.0,30000000.0,-20000000.0,,-20000000.0,0.0,,,-21000000.0,,-21000000.0,-0.31,-0.31,66000000.0,66000000.0,,0.18518518518519,-0.33333333333333,-0.38888888888889,-0.38888888888889,,-18000000.0,-21000000.0,-21000000.0,-0.37037037037037,-0.38888888888889
2016-12-31,63222000.0,0.00352380952381,33150000.0,30072000.0,7276000.0,21946000.0,36669000.0,-7349000.0,0.0,-7547000.0,223000.0,0.0,0.0,-7770000.0,0.0,-7770000.0,-0.12,-0.12,64344937.0,64344937.0,0.0,0.47565720793399996,-0.07718832052130001,-0.116241181867,-0.12290025624000002,-0.0959001613362,-4880000.0,-7349000.0,-7770000.0,-0.119373003069,-0.12290025624000002
2016-12,63000000.0,0.006968863883380001,41000000.0,23000000.0,7000000.0,22000000.0,30000000.0,-7000000.0,,-8000000.0,0.0,,,-8000000.0,,-8000000.0,-0.12,-0.12,64000000.0,64000000.0,,0.36507936507937,-0.07936507936507901,-0.12698412698413,-0.12698412698413,,-5000000.0,-8000000.0,-8000000.0,-0.12698412698413,-0.12698412698413
2015-12-31,62564000.0,-0.0069206349206299995,28472000.0,34092000.0,9987000.0,24996000.0,44717000.0,-14911000.0,0.0,-15186000.0,307000.0,0.0,0.0,-15493000.0,0.0,-15493000.0,-0.25,-0.25,62940299.0,62940299.0,0.0,0.544914008056,-0.19126014960700002,-0.238331948085,-0.24763442235199998,-0.230627837095,-11966000.0,-14911000.0,-15493000.0,-0.242727447094,-0.24763442235199998
2015-12,63000000.0,-0.0974729241877,38000000.0,24000000.0,10000000.0,25000000.0,39000000.0,-15000000.0,,-15000000.0,0.0,,,-15000000.0,,-15000000.0,-0.25,-0.25,63000000.0,63000000.0,,0.38095238095238,-0.19047619047619,-0.23809523809524,-0.23809523809524,,-12000000.0,-15000000.0,-15000000.0,-0.23809523809524,-0.23809523809524
2014-12-31,69804000.0,-0.0028,29608000.0,40196000.0,11921000.0,33832000.0,58912000.0,-19449000.0,0.0,-19306000.0,-7101000.0,0.0,0.0,6974000.0,0.0,6974000.0,0.11,0.11,62613671.0,62613671.0,0.0,0.575840926021,-0.23091799896899998,-0.278623001547,0.0999083147098,-0.2314194029,-16119000.0,-19449000.0,6974000.0,-0.276574408343,0.0999083147098
2014-12,70000000.0,-0.37002204922799997,43000000.0,27000000.0,12000000.0,34000000.0,46000000.0,-19000000.0,,-19000000.0,-7000000.0,,,7000000.0,,7000000.0,0.11,0.11,63000000.0,63000000.0,,0.38571428571429,-0.22857142857143,0.0,0.1,,-16000000.0,0.0,7000000.0,-0.27142857142857,0.1
2013-12-31,111115000.0,0.00103603603604,49490000.0,61625000.0,13317000.0,39655000.0,72172000.0,-11200000.0,0.0,-11743000.0,569000.0,0.0,0.0,-12312000.0,0.0,-12312000.0,-0.19,-0.19,63411162.0,63411162.0,0.0,0.554605588804,-0.07581334653289999,-0.10079647212300001,-0.110804121856,-0.0427485038024,-8424000.0,-11200000.0,-12312000.0,-0.10568330108400001,-0.110804121856
2013-12,111000000.0,1.0,69000000.0,42000000.0,13000000.0,40000000.0,54000000.0,-11000000.0,,-12000000.0,1000000.0,,,-12000000.0,,-12000000.0,-0.19,-0.19,63000000.0,63000000.0,,0.37837837837838,-0.07207207207207202,-0.099099099099099,-0.10810810810811,,-8000000.0,-11000000.0,-12000000.0,-0.10810810810811,-0.10810810810811
2012-12-31,0.0,-1.0,53640000.0,0.0,13733000.0,41183000.0,129400000.0,-4378000.0,0.0,0.0,525000.0,0.0,0.0,-4378000.0,0.0,-4378000.0,0.0,0.0,0.0,0.0,0.0,0.0,0.0,0.0,0.0,0.0,-2099000.0,-4378000.0,-4378000.0,0.0,0.0
2011-12-31,140761000.0,0.0,65766000.0,74995000.0,14368000.0,40711000.0,55318000.0,-2479000.0,0.0,-2718000.0,290000.0,0.0,0.0,-3008000.0,0.0,-3008000.0,-0.05,-0.05,58429005.0,58429005.0,0.0,0.5327825178850001,0.000134980569902,-0.017611412252,-0.021369555487700004,-0.05196041517180001,19000.0,-2479000.0,-3008000.0,-0.0193093257365,-0.021369555487700004
