,0,1,2,3,4,5,6,7,8,9,10,11,12,13,14,15,16,17,18,19,20,21,22,23,24,25,26,27,28,29,30
Date,Revenue,Revenue Growth,Cost of Revenue,Gross Profit,R&D Expenses,SG&A Expense,Operating Expenses,Operating Income,Interest Expense,Earnings before Tax,Income Tax Expense,Net Income - Non-Controlling int,Net Income - Discontinued ops,Net Income,Preferred Dividends,Net Income Com,EPS,EPS Diluted,Weighted Average Shs Out,Weighted Average Shs Out (Dil),Dividend per Share,Gross Margin,EBITDA Margin,EBIT Margin,Profit Margin,Free Cash Flow margin,EBITDA,EBIT,Consolidated Income,Earnings Before Tax Margin,Net Profit Margin
2018-06,,0.0,,,,0.0,,,0.0,,,,,-0.0,,-0.0,-0.0,-0.0,160000000.0,160000000.0,,,,,,,-0.0,0.0,-0.0,,
2017-06,,0.0,,,,0.0,,,0.0,,,,,-3000000.0,,-3000000.0,-0.02,-0.02,117000000.0,117000000.0,,,,,,,-2000000.0,-3000000.0,-3000000.0,,
2016-06,,0.0,,,,0.0,,,0.0,,,,,-0.0,,-0.0,-0.0,-0.0,114000000.0,114000000.0,,,,,,,-0.0,0.0,-0.0,,
2015-06,,0.0,,,,1000000.0,,,0.0,,,,,-4000000.0,,-4000000.0,-0.04,-0.04,112000000.0,112000000.0,,,,,,,-4000000.0,-4000000.0,-4000000.0,,
2014-06,,0.0,,,,1000000.0,,,0.0,,,,,-1000000.0,,-1000000.0,-0.01,-0.01,105000000.0,105000000.0,,,,,,,-1000000.0,-1000000.0,-1000000.0,,
2012-12-31,986000000.0,0.0659459459459,0.0,0.0,1588000000.0,14608000000.0,16196000000.0,290000000.0,7098000000.0,0.0,-2548000000.0,0.0,0.0,290000000.0,0.0,290000000.0,0.0,0.0,0.0,0.0,0.0,0.0,0.878296146045,0.294117647059,0.294117647059,18.0344827586,866000000.0,290000000.0,290000000.0,0.0,0.294117647059
2011-12-31,925000000.0,0.0,0.0,0.0,1771000000.0,15773000000.0,17544000000.0,-4694000000.0,8785000000.0,-4694000000.0,-2946000000.0,0.0,0.0,-1748000000.0,0.0,-1748000000.0,0.0,0.0,0.0,0.0,0.0,0.0,-4.28432432432,-5.07459459459,-1.88972972973,15.0140540541,-3963000000.0,-4694000000.0,-1748000000.0,-5.07459459459,-1.88972972973
