,0,1,2,3,4,5,6,7,8,9,10,11,12,13,14,15,16,17,18,19,20,21,22,23,24,25,26,27,28,29,30
Date,Revenue,Revenue Growth,Cost of Revenue,Gross Profit,R&D Expenses,SG&A Expense,Operating Expenses,Operating Income,Interest Expense,Earnings before Tax,Income Tax Expense,Net Income - Non-Controlling int,Net Income - Discontinued ops,Net Income,Preferred Dividends,Net Income Com,EPS,EPS Diluted,Weighted Average Shs Out,Weighted Average Shs Out (Dil),Dividend per Share,Gross Margin,EBITDA Margin,EBIT Margin,Profit Margin,Free Cash Flow margin,EBITDA,EBIT,Consolidated Income,Earnings Before Tax Margin,Net Profit Margin
2018-11,2000000.0,,0.0,2000000.0,11000000.0,3000000.0,15000000.0,-13000000.0,0.0,-14000000.0,,,,-14000000.0,,-14000000.0,-2.89,-2.89,5000000.0,5000000.0,,1.0,-6.5,-7.0,-7.0,,-13000000.0,-14000000.0,-14000000.0,-7.0,-7.0
2017-11,6000000.0,,1000000.0,5000000.0,9000000.0,3000000.0,13000000.0,-8000000.0,1000000.0,-9000000.0,,,,-9000000.0,,-9000000.0,-2.9,-2.9,3000000.0,3000000.0,,0.83333333333333,-1.3333333333333,-1.3333333333333,-1.5,,-8000000.0,-8000000.0,-9000000.0,-1.5,-1.5
2016-11,2000000.0,,8000000.0,-6000000.0,0.0,4000000.0,4000000.0,-10000000.0,0.0,-10000000.0,,,,-10000000.0,,-10000000.0,-3.8,-3.8,3000000.0,3000000.0,,-3.0,-4.5,-5.0,-5.0,,-9000000.0,-10000000.0,-10000000.0,-5.0,-5.0
2015-11,4000000.0,,7000000.0,-3000000.0,0.0,4000000.0,4000000.0,-7000000.0,0.0,-7000000.0,,,,-7000000.0,,-7000000.0,-3.1,-3.1,2000000.0,2000000.0,,-0.75,-1.75,-1.75,-1.75,,-7000000.0,-7000000.0,-7000000.0,-1.75,-1.75
2014-11,9000000.0,,8000000.0,1000000.0,0.0,4000000.0,4000000.0,-4000000.0,0.0,-4000000.0,,,,-4000000.0,,-4000000.0,-1.7,-1.7,2000000.0,2000000.0,,0.11111111111111001,-0.33333333333333,-0.44444444444444003,-0.44444444444444003,,-3000000.0,-4000000.0,-4000000.0,-0.44444444444444003,-0.44444444444444003
