,0,1,2,3,4,5,6,7,8,9,10,11,12,13,14
Date,Depreciation & Amortization,Stock-based compensation,Operating Cash Flow,Capital Expenditure,Acquisitions and disposals,Investment purchases and sales,Investing Cash flow,Issuance (repayment) of debt,Issuance (buybacks) of shares,Dividend payments,Financing Cash Flow,Effect of forex changes on cash,Net cash flow / Change in cash,Free Cash Flow,Net Cash/Marketcap
2018-12-31,209400000.0,82200000.0,565100000.0,177100000.0,-2309800000.0,-117100000.0,-2491500000.0,-104800000.0,-117100000.0,-322100000.0,1853200000.0,-47300000.0,-120500000.0,388000000.0,0.0
2017-12-31,162900000.0,82000000.0,881800000.0,155900000.0,-30600000.0,-300100000.0,-196200000.0,-324600000.0,-300100000.0,-280300000.0,-1004900000.0,16800000.0,-302500000.0,725900000.0,0.0
2016-12-31,165800000.0,85600000.0,513400000.0,200700000.0,-52000000.0,-303300000.0,-263900000.0,-1800000.0,-303300000.0,-238400000.0,-666400000.0,11600000.0,-405300000.0,312700000.0,0.0
2015-12-31,162800000.0,70300000.0,674000000.0,161100000.0,-28600000.0,-285100000.0,-202800000.0,-2000000.0,-285200000.0,-195500000.0,-472800000.0,-156100000.0,-157700000.0,512900000.0,0.0
2014-12-31,168100000.0,54300000.0,669500000.0,-148700000.0,-67800000.0,-274500000.0,200800000.0,351200000.0,-275100000.0,-159000000.0,-343900000.0,-101000000.0,23800000.0,818200000.0,0.0
2013-12-31,166000000.0,43100000.0,592900000.0,173000000.0,-61500000.0,-481800000.0,-318600000.0,-602400000.0,-481800000.0,-126000000.0,-1212300000.0,-94100000.0,-938000000.0,419900000.0,0.0
2012-12-31,149500000.0,44500000.0,357200000.0,169200000.0,-145500000.0,-350500000.0,-210200000.0,-401500000.0,-350500000.0,-103400000.0,131300000.0,-6200000.0,272100000.0,188000000.0,0.0
2011-12-31,142200000.0,51700000.0,273500000.0,140300000.0,-63100000.0,-400800000.0,-58800000.0,-38900000.0,-400800000.0,-111100000.0,-541000000.0,-46700000.0,-373000000.0,133200000.0,0.0
2010-12-31,144000000.0,50000000.0,817300000.0,96300000.0,-61900000.0,-2200000.0,-108500000.0,-217300000.0,-2675700000.0,-19600000.0,-547700000.0,19400000.0,180500000.0,721000000.0,0.0
2009-12-31,169900000.0,49500000.0,540800000.0,-67100000.0,-72400000.0,158500000.0,29400000.0,-195700000.0,0.0,0.0,-267000000.0,84800000.0,388000000.0,473700000.0,0.156
