,0,1,2,3,4,5,6,7,8,9,10,11,12,13,14,15,16,17,18,19,20,21,22,23,24,25,26,27,28,29,30
Date,Revenue,Revenue Growth,Cost of Revenue,Gross Profit,R&D Expenses,SG&A Expense,Operating Expenses,Operating Income,Interest Expense,Earnings before Tax,Income Tax Expense,Net Income - Non-Controlling int,Net Income - Discontinued ops,Net Income,Preferred Dividends,Net Income Com,EPS,EPS Diluted,Weighted Average Shs Out,Weighted Average Shs Out (Dil),Dividend per Share,Gross Margin,EBITDA Margin,EBIT Margin,Profit Margin,Free Cash Flow margin,EBITDA,EBIT,Consolidated Income,Earnings Before Tax Margin,Net Profit Margin
2019-12-31,1314581000.0,-0.0995243425118,708372000.0,606209000.0,129997000.0,185342000.0,372416000.0,233793000.0,0.0,248376000.0,68115000.0,0.0,0.0,180234000.0,0.0,180234000.0,3.4,3.35,53061000.0,53839000.0,0.0,0.4611423716,0.251076959122,0.17784602089899998,0.137103761579,0.144521334174,330061000.0,233793000.0,180234000.0,0.188939289401,0.137103761579
2018-12-31,1459874000.0,0.036188088628699995,659606000.0,800268000.0,122769000.0,160244000.0,283013000.0,523405000.0,0.0,318604000.0,130226000.0,0.0,0.0,404027000.0,0.0,404027000.0,7.55,7.38,53522000.0,54726000.0,0.0,0.54817607547,0.41351239901500003,0.35852751675800004,0.276754706228,0.15957404543099998,603676000.0,523405000.0,404027000.0,0.218240752284,0.276754706228
2017-12-31,1408889000.0,0.40024528585,611978000.0,796911000.0,100870000.0,130469000.0,245799000.0,551112000.0,0.0,551871000.0,204283000.0,0.0,0.0,347614000.0,0.0,347614000.0,6.5,6.36,53495000.0,54699000.0,0.0,0.565630791354,0.436996810962,0.391167792495,0.24672916035300002,0.19792900647199999,615680000.0,551112000.0,347614000.0,0.39170651485,0.24672916035300002
2016-12-31,1006173000.0,0.116400836602,453933000.0,552240000.0,78552000.0,104879000.0,187927000.0,364313000.0,0.0,366565000.0,105849000.0,0.0,0.0,260752000.0,0.0,260752000.0,4.91,4.85,53068000.0,53797000.0,0.0,0.548851936993,0.41323708745899995,0.362077893165,0.259152253141,0.164232194662,415788000.0,364313000.0,260752000.0,0.364316076858,0.259152253141
2015-12-31,901265000.0,0.170729457856,409388000.0,491877000.0,63334000.0,89060000.0,152394000.0,342043000.0,0.0,341617000.0,99590000.0,0.0,0.0,242154000.0,0.0,242154000.0,4.6,4.53,52676000.0,53427000.0,0.0,0.545762899924,0.426575979318,0.379514349276,0.268682352027,0.206878110212,384458000.0,342043000.0,242154000.0,0.379041680305,0.268682352027
2014-12-31,769832000.0,0.187950014968,353314000.0,416518000.0,53403000.0,85975000.0,139378000.0,283758000.0,0.0,284474000.0,84029000.0,0.0,0.0,200445000.0,0.0,200445000.0,3.85,3.79,52104000.0,52824000.0,0.0,0.541050514918,0.414856747966,0.368597304347,0.260374990907,0.118862297228,319370000.0,283758000.0,200445000.0,0.369527377402,0.260374990907
2013-12-31,648034000.0,0.15200310029,308136000.0,339898000.0,41660000.0,77555000.0,121751000.0,218147000.0,0.0,157173000.0,62521000.0,0.0,0.0,155780000.0,0.0,155780000.0,3.02,2.97,51548000.0,52375000.0,0.0,0.5245064302179999,0.385274538064,0.336628942309,0.24038862158500002,0.074761509427,249671000.0,218147000.0,155780000.0,0.242538200156,0.24038862158500002
2012-12-31,562528000.0,0.18556236063700002,257801000.0,304727000.0,31401000.0,63076000.0,95839000.0,208888000.0,0.0,209215000.0,61471000.0,0.0,0.0,145004000.0,0.0,145004000.0,2.87,2.81,50477054.0,51536370.0,0.647174024868,0.541709923773,0.417813868821,0.371337960066,0.257772057569,0.190376301269,235032000.0,208888000.0,145004000.0,0.371919264463,0.257772057569
2011-12-31,474482000.0,0.585538802898,217227000.0,257255000.0,25422000.0,59173000.0,84595000.0,175522000.0,681000.0,174584000.0,53575000.0,0.0,0.0,117759000.0,0.0,117759000.0,2.48,2.41,47365451.0,48684711.0,0.0,0.5421807360450001,0.42042480009800004,0.369923411215,0.24818433575999999,0.0723820924714,199484000.0,175522000.0,117759000.0,0.36794651851899995,0.24818433575999999
2010-12-31,299256000.0,0.6098206504779999,152798000.0,146458000.0,19160000.0,47745000.0,66905000.0,79553000.0,1188000.0,78891000.0,24900000.0,361000.0,0.0,53991000.0,0.0,53991000.0,1.16,1.13,46755375.0,46424000.0,0.0,0.4894,0.341,0.2676,0.18,0.1172,101924000.0,80079000.0,54352000.0,0.2636,0.1804
2009-12-31,185894000.0,-0.1885,121626000.0,64268000.0,18543000.0,35646000.0,54225000.0,10043000.0,1252000.0,7904000.0,2485000.0,-135000.0,0.0,5419000.0,0.0,5419000.0,0.12,0.12,45688249.0,45489000.0,0.0,0.3457,0.152,0.0493,0.028999999999999998,0.2362,28328000.0,9156000.0,5284000.0,0.0425,0.0292
