,0,1,2,3,4,5,6,7,8,9,10,11,12,13,14,15,16,17,18,19,20,21,22,23,24,25,26,27,28
Date,Cash and cash equivalents,Short-term investments,Cash and short-term investments,Receivables,Inventories,Total current assets,Property Plant & Equipment Net,Goodwill and Intangible Assets,Long-term investments,Tax assets,Total non-current assets,Total assets,Payables,Short-term debt,Total current liabilities,Long-term debt,Total debt,Deferred revenue,Tax Liabilities,Deposit Liabilities,Total non-current liabilities,Total liabilities,Other comprehensive income,Retained earnings (deficit),Total shareholders equity,Investments,Net Debt,Other Assets,Other Liabilities
2019-12-31,282723000.0,140131000.0,422854000.0,60295000.0,55013000.0,555625000.0,79563000.0,272792000.0,25792000.0,36108000.0,420381000.0,976006000.0,18771000.0,217467000.0,291777000.0,258711000.0,476178000.0,3719000.0,61300000.0,0.0,338346000.0,629405000.0,587862000.0,-242807000.0,346601000.0,165923000.0,193455000.0,0.0,0.0
2018-12-31,172018000.0,235339000.0,407357000.0,61271000.0,33052000.0,511280000.0,70740000.0,284949000.0,16866000.0,38439000.0,378593000.0,889873000.0,15891000.0,24319000.0,64443000.0,447825000.0,472144000.0,5432000.0,53943000.0,0.0,460542000.0,523179000.0,536157000.0,-169896000.0,366694000.0,252205000.0,300126000.0,0.0,0.0
2017-12-31,163450000.0,241737000.0,405187000.0,67993000.0,31721000.0,517109000.0,60344000.0,327435000.0,10000000.0,37456000.0,400397000.0,917506000.0,14721000.0,21387000.0,60047000.0,421431000.0,442818000.0,435000.0,47606000.0,0.0,453691000.0,506105000.0,484934000.0,-74145000.0,411401000.0,251737000.0,279368000.0,0.0,0.0
2016-12-31,144867000.0,249476000.0,394343000.0,49999000.0,32039000.0,499520000.0,44471000.0,432140000.0,10000000.0,62422000.0,491075000.0,990595000.0,14039000.0,24736000.0,66270000.0,396857000.0,421593000.0,3630000.0,56503000.0,0.0,490239000.0,528071000.0,459928000.0,1976000.0,462524000.0,259476000.0,276726000.0,0.0,0.0
2015-12-31,283044000.0,43616000.0,326660000.0,30418000.0,17828000.0,378875000.0,36280000.0,75443000.0,9621000.0,327000.0,126171000.0,505046000.0,8389000.0,1018000.0,33978000.0,171701000.0,172719000.0,6667000.0,46453000.0,0.0,189095000.0,214376000.0,392616000.0,-102741000.0,290670000.0,53237000.0,-110325000.0,0.0,0.0
2014-12-31,30366000.0,38908000.0,69274000.0,36914000.0,26650000.0,140499000.0,35498000.0,90178000.0,0.0,204000.0,138211000.0,278710000.0,7884000.0,2689000.0,32127000.0,1930000.0,4619000.0,7110000.0,44081000.0,0.0,12061000.0,39536000.0,327475000.0,-89190000.0,239174000.0,38908000.0,-25747000.0,0.0,0.0
2013-12-31,31667000.0,90890000.0,122557000.0,0.0,6767000.0,146097000.0,22460000.0,0.0,0.0,1099000.0,36245000.0,182342000.0,7280000.0,1881000.0,17084000.0,1471000.0,3352000.0,1686000.0,8031000.0,0.0,9906000.0,22949000.0,225007000.0,-66582000.0,159393000.0,90890000.0,-28315000.0,0.0,0.0
2012-12-31,30161000.0,91107000.0,121268000.0,0.0,4894000.0,144397000.0,13893000.0,0.0,0.0,2412000.0,25677000.0,170074000.0,6888000.0,524000.0,13087000.0,1570000.0,2094000.0,1083000.0,6155000.0,0.0,14153000.0,17109000.0,205269000.0,-53404000.0,152965000.0,91107000.0,-28067000.0,0.0,0.0
2011-12-31,29696000.0,89283000.0,118979000.0,0.0,5716000.0,140085000.0,9566000.0,0.0,0.0,10673000.0,32543000.0,172628000.0,5016000.0,0.0,10690000.0,0.0,0.0,1929000.0,0.0,0.0,4997000.0,14224000.0,190314000.0,-32713000.0,158404000.0,89283000.0,-29696000.0,0.0,0.0
2010-12-31,110172000.0,0.0,110172000.0,10052000.0,5095000.0,130564000.0,7206000.0,7471000.0,0.0,17354000.0,28393000.0,158957000.0,6692000.0,0.0,13677000.0,0.0,0.0,2647000.0,0.0,0.0,2594000.0,16271000.0,800000.0,-34644000.0,142686000.0,0.0,-110172000.0,5245000.0,6985000.0
2009-12-31,19061000.0,0.0,19061000.0,7981000.0,3942000.0,31358000.0,3114000.0,0.0,0.0,0.0,3114000.0,34472000.0,4438000.0,0.0,11303000.0,0.0,0.0,3383000.0,444000.0,0.0,285000.0,11588000.0,0.0,-60775000.0,-54732000.0,0.0,-19061000.0,374000.0,6865000.0
