,0,1,2,3,4,5,6,7,8,9,10,11,12,13,14,15,16,17,18,19,20,21,22,23,24,25,26,27,28,29,30
Date,Revenue,Revenue Growth,Cost of Revenue,Gross Profit,R&D Expenses,SG&A Expense,Operating Expenses,Operating Income,Interest Expense,Earnings before Tax,Income Tax Expense,Net Income - Non-Controlling int,Net Income - Discontinued ops,Net Income,Preferred Dividends,Net Income Com,EPS,EPS Diluted,Weighted Average Shs Out,Weighted Average Shs Out (Dil),Dividend per Share,Gross Margin,EBITDA Margin,EBIT Margin,Profit Margin,Free Cash Flow margin,EBITDA,EBIT,Consolidated Income,Earnings Before Tax Margin,Net Profit Margin
2017-12-31,775787000.0,-0.0590008357299,535123000.0,143799000.0,80847000.0,216270000.0,546491000.0,-402692000.0,53412000.0,-450961000.0,18326000.0,0.0,0.0,-469287000.0,0.0,-469287000.0,-6.53,-6.53,71857000.0,71857000.0,0.0,0.185358867834,-0.344544314354,-0.51907546788,-0.604917329112,0.0740834790993,-267293000.0,-402692000.0,-469287000.0,-0.58129486573,-0.604917329112
2016-12-31,824429000.0,-0.041884135279699995,486899000.0,-151102000.0,80466000.0,201830000.0,343080000.0,-494182000.0,41441000.0,-576325000.0,-104294000.0,0.0,0.0,-472031000.0,0.0,-472031000.0,-6.63,-6.63,71147000.0,71147000.0,0.0,-0.18328079191799998,-0.492260704075,-0.59942335847,-0.572555065385,0.0305605455412,-405834000.0,-494182000.0,-472031000.0,-0.699059591548,-0.572555065385
2015-12-31,860469000.0,0.44362124590400004,508065000.0,352404000.0,76982000.0,201287000.0,282836000.0,69568000.0,27268000.0,34543000.0,20371000.0,0.0,0.0,38997000.0,0.0,38997000.0,0.56,0.54,69640417.0,72027344.0,0.0,0.409548746091,0.16061589668,0.0808489323845,0.0453206332825,0.054304106249,138205000.0,69568000.0,38997000.0,0.040144386375300004,0.0453206332825
2014-12-31,596049000.0,0.165291631313,283396000.0,312653000.0,79114000.0,139390000.0,223837000.0,88816000.0,43000.0,50204000.0,33206000.0,0.0,0.0,57353000.0,0.0,57353000.0,0.84,0.81,68185552.0,70530349.0,0.0,0.524542445336,0.206093794302,0.14900788358,0.0962219549064,0.0048720826643399995,122842000.0,88816000.0,57353000.0,0.0842279745457,0.0962219549064
2013-12-31,511502000.0,-0.120665231772,312202000.0,199300000.0,68854000.0,120288000.0,205687000.0,-6387000.0,419000.0,97155000.0,45681000.0,0.0,0.0,101259000.0,0.0,101259000.0,1.51,1.47,66921181.0,68655038.0,0.0,0.389636795164,0.05790593194159999,-0.012486754695,0.19796403533100002,0.229041137669,29619000.0,-6387000.0,101259000.0,0.18994060629299997,0.19796403533100002
2012-12-31,581692000.0,0.134081599629,299138000.0,282554000.0,81320000.0,108470000.0,199562000.0,82992000.0,632000.0,59393000.0,27438000.0,0.0,0.0,55873000.0,0.0,55873000.0,0.85,0.82,65660271.0,68404551.0,0.0,0.485745033454,0.296712005666,0.142673442303,0.0960525501468,0.0675769995118,172595000.0,82992000.0,55873000.0,0.10210386252499999,0.0960525501468
2011-12-31,512919000.0,0.0,254624000.0,258295000.0,82701000.0,68477000.0,158684000.0,99611000.0,157000.0,64408000.0,32616000.0,0.0,0.0,65495000.0,0.0,65495000.0,1.02,0.97,64126855.0,67319989.0,0.0,0.503578537742,0.230898056028,0.194204153092,0.127690726996,-0.047114651631199995,118432000.0,99611000.0,65495000.0,0.125571483996,0.127690726996
