,0,1,2,3,4,5,6,7,8,9,10,11,12,13,14,15,16,17,18,19,20,21,22,23,24,25,26,27,28,29,30
Date,Revenue,Revenue Growth,Cost of Revenue,Gross Profit,R&D Expenses,SG&A Expense,Operating Expenses,Operating Income,Interest Expense,Earnings before Tax,Income Tax Expense,Net Income - Non-Controlling int,Net Income - Discontinued ops,Net Income,Preferred Dividends,Net Income Com,EPS,EPS Diluted,Weighted Average Shs Out,Weighted Average Shs Out (Dil),Dividend per Share,Gross Margin,EBITDA Margin,EBIT Margin,Profit Margin,Free Cash Flow margin,EBITDA,EBIT,Consolidated Income,Earnings Before Tax Margin,Net Profit Margin
2018-12-31,4225761000.0,0.09886238167580001,1801582000.0,2424179000.0,0.0,1038975000.0,629686000.0,755508000.0,0.0,376976000.0,36263000.0,0.0,0.0,363351000.0,0.0,363351000.0,1.27,1.27,285913000.0,286652588.0,2.35000494745,0.573666849592,0.34139483988799996,0.178786258854,0.0859847492558,0.112521034673,1442653000.0,755508000.0,363351000.0,0.0892090205764,0.0859847492558
2017-12-31,3845578000.0,0.09515291817949999,1685318000.0,2160260000.0,0.0,984965000.0,631390000.0,649109000.0,0.0,191723000.0,25947000.0,0.0,0.0,183821000.0,0.0,183821000.0,0.69,0.69,265898000.0,266845000.0,1.64889355244,0.561751705465,0.31533933260499997,0.16879361178,0.0478006167083,0.09825233033889999,1212662000.0,649109000.0,183821000.0,0.0498554443571,0.0478006167083
2016-12-31,3511453000.0,0.167380657292,1567777000.0,1943676000.0,0.0,988332000.0,677670000.0,501606000.0,0.0,103880000.0,44944000.0,0.0,0.0,104824000.0,0.0,104824000.0,0.43,0.42,246178000.0,247266998.0,2.04584924026,0.553524709002,0.28263257403700004,0.142848558702,0.029852029914700002,0.0613113716743,992451000.0,501606000.0,104824000.0,0.0295831953325,0.029852029914700002
2015-12-31,3007976000.0,-0.035191726703,1290025000.0,1717951000.0,0.0,844960000.0,581089000.0,524527000.0,0.0,125203000.0,37713000.0,0.0,0.0,123241000.0,0.0,123241000.0,0.58,0.58,210764000.0,212118000.0,1.9164238772799997,0.571131884031,0.295377689184,0.174378718447,0.040971404027199995,0.0836146963939,888489000.0,524527000.0,123241000.0,0.041623669869699995,0.040971404027199995
2014-12-31,3117693000.0,0.030327936302400004,1344636000.0,1773057000.0,0.0,869572000.0,869572000.0,549277000.0,260717000.0,328955000.0,-97275000.0,0.0,0.0,326119000.0,0.0,326119000.0,1.67,1.66,195278000.0,196749000.0,2.75629355168,0.568708015831,0.294588979736,0.176180592509,0.104602666138,0.0356109469406,918438000.0,549277000.0,326119000.0,0.10551231311100001,0.104602666138
2013-12-31,3025923000.0,0.0068772866196000005,1288878000.0,1737045000.0,0.0,924031000.0,924031000.0,492394000.0,254174000.0,99961000.0,63057000.0,0.0,0.0,97262000.0,0.0,97262000.0,0.51,0.51,190994000.0,192412000.0,1.07476664657,0.574054594251,0.273948477869,0.162725224667,0.0321429196976,0.0727880385588,828947000.0,492394000.0,97262000.0,0.0330348789444,0.0321429196976
2012-12-31,3005255000.0,-0.00313397372809,0.0,0.0,0.0,850371000.0,850371000.0,557027000.0,242599000.0,298366000.0,114873000.0,0.0,0.0,171708000.0,0.0,171708000.0,0.99,0.98,173604000.0,174867000.0,1.82335718003,0.0,0.295238507215,0.18535099351,0.05713591691890001,0.0639057251381,887267000.0,557027000.0,171708000.0,0.0992814253699,0.05713591691890001
2011-12-31,3014703000.0,-0.036081289214,0.0,0.0,0.0,834591000.0,834591000.0,571199000.0,205256000.0,352900000.0,106488000.0,0.0,0.0,395538000.0,0.0,395538000.0,2.03,2.02,194777000.0,195938000.0,0.880972552542,0.0,0.299642784049,0.18947106895799998,0.131202974223,0.134767172753,903334000.0,571199000.0,395538000.0,0.11705962411599999,0.131202974223
2010-12-31,3127549000.0,0.127294923846,0.0,0.0,0.0,927873000.0,927873000.0,323553000.0,220986000.0,100795000.0,149787000.0,0.0,0.0,-53900000.0,0.0,-53900000.0,-0.27,-0.27,201991000.0,201991000.0,0.187597467214,0.0,0.216959030858,0.10345257580299999,-0.0172339426177,0.111113526918,678550000.0,323553000.0,-53900000.0,0.0322281121735,-0.0172339426177
2009-12-31,2774384000.0,-0.0919,1201871000.0,1572513000.0,0.0,749934000.0,1027288000.0,545225000.0,212545000.0,331712000.0,113762000.0,1429000.0,12138000.0,217950000.0,0.0,217950000.0,1.08,1.07,203354655.0,202812000.0,0.0,0.5668,0.298,0.1962,0.079,0.1202,826560000.0,544257000.0,219379000.0,0.1196,0.0786
