,0,1,2,3,4,5,6,7,8,9,10,11,12,13,14,15,16,17,18,19,20,21,22,23,24,25,26,27,28,29,30
Date,Revenue,Revenue Growth,Cost of Revenue,Gross Profit,R&D Expenses,SG&A Expense,Operating Expenses,Operating Income,Interest Expense,Earnings before Tax,Income Tax Expense,Net Income - Non-Controlling int,Net Income - Discontinued ops,Net Income,Preferred Dividends,Net Income Com,EPS,EPS Diluted,Weighted Average Shs Out,Weighted Average Shs Out (Dil),Dividend per Share,Gross Margin,EBITDA Margin,EBIT Margin,Profit Margin,Free Cash Flow margin,EBITDA,EBIT,Consolidated Income,Earnings Before Tax Margin,Net Profit Margin
2018-12-31,678098000.0,-0.0301288826783,0.0,678098000.0,0.0,342659000.0,407680000.0,270418000.0,0.0,270418000.0,67842000.0,0.0,0.0,202576000.0,0.0,202576000.0,0.72,0.72,291561711.0,281925219.0,0.38,1.0,0.424,0.3988,0.299,0.4014,287522000.0,270418000.0,202576000.0,0.3988,0.2987
2017-12-31,699163000.0,0.06314587400930001,0.0,699163000.0,0.0,330491000.0,418574000.0,280589000.0,0.0,280589000.0,153845000.0,0.0,0.0,126744000.0,0.0,126744000.0,0.44,0.43,306157554.0,290183952.0,0.33,1.0,0.426,0.4013,0.18100000000000002,0.4036,298010000.0,280589000.0,126744000.0,0.4013,0.1813
2016-12-31,657636000.0,0.0794916030459,0.0,657636000.0,0.0,295736000.0,358564000.0,299072000.0,0.0,299072000.0,106947000.0,0.0,0.0,192125000.0,0.0,192125000.0,0.65,0.64,309294255.0,297580834.0,0.26,1.0,0.479,0.4548,0.292,0.3133,315262000.0,299072000.0,192125000.0,0.4548,0.2921
2015-12-31,609209000.0,0.115089359584,0.0,609209000.0,0.0,274911000.0,328332000.0,280877000.0,0.0,280877000.0,99372000.0,0.0,0.0,181505000.0,0.0,181505000.0,0.55,0.55,338522380.0,329763527.0,0.2,1.0,0.489,0.4611,0.298,0.8381,298157000.0,280877000.0,181505000.0,0.4611,0.2979
2014-12-31,546332000.0,0.254706884752,0.0,546332000.0,0.0,263545000.0,339860000.0,206472000.0,0.0,206472000.0,74751000.0,0.0,0.0,131721000.0,0.0,131721000.0,0.38,0.38,357759158.0,344389259.0,0.11900000000000001,1.0,0.409,0.3779,0.24100000000000002,0.4498,223429000.0,206472000.0,131721000.0,0.3779,0.2411
2013-12-31,435426000.0,0.168160538706,0.0,0.0,0.0,128765000.0,128765000.0,175786000.0,109642000.0,175786000.0,63755000.0,0.0,0.0,112031000.0,0.0,112031000.0,1.02,1.01,109659827.0,110994449.0,0.201847932053,0.0,0.429976620597,0.403710389366,0.257290561427,0.34804995567599994,187223000.0,175786000.0,112031000.0,0.403710389366,0.257290561427
2012-12-31,372745000.0,0.132674332389,0.0,0.0,0.0,109197000.0,109197000.0,144850000.0,123444000.0,144850000.0,56083000.0,0.0,0.0,88767000.0,0.0,88767000.0,0.83,0.82,107371685.0,108091522.0,0.0517616913563,0.0,0.401137506875,0.388603468859,0.238144039491,0.534875048626,149522000.0,144850000.0,88767000.0,0.388603468859,0.238144039491
2011-12-31,329084000.0,1.0,0.0,0.0,0.0,85688000.0,85688000.0,125167000.0,144488000.0,125167000.0,46281000.0,0.0,0.0,78886000.0,0.0,78886000.0,0.73,0.73,107839000.0,108044786.0,0.0,0.0,0.407315457452,0.380349697949,0.239713872446,0.5771839408780001,134041000.0,125167000.0,78886000.0,0.380349697949,0.239713872446
2010-12-31,0.0,-1.0,0.0,0.0,0.0,72953000.0,72953000.0,62019000.0,0.0,0.0,-14441000.0,0.0,0.0,62019000.0,0.0,62019000.0,0.0,0.0,0.0,0.0,0.0,0.0,0.0,0.0,0.0,0.0,71087000.0,62019000.0,62019000.0,0.0,0.0
2009-06-30,-11319000.0,-1.1069,0.0,-11319000.0,0.0,82060000.0,97799000.0,-109118000.0,0.0,-109118000.0,-44200000.0,0.0,0.0,-64918000.0,0.0,-64918000.0,-0.243,-0.243,266552525.0,266552525.0,0.0,1.0,9.392999999999999,9.6403,5.735,-2.6526,-106323000.0,-109118000.0,-64918000.0,9.6403,5.7353
