,0,1,2,3,4,5,6,7,8,9,10,11,12,13,14,15,16,17,18,19,20,21,22,23,24,25,26,27,28
Date,Cash and cash equivalents,Short-term investments,Cash and short-term investments,Receivables,Inventories,Total current assets,Property Plant & Equipment Net,Goodwill and Intangible Assets,Long-term investments,Tax assets,Total non-current assets,Total assets,Payables,Short-term debt,Total current liabilities,Long-term debt,Total debt,Deferred revenue,Tax Liabilities,Deposit Liabilities,Total non-current liabilities,Total liabilities,Other comprehensive income,Retained earnings (deficit),Total shareholders equity,Investments,Net Debt,Other Assets,Other Liabilities
2019-09-30,22416830.0,0.0,22416830.0,2348537.0,4470694.0,29958292.0,8444692.0,0.0,0.0,211389.0,8598733.0,38557025.0,1079073.0,0.0,2219222.0,0.0,0.0,29231.0,546000.0,0.0,129651.0,2348873.0,30618559.0,5570587.0,36208152.0,0.0,-22416830.0,0.0,0.0
2018-09-30,20390713.0,0.0,20390713.0,3449893.0,4280108.0,28664948.0,8786737.0,0.0,0.0,216497.0,8968730.0,37633678.0,1529792.0,0.0,3349614.0,0.0,0.0,356801.0,540000.0,0.0,129594.0,3479208.0,30415242.0,3720291.0,34154470.0,0.0,-20390713.0,0.0,0.0
2017-09-30,24680301.0,0.0,24680301.0,2748597.0,4179654.0,34181438.0,6669011.0,0.0,0.0,70167.0,6856326.0,41037764.0,1321251.0,0.0,3361642.0,0.0,0.0,280354.0,570000.0,0.0,67742.0,3429384.0,30215304.0,7374196.0,37608380.0,0.0,-24680301.0,0.0,0.0
2016-09-30,18767661.0,0.0,18767661.0,4511091.0,3645828.0,29369459.0,6962562.0,0.0,0.0,69326.0,7119510.0,36488969.0,1503771.0,0.0,3573264.0,0.0,0.0,179585.0,615000.0,0.0,67701.0,3640965.0,30023622.0,2805569.0,32848004.0,0.0,-18767661.0,0.0,0.0
2015-09-30,16282039.0,0.0,16282039.0,2394695.0,4597316.0,29349475.0,7095330.0,0.0,0.0,933499.0,7264278.0,36613753.0,1435981.0,0.0,4761257.0,0.0,0.0,756745.0,615000.0,0.0,510010.0,5271267.0,30504962.0,818768.0,31342486.0,0.0,-16282039.0,0.0,0.0
2014-09-30,15214584.0,0.0,15214584.0,4419863.0,5470786.0,36526292.0,7467663.0,0.0,0.0,3245223.0,7636218.0,44162510.0,2402652.0,0.0,7006262.0,0.0,0.0,526320.0,185151.0,0.0,144724.0,7150986.0,30307907.0,6684902.0,37011524.0,0.0,-15214584.0,0.0,0.0
2013-09-30,16386207.0,0.0,16386207.0,4489434.0,4377513.0,34437485.0,7320495.0,0.0,0.0,2002679.0,8193026.0,42630511.0,2372137.0,0.0,6492571.0,0.0,0.0,447525.0,337993.0,0.0,143693.0,6636264.0,29490981.0,6484634.0,35994247.0,0.0,-16386207.0,0.0,0.0
2012-09-30,42977501.0,0.0,42977501.0,3978512.0,3801547.0,54377366.0,7214378.0,158600.0,0.0,1588162.0,8219865.0,62597231.0,1139464.0,0.0,5289828.0,0.0,0.0,1426552.0,132980.0,0.0,227000.0,5516828.0,27456838.0,29605236.0,57080403.0,0.0,-42977501.0,0.0,0.0
2011-09-30,42625854.0,0.0,42625854.0,3124114.0,3508595.0,50572834.0,7476362.0,208408.0,0.0,438635.0,7684770.0,58257604.0,443516.0,13189.0,3240724.0,0.0,13189.0,232630.0,0.0,0.0,756093.0,3996817.0,27616258.0,26626242.0,54260787.0,0.0,-42612665.0,0.0,0.0
2010-09-30,40916346.0,0.0,40916346.0,2529976.0,4656392.0,49607834.0,7761538.0,0.0,0.0,522352.0,7982688.0,57590522.0,543877.0,9908.0,3296778.0,15560.0,25468.0,166621.0,649929.0,0.0,825707.0,4122485.0,0.0,25909652.0,53468037.0,0.0,-40890878.0,1505120.0,2742993.0
2009-09-30,35565694.0,0.0,35565694.0,6188706.0,5306985.0,8743221.0,8343701.0,0.0,0.0,503993.0,968956.0,57536012.0,1207990.0,9908.0,4168314.0,26991.0,36899.0,225648.0,642651.0,0.0,968956.0,5137270.0,0.0,25161276.0,52398742.0,0.0,-35528795.0,1731406.0,2950416.0
