,0,1,2,3,4,5,6,7,8,9,10,11,12,13,14
Date,Depreciation & Amortization,Stock-based compensation,Operating Cash Flow,Capital Expenditure,Acquisitions and disposals,Investment purchases and sales,Investing Cash flow,Issuance (repayment) of debt,Issuance (buybacks) of shares,Dividend payments,Financing Cash Flow,Effect of forex changes on cash,Net cash flow / Change in cash,Free Cash Flow,Net Cash/Marketcap
2018-12-31,,,,-129000000.0,,,,,,,1303000000.0,130000000.0,449000000.0,,
2017-12-31,,,,-134000000.0,,,,,,,-2115000000.0,134000000.0,-1604000000.0,,
2017-12,81845000000.0,,,,,0.0,-87155000000.0,,,,349602000000.0,86761000000.0,-1041655000000.0,,
2016-12-31,,,,-156000000.0,,,,,,,-2036000000.0,9000000.0,2207000000.0,,
2016-12,63692000000.0,,,,,0.0,1589074000000.0,,,,874784000000.0,6176000000.0,1491136000000.0,,
2015-12-31,,,,-25000000.0,,,,,,,732000000.0,0.0,-38000000.0,,
2015-12,42905000000.0,,,,,-516000000.0,-33845000000.0,,,,-410813000000.0,-7187000000.0,-212274000000.0,,
2014-12,51613000000.0,,,,,0.0,-106810000000.0,,,,515980000000.0,32301000000.0,103110000000.0,,
2013-12,42288000000.0,,,,,0.0,-277704000000.0,,,,649518000000.0,0.0,594456000000.0,,
