,0,1,2,3,4,5,6,7,8,9,10,11,12,13,14,15,16,17,18,19,20,21,22,23,24,25,26,27,28
Date,Cash and cash equivalents,Short-term investments,Cash and short-term investments,Receivables,Inventories,Total current assets,Property Plant & Equipment Net,Goodwill and Intangible Assets,Long-term investments,Tax assets,Total non-current assets,Total assets,Payables,Short-term debt,Total current liabilities,Long-term debt,Total debt,Deferred revenue,Tax Liabilities,Deposit Liabilities,Total non-current liabilities,Total liabilities,Other comprehensive income,Retained earnings (deficit),Total shareholders equity,Investments,Net Debt,Other Assets,Other Liabilities
2018-12-31,,,,,,,,,1971000000.0,,,42416000000.0,,,,11007000000.0,,,,,,,,2083000000.0,,,,,
2017-12-31,,,,,,,,,2023000000.0,,,45458000000.0,,,,12130000000.0,,,,,,,,2041000000.0,,,,,
2017-12,,,,439149000000.0,,,,1126663000000.0,,,,28032773000000.0,,,,8078230000000.0,8078230000000.0,,,,,24604016000000.0,,63255000000.0,3211477000000.0,,8078230000000.0,0.0,0.0
2016-12-31,,,,,,,,,1643000000.0,,,43368000000.0,,,,8874000000.0,,,,,,,,1924000000.0,,,,,
2016-12,,,,303979000000.0,,,,1145308000000.0,,,,28909337000000.0,,,,7553913000000.0,7553913000000.0,,,,,25485625000000.0,,12257000000.0,3184743000000.0,,7553913000000.0,0.0,0.0
2015-12-31,,,,,,,,,1423000000.0,,,29464000000.0,,,,6178000000.0,,,,,,,,876000000.0,,,,,
2015-12,,,,141553000000.0,,,,345620000000.0,,,,20805351000000.0,,,,4676378000000.0,4676378000000.0,,,,,19270058000000.0,,142713000000.0,1220552000000.0,,4676378000000.0,0.0,0.0
2014-12,,,,120567000000.0,,,,386180000000.0,,,,20357027000000.0,,,,4412529000000.0,4412529000000.0,,,,,18565365000000.0,,267138000000.0,1465725000000.0,,4412529000000.0,0.0,0.0
2013-12,,,,101087000000.0,,,,411992000000.0,,,,17482631000000.0,,,,3569908000000.0,3569908000000.0,,,,,15750734000000.0,,157127000000.0,1426199000000.0,,3569908000000.0,0.0,0.0
