,0,1,2,3,4,5,6,7,8,9,10,11,12,13,14,15,16,17,18,19,20,21,22,23,24,25,26,27,28,29,30
Date,Revenue,Revenue Growth,Cost of Revenue,Gross Profit,R&D Expenses,SG&A Expense,Operating Expenses,Operating Income,Interest Expense,Earnings before Tax,Income Tax Expense,Net Income - Non-Controlling int,Net Income - Discontinued ops,Net Income,Preferred Dividends,Net Income Com,EPS,EPS Diluted,Weighted Average Shs Out,Weighted Average Shs Out (Dil),Dividend per Share,Gross Margin,EBITDA Margin,EBIT Margin,Profit Margin,Free Cash Flow margin,EBITDA,EBIT,Consolidated Income,Earnings Before Tax Margin,Net Profit Margin
2018-12-31,509476000.0,0.0,0.0,0.0,51507000.0,183917000.0,235424000.0,10099000.0,1950000.0,10099000.0,9408000.0,0.0,0.0,691000.0,0.0,691000.0,0.02,0.02,33003000.0,34407000.0,0.266370215363,0.0,0.10591077891799999,0.019822327253900002,0.0013562954879100001,0.10700405907199999,53959000.0,10099000.0,691000.0,0.019822327253900002,0.0013562954879100001
2018-03,,0.0,,,,0.0,,,,,,,,-0.0,,-0.0,-0.04,-0.04,6000000.0,6000000.0,,,,,,,-0.0,0.0,-0.0,,
2017-12-31,483694000.0,0.0,0.0,0.0,48477000.0,184716000.0,233193000.0,6525000.0,2025000.0,6525000.0,45965000.0,0.0,0.0,-39440000.0,0.0,-39440000.0,-1.19,-1.19,33009000.0,33009000.0,0.277378896665,0.0,0.10684027505,0.0134899337184,-0.0815391549203,0.100501556769,51678000.0,6525000.0,-39440000.0,0.0134899337184,-0.0815391549203
2017-03,,0.0,,,,1000000.0,,,,,,,,-1000000.0,,-1000000.0,-0.2,-0.2,5000000.0,5000000.0,,,,,,,-1000000.0,-1000000.0,-1000000.0,,
2016-12-31,469052000.0,0.0,0.0,0.0,56643000.0,188886000.0,245529000.0,-43240000.0,2217000.0,-43240000.0,-17322000.0,0.0,0.0,-25918000.0,0.0,-25918000.0,-0.79,-0.79,32906000.0,32906000.0,0.277274661156,0.0,0.000603344618507,-0.09218594100439999,-0.0552561336483,0.029350690328599997,283000.0,-43240000.0,-25918000.0,-0.09218594100439999,-0.0552561336483
2016-03,,0.0,,,,1000000.0,,,,,,,,-1000000.0,,-1000000.0,-0.3,-0.3,2000000.0,2000000.0,,,,,,,-1000000.0,-1000000.0,-1000000.0,,
2015-12-31,634803000.0,0.0,0.0,0.0,51523000.0,209323000.0,260846000.0,121226000.0,1829000.0,121226000.0,29656000.0,0.0,0.0,91570000.0,0.0,91570000.0,2.7,2.63,33907000.0,34815000.0,0.20192445784899998,0.0,0.260517042295,0.190966331287,0.144249475822,0.05803532749530001,165377000.0,121226000.0,91570000.0,0.190966331287,0.144249475822
2015-03,,0.0,,,,0.0,,,,,,,,-0.0,,-0.0,-0.45,-0.45,1000000.0,1000000.0,,,,,,,-0.0,0.0,-0.0,,
2014-12-31,559814000.0,0.0,0.0,0.0,51187000.0,215758000.0,295107000.0,64987000.0,2322000.0,64987000.0,14095000.0,0.0,0.0,50892000.0,0.0,50892000.0,1.44,1.4,35349000.0,36365000.0,0.0,0.0,0.20430178594999998,0.116086771678,0.0909087661259,0.229972812398,114371000.0,64987000.0,50892000.0,0.116086771678,0.0909087661259
2014-03,,0.0,,,,0.0,,,,,,,,-1000000.0,,-1000000.0,-0.9,-0.9,1000000.0,1000000.0,,,,,,,-0.0,-1000000.0,-1000000.0,,
2013-12-31,530801000.0,0.0522662934446,0.0,0.0,53607000.0,201254000.0,278685000.0,43055000.0,2715000.0,43055000.0,11970000.0,0.0,0.0,31085000.0,0.0,31085000.0,0.84,0.82,36788000.0,38114000.0,0.0,0.0,0.18210402768599998,0.08111326090189999,0.0585624367701,0.021934774049,96661000.0,43055000.0,31085000.0,0.08111326090189999,0.0585624367701
2012-12-31,504436000.0,-0.11817592218699999,0.0,0.0,59850000.0,196362000.0,284905000.0,-270455000.0,2542000.0,-270455000.0,-22596000.0,0.0,0.0,-247859000.0,0.0,-247859000.0,-6.45,-6.45,38418000.0,38418000.0,0.0,0.0,-0.424160844983,-0.53615324838,-0.491358665916,-0.0131473566518,-213962000.0,-270455000.0,-247859000.0,-0.53615324838,-0.491358665916
2011-12-31,572037000.0,0.0022479036502600002,0.0,0.0,58460000.0,219307000.0,310115000.0,-206628000.0,2025000.0,-206628000.0,-26839000.0,0.0,0.0,-179789000.0,0.0,-179789000.0,-4.42,-4.42,40691000.0,40691000.0,0.0,0.0,-0.257974571575,-0.361214396971,-0.314296103224,0.0772712254627,-147571000.0,-206628000.0,-179789000.0,-0.361214396971,-0.314296103224
2010-12-31,570754000.0,0.0,0.0,0.0,53473000.0,215886000.0,310139000.0,49333000.0,671000.0,49333000.0,25353000.0,0.0,0.0,23980000.0,0.0,23980000.0,0.56,0.55,42767000.0,43496000.0,0.0,0.0,0.19571654337900002,0.0864347862652,0.042014598233199994,0.282804851127,111706000.0,49333000.0,23980000.0,0.0864347862652,0.042014598233199994
