,0,1,2,3,4,5,6,7,8,9,10,11,12,13,14
Date,Depreciation & Amortization,Stock-based compensation,Operating Cash Flow,Capital Expenditure,Acquisitions and disposals,Investment purchases and sales,Investing Cash flow,Issuance (repayment) of debt,Issuance (buybacks) of shares,Dividend payments,Financing Cash Flow,Effect of forex changes on cash,Net cash flow / Change in cash,Free Cash Flow,Net Cash/Marketcap
2019-03-31,1979000.0,2156000.0,-5828000.0,486000.0,-0.0,0.0,2345000.0,-0.0,-7071000.0,-0.0,402000.0,0.0,-3081000.0,-6314000.0,0.0
2018-03-31,1545000.0,1781000.0,-268000.0,1079000.0,-0.0,0.0,-8823000.0,-0.0,-10152000.0,-0.0,1042000.0,0.0,-8049000.0,-1347000.0,0.0
2017-03-31,1352000.0,976000.0,2903000.0,668000.0,-0.0,0.0,-1343000.0,-0.0,-18201000.0,-0.0,612000.0,0.0,2172000.0,2235000.0,0.0
2016-03-31,1175000.0,659000.0,-4110000.0,856000.0,-0.0,-1195000.0,-978000.0,-0.0,-1195000.0,-0.0,-844000.0,0.0,-5932000.0,-4966000.0,0.0
2015-03-31,1122000.0,398000.0,3577000.0,986000.0,-0.0,-863000.0,-844000.0,-0.0,-863000.0,-0.0,-1186000.0,0.0,1547000.0,2591000.0,0.0
2014-03-31,1501000.0,300000.0,3274000.0,452000.0,-0.0,-339000.0,-779000.0,-0.0,-339000.0,-0.0,-759000.0,0.0,1736000.0,2822000.0,0.0
2013-03-31,1545000.0,279000.0,0.0,815000.0,-0.0,-2477000.0,436000.0,-634000.0,-2501000.0,-0.0,0.0,0.0,436000.0,-815000.0,0.0
2012-03-31,1411000.0,331000.0,0.0,337000.0,-969000.0,-754000.0,6883000.0,-2330000.0,-754000.0,-0.0,0.0,0.0,6883000.0,-337000.0,0.0
2011-03-31,1252000.0,382000.0,5346000.0,-414000.0,-1116000.0,0.0,-1530000.0,-2354000.0,57000.0,0.0,-2403000.0,0.0,1413000.0,4932000.0,0.1791
2010-03-31,1145000.0,375000.0,6484000.0,-294000.0,-300000.0,0.0,-594000.0,-2000000.0,143000.0,0.0,-1857000.0,0.0,4033000.0,6190000.0,0.0745
