,0,1,2,3,4,5,6,7,8,9,10,11,12,13,14,15,16,17,18,19,20,21,22,23,24,25,26,27,28
Date,Cash and cash equivalents,Short-term investments,Cash and short-term investments,Receivables,Inventories,Total current assets,Property Plant & Equipment Net,Goodwill and Intangible Assets,Long-term investments,Tax assets,Total non-current assets,Total assets,Payables,Short-term debt,Total current liabilities,Long-term debt,Total debt,Deferred revenue,Tax Liabilities,Deposit Liabilities,Total non-current liabilities,Total liabilities,Other comprehensive income,Retained earnings (deficit),Total shareholders equity,Investments,Net Debt,Other Assets,Other Liabilities
2019-12-31,4801000.0,0.0,4801000.0,7000.0,0.0,11718000.0,572000.0,0.0,0.0,0.0,14033000.0,25751000.0,15486000.0,5800000.0,36986000.0,7625000.0,13425000.0,0.0,200000.0,0.0,15003000.0,51989000.0,208536000.0,-234923000.0,-26238000.0,0.0,8624000.0,0.0,0.0
2018-12-31,44551000.0,40000000.0,84551000.0,158000.0,0.0,92971000.0,700000.0,0.0,0.0,0.0,4900000.0,97871000.0,4041000.0,1019000.0,12219000.0,13079000.0,14098000.0,0.0,113000.0,0.0,14030000.0,26249000.0,203271000.0,-131793000.0,71622000.0,40000000.0,-30453000.0,0.0,0.0
2017-12-31,8485000.0,30731000.0,39216000.0,0.0,0.0,44173000.0,747000.0,0.0,0.0,0.0,2584000.0,46757000.0,3152000.0,0.0,7126000.0,0.0,0.0,0.0,0.0,0.0,80000.0,7206000.0,0.0,-54737000.0,39494000.0,30731000.0,-39216000.0,4957000.0,3974000.0
2016-12-31,24809000.0,0.0,24809000.0,0.0,0.0,25862000.0,0.0,0.0,0.0,0.0,1055000.0,26917000.0,1481000.0,0.0,4219000.0,0.0,0.0,0.0,0.0,0.0,0.0,4219000.0,0.0,-25331000.0,22668000.0,0.0,-24809000.0,1053000.0,2738000.0
