,0,1,2,3,4,5,6,7,8,9,10,11,12,13,14,15,16,17,18,19,20,21,22,23,24,25,26,27,28,29,30
Date,Revenue,Revenue Growth,Cost of Revenue,Gross Profit,R&D Expenses,SG&A Expense,Operating Expenses,Operating Income,Interest Expense,Earnings before Tax,Income Tax Expense,Net Income - Non-Controlling int,Net Income - Discontinued ops,Net Income,Preferred Dividends,Net Income Com,EPS,EPS Diluted,Weighted Average Shs Out,Weighted Average Shs Out (Dil),Dividend per Share,Gross Margin,EBITDA Margin,EBIT Margin,Profit Margin,Free Cash Flow margin,EBITDA,EBIT,Consolidated Income,Earnings Before Tax Margin,Net Profit Margin
2018-09-30,11415000.0,-0.6194,,7343000.0,,,,14949000.0,,14949000.0,,,,,,,0.9,0.9,16570000.0,,,0.6433,,,,,,,,1.3096,
2017-09-30,29996000.0,2.9282,,25907000.0,,,,35797000.0,,35797000.0,,,,,,,2.16,2.16,16567000.0,,,0.8637,,,,,,,,1.1934,
2016-09-30,7636000.0,-0.6891,,3890000.0,,,,27513000.0,,27513000.0,,,,,,,1.66,1.66,16567000.0,,,0.5094,,,,,,,,3.6031,
2015-09-30,24558000.0,,,20089000.0,,,,-29784000.0,,-29784000.0,,,,,,,-1.8,-1.8,16567000.0,,,0.818,,,,,,,,-1.2128,
