,0,1,2,3,4,5,6,7,8,9,10,11,12,13,14,15,16,17,18,19,20,21,22,23,24,25,26,27,28,29,30
Date,Revenue,Revenue Growth,Cost of Revenue,Gross Profit,R&D Expenses,SG&A Expense,Operating Expenses,Operating Income,Interest Expense,Earnings before Tax,Income Tax Expense,Net Income - Non-Controlling int,Net Income - Discontinued ops,Net Income,Preferred Dividends,Net Income Com,EPS,EPS Diluted,Weighted Average Shs Out,Weighted Average Shs Out (Dil),Dividend per Share,Gross Margin,EBITDA Margin,EBIT Margin,Profit Margin,Free Cash Flow margin,EBITDA,EBIT,Consolidated Income,Earnings Before Tax Margin,Net Profit Margin
2018-12-31,581644000.0,1.17589932364,0.0,0.0,29000.0,122472000.0,248316000.0,131479000.0,25152000.0,231933000.0,66475000.0,0.0,0.0,165458000.0,0.0,165458000.0,0.78,0.78,213128000.0,213203000.0,0.0,0.0,0.612357386993,0.226047204132,0.284466099539,0.735253866626,356174000.0,131479000.0,165458000.0,0.39875422079499995,0.284466099539
2017-12-31,267312000.0,2.49326990931,0.0,0.0,31000.0,466067000.0,927195000.0,-348873000.0,2861000.0,-393991000.0,57943000.0,0.0,0.0,-451934000.0,0.0,-451934000.0,-0.36,-0.36,212932000.0,212932000.0,0.0,0.0,-0.8874199437360001,-1.3051153708,-1.69066110014,0.669146914467,-237218000.0,-348873000.0,-451934000.0,-1.47389941342,-1.69066110014
2016-12-31,76522000.0,1.26055360255,12896000.0,63626000.0,2484000.0,11690000.0,55612000.0,8014000.0,2629000.0,0.0,0.0,-9760000.0,0.0,0.0,0.0,0.0,-0.05,-0.05,211075000.0,211075000.0,0.0,0.8315,0.563,0.0344,0.0,-2.1346,43046000.0,2629000.0,-9760000.0,0.0,0.0
2015-12-31,33851000.0,1.0792997543,5580000.0,28271000.0,11000.0,7446000.0,36881000.0,-8610000.0,197000.0,0.0,0.0,-7484000.0,0.0,0.0,0.0,0.0,-0.04,-0.04,211000000.0,,0.0,0.8352,0.6759999999999999,0.0058,0.0,-2.6546,22882000.0,197000.0,-7484000.0,0.0,0.0
2014-12-31,16280000.0,,3082000.0,13198000.0,0.0,7330000.0,17252000.0,-4054000.0,0.0,1321000.0,0.0,0.0,0.0,1321000.0,0.0,1321000.0,,,,,0.0,0.8107,0.6,0.0811,0.081,-11.0229,9765000.0,1321000.0,1321000.0,0.0811,0.0811
