,0,1,2,3,4,5,6,7,8,9,10,11,12,13,14,15,16,17,18,19,20,21,22,23,24,25,26,27,28
Date,Cash and cash equivalents,Short-term investments,Cash and short-term investments,Receivables,Inventories,Total current assets,Property Plant & Equipment Net,Goodwill and Intangible Assets,Long-term investments,Tax assets,Total non-current assets,Total assets,Payables,Short-term debt,Total current liabilities,Long-term debt,Total debt,Deferred revenue,Tax Liabilities,Deposit Liabilities,Total non-current liabilities,Total liabilities,Other comprehensive income,Retained earnings (deficit),Total shareholders equity,Investments,Net Debt,Other Assets,Other Liabilities
2018-12-31,35229000.0,103092000.0,138321000.0,61186000.0,0.0,201134000.0,1530285000.0,0.0,31899000.0,0.0,35722000.0,1767141000.0,34762000.0,0.0,187982000.0,489239000.0,489239000.0,0.0,0.0,0.0,631209000.0,819191000.0,856818000.0,89000000.0,947950000.0,134991000.0,454010000.0,1530285000.0,0.0
2017-12-31,9523000.0,0.0,9523000.0,50734000.0,0.0,61063000.0,1038947000.0,0.0,26000.0,0.0,3418000.0,1103428000.0,382000.0,0.0,174475000.0,155000000.0,155000000.0,0.0,0.0,0.0,229608000.0,404083000.0,773674000.0,-76458000.0,699345000.0,26000.0,145477000.0,1038947000.0,0.0
2016-12-31,11727000.0,0.0,11727000.0,10327000.0,0.0,25466000.0,476593000.0,0.0,0.0,0.0,492926000.0,518392000.0,7629000.0,9567000.0,56421000.0,135287000.0,144854000.0,0.0,0.0,0.0,135859000.0,192280000.0,0.0,-19986000.0,326112000.0,0.0,133127000.0,3412000.0,39225000.0
2015-12-31,14165000.0,0.0,14165000.0,8005000.0,0.0,22674000.0,304389000.0,0.0,0.0,0.0,305058000.0,327732000.0,2452000.0,0.0,22623000.0,20000000.0,20000000.0,0.0,0.0,0.0,20779000.0,43402000.0,0.0,-10226000.0,284330000.0,0.0,5835000.0,504000.0,20171000.0
