,0,1,2,3,4,5,6,7,8,9,10,11,12,13,14
Date,Depreciation & Amortization,Stock-based compensation,Operating Cash Flow,Capital Expenditure,Acquisitions and disposals,Investment purchases and sales,Investing Cash flow,Issuance (repayment) of debt,Issuance (buybacks) of shares,Dividend payments,Financing Cash Flow,Effect of forex changes on cash,Net cash flow / Change in cash,Free Cash Flow,Net Cash/Marketcap
2018-12-31,491000000.0,28000000.0,1217000000.0,908000000.0,-0.0,0.0,-1156000000.0,-0.0,-426000000.0,-0.0,113000000.0,0.0,474000000.0,309000000.0,0.0
2017-12-31,446000000.0,29000000.0,1398000000.0,1074000000.0,-0.0,0.0,-975000000.0,-0.0,-256000000.0,-0.0,-553000000.0,0.0,-130000000.0,324000000.0,0.0
2016-12-31,393000000.0,23000000.0,1632000000.0,850000000.0,-0.0,0.0,-1045000000.0,-0.0,-388000000.0,-0.0,-472000000.0,0.0,115000000.0,782000000.0,0.0
2015-12-31,345000000.0,20000000.0,1598000000.0,837000000.0,-0.0,0.0,-1134000000.0,-0.0,-234000000.0,-0.0,-487000000.0,0.0,-23000000.0,761000000.0,0.0
2014-12-31,325000000.0,20000000.0,912000000.0,730000000.0,-0.0,0.0,-379000000.0,-0.0,-300000000.0,-0.0,-417000000.0,0.0,116000000.0,182000000.0,0.0
2013-12-31,306000000.0,14000000.0,758000000.0,615000000.0,-0.0,0.0,-476000000.0,-190000000.0,-215000000.0,-0.0,-239000000.0,0.0,43000000.0,143000000.0,0.0
2012-12-31,269000000.0,13000000.0,698000000.0,542000000.0,-0.0,0.0,-867000000.0,-463000000.0,-173000000.0,-0.0,-322000000.0,0.0,-491000000.0,156000000.0,0.0
2011-12-31,0.0,0.0,0.0,0.0,-0.0,0.0,0.0,-40000000.0,0.0,-0.0,0.0,0.0,0.0,0.0,0.0
2010-12-31,0.0,0.0,0.0,0.0,-0.0,0.0,0.0,-0.0,0.0,-0.0,0.0,0.0,0.0,0.0,0.0
2009-12-31,234000000.0,16000000.0,486000000.0,-408000000.0,0.0,3000000.0,-457000000.0,149000000.0,120000000.0,0.0,306000000.0,0.0,335000000.0,78000000.0,-1.3216
