,0,1,2,3,4,5,6,7,8,9,10,11,12,13,14,15,16,17,18,19,20,21,22,23,24,25,26,27,28,29,30
Date,Revenue,Revenue Growth,Cost of Revenue,Gross Profit,R&D Expenses,SG&A Expense,Operating Expenses,Operating Income,Interest Expense,Earnings before Tax,Income Tax Expense,Net Income - Non-Controlling int,Net Income - Discontinued ops,Net Income,Preferred Dividends,Net Income Com,EPS,EPS Diluted,Weighted Average Shs Out,Weighted Average Shs Out (Dil),Dividend per Share,Gross Margin,EBITDA Margin,EBIT Margin,Profit Margin,Free Cash Flow margin,EBITDA,EBIT,Consolidated Income,Earnings Before Tax Margin,Net Profit Margin
2017-12,,,,,0.0,0.0,,,0.0,,0.0,,,-4000000.0,,-4000000.0,-0.1,-0.1,41000000.0,41000000.0,,,,,,,-0.0,-4000000.0,-4000000.0,,
2016-12,,,,,0.0,0.0,,,0.0,,0.0,,,4000000.0,,4000000.0,0.09,0.08,41000000.0,43000000.0,,,,,,,-0.0,4000000.0,4000000.0,,
2015-12,,,,,0.0,2000000.0,,,0.0,,-0.0,,,-6000000.0,,-6000000.0,-0.14,-0.14,41000000.0,41000000.0,,,,,,,-6000000.0,-6000000.0,-6000000.0,,
2014-12,,,,,0.0,6000000.0,,,0.0,,0.0,,,-5000000.0,,-5000000.0,-0.24,-0.24,32000000.0,32000000.0,,,,,,,-8000000.0,-5000000.0,-5000000.0,,
2013-12,,,,,0.0,2000000.0,,,0.0,,-0.0,,,-2000000.0,,-2000000.0,-0.06,-0.06,28000000.0,28000000.0,,,,,,,-2000000.0,-2000000.0,-2000000.0,,
