,0,1,2,3,4,5,6,7,8,9,10,11,12,13,14
Date,Depreciation & Amortization,Stock-based compensation,Operating Cash Flow,Capital Expenditure,Acquisitions and disposals,Investment purchases and sales,Investing Cash flow,Issuance (repayment) of debt,Issuance (buybacks) of shares,Dividend payments,Financing Cash Flow,Effect of forex changes on cash,Net cash flow / Change in cash,Free Cash Flow,Net Cash/Marketcap
2019-12-31,267489000.0,23922000.0,412539000.0,70634000.0,-415343000.0,-20803000.0,-505273000.0,-5100000.0,-20803000.0,-43533000.0,456695000.0,2180000.0,575615000.0,341905000.0,0.0
2018-12-31,198559000.0,28093000.0,401325000.0,57048000.0,-312430000.0,-47602000.0,-406613000.0,-2204000.0,-47102000.0,-81679000.0,-131362000.0,-4821000.0,209474000.0,344277000.0,0.0
2017-12-31,173993000.0,22737000.0,264419000.0,41835000.0,-174951000.0,-9854000.0,-158490000.0,-255000000.0,-9850000.0,-73469000.0,111823000.0,9243000.0,226995000.0,222584000.0,0.0
2016-12-31,130878000.0,13650000.0,282387000.0,29067000.0,-580691000.0,185321000.0,-448859000.0,-0.0,-56496000.0,-65835000.0,41150000.0,-6258000.0,-131580000.0,253320000.0,0.0
2015-12-31,101111000.0,11793000.0,229061000.0,18752000.0,-302809000.0,118016000.0,-335703000.0,-0.0,-3674000.0,-58826000.0,-67363000.0,-4128000.0,-178133000.0,210309000.0,0.0
2014-12-31,69332000.0,8908000.0,177231000.0,17165000.0,-245278000.0,119155000.0,-275469000.0,-0.0,-5663000.0,-52269000.0,327530000.0,-3430000.0,225862000.0,160066000.0,0.0
2013-12-31,42197000.0,9720000.0,193324000.0,32827000.0,-126341000.0,156083000.0,-167398000.0,-0.0,-4587000.0,-45134000.0,-35693000.0,-1112000.0,-10879000.0,160497000.0,0.0
2012-12-31,24016000.0,9132000.0,169911000.0,11356000.0,-198341000.0,51754000.0,-249494000.0,-0.0,-60282000.0,-40263000.0,158392000.0,512000.0,79321000.0,158555000.0,0.0
2011-12-31,18815000.0,8968000.0,150748000.0,11156000.0,-3926000.0,20496000.0,-76180000.0,-0.0,-1281000.0,-19174000.0,338000.0,-299000.0,74607000.0,139592000.0,0.0
2010-12-31,0.0,1217000.0,96385000.0,0.0,-0.0,0.0,-96385000.0,-0.0,0.0,-0.0,0.0,0.0,0.0,96385000.0,0.0
2009-12-31,14707000.0,7955000.0,101833000.0,-3251000.0,-12500000.0,-41566000.0,-61449000.0,0.0,2358000.0,0.0,5421000.0,826000.0,46631000.0,98582000.0,0.2489
