,0,1,2,3,4,5,6,7,8,9,10,11,12,13,14,15,16,17,18,19,20,21,22,23,24,25,26,27,28,29,30
Date,Revenue,Revenue Growth,Cost of Revenue,Gross Profit,R&D Expenses,SG&A Expense,Operating Expenses,Operating Income,Interest Expense,Earnings before Tax,Income Tax Expense,Net Income - Non-Controlling int,Net Income - Discontinued ops,Net Income,Preferred Dividends,Net Income Com,EPS,EPS Diluted,Weighted Average Shs Out,Weighted Average Shs Out (Dil),Dividend per Share,Gross Margin,EBITDA Margin,EBIT Margin,Profit Margin,Free Cash Flow margin,EBITDA,EBIT,Consolidated Income,Earnings Before Tax Margin,Net Profit Margin
2019-12-31,50906179.0,-0.225913951604,28720367.0,22185812.0,3600000.0,22176598.0,25776598.0,9214.0,38440.0,235350.0,-15269.0,0.0,0.0,6469049.0,0.0,6469049.0,0.7,0.69,9272259.0,9337422.0,0.07960184299260001,0.435817663706,0.0204692440185,0.00018099963856999998,0.12707787398499998,0.19263178247999999,1042011.0,9214.0,6469049.0,0.0046232108679799995,0.12707787398499998
2018-12-31,65762946.0,-0.201155799005,44455697.0,21307249.0,3786000.0,27501691.0,31287691.0,-6558118.0,38355.0,-6386468.0,405267.0,0.0,0.0,-6791735.0,0.0,-6791735.0,-0.75,-0.75,9108777.0,9108777.0,0.163893681885,0.324000828673,-0.0660443344494,-0.0997236042315,-0.103276015037,-0.0834262960178,-4343270.0,-6558118.0,-6791735.0,-0.09711347177179999,-0.103276015037
2017-12-31,82322618.0,-0.17141231078299998,61486379.0,20836239.0,3639000.0,28699138.0,32601068.0,-11764829.0,71428.0,-11860135.0,-34503.0,0.0,0.0,-11825632.0,0.0,-11825632.0,-1.32,-1.32,8942523.0,8942523.0,0.16307455960699999,0.253104669242,-0.10420430263800001,-0.14291125921199999,-0.143649853312,0.0349424382981,-8578371.0,-11764829.0,-11825632.0,-0.144068972636,-0.143649853312
2016-12-31,99352934.0,-0.0772418200716,72771393.0,26581000.0,5366000.0,35185924.0,35305551.0,-4456547.0,119627.0,-7856598.0,256950.0,0.0,0.0,-8113548.0,0.0,-8113548.0,-0.92,-0.92,8831782.0,8831782.0,0.524062074902,0.267541167934,-0.00778575899933,-0.0448557160879,-0.0816638993268,-0.010776390358,-773538.0,-4456547.0,-8113548.0,-0.0790776646817,-0.0816638993268
2015-12-31,107669524.0,-0.09575692622639999,76123362.0,31546000.0,8291000.0,40829755.0,42172466.0,-10505869.0,120435.0,-10401723.0,-753415.0,0.0,0.0,-9648308.0,0.0,-9648308.0,-1.11,-1.11,8720225.0,8720225.0,0.6446697189580001,0.292989128474,-0.0668088957094,-0.0975751411328,-0.08961038965859999,-0.014432765580000001,-7193282.0,-10505869.0,-9648308.0,-0.0966078664934,-0.08961038965859999
2014-12-31,119071439.0,-0.0932692408005,76912881.0,42158558.0,7835000.0,38627801.0,38707642.0,3292919.0,79841.0,3181228.0,1219355.0,0.0,0.0,1961873.0,0.0,1961873.0,0.23,0.23,8622032.0,8640416.0,0.64483839667,0.354061043975,0.048502134924200004,0.0276549861802,0.0164764364694,0.05538723690069999,5775219.0,3292919.0,1961873.0,0.026716969465700003,0.0164764364694
2013-12-31,131319510.0,0.2596637491,86420982.0,44898528.0,2760000.0,36742869.0,36742869.0,1156367.0,0.0,1103125.0,2061013.0,0.0,0.0,-957888.0,0.0,-957888.0,-0.11,-0.11,8531073.0,8531073.0,0.480489031098,0.34190295105400004,0.0254432642948,0.00880575171199,-0.007294331207909999,-0.0146667010865,3341197.0,1156367.0,-957888.0,0.00840031309894,-0.007294331207909999
2012-12-31,104249654.0,-0.274911375271,62752763.0,41496891.0,2304000.0,38100773.0,38100773.0,3396118.0,0.0,3397680.0,1159566.0,0.0,0.0,2238114.0,0.0,2238114.0,0.26,0.26,8508497.0,8518613.0,0.790558979496,0.398053033346,0.0530421808402,0.0325767795834,0.0214687906782,-0.0230963644253,5529629.0,3396118.0,2238114.0,0.0325917628465,0.0214687906782
2011-12-31,143775051.0,0.197403889373,84879924.0,58895127.0,0.0,40108221.0,40108221.0,17514920.0,0.0,17619990.0,7822124.0,0.0,0.0,9797866.0,0.0,9797866.0,1.16,1.15,8448612.0,8495873.0,0.596149565795,0.409633845305,0.13643295455999999,0.121821692138,0.0681471919631,0.0786681828407,19615655.0,17514920.0,9797866.0,0.122552486523,0.0681471919631
2010-12-31,120072310.0,0.0936323558921,68871678.0,51200632.0,0.0,35586248.0,35586248.0,15614384.0,221611.0,15634537.0,5919104.0,0.0,0.0,9715433.0,0.0,9715433.0,1.16,1.15,8401891.0,8384242.0,0.59,0.4264,0.14800000000000002,0.1321,0.081,0.0663,17715029.0,15856148.0,9715433.0,0.1302,0.0809
2009-12-31,109792207.0,-0.1052,67943557.0,41848650.0,0.0,31434097.0,31630117.0,10218533.0,269151.0,10799340.0,4755695.0,0.0,0.0,6043645.0,0.0,6043645.0,0.72,0.72,8350371.0,8339566.0,0.54,0.3812,0.11599999999999999,0.1008,0.055,0.1321,12766812.0,11068491.0,6043645.0,0.0984,0.055
