,0,1,2,3,4,5,6,7,8,9,10,11,12,13,14,15,16,17,18,19,20,21,22,23,24,25,26,27,28,29,30
Date,Revenue,Revenue Growth,Cost of Revenue,Gross Profit,R&D Expenses,SG&A Expense,Operating Expenses,Operating Income,Interest Expense,Earnings before Tax,Income Tax Expense,Net Income - Non-Controlling int,Net Income - Discontinued ops,Net Income,Preferred Dividends,Net Income Com,EPS,EPS Diluted,Weighted Average Shs Out,Weighted Average Shs Out (Dil),Dividend per Share,Gross Margin,EBITDA Margin,EBIT Margin,Profit Margin,Free Cash Flow margin,EBITDA,EBIT,Consolidated Income,Earnings Before Tax Margin,Net Profit Margin
2019-03-31,2866518796.9925,0.021282332701,2331018796.9925,535500000.0,0.0,329962406.015,512112030.0752,23387969.9248,66219548.8722,-173694736.8421,8442857.1429,-144360.9023,16826315.7895,-182137593.985,0.0,-182137593.985,-1.2632,-1.2632,111574550.3759,111574550.3759,0.3083,0.1868,-0.0226,-0.0375,-0.0481,-0.013000000000000001,-86854135.3383,-107475187.9699,-182281954.8872,-0.0606,-0.0635
2018-03-31,2806783888.4586,-0.00340806727725,2310648334.6243,496135553.8342,0.0,324924864.4462,398746707.9783,97388845.8559,43355538.3424,410493415.9566,16011618.9001,7202168.8613,4604957.3974,394481797.0565,0.0,394481797.0565,2.6491,2.0294,113889649.8838,113889649.8838,0.3021,0.1768,0.1294,0.1617,0.1092,0.0158,469821068.9388,453848954.299,401683965.9179,0.1463,0.1405
2017-03-31,2816382308.8456,-0.10827524525900001,2294664917.5412,521717391.3043,0.0,295907796.1019,359353823.0885,162363568.2159,58528485.7571,367048725.6372,32407046.4768,18344077.961,0.0,334641679.1604,0.0,334641679.1604,2.2639,1.8141,110332667.1664,110332667.1664,0.2856,0.1852,0.1177,0.1511,0.0892,0.0378,442458770.6147,425577211.3943,352985757.1214,0.1303,0.1188
2016-03-31,3158353846.1538,0.0279400290875,2618132307.6923,540221538.4615,0.0,328983846.1538,401713076.9231,138508461.5385,55800000.0,49450769.2308,-244615.3846,13761538.4615,0.0,49695384.6154,0.0,49695384.6154,0.3385,0.3308,112737827.6923,112737827.6923,0.2931,0.171,0.0262,0.0333,0.0123,0.0439,108024615.3846,105250769.2308,63456923.0769,0.0157,0.0157
2015-03-31,3072507886.4353,-0.038595523472300004,2599267350.1577,473240536.2776,0.0,299262618.2965,389633280.7571,83607255.5205,58107255.5205,-375137223.9748,-22783123.0284,2429810.7256,-104631703.47,-352354100.9464,0.0,-352354100.9464,-2.4211,-2.4211,113368671.9243,113368671.9243,0.4054,0.154,-0.0804,-0.1032,-0.0907,0.0232,-314207413.2492,-317029968.4543,-349924290.2208,-0.1221,-0.1147
2014-03-31,3195853526.2206,0.0793726030697,2738773056.0579,457080470.1627,0.0,277217902.3508,367447558.7703,89632911.3924,62785714.2857,166452983.7251,43571428.5714,934900.5425,30402350.8137,122881555.1537,0.0,122881555.1537,0.8590000000000001,0.8499,128417124.77399999,128417124.77399999,0.7233,0.14300000000000002,0.066,0.0717,0.0344,0.0447,232991862.5678,229238698.0108,123816455.6962,0.0521,0.0385
2013-03-31,2960843657.8171,0.110827452686,2445500491.6421,515343166.175,0.0,351850540.8063,483173058.0138,32170108.1613,72763028.5152,606384464.1101,84941002.9499,5589970.5015,70097345.1327,521443461.1603,0.0,521443461.1603,3.7266,3.2153,137019592.9204,137019592.9204,1.2193,0.1741,0.2271,0.2294,0.1731,0.0182,683498525.0737,679147492.6254,515853490.6588,0.2048,0.1761
2012-03-31,2665439759.0361,-0.124514570585,2163776104.4177,501663654.6185,0.0,292640562.249,446275100.4016,55388554.2169,54668674.6988,-89352409.6386,37677710.8434,121485.9438,-1819277.1084,-127030120.4819,0.0,-127030120.4819,-0.9237,-0.9237,139908560.241,139908560.241,0.6235,0.1882,-0.011000000000000001,-0.013000000000000001,-0.0482,0.0263,-30112449.7992,-34683734.9398,-127151606.4257,-0.0335,-0.0477
2011-03-31,3044527835.0515,,2548072164.9485,496455670.1031,0.0,250522680.4124,421218556.701,75237113.4021,61735051.5464,544860824.7423,178803092.7835,2202061.8557,0.0,366057731.9588,0.0,366057731.9588,2.8557,2.4742,,,0.0,0.1631,0.2072,0.1992,0.1237,0.038,612470103.0928,606595876.2887,363855670.1031,0.179,0.1202
