,0,1,2,3,4,5,6,7,8,9,10,11,12,13,14,15,16,17,18,19,20,21,22,23,24,25,26,27,28,29,30
Date,Revenue,Revenue Growth,Cost of Revenue,Gross Profit,R&D Expenses,SG&A Expense,Operating Expenses,Operating Income,Interest Expense,Earnings before Tax,Income Tax Expense,Net Income - Non-Controlling int,Net Income - Discontinued ops,Net Income,Preferred Dividends,Net Income Com,EPS,EPS Diluted,Weighted Average Shs Out,Weighted Average Shs Out (Dil),Dividend per Share,Gross Margin,EBITDA Margin,EBIT Margin,Profit Margin,Free Cash Flow margin,EBITDA,EBIT,Consolidated Income,Earnings Before Tax Margin,Net Profit Margin
2019-09-27,12737868000.0,-0.14993867722999998,10260840000.0,2477028000.0,0.0,2072177000.0,2072177000.0,404851000.0,83847000.0,350959000.0,36954000.0,0.0,0.0,847979000.0,0.0,847979000.0,6.14,6.08,137907000.0,139206000.0,0.76430613623,0.19446174194899998,0.0450719068529,0.0317832623167,0.0665715016045,-0.0394424718485,574120000.0,404851000.0,847979000.0,0.0275524130098,0.0665715016045
2018-09-28,14984646000.0,0.495057662598,12156276000.0,2828370000.0,0.0,2180399000.0,2180399000.0,647971000.0,76760000.0,554705000.0,381563000.0,0.0,0.0,163431000.0,0.0,163431000.0,1.18,1.17,137536000.0,138712000.0,0.624091643117,0.18875120573399998,0.056495028311,0.0432423295152,0.0109065639589,0.025777585937,846558000.0,647971000.0,163431000.0,0.0370182251886,0.0109065639589
2017-09-29,10022788000.0,-0.08585876688920001,0.0,0.0,0.0,1379983000.0,1379983000.0,392269000.0,12035000.0,393217000.0,105842000.0,0.0,0.0,293727000.0,0.0,293727000.0,2.43,2.42,119370000.0,119370000.0,0.454335260116,0.0,0.0513611581927,0.0391377129797,0.029305917674799998,0.045578236315099996,514782000.0,392269000.0,293727000.0,0.0392322974406,0.029305917674799998
2016-09-30,10964157000.0,-0.0949806815315,0.0,0.0,0.0,1429233000.0,1429233000.0,338598000.0,15260000.0,286723000.0,72208000.0,0.0,0.0,210463000.0,0.0,210463000.0,1.75,1.73,120133000.0,121483000.0,0.0481960438909,0.0,0.042736436554100005,0.0308822648198,0.01919554782,0.055862479896999995,468569000.0,338598000.0,210463000.0,0.026150938918499997,0.01919554782
2015-10-02,12114832000.0,-0.045712313758699996,0.0,0.0,0.0,1522811000.0,1522811000.0,445527000.0,19503000.0,430137000.0,101255000.0,0.0,0.0,302971000.0,0.0,302971000.0,2.42,2.4,125007000.0,126110000.0,0.0573309015938,0.0,0.049098410939600004,0.0367753345651,0.025008270853400003,0.0399982434754,594819000.0,445527000.0,302971000.0,0.035504990907,0.025008270853400003
2014-09-26,12695157000.0,0.07418794257349999,0.0,0.0,0.0,1545716000.0,1545716000.0,528068000.0,11437000.0,542166000.0,190054000.0,0.0,0.0,328108000.0,0.0,328108000.0,2.51,2.48,130483000.0,132371000.0,0.045939065203099996,0.0,0.0530501513294,0.041596019647499996,0.025845131336300002,0.0568497104841,673480000.0,528068000.0,328108000.0,0.042706521865,0.025845131336300002
2013-09-27,11818376000.0,0.0848739528197,0.0,0.0,0.0,1173340000.0,1173340000.0,668979000.0,12906000.0,661548000.0,221366000.0,0.0,0.0,423093000.0,0.0,423093000.0,3.27,3.23,129288000.0,130945000.0,0.0608957959449,0.0,0.0649711093978,0.056604985321199994,0.0357995887083,0.0379507302865,767853000.0,668979000.0,423093000.0,0.0559762187292,0.0357995887083
2012-09-28,10893778000.0,0.04932870106369999,0.0,0.0,0.0,1130916000.0,1130916000.0,596073000.0,11686000.0,593336000.0,202382000.0,0.0,0.0,378954000.0,0.0,378954000.0,2.97,2.94,127644000.0,128692000.0,0.04177415845580001,0.0,0.06397202146030001,0.0547168301025,0.03478627891990001,0.0275207554257,696897000.0,596073000.0,378954000.0,0.054465585768300004,0.03478627891990001
2011-09-30,10381664000.0,0.047011870384599995,0.0,0.0,0.0,1040575000.0,1040575000.0,518918000.0,8799000.0,516661000.0,181440000.0,0.0,0.0,331029000.0,0.0,331029000.0,2.63,2.6,125686000.0,127235000.0,0.0,0.0,0.0591704759468,0.049984087329400004,0.0318859288838,0.022779585238,614288000.0,518918000.0,331029000.0,0.049766684801199994,0.0318859288838
2010-10-01,9915517000.0,-0.13532816923399998,0.0,0.0,0.0,932522000.0,932522000.0,400083000.0,9874000.0,391934000.0,145647000.0,0.0,0.0,245974000.0,0.0,245974000.0,1.98,1.96,124134000.0,125790000.0,0.0,0.0,0.0492740822289,0.0403491819942,0.024806976781900004,0.0149155107091,488578000.0,400083000.0,245974000.0,0.0395273388165,0.024806976781900004
2009-10-02,11467376000.0,0.0191,9906493000.0,1560883000.0,0.0,940310000.0,940310000.0,620573000.0,2916000.0,624773000.0,224919000.0,-641000.0,0.0,399854000.0,0.0,399854000.0,3.26,3.21,123912253.0,123912253.0,0.0,0.1361,0.062,0.0547,0.035,0.0417,714031000.0,627689000.0,399213000.0,0.0545,0.0349
