,0,1,2,3,4,5,6,7,8,9,10,11,12,13,14,15,16,17,18,19,20,21,22,23,24,25,26,27,28,29,30
Date,Revenue,Revenue Growth,Cost of Revenue,Gross Profit,R&D Expenses,SG&A Expense,Operating Expenses,Operating Income,Interest Expense,Earnings before Tax,Income Tax Expense,Net Income - Non-Controlling int,Net Income - Discontinued ops,Net Income,Preferred Dividends,Net Income Com,EPS,EPS Diluted,Weighted Average Shs Out,Weighted Average Shs Out (Dil),Dividend per Share,Gross Margin,EBITDA Margin,EBIT Margin,Profit Margin,Free Cash Flow margin,EBITDA,EBIT,Consolidated Income,Earnings Before Tax Margin,Net Profit Margin
2018-12-31,804121852.3878,-0.21088048328499998,0.0,804121852.3878,0.0,420185817.6556,484560636.7583,319561215.6295,0.0,345037192.4747,58234876.9899,-958176.5557,0.0,286802315.4848,2492764.11,284309551.3748,153.0145,136.1187,193856000.0,235416497.8292,0.0,1.0,0.0625,0.4291,0.0512,0.4135,347752532.5615,345037192.4747,285844138.9291,0.4291,0.3567
2017-12-31,1019011487.3035,2.13052817476,0.0,1019011487.3035,0.0,803987152.3579,879871372.4305,139140114.873,0.0,143611850.0605,53269649.3349,19052146.312,0.0,90342200.7255,22870163.2406,67472037.4849,48.7545,44.2609,127000000.0,188049727.9323,0.0,1.0,0.0216,0.1409,0.01,0.4181,145408706.1669,143611850.0605,109394347.0375,0.1409,0.0887
2016-12-31,325507847.3722,,0.0,325507847.3722,0.0,244212814.9748,268406335.4932,57101511.87899999,0.0,61507559.3952,39039884.8092,804607.6314,0.0,22467674.586,0.0,22467674.586,16.5385,15.3621,127000000.0,178404319.6544,0.0,1.0,0.0278,0.18899999999999997,0.0099,0.1742,62855579.5536,61507559.3952,23272282.2174,0.18899999999999997,0.069
