,0,1,2,3,4,5,6,7,8,9,10,11,12,13,14
Date,Depreciation & Amortization,Stock-based compensation,Operating Cash Flow,Capital Expenditure,Acquisitions and disposals,Investment purchases and sales,Investing Cash flow,Issuance (repayment) of debt,Issuance (buybacks) of shares,Dividend payments,Financing Cash Flow,Effect of forex changes on cash,Net cash flow / Change in cash,Free Cash Flow,Net Cash/Marketcap
2019-06-30,160633000.0,12589000.0,431128000.0,53618000.0,-19981000.0,-54864000.0,-190635000.0,-35000000.0,-45824000.0,-118745000.0,-178305000.0,0.0,62188000.0,377510000.0,0.0
2018-06-30,151986000.0,11758000.0,412142000.0,40135000.0,-137562000.0,-53986000.0,-291826000.0,-175000000.0,-41463000.0,-105021000.0,-203641000.0,0.0,-83325000.0,372007000.0,0.0
2017-06-30,139786000.0,11129000.0,357322000.0,41947000.0,-0.0,-130140000.0,-141586000.0,-30200000.0,-123895000.0,-91707000.0,-171281000.0,0.0,44455000.0,315375000.0,0.0
2016-06-30,129648000.0,10720000.0,365116000.0,56325000.0,-8275000.0,-175662000.0,-135963000.0,-152500000.0,-169951000.0,-84118000.0,-307156000.0,0.0,-78003000.0,308791000.0,0.0
2015-06-30,118996000.0,10112000.0,373790000.0,54409000.0,-0.0,-122691000.0,-136984000.0,-50783000.0,-117810000.0,-76410000.0,-158870000.0,0.0,77936000.0,319381000.0,0.0
2014-06-30,107771000.0,10091000.0,341659000.0,33185000.0,-27894000.0,-175699000.0,-131780000.0,-47158000.0,-171415000.0,-71251000.0,-267407000.0,0.0,-57528000.0,308474000.0,0.0
2013-06-30,100341000.0,8615000.0,309174000.0,46442000.0,-0.0,-58126000.0,-97244000.0,-145180000.0,-54426000.0,-48202000.0,-241338000.0,0.0,-29408000.0,262732000.0,0.0
2012-06-30,94619000.0,6950000.0,264550000.0,42161000.0,-0.0,-36371000.0,-76262000.0,-35280000.0,-31049000.0,-38128000.0,-94100000.0,0.0,94188000.0,222389000.0,0.0
2011-06-30,90514000.0,4723000.0,240132000.0,32085000.0,-0.0,0.0,-59038000.0,-399000.0,0.0,-34391000.0,-243487000.0,0.0,-62393000.0,208047000.0,0.0
2010-06-30,71508000.0,3251000.0,218698000.0,-80095000.0,-426653000.0,1000.0,-505715000.0,303160000.0,33157000.0,-30461000.0,294284000.0,0.0,7267000.0,138603000.0,-0.1238
2009-06-30,64147000.0,2272000.0,206588000.0,-56246000.0,-3027000.0,4000.0,-59227000.0,-13489000.0,-53796000.0,-26903000.0,-94675000.0,0.0,52686000.0,150342000.0,0.0321
