,0,1,2,3,4,5,6,7,8,9,10,11,12,13,14,15,16,17,18,19,20,21,22,23,24,25,26,27,28,29,30
Date,Revenue,Revenue Growth,Cost of Revenue,Gross Profit,R&D Expenses,SG&A Expense,Operating Expenses,Operating Income,Interest Expense,Earnings before Tax,Income Tax Expense,Net Income - Non-Controlling int,Net Income - Discontinued ops,Net Income,Preferred Dividends,Net Income Com,EPS,EPS Diluted,Weighted Average Shs Out,Weighted Average Shs Out (Dil),Dividend per Share,Gross Margin,EBITDA Margin,EBIT Margin,Profit Margin,Free Cash Flow margin,EBITDA,EBIT,Consolidated Income,Earnings Before Tax Margin,Net Profit Margin
2018-12-31,150079310.3448,0.329448993122,97527586.2069,52551724.1379,25783908.046,163737931.0345,247649425.2874,-195097701.1494,1550574.7126,-194464367.8161,1019540.2299,786206.8966,0.0,-195483908.04599997,0.0,-195483908.04599997,-2.62,-2.62,175510611.4943,175510611.4943,0.0,0.3502,-1.4586,-1.2854,-1.4977,-1.0914,-190424137.931,-192913793.1034,-195840229.8851,-1.2957,-1.3025
2017-12-31,112888355.3421,,79021608.6435,33866746.6987,24713085.2341,152432172.8691,219541416.5666,-185674669.8679,1821128.4514,-180219687.8752,13752701.0804,7791116.4466,0.0,-193972388.9556,0.0,-193972388.9556,-2.41,-2.41,183306400.9604,183306400.9604,0.0,0.3,-1.8764,-1.5803,-2.0624,-1.2666,-176433373.3493,-178398559.4238,-198509003.6014,-1.5964,-1.7183
