,0,1,2,3,4,5,6,7,8,9,10,11,12,13,14
Date,Depreciation & Amortization,Stock-based compensation,Operating Cash Flow,Capital Expenditure,Acquisitions and disposals,Investment purchases and sales,Investing Cash flow,Issuance (repayment) of debt,Issuance (buybacks) of shares,Dividend payments,Financing Cash Flow,Effect of forex changes on cash,Net cash flow / Change in cash,Free Cash Flow,Net Cash/Marketcap
2019-12-31,1659000.0,1994000.0,-18891000.0,1388000.0,-0.0,-21219000.0,-60448000.0,-0.0,-8615000.0,-3526000.0,-2552000.0,0.0,-81891000.0,-20279000.0,0.0
2018-12-31,1482000.0,1549000.0,22647000.0,1153000.0,-0.0,-5171000.0,-335049000.0,-9980000.0,-3250000.0,-7874000.0,307889000.0,0.0,-4513000.0,21494000.0,0.0
2017-12-31,5883000.0,2955000.0,487000.0,341000.0,-0.0,-8446000.0,48165000.0,-0.0,-2084000.0,-7770000.0,-48550000.0,0.0,102000.0,146000.0,0.0
2016-12-31,1487000.0,5761000.0,8878000.0,494000.0,-0.0,-13865000.0,145160000.0,-0.0,-6310000.0,-8362000.0,-137097000.0,0.0,16941000.0,8384000.0,0.0
2015-12-31,1839000.0,8345000.0,-3810000.0,2873000.0,-0.0,-27159000.0,62587000.0,-0.0,-4432000.0,-10182000.0,-91588000.0,0.0,-32811000.0,-6683000.0,0.0
2014-12-31,1377000.0,9431000.0,6444000.0,1072000.0,-0.0,-61480000.0,-303606000.0,-0.0,-11702000.0,-5153000.0,332618000.0,0.0,35456000.0,5372000.0,0.0
2013-12-31,921000.0,5371000.0,32039000.0,-350000.0,-13344000.0,-379306000.0,-393000000.0,-3085000.0,-6211000.0,-3329000.0,359792000.0,0.0,-1169000.0,31689000.0,-1.7675
2012-12-31,884000.0,2492000.0,7243000.0,-1262000.0,0.0,-48393000.0,-49655000.0,19491000.0,-5649000.0,-3072000.0,39124000.0,0.0,-3288000.0,5981000.0,-1.7675
2011-12-31,721000.0,10303000.0,16150000.0,-1525000.0,0.0,-14948000.0,-16473000.0,-6987000.0,-6353000.0,-2333000.0,-428000.0,0.0,-751000.0,14625000.0,-1.7675
2010-12-31,635000.0,7576000.0,-33160000.0,-771000.0,0.0,22143000.0,17622000.0,13689000.0,-9145000.0,-1199000.0,10972000.0,0.0,-4566000.0,-33931000.0,-1.7675
2009-12-31,746000.0,9759000.0,39893000.0,-724000.0,902000.0,5766000.0,3855000.0,-6953000.0,-5321000.0,-835000.0,-14330000.0,0.0,29418000.0,39169000.0,-1.7675
