,0,1,2,3,4,5,6,7,8,9,10,11,12,13,14
Date,Depreciation & Amortization,Stock-based compensation,Operating Cash Flow,Capital Expenditure,Acquisitions and disposals,Investment purchases and sales,Investing Cash flow,Issuance (repayment) of debt,Issuance (buybacks) of shares,Dividend payments,Financing Cash Flow,Effect of forex changes on cash,Net cash flow / Change in cash,Free Cash Flow,Net Cash/Marketcap
2018-12-31,184553000.0,1381000.0,64108000.0,0.0,-0.0,0.0,-240893000.0,-0.0,-58464000.0,-0.0,215777000.0,0.0,38992000.0,64108000.0,0.0
2018-12,174000000.0,1000000.0,64000000.0,-199000000.0,,0.0,-241000000.0,-231000000.0,,,216000000.0,,39000000.0,-135000000.0,
2017-12-31,171179000.0,6260000.0,59008000.0,0.0,-0.0,0.0,-110004000.0,-0.0,-11139000.0,-3368000.0,35826000.0,0.0,-15170000.0,59008000.0,0.0
2017-12,167000000.0,6000000.0,59000000.0,-246000000.0,,0.0,-110000000.0,-129000000.0,,,36000000.0,,-15000000.0,-187000000.0,
2016-12-31,160374000.0,7425000.0,25700000.0,0.0,-0.0,0.0,-130862000.0,-0.0,30804000.0,-1615000.0,117911000.0,0.0,12749000.0,25700000.0,0.0
2016-12,154000000.0,7000000.0,26000000.0,-265000000.0,,0.0,-131000000.0,-147000000.0,,,118000000.0,,13000000.0,-239000000.0,
2015-12-31,213501000.0,7562000.0,69030000.0,0.0,-0.0,0.0,-168401000.0,-0.0,100886000.0,-0.0,107698000.0,0.0,8327000.0,69030000.0,0.0
2015-12,205000000.0,8000000.0,69000000.0,-312000000.0,,0.0,-168000000.0,-335000000.0,,,108000000.0,,8000000.0,-243000000.0,
2014-12-31,187393000.0,4040000.0,265423000.0,-15709000.0,-0.0,-358000.0,-463903000.0,-468000000.0,-358000.0,-0.0,188226000.0,0.0,-10254000.0,281132000.0,0.0
2014-12,182000000.0,5000000.0,265000000.0,-476000000.0,,0.0,-464000000.0,-468000000.0,,,188000000.0,,-10000000.0,-211000000.0,
2013-12-31,116344000.0,10838000.0,163896000.0,193496000.0,-0.0,0.0,-383600000.0,-172000000.0,148661000.0,-0.0,219798000.0,0.0,94000.0,-29600000.0,0.0
