,0,1,2,3,4,5,6,7,8,9,10,11,12,13,14
Date,Depreciation & Amortization,Stock-based compensation,Operating Cash Flow,Capital Expenditure,Acquisitions and disposals,Investment purchases and sales,Investing Cash flow,Issuance (repayment) of debt,Issuance (buybacks) of shares,Dividend payments,Financing Cash Flow,Effect of forex changes on cash,Net cash flow / Change in cash,Free Cash Flow,Net Cash/Marketcap
1999-12,2000000.0,,22000000.0,-9000000.0,,-3000000.0,-12000000.0,,,,-14000000.0,,-4000000.0,14000000.0,
1998-12,2000000.0,,6000000.0,-11000000.0,,10000000.0,-1000000.0,,,,-9000000.0,,-4000000.0,-4000000.0,
1997-12,1000000.0,,0.0,-8000000.0,,-15000000.0,-24000000.0,,,,34000000.0,,10000000.0,-8000000.0,
1996-12,1000000.0,,9000000.0,-3000000.0,,0.0,-4000000.0,,,,-2000000.0,,3000000.0,6000000.0,
1995-12,0.0,,0.0,0.0,,0.0,0.0,,,,0.0,,0.0,0.0,
