,0,1,2,3,4,5,6,7,8,9,10,11,12,13,14,15,16,17,18,19,20,21,22,23,24,25,26,27,28
Date,Cash and cash equivalents,Short-term investments,Cash and short-term investments,Receivables,Inventories,Total current assets,Property Plant & Equipment Net,Goodwill and Intangible Assets,Long-term investments,Tax assets,Total non-current assets,Total assets,Payables,Short-term debt,Total current liabilities,Long-term debt,Total debt,Deferred revenue,Tax Liabilities,Deposit Liabilities,Total non-current liabilities,Total liabilities,Other comprehensive income,Retained earnings (deficit),Total shareholders equity,Investments,Net Debt,Other Assets,Other Liabilities
2018-12-31,183791751.0854,11354848.0463,195146599.1317,64283502.1708,0.0,303213314.0376,7571924.7467,37964254.7033,0.0,0.0,50641244.5731,353854558.6107,39695079.5948,18813314.0376,101854413.8929,0.0,18813314.0376,16728943.5601,8149204.0521,0.0,5412879.8842,107267293.7771,5463096.9609,-49106367.5832,229848191.0275,11354848.0463,-180760373.132,45149898.6975,43346020.2605
2017-12-31,233345072.5514,0.0,233345072.5514,27522672.3096,0.0,285206771.4631,2866686.8198,0.0,0.0,0.0,4018591.2938,289225362.757,32164449.8186,0.0,56688784.7642,0.0,0.0,10812877.8718,2701934.7037,0.0,0.0,56688784.7642,-3199818.6215,-26407194.6796,232536577.9927,0.0,,,24524334.9456
2016-12-31,0.0,0.0,0.0,11326709.8632,0.0,18585889.1289,661051.1159,0.0,0.0,0.0,778113.7509,19364002.8798,4669978.4017,0.0,11789200.8639,0.0,0.0,2613246.9402,266234.7012,0.0,0.0,11789200.8639,0.0,0.0,7574802.0158,0.0,,,7119222.4622
2015-12-31,0.0,0.0,0.0,6423971.6531,0.0,9574179.6333,919272.8393,0.0,0.0,0.0,1227083.6543,10801263.2876,7323062.7022,0.0,12891234.0163,0.0,0.0,2073024.1873,109536.281,0.0,0.0,12891234.0163,0.0,-2089000.0,-2089970.7287,0.0,,,5568171.3141
