,0,1,2,3,4,5,6,7,8,9,10,11,12,13,14,15,16,17,18,19,20,21,22,23,24,25,26,27,28
Date,Cash and cash equivalents,Short-term investments,Cash and short-term investments,Receivables,Inventories,Total current assets,Property Plant & Equipment Net,Goodwill and Intangible Assets,Long-term investments,Tax assets,Total non-current assets,Total assets,Payables,Short-term debt,Total current liabilities,Long-term debt,Total debt,Deferred revenue,Tax Liabilities,Deposit Liabilities,Total non-current liabilities,Total liabilities,Other comprehensive income,Retained earnings (deficit),Total shareholders equity,Investments,Net Debt,Other Assets,Other Liabilities
2019-10-31,2400000.0,100000.0,2500000.0,9421427.0,18841225.0,31739799.0,2413533.0,3022158.0,0.0,480473.0,7946925.0,39686724.0,4344015.0,7167740.0,11511855.0,193461.0,7361201.0,0.0,100.0,0.0,1259154.0,14422647.0,11947414.0,13310169.0,25264077.0,100000.0,4961201.0,0.0,1651638.0
2018-10-31,4611384.0,100000.0,4711384.0,9914297.0,15271106.0,30758854.0,2350208.0,2733786.0,0.0,440325.0,8075223.0,38834077.0,4833548.0,70255.0,11187368.0,242143.0,312398.0,0.0,1505.0,0.0,1366308.0,13952301.0,11470515.0,13404767.0,24881776.0,100000.0,-4298986.0,0.0,1398625.0
2017-10-31,2325650.0,100000.0,2425650.0,13441802.0,16310572.0,33655761.0,2439338.0,2125389.0,0.0,339748.0,6344649.0,40000410.0,4430626.0,8407527.0,13050361.0,240379.0,8647906.0,0.0,1346.0,0.0,1110438.0,15048861.0,12599565.0,12345490.0,24951549.0,100000.0,6322256.0,0.0,888062.0
2016-10-31,3227981.0,1233700.0,3227981.0,13517892.0,14276290.0,32691440.0,2269863.0,0.0,0.0,481977.0,4332453.0,37023893.0,4062573.0,6958375.0,11021998.0,231216.0,7189591.0,0.0,1050.0,0.0,1015357.0,12484690.0,12654519.0,11878228.0,24539203.0,1233700.0,3961610.0,0.0,447335.0
2015-10-31,3853816.0,2688499.0,3853816.0,10968237.0,13862818.0,31993822.0,1845000.0,0.0,0.0,1434577.0,3280820.0,35274642.0,4021389.0,5554121.0,10059345.0,222055.0,5776176.0,0.0,0.0,0.0,798760.0,11192849.0,14409397.0,9665940.0,24081793.0,2688499.0,1922360.0,0.0,334744.0
2014-10-31,3782639.0,604528.0,3782639.0,15419860.0,15210153.0,35484335.0,1991094.0,0.0,0.0,759.0,3468297.0,38952632.0,8693100.0,2498458.0,12007533.0,209640.0,2708098.0,0.0,331051.0,0.0,858780.0,13230761.0,14636247.0,11079168.0,25721871.0,604528.0,-1074541.0,0.0,364448.0
2013-10-31,4035669.0,2667477.0,4035669.0,12362792.0,9373018.0,28878246.0,2060350.0,0.0,0.0,1000317.0,3520776.0,32399022.0,7244822.0,1229182.0,9458044.0,195452.0,1424634.0,0.0,0.0,0.0,805904.0,10648957.0,15631976.0,6111633.0,21750065.0,2667477.0,-2611035.0,0.0,385009.0
2012-10-31,0.0,0.0,0.0,0.0,0.0,0.0,0.0,0.0,0.0,0.0,0.0,0.0,0.0,0.0,0.0,0.0,0.0,0.0,0.0,0.0,0.0,0.0,0.0,0.0,0.0,0.0,0.0,0.0,0.0
2011-10-31,0.0,0.0,0.0,0.0,0.0,0.0,0.0,0.0,0.0,0.0,0.0,0.0,0.0,0.0,0.0,0.0,0.0,0.0,0.0,0.0,0.0,0.0,0.0,0.0,0.0,0.0,0.0,0.0,0.0
2010-10-31,1672921.0,0.0,1672921.0,8852372.0,8190420.0,20894920.0,1560940.0,766250.0,0.0,65180.0,3026219.0,23921139.0,7248828.0,2306749.0,9706565.0,0.0,2306749.0,0.0,252403.0,0.0,683057.0,10389622.0,0.0,6151054.0,13482346.0,0.0,633828.0,2179207.0,150988.0
2009-10-31,1773373.0,0.0,1773373.0,10174221.0,4800143.0,2236787.0,1648214.0,0.0,0.0,322068.0,603349.0,19803638.0,6754983.0,791628.0,8022056.0,0.0,791628.0,0.0,589012.0,0.0,603349.0,8625405.0,0.0,4095671.0,11132963.0,0.0,-981745.0,819114.0,475445.0
