,0,1,2,3,4,5,6,7,8,9,10,11,12,13,14
Date,Depreciation & Amortization,Stock-based compensation,Operating Cash Flow,Capital Expenditure,Acquisitions and disposals,Investment purchases and sales,Investing Cash flow,Issuance (repayment) of debt,Issuance (buybacks) of shares,Dividend payments,Financing Cash Flow,Effect of forex changes on cash,Net cash flow / Change in cash,Free Cash Flow,Net Cash/Marketcap
2018-12,20000000.0,,1000000.0,-84000000.0,,0.0,-175000000.0,0.0,,,624000000.0,,450000000.0,-83000000.0,
2017-12,0.0,,-1000000.0,0.0,,0.0,-377000000.0,-0.0,,,379000000.0,,0.0,-1000000.0,
2016-12,0.0,,0.0,0.0,,0.0,0.0,0.0,,,0.0,,0.0,0.0,
2015-12,0.0,,0.0,0.0,,0.0,0.0,0.0,,,0.0,,0.0,0.0,
2014-12,0.0,,0.0,0.0,,0.0,0.0,0.0,,,0.0,,0.0,0.0,
