,0,1,2,3,4,5,6,7,8,9,10,11,12,13,14,15,16,17,18,19,20,21,22,23,24,25,26,27,28
Date,Cash and cash equivalents,Short-term investments,Cash and short-term investments,Receivables,Inventories,Total current assets,Property Plant & Equipment Net,Goodwill and Intangible Assets,Long-term investments,Tax assets,Total non-current assets,Total assets,Payables,Short-term debt,Total current liabilities,Long-term debt,Total debt,Deferred revenue,Tax Liabilities,Deposit Liabilities,Total non-current liabilities,Total liabilities,Other comprehensive income,Retained earnings (deficit),Total shareholders equity,Investments,Net Debt,Other Assets,Other Liabilities
2019-04-30,32006000.0,68805000.0,100811000.0,0.0,0.0,115546000.0,2413000.0,0.0,0.0,0.0,2586000.0,118132000.0,2860000.0,54000.0,18052000.0,0.0,54000.0,9545000.0,0.0,0.0,3342000.0,21394000.0,191123000.0,-92476000.0,96738000.0,68805000.0,-31952000.0,0.0,0.0
2018-04-30,51055000.0,0.0,51055000.0,0.0,0.0,59380000.0,1836000.0,0.0,0.0,6834000.0,2009000.0,61389000.0,1433000.0,221000.0,23216000.0,58000.0,279000.0,18475000.0,0.0,0.0,10920000.0,34136000.0,100011000.0,-71660000.0,27253000.0,0.0,-50776000.0,0.0,0.0
2017-04-30,30950000.0,0.0,30950000.0,297000.0,0.0,34248000.0,97000.0,0.0,0.0,2250000.0,97000.0,34345000.0,1153000.0,0.0,3018000.0,0.0,0.0,0.0,0.0,0.0,0.0,3018000.0,89815000.0,-55855000.0,31327000.0,0.0,-30950000.0,0.0,0.0
2016-04-30,21764000.0,0.0,21764000.0,356000.0,0.0,24671000.0,74000.0,0.0,0.0,1883000.0,74000.0,24745000.0,1135000.0,0.0,3249000.0,0.0,0.0,0.0,0.0,0.0,58608000.0,61857000.0,-75000.0,-37252000.0,-37112000.0,0.0,-21764000.0,2551000.0,2114000.0
2015-12-31,53723000.0,0.0,53723000.0,0.0,0.0,54945000.0,805000.0,0.0,0.0,63000.0,1846000.0,56791000.0,1460000.0,1455000.0,4271000.0,3154000.0,4609000.0,29000.0,720000.0,0.0,3210000.0,7481000.0,121904000.0,-72621000.0,49310000.0,0.0,-49114000.0,0.0,0.0
2015-04-30,2526050.0,0.0,2526050.0,1046541.0,0.0,3790396.0,100347.0,0.0,0.0,0.0,195000.0,3890743.0,685902.0,4435000.0,1839944.0,0.0,3063000.0,143000.0,0.0,0.0,307000.0,1839944.0,0.0,-25816224.0,-23554960.0,0.0,-6768000.0,79000.0,1634000.0
2014-12-31,3947000.0,0.0,3947000.0,0.0,0.0,4587000.0,180000.0,0.0,0.0,,,6644000.0,1024000.0,3063000.0,7093000.0,2131000.0,,,,,,11269000.0,,-47775000.0,-44181000.0,0.0,,,425000.0
2013-12-31,9831000.0,,9831000.0,0.0,0.0,9910000.0,75000.0,,0.0,,,10105000.0,462000.0,,3950000.0,0.0,,,,,,4257000.0,,-34416000.0,-33708000.0,,,,
