,0,1,2,3,4,5,6,7,8,9,10,11,12,13,14
Date,Depreciation & Amortization,Stock-based compensation,Operating Cash Flow,Capital Expenditure,Acquisitions and disposals,Investment purchases and sales,Investing Cash flow,Issuance (repayment) of debt,Issuance (buybacks) of shares,Dividend payments,Financing Cash Flow,Effect of forex changes on cash,Net cash flow / Change in cash,Free Cash Flow,Net Cash/Marketcap
2018-12-31,1521725.0,1314420.0,-3703353.0,-18761.0,0.0,0.0,52932.0,-160426.0,0.0,0.0,-256870.0,-1117062.0,-3907291.0,-3722114.0,2.8041
2017-12-31,1510213.0,629950.0,1924635.0,-946882.0,0.0,0.0,-865365.0,-999525.0,0.0,0.0,-1095910.0,1513140.0,-39025.0,977753.0,0.0
2016-12-31,1942735.0,429000.0,4258640.0,-40037.0,0.0,0.0,45445.0,1751292.0,0.0,0.0,1679509.0,-1556982.0,4919243.0,4218603.0,0.0
2015-12-31,2015437.0,0.0,4246671.0,-1020623.0,0.0,0.0,-927876.0,330099.0,0.0,0.0,330099.0,-1027358.0,1636856.0,3226048.0,0.0
2014-12-31,2340082.0,0.0,172760.0,-17674924.0,0.0,0.0,-17538013.0,-1746366.0,0.0,0.0,-1769996.0,-229122.0,-22866383.0,-17502164.0,0.0
2013-12-31,1875812.0,0.0,15937350.0,-11288129.0,0.0,0.0,-11145890.0,1175404.0,0.0,0.0,986878.0,1591835.0,5778338.0,4649221.0,0.0
2012-12-31,0.0,0.0,-26666.0,0.0,0.0,-57165000.0,-57165000.0,131584.0,57464897.0,0.0,57519901.0,0.0,328235.0,-26666.0,0.0
