,0,1,2,3,4,5,6,7,8,9,10,11,12,13,14,15,16,17,18,19,20,21,22,23,24,25,26,27,28
Date,Cash and cash equivalents,Short-term investments,Cash and short-term investments,Receivables,Inventories,Total current assets,Property Plant & Equipment Net,Goodwill and Intangible Assets,Long-term investments,Tax assets,Total non-current assets,Total assets,Payables,Short-term debt,Total current liabilities,Long-term debt,Total debt,Deferred revenue,Tax Liabilities,Deposit Liabilities,Total non-current liabilities,Total liabilities,Other comprehensive income,Retained earnings (deficit),Total shareholders equity,Investments,Net Debt,Other Assets,Other Liabilities
2019-12-31,139597000.0,41997000.0,181594000.0,954000.0,640000.0,184604000.0,2444000.0,0.0,2300000.0,0.0,30194000.0,214798000.0,9043000.0,3966000.0,28742000.0,19759000.0,23725000.0,6000000.0,0.0,0.0,20321000.0,49063000.0,498644000.0,-333069000.0,165735000.0,44297000.0,-115872000.0,0.0,0.0
2018-12-31,94740000.0,34075000.0,128815000.0,1690000.0,925000.0,98936000.0,3654000.0,0.0,2300000.0,0.0,45725000.0,144661000.0,9986000.0,15217000.0,24018000.0,27480000.0,42697000.0,4400000.0,0.0,0.0,32232000.0,56250000.0,357941000.0,-269643000.0,88411000.0,36375000.0,-52043000.0,0.0,0.0
2017-12-31,67517000.0,0.0,67517000.0,325000.0,201000.0,70013000.0,4292000.0,0.0,3542000.0,0.0,13539000.0,83552000.0,8008000.0,33707000.0,56644000.0,4347000.0,38054000.0,4400000.0,0.0,0.0,25150000.0,81794000.0,239076000.0,-237397000.0,1758000.0,3542000.0,-29463000.0,0.0,0.0
2016-12-31,36093000.0,0.0,36093000.0,655000.0,1950000.0,40287000.0,5427000.0,0.0,3542000.0,0.0,22269000.0,62556000.0,6296000.0,1900000.0,24746000.0,28677000.0,30577000.0,4400000.0,0.0,0.0,55320000.0,87748000.0,130468000.0,-155705000.0,-25192000.0,3542000.0,-5516000.0,0.0,7682000.0
2015-12-31,23614000.0,0.0,23614000.0,3395000.0,3468000.0,32741000.0,6938000.0,18803000.0,23524000.0,0.0,51396000.0,84137000.0,5902000.0,4900000.0,49686000.0,209721000.0,214621000.0,32917000.0,0.0,0.0,246504000.0,296190000.0,0.0,-643845000.0,-270909000.0,23524000.0,191007000.0,2264000.0,38884000.0
2014-12-31,23016000.0,0.0,23016000.0,2086000.0,7672000.0,31998000.0,9121000.0,77514000.0,2300000.0,0.0,90970000.0,122968000.0,9729000.0,15500000.0,51571000.0,149406000.0,164906000.0,43217000.0,0.0,0.0,189765000.0,241336000.0,0.0,-496763000.0,-155420000.0,2300000.0,141890000.0,-776000.0,26342000.0
