,0,1,2,3,4,5,6,7,8,9,10,11,12,13,14,15,16,17,18,19,20,21,22,23,24,25,26,27,28,29,30
Date,Revenue,Revenue Growth,Cost of Revenue,Gross Profit,R&D Expenses,SG&A Expense,Operating Expenses,Operating Income,Interest Expense,Earnings before Tax,Income Tax Expense,Net Income - Non-Controlling int,Net Income - Discontinued ops,Net Income,Preferred Dividends,Net Income Com,EPS,EPS Diluted,Weighted Average Shs Out,Weighted Average Shs Out (Dil),Dividend per Share,Gross Margin,EBITDA Margin,EBIT Margin,Profit Margin,Free Cash Flow margin,EBITDA,EBIT,Consolidated Income,Earnings Before Tax Margin,Net Profit Margin
2019-06-30,10919785.0,1.0,4633844.0,6285941.0,5565097.0,13136522.0,18701619.0,-12415678.0,-91239.0,0.0,0.0,0.0,0.0,-12306547.0,0.0,-12306547.0,-2.04,-2.04,6045382.0,6045382.0,0.0,0.575646956419,-1.13698923559,-1.13698923559,-1.12699535751,-0.828642230593,-12415678.0,-12415678.0,-12306547.0,0.0,-1.12699535751
2018-12-31,0.0,-1.0,0.0,0.0,0.0,0.0,906166.0,-906166.0,0.0,45776.0,75733.0,0.0,0.0,-29957.0,0.0,-29957.0,-0.37,-0.37,9292079.0,2057246.0,0.0,0.0,,0.0,,0.0,45776.0,45776.0,-29957.0,0.0,0.0
2018-06-30,10477000.0,0.872230164403,4042000.0,6435000.0,2645000.0,8898000.0,,-2463000.0,,-2488000.0,,,,,,-2488000.0,-0.33,-0.33,7431000.0,,,0.6142,,,,,,,,-0.2375,
2017-06-30,5596000.0,,1250000.0,4346000.0,1898000.0,11338000.0,,-6992000.0,,-7019000.0,,,,,,-7019000.0,-0.94,-0.94,7431000.0,,,0.7766,,,,,,,,-1.2543,
