,0,1,2,3,4,5,6,7,8,9,10,11,12,13,14
Date,Depreciation & Amortization,Stock-based compensation,Operating Cash Flow,Capital Expenditure,Acquisitions and disposals,Investment purchases and sales,Investing Cash flow,Issuance (repayment) of debt,Issuance (buybacks) of shares,Dividend payments,Financing Cash Flow,Effect of forex changes on cash,Net cash flow / Change in cash,Free Cash Flow,Net Cash/Marketcap
2017-12-31,64146000.0,18272000.0,-93489000.0,1257000.0,-0.0,0.0,-1257000.0,-0.0,-17806000.0,-0.0,76462000.0,0.0,-18284000.0,-94746000.0,0.0
2017-12,1000000.0,18000000.0,-93000000.0,-1000000.0,,0.0,-1000000.0,,-0.0,,76000000.0,,-18000000.0,-95000000.0,
2016-12-31,35476000.0,13989000.0,-86604000.0,2074000.0,-0.0,0.0,-2074000.0,-0.0,-111810000.0,-0.0,198000.0,0.0,-88480000.0,-88678000.0,0.0
2016-12,1000000.0,14000000.0,-87000000.0,-2000000.0,,0.0,-2000000.0,,0.0,,0.0,,-88000000.0,-89000000.0,
2015-12-31,12116000.0,16500000.0,-127457000.0,2777000.0,-0.0,0.0,8731000.0,-0.0,-82006000.0,-0.0,244732000.0,0.0,126006000.0,-130234000.0,0.0
2015-12,1000000.0,16000000.0,-127000000.0,-3000000.0,,12000000.0,9000000.0,,0.0,,245000000.0,,126000000.0,-130000000.0,
2014-12-31,306000.0,26957000.0,-81001000.0,1489000.0,-0.0,0.0,-12997000.0,-0.0,-74284000.0,-0.0,112586000.0,0.0,18588000.0,-82490000.0,0.0
2014-12,0.0,27000000.0,-81000000.0,-1000000.0,,-12000000.0,-13000000.0,,0.0,,113000000.0,,19000000.0,-82000000.0,
2013-12-31,54000.0,5953000.0,-34319000.0,346000.0,-0.0,0.0,-346000.0,-0.0,19057000.0,-0.0,75684000.0,0.0,41019000.0,-34665000.0,0.0
2013-12,0.0,6000000.0,-34000000.0,-0.0,,0.0,-0.0,,0.0,,76000000.0,,41000000.0,-35000000.0,
2012-12-31,47000.0,2092000.0,-22822000.0,57000.0,-0.0,0.0,-4168000.0,-0.0,16057000.0,-0.0,33830000.0,0.0,6840000.0,-22879000.0,0.0
2011-12-31,47000.0,2092000.0,-22822000.0,57000.0,-0.0,0.0,-4168000.0,-0.0,-4518000.0,-0.0,33830000.0,0.0,6840000.0,-22879000.0,0.0
