,0,1,2,3,4,5,6,7,8,9,10,11,12,13,14
Date,Depreciation & Amortization,Stock-based compensation,Operating Cash Flow,Capital Expenditure,Acquisitions and disposals,Investment purchases and sales,Investing Cash flow,Issuance (repayment) of debt,Issuance (buybacks) of shares,Dividend payments,Financing Cash Flow,Effect of forex changes on cash,Net cash flow / Change in cash,Free Cash Flow,Net Cash/Marketcap
2019-12-31,241000000.0,96000000.0,2906000000.0,85000000.0,-185000000.0,-2653000000.0,-4918000000.0,-3634000000.0,-817000000.0,-804000000.0,2066000000.0,0.0,54000000.0,2821000000.0,0.0
2018-12-31,382000000.0,99000000.0,2506000000.0,99000000.0,-0.0,-2495000000.0,-2482000000.0,-2880000000.0,-1078000000.0,-656000000.0,-17000000.0,0.0,7000000.0,2407000000.0,0.0
2017-12-31,407000000.0,100000000.0,1815000000.0,112000000.0,-144000000.0,3248000000.0,-2239000000.0,-748000000.0,-639000000.0,-480000000.0,418000000.0,0.0,-6000000.0,1703000000.0,0.0
2016-12-31,314000000.0,99000000.0,1689000000.0,145000000.0,-481000000.0,4055000000.0,-6457000000.0,-1308000000.0,-108000000.0,-335000000.0,4838000000.0,0.0,70000000.0,1544000000.0,0.0
2015-12-31,247000000.0,58000000.0,1131000000.0,75000000.0,-0.0,2650000000.0,-2023000000.0,-1172000000.0,-426000000.0,-267000000.0,846000000.0,0.0,-46000000.0,1056000000.0,0.0
2014-12-31,227000000.0,44000000.0,1320000000.0,97000000.0,-114000000.0,2376000000.0,-2816000000.0,-1355000000.0,-457000000.0,-240000000.0,1532000000.0,0.0,36000000.0,1223000000.0,0.0
2013-12-31,193000000.0,35000000.0,1579000000.0,100000000.0,601000000.0,3996000000.0,-4224000000.0,-1545000000.0,-474000000.0,-217000000.0,2678000000.0,0.0,33000000.0,1479000000.0,0.0
2012-12-31,240000000.0,56000000.0,1355000000.0,152000000.0,776000000.0,5300000000.0,-242000000.0,-3394000000.0,-251000000.0,-191000000.0,-1222000000.0,0.0,-109000000.0,1203000000.0,0.0
2011-12-31,0.0,0.0,0.0,0.0,-0.0,0.0,0.0,-0.0,0.0,-0.0,0.0,0.0,0.0,0.0,0.0
2010-12-31,0.0,0.0,0.0,0.0,-0.0,0.0,0.0,-0.0,0.0,-0.0,0.0,0.0,0.0,0.0,0.0
2009-12-31,389000000.0,0.0,2320000000.0,-213000000.0,105000000.0,6717000000.0,6609000000.0,-10915000000.0,986000000.0,-213000000.0,-9703000000.0,0.0,-774000000.0,2107000000.0,-0.619
