,0,1,2,3,4,5,6,7,8,9,10,11,12,13,14,15,16,17,18,19,20,21,22,23,24,25,26,27,28,29,30
Date,Revenue,Revenue Growth,Cost of Revenue,Gross Profit,R&D Expenses,SG&A Expense,Operating Expenses,Operating Income,Interest Expense,Earnings before Tax,Income Tax Expense,Net Income - Non-Controlling int,Net Income - Discontinued ops,Net Income,Preferred Dividends,Net Income Com,EPS,EPS Diluted,Weighted Average Shs Out,Weighted Average Shs Out (Dil),Dividend per Share,Gross Margin,EBITDA Margin,EBIT Margin,Profit Margin,Free Cash Flow margin,EBITDA,EBIT,Consolidated Income,Earnings Before Tax Margin,Net Profit Margin
2018-12-31,2395836000.0,-0.411068587921,0.0,0.0,0.0,1374363000.0,1374363000.0,1131063000.0,876029000.0,2402182000.0,-194098000.0,0.0,0.0,1131063000.0,33364000.0,1131063000.0,2.14,2.06,514102571.0,533707039.0,0.603966177032,0.0,0.47209533540700005,0.47209533540700005,0.47209533540700005,-3.21772400114,1131063000.0,1131063000.0,1131063000.0,1.0026487622700002,0.47209533540700005
2017-12-31,4068107000.0,1.18096317979,0.0,0.0,0.0,1695490000.0,1695490000.0,1018305000.0,808898000.0,2614696000.0,224326000.0,0.0,0.0,1018305000.0,33364000.0,1018305000.0,1.95,1.95,468282642.0,468282642.0,0.666206628261,0.0,0.250314212483,0.250314212483,0.250314212483,-0.916175262843,1018305000.0,1018305000.0,1018305000.0,0.642730390327,0.250314212483
2016-12-31,1865280000.0,-0.25564705488,0.0,0.0,0.0,1063813000.0,1063813000.0,309307000.0,789953000.0,916081000.0,24561000.0,0.0,0.0,309307000.0,22235000.0,309307000.0,0.59,0.59,448905126.0,448905126.0,0.635786903445,0.0,0.16582336164,0.16582336164,0.16582336164,-0.871099781266,309307000.0,309307000.0,309307000.0,0.491122512438,0.16582336164
2015-12-31,2505908000.0,-0.152148280026,0.0,0.0,0.0,1180591000.0,1180591000.0,488482000.0,573226000.0,5247856000.0,66636000.0,0.0,0.0,488482000.0,0.0,488482000.0,1.01,1.01,448884185.0,448884185.0,1.5741499113,0.0,0.19493213637499998,0.19493213637499998,0.19493213637499998,0.08619031504750001,488482000.0,488482000.0,488482000.0,2.09419340215,0.19493213637499998
2014-12-31,2955597000.0,8.810719573,0.0,0.0,0.0,1263852000.0,1263852000.0,5458689000.0,317192000.0,5458689000.0,63669000.0,0.0,0.0,477611000.0,0.0,477611000.0,1.16,1.16,381092394.0,381092394.0,2.05985480781,0.0,1.8468989513799998,1.8468989513799998,0.161595440786,0.49955626562100003,5458689000.0,5458689000.0,477611000.0,1.8468989513799998,0.161595440786
2013-12-31,301262000.0,1.0,0.0,0.0,0.0,1266592000.0,1266592000.0,691226000.0,99616000.0,7849586000.0,37926000.0,0.0,0.0,691226000.0,0.0,691226000.0,2.3,2.3,274910628.0,274910628.0,1.5699029286000001,0.0,2.2944347445099997,2.2944347445099997,2.2944347445099997,8.50872994271,691226000.0,691226000.0,691226000.0,26.055679109899998,2.2944347445099997
2012-12-31,0.0,0.0,0.0,0.0,0.0,1280854000.0,1280854000.0,560836000.0,69164000.0,8022673000.0,43405000.0,0.0,0.0,560836000.0,0.0,560836000.0,0.0,0.0,238503257.0,238503257.0,0.8260851548870001,0.0,0.0,0.0,0.0,0.0,560836000.0,560836000.0,560836000.0,0.0,0.0
2011-12-31,0.0,-1.0,0.0,0.0,0.0,868749000.0,868749000.0,1921000.0,72758000.0,864116000.0,89245000.0,0.0,0.0,1921000.0,0.0,1921000.0,0.0,0.0,220235469.0,220235469.0,0.701362958026,0.0,0.0,0.0,0.0,0.0,1921000.0,1921000.0,1921000.0,0.0,0.0
2010-12-31,435386000.0,0.314289509193,0.0,435386000.0,0.0,1762663000.0,1762663000.0,-1327277000.0,53099000.0,408538000.0,75360000.0,7443293000.0,0.0,333178000.0,0.0,333178000.0,1.62,1.62,209148400.0,206031682.0,0.23,1.0,1.06,1.0603,0.765,1.6544,461637000.0,461637000.0,7776471000.0,0.9383,0.7652
2009-12-31,331271000.0,0.4086,0.0,331271000.0,0.0,1195710000.0,1195710000.0,-864439000.0,79638000.0,886683000.0,36998000.0,6002686000.0,0.0,849685000.0,0.0,849685000.0,-0.38,-0.38,204902226.0,204902226.0,0.0,1.0,2.917,2.917,2.565,-1.112,966321000.0,966321000.0,6852371000.0,2.6766,2.5649
