,0,1,2,3,4,5,6,7,8,9,10,11,12,13,14,15,16,17,18,19,20,21,22,23,24,25,26,27,28,29,30
Date,Revenue,Revenue Growth,Cost of Revenue,Gross Profit,R&D Expenses,SG&A Expense,Operating Expenses,Operating Income,Interest Expense,Earnings before Tax,Income Tax Expense,Net Income - Non-Controlling int,Net Income - Discontinued ops,Net Income,Preferred Dividends,Net Income Com,EPS,EPS Diluted,Weighted Average Shs Out,Weighted Average Shs Out (Dil),Dividend per Share,Gross Margin,EBITDA Margin,EBIT Margin,Profit Margin,Free Cash Flow margin,EBITDA,EBIT,Consolidated Income,Earnings Before Tax Margin,Net Profit Margin
2018-12-31,18486000000.0,0.012432225204,12889000000.0,5597000000.0,317000000.0,0.0,317000000.0,2229000000.0,263000000.0,1208000000.0,471000000.0,0.0,0.0,1410000000.0,0.0,1410000000.0,4.05,4.03,348000000.0,349600000.0,3.96453089245,0.302769663529,0.168289516391,0.120577734502,0.07627393703339999,0.113220815752,3111000000.0,2229000000.0,1410000000.0,0.0653467488911,0.07627393703339999
2017-12-31,18259000000.0,0.0031315240083499996,11706000000.0,6553000000.0,311000000.0,0.0,311000000.0,3299000000.0,318000000.0,2991000000.0,776000000.0,0.0,0.0,2278000000.0,0.0,2278000000.0,6.44,6.4,353600000.0,355900000.0,3.8184883394199995,0.358891505559,0.22032970042199998,0.180678021797,0.12476039213500001,0.117421545539,4023000000.0,3299000000.0,2278000000.0,0.163809628129,0.12476039213500001
2016-12-31,18202000000.0,-0.0209241030606,11551000000.0,6651000000.0,328000000.0,0.0,328000000.0,3317000000.0,319000000.0,3009000000.0,922000000.0,0.0,0.0,2166000000.0,0.0,2166000000.0,6.03,5.99,359400000.0,361700000.0,3.62455073265,0.365399406659,0.22096472915100002,0.182232721679,0.11899791231699999,0.135204922536,4022000000.0,3317000000.0,2166000000.0,0.16531150423000002,0.11899791231699999
2015-12-31,18591000000.0,-0.0574427093896,11967000000.0,6624000000.0,324000000.0,0.0,324000000.0,1613000000.0,295000000.0,1335000000.0,418000000.0,0.0,0.0,1013000000.0,0.0,1013000000.0,2.78,2.77,363800000.0,366300000.0,3.4725634725599996,0.356301436179,0.126889355064,0.0867624119197,0.054488731106400005,0.0672368350277,2359000000.0,1613000000.0,1013000000.0,0.0718089398096,0.054488731106400005
2014-12-31,19724000000.0,-0.0675113464448,13041000000.0,6683000000.0,368000000.0,0.0,368000000.0,2521000000.0,284000000.0,2255000000.0,856000000.0,0.0,0.0,1526000000.0,0.0,1526000000.0,4.07,4.04,374500000.0,377400000.0,3.3280339162700003,0.338825795985,0.171516933685,0.127813830866,0.07736767389980001,0.0915635773677,3383000000.0,2521000000.0,1526000000.0,0.11432772257099999,0.07736767389980001
2013-12-31,21152000000.0,0.00422541898115,13912000000.0,7240000000.0,360000000.0,0.0,360000000.0,3208000000.0,283000000.0,2945000000.0,929000000.0,0.0,0.0,2142000000.0,0.0,2142000000.0,5.58,5.53,384000000.0,387300000.0,3.1577588432700003,0.342284417549,0.192464069592,0.151664145234,0.10126701966700001,0.09866679273830001,4071000000.0,3208000000.0,2142000000.0,0.139230332829,0.10126701966700001
2012-12-31,21063000000.0,0.0104096709201,14314000000.0,6749000000.0,356000000.0,0.0,356000000.0,2686000000.0,284000000.0,2420000000.0,768000000.0,0.0,0.0,1750000000.0,0.0,1750000000.0,4.45,4.42,393000000.0,396100000.0,2.90583186064,0.320419693301,0.168209656744,0.127522195319,0.0830840810901,0.10421117599600001,3543000000.0,2686000000.0,1750000000.0,0.11489341499299999,0.0830840810901
2011-12-31,20846000000.0,0.05570748506030001,14694000000.0,6152000000.0,316000000.0,0.0,316000000.0,2442000000.0,277000000.0,2183000000.0,660000000.0,0.0,0.0,1591000000.0,0.0,1591000000.0,4.02,3.99,395700000.0,398600000.0,2.75715002509,0.295116569126,0.169480955579,0.117144775976,0.07632159646930001,0.0633215005277,3533000000.0,2442000000.0,1591000000.0,0.10472033003900001,0.07632159646930001
2010-12-31,19746000000.0,0.033010724561900004,13196000000.0,6550000000.0,317000000.0,0.0,317000000.0,2773000000.0,243000000.0,2550000000.0,788000000.0,0.0,0.0,1843000000.0,0.0,1843000000.0,4.47,4.45,412400000.0,414400000.0,2.57239382239,0.33171275195,0.181606401296,0.14043350552,0.0933353590601,0.0901448394612,3586000000.0,2773000000.0,1843000000.0,0.129140079003,0.0933353590601
2009-12-31,19115000000.0,-0.0155,12695000000.0,6420000000.0,0.0,3498000000.0,3595000000.0,2825000000.0,275000000.0,2630000000.0,746000000.0,110000000.0,0.0,1884000000.0,0.0,1884000000.0,4.53,4.52,415379458.0,415379458.0,2.4,0.3359,0.193,0.152,0.099,0.1391,3688000000.0,2905000000.0,1994000000.0,0.1376,0.0986
