,0,1,2,3,4,5,6,7,8,9,10,11,12,13,14,15,16,17,18,19,20,21,22,23,24,25,26,27,28
Date,Cash and cash equivalents,Short-term investments,Cash and short-term investments,Receivables,Inventories,Total current assets,Property Plant & Equipment Net,Goodwill and Intangible Assets,Long-term investments,Tax assets,Total non-current assets,Total assets,Payables,Short-term debt,Total current liabilities,Long-term debt,Total debt,Deferred revenue,Tax Liabilities,Deposit Liabilities,Total non-current liabilities,Total liabilities,Other comprehensive income,Retained earnings (deficit),Total shareholders equity,Investments,Net Debt,Other Assets,Other Liabilities
2019-12-31,185000000.0,925000000.0,1110000000.0,1370000000.0,371000000.0,3238000000.0,36419000000.0,24127000000.0,7759000000.0,857000000.0,70919000000.0,74157000000.0,914000000.0,2477000000.0,5100000000.0,31915000000.0,34392000000.0,232000000.0,364000000.0,0.0,34168000000.0,40415000000.0,41745000000.0,-7693000000.0,33742000000.0,8684000000.0,34207000000.0,0.0,1147000000.0
2018-12-31,3280000000.0,260000000.0,3540000000.0,1498000000.0,385000000.0,5722000000.0,37897000000.0,24845000000.0,0.0,23000000.0,73144000000.0,78866000000.0,1337000000.0,3388000000.0,7557000000.0,33936000000.0,37324000000.0,80000000.0,483000000.0,0.0,36112000000.0,45188000000.0,41701000000.0,-7716000000.0,33678000000.0,260000000.0,34044000000.0,0.0,1519000000.0
2017-12-31,264000000.0,114000000.0,378000000.0,1448000000.0,424000000.0,2715000000.0,40155000000.0,25261000000.0,7298000000.0,165000000.0,76340000000.0,79055000000.0,1340000000.0,2828000000.0,6181000000.0,35015000000.0,37843000000.0,0.0,97000000.0,0.0,37750000000.0,45419000000.0,41909000000.0,-7754000000.0,33636000000.0,7412000000.0,37579000000.0,0.0,1488000000.0
2016-12-31,684000000.0,198000000.0,882000000.0,1370000000.0,357000000.0,3229000000.0,38705000000.0,25470000000.0,7027000000.0,180000000.0,77076000000.0,80305000000.0,1257000000.0,2696000000.0,5924000000.0,37354000000.0,40050000000.0,0.0,122000000.0,0.0,39579000000.0,45874000000.0,41739000000.0,-6669000000.0,34431000000.0,7225000000.0,39366000000.0,0.0,371000000.0
2015-12-31,229000000.0,507000000.0,736000000.0,1315000000.0,407000000.0,2824000000.0,40547000000.0,27341000000.0,6040000000.0,0.0,81280000000.0,84104000000.0,1324000000.0,821000000.0,4065000000.0,42406000000.0,43227000000.0,0.0,148000000.0,0.0,44636000000.0,48985000000.0,41661000000.0,-6103000000.0,35119000000.0,6547000000.0,42998000000.0,0.0,284000000.0
2014-12-31,315000000.0,535000000.0,850000000.0,1641000000.0,459000000.0,3752000000.0,38564000000.0,26956000000.0,6036000000.0,56000000.0,79446000000.0,83198000000.0,1588000000.0,2717000000.0,6362000000.0,40246000000.0,42963000000.0,0.0,189000000.0,0.0,42410000000.0,49122000000.0,36178000000.0,-2106000000.0,34076000000.0,6571000000.0,42648000000.0,0.0,350000000.0
2013-12-31,598000000.0,567000000.0,598000000.0,1721000000.0,430000000.0,3868000000.0,35847000000.0,26942000000.0,0.0,567000000.0,71317000000.0,75185000000.0,1676000000.0,1581000000.0,6075000000.0,33887000000.0,35468000000.0,0.0,209000000.0,0.0,40825000000.0,62092000000.0,14479000000.0,-1372000000.0,13093000000.0,567000000.0,34870000000.0,0.0,15192000000.0
2012-12-31,714000000.0,5804000000.0,6518000000.0,1404000000.0,374000000.0,3674000000.0,30996000000.0,24743000000.0,5804000000.0,-539000000.0,64511000000.0,68185000000.0,1200000000.0,2401000000.0,5209000000.0,32000000000.0,34401000000.0,0.0,269000000.0,0.0,38744000000.0,44086000000.0,25151000000.0,-943000000.0,24099000000.0,11608000000.0,33687000000.0,0.0,133000000.0
2012-02-22,0.0,0.0,0.0,0.0,0.0,0.0,0.0,0.0,0.0,0.0,0.0,0.0,0.0,0.0,0.0,0.0,0.0,0.0,0.0,0.0,0.0,0.0,0.0,0.0,0.0,0.0,0.0,0.0,0.0
2011-12-31,411000000.0,0.0,411000000.0,914000000.0,172000000.0,1663000000.0,17926000000.0,6259000000.0,3909000000.0,0.0,29054000000.0,30717000000.0,728000000.0,2922000000.0,4529000000.0,14356000000.0,17278000000.0,0.0,2199000000.0,0.0,17620000000.0,22149000000.0,-115000000.0,-3000000.0,3321000000.0,3909000000.0,16867000000.0,166000000.0,879000000.0
2010-12-31,502400000.0,0.0,502400000.0,971400000.0,94200000.0,1786900000.0,17070700000.0,5170100000.0,4406100000.0,0.0,27121200000.0,28908100000.0,647500000.0,2047600000.0,3644100000.0,13812900000.0,15860500000.0,96700000.0,2137400000.0,0.0,16725000000.0,20369100000.0,-136500000.0,0.0,3439100000.0,4406100000.0,15358100000.0,218900000.0,949000000.0
2009-12-31,165600000.0,0.0,165600000.0,916300000.0,115400000.0,1380300000.0,16803500000.0,5004100000.0,3886200000.0,0.0,26200700000.0,27581000000.0,620800000.0,805300000.0,2319200000.0,13240700000.0,14046000000.0,76100000.0,2094200000.0,0.0,16416700000.0,18735900000.0,-167900000.0,,4170500000.0,3886200000.0,13880400000.0,183000000.0,893100000.0
