,0,1,2,3,4,5,6,7,8,9,10,11,12,13,14,15,16,17,18,19,20,21,22,23,24,25,26,27,28,29,30
Date,Revenue,Revenue Growth,Cost of Revenue,Gross Profit,R&D Expenses,SG&A Expense,Operating Expenses,Operating Income,Interest Expense,Earnings before Tax,Income Tax Expense,Net Income - Non-Controlling int,Net Income - Discontinued ops,Net Income,Preferred Dividends,Net Income Com,EPS,EPS Diluted,Weighted Average Shs Out,Weighted Average Shs Out (Dil),Dividend per Share,Gross Margin,EBITDA Margin,EBIT Margin,Profit Margin,Free Cash Flow margin,EBITDA,EBIT,Consolidated Income,Earnings Before Tax Margin,Net Profit Margin
2019-12-31,315888000.0,0.42218860585100004,0.0,0.0,0.0,27800000.0,70274000.0,76051000.0,0.0,76051000.0,12735000.0,0.0,0.0,63316000.0,0.0,63316000.0,2.94,2.86,21528000.0,22136000.0,0.313019515721,0.0,0.242912044775,0.240753051715,0.20043812997000002,0.502504052069,76733000.0,76051000.0,63316000.0,0.240753051715,0.20043812997000002
2018-12-31,222114000.0,0.189199897203,0.0,0.0,0.0,19700000.0,53593000.0,40480000.0,0.0,40480000.0,6693000.0,0.0,0.0,33787000.0,0.0,33787000.0,1.6,1.56,21090000.0,21685000.0,0.272354161863,0.0,0.18508963865400002,0.18224875514400002,0.15211558028799999,0.462406692059,41111000.0,40480000.0,33787000.0,0.18224875514400002,0.15211558028799999
2017-12-31,186776000.0,0.318899834057,0.0,0.0,0.0,17700000.0,44575000.0,38521000.0,0.0,38521000.0,13620000.0,0.0,0.0,24901000.0,0.0,24901000.0,1.19,1.16,20992000.0,21498000.0,0.234393897107,0.0,0.208999014863,0.206241701289,0.133320126783,0.41343106180699996,39036000.0,38521000.0,24901000.0,0.206241701289,0.133320126783
2016-12-31,141615000.0,0.757097126408,0.0,0.0,0.0,18700000.0,31118000.0,39536000.0,1300000.0,39536000.0,13369000.0,0.0,0.0,26167000.0,0.0,26167000.0,0.57,0.56,20841000.0,21073000.0,0.0995112228919,0.0,0.283670515129,0.279179465452,0.18477562405099998,0.5167249232069999,40172000.0,39536000.0,26167000.0,0.279179465452,0.18477562405099998
2015-12-31,80596000.0,0.265720208556,42238000.0,38358000.0,0.0,2809000.0,4801000.0,33557000.0,0.0,33557000.0,11284000.0,0.0,0.0,22273000.0,0.0,22273000.0,0.0,0.0,20968750.0,13796000.0,0.0,0.4759,0.424,0.4164,0.276,0.9736,34199000.0,33557000.0,22273000.0,0.4164,0.2764
2014-12-31,63676000.0,0.31334048345800003,41108000.0,22568000.0,0.0,1451000.0,3095000.0,19473000.0,0.0,19473000.0,6500000.0,0.0,0.0,12973000.0,0.0,12973000.0,0.0,0.0,,13787000.0,0.0,0.3544,0.315,0.3058,0.204,1.2408,20043000.0,19473000.0,12973000.0,0.3058,0.2037
2013-12-31,48484000.0,,28890000.0,19594000.0,0.0,6894000.0,7491000.0,12103000.0,0.0,12103000.0,-164000.0,0.0,0.0,12267000.0,0.0,12267000.0,0.89,0.89,,14751275.0,0.0,0.4041,0.259,0.2496,0.253,1.2702,12551000.0,12103000.0,12267000.0,0.2496,0.253
