,0,1,2,3,4,5,6,7,8,9,10,11,12,13,14
Date,Depreciation & Amortization,Stock-based compensation,Operating Cash Flow,Capital Expenditure,Acquisitions and disposals,Investment purchases and sales,Investing Cash flow,Issuance (repayment) of debt,Issuance (buybacks) of shares,Dividend payments,Financing Cash Flow,Effect of forex changes on cash,Net cash flow / Change in cash,Free Cash Flow,Net Cash/Marketcap
2019-12-31,583727000.0,16038000.0,839594000.0,829977000.0,-1885000.0,-86892000.0,-583706000.0,-115642000.0,-86892000.0,-41425000.0,-184636000.0,0.0,159722000.0,9617000.0,0.0
2018-12-31,430089000.0,12387000.0,881977000.0,755997000.0,-101693000.0,-179318000.0,-647292000.0,-46630000.0,-179318000.0,-42770000.0,-255442000.0,0.0,-20757000.0,125980000.0,0.0
2017-12-31,207314000.0,6242000.0,318569000.0,387191000.0,-0.0,8674000.0,-273941000.0,-503153000.0,0.0,-25454000.0,24000000.0,0.0,68628000.0,-68622000.0,0.0
2016-12-31,285281000.0,6017000.0,466312000.0,239446000.0,-0.0,-117119000.0,-122607000.0,-246829000.0,-117119000.0,-0.0,-361904000.0,0.0,-18199000.0,226866000.0,0.0
2015-12-31,274486000.0,6525000.0,569498000.0,342615000.0,-0.0,-70000000.0,-241807000.0,-979816000.0,-70000000.0,-0.0,-325233000.0,0.0,2458000.0,226883000.0,0.0
2014-12-31,248343000.0,5396000.0,395781000.0,305966000.0,-0.0,0.0,-139750000.0,-1224628000.0,-105132000.0,-0.0,-210077000.0,0.0,45954000.0,89815000.0,0.0
2013-12-31,250069000.0,4645000.0,473504000.0,318271000.0,-150302000.0,0.0,-311720000.0,-236388000.0,-59178000.0,-0.0,-156202000.0,0.0,5582000.0,155233000.0,0.0
2012-12-31,227399000.0,4645000.0,406556000.0,293216000.0,-0.0,0.0,-172499000.0,-286601000.0,-53596000.0,-0.0,-262545000.0,0.0,-28488000.0,113340000.0,0.0
2011-12-31,245038000.0,6785000.0,323897000.0,239575000.0,-0.0,0.0,-150236000.0,-206692000.0,683916000.0,-0.0,-139071000.0,0.0,34590000.0,84322000.0,0.0
2010-12-31,226751000.0,22883000.0,58439000.0,-126107000.0,0.0,6533000.0,-178521000.0,-666503000.0,764284000.0,0.0,51714000.0,0.0,-68368000.0,-67668000.0,-1.0356
2009-12-31,253531000.0,0.0,115335000.0,-1492000.0,0.0,11413000.0,-1127000.0,-56718000.0,0.0,-16383000.0,-56262000.0,0.0,57946000.0,113843000.0,-1.3524
