,0,1,2,3,4,5,6,7,8,9,10,11,12,13,14,15,16,17,18,19,20,21,22,23,24,25,26,27,28
Date,Cash and cash equivalents,Short-term investments,Cash and short-term investments,Receivables,Inventories,Total current assets,Property Plant & Equipment Net,Goodwill and Intangible Assets,Long-term investments,Tax assets,Total non-current assets,Total assets,Payables,Short-term debt,Total current liabilities,Long-term debt,Total debt,Deferred revenue,Tax Liabilities,Deposit Liabilities,Total non-current liabilities,Total liabilities,Other comprehensive income,Retained earnings (deficit),Total shareholders equity,Investments,Net Debt,Other Assets,Other Liabilities
2019-12-31,33000000.0,1900000.0,33000000.0,163900000.0,299100000.0,519500000.0,415400000.0,464500000.0,0.0,23700000.0,1045100000.0,1564600000.0,169900000.0,10200000.0,296200000.0,891000000.0,901200000.0,0.0,2100000.0,0.0,970500000.0,1417300000.0,131000000.0,93800000.0,147300000.0,1900000.0,868200000.0,0.0,150600000.0
2018-12-31,40600000.0,2800000.0,40600000.0,189700000.0,284700000.0,540300000.0,417900000.0,484500000.0,0.0,15500000.0,939600000.0,1479900000.0,177200000.0,11600000.0,298700000.0,978800000.0,990400000.0,0.0,7000000.0,0.0,1066000000.0,1423700000.0,116000000.0,27200000.0,56200000.0,2800000.0,949800000.0,0.0,59000000.0
2017-12-31,60300000.0,1700000.0,60300000.0,159200000.0,236900000.0,506700000.0,328000000.0,317800000.0,0.0,18400000.0,693500000.0,1200200000.0,141900000.0,11400000.0,281200000.0,665600000.0,677000000.0,28100000.0,8700000.0,0.0,766900000.0,1100300000.0,132400000.0,7400000.0,99900000.0,1700000.0,616700000.0,0.0,52200000.0
2016-12-31,20800000.0,12700000.0,20800000.0,136800000.0,228700000.0,438100000.0,280800000.0,328300000.0,0.0,27100000.0,649400000.0,1087500000.0,144200000.0,42600000.0,293100000.0,619800000.0,662400000.0,27200000.0,9700000.0,0.0,708200000.0,1057100000.0,123500000.0,-24700000.0,30400000.0,12700000.0,641600000.0,0.0,55800000.0
2015-12-31,21800000.0,14100000.0,21800000.0,155000000.0,226400000.0,444300000.0,277800000.0,342700000.0,0.0,36600000.0,681100000.0,1125400000.0,140800000.0,39900000.0,280500000.0,694900000.0,734800000.0,30100000.0,7700000.0,0.0,803700000.0,1143900000.0,115100000.0,-54000000.0,-18500000.0,14100000.0,713000000.0,0.0,59700000.0
2014-12-31,51100000.0,20000000.0,51100000.0,198700000.0,241200000.0,541300000.0,299700000.0,414900000.0,5000000.0,7800000.0,752600000.0,1293900000.0,120600000.0,43900000.0,292100000.0,806600000.0,850500000.0,2500000.0,8900000.0,0.0,863200000.0,1223900000.0,112100000.0,18000000.0,70000000.0,25000000.0,799400000.0,0.0,68600000.0
2013-12-31,82200000.0,28500000.0,82200000.0,157900000.0,168800000.0,473100000.0,197000000.0,0.0,6600000.0,9300000.0,311800000.0,784900000.0,107600000.0,0.0,195100000.0,303100000.0,303100000.0,3200000.0,6100000.0,0.0,358400000.0,615100000.0,108500000.0,71300000.0,169800000.0,35100000.0,220900000.0,0.0,61600000.0
2012-12-31,66700000.0,26200000.0,66700000.0,162700000.0,195800000.0,481200000.0,161100000.0,0.0,5800000.0,27200000.0,298800000.0,780000000.0,103500000.0,0.0,181200000.0,296100000.0,296100000.0,3900000.0,7700000.0,0.0,355900000.0,629400000.0,120400000.0,52000000.0,150600000.0,32000000.0,229400000.0,0.0,92300000.0
2011-12-31,54100000.0,31600000.0,54100000.0,160900000.0,159000000.0,427400000.0,155600000.0,0.0,4900000.0,44300000.0,303300000.0,730700000.0,102100000.0,0.0,170400000.0,302100000.0,302100000.0,4800000.0,9900000.0,0.0,358300000.0,635900000.0,118100000.0,6700000.0,94800000.0,36500000.0,248000000.0,0.0,107200000.0
2010-12-31,35300000.0,17800000.0,35300000.0,128900000.0,165400000.0,370400000.0,168200000.0,0.0,4700000.0,26100000.0,298800000.0,669200000.0,87900000.0,1000000.0,149400000.0,295400000.0,296400000.0,0.0,0.0,0.0,339700000.0,580500000.0,112500000.0,-11700000.0,88700000.0,22500000.0,261100000.0,0.0,91400000.0
2009-12-31,58400000.0,4400000.0,62800000.0,102500000.0,152700000.0,381000000.0,149300000.0,61600000.0,4700000.0,71500000.0,263400000.0,644400000.0,67300000.0,200000.0,131800000.0,335100000.0,335300000.0,0.0,0.0,0.0,457800000.0,589600000.0,-22700000.0,-37300000.0,43800000.0,9100000.0,272500000.0,63000000.0,64300000.0
