,0,1,2,3,4,5,6,7,8,9,10,11,12,13,14
Date,Depreciation & Amortization,Stock-based compensation,Operating Cash Flow,Capital Expenditure,Acquisitions and disposals,Investment purchases and sales,Investing Cash flow,Issuance (repayment) of debt,Issuance (buybacks) of shares,Dividend payments,Financing Cash Flow,Effect of forex changes on cash,Net cash flow / Change in cash,Free Cash Flow,Net Cash/Marketcap
2018-12-31,-1934000.0,1973000.0,76830000.0,0.0,-0.0,-31347000.0,-1997213000.0,-1314812000.0,78153000.0,-88847000.0,1903394000.0,0.0,86531000.0,76830000.0,0.0
2017-12-31,-446000.0,65000.0,53801000.0,0.0,-0.0,-500000.0,-1083677000.0,-460432000.0,580755000.0,-50579000.0,1037050000.0,0.0,103520000.0,53801000.0,0.0
2016-12-31,0.0,0.0,25406000.0,0.0,-10240000.0,-445753000.0,-456448000.0,317030000.0,205799000.0,-21908000.0,500602000.0,0.0,69560000.0,25406000.0,-1.7057
2015-12-31,0.0,0.0,11542000.0,0.0,-23887000.0,-340146000.0,-364307000.0,121835000.0,256751000.0,-7545000.0,379490000.0,0.0,26725000.0,11542000.0,-1.7057
