,0,1,2,3,4,5,6,7,8,9,10,11,12,13,14,15,16,17,18,19,20,21,22,23,24,25,26,27,28
Date,Cash and cash equivalents,Short-term investments,Cash and short-term investments,Receivables,Inventories,Total current assets,Property Plant & Equipment Net,Goodwill and Intangible Assets,Long-term investments,Tax assets,Total non-current assets,Total assets,Payables,Short-term debt,Total current liabilities,Long-term debt,Total debt,Deferred revenue,Tax Liabilities,Deposit Liabilities,Total non-current liabilities,Total liabilities,Other comprehensive income,Retained earnings (deficit),Total shareholders equity,Investments,Net Debt,Other Assets,Other Liabilities
2019-12-31,208929000.0,180468000.0,389397000.0,0.0,0.0,392706000.0,195000.0,0.0,0.0,0.0,318000.0,393024000.0,547000.0,0.0,2958000.0,0.0,0.0,0.0,0.0,0.0,27000.0,3108000.0,465420000.0,-75512000.0,389916000.0,180468000.0,-208929000.0,0.0,123000.0
2018-12-31,9027000.0,4983000.0,14010000.0,0.0,0.0,15596000.0,138000.0,0.0,0.0,0.0,261000.0,15857000.0,269000.0,0.0,1196000.0,2516000.0,2516000.0,0.0,0.0,0.0,2618000.0,3814000.0,0.0,-31555000.0,-29922000.0,4983000.0,-11494000.0,1586000.0,927000.0
2017-12-31,1942000.0,0.0,1942000.0,0.0,0.0,2117000.0,12000.0,0.0,0.0,0.0,12000.0,2129000.0,798000.0,7674000.0,11511000.0,3985000.0,11659000.0,0.0,0.0,0.0,3985000.0,15496000.0,0.0,-14043000.0,-13368000.0,0.0,9717000.0,175000.0,3039000.0
