,0,1,2,3,4,5,6,7,8,9,10,11,12,13,14,15,16,17,18,19,20,21,22,23,24,25,26,27,28,29,30
Date,Revenue,Revenue Growth,Cost of Revenue,Gross Profit,R&D Expenses,SG&A Expense,Operating Expenses,Operating Income,Interest Expense,Earnings before Tax,Income Tax Expense,Net Income - Non-Controlling int,Net Income - Discontinued ops,Net Income,Preferred Dividends,Net Income Com,EPS,EPS Diluted,Weighted Average Shs Out,Weighted Average Shs Out (Dil),Dividend per Share,Gross Margin,EBITDA Margin,EBIT Margin,Profit Margin,Free Cash Flow margin,EBITDA,EBIT,Consolidated Income,Earnings Before Tax Margin,Net Profit Margin
2018-12-30,618000000.0,-0.17808219178100002,448300000.0,169700000.0,15600000.0,119800000.0,135400000.0,30500000.0,0.0,8700000.0,4600000.0,0.0,0.0,-3500000.0,0.0,-3500000.0,-0.03,-0.03,103800000.0,106100000.0,0.0,0.274595469256,0.0799352750809,0.0493527508091,-0.0056634304207099995,0.029288025889999996,49400000.0,30500000.0,-3500000.0,0.014077669902899999,-0.0056634304207099995
2017-12-31,751900000.0,0.124420517422,554600000.0,197300000.0,17800000.0,160600000.0,178400000.0,-5800000.0,0.0,-50800000.0,-8200000.0,0.0,0.0,-42700000.0,0.0,-42700000.0,-0.48,-0.48,89500000.0,89500000.0,0.0,0.262401915148,0.0248703285011,-0.00771379172762,-0.0567894666844,-0.035909030456199996,18700000.0,-5800000.0,-42700000.0,-0.0675621758213,-0.0567894666844
2016-12-25,668700000.0,0.017653325216900002,515100000.0,153600000.0,13900000.0,146300000.0,160200000.0,-18600000.0,0.0,-52300000.0,8100000.0,0.0,0.0,-60500000.0,0.0,-60500000.0,-0.99,-0.99,61300000.0,61300000.0,0.0,0.22969941677900002,0.00986989681472,-0.0278151637506,-0.09047405413489999,-0.0185434425004,6600000.0,-18600000.0,-60500000.0,-0.0782114550621,-0.09047405413489999
2015-12-27,657100000.0,-0.24297235023000002,495300000.0,161800000.0,16200000.0,150700000.0,166900000.0,-4500000.0,0.0,-44600000.0,-11400000.0,0.0,0.0,19800000.0,0.0,19800000.0,0.34,0.34,58700000.0,58700000.0,0.0,0.24623345000799998,0.0365241211383,-0.00684827271344,0.030132399939099996,-0.045198599908699996,24000000.0,-4500000.0,19800000.0,-0.06787399178209999,0.030132399939099996
2014-12-28,868000000.0,-0.0868924889543,649800000.0,218200000.0,23000000.0,173400000.0,196400000.0,19900000.0,0.0,-72900000.0,5100000.0,0.0,0.0,-78000000.0,0.0,-78000000.0,-1.35,-1.35,57600000.0,57600000.0,0.0,0.251382488479,0.0706221198157,0.0229262672811,-0.0898617511521,0.008870967741940001,61300000.0,19900000.0,-78000000.0,-0.0839861751152,-0.0898617511521
2013-12-29,950600000.0,-0.0191910854313,710600000.0,240000000.0,21400000.0,193000000.0,214400000.0,31800000.0,0.0,-31900000.0,0.0,0.0,0.0,-37200000.0,0.0,-37200000.0,-0.65,-0.65,56800000.0,56800000.0,0.0,0.25247212287,0.0905743740795,0.0334525562802,-0.03913317904480001,0.0237744582369,86100000.0,31800000.0,-37200000.0,-0.033557752998099995,-0.03913317904480001
2012-12-30,969200000.0,0.35761311108000005,712000000.0,257200000.0,17800000.0,193100000.0,210900000.0,-49700000.0,0.0,-114500000.0,-1600000.0,0.0,0.0,-114400000.0,0.0,-114400000.0,-2.44,-2.44,46900000.0,46900000.0,0.0,0.265373503921,0.009492364836979999,-0.05127940569540001,-0.11803549319000001,0.05396203054069999,9200000.0,-49700000.0,-114400000.0,-0.11813867106899999,-0.11803549319000001
2011-12-25,713900000.0,0.747613219094,522700000.0,191200000.0,8600000.0,140600000.0,149200000.0,29500000.0,0.0,-21600000.0,1900000.0,0.0,0.0,-24200000.0,0.0,-24200000.0,-0.88,-0.88,27400000.0,27400000.0,0.0,0.267824625298,0.109959378064,0.0413223140496,-0.0338983050847,-0.0032217397394599997,78500000.0,29500000.0,-24200000.0,-0.0302563384227,-0.0338983050847
2010-12-26,408500000.0,0.221225710015,324200000.0,84300000.0,2200000.0,57300000.0,61200000.0,23100000.0,22300000.0,1800000.0,-12700000.0,0.0,100000.0,14500000.0,0.0,14500000.0,0.87,0.86,18558743.0,16600000.0,0.0,0.2064,0.091,0.059000000000000004,0.035,0.0634,37000000.0,24100000.0,14500000.0,0.0044,0.0355
2009-12-27,334500000.0,0.1688,270900000.0,63600000.0,1800000.0,47700000.0,90600000.0,-27000000.0,10400000.0,-40500000.0,1000000.0,0.0,3200000.0,-41500000.0,0.0,-41500000.0,-2.99,-2.99,15772969.0,13900000.0,0.0,0.1901,-0.065,-0.09,-0.124,0.067,-21800000.0,-30100000.0,-41500000.0,-0.1211,-0.1241
