,0,1,2,3,4,5,6,7,8,9,10,11,12,13,14,15,16,17,18,19,20,21,22,23,24,25,26,27,28
Date,Cash and cash equivalents,Short-term investments,Cash and short-term investments,Receivables,Inventories,Total current assets,Property Plant & Equipment Net,Goodwill and Intangible Assets,Long-term investments,Tax assets,Total non-current assets,Total assets,Payables,Short-term debt,Total current liabilities,Long-term debt,Total debt,Deferred revenue,Tax Liabilities,Deposit Liabilities,Total non-current liabilities,Total liabilities,Other comprehensive income,Retained earnings (deficit),Total shareholders equity,Investments,Net Debt,Other Assets,Other Liabilities
2019-12-31,1061151.0,0.0,1061151.0,0.0,0.0,1199722.0,0.0,0.0,195312177.0,138571.0,195312177.0,196511899.0,2771045.0,0.0,2771045.0,566268.0,566268.0,0.0,0.0,0.0,566268.0,191511898.0,2542569.0,2456794.0,5000001.0,195312177.0,-494883.0,0.0,188174585.0
2018-12-31,1658398.0,0.0,1658398.0,0.0,0.0,1916016.0,0.0,0.0,202915739.0,170535.0,202915739.0,204831755.0,429246.0,0.0,437886.0,0.0,0.0,0.0,0.0,0.0,1764.0,199831754.0,2908557.0,2090840.0,5000001.0,202915739.0,-1658398.0,0.0,199392104.0
2017-12-31,2090074.0,0.0,2090074.0,0.0,0.0,2307174.0,0.0,0.0,200119137.0,0.0,200119137.0,202426311.0,111964.0,0.0,156239.0,0.0,0.0,0.0,3635.0,0.0,0.0,197426310.0,5030521.0,-31193.0,5000001.0,200119137.0,-2090074.0,0.0,197270071.0
