,0,1,2,3,4,5,6,7,8,9,10,11,12,13,14
Date,Depreciation & Amortization,Stock-based compensation,Operating Cash Flow,Capital Expenditure,Acquisitions and disposals,Investment purchases and sales,Investing Cash flow,Issuance (repayment) of debt,Issuance (buybacks) of shares,Dividend payments,Financing Cash Flow,Effect of forex changes on cash,Net cash flow / Change in cash,Free Cash Flow,Net Cash/Marketcap
2019-12-31,64183000.0,21777000.0,183207000.0,0.0,-0.0,491243000.0,-126587000.0,-6910000.0,-637000.0,-0.0,200676000.0,0.0,58171000.0,183207000.0,0.0
2018-12-31,66799000.0,8831000.0,200433000.0,0.0,-0.0,109446000.0,-342865000.0,-3509000.0,99006000.0,-0.0,58199000.0,0.0,67878000.0,200433000.0,0.0
2017-12-31,52316000.0,18965000.0,11985000.0,0.0,-0.0,135825000.0,-306635000.0,-26330000.0,-2588000.0,-0.0,387905000.0,0.0,76674000.0,11985000.0,0.0
2016-12-31,54845000.0,17640000.0,409147000.0,0.0,-0.0,679491000.0,83545000.0,-5927000.0,-4652000.0,-0.0,-448077000.0,0.0,44615000.0,409147000.0,0.0
2015-12-31,-31998000.0,13788000.0,40588000.0,0.0,-0.0,185908000.0,-29847000.0,-2330000.0,-994000.0,-0.0,22000000.0,0.0,108959000.0,40588000.0,0.0
2014-12-31,-50116327.0,14450764.0,208671928.0,0.0,-0.0,186310306.0,-2369462954.0,-30616213.0,182819526.0,-0.0,2158266743.0,0.0,76217974.0,208671928.0,0.0
2013-12-31,21515000.0,2881000.0,475082000.0,-252453000.0,0.0,-860529000.0,-1081868000.0,727829000.0,0.0,0.0,640349000.0,0.0,33563000.0,222629000.0,-2.4887
2012-12-31,3640619.0,2407773.0,-116006932.0,-353356076.0,0.0,651174024.0,288106414.0,-128016992.0,0.0,0.0,-211272029.0,0.0,-39172547.0,-469363008.0,-2.4887
2011-12-31,1043732.0,150696.0,340302072.0,-5187417.0,0.0,-306568018.0,-330377485.0,-224078988.0,0.0,0.0,-12564197.0,0.0,-2639610.0,335114655.0,-2.4887
