,0,1,2,3,4,5,6,7,8,9,10,11,12,13,14,15,16,17,18,19,20,21,22,23,24,25,26,27,28,29,30
Date,Revenue,Revenue Growth,Cost of Revenue,Gross Profit,R&D Expenses,SG&A Expense,Operating Expenses,Operating Income,Interest Expense,Earnings before Tax,Income Tax Expense,Net Income - Non-Controlling int,Net Income - Discontinued ops,Net Income,Preferred Dividends,Net Income Com,EPS,EPS Diluted,Weighted Average Shs Out,Weighted Average Shs Out (Dil),Dividend per Share,Gross Margin,EBITDA Margin,EBIT Margin,Profit Margin,Free Cash Flow margin,EBITDA,EBIT,Consolidated Income,Earnings Before Tax Margin,Net Profit Margin
2019-01-31,99011000.0,0.031504266202700006,65105000.0,33906000.0,182000.0,0.0,30341000.0,3565000.0,125000.0,3481000.0,2022000.0,0.0,0.0,1459000.0,0.0,1459000.0,0.18,0.18,8111458.0,8170401.0,0.0,0.342446798841,0.045752492147300004,0.0360061003323,0.0147357364333,-0.0133116522407,4530000.0,3565000.0,1459000.0,0.0351577097494,0.0147357364333
2018-01-31,95987000.0,0.11375793369899999,59784000.0,36203000.0,280000.0,0.0,27726000.0,8477000.0,163000.0,8343000.0,7903000.0,0.0,0.0,440000.0,0.0,440000.0,0.06,0.06,7638264.0,7691553.0,0.0,0.37716565784999995,0.0963880525488,0.08831404252660001,0.004583954077109999,-0.00267744590413,9252000.0,8477000.0,440000.0,0.0869180201486,0.004583954077109999
2017-01-31,86183000.0,-0.135108283323,54546000.0,31637000.0,463000.0,0.0,24790000.0,6847000.0,620000.0,6273000.0,2380000.0,0.0,0.0,3893000.0,0.0,3893000.0,0.54,0.53,7257553.0,7327248.0,0.0,0.367090957613,0.09330146316560001,0.0794472227702,0.0451713214903,0.12856363784000002,8041000.0,6847000.0,3893000.0,0.0727869765499,0.0451713214903
2016-01-31,99646000.0,-0.0008797824736229999,63313000.0,36333000.0,165000.0,0.0,24521000.0,11812000.0,785000.0,10907000.0,3117000.0,0.0,0.0,3854000.0,0.0,3854000.0,0.54,0.53,7171965.0,7254340.0,0.0,0.364620757481,0.128434658692,0.11853963029100001,0.038676916283599996,-0.0136282439837,12798000.0,11812000.0,3854000.0,0.10945747947699999,0.038676916283599996
2015-01-31,99733744.0,0.0913615677111,66021795.0,33711949.0,90000.0,15294667.0,28754547.0,4957402.0,2352201.0,61344.0,-8337360.0,0.0,0.0,8398704.0,0.0,8398704.0,1.35,1.33,6214303.0,6325525.0,0.0,0.338019487166,0.0630882061341,0.0497063661823,0.0842112575258,0.0243068083356,6292023.0,4957402.0,8398704.0,0.000615077681231,0.0842112575258
2014-01-31,91384695.0,-0.0392445393273,66551354.0,24833341.0,123000.0,13394547.0,25192350.0,-359009.0,2186450.0,-2970892.0,-2851391.0,0.0,0.0,-119501.0,0.0,-119501.0,-0.02,-0.02,5689230.0,5689230.0,0.29881020805999997,0.271745077225,0.016510160700299998,-0.0039285462407,-0.00130766973616,-0.0515432917952,1508776.0,-359009.0,-119501.0,-0.0325097326199,-0.00130766973616
2013-01-31,95117539.0,-0.0442144740943,67790106.0,27327433.0,242000.0,15209236.0,28357601.0,-1030168.0,913446.0,-20731198.0,5035764.0,0.0,0.0,-26288669.0,0.0,-26288669.0,-4.97,-4.97,5290332.0,5290332.0,0.0,0.287301724659,0.00547424802486,-0.0108304736522,-0.27638087861,0.00844044125238,520697.0,-1030168.0,-26288669.0,-0.217953473334,-0.27638087861
2012-01-31,99517660.0,0.0,69428545.0,30089115.0,0.0,14198487.0,25973070.0,4116046.0,338041.0,2287185.0,891926.0,0.0,0.0,971999.0,0.0,971999.0,0.18,0.18,5440364.0,5520541.0,0.0,0.302349502591,0.061221716829,0.0413599556099,0.009767100633190001,-0.0273881037798,6092642.0,4116046.0,971999.0,0.0229827047782,0.009767100633190001
2011-01-31,99517660.0,0.057114873836,69428545.0,30089115.0,0.0,25973070.0,25973070.0,4116045.0,338041.0,1863925.0,891926.0,0.0,423260.0,971999.0,0.0,971999.0,0.18,0.18,5442868.0,5440364.0,0.0,0.3023,0.042,0.0221,0.01,-0.0274,4178562.0,2201966.0,971999.0,0.0187,0.0098
2010-01-31,94140819.0,-0.0795,68735076.0,25405743.0,0.0,22948236.0,22948236.0,2457507.0,1111456.0,1435653.0,405861.0,0.0,0.0,1029792.0,0.0,1029792.0,0.19,0.19,5437534.0,5426784.0,0.0,0.2699,0.046,0.0271,0.011000000000000001,0.1857,4291222.0,2547109.0,1029792.0,0.0153,0.0109
