,0,1,2,3,4,5,6,7,8,9,10,11,12,13,14,15,16,17,18,19,20,21,22,23,24,25,26,27,28,29,30
Date,Revenue,Revenue Growth,Cost of Revenue,Gross Profit,R&D Expenses,SG&A Expense,Operating Expenses,Operating Income,Interest Expense,Earnings before Tax,Income Tax Expense,Net Income - Non-Controlling int,Net Income - Discontinued ops,Net Income,Preferred Dividends,Net Income Com,EPS,EPS Diluted,Weighted Average Shs Out,Weighted Average Shs Out (Dil),Dividend per Share,Gross Margin,EBITDA Margin,EBIT Margin,Profit Margin,Free Cash Flow margin,EBITDA,EBIT,Consolidated Income,Earnings Before Tax Margin,Net Profit Margin
2019-12-31,3250326000.0,-0.029818304686500003,2671557000.0,578769000.0,0.0,252179000.0,252179000.0,326120000.0,167331000.0,94398000.0,80656000.0,0.0,0.0,938484000.0,208000.0,938484000.0,4.23,4.22,221928000.0,221928000.0,0.0,0.178064907951,0.197564490454,0.100334551057,0.288735345316,0.056649086891599996,642149000.0,326120000.0,938484000.0,0.0290426252628,0.288735345316
2018-12-31,3350224000.0,-0.23475732807900002,2746868000.0,603356000.0,0.0,299264000.0,299264000.0,290982000.0,235235000.0,-4730000.0,133160000.0,0.0,0.0,370067000.0,62825000.0,370067000.0,1.79,1.73,212769000.0,212769000.0,0.052183353778,0.18009422653499998,0.158490894937,0.08685449092360001,0.110460375187,0.047403397504199994,530980000.0,290982000.0,370067000.0,-0.0014118458944800002,0.110460375187
2017-12-31,4377989000.0,0.325914392598,3665134000.0,712855000.0,0.0,315471000.0,315471000.0,356787000.0,362904000.0,26799000.0,-66813000.0,0.0,0.0,91465000.0,298497000.0,91465000.0,-1.2,-1.2,172409000.0,172409000.0,0.11235492346699999,0.162827042279,0.141966779725,0.0814956364669,0.0208920122915,-0.0327335221719,621529000.0,356787000.0,91465000.0,0.0061213036396400005,0.0208920122915
2016-12-31,3301864000.0,-0.230632256663,2788691000.0,513173000.0,0.0,222496000.0,222039000.0,291134000.0,390391000.0,406287000.0,34440000.0,-5661000.0,-33446000.0,371847000.0,1537000.0,370310000.0,2.78,2.76,133000000.0,168404479.0,0.0,0.1554,0.322,0.2413,0.11199999999999999,-0.0145,1061557000.0,796678000.0,366186000.0,0.12300000000000001,0.1126
2015-12-31,4291659000.0,-0.027866786327999996,3760016000.0,531643000.0,0.0,194686000.0,194491000.0,337152000.0,398042000.0,-198518000.0,117730000.0,403000.0,0.0,-316248000.0,6173000.0,-322421000.0,-2.44,-2.44,168000000.0,,0.0,0.1239,0.11199999999999999,0.0465,-0.075,-0.0404,482470000.0,199524000.0,-315845000.0,-0.0463,-0.0737
2014-12-31,4414682000.0,0.127955091123,3838179000.0,576503000.0,0.0,151215000.0,278187000.0,298316000.0,385754000.0,-197351000.0,-39060000.0,-4162000.0,0.0,-158291000.0,0.0,-158291000.0,-1.24,-1.24,,,0.0,0.1306,0.10800000000000001,0.0427,-0.036000000000000004,-0.0334,476734000.0,188403000.0,-162453000.0,-0.0447,-0.0359
2013-12-31,3913881000.0,,3418449000.0,495432000.0,0.0,141197000.0,167280000.0,328152000.0,350196000.0,21568000.0,91246000.0,-15398000.0,-5146000.0,-69678000.0,0.0,-69678000.0,-0.6,-0.6,,,0.0,0.1266,0.157,0.095,-0.018000000000000002,-0.04,614489000.0,371764000.0,-85076000.0,0.0055,-0.0178
