,0,1,2,3,4,5,6,7,8,9,10,11,12,13,14,15,16,17,18,19,20,21,22,23,24,25,26,27,28
Date,Cash and cash equivalents,Short-term investments,Cash and short-term investments,Receivables,Inventories,Total current assets,Property Plant & Equipment Net,Goodwill and Intangible Assets,Long-term investments,Tax assets,Total non-current assets,Total assets,Payables,Short-term debt,Total current liabilities,Long-term debt,Total debt,Deferred revenue,Tax Liabilities,Deposit Liabilities,Total non-current liabilities,Total liabilities,Other comprehensive income,Retained earnings (deficit),Total shareholders equity,Investments,Net Debt,Other Assets,Other Liabilities
2019-12-31,31458000.0,0.0,31458000.0,16025000.0,160864000.0,211672000.0,86876000.0,107833000.0,0.0,326000.0,194964000.0,406636000.0,23855000.0,5993000.0,174733000.0,15573000.0,21566000.0,0.0,0.0,0.0,32023000.0,331206000.0,78871999.9999,-3442000.0,75430000.0,0.0,-9892000.0,0.0,124450000.0
2018-12-31,26603000.0,0.0,26603000.0,16967000.0,167378000.0,216744000.0,78043000.0,106951000.0,0.0,2630000.0,185352000.0,402096000.0,22599000.0,4408000.0,172400000.0,19013000.0,23421000.0,0.0,0.0,2511000.0,37730000.0,325646000.0,80605999.9999,-4156000.0,76450000.0,0.0,-3182000.0,0.0,115516000.0
2017-12-31,13292000.0,0.0,13292000.0,19911000.0,114170000.0,149435000.0,45669000.0,51078000.0,0.0,1327000.0,100665000.0,246545000.0,25181000.0,107441000.0,134825000.0,60887000.0,164187000.0,0.0,0.0,0.0,64722000.0,195712000.0,0.0,1085000.0,50833000.0,0.0,155036000.0,2062000.0,2203000.0
2017-11-30,31000.0,0.0,31000.0,0.0,0.0,310000.0,0.0,0.0,29194000.0,,,29504000.0,410000.0,0.0,1092000.0,0.0,,,,,,1092000.0,,-1139000.0,28413000.0,0.0,160029000.0,4568000.0,682000.0
2016-12-31,4158000.0,0.0,4158000.0,13686000.0,124067000.0,146479000.0,48448000.0,51822000.0,0.0,,,247144000.0,23037000.0,101018000.0,125388000.0,63169000.0,,,,,,190110000.0,,7783000.0,57034000.0,0.0,,,1333000.0
2016-11-30,64000.0,0.0,64000.0,0.0,0.0,323000.0,0.0,0.0,40651000.0,,,40974000.0,19000.0,0.0,21000.0,0.0,,,,,,21000.0,,-417000.0,40953000.0,0.0,,,2000.0
2015-11-30,0.0,,0.0,0.0,0.0,26000.0,,,0.0,,,480000.0,153000.0,,513000.0,0.0,,,,,,513000.0,,-58000.0,-33000.0,,,,
