,0,1,2,3,4,5,6,7,8,9,10,11,12,13,14,15,16,17,18,19,20,21,22,23,24,25,26,27,28,29,30
Date,Revenue,Revenue Growth,Cost of Revenue,Gross Profit,R&D Expenses,SG&A Expense,Operating Expenses,Operating Income,Interest Expense,Earnings before Tax,Income Tax Expense,Net Income - Non-Controlling int,Net Income - Discontinued ops,Net Income,Preferred Dividends,Net Income Com,EPS,EPS Diluted,Weighted Average Shs Out,Weighted Average Shs Out (Dil),Dividend per Share,Gross Margin,EBITDA Margin,EBIT Margin,Profit Margin,Free Cash Flow margin,EBITDA,EBIT,Consolidated Income,Earnings Before Tax Margin,Net Profit Margin
2018-12-31,11957900000.0,-8.36260244188e-06,3246100000.0,8711800000.0,0.0,2049100000.0,3766300000.0,839100000.0,1478700000.0,161800000.0,1573300000.0,0.0,0.0,725300000.0,0.0,725300000.0,-1.97,-1.97,778675957.0,778675957.0,0.0,0.728539292016,0.39753635671800003,0.0701711839035,0.0606544627401,0.377164886811,4753700000.0,839100000.0,725300000.0,0.013530803903700001,0.0606544627401
2018-12,11958000000.0,-0.205390427207,4963000000.0,6995000000.0,,2049000000.0,5907000000.0,1087000000.0,1479000000.0,162000000.0,1573000000.0,,,725000000.0,,725000000.0,-1.97,-1.97,779000000.0,779000000.0,,0.5849640408095,0.45985950827898,0.31585549422979997,0.060628867703629005,,5499000000.0,3777000000.0,725000000.0,0.013547415955844999,0.060628867703629005
2017-12-31,15048900000.0,-6.64495979799e-06,3449400000.0,11599500000.0,0.0,2476000000.0,4687800000.0,1947500000.0,1889600000.0,-1556000000.0,309500000.0,0.0,0.0,-2778100000.0,0.0,-2778100000.0,-2.29,-2.29,171846133.0,171846133.0,0.0,0.7707872336180001,0.456657961711,0.12941145199999998,-0.18460485484,0.24954647848,6872200000.0,1947500000.0,-2778100000.0,-0.10339626152100001,-0.18460485484
2017-12,15049000000.0,-0.24788093239,5661000000.0,9388000000.0,,2476000000.0,7333000000.0,2055000000.0,1890000000.0,-1556000000.0,310000000.0,,,-2778000000.0,,-2778000000.0,-7.15,-7.15,848000000.0,848000000.0,,0.6238288258356,0.34493986311383,-0.038407867632401,-0.18459698318825,,5191000000.0,-578000000.0,-2778000000.0,-0.10339557445677001,-0.18459698318825
2016-12-31,20008800000.0,0.15758171825300002,4606200000.0,15402600000.0,0.0,3566900000.0,6451700000.0,2801300000.0,2638400000.0,549400000.0,-1217900000.0,0.0,0.0,1705300000.0,0.0,1705300000.0,-2.13,-2.13,110868650.0,110868650.0,0.0,0.769791291832,0.433324337292,0.14000339850500002,0.0852274999,0.164487625445,8670300000.0,2801300000.0,1705300000.0,0.0274579185159,0.0852274999
2016-12,17285000000.0,-0.0544310722101,6375000000.0,10910000000.0,,3028000000.0,8233000000.0,2677000000.0,2324000000.0,648000000.0,-1347000000.0,,,1961000000.0,,1961000000.0,2.18,2.16,890000000.0,900000000.0,,0.6311831067399499,0.47358981776106,0.16997396586636,0.11345096904831,,8186000000.0,2938000000.0,1961000000.0,0.037489152444316,0.11345096904831
2015-12-31,18280000000.0,0.0713239172478,0.0,0.0,0.0,3166900000.0,9930900000.0,2349200000.0,2441400000.0,-684600000.0,364900000.0,0.0,0.0,-1152500000.0,0.0,-1152500000.0,0.39,0.39,884040481.0,884040481.0,0.0127822200938,0.0,0.451630196937,0.128512035011,-0.0630470459519,0.175399343545,8255800000.0,2349200000.0,-1152500000.0,-0.037450765864300004,-0.0630470459519
2015-12,17063000000.0,-0.0649539957147,6229000000.0,10834000000.0,,2974000000.0,8579000000.0,2255000000.0,2284000000.0,-777000000.0,324000000.0,,,-1196000000.0,,-1196000000.0,-1.26,-1.26,953000000.0,953000000.0,,0.63494110062709,0.41710133036395,0.082752153783039,-0.07009318408251801,,7117000000.0,1412000000.0,-1196000000.0,-0.04553712711715401,-0.07009318408251801
2014-12-31,18248300000.0,1.64401578255e-05,0.0,0.0,0.0,3172800000.0,9983200000.0,2228200000.0,2544700000.0,-1055900000.0,-75000000.0,0.0,0.0,-695000000.0,0.0,-695000000.0,-0.87,-0.87,798869761.0,798869761.0,0.0146456914145,0.0,0.42812755160800003,0.12210452480499999,-0.0380857394935,0.159949145948,7812600000.0,2228200000.0,-695000000.0,-0.057862924217600004,-0.0380857394935
2014-12,18248000000.0,0.260725981401,6810000000.0,11438000000.0,,3173000000.0,8673000000.0,2765000000.0,2545000000.0,-1056000000.0,-75000000.0,,,-695000000.0,,-695000000.0,-0.77,-0.77,899000000.0,899000000.0,,0.62680841736081,0.38300087680842,0.09727093380096401,-0.038086365629110004,,6989000000.0,1775000000.0,-695000000.0,-0.057869355545812996,-0.038086365629110004
2013-12-31,14474200000.0,0.0,0.0,0.0,0.0,2616500000.0,8034200000.0,2012100000.0,2286900000.0,-526500000.0,355500000.0,0.0,0.0,-963900000.0,0.0,-963900000.0,-2.87,-2.87,336174270.0,336174270.0,1.60065789687,0.0,0.43985159801600004,0.139012864269,-0.0665943540921,0.10016443050400001,6366500000.0,2012100000.0,-963900000.0,-0.0363750673612,-0.0665943540921
