,0,1,2,3,4,5,6,7,8,9,10,11,12,13,14
Date,Depreciation & Amortization,Stock-based compensation,Operating Cash Flow,Capital Expenditure,Acquisitions and disposals,Investment purchases and sales,Investing Cash flow,Issuance (repayment) of debt,Issuance (buybacks) of shares,Dividend payments,Financing Cash Flow,Effect of forex changes on cash,Net cash flow / Change in cash,Free Cash Flow,Net Cash/Marketcap
2019-12-31,75358000.0,16077000.0,269525000.0,58202000.0,-447764000.0,0.0,-503834000.0,-0.0,0.0,-63813000.0,254971000.0,-231000.0,20431000.0,211323000.0,0.0
2018-12-31,67526000.0,14065000.0,156608000.0,119827000.0,-184792000.0,-28695000.0,-302795000.0,-0.0,-28695000.0,-59270000.0,135066000.0,0.0,-11121000.0,36781000.0,0.0
2017-12-31,54727000.0,20036000.0,155083000.0,87221000.0,-60588000.0,0.0,-145875000.0,-0.0,-26049000.0,-51057000.0,-69329000.0,0.0,-60121000.0,67862000.0,0.0
2016-12-31,46167000.0,15420000.0,203407000.0,44671000.0,-48725000.0,0.0,-91707000.0,-0.0,-86170000.0,-34437000.0,-37835000.0,0.0,73865000.0,158736000.0,0.0
2015-12-31,41624000.0,14043000.0,95018000.0,28989000.0,-41058000.0,0.0,-66116000.0,-0.0,-12305000.0,-0.0,-16601000.0,0.0,12301000.0,66029000.0,0.0
2014-12-31,32596000.0,10817000.0,107020000.0,42458000.0,-106782000.0,0.0,-144074000.0,-0.0,-4000.0,-0.0,-29222000.0,0.0,-66276000.0,64562000.0,0.0
2013-12-31,27500000.0,10839000.0,82677000.0,32595000.0,-4750000.0,0.0,-36055000.0,-0.0,-66280000.0,-0.0,9719000.0,0.0,56341000.0,50082000.0,0.0
2012-12-31,25665000.0,6318000.0,72689000.0,32026000.0,-1473000.0,0.0,-28198000.0,-0.0,-9939000.0,-0.0,-41136000.0,0.0,3355000.0,40663000.0,0.0
2011-12-31,20522000.0,4587000.0,36831000.0,24317000.0,-50302000.0,-626000.0,-69124000.0,-0.0,-626000.0,-0.0,-3000.0,0.0,-32296000.0,12514000.0,0.0
2010-12-31,17087000.0,4176000.0,42063000.0,-8360000.0,-21900000.0,8015000.0,-22548000.0,0.0,-1041000.0,-33032000.0,-33000000.0,0.0,-13485000.0,33703000.0,0.0879
2009-12-31,18468000.0,3494000.0,63256000.0,-1740000.0,-1679000.0,-12992000.0,-16445000.0,-8683000.0,0.0,0.0,-3138000.0,0.0,43673000.0,61516000.0,0.1445
