,0,1,2,3,4,5,6,7,8,9,10,11,12,13,14,15,16,17,18,19,20,21,22,23,24,25,26,27,28,29,30
Date,Revenue,Revenue Growth,Cost of Revenue,Gross Profit,R&D Expenses,SG&A Expense,Operating Expenses,Operating Income,Interest Expense,Earnings before Tax,Income Tax Expense,Net Income - Non-Controlling int,Net Income - Discontinued ops,Net Income,Preferred Dividends,Net Income Com,EPS,EPS Diluted,Weighted Average Shs Out,Weighted Average Shs Out (Dil),Dividend per Share,Gross Margin,EBITDA Margin,EBIT Margin,Profit Margin,Free Cash Flow margin,EBITDA,EBIT,Consolidated Income,Earnings Before Tax Margin,Net Profit Margin
2019-12-31,2371482000.0,-0.0421377756828,1832280000.0,539202000.0,0.0,338992000.0,338992000.0,200210000.0,14800000.0,191414000.0,44905000.0,0.0,0.0,146509000.0,0.0,146509000.0,5.86,5.84,24998000.0,25093000.0,2.54305981748,0.227369214694,0.11620075547700001,0.0844240015315,0.0617795117146,0.08911010077239999,275568000.0,200210000.0,146509000.0,0.08071492847089999,0.0617795117146
2018-12-31,2475807000.0,0.15273376572,1955463000.0,520344000.0,0.0,321556000.0,321556000.0,198788000.0,0.0,192352000.0,43801000.0,0.0,0.0,148551000.0,0.0,148551000.0,5.9,5.83,25178000.0,25463000.0,2.32769115972,0.21017147136300002,0.107566542949,0.0802922037138,0.060001042084499995,0.0148561660905,266314000.0,198788000.0,148551000.0,0.0776926472863,0.060001042084499995
2017-12-31,2147770000.0,0.279273666417,1654656000.0,493114000.0,0.0,278833000.0,278833000.0,214281000.0,0.0,212844000.0,79960000.0,0.0,0.0,132884000.0,0.0,132884000.0,5.31,5.24,25020000.0,25375000.0,2.01209852217,0.229593485336,0.125249910372,0.09976906279539999,0.0618706844774,0.0315964931068,269008000.0,214281000.0,132884000.0,0.09909999674080001,0.0618706844774
2016-12-31,1678898000.0,0.196592319962,1249995000.0,428903000.0,0.0,228053000.0,228053000.0,200850000.0,0.0,199172000.0,69501000.0,0.0,0.0,129671000.0,0.0,129671000.0,5.26,5.2,24631000.0,24933000.0,1.3811815666,0.255466978935,0.147130439133,0.119632044353,0.0772357820427,0.0945477330964,247017000.0,200850000.0,129671000.0,0.11863257922800001,0.0772357820427
2015-12-31,1403066000.0,0.17827276529199998,1097064000.0,306002000.0,0.0,186032000.0,186032000.0,116254000.0,0.0,114369000.0,40024000.0,0.0,0.0,74345000.0,0.0,74345000.0,3.06,3.02,24295000.0,24650000.0,0.0,0.218095228592,0.112523573374,0.0828571143481,0.052987528740600004,0.047060508914,157878000.0,116254000.0,74345000.0,0.08151362801180001,0.052987528740600004
2014-12-31,1190782000.0,0.172518846448,935859000.0,254923000.0,0.0,157482000.0,157482000.0,95487000.0,0.0,95057000.0,32791000.0,0.0,0.0,62266000.0,0.0,62266000.0,2.6,2.56,23911000.0,24334000.0,0.0,0.214080327046,0.10756208945000001,0.080188481183,0.0522900077428,0.054218152441,128083000.0,95487000.0,62266000.0,0.0798273739442,0.0522900077428
2013-12-31,1015576000.0,0.127011517851,802467000.0,213109000.0,0.0,132935000.0,132935000.0,78298000.0,0.0,77947000.0,27828000.0,0.0,0.0,50119000.0,0.0,50119000.0,2.15,2.11,23321000.0,23753000.0,0.0,0.209840523998,0.10417536452199999,0.0770971350249,0.0493503194246,0.0493138868977,105798000.0,78298000.0,50119000.0,0.0767515183502,0.0493503194246
2012-12-31,901123000.0,0.32291247654800004,732464000.0,168659000.0,0.0,109071000.0,109071000.0,58132000.0,0.0,57802000.0,20462000.0,0.0,0.0,37340000.0,0.0,37340000.0,1.66,1.64,22558000.0,22828000.0,0.0,0.187165348127,0.0929917447452,0.0645106161978,0.0414371844909,0.045124805381699995,83797000.0,58132000.0,37340000.0,0.0641444064795,0.0414371844909
2011-12-31,681166000.0,0.189279884069,541445000.0,139721000.0,0.0,91252000.0,91252000.0,48548000.0,0.0,48256000.0,18197000.0,0.0,0.0,30059000.0,0.0,30059000.0,1.35,1.34,22267000.0,22444000.0,0.0,0.205120337774,0.10139965882000002,0.0712719072884,0.0441287439479,0.018371439561,69070000.0,48548000.0,30059000.0,0.0708432305782,0.0441287439479
2010-12-31,572755000.0,0.439665291739,446585000.0,126170000.0,0.0,80742000.0,80742000.0,45428000.0,218000.0,45210000.0,17176000.0,0.0,0.0,28034000.0,0.0,28034000.0,1.27,1.26,21974427.0,22123000.0,1.5,0.2203,0.109,0.0793,0.049,0.0588,62515000.0,45428000.0,28034000.0,0.0789,0.0489
2009-12-31,397839000.0,-0.2207,319129000.0,78710000.0,0.0,69489000.0,114529000.0,-35819000.0,789000.0,-36370000.0,-12317000.0,0.0,0.0,-24053000.0,0.0,-24053000.0,-1.1,-1.1,21910233.0,21807000.0,0.0,0.1978,-0.043,-0.0894,-0.06,0.1546,-17113000.0,-35581000.0,-24053000.0,-0.0914,-0.0605
