,0,1,2,3,4,5,6,7,8,9,10,11,12,13,14
Date,Depreciation & Amortization,Stock-based compensation,Operating Cash Flow,Capital Expenditure,Acquisitions and disposals,Investment purchases and sales,Investing Cash flow,Issuance (repayment) of debt,Issuance (buybacks) of shares,Dividend payments,Financing Cash Flow,Effect of forex changes on cash,Net cash flow / Change in cash,Free Cash Flow,Net Cash/Marketcap
2019-12-31,3244000.0,0.0,21968000.0,3934000.0,-0.0,59359000.0,9056000.0,-6055000.0,-6758000.0,-8658000.0,-30299000.0,0.0,725000.0,18034000.0,0.0
2018-12-31,4073000.0,0.0,19742000.0,600000.0,-0.0,32446000.0,-10788000.0,-7214000.0,-283000.0,-7773000.0,-14300000.0,0.0,-5346000.0,19142000.0,0.0
2017-12-31,0.0,0.0,6024000.0,0.0,-0.0,50000.0,-211000.0,-0.0,-25026000.0,-6407000.0,-5996000.0,0.0,-183000.0,6024000.0,0.0
2016-12-31,2557000.0,5000.0,15484000.0,9450000.0,-0.0,84529000.0,-27516000.0,-5349000.0,-18813000.0,-6048000.0,15910000.0,0.0,3878000.0,6034000.0,0.0
2015-12-31,2997000.0,19000.0,13239000.0,504000.0,8993000.0,29700000.0,-65567000.0,-5410000.0,-14921000.0,-5915000.0,51470000.0,0.0,-858000.0,12735000.0,0.0
2014-12-31,2991000.0,24000.0,15940000.0,1052000.0,-9114000.0,36716000.0,-11002000.0,-745000.0,-15787000.0,-5636000.0,-3781000.0,0.0,1157000.0,14888000.0,0.0
2013-12-31,2212000.0,37000.0,10446000.0,858000.0,9771000.0,26496000.0,-587000.0,-3395000.0,12262000.0,-4860000.0,-8646000.0,0.0,1213000.0,9588000.0,0.0
2012-12-31,3072000.0,41000.0,10989000.0,478000.0,-0.0,37669000.0,-5511000.0,7840000.0,-13426000.0,-4016000.0,-11538000.0,0.0,-6060000.0,10511000.0,0.0
2011-12-31,2978000.0,0.0,10657000.0,2578000.0,-0.0,61424000.0,-21212000.0,95000.0,-19342000.0,-4283000.0,19091000.0,0.0,8536000.0,8079000.0,0.0
2010-12-31,2814000.0,40000.0,13800000.0,-1431000.0,0.0,-31125000.0,-31093000.0,5586000.0,0.0,-4280000.0,15666000.0,0.0,-1627000.0,12369000.0,0.0874
2009-12-31,2434000.0,32000.0,8734000.0,-1298000.0,0.0,-86673000.0,-87899000.0,32019000.0,0.0,-4280000.0,73771000.0,0.0,-5394000.0,7436000.0,0.0874
