,0,1,2,3,4,5,6,7,8,9,10,11,12,13,14,15,16,17,18,19,20,21,22,23,24,25,26,27,28,29,30
Date,Revenue,Revenue Growth,Cost of Revenue,Gross Profit,R&D Expenses,SG&A Expense,Operating Expenses,Operating Income,Interest Expense,Earnings before Tax,Income Tax Expense,Net Income - Non-Controlling int,Net Income - Discontinued ops,Net Income,Preferred Dividends,Net Income Com,EPS,EPS Diluted,Weighted Average Shs Out,Weighted Average Shs Out (Dil),Dividend per Share,Gross Margin,EBITDA Margin,EBIT Margin,Profit Margin,Free Cash Flow margin,EBITDA,EBIT,Consolidated Income,Earnings Before Tax Margin,Net Profit Margin
2019-12-31,3515000.0,-0.29530874097800003,412000.0,3103000.0,17948000.0,24031000.0,41979000.0,-38876000.0,0.0,-19234000.0,7407000.0,0.0,0.0,-11709000.0,0.0,-11709000.0,-0.08,-0.08,145533.0,145533.0,0.0,0.8827880512090001,-10.1698435277,-11.0600284495,-3.3311522048400004,-9.21394025605,-35747000.0,-38876000.0,-11709000.0,-5.471977240399999,-3.3311522048400004
2018-12-31,4988000.0,0.44245228455799995,302000.0,4686000.0,20955000.0,24726000.0,46481000.0,-41795000.0,0.0,-47130000.0,-346000.0,0.0,0.0,-45990000.0,0.0,-45990000.0,-0.36,-0.36,126903000.0,126903000.0,0.0,0.939454691259,-7.72293504411,-8.37910986367,-9.22012830794,-6.3027265437,-38522000.0,-41795000.0,-45990000.0,-9.448676824380001,-9.22012830794
2017-12-31,3458000.0,-0.416174236029,168000.0,3290000.0,24024000.0,19922000.0,43946000.0,-38902000.0,0.0,-23289000.0,0.0,0.0,0.0,-19976000.0,0.0,-19976000.0,-0.17,-0.17,114476000.0,114476000.0,0.0,0.951417004049,-10.1116252169,-11.2498554078,-5.7767495662199995,-9.208502024289999,-34966000.0,-38902000.0,-19976000.0,-6.734817813769999,-5.7767495662199995
2016-12-31,5923000.0,-0.158186469585,358000.0,5565000.0,36106000.0,28426000.0,64532000.0,-58967000.0,0.0,18621000.0,0.0,0.0,0.0,33572000.0,0.0,33572000.0,0.35,0.34,97316000.0,99553000.0,0.0,0.939557656593,-8.805166300860002,-9.95559682593,5.66807361135,-7.525578254260001,-52153000.0,-58967000.0,33572000.0,3.14384602397,5.66807361135
2015-12-31,7036000.0,0.341927569479,1107000.0,5929000.0,42604000.0,29134000.0,71738000.0,-65809000.0,0.0,-62650000.0,-4516000.0,0.0,0.0,-46991000.0,-415000.0,-46991000.0,-0.59,-0.59,79711000.0,79711000.0,0.0,0.8426662876629999,-8.38686753837,-9.353183627060002,-6.67865264355,-6.50724843661,-59010000.0,-65809000.0,-46991000.0,-8.904206935760001,-6.67865264355
2014-12-31,5243204.0,0.182410173699,837052.0,4406152.0,37532624.0,17556102.0,55088726.0,-50682574.0,0.0,-51154711.0,-7375611.0,0.0,0.0,-36411660.0,86827.0,-36411660.0,-0.55,-0.55,66466714.0,66466714.0,0.0,0.8403548669859999,-8.01601616111,-9.66633646145,-6.944543832360001,-7.502530323060001,-42029608.0,-50682574.0,-36411660.0,-9.75638388283,-6.944543832360001
2013-12-31,4434336.0,0.132558276742,792659.0,3641677.0,26609423.0,15558674.0,59626863.0,-55985186.0,0.0,-56189821.0,-3280695.0,0.0,0.0,-43882835.0,0.0,-43882835.0,-0.81,-0.81,54226219.0,54226219.0,0.0,0.821245165003,-11.8848235677,-12.625382018900002,-9.89614566871,-7.16810386042,-52701301.0,-55985186.0,-43882835.0,-12.6715298525,-9.89614566871
2012-12-31,3915327.0,-0.100909073791,434271.0,3481056.0,18116688.0,10365045.0,28481733.0,-25000677.0,0.0,-21362524.0,0.0,0.0,0.0,-21425703.0,0.0,-21425703.0,-0.44,-0.44,49213687.0,49213687.0,0.0,0.889084360004,-5.60112399296,-6.38533563097,-5.47226400247,-5.12864647065,-21930232.0,-25000677.0,-21425703.0,-5.45612767465,-5.47226400247
2011-12-31,4354762.0,0.174417707789,0.0,0.0,-13699691.0,-9341502.0,23041193.0,-18686431.0,0.0,-17535587.0,0.0,0.0,0.0,-16515500.0,0.0,-16515500.0,-0.35,-0.35,47486941.0,47486941.0,0.0,0.0,-3.6226085375,-4.2910338154000005,-3.7925149526,-3.34213373773,-15775598.0,-18686431.0,-16515500.0,-4.0267612788,-3.7925149526
2010-12-31,3708018.0,0.926075023063,27718.0,3680300.0,8191314.0,5341119.0,13532433.0,-9852133.0,124300.0,-11184618.0,0.0,-1002589.0,0.0,-11184618.0,0.0,-11184618.0,-0.28,-0.28,47596130.0,40266311.0,0.0,0.9925,-2.7319999999999998,-2.9828,-3.016,-2.1434,-10131542.0,-11060318.0,-12187207.0,-3.0163,-3.0163
2009-12-31,1925168.0,0.2802,0.0,1925168.0,3181729.0,2263705.0,5445434.0,-3520266.0,1653755.0,-5144499.0,0.0,590.0,0.0,-5144499.0,0.0,-5144499.0,-0.18,-0.18,33305817.0,29295608.0,0.0,1.0,-1.795,-1.8132,-2.6719999999999997,-2.2446,-3456153.0,-3490744.0,-5143909.0,-2.6722,-2.6722
