,0,1,2,3,4,5,6,7,8,9,10,11,12,13,14
Date,Depreciation & Amortization,Stock-based compensation,Operating Cash Flow,Capital Expenditure,Acquisitions and disposals,Investment purchases and sales,Investing Cash flow,Issuance (repayment) of debt,Issuance (buybacks) of shares,Dividend payments,Financing Cash Flow,Effect of forex changes on cash,Net cash flow / Change in cash,Free Cash Flow,Net Cash/Marketcap
2020-01-31,32858000.0,8690000.0,27289000.0,38878000.0,-0.0,0.0,-37972000.0,-99550000.0,0.0,-0.0,-105913000.0,540000.0,-116056000.0,-11589000.0,0.0
2019-02-01,29313000.0,6161000.0,48200000.0,44852000.0,-0.0,0.0,-44396000.0,-5150000.0,0.0,-0.0,-5753000.0,-635000.0,-2584000.0,3348000.0,0.0
2018-02-02,26814000.0,3951000.0,28437000.0,38145000.0,-0.0,0.0,-37133000.0,-5150000.0,-195581000.0,-0.0,-7412000.0,-1419000.0,-17527000.0,-9708000.0,0.0
2017-01-27,20715000.0,2230000.0,23693000.0,33319000.0,-0.0,0.0,-33272000.0,-5150000.0,-213108000.0,-0.0,-5150000.0,-531000.0,-15260000.0,-9626000.0,0.0
2016-01-29,19140000.0,2395000.0,35891000.0,22224000.0,-0.0,0.0,-22224000.0,-5150000.0,-228368000.0,-0.0,-5150000.0,-1603000.0,6914000.0,13667000.0,0.0
2015-01-30,21266000.0,2118000.0,211121000.0,16608000.0,-0.0,0.0,-16608000.0,-3862000.0,-221454000.0,-500000000.0,8186000.0,-3656000.0,199043000.0,194513000.0,0.0
2014-01-31,21599000.0,0.0,114919000.0,-9873000.0,0.0,0.0,-9873000.0,0.0,0.0,0.0,-110936000.0,44000.0,-5846000.0,105046000.0,0.024
2013-02-01,23121000.0,0.0,96248000.0,-14978000.0,0.0,0.0,-14896000.0,0.0,0.0,0.0,-68799000.0,90000.0,12643000.0,81270000.0,0.024
2012-01-27,22686000.0,0.0,14510000.0,-15119000.0,0.0,0.0,-15013000.0,0.0,0.0,0.0,-5313000.0,383000.0,-5433000.0,-609000.0,0.024
