,0,1,2,3,4,5,6,7,8,9,10,11,12,13,14
Date,Depreciation & Amortization,Stock-based compensation,Operating Cash Flow,Capital Expenditure,Acquisitions and disposals,Investment purchases and sales,Investing Cash flow,Issuance (repayment) of debt,Issuance (buybacks) of shares,Dividend payments,Financing Cash Flow,Effect of forex changes on cash,Net cash flow / Change in cash,Free Cash Flow,Net Cash/Marketcap
2019-09-29,29332000.0,1638000.0,57676000.0,5901000.0,-0.0,0.0,-10933000.0,-41832000.0,-8645000.0,-0.0,-43478000.0,0.0,3265000.0,51775000.0,0.0
2018-09-30,31766000.0,1857000.0,59296000.0,6025000.0,-0.0,0.0,-72000.0,-73526000.0,-5380000.0,-0.0,-64465000.0,0.0,-5241000.0,53271000.0,0.0
2017-09-24,41282000.0,2088000.0,72281000.0,4078000.0,-7450000.0,0.0,-9455000.0,-73782000.0,-10621000.0,-0.0,-69189000.0,0.0,-6363000.0,68203000.0,0.0
2016-09-25,43441000.0,2306000.0,79190000.0,7091000.0,-0.0,0.0,34508000.0,-112455000.0,-16984000.0,-0.0,-107848000.0,0.0,5850000.0,72099000.0,0.0
2015-09-27,45563000.0,1971000.0,74476000.0,9707000.0,-0.0,0.0,-208000.0,-83878000.0,-11134000.0,-0.0,-79838000.0,0.0,-5570000.0,64769000.0,0.0
2014-09-28,49567000.0,1481000.0,82075000.0,13661000.0,-0.0,0.0,-9284000.0,-847750000.0,-16704000.0,-0.0,-73649000.0,0.0,-858000.0,68414000.0,0.0
2013-09-29,60754000.0,1261000.0,90067000.0,9740000.0,-0.0,0.0,-1296000.0,-192350000.0,-17562000.0,-0.0,-99318000.0,0.0,3642000.0,80327000.0,0.0
2012-09-30,69836000.0,1080000.0,80520000.0,8040000.0,-0.0,0.0,-981000.0,-1065455000.0,-13920000.0,-0.0,-93068000.0,0.0,-9635000.0,72480000.0,0.0
2011-09-25,70787000.0,1287000.0,102604000.0,7745000.0,-0.0,0.0,665000.0,-137330000.0,-23555000.0,-0.0,-99136000.0,0.0,4133000.0,94859000.0,0.0
2010-09-26,71924000.0,1974000.0,107134000.0,-8835000.0,-383000.0,0.0,-8253000.0,-86745000.0,-166000.0,0.0,-87364000.0,0.0,11517000.0,98299000.0,-9.5658
2009-09-27,79599000.0,3013000.0,74057000.0,-11555000.0,3607000.0,118332000.0,108985000.0,-164040000.0,49000.0,-8539000.0,-198591000.0,0.0,-15554000.0,62502000.0,-11.9883
