,0,1,2,3,4,5,6,7,8,9,10,11,12,13,14,15,16,17,18,19,20,21,22,23,24,25,26,27,28,29,30
Date,Revenue,Revenue Growth,Cost of Revenue,Gross Profit,R&D Expenses,SG&A Expense,Operating Expenses,Operating Income,Interest Expense,Earnings before Tax,Income Tax Expense,Net Income - Non-Controlling int,Net Income - Discontinued ops,Net Income,Preferred Dividends,Net Income Com,EPS,EPS Diluted,Weighted Average Shs Out,Weighted Average Shs Out (Dil),Dividend per Share,Gross Margin,EBITDA Margin,EBIT Margin,Profit Margin,Free Cash Flow margin,EBITDA,EBIT,Consolidated Income,Earnings Before Tax Margin,Net Profit Margin
2018-12-31,4269500000.0,0.08258532379939999,3380800000.0,888700000.0,0.0,425100000.0,445600000.0,384400000.0,60900000.0,384400000.0,78300000.0,0.0,0.0,306100000.0,0.0,306100000.0,2.28,2.26,134300000.0,135200000.0,1.43269230769,0.208150837335,0.121911230823,0.09003396182219998,0.07169457781939999,0.065745403443,520500000.0,384400000.0,306100000.0,0.09003396182219998,0.07169457781939999
2017-12-31,3943800000.0,0.051708045547900004,3075900000.0,867900000.0,0.0,403600000.0,424300000.0,432000000.0,43500000.0,432000000.0,138400000.0,0.0,0.0,292600000.0,0.0,292600000.0,2.15,2.13,136000000.0,137300000.0,1.35178441369,0.22006694051399997,0.141462548811,0.109539023277,0.0741924032659,0.07208783406870001,557900000.0,432000000.0,292600000.0,0.109539023277,0.0741924032659
2016-12-31,3749900000.0,-0.04270907791280001,2850700000.0,899200000.0,0.0,396800000.0,416700000.0,487100000.0,38800000.0,487100000.0,120000000.0,0.0,0.0,385800000.0,0.0,385800000.0,2.8,2.76,137900000.0,140000000.0,1.26714285714,0.23979306114799998,0.160670951225,0.129896797248,0.10288274354,0.114296381237,602500000.0,487100000.0,385800000.0,0.129896797248,0.10288274354
2015-12-31,3917200000.0,0.0356661290749,2994000000.0,923200000.0,0.0,416900000.0,437700000.0,449800000.0,41100000.0,449800000.0,121800000.0,0.0,0.0,325100000.0,0.0,325100000.0,2.31,2.28,140900000.0,142900000.0,1.20083974808,0.2356785459,0.143725109772,0.114826917186,0.0829929541509,0.0653272745839,563000000.0,449800000.0,325100000.0,0.114826917186,0.0829929541509
2014-12-31,3782300000.0,0.009690336358780001,2991900000.0,790400000.0,0.0,449600000.0,469300000.0,295500000.0,41800000.0,295500000.0,70300000.0,0.0,0.0,98000000.0,0.0,98000000.0,0.69,0.68,141400000.0,143200000.0,1.16969273743,0.208973375988,0.10929857494100001,0.07812706554210001,0.0259101604844,0.0760912672184,413400000.0,295500000.0,98000000.0,0.07812706554210001,0.0259101604844
2013-12-31,3746000000.0,0.0067727370458,2998800000.0,747200000.0,0.0,394800000.0,420800000.0,247800000.0,44700000.0,247800000.0,55000000.0,0.0,0.0,197300000.0,0.0,197300000.0,1.36,1.34,145200000.0,147300000.0,0.847929395791,0.19946609717,0.0988788040577,0.066150560598,0.052669514148399994,0.08977576081150002,370400000.0,247800000.0,197300000.0,0.066150560598,0.052669514148399994
2012-12-31,3720800000.0,0.0233223322332,2972800000.0,748000000.0,0.0,380400000.0,406100000.0,304400000.0,43400000.0,304400000.0,56300000.0,0.0,0.0,248200000.0,0.0,248200000.0,1.72,1.7,144300785.0,145963312.0,1.36678181158,0.201032036121,0.113013330467,0.08181036336269999,0.066706084713,0.101779187272,420500000.0,304400000.0,248200000.0,0.08181036336269999,0.066706084713
2011-12-31,3636000000.0,0.08243279449850001,2970700000.0,665300000.0,0.0,382100000.0,400900000.0,206200000.0,38300000.0,206200000.0,49800000.0,0.0,0.0,153300000.0,0.0,153300000.0,1.05,1.04,145412069.0,146999757.0,1.0605459708299998,0.18297579758000002,0.0888613861386,0.056710671067099996,0.0421617161716,0.0698294829483,323100000.0,206200000.0,153300000.0,0.056710671067099996,0.0421617161716
2010-12-31,3359100000.0,0.09950574449280002,2703700000.0,655400000.0,0.0,354300000.0,374100000.0,255500000.0,37700000.0,255500000.0,71900000.0,0.0,0.0,176600000.0,0.0,176600000.0,1.17,1.15,0.0,0.0,0.0,0.195111785895,0.11261945163899999,0.0760620404275,0.0525736060254,0.08776160281030002,378300000.0,255500000.0,176600000.0,0.0760620404275,0.0525736060254
2009-12-31,3055100000.0,-0.2505,2425400000.0,629700000.0,0.0,363000000.0,383700000.0,246000000.0,37400000.0,189100000.0,77300000.0,3200000.0,6100000.0,111800000.0,0.0,111800000.0,0.7,0.7,152108042.0,152108042.0,1.02,0.2061,0.11699999999999999,0.0741,0.037000000000000005,0.1579,356800000.0,226500000.0,115000000.0,0.0619,0.0366
