,0,1,2,3,4,5,6,7,8,9,10,11,12,13,14,15,16,17,18,19,20,21,22,23,24,25,26,27,28,29,30
Date,Revenue,Revenue Growth,Cost of Revenue,Gross Profit,R&D Expenses,SG&A Expense,Operating Expenses,Operating Income,Interest Expense,Earnings before Tax,Income Tax Expense,Net Income - Non-Controlling int,Net Income - Discontinued ops,Net Income,Preferred Dividends,Net Income Com,EPS,EPS Diluted,Weighted Average Shs Out,Weighted Average Shs Out (Dil),Dividend per Share,Gross Margin,EBITDA Margin,EBIT Margin,Profit Margin,Free Cash Flow margin,EBITDA,EBIT,Consolidated Income,Earnings Before Tax Margin,Net Profit Margin
2018-11-30,20571631000.0,0.626683319673,429759000.0,20141872000.0,0.0,343934000.0,343934000.0,2262684000.0,4462000.0,2262684000.0,545171000.0,0.0,0.0,1695831000.0,429000.0,1695831000.0,5.46,5.44,307968000.0,308565000.0,0.159314893134,0.979109143072,0.113278378365,0.10999050099600001,0.0824354179793,0.0768616742153,2330321000.0,2262684000.0,1695831000.0,0.10999050099600001,0.0824354179793
2017-11-30,12646365000.0,0.154919283554,407078000.0,12239287000.0,0.0,285889000.0,285889000.0,1189611000.0,19209000.0,1189611000.0,417857000.0,0.0,0.0,810480000.0,377000.0,810480000.0,3.38,3.38,237155000.0,237156000.0,0.158579163083,0.967810671288,0.100206422952,0.094067425699,0.0640879810127,0.06998777909699999,1267247000.0,1189611000.0,810480000.0,0.094067425699,0.0640879810127
2016-11-30,10949999000.0,0.155793725317,229769000.0,10720230000.0,0.0,232562000.0,232562000.0,1330469000.0,4626000.0,1330469000.0,417378000.0,0.0,0.0,911844000.0,337000.0,911844000.0,4.13,3.93,218421000.0,230712000.0,0.153108637609,0.9790165277639999,0.127425308441,0.12150402936100001,0.0832734322624,0.03939406752459999,1395307000.0,1330469000.0,911844000.0,0.12150402936100001,0.0832734322624
2015-11-30,9474008000.0,0.217768244271,9100852000.0,373156000.0,0.0,216244000.0,439119000.0,1209616000.0,220147000.0,1209616000.0,390416000.0,0.0,0.0,802894000.0,0.0,802894000.0,3.87,3.46,205189000.0,205189000.0,0.161763057474,0.039387342717,0.134384095939,0.127677325162,0.08474702575719999,-0.0442944527807,1273156000.0,1209616000.0,802894000.0,0.127677325162,0.08474702575719999
2014-11-30,7779812000.0,0.310815075412,0.0,0.0,0.0,177161000.0,426275000.0,969784000.0,201539000.0,969784000.0,341091000.0,0.0,0.0,638916000.0,0.0,638916000.0,3.12,2.8,202209000.0,202209000.0,0.162084773675,0.0,0.132357054386,0.12465391194499999,0.0821248636857,-0.10135052106699999,1029713000.0,969784000.0,638916000.0,0.12465391194499999,0.0821248636857
2013-11-30,5935095000.0,0.445924507139,0.0,0.0,0.0,146060000.0,4876240000.0,681941000.0,214256000.0,681941000.0,177015000.0,0.0,0.0,479674000.0,0.0,479674000.0,2.48,2.15,190473000.0,190473000.0,0.16229071837,0.0,0.123972236333,0.11489976150299999,0.0808199363279,-0.13609116619,735787000.0,681941000.0,479674000.0,0.11489976150299999,0.0808199363279
2012-11-30,4104706000.0,0.326072847158,0.0,0.0,0.0,127338000.0,3482694000.0,222114000.0,181385000.0,222114000.0,-435218000.0,0.0,0.0,679124000.0,0.0,679124000.0,3.58,3.11,186662000.0,186662000.0,0.162829070727,0.0,0.0661789175644,0.0541120362823,0.165450095573,-0.103453937992,271645000.0,222114000.0,679124000.0,0.0541120362823,0.165450095573
2011-11-30,3095385000.0,0.00694952736187,0.0,0.0,0.0,95256000.0,2756662000.0,97974000.0,162970000.0,97974000.0,-14570000.0,0.0,0.0,92199000.0,0.0,92199000.0,0.49,0.48,184541.0,184541.0,162.05612844799998,0.0,0.0452657746936,0.0316516362262,0.029785955543499998,-0.0837165651446,140115000.0,97974000.0,92199000.0,0.0316516362262,0.029785955543499998
2010-11-30,3074022000.0,-0.014542921413700002,0.0,0.0,0.0,93926000.0,2705153000.0,95261000.0,0.0,0.0,0.0,0.0,0.0,95261000.0,0.0,95261000.0,0.0,0.0,0.0,0.0,0.0,0.0,0.03752120186519999,0.0309890430192,0.0309890430192,0.0892082099608,115341000.0,95261000.0,95261000.0,0.0,0.0309890430192
2009-11-30,3119387000.0,-0.3182,3462034000.0,-342647000.0,0.0,117565000.0,117565000.0,-460212000.0,70850000.0,-731492000.0,-314345000.0,-28912000.0,0.0,-417147000.0,0.0,-417147000.0,-2.45,-2.45,183325495.0,183325495.0,0.16,-0.1098,-0.205,-0.2118,-0.134,0.135,-640737000.0,-660642000.0,-446059000.0,-0.2345,-0.1337
