,0,1,2,3,4,5,6,7,8,9,10,11,12,13,14
Date,Depreciation & Amortization,Stock-based compensation,Operating Cash Flow,Capital Expenditure,Acquisitions and disposals,Investment purchases and sales,Investing Cash flow,Issuance (repayment) of debt,Issuance (buybacks) of shares,Dividend payments,Financing Cash Flow,Effect of forex changes on cash,Net cash flow / Change in cash,Free Cash Flow,Net Cash/Marketcap
2019-12-31,7000000.0,1400000.0,11300000.0,100000.0,-0.0,0.0,600000.0,-6100000.0,-130700000.0,-0.0,-35000000.0,0.0,-23100000.0,11200000.0,0.0
2018-12-31,7400000.0,400000.0,-74400000.0,100000.0,-0.0,0.0,400000.0,-6100000.0,-123100000.0,-0.0,-11100000.0,0.0,-85100000.0,-74500000.0,0.0
2017-12-31,12000000.0,500000.0,-25100000.0,500000.0,-0.0,0.0,4200000.0,-3400000.0,-208800000.0,-0.0,-31000000.0,0.0,-51900000.0,-25600000.0,0.0
2016-12-31,13100000.0,500000.0,37700000.0,3000000.0,-0.0,0.0,-1200000.0,-0.0,-260700000.0,-0.0,-9800000.0,0.0,26700000.0,34700000.0,0.0
2015-12-31,13800000.0,400000.0,8500000.0,300000.0,-0.0,0.0,6700000.0,-0.0,-234000000.0,-0.0,0.0,0.0,15200000.0,8200000.0,0.0
2014-12-31,0.0,0.0,0.0,0.0,-0.0,0.0,218800000.0,-0.0,-218800000.0,-0.0,0.0,0.0,218800000.0,0.0,0.0
2013-12-31,27600000.0,2000000.0,81200000.0,0.0,-0.0,0.0,25700000.0,-2200000.0,-314200000.0,-0.0,-85600000.0,0.0,21300000.0,81200000.0,0.0
2012-12-31,37500000.0,5100000.0,142900000.0,4300000.0,-0.0,0.0,124800000.0,-10100000.0,-292900000.0,-0.0,-12400000.0,0.0,255300000.0,138600000.0,0.0
2011-12-31,50100000.0,8000000.0,56300000.0,152800000.0,-0.0,0.0,-163200000.0,-5000000.0,-37600000.0,-0.0,-6500000.0,0.0,-113400000.0,-96500000.0,0.0
2010-12-31,43300000.0,0.0,22500000.0,-162200000.0,-0.0,0.0,-144600000.0,-16400000.0,-151000000.0,-0.0,141800000.0,0.0,19700000.0,184700000.0,0.0
2009-12-31,31900000.0,0.0,443400000.0,-441300000.0,0.0,0.0,-463800000.0,-95700000.0,-400000.0,0.0,-96800000.0,0.0,-117200000.0,2100000.0,-1.0157
