,0,1,2,3,4,5,6,7,8,9,10,11,12,13,14,15,16,17,18,19,20,21,22,23,24,25,26,27,28
Date,Cash and cash equivalents,Short-term investments,Cash and short-term investments,Receivables,Inventories,Total current assets,Property Plant & Equipment Net,Goodwill and Intangible Assets,Long-term investments,Tax assets,Total non-current assets,Total assets,Payables,Short-term debt,Total current liabilities,Long-term debt,Total debt,Deferred revenue,Tax Liabilities,Deposit Liabilities,Total non-current liabilities,Total liabilities,Other comprehensive income,Retained earnings (deficit),Total shareholders equity,Investments,Net Debt,Other Assets,Other Liabilities
2018-12-31,7352966714.9059,1440140742.6793,8793107457.5852,2264544138.9291,0.0,40815958591.41,6842402315.4848,0.0,102919000000.0,181910274.9638,,470970043415.3401,0.0,2252609846.1717,75941434761.1155,2929000000.0,30722286541.2446,6751085383.5022,380607814.7612,0.0,,424184225759.7685,0.0,19250651230.1013,46073950795.9479,439526049204.0521,-3611497611.4135,29758306994.8957,73688824914.9438
2017-12-31,7343712212.8174,5560353438.3404,12904065651.1578,2134371221.2817,0.0,47302343449.8655,6455108827.0859,0.0,95825000000.0,0.0,,437967200725.5139,0.0,0.0,63036650019.2086,2888000000.0,16037333736.3966,2797007255.1391,1673065296.2515,0.0,,388797007255.1391,0.0,21040205562.2733,48508615477.63,407367140266.0218,,,63036650019.2086
2016-12-31,9653851691.8647,6268413852.6892,15922265544.5539,1932469402.4478,0.0,57638130894.9528,4375665946.7243,0.0,114280000000.0,0.0,,388329877609.7912,0.0,0.0,63021959824.3214,7800000000.0,19475305975.522,5075881929.4456,1293304535.6371,0.0,,344032109431.2455,0.0,17646940244.7804,43717926565.8747,359752195824.3341,,,63021959824.3214
2015-12-31,11723309197.3502,3315550073.2403,15038859270.5905,1835310429.8259,0.0,47893300439.4418,4155600061.6238,0.0,111500000000.0,0.0,,377186103836.0807,0.0,0.0,63201911957.4435,10877000000.0,15712679094.1303,4970882760.7456,3435526113.0796,0.0,,326929748883.0689,0.0,18957787706.0545,49682945617.0082,346810660915.1132,,,63201911957.4435
2014-12-31,7593477558.928,,,1802712302.228,0.0,,4092347432.9997,0.0,,0.0,,362700516628.9958,0.0,,,,18840975137.2296,2558927994.8337,3136422344.2041,0.0,,316311914756.2157,0.0,17748950597.3523,45870358411.3658,337550855666.7743,,,
2013-12-31,3516320474.7774,,,1628090999.0109,0.0,,3856412792.6146,0.0,,0.0,,325245796241.3452,0.0,,,,14574843389.3834,1039399934.0587,811737553.5773,0.0,,288551928783.3828,0.0,15667161226.5084,36322288163.5345,305744147708.5394,,,
2012-12-31,11137267479.1533,,,1401218729.9551,0.0,,3581622835.1507,0.0,,0.0,,304508659397.0494,0.0,,,,21885824246.3117,413085311.0969,1259781911.4817,0.0,,268732360487.492,0.0,12891597177.678001,35453014753.0468,279702373316.2284,,,
2011-12-31,8880869289.3401,,,1309168781.7259,0.0,,3209232233.5025,0.0,,0.0,,251254282994.9239,0.0,,,,6819479695.4315,589942893.401,349619289.3401,0.0,,220577252538.0711,0.0,12673540609.1371,30382296954.3147,231167354060.9137,,,
2010-12-31,7250606060.6061,,,1102121212.1212,0.0,,2870606060.6061,0.0,,0.0,,213724090909.0909,0.0,,,,3494696969.697,284848484.8485,1789393939.3939,0.0,,181833939393.9394,0.0,12111060606.0606,31622727272.7273,197443939393.9394,,,
2009-12-31,5302036033.3968,,,998681704.9949,0.0,,2558517650.5053,0.0,,0.0,,179618719789.0728,0.0,,,,4914750256.3351,264244909.9165,2960451149.8462,0.0,,148451882232.3129,0.0,11721107367.8043,30917240369.1226,166729896001.1718,,,
