,0,1,2,3,4,5,6,7,8,9,10,11,12,13,14,15,16,17,18,19,20,21,22,23,24,25,26,27,28,29,30
Date,Revenue,Revenue Growth,Cost of Revenue,Gross Profit,R&D Expenses,SG&A Expense,Operating Expenses,Operating Income,Interest Expense,Earnings before Tax,Income Tax Expense,Net Income - Non-Controlling int,Net Income - Discontinued ops,Net Income,Preferred Dividends,Net Income Com,EPS,EPS Diluted,Weighted Average Shs Out,Weighted Average Shs Out (Dil),Dividend per Share,Gross Margin,EBITDA Margin,EBIT Margin,Profit Margin,Free Cash Flow margin,EBITDA,EBIT,Consolidated Income,Earnings Before Tax Margin,Net Profit Margin
2019-06-30,225958000.0,0.111976142202,37973000.0,187985000.0,1100000.0,69551000.0,178171000.0,9814000.0,323000.0,9230000.0,1801000.0,0.0,0.0,7429000.0,0.0,7429000.0,0.53,0.5,14055000.0,14980000.0,0.0,0.8319466449519999,0.0520052399118,0.043432850352699996,0.032877791448,0.0676364634136,11751000.0,9814000.0,7429000.0,0.0408482992415,0.032877791448
2018-06-30,203204000.0,0.0186225806937,34848000.0,168356000.0,1200000.0,59840000.0,158033000.0,10323000.0,456000.0,9548000.0,3787000.0,0.0,0.0,5761000.0,0.0,5761000.0,0.41,0.41,13992000.0,14136000.0,0.0,0.8285073128479999,0.0574791834806,0.0508011653314,0.028350819865799997,0.042356449676199996,11680000.0,10323000.0,5761000.0,0.0469872640302,0.028350819865799997
2017-06-30,199489000.0,-0.0341386656338,33456000.0,166033000.0,1100000.0,64922000.0,161584000.0,4449000.0,570000.0,2910000.0,1302000.0,0.0,0.0,1608000.0,0.0,1608000.0,0.12,0.11,13881000.0,14118000.0,0.0,0.8322915047949999,0.0306934216924,0.022301981562900003,0.00806059481976,0.0277809804049,6123000.0,4449000.0,1608000.0,0.0145872704761,0.00806059481976
2016-06-30,206540000.0,0.08513365837260001,33932000.0,172608000.0,1000000.0,56074000.0,159194000.0,13414000.0,3321000.0,8684000.0,2665000.0,0.0,0.0,6019000.0,0.0,6019000.0,0.44,0.41,13730000.0,14531000.0,0.0,0.8357122107100001,0.0761305316162,0.06494625738359999,0.029142054807799998,0.0262612568994,15724000.0,13414000.0,6019000.0,0.04204512443109999,0.029142054807799998
2015-06-30,190336000.0,-0.11044642189500001,28010000.0,162326000.0,2400000.0,57353000.0,148427000.0,13899000.0,3087000.0,10653000.0,3666000.0,0.0,0.0,6987000.0,0.0,6987000.0,0.07,0.07,97293000.0,99052000.0,0.0,0.852839189644,0.0874085827169,0.07302349529249999,0.036708767653,0.0633721418964,16637000.0,13899000.0,6987000.0,0.0559694435104,0.036708767653
2014-06-30,213968000.0,0.0278127371768,33194000.0,180774000.0,2000000.0,56801000.0,161326000.0,19448000.0,3177000.0,16655000.0,5272000.0,0.0,0.0,11383000.0,0.0,11383000.0,0.11,0.1,105791000.0,111599000.0,0.0,0.844864652658,0.10210405294199999,0.0908920960144,0.05319954385700001,0.047703394900199994,21847000.0,19448000.0,11383000.0,0.0778387422418,0.05319954385700001
2013-06-30,208178000.0,1.0,31845000.0,171535000.0,2948000.0,154860000.0,159467000.0,12068000.0,3000.0,11153000.0,3545000.0,0.0,0.0,7608000.0,0.0,7608000.0,0.07,0.06,112276000.0,122888000.0,0.0,0.8239823612489999,0.0659387639424,0.05796962215030001,0.0365456484355,0.0268135922144,13727000.0,12068000.0,7608000.0,0.05357434503169999,0.0365456484355
2012-06-30,0.0,-1.0,0.0,0.0,0.0,0.0,0.0,14673000.0,0.0,14673000.0,0.0,0.0,0.0,14673000.0,0.0,14673000.0,0.0,0.0,102695919.0,102695919.0,0.0,0.0,0.0,0.0,0.0,0.0,14673000.0,14673000.0,14673000.0,0.0,0.0
2011-06-30,38919000.0,2.39061163257,5917000.0,33002000.0,509000.0,28576000.0,29300000.0,3702000.0,5948000.0,-50700000.0,92000.0,0.0,0.0,-50792000.0,0.0,-50792000.0,-4.83,-4.83,11310492.0,10453275.0,0.0,0.848,-1.1440000000000001,-1.1499,-1.305,0.1171,-44537000.0,-44752000.0,-50792000.0,-1.3027,-1.3051
2010-06-30,11478460.0,1.77170186009,1905992.0,9572468.0,392691.0,16246827.0,16894420.0,-7321952.0,6828049.0,-11048328.0,0.0,0.0,0.0,-11048328.0,0.0,-11048328.0,-1.33,-1.33,8488565.0,8196204.0,0.0,0.8340000000000001,-0.345,-0.3677,-0.963,-0.3925,-3965377.0,-4220279.0,-11048328.0,-0.9625,-0.9625
2009-06-30,4141304.0,0.2941,852804.0,3288500.0,224366.0,10696182.0,11093578.0,-7805078.0,1309556.0,-9114634.0,0.0,0.0,0.0,-9114634.0,0.0,-9114634.0,-1.61,-1.61,5765793.0,5765793.0,0.0,0.7941,-1.8430000000000002,-1.8847,-2.201,-1.3121,-7632048.0,-7805078.0,-9114634.0,-2.2009,-2.2009
