,0,1,2,3,4,5,6,7,8,9,10,11,12,13,14,15,16,17,18,19,20,21,22,23,24,25,26,27,28,29,30
Date,Revenue,Revenue Growth,Cost of Revenue,Gross Profit,R&D Expenses,SG&A Expense,Operating Expenses,Operating Income,Interest Expense,Earnings before Tax,Income Tax Expense,Net Income - Non-Controlling int,Net Income - Discontinued ops,Net Income,Preferred Dividends,Net Income Com,EPS,EPS Diluted,Weighted Average Shs Out,Weighted Average Shs Out (Dil),Dividend per Share,Gross Margin,EBITDA Margin,EBIT Margin,Profit Margin,Free Cash Flow margin,EBITDA,EBIT,Consolidated Income,Earnings Before Tax Margin,Net Profit Margin
2019-12-31,1838154000.0,0.22185190109,1401675000.0,436479000.0,0.0,77380000.0,77380000.0,227538000.0,0.0,231832000.0,53224000.0,0.0,0.0,178608000.0,0.0,178608000.0,7.7,7.02,23191595.0,25430841.0,0.0,0.237455077213,0.12413595378799999,0.12378614631899999,0.09716704911560001,-0.0228131048868,228181000.0,227538000.0,178608000.0,0.12612218562799998,0.09716704911560001
2018-12-31,1504400000.0,0.19590448027,1124484000.0,379916000.0,0.0,70345000.0,70345000.0,200111000.0,0.0,199098000.0,43812000.0,0.0,0.0,155286000.0,0.0,155286000.0,6.89,6.24,22551762.0,24892274.0,0.0,0.252536559426,0.13348976336100002,0.133017149694,0.103221217761,-0.07758774262160001,200822000.0,200111000.0,155286000.0,0.132343791545,0.103221217761
2017-12-31,1257960000.0,0.500572573719,937540000.0,320420000.0,0.0,55662000.0,55662000.0,169801000.0,0.0,171402000.0,58096000.0,0.0,0.0,113306000.0,0.0,113306000.0,5.24,4.73,21604932.0,23933122.0,0.0,0.254713981367,0.13561003529500001,0.134981239467,0.0900712264301,-0.054427008807899996,170592000.0,169801000.0,113306000.0,0.136253934942,0.0900712264301
2016-12-31,838320000.0,0.330168381368,616707000.0,221613000.0,0.0,43158000.0,43158000.0,111471000.0,0.0,113672000.0,38641000.0,0.0,0.0,75031000.0,0.0,75031000.0,3.61,3.41,20798333.0,22018437.0,0.0,0.264353707415,0.134268537074,0.132969510449,0.08950162229219999,-0.129047380475,112560000.0,111471000.0,75031000.0,0.135594999523,0.08950162229219999
2015-12-31,630236000.0,0.644374171598,463304000.0,166932000.0,0.0,34260000.0,34260000.0,79674000.0,0.0,80280000.0,27450000.0,0.0,0.0,52830000.0,0.0,52830000.0,2.65,2.44,19939761.0,21740719.0,0.0,0.264872206602,0.127820372051,0.126419309592,0.0838257414683,-0.141464467279,80557000.0,79674000.0,52830000.0,0.127380854156,0.0838257414683
2014-12-31,383268000.0,1.35428819859,280481000.0,102787000.0,0.0,23744000.0,23744000.0,42371000.0,0.0,43079000.0,14868000.0,0.0,0.0,28211000.0,0.0,28211000.0,1.37,1.33,20666758.0,21202967.0,0.0,0.26818570817299997,0.11270442614600001,0.11055188536499999,0.0736064581442,-0.45193963492899997,43196000.0,42371000.0,28211000.0,0.112399156726,0.0736064581442
2013-12-31,162795702.0,1.1358379186799998,121325536.0,41470166.0,0.0,13604160.0,13604160.0,16384070.0,50946.0,22803327.0,1066072.0,0.0,0.0,22327073.0,0.0,22327073.0,0.0,0.0,0.0,0.0,0.0,0.25473747458,0.102433177259,0.10064190761,0.137147803816,-0.334704659463,16675681.0,16384070.0,22327073.0,0.14007327417,0.137147803816
2012-12-31,76221000.0,0.510638176005,54531000.0,21690000.0,0.0,13365000.0,13365000.0,8325000.0,1000.0,9860000.0,155000.0,163000.0,0.0,9705000.0,0.0,9705000.0,,0.86,,,0.0,0.2846,0.132,0.1294,0.127,-0.0667,10046000.0,9861000.0,9868000.0,0.1294,0.1273
2011-12-31,50456159.0,,36699505.0,13756654.0,0.0,10009641.0,10009641.0,3747013.0,28152.0,3475310.0,124891.0,1161986.0,0.0,3350419.0,0.0,3350419.0,,,,,0.0,0.2726,0.071,0.0694,0.066,0.1807,3583209.0,3503462.0,4512405.0,0.0689,0.0664
