,0,1,2,3,4,5,6,7,8,9,10,11,12,13,14,15,16,17,18,19,20,21,22,23,24,25,26,27,28
Date,Cash and cash equivalents,Short-term investments,Cash and short-term investments,Receivables,Inventories,Total current assets,Property Plant & Equipment Net,Goodwill and Intangible Assets,Long-term investments,Tax assets,Total non-current assets,Total assets,Payables,Short-term debt,Total current liabilities,Long-term debt,Total debt,Deferred revenue,Tax Liabilities,Deposit Liabilities,Total non-current liabilities,Total liabilities,Other comprehensive income,Retained earnings (deficit),Total shareholders equity,Investments,Net Debt,Other Assets,Other Liabilities
2018-12-31,22962000.0,26583000.0,49545000.0,0.0,0.0,50803000.0,1853000.0,0.0,0.0,0.0,1943000.0,52746000.0,1040000.0,7767000.0,10833000.0,8263000.0,16030000.0,0.0,0.0,0.0,8263000.0,19096000.0,-60000.0,-298701000.0,33650000.0,26583000.0,-33515000.0,1258000.0,2026000.0
2017-12-31,21091000.0,64028000.0,85119000.0,0.0,0.0,86985000.0,2280000.0,0.0,0.0,0.0,2370000.0,89355000.0,2276000.0,5012000.0,10391000.0,14719000.0,19731000.0,0.0,0.0,0.0,14719000.0,25110000.0,-120000.0,-264186000.0,64245000.0,64028000.0,-65388000.0,1866000.0,3103000.0
2016-12-31,38388000.0,33759000.0,72147000.0,0.0,0.0,74768000.0,1421000.0,0.0,4002000.0,0.0,5756000.0,80524000.0,2606000.0,339000.0,8525000.0,9198000.0,9537000.0,0.0,0.0,0.0,9198000.0,17723000.0,-76000.0,-215979000.0,62801000.0,37761000.0,-62610000.0,2621000.0,5580000.0
2015-12-31,53025000.0,42510000.0,95535000.0,0.0,0.0,97950000.0,1793000.0,0.0,29814000.0,0.0,31725000.0,129675000.0,3872000.0,3366000.0,12148000.0,1776000.0,5142000.0,0.0,0.0,0.0,2477000.0,14625000.0,-171000.0,-158124000.0,115050000.0,72324000.0,-90393000.0,2415000.0,4910000.0
2014-12-31,13899000.0,1954000.0,15853000.0,0.0,0.0,16509000.0,1925000.0,0.0,0.0,0.0,4135000.0,20644000.0,1433000.0,5134000.0,10113000.0,5142000.0,10276000.0,0.0,0.0,0.0,101541000.0,111654000.0,0.0,-110151000.0,-91010000.0,1954000.0,-5577000.0,656000.0,3546000.0
2013-12-31,36457000.0,0.0,36457000.0,0.0,0.0,37021000.0,2505000.0,0.0,0.0,0.0,2765000.0,39786000.0,1055000.0,728000.0,5207000.0,6158000.0,6886000.0,0.0,0.0,0.0,100661000.0,105868000.0,0.0,-85801000.0,-68496000.0,0.0,-29571000.0,564000.0,3424000.0
2012-12-31,255547000.0,5726000.0,261273000.0,697228000.0,403488000.0,1625239000.0,844692000.0,6029215000.0,26677000.0,23008000.0,7012826000.0,8638065000.0,186569000.0,253214000.0,1192351000.0,2060855000.0,2314069000.0,114558000.0,28879000.0,0.0,2348278000.0,3985384000.0,3249578000.0,1341846000.0,4652681000.0,32403000.0,2058522000.0,0.0,444755000.0
2011-12-31,0.0,0.0,0.0,0.0,0.0,0.0,0.0,0.0,0.0,0.0,0.0,0.0,0.0,0.0,0.0,0.0,0.0,0.0,0.0,0.0,0.0,0.0,0.0,0.0,0.0,0.0,0.0,0.0,0.0
2010-12-31,0.0,0.0,0.0,0.0,0.0,0.0,0.0,0.0,0.0,0.0,0.0,0.0,0.0,0.0,0.0,0.0,0.0,0.0,0.0,0.0,0.0,0.0,0.0,0.0,0.0,0.0,0.0,0.0,0.0
