,0,1,2,3,4,5,6,7,8,9,10,11,12,13,14,15,16,17,18,19,20,21,22,23,24,25,26,27,28
Date,Cash and cash equivalents,Short-term investments,Cash and short-term investments,Receivables,Inventories,Total current assets,Property Plant & Equipment Net,Goodwill and Intangible Assets,Long-term investments,Tax assets,Total non-current assets,Total assets,Payables,Short-term debt,Total current liabilities,Long-term debt,Total debt,Deferred revenue,Tax Liabilities,Deposit Liabilities,Total non-current liabilities,Total liabilities,Other comprehensive income,Retained earnings (deficit),Total shareholders equity,Investments,Net Debt,Other Assets,Other Liabilities
2018-12-31,631000000.0,44800000.0,675800000.0,607300000.0,0.0,1644800000.0,4236900000.0,5695800000.0,45000000.0,144700000.0,11801800000.0,13446600000.0,297400000.0,302500000.0,1608700000.0,6379600000.0,6682100000.0,161700000.0,29800000.0,0.0,7714500000.0,10334000000.0,4495400000.0,-1367000000.0,3112600000.0,89800000.0,6051100000.0,0.0,1010800000.0
2018-12,631000000.0,,,607000000.0,,1645000000.0,4237000000.0,6861000000.0,0.0,0.0,11802000000.0,13447000000.0,297000000.0,302000000.0,1609000000.0,6380000000.0,6380000000.0,162000000.0,543000000.0,,8725000000.0,10334000000.0,-16000000.0,-1367000000.0,3113000000.0,0.0,6051000000.0,1036000000.0,792000000.0
2017-12-31,529900000.0,2900000.0,532800000.0,556500000.0,0.0,1374800000.0,4169200000.0,6239000000.0,38400000.0,138000000.0,12242100000.0,13616900000.0,286800000.0,263300000.0,1586900000.0,6108200000.0,6371500000.0,192700000.0,91500000.0,0.0,7339400000.0,10287300000.0,4404000000.0,-1010700000.0,3329600000.0,41300000.0,5841600000.0,0.0,1361000000.0
2017-12,530000000.0,,,556000000.0,,1375000000.0,4169000000.0,7556000000.0,0.0,0.0,12242000000.0,13617000000.0,287000000.0,263000000.0,1587000000.0,6108000000.0,6108000000.0,193000000.0,533000000.0,,8700000000.0,10287000000.0,-64000000.0,-1011000000.0,3330000000.0,0.0,5841000000.0,741000000.0,698000000.0
2016-12,553000000.0,,,532000000.0,,1514000000.0,3861000000.0,7537000000.0,95000000.0,0.0,12678000000.0,14192000000.0,219000000.0,151000000.0,1351000000.0,5897000000.0,5897000000.0,181000000.0,0.0,,8588000000.0,9940000000.0,4253000000.0,0.0,4253000000.0,95000000.0,5495000000.0,1528000000.0,1210000000.0
2015-12,274000000.0,,,92000000.0,,439000000.0,844000000.0,893000000.0,0.0,0.0,2828000000.0,3268000000.0,54000000.0,1000000.0,400000000.0,2334000000.0,2334000000.0,46000000.0,0.0,,2662000000.0,3061000000.0,206000000.0,0.0,206000000.0,0.0,2061000000.0,1153000000.0,264000000.0
2014-12,107000000.0,,,125000000.0,,332000000.0,825000000.0,858000000.0,0.0,15000000.0,2439000000.0,2771000000.0,79000000.0,1000000.0,428000000.0,2073000000.0,2073000000.0,44000000.0,0.0,,2323000000.0,2751000000.0,20000000.0,0.0,20000000.0,0.0,1967000000.0,831000000.0,241000000.0
