,0,1,2,3,4,5,6,7,8,9,10,11,12,13,14,15,16,17,18,19,20,21,22,23,24,25,26,27,28,29,30
Date,Revenue,Revenue Growth,Cost of Revenue,Gross Profit,R&D Expenses,SG&A Expense,Operating Expenses,Operating Income,Interest Expense,Earnings before Tax,Income Tax Expense,Net Income - Non-Controlling int,Net Income - Discontinued ops,Net Income,Preferred Dividends,Net Income Com,EPS,EPS Diluted,Weighted Average Shs Out,Weighted Average Shs Out (Dil),Dividend per Share,Gross Margin,EBITDA Margin,EBIT Margin,Profit Margin,Free Cash Flow margin,EBITDA,EBIT,Consolidated Income,Earnings Before Tax Margin,Net Profit Margin
2019-12-31,273342000.0,0.0385334346505,123495000.0,149847000.0,0.0,145176000.0,145176000.0,5238000.0,2963000.0,2283000.0,268000.0,0.0,0.0,2015000.0,0.0,2015000.0,0.08,0.08,24554033.0,24554033.0,0.0,0.5482033496500001,0.0495496484258,0.019162807032900003,0.00737171748213,-0.0160860753196,13544000.0,5238000.0,2015000.0,0.00835217419935,0.00737171748213
2018-12-31,263200000.0,0.005144107571810001,125373000.0,137827000.0,0.0,141244000.0,141244000.0,-3954000.0,2422000.0,-6345000.0,200000.0,0.0,0.0,-6545000.0,0.0,-6545000.0,-0.27,-0.27,24423479.0,24423479.0,0.0,0.52365881459,0.0183738601824,-0.015022796352600001,-0.024867021276599996,-0.0242819148936,4836000.0,-3954000.0,-6545000.0,-0.0241071428571,-0.024867021276599996
2017-12-31,261853000.0,0.329810573358,129413000.0,132440000.0,0.0,138779000.0,138779000.0,-4716000.0,7098000.0,-11758000.0,-274000.0,0.0,0.0,-11484000.0,0.0,-11484000.0,-0.48,-0.48,23906395.0,23906395.0,0.0,0.505779960512,0.0174487212291,-0.0180101049062,-0.0438566676723,-0.0613932244427,4569000.0,-4716000.0,-11484000.0,-0.044903056294900004,-0.0438566676723
2016-12-31,196910000.0,0.0190974019253,94922000.0,101988000.0,0.0,103129000.0,103129000.0,-5163000.0,6001000.0,-4298000.0,200000.0,0.0,0.0,-28304000.0,0.0,-28304000.0,-1.21,-1.21,23453427.0,23453427.0,0.0,0.5179422071,0.03479762327969999,-0.026220100553599995,-0.14374079528699998,-0.0492763191306,6852000.0,-5163000.0,-28304000.0,-0.0218272307145,-0.14374079528699998
2015-12-31,193220000.0,-0.405517164992,92165000.0,101055000.0,0.0,98319000.0,98319000.0,778000.0,7438000.0,-2466000.0,242000.0,0.0,0.0,-3350000.0,0.0,-3350000.0,-0.14,-0.14,23166977.0,23166977.0,0.0,0.523004864921,0.081968740296,0.0040264982921,-0.0173377497154,0.06272125038819999,15838000.0,778000.0,-3350000.0,-0.0127626539696,-0.0173377497154
2014-12-31,325022000.0,-0.05797277870519999,164352000.0,160670000.0,0.0,168441000.0,168441000.0,-48549000.0,5613000.0,-53712000.0,-4225000.0,0.0,0.0,-56133000.0,0.0,-56133000.0,-2.46,-2.46,22814105.0,22814105.0,0.18940037314599997,0.49433576803999996,-0.08735716351510002,-0.149371427165,-0.172705232261,0.0139990523718,-28393000.0,-48549000.0,-56133000.0,-0.165256505713,-0.172705232261
2013-12-31,345024000.0,-0.143216860319,172685000.0,172339000.0,0.0,178494000.0,178494000.0,-9557000.0,4667000.0,-14169000.0,19591000.0,0.0,0.0,-51286000.0,0.0,-51286000.0,-2.28,-2.28,22513391.0,22513391.0,0.298000421172,0.49949858560599997,0.042368067149,-0.0276995223521,-0.148644731961,-0.00954136523836,14618000.0,-9557000.0,-51286000.0,-0.041066708402900005,-0.148644731961
2012-12-31,402697000.0,-0.214441355767,192205000.0,210492000.0,0.0,204299000.0,204299000.0,-27657000.0,4475000.0,-32116000.0,8235000.0,0.0,0.0,-37186000.0,0.0,-37186000.0,-1.68,-1.68,22195407.0,22195407.0,0.290330337263,0.522705657107,-0.0020089546234500003,-0.0686794289503,-0.09234238149280001,0.017747835221,-809000.0,-27657000.0,-37186000.0,-0.0797522703174,-0.09234238149280001
2011-12-31,512625000.0,-0.152352495693,222959000.0,289666000.0,0.0,244398000.0,244398000.0,34886000.0,4369000.0,30585000.0,13045000.0,0.0,0.0,17540000.0,0.0,17540000.0,0.8,0.79,22020000.0,22155000.0,0.8345745881290001,0.5650641307000001,0.123579614728,0.0680536454523,0.0342160448671,-0.00249890270666,63350000.0,34886000.0,17540000.0,0.0596634967081,0.0342160448671
2010-12-31,604762000.0,0.09452053802829999,227331000.0,377431000.0,0.0,257621000.0,262457000.0,114974000.0,4523000.0,114570000.0,44839000.0,0.0,-4044000.0,69731000.0,0.0,69731000.0,2.86,2.79,22178644.0,24418000.0,0.25,0.6241,0.24,0.1969,0.115,0.1194,145311000.0,119093000.0,69731000.0,0.1894,0.1153
2009-12-31,552536000.0,0.466,211295000.0,341241000.0,0.0,252393000.0,252923000.0,88318000.0,4275000.0,84107000.0,34868000.0,0.0,0.0,49239000.0,0.0,49239000.0,1.87,1.82,27039272.0,26337000.0,0.0,0.6176,0.204,0.16,0.08900000000000001,0.0891,112622000.0,88382000.0,49239000.0,0.1522,0.0891
