,0,1,2,3,4,5,6,7,8,9,10,11,12,13,14
Date,Depreciation & Amortization,Stock-based compensation,Operating Cash Flow,Capital Expenditure,Acquisitions and disposals,Investment purchases and sales,Investing Cash flow,Issuance (repayment) of debt,Issuance (buybacks) of shares,Dividend payments,Financing Cash Flow,Effect of forex changes on cash,Net cash flow / Change in cash,Free Cash Flow,Net Cash/Marketcap
2019-12-31,8306000.0,679000.0,988000.0,5385000.0,-0.0,0.0,-4810000.0,-54514000.0,-23644000.0,-0.0,-3480000.0,0.0,38644000.0,-4397000.0,0.0
2018-12-31,8790000.0,522000.0,-1694000.0,4697000.0,-0.0,0.0,-2349000.0,-35099000.0,-17571000.0,-0.0,-4565000.0,0.0,45946000.0,-6391000.0,0.0
2017-12-31,9285000.0,1220000.0,-11321000.0,4755000.0,-0.0,0.0,9917000.0,-66766000.0,-14563000.0,-0.0,-5097000.0,0.0,-6501000.0,-16076000.0,0.0
2016-12-31,12015000.0,1440000.0,-6107000.0,3596000.0,-0.0,0.0,-2182000.0,-387000.0,-21064000.0,-0.0,-9067000.0,0.0,-17356000.0,-9703000.0,0.0
2015-12-31,15060000.0,1128000.0,14337000.0,2218000.0,-0.0,0.0,-1767000.0,-38847000.0,-38420000.0,-0.0,13551000.0,0.0,26121000.0,12119000.0,0.0
2014-12-31,20156000.0,2621000.0,12022000.0,7472000.0,-0.0,0.0,-7405000.0,-72000000.0,-12299000.0,-4321000.0,-5204000.0,0.0,-587000.0,4550000.0,0.0
2013-12-31,24175000.0,2995000.0,3246000.0,6538000.0,-0.0,0.0,-5788000.0,-42500000.0,-12886000.0,-6709000.0,-46280000.0,0.0,-48822000.0,-3292000.0,0.0
2012-12-31,26848000.0,4340000.0,15986000.0,8839000.0,-1472000.0,0.0,-10187000.0,-0.0,0.0,-6444000.0,29385000.0,0.0,35184000.0,7147000.0,0.0
2011-12-31,28464000.0,3541000.0,36838000.0,38119000.0,-0.0,0.0,-37389000.0,-20000000.0,0.0,-18490000.0,-38920000.0,0.0,-39471000.0,-1281000.0,0.0
2010-12-31,26218000.0,1181000.0,114464000.0,-42275000.0,0.0,0.0,-42111000.0,-384000.0,-46940000.0,-5550000.0,-52434000.0,0.0,19919000.0,72189000.0,0.0283
2009-12-31,24240000.0,1799000.0,73169000.0,-23928000.0,-27552000.0,0.0,-51593000.0,19039000.0,-9095000.0,0.0,9266000.0,0.0,30842000.0,49241000.0,-0.0189
