,0,1,2,3,4,5,6,7,8,9,10,11,12,13,14,15,16,17,18,19,20,21,22,23,24,25,26,27,28
Date,Cash and cash equivalents,Short-term investments,Cash and short-term investments,Receivables,Inventories,Total current assets,Property Plant & Equipment Net,Goodwill and Intangible Assets,Long-term investments,Tax assets,Total non-current assets,Total assets,Payables,Short-term debt,Total current liabilities,Long-term debt,Total debt,Deferred revenue,Tax Liabilities,Deposit Liabilities,Total non-current liabilities,Total liabilities,Other comprehensive income,Retained earnings (deficit),Total shareholders equity,Investments,Net Debt,Other Assets,Other Liabilities
2019-12-31,101579000.0,0.0,101579000.0,0.0,2027000.0,146639000.0,357790000.0,28501000.0,0.0,218000.0,402019000.0,548658000.0,38231000.0,4525000.0,182916000.0,213543000.0,218068000.0,138825000.0,603000.0,0.0,221351000.0,425408000.0,46271000.0,81655000.0,123250000.0,0.0,116489000.0,0.0,21141000.0
2018-12-31,113396000.0,700000.0,114096000.0,2700000.0,1604000.0,150183000.0,285979000.0,30080000.0,0.0,24000.0,323226000.0,473409000.0,33944000.0,2000000.0,159433000.0,188089000.0,190089000.0,123489000.0,576000.0,0.0,190876000.0,357365000.0,41539000.0,75171000.0,116044000.0,700000.0,76693000.0,0.0,7056000.0
2017-12-31,96443000.0,0.0,96443000.0,0.0,1794000.0,131690000.0,250952000.0,31659000.0,0.0,26800000.0,292658000.0,424348000.0,30422000.0,1750000.0,144410000.0,164186000.0,165936000.0,0.0,1673000.0,0.0,166630000.0,318026000.0,42498000.0,63819000.0,106322000.0,0.0,69493000.0,0.0,6986000.0
2016-12-31,135416000.0,0.0,135416000.0,3600000.0,1665000.0,171020000.0,186236000.0,33237000.0,0.0,4118000.0,236681000.0,407701000.0,30662000.0,1750000.0,123913000.0,164128000.0,165878000.0,0.0,884000.0,3500000.0,168246000.0,293892000.0,43097000.0,70707000.0,113809000.0,0.0,30462000.0,0.0,1733000.0
2015-12-31,206903000.0,0.0,206903000.0,0.0,1746000.0,234344000.0,125471000.0,0.0,0.0,3216000.0,147269000.0,381613000.0,25968000.0,1750000.0,104322000.0,162693000.0,164443000.0,0.0,2045000.0,0.0,165909000.0,267692000.0,48073000.0,65843000.0,113921000.0,0.0,-42460000.0,0.0,0.0
2014-12-31,28634.0,9998.0,38632.0,6530.0,0.0,129715.0,0.0,0.0,0.0,0.0,200000000.0,200129715.0,81559.0,470000.0,911559.0,0.0,470000.0,0.0,360000.0,0.0,0.0,188893707.0,11235330.0,29.0,11236008.0,9998.0,441366.0,0.0,187982148.0
2013-12-31,312298.0,9973.0,322271.0,4333.0,0.0,414082.0,0.0,0.0,0.0,0.0,200013400.0,200427482.0,13023.0,0.0,197043.0,0.0,0.0,0.0,180000.0,0.0,0.0,188179191.0,12247663.0,4.0,12248291.0,9973.0,-312298.0,0.0,187982148.0
