,0,1,2,3,4,5,6,7,8,9,10,11,12,13,14
Date,Depreciation & Amortization,Stock-based compensation,Operating Cash Flow,Capital Expenditure,Acquisitions and disposals,Investment purchases and sales,Investing Cash flow,Issuance (repayment) of debt,Issuance (buybacks) of shares,Dividend payments,Financing Cash Flow,Effect of forex changes on cash,Net cash flow / Change in cash,Free Cash Flow,Net Cash/Marketcap
2018-12-31,15439942.1129,0.0,-189680752.5326,-145536758.3213,0.0,-40167727.9305,-185704486.2518,48045296.6715,137614037.6266,0.0,577192764.11,2517655.5716,204325180.8973,-335217510.8538,
2017-12-31,136000.0,,-14109000.0,-10827000.0,,,-10827000.0,,,,57494000.0,-26000.0,32531000.0,,
