,0,1,2,3,4,5,6,7,8,9,10,11,12,13,14,15,16,17,18,19,20,21,22,23,24,25,26,27,28,29,30
Date,Revenue,Revenue Growth,Cost of Revenue,Gross Profit,R&D Expenses,SG&A Expense,Operating Expenses,Operating Income,Interest Expense,Earnings before Tax,Income Tax Expense,Net Income - Non-Controlling int,Net Income - Discontinued ops,Net Income,Preferred Dividends,Net Income Com,EPS,EPS Diluted,Weighted Average Shs Out,Weighted Average Shs Out (Dil),Dividend per Share,Gross Margin,EBITDA Margin,EBIT Margin,Profit Margin,Free Cash Flow margin,EBITDA,EBIT,Consolidated Income,Earnings Before Tax Margin,Net Profit Margin
2019-12-31,12506109000.0,0.0529975816462,7654315000.0,4851794000.0,0.0,3580300000.0,3580300000.0,896643000.0,138504000.0,791022000.0,215330000.0,0.0,0.0,541260000.0,0.0,541260000.0,1.75,1.74,310155000.0,310969000.0,0.0,0.387953919161,0.09683659401979999,0.07169640053510001,0.04327964837019999,0.063833043515,1211049000.0,896643000.0,541260000.0,0.06325084804549999,0.04327964837019999
2018-12-31,11876674000.0,0.21975813885099998,7301817000.0,4574857000.0,0.0,3352731000.0,3352731000.0,882241000.0,146377000.0,743431000.0,191395000.0,0.0,0.0,480118000.0,0.0,480118000.0,1.53,1.52,314428000.0,315849000.0,0.0,0.38519681520300003,0.0990443957627,0.0742835073186,0.0404252907843,0.0387913316472,1176318000.0,882241000.0,480118000.0,0.0625958917454,0.0404252907843
2017-12-31,9736909000.0,0.134304966979,5937286000.0,3799623000.0,0.0,1131214000.0,1131214000.0,847318000.0,101640000.0,766627000.0,235560000.0,0.0,0.0,533744000.0,0.0,533744000.0,1.73,1.72,308607000.0,310649000.0,0.0,0.390228870374,0.11066355863,0.0870212507891,0.05481657474669999,0.0348991656387,1077521000.0,847318000.0,533744000.0,0.07873412394019999,0.05481657474669999
2016-12-31,8584031000.0,0.19344765679,5232328000.0,3351703000.0,0.0,986380000.0,986380000.0,763398000.0,88263000.0,677281000.0,220566000.0,0.0,0.0,463975000.0,0.0,463975000.0,1.51,1.5,306897000.0,309784000.0,0.0,0.39045793287600006,0.112037340033,0.0889323442564,0.0540509464609,0.0498530352465,961732000.0,763398000.0,463975000.0,0.0789001111482,0.0540509464609
2015-12-31,7192633000.0,0.067146098316,4359104000.0,2833529000.0,0.0,828333000.0,828333000.0,704627000.0,57860000.0,649030000.0,219703000.0,0.0,0.0,423223000.0,0.0,423223000.0,1.38,1.38,304722000.0,307496000.0,0.0,0.39394878064800004,0.11578777896800001,0.09796509845560002,0.058841178188800004,0.0499604247846,832819000.0,704627000.0,423223000.0,0.09023538389910002,0.058841178188800004
2014-12-31,6740064000.0,0.331363303077,4088151000.0,2651913000.0,0.0,762888000.0,762888000.0,649868000.0,64542000.0,587888000.0,204264000.0,0.0,0.0,381519000.0,0.0,381519000.0,1.25,1.25,302343000.0,306045000.0,0.0,0.393455166004,0.11502932316400001,0.0964186690215,0.0566046553861,0.0341164416243,775305000.0,649868000.0,381519000.0,0.087222910643,0.0566046553861
2013-12-31,5062528000.0,0.227895695537,2987126000.0,2075402000.0,0.0,597052000.0,597052000.0,530180000.0,51184000.0,361283000.0,164204000.0,0.0,0.0,311623000.0,0.0,311623000.0,1.02,1.02,299574000.0,304131000.0,0.0,0.40995368321900005,0.121805351003,0.104726334353,0.0615548200425,0.06673938396000001,616643000.0,530180000.0,311623000.0,0.0713641485045,0.0615548200425
2012-12-31,4122930000.0,0.26088807417599996,2398790000.0,1724140000.0,0.0,495591000.0,495591000.0,437953000.0,31429000.0,409167000.0,147942000.0,0.0,0.0,261225000.0,0.0,261225000.0,0.88,0.87,295810000.0,300693000.0,0.0,0.418183185259,0.123241966272,0.106223729241,0.0633590674593,0.0286046573675,508118000.0,437953000.0,261225000.0,0.09924180134029999,0.0633590674593
2011-12-31,3269862000.0,0.323894552005,1877869000.0,1391993000.0,0.0,391942000.0,391942000.0,361483000.0,24307000.0,335771000.0,125507000.0,0.0,0.0,210264000.0,0.0,210264000.0,1.44,1.42,146126000.0,148375000.0,0.0,0.425703898207,0.12783444683599998,0.110549925349,0.06430363116240001,0.0383367860784,418001000.0,361483000.0,210264000.0,0.10268659656,0.06430363116240001
2010-12-31,2469881000.0,0.206030737199,1376401000.0,1093480000.0,0.0,310228000.0,310228000.0,297877000.0,0.0,0.0,0.0,0.0,0.0,297877000.0,0.0,297877000.0,0.0,0.0,0.0,0.0,0.0,0.44272578314499994,0.13831719018,0.120603786174,0.120603786174,0.039574781133199996,341627000.0,297877000.0,297877000.0,0.0,0.120603786174
2009-12-31,2047942000.0,0.073,1120129000.0,927813000.0,0.0,458642000.0,696365000.0,231448000.0,32252000.0,205701000.0,78180000.0,0.0,-384000.0,127521000.0,0.0,127521000.0,0.455,0.445,282804508.0,282804508.0,0.0,0.45299999999999996,0.135,0.1162,0.062,0.0533,276015000.0,237953000.0,127521000.0,0.1004,0.0623
