,0,1,2,3,4,5,6,7,8,9,10,11,12,13,14,15,16,17,18,19,20,21,22,23,24,25,26,27,28,29,30
Date,Revenue,Revenue Growth,Cost of Revenue,Gross Profit,R&D Expenses,SG&A Expense,Operating Expenses,Operating Income,Interest Expense,Earnings before Tax,Income Tax Expense,Net Income - Non-Controlling int,Net Income - Discontinued ops,Net Income,Preferred Dividends,Net Income Com,EPS,EPS Diluted,Weighted Average Shs Out,Weighted Average Shs Out (Dil),Dividend per Share,Gross Margin,EBITDA Margin,EBIT Margin,Profit Margin,Free Cash Flow margin,EBITDA,EBIT,Consolidated Income,Earnings Before Tax Margin,Net Profit Margin
2019-12-31,200634000.0,0.025369244135500003,119090000.0,81544000.0,22534000.0,73863000.0,97269000.0,-15725000.0,76000.0,-15294000.0,750000.0,0.0,0.0,-16044000.0,0.0,-16044000.0,-0.14,-0.14,115890000.0,115890000.0,0.0,0.406431611791,0.021481902369499997,-0.07837654634810001,-0.07996650617539999,-0.164269266425,4310000.0,-15725000.0,-16044000.0,-0.07622835611110002,-0.07996650617539999
2018-12-31,195670000.0,0.0613473638533,102197000.0,93473000.0,24075000.0,71925000.0,98313000.0,-4840000.0,86000.0,10380000.0,538000.0,0.0,0.0,9842000.0,0.0,9842000.0,0.09,0.08,112114000.0,120010000.0,0.0,0.47770736444,0.0696836510451,-0.0247355240967,0.0502989727603,0.0184443195176,13635000.0,-4840000.0,9842000.0,0.0530485000256,0.0502989727603
2017-12-31,184360000.0,0.09585458349680001,96561000.0,87799000.0,25342000.0,68151000.0,95869000.0,-8070000.0,80000.0,-7204000.0,426000.0,0.0,0.0,-7630000.0,0.0,-7630000.0,-0.07,-0.07,108814000.0,108814000.0,0.0,0.476236710783,0.0659633326101,-0.0437730527229,-0.0413864178781,-0.08259383814280001,12161000.0,-8070000.0,-7630000.0,-0.0390757214146,-0.0413864178781
2016-12-31,168234000.0,-0.0156688822318,96889000.0,71345000.0,24335000.0,62987000.0,143774000.0,-72429000.0,918000.0,-73322000.0,603000.0,0.0,0.0,-73925000.0,0.0,-73925000.0,-0.71,-0.71,104350000.0,104350000.0,0.0,0.42408193349699996,-0.309164615952,-0.430525339705,-0.439417715801,-0.017862025512099998,-52012000.0,-72429000.0,-73925000.0,-0.435833422495,-0.439417715801
2015-12-31,170912000.0,0.0533283207711,102793000.0,68119000.0,28016000.0,62895000.0,93840000.0,-25721000.0,29000.0,-23685000.0,267000.0,0.0,0.0,-23952000.0,0.0,-23952000.0,-0.24,-0.24,100105000.0,100105000.0,0.0,0.39856183299000003,-0.029319181801200002,-0.150492651189,-0.14014229545,-0.106914669538,-5011000.0,-25721000.0,-23952000.0,-0.138580087999,-0.14014229545
2014-12-31,162259000.0,-0.0644283383209,98849000.0,63410000.0,20965000.0,65634000.0,90128000.0,-26718000.0,32000.0,-24653000.0,203000.0,0.0,0.0,-24591000.0,0.0,-24591000.0,-0.25,-0.25,98365000.0,98365000.0,0.0,0.390794963608,-0.042986829698199995,-0.164662668943,-0.151553997005,-0.11163017151599999,-6975000.0,-26718000.0,-24591000.0,-0.151936102158,-0.151553997005
2013-12-31,173433000.0,-0.0377449566124,111725000.0,61708000.0,22003000.0,73378000.0,101185000.0,-39477000.0,76000.0,-34589000.0,387000.0,0.0,0.0,-35402000.0,0.0,-35402000.0,-0.37,-0.37,96851000.0,96851000.0,0.0,0.35580310552199995,-0.065558457733,-0.227621040978,-0.204124935854,-0.07483581555989999,-11370000.0,-39477000.0,-35402000.0,-0.19943724665999998,-0.204124935854
2012-12-31,180236000.0,0.052214931228499996,111715000.0,68521000.0,20182000.0,81047000.0,107072000.0,-38551000.0,177000.0,-29554000.0,481000.0,0.0,0.0,-32896000.0,0.0,-32896000.0,-0.32,-0.32,101283000.0,101283000.0,0.0,0.380173772165,-0.0287844825673,-0.213891786325,-0.18251625646400002,-0.0325018309328,-5188000.0,-38551000.0,-32896000.0,-0.163973900886,-0.18251625646400002
2011-12-31,171292000.0,0.11067739571900001,109586000.0,61706000.0,17146000.0,72219000.0,94152000.0,-32446000.0,299000.0,-32304000.0,-2238000.0,0.0,0.0,-25288000.0,0.0,-25288000.0,-0.23,-0.23,109236000.0,109236000.0,0.0,0.360238656797,0.00253368516918,-0.189419237326,-0.147630945987,-0.14868178315400002,434000.0,-32446000.0,-25288000.0,-0.18859024356100001,-0.147630945987
2010-12-31,154223000.0,0.17134654382800002,94582000.0,59641000.0,10841000.0,68441000.0,81742000.0,-22101000.0,62000.0,-19624000.0,727000.0,0.0,-1879000.0,-20351000.0,0.0,-20351000.0,-0.22,-0.22,99117655.0,94300000.0,0.0,0.3867,0.033,-0.1268,-0.132,-0.1303,5121000.0,-19562000.0,-20351000.0,-0.1272,-0.132
2009-12-31,131663000.0,0.0165,85623000.0,46040000.0,7937000.0,66715000.0,11358000.0,34682000.0,39000.0,35974000.0,1084000.0,0.0,0.0,34890000.0,0.0,34890000.0,0.41,0.41,84674389.0,84202000.0,0.0,0.3497,0.474,0.2735,0.265,-0.1528,62415000.0,36013000.0,34890000.0,0.2732,0.265
