,0,1,2,3,4,5,6,7,8,9,10,11,12,13,14,15,16,17,18,19,20,21,22,23,24,25,26,27,28
Date,Cash and cash equivalents,Short-term investments,Cash and short-term investments,Receivables,Inventories,Total current assets,Property Plant & Equipment Net,Goodwill and Intangible Assets,Long-term investments,Tax assets,Total non-current assets,Total assets,Payables,Short-term debt,Total current liabilities,Long-term debt,Total debt,Deferred revenue,Tax Liabilities,Deposit Liabilities,Total non-current liabilities,Total liabilities,Other comprehensive income,Retained earnings (deficit),Total shareholders equity,Investments,Net Debt,Other Assets,Other Liabilities
2019-12-31,18335000.0,0.0,18335000.0,34476000.0,0.0,62813000.0,46136000.0,0.0,40000.0,1319000.0,146556000.0,209369000.0,12020000.0,2056000.0,28628000.0,13488000.0,15544000.0,976000.0,178000.0,0.0,14204000.0,42832000.0,530285000.0,-354656000.0,166537000.0,40000.0,-2791000.0,0.0,0.0
2018-12-31,25383000.0,25083000.0,50466000.0,26041000.0,0.0,91418000.0,27378000.0,0.0,40000.0,1462000.0,107507000.0,198925000.0,9216000.0,12922000.0,33145000.0,0.0,12922000.0,1883000.0,124000.0,0.0,629000.0,33774000.0,513682000.0,-338612000.0,165151000.0,25123000.0,-12461000.0,0.0,0.0
2017-12-31,20912000.0,28404000.0,49316000.0,32381000.0,0.0,87192000.0,28991000.0,0.0,40000.0,1506000.0,109256000.0,196448000.0,4439000.0,18507000.0,42585000.0,327000.0,18834000.0,1187000.0,452000.0,0.0,1045000.0,52303000.0,502312000.0,-349950000.0,144145000.0,28444000.0,-2078000.0,0.0,8673000.0
2016-12-31,21734000.0,44453000.0,66187000.0,27418000.0,0.0,98683000.0,30352000.0,0.0,40000.0,1017000.0,109446000.0,208129000.0,8790000.0,0.0,41952000.0,0.0,0.0,2138000.0,188000.0,0.0,1609000.0,70561000.0,490819000.0,-342320000.0,137568000.0,44493000.0,-21734000.0,0.0,27000000.0
2015-12-31,44680000.0,28322000.0,73002000.0,26795000.0,0.0,109634000.0,36143000.0,76158000.0,40000.0,1252000.0,115993000.0,225627000.0,9137000.0,466000.0,23554000.0,1436000.0,1902000.0,2890000.0,204000.0,0.0,3976000.0,27530000.0,477202000.0,-268395000.0,198097000.0,28362000.0,-42778000.0,0.0,0.0
2014-12-31,57767000.0,35317000.0,93084000.0,22622000.0,0.0,125646000.0,32636000.0,77204000.0,40000.0,1364000.0,115695000.0,241341000.0,7065000.0,223000.0,25428000.0,135000.0,358000.0,3509000.0,248000.0,0.0,3750000.0,29178000.0,464294000.0,-244443000.0,212163000.0,35357000.0,-57409000.0,0.0,0.0
2013-12-31,85956000.0,32506000.0,118462000.0,21430000.0,0.0,148548000.0,32905000.0,79389000.0,46000.0,1307000.0,119750000.0,268298000.0,5473000.0,466000.0,25283000.0,358000.0,824000.0,3523000.0,799000.0,635000.0,5684000.0,30967000.0,458748000.0,-219852000.0,237331000.0,32552000.0,-85132000.0,0.0,0.0
2012-12-31,108915000.0,0.0,108915000.0,0.0,0.0,108915000.0,41251000.0,86665000.0,18000.0,2838000.0,195966000.0,304881000.0,0.0,824000.0,2581000.0,824000.0,1648000.0,0.0,1757000.0,0.0,7343000.0,37651000.0,452291000.0,-184450000.0,267230000.0,18000.0,-107267000.0,0.0,27727000.0
2011-12-31,120349000.0,19850000.0,140199000.0,28045000.0,0.0,188983000.0,56368000.0,89312000.0,51000.0,1177000.0,157362000.0,346345000.0,6797000.0,1750000.0,29803000.0,2124000.0,3874000.0,7287000.0,774000.0,0.0,7437000.0,37240000.0,461064000.0,-151554000.0,309105000.0,19901000.0,-116475000.0,0.0,0.0
2010-12-31,54861000.0,12009000.0,66870000.0,28022000.0,0.0,168123000.0,52891000.0,70451000.0,103000.0,933000.0,130517000.0,298640000.0,10300000.0,934000.0,40843000.0,1641000.0,2575000.0,6554000.0,1453000.0,0.0,1688000.0,42531000.0,329000.0,-126266000.0,256109000.0,12112000.0,-64295000.0,73231000.0,29609000.0
2009-12-31,89509000.0,64870000.0,154379000.0,26363000.0,0.0,191013000.0,35524000.0,989000.0,12000.0,617000.0,44657000.0,235670000.0,5144000.0,0.0,31483000.0,0.0,0.0,13576000.0,10000.0,0.0,1387000.0,32870000.0,93000.0,-105915000.0,202800000.0,64882000.0,-154379000.0,10271000.0,26339000.0
