,0,1,2,3,4,5,6,7,8,9,10,11,12,13,14,15,16,17,18,19,20,21,22,23,24,25,26,27,28,29,30
Date,Revenue,Revenue Growth,Cost of Revenue,Gross Profit,R&D Expenses,SG&A Expense,Operating Expenses,Operating Income,Interest Expense,Earnings before Tax,Income Tax Expense,Net Income - Non-Controlling int,Net Income - Discontinued ops,Net Income,Preferred Dividends,Net Income Com,EPS,EPS Diluted,Weighted Average Shs Out,Weighted Average Shs Out (Dil),Dividend per Share,Gross Margin,EBITDA Margin,EBIT Margin,Profit Margin,Free Cash Flow margin,EBITDA,EBIT,Consolidated Income,Earnings Before Tax Margin,Net Profit Margin
2019-12-31,117232000.0,0.110488026675,37379000.0,79853000.0,9276000.0,49394000.0,58670000.0,21183000.0,0.0,21679000.0,3745000.0,0.0,0.0,17934000.0,0.0,17934000.0,0.91,0.88,19813000.0,20326000.0,0.33139820919,0.6811536099359999,0.226891974887,0.18069298485100002,0.15297870888499998,0.0888665210864,26599000.0,21183000.0,17934000.0,0.18492391156,0.15297870888499998
2018-12-31,105568000.0,0.04660592661619999,31629000.0,73939000.0,8197000.0,45007000.0,53204000.0,28209000.0,2000.0,28444000.0,5501000.0,0.0,0.0,22943000.0,0.0,22943000.0,1.18,1.13,19426000.0,20242000.0,0.268995158581,0.7003921642919999,0.308171036678,0.267211655047,0.217329114883,0.1558426796,32533000.0,28209000.0,22943000.0,0.269437708396,0.217329114883
2017-12-31,100867000.0,0.131417482698,30170000.0,70697000.0,6636000.0,42958000.0,49594000.0,21103000.0,21000.0,21106000.0,3929000.0,0.0,0.0,17177000.0,0.0,17177000.0,0.91,0.86,18961000.0,20033000.0,0.208605800429,0.700893255475,0.249417549843,0.209216096444,0.170293554879,0.163095958044,25158000.0,21103000.0,17177000.0,0.20924583857999998,0.170293554879
2016-12-31,89151000.0,0.13782673065099998,26215000.0,62936000.0,6141000.0,40459000.0,46600000.0,16336000.0,14000.0,16242000.0,5652000.0,0.0,0.0,10590000.0,0.0,10590000.0,0.57,0.55,18485000.0,19241000.0,0.172704121407,0.705948334848,0.223519646443,0.18323967201699998,0.11878722616699999,0.157653868156,19927000.0,16336000.0,10590000.0,0.18218528115200003,0.11878722616699999
2015-12-31,78352000.0,0.10204368679400001,24186000.0,54166000.0,5479000.0,36790000.0,42653000.0,11513000.0,0.0,11424000.0,3666000.0,0.0,0.0,7758000.0,0.0,7758000.0,0.44,0.42,17764000.0,18316000.0,0.155328674383,0.6913161119050001,0.190256789871,0.146939452726,0.0990147028793,0.116972125791,14907000.0,11513000.0,7758000.0,0.145803553196,0.0990147028793
2014-12-31,71097000.0,0.10144231514,22666000.0,48431000.0,4671000.0,35976000.0,42091000.0,6340000.0,5000.0,6320000.0,2405000.0,0.0,0.0,3915000.0,0.0,3915000.0,0.24,0.23,16614000.0,17008000.0,0.13570084665999999,0.681196112354,0.13606762592,0.0891739454548,0.055065614582900005,0.0610152327102,9674000.0,6340000.0,3915000.0,0.0888926396332,0.055065614582900005
2013-12-31,64549000.0,0.137728033842,19434000.0,45115000.0,5243000.0,34719000.0,40597000.0,4518000.0,12000.0,4328000.0,1126000.0,0.0,0.0,3202000.0,0.0,3202000.0,0.21,0.2,15317000.0,15764000.0,0.11659477289999999,0.698926397001,0.113262792607,0.0699933383941,0.04960572588269999,0.0411315434786,7311000.0,4518000.0,3202000.0,0.0670498381075,0.04960572588269999
2012-12-31,56735000.0,-0.0164687527087,15867000.0,40868000.0,5092000.0,31784000.0,36876000.0,4240000.0,1000.0,3993000.0,1422000.0,0.0,0.0,2571000.0,0.0,2571000.0,0.17,0.16,15194000.0,15638000.0,0.097071236731,0.720331365119,0.11410945624399998,0.07473340971180001,0.045315942539900005,0.0619194500749,6474000.0,4240000.0,2571000.0,0.07037983608,0.045315942539900005
2011-12-31,57685000.0,0.0289867998573,17458000.0,40227000.0,4425000.0,30603000.0,36537000.0,3690000.0,0.0,3752000.0,1609000.0,0.0,0.0,2143000.0,0.0,2143000.0,0.14,0.13,15458000.0,15989000.0,0.0773656889111,0.697356331802,0.09928057553960001,0.06396810262630001,0.03715003900490001,0.0199185230129,5727000.0,3690000.0,2143000.0,0.0650429054347,0.03715003900490001
2010-12-31,56060000.0,0.10120216861800001,14341000.0,41719000.0,5488000.0,29915000.0,37704000.0,4015000.0,5000.0,4025000.0,-1988000.0,0.0,0.0,6013000.0,0.0,6013000.0,0.38,0.37,15596962.0,15627000.0,0.0,0.7442,0.096,0.0719,0.107,0.0802,5406000.0,4030000.0,6013000.0,0.0718,0.1073
2009-12-31,50908000.0,0.0449,13604000.0,37304000.0,5910000.0,27562000.0,35355000.0,1949000.0,26000.0,2215000.0,617000.0,0.0,0.0,1598000.0,0.0,1598000.0,0.1,0.1,15723550.0,15687000.0,0.0,0.7328,0.07200000000000001,0.044000000000000004,0.031,0.0749,3660000.0,2241000.0,1598000.0,0.0435,0.0314
