,0,1,2,3,4,5,6,7,8,9,10,11,12,13,14,15,16,17,18,19,20,21,22,23,24,25,26,27,28,29,30
Date,Revenue,Revenue Growth,Cost of Revenue,Gross Profit,R&D Expenses,SG&A Expense,Operating Expenses,Operating Income,Interest Expense,Earnings before Tax,Income Tax Expense,Net Income - Non-Controlling int,Net Income - Discontinued ops,Net Income,Preferred Dividends,Net Income Com,EPS,EPS Diluted,Weighted Average Shs Out,Weighted Average Shs Out (Dil),Dividend per Share,Gross Margin,EBITDA Margin,EBIT Margin,Profit Margin,Free Cash Flow margin,EBITDA,EBIT,Consolidated Income,Earnings Before Tax Margin,Net Profit Margin
2017-12-30,2226837000.0,-7.319263583300001e-05,1426666000.0,800171000.0,6200000.0,643865000.0,650065000.0,38514000.0,39300000.0,1263000.0,-146144000.0,0.0,0.0,148492000.0,0.0,148492000.0,1.53,1.52,96594000.0,97467000.0,0.635763899576,0.35933074580700003,0.060814958616199996,0.0172953835418,0.0666829229081,0.057224664400699995,135425000.0,38514000.0,148492000.0,0.000567172181888,0.0666829229081
2017-12,2227000000.0,0.055837043618300004,1427000000.0,800000000.0,,644000000.0,644000000.0,156000000.0,,1000000.0,-146000000.0,,,148000000.0,,148000000.0,1.53,1.52,97000000.0,97000000.0,,0.35922766052985994,0.11360574764257,0.00089806915132465,0.066457117198024,,253000000.0,2000000.0,148000000.0,0.00044903457566233,0.066457117198024
2016-12-31,2109227000.0,0.000107633949739,1345437000.0,763790000.0,10000000.0,593957000.0,603957000.0,104485000.0,32900000.0,67123000.0,25320000.0,0.0,0.0,14885000.0,0.0,14885000.0,0.17,0.16,91873000.0,92891000.0,0.619909356127,0.36211844434,0.0965927327879,0.0495371052997,0.00705708773878,0.08910278504869999,203736000.0,104485000.0,14885000.0,0.0318235069056,0.00705708773878
2016-12,2109000000.0,0.273243946658,1345000000.0,764000000.0,,594000000.0,594000000.0,170000000.0,,67000000.0,25000000.0,,,15000000.0,,15000000.0,0.17,0.16,92000000.0,93000000.0,,0.36225699383594,0.12754860123281,0.018966334755807997,0.0071123755334282,,269000000.0,40000000.0,15000000.0,0.031768610715979,0.0071123755334282
2016-01-02,1656399000.0,0.00024094202898599997,1077110000.0,579289000.0,6200000.0,472236000.0,478436000.0,90456000.0,11100000.0,79603000.0,28885000.0,0.0,0.0,50685000.0,0.0,50685000.0,0.72,0.71,70487000.0,71142000.0,0.635110061567,0.34972793391,0.09709918926539998,0.0546100305542,0.0305995113496,0.0571637630788,160835000.0,90456000.0,50685000.0,0.048057865284900005,0.0305995113496
2015-12,1656000000.0,0.0216420304518,1077000000.0,579000000.0,,472000000.0,472000000.0,107000000.0,,80000000.0,29000000.0,,,51000000.0,,51000000.0,0.72,0.71,70000000.0,71000000.0,,0.34963768115942,0.10688405797101,0.048309178743961,0.030797101449275003,,177000000.0,80000000.0,51000000.0,0.048309178743961,0.030797101449275003
2015-01-03,1620920000.0,-4.93522516965e-05,1042458000.0,578462000.0,7600000.0,478532000.0,486132000.0,104850000.0,13400000.0,91508000.0,32291000.0,0.0,0.0,192591000.0,0.0,192591000.0,2.74,2.72,70200000.0,70890000.0,0.633728311468,0.356872640229,0.104887347926,0.0646854872542,0.118815857661,-0.0364182069442,170014000.0,104850000.0,192591000.0,0.0564543592528,0.118815857661
2014-12,1621000000.0,-0.07952589621299999,1042000000.0,578000000.0,,479000000.0,479000000.0,100000000.0,,92000000.0,32000000.0,,,193000000.0,,193000000.0,2.74,2.72,70000000.0,71000000.0,,0.3565700185070901,0.101789019124,0.13880320789636,0.11906230721776999,,165000000.0,225000000.0,193000000.0,0.056755089450955996,0.11906230721776999
2013-12-28,1761049000.0,2.78250993754e-05,1163034000.0,598015000.0,0.0,470561000.0,470561000.0,138967000.0,14700000.0,124559000.0,45475000.0,0.0,0.0,78720000.0,0.0,78720000.0,1.13,1.12,69383000.0,70158000.0,0.633156589412,0.33957885328599996,0.11277255772,0.07891148968600001,0.0447006301358,0.0375668138706,198598000.0,138967000.0,78720000.0,0.070730002402,0.0447006301358
2013-12,1761000000.0,0.0879544109416,1163000000.0,598000000.0,,471000000.0,471000000.0,127000000.0,,125000000.0,45000000.0,,,79000000.0,,79000000.0,1.13,1.12,69000000.0,70000000.0,,0.33957978421352,0.10618966496308999,0.070414537194776,0.044860874503123,,187000000.0,124000000.0,79000000.0,0.07098239636570099,0.044860874503123
2012-12-29,1618634000.0,-0.010031583402399999,1079777000.0,538857000.0,0.0,440597000.0,440597000.0,109140000.0,9700000.0,99653000.0,40143000.0,0.0,0.0,59085000.0,0.0,59085000.0,0.86,0.85,68382000.0,69215000.0,0.632478508994,0.332908489504,0.100642887768,0.067427225673,0.036503001914,0.00770032014649,162904000.0,109140000.0,59085000.0,0.0615661106835,0.036503001914
2011-12-31,1635036000.0,0.668685033705,1065107000.0,569929000.0,0.0,495267000.0,495267000.0,70405000.0,0.0,59845000.0,21104000.0,0.0,0.0,38258000.0,0.0,38258000.0,0.57,0.56,67400000.0,68478000.0,0.6267414352049999,0.348572753138,0.0769047287032,0.0430602139647,0.0233988731747,0.032905697489200005,125742000.0,70405000.0,38258000.0,0.0366016405755,0.0233988731747
2011-01-01,979835000.0,0.0,601015000.0,378820000.0,0.0,359629000.0,359629000.0,12083000.0,3921000.0,8162000.0,5631000.0,0.0,0.0,2531000.0,0.0,2531000.0,0.07,0.07,34128000.0,34348000.0,4.14749039245,0.386616113938,0.053256925911,0.012331668087,0.00258308796889,0.011325376211299998,52183000.0,12083000.0,2531000.0,0.00832997392418,0.00258308796889
