,0,1,2,3,4,5,6,7,8,9,10,11,12,13,14,15,16,17,18,19,20,21,22,23,24,25,26,27,28,29,30
Date,Revenue,Revenue Growth,Cost of Revenue,Gross Profit,R&D Expenses,SG&A Expense,Operating Expenses,Operating Income,Interest Expense,Earnings before Tax,Income Tax Expense,Net Income - Non-Controlling int,Net Income - Discontinued ops,Net Income,Preferred Dividends,Net Income Com,EPS,EPS Diluted,Weighted Average Shs Out,Weighted Average Shs Out (Dil),Dividend per Share,Gross Margin,EBITDA Margin,EBIT Margin,Profit Margin,Free Cash Flow margin,EBITDA,EBIT,Consolidated Income,Earnings Before Tax Margin,Net Profit Margin
2018-12-31,3534500000.0,0.045029862219900005,0.0,0.0,0.0,0.0,2135700000.0,694400000.0,247000000.0,570000000.0,47700000.0,0.0,0.0,522300000.0,10200000.0,522300000.0,2.19,2.19,233600000.0,233600000.0,1.3364726027399998,0.0,0.420087706889,0.196463431886,0.147771962088,-0.312972131843,1484800000.0,694400000.0,522300000.0,0.161267506012,0.147771962088
2017-12-31,3382200000.0,0.018734939759,0.0,0.0,0.0,0.0,1872900000.0,653400000.0,215600000.0,532800000.0,66700000.0,0.0,0.0,467500000.0,10200000.0,467500000.0,1.99,1.99,229700000.0,229700000.0,1.25511536787,0.0,0.40216427177599995,0.19318786588599998,0.138223641417,-0.142954290107,1360200000.0,653400000.0,467500000.0,0.157530601384,0.138223641417
2016-12-31,3320000000.0,0.0204081632653,0.0,0.0,0.0,0.0,1844200000.0,537000000.0,196200000.0,443400000.0,59400000.0,0.0,0.0,381700000.0,10200000.0,381700000.0,1.64,1.64,227100000.0,227100000.0,1.1734918538099999,0.0,0.34921686747,0.161746987952,0.114969879518,-0.10156626506000001,1159400000.0,537000000.0,381700000.0,0.133554216867,0.114969879518
2015-12-31,3253600000.0,-0.0288630868877,0.0,0.0,0.0,0.0,1857100000.0,577000000.0,187100000.0,461300000.0,70400000.0,0.0,0.0,388400000.0,10200000.0,388400000.0,3.36,3.36,112700000.0,112700000.0,2.19432120674,0.0,0.368176788788,0.17734202114599998,0.11937546102800001,-0.050129087779699995,1197900000.0,577000000.0,388400000.0,0.14178141136,0.11937546102800001
2014-12-31,3350300000.0,0.0224304199219,0.0,0.0,0.0,0.0,665000000.0,543600000.0,180600000.0,440000000.0,44300000.0,0.0,0.0,393300000.0,10200000.0,393300000.0,3.46,3.46,110800000.0,110800000.0,2.03790613718,0.0,0.35322209951300004,0.162254126496,0.117392472316,-0.0033429842103699994,1183400000.0,543600000.0,393300000.0,0.13133152255,0.117392472316
2013-12-31,3276800000.0,0.0589109710777,0.0,0.0,0.0,0.0,635600000.0,533900000.0,172800000.0,436000000.0,53900000.0,0.0,0.0,376200000.0,17900000.0,376200000.0,3.23,3.23,110800000.0,110800000.0,1.8799638989200003,0.0,0.346710205078,0.162933349609,0.11480712890599999,-0.0205383300781,1136100000.0,533900000.0,376200000.0,0.133056640625,0.11480712890599999
2012-12-31,3094500000.0,-0.155730772379,0.0,0.0,0.0,0.0,601900000.0,519700000.0,156700000.0,430200000.0,89400000.0,0.0,0.0,335700000.0,15900000.0,335700000.0,2.89,2.89,110753000.0,110768000.0,1.79925610285,0.0,0.35433834221999994,0.167943124899,0.10848279205,-0.10243981257099999,1096500000.0,519700000.0,335700000.0,0.139020843432,0.10848279205
2011-12-31,3665300000.0,0.072948684172,0.0,0.0,0.0,0.0,1121100000.0,478400000.0,158300000.0,375700000.0,55100000.0,0.0,0.0,321900000.0,18300000.0,321900000.0,2.74,2.74,110626000.0,110678000.0,1.6995247474700002,0.0,0.322565683573,0.130521376149,0.087823643358,0.007993888631220001,1182300000.0,478400000.0,321900000.0,0.10250184159600001,0.087823643358
2010-12-31,3416100000.0,-0.0032678785049499995,0.0,0.0,0.0,0.0,786700000.0,556100000.0,163000000.0,308000000.0,145200000.0,0.0,0.0,306300000.0,18700000.0,306300000.0,2.6,2.6,110442000.0,110521000.0,1.5797902661,0.0,0.26351687597,0.162787974591,0.0896636515324,0.288311232107,900200000.0,556100000.0,306300000.0,0.0901612950441,0.0896636515324
2009-12-31,3427300000.0,-0.0659,2757500000.0,669800000.0,0.0,0.0,273600000.0,396200000.0,154900000.0,120400000.0,-9300000.0,0.0,-900000.0,129700000.0,18700000.0,111000000.0,0.505,0.505,221268552.0,220536000.0,0.752,0.1954,0.161,0.0803,0.032,-0.1592,550900000.0,275300000.0,129700000.0,0.0351,0.0378
