,0,1,2,3,4,5,6,7,8,9,10,11,12,13,14
Date,Depreciation & Amortization,Stock-based compensation,Operating Cash Flow,Capital Expenditure,Acquisitions and disposals,Investment purchases and sales,Investing Cash flow,Issuance (repayment) of debt,Issuance (buybacks) of shares,Dividend payments,Financing Cash Flow,Effect of forex changes on cash,Net cash flow / Change in cash,Free Cash Flow,Net Cash/Marketcap
2019-12-31,19460000.0,1600000.0,-493925000.0,37197000.0,-0.0,-141810000.0,-673164000.0,-1443000.0,-13585000.0,-4827000.0,1073805000.0,0.0,-93284000.0,-531122000.0,0.0
2018-12-31,13618000.0,60000.0,11521000.0,111322000.0,-0.0,-290553000.0,-850585000.0,-25077000.0,-14780000.0,-4809000.0,860616000.0,0.0,21552000.0,-99801000.0,0.0
2017-12-31,12667000.0,1700000.0,-287529000.0,124139000.0,-7696000.0,19693000.0,-535016000.0,-26279000.0,58594000.0,-3776000.0,879808000.0,0.0,57263000.0,-411668000.0,0.0
2016-12-31,6872000.0,2300000.0,-221950000.0,10889000.0,-0.0,19139000.0,-320069000.0,-532000.0,-14029000.0,-2737000.0,677420000.0,0.0,135401000.0,-232839000.0,0.0
2015-12-31,6515000.0,148000.0,-334683000.0,30452000.0,-0.0,19980000.0,59576000.0,-26434000.0,87171000.0,-2732000.0,347812000.0,0.0,72705000.0,-365135000.0,0.0
2014-12-31,2159000.0,3407000.0,-261508000.0,-12146000.0,-6613000.0,37226000.0,18467000.0,38676000.0,75235000.0,-43849000.0,235699000.0,0.0,-7342000.0,-273654000.0,0.3165
2013-12-31,1459000.0,188000.0,-44175000.0,-7696000.0,-8890000.0,-4575000.0,-20539000.0,-130000.0,-210000.0,-11921000.0,57785000.0,0.0,-6929000.0,-51871000.0,0.3165
2012-12-31,673000.0,331000.0,-28258000.0,-14191000.0,0.0,544000.0,-12637000.0,3546000.0,1669000.0,-12194000.0,57532000.0,0.0,16637000.0,-42449000.0,0.3165
