,0,1,2,3,4,5,6,7,8,9,10,11,12,13,14,15,16,17,18,19,20,21,22,23,24,25,26,27,28
Date,Cash and cash equivalents,Short-term investments,Cash and short-term investments,Receivables,Inventories,Total current assets,Property Plant & Equipment Net,Goodwill and Intangible Assets,Long-term investments,Tax assets,Total non-current assets,Total assets,Payables,Short-term debt,Total current liabilities,Long-term debt,Total debt,Deferred revenue,Tax Liabilities,Deposit Liabilities,Total non-current liabilities,Total liabilities,Other comprehensive income,Retained earnings (deficit),Total shareholders equity,Investments,Net Debt,Other Assets,Other Liabilities
2019-12-31,33107000.0,17540000.0,50647000.0,0.0,0.0,52838000.0,1696000.0,0.0,0.0,0.0,2822000.0,55660000.0,624000.0,504000.0,3563000.0,9810000.0,10314000.0,0.0,0.0,0.0,9810000.0,13373000.0,109640000.0,-67370000.0,42287000.0,17540000.0,-22793000.0,0.0,0.0
2018-12-31,80906000.0,0.0,80906000.0,0.0,0.0,82174000.0,590000.0,0.0,0.0,0.0,736000.0,82910000.0,1168000.0,223000.0,2685000.0,0.0,223000.0,0.0,0.0,0.0,0.0,2685000.0,107473000.0,-27242000.0,80225000.0,0.0,-80683000.0,0.0,0.0
2017-12-31,24575000.0,0.0,24575000.0,0.0,0.0,25693000.0,232000.0,0.0,0.0,0.0,481000.0,26174000.0,1112000.0,0.0,1711000.0,0.0,0.0,0.0,0.0,0.0,0.0,1711000.0,-14000.0,-9621000.0,-8599000.0,0.0,-24575000.0,1118000.0,599000.0
2016-12-31,1728000.0,0.0,1728000.0,0.0,0.0,1814000.0,215000.0,0.0,0.0,0.0,215000.0,2029000.0,341000.0,0.0,920000.0,0.0,0.0,0.0,0.0,0.0,0.0,920000.0,0.0,-3879000.0,-3250000.0,0.0,-1728000.0,86000.0,579000.0
2011-09-30,,,64100.0,,,,,,,,,,,,,,,,,,,,,,,,161300.0,97000.0,153200.0
2010-09-30,,,241600.0,,,,,,,,,,,,,,,,,,,,,,,,-241600.0,63700.0,145400.0
