,0,1,2,3,4,5,6,7,8,9,10,11,12,13,14,15,16,17,18,19,20,21,22,23,24,25,26,27,28,29,30
Date,Revenue,Revenue Growth,Cost of Revenue,Gross Profit,R&D Expenses,SG&A Expense,Operating Expenses,Operating Income,Interest Expense,Earnings before Tax,Income Tax Expense,Net Income - Non-Controlling int,Net Income - Discontinued ops,Net Income,Preferred Dividends,Net Income Com,EPS,EPS Diluted,Weighted Average Shs Out,Weighted Average Shs Out (Dil),Dividend per Share,Gross Margin,EBITDA Margin,EBIT Margin,Profit Margin,Free Cash Flow margin,EBITDA,EBIT,Consolidated Income,Earnings Before Tax Margin,Net Profit Margin
1999-12,25000000.0,,0.0,25000000.0,,0.0,0.0,25000000.0,,0.0,0.0,,,-9000000.0,,-9000000.0,-0.74,-0.74,8000000.0,8000000.0,,1.0,1.0,-0.36,-0.36,,25000000.0,-9000000.0,-9000000.0,0.0,-0.36
1998-12,20000000.0,,4000000.0,17000000.0,,14000000.0,17000000.0,-1000000.0,,-1000000.0,-1000000.0,,,-0.0,,-0.0,-0.04,-0.04,8000000.0,8000000.0,,0.85,0.1,-0.05,-0.0,,2000000.0,-1000000.0,-0.0,-0.05,-0.0
1997-10,24000000.0,,6000000.0,18000000.0,,16000000.0,17000000.0,1000000.0,,0.0,0.0,,,0.0,,0.0,0.02,0.02,2000000.0,2000000.0,,0.75,0.125,0.0,0.0,,3000000.0,0.0,0.0,0.0,0.0
1996-10,18000000.0,,4000000.0,14000000.0,,12000000.0,13000000.0,0.0,,0.0,0.0,,,-0.0,,-0.0,-0.14,-0.14,2000000.0,2000000.0,,0.77777777777778,0.11111111111111001,0.0,-0.0,,2000000.0,0.0,-0.0,0.0,-0.0
1995-10,16000000.0,,9000000.0,7000000.0,,5000000.0,6000000.0,1000000.0,,1000000.0,0.0,,,1000000.0,,1000000.0,0.26,0.25,2000000.0,2000000.0,,0.4375,0.125,0.0625,0.0625,,2000000.0,1000000.0,1000000.0,0.0625,0.0625
