,0,1,2,3,4,5,6,7,8,9,10,11,12,13,14
Date,Depreciation & Amortization,Stock-based compensation,Operating Cash Flow,Capital Expenditure,Acquisitions and disposals,Investment purchases and sales,Investing Cash flow,Issuance (repayment) of debt,Issuance (buybacks) of shares,Dividend payments,Financing Cash Flow,Effect of forex changes on cash,Net cash flow / Change in cash,Free Cash Flow,Net Cash/Marketcap
2020-01-31,1878000000.0,98000000.0,4296000000.0,1484000000.0,-0.0,-5056000000.0,-1369000000.0,-1113000000.0,-4313000000.0,-1618000000.0,-2735000000.0,1000000.0,205000000.0,2812000000.0,0.0
2019-02-01,1607000000.0,74000000.0,6193000000.0,1174000000.0,-0.0,-4410000000.0,-1080000000.0,-326000000.0,-3037000000.0,-1455000000.0,-5124000000.0,-12000000.0,-77000000.0,5019000000.0,0.0
2018-02-02,1540000000.0,99000000.0,5065000000.0,1123000000.0,-509000000.0,-4173000000.0,-1441000000.0,-2849000000.0,-3192000000.0,-1288000000.0,-3607000000.0,13000000.0,30000000.0,3942000000.0,0.0
2017-02-03,1590000000.0,90000000.0,5617000000.0,1167000000.0,-2356000000.0,-3595000000.0,-3361000000.0,-1173000000.0,-3595000000.0,-1121000000.0,-2092000000.0,-11000000.0,153000000.0,4450000000.0,0.0
2016-01-29,1587000000.0,117000000.0,4784000000.0,1197000000.0,-0.0,-3925000000.0,-1343000000.0,-552000000.0,-3925000000.0,-957000000.0,-3493000000.0,-9000000.0,-61000000.0,3587000000.0,0.0
2015-01-30,1586000000.0,119000000.0,4929000000.0,880000000.0,-0.0,-3905000000.0,-1088000000.0,-48000000.0,-3905000000.0,-822000000.0,-3761000000.0,-5000000.0,75000000.0,4049000000.0,0.0
2014-01-31,1562000000.0,100000000.0,4111000000.0,940000000.0,-203000000.0,-3760000000.0,-1286000000.0,-47000000.0,-3710000000.0,-733000000.0,-2969000000.0,-6000000.0,-150000000.0,3171000000.0,0.0
2013-02-01,1623000000.0,100000000.0,3762000000.0,1211000000.0,-0.0,-4000000000.0,-903000000.0,-591000000.0,-4393000000.0,-704000000.0,-3333000000.0,1000000.0,-473000000.0,2551000000.0,0.0
2012-02-03,1579000000.0,107000000.0,4349000000.0,1829000000.0,-0.0,-2250000000.0,-1437000000.0,-37000000.0,-2937000000.0,-647000000.0,-2549000000.0,-1000000.0,362000000.0,2520000000.0,0.0
2011-01-28,0.0,0.0,0.0,0.0,-0.0,0.0,652000000.0,-0.0,-652000000.0,-0.0,0.0,0.0,652000000.0,0.0,0.0
2010-01-29,1733000000.0,102000000.0,4054000000.0,1799000000.0,-0.0,-1987000000.0,-1886000000.0,-37000000.0,-504000000.0,-391000000.0,-1801000000.0,20000000.0,387000000.0,2255000000.0,0.0
