,0,1,2,3,4,5,6,7,8,9,10,11,12,13,14,15,16,17,18,19,20,21,22,23,24,25,26,27,28,29,30
Date,Revenue,Revenue Growth,Cost of Revenue,Gross Profit,R&D Expenses,SG&A Expense,Operating Expenses,Operating Income,Interest Expense,Earnings before Tax,Income Tax Expense,Net Income - Non-Controlling int,Net Income - Discontinued ops,Net Income,Preferred Dividends,Net Income Com,EPS,EPS Diluted,Weighted Average Shs Out,Weighted Average Shs Out (Dil),Dividend per Share,Gross Margin,EBITDA Margin,EBIT Margin,Profit Margin,Free Cash Flow margin,EBITDA,EBIT,Consolidated Income,Earnings Before Tax Margin,Net Profit Margin
2017-12-31,6291400000.0,6.35828962009e-05,0.0,0.0,0.0,3056400000.0,3056400000.0,159800000.0,148800000.0,159800000.0,46900000.0,0.0,0.0,102400000.0,0.0,102400000.0,2.57,2.51,39900000.0,40800000.0,0.0,0.0,0.0830180881839,0.0253997520425,0.0162761865404,-0.000413262548876,522300000.0,159800000.0,102400000.0,0.0253997520425,0.0162761865404
2017-12,6291000000.0,-0.0114707730987,1056000000.0,5235000000.0,,4051000000.0,4918000000.0,318000000.0,,160000000.0,47000000.0,,,102000000.0,,102000000.0,2.57,2.51,40000000.0,41000000.0,,0.8321411540295699,0.10809092354157,0.023684628834842996,0.016213638531235,,680000000.0,149000000.0,102000000.0,0.025433158480369002,0.016213638531235
2016-12-31,6364000000.0,0.0,0.0,0.0,0.0,3047400000.0,5672100000.0,204800000.0,149200000.0,204800000.0,73000000.0,0.0,0.0,121900000.0,0.0,121900000.0,2.9,2.82,42000000.0,43200000.0,0.0,0.0,0.08873350094280001,0.0321810182275,0.019154619735999998,0.00560967944689,564700000.0,204800000.0,121900000.0,0.0321810182275,0.019154619735999998
2016-12,6364000000.0,0.22048980687699998,1067000000.0,5297000000.0,,4069000000.0,4950000000.0,347000000.0,,205000000.0,73000000.0,,,122000000.0,,122000000.0,2.9,2.82,42000000.0,43000000.0,,0.8323381521055899,0.10873664362036001,0.030641106222502004,0.019170333123821,,692000000.0,195000000.0,122000000.0,0.032212445003143,0.019170333123821
2015-12-31,5214300000.0,5.75373993096e-05,0.0,0.0,0.0,2496900000.0,4558300000.0,302500000.0,114400000.0,302500000.0,109500000.0,0.0,0.0,181900000.0,0.0,181900000.0,4.14,3.95,43900000.0,46100000.0,0.0,0.0,0.11479968548000001,0.0580135396889,0.034884835932,0.0675833764839,598600000.0,302500000.0,181900000.0,0.0580135396889,0.034884835932
2015-12,5214000000.0,0.16303450737199998,815000000.0,4399000000.0,,3440000000.0,3973000000.0,427000000.0,,302000000.0,110000000.0,,,182000000.0,,182000000.0,4.14,3.95,44000000.0,46000000.0,,0.84369006520905,0.13540467970848,0.056003068661297,0.034906022247794,,706000000.0,292000000.0,182000000.0,0.05792098197161499,0.034906022247794
2014-12-31,4483100000.0,2.23064911889e-05,0.0,0.0,0.0,2134500000.0,3920800000.0,203000000.0,123000000.0,203000000.0,68100000.0,0.0,0.0,126100000.0,0.0,126100000.0,2.81,2.69,44900000.0,46900000.0,0.0,0.0,0.107559501238,0.045281167049599995,0.028127857955400005,0.0457718989092,482200000.0,203000000.0,126100000.0,0.045281167049599995,0.028127857955400005
2014-12,4483000000.0,0.01226093436,699000000.0,3784000000.0,,2134000000.0,3400000000.0,384000000.0,,203000000.0,68000000.0,,,126000000.0,,126000000.0,2.81,2.69,45000000.0,47000000.0,,0.8440776265893399,0.14142315413785,0.04327459290653601,0.028106178898058998,,634000000.0,194000000.0,126000000.0,0.045282177113540004,0.028106178898058998
2013-12-31,4428700000.0,0.204105492115,0.0,0.0,0.0,1727400000.0,3205400000.0,211500000.0,97000000.0,211500000.0,79300000.0,0.0,0.0,128200000.0,0.0,128200000.0,2.77,2.69,46300000.0,47600000.0,0.0,0.0,0.109241989749,0.0477566780319,0.0289475466841,0.038115022467099996,483800000.0,211500000.0,128200000.0,0.0477566780319,0.0289475466841
2013-12,3678000000.0,-0.08420895373739999,577000000.0,3101000000.0,,2628000000.0,2793000000.0,308000000.0,,212000000.0,79000000.0,,,128000000.0,,128000000.0,2.77,2.69,46000000.0,48000000.0,,0.84312126155519,0.15062533985862,0.056280587275692996,0.034801522566612,,554000000.0,207000000.0,128000000.0,0.05764002175095201,0.034801522566612
2012-12-31,4016200000.0,0.133047452463,0.0,0.0,0.0,1554500000.0,2878200000.0,244100000.0,100000000.0,244100000.0,88500000.0,0.0,0.0,151900000.0,0.0,151900000.0,3.22,3.14,47200000.0,48400000.0,0.0,0.0,0.12155769135,0.060778845675,0.0378218216224,0.040037846720800005,488200000.0,244100000.0,151900000.0,0.060778845675,0.0378218216224
2011-12-31,3544600000.0,0.08650073565469998,0.0,0.0,0.0,1364700000.0,2516600000.0,263300000.0,107100000.0,263300000.0,97800000.0,0.0,0.0,162900000.0,0.0,162900000.0,3.3,3.22,49300000.0,50500000.0,0.0,0.0,0.135163347063,0.0742820064323,0.0459572307171,0.051232861253699996,479100000.0,263300000.0,162900000.0,0.0742820064323,0.0459572307171
2010-12-31,3262400000.0,0.0,0.0,0.0,0.0,1270300000.0,2318500000.0,241100000.0,108100000.0,241100000.0,82400000.0,0.0,0.0,155500000.0,0.0,155500000.0,2.91,2.91,52200000.0,53500000.0,0.0,0.0,0.073902648357,0.073902648357,0.047664296223599995,0.0629597842079,241100000.0,241100000.0,155500000.0,0.073902648357,0.047664296223599995
