,0,1,2,3,4,5,6,7,8,9,10,11,12,13,14,15,16,17,18,19,20,21,22,23,24,25,26,27,28,29,30
Date,Revenue,Revenue Growth,Cost of Revenue,Gross Profit,R&D Expenses,SG&A Expense,Operating Expenses,Operating Income,Interest Expense,Earnings before Tax,Income Tax Expense,Net Income - Non-Controlling int,Net Income - Discontinued ops,Net Income,Preferred Dividends,Net Income Com,EPS,EPS Diluted,Weighted Average Shs Out,Weighted Average Shs Out (Dil),Dividend per Share,Gross Margin,EBITDA Margin,EBIT Margin,Profit Margin,Free Cash Flow margin,EBITDA,EBIT,Consolidated Income,Earnings Before Tax Margin,Net Profit Margin
2019-12-31,291609000.0,0.167192340637,78878000.0,212731000.0,82145000.0,213781000.0,296328000.0,-87032000.0,0.0,-93226000.0,2845000.0,0.0,0.0,-96071000.0,0.0,-96071000.0,-1.53,-1.53,62593026.0,62593026.0,0.0,0.729507662658,-0.201142625913,-0.298454437277,-0.32945142296700003,-0.36603808524400006,-58655000.0,-87032000.0,-96071000.0,-0.31969520831,-0.32945142296700003
2018-12-31,249838000.0,0.141459090992,62479000.0,187359000.0,55707000.0,149217000.0,218769000.0,-23703000.0,0.0,-24174000.0,858000.0,0.0,0.0,-25032000.0,0.0,-25032000.0,-0.42,-0.42,59203400.0,59203400.0,0.0,0.7499219494230001,-0.025472506184,-0.09487347801380001,-0.10019292501499999,-0.06868050496719999,-6364000.0,-23703000.0,-25032000.0,-0.09675869963739998,-0.10019292501499999
2017-12-31,218876000.0,-0.017519604630599997,58205000.0,160671000.0,40034000.0,134029000.0,182559000.0,-17826000.0,0.0,-17690000.0,501000.0,0.0,0.0,-18191000.0,0.0,-18191000.0,-0.32,-0.32,56358017.0,56358017.0,0.0,0.734073173852,-0.00275041576052,-0.0814433743307,-0.08311098521539999,-0.0324384583052,-602000.0,-17826000.0,-18191000.0,-0.0808220179462,-0.08311098521539999
2016-12-31,222779000.0,-0.0679170920289,63161000.0,159618000.0,40198000.0,132575000.0,182080000.0,-19409000.0,0.0,-19939000.0,5934000.0,0.0,0.0,-25873000.0,0.0,-25873000.0,-0.46,-0.46,56063777.0,56063777.0,0.0,0.716485844716,-0.00399050179775,-0.08712221528960001,-0.11613751744999999,0.054834611879900005,-889000.0,-19409000.0,-25873000.0,-0.08950125460660001,-0.11613751744999999
2015-12-31,239012000.0,0.138526468221,70310000.0,168702000.0,38974000.0,131899000.0,181291000.0,-10428000.0,0.0,-10630000.0,15814000.0,0.0,0.0,-26444000.0,0.0,-26444000.0,-0.47,-0.47,56452408.0,56452408.0,0.0,0.70583066959,0.0406925175305,-0.0436296085552,-0.110638796378,0.0370316134755,9726000.0,-10428000.0,-26444000.0,-0.0444747544056,-0.110638796378
2014-12-31,209931000.0,0.180681083209,52703000.0,157228000.0,37329000.0,123445000.0,171588000.0,-5167000.0,0.0,-5489000.0,1859000.0,0.0,0.0,-7348000.0,0.0,-7348000.0,-0.13,-0.13,54478754.0,54478754.0,0.0,0.748950845754,0.04284264829869999,-0.0246128489837,-0.03500197684,0.0242174809818,8994000.0,-5167000.0,-7348000.0,-0.0261466862922,-0.03500197684
2013-12-31,177805000.0,0.129573277259,42555000.0,135250000.0,36397000.0,102456000.0,138853000.0,-4474000.0,0.0,-4137000.0,-638000.0,0.0,0.0,-3499000.0,0.0,-3499000.0,-0.06,-0.06,54725236.0,54725236.0,0.0,0.7606647732070001,0.0352014847726,-0.025162397008000003,-0.0196788616743,0.0501335732966,6259000.0,-4474000.0,-3499000.0,-0.0232670622311,-0.0196788616743
2012-12-31,157409000.0,0.18273486163400002,35579000.0,121830000.0,30051000.0,81220000.0,111271000.0,10341000.0,0.0,10717000.0,4362000.0,0.0,0.0,6355000.0,0.0,6355000.0,0.11,0.11,55292597.0,57131041.0,0.0,0.7739709927639999,0.115940003431,0.065695100026,0.0403725327014,0.106652097402,18250000.0,10341000.0,6355000.0,0.06808378174060001,0.0403725327014
2011-12-31,133089000.0,0.21141978118000002,33195000.0,99894000.0,20222000.0,59928000.0,80150000.0,19635000.0,0.0,19150000.0,7112000.0,0.0,0.0,12038000.0,0.0,12038000.0,0.23,0.22,52876999.0,55008742.0,0.0,0.750580438654,0.204577388064,0.14753285395500002,0.09045075100120001,0.13379017048699998,27227000.0,19635000.0,12038000.0,0.143888675999,0.09045075100120001
2010-12-31,109862000.0,0.255709223911,29640000.0,80222000.0,15711000.0,49912000.0,65882000.0,14340000.0,0.0,14333000.0,5074000.0,0.0,0.0,9259000.0,0.0,9259000.0,0.18,0.18,50798801.0,50721880.0,0.0,0.7302,0.19699999999999998,0.1305,0.084,0.0687,21610000.0,14333000.0,9259000.0,0.1305,0.0843
2009-12-31,87490000.0,0.1719,21076000.0,66414000.0,12111000.0,40772000.0,53628000.0,12786000.0,80000.0,12800000.0,5037000.0,0.0,0.0,7763000.0,0.0,7763000.0,0.16,0.16,48511550.0,47962688.0,0.0,0.7591,0.20800000000000002,0.1472,0.08900000000000001,0.1726,18200000.0,12880000.0,7763000.0,0.1463,0.0887
