,0,1,2,3,4,5,6,7,8,9,10,11,12,13,14
Date,Depreciation & Amortization,Stock-based compensation,Operating Cash Flow,Capital Expenditure,Acquisitions and disposals,Investment purchases and sales,Investing Cash flow,Issuance (repayment) of debt,Issuance (buybacks) of shares,Dividend payments,Financing Cash Flow,Effect of forex changes on cash,Net cash flow / Change in cash,Free Cash Flow,Net Cash/Marketcap
2019-06-30,3581417.0,394790.0,411185.0,1931835.0,-0.0,0.0,-1248585.0,6831503.0,-4604701.0,-0.0,-1401529.0,335010.0,-1903919.0,-1520650.0,0.0
2018-06-30,3423266.0,373554.0,2618988.0,2517685.0,-0.0,0.0,-2517685.0,4716536.0,-5508620.0,-0.0,-1313650.0,-364048.0,-1576395.0,101303.0,0.0
2017-06-30,2088160.0,394875.0,4999044.0,2223126.0,-0.0,0.0,-14000462.0,-0.0,664481.0,-0.0,14208643.0,-30234.0,5176991.0,2775918.0,0.0
2016-06-30,847990.0,348735.0,1525713.0,1131098.0,-0.0,0.0,-1125182.0,51585.0,-2908024.0,-0.0,236908.0,626665.0,1264104.0,394615.0,0.0
2015-06-30,550413.0,284950.0,178963.0,693634.0,-0.0,0.0,-693634.0,113360.0,-521866.0,-0.0,962512.0,-1001.0,446840.0,-514671.0,0.0
2014-06-30,701660.0,356815.0,-88777.0,1982313.0,-0.0,0.0,-1982313.0,-0.0,-1197080.0,-0.0,1704010.0,-1055.0,-368135.0,-2071090.0,0.0
2013-06-30,817116.0,268307.0,556156.0,1097470.0,-0.0,0.0,-1132992.0,-180000.0,-1565215.0,-0.0,-212036.0,-35522.0,-788872.0,-541314.0,0.0
2012-06-30,0.0,0.0,0.0,0.0,-0.0,0.0,0.0,-0.0,0.0,-0.0,0.0,0.0,0.0,0.0,0.0
2011-06-30,912929.0,246149.0,94902.0,-887911.0,0.0,0.0,-887911.0,-14250.0,19771.0,0.0,230431.0,27127.0,-535451.0,-793009.0,-0.0106
2010-06-30,700475.0,310416.0,-470705.0,-978590.0,0.0,0.0,-978590.0,-157808.0,2386938.0,0.0,2368464.0,-34767.0,884402.0,-1449295.0,-0.0065
2009-06-30,565988.0,218066.0,-1467953.0,-525973.0,0.0,0.0,-525973.0,2164334.0,14220.0,0.0,2178554.0,36864.0,221492.0,-1993926.0,-0.1178
