,0,1,2,3,4,5,6,7,8,9,10,11,12,13,14,15,16,17,18,19,20,21,22,23,24,25,26,27,28,29,30
Date,Revenue,Revenue Growth,Cost of Revenue,Gross Profit,R&D Expenses,SG&A Expense,Operating Expenses,Operating Income,Interest Expense,Earnings before Tax,Income Tax Expense,Net Income - Non-Controlling int,Net Income - Discontinued ops,Net Income,Preferred Dividends,Net Income Com,EPS,EPS Diluted,Weighted Average Shs Out,Weighted Average Shs Out (Dil),Dividend per Share,Gross Margin,EBITDA Margin,EBIT Margin,Profit Margin,Free Cash Flow margin,EBITDA,EBIT,Consolidated Income,Earnings Before Tax Margin,Net Profit Margin
2019-12-31,0.0,0.0,0.0,0.0,24366000.0,9085000.0,33451000.0,-33451000.0,23000.0,-32903000.0,-3000.0,0.0,0.0,-32900000.0,0.0,-32900000.0,-1.47,-1.47,22582687.0,22582687.0,0.0,0.0,0.0,0.0,0.0,0.0,-33404000.0,-33451000.0,-32900000.0,0.0,0.0
2018-12-31,0.0,0.0,0.0,0.0,21830000.0,8921000.0,30751000.0,-30751000.0,19000.0,-23118000.0,20000.0,0.0,0.0,-23138000.0,0.0,-23138000.0,-1.64,-2.11,14144287.0,14412695.0,0.0,0.0,0.0,0.0,0.0,0.0,-30702000.0,-30751000.0,-23138000.0,0.0,0.0
2017-12-31,0.0,0.0,0.0,0.0,22503000.0,9849000.0,32352000.0,-32352000.0,0.0,-29884000.0,-157000.0,0.0,0.0,-29727000.0,0.0,-29727000.0,-3.27,-3.31,9161844.0,9188587.0,0.0,0.0,0.0,0.0,0.0,0.0,-32304000.0,-32352000.0,-29727000.0,0.0,0.0
2016-12-31,0.0,0.0,0.0,0.0,23292000.0,4012000.0,27304000.0,-27304000.0,1233000.0,-25632000.0,0.0,0.0,0.0,-25632000.0,0.0,-25632000.0,-2.73,-2.73,9392414.0,9392414.0,0.0,0.0,,0.0,,0.0,-24374000.0,-24399000.0,-25632000.0,0.0,0.0
2015-12-31,0.0,,0.0,0.0,10411000.0,1511000.0,11922000.0,-11922000.0,129000.0,-12050000.0,0.0,0.0,0.0,-12050000.0,0.0,-12050000.0,-1.28,-1.28,9399000.0,,0.0,0.0,,0.0,,0.0,-11921000.0,-11921000.0,-12050000.0,0.0,0.0
