,0,1,2,3,4,5,6,7,8,9,10,11,12,13,14,15,16,17,18,19,20,21,22,23,24,25,26,27,28,29,30
Date,Revenue,Revenue Growth,Cost of Revenue,Gross Profit,R&D Expenses,SG&A Expense,Operating Expenses,Operating Income,Interest Expense,Earnings before Tax,Income Tax Expense,Net Income - Non-Controlling int,Net Income - Discontinued ops,Net Income,Preferred Dividends,Net Income Com,EPS,EPS Diluted,Weighted Average Shs Out,Weighted Average Shs Out (Dil),Dividend per Share,Gross Margin,EBITDA Margin,EBIT Margin,Profit Margin,Free Cash Flow margin,EBITDA,EBIT,Consolidated Income,Earnings Before Tax Margin,Net Profit Margin
2017-12,981000000.0,,417000000.0,564000000.0,,297000000.0,443000000.0,121000000.0,83000000.0,41000000.0,-112000000.0,,,152000000.0,,152000000.0,1.31,1.3,116000000.0,117000000.0,,0.57492354740061,0.27726809378185996,0.12538226299694,0.15494393476045001,,272000000.0,123000000.0,152000000.0,0.041794087665647,0.15494393476045001
2016-12,1006000000.0,,435000000.0,571000000.0,,246000000.0,493000000.0,78000000.0,82000000.0,-1000000.0,0.0,,,-1000000.0,,-1000000.0,-0.01,-0.01,118000000.0,118000000.0,,0.5675944333995999,0.22763419483101,0.08051689860835001,-0.0009940357852882698,,229000000.0,81000000.0,-1000000.0,-0.0009940357852882698,-0.0009940357852882698
2015-12,1030000000.0,,422000000.0,608000000.0,,251000000.0,480000000.0,128000000.0,87000000.0,49000000.0,22000000.0,,,26000000.0,,26000000.0,0.21,0.2,128000000.0,129000000.0,,0.5902912621359201,0.30194174757282,0.13106796116505,0.025242718446602003,,311000000.0,135000000.0,26000000.0,0.047572815533980996,0.025242718446602003
2014-12,977000000.0,,400000000.0,577000000.0,,262000000.0,440000000.0,137000000.0,121000000.0,17000000.0,350000000.0,,,-337000000.0,,-337000000.0,-2.67,-2.67,126000000.0,126000000.0,,0.59058341862845,0.31934493346981,0.13715455475947,-0.34493346980553,,312000000.0,134000000.0,-337000000.0,0.017400204708291,-0.34493346980553
2013-12,874000000.0,,364000000.0,510000000.0,,190000000.0,354000000.0,156000000.0,143000000.0,9000000.0,4000000.0,,,4000000.0,,4000000.0,124.0,124.0,,,,0.5835240274599499,0.36842105263158004,0.17276887871854,0.0045766590389016,,322000000.0,151000000.0,4000000.0,0.010297482837529,0.0045766590389016
