,0,1,2,3,4,5,6,7,8,9,10,11,12,13,14,15,16,17,18,19,20,21,22,23,24,25,26,27,28
Date,Cash and cash equivalents,Short-term investments,Cash and short-term investments,Receivables,Inventories,Total current assets,Property Plant & Equipment Net,Goodwill and Intangible Assets,Long-term investments,Tax assets,Total non-current assets,Total assets,Payables,Short-term debt,Total current liabilities,Long-term debt,Total debt,Deferred revenue,Tax Liabilities,Deposit Liabilities,Total non-current liabilities,Total liabilities,Other comprehensive income,Retained earnings (deficit),Total shareholders equity,Investments,Net Debt,Other Assets,Other Liabilities
2018-09-30,11466518.0,3592175.0,15058693.0,2785997.0,6734183.0,14190523.0,2448725.0,4003336.0,1540097.0,5957000.0,1791788.0,41860797.0,3083344.0,296594.0,6579802.0,52358.0,348952.0,0.0,0.0,0.0,1791788.0,8371590.0,-245375.0,-56516895.0,33489207.0,5132272.0,-14709741.0,3091401.0,3199864.0
2017-09-30,12764421.0,4359542.0,17123963.0,5681882.0,5257234.0,9811399.0,509603.0,55689.0,750590.0,8331000.0,0.0,38857800.0,1112366.0,0.0,3673761.0,0.0,0.0,0.0,0.0,0.0,0.0,3673761.0,-1269.0,-52771853.0,35184039.0,5110132.0,-17123963.0,983322.0,2561395.0
2016-09-30,13466711.0,2936124.0,16402835.0,3408912.0,4763909.0,11642239.0,473344.0,62905.0,2187536.0,8527000.0,165038.0,36813533.0,574566.0,0.0,2077610.0,0.0,0.0,0.0,0.0,0.0,165038.0,2242648.0,-1549.0,-51895099.0,34570885.0,5123660.0,-16402835.0,595638.0,1503044.0
2015-09-30,18316103.0,1251947.0,19568050.0,2116323.0,4926172.0,12495452.0,471963.0,58385.0,3047166.0,8339000.0,147954.0,39671663.0,703942.0,0.0,1574497.0,0.0,0.0,0.0,0.0,0.0,147954.0,1722451.0,-301.0,-49658850.0,37949212.0,4299113.0,-19568050.0,565666.0,870555.0
2014-09-30,23894744.0,0.0,23894744.0,4284051.0,3895736.0,1180342.0,360084.0,53835.0,0.0,0.0,157550.0,33778820.0,830503.0,0.0,4918479.0,0.0,0.0,0.0,0.0,0.0,157550.0,5076029.0,0.0,-59346666.0,28702791.0,0.0,-23894744.0,523947.0,4087976.0
2013-09-30,15805195.0,0.0,15805195.0,4958532.0,4587750.0,1203543.0,237377.0,51650.0,0.0,0.0,146109.0,27558895.0,1596409.0,0.0,2651377.0,0.0,0.0,0.0,0.0,0.0,146109.0,2797486.0,0.0,-62673754.0,24761409.0,0.0,-15805195.0,1003875.0,1054968.0
2012-09-30,13859505.0,0.0,13859505.0,5517894.0,3112489.0,1473336.0,212863.0,158457.0,0.0,0.0,363817.0,24405047.0,995719.0,0.0,1619461.0,0.0,0.0,0.0,0.0,0.0,363817.0,1983278.0,0.0,-63936566.0,22421769.0,0.0,-13859505.0,441823.0,623742.0
2011-09-30,14477012.0,0.0,14477012.0,5098148.0,2735520.0,1520187.0,75468.0,225969.0,0.0,0.0,276744.0,24500718.0,1040202.0,0.0,3948676.0,0.0,0.0,0.0,0.0,0.0,276744.0,4225420.0,0.0,-65398586.0,20275298.0,0.0,-14477012.0,669851.0,2908474.0
2010-09-30,5421167.0,0.0,5421167.0,4187999.0,2784098.0,460265.0,124353.0,277647.0,0.0,0.0,282464.0,13170733.0,965047.0,0.0,2550579.0,0.0,0.0,0.0,0.0,0.0,282464.0,2833043.0,0.0,-70421488.0,10337690.0,0.0,-5421167.0,317204.0,1585532.0
2009-09-30,5160767.0,0.0,5160767.0,1433312.0,2645218.0,1186048.0,230432.0,343706.0,0.0,0.0,0.0,11013898.0,955646.0,0.0,2969811.0,0.0,0.0,0.0,0.0,0.0,0.0,2969811.0,0.0,-74904164.0,8044087.0,0.0,-5160767.0,588553.0,2014165.0
