,0,1,2,3,4,5,6,7,8,9,10,11,12,13,14
Date,Depreciation & Amortization,Stock-based compensation,Operating Cash Flow,Capital Expenditure,Acquisitions and disposals,Investment purchases and sales,Investing Cash flow,Issuance (repayment) of debt,Issuance (buybacks) of shares,Dividend payments,Financing Cash Flow,Effect of forex changes on cash,Net cash flow / Change in cash,Free Cash Flow,Net Cash/Marketcap
2019-06-30,71400000.0,16676000.0,141606000.0,5477000.0,-13092000.0,0.0,-61109000.0,-0.0,-283121000.0,-0.0,-28989000.0,0.0,283121000.0,136129000.0,0.0
2018-06-30,75260000.0,20817000.0,103627000.0,8743000.0,-7274000.0,-27482000.0,-50477000.0,-0.0,-27482000.0,-0.0,-50901000.0,0.0,231113000.0,94884000.0,0.0
2017-06-30,74280000.0,22598000.0,88728000.0,2174000.0,-0.0,0.0,-57198000.0,-0.0,-230864000.0,-0.0,-14644000.0,-11000.0,16875000.0,86554000.0,0.0
2016-06-30,68225000.0,18616000.0,121778000.0,5008000.0,-0.0,0.0,-82853000.0,-0.0,-213989000.0,-0.0,-20776000.0,-12000.0,18137000.0,116770000.0,0.0
2015-06-30,83801000.0,21299000.0,120085000.0,9928000.0,-0.0,-32964000.0,-68252000.0,-0.0,-26452000.0,-0.0,-50392000.0,-1698000.0,-257000.0,110157000.0,0.0
2014-06-30,86267000.0,22828000.0,123477000.0,7405000.0,-0.0,-48548000.0,136638000.0,-0.0,-48548000.0,-0.0,-64006000.0,962000.0,196109000.0,116072000.0,0.0
2013-06-30,65737000.0,14374000.0,95293000.0,8339000.0,-0.0,0.0,-50345000.0,-0.0,-181480000.0,-0.0,-8212000.0,92000.0,181480000.0,86954000.0,0.0
2012-06-30,58033000.0,10067000.0,32991000.0,0.0,-12641000.0,0.0,-61241000.0,-0.0,-144652000.0,-0.0,-19767000.0,-430000.0,144652000.0,32991000.0,0.0
2011-06-30,42934000.0,4512000.0,67213000.0,-47649000.0,-35382000.0,0.0,-83031000.0,-15172000.0,138983000.0,0.0,127138000.0,28000.0,111348000.0,19564000.0,0.14400000000000002
2010-06-30,25761000.0,1999000.0,54680000.0,-24261000.0,0.0,0.0,-24261000.0,-13974000.0,8536000.0,0.0,1871000.0,0.0,32290000.0,30419000.0,0.0955
2009-06-30,20835000.0,-4208000.0,-9355000.0,-27870000.0,0.0,0.0,-27886000.0,-6802000.0,9824000.0,0.0,15020000.0,0.0,-22221000.0,-37225000.0,0.0474
