,0,1,2,3,4,5,6,7,8,9,10,11,12,13,14
Date,Depreciation & Amortization,Stock-based compensation,Operating Cash Flow,Capital Expenditure,Acquisitions and disposals,Investment purchases and sales,Investing Cash flow,Issuance (repayment) of debt,Issuance (buybacks) of shares,Dividend payments,Financing Cash Flow,Effect of forex changes on cash,Net cash flow / Change in cash,Free Cash Flow,Net Cash/Marketcap
2018-12-31,904000000.0,192000000.0,2156000000.0,403000000.0,-2000000.0,-466000000.0,-371000000.0,-4057000000.0,-466000000.0,-59000000.0,-2380000000.0,-1000000.0,-595000000.0,1753000000.0,0.0
2018-12,369000000.0,156000000.0,1785000000.0,-356000000.0,,0.0,-756000000.0,-2431000000.0,-1780000000.0,,-1552000000.0,,-523000000.0,1429000000.0,
2017-12-31,840000000.0,230000000.0,1732000000.0,517000000.0,-1647000000.0,-862000000.0,-3137000000.0,-5107000000.0,-1029000000.0,-60000000.0,1868000000.0,4000000.0,467000000.0,1215000000.0,0.0
2017-12,352000000.0,150000000.0,1849000000.0,-288000000.0,,0.0,-1254000000.0,-3216000000.0,-1409000000.0,,-267000000.0,,328000000.0,1561000000.0,
2016-12-31,365000000.0,150000000.0,2171000000.0,568000000.0,-0.0,-2211000000.0,-1264000000.0,-1749000000.0,-1497000000.0,-0.0,-546000000.0,0.0,361000000.0,1603000000.0,0.0
2016-12,312000000.0,128000000.0,1704000000.0,-206000000.0,,0.0,-210000000.0,-1471000000.0,-1674000000.0,,-1319000000.0,,175000000.0,1498000000.0,
2015-12-31,368000000.0,204000000.0,1213000000.0,296000000.0,-0.0,-11000000.0,-286000000.0,-1196000000.0,-350000000.0,-0.0,-1407000000.0,0.0,-480000000.0,917000000.0,0.0
2015-12,362000000.0,204000000.0,1213000000.0,-296000000.0,,37000000.0,-286000000.0,-1196000000.0,-2368000000.0,,-1407000000.0,,-480000000.0,917000000.0,
2014-12-31,325000000.0,217000000.0,1125000000.0,194000000.0,-47000000.0,-7000000.0,-411000000.0,-1936000000.0,-681000000.0,-0.0,-1121000000.0,0.0,-407000000.0,931000000.0,0.0
2014-12,359000000.0,217000000.0,1125000000.0,-194000000.0,,-9000000.0,-411000000.0,-1936000000.0,-2157000000.0,,-1121000000.0,,-407000000.0,931000000.0,
2013-12-31,253000000.0,193000000.0,1236000000.0,207000000.0,-117000000.0,-140000000.0,-1564000000.0,-2779000000.0,-140000000.0,-0.0,813000000.0,0.0,485000000.0,1029000000.0,0.0
2012-12-31,823000000.0,66000000.0,236000000.0,31000000.0,-0.0,-2039000000.0,214000000.0,-1254000000.0,-323000000.0,-0.0,-1167000000.0,0.0,-717000000.0,205000000.0,0.0
