,0,1,2,3,4,5,6,7,8,9,10,11,12,13,14,15,16,17,18,19,20,21,22,23,24,25,26,27,28,29,30
Date,Revenue,Revenue Growth,Cost of Revenue,Gross Profit,R&D Expenses,SG&A Expense,Operating Expenses,Operating Income,Interest Expense,Earnings before Tax,Income Tax Expense,Net Income - Non-Controlling int,Net Income - Discontinued ops,Net Income,Preferred Dividends,Net Income Com,EPS,EPS Diluted,Weighted Average Shs Out,Weighted Average Shs Out (Dil),Dividend per Share,Gross Margin,EBITDA Margin,EBIT Margin,Profit Margin,Free Cash Flow margin,EBITDA,EBIT,Consolidated Income,Earnings Before Tax Margin,Net Profit Margin
2019-06-30,46890000.0,0.028740675735,20617000.0,26273000.0,9079000.0,15851000.0,26761000.0,-488000.0,0.0,-267000.0,141000.0,0.0,0.0,-408000.0,0.0,-408000.0,-0.02,-0.02,21580000.0,21580000.0,0.0,0.560311367029,-0.000511836212412,-0.010407336319,-0.008701215611,-0.0562806568565,-24000.0,-488000.0,-408000.0,-0.00569417786308,-0.008701215611
2018-06-30,45580000.0,0.0190029063268,20212000.0,25368000.0,8065000.0,16499000.0,24564000.0,804000.0,18000.0,778000.0,98000.0,0.0,0.0,680000.0,0.0,680000.0,0.04,0.04,18171000.0,19158000.0,0.0,0.556559894691,0.0273365511189,0.0176393154892,0.0149188240456,0.00614304519526,1246000.0,804000.0,680000.0,0.017068889864,0.0149188240456
2017-06-30,44730000.0,0.101941269216,21150000.0,23580000.0,7960000.0,15803000.0,23763000.0,-183000.0,23000.0,-209000.0,68000.0,0.0,0.0,-277000.0,0.0,-277000.0,-0.02,-0.02,17451000.0,17451000.0,0.0,0.5271629778670001,0.009188464118040002,-0.00409121395037,-0.006192711826509999,0.041046277666000004,411000.0,-183000.0,-277000.0,-0.00467247932037,-0.006192711826509999
2016-06-30,40592000.0,-0.054813021003099996,21214000.0,19378000.0,6910000.0,14396000.0,21306000.0,-1928000.0,32000.0,-1899000.0,63000.0,0.0,0.0,-1962000.0,0.0,-1962000.0,-0.13,-0.13,15260000.0,15260000.0,0.0,0.477384706346,-0.0287987780844,-0.047497043752499996,-0.048334647221099994,-0.008794836420969999,-1169000.0,-1928000.0,-1962000.0,-0.0467826172645,-0.048334647221099994
2015-06-30,42946000.0,-0.0359179275356,22648000.0,20298000.0,6923000.0,16041000.0,22964000.0,-2666000.0,17000.0,-2713000.0,58000.0,0.0,0.0,-2771000.0,0.0,-2771000.0,-0.19,-0.19,14904000.0,14904000.0,0.0,0.47264005961000005,-0.0416336795045,-0.06207795836630001,-0.0645228892097,-0.0516229683789,-1788000.0,-2666000.0,-2771000.0,-0.0631723559819,-0.0645228892097
2014-06-30,44546000.0,-0.0452041581824,22261000.0,22285000.0,6746000.0,16355000.0,23101000.0,-816000.0,28000.0,-872000.0,61000.0,0.0,0.0,-933000.0,0.0,-933000.0,-0.06,-0.06,14657000.0,14657000.0,0.0,0.500269384457,0.00177344767207,-0.018318143043099998,-0.0209446414942,0.0215956539308,79000.0,-816000.0,-933000.0,-0.019575270506900003,-0.0209446414942
2013-06-30,46655000.0,1.0,24555000.0,22100000.0,6748000.0,17990000.0,24738000.0,-2638000.0,59000.0,-2715000.0,54000.0,0.0,0.0,-2769000.0,0.0,-2769000.0,-0.19,-0.19,14574.0,14574.0,0.0,0.473689851034,-0.0382809988211,-0.05654270710530001,-0.05935055192369999,-0.114564355375,-1786000.0,-2638000.0,-2769000.0,-0.0581931197085,-0.05935055192369999
2012-06-30,0.0,-1.0,0.0,0.0,0.0,0.0,0.0,0.0,0.0,0.0,0.0,0.0,0.0,0.0,0.0,0.0,0.0,0.0,0.0,0.0,0.0,0.0,0.0,0.0,0.0,0.0,0.0,0.0,0.0,0.0,0.0
2011-06-30,49321000.0,0.063525606469,24907000.0,24414000.0,7033000.0,22373000.0,29478000.0,-5064000.0,123000.0,-5215000.0,56000.0,0.0,0.0,-5271000.0,0.0,-5271000.0,-0.51,-0.51,10486769.0,10434000.0,0.0,0.495,-0.08,-0.1032,-0.107,-0.0917,-3949000.0,-5092000.0,-5271000.0,-0.1057,-0.1069
2010-06-30,46375000.0,-0.0564022219057,22257000.0,24118000.0,6338000.0,19035000.0,25445000.0,-1327000.0,149000.0,-1495000.0,24000.0,0.0,0.0,-1519000.0,0.0,-1519000.0,-0.15,-0.15,10321208.0,10276000.0,0.0,0.5201,-0.006999999999999999,-0.028999999999999998,-0.033,0.0442,-328000.0,-1346000.0,-1519000.0,-0.0322,-0.0328
2009-06-30,49147000.0,-0.1465,23478000.0,25669000.0,5888000.0,19517000.0,26283000.0,-614000.0,186000.0,-781000.0,-1000.0,0.0,0.0,-780000.0,0.0,-780000.0,-0.08,-0.08,10081000.0,10081000.0,0.0,0.5223,0.006,-0.0121,-0.016,0.0125,284000.0,-595000.0,-780000.0,-0.0159,-0.0159
