,0,1,2,3,4,5,6,7,8,9,10,11,12,13,14,15,16,17,18,19,20,21,22,23,24,25,26,27,28,29,30
Date,Revenue,Revenue Growth,Cost of Revenue,Gross Profit,R&D Expenses,SG&A Expense,Operating Expenses,Operating Income,Interest Expense,Earnings before Tax,Income Tax Expense,Net Income - Non-Controlling int,Net Income - Discontinued ops,Net Income,Preferred Dividends,Net Income Com,EPS,EPS Diluted,Weighted Average Shs Out,Weighted Average Shs Out (Dil),Dividend per Share,Gross Margin,EBITDA Margin,EBIT Margin,Profit Margin,Free Cash Flow margin,EBITDA,EBIT,Consolidated Income,Earnings Before Tax Margin,Net Profit Margin
2019-08-28,323500000.0,-0.11417430640000001,79479000.0,36276000.0,0.0,34179000.0,197844000.0,-8998000.0,5977000.0,-14750000.0,469000.0,0.0,0.0,-15226000.0,0.0,-15226000.0,-0.51,-0.51,29786000.0,29786000.0,0.0,0.11213601236500001,0.019527047913400004,-0.0278145285935,-0.047066460587300005,-0.0529119010819,6317000.0,-8998000.0,-15226000.0,-0.04559505409580001,-0.047066460587300005
2018-08-29,365196000.0,-0.02881411373,327090000.0,38106000.0,0.0,38725000.0,225489000.0,-22186000.0,3348000.0,-25224000.0,7730000.0,0.0,0.0,-33568000.0,0.0,-33568000.0,-1.12,-1.12,29901000.0,29901000.0,0.0,0.104343968718,-0.0114979353553,-0.0607509392217,-0.0919177647072,-0.0595488450038,-4199000.0,-22186000.0,-33568000.0,-0.0690697598002,-0.0919177647072
2017-08-30,376031000.0,-0.0660840107391,98714000.0,50102000.0,0.0,37878000.0,225799000.0,-17469000.0,2443000.0,-20358000.0,2438000.0,0.0,0.0,-23262000.0,0.0,-23262000.0,-0.79,-0.79,29476000.0,29476000.0,0.0,0.133239014868,0.008821081240639999,-0.046456276211299996,-0.0618619209586,-0.00761107461885,3317000.0,-17469000.0,-23262000.0,-0.054139153420900005,-0.0618619209586
2016-08-31,402639000.0,0.0217059771369,106980000.0,295659000.0,0.0,42422000.0,236343000.0,-3324000.0,2247000.0,-5381000.0,4875000.0,0.0,0.0,-10346000.0,0.0,-10346000.0,-0.35,-0.35,29226000.0,29226000.0,0.0,0.7343029363770001,0.0469278932245,-0.008255534113680001,-0.0256954741096,-0.010913001472799999,18895000.0,-3324000.0,-10346000.0,-0.0133643288405,-0.0256954741096
2015-08-26,394085000.0,-0.0007505432563939999,107053000.0,287032000.0,0.0,38758000.0,229542000.0,-636000.0,2336000.0,-2448000.0,-1076000.0,0.0,0.0,-2074000.0,0.0,-2074000.0,-0.07,-0.07,28974000.0,28974000.0,0.0,0.728350482764,0.053285458720800004,-0.00161386502912,-0.00526282401005,-0.025532562772,20999000.0,-636000.0,-2074000.0,-0.006211857847930001,-0.00526282401005
2014-08-27,394381000.0,0.010326629947499999,106284000.0,288097000.0,0.0,35038000.0,231650000.0,-3157000.0,1247000.0,-3273000.0,-1660000.0,0.0,0.0,-3447000.0,0.0,-3447000.0,-0.12,-0.12,28812000.0,28812000.0,0.0,0.730504258572,0.043579685633899995,-0.0080049495285,-0.00874027907024,-0.06527951397250001,17187000.0,-3157000.0,-3447000.0,-0.0082990813452,-0.00874027907024
2013-08-28,390350000.0,0.114976706456,104993000.0,285357000.0,0.0,32121000.0,224809000.0,5929000.0,920000.0,6061000.0,1839000.0,0.0,0.0,3285000.0,0.0,3285000.0,0.11,0.11,28618000.0,28866000.0,0.0,0.731028564109,0.06305110797999999,0.0151889330088,0.00841552452927,-0.004859741257850001,24612000.0,5929000.0,3285000.0,0.015527091072100001,0.00841552452927
2012-08-29,350097000.0,0.0038681225412,90416000.0,259681000.0,0.0,30678000.0,214923000.0,9117000.0,942000.0,9264000.0,1706000.0,0.0,0.0,6854000.0,0.0,6854000.0,0.24,0.24,28351000.0,28429000.0,0.0,0.741740146302,0.0777013227763,0.0260413542532,0.0195774313976,0.00976015218639,27203000.0,9117000.0,6854000.0,0.026461237885500002,0.0195774313976
2011-08-31,348748000.0,0.42486282424800004,223801000.0,124947000.0,0.0,47620000.0,120431000.0,4516000.0,2443000.0,3513000.0,548000.0,0.0,-165000.0,2965000.0,0.0,2965000.0,0.1,0.1,28140887.0,28237000.0,0.0,0.3583,0.067,0.0171,0.009000000000000001,0.0576,23234000.0,5956000.0,2965000.0,0.0101,0.0085
2010-08-25,244759000.0,-0.0541409519687,158765000.0,85994000.0,0.0,25503000.0,91566000.0,-5572000.0,640000.0,-5974000.0,-3081000.0,0.0,2281000.0,-2893000.0,0.0,-2893000.0,-0.1,-0.1,28053253.0,28129000.0,0.0,0.3513,0.040999999999999995,-0.0218,-0.012,0.0617,10154000.0,-5334000.0,-2893000.0,-0.0244,-0.0118
2009-08-26,258769000.0,-0.0777,168952000.0,89817000.0,0.0,24724000.0,103270000.0,-13453000.0,389000.0,-25926000.0,492000.0,0.0,12356000.0,-26418000.0,0.0,-26418000.0,-0.94,-0.94,28084000.0,28084000.0,0.0,0.3471,-0.026000000000000002,-0.0987,-0.102,-0.0165,-6619000.0,-25537000.0,-26418000.0,-0.1002,-0.1021
