,0,1,2,3,4,5,6,7,8,9,10,11,12,13,14,15,16,17,18,19,20,21,22,23,24,25,26,27,28,29,30
Date,Revenue,Revenue Growth,Cost of Revenue,Gross Profit,R&D Expenses,SG&A Expense,Operating Expenses,Operating Income,Interest Expense,Earnings before Tax,Income Tax Expense,Net Income - Non-Controlling int,Net Income - Discontinued ops,Net Income,Preferred Dividends,Net Income Com,EPS,EPS Diluted,Weighted Average Shs Out,Weighted Average Shs Out (Dil),Dividend per Share,Gross Margin,EBITDA Margin,EBIT Margin,Profit Margin,Free Cash Flow margin,EBITDA,EBIT,Consolidated Income,Earnings Before Tax Margin,Net Profit Margin
2019-12-31,170198000.0,1.4871476377700001,46158000.0,124040000.0,49842000.0,133736000.0,184421000.0,-60381000.0,0.0,-56639000.0,-1369000.0,0.0,0.0,-55270000.0,0.0,-55270000.0,-1.09,-1.09,50930000.0,50930000.0,0.0,0.728798223246,-0.320039013384,-0.354769151224,-0.324739421145,-0.36072691806,-54470000.0,-60381000.0,-55270000.0,-0.332782993925,-0.324739421145
2018-12-31,68431000.0,1.21818476499,20269000.0,48162000.0,24861000.0,59496000.0,84357000.0,-36195000.0,0.0,-33354000.0,28000.0,0.0,0.0,-33382000.0,162000.0,-33544000.0,-2.02,-2.02,90920000.0,16573000.0,0.0,0.7038,-0.46,-0.4874,-0.49,-0.5488,-31499000.0,-33354000.0,-33382000.0,-0.4874,-0.4878
2017-12-31,30850000.0,,8312000.0,22538000.0,12028000.0,27552000.0,39580000.0,-17042000.0,0.0,-16919000.0,-61000.0,0.0,0.0,-16858000.0,143000.0,-17001000.0,-1.18,-1.18,90920000.0,14442000.0,0.0,0.7306,-0.536,-0.5484,-0.551,-0.5768,-16543000.0,-16919000.0,-16858000.0,-0.5484,-0.5465
