,0,1,2,3,4,5,6,7,8,9,10,11,12,13,14
Date,Depreciation & Amortization,Stock-based compensation,Operating Cash Flow,Capital Expenditure,Acquisitions and disposals,Investment purchases and sales,Investing Cash flow,Issuance (repayment) of debt,Issuance (buybacks) of shares,Dividend payments,Financing Cash Flow,Effect of forex changes on cash,Net cash flow / Change in cash,Free Cash Flow,Net Cash/Marketcap
2019-12-31,1254000000.0,35000000.0,3038000000.0,1269000000.0,-0.0,-754000000.0,-103000000.0,-132000000.0,-754000000.0,-3000000000.0,-3368000000.0,14000000.0,-419000000.0,1769000000.0,0.0
2018-12-31,1186000000.0,30000000.0,4701000000.0,949000000.0,-0.0,-905000000.0,-930000000.0,-132000000.0,-905000000.0,-2979000000.0,-1522000000.0,-18000000.0,2231000000.0,3752000000.0,0.0
2017-12-31,1254000000.0,34000000.0,4543000000.0,837000000.0,-0.0,-375000000.0,-823000000.0,-858000000.0,-375000000.0,-2943000000.0,-3487000000.0,58000000.0,291000000.0,3706000000.0,0.0
2016-12-31,1197000000.0,34000000.0,4043000000.0,1445000000.0,-0.0,0.0,-1442000000.0,-1987000000.0,0.0,-2909000000.0,-2630000000.0,-22000000.0,-51000000.0,2598000000.0,0.0
2015-12-31,1086105000.0,45804000.0,3449971000.0,1528642000.0,-0.0,-205084000.0,-1528466000.0,-2397717000.0,-205084000.0,-2692882000.0,-3206398000.0,-41936000.0,-1326829000.0,1921329000.0,0.0
2014-12-31,1127093000.0,48058000.0,4832844000.0,1178656000.0,-0.0,-1676802000.0,-1176568000.0,-2117466000.0,-1676802000.0,-2386657000.0,-3721786000.0,-28585000.0,-94095000.0,3654188000.0,0.0
2013-12-31,1109556000.0,53377000.0,4439412000.0,943982000.0,-0.0,-561150000.0,-912209000.0,-3513032000.0,-561150000.0,-1564049000.0,-2432450000.0,-7105000.0,1087648000.0,3495430000.0,0.0
2012-12-31,987631000.0,65428000.0,3057757000.0,1449234000.0,-0.0,0.0,-1445632000.0,-4399698000.0,-2512766000.0,-3442312000.0,-3045306000.0,43229000.0,-1389952000.0,1608523000.0,0.0
2011-12-31,0.0,0.0,0.0,0.0,-0.0,0.0,0.0,-0.0,0.0,-0.0,0.0,0.0,0.0,0.0,0.0
2010-12-31,0.0,0.0,0.0,0.0,-0.0,0.0,0.0,-0.0,0.0,-0.0,0.0,0.0,0.0,0.0,0.0
2009-12-31,586041000.0,45545000.0,638613000.0,-2088693000.0,0.0,78630000.0,-2010063000.0,1014191000.0,51000.0,0.0,3305973000.0,-17270000.0,1917253000.0,-1450080000.0,-0.6033
