,0,1,2,3,4,5,6,7,8,9,10,11,12,13,14,15,16,17,18,19,20,21,22,23,24,25,26,27,28,29,30
Date,Revenue,Revenue Growth,Cost of Revenue,Gross Profit,R&D Expenses,SG&A Expense,Operating Expenses,Operating Income,Interest Expense,Earnings before Tax,Income Tax Expense,Net Income - Non-Controlling int,Net Income - Discontinued ops,Net Income,Preferred Dividends,Net Income Com,EPS,EPS Diluted,Weighted Average Shs Out,Weighted Average Shs Out (Dil),Dividend per Share,Gross Margin,EBITDA Margin,EBIT Margin,Profit Margin,Free Cash Flow margin,EBITDA,EBIT,Consolidated Income,Earnings Before Tax Margin,Net Profit Margin
2018-12-31,1099406078.1476,0.303014035,663524746.7438,435881331.4038,46333574.5297,125881620.8394,172215195.36900002,263666136.0347,3337047.7569,305286251.809,19134876.9899,0.0,0.0,286151374.8191,0.0,286151374.8191,1.6932,1.5774,47426648.19100001,48897824.0232,0.0,0.3965,0.0412,0.2807,0.0376,0.3607,313022431.259,308623299.5658,286151374.8191,0.2777,0.2603
2017-12-31,843740779.9274,0.350588569119,644210550.1814,199530229.7461,35564087.0617,92070737.6058,127634824.6675,71895405.0786,11414298.6699,71732013.3011,35403113.6638,0.0,0.0,36328899.6372,32399939.5405,3928960.0967,0.0695,0.0544,32809996.976999998,17173635.7316,0.0,0.2365,0.0154,0.0985,0.0008,0.29100000000000004,85996825.8767,83146311.971,36328899.6372,0.085,0.0431
2016-12-31,624720806.3355,0.606002337449,538035133.1893,86685673.1461,18332181.4255,66764146.8683,85096328.2937,1589344.8524,6960835.1332,-8593376.5299,8388480.9215,0.0,0.0,-16981857.4514,15115622.7502,-32097480.2016,-0.5788,-0.5788,31255714.9028,15931922.1022,0.0,0.1388,-0.0003,-0.0026,-0.0073,0.0801,-972210.2232,-1632541.3967,-16981857.4514,-0.0138,-0.0272
2015-12-31,388991218.6104,,400154059.46699995,-11162840.8566,6230318.9031,43818363.8885,50048682.7916,-61211523.6481,297334.7712,-61489446.9265,-13701124.6341,0.0,0.0,-47788322.2924,7937759.9754,-55726082.2678,-1.0075,-1.0075,33441833.3077,17046248.4979,0.0,-0.0287,-0.0242,-0.1573,-0.022000000000000002,-0.5923,-60978277.6152,-61192112.1553,-47788322.2924,-0.1581,-0.1229
