,0,1,2,3,4,5,6,7,8,9,10,11,12,13,14,15,16,17,18,19,20,21,22,23,24,25,26,27,28
Date,Cash and cash equivalents,Short-term investments,Cash and short-term investments,Receivables,Inventories,Total current assets,Property Plant & Equipment Net,Goodwill and Intangible Assets,Long-term investments,Tax assets,Total non-current assets,Total assets,Payables,Short-term debt,Total current liabilities,Long-term debt,Total debt,Deferred revenue,Tax Liabilities,Deposit Liabilities,Total non-current liabilities,Total liabilities,Other comprehensive income,Retained earnings (deficit),Total shareholders equity,Investments,Net Debt,Other Assets,Other Liabilities
2019-12-31,22791000.0,0.0,22791000.0,39942000.0,23311000.0,130873000.0,936474000.0,0.0,1727000.0,153443000.0,957616000.0,1088489000.0,58477000.0,9410000.0,103300000.0,449634000.0,459044000.0,3600000.0,519000.0,0.0,485351000.0,841162000.0,186567000.0,57632000.0,247327000.0,1727000.0,436253000.0,0.0,252511000.0
2018-12-31,26048000.0,0.0,26048000.0,66692000.0,29209000.0,166413000.0,974248000.0,0.0,1656000.0,661000.0,981920000.0,1148333000.0,62589000.0,12518000.0,125813000.0,412681000.0,425199000.0,7000000.0,577000.0,0.0,469293000.0,806136000.0,185296000.0,153773000.0,342197000.0,1656000.0,399151000.0,0.0,211030000.0
2017-12-31,33619000.0,0.0,33619000.0,59570000.0,21856000.0,163740000.0,1014038000.0,0.0,1804000.0,1736000.0,1025442000.0,1189182000.0,55992000.0,9146000.0,109296000.0,400253000.0,409399000.0,6987000.0,618000.0,0.0,466731000.0,750986000.0,178854000.0,256214000.0,438196000.0,1804000.0,375780000.0,0.0,174959000.0
2016-12-31,60017000.0,0.0,60017000.0,51299000.0,22939000.0,181146000.0,1078958000.0,0.0,2270000.0,1193000.0,1089274000.0,1270420000.0,54246000.0,13745000.0,120246000.0,406475000.0,420220000.0,0.0,657000.0,0.0,512632000.0,777907000.0,175084000.0,314301000.0,492513000.0,2270000.0,360203000.0,0.0,145029000.0
2015-12-31,127314000.0,0.0,127314000.0,92602000.0,53237000.0,332697000.0,1005488000.0,0.0,5007000.0,4774000.0,1029130000.0,1361827000.0,108002000.0,22468000.0,191920000.0,497954000.0,520422000.0,0.0,259000.0,0.0,571055000.0,940247000.0,170717000.0,248150000.0,421580000.0,5007000.0,393108000.0,0.0,177272000.0
2014-12-31,186811000.0,0.0,186811000.0,88074000.0,56586000.0,418882000.0,619205000.0,0.0,6936000.0,17204000.0,718123000.0,1137005000.0,81456000.0,10680000.0,155257000.0,446638000.0,457318000.0,0.0,657000.0,0.0,547700000.0,702957000.0,145163000.0,286188000.0,434048000.0,6936000.0,270507000.0,0.0,0.0
2013-12-31,143750000.0,0.0,143750000.0,80570000.0,55872000.0,353839000.0,416801000.0,0.0,6184000.0,13613000.0,729258000.0,1083097000.0,61775000.0,9262000.0,133893000.0,453705000.0,462967000.0,0.0,2409000.0,0.0,537489000.0,671382000.0,142176000.0,266854000.0,411715000.0,6184000.0,319217000.0,0.0,0.0
2012-12-31,98020000.0,0.0,98020000.0,82801000.0,64973000.0,284747000.0,281871000.0,0.0,5439000.0,3224000.0,291865000.0,576612000.0,68333000.0,4798000.0,117083000.0,67643000.0,72441000.0,0.0,3043000.0,0.0,105032000.0,222115000.0,139632000.0,212192000.0,354497000.0,5439000.0,-25579000.0,0.0,0.0
2011-12-31,0.0,0.0,0.0,0.0,0.0,0.0,0.0,0.0,0.0,0.0,0.0,0.0,0.0,749000.0,749000.0,749000.0,1498000.0,0.0,0.0,0.0,749000.0,1498000.0,0.0,0.0,-1498000.0,0.0,1498000.0,0.0,0.0
2010-12-31,66977000.0,10003000.0,76980000.0,74259000.0,66908000.0,242668000.0,135755000.0,1724000.0,4016000.0,5396000.0,145313000.0,387981000.0,51025000.0,6149000.0,88681000.0,93064000.0,99213000.0,0.0,14261000.0,0.0,119930000.0,208611000.0,0.0,70351000.0,179370000.0,14019000.0,22233000.0,24521000.0,31507000.0
2009-12-31,61769000.0,10051000.0,71820000.0,57762000.0,55899000.0,211495000.0,117962000.0,1724000.0,3838000.0,7169000.0,127138000.0,338633000.0,37553000.0,6222000.0,66829000.0,98596000.0,104818000.0,0.0,11975000.0,0.0,121197000.0,188026000.0,0.0,41082000.0,150607000.0,13889000.0,32998000.0,26014000.0,23054000.0
