,0,1,2,3,4,5,6,7,8,9,10,11,12,13,14,15,16,17,18,19,20,21,22,23,24,25,26,27,28
Date,Cash and cash equivalents,Short-term investments,Cash and short-term investments,Receivables,Inventories,Total current assets,Property Plant & Equipment Net,Goodwill and Intangible Assets,Long-term investments,Tax assets,Total non-current assets,Total assets,Payables,Short-term debt,Total current liabilities,Long-term debt,Total debt,Deferred revenue,Tax Liabilities,Deposit Liabilities,Total non-current liabilities,Total liabilities,Other comprehensive income,Retained earnings (deficit),Total shareholders equity,Investments,Net Debt,Other Assets,Other Liabilities
2019-12-31,358319000.0,2491805000.0,2850124000.0,0.0,0.0,3247363000.0,188603000.0,241644000.0,135000000.0,1921000.0,2444020000.0,5691383000.0,38839000.0,94199000.0,2451365000.0,382077000.0,476276000.0,0.0,0.0,0.0,566895000.0,2837299000.0,8398927000.0,-5547571000.0,2854084000.0,2626805000.0,117957000.0,0.0,0.0
2018-12-31,705064000.0,1520180000.0,2225244000.0,0.0,0.0,2320442000.0,109257000.0,269818000.0,863713000.0,0.0,1439601000.0,3760043000.0,32343000.0,0.0,1448819000.0,0.0,0.0,0.0,0.0,0.0,30458000.0,1479277000.0,133000.0,-2945330000.0,-2871281000.0,2383893000.0,-2225244000.0,95198000.0,1416476000.0
2017-12-31,1178919000.0,1284642000.0,2463561000.0,0.0,0.0,2563695000.0,14208000.0,4349000.0,360882000.0,0.0,453032000.0,3016727000.0,66874000.0,0.0,696818000.0,0.0,0.0,0.0,0.0,0.0,15298000.0,712116000.0,-1011000.0,-2033995000.0,-1979438000.0,1645524000.0,-2463561000.0,100134000.0,629944000.0
