,0,1,2,3,4,5,6,7,8,9,10,11,12,13,14,15,16,17,18,19,20,21,22,23,24,25,26,27,28
Date,Cash and cash equivalents,Short-term investments,Cash and short-term investments,Receivables,Inventories,Total current assets,Property Plant & Equipment Net,Goodwill and Intangible Assets,Long-term investments,Tax assets,Total non-current assets,Total assets,Payables,Short-term debt,Total current liabilities,Long-term debt,Total debt,Deferred revenue,Tax Liabilities,Deposit Liabilities,Total non-current liabilities,Total liabilities,Other comprehensive income,Retained earnings (deficit),Total shareholders equity,Investments,Net Debt,Other Assets,Other Liabilities
2019-12-31,2470362000.0,0.0,2470362000.0,994606000.0,0.0,4192899000.0,1117932000.0,2367452000.0,593699000.0,215919000.0,6782716000.0,10975615000.0,100237000.0,37795000.0,4107599000.0,3271262000.0,3309057000.0,1391032000.0,21723000.0,0.0,3614473000.0,9829795000.0,2238754000.0,-949334000.0,1145820000.0,593699000.0,838695000.0,0.0,2107723000.0
2018-12-31,2371540000.0,0.0,2371540000.0,829320000.0,0.0,3848074000.0,946593000.0,2191797000.0,420891000.0,3620000.0,4648812000.0,8496886000.0,90253000.0,82142000.0,3749866000.0,2732878000.0,2815020000.0,1227797000.0,34071000.0,0.0,3102426000.0,7397905000.0,2261344000.0,-1019223000.0,1098981000.0,420891000.0,443480000.0,0.0,545613000.0
2017-12-31,1825322000.0,0.0,1825322000.0,725304000.0,0.0,3152742000.0,885936000.0,2123612000.0,105271000.0,23164000.0,4351521000.0,7504263000.0,85666000.0,347593000.0,3577000000.0,1952366000.0,2299959000.0,925220000.0,30630000.0,0.0,2273961000.0,6323067000.0,2367141000.0,-1079472000.0,1181196000.0,105271000.0,474637000.0,0.0,472106000.0
2016-12-31,1526591000.0,0.0,1526591000.0,568936000.0,0.0,2673551000.0,751536000.0,2115854000.0,82032000.0,20163000.0,4090715000.0,6764266000.0,55030000.0,53317000.0,2460344000.0,2259736000.0,2313053000.0,804973000.0,15117000.0,0.0,2612844000.0,5638250000.0,2374146000.0,-1073457000.0,1126016000.0,82032000.0,786462000.0,0.0,565062000.0
2015-12-31,1303125000.0,0.0,1303125000.0,452600000.0,0.0,2288315000.0,731282000.0,1973632000.0,81811000.0,46477000.0,3867926000.0,6156241000.0,58607000.0,42352000.0,2101206000.0,2002662000.0,2045014000.0,618640000.0,14022000.0,0.0,2350529000.0,4919288000.0,2421701000.0,-1075111000.0,1236953000.0,81811000.0,741889000.0,0.0,467553000.0
2014-12-31,1382029000.0,445000.0,1382474000.0,419301000.0,0.0,2267691000.0,695337000.0,1848517000.0,127222000.0,60326000.0,3720670000.0,5988361000.0,74151000.0,47485000.0,2010781000.0,2015915000.0,2063400000.0,543122000.0,12619000.0,0.0,2329646000.0,4691407000.0,2407563000.0,-1042603000.0,1296954000.0,127667000.0,681371000.0,0.0,350980000.0
2013-12-31,1299184000.0,0.0,1299184000.0,439151000.0,0.0,2160104000.0,706800000.0,1843719000.0,151106000.0,108835000.0,3523417000.0,5683521000.0,111320000.0,278403000.0,2255518000.0,1530484000.0,1808887000.0,486433000.0,12860000.0,0.0,1782258000.0,4274293000.0,2361416000.0,-951796000.0,1409228000.0,151106000.0,509703000.0,0.0,236517000.0
2012-12-31,1001055000.0,0.0,1001055000.0,415790000.0,0.0,1812812000.0,721786000.0,1735290000.0,0.0,140188000.0,3477994000.0,5290806000.0,102718000.0,62050000.0,1768172000.0,1677955000.0,1740005000.0,402002000.0,15974000.0,0.0,1975561000.0,3935388000.0,2272882000.0,-908418000.0,1355418000.0,0.0,738950000.0,0.0,191655000.0
2011-12-31,844253000.0,0.0,844253000.0,389346000.0,0.0,1576790000.0,720136000.0,1634804000.0,0.0,177315000.0,3510981000.0,5087771000.0,87627000.0,52632000.0,1492553000.0,1663056000.0,1715688000.0,273536000.0,13357000.0,0.0,1975166000.0,3626668000.0,2240800000.0,-745191000.0,1461103000.0,0.0,871435000.0,0.0,158949000.0
2010-12-31,892758000.0,0.0,892758000.0,329947000.0,0.0,1603497000.0,737064000.0,2598898000.0,30077000.0,0.0,3592063000.0,5195560000.0,539177000.0,54150000.0,1474221000.0,1677714000.0,1731864000.0,335539000.0,219143000.0,0.0,2219671000.0,3693892000.0,-22244000.0,-662175000.0,1364416000.0,30077000.0,839106000.0,380792000.0,880894000.0
2009-12-31,236955000.0,0.0,236955000.0,176179000.0,0.0,717866000.0,749984000.0,675561000.0,2077000.0,0.0,1623893000.0,2341759000.0,50844000.0,41032000.0,752234000.0,699037000.0,740069000.0,284536000.0,30480000.0,0.0,864084000.0,1616318000.0,4199000.0,-433785000.0,652317000.0,2077000.0,503114000.0,304732000.0,660358000.0
