,0,1,2,3,4,5,6,7,8,9,10,11,12,13,14
Date,Depreciation & Amortization,Stock-based compensation,Operating Cash Flow,Capital Expenditure,Acquisitions and disposals,Investment purchases and sales,Investing Cash flow,Issuance (repayment) of debt,Issuance (buybacks) of shares,Dividend payments,Financing Cash Flow,Effect of forex changes on cash,Net cash flow / Change in cash,Free Cash Flow,Net Cash/Marketcap
2019-12-31,1077321.0,933682.0,-3318655.0,5225.0,-0.0,0.0,1214953.0,-0.0,-437070.0,-0.0,245494.0,0.0,-1858208.0,-3323880.0,0.0
2018-12-31,4359740.0,1425683.0,-8238571.0,5501719.0,-0.0,0.0,-4158802.0,-0.0,-2551171.0,-0.0,0.0,15.0,-12397358.0,-13740290.0,0.0
2017-12-31,5411377.0,1976816.0,-1069644.0,7788.0,-0.0,0.0,-7788.0,-0.0,-14948529.0,-0.0,20448619.0,317867.0,9950215.0,-1077432.0,0.0
2016-12-31,7457266.0,1817344.0,10172607.0,3689746.0,-0.0,0.0,-3689746.0,-0.0,-345870.0,-0.0,-4007890.0,-31808.0,5000000.0,6482861.0,0.0
2015-12-31,10832742.0,2490175.0,-2961238.0,58386.0,-0.0,0.0,-58386.0,-5050000.0,-2600000.0,-0.0,508838.0,-16632.0,2600000.0,-3019624.0,0.0
2014-12-31,5527762.0,506250.0,0.0,0.0,-0.0,0.0,0.0,-0.0,25000.0,-0.0,0.0,0.0,0.0,0.0,0.0
2013-12-31,1310951.0,94930.0,-1519470.0,-17000.0,-0.0,129397.0,-3002033.0,-0.0,5777596.0,-0.0,5777596.0,0.0,0.0,-1502470.0,0.0
2012-12-31,0.0,0.0,0.0,0.0,-0.0,0.0,0.0,-0.0,0.0,-0.0,0.0,0.0,0.0,0.0,0.0
2011-10-31,0.0,0.0,0.0,0.0,-0.0,0.0,0.0,-0.0,0.0,-0.0,0.0,0.0,0.0,0.0,0.0
