,0,1,2,3,4,5,6,7,8,9,10,11,12,13,14,15,16,17,18,19,20,21,22,23,24,25,26,27,28,29,30
Date,Revenue,Revenue Growth,Cost of Revenue,Gross Profit,R&D Expenses,SG&A Expense,Operating Expenses,Operating Income,Interest Expense,Earnings before Tax,Income Tax Expense,Net Income - Non-Controlling int,Net Income - Discontinued ops,Net Income,Preferred Dividends,Net Income Com,EPS,EPS Diluted,Weighted Average Shs Out,Weighted Average Shs Out (Dil),Dividend per Share,Gross Margin,EBITDA Margin,EBIT Margin,Profit Margin,Free Cash Flow margin,EBITDA,EBIT,Consolidated Income,Earnings Before Tax Margin,Net Profit Margin
2019-06-30,861000.0,-0.013341095202799998,0.0,861000.0,0.0,226000.0,210723.0,634000.0,0.0,634000.0,0.0,0.0,0.0,661919.0,0.0,634000.0,0.32,0.32,2000000.0,2000000.0,0.34700000000000003,1.0,0.759,0.7585,0.759,0.7585,661919.0,661919.0,661919.0,0.7364,0.7585
2018-06-30,872642.0,-0.0809825409831,0.0,872642.0,0.0,210723.0,198032.0,661919.0,0.0,661919.0,0.0,0.0,0.0,751506.0,0.0,661919.0,0.33,0.33,2000000.0,2000000.0,0.276,1.0,0.7909999999999999,0.7914,0.7909999999999999,0.7914,751506.0,751506.0,751506.0,0.7585,0.7914
2017-06-30,949538.0,0.0484787452768,0.0,949538.0,0.0,198032.0,197492.0,751506.0,0.0,751506.0,0.0,0.0,0.0,708142.0,0.0,751506.0,0.38,0.38,2000000.0,2000000.0,0.342,1.0,0.782,0.7819,0.782,0.7819,708142.0,708142.0,708142.0,0.7914,0.7819
2016-06-30,905634.0,-0.571862959689,0.0,905634.0,0.0,197492.0,226600.0,708142.0,0.0,708142.0,0.0,0.0,0.0,1888690.0,0.0,708142.0,0.35,0.35,2000000.0,2000000.0,1.114,1.0,0.893,0.8929,0.893,0.8929,1888690.0,1888690.0,1888690.0,0.7819,0.8929
2015-06-30,2115290.0,-0.323233457566,0.0,2115290.0,0.0,226600.0,310007.0,1888690.0,0.0,1888690.0,0.0,0.0,0.0,2815576.0,0.0,1888690.0,0.94,0.94,2000000.0,2000000.0,1.3880000000000001,1.0,0.9009999999999999,0.9008,0.9009999999999999,0.9008,2815576.0,2815576.0,2815576.0,0.8929,0.9008
2014-06-30,3125583.0,0.0432948348681,0.0,3125583.0,0.0,310007.0,273736.0,2815576.0,0.0,2815576.0,0.0,0.0,0.0,2722141.0,0.0,2815576.0,1.41,1.41,2000000.0,2000000.0,1.4069999999999998,1.0,0.909,0.9086,0.909,0.9086,2722141.0,2722141.0,2722141.0,0.9008,0.9086
2013-06-30,2995877.0,-0.271294235545,0.0,2995877.0,0.0,273736.0,294517.0,2722141.0,0.0,2722141.0,0.0,0.0,0.0,3816713.0,0.0,2722141.0,1.36,1.36,2000000.0,2000000.0,1.995,1.0,0.9279999999999999,0.9284,0.9279999999999999,0.9284,3816713.0,3816713.0,3816713.0,0.9086,0.9284
2012-06-30,4111230.0,0.193901251218,0.0,4111230.0,0.0,294517.0,255750.0,3816713.0,0.0,3816713.0,0.0,0.0,0.0,3187776.0,0.0,3816713.0,1.91,1.91,2000000.0,2000000.0,1.493,1.0,0.9259999999999999,0.9257,0.9259999999999999,0.9257,3187776.0,3187776.0,3187776.0,0.9284,0.9257
2011-06-30,3443526.0,0.16966999149099998,0.0,3443526.0,0.0,255750.0,303454.0,3187776.0,0.0,3187776.0,0.0,0.0,0.0,2640561.0,0.0,3187776.0,1.59,1.59,2000000.0,2000000.0,1.268,1.0,0.897,0.8969,0.897,0.8969,2640561.0,2640561.0,2640561.0,0.9257,0.8969
2010-06-30,2944015.0,-0.295762131476,,2944015.0,,303454.0,,2640561.0,,2640561.0,,,,,,2640561.0,1.32,1.32,2000000.0,,,1.0,,,,,,,,0.8969,
2009-06-30,4180427.0,-0.3256,0.0,4180427.0,0.0,380400.0,380400.0,3800027.0,0.0,3800027.0,-18725.0,0.0,0.0,3818752.0,0.0,3818752.0,1.91,1.91,2000000.0,2000000.0,2.218,1.0,0.909,0.909,0.9129999999999999,0.9135,3800027.0,3800027.0,3818752.0,0.909,0.9135
