,0,1,2,3,4,5,6,7,8,9,10,11,12,13,14,15,16,17,18,19,20,21,22,23,24,25,26,27,28
Date,Cash and cash equivalents,Short-term investments,Cash and short-term investments,Receivables,Inventories,Total current assets,Property Plant & Equipment Net,Goodwill and Intangible Assets,Long-term investments,Tax assets,Total non-current assets,Total assets,Payables,Short-term debt,Total current liabilities,Long-term debt,Total debt,Deferred revenue,Tax Liabilities,Deposit Liabilities,Total non-current liabilities,Total liabilities,Other comprehensive income,Retained earnings (deficit),Total shareholders equity,Investments,Net Debt,Other Assets,Other Liabilities
2018-12-29,552490000.0,0.0,552490000.0,109629000.0,93751000.0,785097000.0,165972000.0,51221000.0,0.0,21210000.0,369721000.0,1154818000.0,40388000.0,4000000.0,147607000.0,0.0,4000000.0,33106000.0,3071000.0,0.0,41787000.0,185753000.0,44138000.0,931073000.0,969065000.0,0.0,-548490000.0,0.0,0.0
2017-12-30,315302000.0,3494000.0,315302000.0,121309000.0,95944000.0,564119000.0,164096000.0,47740000.0,0.0,23898000.0,346116000.0,910235000.0,33779000.0,0.0,151567000.0,0.0,0.0,35929000.0,4292000.0,0.0,61637000.0,203324000.0,0.0,720842000.0,706911000.0,3494000.0,-315302000.0,0.0,0.0
2016-12-31,305970000.0,981000.0,305970000.0,101720000.0,72542000.0,507227000.0,135996000.0,49156000.0,0.0,38975000.0,313298000.0,820525000.0,31125000.0,71000.0,220366000.0,0.0,71000.0,38198000.0,76316000.0,0.0,40263000.0,260289000.0,0.0,589226000.0,560236000.0,981000.0,-305899000.0,0.0,0.0
2016-01-02,132317000.0,2404000.0,132317000.0,80960000.0,62038000.0,299142000.0,132466000.0,47950000.0,0.0,44320000.0,302593000.0,601735000.0,25865000.0,74000.0,132633000.0,185071000.0,185145000.0,21280000.0,2777000.0,0.0,193584000.0,326320000.0,0.0,288560000.0,275415000.0,2404000.0,52828000.0,0.0,103000.0
2015-01-03,134453000.0,18482000.0,134453000.0,71017000.0,69718000.0,315141000.0,101952000.0,48750000.0,0.0,24193000.0,249865000.0,565006000.0,38045000.0,79000.0,123894000.0,125145000.0,125224000.0,21067000.0,6562000.0,0.0,151436000.0,259007000.0,102780000.0,205260000.0,305999000.0,18482000.0,-9229000.0,0.0,-16323000.0
2013-12-28,95466000.0,39919000.0,95466000.0,76759000.0,56813000.0,271798000.0,24866000.0,50897000.0,0.0,22565000.0,166864000.0,438662000.0,28004000.0,111000.0,103790000.0,225000.0,336000.0,20755000.0,2406000.0,0.0,28107000.0,112193000.0,189675000.0,132742000.0,326469000.0,39919000.0,-95130000.0,0.0,-19704000.0
2012-12-29,71554000.0,28628000.0,71554000.0,67911000.0,47358000.0,219347000.0,23924000.0,50187000.0,0.0,22363000.0,156599000.0,375946000.0,27033000.0,55000.0,89539000.0,60000.0,115000.0,19278000.0,1504000.0,0.0,23650000.0,102867000.0,195119000.0,74361000.0,273079000.0,28628000.0,-71439000.0,0.0,-10322000.0
2011-12-31,129882000.0,28088000.0,129882000.0,57013000.0,45944000.0,262935000.0,15239000.0,11841000.0,0.0,16766000.0,103169000.0,366104000.0,27302000.0,48000.0,75953000.0,74000.0,122000.0,16019000.0,570000.0,0.0,22061000.0,89276000.0,206132000.0,69364000.0,276828000.0,28088000.0,-129760000.0,0.0,-8738000.0
2011-01-01,88305000.0,0.0,88305000.0,0.0,0.0,88305000.0,0.0,0.0,0.0,0.0,221930000.0,310235000.0,0.0,0.0,0.0,0.0,0.0,0.0,0.0,0.0,0.0,82590000.0,221922000.0,5664000.0,227645000.0,0.0,-88305000.0,0.0,82590000.0
2010-01-02,132054000.0,56989000.0,189043000.0,50397000.0,31559000.0,289388000.0,11682000.0,10277000.0,0.0,24790000.0,66957000.0,356345000.0,16716000.0,60000.0,59441000.0,171000.0,231000.0,14911000.0,477000.0,0.0,7216000.0,66657000.0,63000.0,94112000.0,288714000.0,56989000.0,-188812000.0,18389000.0,42665000.0
