,0,1,2,3,4,5,6,7,8,9,10,11,12,13,14,15,16,17,18,19,20,21,22,23,24,25,26,27,28,29,30
Date,Revenue,Revenue Growth,Cost of Revenue,Gross Profit,R&D Expenses,SG&A Expense,Operating Expenses,Operating Income,Interest Expense,Earnings before Tax,Income Tax Expense,Net Income - Non-Controlling int,Net Income - Discontinued ops,Net Income,Preferred Dividends,Net Income Com,EPS,EPS Diluted,Weighted Average Shs Out,Weighted Average Shs Out (Dil),Dividend per Share,Gross Margin,EBITDA Margin,EBIT Margin,Profit Margin,Free Cash Flow margin,EBITDA,EBIT,Consolidated Income,Earnings Before Tax Margin,Net Profit Margin
2018-06,,0.0,,,,,,,,,,,,864000000.0,,864000000.0,1.0,1.0,860000000.0,865000000.0,,,,,,,,864000000.0,864000000.0,,
2017-12-31,182626000.0,0.0,51870000.0,130756000.0,35810000.0,109296000.0,145106000.0,-14350000.0,0.0,-14625000.0,167000.0,0.0,0.0,-14792000.0,0.0,-14792000.0,-0.33,-0.33,44309000.0,44309000.0,0.0,0.715976914569,-0.0284734922738,-0.07857588733260001,-0.0809961341759,0.0233263609782,-5200000.0,-14350000.0,-14792000.0,-0.08008169702010001,-0.0809961341759
2017-06,,0.0,,,,,,,,,,,,750000000.0,,750000000.0,0.88,0.87,854000000.0,864000000.0,,,,,,,,750000000.0,750000000.0,,
2016-12-31,139021000.0,0.0,43080000.0,95941000.0,30316000.0,86957000.0,117273000.0,-21332000.0,0.0,-22658000.0,321000.0,0.0,0.0,-22979000.0,0.0,-22979000.0,-0.58,-0.58,39912566.0,39912566.0,0.0,0.6901187590360001,-0.097661504377,-0.15344444364499998,-0.165291574654,-0.08982096230070001,-13577000.0,-21332000.0,-22979000.0,-0.162982570978,-0.165291574654
2016-06,,0.0,,,,,,,,,,,,605000000.0,,605000000.0,0.71,0.7,850000000.0,867000000.0,,,,,,,,605000000.0,605000000.0,,
2015-12-31,101369000.0,0.0,37190000.0,64179000.0,23057000.0,75875000.0,98932000.0,-34742000.0,955000.0,-35842000.0,246000.0,0.0,0.0,-36088000.0,0.0,-36088000.0,-1.68,-1.68,26319903.0,26319903.0,0.0,0.63312255226,-0.278448046247,-0.34272805295500003,-0.35600627410700003,-0.28108198758999997,-28226000.0,-34742000.0,-36088000.0,-0.35357949669,-0.35600627410700003
2015-06,,0.0,,,,,,,,,,,,590000000.0,,590000000.0,0.7,0.67,847000000.0,879000000.0,,,,,,,,590000000.0,590000000.0,,
2014-06,,,,,,,,,,,,,,465000000.0,,465000000.0,0.55,0.53,845000000.0,881000000.0,,,,,,,,465000000.0,465000000.0,,
