,0,1,2,3,4,5,6,7,8,9,10,11,12,13,14
Date,Depreciation & Amortization,Stock-based compensation,Operating Cash Flow,Capital Expenditure,Acquisitions and disposals,Investment purchases and sales,Investing Cash flow,Issuance (repayment) of debt,Issuance (buybacks) of shares,Dividend payments,Financing Cash Flow,Effect of forex changes on cash,Net cash flow / Change in cash,Free Cash Flow,Net Cash/Marketcap
2019-12-31,0.0,12000000.0,-368000000.0,0.0,-0.0,751000000.0,1267000000.0,-25000000.0,-106000000.0,-0.0,-1096000000.0,0.0,83000000.0,-368000000.0,0.0
2018-12-31,0.0,6000000.0,-319000000.0,1000000.0,-0.0,285000000.0,1205000000.0,-108000000.0,-44000000.0,-0.0,-752000000.0,-1000000.0,134000000.0,-320000000.0,0.0
2017-12-31,0.0,10000000.0,-630000000.0,1000000.0,-0.0,238000000.0,1200000000.0,-0.0,-330000000.0,-0.0,-611000000.0,-2000000.0,-41000000.0,-631000000.0,0.0
2016-12-31,0.0,0.0,-142000000.0,1000000.0,-0.0,572000000.0,2422000000.0,-0.0,-108000000.0,-0.0,-2542000000.0,-2000000.0,-262000000.0,-143000000.0,0.0
2015-12-31,0.0,20000000.0,-55000000.0,3000000.0,-0.0,497000000.0,809000000.0,-11000000.0,-303000000.0,-0.0,-1014000000.0,-8000000.0,-260000000.0,-58000000.0,0.0
2014-12-31,0.0,18000000.0,-333000000.0,13000000.0,-0.0,452000000.0,804000000.0,-0.0,-32000000.0,-0.0,-892000000.0,-8000000.0,-421000000.0,-346000000.0,0.0
2013-12-31,0.0,11000000.0,1829000000.0,3000000.0,-0.0,0.0,5000000.0,-3000000.0,0.0,-0.0,-1566000000.0,11000000.0,268000000.0,1826000000.0,0.0
2012-12-31,0.0,11000000.0,-1027000000.0,7000000.0,-0.0,0.0,4195000000.0,-540000000.0,-990000000.0,-0.0,-2811000000.0,0.0,357000000.0,-1034000000.0,0.0
2011-12-31,4000000.0,13000000.0,-2976000000.0,5000000.0,-0.0,-50000000.0,4295000000.0,-65000000.0,-50000000.0,-0.0,-1816000000.0,0.0,-497000000.0,-2981000000.0,0.0
2010-12-31,25650000.0,2264000.0,-1256650000.0,4713000.0,-0.0,-30521000.0,5011364000.0,-392477000.0,-30521000.0,-1005000.0,-3428225000.0,0.0,326489000.0,-1261363000.0,0.0
2009-12-31,9000000.0,6000000.0,-2192000000.0,-6000000.0,0.0,4982000000.0,4976000000.0,-4201000000.0,-16000000.0,-10000000.0,-4261000000.0,0.0,-1477000000.0,-2198000000.0,-5.9453
