,0,1,2,3,4,5,6,7,8,9,10,11,12,13,14
Date,Depreciation & Amortization,Stock-based compensation,Operating Cash Flow,Capital Expenditure,Acquisitions and disposals,Investment purchases and sales,Investing Cash flow,Issuance (repayment) of debt,Issuance (buybacks) of shares,Dividend payments,Financing Cash Flow,Effect of forex changes on cash,Net cash flow / Change in cash,Free Cash Flow,Net Cash/Marketcap
2018-12-31,2809000.0,50000.0,203590000.0,9195000.0,-0.0,188252000.0,-509066000.0,-0.0,-336524000.0,-10216000.0,282481000.0,0.0,-22995000.0,194395000.0,0.0
2017-12-31,2850000.0,458000.0,-175886000.0,788000.0,-0.0,116506000.0,-523137000.0,-0.0,-253274000.0,-7950000.0,612841000.0,0.0,-86182000.0,-176674000.0,0.0
2016-12-31,278000.0,0.0,-149771000.0,-1204000.0,-11126000.0,-251360000.0,-265302000.0,-485000.0,0.0,-6224000.0,413973000.0,0.0,-1100000.0,-150975000.0,0.17800000000000002
2015-12-31,301000.0,0.0,118328000.0,-322000.0,0.0,-347876000.0,-349333000.0,9631000.0,3941000.0,-4222000.0,448151000.0,0.0,217146000.0,118006000.0,0.17800000000000002
