,0,1,2,3,4,5,6,7,8,9,10,11,12,13,14,15,16,17,18,19,20,21,22,23,24,25,26,27,28,29,30
Date,Revenue,Revenue Growth,Cost of Revenue,Gross Profit,R&D Expenses,SG&A Expense,Operating Expenses,Operating Income,Interest Expense,Earnings before Tax,Income Tax Expense,Net Income - Non-Controlling int,Net Income - Discontinued ops,Net Income,Preferred Dividends,Net Income Com,EPS,EPS Diluted,Weighted Average Shs Out,Weighted Average Shs Out (Dil),Dividend per Share,Gross Margin,EBITDA Margin,EBIT Margin,Profit Margin,Free Cash Flow margin,EBITDA,EBIT,Consolidated Income,Earnings Before Tax Margin,Net Profit Margin
2019-12-31,210000.0,-0.888416578108,0.0,0.0,31590000.0,0.0,631991000.0,114543000.0,0.0,147505000.0,11813000.0,0.0,0.0,105095000.0,0.0,105095000.0,2.09,1.89,50373874.0,55513149.0,3.7680802434800005,0.0,569.085714286,545.4428571430001,500.45238095199994,965.904761905,119508000.0,114543000.0,105095000.0,702.404761905,500.45238095199994
2018-12-31,1882000.0,0.517741935484,0.0,0.0,29747000.0,0.0,659059000.0,226781000.0,0.0,238452000.0,30448000.0,0.0,0.0,140680000.0,0.0,140680000.0,3.26,2.78,43216358.0,50690528.0,6.19103829418,0.0,122.95749203,120.5,74.75026567479999,204.021785335,231406000.0,226781000.0,140680000.0,126.701381509,74.75026567479999
2017-12-31,1240000.0,-0.82969372339,0.0,0.0,25173000.0,0.0,520333000.0,164282000.0,0.0,350351000.0,223827000.0,0.0,0.0,29400000.0,0.0,29400000.0,0.96,0.78,30597058.0,37675511.0,6.7867427199599994,0.0,135.343548387,132.485483871,23.709677419400002,183.496774194,167826000.0,164282000.0,29400000.0,282.541129032,23.709677419400002
2016-12-31,7281000.0,0.259688581315,0.0,0.0,22025000.0,0.0,452284000.0,161089000.0,0.0,166674000.0,24809000.0,0.0,0.0,38387000.0,0.0,38387000.0,1.83,1.58,20933757.0,24242302.0,6.381530928869999,0.0,22.561736025300004,22.124570800700003,5.27221535503,31.3948633429,164272000.0,161089000.0,38387000.0,22.8916357643,5.27221535503
2015-12-31,5780000.0,-0.00840624463887,0.0,0.0,18263000.0,0.0,414360000.0,137503000.0,0.0,144064000.0,23847000.0,0.0,0.0,33104000.0,0.0,33104000.0,1.65,1.55,20021652.0,21362571.0,3.78741865855,0.0,24.245328719699998,23.7894463668,5.727335640140001,23.9283737024,140138000.0,137503000.0,33104000.0,24.924567474,5.727335640140001
2014-12-31,5829000.0,-0.985830825551,0.0,0.0,15841000.0,0.0,471006000.0,47744000.0,0.0,46295000.0,13740000.0,0.0,0.0,-3012000.0,0.0,-3012000.0,-0.19,-0.19,15911819.0,15911819.0,4.7909670164,0.0,8.57985932407,8.1907702865,-0.516726711271,35.1729284611,50012000.0,47744000.0,-3012000.0,7.94218562361,-0.516726711271
2013-12-31,411386000.0,0.0661231344154,0.0,411386000.0,0.0,324099000.0,341277000.0,70109000.0,0.0,73019000.0,2794000.0,0.0,0.0,70225000.0,0.0,70225000.0,,,51484111.0,51484111.0,0.0,1.0,0.183,0.1775,0.171,0.2821,75315000.0,73019000.0,70225000.0,0.1775,0.1707
2012-12-31,385871000.0,0.439688236874,0.0,385871000.0,0.0,329515000.0,347826000.0,38045000.0,0.0,37720000.0,2498000.0,0.0,0.0,35222000.0,0.0,35222000.0,,,,,0.0,1.0,0.10400000000000001,0.0978,0.091,0.2774,40227000.0,37720000.0,35222000.0,0.0978,0.0913
2011-12-31,268024000.0,,0.0,268024000.0,0.0,255161000.0,278894000.0,-10870000.0,0.0,-4888000.0,3642000.0,0.0,0.0,-8530000.0,0.0,-8530000.0,,,,,0.0,1.0,-0.01,-0.0182,-0.032,-0.0837,-2803000.0,-4888000.0,-8530000.0,-0.0182,-0.0318
