,0,1,2,3,4,5,6,7,8,9,10,11,12,13,14
Date,Depreciation & Amortization,Stock-based compensation,Operating Cash Flow,Capital Expenditure,Acquisitions and disposals,Investment purchases and sales,Investing Cash flow,Issuance (repayment) of debt,Issuance (buybacks) of shares,Dividend payments,Financing Cash Flow,Effect of forex changes on cash,Net cash flow / Change in cash,Free Cash Flow,Net Cash/Marketcap
2019-12-31,1126000.0,3067000.0,40957000.0,0.0,-0.0,-213664000.0,-1014789000.0,-0.0,-391221000.0,-0.0,1132103000.0,0.0,391221000.0,40957000.0,0.0
2018-12-31,1105000.0,1711000.0,27060000.0,1964000.0,-0.0,5252000.0,-454570000.0,-0.0,-232983000.0,-0.0,399229000.0,0.0,232950000.0,25096000.0,0.0
2017-12-31,430000.0,0.0,14558000.0,1180000.0,-0.0,8196000.0,-233665000.0,-0.0,28368000.0,-3420000.0,236391000.0,0.0,17284000.0,13378000.0,0.0
2016-12-31,785000.0,2328000.0,14558000.0,-1180000.0,0.0,-232485000.0,-233665000.0,-17729000.0,28368000.0,0.0,236391000.0,0.0,17284000.0,13378000.0,0.4704
2015-12-31,696000.0,447000.0,5443000.0,-1732000.0,0.0,-185342000.0,-187074000.0,32224000.0,12606000.0,0.0,201623000.0,0.0,19992000.0,3711000.0,0.4704
