,0,1,2,3,4,5,6,7,8,9,10,11,12,13,14,15,16,17,18,19,20,21,22,23,24,25,26,27,28,29,30
Date,Revenue,Revenue Growth,Cost of Revenue,Gross Profit,R&D Expenses,SG&A Expense,Operating Expenses,Operating Income,Interest Expense,Earnings before Tax,Income Tax Expense,Net Income - Non-Controlling int,Net Income - Discontinued ops,Net Income,Preferred Dividends,Net Income Com,EPS,EPS Diluted,Weighted Average Shs Out,Weighted Average Shs Out (Dil),Dividend per Share,Gross Margin,EBITDA Margin,EBIT Margin,Profit Margin,Free Cash Flow margin,EBITDA,EBIT,Consolidated Income,Earnings Before Tax Margin,Net Profit Margin
2018-09-30,66820598.0,-0.30580385791299997,14343910.0,52476688.0,0.0,11996136.0,11996136.0,40480552.0,27918291.0,-110766080.0,157922.0,0.0,0.0,-110924002.0,0.0,-110924002.0,-2.04,-2.04,54474211.0,54474211.0,0.52,0.7853,-1.24,-1.2399,-1.66,1.1779,-82847789.0,-82847789.0,-110924002.0,-1.6577,-1.66
2017-09-30,96256078.0,-0.20284140894000002,18576664.0,77679414.0,0.0,9639512.0,9639512.0,68039902.0,31402538.0,-14809463.0,267183.0,0.0,0.0,-15076646.0,0.0,-15076646.0,-0.28,-0.28,54474211.0,54474211.0,0.76,0.807,0.172,0.1724,-0.157,0.6829,16593075.0,16593075.0,-15076646.0,-0.1539,-0.1566
2016-09-30,120748969.0,-0.190669411725,27314940.0,93434029.0,0.0,9566416.0,9566416.0,83867613.0,30276926.0,-27962085.0,0.0,0.0,0.0,-27962085.0,0.0,-27962085.0,-0.5,-0.5,54763411.0,55399646.0,1.12,0.7738,0.019,0.0192,-0.23199999999999998,2.26,2314841.0,2314841.0,-27962085.0,-0.2316,-0.2316
2015-09-30,149196102.0,0.0703511862341,40684508.0,108511594.0,0.0,10044055.0,10044055.0,98467539.0,25531099.0,-14757823.0,0.0,0.0,0.0,-14757823.0,0.0,-14757823.0,-0.26,-0.26,57738526.0,57624779.0,1.27,0.7273,0.07200000000000001,0.0722,-0.099,-0.1374,10773276.0,10773276.0,-14757823.0,-0.0989,-0.0989
2014-09-30,139389860.0,0.566334237296,36351049.0,103038811.0,0.0,8237870.0,8237870.0,94800941.0,20132727.0,52158165.0,0.0,0.0,0.0,52158165.0,0.0,52158165.0,1.1,1.1,52283712.0,47366892.0,1.48,0.7392,0.519,0.5186,0.374,-2.8679,72290892.0,72290892.0,52158165.0,0.3742,0.3742
2013-09-30,88991134.0,0.998889270538,22517498.0,66473636.0,0.0,6475581.0,6626497.0,59847139.0,13448573.0,39417756.0,0.0,0.0,0.0,39417756.0,0.0,39417756.0,1.3,1.3,33226126.0,30246247.0,1.45,0.747,0.594,0.5941,0.44299999999999995,-3.5731,52866329.0,52866329.0,39417756.0,0.4429,0.4429
2012-09-30,44520292.0,2.05585408434,11366649.0,33153643.0,0.0,4597045.0,4597045.0,28556598.0,5010670.0,22439443.0,35501.0,0.0,0.0,22403942.0,0.0,22403942.0,1.25,1.25,17320468.0,17919310.0,1.2,0.7447,0.617,0.6166,0.503,-3.7627,27450113.0,27450113.0,22403942.0,0.504,0.5032
2011-09-30,14568854.0,,2323863.0,12244991.0,0.0,2361031.0,2453257.0,9791734.0,163072.0,9534134.0,0.0,0.0,0.0,9534134.0,0.0,9534134.0,0.55,0.55,17320468.0,17258215.0,0.37,0.8405,0.6659999999999999,0.6656,0.654,-7.1888,9697206.0,9697206.0,9534134.0,0.6544,0.6544
