,0,1,2,3,4,5,6,7,8,9,10,11,12,13,14,15,16,17,18,19,20,21,22,23,24,25,26,27,28,29,30
Date,Revenue,Revenue Growth,Cost of Revenue,Gross Profit,R&D Expenses,SG&A Expense,Operating Expenses,Operating Income,Interest Expense,Earnings before Tax,Income Tax Expense,Net Income - Non-Controlling int,Net Income - Discontinued ops,Net Income,Preferred Dividends,Net Income Com,EPS,EPS Diluted,Weighted Average Shs Out,Weighted Average Shs Out (Dil),Dividend per Share,Gross Margin,EBITDA Margin,EBIT Margin,Profit Margin,Free Cash Flow margin,EBITDA,EBIT,Consolidated Income,Earnings Before Tax Margin,Net Profit Margin
2019-12-31,106132000.0,0.244935543278,56537000.0,49595000.0,20127000.0,30167000.0,53010000.0,-6515000.0,0.0,-5763000.0,-1721000.0,0.0,0.0,-4042000.0,0.0,-4042000.0,-0.09,-0.09,4793000.0,4793000.0,0.0,0.46729544341000007,0.015565522179900001,-0.061385821429900005,-0.038084649304599996,0.0322334451438,1652000.0,-6515000.0,-4042000.0,-0.0543003052802,-0.038084649304599996
2018-12-31,85251000.0,-0.0558195168954,47804000.0,37447000.0,15423000.0,24669000.0,42341000.0,-3888000.0,0.0,-2834000.0,-156000.0,0.0,0.0,-2678000.0,0.0,-2678000.0,-0.06,-0.06,5056000.0,5056000.0,4.33366297468,0.43925584450599997,-0.0151317873104,-0.045606503149499995,-0.0314131212537,0.0524803228115,-1290000.0,-3888000.0,-2678000.0,-0.033243011812200005,-0.0314131212537
2017-12-31,90291000.0,-0.303025156893,49339000.0,40952000.0,18094000.0,29219000.0,47615000.0,-6361000.0,0.0,-6045000.0,42000.0,0.0,0.0,-6087000.0,0.0,-6087000.0,-0.16,-0.16,5056000.0,5056000.0,0.0,0.45355572537699995,-0.0395388244676,-0.07044998947850001,-0.0674153570123,0.0014397891262700002,-3570000.0,-6361000.0,-6087000.0,-0.0669501943715,-0.0674153570123
2016-12-31,129547000.0,-0.094159272234,76970000.0,52577000.0,28446000.0,44061000.0,72616000.0,-83897000.0,109000.0,-84012000.0,54000.0,0.0,0.0,-84066000.0,0.0,-84066000.0,-2.01,-2.01,5190000.0,5190000.0,0.0,0.405852702108,-0.622963094475,-0.6476182389399999,-0.6489227847810001,-0.0359329046601,-80703000.0,-83897000.0,-84066000.0,-0.648505947648,-0.6489227847810001
2015-12-31,143013000.0,-0.216984954337,78767000.0,64246000.0,31058000.0,34972000.0,67413000.0,-507000.0,76000.0,-570000.0,27000.0,0.0,0.0,26721000.0,0.0,26721000.0,0.65,0.65,5233000.0,5233000.0,0.321995031531,0.4492318880100001,0.0220539391524,-0.0035451322606999997,0.186843154119,0.0604560424577,3154000.0,-507000.0,26721000.0,-0.003985651654050001,0.186843154119
2014-12-31,182644000.0,0.197273025238,114581000.0,68063000.0,29561000.0,33174000.0,62811000.0,4962000.0,76000.0,4900000.0,24277000.0,0.0,0.0,-19090000.0,0.0,-19090000.0,-0.48,-0.48,34157000.0,40010000.0,0.0832291927018,0.372653905959,0.0496430213968,0.027167604739299998,-0.104520268938,0.10487067738299999,9067000.0,4962000.0,-19090000.0,0.0268281465583,-0.104520268938
2013-12-31,152550000.0,0.102996999385,91858000.0,60692000.0,27346000.0,30567000.0,57989000.0,2749000.0,76000.0,2712000.0,1755000.0,0.0,0.0,1817000.0,0.0,1817000.0,0.05,0.05,26798000.0,36999000.0,0.0,0.39784988528399995,0.0618289085546,0.0180203212062,0.011910848902,0.0691904293674,9432000.0,2749000.0,1817000.0,0.0177777777778,0.011910848902
2012-12-31,138305000.0,-0.0573926911386,80594000.0,57711000.0,23395000.0,36582000.0,60415000.0,-18190000.0,438000.0,-18639000.0,16557000.0,0.0,0.0,-35196000.0,0.0,-35196000.0,-1.05,-1.05,24412000.0,33986000.0,0.275878302831,0.417273417447,-0.07037344998369999,-0.131520913922,-0.254481038285,0.12307581070800001,-9733000.0,-18190000.0,-35196000.0,-0.13476736199,-0.254481038285
2011-12-31,146726000.0,0.5038640510010001,81835000.0,64891000.0,22794000.0,38143000.0,61541000.0,6030000.0,604000.0,5572000.0,2613000.0,0.0,0.0,2959000.0,0.0,2959000.0,0.08,0.08,9928000.0,9928000.0,0.295930701048,0.44225972220299997,0.10565952864499999,0.04109701075469999,0.0201668415959,0.08731240543600001,15503000.0,6030000.0,2959000.0,0.0379755462563,0.0201668415959
2010-12-31,97566000.0,0.046160774600300006,60286000.0,37280000.0,16804000.0,31037000.0,43798000.0,-6518000.0,107000.0,-3660000.0,-617000.0,0.0,0.0,-3043000.0,199000.0,-3242000.0,-0.1,-0.1,35057741.0,32654000.0,0.08,0.3821,0.042,-0.0364,-0.033,0.061,4141000.0,-3553000.0,-3043000.0,-0.0375,-0.0312
2009-12-31,93261000.0,-0.3629,53081000.0,40180000.0,14478000.0,33984000.0,49243000.0,-9063000.0,99000.0,-3587000.0,-1525000.0,0.0,0.0,-2062000.0,187000.0,-2249000.0,-0.07,-0.07,36059209.0,33714000.0,0.08,0.4308,0.08800000000000001,-0.0374,-0.024,0.1584,8216000.0,-3488000.0,-2062000.0,-0.0385,-0.0221
