,0,1,2,3,4,5,6,7,8,9,10,11,12,13,14
Date,Depreciation & Amortization,Stock-based compensation,Operating Cash Flow,Capital Expenditure,Acquisitions and disposals,Investment purchases and sales,Investing Cash flow,Issuance (repayment) of debt,Issuance (buybacks) of shares,Dividend payments,Financing Cash Flow,Effect of forex changes on cash,Net cash flow / Change in cash,Free Cash Flow,Net Cash/Marketcap
2019-12-31,8167000.0,3147000.0,5094000.0,1673000.0,-7921000.0,0.0,-9683000.0,-0.0,-42526000.0,-0.0,1885000.0,0.0,-2704000.0,3421000.0,0.0
2018-12-31,2598000.0,3040000.0,5051000.0,577000.0,-34335000.0,-5673000.0,-36563000.0,-0.0,-5673000.0,-21911000.0,-27448000.0,0.0,-58960000.0,4474000.0,0.0
2017-12-31,2791000.0,4597000.0,1692000.0,1577000.0,-0.0,0.0,-1577000.0,-0.0,-104190000.0,-0.0,125000.0,0.0,240000.0,115000.0,0.0
2016-12-31,3194000.0,10183000.0,-3669000.0,1000000.0,-0.0,-365000.0,-1224000.0,-0.0,-365000.0,-0.0,-312000.0,0.0,-5205000.0,-4669000.0,0.0
2015-12-31,3661000.0,10025000.0,12753000.0,4158000.0,-0.0,-3822000.0,21822000.0,-0.0,-3822000.0,-1685000.0,-5452000.0,0.0,29123000.0,8595000.0,0.0
2014-12-31,4105000.0,11903000.0,22419000.0,3482000.0,-0.0,-2486000.0,-3178000.0,-0.0,30041000.0,-3330000.0,29879000.0,0.0,49120000.0,18937000.0,0.0
2013-12-31,6683000.0,9264000.0,13596000.0,3195000.0,-0.0,-119000.0,1647000.0,-0.0,-119000.0,-0.0,-261000.0,0.0,14982000.0,10401000.0,0.0
2012-12-31,8457000.0,15696000.0,19901000.0,2999000.0,-0.0,-1651000.0,3320000.0,-0.0,-1651000.0,-9376000.0,-44734000.0,0.0,-21513000.0,16902000.0,0.0
2011-12-31,9473000.0,15143000.0,16782000.0,4074000.0,-15801000.0,-6159000.0,-10392000.0,-0.0,-6159000.0,-2938000.0,-6275000.0,0.0,115000.0,12708000.0,0.0
2010-12-31,7694000.0,10796000.0,9388000.0,-3440000.0,0.0,0.0,3223000.0,-6000.0,-6135000.0,-2816000.0,-8921000.0,0.0,3690000.0,5948000.0,0.1116
2009-12-31,11704000.0,9528000.0,17147000.0,-2374000.0,0.0,0.0,2535000.0,-39000.0,-10590000.0,-2902000.0,-13462000.0,0.0,6220000.0,14773000.0,0.1836
