,0,1,2,3,4,5,6,7,8,9,10,11,12,13,14,15,16,17,18,19,20,21,22,23,24,25,26,27,28
Date,Cash and cash equivalents,Short-term investments,Cash and short-term investments,Receivables,Inventories,Total current assets,Property Plant & Equipment Net,Goodwill and Intangible Assets,Long-term investments,Tax assets,Total non-current assets,Total assets,Payables,Short-term debt,Total current liabilities,Long-term debt,Total debt,Deferred revenue,Tax Liabilities,Deposit Liabilities,Total non-current liabilities,Total liabilities,Other comprehensive income,Retained earnings (deficit),Total shareholders equity,Investments,Net Debt,Other Assets,Other Liabilities
2006-12,2000000.0,,,3000000.0,2000000.0,209000000.0,191000000.0,0.0,9000000.0,,134000000.0,221000000.0,4000000.0,26000000.0,39000000.0,124000000.0,124000000.0,8000000.0,,,134000000.0,173000000.0,-0.0,0.0,48000000.0,9000000.0,148000000.0,14000000.0,3000000.0
2005-12,12000000.0,,,0.0,0.0,132000000.0,122000000.0,0.0,6000000.0,,91000000.0,149000000.0,1000000.0,12000000.0,18000000.0,77000000.0,77000000.0,13000000.0,,,91000000.0,108000000.0,1000000.0,-10000000.0,40000000.0,6000000.0,77000000.0,6000000.0,1000000.0
2004-12,12000000.0,,,0.0,1000000.0,66000000.0,57000000.0,0.0,0.0,,38000000.0,80000000.0,1000000.0,8000000.0,12000000.0,38000000.0,38000000.0,0.0,,,38000000.0,49000000.0,0.0,-21000000.0,31000000.0,0.0,34000000.0,9000000.0,1000000.0
2003-12,16000000.0,,,1000000.0,1000000.0,68000000.0,62000000.0,0.0,0.0,,47000000.0,87000000.0,1000000.0,4000000.0,11000000.0,47000000.0,47000000.0,0.0,,,47000000.0,58000000.0,-0.0,-22000000.0,29000000.0,0.0,35000000.0,6000000.0,1000000.0
2002-12,14000000.0,,,1000000.0,1000000.0,94000000.0,91000000.0,0.0,0.0,,65000000.0,113000000.0,1000000.0,13000000.0,21000000.0,65000000.0,65000000.0,0.0,,,65000000.0,87000000.0,-0.0,-25000000.0,26000000.0,0.0,64000000.0,5000000.0,1000000.0
