,0,1,2,3,4,5,6,7,8,9,10,11,12,13,14,15,16,17,18,19,20,21,22,23,24,25,26,27,28,29,30
Date,Revenue,Revenue Growth,Cost of Revenue,Gross Profit,R&D Expenses,SG&A Expense,Operating Expenses,Operating Income,Interest Expense,Earnings before Tax,Income Tax Expense,Net Income - Non-Controlling int,Net Income - Discontinued ops,Net Income,Preferred Dividends,Net Income Com,EPS,EPS Diluted,Weighted Average Shs Out,Weighted Average Shs Out (Dil),Dividend per Share,Gross Margin,EBITDA Margin,EBIT Margin,Profit Margin,Free Cash Flow margin,EBITDA,EBIT,Consolidated Income,Earnings Before Tax Margin,Net Profit Margin
2018-12-31,6138000.0,-0.862957422581,7255000.0,-1117000.0,133007000.0,52214000.0,185221000.0,-191411000.0,49411000.0,-286104000.0,-50888000.0,0.0,0.0,-123156000.0,0.0,-123156000.0,-1.68,-1.68,73571000.0,73571000.0,0.0,-0.181981101336,-26.115021179499998,-31.1845878136,-20.064516129,-42.6526555881,-160294000.0,-191411000.0,-123156000.0,-46.6119257087,-20.064516129
2017-12-31,44789000.0,-0.7331367116509999,47193000.0,-2404000.0,138370000.0,132225000.0,270595000.0,-665096000.0,48564000.0,-704271000.0,-96576000.0,0.0,0.0,-708373000.0,0.0,-708373000.0,-9.79,-9.79,72356000.0,72356000.0,0.0,-0.0536738931434,-13.7590479805,-14.849538949300001,-15.8157806604,-8.32376253098,-616254000.0,-665096000.0,-708373000.0,-15.724195672999999,-15.8157806604
2016-12-31,167835000.0,-0.456856964405,71347000.0,96488000.0,139262000.0,319151000.0,458413000.0,-361925000.0,44463000.0,-119286000.0,70000.0,0.0,0.0,-119118000.0,0.0,-119118000.0,-1.71,-1.71,69909000.0,69909000.0,0.0,0.5748979652639999,-1.8154794887799999,-2.15643340185,-0.7097327732590001,-1.93931539905,-304701000.0,-361925000.0,-119118000.0,-0.7107337563680001,-0.7097327732590001
2015-12-31,309007000.0,-0.573435136001,119931000.0,189076000.0,123606000.0,337943000.0,461549000.0,-272473000.0,37092000.0,-251663000.0,-29743000.0,0.0,0.0,-352756000.0,0.0,-352756000.0,-5.28,-5.28,66809000.0,66809000.0,0.0,0.611882578712,-0.692411498769,-0.8817696686480001,-1.1415793169700001,-0.648917338442,-213960000.0,-272473000.0,-352756000.0,-0.81442491594,-1.1415793169700001
2014-12-31,724408000.0,0.053126780875300005,287630000.0,436778000.0,159181000.0,342164000.0,501345000.0,-64567000.0,15701000.0,-39185000.0,-6837000.0,0.0,0.0,-32348000.0,0.0,-32348000.0,-0.5,-0.5,64473000.0,64473000.0,0.0,0.602944749368,-0.025191604731,-0.0891307108701,-0.0446543936566,0.08286076354760001,-18249000.0,-64567000.0,-32348000.0,-0.054092445141400006,-0.0446543936566
2013-12-31,687864000.0,0.23143354314800002,262785000.0,425079000.0,146930000.0,264958000.0,411888000.0,13191000.0,15531000.0,17516000.0,1360000.0,0.0,0.0,15260000.0,0.0,15260000.0,0.27,0.25,58096000.0,62652000.0,0.0,0.617969540491,0.08226335438400001,0.0191767558703,0.0221846178896,0.113170626752,56586000.0,13191000.0,15260000.0,0.025464335973400004,0.0221846178896
2012-12-31,558588000.0,0.15236460559599999,177339000.0,381249000.0,126423000.0,171753000.0,298176000.0,83073000.0,8005000.0,92998000.0,35038000.0,0.0,0.0,51170000.0,0.0,51170000.0,0.96,0.93,53545000.0,55346000.0,0.0,0.6825227179960001,0.172304095326,0.14871962877800002,0.0916059779301,0.08117073764560001,96247000.0,83073000.0,51170000.0,0.166487643845,0.0916059779301
2011-12-31,484732000.0,1.0,156866000.0,327866000.0,110180000.0,159617000.0,251813000.0,76053000.0,0.0,77843000.0,-50034000.0,0.0,0.0,127877000.0,0.0,127877000.0,2.39,2.35,54200472.0,53496000.0,0.0,0.6764,0.17300000000000001,0.1606,0.264,0.1962,84074000.0,77843000.0,127877000.0,0.1606,0.2638
2011-12-13,0.0,0.0,0.0,0.0,0.0,0.0,0.0,0.0,0.0,0.0,0.0,0.0,0.0,0.0,0.0,0.0,0.0,0.0,0.0,0.0,0.0,0.0,0.0,0.0,0.0,0.0,0.0,0.0,0.0,0.0,0.0
2010-12-31,0.0,-1.0,0.0,0.0,0.0,0.0,0.0,0.0,0.0,0.0,0.0,0.0,0.0,0.0,0.0,0.0,0.0,0.0,0.0,0.0,0.0,0.0,0.0,0.0,0.0,0.0,0.0,0.0,0.0,0.0,0.0
2009-12-31,404241000.0,0.1611,118148000.0,286093000.0,117610000.0,193832000.0,311442000.0,-25349000.0,0.0,-28167000.0,48062000.0,0.0,0.0,-76229000.0,0.0,-76229000.0,-1.46,-1.46,52871195.0,52269000.0,0.0,0.7077,-0.055,-0.0697,-0.18899999999999997,0.0015,-22400000.0,-28167000.0,-76229000.0,-0.0697,-0.1886
