,0,1,2,3,4,5,6,7,8,9,10,11,12,13,14,15,16,17,18,19,20,21,22,23,24,25,26,27,28
Date,Cash and cash equivalents,Short-term investments,Cash and short-term investments,Receivables,Inventories,Total current assets,Property Plant & Equipment Net,Goodwill and Intangible Assets,Long-term investments,Tax assets,Total non-current assets,Total assets,Payables,Short-term debt,Total current liabilities,Long-term debt,Total debt,Deferred revenue,Tax Liabilities,Deposit Liabilities,Total non-current liabilities,Total liabilities,Other comprehensive income,Retained earnings (deficit),Total shareholders equity,Investments,Net Debt,Other Assets,Other Liabilities
2018-12-31,6692557.0,0.0,6692557.0,1806505.0,0.0,8738324.0,21302.0,0.0,0.0,139091.0,156773.0,8895097.0,575087.0,0.0,712782.0,0.0,0.0,0.0,137695.0,0.0,0.0,712782.0,-229587.0,1526110.0,8204981.0,0.0,,,137695.0
2017-12-31,3117740.0,0.0,3117740.0,1716603.0,0.0,5134009.0,34067.0,0.0,0.0,217402.0,251469.0,5385478.0,473685.0,0.0,598484.0,0.0,0.0,0.0,124799.0,0.0,0.0,598484.0,-60066.0,2042081.0,4786994.0,0.0,,,124799.0
2016-12-31,1662346.0,0.0,1662346.0,2361802.0,0.0,4283194.0,21011.0,0.0,0.0,303090.0,93010.0,4376204.0,859893.0,0.0,1023207.0,0.0,0.0,0.0,166338.0,0.0,3024.0,1026231.0,-330085.0,998639.0,3349973.0,0.0,,,163314.0
