,0,1,2,3,4,5,6,7,8,9,10,11,12,13,14
Date,Depreciation & Amortization,Stock-based compensation,Operating Cash Flow,Capital Expenditure,Acquisitions and disposals,Investment purchases and sales,Investing Cash flow,Issuance (repayment) of debt,Issuance (buybacks) of shares,Dividend payments,Financing Cash Flow,Effect of forex changes on cash,Net cash flow / Change in cash,Free Cash Flow,Net Cash/Marketcap
2020-01-31,34641000.0,109456000.0,-1594000.0,22009000.0,-76532000.0,-116025000.0,-216066000.0,-2297000.0,-226866000.0,-0.0,399685000.0,-35000.0,181990000.0,-23603000.0,0.0
2019-01-31,13856000.0,27858000.0,-15197000.0,-11259000.0,0.0,17452000.0,6193000.0,-708000.0,12093000.0,0.0,11385000.0,-204000.0,2177000.0,-26456000.0,0.0295
2018-01-31,11995000.0,18248000.0,16410000.0,-38542000.0,0.0,29746000.0,-8796000.0,-100000.0,6143000.0,0.0,6043000.0,267000.0,13924000.0,-22132000.0,0.0295
