,0,1,2,3,4,5,6,7,8,9,10,11,12,13,14,15,16,17,18,19,20,21,22,23,24,25,26,27,28,29,30
Date,Revenue,Revenue Growth,Cost of Revenue,Gross Profit,R&D Expenses,SG&A Expense,Operating Expenses,Operating Income,Interest Expense,Earnings before Tax,Income Tax Expense,Net Income - Non-Controlling int,Net Income - Discontinued ops,Net Income,Preferred Dividends,Net Income Com,EPS,EPS Diluted,Weighted Average Shs Out,Weighted Average Shs Out (Dil),Dividend per Share,Gross Margin,EBITDA Margin,EBIT Margin,Profit Margin,Free Cash Flow margin,EBITDA,EBIT,Consolidated Income,Earnings Before Tax Margin,Net Profit Margin
2019-12-31,48841000.0,-0.135695198995,0.0,0.0,0.0,17186000.0,46111000.0,-12060000.0,11497000.0,-12060000.0,4710000.0,0.0,0.0,-3379000.0,0.0,-3379000.0,-0.6,-0.6,5878211.0,5878211.0,0.040488509174,0.0,-0.325361888577,-0.246923691161,-0.0691836776479,0.04133821993819999,-15891000.0,-12060000.0,-3379000.0,-0.246923691161,-0.0691836776479
2018-12-31,56509000.0,-0.138069889111,0.0,0.0,0.0,19366000.0,51032000.0,-21268000.0,10806000.0,-21268000.0,258000.0,0.0,0.0,-2432000.0,0.0,-2432000.0,0.0,0.0,0.0,0.0,0.0,0.0,-0.34421065670999995,-0.37636482684199996,-0.0430373922738,0.285989842326,-19451000.0,-21268000.0,-2432000.0,-0.37636482684199996,-0.0430373922738
2017-12-31,65561000.0,-0.137672962593,0.0,0.0,0.0,13045000.0,39603000.0,19265000.0,11855000.0,19265000.0,1956000.0,0.0,0.0,927000.0,0.0,927000.0,0.07,0.07,5553026.0,5553026.0,1.03835278279,0.0,0.331828373576,0.293848476991,0.0141395036683,0.18800811458,21755000.0,19265000.0,927000.0,0.293848476991,0.0141395036683
2016-12-31,76028000.0,0.127576899119,0.0,0.0,0.0,28540000.0,56021000.0,11015000.0,9226000.0,11015000.0,1063000.0,0.0,0.0,997000.0,0.0,997000.0,0.02,0.02,5804042.0,5804042.0,0.95123364028,0.0,0.170279370758,0.144880833377,0.013113589730100001,0.164215815226,12946000.0,11015000.0,997000.0,0.144880833377,0.013113589730100001
2015-12-31,67426000.0,-0.06577251880900001,0.0,0.0,0.0,16836000.0,35555000.0,22647000.0,8469000.0,22647000.0,2015000.0,0.0,0.0,3111000.0,0.0,3111000.0,0.46,0.46,6002422.0,6002422.0,0.6852233981550001,0.0,0.33757007682499995,0.33587933438100004,0.0461394714205,0.345089431377,22761000.0,22647000.0,3111000.0,0.33587933438100004,0.0461394714205
2014-12-31,72173000.0,0.6451936447150001,0.0,0.0,0.0,16312000.0,36761000.0,71928000.0,5520000.0,71928000.0,2528000.0,0.0,0.0,1695000.0,0.0,1695000.0,0.24,0.24,6000000.0,6000000.0,0.0,0.0,1.02884735289,0.996605378743,0.023485236861400003,-2.72881825613,74255000.0,71928000.0,1695000.0,0.996605378743,0.023485236861400003
2013-12-31,43869000.0,0.5533248353519999,0.0,43869000.0,0.0,26367000.0,34784000.0,9085000.0,4117000.0,1639000.0,1639000.0,36535000.0,0.0,0.0,0.0,0.0,,,,,0.0,1.0,0.138,0.1312,0.0,-0.9881,6032000.0,5756000.0,36535000.0,0.0374,0.0
2012-12-31,28242000.0,,0.0,28242000.0,0.0,21156000.0,27957000.0,285000.0,3497000.0,1087000.0,1087000.0,23479000.0,0.0,0.0,0.0,0.0,,,,,0.0,1.0,0.172,0.1623,0.0,-4.1588,4854000.0,4584000.0,23479000.0,0.0385,0.0
