,0,1,2,3,4,5,6,7,8,9,10,11,12,13,14,15,16,17,18,19,20,21,22,23,24,25,26,27,28
Date,Cash and cash equivalents,Short-term investments,Cash and short-term investments,Receivables,Inventories,Total current assets,Property Plant & Equipment Net,Goodwill and Intangible Assets,Long-term investments,Tax assets,Total non-current assets,Total assets,Payables,Short-term debt,Total current liabilities,Long-term debt,Total debt,Deferred revenue,Tax Liabilities,Deposit Liabilities,Total non-current liabilities,Total liabilities,Other comprehensive income,Retained earnings (deficit),Total shareholders equity,Investments,Net Debt,Other Assets,Other Liabilities
2019-04-26,4393000000.0,5455000000.0,9848000000.0,6222000000.0,3753000000.0,21967000000.0,4675000000.0,60519000000.0,0.0,1519000000.0,67727000000.0,89694000000.0,1953000000.0,838000000.0,8472000000.0,24486000000.0,25324000000.0,315000000.0,567000000.0,0.0,26521000000.0,39603000000.0,26532000000.0,26270000000.0,50091000000.0,5455000000.0,20931000000.0,0.0,4610000000.0
2018-04-27,3669000000.0,7558000000.0,11227000000.0,5987000000.0,3579000000.0,22980000000.0,4604000000.0,61266000000.0,8317000000.0,1465000000.0,68413000000.0,91393000000.0,1628000000.0,2058000000.0,10084000000.0,23699000000.0,25757000000.0,0.0,979000000.0,0.0,26011000000.0,40673000000.0,28127000000.0,24379000000.0,50720000000.0,15875000000.0,22088000000.0,0.0,4578000000.0
2017-04-28,4967000000.0,8741000000.0,13708000000.0,5591000000.0,3338000000.0,24873000000.0,4361000000.0,61922000000.0,9597000000.0,1509000000.0,74943000000.0,99816000000.0,1731000000.0,7520000000.0,14220000000.0,25921000000.0,33441000000.0,0.0,633000000.0,0.0,30414000000.0,49522000000.0,29551000000.0,23356000000.0,50294000000.0,18338000000.0,28474000000.0,0.0,4888000000.0
2016-04-29,2876000000.0,9758000000.0,12634000000.0,5562000000.0,3473000000.0,23600000000.0,4841000000.0,68399000000.0,10571000000.0,1383000000.0,76182000000.0,99782000000.0,1709000000.0,993000000.0,7165000000.0,30247000000.0,31240000000.0,0.0,566000000.0,0.0,35892000000.0,47719000000.0,0.0,53931000000.0,52063000000.0,20329000000.0,28364000000.0,0.0,4662000000.0
2015-04-24,4843000000.0,14637000000.0,19480000000.0,5112000000.0,3463000000.0,30844000000.0,4699000000.0,68631000000.0,706000000.0,774000000.0,75841000000.0,106685000000.0,1610000000.0,2434000000.0,9173000000.0,33752000000.0,36186000000.0,0.0,935000000.0,0.0,40271000000.0,53455000000.0,0.0,54414000000.0,53230000000.0,15343000000.0,31343000000.0,0.0,4011000000.0
2014-04-25,1403000000.0,12838000000.0,14241000000.0,3811000000.0,1725000000.0,21210000000.0,2392000000.0,12879000000.0,0.0,1036000000.0,16733000000.0,37943000000.0,742000000.0,1613000000.0,5559000000.0,10315000000.0,11928000000.0,0.0,1912000000.0,0.0,12941000000.0,18500000000.0,-597000000.0,19940000000.0,19443000000.0,12838000000.0,-2313000000.0,1433000000.0,3204000000.0
2013-04-26,919000000.0,10211000000.0,11130000000.0,3727000000.0,1712000000.0,17852000000.0,2490000000.0,13002000000.0,0.0,771000000.0,17048000000.0,34900000000.0,681000000.0,910000000.0,3950000000.0,9741000000.0,10651000000.0,0.0,1612000000.0,0.0,12279000000.0,16229000000.0,-492000000.0,19061000000.0,18671000000.0,10211000000.0,-479000000.0,1283000000.0,2359000000.0
2012-04-27,1172000000.0,8178000000.0,9350000000.0,3808000000.0,1800000000.0,16336000000.0,2473000000.0,12581000000.0,0.0,879000000.0,16482000000.0,32818000000.0,565000000.0,3274000000.0,5927000000.0,7359000000.0,10633000000.0,0.0,1449000000.0,0.0,9778000000.0,15705000000.0,-473000000.0,17482000000.0,17113000000.0,8178000000.0,1283000000.0,1378000000.0,2088000000.0
2011-04-29,1382000000.0,1046000000.0,2428000000.0,3761000000.0,1619000000.0,9150000000.0,2488000000.0,12245000000.0,6116000000.0,837000000.0,21525000000.0,30675000000.0,495000000.0,1723000000.0,4726000000.0,8112000000.0,9835000000.0,0.0,1014000000.0,0.0,9981000000.0,14707000000.0,-224000000.0,16085000000.0,15968000000.0,7162000000.0,7407000000.0,1342000000.0,2508000000.0
2010-04-30,1400000000.0,2375000000.0,3775000000.0,3335000000.0,1481000000.0,9839000000.0,2421000000.0,10950000000.0,4632000000.0,544000000.0,18251000000.0,28090000000.0,420000000.0,2575000000.0,5121000000.0,6944000000.0,9519000000.0,0.0,919000000.0,0.0,8340000000.0,13461000000.0,-307000000.0,14826000000.0,14629000000.0,7007000000.0,5744000000.0,1248000000.0,2126000000.0
