,0,1,2,3,4,5,6,7,8,9,10,11,12,13,14,15,16,17,18,19,20,21,22,23,24,25,26,27,28,29,30
Date,Revenue,Revenue Growth,Cost of Revenue,Gross Profit,R&D Expenses,SG&A Expense,Operating Expenses,Operating Income,Interest Expense,Earnings before Tax,Income Tax Expense,Net Income - Non-Controlling int,Net Income - Discontinued ops,Net Income,Preferred Dividends,Net Income Com,EPS,EPS Diluted,Weighted Average Shs Out,Weighted Average Shs Out (Dil),Dividend per Share,Gross Margin,EBITDA Margin,EBIT Margin,Profit Margin,Free Cash Flow margin,EBITDA,EBIT,Consolidated Income,Earnings Before Tax Margin,Net Profit Margin
2018-12-31,3931847000.0,0.284647796116,3102223000.0,829624000.0,0.0,0.0,0.0,829624000.0,94416000.0,722473000.0,153491000.0,89002000.0,0.0,568982000.0,0.0,568982000.0,7.07,6.92,83770254.0,80494302.0,1.32,0.21100000000000002,0.27,0.2078,0.145,0.1716,1062192000.0,816889000.0,657984000.0,0.1837,0.1447
2017-12-31,3060642000.0,0.531524012112,2584174000.0,476468000.0,0.0,0.0,0.0,476468000.0,94955000.0,411923000.0,95788000.0,58962000.0,0.0,316135000.0,0.0,316135000.0,3.64,3.64,89824338.0,86768589.0,1.175,0.1557,0.24100000000000002,0.1656,0.10300000000000001,0.2212,739103000.0,506878000.0,375097000.0,0.1346,0.1033
2016-12-31,1998429000.0,-0.10207260777100001,2002483000.0,-4054000.0,0.0,0.0,-32500000.0,28446000.0,90060000.0,-21824000.0,-9279000.0,-15680000.0,0.0,-12545000.0,0.0,-12545000.0,-0.14,-0.14,89671198.0,89783883.0,1.1,-0.002,0.14800000000000002,0.0341,-0.006,0.0634,296290000.0,68236000.0,-28225000.0,-0.0109,-0.0063
2015-12-31,2225602000.0,-0.309548088834,2052748000.0,172854000.0,0.0,0.0,-65000000.0,237854000.0,69859000.0,211614000.0,10997000.0,-1736000.0,0.0,200617000.0,0.0,200617000.0,2.21,2.01,92506487.0,90647860.0,1.075,0.0777,0.214,0.1265,0.09,-0.0575,476322000.0,281473000.0,202353000.0,0.0951,0.0901
2014-12-31,3223399000.0,0.065922255838,2568559000.0,654840000.0,0.0,0.0,-42000000.0,696840000.0,37042000.0,609947000.0,155337000.0,51698000.0,0.0,454610000.0,0.0,454610000.0,4.79,4.55,96100969.0,94996094.0,0.95,0.2032,0.245,0.2007,0.141,0.0444,789727000.0,646989000.0,506308000.0,0.1892,0.141
2013-12-31,3024047000.0,0.189322301334,2488855000.0,535192000.0,0.0,0.0,58665000.0,476527000.0,56407000.0,399287000.0,70120000.0,47833000.0,0.0,329167000.0,0.0,329167000.0,3.46,3.41,94309970.0,95259066.0,0.785,0.177,0.191,0.1507,0.109,0.0023,579029000.0,455694000.0,377000000.0,0.132,0.1088
2012-12-31,2542664000.0,-0.025065978741900002,2240380000.0,302284000.0,0.0,0.0,361519000.0,-59235000.0,61464000.0,-153375000.0,-85270000.0,33530000.0,0.0,-68105000.0,0.0,-68105000.0,-0.73,-0.73,93247755.0,93755509.0,0.725,0.1189,0.023,-0.0361,-0.027000000000000003,0.0897,57500000.0,-91911000.0,-34575000.0,-0.0603,-0.0268
2011-12-31,2608037000.0,0.326176927188,2263987000.0,344050000.0,0.0,0.0,0.0,344050000.0,61797000.0,257246000.0,55920000.0,26674000.0,0.0,201326000.0,0.0,201326000.0,2.16,2.06,92632022.0,93026482.0,0.665,0.1319,0.182,0.1223,0.077,0.1235,475710000.0,319043000.0,228000000.0,0.0986,0.0772
2010-12-31,1966583000.0,0.641323552854,1832079000.0,134504000.0,0.0,0.0,-22223000.0,156727000.0,30648000.0,130523000.0,34504000.0,-1990000.0,0.0,96019000.0,0.0,96019000.0,1.04,1.03,92108242.0,92218320.0,0.62,0.0684,0.152,0.08199999999999999,0.049,0.0184,298385000.0,161171000.0,94029000.0,0.0664,0.0488
2009-12-31,1198169000.0,-0.4823,1173932000.0,24237000.0,0.0,0.0,0.0,24237000.0,27773000.0,-3536000.0,-4274000.0,0.0,0.0,738000.0,0.0,738000.0,0.01,0.01,92031392.0,92063371.0,0.62,0.0202,0.11800000000000001,0.0202,0.001,-0.1962,141827000.0,24237000.0,738000.0,-0.003,0.0006
