,0,1,2,3,4,5,6,7,8,9,10,11,12,13,14,15,16,17,18,19,20,21,22,23,24,25,26,27,28,29,30
Date,Revenue,Revenue Growth,Cost of Revenue,Gross Profit,R&D Expenses,SG&A Expense,Operating Expenses,Operating Income,Interest Expense,Earnings before Tax,Income Tax Expense,Net Income - Non-Controlling int,Net Income - Discontinued ops,Net Income,Preferred Dividends,Net Income Com,EPS,EPS Diluted,Weighted Average Shs Out,Weighted Average Shs Out (Dil),Dividend per Share,Gross Margin,EBITDA Margin,EBIT Margin,Profit Margin,Free Cash Flow margin,EBITDA,EBIT,Consolidated Income,Earnings Before Tax Margin,Net Profit Margin
2018-12-31,28868148148.1481,-0.369902909785,11802962962.963001,17065185185.1852,0.0,5894074074.0741,12032592592.5926,5032592592.5926,944444444.4444,3835555555.5556,468148148.1481,252592592.5926,0.0,3367407407.4074,124444444.4444,3431111111.1111,1.7333,1.7259,1478397208.8889,1478397208.8889,0.523,0.5911,0.13699999999999998,0.1656,0.0881,0.4924,5333333333.3333,4780000000.0,3620000000.0,0.1329,0.1166
2017-12-31,45815396700.707,0.15446862714,30872741555.381,14942655145.326,0.0,5681853888.4525,12083267871.1705,2859387274.1555,894736842.1053,1783974862.5295,187745483.1108,180675569.5208,0.0,1596229379.4187,124901806.7557,1527886881.3826,0.7698,0.7698,1562808248.2325,1562808248.2325,0.4941,0.3261,0.0534,0.0585,0.0259,0.305,3118617439.1202,2678711704.6347,1776904948.9395,0.0389,0.0348
2016-12-31,39685267857.1429,0.594096004834,25397321428.5714,14287946428.5714,0.0,5204613095.2381,11057291666.6667,3230654761.9048,753720238.0952,2325148809.5238,145833333.3333,151785714.2857,0.0,2179315476.1905,98958333.3333,2080357142.8571,1.0565,1.0491,1477610364.5833,1477610364.5833,0.4152,0.36,0.0677,0.0776,0.0387,0.319,3594494047.6190004,3078869047.6190004,2331101190.4762,0.0586,0.0549
2015-12-31,24895155459.1468,-0.46811482967699997,12538684020.2458,12356471438.9009,0.0,4498192335.5025,9667389732.4657,2689081706.4353,796095444.6855,1821402747.65,237165582.068,71583514.0998,0.0,1584237165.5821,83875632.6826,1500361532.8995,0.7664,0.7592,1358001421.5474,1358001421.5474,0.3789,0.4963,0.0882,0.1051,0.0434,0.3013,3036876355.7484,2617498192.3355,1655820679.6819,0.0732,0.0636
2014-12-31,46805507745.2668,1.6718740405,33016351118.7608,13789156626.506,0.0,4106712564.5439,9146299483.6489,4642857142.8571,973321858.864,3590361445.7831,577452667.8141,79173838.21,0.0,3012908777.9690003,108433734.9398,2904475043.0293,1.5663,1.5491,1612917833.9071,1612917833.9071,0.4432,0.2946,0.0912,0.0975,0.0534,0.1987,4961273666.0929,4563683304.6472,3092082616.1790004,0.0767,0.0644
2013-12-31,17517857142.8571,-0.40182926829300003,3621240601.5038,13896616541.3534,0.0,4340225563.9098,9392857142.8571,4503759398.4962,982142857.1429,3487781954.8872,546052631.5789,33834586.4662,0.0,2941729323.3083,123120300.7519,2818609022.5564,1.5319999999999998,1.5226,1742219491.5414,1742219491.5414,0.4784,0.7933,0.2613,0.2552,0.1513,0.5098,4870300751.8797,4469924812.0301,2975563909.7744,0.1991,0.1679
2012-12-31,29285714285.7143,-0.412941568758,17155935613.6821,12129778672.0322,0.0,4441649899.3964,9939637826.9618,2190140845.0704,939637826.9618,1118712273.6419,-494969818.9135,131790744.4668,0.0,1613682092.5553,112676056.338,1708249496.9819,0.9457,0.9256,1838141907.4447,1822937625.7545,0.5241,0.4142,0.0845,0.0703,0.0584,0.3708,2450704225.3521,2058350100.6036,1745472837.0221,0.0382,0.0551
2011-12-31,49885518590.998,0.322129353906,38932485322.8963,10953033268.1018,0.0,3973581213.3072,9586105675.1468,1366927592.955,1222113502.9354,205479452.0548,-94911937.3777,-60665362.0352,0.0,300391389.4325,83170254.4031,43052837.5734,0.0196,0.0196,1765056541.0959,1747553816.0470002,0.5108,0.2196,0.0342,0.0286,0.001,0.2132,1765166340.5088,1427592954.9902,239726027.3973,0.0041,0.006
2010-12-31,37731193580.7422,-0.0140800640133,27670010030.0903,10061183550.652,0.0,3859578736.2086,11346038114.343,-1284854563.6911,1047141424.2728,-2469408224.674,-801404212.6379,137412236.7101,0.0,-1668004012.0361,79237713.1394,-1747241725.1755,-0.993,-0.993,1789108335.005,1770310932.7984,0.5115,0.2667,-0.0291,-0.0377,-0.0461,0.3073,-1105315947.8435,-1422266800.4012,-1530591775.326,-0.0654,-0.0442
2009-12-31,38270038167.9389,0.4147,28703244274.8092,9566793893.1298,0.0,3513358778.626,8485687022.9008,1081106870.2289999,1241412213.7405,-162213740.458,-1500000000.0,17175572.5191,0.0,1337786259.542,61068702.2901,1276717557.2519,0.7824,0.7824,1549632897.9008,1551526717.5573,0.8588,0.25,0.0344,0.0282,0.0315,0.2997,1369274809.1603,1079198473.2824,1354961832.0611,-0.0042,0.035
