,0,1,2,3,4,5,6,7,8,9,10,11,12,13,14,15,16,17,18,19,20,21,22,23,24,25,26,27,28,29,30
Date,Revenue,Revenue Growth,Cost of Revenue,Gross Profit,R&D Expenses,SG&A Expense,Operating Expenses,Operating Income,Interest Expense,Earnings before Tax,Income Tax Expense,Net Income - Non-Controlling int,Net Income - Discontinued ops,Net Income,Preferred Dividends,Net Income Com,EPS,EPS Diluted,Weighted Average Shs Out,Weighted Average Shs Out (Dil),Dividend per Share,Gross Margin,EBITDA Margin,EBIT Margin,Profit Margin,Free Cash Flow margin,EBITDA,EBIT,Consolidated Income,Earnings Before Tax Margin,Net Profit Margin
2019-03-31,18944354545.4545,-0.16795421045000003,0.0,18944354545.4545,0.0,16742809090.9091,18171081818.1818,773272727.2727,0.0,852781818.1818,84863636.3636,-79509090.9091,0.0,767918181.8182,0.0,767918181.8182,0.0605,0.0605,230814954.0455,230814954.0455,0.0006,1.0,0.002,0.045,0.0004,0.2453,4081545454.5455,852781818.1818,688409090.9091,0.045,0.0405
2018-03-31,22768403834.7154,0.12732842935799998,0.0,22768403834.7154,0.0,14478604667.4364,15427005703.0895,7341398131.6259,0.0,7130716210.0696,2078338756.5166,210681921.5563,0.0,5052377453.5531,0.0,5052377453.5531,0.3983,0.3982,222055805.8238,222055805.8238,0.0012,1.0,0.0033,0.3132,0.0019,-0.1656,8697823729.0508,7130716210.0696,5263059375.1093,0.3132,0.2219
2017-03-31,20196779609.0041,-0.20534699124800002,0.0,20196779609.0041,0.0,14495586403.5959,15861030380.7065,4335749228.2976,0.0,4094842681.0116,823546401.4297,240906547.28599998,0.0,3271296279.5819,0.0,3271296279.5819,0.2587,0.2578,225919505.1808,225919505.1808,0.0011,1.0,0.0025,0.2027,0.0015,0.3532,5640070761.9546,4094842681.0116,3512202826.8679,0.2027,0.162
2016-03-31,25415847403.2913,0.0483294476237,0.0,25415847403.2913,0.0,13727301061.4804,14760035976.3482,10655811426.9431,0.0,10659631687.6826,3085969224.1932,-3820260.7395,0.0,7573662463.4893,0.0,7573662463.4893,0.6089,0.5966,219258904.7428,219258904.7428,0.0005,1.0,0.0043,0.4194,0.0027,-0.0348,12155054498.8245,10659631687.6826,7569842202.7499,0.4194,0.298
2015-03-31,24244141439.4129,0.11838608466299999,0.0,24244141439.4129,0.0,12169276957.7183,13672437661.5795,10571703777.8334,0.0,10344992077.3914,3647902593.6119,226711700.442,0.0,6697089483.7795,0.0,6697089483.7795,0.5462,0.5277,202350806.3297,202350806.3297,0.0004,1.0,0.004,0.4267,0.0023,0.2847,11733766991.9106,10344992077.3914,6923801184.2215,0.4267,0.2762
2014-03-31,21677792465.3007,-0.115994984307,0.0,21677792465.3007,0.0,13301329652.8129,14617967808.4056,7059824656.8951,0.0,7042805489.6777,2197698378.7567,17019167.2174,0.0,4845107110.921,0.0,4845107110.921,0.3952,0.3818,234874853.9812,234874853.9812,0.0011,1.0,0.0039,0.3249,0.0022,2.4811,8610182341.2776,7042805489.6777,4862126278.1385,0.3249,0.2235
2013-03-31,24522250530.7856,-0.046779612184899996,0.0,24522250530.7856,0.0,13723184713.3758,15125435244.1614,9396815286.6242,0.0,9335838641.189001,42717622.0807,60976645.4352,0.0,9293121019.1083,0.0,9293121019.1083,0.7654,0.7318,255288383.5138,255288383.5138,0.0013,1.0,0.0048,0.3807,0.004,-0.624,11004256900.2123,9335838641.189001,9354097664.5435,0.3807,0.379
2012-03-31,25725688250.3254,0.0416128369067,0.0,25725688250.3254,0.0,16242346077.8169,17736259100.3327,7989429149.9928,0.0,8079010173.0871,167277373.3185,-89581023.0944,0.0,7911732799.7686,0.0,7911732799.7686,0.6767,0.6456,262549844.7519,262549844.7519,0.0017,1.0,0.0047,0.314,0.0037,-0.914,10076515114.9896,8079010173.0871,7822151776.6742,0.314,0.3075
2011-03-31,24697937024.9729,0.0429111142136,0.0,24697937024.9729,0.0,15909591024.248999,17322415249.1253,7375521775.8475,0.0,7309639280.9748,2331125588.1288,65882494.8727,0.0,4978513692.8459,0.0,4978513692.8459,0.4932,0.4637,186927225.1176,186927225.1176,0.0017,1.0,0.0046,0.29600000000000004,0.0024,0.3612,9329424538.5451,7309639280.9748,5044396187.7187,0.29600000000000004,0.2016
2010-03-31,23681727702.7461,0.9969,0.0,23681727702.7461,0.0,14482652340.4893,16335405920.25,7346321782.4961,0.0,6843753344.3205,-3854744119.3468,502568438.1756,0.0,10698497463.6673,0.0,10698497463.6673,1.51,1.3193,119635074.8058,119635074.8058,0.0017,1.0,0.0039,0.289,0.0048,-0.5666,8517443975.9423,6843753344.3205,11201065901.8429,0.289,0.4518
