,0,1,2,3,4,5,6,7,8,9,10,11,12,13,14
Date,Depreciation & Amortization,Stock-based compensation,Operating Cash Flow,Capital Expenditure,Acquisitions and disposals,Investment purchases and sales,Investing Cash flow,Issuance (repayment) of debt,Issuance (buybacks) of shares,Dividend payments,Financing Cash Flow,Effect of forex changes on cash,Net cash flow / Change in cash,Free Cash Flow,Net Cash/Marketcap
2019-03-31,3228763636.3636,0.0,6009263636.3636,-1362745454.5455,-44934900000.0,-15282100000.0,-61579745454.5455,-11925700000.0,-10618181.8182,-1731027272.7273,30985318181.8182,1874418181.8182,-22710745454.5455,4646518181.8182,10.5393
2018-03-31,1567107518.9811,0.0,-1408943004.0936,-2360825373.4999,8292222.1056,-29353451593.7161,-31705984745.1104,-9595736678.2128,-14056541.0587,-1665284629.6491,40696852804.3106,-2474073685.3154,5107851369.7911,-3769768377.5935,8.8844
2017-03-31,1545228080.9429998,0.0,10913289528.3138,-3780475477.0114,9883206.6718,-15294799357.3659,-19065391627.7055,-7468644511.4356,-12888784.5912,-1715174106.9011,107133536112.0638,-267009043.811,98714424968.8611,7132814051.3024,8.8844
2016-03-31,1495422811.1420002,0.0,2152436418.038,-3037142908.0288,0.0,-50197834295.0773,-53234977203.1061,8798060483.0092,-44525.1834,-1739002279.6894,49500578827.3848,-249884234.523,-1831846192.2063,-884706489.9907,8.8844
2015-03-31,1388774914.5192,0.0,10056926027.8542,-3155625052.1224,0.0,-44162263364.1898,-47317888416.3122,-1160595446.5849,-25018.7641,-1469318655.6584,35565265615.8786,289867400.5504,-1405829372.029,6901300975.7318,8.8844
2014-03-31,1567376851.5999,0.0,57844834959.7605,-4059484467.9445,0.0,8115537887.3294,4056053419.3849,1723776291.746,-359647758.6408,-1478976322.849,-58046003265.8139,309387271.1014,4164272384.433,53785350491.815994,8.8844
2013-03-31,1668418259.0234,0.0,-13779065817.4098,-1521836518.0467,0.0,-65588906581.741,-67110743099.7877,-75755849256.9002,11326963.9066,-1619044585.9873,81102537154.9894,337324840.7643,550053078.5563,-15300902335.4565,8.8844
2012-03-31,1997504941.9025,0.0,-21568764765.4404,-1944048020.8283,0.0,-20269116725.3266,-22213164746.155,-29280013017.6944,-7159731.9319,-2602357649.1008,35748565642.9295,-17164071.1634,-8050527939.8293,-23512812786.2687,8.8844
2011-03-31,2019785257.5703,0.0,11482832669.8034,-2561696223.9112,0.0,-123758535408.3725,-126320231632.2837,69295487996.1395,9142128121.6069,-1615695500.0603,96752925564.0005,-191892870.0688,-18276366268.5487,8921136445.8921,8.8844
2010-03-31,1673690631.6218,0.0,-10851137604.0753,-2566051668.4146,1270338819.8027,-24642965689.9467,-25938678538.5587,-3816838252.6059,5712559662.6785,-1394415787.3333,43929303739.2179,-6217760.75,7133269835.834001,-13417189272.4899,8.8844
