,0,1,2,3,4,5,6,7,8,9,10,11,12,13,14,15,16,17,18,19,20,21,22,23,24,25,26,27,28
Date,Cash and cash equivalents,Short-term investments,Cash and short-term investments,Receivables,Inventories,Total current assets,Property Plant & Equipment Net,Goodwill and Intangible Assets,Long-term investments,Tax assets,Total non-current assets,Total assets,Payables,Short-term debt,Total current liabilities,Long-term debt,Total debt,Deferred revenue,Tax Liabilities,Deposit Liabilities,Total non-current liabilities,Total liabilities,Other comprehensive income,Retained earnings (deficit),Total shareholders equity,Investments,Net Debt,Other Assets,Other Liabilities
2019-12-31,17700000.0,48998000.0,66698000.0,8662000.0,0.0,75360000.0,0.0,203339000.0,48998000.0,1516000.0,1466307000.0,1541667000.0,16234000.0,38223000.0,54457000.0,12738000.0,50961000.0,0.0,0.0,951651000.0,22079000.0,1278519000.0,250592000.0,11281000.0,263148000.0,97996000.0,33261000.0,0.0,1201983000.0
2018-12-31,1110000.0,45324000.0,46434000.0,7413000.0,0.0,53847000.0,1222000.0,204785000.0,45324000.0,0.0,414926000.0,468773000.0,18789000.0,38870000.0,57659000.0,66625000.0,105495000.0,0.0,0.0,848040000.0,66625000.0,206165000.0,249373000.0,13043000.0,262608000.0,90648000.0,104385000.0,0.0,81881000.0
2017-12-31,12690000.0,0.0,12690000.0,0.0,0.0,13237000.0,235000.0,0.0,298000000.0,0.0,,635522000.0,4373000.0,181434000.0,189638000.0,145000000.0,327623000.0,0.0,12536000.0,0.0,,348363000.0,103681000.0,-65592000.0,287159000.0,1227720000.0,,,3831000.0
2016-12-31,20962000.0,0.0,20962000.0,0.0,0.0,21731000.0,267000.0,0.0,350000000.0,0.0,,689377000.0,5425000.0,106244000.0,114552000.0,180000000.0,349073000.0,0.0,45900000.0,0.0,,403281000.0,71804000.0,-33993000.0,286096000.0,661788000.0,,,2883000.0
2015-12-31,30912000.0,0.0,30912000.0,0.0,0.0,34915000.0,198000.0,5099000.0,440000000.0,0.0,,689050000.0,5120000.0,129518000.0,181048000.0,108000000.0,404540000.0,0.0,0.0,0.0,,410962000.0,44483000.0,-15617000.0,278088000.0,644841000.0,,,46410000.0
2014-12-31,47083000.0,,,0.0,0.0,,256000.0,5099000.0,,0.0,,632287000.0,6651000.0,,,,348795000.0,0.0,0.0,0.0,,357617000.0,43002000.0,-19191000.0,274670000.0,575103000.0,,,
2013-12-31,52172000.0,,,0.0,0.0,,446000.0,5069000.0,,0.0,,595053000.0,5476000.0,,,,314958000.0,0.0,0.0,0.0,,321558000.0,34607000.0,-15596000.0,273495000.0,473157000.0,,,
2012-12-31,26875000.0,,,0.0,0.0,,601000.0,5069000.0,,0.0,,543465000.0,3144000.0,,,,322770000.0,0.0,0.0,0.0,,327147000.0,25957000.0,-13189000.0,216318000.0,455010000.0,,,
2011-12-31,29352000.0,,,0.0,0.0,,466000.0,5069000.0,,0.0,,537031000.0,6040000.0,,,,357779000.0,0.0,0.0,0.0,,365527000.0,11371000.0,-6737000.0,171504000.0,451835000.0,,,
2010-12-31,17303000.0,,,0.0,0.0,,419000.0,5069000.0,,0.0,,550312000.0,5102000.0,,,,380532000.0,0.0,0.0,0.0,,387547000.0,10093000.0,-12372000.0,162765000.0,483516000.0,,,
2009-12-31,33401000.0,,,0.0,0.0,,302000.0,5069000.0,,0.0,,555174000.0,7468000.0,,,,382522000.0,0.0,0.0,0.0,,392197000.0,6619000.0,-9665000.0,162977000.0,475133000.0,,,
