,0,1,2,3,4,5,6,7,8,9,10,11,12,13,14,15,16,17,18,19,20,21,22,23,24,25,26,27,28,29,30
Date,Revenue,Revenue Growth,Cost of Revenue,Gross Profit,R&D Expenses,SG&A Expense,Operating Expenses,Operating Income,Interest Expense,Earnings before Tax,Income Tax Expense,Net Income - Non-Controlling int,Net Income - Discontinued ops,Net Income,Preferred Dividends,Net Income Com,EPS,EPS Diluted,Weighted Average Shs Out,Weighted Average Shs Out (Dil),Dividend per Share,Gross Margin,EBITDA Margin,EBIT Margin,Profit Margin,Free Cash Flow margin,EBITDA,EBIT,Consolidated Income,Earnings Before Tax Margin,Net Profit Margin
2018-12-31,40827000000.0,0.11585765824899999,35055000000.0,5772000000.0,0.0,1664000000.0,3005000000.0,2767000000.0,93000000.0,2915000000.0,619000000.0,36000000.0,0.0,2296000000.0,0.0,2296000000.0,6.65,6.61,358325403.0,345400000.0,1.32,0.1414,0.07400000000000001,0.0737,0.055999999999999994,0.0507,3008000000.0,3008000000.0,2332000000.0,0.0714,0.0562
2017-12-31,36588000000.0,0.00392372067499,30895000000.0,5693000000.0,0.0,1668000000.0,2891000000.0,2802000000.0,70000000.0,2937000000.0,741000000.0,48000000.0,0.0,2196000000.0,0.0,2196000000.0,5.91,5.87,382552522.0,371800000.0,1.1,0.1556,0.08199999999999999,0.0822,0.06,0.0415,3007000000.0,3007000000.0,2244000000.0,0.0803,0.06
2016-12-31,36445000000.0,0.134156967698,31123000000.0,5322000000.0,0.0,1601000000.0,2687000000.0,2635000000.0,88000000.0,2737000000.0,706000000.0,43000000.0,0.0,2031000000.0,0.0,2031000000.0,5.19,5.16,402264201.0,391000000.0,1.0,0.146,0.078,0.0775,0.055999999999999994,0.04,2825000000.0,2825000000.0,2074000000.0,0.0751,0.0557
2015-12-31,32134000000.0,-0.0659535505625,27559000000.0,4575000000.0,0.0,1448000000.0,2084000000.0,2491000000.0,44000000.0,2724000000.0,711000000.0,-6000000.0,-67000000.0,2013000000.0,0.0,2013000000.0,4.94,4.88,410325270.0,407500000.0,0.88,0.1424,0.086,0.0861,0.063,0.0299,2768000000.0,2768000000.0,2007000000.0,0.0848,0.0626
2014-12-31,34403000000.0,-0.012401320511,29468000000.0,4935000000.0,0.0,1612000000.0,2503000000.0,2432000000.0,30000000.0,2565000000.0,683000000.0,-2000000.0,42000000.0,1882000000.0,0.0,1882000000.0,4.41,4.34,442303408.0,427100000.0,0.76,0.1434,0.075,0.0754,0.055,0.0386,2595000000.0,2595000000.0,1880000000.0,0.0746,0.0547
2013-12-31,34835000000.0,0.129649447093,30287000000.0,4548000000.0,0.0,1616000000.0,2823000000.0,1725000000.0,16000000.0,1921000000.0,360000000.0,-16000000.0,0.0,1561000000.0,0.0,1561000000.0,3.425,3.38,466308566.0,455800000.0,0.64,0.1306,0.055999999999999994,0.0556,0.045,0.0401,1937000000.0,1937000000.0,1545000000.0,0.0551,0.0448
2012-12-31,30837000000.0,0.07266592458610001,27019000000.0,3818000000.0,0.0,1510000000.0,2203000000.0,1615000000.0,16000000.0,1757000000.0,324000000.0,-7000000.0,0.0,1433000000.0,0.0,1433000000.0,3.085,3.045,466635584.0,464800000.0,0.55,0.1238,0.057,0.0575,0.046,0.0302,1773000000.0,1773000000.0,1426000000.0,0.057,0.0465
2011-12-31,28748000000.0,0.22514383123799997,25434000000.0,3314000000.0,0.0,1382000000.0,2224000000.0,1090000000.0,-6000000.0,1220000000.0,202000000.0,-3000000.0,0.0,1018000000.0,0.0,1018000000.0,2.13,2.1,485543578.0,478600000.0,0.5,0.1153,0.042,0.0422,0.035,0.003,1214000000.0,1214000000.0,1015000000.0,0.0424,0.0354
2010-12-31,23465000000.0,0.39043612230400004,20483000000.0,2982000000.0,0.0,1247000000.0,1928000000.0,1054000000.0,-11000000.0,1197000000.0,194000000.0,0.0,0.0,1003000000.0,0.0,1003000000.0,2.18,2.15,450639440.0,460000000.0,0.255,0.1271,0.051,0.0505,0.043,0.0495,1186000000.0,1186000000.0,1003000000.0,0.051,0.0427
2009-12-31,16876000000.0,-0.2881,15387000000.0,1489000000.0,0.0,1155000000.0,2071000000.0,-582000000.0,7000000.0,-477000000.0,-24000000.0,0.0,0.0,-453000000.0,0.0,-453000000.0,-1.015,-1.015,450423552.0,447200000.0,0.045,0.0882,-0.027999999999999997,-0.0279,-0.027000000000000003,-0.0057,-470000000.0,-470000000.0,-453000000.0,-0.0283,-0.0268
