,0,1,2,3,4,5,6,7,8,9,10,11,12,13,14
Date,Depreciation & Amortization,Stock-based compensation,Operating Cash Flow,Capital Expenditure,Acquisitions and disposals,Investment purchases and sales,Investing Cash flow,Issuance (repayment) of debt,Issuance (buybacks) of shares,Dividend payments,Financing Cash Flow,Effect of forex changes on cash,Net cash flow / Change in cash,Free Cash Flow,Net Cash/Marketcap
2019-12-31,11572000.0,3304000.0,19722000.0,16730000.0,-0.0,-5489000.0,-17931000.0,-386000.0,-5489000.0,-6856000.0,-3507000.0,0.0,-1716000.0,2992000.0,0.0
2018-12-31,11362000.0,3099000.0,33481000.0,31046000.0,-0.0,-2324000.0,-31046000.0,-372000.0,-2324000.0,-5500000.0,-494000.0,0.0,1941000.0,2435000.0,0.0
2017-12-31,11308000.0,2574000.0,33471000.0,21055000.0,-0.0,-4663000.0,1777000.0,-358000.0,-4663000.0,-17380000.0,-33733000.0,0.0,1515000.0,12416000.0,0.0
2016-12-31,11253000.0,2402000.0,19721000.0,17922000.0,-1551000.0,-1518000.0,-17683000.0,-2346000.0,-1518000.0,-2066000.0,-1216000.0,0.0,822000.0,1799000.0,0.0
2015-12-31,12382000.0,1414000.0,18662000.0,30526000.0,-0.0,-15408000.0,-30526000.0,-1641000.0,-15408000.0,-1087000.0,6970000.0,0.0,-4894000.0,-11864000.0,0.0
2014-12-31,12325000.0,1393000.0,15812000.0,6953000.0,-0.0,-672000.0,1502000.0,-1555000.0,-672000.0,-907000.0,-14530000.0,0.0,2784000.0,8859000.0,0.0
2013-12-31,12009000.0,932000.0,17300000.0,6208000.0,-0.0,-540000.0,-3411000.0,-1683000.0,-540000.0,-916000.0,-11032000.0,0.0,2857000.0,11092000.0,0.0
2012-12-31,11568000.0,969000.0,-5026000.0,9229000.0,-0.0,-84000.0,3205000.0,-1671000.0,-84000.0,-914000.0,1438000.0,0.0,-383000.0,-14255000.0,0.0
2011-12-31,0.0,0.0,0.0,0.0,-0.0,0.0,383000.0,-0.0,-383000.0,-0.0,0.0,0.0,383000.0,0.0,0.0
2011-06-30,8843000.0,1164000.0,3139000.0,-12775000.0,0.0,0.0,-12775000.0,11294000.0,467000.0,-891000.0,10870000.0,0.0,1234000.0,-9636000.0,-0.0273
2010-06-30,8631000.0,491000.0,32667000.0,3305000.0,12738000.0,0.0,16043000.0,-42485000.0,195000.0,0.0,-42519000.0,0.0,6191000.0,35972000.0,0.0494
2009-06-30,11946000.0,14000.0,3158000.0,-1325000.0,0.0,0.0,-1325000.0,-1593000.0,-22000.0,0.0,-1655000.0,0.0,178000.0,1833000.0,-0.6162
