,0,1,2,3,4,5,6,7,8,9,10,11,12,13,14
Date,Depreciation & Amortization,Stock-based compensation,Operating Cash Flow,Capital Expenditure,Acquisitions and disposals,Investment purchases and sales,Investing Cash flow,Issuance (repayment) of debt,Issuance (buybacks) of shares,Dividend payments,Financing Cash Flow,Effect of forex changes on cash,Net cash flow / Change in cash,Free Cash Flow,Net Cash/Marketcap
2019-12-31,89487000.0,5900000.0,187994000.0,12080000.0,-7808000.0,0.0,-143144000.0,-0.0,-2342000.0,-35539000.0,-44016000.0,0.0,834000.0,175914000.0,0.0
2018-12-31,81995000.0,4111000.0,142667000.0,15664000.0,-7543000.0,0.0,-104492000.0,-20000000.0,-1508000.0,-30939000.0,-39066000.0,-102000.0,-993000.0,127003000.0,0.0
2017-12-31,78466000.0,3198000.0,122389000.0,14617000.0,-0.0,0.0,-70852000.0,-20000000.0,-2501000.0,-24876000.0,-49850000.0,-38000.0,1649000.0,107772000.0,0.0
2016-12-31,81230000.0,3091000.0,141761000.0,10548000.0,-0.0,0.0,-60180000.0,-20000000.0,-852000.0,-24448000.0,-81830000.0,-2000.0,-251000.0,131213000.0,0.0
2015-12-31,84280000.0,3399000.0,144552000.0,9321000.0,-0.0,-63953000.0,-114144000.0,-20000000.0,-63953000.0,-25779000.0,-30472000.0,0.0,-64000.0,135231000.0,0.0
2014-12-31,81125000.0,3854000.0,122986000.0,12740000.0,-0.0,0.0,-129880000.0,-20000000.0,-1167000.0,-25551000.0,6516000.0,-85000.0,-463000.0,110246000.0,0.0
2013-12-31,76849000.0,3680000.0,133643000.0,11973000.0,-0.0,0.0,-111204000.0,-0.0,-1630000.0,-24423000.0,-22419000.0,-2000.0,18000.0,121670000.0,0.0
2012-12-31,72476000.0,3840000.0,126381000.0,14161000.0,-0.0,0.0,-114996000.0,-0.0,-1612000.0,-23126000.0,-11002000.0,0.0,383000.0,112220000.0,0.0
2011-12-31,67395000.0,5221000.0,129311000.0,17204000.0,-0.0,0.0,-143714000.0,-12000000.0,-1229000.0,-22252000.0,14642000.0,0.0,239000.0,112107000.0,0.0
2010-12-31,62577000.0,4227000.0,100598000.0,-106199000.0,-39000.0,0.0,-106238000.0,18306000.0,7506000.0,-21390000.0,5443000.0,0.0,-197000.0,-5601000.0,-0.20199999999999999
2009-12-31,63130000.0,3598000.0,122400000.0,-43375000.0,-2100000.0,0.0,-45475000.0,-58166000.0,1098000.0,-20414000.0,-77063000.0,0.0,-138000.0,79025000.0,-0.20199999999999999
