,0,1,2,3,4,5,6,7,8,9,10,11,12,13,14,15,16,17,18,19,20,21,22,23,24,25,26,27,28
Date,Cash and cash equivalents,Short-term investments,Cash and short-term investments,Receivables,Inventories,Total current assets,Property Plant & Equipment Net,Goodwill and Intangible Assets,Long-term investments,Tax assets,Total non-current assets,Total assets,Payables,Short-term debt,Total current liabilities,Long-term debt,Total debt,Deferred revenue,Tax Liabilities,Deposit Liabilities,Total non-current liabilities,Total liabilities,Other comprehensive income,Retained earnings (deficit),Total shareholders equity,Investments,Net Debt,Other Assets,Other Liabilities
2019-12-31,65071000.0,80658000.0,145729000.0,0.0,0.0,149843000.0,9891000.0,0.0,0.0,1573000.0,11671000.0,161514000.0,2812000.0,200000.0,14115000.0,6206000.0,6406000.0,0.0,0.0,0.0,13985000.0,20321000.0,320641000.0,-179495000.0,141193000.0,80658000.0,-58665000.0,0.0,0.0
2018-12-31,58345000.0,84225000.0,142570000.0,0.0,0.0,145321000.0,10212000.0,0.0,0.0,361000.0,11992000.0,157313000.0,3492000.0,400000.0,10419000.0,0.0,400000.0,0.0,0.0,0.0,1246000.0,11665000.0,248349000.0,-102726000.0,145648000.0,84225000.0,-57945000.0,0.0,0.0
2017-12-31,51567000.0,0.0,51567000.0,0.0,0.0,52503000.0,1956000.0,0.0,0.0,0.0,1960000.0,54463000.0,167000.0,0.0,4142000.0,0.0,0.0,0.0,0.0,0.0,0.0,4142000.0,0.0,-45211000.0,-42118000.0,0.0,-51567000.0,936000.0,3975000.0
2016-12-31,4543000.0,0.0,4543000.0,6250000.0,0.0,10834000.0,508000.0,0.0,0.0,0.0,508000.0,11342000.0,1667000.0,0.0,2300000.0,0.0,0.0,0.0,0.0,0.0,17916000.0,20216000.0,0.0,-9720000.0,-8874000.0,0.0,-4543000.0,41000.0,633000.0
