,0,1,2,3,4,5,6,7,8,9,10,11,12,13,14
Date,Depreciation & Amortization,Stock-based compensation,Operating Cash Flow,Capital Expenditure,Acquisitions and disposals,Investment purchases and sales,Investing Cash flow,Issuance (repayment) of debt,Issuance (buybacks) of shares,Dividend payments,Financing Cash Flow,Effect of forex changes on cash,Net cash flow / Change in cash,Free Cash Flow,Net Cash/Marketcap
2018-12-31,1504037.0,131918.0,505803.0,801884.0,-0.0,0.0,-796185.0,-350000.0,-1715.0,-0.0,-664891.0,0.0,-955273.0,-296081.0,0.0
2017-12-31,1611139.0,136653.0,-236823.0,924621.0,-0.0,0.0,-919328.0,-100000.0,-606988.0,-0.0,1732758.0,0.0,576607.0,-1161444.0,0.0
2016-12-31,1541006.0,47256.0,661247.0,1354091.0,-0.0,0.0,-1367296.0,-50000.0,-380381.0,-0.0,814139.0,0.0,108090.0,-692844.0,0.0
2015-12-31,1464588.0,29178.0,1469766.0,1182541.0,-0.0,0.0,-1153017.0,-0.0,-272291.0,-0.0,-253856.0,0.0,62893.0,287225.0,0.0
2014-12-31,1538893.0,33390.0,1780342.0,1514678.0,-0.0,0.0,-1506744.0,-0.0,-209398.0,-0.0,-815475.0,0.0,-541877.0,265664.0,0.0
2013-12-31,1452939.0,0.0,-489528.0,1610152.0,-0.0,0.0,-1351089.0,-0.0,-749766.0,-0.0,2083302.0,0.0,242685.0,-2099680.0,0.0
2012-12-31,1414759.0,112811.0,687842.0,0.0,-0.0,0.0,-1238782.0,-0.0,-477708.0,-0.0,1497450.0,0.0,-849633.0,687842.0,0.0
2011-12-31,1596914.0,109128.0,926488.0,0.0,-0.0,0.0,-3186060.0,-0.0,-1358223.0,-0.0,-344659.0,0.0,-2604231.0,926488.0,0.0
2010-12-31,1374889.0,99156.0,2183115.0,-1617238.0,16357.0,0.0,-1600881.0,0.0,0.0,-336461.0,-336461.0,42502.0,288275.0,565877.0,0.2872
2009-12-31,1394604.0,73835.0,2386186.0,-361195.0,0.0,0.0,-361195.0,-638091.0,-33188.0,0.0,-671279.0,0.0,1353712.0,2024991.0,0.3962
