,0,1,2,3,4,5,6,7,8,9,10,11,12,13,14,15,16,17,18,19,20,21,22,23,24,25,26,27,28
Date,Cash and cash equivalents,Short-term investments,Cash and short-term investments,Receivables,Inventories,Total current assets,Property Plant & Equipment Net,Goodwill and Intangible Assets,Long-term investments,Tax assets,Total non-current assets,Total assets,Payables,Short-term debt,Total current liabilities,Long-term debt,Total debt,Deferred revenue,Tax Liabilities,Deposit Liabilities,Total non-current liabilities,Total liabilities,Other comprehensive income,Retained earnings (deficit),Total shareholders equity,Investments,Net Debt,Other Assets,Other Liabilities
2018-12-31,2174000.0,0.0,2174000.0,1010000.0,4345000.0,7868000.0,661000.0,434000.0,0.0,129000.0,2275000.0,10143000.0,1531000.0,2806000.0,8552000.0,0.0,2806000.0,0.0,0.0,0.0,587000.0,11103000.0,11905000.0,-12757000.0,-960000.0,0.0,632000.0,0.0,1964000.0
2017-12-31,2114000.0,0.0,2114000.0,5183000.0,4979000.0,25308000.0,910000.0,2960000.0,0.0,542000.0,4424000.0,29732000.0,3973000.0,1582000.0,22246000.0,631000.0,2213000.0,0.0,0.0,0.0,1512000.0,29353000.0,10881000.0,-10147000.0,379000.0,0.0,99000.0,0.0,5595000.0
2016-12-31,668000.0,2978000.0,3646000.0,11558000.0,5758000.0,26349000.0,1641000.0,3847000.0,0.0,665000.0,5574000.0,31923000.0,4130000.0,9993000.0,19620000.0,1093000.0,11086000.0,0.0,409000.0,0.0,1345000.0,25148000.0,8748000.0,-1990000.0,6775000.0,2978000.0,10418000.0,0.0,4183000.0
2015-12-31,2361000.0,5643000.0,8004000.0,12353000.0,7457000.0,33534000.0,1816000.0,4763000.0,0.0,571000.0,6609000.0,40143000.0,5710000.0,1037000.0,20243000.0,375000.0,1412000.0,0.0,345000.0,0.0,2444000.0,28704000.0,7812000.0,3817000.0,11439000.0,5643000.0,-949000.0,0.0,6017000.0
2014-12-31,8592000.0,6406000.0,14998000.0,15401000.0,6658000.0,37057000.0,1948000.0,5882000.0,0.0,0.0,7876000.0,44933000.0,10207000.0,10416000.0,20623000.0,3975000.0,14391000.0,0.0,57000.0,0.0,4061000.0,24684000.0,325000.0,6284000.0,14120000.0,6406000.0,-607000.0,0.0,0.0
2013-12-31,0.0,0.0,0.0,0.0,0.0,0.0,0.0,0.0,0.0,0.0,0.0,0.0,0.0,0.0,0.0,0.0,0.0,0.0,0.0,0.0,0.0,0.0,0.0,0.0,0.0,0.0,0.0,0.0,0.0
2012-12-31,0.0,0.0,0.0,0.0,0.0,0.0,0.0,0.0,0.0,0.0,0.0,0.0,0.0,0.0,0.0,0.0,0.0,0.0,0.0,0.0,0.0,0.0,0.0,0.0,0.0,0.0,0.0,0.0,0.0
2011-12-31,940000.0,0.0,940000.0,7947000.0,2479000.0,12071000.0,482000.0,0.0,0.0,3000.0,507000.0,12578000.0,2345000.0,1766000.0,4111000.0,3787000.0,5553000.0,0.0,0.0,0.0,3828000.0,8966000.0,0.0,3501000.0,3612000.0,0.0,4613000.0,0.0,1027000.0
2010-12-31,626000.0,0.0,626000.0,4532000.0,3138000.0,8794000.0,255000.0,0.0,0.0,7000.0,490000.0,9284000.0,4173000.0,349000.0,4433000.0,561000.0,910000.0,0.0,0.0,0.0,806000.0,5239000.0,423000.0,2321000.0,2828000.0,0.0,284000.0,498000.0,-89000.0
2009-12-31,241000.0,0.0,241000.0,3519000.0,3449000.0,7232000.0,116000.0,0.0,0.0,0.0,1260000.0,8492000.0,3055000.0,2643000.0,5578000.0,310000.0,2953000.0,0.0,4000.0,0.0,1419000.0,6997000.0,201000.0,702000.0,987000.0,0.0,2712000.0,23000.0,-120000.0
