,0,1,2,3,4,5,6,7,8,9,10,11,12,13,14
Date,Depreciation & Amortization,Stock-based compensation,Operating Cash Flow,Capital Expenditure,Acquisitions and disposals,Investment purchases and sales,Investing Cash flow,Issuance (repayment) of debt,Issuance (buybacks) of shares,Dividend payments,Financing Cash Flow,Effect of forex changes on cash,Net cash flow / Change in cash,Free Cash Flow,Net Cash/Marketcap
2017-12-31,,0.0,-498644.0,0.0,0.0,0.0,0.0,0.0,0.0,0.0,0.0,0.0,-498644.0,-498644.0,
2016-12-31,,0.0,-153667.0,0.0,0.0,-150000000.0,-150000000.0,-238000.0,151448325.0,0.0,150991034.0,0.0,837367.0,-153667.0,
