,0,1,2,3,4,5,6,7,8,9,10,11,12,13,14,15,16,17,18,19,20,21,22,23,24,25,26,27,28,29,30
Date,Revenue,Revenue Growth,Cost of Revenue,Gross Profit,R&D Expenses,SG&A Expense,Operating Expenses,Operating Income,Interest Expense,Earnings before Tax,Income Tax Expense,Net Income - Non-Controlling int,Net Income - Discontinued ops,Net Income,Preferred Dividends,Net Income Com,EPS,EPS Diluted,Weighted Average Shs Out,Weighted Average Shs Out (Dil),Dividend per Share,Gross Margin,EBITDA Margin,EBIT Margin,Profit Margin,Free Cash Flow margin,EBITDA,EBIT,Consolidated Income,Earnings Before Tax Margin,Net Profit Margin
2020-02-01,5072037000.0,-0.037919029488900004,3199780000.0,1872257000.0,0.0,1304280000.0,1304280000.0,515037000.0,154090000.0,358371000.0,85776000.0,0.0,0.0,272595000.0,0.0,272595000.0,1.78,1.78,153134000.0,153202000.0,0.0,0.36913315104,0.12713984539200002,0.101544409081,0.053744678913,0.0734675239948,644858000.0,515037000.0,272595000.0,0.07065622746839999,0.053744678913
2019-02-02,5271944000.0,-0.016787890995100002,3248276000.0,2023668000.0,0.0,1351401000.0,1351401000.0,563612000.0,147085000.0,417054000.0,97509000.0,0.0,0.0,319545000.0,0.0,319545000.0,1.87,1.86,170610000.0,171378000.0,0.0018497123318,0.383856125938,0.131329543713,0.106907812374,0.0606123661405,0.0566904731917,692362000.0,563612000.0,319545000.0,0.0791081999354,0.0606123661405
2018-02-03,5361960000.0,0.0316834228287,3233171000.0,2128789000.0,0.0,1390400000.0,1390400000.0,735390000.0,129116000.0,605741000.0,215243000.0,0.0,0.0,390498000.0,0.0,390498000.0,2.11,2.1,184281000.0,185566000.0,0.00219867863725,0.397016949026,0.16018303008600002,0.13714947519200002,0.0728274735358,0.0738125610784,858895000.0,735390000.0,390498000.0,0.112970070646,0.0728274735358
2017-01-28,5197292000.0,0.0579121972031,3169476000.0,2027816000.0,0.0,1308052000.0,1308052000.0,715280000.0,126270000.0,581773000.0,203614000.0,0.0,0.0,378159000.0,0.0,378159000.0,1.84,1.82,204735000.0,206354000.0,0.00201110712659,0.390167802771,0.161108900558,0.137625517289,0.0727607761888,0.08657489323289999,837330000.0,715280000.0,378159000.0,0.11193771679600001,0.0727607761888
2016-01-30,4912782000.0,0.036889404812199995,2944431000.0,1968351000.0,0.0,1242961000.0,1242961000.0,720604000.0,139405000.0,572120000.0,209208000.0,0.0,0.0,362912000.0,0.0,362912000.0,1.75,1.72,206845000.0,209346000.0,0.00235017626322,0.400659137735,0.171731006994,0.14667941707999999,0.0738709757526,0.07737510029960001,843677000.0,720604000.0,362912000.0,0.11645540144099999,0.0738709757526
2015-01-31,4738000000.0,0.0368086775065,2837000000.0,1901000000.0,0.0,1220000000.0,1220000000.0,627000000.0,199000000.0,351000000.0,134000000.0,0.0,0.0,217000000.0,0.0,217000000.0,1.07,1.05,203200000.0,207300000.0,0.00482392667631,0.401224145209,0.157661460532,0.132334318278,0.0457999155762,0.0639510341916,747000000.0,627000000.0,217000000.0,0.0740818910933,0.0457999155762
2014-02-01,4569792000.0,0.036704174228699996,2747630000.0,1822162000.0,0.0,1193282000.0,1211760000.0,610402000.0,214497000.0,379335000.0,135905000.0,0.0,0.0,243430000.0,0.0,243430000.0,1.39,1.36,203103838.0,174797000.0,0.0,0.3987,0.153,0.1299,0.053,0.0737,699771000.0,593832000.0,243430000.0,0.083,0.0533
2013-02-01,4408000000.0,0.0,2643000000.0,1765000000.0,0.0,1132000000.0,1173000000.0,592000000.0,245000000.0,315000000.0,115000000.0,0.0,0.0,200000000.0,0.0,200000000.0,1.14,1.12,203103838.0,175000000.0,0.0,0.4004,0.149,0.127,0.045,0.0397,657000000.0,560000000.0,200000000.0,0.0715,0.0454
2013-01-31,4408000000.0,0.047030878859900004,2643000000.0,1765000000.0,0.0,1132000000.0,1173000000.0,592000000.0,245000000.0,315000000.0,115000000.0,0.0,0.0,200000000.0,0.0,200000000.0,1.14,1.12,,175000000.0,0.0,0.4004,0.149,0.127,0.045,0.0397,657000000.0,560000000.0,200000000.0,0.0715,0.0454
2012-01-28,4210000000.0,0.044405854626599996,2532000000.0,1678000000.0,0.0,1090000000.0,1140000000.0,538000000.0,254000000.0,257000000.0,100000000.0,0.0,0.0,157000000.0,0.0,157000000.0,0.9,0.89,,174600000.0,0.0,0.3986,0.145,0.1214,0.037000000000000005,0.0713,612000000.0,511000000.0,157000000.0,0.061,0.0373
2011-02-01,4031000000.0,,2467000000.0,1564000000.0,0.0,1051000000.0,1076000000.0,488000000.0,276000000.0,149000000.0,46000000.0,0.0,0.0,103000000.0,0.0,103000000.0,,,,,0.0,0.38799999999999996,0.131,0.1054,0.026000000000000002,0.0886,528000000.0,425000000.0,103000000.0,0.037000000000000005,0.0256
