,0,1,2,3,4,5,6,7,8,9,10,11,12,13,14,15,16,17,18,19,20,21,22,23,24,25,26,27,28
Date,Cash and cash equivalents,Short-term investments,Cash and short-term investments,Receivables,Inventories,Total current assets,Property Plant & Equipment Net,Goodwill and Intangible Assets,Long-term investments,Tax assets,Total non-current assets,Total assets,Payables,Short-term debt,Total current liabilities,Long-term debt,Total debt,Deferred revenue,Tax Liabilities,Deposit Liabilities,Total non-current liabilities,Total liabilities,Other comprehensive income,Retained earnings (deficit),Total shareholders equity,Investments,Net Debt,Other Assets,Other Liabilities
2018-01,10000000.0,,,10000000.0,11000000.0,41000000.0,23000000.0,11000000.0,,0.0,0.0,74000000.0,1000000.0,0.0,8000000.0,0.0,0.0,2000000.0,0.0,,0.0,8000000.0,-9000000.0,-42000000.0,66000000.0,,-10000000.0,7000000.0,1000000.0
2017-01,3000000.0,,,16000000.0,12000000.0,60000000.0,44000000.0,13000000.0,,0.0,0.0,95000000.0,2000000.0,6000000.0,13000000.0,0.0,0.0,1000000.0,0.0,,0.0,14000000.0,-11000000.0,-20000000.0,81000000.0,,3000000.0,4000000.0,0.0
2016-01,4000000.0,,,20000000.0,13000000.0,94000000.0,74000000.0,14000000.0,,1000000.0,17000000.0,135000000.0,4000000.0,3000000.0,12000000.0,17000000.0,17000000.0,0.0,0.0,,17000000.0,30000000.0,-12000000.0,13000000.0,105000000.0,,16000000.0,5000000.0,0.0
2015-01,5000000.0,,,27000000.0,11000000.0,125000000.0,100000000.0,17000000.0,,9000000.0,23000000.0,180000000.0,2000000.0,3000000.0,10000000.0,23000000.0,23000000.0,1000000.0,0.0,,23000000.0,33000000.0,-9000000.0,52000000.0,146000000.0,,21000000.0,0.0,0.0
2014-01,15000000.0,,,31000000.0,8000000.0,143000000.0,130000000.0,7000000.0,,6000000.0,23000000.0,205000000.0,11000000.0,0.0,12000000.0,22000000.0,22000000.0,0.0,0.0,,23000000.0,35000000.0,-2000000.0,61000000.0,170000000.0,,7000000.0,0.0,0.0
