,0,1,2,3,4,5,6,7,8,9,10,11,12,13,14,15,16,17,18,19,20,21,22,23,24,25,26,27,28,29,30
Date,Revenue,Revenue Growth,Cost of Revenue,Gross Profit,R&D Expenses,SG&A Expense,Operating Expenses,Operating Income,Interest Expense,Earnings before Tax,Income Tax Expense,Net Income - Non-Controlling int,Net Income - Discontinued ops,Net Income,Preferred Dividends,Net Income Com,EPS,EPS Diluted,Weighted Average Shs Out,Weighted Average Shs Out (Dil),Dividend per Share,Gross Margin,EBITDA Margin,EBIT Margin,Profit Margin,Free Cash Flow margin,EBITDA,EBIT,Consolidated Income,Earnings Before Tax Margin,Net Profit Margin
2018-12-31,0.0,0.0,0.0,0.0,53062374.0,22216704.0,75279078.0,-75279078.0,21357196.0,-96712487.0,0.0,0.0,0.0,-96712487.0,0.0,-96712487.0,-16.92,-16.92,396220998.0,68476149.0,0.0,0.0,,0.0,,0.0,-75046250.0,-75355291.0,-96712487.0,0.0,0.0
2017-12-31,0.0,0.0,0.0,0.0,63219537.0,16500875.0,79720412.0,-79720412.0,3281715.0,-82909827.0,0.0,0.0,0.0,-82909827.0,0.0,-82909827.0,-14.52,-14.52,34442000.0,68472262.0,0.0,0.0,,0.0,,0.0,-79281240.0,-79628112.0,-82909827.0,0.0,0.0
2016-12-31,0.0,,0.0,0.0,48445173.0,13403332.0,61848505.0,-61848505.0,0.0,-61049482.0,0.0,0.0,0.0,-61049482.0,0.0,-61049482.0,-10.8,-10.8,34442000.0,68165325.0,0.0,0.0,,0.0,,0.0,-60736945.0,-61049482.0,-61049482.0,0.0,0.0
