,0,1,2,3,4,5,6,7,8,9,10,11,12,13,14
Date,Depreciation & Amortization,Stock-based compensation,Operating Cash Flow,Capital Expenditure,Acquisitions and disposals,Investment purchases and sales,Investing Cash flow,Issuance (repayment) of debt,Issuance (buybacks) of shares,Dividend payments,Financing Cash Flow,Effect of forex changes on cash,Net cash flow / Change in cash,Free Cash Flow,Net Cash/Marketcap
2018-12-31,309041.0,1276614.0,-72078266.0,-11652.0,0.0,0.0,-11652.0,78866907.0,15200.0,0.0,78826281.0,0.0,6736363.0,-72089918.0,
2017-12-31,346872.0,1286970.0,-69835632.0,-160952.0,0.0,0.0,-172988.0,64633000.0,10475.0,0.0,64417692.0,0.0,-5590928.0,-69996584.0,
2016-12-31,312537.0,1832991.0,-54019933.0,-287883.0,0.0,0.0,-182521.0,-457652.0,10000.0,0.0,50291752.0,0.0,-3910702.0,-54307816.0,
