,0,1,2,3,4,5,6,7,8,9,10,11,12,13,14,15,16,17,18,19,20,21,22,23,24,25,26,27,28,29,30
Date,Revenue,Revenue Growth,Cost of Revenue,Gross Profit,R&D Expenses,SG&A Expense,Operating Expenses,Operating Income,Interest Expense,Earnings before Tax,Income Tax Expense,Net Income - Non-Controlling int,Net Income - Discontinued ops,Net Income,Preferred Dividends,Net Income Com,EPS,EPS Diluted,Weighted Average Shs Out,Weighted Average Shs Out (Dil),Dividend per Share,Gross Margin,EBITDA Margin,EBIT Margin,Profit Margin,Free Cash Flow margin,EBITDA,EBIT,Consolidated Income,Earnings Before Tax Margin,Net Profit Margin
2018-12-31,6841285000.0,0.128615944909,0.0,0.0,0.0,768208000.0,3665683000.0,39759000.0,154212000.0,-7855000.0,122498000.0,0.0,0.0,-128180000.0,0.0,-128180000.0,-9.55,-9.55,13923000.0,13923000.0,0.658191481721,0.0,0.0391161894293,0.00581162749396,-0.0187362461877,0.11492928594599999,267605000.0,39759000.0,-128180000.0,-0.00114817611019,-0.0187362461877
2017-12-31,6061659000.0,0.08011955040839999,0.0,0.0,0.0,693061000.0,2895394000.0,219746000.0,132451000.0,87295000.0,-313463000.0,0.0,0.0,395269000.0,0.0,395269000.0,25.89,25.81,13964000.0,14006000.0,0.563972583179,0.0,0.069884663588,0.036251791795,0.0652080560784,0.12931723807,423617000.0,219746000.0,395269000.0,0.0144011730122,0.0652080560784
2016-12-31,5612026000.0,0.0450733270478,0.0,0.0,0.0,716369000.0,2688833000.0,803916000.0,129896000.0,629920000.0,169477000.0,0.0,0.0,455689000.0,0.0,455689000.0,31.41,31.27,14013000.0,14078000.0,0.42257422929399996,0.0,0.17784361654800002,0.14324880177000002,0.0811986615885,0.08391782219110001,998063000.0,803916000.0,455689000.0,0.112244668859,0.0811986615885
2015-12-31,5369983000.0,0.046032592297099995,0.0,0.0,0.0,710116000.0,2501885000.0,860406000.0,118301000.0,742105000.0,152963000.0,0.0,0.0,582772000.0,0.0,582772000.0,41.99,41.74,13978000.0,14061000.0,0.447123248702,0.0,0.197652953464,0.16022508823599999,0.108523993465,0.106405551005,1061393000.0,860406000.0,582772000.0,0.13819503711699999,0.108523993465
2014-12-31,5133667000.0,0.18750137344099999,0.0,0.0,0.0,805966000.0,2315753000.0,557820000.0,117442000.0,440378000.0,116690000.0,0.0,0.0,321182000.0,0.0,321182000.0,22.38,22.27,13984000.0,14057000.0,0.373123710607,0.0,0.148315034847,0.10865917092,0.0625638554273,0.123627029178,761400000.0,557820000.0,321182000.0,0.08578234622539999,0.0625638554273
2013-12-31,4323083000.0,0.44097387030900004,0.0,0.0,0.0,765257000.0,1975840000.0,475747000.0,114004000.0,361743000.0,77898000.0,0.0,0.0,281021000.0,0.0,281021000.0,22.57,22.48,12538000.0,12586000.0,0.407119021135,0.0,0.15401346677799999,0.11004808374000001,0.0650047662744,0.16141165922599998,665813000.0,475747000.0,281021000.0,0.08367708878130001,0.0650047662744
2012-12-31,3000112000.0,0.140748683435,0.0,0.0,0.0,501363000.0,1407720000.0,404812000.0,92762000.0,312050000.0,53802000.0,0.0,0.0,253385000.0,0.0,253385000.0,25.96,25.89,9640000.0,9666000.0,0.7949513759569999,0.0,0.164039875845,0.134932295861,0.08445851354879999,0.115667015098,492138000.0,404812000.0,253385000.0,0.10401278352299999,0.08445851354879999
2011-12-31,2629950000.0,0.181791261139,0.0,0.0,0.0,330725000.0,1119225000.0,276448000.0,86252000.0,190196000.0,41710000.0,0.0,0.0,142026000.0,0.0,142026000.0,14.66,14.6,9686000.0,9726000.0,0.0,0.0,0.131949276602,0.105115306375,0.0540033080477,0.09550980056660001,347020000.0,276448000.0,142026000.0,0.072319245613,0.0540033080477
2010-12-31,2225393000.0,0.0754192427873,0.0,0.0,0.0,0.0,893166000.0,369174000.0,73663000.0,431685000.0,27782000.0,0.0,0.0,266793000.0,0.0,266793000.0,27.31,27.27,0.0,0.0,0.0,0.0,0.16589159757400002,0.16589159757400002,0.119885790959,0.0,369174000.0,369174000.0,266793000.0,0.19398146754299997,0.119885790959
2009-12-31,2069326000.0,0.0469,992863000.0,1076463000.0,0.0,736660000.0,823857000.0,252606000.0,53969000.0,197856000.0,-3782000.0,781000.0,0.0,201638000.0,0.0,201638000.0,20.54,20.52,9816300.0,9816300.0,0.0,0.5202,0.13699999999999998,0.1217,0.09699999999999999,0.1259,282997000.0,251825000.0,202419000.0,0.0956,0.0974
