,0,1,2,3,4,5,6,7,8,9,10,11,12,13,14,15,16,17,18,19,20,21,22,23,24,25,26,27,28,29,30
Date,Revenue,Revenue Growth,Cost of Revenue,Gross Profit,R&D Expenses,SG&A Expense,Operating Expenses,Operating Income,Interest Expense,Earnings before Tax,Income Tax Expense,Net Income - Non-Controlling int,Net Income - Discontinued ops,Net Income,Preferred Dividends,Net Income Com,EPS,EPS Diluted,Weighted Average Shs Out,Weighted Average Shs Out (Dil),Dividend per Share,Gross Margin,EBITDA Margin,EBIT Margin,Profit Margin,Free Cash Flow margin,EBITDA,EBIT,Consolidated Income,Earnings Before Tax Margin,Net Profit Margin
2019-12-31,0.0,0.0,0.0,0.0,27843000.0,17556000.0,45399000.0,-45399000.0,0.0,0.0,0.0,0.0,0.0,-44568000.0,0.0,-44568000.0,-3.25,-3.25,13706744.0,13706744.0,0.0,0.0,0.0,0.0,0.0,0.0,-44347000.0,-45399000.0,-44568000.0,0.0,0.0
2018-12-31,0.0,-1.0,20000.0,0.0,14425000.0,8691000.0,23116000.0,-26874000.0,134000.0,-27052000.0,0.0,0.0,0.0,-27192000.0,0.0,-27192000.0,-17.58,-17.58,1547051.0,1547051.0,0.0,0.0,0.0,0.0,0.0,0.0,-26842000.0,-26874000.0,-27192000.0,0.0,0.0
2017-12-31,295000.0,-0.5482388973969999,790000.0,-495000.0,18337000.0,27744000.0,50901000.0,-50606000.0,0.0,-50908000.0,67000.0,0.0,0.0,-50975000.0,0.0,-50975000.0,-1.43,-1.43,35675000.0,35675000.0,0.0,-1.67796610169,-165.75254237299998,-171.545762712,-172.79661016900002,-154.945762712,-48897000.0,-50606000.0,-50975000.0,-172.569491525,-172.79661016900002
2016-12-31,653000.0,1.3574007220200002,5401000.0,-4748000.0,21641000.0,49223000.0,81665000.0,-81012000.0,0.0,-82059000.0,201000.0,0.0,0.0,-82260000.0,0.0,-82260000.0,-2.56,-2.56,32148000.0,32148000.0,0.0,-7.27105666156,-119.624808576,-124.06125574299999,-125.972434916,-98.4992343032,-78115000.0,-81012000.0,-82260000.0,-125.664624809,-125.972434916
2015-12-31,277000.0,1.0,2249000.0,-1972000.0,18433000.0,51594000.0,72276000.0,-71999000.0,0.0,-73144000.0,75000.0,0.0,0.0,-73219000.0,0.0,-73219000.0,-2.7,-2.7,27085000.0,27085000.0,0.0,-7.11913357401,-251.25270758099998,-259.92418772599996,-264.32851985599996,-200.415162455,-69597000.0,-71999000.0,-73219000.0,-264.057761733,-264.32851985599996
2014-12-31,0.0,0.0,0.0,0.0,21784000.0,26149000.0,47933000.0,-47933000.0,0.0,-36000.0,0.0,0.0,0.0,-49520000.0,0.0,-49520000.0,-2.19,-2.19,22647000.0,22647000.0,0.0,0.0,0.0,0.0,0.0,0.0,-46612000.0,-47933000.0,-49520000.0,0.0,0.0
2013-12-31,0.0,0.0,0.0,0.0,15802000.0,13332000.0,29134000.0,-29134000.0,0.0,16000.0,0.0,0.0,0.0,-29044000.0,0.0,-29044000.0,-1.8,-1.8,16160000.0,16160000.0,0.0,0.0,0.0,0.0,0.0,0.0,-28317000.0,-29134000.0,-29044000.0,0.0,0.0
2012-12-31,0.0,0.0,0.0,0.0,6323000.0,7206000.0,13529000.0,-13529000.0,0.0,-6000.0,0.0,0.0,0.0,-13510000.0,0.0,-13510000.0,-2.33,-2.33,5810000.0,5810000.0,0.0,0.0,0.0,0.0,0.0,0.0,-13359000.0,-13529000.0,-13510000.0,0.0,0.0
2012-03-31,0.0,,0.0,0.0,2116000.0,3474000.0,5590000.0,-5590000.0,0.0,-5590000.0,0.0,0.0,0.0,-5590000.0,101000.0,-5691000.0,-82.8,-82.8,950819.0,68733.0,0.0,0.0,,0.0,,0.0,-5590000.0,-5590000.0,-5590000.0,0.0,0.0
