,0,1,2,3,4,5,6,7,8,9,10,11,12,13,14,15,16,17,18,19,20,21,22,23,24,25,26,27,28,29,30
Date,Revenue,Revenue Growth,Cost of Revenue,Gross Profit,R&D Expenses,SG&A Expense,Operating Expenses,Operating Income,Interest Expense,Earnings before Tax,Income Tax Expense,Net Income - Non-Controlling int,Net Income - Discontinued ops,Net Income,Preferred Dividends,Net Income Com,EPS,EPS Diluted,Weighted Average Shs Out,Weighted Average Shs Out (Dil),Dividend per Share,Gross Margin,EBITDA Margin,EBIT Margin,Profit Margin,Free Cash Flow margin,EBITDA,EBIT,Consolidated Income,Earnings Before Tax Margin,Net Profit Margin
2018-12-31,96430000.0,1.84756673754,41057000.0,55373000.0,55409000.0,133312000.0,254866000.0,-158436000.0,43179000.0,0.0,-139000.0,0.0,0.0,-157192000.0,0.0,-157192000.0,-17.12,-17.12,9181668.0,9181668.0,0.0,0.574230011407,-1.4677486259499999,-1.64301565903,-1.6301151094100002,-1.79648449653,-141535000.0,-158436000.0,-157192000.0,0.0,-1.6301151094100002
2017-12-31,33864000.0,0.879662522202,0.0,0.0,49475000.0,63325000.0,112800000.0,-78936000.0,3608000.0,0.0,-103000.0,0.0,0.0,-58916000.0,0.0,-58916000.0,-21.86,-21.86,3576846.0,3576846.0,0.0,0.0,-2.3176529647999997,-2.33097094259,-1.73978266005,-2.25747106071,-78485000.0,-78936000.0,-58916000.0,0.0,-1.73978266005
2016-12-31,18016000.0,-0.340280358876,0.0,0.0,81686000.0,53538000.0,135224000.0,-117208000.0,1228000.0,0.0,0.0,0.0,0.0,-117961000.0,0.0,-117961000.0,-2.34,-2.34,50313614.0,50313614.0,0.0,0.0,-6.49911190053,-6.5057726465400005,-6.54756882771,-4.83398090586,-117088000.0,-117208000.0,-117961000.0,0.0,-6.54756882771
2015-12-31,27308570.0,0.794735045512,0.0,0.0,93352367.0,22871297.0,116223664.0,-88915094.0,2206315.0,0.0,0.0,0.0,0.0,-91112609.0,0.0,-91112609.0,-2.09,-2.09,43565518.0,43565518.0,0.0,0.0,-3.23875647828,-3.25594104708,-3.33641084099,-3.2185671018299997,-88445808.0,-88915094.0,-91112609.0,0.0,-3.33641084099
2014-12-31,15215934.0,0.947523386125,0.0,0.0,62539108.0,12076767.0,74615875.0,-59399941.0,2383709.0,0.0,0.0,0.0,0.0,-61649270.0,0.0,-61649270.0,-1.81,-1.81,34130901.0,34130901.0,0.0,0.0,-3.8483521287599998,-3.9037985443400003,-4.05162574969,-3.2297446873799998,-58556272.0,-59399941.0,-61649270.0,0.0,-4.05162574969
2013-12-31,7812966.0,1.0,0.0,0.0,41299695.0,9433447.0,50733142.0,-42920176.0,2132223.0,0.0,0.0,0.0,0.0,-45034706.0,0.0,-45034706.0,-1.53,-1.53,29449716.0,29449716.0,0.0,0.0,-5.4050886692699995,-5.4934548544,-5.76409855105,-4.16935041059,-42229774.0,-42920176.0,-45034706.0,0.0,-5.76409855105
2012-12-31,0.0,0.0,0.0,0.0,16869078.0,6068457.0,22937535.0,-22937535.0,1396818.0,-24226789.0,0.0,0.0,0.0,-24540377.0,0.0,-24540377.0,-1.23,-1.23,0.0,0.0,0.0,0.0,0.0,0.0,0.0,0.0,-22534732.0,-22937535.0,-24540377.0,0.0,0.0
2011-12-31,,0.0,,0.0,,,20579388.0,-20579388.0,722454.0,,,0.0,0.0,,3763061.0,,,,,87617.0,0.0,,,,,,,-20498325.0,,,
2010-12-31,,0.0,,0.0,,,18672667.0,-18672667.0,1495398.0,,,0.0,0.0,,3238263.0,,,,,81955.0,0.0,,,,,,,-18179526.0,,,
2009-12-31,,,,0.0,,,16701048.0,-16701048.0,1927337.0,,,0.0,0.0,,2291433.0,,,,,81848.0,0.0,,,,,,,-16684477.0,,,
