,0,1,2,3,4,5,6,7,8,9,10,11,12,13,14,15,16,17,18,19,20,21,22,23,24,25,26,27,28,29,30
Date,Revenue,Revenue Growth,Cost of Revenue,Gross Profit,R&D Expenses,SG&A Expense,Operating Expenses,Operating Income,Interest Expense,Earnings before Tax,Income Tax Expense,Net Income - Non-Controlling int,Net Income - Discontinued ops,Net Income,Preferred Dividends,Net Income Com,EPS,EPS Diluted,Weighted Average Shs Out,Weighted Average Shs Out (Dil),Dividend per Share,Gross Margin,EBITDA Margin,EBIT Margin,Profit Margin,Free Cash Flow margin,EBITDA,EBIT,Consolidated Income,Earnings Before Tax Margin,Net Profit Margin
2019-05-31,38046000.0,-0.1951,,37817000.0,,,,36386000.0,,36386000.0,,,,,,,1.32,1.32,27594000.0,,,0.9940000000000001,,,,,,,,0.9564,
2018-05-31,47268000.0,-0.0824,,47046000.0,,,,28875000.0,,28875000.0,,,,,,,1.05,1.05,27562000.0,,,0.9953,,,,,,,,0.6109,
2017-05-31,51515000.0,0.1138,,51338000.0,,,,17076000.0,,17078000.0,,,,,,,0.62,0.62,27555000.0,,,0.9966,,,,,,,,0.3315,
2016-05-31,46253000.0,,,45968000.0,,,,75982000.0,,75982000.0,,,,,,,2.76,2.76,27555000.0,,,0.9938,,,,,,,,1.6427,
