,0,1,2,3,4,5,6,7,8,9,10,11,12,13,14,15,16,17,18,19,20,21,22,23,24,25,26,27,28,29,30
Date,Revenue,Revenue Growth,Cost of Revenue,Gross Profit,R&D Expenses,SG&A Expense,Operating Expenses,Operating Income,Interest Expense,Earnings before Tax,Income Tax Expense,Net Income - Non-Controlling int,Net Income - Discontinued ops,Net Income,Preferred Dividends,Net Income Com,EPS,EPS Diluted,Weighted Average Shs Out,Weighted Average Shs Out (Dil),Dividend per Share,Gross Margin,EBITDA Margin,EBIT Margin,Profit Margin,Free Cash Flow margin,EBITDA,EBIT,Consolidated Income,Earnings Before Tax Margin,Net Profit Margin
2018-12-31,2826573000.0,0.127175084671,704313000.0,2122260000.0,0.0,194283000.0,194283000.0,1194581000.0,0.0,1333996000.0,71000.0,0.0,0.0,1333925000.0,0.0,1333925000.0,5.84,5.84,228377000.0,228377000.0,0.0,0.750824408214,0.51640555542,0.422625207274,0.471923067262,0.283273419791,1459658000.0,1194581000.0,1333925000.0,0.47194818601899996,0.471923067262
2017-12-31,2507661000.0,0.137049800264,635617000.0,1872044000.0,0.0,165717000.0,165717000.0,1052713000.0,0.0,873361000.0,3830000.0,0.0,0.0,869531000.0,0.0,869531000.0,3.81,3.81,228176000.0,228176000.0,0.0,0.746529933671,0.498210483793,0.419798768653,0.34674981985200004,0.219331480611,1249343000.0,1052713000.0,869531000.0,0.348277139534,0.34674981985200004
2016-12-31,2205410000.0,0.0077483957845999995,0.0,0.0,0.0,147815000.0,147815000.0,935052000.0,0.0,802771000.0,0.0,0.0,0.0,797880000.0,0.0,797880000.0,3.52,3.52,227926000.0,227926000.0,0.0,0.0,0.504756031758,0.42398102847099994,0.361783069815,0.13144086587099998,1113194000.0,935052000.0,797880000.0,0.364000798038,0.361783069815
2015-12-31,2188453000.0,-0.050036397605099994,0.0,0.0,0.0,151329000.0,151329000.0,963620000.0,0.0,819122000.0,0.0,0.0,0.0,804312000.0,0.0,804312000.0,3.59,3.59,227550000.0,227550000.0,0.0,0.0,0.516543878256,0.44032017137199997,0.367525370661,0.204958022859,1130432000.0,963620000.0,804312000.0,0.374292708137,0.367525370661
2014-12-31,2303723000.0,0.21401544893899999,0.0,0.0,0.0,148288000.0,148288000.0,974231000.0,0.0,839519000.0,0.0,0.0,0.0,777483000.0,0.0,777483000.0,3.69,3.69,227260000.0,227260000.0,0.0,0.0,0.493102686391,0.422894158716,0.337489793695,0.321590746804,1135972000.0,974231000.0,777483000.0,0.364418378425,0.337489793695
2013-12-31,1897606000.0,0.07083902816700001,0.0,0.0,0.0,132496000.0,132496000.0,705056000.0,0.0,586850000.0,0.0,0.0,0.0,597791000.0,0.0,597791000.0,2.56,2.56,226829000.0,226829000.0,0.0,0.0,0.446502593268,0.37155025858900004,0.31502377205800003,0.204965098129,847286000.0,705056000.0,597791000.0,0.309258086241,0.31502377205800003
2012-12-31,1772074000.0,0.013385624592899999,0.0,0.0,0.0,109403000.0,1222977000.0,552058000.0,0.0,438292000.0,0.0,0.0,0.0,447813000.0,0.0,447813000.0,1.92,1.92,226369000.0,226369000.0,0.0,0.0,0.383770655176,0.31153213692,0.252705586787,0.164170909341,680070000.0,552058000.0,447813000.0,0.24733278632800001,0.252705586787
2011-12-31,1748667000.0,0.12277785375700001,0.0,0.0,0.0,98669000.0,1232533000.0,522897000.0,0.0,377461000.0,1866000.0,0.0,0.0,413566000.0,0.0,413566000.0,0.0,0.0,112837000.0,112837000.0,0.0,0.0,0.36832398621299994,0.299026058135,0.23650357672400002,0.215969078161,644076000.0,522897000.0,413566000.0,0.21585642091899998,0.23650357672400002
2010-12-31,1557447000.0,0.53568481055,0.0,0.0,0.0,0.0,0.0,0.0,0.0,0.0,0.0,0.0,0.0,311580000.0,0.0,311580000.0,0.0,0.0,109485000.0,109485000.0,0.0,0.0,0.0,0.0,0.200058172124,-0.142167919679,0.0,0.0,311580000.0,0.0,0.200058172124
2009-12-31,1014171000.0,-0.1644,537926000.0,476245000.0,0.0,84049000.0,181265000.0,294980000.0,73357000.0,128407000.0,1661000.0,99729000.0,0.0,126746000.0,0.0,126746000.0,1.11,1.11,213175644.0,114230000.0,1.42,0.4696,0.295,0.1989,0.125,0.0529,298980000.0,201764000.0,226475000.0,0.1266,0.125
