,0,1,2,3,4,5,6,7,8,9,10,11,12,13,14
Date,Depreciation & Amortization,Stock-based compensation,Operating Cash Flow,Capital Expenditure,Acquisitions and disposals,Investment purchases and sales,Investing Cash flow,Issuance (repayment) of debt,Issuance (buybacks) of shares,Dividend payments,Financing Cash Flow,Effect of forex changes on cash,Net cash flow / Change in cash,Free Cash Flow,Net Cash/Marketcap
2019-03-31,26817000.0,40033000.0,-78927000.0,-3294000.0,5850000.0,68215000.0,70011000.0,97000.0,298000.0,0.0,-335000.0,-406000.0,-9251000.0,-82221000.0,4.3732
2018-03-31,29838000.0,44860000.0,-125478000.0,-3923000.0,302000.0,-106680000.0,-115090000.0,-96000.0,330046000.0,0.0,327899000.0,-1388000.0,87331000.0,-129401000.0,2.1702
2017-03-31,14535000.0,26795000.0,-108457000.0,-8658000.0,102814000.0,72544000.0,163011000.0,131000.0,6873000.0,0.0,2159000.0,-1282000.0,56713000.0,-117115000.0,2.1702
2016-03-31,2724000.0,13685000.0,-66000000.0,-5468000.0,-1220000.0,-94462000.0,-103644000.0,180130000.0,-11079000.0,0.0,164612000.0,1448000.0,-5032000.0,-71468000.0,2.1702
2015-03-31,2434000.0,12308000.0,10827000.0,-2779000.0,0.0,10287000.0,5418000.0,197000.0,-266000.0,0.0,-2721000.0,-1678000.0,13524000.0,8048000.0,2.1702
2014-03-31,1836000.0,11097000.0,-3957000.0,-1918000.0,-2221000.0,-59373000.0,-64453000.0,-66000.0,76792000.0,0.0,72459000.0,-1673000.0,4049000.0,-5875000.0,2.1702
2013-03-31,1748000.0,11667000.0,13596000.0,-2725000.0,-9643000.0,-4917000.0,-17948000.0,-12000.0,-107000.0,0.0,-1394000.0,-2417000.0,-5746000.0,10871000.0,2.1702
2012-03-31,1651252.0,6894450.0,10878934.0,-5517324.0,-2446455.0,-35720961.0,-46224556.0,-222143.0,37987178.0,0.0,35232817.0,-3963309.0,-112805.0,5361610.0,2.1702
2011-03-31,1114958.0,527285.0,-6332157.0,-1230559.0,0.0,-2519501.0,-3034279.0,3443.0,59472300.0,0.0,52363359.0,-468039.0,42996923.0,-7562716.0,2.1702
2010-03-31,908844.0,6771376.0,5231301.0,-642146.0,0.0,3653559.0,3451730.0,31482.0,75398.0,0.0,-210043.0,-685143.0,8472988.0,4589155.0,2.1702
