,0,1,2,3,4,5,6,7,8,9,10,11,12,13,14,15,16,17,18,19,20,21,22,23,24,25,26,27,28,29,30
Date,Revenue,Revenue Growth,Cost of Revenue,Gross Profit,R&D Expenses,SG&A Expense,Operating Expenses,Operating Income,Interest Expense,Earnings before Tax,Income Tax Expense,Net Income - Non-Controlling int,Net Income - Discontinued ops,Net Income,Preferred Dividends,Net Income Com,EPS,EPS Diluted,Weighted Average Shs Out,Weighted Average Shs Out (Dil),Dividend per Share,Gross Margin,EBITDA Margin,EBIT Margin,Profit Margin,Free Cash Flow margin,EBITDA,EBIT,Consolidated Income,Earnings Before Tax Margin,Net Profit Margin
2018-12-31,18135000.0,0.0040416343705,6146000.0,11989000.0,3747000.0,2892000.0,6639000.0,5350000.0,0.0,5572000.0,438000.0,0.0,0.0,5134000.0,0.0,5134000.0,0.27,0.27,19307418.0,19344000.0,0.3,0.6611,0.312,0.3073,0.28300000000000003,0.2437,5656000.0,5572000.0,5134000.0,0.3073,0.2831
2017-12-31,18062000.0,0.000553955240417,7033000.0,11029000.0,3417000.0,2926000.0,6343000.0,4686000.0,0.0,6209000.0,597000.0,0.0,0.0,5612000.0,0.0,5612000.0,0.29,0.29,19261418.0,19292000.0,0.32,0.6106,0.35,0.3438,0.311,0.1481,6313000.0,6209000.0,5612000.0,0.3438,0.3107
2016-12-31,18052000.0,-0.137423547401,6831000.0,11221000.0,3517000.0,2498000.0,6015000.0,5206000.0,0.0,5372000.0,1169000.0,0.0,0.0,4203000.0,0.0,4203000.0,0.22,0.22,19202418.0,19234000.0,0.27,0.6216,0.307,0.2976,0.233,0.2867,5533000.0,5372000.0,4203000.0,0.2976,0.2328
2015-12-31,20928000.0,-0.163549160671,8630000.0,12298000.0,2943000.0,2939000.0,5882000.0,6416000.0,0.0,6302000.0,1284000.0,0.0,0.0,5018000.0,0.0,5018000.0,0.26,0.26,19110318.0,19183000.0,0.3,0.5876,0.309,0.3011,0.24,0.2939,6475000.0,6302000.0,5018000.0,0.3011,0.2398
2014-12-31,25020000.0,0.353896103896,9950000.0,15070000.0,4539000.0,3074000.0,7613000.0,7457000.0,0.0,7151000.0,1668000.0,0.0,0.0,5483000.0,0.0,5483000.0,0.29,0.29,18884918.0,18949000.0,0.24,0.6023,0.295,0.2858,0.21899999999999997,0.1455,7384000.0,7151000.0,5483000.0,0.2858,0.2191
2013-12-31,18480000.0,-0.08555594042260001,7871000.0,10609000.0,5030000.0,3420000.0,8450000.0,2159000.0,0.0,2322000.0,137000.0,0.0,0.0,2185000.0,0.0,2185000.0,0.12,0.12,18781418.0,18869000.0,0.24,0.5741,0.139,0.1256,0.11800000000000001,0.2693,2572000.0,2322000.0,2185000.0,0.1256,0.1182
2012-12-31,20209000.0,0.06852429545819999,7852000.0,12357000.0,4643000.0,3342000.0,7985000.0,4372000.0,0.0,4670000.0,392000.0,0.0,0.0,4278000.0,0.0,4278000.0,0.23,0.23,18729918.0,18767000.0,0.24,0.6115,0.244,0.2311,0.212,0.24,4940000.0,4670000.0,4278000.0,0.2311,0.2117
2011-12-31,18913000.0,-0.0489288946998,6476000.0,12437000.0,4673000.0,3829000.0,8502000.0,3935000.0,0.0,4106000.0,-185000.0,0.0,0.0,4291000.0,0.0,4291000.0,0.23,0.23,18494918.0,18679000.0,0.32,0.6576,0.233,0.2171,0.22699999999999998,0.2148,4401000.0,4106000.0,4291000.0,0.2171,0.2269
2010-12-31,19886000.0,0.131557983385,6167000.0,13719000.0,4057000.0,3674000.0,8317000.0,5402000.0,0.0,5044000.0,188000.0,0.0,0.0,4856000.0,0.0,4856000.0,0.26,0.26,18428918.0,18467000.0,0.2,0.6899,0.28300000000000003,0.2536,0.244,0.3104,5626000.0,5044000.0,4856000.0,0.2536,0.2442
2009-12-31,17574000.0,-0.0975,6413000.0,11161000.0,4448000.0,4544000.0,8992000.0,2169000.0,0.0,19984000.0,197000.0,0.0,0.0,19787000.0,0.0,19787000.0,1.04,1.04,19494010.0,19012000.0,0.8,0.6351,1.181,1.1371,1.126,0.3467,20762000.0,19984000.0,19787000.0,1.1371,1.1259
