,0,1,2,3,4,5,6,7,8,9,10,11,12,13,14,15,16,17,18,19,20,21,22,23,24,25,26,27,28,29,30
Date,Revenue,Revenue Growth,Cost of Revenue,Gross Profit,R&D Expenses,SG&A Expense,Operating Expenses,Operating Income,Interest Expense,Earnings before Tax,Income Tax Expense,Net Income - Non-Controlling int,Net Income - Discontinued ops,Net Income,Preferred Dividends,Net Income Com,EPS,EPS Diluted,Weighted Average Shs Out,Weighted Average Shs Out (Dil),Dividend per Share,Gross Margin,EBITDA Margin,EBIT Margin,Profit Margin,Free Cash Flow margin,EBITDA,EBIT,Consolidated Income,Earnings Before Tax Margin,Net Profit Margin
2016-12,4000000.0,,2000000.0,2000000.0,1000000.0,10000000.0,,,0.0,,0.0,,,-17000000.0,,-17000000.0,-52.5,-52.5,0.0,0.0,,0.5,-4.25,-4.25,-4.25,,-17000000.0,-17000000.0,-17000000.0,0.0,-4.25
2015-12,2000000.0,,1000000.0,1000000.0,0.0,9000000.0,,,0.0,,0.0,,,-9000000.0,,-9000000.0,-34.5,-34.5,0.0,0.0,,0.5,-4.0,-4.5,-4.5,,-8000000.0,-9000000.0,-9000000.0,0.0,-4.5
2014-12,1000000.0,,1000000.0,0.0,0.0,7000000.0,,,0.0,,0.0,,,-7000000.0,,-7000000.0,-34.5,-34.5,0.0,0.0,,0.0,-7.0,-7.0,-7.0,,-7000000.0,-7000000.0,-7000000.0,0.0,-7.0
2013-12,1000000.0,,1000000.0,0.0,0.0,5000000.0,,,0.0,,0.0,,,-6000000.0,,-6000000.0,-43.5,-43.5,0.0,0.0,,0.0,-6.0,-6.0,-6.0,,-6000000.0,-6000000.0,-6000000.0,0.0,-6.0
2012-12,1000000.0,,1000000.0,0.0,0.0,6000000.0,,,0.0,,0.0,,,-7000000.0,,-7000000.0,-48.0,-48.0,0.0,0.0,,0.0,-6.0,-7.0,-7.0,,-6000000.0,-7000000.0,-7000000.0,0.0,-7.0
