,0,1,2,3,4,5,6,7,8,9,10,11,12,13,14,15,16,17,18,19,20,21,22,23,24,25,26,27,28,29,30
Date,Revenue,Revenue Growth,Cost of Revenue,Gross Profit,R&D Expenses,SG&A Expense,Operating Expenses,Operating Income,Interest Expense,Earnings before Tax,Income Tax Expense,Net Income - Non-Controlling int,Net Income - Discontinued ops,Net Income,Preferred Dividends,Net Income Com,EPS,EPS Diluted,Weighted Average Shs Out,Weighted Average Shs Out (Dil),Dividend per Share,Gross Margin,EBITDA Margin,EBIT Margin,Profit Margin,Free Cash Flow margin,EBITDA,EBIT,Consolidated Income,Earnings Before Tax Margin,Net Profit Margin
2018-12-31,9587300000.0,0.293937430831,8088900000.0,1498400000.0,0.0,341100000.0,341100000.0,928300000.0,215800000.0,551500000.0,77100000.0,0.0,0.0,470000000.0,0.0,470000000.0,1.22,1.22,384800000.0,386400000.0,0.09963768115939999,0.156290092101,0.183889103293,0.0968260094083,0.049023186924400004,0.0474899085248,1763000000.0,928300000.0,470000000.0,0.0575240161464,0.049023186924400004
2017-12-31,7409400000.0,0.0344278773664,6566600000.0,842800000.0,0.0,301300000.0,301300000.0,465700000.0,171300000.0,374000000.0,494900000.0,0.0,0.0,-107200000.0,0.0,-107200000.0,-0.31,-0.31,350900000.0,350900000.0,0.600170988886,0.113747401949,0.15267093151900002,0.0628525926526,-0.0144681080789,0.015574810376,1131200000.0,465700000.0,-107200000.0,0.0504764218425,-0.0144681080789
2016-12-31,7162800000.0,-0.194765775185,6352800000.0,810000000.0,0.0,304200000.0,304200000.0,319000000.0,140600000.0,242400000.0,-74200000.0,0.0,0.0,297800000.0,0.0,297800000.0,0.85,0.85,350400000.0,351700000.0,1.09496730168,0.11308426872199999,0.143826436589,0.04453565644719999,0.0415759200313,0.0590551181102,1030200000.0,319000000.0,297800000.0,0.0338415144915,0.0415759200313
2015-12-31,8895300000.0,-0.017723447956,7177400000.0,1717900000.0,0.0,361200000.0,361200000.0,1278800000.0,133600000.0,1103300000.0,99100000.0,0.0,0.0,1000400000.0,0.0,1000400000.0,2.79,2.78,358500000.0,360300000.0,1.06772134333,0.19312445898400002,0.22692882758299998,0.14376131215399998,0.11246388542300001,0.0907557923847,2018600000.0,1278800000.0,1000400000.0,0.12403179207000001,0.11246388542300001
2014-12-31,9055800000.0,1.0,7129200000.0,1926600000.0,0.0,382400000.0,382400000.0,1311800000.0,128900000.0,1217300000.0,184700000.0,0.0,0.0,1028600000.0,0.0,1028600000.0,2.69,2.68,382400000.0,382400000.0,1.00026150628,0.212747631352,0.23318757039700003,0.144857439431,0.113584663972,0.15068795689,2111700000.0,1311800000.0,1028600000.0,0.134422138298,0.113584663972
2013-12-31,0.0,-1.0,0.0,0.0,0.0,0.0,0.0,0.0,0.0,0.0,0.0,0.0,0.0,0.0,0.0,0.0,0.0,0.0,0.0,0.0,0.0,0.0,0.0,0.0,0.0,0.0,0.0,0.0,0.0,0.0,0.0
2013-05-31,9974100000.0,-0.102063414898,7213900000.0,2760200000.0,0.0,427300000.0,427300000.0,2209600000.0,0.0,1873500000.0,341000000.0,0.0,0.0,1888700000.0,0.0,1888700000.0,4.44,4.42,425700000.0,426900000.0,0.999297259311,0.276736748178,0.28217082243,0.221533772471,0.18936044354899997,0.0299976940275,2814400000.0,2209600000.0,1888700000.0,0.187836496526,0.18936044354899997
2012-05-31,11107800000.0,0.11773229487400001,8022800000.0,3085000000.0,0.0,410100000.0,410100000.0,2611100000.0,1400000.0,1917500000.0,711400000.0,0.0,0.0,1930200000.0,0.0,1930200000.0,4.44,4.42,435200000.0,436500000.0,0.273768613975,0.277732764364,0.280811681881,0.235069050577,0.173769783395,0.0960136120564,3119200000.0,2611100000.0,1930200000.0,0.17262644268,0.173769783395
2011-05-31,9937800000.0,0.470284505334,6816000000.0,3121800000.0,0.0,372500000.0,372500000.0,2664200000.0,27600000.0,2518500000.0,752800000.0,0.0,0.0,2514600000.0,0.0,2514600000.0,5.64,5.62,446000000.0,447500000.0,0.199553072626,0.314133912938,0.313107528829,0.268087504277,0.25303387067600003,0.117078226569,3111600000.0,2664200000.0,2514600000.0,0.253426311659,0.25303387067600003
2010-05-31,6759100000.0,-0.34364925228200005,5065800000.0,1693300000.0,0.0,360300000.0,422500000.0,1270800000.0,49600000.0,1174400000.0,347300000.0,4400000.0,0.0,827100000.0,0.0,827100000.0,1.86,1.85,445394189.0,445100000.0,1.5,0.2505,0.247,0.1811,0.122,0.0659,1669000000.0,1224000000.0,831500000.0,0.1738,0.1224
2009-05-31,10298000000.0,0.0495,7531300000.0,2766700000.0,0.0,321400000.0,365800000.0,2400900000.0,43300000.0,2999500000.0,649300000.0,6300000.0,0.0,2350200000.0,0.0,2350200000.0,5.29,5.27,444300000.0,446200000.0,0.2,0.2687,0.33,0.2955,0.228,0.0448,3403300000.0,3042800000.0,2356500000.0,0.2913,0.2282
