,0,1,2,3,4,5,6,7,8,9,10,11,12,13,14,15,16,17,18,19,20,21,22,23,24,25,26,27,28,29,30
Date,Revenue,Revenue Growth,Cost of Revenue,Gross Profit,R&D Expenses,SG&A Expense,Operating Expenses,Operating Income,Interest Expense,Earnings before Tax,Income Tax Expense,Net Income - Non-Controlling int,Net Income - Discontinued ops,Net Income,Preferred Dividends,Net Income Com,EPS,EPS Diluted,Weighted Average Shs Out,Weighted Average Shs Out (Dil),Dividend per Share,Gross Margin,EBITDA Margin,EBIT Margin,Profit Margin,Free Cash Flow margin,EBITDA,EBIT,Consolidated Income,Earnings Before Tax Margin,Net Profit Margin
2019-12-31,9041000000.0,0.40715953307400005,686000000.0,8355000000.0,0.0,388000000.0,388000000.0,1462000000.0,0.0,1462000000.0,0.0,0.0,0.0,1033000000.0,81000000.0,1033000000.0,1.0,1.0,906000000.0,906000000.0,0.0,0.924123437673,0.305054750581,0.161707775689,0.11425727242599999,0.185156509236,2758000000.0,1462000000.0,1033000000.0,0.161707775689,0.11425727242599999
2018-12-31,6425000000.0,0.661494698733,845000000.0,5580000000.0,0.0,291000000.0,291000000.0,1842000000.0,0.0,1842000000.0,8000000.0,0.0,0.0,1818000000.0,75000000.0,1818000000.0,2.29,2.29,761000000.0,761000000.0,0.0,0.868482490272,0.41509727626500004,0.286692607004,0.282957198444,0.141167315175,2667000000.0,1842000000.0,1818000000.0,0.286692607004,0.282957198444
2017-12-31,3867000000.0,0.49305019305,528000000.0,3339000000.0,0.0,241000000.0,241000000.0,837000000.0,0.0,837000000.0,1000000.0,0.0,0.0,794000000.0,65000000.0,794000000.0,1.06,1.06,393000000.0,393000000.0,0.0,0.863460046548,0.406775277993,0.21644685802900002,0.205327126972,0.128264804758,1573000000.0,837000000.0,794000000.0,0.21644685802900002,0.205327126972
2016-12-31,2590000000.0,2.68421052632,354000000.0,2236000000.0,0.0,193000000.0,193000000.0,246000000.0,0.0,246000000.0,-12000000.0,0.0,0.0,233000000.0,41000000.0,233000000.0,0.0,0.0,338000000.0,338000000.0,0.0,0.86332046332,0.323552123552,0.0949806949807,0.08996138996139999,0.031660231660199996,838000000.0,246000000.0,233000000.0,0.0949806949807,0.08996138996139999
2015-12-31,703000000.0,0.282144811235,172000000.0,531000000.0,0.0,104000000.0,104000000.0,159000000.0,0.0,159000000.0,2000000.0,0.0,0.0,156000000.0,57000000.0,156000000.0,1.22,1.22,99000000.0,99000000.0,0.0,0.75533428165,0.35277382645800004,0.226173541963,0.22190611664299997,-0.0355618776671,248000000.0,159000000.0,156000000.0,0.226173541963,0.22190611664299997
2014-12-31,548300000.0,5.9493029150800005,145300000.0,403000000.0,0.0,64800000.0,70100000.0,178000000.0,5300000.0,178000000.0,-100000.0,0.0,0.0,121300000.0,-5900000.0,121300000.0,1.55,1.55,75900000.0,75900000.0,0.0,0.73499908809,0.416195513405,0.32463979573199997,0.221229254058,0.306766368776,228200000.0,178000000.0,121300000.0,0.32463979573199997,0.221229254058
2013-12-31,78900000.0,0.0604838709677,135900000.0,-57000000.0,0.0,53700000.0,54800000.0,145900000.0,1100000.0,145900000.0,-200000.0,0.0,0.0,77900000.0,-1700000.0,77900000.0,1.05,1.05,75400000.0,75400000.0,0.0,-0.722433460076,2.4689480354900004,1.8491761723700002,0.9873257287710001,1.3396704689499999,194800000.0,145900000.0,77900000.0,1.8491761723700002,0.9873257287710001
2012-12-31,74400000.0,-0.818801753531,173800000.0,-99400000.0,0.0,49800000.0,49800000.0,144300000.0,0.0,144300000.0,300000.0,0.0,0.0,13100000.0,200000.0,13100000.0,0.0,0.0,17100000.0,17100000.0,0.0,-1.33602150538,2.46908602151,1.93951612903,0.17607526881700003,0.739247311828,183700000.0,144300000.0,13100000.0,1.93951612903,0.17607526881700003
2011-12-31,410600000.0,0.0155824882513,191900000.0,218700000.0,0.0,38500000.0,86700000.0,132000000.0,0.0,134100000.0,100000.0,0.0,0.0,134000000.0,0.0,134000000.0,,,,,0.0,0.5326,0.415,0.3266,0.326,0.3217,170400000.0,134100000.0,134000000.0,0.3266,0.3264
2010-12-31,404300000.0,,207100000.0,197200000.0,0.0,30300000.0,93800000.0,103400000.0,0.0,103600000.0,300000.0,0.0,0.0,103300000.0,0.0,103300000.0,,,,,0.0,0.4878,0.386,0.2562,0.256,0.2567,156200000.0,103600000.0,103300000.0,0.2562,0.2555
