,0,1,2,3,4,5,6,7,8,9,10,11,12,13,14,15,16,17,18,19,20,21,22,23,24,25,26,27,28
Date,Cash and cash equivalents,Short-term investments,Cash and short-term investments,Receivables,Inventories,Total current assets,Property Plant & Equipment Net,Goodwill and Intangible Assets,Long-term investments,Tax assets,Total non-current assets,Total assets,Payables,Short-term debt,Total current liabilities,Long-term debt,Total debt,Deferred revenue,Tax Liabilities,Deposit Liabilities,Total non-current liabilities,Total liabilities,Other comprehensive income,Retained earnings (deficit),Total shareholders equity,Investments,Net Debt,Other Assets,Other Liabilities
2018-12-31,43000000.0,0.0,43000000.0,587000000.0,797000000.0,1465000000.0,140000000.0,806000000.0,0.0,18000000.0,969000000.0,2434000000.0,435000000.0,4000000.0,569000000.0,680000000.0,684000000.0,6000000.0,5000000.0,0.0,818000000.0,1742000000.0,1421000000.0,-498000000.0,692000000.0,0.0,641000000.0,0.0,355000000.0
2017-12-31,48000000.0,0.0,48000000.0,522000000.0,701000000.0,1318000000.0,147000000.0,854000000.0,0.0,18000000.0,1022000000.0,2340000000.0,415000000.0,4000000.0,562000000.0,522000000.0,526000000.0,0.0,0.0,0.0,664000000.0,1581000000.0,1516000000.0,-548000000.0,759000000.0,0.0,478000000.0,0.0,355000000.0
2016-12-31,109000000.0,0.0,109000000.0,399000000.0,561000000.0,1117000000.0,135000000.0,893000000.0,0.0,24000000.0,1047000000.0,2164000000.0,314000000.0,8000000.0,433000000.0,406000000.0,414000000.0,0.0,0.0,0.0,613000000.0,1401000000.0,1570000000.0,-574000000.0,763000000.0,0.0,305000000.0,0.0,355000000.0
2015-12-31,68997000.0,0.0,68997000.0,532609000.0,781108000.0,1405305000.0,126742000.0,942575000.0,0.0,27694000.0,1096241000.0,2501546000.0,326813000.0,7935000.0,444366000.0,515720000.0,523655000.0,0.0,0.0,0.0,745868000.0,1545701000.0,1654200000.0,-467378000.0,955845000.0,0.0,454658000.0,0.0,355467000.0
2014-12-31,25064000.0,0.0,25064000.0,974454000.0,1186946000.0,2222162000.0,116001000.0,1507124000.0,0.0,69435000.0,1651659000.0,3873821000.0,538943000.0,7935000.0,784138000.0,1445709000.0,1453644000.0,0.0,0.0,0.0,1692468000.0,2476606000.0,1655696000.0,-122625000.0,1397215000.0,0.0,1428580000.0,0.0,0.0
2013-12-31,25188000.0,0.0,25188000.0,812147000.0,971567000.0,1845993000.0,118923000.0,1340293000.0,0.0,78844000.0,1489689000.0,3335682000.0,550393000.0,7935000.0,762097000.0,978899000.0,986834000.0,0.0,0.0,0.0,1235317000.0,1997414000.0,1644406000.0,-266735000.0,1338268000.0,0.0,961646000.0,0.0,0.0
2012-12-31,37090000.0,6851000.0,37090000.0,823236000.0,970228000.0,1850574000.0,122458000.0,1359664000.0,0.0,6603000.0,1519153000.0,3369727000.0,438344000.0,6500000.0,650104000.0,1250089000.0,1256589000.0,1573000.0,0.0,0.0,1533701000.0,2183805000.0,1625900000.0,-418830000.0,1185922000.0,6851000.0,1219499000.0,0.0,0.0
2011-12-31,0.0,0.0,0.0,0.0,0.0,0.0,0.0,0.0,0.0,0.0,0.0,0.0,0.0,0.0,0.0,0.0,0.0,0.0,0.0,0.0,0.0,0.0,0.0,0.0,0.0,0.0,0.0,0.0,0.0
2010-12-31,56202000.0,0.0,56202000.0,596404000.0,765367000.0,1460775000.0,104725000.0,1366549000.0,0.0,32593000.0,1530419000.0,2991194000.0,426632000.0,0.0,618215000.0,1360241000.0,1360241000.0,18140000.0,373719000.0,0.0,1683221000.0,2301436000.0,-19856000.0,-565790000.0,689758000.0,0.0,1304039000.0,42802000.0,191583000.0
