,0,1,2,3,4,5,6,7,8,9,10,11,12,13,14,15,16,17,18,19,20,21,22,23,24,25,26,27,28,29,30
Date,Revenue,Revenue Growth,Cost of Revenue,Gross Profit,R&D Expenses,SG&A Expense,Operating Expenses,Operating Income,Interest Expense,Earnings before Tax,Income Tax Expense,Net Income - Non-Controlling int,Net Income - Discontinued ops,Net Income,Preferred Dividends,Net Income Com,EPS,EPS Diluted,Weighted Average Shs Out,Weighted Average Shs Out (Dil),Dividend per Share,Gross Margin,EBITDA Margin,EBIT Margin,Profit Margin,Free Cash Flow margin,EBITDA,EBIT,Consolidated Income,Earnings Before Tax Margin,Net Profit Margin
2019-06-30,654744000.0,0.32758564754700004,368588000.0,286156000.0,68925000.0,110717000.0,209572000.0,76584000.0,9109000.0,57281000.0,12752000.0,0.0,0.0,46775000.0,0.0,46775000.0,0.98,0.96,47831000.0,48500000.0,0.0,0.43705020588200005,0.18782302701499998,0.11696785308499999,0.07144013538119999,0.10817357623700001,122976000.0,76584000.0,46775000.0,0.0874861014381,0.07144013538119999
2018-06-30,493184000.0,0.207044749234,267326000.0,225858000.0,58807000.0,88365000.0,178873000.0,46985000.0,2850000.0,42573000.0,1690000.0,0.0,0.0,40883000.0,0.0,40883000.0,0.88,0.86,46719000.0,47471000.0,0.0,0.457958895666,0.18099127303399998,0.0952687029587,0.08289603880089999,0.0572098851544,89262000.0,46985000.0,40883000.0,0.0863227517519,0.08289603880089999
2017-06-30,408588000.0,0.512426245771,217045000.0,191543000.0,54086000.0,76491000.0,154140000.0,37403000.0,7568000.0,31068000.0,6193000.0,0.0,0.0,24875000.0,0.0,24875000.0,0.59,0.58,41986000.0,43018000.0,0.0,0.468792524499,0.170518957972,0.0915420912998,0.060880397858,0.06437291354619999,69672000.0,37403000.0,24875000.0,0.0760374754031,0.060880397858
2016-06-30,270154000.0,0.15034043441,145380000.0,124774000.0,33543000.0,52952000.0,100801000.0,23973000.0,1172000.0,25286000.0,5544000.0,0.0,0.0,19742000.0,0.0,19742000.0,0.58,0.56,34241000.0,35097000.0,0.0,0.461862493245,0.147008743161,0.088738275206,0.0730768376556,0.10754976791,39715000.0,23973000.0,19742000.0,0.09359846606010001,0.0730768376556
2015-06-30,234847000.0,0.125128755468,124628000.0,110219000.0,32554000.0,49010000.0,91864000.0,18355000.0,34000.0,18795000.0,4366000.0,0.0,0.0,10369000.0,0.0,10369000.0,0.32,0.31,32114000.0,32939000.0,0.0,0.469322580233,0.137089253855,0.07815726834919999,0.0441521501233,0.111659931785,32195000.0,18355000.0,10369000.0,0.080030828582,0.0441521501233
2014-06-30,208729000.0,-0.000296947665369,113985000.0,94744000.0,35693000.0,53685000.0,102149000.0,-7405000.0,49000.0,-5913000.0,-1841000.0,0.0,0.0,-11425000.0,0.0,-11425000.0,-0.37,-0.37,31000000.0,31000000.0,0.0,0.453909135769,0.0392997618922,-0.035476622798,-0.054736045302800004,0.0361233944493,8203000.0,-7405000.0,-11425000.0,-0.028328598326099998,-0.054736045302800004
2013-06-30,208791000.0,-0.147544798697,126123000.0,82668000.0,32687000.0,57579000.0,106357000.0,-23689000.0,38000.0,-23162000.0,-9954000.0,0.0,0.0,-13208000.0,0.0,-13208000.0,-0.44,-0.44,30128000.0,30128000.0,0.0,0.39593660646300005,-0.0310358205095,-0.113457955563,-0.06325943168050001,-0.027544290702200002,-6480000.0,-23689000.0,-13208000.0,-0.110933900408,-0.06325943168050001
2012-06-30,244929000.0,0.07091513270080001,108773000.0,136156000.0,45984000.0,57159000.0,106044000.0,30112000.0,40000.0,31771000.0,9152000.0,0.0,0.0,22619000.0,0.0,22619000.0,0.77,0.75,29477000.0,30085000.0,0.0,0.555899873024,0.170539217488,0.12294175046599999,0.0923492114041,0.09162655300110001,41770000.0,30112000.0,22619000.0,0.129715141939,0.0923492114041
2011-06-30,228710000.0,0.144522844418,98811000.0,129899000.0,44500000.0,57868000.0,104914000.0,24985000.0,79000.0,26502000.0,8060000.0,0.0,0.0,18442000.0,0.0,18442000.0,0.73,0.7,30178652.0,25322000.0,0.0,0.568,0.153,0.1162,0.081,0.099,34929000.0,26581000.0,18442000.0,0.1159,0.0806
2010-06-30,199830000.0,0.057642942960400005,87298000.0,112532000.0,41548000.0,51519000.0,95219000.0,17313000.0,381000.0,18981000.0,-9377000.0,0.0,-289000.0,28358000.0,0.0,28358000.0,1.26,1.23,23676431.0,22559000.0,0.0,0.5631,0.131,0.0969,0.142,0.0419,26219000.0,19362000.0,28358000.0,0.095,0.1419
2009-06-30,188939000.0,-0.0067,83509000.0,105430000.0,42372000.0,51185000.0,97683000.0,7747000.0,2551000.0,-1153000.0,109000.0,0.0,9171000.0,-1262000.0,0.0,-1262000.0,-0.06,-0.06,22150000.0,22416000.0,0.0,0.5579999999999999,0.057,0.0074,-0.006999999999999999,0.0374,10762000.0,1398000.0,-1262000.0,-0.0061,-0.0067
