,0,1,2,3,4,5,6,7,8,9,10,11,12,13,14
Date,Depreciation & Amortization,Stock-based compensation,Operating Cash Flow,Capital Expenditure,Acquisitions and disposals,Investment purchases and sales,Investing Cash flow,Issuance (repayment) of debt,Issuance (buybacks) of shares,Dividend payments,Financing Cash Flow,Effect of forex changes on cash,Net cash flow / Change in cash,Free Cash Flow,Net Cash/Marketcap
2018-12-31,47964.467000000004,2778290.6091,-29361818.5279,-42347.7157,0.0,0.0,319236.0406,-2678260.1523,-42860.4061,0.0,-2631102.7919,-55663.7056,-31673685.2792,-29404166.2437,
2017-12-31,48751.3514,4934997.2973,-43443204.0541,-21037.8378,0.0,-3378378.3784,-5059389.1892,26314698.6486,20270270.2703,0.0,45598979.7297,-1870574.3243,-2903613.5135,-43464241.8919,
2016-12-31,40666.6667,8017306.1728,-36619967.9012,-2829.6296,0.0,0.0,460017.284,4276003.7037,83813358.0247,0.0,84390764.1975,2793365.4321,48230813.5802,-36622797.5309,
