,0,1,2,3,4,5,6,7,8,9,10,11,12,13,14,15,16,17,18,19,20,21,22,23,24,25,26,27,28,29,30
Date,Revenue,Revenue Growth,Cost of Revenue,Gross Profit,R&D Expenses,SG&A Expense,Operating Expenses,Operating Income,Interest Expense,Earnings before Tax,Income Tax Expense,Net Income - Non-Controlling int,Net Income - Discontinued ops,Net Income,Preferred Dividends,Net Income Com,EPS,EPS Diluted,Weighted Average Shs Out,Weighted Average Shs Out (Dil),Dividend per Share,Gross Margin,EBITDA Margin,EBIT Margin,Profit Margin,Free Cash Flow margin,EBITDA,EBIT,Consolidated Income,Earnings Before Tax Margin,Net Profit Margin
2019-12-31,49036000.0,-0.163650628507,22843000.0,26193000.0,17845000.0,26282000.0,46037000.0,-19844000.0,0.0,-12528000.0,-120000.0,0.0,0.0,-12408000.0,0.0,-12408000.0,-1.95,-1.95,6373000.0,6373000.0,0.0,0.534158577372,-0.217350517987,-0.404682274247,-0.253038583898,-0.0375234521576,-10658000.0,-19844000.0,-12408000.0,-0.25548576555999997,-0.253038583898
2018-12-31,58631000.0,-0.21815951247499998,27154000.0,31477000.0,22450000.0,36538000.0,73728000.0,-42251000.0,0.0,-40658000.0,586000.0,0.0,0.0,-41244000.0,0.0,-41244000.0,-7.13,-7.13,5783000.0,5783000.0,0.0,0.536866162951,-0.532772765261,-0.720625607614,-0.7034503931370001,-0.231379304464,-31237000.0,-42251000.0,-41244000.0,-0.693455680442,-0.7034503931370001
2017-12-31,74991000.0,-0.249173992271,32520000.0,42471000.0,26564000.0,43380000.0,72741000.0,-30270000.0,0.0,-30484000.0,1007000.0,0.0,0.0,-31491000.0,0.0,-31491000.0,-5.59,-5.59,5638000.0,5638000.0,0.0,0.566347961755,-0.253270392447,-0.403648437813,-0.419930391647,-0.07108853062369999,-18993000.0,-30270000.0,-31491000.0,-0.406502113587,-0.419930391647
2016-12-31,99878000.0,-0.07971989311710001,35203000.0,64675000.0,27841000.0,52779000.0,80620000.0,-15945000.0,0.0,-15076000.0,1404000.0,0.0,0.0,-16480000.0,0.0,-16480000.0,-0.43,-0.43,38318000.0,38318000.0,0.0,0.647539998799,-0.0384669296542,-0.159644766615,-0.165001301588,0.0451751136386,-3842000.0,-15945000.0,-16480000.0,-0.150944151865,-0.165001301588
2015-12-31,108530000.0,0.09235662378969998,40137000.0,68393000.0,33318000.0,67523000.0,100841000.0,-32448000.0,0.0,-32344000.0,1005000.0,0.0,0.0,-33349000.0,0.0,-33349000.0,-0.91,-0.91,36580000.0,36580000.0,0.0,0.6301759882060001,-0.182170828342,-0.298977241316,-0.30727909333799996,-0.144337971068,-19771000.0,-32448000.0,-33349000.0,-0.298018980927,-0.30727909333799996
2014-12-31,99354000.0,0.285054646576,35614000.0,63740000.0,28751000.0,68973000.0,97724000.0,-33984000.0,0.0,-26427000.0,-1456000.0,0.0,0.0,-33171000.0,0.0,-33171000.0,-0.97,-0.97,34210000.0,34210000.0,0.0,0.641544376673,-0.254433641323,-0.342049640679,-0.333866779395,-0.299001550013,-25279000.0,-33984000.0,-33171000.0,-0.265988284317,-0.333866779395
2013-12-31,77315000.0,0.29814634474,31109000.0,46206000.0,20715000.0,59827000.0,80542000.0,-34336000.0,0.0,-24197000.0,492000.0,0.0,0.0,-35852000.0,0.0,-35852000.0,-1.36,-1.36,26312000.0,26312000.0,0.0,0.5976330595620001,-0.36807863933300006,-0.44410528358,-0.46371338032700005,-0.367587143504,-28458000.0,-34336000.0,-35852000.0,-0.31296643600900004,-0.46371338032700005
2012-12-31,59558000.0,0.648846931148,24764000.0,34794000.0,14014000.0,46065000.0,60079000.0,-25285000.0,520000.0,-26261000.0,221000.0,0.0,0.0,-26482000.0,0.0,-26482000.0,-42.0,-42.0,4344470.0,630999.0,0.0,0.5842,-0.38799999999999996,-0.4322,-0.445,-0.4423,-23099000.0,-25741000.0,-26482000.0,-0.4409,-0.4446
2011-12-31,36121000.0,0.90060510392,18691000.0,17430000.0,7071000.0,27036000.0,34107000.0,-16677000.0,378000.0,-17284000.0,139000.0,0.0,0.0,-17423000.0,0.0,-17423000.0,-30.03,-30.03,,579714.0,0.0,0.4825,-0.418,-0.46799999999999997,-0.48200000000000004,-0.5495,-15106000.0,-16906000.0,-17423000.0,-0.4785,-0.4824
2010-12-31,19005000.0,,11040000.0,7965000.0,4568000.0,14079000.0,18647000.0,-10682000.0,230000.0,-10834000.0,23000.0,0.0,0.0,-10857000.0,1033000.0,-11890000.0,-22.89,-22.89,,519857.0,0.0,0.4191,-0.504,-0.5579999999999999,-0.626,-0.6659999999999999,-9588000.0,-10604000.0,-10857000.0,-0.5701,-0.5713
