,0,1,2,3,4,5,6,7,8,9,10,11,12,13,14
Date,Depreciation & Amortization,Stock-based compensation,Operating Cash Flow,Capital Expenditure,Acquisitions and disposals,Investment purchases and sales,Investing Cash flow,Issuance (repayment) of debt,Issuance (buybacks) of shares,Dividend payments,Financing Cash Flow,Effect of forex changes on cash,Net cash flow / Change in cash,Free Cash Flow,Net Cash/Marketcap
2019-12-31,34763000.0,81122000.0,-458968000.0,31554000.0,-0.0,16609000.0,-14945000.0,-0.0,-235876000.0,-0.0,51121000.0,0.0,-422792000.0,-490522000.0,0.0
2018-12-31,26728000.0,72565000.0,-330865000.0,105766000.0,-0.0,-267328000.0,-372472000.0,-0.0,-658364000.0,-0.0,1226842000.0,0.0,523505000.0,-436631000.0,0.0
2017-12-31,20537000.0,40055000.0,-331484000.0,-58401000.0,0.0,475765000.0,416095000.0,1439000.0,212000.0,0.0,168000.0,0.0,84779000.0,-389885000.0,0.1734
2016-12-31,15114000.0,39360000.0,66734000.0,-33144000.0,0.0,-606561000.0,-648607000.0,0.0,11000.0,0.0,472910000.0,0.0,-108963000.0,33590000.0,0.1734
