,0,1,2,3,4,5,6,7,8,9,10,11,12,13,14,15,16,17,18,19,20,21,22,23,24,25,26,27,28
Date,Cash and cash equivalents,Short-term investments,Cash and short-term investments,Receivables,Inventories,Total current assets,Property Plant & Equipment Net,Goodwill and Intangible Assets,Long-term investments,Tax assets,Total non-current assets,Total assets,Payables,Short-term debt,Total current liabilities,Long-term debt,Total debt,Deferred revenue,Tax Liabilities,Deposit Liabilities,Total non-current liabilities,Total liabilities,Other comprehensive income,Retained earnings (deficit),Total shareholders equity,Investments,Net Debt,Other Assets,Other Liabilities
2019-12-31,235876000.0,867124000.0,1103000000.0,5032000.0,0.0,1128804000.0,86414000.0,0.0,159987000.0,36515000.0,460618000.0,1589422000.0,7090000.0,5063000.0,143115000.0,93675000.0,98738000.0,63310000.0,141000.0,0.0,371803000.0,414612000.0,2669426000.0,-1496454000.0,1174810000.0,1027111000.0,-137138000.0,0.0,0.0
2018-12-31,658364000.0,863063000.0,1521427000.0,11686000.0,0.0,1563006000.0,211977000.0,0.0,172990000.0,15228000.0,399143000.0,1962149000.0,31210000.0,3464000.0,222803000.0,10006000.0,13470000.0,109056000.0,141000.0,0.0,190844000.0,431908000.0,2531528000.0,-1000000000.0,1530241000.0,1036053000.0,-644894000.0,0.0,18261000.0
2017-12-31,135810000.0,621170000.0,756980000.0,13417000.0,0.0,783223000.0,139031000.0,0.0,157649000.0,0.0,301266000.0,1084489000.0,20725000.0,0.0,191461000.0,15687000.0,15687000.0,339668000.0,0.0,0.0,267732000.0,459193000.0,-1157000.0,-621893000.0,-551365000.0,778819000.0,-741293000.0,12826000.0,170736000.0
2016-12-31,50080000.0,1008058000.0,1058138000.0,13523000.0,0.0,1087152000.0,81207000.0,0.0,248049000.0,0.0,330009000.0,1417161000.0,28157000.0,0.0,162802000.0,12500000.0,12500000.0,501989000.0,0.0,0.0,412508000.0,575310000.0,-403000.0,-365718000.0,-334810000.0,1256107000.0,-1045638000.0,15491000.0,134645000.0
