,0,1,2,3,4,5,6,7,8,9,10,11,12,13,14,15,16,17,18,19,20,21,22,23,24,25,26,27,28,29,30
Date,Revenue,Revenue Growth,Cost of Revenue,Gross Profit,R&D Expenses,SG&A Expense,Operating Expenses,Operating Income,Interest Expense,Earnings before Tax,Income Tax Expense,Net Income - Non-Controlling int,Net Income - Discontinued ops,Net Income,Preferred Dividends,Net Income Com,EPS,EPS Diluted,Weighted Average Shs Out,Weighted Average Shs Out (Dil),Dividend per Share,Gross Margin,EBITDA Margin,EBIT Margin,Profit Margin,Free Cash Flow margin,EBITDA,EBIT,Consolidated Income,Earnings Before Tax Margin,Net Profit Margin
2018-12-31,6582000000.0,0.38132214060900005,0.0,0.0,289000000.0,394000000.0,2100000000.0,1667000000.0,0.0,1427000000.0,331000000.0,0.0,0.0,1096000000.0,0.0,1096000000.0,1.3,1.29,846000000.0,847000000.0,0.199527744982,0.0,0.624126405348,0.253266484351,0.166514737162,0.07307809176539999,4108000000.0,1667000000.0,1096000000.0,0.21680340322099997,0.166514737162
2017-12-31,4765000000.0,0.024731182795700003,0.0,0.0,409000000.0,400000000.0,1946000000.0,-133000000.0,0.0,-454000000.0,376000000.0,0.0,0.0,-5723000000.0,0.0,-5723000000.0,-6.73,-6.73,850000000.0,850000000.0,0.2,0.0,0.469884575026,-0.0279118572928,-1.20104931794,0.00293809024134,2239000000.0,-133000000.0,-5723000000.0,-0.095278069255,-1.20104931794
2016-12-31,4650000000.0,-0.206620030711,0.0,0.0,330000000.0,484000000.0,2638000000.0,-900000000.0,0.0,-1235000000.0,905000000.0,0.0,0.0,-2140000000.0,0.0,-2140000000.0,-2.61,-2.61,819000000.0,819000000.0,0.197802197802,0.0,0.321505376344,-0.193548387097,-0.460215053763,-0.0369892473118,1495000000.0,-900000000.0,-2140000000.0,-0.265591397849,-0.460215053763
2015-12-31,5861000000.0,-0.47939243204800003,0.0,0.0,1318000000.0,590000000.0,4040000000.0,-2691000000.0,0.0,-2958000000.0,-754000000.0,0.0,0.0,-2204000000.0,0.0,-2204000000.0,-3.26,-3.26,677000000.0,677000000.0,0.679468242245,0.0,0.0453847466303,-0.459136666098,-0.376045043508,-0.326053574475,266000000.0,-2691000000.0,-2204000000.0,-0.504692032076,-0.376045043508
2014-12-31,11258000000.0,-0.24740958620200001,0.0,0.0,793000000.0,654000000.0,4155000000.0,1599000000.0,0.0,1361000000.0,392000000.0,0.0,0.0,3046000000.0,0.0,3046000000.0,4.48,4.46,680000000.0,683000000.0,0.7950219619329999,0.0,0.39616272872599995,0.142032332564,0.27056315509,0.029046011724999998,4460000000.0,1599000000.0,3046000000.0,0.12089181026799999,0.27056315509
2013-12-31,14959000000.0,-0.07780038222060001,0.0,0.0,988000000.0,687000000.0,4445000000.0,5204000000.0,0.0,4930000000.0,3337000000.0,0.0,0.0,1753000000.0,0.0,1753000000.0,2.49,2.47,705000000.0,709000000.0,0.716502115656,0.0,0.534394010295,0.347884216859,0.117186977739,0.0336920917174,7994000000.0,5204000000.0,1753000000.0,0.329567484458,0.117186977739
2012-12-31,16221000000.0,0.061444837063199996,5219000000.0,11002000000.0,729000000.0,555000000.0,1284000000.0,6332000000.0,0.0,1519000000.0,4531000000.0,0.0,0.0,1582000000.0,0.0,1582000000.0,2.24,2.23,706000000.0,710000000.0,0.676056338028,0.678256580975,0.543123112015,0.390358177671,0.0975278959374,-0.0569015473769,8810000000.0,6332000000.0,1582000000.0,0.09364404167439999,0.0975278959374
2011-12-31,15282000000.0,-0.792423357466,6225000000.0,9057000000.0,644000000.0,544000000.0,1188000000.0,4813000000.0,0.0,3573000000.0,2720000000.0,0.0,0.0,2946000000.0,0.0,2946000000.0,4.15,4.13,710000000.0,714000000.0,0.794117647059,0.592658029054,0.46322470880800004,0.314945687737,0.192775814684,0.211294333202,7079000000.0,4813000000.0,2946000000.0,0.233804475854,0.192775814684
2010-12-31,73621000000.0,7.104469396739999,56734000000.0,16887000000.0,498000000.0,1363000000.0,1861000000.0,5317000000.0,0.0,2505000000.0,2554000000.0,0.0,0.0,2568000000.0,0.0,2568000000.0,3.62,3.61,710000000.0,712000000.0,0.9887640449439999,0.229377487402,0.112495076133,0.07222124122189999,0.034881351788199996,0.015090802895899999,8282000000.0,5317000000.0,2568000000.0,0.0340256176906,0.034881351788199996
2009-12-31,9084000000.0,-0.8835,3316000000.0,5768000000.0,307000000.0,451000000.0,2883000000.0,2885000000.0,122000000.0,3510000000.0,2047000000.0,0.0,-747000000.0,1463000000.0,0.0,1463000000.0,2.06,2.06,707845149.0,709000000.0,0.96,0.635,0.613,0.3998,0.161,0.2113,5566000000.0,3632000000.0,1463000000.0,0.3864,0.1611
