,0,1,2,3,4,5,6,7,8,9,10,11,12,13,14
Date,Depreciation & Amortization,Stock-based compensation,Operating Cash Flow,Capital Expenditure,Acquisitions and disposals,Investment purchases and sales,Investing Cash flow,Issuance (repayment) of debt,Issuance (buybacks) of shares,Dividend payments,Financing Cash Flow,Effect of forex changes on cash,Net cash flow / Change in cash,Free Cash Flow,Net Cash/Marketcap
2019-12-31,1467000.0,4872000.0,-67744000.0,605000.0,-0.0,-26688000.0,-27293000.0,-0.0,29811000.0,-0.0,97704000.0,0.0,2667000.0,-68349000.0,0.0
2018-12-31,1553000.0,3884000.0,-55216000.0,1370000.0,-0.0,88565000.0,87195000.0,-0.0,-59634000.0,-0.0,1064000.0,0.0,33043000.0,-56586000.0,0.0
2017-12-31,1221000.0,1422000.0,-42679000.0,1143000.0,-0.0,47220000.0,-99624000.0,-0.0,-26591000.0,-0.0,68597000.0,0.0,-73706000.0,-43822000.0,0.0
2016-12-31,655000.0,668000.0,31588000.0,-1084000.0,0.0,0.0,-1084000.0,0.0,105000.0,0.0,58259000.0,0.0,88763000.0,30504000.0,0.2792
2015-12-31,297000.0,349000.0,-9636000.0,-619000.0,0.0,0.0,-783000.0,0.0,0.0,0.0,9960000.0,0.0,-459000.0,-10255000.0,0.2792
