,0,1,2,3,4,5,6,7,8,9,10,11,12,13,14,15,16,17,18,19,20,21,22,23,24,25,26,27,28
Date,Cash and cash equivalents,Short-term investments,Cash and short-term investments,Receivables,Inventories,Total current assets,Property Plant & Equipment Net,Goodwill and Intangible Assets,Long-term investments,Tax assets,Total non-current assets,Total assets,Payables,Short-term debt,Total current liabilities,Long-term debt,Total debt,Deferred revenue,Tax Liabilities,Deposit Liabilities,Total non-current liabilities,Total liabilities,Other comprehensive income,Retained earnings (deficit),Total shareholders equity,Investments,Net Debt,Other Assets,Other Liabilities
2018-12-31,8370000.0,0.0,8370000.0,0.0,0.0,,538441000.0,0.0,0.0,0.0,,632789000.0,5691000.0,153800000.0,159491000.0,124337000.0,278137000.0,1601000.0,0.0,0.0,,285429000.0,2211000.0,49859000.0,343454000.0,51778000.0,269767000.0,29798000.0,0.0
2018-12,8000000.0,,,52000000.0,,,,8000000.0,,,,633000000.0,,,,278000000.0,278000000.0,,,,,285000000.0,-85000000.0,50000000.0,343000000.0,,270000000.0,0.0,0.0
2017-12-31,12640000.0,0.0,12640000.0,0.0,0.0,,521744000.0,0.0,0.0,0.0,,581603000.0,6605000.0,91200000.0,97805000.0,124323000.0,215523000.0,2722000.0,0.0,0.0,,224850000.0,1247000.0,44196000.0,353756000.0,18557000.0,,,0.0
2017-12,13000000.0,,,31000000.0,,,,0.0,,,,582000000.0,,,,216000000.0,216000000.0,,,,,225000000.0,-66000000.0,44000000.0,354000000.0,,203000000.0,0.0,0.0
2016-12-31,9509000.0,0.0,9509000.0,0.0,0.0,,468822000.0,0.0,0.0,0.0,,519753000.0,15244000.0,144000000.0,159244000.0,0.0,144000000.0,2251000.0,0.0,0.0,,161495000.0,0.0,23774000.0,355752000.0,9915000.0,,,0.0
2016-12,10000000.0,,,10000000.0,,,,0.0,,,,520000000.0,,,,144000000.0,144000000.0,,,,,161000000.0,-41000000.0,24000000.0,356000000.0,,134000000.0,0.0,0.0
2015-12-31,12474000.0,0.0,12474000.0,0.0,0.0,,493681000.0,0.0,0.0,0.0,,543667000.0,21102000.0,0.0,21102000.0,247400000.0,247400000.0,3920000.0,0.0,0.0,,272422000.0,0.0,12724000.0,266698000.0,9909000.0,,,0.0
2015-12,12000000.0,,,22000000.0,,,,0.0,,,,544000000.0,,,,247000000.0,247000000.0,,,,,272000000.0,-20000000.0,13000000.0,267000000.0,,235000000.0,0.0,0.0
2014-12,10000000.0,,,81000000.0,,,,0.0,,,,211000000.0,,,,50000000.0,50000000.0,,,,,61000000.0,-2000000.0,0.0,150000000.0,,40000000.0,0.0,0.0
