,0,1,2,3,4,5,6,7,8,9,10,11,12,13,14
Date,Depreciation & Amortization,Stock-based compensation,Operating Cash Flow,Capital Expenditure,Acquisitions and disposals,Investment purchases and sales,Investing Cash flow,Issuance (repayment) of debt,Issuance (buybacks) of shares,Dividend payments,Financing Cash Flow,Effect of forex changes on cash,Net cash flow / Change in cash,Free Cash Flow,Net Cash/Marketcap
2019-12-31,3621000.0,55537000.0,-147726000.0,1552000.0,-0.0,-530228000.0,-176140000.0,-0.0,281295000.0,-0.0,338028000.0,0.0,46535000.0,-149278000.0,0.0
2018-12-31,1520000.0,15854000.0,-70096000.0,122000.0,-0.0,-255795000.0,-145765000.0,-0.0,97969000.0,-0.0,140852000.0,0.0,-75009000.0,-70218000.0,0.0
2017-12-31,450000.0,6786000.0,-64706000.0,81000.0,-0.0,-100558000.0,-8651000.0,-0.0,45827000.0,-0.0,158677000.0,0.0,85320000.0,-64787000.0,0.0
2016-12-31,187000.0,10624000.0,-68017000.0,196000.0,-0.0,-70269000.0,38255000.0,-0.0,-22383000.0,-0.0,2652000.0,0.0,-27110000.0,-68213000.0,0.0
2015-12-31,549000.0,10254000.0,-50714000.0,329000.0,-0.0,-104954000.0,-50753000.0,-0.0,93800000.0,-0.0,144367000.0,0.0,42900000.0,-51043000.0,0.0
2014-12-31,733000.0,7050000.0,-32748000.0,386000.0,-0.0,-10468000.0,24219000.0,-0.0,-6593000.0,-0.0,887000.0,0.0,-7642000.0,-33134000.0,0.0
2013-12-31,101000.0,1823000.0,-29455000.0,204000.0,-0.0,-68408000.0,-29470000.0,-0.0,39961000.0,-0.0,54757000.0,0.0,-4168000.0,-29659000.0,0.0
2012-12-31,123000.0,2009000.0,-16650000.0,-230000.0,0.0,285000.0,55000.0,0.0,19886000.0,0.0,24813000.0,303000.0,8218000.0,-16880000.0,0.2926
2011-12-31,197000.0,940000.0,-11644000.0,-33000.0,0.0,-19239000.0,-19211000.0,0.0,27400000.0,0.0,33614000.0,-278000.0,2759000.0,-11677000.0,0.2926
