,0,1,2,3,4,5,6,7,8,9,10,11,12,13,14,15,16,17,18,19,20,21,22,23,24,25,26,27,28
Date,Cash and cash equivalents,Short-term investments,Cash and short-term investments,Receivables,Inventories,Total current assets,Property Plant & Equipment Net,Goodwill and Intangible Assets,Long-term investments,Tax assets,Total non-current assets,Total assets,Payables,Short-term debt,Total current liabilities,Long-term debt,Total debt,Deferred revenue,Tax Liabilities,Deposit Liabilities,Total non-current liabilities,Total liabilities,Other comprehensive income,Retained earnings (deficit),Total shareholders equity,Investments,Net Debt,Other Assets,Other Liabilities
2019-12-31,46535000.0,368515000.0,415050000.0,0.0,0.0,424407000.0,1776000.0,0.0,0.0,122000.0,7793000.0,432200000.0,48082000.0,0.0,48906000.0,0.0,0.0,824000.0,4268000.0,0.0,0.0,49905000.0,1144667000.0,-772301000.0,382295000.0,368515000.0,-46535000.0,0.0,999000.0
2018-12-31,32694000.0,190096000.0,222790000.0,0.0,0.0,226660000.0,473000.0,0.0,0.0,0.0,1794000.0,228454000.0,25775000.0,100000.0,26146000.0,0.0,100000.0,371000.0,2617000.0,0.0,200000.0,26878000.0,751109000.0,-559045000.0,201576000.0,190096000.0,-32594000.0,0.0,532000.0
2017-12-31,107703000.0,43134000.0,150837000.0,0.0,0.0,155759000.0,525000.0,0.0,0.0,0.0,1487000.0,157246000.0,13644000.0,0.0,13644000.0,0.0,0.0,0.0,1693000.0,0.0,314000.0,13958000.0,594407000.0,-460627000.0,143288000.0,43134000.0,-107703000.0,0.0,0.0
2016-12-31,22383000.0,34351000.0,56734000.0,0.0,0.0,59555000.0,629000.0,0.0,0.0,0.0,3889000.0,63444000.0,15002000.0,0.0,15002000.0,0.0,0.0,0.0,1095000.0,0.0,133000.0,15135000.0,428507000.0,-389751000.0,48309000.0,34351000.0,-22383000.0,0.0,0.0
2015-12-31,49493000.0,72834000.0,122327000.0,0.0,0.0,125402000.0,614000.0,0.0,0.0,0.0,2615000.0,128017000.0,9798000.0,0.0,9798000.0,0.0,0.0,0.0,509000.0,0.0,43000.0,9841000.0,415232000.0,-306633000.0,118176000.0,72834000.0,-49493000.0,0.0,0.0
2014-12-31,6593000.0,22710000.0,29303000.0,0.0,0.0,32657000.0,496000.0,0.0,0.0,0.0,822000.0,33479000.0,5396000.0,0.0,5396000.0,0.0,0.0,0.0,42000.0,0.0,21000.0,5417000.0,260616000.0,-242089000.0,28062000.0,22710000.0,-6593000.0,0.0,0.0
2013-12-31,14235000.0,47835000.0,62070000.0,0.0,0.0,64215000.0,322000.0,0.0,0.0,0.0,322000.0,64537000.0,5245000.0,0.0,38652000.0,0.0,0.0,0.0,129000.0,0.0,0.0,38652000.0,214756000.0,-198391000.0,25885000.0,47835000.0,-14235000.0,0.0,0.0
2012-12-31,18403000.0,18580000.0,36983000.0,0.0,0.0,39329000.0,333000.0,0.0,0.0,0.0,472000.0,39801000.0,5340000.0,0.0,5340000.0,0.0,0.0,0.0,0.0,0.0,45000.0,5385000.0,9520000.0,-140491000.0,34416000.0,18580000.0,-36983000.0,2346000.0,0.0
2011-12-31,9882000.0,18858000.0,28740000.0,172000.0,0.0,30460000.0,219000.0,0.0,349000.0,0.0,622000.0,31082000.0,3749000.0,0.0,3749000.0,0.0,0.0,0.0,0.0,0.0,28000.0,3777000.0,8945000.0,-120205000.0,27305000.0,19207000.0,-28740000.0,1548000.0,0.0
