,0,1,2,3,4,5,6,7,8,9,10,11,12,13,14,15,16,17,18,19,20,21,22,23,24,25,26,27,28,29,30
Date,Revenue,Revenue Growth,Cost of Revenue,Gross Profit,R&D Expenses,SG&A Expense,Operating Expenses,Operating Income,Interest Expense,Earnings before Tax,Income Tax Expense,Net Income - Non-Controlling int,Net Income - Discontinued ops,Net Income,Preferred Dividends,Net Income Com,EPS,EPS Diluted,Weighted Average Shs Out,Weighted Average Shs Out (Dil),Dividend per Share,Gross Margin,EBITDA Margin,EBIT Margin,Profit Margin,Free Cash Flow margin,EBITDA,EBIT,Consolidated Income,Earnings Before Tax Margin,Net Profit Margin
2018-12-31,18507000.0,0.180971220726,0.0,18507000.0,0.0,10837000.0,11861000.0,6646000.0,0.0,6646000.0,1811000.0,0.0,0.0,4835000.0,0.0,4835000.0,0.9,0.9,5513165.0,5513165.0,0.905,1.0,0.39,0.3591,0.261,0.3063,7219000.0,6646000.0,4835000.0,0.3591,0.2613
2017-12-31,15671000.0,0.28408718453000004,0.0,15671000.0,0.0,10203000.0,11181000.0,4490000.0,0.0,4490000.0,1768000.0,0.0,0.0,2722000.0,0.0,2722000.0,0.49,0.48,5768632.0,5768632.0,0.425,1.0,0.322,0.2865,0.174,0.2936,5046000.0,4490000.0,2722000.0,0.2865,0.1737
2016-12-31,12204000.0,0.145807905361,0.0,12204000.0,0.0,9534000.0,10390000.0,1814000.0,0.0,1814000.0,653000.0,0.0,0.0,1161000.0,0.0,1161000.0,0.21,0.2,5711044.0,5711044.0,0.0,1.0,0.18600000000000003,0.1486,0.095,0.0986,2270000.0,1814000.0,1161000.0,0.1486,0.0951
2015-12-31,10651000.0,1.0,0.0,10651000.0,0.0,8138000.0,9507000.0,1144000.0,0.0,627000.0,184000.0,0.0,0.0,443000.0,0.0,443000.0,0.08,0.08,5953834.0,5953834.0,0.0,1.0,0.094,0.0589,0.042,0.09300000000000001,1003000.0,627000.0,443000.0,0.0589,0.0416
2014-12-31,0.0,-1.0,0.0,0.0,0.0,0.0,0.0,0.0,0.0,0.0,0.0,0.0,0.0,0.0,0.0,0.0,0.0,0.0,0.0,0.0,0.0,0.0,0.0,0.0,0.0,0.0,0.0,0.0,0.0,0.0,0.0
2014-06-30,9570000.0,0.0278165610568,0.0,0.0,0.0,3784000.0,3784000.0,1536000.0,2422000.0,1536000.0,548000.0,0.0,0.0,988000.0,0.0,988000.0,0.2,0.2,4926000.0,4926000.0,0.0,0.0,0.212330198537,0.160501567398,0.10323928944599998,0.312957157785,2032000.0,1536000.0,988000.0,0.160501567398,0.10323928944599998
2013-06-30,9311000.0,-0.110272336359,0.0,0.0,0.0,3859000.0,3859000.0,-2372000.0,2721000.0,-2372000.0,-987000.0,0.0,0.0,-1385000.0,0.0,-1385000.0,-0.28,-0.28,4933000.0,4933000.0,0.0113521183864,0.0,-0.193856728601,-0.254752443347,-0.148748791752,0.330576737193,-1805000.0,-2372000.0,-1385000.0,-0.254752443347,-0.148748791752
2012-06-30,10465000.0,0.0477573087705,0.0,0.0,0.0,3810000.0,3810000.0,780000.0,3336000.0,780000.0,283000.0,0.0,0.0,497000.0,0.0,497000.0,0.1,0.1,4986000.0,4986000.0,0.0437224227838,0.0,0.132059245103,0.0745341614907,0.047491638796,0.318299092212,1382000.0,780000.0,497000.0,0.0745341614907,0.047491638796
2011-06-30,9988000.0,0.0254620123203,0.0,9988000.0,0.0,7061000.0,8767000.0,1221000.0,0.0,1221000.0,515000.0,0.0,0.0,706000.0,0.0,706000.0,0.14,0.14,5167003.0,5041000.0,0.12,1.0,0.188,0.1222,0.071,0.361,1875000.0,1221000.0,706000.0,0.1222,0.0707
2010-06-30,9740000.0,0.143863769818,0.0,9740000.0,0.0,6348000.0,8449000.0,1291000.0,0.0,1291000.0,485000.0,0.0,0.0,806000.0,0.0,806000.0,0.16,0.16,5185510.0,5101000.0,0.12,1.0,0.203,0.1325,0.083,0.1171,1977000.0,1291000.0,806000.0,0.1325,0.0828
2009-06-30,8515000.0,0.0621,0.0,8515000.0,0.0,6233000.0,8173000.0,342000.0,0.0,342000.0,130000.0,0.0,0.0,212000.0,0.0,212000.0,0.04,0.04,5235000.0,,0.12,1.0,0.127,0.0402,0.025,0.0908,1078000.0,342000.0,212000.0,0.0402,0.0249
