,0,1,2,3,4,5,6,7,8,9,10,11,12,13,14
Date,Depreciation & Amortization,Stock-based compensation,Operating Cash Flow,Capital Expenditure,Acquisitions and disposals,Investment purchases and sales,Investing Cash flow,Issuance (repayment) of debt,Issuance (buybacks) of shares,Dividend payments,Financing Cash Flow,Effect of forex changes on cash,Net cash flow / Change in cash,Free Cash Flow,Net Cash/Marketcap
2017-12-31,7117000.0,1036000.0,65918000.0,4347000.0,2845000.0,126829000.0,-17989000.0,79401000.0,-395000.0,-17162000.0,-36976000.0,0.0,10953000.0,61571000.0,0.0
2017-12,12000000.0,1000000.0,,,,-222000000.0,-18000000.0,,,,-37000000.0,,11000000.0,,
2016-12-31,5240000.0,1001000.0,47262000.0,14068000.0,-11289000.0,141498000.0,-179227000.0,-162976000.0,-1045000.0,-14296000.0,150939000.0,0.0,86552000.0,33194000.0,0.0
2016-12,10000000.0,1000000.0,,,,-248000000.0,-179000000.0,,,,151000000.0,,19000000.0,,
2015-12-31,5977000.0,843000.0,53392000.0,7794000.0,-0.0,133272000.0,-171539000.0,-2014000.0,-3527000.0,-11680000.0,123240000.0,0.0,67578000.0,45598000.0,0.0
2015-12,9000000.0,1000000.0,,,,-346000000.0,-172000000.0,,,,123000000.0,,5000000.0,,
2014-12-31,6607000.0,647000.0,43358000.0,5593000.0,-0.0,105949000.0,-48972000.0,8293000.0,-319000.0,-8726000.0,6779000.0,0.0,62485000.0,37765000.0,0.0
2014-12,9000000.0,1000000.0,,,,-64000000.0,-49000000.0,,,,7000000.0,,1000000.0,,
2013-12-31,6092000.0,751000.0,60083000.0,7631000.0,-0.0,124806000.0,-141392000.0,-8075000.0,-204000.0,-5709000.0,76979000.0,0.0,61320000.0,52452000.0,0.0
2013-12,9000000.0,1000000.0,,,,-234000000.0,-141000000.0,,,,77000000.0,,-4000000.0,,
2012-12-31,4522000.0,491000.0,54191000.0,7387000.0,-0.0,131130000.0,-39297000.0,-8730000.0,-65650000.0,-1623000.0,-58392000.0,0.0,65650000.0,46804000.0,0.0
2011-12-31,5708000.0,173000.0,36060000.0,6865000.0,-0.0,120588000.0,76316000.0,7392000.0,-109148000.0,-807000.0,-63351000.0,0.0,109148000.0,29195000.0,0.0
