,0,1,2,3,4,5,6,7,8,9,10,11,12,13,14
Date,Depreciation & Amortization,Stock-based compensation,Operating Cash Flow,Capital Expenditure,Acquisitions and disposals,Investment purchases and sales,Investing Cash flow,Issuance (repayment) of debt,Issuance (buybacks) of shares,Dividend payments,Financing Cash Flow,Effect of forex changes on cash,Net cash flow / Change in cash,Free Cash Flow,Net Cash/Marketcap
2019-12-31,4958940.0,3215661.0,7617987.0,2558159.0,-1600000.0,0.0,-4158159.0,-0.0,-19994134.0,-6109087.0,1422201.0,639622.0,5521651.0,5059828.0,0.0
2018-12-31,2913866.0,2463599.0,6812474.0,1028249.0,-12600000.0,0.0,-13628249.0,-464167.0,-14472483.0,-4102410.0,17656537.0,-730511.0,10110251.0,5784225.0,0.0
2017-12-31,4299943.0,1487295.0,281642.0,697211.0,-205000.0,0.0,-902211.0,-7719520.0,-2390167.0,-1485727.0,1843979.0,-338058.0,885352.0,-415569.0,0.0
2016-12-31,5108035.0,1877815.0,-897842.0,463399.0,-3370083.0,-546145.0,-3833482.0,-1389082.0,-546145.0,-709182.0,157306.0,11336.0,-4562682.0,-1361241.0,0.0
2015-12-31,4598610.0,628792.0,-1882781.0,421858.0,-180565.0,-122031.0,-602423.0,-1691013.0,-122031.0,-47771.0,9503006.0,-26900.0,6990902.0,-2304639.0,0.0
2014-12-31,2791368.0,258878.0,-2700189.0,1116192.0,-11536638.0,0.0,-12652830.0,-1653475.0,16118634.0,-0.0,15878819.0,24916.0,550716.0,-3816381.0,0.0
2013-12-31,948531.0,0.0,928968.0,-286505.0,-275000.0,227721.0,-706291.0,915727.0,0.0,0.0,33002.0,-26058.0,229621.0,642463.0,-0.0679
