,0,1,2,3,4,5,6,7,8,9,10,11,12,13,14,15,16,17,18,19,20,21,22,23,24,25,26,27,28
Date,Cash and cash equivalents,Short-term investments,Cash and short-term investments,Receivables,Inventories,Total current assets,Property Plant & Equipment Net,Goodwill and Intangible Assets,Long-term investments,Tax assets,Total non-current assets,Total assets,Payables,Short-term debt,Total current liabilities,Long-term debt,Total debt,Deferred revenue,Tax Liabilities,Deposit Liabilities,Total non-current liabilities,Total liabilities,Other comprehensive income,Retained earnings (deficit),Total shareholders equity,Investments,Net Debt,Other Assets,Other Liabilities
2019-12-31,465676000.0,0.0,465676000.0,116459000.0,0.0,676335000.0,65940000.0,1467908000.0,5076000.0,140726000.0,1747377000.0,2423712000.0,20191000.0,14003000.0,417612000.0,1603483000.0,1617486000.0,218800000.0,53324000.0,0.0,1672836000.0,2103927000.0,0.0,988509000.0,319785000.0,5076000.0,1151810000.0,0.0,13479000.0
2018-12-31,186947000.0,0.0,186947000.0,99052000.0,0.0,343765000.0,58351000.0,1482398000.0,9076000.0,134347000.0,1709296000.0,2053061000.0,9528000.0,0.0,355434000.0,1515911000.0,1515911000.0,209900000.0,35679000.0,0.0,1557845000.0,1927197000.0,0.0,453778000.0,125864000.0,9076000.0,1328964000.0,0.0,13918000.0
2017-12-31,272624000.0,0.0,272624000.0,116751000.0,0.0,444744000.0,61620000.0,1477989000.0,11137000.0,123199000.0,1685402000.0,2130146000.0,10112000.0,0.0,318773000.0,1252696000.0,1252696000.0,198095000.0,25063000.0,0.0,1295658000.0,1628897000.0,81292000.0,532211000.0,501249000.0,11137000.0,980072000.0,0.0,14466000.0
2016-12-31,253651000.0,0.0,253651000.0,72530000.0,0.0,369646000.0,69728000.0,1530013000.0,55355000.0,54355000.0,1679032000.0,2048678000.0,10824000.0,0.0,312325000.0,1176493000.0,1176493000.0,184010000.0,25913000.0,0.0,1224643000.0,1552156000.0,490797000.0,182063000.0,496522000.0,55355000.0,922842000.0,0.0,15188000.0
2015-12-31,88173000.0,11622000.0,99795000.0,65851000.0,0.0,204695000.0,48067000.0,1569183000.0,55569000.0,51242000.0,1721307000.0,1926002000.0,25767000.0,40000000.0,353644000.0,1193481000.0,1233481000.0,169321000.0,24908000.0,0.0,1277970000.0,1647191000.0,404981000.0,10612000.0,278811000.0,67191000.0,1145308000.0,0.0,15577000.0
2014-12-31,127630000.0,0.0,127630000.0,33735000.0,0.0,189177000.0,42997000.0,1001376000.0,62979000.0,0.0,1112932000.0,1302109000.0,11797000.0,0.0,241306000.0,190586000.0,190586000.0,134790000.0,53317000.0,0.0,261027000.0,502333000.0,-78048000.0,0.0,799587000.0,62979000.0,62956000.0,27812000.0,229509000.0
