,0,1,2,3,4,5,6,7,8,9,10,11,12,13,14
Date,Depreciation & Amortization,Stock-based compensation,Operating Cash Flow,Capital Expenditure,Acquisitions and disposals,Investment purchases and sales,Investing Cash flow,Issuance (repayment) of debt,Issuance (buybacks) of shares,Dividend payments,Financing Cash Flow,Effect of forex changes on cash,Net cash flow / Change in cash,Free Cash Flow,Net Cash/Marketcap
2019-12-31,88681000.0,18285000.0,603450000.0,97341000.0,-2004000.0,-774999000.0,-99083000.0,-0.0,-774999000.0,-0.0,-477368000.0,2676000.0,29675000.0,506109000.0,0.0
2018-12-31,84691000.0,17579000.0,565005000.0,142726000.0,-5527000.0,-474999000.0,-138944000.0,-0.0,-474999000.0,-0.0,-388022000.0,-8616000.0,29423000.0,422279000.0,0.0
2017-12-31,76129000.0,16582000.0,516325000.0,127426000.0,-108445000.0,-399997000.0,-217344000.0,-0.0,-399997000.0,-0.0,-319530000.0,10562000.0,-9987000.0,388899000.0,0.0
2016-12-31,68795000.0,15306000.0,443078000.0,123957000.0,-111381000.0,-499992000.0,-231456000.0,-0.0,-499992000.0,-0.0,-145925000.0,-5910000.0,59787000.0,319121000.0,0.0
2015-12-31,64038000.0,14223000.0,426868000.0,82506000.0,-13779000.0,-494966000.0,-100751000.0,-0.0,-494966000.0,-0.0,-307032000.0,-5461000.0,13624000.0,344362000.0,0.0
2014-12-31,62802000.0,13611000.0,418912000.0,89388000.0,-5784000.0,-414000000.0,-94444000.0,-0.0,-414000000.0,-0.0,-348108000.0,-2971000.0,-26611000.0,329524000.0,0.0
2013-12-31,59304000.0,12639000.0,345928000.0,82349000.0,-2661000.0,-294976000.0,-84640000.0,-0.0,-294976000.0,-0.0,-251116000.0,159000.0,10172000.0,263579000.0,0.0
2012-12-31,54778000.0,13185000.0,327704000.0,95588000.0,-2098000.0,-278672000.0,-97260000.0,-0.0,-278672000.0,-0.0,-366397000.0,2054000.0,-133899000.0,232116000.0,0.0
2011-12-31,49497000.0,12270000.0,280880000.0,98500000.0,-35373000.0,-204578000.0,-132291000.0,-0.0,-204578000.0,-0.0,-360469000.0,-96000.0,-211976000.0,182380000.0,0.0
2010-12-31,0.0,0.0,0.0,0.0,-0.0,0.0,0.0,-0.0,0.0,-0.0,0.0,0.0,0.0,0.0,0.0
2009-12-31,41478000.0,9230000.0,232605000.0,-57960000.0,-14620000.0,0.0,-72580000.0,-163362000.0,5080000.0,0.0,-157443000.0,4376000.0,6958000.0,174645000.0,-0.0588
