,0,1,2,3,4,5,6,7,8,9,10,11,12,13,14
Date,Depreciation & Amortization,Stock-based compensation,Operating Cash Flow,Capital Expenditure,Acquisitions and disposals,Investment purchases and sales,Investing Cash flow,Issuance (repayment) of debt,Issuance (buybacks) of shares,Dividend payments,Financing Cash Flow,Effect of forex changes on cash,Net cash flow / Change in cash,Free Cash Flow,Net Cash/Marketcap
2018-12-31,180492753.6232,0.0,987217391.3043,-76188405.7971,43478.2609,130434.7826,-81840579.7101,1062057971.0145,0.0,0.0,-917188405.7971,0.0,-12217391.3043,911028985.5072,-14.1144
2017-12-31,217553283.6597,0.0,1096551724.1379,-106255415.0061,9842315.0234,-6601975.3942,-123687402.5299,341136718.0731,0.0,0.0,-965811817.7092,0.0,-3985444.4637,990296309.1319,-4.3214
2016-12-31,191769480.5195,0.0,863750000.0,-72353896.1039,4025974.026,-1720779.2208,-80665584.4156,12402597.4026,0.0,0.0,-744626623.3766,0.0,9123376.6234,791396103.8961,-4.3214
2015-12-31,192394377.7404,0.0,530904670.1908,-63803630.7011,2417735.5243,2076247.4559,-71275389.6379,-9534346.8699,0.0,0.0,-470338346.3782,4521302.0257,-6187763.7995,467101039.4897,-4.3214
2014-12-31,251634955.7908,0.0,750126436.5812,-183725432.0643,11021781.970999999,9417345.355,-252768525.1391,-264296053.4347,0.0,-69758.1137,-596536509.6528,15713015.1201,-83465583.0906,566401004.5168,-4.3214
