,0,1,2,3,4,5,6,7,8,9,10,11,12,13,14,15,16,17,18,19,20,21,22,23,24,25,26,27,28,29,30
Date,Revenue,Revenue Growth,Cost of Revenue,Gross Profit,R&D Expenses,SG&A Expense,Operating Expenses,Operating Income,Interest Expense,Earnings before Tax,Income Tax Expense,Net Income - Non-Controlling int,Net Income - Discontinued ops,Net Income,Preferred Dividends,Net Income Com,EPS,EPS Diluted,Weighted Average Shs Out,Weighted Average Shs Out (Dil),Dividend per Share,Gross Margin,EBITDA Margin,EBIT Margin,Profit Margin,Free Cash Flow margin,EBITDA,EBIT,Consolidated Income,Earnings Before Tax Margin,Net Profit Margin
2018-12-31,0.0,0.0,0.0,0.0,6787474.0,7978821.0,14766295.0,-14766295.0,0.0,-14589993.0,-506920.0,0.0,0.0,-14083073.0,905043.0,-14988116.0,-0.15,-0.15,112385590.0,98103210.0,0.0,0.0,,0.0,,0.0,-14371685.0,-14589993.0,-14083073.0,0.0,0.0
2017-12-31,0.0,0.0,0.0,0.0,9010499.0,7641592.0,16652091.0,-16652091.0,0.0,-15843445.0,-356956.0,0.0,0.0,-15486489.0,17349699.0,-32836188.0,-0.36,-0.36,92950096.0,90475035.0,0.0,0.0,,0.0,,0.0,-15742840.0,-15843445.0,-15486489.0,0.0,0.0
2016-12-31,0.0,0.0,0.0,0.0,3947644.0,4309489.0,8257133.0,-8257133.0,0.0,-7598737.0,0.0,0.0,0.0,-7598737.0,4393809.0,-11992546.0,-0.21,-0.21,58048412.0,57654830.0,0.0,0.0,,0.0,,0.0,-7546093.0,-7598737.0,-7598737.0,0.0,0.0
2015-12-31,0.0,0.0,0.0,0.0,5292193.0,4813800.0,10105993.0,-10105993.0,0.0,-9135400.0,0.0,0.0,0.0,-9135400.0,0.0,-9135400.0,-0.18,-0.18,57207335.0,51481002.0,0.0,0.0,,0.0,,0.0,-9091898.0,-9135400.0,-9135400.0,0.0,0.0
2014-12-31,0.0,0.0,0.0,0.0,5175520.0,5289479.0,10464999.0,-10464999.0,0.0,-10221045.0,0.0,0.0,0.0,-10221045.0,0.0,-10221045.0,-0.32,-0.32,32167650.0,32076717.0,0.0,0.0,,0.0,,0.0,-10179464.0,-10221045.0,-10221045.0,0.0,0.0
2013-12-31,0.0,,0.0,0.0,1761486.0,1950953.0,3712439.0,-3712439.0,0.0,-3713127.0,0.0,0.0,0.0,-3713127.0,0.0,-3713127.0,-0.2,-0.2,,19001370.0,0.0,0.0,,0.0,,0.0,-3711996.0,-3713127.0,-3713127.0,0.0,0.0
