,0,1,2,3,4,5,6,7,8,9,10,11,12,13,14,15,16,17,18,19,20,21,22,23,24,25,26,27,28,29,30
Date,Revenue,Revenue Growth,Cost of Revenue,Gross Profit,R&D Expenses,SG&A Expense,Operating Expenses,Operating Income,Interest Expense,Earnings before Tax,Income Tax Expense,Net Income - Non-Controlling int,Net Income - Discontinued ops,Net Income,Preferred Dividends,Net Income Com,EPS,EPS Diluted,Weighted Average Shs Out,Weighted Average Shs Out (Dil),Dividend per Share,Gross Margin,EBITDA Margin,EBIT Margin,Profit Margin,Free Cash Flow margin,EBITDA,EBIT,Consolidated Income,Earnings Before Tax Margin,Net Profit Margin
2018-12-31,2459390.8629,0.840191343304,0.0,2459390.8629,11876903.5533,5576142.132,17453045.6853,-14993654.8223,744923.8579,-21652284.264000002,-2578680.203,0.0,5916243.6548,-19073604.0609,0.0,-19073604.0609,-0.2157,-0.2157,7751794.4162,7751794.4162,0.0,1.0,-10.1231,-8.501,-9.8414,-7.757000000000001,-19618020.3046,-20907360.4061,-19073604.0609,-8.8039,-7.7554
2017-12-31,1336486.4865,-0.181742967432,0.0,1336486.4865,11255405.4054,5994594.5946,19277027.027,-17940540.5405,147297.2973,-23417567.5676,-1709459.4595,0.0,5890540.5405,-21708108.1081,0.0,-21708108.1081,-0.3108,-0.3108,6581008.1081,6581008.1081,0.0,1.0,-22.1865,-17.4115,-21.95,-15.2831,-21941891.8919,-23270270.2703,-21708108.1081,-17.5217,-16.2427
2016-12-31,1633333.3333,-0.194618181827,0.0,1633333.3333,9543209.8765,4006172.8395,13549382.715999998,-11916049.3827,90123.4568,-27640740.7407,-2749382.716,0.0,17285185.1852,-24891358.0247,0.0,-24891358.0247,-0.2099,-0.2099,4131790.1235,4131790.1235,0.0,1.0,-20.1037,-16.8677,-18.8148,-12.1565,-26597530.8642,-27550617.284,-24891358.0247,-16.9229,-15.2396
2015-12-31,2028023.5988,7.29293726403,103244.8378,1924778.7611,12846607.6696,8131268.4366,20977876.1062,-19053097.3451,7374.6313,-16566371.6814,-1671091.4454,0.0,0.0,-14895280.236,0.0,-14895280.236,-5.3097,-5.3097,4936209.4395,4936209.4395,0.0,0.9491,-11.5059,-8.1651,-10.8333,-10.1738,-15820058.9971,-16558997.0501,-14895280.236,-8.1687,-7.3447
2014-12-31,244548.2866,0.00481064716277,0.0,244548.2866,5668224.2991,6861370.7165,15333333.3333,-15088785.0467,250778.8162,-15327102.8037,-1585669.7819,0.0,0.0,-13741433.0218,0.0,-13741433.0218,-15.2648,-15.2648,,,0.0,1.0,-92.8427,-61.6497,-87.5249,-46.3631,-14576323.9875,-15076323.9875,-13741433.0218,-62.6752,-56.1911
2013-12-31,243377.4834,,0.0,243377.4834,4701986.755,2990066.2252,7692052.9801,-7448675.4967,637417.2185,-8084437.0861,-1322847.6821,0.0,0.0,-6761589.404,0.0,-6761589.404,-11.755,-11.755,,,0.0,1.0,-47.8891,-30.5986,-45.9967,-34.4966,-7039735.0993,-7447019.8675,-6761589.404,-33.2177,-27.7823
