,0,1,2,3,4,5,6,7,8,9,10,11,12,13,14,15,16,17,18,19,20,21,22,23,24,25,26,27,28,29,30
Date,Revenue,Revenue Growth,Cost of Revenue,Gross Profit,R&D Expenses,SG&A Expense,Operating Expenses,Operating Income,Interest Expense,Earnings before Tax,Income Tax Expense,Net Income - Non-Controlling int,Net Income - Discontinued ops,Net Income,Preferred Dividends,Net Income Com,EPS,EPS Diluted,Weighted Average Shs Out,Weighted Average Shs Out (Dil),Dividend per Share,Gross Margin,EBITDA Margin,EBIT Margin,Profit Margin,Free Cash Flow margin,EBITDA,EBIT,Consolidated Income,Earnings Before Tax Margin,Net Profit Margin
2017-03,,,,,,,,,,,,,,202680000000.0,,202680000000.0,14.93,14.68,13574000000.0,13585000000.0,,,,,,,,202680000000.0,202680000000.0,,
2016-03,,,,,,,,,,,,,,802332000000.0,,802332000000.0,57.78,57.51,13886000000.0,13903000000.0,,,,,,,,802332000000.0,802332000000.0,,
2015-03,,,,,,,,,,,,,,1531127000000.0,,1531127000000.0,107.81,107.5,14118000000.0,14138000000.0,,,,,,,,1531127000000.0,1531127000000.0,,
2014-03,,,,,,,,,,,,,,1015393000000.0,,1015393000000.0,70.21,69.98,14159000000.0,14180000000.0,,,,,,,,1015393000000.0,1015393000000.0,,
2013-03,,,,,,,,,,,,,,1069124000000.0,,1069124000000.0,74.3,74.16,14148000000.0,14169000000.0,,,,,,,,1069124000000.0,1069124000000.0,,
