,0,1,2,3,4,5,6,7,8,9,10,11,12,13,14,15,16,17,18,19,20,21,22,23,24,25,26,27,28,29,30
Date,Revenue,Revenue Growth,Cost of Revenue,Gross Profit,R&D Expenses,SG&A Expense,Operating Expenses,Operating Income,Interest Expense,Earnings before Tax,Income Tax Expense,Net Income - Non-Controlling int,Net Income - Discontinued ops,Net Income,Preferred Dividends,Net Income Com,EPS,EPS Diluted,Weighted Average Shs Out,Weighted Average Shs Out (Dil),Dividend per Share,Gross Margin,EBITDA Margin,EBIT Margin,Profit Margin,Free Cash Flow margin,EBITDA,EBIT,Consolidated Income,Earnings Before Tax Margin,Net Profit Margin
2018-12-31,1807600000.0,0.07871337351549999,1346200000.0,461400000.0,22700000.0,178600000.0,201300000.0,255900000.0,45900000.0,123800000.0,34400000.0,0.0,0.0,169000000.0,0.0,169000000.0,4.79,4.75,35300000.0,35600000.0,0.199438202247,0.25525558751899996,0.20115069705699998,0.14156893117900002,0.0934941358708,0.070646160655,363600000.0,255900000.0,169000000.0,0.0684886036734,0.0934941358708
2017-12-31,1675700000.0,0.023015873015900003,1208500000.0,467200000.0,23700000.0,182400000.0,206100000.0,242700000.0,43400000.0,235500000.0,-6600000.0,0.0,0.0,195100000.0,0.0,195100000.0,5.54,5.48,35200000.0,35600000.0,0.196629213483,0.278808856,0.203556722564,0.144834994331,0.116428955064,0.07811660798469999,341100000.0,242700000.0,195100000.0,0.140538282509,0.116428955064
2016-12-31,1638000000.0,-0.088785046729,1177600000.0,460400000.0,23800000.0,179400000.0,211400000.0,220900000.0,54400000.0,137100000.0,35300000.0,0.0,0.0,133400000.0,0.0,133400000.0,3.82,3.79,34900000.0,35200000.0,0.19886363636399998,0.281074481074,0.195787545788,0.13485958486,0.0814407814408,0.09932844932839999,320700000.0,220900000.0,133400000.0,0.08369963369960001,0.0814407814408
2015-12-31,1797600000.0,0.0420869565217,1326600000.0,471000000.0,23600000.0,182300000.0,213700000.0,200300000.0,60900000.0,132600000.0,22800000.0,0.0,0.0,107900000.0,0.0,107900000.0,3.11,3.08,34700000.0,35000000.0,0.2,0.262016021362,0.171617712506,0.111426346239,0.0600244770806,0.10235870049000001,308500000.0,200300000.0,107900000.0,0.07376502002669999,0.0600244770806
2014-12-31,1725000000.0,0.6941977899799999,1289600000.0,435400000.0,24400000.0,177400000.0,201800000.0,168800000.0,41800000.0,123000000.0,30800000.0,0.0,0.0,92400000.0,0.0,92400000.0,2.68,2.65,34500000.0,34800000.0,0.198275862069,0.252405797101,0.149739130435,0.0978550724638,0.053565217391300005,0.132753623188,258300000.0,168800000.0,92400000.0,0.07130434782610001,0.053565217391300005
2013-12-31,1018181000.0,0.0124918085279,784536000.0,233645000.0,20053000.0,89231000.0,109284000.0,126852000.0,3263000.0,123710000.0,34515000.0,0.0,0.0,80330000.0,0.0,80330000.0,2.31,2.3,34690000.0,34976000.0,0.19859332113400002,0.229472952255,0.18265612892000002,0.124586885829,0.07889559911249999,0.0893416789353,185977000.0,126852000.0,80330000.0,0.121500990492,0.07889559911249999
2012-12-31,1005619000.0,-0.037549779729800004,786245000.0,219374000.0,20172000.0,89161000.0,109333000.0,110041000.0,3221000.0,107046000.0,30777000.0,0.0,0.0,74147000.0,0.0,74147000.0,2.1,2.09,35340000.0,35529000.0,0.124095809057,0.218148225123,0.16034899897500002,0.10942613455,0.07373269598130001,0.08729747548519999,161250000.0,110041000.0,74147000.0,0.10644786942199999,0.07373269598130001
2011-12-31,1044853000.0,0.0423991923013,832657000.0,212196000.0,19330000.0,92058000.0,111388000.0,100338000.0,3254000.0,97740000.0,27486000.0,0.0,0.0,67521000.0,0.0,67521000.0,3.75,3.73,18009000.0,18118000.0,0.198752621702,0.20308694141699998,0.15175436161800002,0.09603073350989999,0.06462248756519999,0.0780961532388,158561000.0,100338000.0,67521000.0,0.093544259336,0.06462248756519999
2010-12-31,1002354000.0,0.104740218732,793161000.0,209193000.0,19577000.0,90474000.0,110051000.0,98277000.0,3336000.0,98849000.0,28963000.0,0.0,0.0,66869000.0,0.0,66869000.0,3.59,3.58,0.0,0.0,0.0,0.20870171616,0.161876941679,0.09804619924699999,0.0667119600461,0.107647597555,162258000.0,98277000.0,66869000.0,0.0986168559212,0.0667119600461
2009-12-31,907321000.0,-0.1842,751503000.0,155818000.0,19941000.0,91075000.0,172871000.0,-17053000.0,3490000.0,-29183000.0,-5387000.0,2892000.0,3151000.0,-23796000.0,0.0,-23796000.0,-0.635,-0.635,37465500.0,37465500.0,0.1,0.1717,0.051,-0.0283,-0.026000000000000002,0.1489,46708000.0,-25693000.0,-20904000.0,-0.0322,-0.0262
