,0,1,2,3,4,5,6,7,8,9,10,11,12,13,14,15,16,17,18,19,20,21,22,23,24,25,26,27,28,29,30
Date,Revenue,Revenue Growth,Cost of Revenue,Gross Profit,R&D Expenses,SG&A Expense,Operating Expenses,Operating Income,Interest Expense,Earnings before Tax,Income Tax Expense,Net Income - Non-Controlling int,Net Income - Discontinued ops,Net Income,Preferred Dividends,Net Income Com,EPS,EPS Diluted,Weighted Average Shs Out,Weighted Average Shs Out (Dil),Dividend per Share,Gross Margin,EBITDA Margin,EBIT Margin,Profit Margin,Free Cash Flow margin,EBITDA,EBIT,Consolidated Income,Earnings Before Tax Margin,Net Profit Margin
2019-03-31,35057381818.1818,-0.0903951185632,0.0,35057381818.1818,0.0,18210436363.6364,27140636363.6364,7916745454.5455,0.0,7744381818.1818,1211245454.5455,172363636.3636,0.0,6533136363.6364,0.0,6533136363.6364,0.5003,0.4976,126363891.0909,118718181.8182,0.0007,1.0,0.0028,0.2209,0.0017,-0.0386,10780290909.0909,7744381818.1818,6705500000.0,0.2209,0.1864
2018-03-31,38541329904.482,0.349542058248,0.0,38541329904.482,0.0,17289519261.0475,24005283230.1179,14536046674.3641,0.0,14310057380.7774,3567256219.1666,225989293.5866,0.0,10742801161.6109,0.0,10742801161.6109,0.8082,0.8056,123935952.381,116266050.873,0.0006,1.0,0.0039,0.3713,0.0024,-0.2157,17201453762.9894,14310057380.7774,10968790455.1975,0.3713,0.2787
2017-03-31,28558820874.7766,-0.277237919537,0.0,28558820874.7766,0.0,17183150712.1324,26098913298.5541,2459907576.2225,0.0,2681851002.7619,852510063.7219,-221943426.5393,0.0,1829340939.04,0.0,1829340939.04,0.1348,0.1325,127884667.2202,122515659.6928,0.0014,1.0,0.0018,0.0939,0.0006,0.1166,5639736808.8525,2681851002.7619,1607397512.5007,0.0939,0.0641
2016-03-31,39513446605.4,-0.050402154736599994,0.0,39513446605.4,0.0,17187727078.4356,29159827598.4897,10353619006.9103,0.0,10434601410.5578,3289805513.9987,-80982403.6475,0.0,7144795896.5591,0.0,7144795896.5591,0.5145,0.5121,126174163.1047,123655339.46,0.0013,1.0,0.003,0.2641,0.0016,0.8681,13435794685.4741,10434601410.5578,7063813492.9116,0.2641,0.1808
2015-03-31,41610716370.6113,0.100883993978,0.0,41610716370.6113,0.0,15100742223.3342,22741097489.784,18869618880.8273,0.0,18323300808.94,5554332415.9787,546318071.8872,0.0,12768968392.9614,74806104.5784,12694162288.383001,0.8991,0.8965,118122145.1088,117738303.7278,0.0011,1.0,0.0042,0.4404,0.0025,0.4051,21083804520.0567,18323300808.94,13315286464.8486,0.4404,0.3069
2014-03-31,37797548695.6184,-0.061653119638,0.0,37797548695.6184,0.0,16305897904.4361,23991291162.863,13806257532.7553,0.0,13153745966.331001,3284446561.1757,652511566.4243,0.0,9869299405.1553,206455814.3152,9662843590.8402,0.6824,0.6802,137616983.3988,137621010.0696,0.0014,1.0,0.0041,0.348,0.0025,0.1464,16087739590.2181,13153745966.331001,10521810971.5796,0.348,0.2611
2013-03-31,40280997876.8577,0.053359881993899995,0.0,40280997876.8577,0.0,16332781316.3482,25250520169.8514,15030477707.0064,0.0,14491974522.293001,3142462845.0106,538503184.7134,0.0,11349511677.2824,190445859.8726,11159065817.4098,0.7887,0.7873,150260448.1953,150191082.8025,0.0014,1.0,0.0047,0.3598,0.0029,-0.6403,17693704883.2272,14491974522.293001,11888014861.9958,0.3598,0.2818
2012-03-31,38240489851.0197,-0.0342763415457,0.0,38240489851.0197,0.0,18032532182.6334,27995781302.7337,10244708548.286,0.0,10190227086.4471,5173219709.7536,54481461.8389,0.0,5017007376.6935,216238368.449,4800769008.2445,0.3395,0.3386,170566686.9968,170566686.9968,0.0017,1.0,0.0044,0.2665,0.0015,0.1031,13890699580.541,10190227086.4471,5071488838.5324,0.2665,0.1312
2011-03-31,39597756062.2512,-0.027592157763400002,0.0,39597756062.2512,0.0,17937555796.8392,28649258052.8411,10948498009.4101,0.0,10692122089.5162,5231330679.2134,-777633007.6004,0.0,5460791410.3028,252623959.4644,5208167450.8385,0.3686,0.3671,170689044.7581,170689044.7581,0.0016,1.0,0.0044,0.27,0.0016,1.2194,14548329110.8698,10692122089.5162,4683158402.7024,0.27,0.1379
2010-03-31,40721345861.604,1.1724,0.0,40721345861.604,0.0,16569497656.3002,26361293636.6944,14360052224.9096,0.0,13717247062.3488,4420977718.7988,163277755.185,0.0,9296269343.55,231994178.2068,9064275165.3432,0.7354,0.7340000000000001,124658726.4827,124658726.4827,0.0013,1.0,0.0046,0.3369,0.0024,0.5367,17412245029.0019,13717247062.3488,9459547098.735,0.3369,0.2283
