,0,1,2,3,4,5,6,7,8,9,10,11,12,13,14,15,16,17,18,19,20,21,22,23,24,25,26,27,28
Date,Cash and cash equivalents,Short-term investments,Cash and short-term investments,Receivables,Inventories,Total current assets,Property Plant & Equipment Net,Goodwill and Intangible Assets,Long-term investments,Tax assets,Total non-current assets,Total assets,Payables,Short-term debt,Total current liabilities,Long-term debt,Total debt,Deferred revenue,Tax Liabilities,Deposit Liabilities,Total non-current liabilities,Total liabilities,Other comprehensive income,Retained earnings (deficit),Total shareholders equity,Investments,Net Debt,Other Assets,Other Liabilities
2019-12-31,46452000.0,1885000.0,48337000.0,2658000.0,38376000.0,91978000.0,107571000.0,0.0,110183000.0,11110000.0,539245000.0,631223000.0,34070000.0,5000000.0,48795000.0,19758000.0,24758000.0,0.0,0.0,0.0,28582000.0,131744000.0,0.0,-1031223000.0,499479000.0,112068000.0,-21694000.0,0.0,54367000.0
2018-12-31,15756000.0,3131000.0,18887000.0,1058000.0,22039000.0,59376000.0,114734000.0,0.0,127814000.0,8905000.0,557565000.0,616941000.0,30817000.0,1511000.0,36012000.0,4918000.0,6429000.0,0.0,0.0,0.0,17109000.0,130995000.0,0.0,-971476000.0,485946000.0,130945000.0,-9327000.0,0.0,77874000.0
2017-12-31,27153000.0,7971000.0,35124000.0,5250000.0,31951000.0,86864000.0,51046000.0,0.0,150064000.0,9197000.0,505265000.0,592129000.0,34880000.0,470000.0,37639000.0,81000.0,551000.0,0.0,0.0,0.0,9141000.0,70856000.0,3823000.0,-929606000.0,521273000.0,158035000.0,-26602000.0,0.0,24076000.0
2016-12-31,37440000.0,8543000.0,45983000.0,4304000.0,26620000.0,78574000.0,14252000.0,0.0,162320000.0,0.0,419744000.0,498318000.0,20044000.0,0.0,20581000.0,0.0,0.0,0.0,0.0,0.0,25392000.0,55279000.0,0.0,-918972000.0,443039000.0,170863000.0,-37440000.0,0.0,9306000.0
2015-12-31,25874000.0,1032000.0,26906000.0,10032000.0,14975000.0,54443000.0,15759000.0,0.0,167107000.0,0.0,420642000.0,475085000.0,18429000.0,3395000.0,22039000.0,286000.0,3681000.0,0.0,0.0,0.0,27471000.0,56793000.0,0.0,-940027000.0,418292000.0,168139000.0,-22193000.0,0.0,7283000.0
2014-12-31,12380000.0,1082000.0,13462000.0,11739000.0,12404000.0,39701000.0,17896000.0,0.0,177018000.0,-214000.0,483257000.0,522958000.0,21654000.0,0.0,24081000.0,319000.0,319000.0,0.0,200000.0,0.0,52937000.0,81743000.0,0.0,-919577000.0,441215000.0,178100000.0,-12061000.0,0.0,4725000.0
2013-12-31,24321000.0,0.0,24321000.0,11591000.0,8800000.0,46771000.0,15143000.0,0.0,212947000.0,625000.0,876295000.0,923066000.0,9797000.0,0.0,11189000.0,0.0,0.0,0.0,0.0,0.0,159255000.0,176299000.0,0.0,-607634000.0,746767000.0,212947000.0,-24321000.0,0.0,5855000.0
2012-12-31,70921000.0,3000.0,70924000.0,9150000.0,7262000.0,91918000.0,12767000.0,0.0,273948000.0,598000.0,1059019000.0,1150937000.0,21235000.0,0.0,25195000.0,0.0,0.0,0.0,0.0,0.0,229922000.0,261346000.0,0.0,-459892000.0,889591000.0,273951000.0,-70921000.0,0.0,6229000.0
2011-12-31,13416000.0,3933000.0,17349000.0,0.0,0.0,47883000.0,11772000.0,0.0,0.0,0.0,262472000.0,310355000.0,5612000.0,0.0,6124000.0,0.0,0.0,0.0,0.0,0.0,79186000.0,91051000.0,0.0,-393238000.0,219304000.0,3933000.0,-13416000.0,0.0,5741000.0
2010-12-31,6818000.0,9145000.0,15963000.0,0.0,0.0,17222000.0,239544000.0,0.0,4777000.0,0.0,244403000.0,261625000.0,2718000.0,0.0,3680000.0,0.0,0.0,0.0,78966000.0,0.0,84665000.0,88345000.0,257000.0,-331366000.0,173280000.0,13922000.0,-15963000.0,1259000.0,962000.0
2009-12-31,27690000.0,15717000.0,43407000.0,0.0,0.0,44372000.0,242746000.0,0.0,4777000.0,0.0,247607000.0,291979000.0,1163000.0,0.0,1849000.0,0.0,0.0,0.0,80965000.0,0.0,86904000.0,88753000.0,-285000.0,-298275000.0,203226000.0,20494000.0,-43407000.0,965000.0,686000.0
