,0,1,2,3,4,5,6,7,8,9,10,11,12,13,14
Date,Depreciation & Amortization,Stock-based compensation,Operating Cash Flow,Capital Expenditure,Acquisitions and disposals,Investment purchases and sales,Investing Cash flow,Issuance (repayment) of debt,Issuance (buybacks) of shares,Dividend payments,Financing Cash Flow,Effect of forex changes on cash,Net cash flow / Change in cash,Free Cash Flow,Net Cash/Marketcap
2018-10-31,0.0,0.0,-45388597.0,0.0,0.0,0.0,0.0,591250.0,-31371750.0,-10860702.0,-45398571.0,0.0,-90787168.0,-45388597.0,-0.564
2017-10-31,0.0,0.0,148778656.0,0.0,0.0,0.0,0.0,-35000000.0,-15373364.0,-12019345.0,-57618577.0,0.0,91160079.0,148778656.0,-0.5383
2016-10-31,0.0,0.0,92104385.0,0.0,0.0,0.0,0.0,-63000000.0,-1545255.0,-15770729.0,-92201792.0,0.0,-97407.0,92104385.0,-0.5383
2015-10-31,0.0,0.0,7939800.0,0.0,0.0,0.0,0.0,-2000000.0,-233465.0,-12026059.0,-14800697.0,0.0,-6860897.0,7939800.0,-0.5383
2014-10-31,0.0,0.0,-90097714.0,0.0,0.0,0.0,0.0,50000000.0,-4114967.0,-12215899.0,33035618.0,0.0,-57062096.0,-90097714.0,-0.5383
2013-10-31,0.0,0.0,-43611100.0,0.0,0.0,0.0,0.0,114408750.0,-16673207.0,-12526704.0,81685102.0,0.0,38074002.0,-43611100.0,-0.5383
2012-10-31,0.0,0.0,19237005.0,0.0,0.0,0.0,0.0,0.0,0.0,-11838907.0,-11838907.0,0.0,7398098.0,19237005.0,-0.5383
2011-10-31,0.0,0.0,-8692481.0,0.0,0.0,0.0,0.0,0.0,-966655.0,-11489032.0,-12455687.0,0.0,-21148168.0,-8692481.0,-0.5383
2010-10-31,0.0,0.0,83276792.0,0.0,0.0,0.0,0.0,-12300000.0,-3999128.0,-11594909.0,-27894037.0,0.0,55382755.0,83276792.0,-0.5383
2009-10-31,0.0,0.0,6606010.0,0.0,0.0,0.0,0.0,-6700000.0,0.0,-11662602.0,-18362602.0,0.0,-11756592.0,6606010.0,-0.5383
