,0,1,2,3,4,5,6,7,8,9,10,11,12,13,14
Date,Depreciation & Amortization,Stock-based compensation,Operating Cash Flow,Capital Expenditure,Acquisitions and disposals,Investment purchases and sales,Investing Cash flow,Issuance (repayment) of debt,Issuance (buybacks) of shares,Dividend payments,Financing Cash Flow,Effect of forex changes on cash,Net cash flow / Change in cash,Free Cash Flow,Net Cash/Marketcap
2018-12-31,253000.0,619000.0,-30345000.0,-26000.0,0.0,0.0,-26000.0,18833000.0,18000.0,0.0,45293000.0,-11000.0,14911000.0,-30371000.0,-0.0434
2017-12-31,258000.0,1046000.0,-28759000.0,-125000.0,0.0,0.0,-125000.0,9631000.0,19110000.0,0.0,28596000.0,-34000.0,-322000.0,-28884000.0,-0.0434
2016-12-31,,,-9280000.0,,,,-631000.0,,,,752000.0,-41000.0,-9200000.0,,-0.0434
