,0,1,2,3,4,5,6,7,8,9,10,11,12,13,14,15,16,17,18,19,20,21,22,23,24,25,26,27,28,29,30
Date,Revenue,Revenue Growth,Cost of Revenue,Gross Profit,R&D Expenses,SG&A Expense,Operating Expenses,Operating Income,Interest Expense,Earnings before Tax,Income Tax Expense,Net Income - Non-Controlling int,Net Income - Discontinued ops,Net Income,Preferred Dividends,Net Income Com,EPS,EPS Diluted,Weighted Average Shs Out,Weighted Average Shs Out (Dil),Dividend per Share,Gross Margin,EBITDA Margin,EBIT Margin,Profit Margin,Free Cash Flow margin,EBITDA,EBIT,Consolidated Income,Earnings Before Tax Margin,Net Profit Margin
2018-12-31,90459000.0,0.0051,80459000.0,10000000.0,19983000.0,30542000.0,50717000.0,-40717000.0,0.0,-45538000.0,-1096000.0,0.0,0.0,-36548000.0,0.0,-36548000.0,-0.89,-0.89,41031000.0,41031000.0,0.0,0.11054731978,-0.34058523751100006,-0.450115521949,-0.40402834433300006,-0.705678815817,-30809000.0,-40717000.0,-36548000.0,-0.503410384815,-0.40402834433300006
2018-12,90000000.0,-0.309646539028,80000000.0,10000000.0,20000000.0,31000000.0,51000000.0,-41000000.0,4000000.0,-46000000.0,-1000000.0,,,-37000000.0,,-37000000.0,-0.89,-0.89,41000000.0,41000000.0,,0.11111111111111001,-0.36666666666666997,-0.37777777777778,-0.41111111111111,,-33000000.0,-34000000.0,-37000000.0,-0.51111111111111,-0.41111111111111
2017-12-31,130368000.0,0.0028307692307700002,101573000.0,28795000.0,18351000.0,45818000.0,66691000.0,-37896000.0,0.0,-39472000.0,3657000.0,0.0,0.0,-43129000.0,0.0,-43129000.0,-1.22,-1.22,35480000.0,35480000.0,0.0,0.22087475454100003,-0.213794796269,-0.290684830633,-0.330825049092,-0.159724779087,-27872000.0,-37896000.0,-43129000.0,-0.302773686794,-0.330825049092
2017-12,130000000.0,0.0722180066642,102000000.0,29000000.0,18000000.0,46000000.0,64000000.0,-35000000.0,0.0,-39000000.0,4000000.0,,,-43000000.0,,-43000000.0,-1.22,-1.22,35000000.0,35000000.0,,0.22307692307692004,-0.2,-0.3,-0.33076923076923,,-26000000.0,-39000000.0,-43000000.0,-0.3,-0.33076923076923
2016-12-31,121244000.0,0.00201652892562,88274000.0,32970000.0,20889000.0,36281000.0,58856000.0,-25886000.0,0.0,-19560000.0,4145000.0,0.0,0.0,-23705000.0,0.0,-23705000.0,-0.74,-0.74,31870000.0,31870000.0,0.0,0.271930982152,-0.13208901059,-0.21350334861900003,-0.1955148296,-0.167538187457,-16015000.0,-25886000.0,-23705000.0,-0.16132757084899998,-0.1955148296
2016-12,121000000.0,-0.277059484263,88000000.0,33000000.0,21000000.0,36000000.0,57000000.0,-24000000.0,0.0,-20000000.0,4000000.0,,,-24000000.0,,-24000000.0,-0.74,-0.74,32000000.0,32000000.0,,0.27272727272727,-0.11570247933884001,-0.16528925619835,-0.19834710743802,,-14000000.0,-20000000.0,-24000000.0,-0.16528925619835,-0.19834710743802
2015-12-31,167372000.0,0.0022275449101799997,116410000.0,50962000.0,24697000.0,40758000.0,67967000.0,-17005000.0,0.0,-17730000.0,4603000.0,0.0,0.0,-22333000.0,0.0,-22333000.0,-0.73,-0.73,30716000.0,30716000.0,0.0,0.304483426141,-0.032478550773099996,-0.101600028679,-0.133433310231,0.0312895824869,-5436000.0,-17005000.0,-22333000.0,-0.105931697058,-0.133433310231
2015-12,167000000.0,-0.104970362192,116000000.0,51000000.0,25000000.0,41000000.0,65000000.0,-14000000.0,0.0,-18000000.0,5000000.0,,,-22000000.0,,-22000000.0,-0.73,-0.73,31000000.0,31000000.0,,0.30538922155689,-0.035928143712574995,-0.10179640718563,-0.13173652694611,,-6000000.0,-17000000.0,-22000000.0,-0.10778443113771999,-0.13173652694611
2014-12-31,186586000.0,-0.00221390374332,118146000.0,68440000.0,26320000.0,43857000.0,70177000.0,-1737000.0,0.0,-1926000.0,4346000.0,0.0,0.0,-6272000.0,0.0,-6272000.0,-0.21,-0.21,29216000.0,29216000.0,0.0,0.366801367734,0.051691981177599995,-0.00930938012498,-0.033614526277400004,-0.07041257114680001,9645000.0,-1737000.0,-6272000.0,-0.010322317858799999,-0.033614526277400004
2014-12,187000000.0,-0.0337615096055,118000000.0,68000000.0,26000000.0,44000000.0,70000000.0,-2000000.0,0.0,-2000000.0,4000000.0,,,-6000000.0,,-6000000.0,-0.21,-0.21,29000000.0,29000000.0,,0.36363636363636004,0.053475935828877,-0.010695187165774998,-0.032085561497326,,10000000.0,-2000000.0,-6000000.0,-0.010695187165774998,-0.032085561497326
2013-12-31,193534000.0,0.215223097113,118241000.0,75293000.0,22542000.0,44195000.0,66737000.0,8556000.0,0.0,8492000.0,2152000.0,0.0,0.0,6340000.0,0.0,6340000.0,0.22,0.22,28869000.0,28903000.0,0.0,0.389042752178,0.09194766811,0.04420928622359999,0.0327591017599,0.0157130013331,17795000.0,8556000.0,6340000.0,0.043878594975600003,0.0327591017599
2012-12-31,159258000.0,0.0123767568701,94206000.0,65052000.0,21700000.0,33656000.0,55356000.0,9696000.0,0.0,9523000.0,2349000.0,0.0,0.0,7174000.0,0.0,7174000.0,0.25,0.25,28568000.0,28709000.0,0.0,0.40846927626900004,0.10828341433399999,0.0608823418604,0.0450464026925,-0.102638485979,17245000.0,9696000.0,7174000.0,0.0597960542014,0.0450464026925
2011-12-31,157311000.0,0.0,95254000.0,62057000.0,22330000.0,37741000.0,60274000.0,1783000.0,0.0,2705000.0,1856000.0,0.0,0.0,849000.0,0.0,849000.0,0.03,0.03,27637000.0,28161000.0,0.0,0.39448608171099997,0.0584638073625,0.0113342360038,0.00539695253352,-0.124384181653,9197000.0,1783000.0,849000.0,0.0171952374596,0.00539695253352
