,0,1,2,3,4,5,6,7,8,9,10,11,12,13,14,15,16,17,18,19,20,21,22,23,24,25,26,27,28,29,30
Date,Revenue,Revenue Growth,Cost of Revenue,Gross Profit,R&D Expenses,SG&A Expense,Operating Expenses,Operating Income,Interest Expense,Earnings before Tax,Income Tax Expense,Net Income - Non-Controlling int,Net Income - Discontinued ops,Net Income,Preferred Dividends,Net Income Com,EPS,EPS Diluted,Weighted Average Shs Out,Weighted Average Shs Out (Dil),Dividend per Share,Gross Margin,EBITDA Margin,EBIT Margin,Profit Margin,Free Cash Flow margin,EBITDA,EBIT,Consolidated Income,Earnings Before Tax Margin,Net Profit Margin
2019-12-31,11500500000.0,0.00582478419437,7602900000.0,3897600000.0,639900000.0,2563600000.0,3203500000.0,715500000.0,517300000.0,154400000.0,137600000.0,0.0,0.0,16800000.0,0.0,16800000.0,0.03,0.03,515700000.0,516500000.0,0.0,0.33890700404299995,0.237798356593,0.062214686318,0.00146080605191,0.138298334855,2734800000.0,715500000.0,16800000.0,0.013425503239,0.00146080605191
2018-12-31,11433900000.0,-0.039789379980999996,7432300000.0,4001600000.0,704500000.0,2441000000.0,3145500000.0,905600000.0,542300000.0,298400000.0,-54100000.0,0.0,0.0,352500000.0,0.0,352500000.0,0.69,0.68,514500000.0,516500000.0,0.0,0.349976823306,0.263733284356,0.07920307156789999,0.0308293758035,0.18275479057900001,3015500000.0,905600000.0,352500000.0,0.026097831885900005,0.0308293758035
2017-12-31,11907700000.0,0.0750029340339,7124600000.0,4783100000.0,783300000.0,2575800000.0,3359100000.0,1437100000.0,534600000.0,903000000.0,207000000.0,0.0,0.0,696000000.0,0.0,696000000.0,1.3,1.3,534500000.0,536700000.0,0.0,0.401681265064,0.27233638738000004,0.120686614544,0.058449574644999995,0.150230523107,3242900000.0,1437100000.0,696000000.0,0.0758332843454,0.058449574644999995
2016-12-31,11076900000.0,0.174731952531,6379900000.0,4697000000.0,826800000.0,2496100000.0,3995400000.0,701600000.0,454800000.0,121700000.0,-358300000.0,0.0,0.0,480000000.0,0.0,480000000.0,0.94,0.92,513000000.0,520500000.0,0.0,0.42403560563000003,0.200832362845,0.0633390208452,0.0433334236113,0.149572533832,2224600000.0,701600000.0,480000000.0,0.0109868284448,0.0433334236113
2015-12-31,9429300000.0,0.221475205969,5213200000.0,4216100000.0,671900000.0,2180700000.0,2852600000.0,1460900000.0,339400000.0,915400000.0,67700000.0,0.0,0.0,847600000.0,0.0,847600000.0,1.8,1.7,472200000.0,497400000.0,0.0,0.447127570445,0.274951481022,0.154931967378,0.0898900236497,0.174519847709,2592600000.0,1460900000.0,847600000.0,0.09708037712239999,0.0898900236497
2014-12-31,7719600000.0,0.117309056172,4191600000.0,3528000000.0,581800000.0,1625700000.0,2175400000.0,1352600000.0,333200000.0,970800000.0,41400000.0,3700000.0,0.0,929400000.0,0.0,929400000.0,2.49,2.34,374273573.0,373700000.0,0.0,0.457,0.242,0.1689,0.12,0.0893,1870600000.0,1304000000.0,933100000.0,0.1258,0.1204
2013-12-31,6909100000.0,0.0166271832374,3868800000.0,3040300000.0,507800000.0,1408500000.0,1904800000.0,1135500000.0,313300000.0,744500000.0,120800000.0,2800000.0,0.0,623700000.0,0.0,623700000.0,1.63,1.58,382856845.0,383300000.0,0.0,0.44,0.228,0.1531,0.09,0.1154,1573800000.0,1057800000.0,626500000.0,0.1078,0.0903
2012-12-31,6796100000.0,0.108693967609,3887800000.0,2908300000.0,401300000.0,1392400000.0,1798900000.0,1109400000.0,308700000.0,802100000.0,161200000.0,2100000.0,0.0,640900000.0,0.0,640900000.0,1.54,1.52,407527845.0,415200000.0,0.0,0.4279,0.244,0.1634,0.094,0.0971,1657400000.0,1110800000.0,643000000.0,0.11800000000000001,0.0943
2011-12-31,6129825000.0,0.124630815177,3566461000.0,2563364000.0,294728000.0,1214631000.0,1557915000.0,1005449000.0,335944000.0,652643000.0,115833000.0,1993000.0,0.0,536810000.0,0.0,536810000.0,1.25,1.22,426512086.0,430839000.0,0.0,0.4182,0.245,0.1613,0.08800000000000001,0.0719,1499275000.0,988587000.0,538803000.0,0.1065,0.0876
2010-12-31,5450522000.0,0.07024388424019999,3233125000.0,2217397000.0,282146000.0,1086609000.0,1495813000.0,721584000.0,331462000.0,355517000.0,10402000.0,427000.0,0.0,345115000.0,121535000.0,223580000.0,0.69,0.68,309730799.0,324453000.0,0.0,0.4068,0.204,0.126,0.040999999999999995,0.1364,1109767000.0,686979000.0,345542000.0,0.0652,0.0633
2009-12-31,5092785000.0,-0.0087,3018313000.0,2074472000.0,275258000.0,1050145000.0,1551120000.0,523352000.0,318496000.0,211798000.0,-20773000.0,15177000.0,0.0,232571000.0,139035000.0,93536000.0,0.31,0.3,305584189.0,305162000.0,0.0,0.4073,0.183,0.1041,0.018000000000000002,0.0885,931451000.0,530294000.0,247748000.0,0.0416,0.0457
