,0,1,2,3,4,5,6,7,8,9,10,11,12,13,14
Date,Depreciation & Amortization,Stock-based compensation,Operating Cash Flow,Capital Expenditure,Acquisitions and disposals,Investment purchases and sales,Investing Cash flow,Issuance (repayment) of debt,Issuance (buybacks) of shares,Dividend payments,Financing Cash Flow,Effect of forex changes on cash,Net cash flow / Change in cash,Free Cash Flow,Net Cash/Marketcap
2019-12-31,153420.0,907993.0,-10341817.0,51991.0,-0.0,0.0,-51991.0,-0.0,-4465455.0,-0.0,8318469.0,0.0,-2075339.0,-10393808.0,0.0
2018-12-31,69682.0,814666.0,-9606310.0,126867.0,-0.0,0.0,-126867.0,-0.0,-3540794.0,-0.0,3337598.0,0.0,-6395579.0,-9733177.0,0.0
2017-12-31,5201180.0,279508.0,-6153419.0,67002.0,-0.0,0.0,-67002.0,-0.0,-2551667.0,-0.0,18382620.0,0.0,12162199.0,-6220421.0,0.0
2016-12-31,7731.0,94094.0,-3202670.0,-1865.0,0.0,0.0,-1865.0,2956218.0,2873.0,0.0,2959091.0,0.0,-245444.0,-3204535.0,0.0776
2015-12-31,5000.0,,-3335000.0,-28000.0,,,-28000.0,355040.0,17.0,0.0,1980000.0,,-1382000.0,,0.0776
