,0,1,2,3,4,5,6,7,8,9,10,11,12,13,14,15,16,17,18,19,20,21,22,23,24,25,26,27,28,29,30
Date,Revenue,Revenue Growth,Cost of Revenue,Gross Profit,R&D Expenses,SG&A Expense,Operating Expenses,Operating Income,Interest Expense,Earnings before Tax,Income Tax Expense,Net Income - Non-Controlling int,Net Income - Discontinued ops,Net Income,Preferred Dividends,Net Income Com,EPS,EPS Diluted,Weighted Average Shs Out,Weighted Average Shs Out (Dil),Dividend per Share,Gross Margin,EBITDA Margin,EBIT Margin,Profit Margin,Free Cash Flow margin,EBITDA,EBIT,Consolidated Income,Earnings Before Tax Margin,Net Profit Margin
2018-07-31,4864000.0,-0.0666,,4840000.0,,,,865000.0,,865000.0,,,,,,,0.19,0.19,4635000.0,,,0.9951,,,,,,,,0.1778,
2017-07-31,5211000.0,0.0313,,5184000.0,,,,-525000.0,,-525000.0,,,,,,,-0.11,-0.11,4625000.0,,,0.9948,,,,,,,,-0.1007,
2016-07-31,5053000.0,0.0159,,5026000.0,,,,6998000.0,,6998000.0,,,,,,,1.52,1.52,4613000.0,,,0.9947,,,,,,,,1.3849,
2015-07-31,4974000.0,,,4947000.0,,,,4720000.0,,4720000.0,,,,,,,1.03,1.03,4601000.0,,,0.9946,,,,,,,,0.9489,
