,0,1,2,3,4,5,6,7,8,9,10,11,12,13,14,15,16,17,18,19,20,21,22,23,24,25,26,27,28,29,30
Date,Revenue,Revenue Growth,Cost of Revenue,Gross Profit,R&D Expenses,SG&A Expense,Operating Expenses,Operating Income,Interest Expense,Earnings before Tax,Income Tax Expense,Net Income - Non-Controlling int,Net Income - Discontinued ops,Net Income,Preferred Dividends,Net Income Com,EPS,EPS Diluted,Weighted Average Shs Out,Weighted Average Shs Out (Dil),Dividend per Share,Gross Margin,EBITDA Margin,EBIT Margin,Profit Margin,Free Cash Flow margin,EBITDA,EBIT,Consolidated Income,Earnings Before Tax Margin,Net Profit Margin
2018-12-29,324523000.0,0.254820760882,140429000.0,184094000.0,48188000.0,69323000.0,117607000.0,66487000.0,331000.0,67524000.0,9876000.0,0.0,0.0,57648000.0,0.0,57648000.0,2.39,2.34,24215562.0,24120000.0,0.0,0.5673,0.23,0.2091,0.17800000000000002,0.2983,74701000.0,67855000.0,57648000.0,0.2081,0.1776
2017-12-30,258621000.0,0.16954809183800001,121920000.0,136701000.0,36716000.0,57179000.0,93895000.0,42806000.0,92000.0,43298000.0,13096000.0,0.0,0.0,30202000.0,0.0,30202000.0,1.19,1.17,25594642.0,25334000.0,0.0,0.5286,0.195,0.1678,0.11699999999999999,0.0595,50310000.0,43390000.0,30202000.0,0.1674,0.1168
2016-12-31,221129000.0,0.180191816062,107005000.0,114124000.0,31443000.0,53562000.0,85029000.0,29095000.0,285000.0,29135000.0,-14900000.0,0.0,0.0,44035000.0,0.0,44035000.0,1.79,1.75,24916470.0,24655000.0,0.0,0.5161,0.171,0.133,0.19899999999999998,0.1885,37715000.0,29420000.0,44035000.0,0.1318,0.1991
2015-12-26,187367000.0,0.125712706452,97700000.0,89667000.0,32701000.0,50499000.0,84694000.0,4973000.0,289000.0,5568000.0,2663000.0,0.0,0.0,2905000.0,0.0,2905000.0,0.12,0.12,24188234.0,24059000.0,0.0,0.4786,0.08,0.0313,0.016,-0.0015,14932000.0,5857000.0,2905000.0,0.0297,0.0155
2014-12-27,166443000.0,0.153395192194,90621000.0,75822000.0,33776000.0,51013000.0,87475000.0,-11653000.0,389000.0,-11621000.0,19497000.0,0.0,0.0,-31118000.0,0.0,-31118000.0,-1.3,-1.3,24158015.0,23958000.0,0.0,0.4555,-0.009000000000000001,-0.0675,-0.187,-0.0386,-1465000.0,-11232000.0,-31118000.0,-0.0698,-0.187
2013-12-28,144307000.0,-0.21092404350400001,81631000.0,62676000.0,32714000.0,49230000.0,84385000.0,-21709000.0,651000.0,-23565000.0,-9419000.0,0.0,0.0,-14146000.0,0.0,-14146000.0,-0.61,-0.61,23349469.0,23290000.0,0.0,0.4343,-0.098,-0.1588,-0.098,-0.0563,-14127000.0,-22914000.0,-14146000.0,-0.1633,-0.098
2012-12-29,182881000.0,-0.205076045049,98953000.0,83928000.0,29585000.0,48089000.0,78450000.0,5478000.0,1040000.0,4619000.0,154000.0,0.0,0.0,4465000.0,0.0,4465000.0,0.19,0.19,23404839.0,23358000.0,0.0,0.4589,0.075,0.0309,0.024,0.10400000000000001,13796000.0,5659000.0,4465000.0,0.0253,0.0244
2011-12-31,230061000.0,0.223305771941,107960000.0,122101000.0,23290000.0,49920000.0,76335000.0,45766000.0,1336000.0,44584000.0,15899000.0,0.0,0.0,28685000.0,0.0,28685000.0,1.26,1.22,23064792.0,22743000.0,0.0,0.5307,0.221,0.1996,0.125,0.2229,50903000.0,45920000.0,28685000.0,0.1938,0.1247
2011-01-01,188065000.0,1.45173191495,86673000.0,101392000.0,18973000.0,39937000.0,60068000.0,41324000.0,1556000.0,40689000.0,-15259000.0,0.0,0.0,55948000.0,0.0,55948000.0,2.56,2.43,22218110.0,21855000.0,0.0,0.5391,0.248,0.2246,0.297,0.1331,46640000.0,42245000.0,55948000.0,0.2164,0.2975
2010-01-02,76707000.0,-0.2487,40586000.0,36121000.0,14672000.0,30240000.0,49480000.0,-13359000.0,1658000.0,-16891000.0,-586000.0,0.0,0.0,-16305000.0,0.0,-16305000.0,-0.87,-0.87,18637281.0,18639000.0,0.0,0.4709,-0.11900000000000001,-0.1986,-0.213,-0.0856,-9141000.0,-15233000.0,-16305000.0,-0.2202,-0.2126
