,0,1,2,3,4,5,6,7,8,9,10,11,12,13,14,15,16,17,18,19,20,21,22,23,24,25,26,27,28
Date,Cash and cash equivalents,Short-term investments,Cash and short-term investments,Receivables,Inventories,Total current assets,Property Plant & Equipment Net,Goodwill and Intangible Assets,Long-term investments,Tax assets,Total non-current assets,Total assets,Payables,Short-term debt,Total current liabilities,Long-term debt,Total debt,Deferred revenue,Tax Liabilities,Deposit Liabilities,Total non-current liabilities,Total liabilities,Other comprehensive income,Retained earnings (deficit),Total shareholders equity,Investments,Net Debt,Other Assets,Other Liabilities
2018-12-31,896000.0,0.0,896000.0,239000.0,95000.0,1230000.0,8000.0,0.0,0.0,0.0,350000.0,1580000.0,640000.0,0.0,640000.0,0.0,0.0,0.0,0.0,0.0,477000.0,1117000.0,0.0,-32536000.0,463000.0,0.0,-896000.0,0.0,0.0
2017-12-31,4360000.0,0.0,4360000.0,24000.0,76000.0,4521000.0,6000.0,0.0,0.0,0.0,344000.0,4865000.0,797000.0,0.0,797000.0,0.0,0.0,0.0,0.0,0.0,434000.0,1231000.0,0.0,-28382000.0,3634000.0,0.0,-4360000.0,61000.0,0.0
2016-12-31,106000.0,0.0,106000.0,6000.0,67000.0,221000.0,11000.0,0.0,0.0,0.0,273000.0,494000.0,565000.0,0.0,565000.0,0.0,0.0,0.0,0.0,0.0,2428000.0,2993000.0,0.0,-22576000.0,-2499000.0,0.0,-106000.0,42000.0,0.0
2015-12-31,1614000.0,0.0,1614000.0,5000.0,71000.0,1776000.0,10000.0,0.0,0.0,0.0,207000.0,1983000.0,297000.0,0.0,297000.0,0.0,0.0,0.0,0.0,0.0,1895000.0,2192000.0,0.0,-19734000.0,-209000.0,0.0,-1614000.0,86000.0,0.0
2014-12-31,90000.0,0.0,90000.0,21000.0,35000.0,165000.0,18000.0,0.0,0.0,0.0,558000.0,723000.0,803000.0,4617000.0,5420000.0,0.0,4617000.0,0.0,0.0,0.0,919000.0,6339000.0,0.0,-16850000.0,-5616000.0,0.0,4527000.0,19000.0,0.0
2013-12-31,94000.0,0.0,94000.0,13000.0,65000.0,224000.0,23000.0,0.0,0.0,0.0,467000.0,691000.0,451000.0,3107000.0,3558000.0,0.0,3107000.0,0.0,0.0,0.0,430000.0,3988000.0,0.0,-14203000.0,-3297000.0,0.0,3013000.0,52000.0,0.0
