,0,1,2,3,4,5,6,7,8,9,10,11,12,13,14,15,16,17,18,19,20,21,22,23,24,25,26,27,28,29,30
Date,Revenue,Revenue Growth,Cost of Revenue,Gross Profit,R&D Expenses,SG&A Expense,Operating Expenses,Operating Income,Interest Expense,Earnings before Tax,Income Tax Expense,Net Income - Non-Controlling int,Net Income - Discontinued ops,Net Income,Preferred Dividends,Net Income Com,EPS,EPS Diluted,Weighted Average Shs Out,Weighted Average Shs Out (Dil),Dividend per Share,Gross Margin,EBITDA Margin,EBIT Margin,Profit Margin,Free Cash Flow margin,EBITDA,EBIT,Consolidated Income,Earnings Before Tax Margin,Net Profit Margin
2018-12-31,289016000.0,-0.0273439208995,245423000.0,43593000.0,0.0,12727000.0,82209000.0,-38616000.0,34549000.0,-95227000.0,79000.0,0.0,0.0,-95306000.0,0.0,-95306000.0,-0.67,-0.67,141969666.0,141969666.0,0.16,0.1508,0.0,-0.2099,-0.33,0.2375,17000.0,-60678000.0,-95306000.0,-0.3295,-0.3298
2017-12-31,297141000.0,-0.16872242629099998,230128000.0,67013000.0,0.0,12575000.0,242703000.0,-175690000.0,20464000.0,-204886000.0,83000.0,0.0,0.0,-204969000.0,0.0,-204969000.0,-1.97,-1.97,101969666.0,103832680.0,0.53,0.2255,-0.282,-0.6207,-0.69,-0.0196,-83753000.0,-184422000.0,-204969000.0,-0.6895,-0.6898
2016-12-31,357451000.0,-0.198069269391,206253000.0,151198000.0,0.0,12296000.0,97857000.0,53341000.0,11170000.0,-4354000.0,102000.0,0.0,0.0,-4456000.0,0.0,-4456000.0,-0.05,-0.05,89182001.0,92531001.0,1.37,0.423,0.273,0.0191,-0.012,-0.1698,97705000.0,6816000.0,-4456000.0,-0.0122,-0.0125
2015-12-31,445738000.0,0.269731575934,225245000.0,220493000.0,0.0,9790000.0,92400000.0,128093000.0,10855000.0,114723000.0,96000.0,0.0,0.0,114627000.0,0.0,114627000.0,1.29,1.29,89182001.0,89182001.0,1.38,0.4947,0.467,0.2817,0.257,-0.0286,208188000.0,125578000.0,114627000.0,0.2574,0.2572
2014-12-31,351049000.0,0.440750727457,261930000.0,89119000.0,0.0,14863000.0,93894000.0,-4775000.0,12244000.0,-13119000.0,47000.0,0.0,0.0,-13166000.0,0.0,-13166000.0,-0.15,-0.15,75382001.0,85401179.0,0.74,0.2539,0.22699999999999998,-0.0025,-0.038,-0.0472,79656000.0,-875000.0,-13166000.0,-0.0374,-0.0375
2013-12-31,243657000.0,0.864503145039,238334000.0,5323000.0,0.0,19555000.0,98930000.0,-93607000.0,11518000.0,-105331000.0,86000.0,0.0,0.0,-105417000.0,0.0,-105417000.0,-1.64,-1.64,52915639.0,64101923.0,0.8,0.0218,-0.08,-0.385,-0.433,-0.2303,-19438000.0,-93813000.0,-105417000.0,-0.4323,-0.4326
2012-12-31,130682000.0,0.37869117072999997,102635000.0,28047000.0,0.0,14700000.0,95949000.0,-67902000.0,5854000.0,-79192000.0,0.0,0.0,0.0,-79192000.0,0.0,-79192000.0,-1.39,-1.39,47303394.0,52547623.0,1.2,0.2146,-0.032,-0.5612,-0.606,-0.0253,-4119000.0,-73338000.0,-79192000.0,-0.606,-0.606
2011-12-31,94787000.0,-0.250197759777,69780000.0,25007000.0,0.0,15394000.0,96220000.0,-71213000.0,2130000.0,-72298000.0,0.0,0.0,0.0,-72298000.0,0.0,-72298000.0,-1.53,-1.53,46898782.0,47159402.0,1.15,0.2638,-0.057999999999999996,-0.7403,-0.763,-1.094,-5542000.0,-70168000.0,-72298000.0,-0.7627,-0.7627
2010-12-31,126416000.0,0.0164509125995,47113000.0,79303000.0,0.0,15980000.0,78525000.0,778000.0,1971000.0,-809000.0,0.0,0.0,0.0,-809000.0,0.0,-809000.0,-0.02,-0.02,42204904.0,46551564.0,1.7,0.6273,0.504,0.0092,-0.006,-1.0811,63707000.0,1162000.0,-809000.0,-0.0064,-0.0064
2009-12-31,124370000.0,-0.4545,52098000.0,72272000.0,0.0,14819000.0,69854000.0,2418000.0,1794000.0,1012000.0,0.0,0.0,0.0,1012000.0,0.0,1012000.0,0.03,0.03,34373271.0,40449522.0,2.35,0.5811,0.465,0.0226,0.008,-0.9333,57841000.0,2806000.0,1012000.0,0.0081,0.0081
