,0,1,2,3,4,5,6,7,8,9,10,11,12,13,14
Date,Depreciation & Amortization,Stock-based compensation,Operating Cash Flow,Capital Expenditure,Acquisitions and disposals,Investment purchases and sales,Investing Cash flow,Issuance (repayment) of debt,Issuance (buybacks) of shares,Dividend payments,Financing Cash Flow,Effect of forex changes on cash,Net cash flow / Change in cash,Free Cash Flow,Net Cash/Marketcap
2019-10-31,212000000.0,23000000.0,450000000.0,134000000.0,-0.0,0.0,-68000000.0,-1360000000.0,-1370000000.0,-24000000.0,-258000000.0,-12000000.0,112000000.0,316000000.0,0.0
2018-10-31,242000000.0,32000000.0,269000000.0,113000000.0,-0.0,-251000000.0,-59000000.0,-3284000000.0,-1320000000.0,-27000000.0,414000000.0,-10000000.0,614000000.0,156000000.0,0.0
2017-10-31,272000000.0,28000000.0,109000000.0,102000000.0,-0.0,-1011000000.0,-542000000.0,-825000000.0,-450000000.0,-26000000.0,338000000.0,-3000000.0,-98000000.0,7000000.0,0.0
2016-10-31,262000000.0,16000000.0,267000000.0,116000000.0,-0.0,-485000000.0,-67000000.0,-664000000.0,-804000000.0,-34000000.0,-353000000.0,45000000.0,-108000000.0,151000000.0,0.0
2015-10-31,318000000.0,10000000.0,46000000.0,119000000.0,-0.0,-887000000.0,316000000.0,-1493000000.0,-912000000.0,-36000000.0,98000000.0,-45000000.0,415000000.0,-73000000.0,0.0
2014-10-31,381000000.0,16000000.0,-336000000.0,88000000.0,-0.0,-1812000000.0,-101000000.0,-1008000000.0,0.0,-50000000.0,179000000.0,-26000000.0,-258000000.0,-424000000.0,0.0
2013-10-31,474000000.0,24000000.0,100000000.0,167000000.0,-0.0,-364000000.0,-825000000.0,-1308000000.0,14000000.0,-47000000.0,393000000.0,-15000000.0,-332000000.0,-67000000.0,0.0
2012-10-31,369000000.0,19000000.0,610000000.0,323000000.0,-12000000.0,177000000.0,1000000.0,-2627000000.0,117000000.0,-56000000.0,-63000000.0,3000000.0,548000000.0,287000000.0,0.0
2011-10-31,372000000.0,36000000.0,880000000.0,455000000.0,12000000.0,-257000000.0,-826000000.0,-815000000.0,-125000000.0,-53000000.0,-100000000.0,-3000000.0,-46000000.0,425000000.0,0.0
2010-10-31,354000000.0,24000000.0,1107000000.0,249000000.0,-2000000.0,-586000000.0,-434000000.0,-2462000000.0,-585000000.0,-57000000.0,-1300000000.0,0.0,-627000000.0,858000000.0,0.0
2009-10-31,344000000.0,16000000.0,1238000000.0,-191000000.0,-14000000.0,73000000.0,-212000000.0,-690000000.0,-16000000.0,0.0,-764000000.0,9000000.0,271000000.0,1047000000.0,-1.5253
