,0,1,2,3,4,5,6,7,8,9,10,11,12,13,14
Date,Depreciation & Amortization,Stock-based compensation,Operating Cash Flow,Capital Expenditure,Acquisitions and disposals,Investment purchases and sales,Investing Cash flow,Issuance (repayment) of debt,Issuance (buybacks) of shares,Dividend payments,Financing Cash Flow,Effect of forex changes on cash,Net cash flow / Change in cash,Free Cash Flow,Net Cash/Marketcap
2019-03-31,,,164000000.0,,,,,,,,-165000000.0,,-152000000000.0,,
2018-03-31,,,33000000.0,,,,,,,,-33000000.0,,-39000000000.0,,
2017-03-31,,,39000000.0,,,,,,,,-39000000.0,,39000000000.0,,
2016-03-31,,,40000000.0,,,,,,,,-40000000.0,,0.0,,
