,0,1,2,3,4,5,6,7,8,9,10,11,12,13,14,15,16,17,18,19,20,21,22,23,24,25,26,27,28,29,30
Date,Revenue,Revenue Growth,Cost of Revenue,Gross Profit,R&D Expenses,SG&A Expense,Operating Expenses,Operating Income,Interest Expense,Earnings before Tax,Income Tax Expense,Net Income - Non-Controlling int,Net Income - Discontinued ops,Net Income,Preferred Dividends,Net Income Com,EPS,EPS Diluted,Weighted Average Shs Out,Weighted Average Shs Out (Dil),Dividend per Share,Gross Margin,EBITDA Margin,EBIT Margin,Profit Margin,Free Cash Flow margin,EBITDA,EBIT,Consolidated Income,Earnings Before Tax Margin,Net Profit Margin
2018-12-31,495520000.0,1.07087064999,136368000.0,359152000.0,0.0,24250000.0,26056000.0,183300000.0,10492000.0,189097000.0,221000.0,0.0,0.0,162734000.0,-5836000.0,162734000.0,3.96,3.96,23686000.0,23686000.0,0.390821582369,0.7247981917990001,0.501723442041,0.369914433323,0.328410558605,-0.759981433645,248614000.0,183300000.0,162734000.0,0.381613254763,0.328410558605
2017-12-31,239281000.0,0.488769567706,0.0,0.0,0.0,13396000.0,13396000.0,158925000.0,1603000.0,163656000.0,20000.0,0.0,0.0,140572000.0,-835000.0,140572000.0,4.1,4.1,18192000.0,18192000.0,1.19486587511,0.0,0.718310271187,0.664177264388,0.587476648794,-0.536770575181,171878000.0,158925000.0,140572000.0,0.683948997204,0.587476648794
2016-12-31,160724000.0,0.8297983765379999,0.0,0.0,0.0,9914000.0,9914000.0,112637000.0,3373000.0,113790000.0,28288000.0,0.0,0.0,85502000.0,0.0,85502000.0,0.0,0.0,14375000.0,14375000.0,0.699617391304,0.0,0.75721734153,0.7008100843680001,0.531980289191,0.48117269356200004,121703000.0,112637000.0,85502000.0,0.707983872975,0.531980289191
2015-12-31,87837000.0,41.1078619367,16933000.0,70904000.0,0.0,2771000.0,9662000.0,61242000.0,4595000.0,61268000.0,23226000.0,0.0,0.0,38042000.0,0.0,38042000.0,1.2,1.2,32000000.0,,0.0,0.8072,0.828,0.7498,0.433,0.1837,72754000.0,65863000.0,38042000.0,0.6975,0.4331
2014-12-31,2086000.0,,8538000.0,-6452000.0,0.0,6734000.0,18049000.0,-24501000.0,3566000.0,-24269000.0,-9178000.0,0.0,0.0,-15091000.0,0.0,-15091000.0,,,,,0.0,-3.093,-4.5,-9.9247,-7.234,-44.5829,-9388000.0,-20703000.0,-15091000.0,-11.6342,-7.2344
