,0,1,2,3,4,5,6,7,8,9,10,11,12,13,14,15,16,17,18,19,20,21,22,23,24,25,26,27,28
Date,Cash and cash equivalents,Short-term investments,Cash and short-term investments,Receivables,Inventories,Total current assets,Property Plant & Equipment Net,Goodwill and Intangible Assets,Long-term investments,Tax assets,Total non-current assets,Total assets,Payables,Short-term debt,Total current liabilities,Long-term debt,Total debt,Deferred revenue,Tax Liabilities,Deposit Liabilities,Total non-current liabilities,Total liabilities,Other comprehensive income,Retained earnings (deficit),Total shareholders equity,Investments,Net Debt,Other Assets,Other Liabilities
2019-12-31,86019000.0,175000.0,86194000.0,2744000.0,682000.0,91170000.0,2474000.0,91000.0,0.0,430000.0,2943000.0,94113000.0,4673000.0,0.0,16639000.0,34502000.0,34502000.0,86500000.0,0.0,0.0,36200000.0,52839000.0,517044000.0,-476742000.0,41274000.0,175000.0,-51517000.0,0.0,0.0
2018-12-31,102003000.0,225000.0,102228000.0,1500000.0,0.0,108753000.0,1139000.0,98000.0,0.0,84000.0,1665000.0,110418000.0,3304000.0,0.0,17806000.0,23718000.0,23718000.0,0.0,0.0,0.0,23982000.0,41788000.0,461911000.0,-393978000.0,68630000.0,225000.0,-78285000.0,0.0,0.0
2017-12-31,86769000.0,110000.0,86879000.0,231000.0,0.0,93839000.0,1327000.0,172000.0,0.0,137000.0,1924000.0,95763000.0,5136000.0,0.0,13260000.0,232000.0,232000.0,0.0,0.0,0.0,435000.0,13695000.0,361239000.0,-279198000.0,82068000.0,110000.0,-86537000.0,0.0,0.0
2016-12-31,32778000.0,51106000.0,83884000.0,144000.0,0.0,90621000.0,519000.0,270000.0,0.0,1410000.0,2619000.0,93240000.0,2551000.0,0.0,15877000.0,0.0,0.0,0.0,18000.0,0.0,1517000.0,15984000.0,279149000.0,-204842000.0,77256000.0,51106000.0,-32778000.0,0.0,0.0
2015-12-31,36446000.0,74994000.0,111440000.0,4625000.0,0.0,116245000.0,417000.0,3000.0,0.0,616000.0,1466000.0,117711000.0,2928000.0,0.0,8921000.0,0.0,0.0,0.0,170000.0,0.0,84000.0,9005000.0,3829000.0,-171426000.0,108706000.0,74994000.0,-111440000.0,180000.0,5993000.0
