,0,1,2,3,4,5,6,7,8,9,10,11,12,13,14
Date,Depreciation & Amortization,Stock-based compensation,Operating Cash Flow,Capital Expenditure,Acquisitions and disposals,Investment purchases and sales,Investing Cash flow,Issuance (repayment) of debt,Issuance (buybacks) of shares,Dividend payments,Financing Cash Flow,Effect of forex changes on cash,Net cash flow / Change in cash,Free Cash Flow,Net Cash/Marketcap
2019-09-30,222816.0,9785083.0,-2845488.0,509200.0,-0.0,-14.0,-685225.0,-0.0,8268143.0,-0.0,13595079.0,0.0,10313966.0,-3354688.0,0.0
2018-09-30,1124569.0,877751.0,-9492423.0,0.0,-0.0,0.0,528038.0,-0.0,-3750436.0,-0.0,-86264.0,0.0,3750436.0,-9492423.0,0.0
2017-09-30,1165689.0,1293932.0,-19290972.0,4833.0,-0.0,0.0,88452.0,-0.0,6780651.0,-0.0,19456715.0,0.0,12800000.0,-19295805.0,0.0
2016-09-30,1189276.0,2913626.0,-15985889.0,14510.0,-0.0,0.0,-14510.0,-0.0,-12546890.0,-0.0,-150034.0,0.0,-16150433.0,-16000399.0,0.0
2015-09-30,1179254.0,3579788.0,-10692985.0,184951.0,-0.0,0.0,-284951.0,-0.0,26582998.0,-0.0,26454765.0,0.0,15476829.0,-10877936.0,0.0
2014-09-30,466306.0,2074487.0,-5360132.0,3500000.0,-0.0,0.0,-3514869.0,-0.0,0.0,-0.0,16972600.0,0.0,8097599.0,-8860132.0,0.0
2013-09-30,91145.0,746262.0,-2689687.0,0.0,-0.0,0.0,-2490482.0,-0.0,0.0,-0.0,5180169.0,0.0,0.0,-2689687.0,0.0
2012-09-30,0.0,0.0,0.0,0.0,-0.0,0.0,0.0,-0.0,0.0,-0.0,0.0,0.0,0.0,0.0,0.0
2011-09-30,0.0,0.0,0.0,0.0,-0.0,0.0,0.0,-0.0,0.0,-0.0,0.0,0.0,0.0,0.0,0.0
2010-09-30,850.0,230041.0,-521785.0,-25018.0,0.0,0.0,-25018.0,-381387.0,1005000.0,0.0,623613.0,0.0,76810.0,-546803.0,0.0399
