,0,1,2,3,4,5,6,7,8,9,10,11,12,13,14
Date,Depreciation & Amortization,Stock-based compensation,Operating Cash Flow,Capital Expenditure,Acquisitions and disposals,Investment purchases and sales,Investing Cash flow,Issuance (repayment) of debt,Issuance (buybacks) of shares,Dividend payments,Financing Cash Flow,Effect of forex changes on cash,Net cash flow / Change in cash,Free Cash Flow,Net Cash/Marketcap
2019-12-31,16961000.0,4210000.0,153463000.0,6647000.0,-0.0,46818000.0,-64343000.0,-20111000.0,-216843000.0,-46010000.0,-53232000.0,0.0,216843000.0,146816000.0,0.0
2018-12-31,13322000.0,3936000.0,147773000.0,7402000.0,-7884000.0,228313000.0,-417619000.0,-40145000.0,0.0,-43269000.0,291137000.0,0.0,21291000.0,140371000.0,0.0
2017-12-31,13016000.0,3644000.0,136904000.0,6691000.0,-4000000.0,290613000.0,-305193000.0,-40218000.0,0.0,-40104000.0,178772000.0,0.0,10483000.0,130213000.0,0.0
2016-12-31,12951000.0,4378000.0,109510000.0,3308000.0,-2000000.0,307588000.0,-489663000.0,-50240000.0,-17193000.0,-38880000.0,529334000.0,0.0,149181000.0,106202000.0,0.0
2015-12-31,10956000.0,4086000.0,124543000.0,8193000.0,-0.0,272505000.0,-504004000.0,-498000.0,-26797000.0,-38149000.0,373122000.0,0.0,140297000.0,116350000.0,0.0
2014-12-31,10155000.0,3521000.0,87811000.0,9003000.0,-0.0,236061000.0,-143741000.0,-315831000.0,-72000.0,-36905000.0,43640000.0,0.0,-12290000.0,78808000.0,0.0
2013-12-31,7762000.0,4305000.0,119298000.0,5766000.0,-0.0,364050000.0,-183754000.0,-163595000.0,-12459000.0,-33518000.0,59714000.0,0.0,-4742000.0,113532000.0,0.0
2012-12-31,7262000.0,4364000.0,88854000.0,6994000.0,-0.0,558338000.0,-126850000.0,-3354000.0,-15490000.0,-26712000.0,72283000.0,0.0,34287000.0,81860000.0,0.0
2011-12-31,6912000.0,3244000.0,83765000.0,9954000.0,-0.0,511053000.0,-175498000.0,-2146000.0,-30502000.0,-27063000.0,52322000.0,0.0,-39411000.0,73811000.0,0.0
2010-12-31,9867000.0,3782000.0,89437000.0,6510000.0,-0.0,511394000.0,58494000.0,-184824000.0,-168792000.0,-27577000.0,-166300000.0,0.0,-18369000.0,82927000.0,0.0
2009-12-31,8644000.0,3133000.0,54684000.0,-6378000.0,0.0,-23124000.0,-28448000.0,-128026000.0,36129000.0,-27119000.0,50529000.0,0.0,76765000.0,48306000.0,-0.015
