,0,1,2,3,4,5,6,7,8,9,10,11,12,13,14
Date,Depreciation & Amortization,Stock-based compensation,Operating Cash Flow,Capital Expenditure,Acquisitions and disposals,Investment purchases and sales,Investing Cash flow,Issuance (repayment) of debt,Issuance (buybacks) of shares,Dividend payments,Financing Cash Flow,Effect of forex changes on cash,Net cash flow / Change in cash,Free Cash Flow,Net Cash/Marketcap
2018-12-31,-372000.0,2097000.0,57843000.0,8233000.0,47858000.0,55907000.0,-145494000.0,-94000.0,-217130000.0,-2162000.0,69494000.0,0.0,-18158000.0,49610000.0,0.0
2018-12,0.0,2000000.0,,,,-164000000.0,-145000000.0,,,,69000000.0,,-18000000.0,,
2017-12-31,-386000.0,1684000.0,45670000.0,18732000.0,12710000.0,22627000.0,-268387000.0,860000.0,-235288000.0,-1868000.0,240712000.0,0.0,17995000.0,26938000.0,0.0
2017-12,0.0,2000000.0,,,,-48000000.0,-268000000.0,,,,241000000.0,,18000000.0,,
2016-12-31,1065000.0,1226000.0,29482000.0,2848000.0,-0.0,33092000.0,-187161000.0,-0.0,-217293000.0,-1627000.0,162515000.0,0.0,4836000.0,26634000.0,0.0
2016-12,1000000.0,1000000.0,,,,-59000000.0,-187000000.0,,,,163000000.0,,5000000.0,,
2015-12,3000000.0,1000000.0,,,,-39000000.0,-225000000.0,,,,289000000.0,,89000000.0,,
2014-12,1000000.0,0.0,,,,-2000000.0,-18000000.0,,,,13000000.0,,-1000000.0,,
