,0,1,2,3,4,5,6,7,8,9,10,11,12,13,14
Date,Depreciation & Amortization,Stock-based compensation,Operating Cash Flow,Capital Expenditure,Acquisitions and disposals,Investment purchases and sales,Investing Cash flow,Issuance (repayment) of debt,Issuance (buybacks) of shares,Dividend payments,Financing Cash Flow,Effect of forex changes on cash,Net cash flow / Change in cash,Free Cash Flow,Net Cash/Marketcap
2019-12-31,333000000.0,107000000.0,628000000.0,91000000.0,-203000000.0,-96000000.0,-527000000.0,-1661000000.0,-96000000.0,-0.0,-31000000.0,-6000000.0,509000000.0,537000000.0,0.0
2018-12-31,330000000.0,72000000.0,572000000.0,143000000.0,-206000000.0,-210000000.0,-520000000.0,-50000000.0,-210000000.0,-0.0,-58000000.0,-25000000.0,464000000.0,429000000.0,0.0
2017-12-31,354000000.0,77000000.0,755000000.0,128000000.0,-8000000.0,-350000000.0,-290000000.0,-57000000.0,-350000000.0,-0.0,-434000000.0,16000000.0,39000000.0,627000000.0,0.0
2016-12-31,344000000.0,61000000.0,894000000.0,73000000.0,-0.0,-250000000.0,-189000000.0,-89000000.0,-250000000.0,-0.0,-467000000.0,-29000000.0,170000000.0,821000000.0,0.0
2015-12-31,308000000.0,42000000.0,681000000.0,79000000.0,-0.0,-1005000000.0,-209000000.0,-391000000.0,-1005000000.0,-0.0,-583000000.0,-29000000.0,-183000000.0,602000000.0,0.0
2014-12-31,284000000.0,31000000.0,524000000.0,118000000.0,-1647000000.0,0.0,-788000000.0,-37000000.0,-511000000.0,-0.0,284000000.0,-36000000.0,-17000000.0,406000000.0,0.0
2013-12-31,208000000.0,41000000.0,281000000.0,116000000.0,-780000000.0,0.0,-2105000000.0,-1000000.0,0.0,-3000000.0,1357000000.0,-22000000.0,-541000000.0,165000000.0,0.0
2012-12-31,166000000.0,49000000.0,-180000000.0,80000000.0,-108000000.0,0.0,-256000000.0,-0.0,0.0,-1000000.0,1131000000.0,-9000000.0,671000000.0,-260000000.0,0.0
2011-12-31,168000000.0,33000000.0,375000000.0,101000000.0,-1087000000.0,-70000000.0,-1246000000.0,-0.0,-70000000.0,-1000000.0,802000000.0,-5000000.0,-98000000.0,274000000.0,0.0
2010-12-31,0.0,0.0,0.0,0.0,-0.0,0.0,45000000.0,-0.0,-496000000.0,-0.0,0.0,0.0,45000000.0,0.0,0.0
2009-12-31,128000000.0,12000000.0,260000000.0,-171000000.0,0.0,0.0,-203000000.0,-296000000.0,8000000.0,0.0,-288000000.0,8000000.0,-260000000.0,89000000.0,0.2461
