,0,1,2,3,4,5,6,7,8,9,10,11,12,13,14,15,16,17,18,19,20,21,22,23,24,25,26,27,28
Date,Cash and cash equivalents,Short-term investments,Cash and short-term investments,Receivables,Inventories,Total current assets,Property Plant & Equipment Net,Goodwill and Intangible Assets,Long-term investments,Tax assets,Total non-current assets,Total assets,Payables,Short-term debt,Total current liabilities,Long-term debt,Total debt,Deferred revenue,Tax Liabilities,Deposit Liabilities,Total non-current liabilities,Total liabilities,Other comprehensive income,Retained earnings (deficit),Total shareholders equity,Investments,Net Debt,Other Assets,Other Liabilities
2018-12,144000000.0,3000000.0,3000000.0,439000000.0,537000000.0,3937000000.0,614000000.0,3310000000.0,,1000000.0,3531000000.0,5141000000.0,221000000.0,26000000.0,650000000.0,3085000000.0,3085000000.0,0.0,296000000.0,,3531000000.0,4181000000.0,-11000000.0,-266000000.0,960000000.0,,2967000000.0,24000000.0,223000000.0
2018-10,54000000.0,5000000.0,5000000.0,233000000.0,255000000.0,520000000.0,236000000.0,276000000.0,,1000000.0,444000000.0,1110000000.0,171000000.0,5000000.0,336000000.0,403000000.0,403000000.0,21000000.0,2000000.0,,444000000.0,780000000.0,-7000000.0,-186000000.0,330000000.0,,354000000.0,16000000.0,104000000.0
2017-10,66000000.0,6000000.0,6000000.0,200000000.0,198000000.0,518000000.0,227000000.0,285000000.0,,0.0,430000000.0,1051000000.0,148000000.0,0.0,316000000.0,387000000.0,387000000.0,28000000.0,24000000.0,,430000000.0,746000000.0,-8000000.0,-248000000.0,305000000.0,,321000000.0,14000000.0,77000000.0
2016-10,65000000.0,6000000.0,6000000.0,182000000.0,187000000.0,553000000.0,242000000.0,301000000.0,,0.0,450000000.0,1058000000.0,143000000.0,0.0,327000000.0,404000000.0,404000000.0,28000000.0,25000000.0,,450000000.0,777000000.0,-11000000.0,-303000000.0,281000000.0,,339000000.0,16000000.0,94000000.0
2015-10,100000000.0,6000000.0,6000000.0,167000000.0,158000000.0,583000000.0,258000000.0,314000000.0,,0.0,486000000.0,1080000000.0,146000000.0,1000000.0,322000000.0,444000000.0,444000000.0,0.0,21000000.0,,486000000.0,808000000.0,-8000000.0,-354000000.0,272000000.0,,345000000.0,18000000.0,83000000.0
