,0,1,2,3,4,5,6,7,8,9,10,11,12,13,14,15,16,17,18,19,20,21,22,23,24,25,26,27,28
Date,Cash and cash equivalents,Short-term investments,Cash and short-term investments,Receivables,Inventories,Total current assets,Property Plant & Equipment Net,Goodwill and Intangible Assets,Long-term investments,Tax assets,Total non-current assets,Total assets,Payables,Short-term debt,Total current liabilities,Long-term debt,Total debt,Deferred revenue,Tax Liabilities,Deposit Liabilities,Total non-current liabilities,Total liabilities,Other comprehensive income,Retained earnings (deficit),Total shareholders equity,Investments,Net Debt,Other Assets,Other Liabilities
2018-12-31,615983.9363,0.0,615983.9363,3271893.6324,0.0,4777716.4978,3454073.0825,9057837.3372,6543577.1346,0.0,19055487.5543,23833204.0521,15902358.0318,70581551.809,131465089.2909,0.0,70581551.809,5758476.8452,426784.6599,0.0,0.0,131465089.2909,-1332063.097,-467881485.2388,-102984358.0318,6543577.1346,69965567.8727,912206.906,44981179.4501
2017-12-31,21557439.5405,0.0,21557439.5405,1995569.5284,0.0,27677204.0508,4117695.2842,9750690.1451,7291952.5393,0.0,21160337.9686,48837542.0193,19055135.8827,55820191.8077,123858124.2443,0.0,55820191.8077,8031259.2201,259218.8634,0.0,0.0,123858124.2443,-2485753.9299,-455859754.6856,-71613926.2394,7291952.5393,,,48982796.5539
2016-12-31,5597995.1044,0.0,5597995.1044,5404524.694,0.0,12676488.9849,4807026.7819,9565367.3146,23475522.1022,0.0,37847916.1987,50524405.1836,20769169.0425,15481262.347000001,82613250.252,33466709.1433,48947971.4903,6138781.8575,40891.8647,0.0,33466709.1433,116079959.3952,371781.5695,-417250149.3161,-48900908.2793,23475522.1022,,,46362818.8625
2015-12-31,7550537.8216,0.0,7550537.8216,2893919.5810000002,0.0,11902345.0932,5503857.495,24275391.4651,41217022.6467,0.0,70996271.6068,82898616.7,21350225.6971,0.0,65932217.532,25713928.6705,25713928.6705,2858144.6618,961662.3016,0.0,26590635.6494,92522853.1813,-519579.1095,-354956200.5854,-30405545.5246,41217022.6467,,,44581991.8349
2014-12-31,29299693.2515,0.0,29299693.2515,2871825.7992,0.0,41306660.4779,7215795.7701,28666240.071,6332567.8076,0.0,42214603.6487,83521264.1266,13294152.7284,0.0,47883549.7255,0.0,0.0,3299154.3429,1016283.1773,0.0,3931970.9396,51815520.6652,-1394672.9093,-322762729.0927,15826065.2244,6332567.8076,,,34589396.9971
2013-12-31,25995252.3904,0.0,25995252.3904,3901029.5087,0.0,35948275.6347,10966020.9364,34709674.2499,8382482.8553,0.0,54173575.3379,90121850.9726,26352152.1596,0.0,54416819.6505,0.0,0.0,3315736.2348,1085049.7857,0.0,4360958.9515,58777778.602,-1481543.1916,-315293418.0679,42980157.7646,8382482.8553,,,28064667.4909
2012-12-31,89002047.4663,140691.1482,89142738.6145,2840956.2219,0.0,106577270.3656,20127018.9224,38354100.8659,13198090.4426,0.0,71797548.7492,178374819.1148,26174283.3547,0.0,50948133.7396,0.0,0.0,3248128.127,1548586.9147,0.0,7283718.0885,58231851.8281,-1076165.9718,-222307296.6645,125956740.3784,13338781.5908,,,24773850.3849
2011-12-31,170007269.6701,0.0,170007269.6701,2128912.7538,0.0,185384835.6599,9599146.7322,38953870.717,12435476.3642,0.0,73005721.4467,258390557.1066,28407805.8376,0.0,49417035.8503,0.0,0.0,2643050.6028,1795625.3173,0.0,10396241.9099,59813277.7602,-946709.3909,-138373447.0178,200314198.2868,12435476.3642,,,21009230.0127
2010-12-31,214574135.4545,0.0,214574135.4545,9510113.0303,0.0,236583819.2424,8797191.5152,16083803.1818,11339956.0606,0.0,44831238.9394,281415058.1818,14602896.9697,0.0,47927086.2121,0.0,0.0,2804268.0303,1703274.5455,0.0,879370.9091,48806457.1212,-317681.5152,-89087315.0,231994661.5152,11339956.0606,,,33324189.2424
2009-12-31,245361263.366,0.0,245361263.366,6761788.0475,0.0,264068691.0795,11128929.2515,19262653.1419,45233063.5711,1084968.6539,76484627.6549,340553318.7344,14336097.4074,0.0,45628812.9486,0.0,0.0,1601503.4422,922874.6155,0.0,0.0,45628812.9486,0.0,-12943413.6517,294620768.1266,45233063.5711,,,31292715.5412
