,0,1,2,3,4,5,6,7,8,9,10,11,12,13,14,15,16,17,18,19,20,21,22,23,24,25,26,27,28,29,30
Date,Revenue,Revenue Growth,Cost of Revenue,Gross Profit,R&D Expenses,SG&A Expense,Operating Expenses,Operating Income,Interest Expense,Earnings before Tax,Income Tax Expense,Net Income - Non-Controlling int,Net Income - Discontinued ops,Net Income,Preferred Dividends,Net Income Com,EPS,EPS Diluted,Weighted Average Shs Out,Weighted Average Shs Out (Dil),Dividend per Share,Gross Margin,EBITDA Margin,EBIT Margin,Profit Margin,Free Cash Flow margin,EBITDA,EBIT,Consolidated Income,Earnings Before Tax Margin,Net Profit Margin
2018-12-31,2522700.1447,-0.7718316659960001,2378522.4313,144177.7135,3553590.1592,13300889.8698,16821261.7945,-16677084.080999998,15163049.7829,-31417210.7091,0.0,2710116.2084,0.0,-31417210.7091,0.0,-31417210.7091,-1.8017,-1.8017,13977413.7482,8989111.4327,0.0,0.0572,-0.9022,-6.4432,-1.8023,-5.8138,-15725903.1838,-16254160.9262,-34628769.3198,-12.4538,-12.4538
2017-12-31,11056311.3664,0.366317757841,3594627.2672,7461684.0992,6818681.3785,17822649.4861,24588435.7618,-17126751.6626,12684733.9782,-17860618.1983,0.0,9552475.2116,0.0,-17860618.1983,0.0,-17860618.1983,-2.3761,-2.3761,8658393.1378,5052365.1753,0.0,0.6749,-0.0599,-0.4681,-0.2441,-1.1868,-4374938.1802,-5175884.2201,-16942700.5744,-1.6154,-1.6154
2016-12-31,8092049.82,0.131738613176,6986145.2844,1105904.5356,11229864.3629,21646435.2772,43669807.6314,-42563903.0958,8131261.1951,-86373055.5796,-875346.5803,1379673.4341,0.0,-85497708.9993,0.0,-85497708.9993,-12.2419,-12.2419,5368456.2995,3437595.6803,0.0,0.1367,-1.3474,-9.669,-1.5214,-3.2293,-75726419.8704,-78241794.3844,-96053267.8186,-10.6738,-10.5656
2015-12-31,7150104.9145,-0.310984878835,10436603.7591,-3286498.8446,20804626.2517,25182718.3793,47528416.5768,-50814915.4214,985547.9895,-46961693.7298,0.0,4691432.9071,0.0,-46961693.7298,0.0,-46961693.7298,-7.6491,-7.6491,4434436.7586,3579702.3571,0.0,-0.4596,-0.8888,-6.4301,-1.0119,-4.0053,-41246457.0944,-45976145.7403,-54565085.3489,-6.568,-6.568
2014-12-31,10377283.0158,-0.399208241209,13849300.7749,-3472017.7591,25226515.3374,26302123.0223,49196233.1288,-52668250.888000004,0.0,-13984899.9031,0.0,-3429640.62,0.0,-13984899.9031,0.0,-13984899.9031,-2.2522,-2.2522,4647066.3545,3739860.3487,0.0,-0.3346,-0.1057,-1.3476,-0.2176,-4.2173,-6797287.5363,-13984899.9031,-20817308.3629,-1.3476,-1.3476
2013-12-31,17272678.700999998,-0.302533422623,17771737.5536,-499058.8526,35153901.5826,45933207.0557,86914032.8058,-87413091.6584,0.0,-86755946.5875,0.0,-6042702.4398,0.0,-86755946.5875,0.0,-86755946.5875,-11.2315,-11.2315,4745125.1236,3820445.5984,0.0,-0.0289,-0.7618,-5.0227,-0.8281,-3.4787,-79823665.0181,-86755946.5875,-92798649.0274,-5.0227,-5.0227
2012-12-31,24764883.7396,0.467596206349,11131435.3752,13633448.3643,48343664.3682,57311500.4811,105727188.4221,-92093740.0577,0.0,-82424966.6453,0.0,-7348305.4843,0.0,-82424966.6453,0.0,-82424966.6453,-10.093,-10.093,4615767.9602,3927845.7344,0.0,0.5505,-0.5016,-3.3283,-0.5337,-3.3634,-77465213.4381,-82424966.6453,-89773272.1296,-3.3283,-3.3283
2011-12-31,16874453.3629,0.082983296236,6205265.3871,10669187.9759,33648783.3122,42062499.8414,71588027.4429,-60918839.467,0.0,-45103072.0178,26.1739,-4575829.4734,0.0,-45103098.1916,0.0,-45103098.1916,-5.4204,-5.4204,4681590.2602,3958787.5952,0.0,0.6323,-0.3988,-2.6729,-0.424,-2.9795,-42426458.1218,-45103072.0178,-49678927.665,-2.6729,-2.6729
2010-12-31,15581453.0303,-0.8601283859919999,15644900.4545,-63447.4242,21126007.4242,26664190.6061,53540115.0,-53603562.4242,0.0,-74582359.697,1116366.6667,-2893807.4242,0.0,-75698726.3636,0.0,-75698726.3636,-9.0409,-9.0409,3865567.4242,3806315.0,0.0,-0.0041,-0.6753,-4.7866,-0.7361,-2.469,-69450666.9697,-74582359.697,-78592533.7879,-4.7866,-4.8583
2009-12-31,111398250.0366,-0.5558,104361029.8814,7037220.1553,16763373.6634,49446173.429,77762446.3161,-70725226.1608,0.0,-60156477.6622,-810878.2774,-700047.7516,0.0,-59345599.3848,0.0,-59345599.3848,-7.0045,-7.0045,4105452.1752,3722662.9559,0.4878,0.0632,-0.0458,-0.54,-0.0781,-0.1657,-34887654.6067,-60156477.6622,-60045647.1364,-0.54,-0.5327
