,0,1,2,3,4,5,6,7,8,9,10,11,12,13,14
Date,Depreciation & Amortization,Stock-based compensation,Operating Cash Flow,Capital Expenditure,Acquisitions and disposals,Investment purchases and sales,Investing Cash flow,Issuance (repayment) of debt,Issuance (buybacks) of shares,Dividend payments,Financing Cash Flow,Effect of forex changes on cash,Net cash flow / Change in cash,Free Cash Flow,Net Cash/Marketcap
2018-12-31,528257.7424,564157.453,-14645517.5109,-20965.123,0.0,-2484888.712,-2505853.835,-4252910.7091,0.0,0.0,-2656586.2518,-216292.9088,-20024250.5065,-14666482.6339,
2017-12-31,800946.0399,5748142.8356,-13097288.6941,-24559.5526,0.0,24499076.3301,24474516.7775,-7535821.3422,0.0,0.0,6661643.4401,684389.0568,15681067.7146,-13121848.2467,
2016-12-31,2515374.514,4039126.7099,-25884566.7387,-246807.0554,0.0,-237928.2937,-1437791.7927,-1409700.7919,308502.3758,0.0,27371107.5594,-1507707.2714,-1458958.2433,-26131373.7941,
2015-12-31,4729688.6458,5239197.1961,-27050807.2716,-1587325.2195,1876186.7201,-32486648.7444,-32197787.2439,37311932.676,0.0,0.0,39737626.7139,-897560.7765,-20408528.577999998,-28638132.4911,
2014-12-31,7187612.3668,592880.2067,-43444850.8234,-319515.6603,26431346.3029,5378614.4656,31926350.8234,-3143340.8137,131197.1263,0.0,16180440.7491,-707291.2496,3954649.4995,-43764366.4837,
2013-12-31,6932281.5694,4819883.9433,-58946527.5305,-1139308.1108,0.0,732158.9186,-483318.1668,-2307169.9637,-4076203.7587,0.0,-6377999.0109,313019.7824,-65494824.9258,-60085835.6413,
2012-12-31,4959753.2072,5993966.3246,-78446129.4099,-4848271.3278,-1028388.5504,3635325.3688,-3555567.9923,0.0,12521.0071,0.0,-1136088.0372,160393.0404,-82977392.39899999,-83294400.7377,
2011-12-31,2676613.8959,8450431.4721,-42971853.4264,-7304959.5495,0.0,10245523.0013,-6549979.8541,0.0,-3231326.1421,0.0,-3421843.4327,-1698370.5584,-54642047.2716,-50276812.9759,
2010-12-31,5131692.7273,4572714.697,-37507816.5152,-963139.5455,-1472703.1818,-3122015.1515,-1077924.3939,0.0,12879.3939,0.0,-76828.6364,-563498.7879,-39226068.3333,-38470956.0606,
2009-12-31,25268823.0555,10434494.9465,-15539124.5056,-2917855.7199,0.0,4034308.0416,-2384004.9802,0.0,-22780095.6496,-29446093.013,-52226188.6627,205824.8132,-69943493.3353,-18456980.2256,
