,0,1,2,3,4,5,6,7,8,9,10,11,12,13,14
Date,Depreciation & Amortization,Stock-based compensation,Operating Cash Flow,Capital Expenditure,Acquisitions and disposals,Investment purchases and sales,Investing Cash flow,Issuance (repayment) of debt,Issuance (buybacks) of shares,Dividend payments,Financing Cash Flow,Effect of forex changes on cash,Net cash flow / Change in cash,Free Cash Flow,Net Cash/Marketcap
2019-12-31,22586000.0,2443000.0,30060000.0,17404000.0,-1387000.0,0.0,-18439000.0,-5875000.0,-10459000.0,-0.0,-5817000.0,0.0,5804000.0,12656000.0,0.0
2019-01-01,23472000.0,2979000.0,5346000.0,14338000.0,-0.0,0.0,-13838000.0,-0.0,18337000.0,-0.0,9786000.0,0.0,1294000.0,-8992000.0,0.0
2018-01-02,25078000.0,1514000.0,4102000.0,20828000.0,-0.0,0.0,-20828000.0,-0.0,25749000.0,-0.0,18265000.0,-15000.0,1524000.0,-16726000.0,0.0
2017-01-03,28274000.0,2319000.0,24737000.0,43335000.0,-0.0,0.0,-42757000.0,-0.0,-1837000.0,-0.0,17904000.0,41000.0,-75000.0,-18598000.0,0.0
2015-12-29,27900000.0,1469000.0,44506000.0,50093000.0,-0.0,0.0,-50721000.0,-0.0,-1912000.0,-0.0,6355000.0,-134000.0,6000.0,-5587000.0,0.0
2014-12-30,24888000.0,1330000.0,49027000.0,56352000.0,-0.0,0.0,-72060000.0,-0.0,-1906000.0,-0.0,23971000.0,0.0,938000.0,-7325000.0,0.0
2013-12-31,21333000.0,4230000.0,43634000.0,54429000.0,-0.0,0.0,-54429000.0,-0.0,99101000.0,-0.0,11182000.0,0.0,387000.0,-10795000.0,0.0
2013-01-01,16719000.0,1207000.0,32069000.0,-47384000.0,0.0,0.0,-47384000.0,15394000.0,-48000.0,0.0,15373000.0,0.0,58000.0,-15315000.0,0.0003
2012-01-03,14501000.0,1218000.0,27922000.0,-30047000.0,0.0,0.0,-30047000.0,-3930000.0,-117000.0,0.0,-10654000.0,0.0,-12779000.0,-2125000.0,0.0003
2010-12-28,13932000.0,5610000.0,24605000.0,-26933000.0,0.0,0.0,-26933000.0,43162000.0,174189000.0,0.0,15215000.0,0.0,12887000.0,-2328000.0,0.0003
