,0,1,2,3,4,5,6,7,8,9,10,11,12,13,14
Date,Depreciation & Amortization,Stock-based compensation,Operating Cash Flow,Capital Expenditure,Acquisitions and disposals,Investment purchases and sales,Investing Cash flow,Issuance (repayment) of debt,Issuance (buybacks) of shares,Dividend payments,Financing Cash Flow,Effect of forex changes on cash,Net cash flow / Change in cash,Free Cash Flow,Net Cash/Marketcap
2018-12-31,4147000000.0,82000000.0,6593000000.0,0.0,-0.0,0.0,-10950000000.0,-3102000000.0,80000000.0,-2101000000.0,7634000000.0,-7000000.0,3270000000.0,6593000000.0,0.0
2017-12-31,2629000000.0,76000000.0,6413000000.0,0.0,-0.0,0.0,-8918000000.0,-6780000000.0,-1659000000.0,-1845000000.0,2933000000.0,26000000.0,454000000.0,6413000000.0,0.0
2016-12-31,3377000000.0,77000000.0,6336000000.0,0.0,-0.0,0.0,-8110000000.0,-3310000000.0,-755000000.0,-1612000000.0,2495000000.0,0.0,721000000.0,6336000000.0,0.0
2015-12-31,3203000000.0,60000000.0,6116000000.0,0.0,-0.0,0.0,-8005000000.0,-3972000000.0,727000000.0,-1385000000.0,1883000000.0,0.0,-6000000.0,6116000000.0,0.0
2014-12-31,2896000000.0,60000000.0,5500000000.0,0.0,-0.0,0.0,-6361000000.0,-4750000000.0,633000000.0,-1261000000.0,1000000000.0,0.0,139000000.0,5500000000.0,0.0
2013-12-31,2521000000.0,67000000.0,5102000000.0,0.0,-0.0,0.0,-6123000000.0,-2396000000.0,842000000.0,-1122000000.0,1130000000.0,0.0,109000000.0,5102000000.0,0.0
2012-12-31,1772000000.0,57000000.0,3992000000.0,0.0,-0.0,-19000000.0,-8928000000.0,-1612000000.0,386000000.0,-1004000000.0,4888000000.0,0.0,-48000000.0,3992000000.0,0.0
2011-12-31,1844000000.0,49000000.0,4074000000.0,0.0,-0.0,-375000000.0,-5279000000.0,-2121000000.0,-327000000.0,-920000000.0,1280000000.0,0.0,75000000.0,4074000000.0,0.0
2010-12-31,2092000000.0,57000000.0,3834000000.0,0.0,-0.0,0.0,-5284000000.0,-769000000.0,6000000.0,-823000000.0,1514000000.0,0.0,64000000.0,3834000000.0,0.0
2009-12-31,1765000000.0,0.0,4463000000.0,-2938000000.0,0.0,-127000000.0,-5935000000.0,1739000000.0,198000000.0,-766000000.0,1175000000.0,0.0,-297000000.0,1525000000.0,-0.8543
