,0,1,2,3,4,5,6,7,8,9,10,11,12,13,14,15,16,17,18,19,20,21,22,23,24,25,26,27,28
Date,Cash and cash equivalents,Short-term investments,Cash and short-term investments,Receivables,Inventories,Total current assets,Property Plant & Equipment Net,Goodwill and Intangible Assets,Long-term investments,Tax assets,Total non-current assets,Total assets,Payables,Short-term debt,Total current liabilities,Long-term debt,Total debt,Deferred revenue,Tax Liabilities,Deposit Liabilities,Total non-current liabilities,Total liabilities,Other comprehensive income,Retained earnings (deficit),Total shareholders equity,Investments,Net Debt,Other Assets,Other Liabilities
2018-12-31,6555000.0,0.0,6555000.0,1510000.0,1219000.0,10494000.0,2484000.0,0.0,0.0,176000.0,2748000.0,13242000.0,501000.0,570000.0,2313000.0,1133000.0,1703000.0,0.0,0.0,0.0,2266000.0,1404000.0,10637000.0,1648000.0,11838000.0,0.0,-4852000.0,0.0,-3175000.0
2017-12-31,5796000.0,0.0,5796000.0,1010000.0,1154000.0,9797000.0,3327000.0,0.0,0.0,336000.0,3330000.0,13127000.0,509000.0,568000.0,3583000.0,1681000.0,2249000.0,1248000.0,0.0,0.0,3362000.0,4104000.0,192808000.0,-183745000.0,9023000.0,0.0,-3547000.0,0.0,-2841000.0
2016-12-31,3476000.0,0.0,3476000.0,1548000.0,696000.0,7669000.0,2031000.0,0.0,0.0,247000.0,2034000.0,9703000.0,1286000.0,228000.0,4608000.0,960000.0,1188000.0,1921000.0,0.0,0.0,1920000.0,5198000.0,183667000.0,-179040000.0,4505000.0,0.0,-2288000.0,0.0,-1330000.0
2015-12-31,3082000.0,0.0,3082000.0,1346000.0,0.0,5333000.0,594000.0,0.0,0.0,337000.0,594000.0,5927000.0,965000.0,57000.0,3811000.0,283000.0,340000.0,1475000.0,0.0,0.0,566000.0,4082000.0,175504000.0,-173749000.0,1845000.0,0.0,-2742000.0,0.0,-295000.0
2014-12-31,6129000.0,0.0,6129000.0,1106000.0,0.0,7948000.0,654000.0,0.0,0.0,137000.0,654000.0,8602000.0,566000.0,61000.0,4965000.0,367000.0,428000.0,3403000.0,0.0,0.0,734000.0,5332000.0,169010000.0,-165929000.0,3270000.0,0.0,-5701000.0,0.0,0.0
2013-12-31,8815000.0,0.0,8815000.0,969000.0,0.0,11136000.0,335000.0,0.0,0.0,250000.0,335000.0,11471000.0,479000.0,0.0,5123000.0,0.0,0.0,3666000.0,0.0,0.0,0.0,5123000.0,157994000.0,-151695000.0,6348000.0,0.0,-8815000.0,0.0,0.0
2012-12-31,9097000.0,0.0,9097000.0,2123000.0,0.0,11770000.0,330000.0,0.0,0.0,204000.0,398000.0,12168000.0,539000.0,0.0,4068000.0,0.0,0.0,2725000.0,0.0,0.0,0.0,4068000.0,146677000.0,-138615000.0,8100000.0,0.0,-9097000.0,0.0,0.0
2011-12-31,12940000.0,0.0,12940000.0,3345000.0,0.0,16519000.0,108000.0,0.0,0.0,0.0,108000.0,16627000.0,447000.0,0.0,2954000.0,0.0,0.0,1906000.0,0.0,0.0,0.0,2954000.0,142955000.0,-129328000.0,13673000.0,0.0,-12940000.0,0.0,0.0
2010-12-31,911000.0,0.0,911000.0,151000.0,0.0,1227000.0,24000.0,0.0,0.0,0.0,24000.0,1251000.0,442000.0,2772000.0,11115000.0,0.0,2772000.0,540000.0,0.0,0.0,0.0,11115000.0,-63000.0,-112183000.0,-9864000.0,0.0,1861000.0,165000.0,7901000.0
2009-12-31,28000.0,0.0,28000.0,0.0,0.0,164000.0,20000.0,0.0,0.0,0.0,48000.0,212000.0,699000.0,361000.0,6560000.0,0.0,361000.0,0.0,0.0,0.0,0.0,6560000.0,-96000.0,-80557000.0,-6348000.0,0.0,333000.0,136000.0,5500000.0
