,0,1,2,3,4,5,6,7,8,9,10,11,12,13,14,15,16,17,18,19,20,21,22,23,24,25,26,27,28,29,30
Date,Revenue,Revenue Growth,Cost of Revenue,Gross Profit,R&D Expenses,SG&A Expense,Operating Expenses,Operating Income,Interest Expense,Earnings before Tax,Income Tax Expense,Net Income - Non-Controlling int,Net Income - Discontinued ops,Net Income,Preferred Dividends,Net Income Com,EPS,EPS Diluted,Weighted Average Shs Out,Weighted Average Shs Out (Dil),Dividend per Share,Gross Margin,EBITDA Margin,EBIT Margin,Profit Margin,Free Cash Flow margin,EBITDA,EBIT,Consolidated Income,Earnings Before Tax Margin,Net Profit Margin
2019-12-31,0.0,0.0,0.0,0.0,58124354.0,17740742.0,75865096.0,-75865096.0,0.0,-74437622.0,-2254132.0,0.0,0.0,-72183490.0,0.0,-72183490.0,-1.85,-1.85,39014302.0,39014302.0,0.0,0.0,0.0,0.0,0.0,0.0,-74939532.0,-75865096.0,-72183490.0,0.0,0.0
2018-12-31,0.0,0.0,0.0,0.0,34888574.0,16841308.0,51729882.0,-51729882.0,100000.0,-50171287.0,0.0,0.0,0.0,-50171287.0,0.0,-50171287.0,-1.29,-1.29,38792581.0,38792581.0,0.0,0.0,0.0,0.0,0.0,0.0,-51554761.0,-51729882.0,-50171287.0,0.0,0.0
2017-12-31,0.0,0.0,0.0,0.0,30255892.0,10914269.0,41170161.0,-41170161.0,600000.0,-40899479.0,-9376272.0,0.0,0.0,-31523207.0,0.0,-31523207.0,-0.83,-0.83,37937191.0,37937191.0,0.0,0.0,0.0,0.0,0.0,0.0,-40952505.0,-41170161.0,-31523207.0,0.0,0.0
2016-12-31,0.0,0.0,0.0,0.0,20439994.0,9750702.0,30190696.0,-30190696.0,1000000.0,0.0,0.0,0.0,0.0,-31045372.0,0.0,-31045372.0,-0.99,-0.99,31514154.0,31514154.0,0.0,0.0,0.0,0.0,0.0,0.0,-29826395.0,-30190696.0,-31045372.0,0.0,0.0
2015-12-31,0.0,-1.0,0.0,0.0,18533363.0,7576256.0,26109619.0,-26109619.0,1100000.0,0.0,0.0,0.0,0.0,-27081632.0,0.0,-27081632.0,-1.16,-1.16,23412181.0,23412181.0,0.0,0.0,0.0,0.0,0.0,0.0,-25714888.0,-26109619.0,-27081632.0,0.0,0.0
2014-12-31,-2049735.0,1.0,0.0,0.0,42908566.0,11961865.0,54870431.0,-54870431.0,16000.0,0.0,0.0,0.0,0.0,-56901439.0,0.0,-56901439.0,-4.47,-4.47,12724395.0,12724395.0,0.0,-0.0,25.8005317761,26.7695243531,27.7603880502,17.5663951682,-52884253.0,-54870431.0,-56901439.0,-0.0,27.7603880502
2013-12-31,0.0,,0.0,0.0,708489.0,2466490.0,3174979.0,-3174979.0,58049.0,-3262005.0,0.0,0.0,0.0,-3262005.0,0.0,-3262005.0,-0.78,-0.78,,4186104.0,0.0,0.0,,0.0,,0.0,-3203956.0,-3203956.0,-3262005.0,0.0,0.0
