,0,1,2,3,4,5,6,7,8,9,10,11,12,13,14
Date,Depreciation & Amortization,Stock-based compensation,Operating Cash Flow,Capital Expenditure,Acquisitions and disposals,Investment purchases and sales,Investing Cash flow,Issuance (repayment) of debt,Issuance (buybacks) of shares,Dividend payments,Financing Cash Flow,Effect of forex changes on cash,Net cash flow / Change in cash,Free Cash Flow,Net Cash/Marketcap
2018-12-31,13089001.4472,54262952.2431,-13445007.2359,-12114182.3444,-10594500.7236,0.0,-22708683.068000004,30723299.5658,115659623.7337,0.0,120333719.2475,6965412.4457,91145441.3893,-25559189.5803,
2017-12-31,6679111.2455,8439389.3591,12132103.9903,-9780229.7461,-85398730.3507,0.0,-95178960.0967,95130894.8005,0.0,0.0,95130894.8005,558645.7074,12642684.4015,2351874.2443,
2016-12-31,2000431.9654,7381281.4975,11721958.2433,-3037149.0281,-9815118.7905,0.0,-12852267.8186,0.0,0.0,0.0,10079193.6645,0.0,8948884.0893,8684809.2153,
