,0,1,2,3,4,5,6,7,8,9,10,11,12,13,14
Date,Depreciation & Amortization,Stock-based compensation,Operating Cash Flow,Capital Expenditure,Acquisitions and disposals,Investment purchases and sales,Investing Cash flow,Issuance (repayment) of debt,Issuance (buybacks) of shares,Dividend payments,Financing Cash Flow,Effect of forex changes on cash,Net cash flow / Change in cash,Free Cash Flow,Net Cash/Marketcap
2019-03-31,71198000.0,56200000.0,115517000.0,43303000.0,-30432000.0,0.0,-470668000.0,-0.0,-216973000.0,-0.0,457631000.0,0.0,102480000.0,72214000.0,0.0
2018-03-31,23243000.0,40600000.0,35650000.0,21368000.0,-0.0,0.0,-23832000.0,-0.0,-107715000.0,-0.0,32356000.0,0.0,44174000.0,14282000.0,0.0
2017-03-31,18805000.0,31946000.0,18928000.0,21430000.0,-0.0,0.0,-18520000.0,-0.0,-71605000.0,-0.0,21983000.0,0.0,22391000.0,-2502000.0,0.0
2016-03-31,15119000.0,23268000.0,4006000.0,11732000.0,-5498000.0,0.0,-58051000.0,-0.0,-53455000.0,-0.0,14702000.0,0.0,-39343000.0,-7726000.0,0.0
2015-03-31,9044000.0,11666000.0,-13621000.0,12628000.0,-2262000.0,0.0,-118680000.0,-271000.0,-104048000.0,-0.0,218105000.0,0.0,85804000.0,-26249000.0,0.0
2014-03-31,4536000.0,6220000.0,-20713000.0,-16226000.0,0.0,0.0,-17227000.0,0.0,294000.0,0.0,294000.0,0.0,-37646000.0,-36939000.0,0.1311
2013-03-31,1916000.0,8686000.0,-7200000.0,-8571000.0,0.0,0.0,-13171000.0,0.0,255000.0,0.0,60022000.0,0.0,39651000.0,-15771000.0,0.1311
2012-03-31,1166000.0,603000.0,-5133000.0,-2132000.0,0.0,0.0,-2132000.0,-61000.0,130000.0,0.0,15028000.0,0.0,7763000.0,-7265000.0,0.1311
