,0,1,2,3,4,5,6,7,8,9,10,11,12,13,14
Date,Depreciation & Amortization,Stock-based compensation,Operating Cash Flow,Capital Expenditure,Acquisitions and disposals,Investment purchases and sales,Investing Cash flow,Issuance (repayment) of debt,Issuance (buybacks) of shares,Dividend payments,Financing Cash Flow,Effect of forex changes on cash,Net cash flow / Change in cash,Free Cash Flow,Net Cash/Marketcap
2018-12-31,484000.0,0.0,-73666000.0,-627000.0,0.0,0.0,-627000.0,116402000.0,5087000.0,-32433000.0,85105000.0,0.0,10812000.0,-74293000.0,-0.9111
2017-12-31,402000.0,0.0,-72936000.0,-446000.0,0.0,0.0,-446000.0,44891000.0,55995000.0,-28198000.0,71024000.0,0.0,-2358000.0,-73382000.0,-0.5842
2016-12-31,296000.0,0.0,-14099000.0,-375000.0,0.0,0.0,-375000.0,41068000.0,-866000.0,-27300000.0,10193000.0,0.0,-4281000.0,-14474000.0,-0.5842
2015-12-31,326000.0,0.0,-37951000.0,-105000.0,0.0,0.0,302000.0,12084000.0,35290000.0,-24306000.0,24144000.0,0.0,-13505000.0,-38056000.0,-0.5842
2013-12-31,0.0,0.0,4974000.0,-2032000.0,0.0,-34089000.0,-36121000.0,38854000.0,198000.0,0.0,29426000.0,0.0,-1721000.0,2942000.0,-0.5842
2012-12-31,3036000.0,0.0,-4354000.0,-3055000.0,0.0,-20884000.0,-22498000.0,23409000.0,-967000.0,0.0,29880000.0,0.0,3028000.0,-7409000.0,-0.5842
2011-12-31,3955000.0,0.0,11405000.0,-1498000.0,0.0,-17551000.0,-17810000.0,11308000.0,-16000.0,0.0,7224000.0,0.0,819000.0,9907000.0,-0.5842
2010-12-31,4709000.0,0.0,-2208000.0,-2075000.0,0.0,-4794000.0,-6336000.0,10861000.0,0.0,0.0,6345000.0,0.0,-2199000.0,-4283000.0,-0.5842
2009-12-31,5847000.0,0.0,3128000.0,-1764000.0,0.0,3981000.0,3400000.0,-9700000.0,0.0,-726000.0,-10799000.0,0.0,-4271000.0,1364000.0,-0.5842
