,0,1,2,3,4,5,6,7,8,9,10,11,12,13,14,15,16,17,18,19,20,21,22,23,24,25,26,27,28,29,30
Date,Revenue,Revenue Growth,Cost of Revenue,Gross Profit,R&D Expenses,SG&A Expense,Operating Expenses,Operating Income,Interest Expense,Earnings before Tax,Income Tax Expense,Net Income - Non-Controlling int,Net Income - Discontinued ops,Net Income,Preferred Dividends,Net Income Com,EPS,EPS Diluted,Weighted Average Shs Out,Weighted Average Shs Out (Dil),Dividend per Share,Gross Margin,EBITDA Margin,EBIT Margin,Profit Margin,Free Cash Flow margin,EBITDA,EBIT,Consolidated Income,Earnings Before Tax Margin,Net Profit Margin
2016-12,6000000.0,,6000000.0,0.0,,2000000.0,2000000.0,-1000000.0,0.0,-2000000.0,0.0,,,-2000000.0,,-2000000.0,-0.28,-0.28,7000000.0,7000000.0,,0.0,-0.0,-0.33333333333333,-0.33333333333333,,-0.0,-2000000.0,-2000000.0,-0.33333333333333,-0.33333333333333
2015-12,7000000.0,,6000000.0,1000000.0,,2000000.0,2000000.0,-1000000.0,0.0,-1000000.0,-0.0,,,-1000000.0,,-1000000.0,-0.15,-0.15,6000000.0,6000000.0,,0.14285714285714002,0.14285714285714002,-0.14285714285714002,-0.14285714285714002,,1000000.0,-1000000.0,-1000000.0,-0.14285714285714002,-0.14285714285714002
2014-12,10000000.0,,8000000.0,1000000.0,,2000000.0,2000000.0,-0.0,0.0,-1000000.0,0.0,,,-1000000.0,,-1000000.0,-0.11,-0.11,6000000.0,6000000.0,,0.1,0.1,-0.1,-0.1,,1000000.0,-1000000.0,-1000000.0,-0.1,-0.1
2013-12,6000000.0,,4000000.0,2000000.0,,1000000.0,1000000.0,0.0,1000000.0,-0.0,0.0,,,-0.0,,-0.0,-0.03,-0.03,5000000.0,5000000.0,,0.33333333333333,0.16666666666667002,0.16666666666667002,-0.0,,1000000.0,1000000.0,-0.0,-0.0,-0.0
2012-12,9000000.0,,7000000.0,2000000.0,,1000000.0,1000000.0,1000000.0,0.0,0.0,0.0,,,0.0,,0.0,0.02,0.02,5000000.0,5000000.0,,0.22222222222222002,0.11111111111111001,0.0,0.0,,1000000.0,0.0,0.0,0.0,0.0
