,0,1,2,3,4,5,6,7,8,9,10,11,12,13,14,15,16,17,18,19,20,21,22,23,24,25,26,27,28,29,30
Date,Revenue,Revenue Growth,Cost of Revenue,Gross Profit,R&D Expenses,SG&A Expense,Operating Expenses,Operating Income,Interest Expense,Earnings before Tax,Income Tax Expense,Net Income - Non-Controlling int,Net Income - Discontinued ops,Net Income,Preferred Dividends,Net Income Com,EPS,EPS Diluted,Weighted Average Shs Out,Weighted Average Shs Out (Dil),Dividend per Share,Gross Margin,EBITDA Margin,EBIT Margin,Profit Margin,Free Cash Flow margin,EBITDA,EBIT,Consolidated Income,Earnings Before Tax Margin,Net Profit Margin
2018-12-31,4607971000.0,0.0399700374802,2662226000.0,1945745000.0,0.0,938046000.0,4335538000.0,207354000.0,51425000.0,118477000.0,53484000.0,0.0,0.0,207354000.0,32492000.0,207354000.0,1.62,1.59,107659813.0,110822056.0,0.15440067273299998,0.422256346665,0.0637373802917,0.044998981113400005,0.044998981113400005,0.107583793388,293700000.0,207354000.0,207354000.0,0.0257113163256,0.044998981113400005
2017-12-31,4430869000.0,0.248098361284,2626082000.0,1804787000.0,0.0,912996000.0,4211507000.0,105845000.0,47086000.0,79500000.0,61273000.0,0.0,0.0,105845000.0,31500000.0,105845000.0,0.7,0.68,106588402.0,108752262.0,0.156778348206,0.407321227506,0.0472024787914,0.0238880905755,0.0238880905755,0.050020210482400004,209148000.0,105845000.0,105845000.0,0.017942304319999998,0.0238880905755
2016-12-31,3550096000.0,0.41359635867399996,1958545000.0,1591551000.0,0.0,844114000.0,3299817000.0,172216000.0,40180000.0,226462000.0,42616000.0,0.0,0.0,172216000.0,24333000.0,172216000.0,1.4,1.37,105951752.0,108278318.0,0.127199981071,0.448312101983,0.0753007805986,0.0485102374696,0.0485102374696,0.07908912885739999,267325000.0,172216000.0,172216000.0,0.0637903876402,0.0485102374696
2015-12-31,2511393000.0,0.348692198841,1381641000.0,1129752000.0,0.0,530347000.0,2317918000.0,142252000.0,28885000.0,112707000.0,18956000.0,0.0,0.0,142252000.0,14025000.0,142252000.0,1.31,1.27,98241904.0,100723936.0,0.0766352101252,0.449850740207,0.0753362775161,0.0566426680332,0.0566426680332,0.116825602365,189199000.0,142252000.0,142252000.0,0.044878280699199996,0.0566426680332
2014-12-31,1862095000.0,0.998251887082,1053065000.0,809030000.0,0.0,348762000.0,1716916000.0,102243000.0,17736000.0,118196000.0,23876000.0,0.0,0.0,102243000.0,2291000.0,102243000.0,1.09,1.07,91499122.0,93515417.0,0.0384963262261,0.434472999498,0.0805125409821,0.0549075100894,0.0549075100894,0.19789591830699998,149922000.0,102243000.0,102243000.0,0.0634747421587,0.0549075100894
2013-12-31,931862000.0,0.152950666942,462124000.0,469738000.0,0.0,415439000.0,415439000.0,54299000.0,2042000.0,53449000.0,11140000.0,82000.0,0.0,42309000.0,2158000.0,40151000.0,0.62,0.59,,65017579.0,0.0,0.5041,0.083,0.0595,0.043,-0.0004,77027000.0,55491000.0,42391000.0,0.0574,0.0454
2012-12-31,808241000.0,0.197516486871,402686000.0,405555000.0,0.0,357415000.0,357415000.0,48140000.0,1787000.0,45015000.0,12309000.0,0.0,0.0,32706000.0,4674000.0,28032000.0,0.62,0.56,,45554570.0,0.0,0.5018,0.087,0.0579,0.035,-0.0143,70301000.0,46802000.0,32706000.0,0.0557,0.0405
2011-12-31,674931000.0,,340152000.0,334779000.0,0.0,284130000.0,284130000.0,50649000.0,1994000.0,72401000.0,28301000.0,14000.0,0.0,44100000.0,4328000.0,39772000.0,0.87,0.75,,45554570.0,0.0,0.496,0.134,0.1102,0.059000000000000004,-0.0381,90545000.0,74395000.0,44114000.0,0.1073,0.0653
