,0,1,2,3,4,5,6,7,8,9,10,11,12,13,14,15,16,17,18,19,20,21,22,23,24,25,26,27,28
Date,Cash and cash equivalents,Short-term investments,Cash and short-term investments,Receivables,Inventories,Total current assets,Property Plant & Equipment Net,Goodwill and Intangible Assets,Long-term investments,Tax assets,Total non-current assets,Total assets,Payables,Short-term debt,Total current liabilities,Long-term debt,Total debt,Deferred revenue,Tax Liabilities,Deposit Liabilities,Total non-current liabilities,Total liabilities,Other comprehensive income,Retained earnings (deficit),Total shareholders equity,Investments,Net Debt,Other Assets,Other Liabilities
2018-12,194000000.0,349000000.0,349000000.0,,,,,560000000.0,,0.0,,9439000000.0,,160000000.0,,515000000.0,515000000.0,,,,,7238000000.0,-14000000.0,764000000.0,2221000000.0,,481000000.0,0.0,0.0
2017-12,292000000.0,22000000.0,22000000.0,,,,,578000000.0,,0.0,,8440000000.0,,190000000.0,,524000000.0,524000000.0,,,,,6486000000.0,-8000000.0,598000000.0,1929000000.0,,422000000.0,0.0,0.0
2016-12,220000000.0,16000000.0,16000000.0,,,,,623000000.0,,0.0,,7245000000.0,,136000000.0,,702000000.0,702000000.0,,,,,5319000000.0,-2000000.0,545000000.0,1894000000.0,,618000000.0,0.0,0.0
2015-12,282000000.0,4000000.0,4000000.0,,,,,461000000.0,,12000000.0,,5563000000.0,,58000000.0,,492000000.0,492000000.0,,,,,4027000000.0,-4000000.0,412000000.0,1514000000.0,,268000000.0,0.0,0.0
2014-12,133000000.0,11000000.0,11000000.0,,,,,320000000.0,,68000000.0,,4440000000.0,,29000000.0,,304000000.0,304000000.0,,,,,3367000000.0,20000000.0,293000000.0,1060000000.0,,200000000.0,0.0,0.0
