,0,1,2,3,4,5,6,7,8,9,10,11,12,13,14,15,16,17,18,19,20,21,22,23,24,25,26,27,28,29,30
Date,Revenue,Revenue Growth,Cost of Revenue,Gross Profit,R&D Expenses,SG&A Expense,Operating Expenses,Operating Income,Interest Expense,Earnings before Tax,Income Tax Expense,Net Income - Non-Controlling int,Net Income - Discontinued ops,Net Income,Preferred Dividends,Net Income Com,EPS,EPS Diluted,Weighted Average Shs Out,Weighted Average Shs Out (Dil),Dividend per Share,Gross Margin,EBITDA Margin,EBIT Margin,Profit Margin,Free Cash Flow margin,EBITDA,EBIT,Consolidated Income,Earnings Before Tax Margin,Net Profit Margin
2018-12-31,4607971000.0,0.0,2662226000.0,1945745000.0,0.0,938046000.0,4335538000.0,207354000.0,51425000.0,118477000.0,53484000.0,0.0,0.0,207354000.0,32492000.0,207354000.0,1.62,1.59,107659813.0,110822056.0,0.15440067273299998,0.422256346665,0.0637373802917,0.044998981113400005,0.044998981113400005,0.107583793388,293700000.0,207354000.0,207354000.0,0.0257113163256,0.044998981113400005
2018-12,,0.0,,,,,,,51000000.0,,,,,207000000.0,,207000000.0,,,,,,,,,,,,258000000.0,207000000.0,,
2017-12-31,4430869000.0,0.0,2626082000.0,1804787000.0,0.0,912996000.0,4211507000.0,105845000.0,47086000.0,79500000.0,61273000.0,0.0,0.0,105845000.0,31500000.0,105845000.0,0.7,0.68,106588402.0,108752262.0,0.156778348206,0.407321227506,0.0472024787914,0.0238880905755,0.0238880905755,0.050020210482400004,209148000.0,105845000.0,105845000.0,0.017942304319999998,0.0238880905755
2017-12,,0.0,,,,,,,47000000.0,,,,,106000000.0,,106000000.0,,,,,,,,,,,,153000000.0,106000000.0,,
2016-12-31,3550096000.0,0.0,1958545000.0,1591551000.0,0.0,844114000.0,3299817000.0,172216000.0,40180000.0,226462000.0,42616000.0,0.0,0.0,172216000.0,24333000.0,172216000.0,1.4,1.37,105951752.0,108278318.0,0.127199981071,0.448312101983,0.0753007805986,0.0485102374696,0.0485102374696,0.07908912885739999,267325000.0,172216000.0,172216000.0,0.0637903876402,0.0485102374696
2016-12,,0.0,,,,,,,40000000.0,,,,,172000000.0,,172000000.0,,,,,,,,,,,,212000000.0,172000000.0,,
2015-12-31,2511393000.0,0.0,1381641000.0,1129752000.0,0.0,530347000.0,2317918000.0,142252000.0,28885000.0,112707000.0,18956000.0,0.0,0.0,142252000.0,14025000.0,142252000.0,1.31,1.27,98241904.0,100723936.0,0.0766352101252,0.449850740207,0.0753362775161,0.0566426680332,0.0566426680332,0.116825602365,189199000.0,142252000.0,142252000.0,0.044878280699199996,0.0566426680332
2015-12,,0.0,,,,,,,29000000.0,,,,,142000000.0,,142000000.0,,,,,,,,,,,,171000000.0,142000000.0,,
2014-12-31,1862095000.0,0.0,1053065000.0,809030000.0,0.0,348762000.0,1716916000.0,102243000.0,17736000.0,118196000.0,23876000.0,0.0,0.0,102243000.0,2291000.0,102243000.0,1.09,1.07,91499122.0,93515417.0,0.0384963262261,0.434472999498,0.0805125409821,0.0549075100894,0.0549075100894,0.19789591830699998,149922000.0,102243000.0,102243000.0,0.0634747421587,0.0549075100894
2014-12,,,,,,,,,18000000.0,,,,,102000000.0,,102000000.0,,,,,,,,,,,,120000000.0,102000000.0,,
