,0,1,2,3,4,5,6,7,8,9,10,11,12,13,14
Date,Depreciation & Amortization,Stock-based compensation,Operating Cash Flow,Capital Expenditure,Acquisitions and disposals,Investment purchases and sales,Investing Cash flow,Issuance (repayment) of debt,Issuance (buybacks) of shares,Dividend payments,Financing Cash Flow,Effect of forex changes on cash,Net cash flow / Change in cash,Free Cash Flow,Net Cash/Marketcap
2019-12-31,23268000.0,2582000.0,29412000.0,69938000.0,-0.0,-490000.0,-70175000.0,-0.0,-490000.0,-0.0,-273000.0,0.0,-41036000.0,-40526000.0,0.0
2018-12-31,22049000.0,2385000.0,23414000.0,39790000.0,-0.0,0.0,-40010000.0,-0.0,-52628000.0,-0.0,16000.0,0.0,-16580000.0,-16376000.0,0.0
2017-12-31,21302000.0,4038000.0,17452000.0,13489000.0,-0.0,0.0,-12791000.0,-0.0,-69208000.0,-0.0,453000.0,0.0,5114000.0,3963000.0,0.0
2016-12-31,21796000.0,2299000.0,32771000.0,4307000.0,-0.0,0.0,-4400000.0,-0.0,-64094000.0,-0.0,191000.0,0.0,28562000.0,28464000.0,0.0
2015-12-31,22758000.0,3545000.0,41611000.0,12504000.0,-0.0,0.0,-12315000.0,-0.0,-35532000.0,-0.0,55000.0,0.0,29351000.0,29107000.0,0.0
2014-12-31,21507000.0,3244000.0,34564000.0,53342000.0,-0.0,0.0,-53102000.0,-0.0,-6181000.0,-0.0,276000.0,0.0,-18262000.0,-18778000.0,0.0
2013-12-31,18144000.0,1682000.0,39244000.0,43419000.0,-0.0,0.0,-43324000.0,-0.0,-24443000.0,-0.0,437000.0,0.0,-3643000.0,-4175000.0,0.0
2012-12-31,15707000.0,1418000.0,35418000.0,23766000.0,-0.0,0.0,-23761000.0,-0.0,-28086000.0,-0.0,39000.0,0.0,11696000.0,11652000.0,0.0
2011-12-31,13994000.0,1068000.0,33623000.0,36525000.0,-0.0,0.0,-35506000.0,-0.0,-16390000.0,-0.0,-864000.0,0.0,-2747000.0,-2902000.0,0.0
2010-12-31,11927000.0,1058000.0,28798000.0,-21861000.0,0.0,0.0,-21861000.0,-11224000.0,407000.0,0.0,-10817000.0,0.0,-3880000.0,6937000.0,0.0747
2009-12-31,11686000.0,584000.0,32178000.0,-9399000.0,0.0,2300000.0,-7099000.0,-3260000.0,49000.0,0.0,-3211000.0,0.0,21868000.0,22779000.0,0.0431
