,0,1,2,3,4,5,6,7,8,9,10,11,12,13,14,15,16,17,18,19,20,21,22,23,24,25,26,27,28,29,30
Date,Revenue,Revenue Growth,Cost of Revenue,Gross Profit,R&D Expenses,SG&A Expense,Operating Expenses,Operating Income,Interest Expense,Earnings before Tax,Income Tax Expense,Net Income - Non-Controlling int,Net Income - Discontinued ops,Net Income,Preferred Dividends,Net Income Com,EPS,EPS Diluted,Weighted Average Shs Out,Weighted Average Shs Out (Dil),Dividend per Share,Gross Margin,EBITDA Margin,EBIT Margin,Profit Margin,Free Cash Flow margin,EBITDA,EBIT,Consolidated Income,Earnings Before Tax Margin,Net Profit Margin
2018-12-31,980349000.0,0.0657786165683,0.0,0.0,0.0,582721000.0,877682000.0,56076000.0,4697000.0,74884000.0,16185000.0,0.0,0.0,58964000.0,0.0,58964000.0,3.87,3.87,15224886.0,15236826.0,1.95755992751,0.0,0.0999337990858,0.0572000379457,0.060145927623699996,0.0700393431319,97970000.0,56076000.0,58964000.0,0.07638504246960001,0.060145927623699996
2017-12-31,919843000.0,0.044416866123800004,0.0,0.0,0.0,572043000.0,865344000.0,54110000.0,4890000.0,74549000.0,18867000.0,0.0,0.0,56205000.0,0.0,56205000.0,3.7,3.69,15189920.0,15218962.0,1.8553827784,0.0,0.10519403854800001,0.0588252560491,0.061102818633199996,0.0675321766867,96762000.0,54110000.0,56205000.0,0.0810453523047,0.061102818633199996
2016-12-31,880724000.0,0.0183593379631,0.0,0.0,0.0,548007000.0,823132000.0,60542000.0,3941000.0,80207000.0,29669000.0,0.0,0.0,50538000.0,0.0,50538000.0,3.34,3.32,15134518.0,15206997.0,1.6962586367299999,0.0,0.11304903692900001,0.0687411720357,0.0573823354422,0.032111081337599996,99565000.0,60542000.0,50538000.0,0.09106939290860001,0.0573823354422
2015-12-31,864846000.0,0.042879003288400004,0.0,0.0,0.0,532735000.0,799774000.0,67126000.0,2608000.0,85274000.0,32131000.0,0.0,0.0,53143000.0,6819000.0,53143000.0,3.34,3.2,13889134.0,14491433.0,1.4552736088999998,0.0,0.12053012906300001,0.0776161305018,0.0614479340831,0.0179766108648,104240000.0,67126000.0,53143000.0,0.0986002132172,0.0614479340831
2014-12-31,829287000.0,0.126998234663,0.0,0.0,0.0,510249000.0,767123000.0,68011000.0,2165000.0,85193000.0,31824000.0,0.0,0.0,53369000.0,8670000.0,53369000.0,3.24,3.14,13816095.0,14222133.0,1.3151332504100002,0.0,0.123473538112,0.0820114146249,0.0643552835146,0.0270063319454,102395000.0,68011000.0,53369000.0,0.102730417817,0.0643552835146
2013-12-31,735837000.0,0.0431692718597,0.0,0.0,0.0,453560000.0,687998000.0,72081000.0,331000.0,102176000.0,37563000.0,0.0,0.0,64613000.0,8671000.0,64613000.0,4.05,3.87,13829626.0,16698803.0,1.04612288677,0.0,0.136753112442,0.0979578357707,0.08780884897060001,0.0800584912148,100628000.0,72081000.0,64613000.0,0.13885683921800002,0.08780884897060001
2012-12-31,705386000.0,-0.0141204127527,0.0,0.0,0.0,426934000.0,664980000.0,66035000.0,455000.0,91280000.0,33323000.0,0.0,0.0,57957000.0,8671000.0,57957000.0,3.56,3.49,13852709.0,16598816.0,1.85850605248,0.0,0.135850442169,0.09361541056949998,0.0821635246518,0.0605200556858,95827000.0,66035000.0,57957000.0,0.129404326142,0.0821635246518
2011-12-31,715489000.0,-0.007165723309279999,0.0,0.0,0.0,428672000.0,666847000.0,77346000.0,443000.0,97879000.0,33807000.0,0.0,0.0,64072000.0,8671000.0,64072000.0,4.02,3.9,13774628.0,16414023.0,0.971851934166,0.0,0.14849564423800002,0.108102290881,0.0895499441641,0.0797454607967,106247000.0,77346000.0,64072000.0,0.13680014647299998,0.0895499441641
2010-12-31,720653000.0,0.070485530346,0.0,720653000.0,0.0,400270000.0,662513000.0,58140000.0,513000.0,80967000.0,28272000.0,0.0,0.0,52695000.0,8673000.0,44022000.0,3.22,3.22,13575772.0,13671053.0,1.1,1.0,0.151,0.1131,0.061,0.0431,108621000.0,81480000.0,52695000.0,0.1124,0.0731
2009-12-31,673202000.0,0.0632,0.0,673202000.0,0.0,370708000.0,621614000.0,51588000.0,716000.0,67656000.0,27607000.0,0.0,0.0,40049000.0,8673000.0,31376000.0,2.31,2.31,13682787.0,13562850.0,1.02,1.0,0.139,0.1016,0.047,0.0616,93801000.0,68372000.0,40049000.0,0.1005,0.0595
