,0,1,2,3,4,5,6,7,8,9,10,11,12,13,14
Date,Depreciation & Amortization,Stock-based compensation,Operating Cash Flow,Capital Expenditure,Acquisitions and disposals,Investment purchases and sales,Investing Cash flow,Issuance (repayment) of debt,Issuance (buybacks) of shares,Dividend payments,Financing Cash Flow,Effect of forex changes on cash,Net cash flow / Change in cash,Free Cash Flow,Net Cash/Marketcap
2019-03-31,12818000.0,80000.0,14404000.0,228000.0,-0.0,0.0,44159000.0,-0.0,0.0,-0.0,-23547000.0,0.0,0.0,14176000.0,0.0
2018-03-31,11850000.0,607000.0,27321000.0,772000.0,-0.0,0.0,-29709000.0,-0.0,0.0,-0.0,2388000.0,0.0,0.0,26549000.0,0.0
2017-03-31,-15015000.0,574000.0,22408000.0,913000.0,-0.0,-50000.0,-33452000.0,-0.0,-50000.0,-0.0,11044000.0,0.0,0.0,21495000.0,0.0
2016-03-31,-13486000.0,514000.0,25758000.0,443000.0,-0.0,-70409000.0,-27257000.0,-0.0,-70409000.0,-0.0,1499000.0,0.0,0.0,25315000.0,0.0
2015-03-31,-13173388.0,535070.0,21366394.0,464598.0,-0.0,0.0,-21717681.0,-0.0,0.0,-2851126.0,351287.0,0.0,0.0,20901796.0,0.0
2014-03-31,-11197657.0,812004.0,25620155.0,271003.0,-0.0,0.0,-10563372.0,-0.0,0.0,-29844516.0,-15056783.0,0.0,0.0,25349152.0,0.0
2013-03-31,-12060609.0,551912.0,21874879.0,320537.0,-0.0,0.0,-12756214.0,-0.0,-2797716.0,-3593021.0,-8333151.0,0.0,785514.0,21554342.0,0.0
2012-03-31,287839.0,551912.0,21874879.0,320537.0,-0.0,0.0,-12756214.0,-0.0,-2803054.0,-3593021.0,-8333151.0,0.0,785514.0,21554342.0,0.0
2011-03-31,266686.0,660328.0,21357624.0,-351112.0,0.0,-32334321.0,-32670442.0,11662431.0,55610.0,0.0,11796464.0,0.0,483646.0,21006512.0,-1.4306
2010-03-31,322050.0,450374.0,21325918.0,-198639.0,0.0,-27067234.0,-27277523.0,5210743.0,269206.0,0.0,5752924.0,0.0,-198681.0,21127279.0,-1.4306
