,0,1,2,3,4,5,6,7,8,9,10,11,12,13,14,15,16,17,18,19,20,21,22,23,24,25,26,27,28,29,30
Date,Revenue,Revenue Growth,Cost of Revenue,Gross Profit,R&D Expenses,SG&A Expense,Operating Expenses,Operating Income,Interest Expense,Earnings before Tax,Income Tax Expense,Net Income - Non-Controlling int,Net Income - Discontinued ops,Net Income,Preferred Dividends,Net Income Com,EPS,EPS Diluted,Weighted Average Shs Out,Weighted Average Shs Out (Dil),Dividend per Share,Gross Margin,EBITDA Margin,EBIT Margin,Profit Margin,Free Cash Flow margin,EBITDA,EBIT,Consolidated Income,Earnings Before Tax Margin,Net Profit Margin
2019-05-31,36882000.0,-0.0634,,31250000.0,,,,54723000.0,,54723000.0,,,,,,,1.17,1.17,46910000.0,,,0.8473,,,,,,,,1.4837,
2018-05-31,39379000.0,0.1151,,33767000.0,,,,23601000.0,,23601000.0,,,,,,,0.5,0.5,46910000.0,,,0.8575,,,,,,,,0.5993,
2017-05-31,35313000.0,0.2056,,29699000.0,,,,9596000.0,,9596000.0,,,,,,,0.2,0.2,46910000.0,,,0.841,,,,,,,,0.2717,
2016-05-31,29290000.0,,,23629000.0,,,,54258000.0,,54258000.0,,,,,,,1.16,1.16,46910000.0,,,0.8067,,,,,,,,1.8524,
