,0,1,2,3,4,5,6,7,8,9,10,11,12,13,14
Date,Depreciation & Amortization,Stock-based compensation,Operating Cash Flow,Capital Expenditure,Acquisitions and disposals,Investment purchases and sales,Investing Cash flow,Issuance (repayment) of debt,Issuance (buybacks) of shares,Dividend payments,Financing Cash Flow,Effect of forex changes on cash,Net cash flow / Change in cash,Free Cash Flow,Net Cash/Marketcap
2018-12-31,276000.0,4181000.0,-45632000.0,-709000.0,0.0,-135290000.0,-135999000.0,0.0,77164000.0,0.0,77164000.0,2905000.0,-101562000.0,-46341000.0,0.493
2017-12-31,206000.0,1373000.0,-25796000.0,-166000.0,0.0,0.0,-166000.0,0.0,141093000.0,0.0,141093000.0,4151000.0,119282000.0,-25962000.0,0.35100000000000003
2016-12-31,138000.0,208000.0,-10117000.0,-306000.0,0.0,0.0,-306000.0,0.0,11317000.0,0.0,11317000.0,-1448000.0,-554000.0,-10423000.0,0.35100000000000003
2016-09-30,40000.0,112000.0,-8197056.0,-273062.0,0.0,0.0,-349705.0,0.0,0.0,0.0,16851028.0,-451000.0,3514000.0,-9994000.0,0.35100000000000003
2015-12-31,,,-9705000.0,-289000.0,,,-289000.0,0.0,13959000.0,0.0,13959000.0,,,,
