,0,1,2,3,4,5,6,7,8,9,10,11,12,13,14,15,16,17,18,19,20,21,22,23,24,25,26,27,28
Date,Cash and cash equivalents,Short-term investments,Cash and short-term investments,Receivables,Inventories,Total current assets,Property Plant & Equipment Net,Goodwill and Intangible Assets,Long-term investments,Tax assets,Total non-current assets,Total assets,Payables,Short-term debt,Total current liabilities,Long-term debt,Total debt,Deferred revenue,Tax Liabilities,Deposit Liabilities,Total non-current liabilities,Total liabilities,Other comprehensive income,Retained earnings (deficit),Total shareholders equity,Investments,Net Debt,Other Assets,Other Liabilities
2018-12-31,108295557.8871,21373963.5311,129669521.4182,7876243.8495,20605239.508,162046801.3025,5931284.2258,1116896.3821,0.0,0.0,9480231.8379,171527033.1404,36131098.4081,26046020.6946,86396542.6918,0.0,26046020.6946,1867023.2996,0.0,2967563.097,2582437.4819,88978980.1737,-3297673.2272,-162718601.8813,82548052.9667,21373963.5311,,4628995.2243,24219423.5891
2017-12-31,32730278.8694,12876015.4172,45606294.2866,1569243.0472,13335242.5937,61621660.0665,4337454.9577,193087.5151,9876360.3386,0.0,14501613.3615,76123273.4281,18884139.208,48336155.2297,87439402.5091,0.0,48336155.2297,1511194.2261,0.0,7331225.6651,1892903.7183,89332306.2273,845864.2684,-116559249.3954,-49158929.2624,22752375.7557,,,20219108.0714
2016-12-31,13120332.6134,7212001.8719,20332334.4853,2965826.2059,9615803.5997,37499756.3715,2031484.3772,284271.7063,15981569.4744,0.0,18444845.9323,55944602.3038,10340931.8934,31138919.5104,49221020.4464,0.0,31138919.5104,698941.2527,0.0,1919854.5716,1063123.3981,50284143.8445,-647744.8524,-84448253.8517,-30697556.3715,23193571.3463,,,7741169.0426
