,0,1,2,3,4,5,6,7,8,9,10,11,12,13,14
Date,Depreciation & Amortization,Stock-based compensation,Operating Cash Flow,Capital Expenditure,Acquisitions and disposals,Investment purchases and sales,Investing Cash flow,Issuance (repayment) of debt,Issuance (buybacks) of shares,Dividend payments,Financing Cash Flow,Effect of forex changes on cash,Net cash flow / Change in cash,Free Cash Flow,Net Cash/Marketcap
2019-12-31,13156000.0,99795000.0,-328681000.0,26285000.0,-0.0,233171000.0,206886000.0,-0.0,-96363000.0,-0.0,23355000.0,-102000.0,-98542000.0,-354966000.0,0.0
2018-12-31,10870000.0,88101000.0,718214000.0,14239000.0,-0.0,-1368330000.0,-1379936000.0,-0.0,-194905000.0,-0.0,851966000.0,-101000.0,190143000.0,703975000.0,0.0
2017-12-31,14741000.0,36615000.0,-80414000.0,9676000.0,-0.0,347743000.0,-28809000.0,-0.0,-4762000.0,-0.0,54391000.0,-46000.0,-54878000.0,-90090000.0,0.0
2016-12-31,15351000.0,25850000.0,-117024000.0,6392000.0,-0.0,253682000.0,-82400000.0,-0.0,-59640000.0,-0.0,203618000.0,-124000.0,4070000.0,-123416000.0,0.0
2015-12-31,12855000.0,19669000.0,-73083000.0,11195000.0,-0.0,226923000.0,-14336000.0,-125000000.0,-55570000.0,-0.0,130783000.0,-159000.0,43205000.0,-84278000.0,0.0
2014-12-31,12927000.0,17017000.0,-142006000.0,9976000.0,-0.0,247995000.0,-37571000.0,-0.0,-12365000.0,-0.0,152984000.0,-109000.0,-26702000.0,-151982000.0,0.0
2013-12-31,14275000.0,17708000.0,-38527000.0,4091000.0,-0.0,319181000.0,49909000.0,-0.0,-39067000.0,-0.0,2216000.0,32000.0,13630000.0,-42618000.0,0.0
2012-12-31,14508000.0,16199000.0,-129756000.0,10583000.0,-0.0,307887000.0,113020000.0,-172407000.0,-25437000.0,-0.0,26801000.0,60000.0,10125000.0,-140339000.0,0.0
2011-12-31,14951000.0,18885000.0,-113742000.0,9722000.0,-0.0,383052000.0,-111952000.0,-1978000.0,209001000.0,-0.0,222335000.0,916000.0,-2443000.0,-123464000.0,0.0
2010-12-31,16551000.0,17399000.0,-55871000.0,-31457000.0,0.0,48170000.0,16713000.0,-1356000.0,8891000.0,0.0,7535000.0,-219000.0,-31842000.0,-87328000.0,0.0693
2009-12-31,14881000.0,10326000.0,39739000.0,-20702000.0,-4440000.0,-123893000.0,-149035000.0,-1285000.0,4820000.0,0.0,3535000.0,-226000.0,-105987000.0,19037000.0,0.187
