,0,1,2,3,4,5,6,7,8,9,10,11,12,13,14,15,16,17,18,19,20,21,22,23,24,25,26,27,28,29,30
Date,Revenue,Revenue Growth,Cost of Revenue,Gross Profit,R&D Expenses,SG&A Expense,Operating Expenses,Operating Income,Interest Expense,Earnings before Tax,Income Tax Expense,Net Income - Non-Controlling int,Net Income - Discontinued ops,Net Income,Preferred Dividends,Net Income Com,EPS,EPS Diluted,Weighted Average Shs Out,Weighted Average Shs Out (Dil),Dividend per Share,Gross Margin,EBITDA Margin,EBIT Margin,Profit Margin,Free Cash Flow margin,EBITDA,EBIT,Consolidated Income,Earnings Before Tax Margin,Net Profit Margin
2019-12-31,0.0,-1.0,0.0,0.0,22205000.0,23865000.0,46070000.0,-45134000.0,50000.0,-42977000.0,12000.0,0.0,0.0,-42989000.0,0.0,-42989000.0,-1.15,-1.15,37294505.0,37294505.0,0.0,0.0,0.0,0.0,0.0,0.0,-42938000.0,-45134000.0,-42989000.0,0.0,0.0
2018-12-31,11268000.0,-0.607537180871,0.0,0.0,45694000.0,29218000.0,74912000.0,-62438000.0,52000.0,-60563000.0,-6968000.0,0.0,0.0,-53595000.0,0.0,-53595000.0,-1.44,-1.44,37191262.0,37191262.0,0.0,0.0,-5.43956336528,-5.54117855875,-4.75638977636,-3.36758963436,-61293000.0,-62438000.0,-53595000.0,-5.3747781327699995,-4.75638977636
2017-12-31,28711000.0,-0.19729926191,0.0,0.0,69866000.0,31726000.0,101592000.0,-72881000.0,119000.0,-72510000.0,-559000.0,0.0,0.0,-71951000.0,0.0,-71951000.0,-2.3,-2.3,31304309.0,31304309.0,0.0,0.0,-2.48942913866,-2.5384347462599997,-2.50604298004,-1.6831179687200002,-71474000.0,-72881000.0,-71951000.0,-2.52551286963,-2.50604298004
2016-12-31,35768000.0,-0.47784703872900003,0.0,0.0,93300000.0,33226000.0,126526000.0,-90758000.0,0.0,-90511000.0,-5356000.0,0.0,0.0,-85155000.0,0.0,-85155000.0,-2.94,-2.94,28979327.0,28979327.0,0.0,0.0,-2.47914336837,-2.53740773876,-2.38075933796,-1.906536569,-88674000.0,-90758000.0,-85155000.0,-2.5305021248,-2.38075933796
2015-12-31,68501000.0,-0.60310443126,0.0,0.0,71414000.0,30689000.0,102103000.0,-33602000.0,0.0,-33643000.0,6738000.0,0.0,0.0,-40381000.0,0.0,-40381000.0,-1.41,-1.41,28586585.0,28586585.0,0.0,0.0,-0.46729244828500005,-0.49053298491999997,-0.589495043868,-0.409950219705,-32010000.0,-33602000.0,-40381000.0,-0.491131516328,-0.589495043868
2014-12-31,172592000.0,156.906678866,0.0,0.0,35691000.0,19328000.0,55019000.0,117573000.0,0.0,117633000.0,14775000.0,0.0,0.0,102858000.0,0.0,102858000.0,3.69,3.32,27838873.0,31025099.0,0.0,0.0,0.687575322147,0.68121929174,0.595960415315,0.622091406322,118670000.0,117573000.0,102858000.0,0.681566932419,0.595960415315
2013-12-31,1093000.0,-0.352104327208,0.0,0.0,22713000.0,9521000.0,32234000.0,-31141000.0,0.0,-31050000.0,130000.0,0.0,0.0,-31180000.0,0.0,-31180000.0,-1.23,-1.23,25275179.0,25275179.0,0.0,0.0,-27.6761207685,-28.4913083257,-28.526989936,-24.8892955169,-30250000.0,-31141000.0,-31180000.0,-28.408051235100004,-28.526989936
2012-12-31,1687000.0,-0.0988247863248,0.0,0.0,17838000.0,7108000.0,24946000.0,-23259000.0,0.0,0.0,0.0,0.0,0.0,-23321000.0,0.0,-23321000.0,-1.12,-1.12,20779450.0,20779450.0,0.0,0.0,-13.3200948429,-13.7871962063,-13.8239478364,-12.9187907528,-22471000.0,-23259000.0,-23321000.0,0.0,-13.8239478364
2011-12-31,1872000.0,-0.09956709956710001,0.0,0.0,14255000.0,5679000.0,19934000.0,-18062000.0,0.0,0.0,0.0,0.0,0.0,-18087000.0,0.0,-18087000.0,-2.98,-2.98,6064542.0,6064542.0,0.0,0.0,-9.28151709402,-9.6485042735,-9.661858974360001,-7.067307692310001,-17375000.0,-18062000.0,-18087000.0,0.0,-9.661858974360001
2010-12-31,2079000.0,1.22591006424,0.0,2079000.0,12666000.0,6074000.0,18740000.0,-16661000.0,47000.0,-16213000.0,0.0,-349000.0,0.0,-16213000.0,0.0,-16213000.0,-4.84,-4.84,,3352331.0,0.0,1.0,-7.461,-7.7759,-7.797999999999999,-7.7932,-15511000.0,-16166000.0,-16562000.0,-7.7985,-7.7985
2009-12-31,934000.0,,0.0,934000.0,7578000.0,3705000.0,11283000.0,-10349000.0,9000.0,-9974000.0,0.0,-233000.0,0.0,-9974000.0,0.0,-9974000.0,-3.16,-3.16,,3159993.0,0.0,1.0,-10.345,-10.6692,-10.679,-11.288,-9662000.0,-9965000.0,-10207000.0,-10.6788,-10.6788
