,0,1,2,3,4,5,6,7,8,9,10,11,12,13,14,15,16,17,18,19,20,21,22,23,24,25,26,27,28
Date,Cash and cash equivalents,Short-term investments,Cash and short-term investments,Receivables,Inventories,Total current assets,Property Plant & Equipment Net,Goodwill and Intangible Assets,Long-term investments,Tax assets,Total non-current assets,Total assets,Payables,Short-term debt,Total current liabilities,Long-term debt,Total debt,Deferred revenue,Tax Liabilities,Deposit Liabilities,Total non-current liabilities,Total liabilities,Other comprehensive income,Retained earnings (deficit),Total shareholders equity,Investments,Net Debt,Other Assets,Other Liabilities
2019-12-28,8966000.0,0.0,8966000.0,3672000.0,3496000.0,19511000.0,286000.0,0.0,0.0,0.0,2630000.0,22141000.0,9134000.0,412000.0,14069000.0,498000.0,910000.0,0.0,0.0,0.0,1170000.0,30504000.0,179086000.0,-187618000.0,-8363000.0,0.0,-8056000.0,0.0,15265000.0
2018-12-29,14802000.0,0.0,14802000.0,2917000.0,2946000.0,23192000.0,279000.0,0.0,0.0,0.0,1673000.0,24865000.0,9497000.0,376000.0,13113000.0,17346000.0,17722000.0,0.0,0.0,0.0,17708000.0,30537000.0,169355000.0,-175166000.0,-5672000.0,0.0,2920000.0,0.0,0.0
2017-12-30,6720000.0,0.0,6720000.0,2997000.0,4105000.0,16925000.0,459000.0,0.0,0.0,0.0,1865000.0,18790000.0,6120000.0,2024000.0,9289000.0,14766000.0,16790000.0,868000.0,0.0,0.0,14802000.0,24116000.0,152640000.0,-158046000.0,-5326000.0,0.0,10070000.0,0.0,25000.0
2016-12-31,9476000.0,0.0,9476000.0,1751000.0,3160000.0,19253000.0,645000.0,0.0,0.0,0.0,715000.0,19968000.0,4028000.0,151000.0,6210000.0,14251000.0,14402000.0,1084000.0,0.0,0.0,14436000.0,20497000.0,144035000.0,-144626000.0,-529000.0,0.0,4926000.0,0.0,0.0
2016-01-02,19684000.0,0.0,19684000.0,716000.0,1658000.0,24197000.0,408000.0,0.0,0.0,0.0,469000.0,24666000.0,3299000.0,13000.0,12252000.0,13699000.0,13712000.0,6857000.0,0.0,0.0,14263000.0,26000000.0,132011000.0,-133395000.0,-1334000.0,0.0,-5972000.0,0.0,0.0
2014-12-27,11040000.0,0.0,11040000.0,1091000.0,1880000.0,15699000.0,393000.0,0.0,0.0,0.0,543000.0,16242000.0,3957000.0,2205000.0,7792000.0,3632000.0,5837000.0,524000.0,0.0,0.0,4027000.0,11523000.0,117546000.0,-112868000.0,4719000.0,0.0,-5203000.0,0.0,0.0
2013-12-28,6701000.0,0.0,6701000.0,4866000.0,2620000.0,16110000.0,1143000.0,0.0,0.0,0.0,1565000.0,17675000.0,3795000.0,0.0,5463000.0,5099000.0,5099000.0,1012000.0,0.0,0.0,5668000.0,10662000.0,104469000.0,-97487000.0,7013000.0,0.0,-1602000.0,0.0,0.0
2012-12-29,7755000.0,415000.0,8170000.0,3434000.0,7380000.0,19707000.0,2560000.0,0.0,0.0,0.0,2690000.0,22397000.0,3367000.0,3493000.0,8591000.0,3493000.0,6986000.0,28000.0,0.0,0.0,3792000.0,8685000.0,100403000.0,-86721000.0,13712000.0,415000.0,-769000.0,0.0,0.0
2011-12-31,10535000.0,0.0,10535000.0,11399000.0,6057000.0,28797000.0,2771000.0,0.0,444000.0,0.0,3376000.0,32173000.0,6155000.0,2144000.0,11022000.0,1118000.0,3262000.0,0.0,0.0,0.0,1212000.0,12234000.0,92709000.0,-72740000.0,19939000.0,444000.0,-7273000.0,0.0,0.0
2011-01-01,14210000.0,824000.0,15034000.0,6451000.0,4509000.0,27390000.0,4077000.0,0.0,890000.0,0.0,5304000.0,32694000.0,6256000.0,674000.0,9699000.0,1063000.0,1737000.0,0.0,0.0,0.0,1148000.0,10847000.0,-111000.0,-67141000.0,21847000.0,1714000.0,-13297000.0,1396000.0,2769000.0
2010-01-02,9942000.0,3949000.0,13891000.0,4273000.0,2232000.0,21250000.0,4779000.0,0.0,941000.0,0.0,5941000.0,27191000.0,4057000.0,108000.0,7871000.0,51000.0,159000.0,0.0,0.0,0.0,51000.0,7922000.0,-57000.0,-52026000.0,19269000.0,4890000.0,-13732000.0,854000.0,3706000.0
