,0,1,2,3,4,5,6,7,8,9,10,11,12,13,14,15,16,17,18,19,20,21,22,23,24,25,26,27,28
Date,Cash and cash equivalents,Short-term investments,Cash and short-term investments,Receivables,Inventories,Total current assets,Property Plant & Equipment Net,Goodwill and Intangible Assets,Long-term investments,Tax assets,Total non-current assets,Total assets,Payables,Short-term debt,Total current liabilities,Long-term debt,Total debt,Deferred revenue,Tax Liabilities,Deposit Liabilities,Total non-current liabilities,Total liabilities,Other comprehensive income,Retained earnings (deficit),Total shareholders equity,Investments,Net Debt,Other Assets,Other Liabilities
2019-12-31,143093000.0,0.0,143093000.0,0.0,0.0,143596000.0,2060000.0,567000.0,0.0,0.0,3427000.0,147023000.0,4125000.0,556000.0,4743000.0,447000.0,1003000.0,0.0,0.0,0.0,447000.0,5336000.0,403219151.0,-299529000.0,141687000.0,0.0,-142090000.0,0.0,146000.0
2018-12-31,76928000.0,0.0,76928000.0,0.0,0.0,77165000.0,400000.0,0.0,0.0,0.0,453000.0,77618000.0,4627000.0,6000.0,4627000.0,6000.0,12000.0,0.0,0.0,0.0,644000.0,4946000.0,302759000.0,-230087000.0,72672000.0,0.0,-76916000.0,0.0,0.0
2017-12-31,52032000.0,56053000.0,108085000.0,0.0,0.0,108825000.0,905000.0,0.0,0.0,0.0,1504000.0,110329000.0,10956000.0,16000.0,10956000.0,33000.0,49000.0,0.0,0.0,0.0,1005000.0,11442000.0,297459000.0,-198502000.0,98887000.0,56053000.0,-51983000.0,0.0,0.0
2016-12-31,32301000.0,70758000.0,103059000.0,0.0,0.0,103485000.0,849000.0,0.0,50046000.0,0.0,50895000.0,154380000.0,9519000.0,15000.0,9519000.0,47000.0,62000.0,0.0,0.0,0.0,441000.0,9716000.0,293111000.0,-148278000.0,144664000.0,120804000.0,-32239000.0,0.0,0.0
2015-12-31,39526000.0,34956000.0,74482000.0,32000.0,0.0,74796000.0,89000.0,0.0,38458000.0,0.0,38547000.0,113343000.0,4792000.0,3000.0,4792000.0,7000.0,10000.0,0.0,0.0,0.0,138000.0,4923000.0,219986000.0,-111276000.0,108420000.0,73414000.0,-39516000.0,0.0,0.0
2014-12-31,14906087.0,24191219.0,39097306.0,65447.0,0.0,39301759.0,104694.0,0.0,2003099.0,0.0,2121188.0,41422947.0,5203308.0,0.0,5203308.0,0.0,0.0,0.0,0.0,0.0,0.0,5275649.0,125566705.0,-89415563.0,36147298.0,26194318.0,-14906087.0,0.0,72341.0
2013-12-31,11006392.0,2820600.0,13826992.0,27946.0,0.0,15296351.0,75465.0,0.0,0.0,0.0,352755.0,15649106.0,2350660.0,250000.0,2620105.0,2036489.0,2286489.0,0.0,1797412.0,0.0,4863987.0,7484092.0,0.0,-65693708.0,-65693708.0,2820600.0,-11540503.0,1441413.0,19445.0
2012-12-31,2000539.0,0.0,2000539.0,28545.0,0.0,2064082.0,157801.0,85264.0,0.0,0.0,277908.0,2341990.0,371428.0,0.0,385387.0,0.0,0.0,0.0,1059487.0,0.0,1082572.0,1467959.0,0.0,-51635973.0,-51101207.0,0.0,-2000539.0,34998.0,13959.0
