,0,1,2,3,4,5,6,7,8,9,10,11,12,13,14,15,16,17,18,19,20,21,22,23,24,25,26,27,28,29,30
Date,Revenue,Revenue Growth,Cost of Revenue,Gross Profit,R&D Expenses,SG&A Expense,Operating Expenses,Operating Income,Interest Expense,Earnings before Tax,Income Tax Expense,Net Income - Non-Controlling int,Net Income - Discontinued ops,Net Income,Preferred Dividends,Net Income Com,EPS,EPS Diluted,Weighted Average Shs Out,Weighted Average Shs Out (Dil),Dividend per Share,Gross Margin,EBITDA Margin,EBIT Margin,Profit Margin,Free Cash Flow margin,EBITDA,EBIT,Consolidated Income,Earnings Before Tax Margin,Net Profit Margin
2018-12-31,231465000.0,0.170161673559,58053000.0,173412000.0,0.0,10039000.0,10039000.0,163373000.0,57050000.0,72756000.0,403000.0,0.0,0.0,72353000.0,0.0,72353000.0,0.95,0.91,76106372.0,76022375.0,1.36,0.7492,0.561,0.5608,0.313,-1.7,129806000.0,129806000.0,72353000.0,0.3143,0.3126
2017-12-31,197806000.0,0.17682825254,49879000.0,147927000.0,0.0,8073000.0,8073000.0,139854000.0,37094000.0,109814000.0,416000.0,0.0,0.0,109398000.0,0.0,109398000.0,1.47,1.38,75805019.0,74171268.0,1.36,0.7478,0.743,0.7427,0.5529999999999999,-0.8408,146908000.0,146908000.0,109398000.0,0.5552,0.5531
2016-12-31,168084000.0,0.092483182217,44013000.0,124071000.0,0.0,7359000.0,7359000.0,116712000.0,28452000.0,111188000.0,-490000.0,0.0,0.0,111678000.0,0.0,111678000.0,1.72,1.6,69614858.0,64918191.0,1.36,0.7381,0.831,0.8308,0.664,0.36,139640000.0,139640000.0,111678000.0,0.6615,0.6644
2015-12-31,153855000.0,0.13461552643400002,40497000.0,113358000.0,0.0,7329000.0,7329000.0,106029000.0,23374000.0,34298000.0,1343000.0,0.0,0.0,32955000.0,0.0,32955000.0,0.55,0.55,64005387.0,59715290.0,1.36,0.7368,0.375,0.3748,0.214,-0.4117,57672000.0,57672000.0,32955000.0,0.2229,0.2142
2014-12-31,135601000.0,0.492154144108,16024000.0,119577000.0,0.0,4998000.0,29303000.0,90274000.0,13269000.0,46504000.0,929000.0,0.0,0.0,45575000.0,0.0,45575000.0,0.88,0.86,57918320.0,51846164.0,1.48,0.8818,0.441,0.4408,0.336,-2.1355,59773000.0,59773000.0,45575000.0,0.3429,0.3361
2013-12-31,90876000.0,1.4226493561899998,0.0,90876000.0,0.0,0.0,40355000.0,50521000.0,0.0,61920000.0,0.0,0.0,0.0,61920000.0,0.0,61920000.0,1.76,1.76,,35092722.0,1.48,1.0,0.6809999999999999,0.6814,0.6809999999999999,-0.5488,61920000.0,61920000.0,61920000.0,0.6814,0.6814
2012-12-31,37511000.0,,0.0,37511000.0,0.0,0.0,17719000.0,19792000.0,0.0,31784000.0,0.0,0.0,0.0,31784000.0,0.0,31784000.0,2.14,2.14,,14860838.0,1.71,1.0,0.847,0.8473,0.847,-2.9355,31784000.0,31784000.0,31784000.0,0.8473,0.8473
