,0,1,2,3,4,5,6,7,8,9,10,11,12,13,14,15,16,17,18,19,20,21,22,23,24,25,26,27,28,29,30
Date,Revenue,Revenue Growth,Cost of Revenue,Gross Profit,R&D Expenses,SG&A Expense,Operating Expenses,Operating Income,Interest Expense,Earnings before Tax,Income Tax Expense,Net Income - Non-Controlling int,Net Income - Discontinued ops,Net Income,Preferred Dividends,Net Income Com,EPS,EPS Diluted,Weighted Average Shs Out,Weighted Average Shs Out (Dil),Dividend per Share,Gross Margin,EBITDA Margin,EBIT Margin,Profit Margin,Free Cash Flow margin,EBITDA,EBIT,Consolidated Income,Earnings Before Tax Margin,Net Profit Margin
2018-11-30,58493000.0,10.2682,,56029000.0,,,,10532000.0,,10532000.0,-44385000.0,,,,,,0.97,0.97,56659000.0,,,0.9579,,,,,,,,0.1801,
2017-11-30,5191000.0,1.0181,,2588000.0,,,,-13915000.0,,-13915000.0,0.0,,,,,,-0.25,-0.25,56659000.0,,,0.4986,,,,,,,,-2.6806,
2016-11-30,-287054000.0,-12.7693,,-293472000.0,,,,-13312000.0,,-13312000.0,0.0,,,,,,-0.23,-0.23,56659000.0,,,1.0224,,,,,,,,0.0464,
2015-11-30,24390000.0,,,20158000.0,,,,-471166000.0,,-471166000.0,-6580000.0,,,,,,-8.22,-8.22,56547000.0,,,0.8265,,,,,,,,-19.317999999999998,
