,0,1,2,3,4,5,6,7,8,9,10,11,12,13,14,15,16,17,18,19,20,21,22,23,24,25,26,27,28,29,30
Date,Revenue,Revenue Growth,Cost of Revenue,Gross Profit,R&D Expenses,SG&A Expense,Operating Expenses,Operating Income,Interest Expense,Earnings before Tax,Income Tax Expense,Net Income - Non-Controlling int,Net Income - Discontinued ops,Net Income,Preferred Dividends,Net Income Com,EPS,EPS Diluted,Weighted Average Shs Out,Weighted Average Shs Out (Dil),Dividend per Share,Gross Margin,EBITDA Margin,EBIT Margin,Profit Margin,Free Cash Flow margin,EBITDA,EBIT,Consolidated Income,Earnings Before Tax Margin,Net Profit Margin
2018-12-31,187946000.0,-0.17309316813900003,39249000.0,148697000.0,0.0,112588000.0,172788000.0,-24091000.0,77975000.0,-86373000.0,0.0,0.0,0.0,-86373000.0,172000.0,-86373000.0,-8.4,-8.4,10140532.0,9784507.0,0.92,0.7912,0.255,-0.0447,-0.46,0.0308,47909000.0,-8398000.0,-86373000.0,-0.4596,-0.4596
2017-12-31,227288000.0,-0.216909852022,26117000.0,201171000.0,0.0,108942000.0,167099000.0,34072000.0,76438000.0,-78899000.0,0.0,0.0,0.0,-78899000.0,89000.0,-78899000.0,-7.5,-7.5,10038871.0,10027469.0,3.0,0.8851,0.239,-0.0108,-0.34700000000000003,0.2022,54419000.0,-2461000.0,-78899000.0,-0.3471,-0.3471
2016-12-31,290245000.0,-0.07387139593360001,8547000.0,281698000.0,0.0,114923000.0,163476000.0,118222000.0,75987000.0,62878000.0,0.0,0.0,0.0,62878000.0,210000.0,62878000.0,6.0,6.0,9985538.0,9995514.0,3.0,0.9706,0.677,0.4784,0.217,0.6295,196482000.0,138865000.0,62878000.0,0.2166,0.2166
2015-12-31,313396000.0,0.183175587159,6024000.0,307372000.0,0.0,110868000.0,164234000.0,143138000.0,73561000.0,89737000.0,0.0,0.0,0.0,89737000.0,1208000.0,89737000.0,8.55,8.4,10111001.0,10001677.0,3.0,0.9808,0.705,0.5211,0.28600000000000003,0.0864,220921000.0,163298000.0,89737000.0,0.2863,0.2863
2014-12-31,264877000.0,0.30870022777,7166000.0,257711000.0,0.0,110415000.0,167866000.0,89845000.0,78610000.0,13047000.0,0.0,0.0,0.0,13047000.0,2217000.0,13047000.0,1.2,1.2,9114334.0,9840435.0,3.0,0.9729,0.602,0.34600000000000003,0.049,-0.2465,159375000.0,91657000.0,13047000.0,0.0493,0.0493
2013-12-31,202397000.0,0.339516999014,9858000.0,192539000.0,0.0,78409000.0,163874000.0,28665000.0,58386000.0,-58592000.0,0.0,0.0,0.0,-58592000.0,-2902000.0,-55690000.0,-8.55,-8.55,2700312.0,6539016.0,3.0,0.9513,0.315,-0.001,-0.275,-1.6106,63674000.0,-206000.0,-58592000.0,-0.2895,-0.2895
2012-12-31,151097000.0,0.239261841296,5446000.0,145651000.0,0.0,50896000.0,100742000.0,44909000.0,49432000.0,-3798000.0,0.0,0.0,0.0,-3798000.0,-514000.0,-3798000.0,-1.2,-1.2,2699908.0,2701162.0,3.0,0.9640000000000001,0.631,0.302,-0.025,-0.9497,95278000.0,45634000.0,-3798000.0,-0.0251,-0.0251
2011-12-31,121925000.0,2.63217945663,4132000.0,117793000.0,0.0,39920000.0,79119000.0,38674000.0,43165000.0,-3857000.0,0.0,0.0,0.0,-3857000.0,-479000.0,-3378000.0,-1.2,-1.2,3227373.0,2760630.0,3.0,0.9661,0.639,0.3224,-0.027999999999999997,-1.271,77946000.0,39308000.0,-3857000.0,-0.0316,-0.0316
2010-12-31,33568000.0,1.0,355000.0,33213000.0,0.0,11654000.0,31933000.0,1280000.0,10651000.0,-14193000.0,0.0,647000.0,0.0,-14193000.0,0.0,-14193000.0,-6.45,-6.45,2093319.0,2178489.0,0.75,0.9894,0.196,-0.1055,-0.423,-5.0245,6578000.0,-3542000.0,-13546000.0,-0.4228,-0.4228
2009-12-31,0.0,,0.0,0.0,0.0,994000.0,994000.0,-994000.0,0.0,-648000.0,0.0,0.0,0.0,-648000.0,0.0,-648000.0,-0.45,-0.3,1979750.0,1433667.0,0.0,0.0,,0.0,,0.0,-648000.0,-648000.0,-648000.0,0.0,0.0
