,0,1,2,3,4,5,6,7,8,9,10,11,12,13,14,15,16,17,18,19,20,21,22,23,24,25,26,27,28,29,30
Date,Revenue,Revenue Growth,Cost of Revenue,Gross Profit,R&D Expenses,SG&A Expense,Operating Expenses,Operating Income,Interest Expense,Earnings before Tax,Income Tax Expense,Net Income - Non-Controlling int,Net Income - Discontinued ops,Net Income,Preferred Dividends,Net Income Com,EPS,EPS Diluted,Weighted Average Shs Out,Weighted Average Shs Out (Dil),Dividend per Share,Gross Margin,EBITDA Margin,EBIT Margin,Profit Margin,Free Cash Flow margin,EBITDA,EBIT,Consolidated Income,Earnings Before Tax Margin,Net Profit Margin
2019-12-31,127982000.0,0.0693147068162,0.0,0.0,0.0,32973000.0,32973000.0,43035000.0,2091000.0,40519000.0,8113000.0,0.0,0.0,32406000.0,0.0,32406000.0,1.3,1.26,24809000.0,25653000.0,1.2200912174,0.0,0.379537747496,0.336258223813,0.253207482302,0.28332890562699997,48574000.0,43035000.0,32406000.0,0.316599209264,0.253207482302
2018-12-31,119686000.0,0.0180930426424,0.0,0.0,0.0,31371000.0,84411000.0,35275000.0,1513000.0,34709000.0,4662000.0,0.0,0.0,30047000.0,0.0,30047000.0,1.08,1.04,23562000.0,24448000.0,0.6895860602089999,0.0,0.34037397857699997,0.294729542302,0.25104857711,0.28304897816,40738000.0,35275000.0,30047000.0,0.290000501312,0.25104857711
2017-12-31,117559000.0,0.0747367073795,0.0,0.0,0.0,29686000.0,83340000.0,34219000.0,82000.0,34283000.0,11340000.0,0.0,0.0,22943000.0,0.0,22943000.0,0.54,0.52,20770000.0,21627000.0,0.779904748694,0.0,0.330089572045,0.291079372911,0.195161578441,0.200095271311,38805000.0,34219000.0,22943000.0,0.2916237804,0.195161578441
2016-12-31,109384000.0,0.06879806142089999,0.0,0.0,0.0,28385000.0,78187000.0,31197000.0,190000.0,31356000.0,10838000.0,0.0,0.0,20518000.0,0.0,20518000.0,0.49,0.48,20713000.0,21037000.0,1.3572277416,0.0,0.323831638997,0.28520624588599996,0.18757770789099998,0.20907993856499998,35422000.0,31197000.0,20518000.0,0.286659840562,0.18757770789099998
2015-12-31,102343000.0,0.035472545706599995,0.0,0.0,0.0,27177000.0,75896000.0,26447000.0,220000.0,27360000.0,9750000.0,0.0,0.0,17610000.0,0.0,17610000.0,0.42,0.41,20741000.0,20981000.0,0.479195462561,0.0,0.298564630703,0.258415328845,0.17206843653200002,0.185132349061,30556000.0,26447000.0,17610000.0,0.267336310251,0.17206843653200002
2014-12-31,98837000.0,0.0674694891457,0.0,0.0,0.0,25018000.0,70541000.0,28296000.0,305000.0,28092000.0,9936000.0,0.0,0.0,18156000.0,0.0,18156000.0,0.44,0.43,20764000.0,21076000.0,0.11918770165100001,0.0,0.324777158352,0.286289547437,0.183696389004,0.239839331424,32100000.0,28296000.0,18156000.0,0.284225543066,0.183696389004
2013-12-31,92590000.0,0.0713831129008,0.0,0.0,0.0,25208000.0,67784000.0,24806000.0,397000.0,24488000.0,9004000.0,0.0,0.0,15484000.0,0.0,15484000.0,0.37,0.37,20677000.0,21099000.0,0.10152139911800001,0.0,0.308219030133,0.267912301544,0.167231882493,0.18497677934999998,28538000.0,24806000.0,15484000.0,0.264477805379,0.167231882493
2012-12-31,86421000.0,0.140615307456,0.0,0.0,0.0,23542000.0,63702000.0,22719000.0,541000.0,22207000.0,7139000.0,0.0,0.0,15068000.0,0.0,15068000.0,2.22,2.17,6775000.0,6951000.0,2.49791396921,0.0,0.317260850951,0.262887492623,0.17435577001,0.19421205494000002,27418000.0,22719000.0,15068000.0,0.256963006677,0.17435577001
2011-12-31,75767000.0,0.19510079182300002,0.0,0.0,0.0,23300000.0,57032000.0,18735000.0,629000.0,18160000.0,6596000.0,0.0,0.0,11564000.0,0.0,11564000.0,1.73,1.69,6672000.0,6842000.0,0.86407483192,0.0,0.31412092335700004,0.247271239458,0.152625813349,0.206805073449,23800000.0,18735000.0,11564000.0,0.239682183536,0.152625813349
2010-12-31,63398000.0,0.0989045274908,24635000.0,38763000.0,0.0,20202000.0,24906000.0,13857000.0,491000.0,13315000.0,4816000.0,0.0,0.0,8499000.0,0.0,8499000.0,0.42700000000000005,0.42,19999722.0,19911000.0,0.253,0.6114,0.292,0.2178,0.134,0.2061,18510000.0,13806000.0,8499000.0,0.21,0.1341
2009-12-31,57692000.0,0.1309,24148000.0,33544000.0,0.0,16016000.0,19847000.0,13697000.0,405000.0,13117000.0,4626000.0,0.0,0.0,8491000.0,0.0,8491000.0,0.42700000000000005,0.42,19980963.0,19911000.0,0.213,0.5814,0.301,0.2344,0.147,0.1865,17353000.0,13522000.0,8491000.0,0.2274,0.1472
