,0,1,2,3,4,5,6,7,8,9,10,11,12,13,14,15,16,17,18,19,20,21,22,23,24,25,26,27,28,29,30
Date,Revenue,Revenue Growth,Cost of Revenue,Gross Profit,R&D Expenses,SG&A Expense,Operating Expenses,Operating Income,Interest Expense,Earnings before Tax,Income Tax Expense,Net Income - Non-Controlling int,Net Income - Discontinued ops,Net Income,Preferred Dividends,Net Income Com,EPS,EPS Diluted,Weighted Average Shs Out,Weighted Average Shs Out (Dil),Dividend per Share,Gross Margin,EBITDA Margin,EBIT Margin,Profit Margin,Free Cash Flow margin,EBITDA,EBIT,Consolidated Income,Earnings Before Tax Margin,Net Profit Margin
2018-12-31,24403000.0,1.0,381635000.0,-357232000.0,0.0,11934000.0,11934000.0,-21465000.0,1300000.0,-46960000.0,297000.0,0.0,0.0,-47257000.0,1511000.0,-47257000.0,-1.95,-1.95,25002978.0,25002978.0,0.0,-14.6388558784,0.41003155349799997,-0.879604966602,-1.93652419784,-1.0617956808600002,10006000.0,-21465000.0,-47257000.0,-1.9243535630900002,-1.93652419784
2017-12-31,0.0,-1.0,0.0,0.0,0.0,0.0,0.0,0.0,0.0,0.0,0.0,0.0,0.0,0.0,0.0,0.0,0.0,0.0,0.0,0.0,0.0,0.0,0.0,0.0,0.0,0.0,0.0,0.0,0.0,0.0,0.0
2016-12-31,231709000.0,,159030000.0,72679000.0,0.0,36486000.0,111576000.0,-38897000.0,13350000.0,-52330000.0,-3184000.0,0.0,0.0,-49146000.0,0.0,-49146000.0,-2.46,-2.46,,19998163.0,0.0,0.3137,-0.027999999999999997,-0.1682,-0.212,-0.0156,-6507000.0,-38980000.0,-49146000.0,-0.2258,-0.2121
