,0,1,2,3,4,5,6,7,8,9,10,11,12,13,14,15,16,17,18,19,20,21,22,23,24,25,26,27,28
Date,Cash and cash equivalents,Short-term investments,Cash and short-term investments,Receivables,Inventories,Total current assets,Property Plant & Equipment Net,Goodwill and Intangible Assets,Long-term investments,Tax assets,Total non-current assets,Total assets,Payables,Short-term debt,Total current liabilities,Long-term debt,Total debt,Deferred revenue,Tax Liabilities,Deposit Liabilities,Total non-current liabilities,Total liabilities,Other comprehensive income,Retained earnings (deficit),Total shareholders equity,Investments,Net Debt,Other Assets,Other Liabilities
2018-12-31,18365000.0,0.0,18365000.0,102709000.0,7257000.0,134135000.0,122565000.0,19822000.0,0.0,13738000.0,241992000.0,376127000.0,36171000.0,3431000.0,71021000.0,330104000.0,333535000.0,1199000.0,0.0,0.0,340132000.0,273160000.0,252073000.0,-142573000.0,102967000.0,0.0,315170000.0,0.0,-137993000.0
2017-12-31,1353000.0,0.0,1353000.0,0.0,0.0,1395000.0,0.0,0.0,260612000.0,0.0,260612000.0,262007000.0,19000.0,0.0,671000.0,0.0,0.0,0.0,544000.0,0.0,0.0,257007000.0,4718000.0,281000.0,5000000.0,260612000.0,-1353000.0,0.0,256336000.0
