,0,1,2,3,4,5,6,7,8,9,10,11,12,13,14
Date,Depreciation & Amortization,Stock-based compensation,Operating Cash Flow,Capital Expenditure,Acquisitions and disposals,Investment purchases and sales,Investing Cash flow,Issuance (repayment) of debt,Issuance (buybacks) of shares,Dividend payments,Financing Cash Flow,Effect of forex changes on cash,Net cash flow / Change in cash,Free Cash Flow,Net Cash/Marketcap
2018-12-31,48605000.0,4544000.0,34135000.0,0.0,-0.0,-83444000.0,949138000.0,-0.0,-83444000.0,-31244000.0,-607718000.0,-2614000.0,438931000.0,34135000.0,0.0
2017-12-31,57454000.0,23731000.0,25172000.0,0.0,-0.0,0.0,84492000.0,-0.0,0.0,-33466000.0,-119571000.0,8264000.0,-1643000.0,25172000.0,0.0
2016-12-31,74559000.0,18239000.0,28130000.0,0.0,-0.0,-58616000.0,391624000.0,-0.0,-58616000.0,-35184000.0,-630856000.0,-6434000.0,-217536000.0,28130000.0,0.0
2015-12-31,63410000.0,837000.0,-50180000.0,0.0,-0.0,-38082000.0,-1900532000.0,-0.0,-38082000.0,-9584000.0,2231566000.0,890000.0,281744000.0,-50180000.0,0.0
2013-12-31,3155000.0,0.0,7245000.0,0.0,0.0,0.0,-7263000.0,-656000.0,0.0,0.0,-656000.0,545000.0,-129000.0,7245000.0,-1.6928
