,0,1,2,3,4,5,6,7,8,9,10,11,12,13,14,15,16,17,18,19,20,21,22,23,24,25,26,27,28,29,30
Date,Revenue,Revenue Growth,Cost of Revenue,Gross Profit,R&D Expenses,SG&A Expense,Operating Expenses,Operating Income,Interest Expense,Earnings before Tax,Income Tax Expense,Net Income - Non-Controlling int,Net Income - Discontinued ops,Net Income,Preferred Dividends,Net Income Com,EPS,EPS Diluted,Weighted Average Shs Out,Weighted Average Shs Out (Dil),Dividend per Share,Gross Margin,EBITDA Margin,EBIT Margin,Profit Margin,Free Cash Flow margin,EBITDA,EBIT,Consolidated Income,Earnings Before Tax Margin,Net Profit Margin
2019-12-31,257437000.0,0.0253553775625,32738000.0,224699000.0,0.0,16730000.0,212614000.0,51321000.0,47453000.0,-25414000.0,0.0,0.0,0.0,-24458000.0,-1089000.0,-24458000.0,-4.35,-4.35,12260000.0,12260000.0,0.0,0.872831022736,0.25735616869399996,0.199353628266,-0.09500576840160001,0.533377098086,66253000.0,51321000.0,-24458000.0,-0.0987192983138,-0.09500576840160001
2018-12-31,251071000.0,-0.328976029036,17894000.0,104053000.0,0.0,12838000.0,85974000.0,192538000.0,70178000.0,122360000.0,0.0,0.0,0.0,139537000.0,2191000.0,139537000.0,6.76,6.76,12244000.0,12244000.0,0.0,0.414436553804,0.853252665581,0.766866742874,0.55576709377,0.752468425266,214227000.0,192538000.0,139537000.0,0.48735218324699997,0.55576709377
2017-12-31,374161000.0,0.008580023613260001,126982000.0,114202000.0,0.0,13513000.0,194042000.0,183975000.0,82902000.0,89208000.0,0.0,0.0,0.0,88667000.0,1264000.0,88667000.0,3.96,3.96,12232000.0,12232000.0,0.0,0.305221549012,0.5878966541139999,0.491700097017,0.236975526578,0.320284583375,219968000.0,183975000.0,88667000.0,0.238421428209,0.236975526578
2016-12-31,370978000.0,-0.241119445882,119621000.0,114232000.0,0.0,16979000.0,214314000.0,185745000.0,90047000.0,95214000.0,0.0,0.0,0.0,96892000.0,1663000.0,96892000.0,7.78,7.78,12232000.0,12232000.0,0.0,0.307921224439,0.6254198362169999,0.500690067875,0.26117990824299997,0.276439573236,232017000.0,185745000.0,96892000.0,0.25665672897,0.26117990824299997
2015-12-31,488849000.0,0.222880686025,155959000.0,131493000.0,0.0,7036000.0,966760000.0,-477911000.0,93827000.0,-573413000.0,0.0,0.0,0.0,-571720000.0,-12228000.0,-571720000.0,-45.75,-45.75,12230000.0,12230000.0,0.0,0.268984901268,-0.771369073068,-0.9776249925849999,-1.16952269515,0.395314299508,-377083000.0,-477911000.0,-571720000.0,-1.17298593226,-1.16952269515
2014-12-31,399752000.0,0.116260886805,3975000.0,118439000.0,0.0,36437000.0,210833000.0,188919000.0,80185000.0,108749000.0,0.0,0.0,0.0,108830000.0,-2177000.0,108830000.0,0.94,0.94,113262000.0,113262000.0,0.0,0.29628119434,0.672404390722,0.472590506114,0.272243791151,0.521075566851,268795000.0,188919000.0,108830000.0,0.272041165523,0.272243791151
2013-12-31,358117000.0,-0.05546661321330001,1103000.0,94299000.0,0.0,36821000.0,121881000.0,236236000.0,64396000.0,172143000.0,0.0,0.0,0.0,172078000.0,-3442000.0,172078000.0,1.54,1.54,109584000.0,109584000.0,0.0,0.263318971174,0.839426779516,0.659661507273,0.480507767015,0.689925359589,300613000.0,236236000.0,172078000.0,0.480689271942,0.480507767015
2012-12-31,379147000.0,1.0,1857000.0,377290000.0,0.0,29714000.0,111982000.0,267165000.0,53972000.0,213405000.0,0.0,0.0,0.0,213355000.0,-4267000.0,213355000.0,0.0,0.0,106028000.0,106028000.0,0.0,0.995102163541,0.8582053926309999,0.704647537762,0.562723692921,0.714042310766,325386000.0,267165000.0,213355000.0,0.5628555678930001,0.562723692921
2011-12-31,0.0,0.0,0.0,0.0,0.0,0.0,0.0,0.0,0.0,0.0,0.0,0.0,0.0,0.0,0.0,0.0,0.0,0.0,0.0,0.0,0.0,0.0,0.0,0.0,0.0,0.0,0.0,0.0,0.0,0.0,0.0
2010-12-31,0.0,-1.0,0.0,0.0,0.0,0.0,0.0,0.0,0.0,0.0,0.0,0.0,0.0,0.0,0.0,0.0,0.0,0.0,0.0,0.0,0.0,0.0,0.0,0.0,0.0,0.0,0.0,0.0,0.0,0.0,0.0
2009-12-31,256084000.0,-0.122,18995000.0,237089000.0,0.0,23102000.0,83114000.0,153975000.0,40108000.0,114080000.0,0.0,0.0,0.0,114080000.0,35126000.0,78954000.0,11.7,11.7,6945114.0,6770200.0,21.55,0.9258,0.836,0.6021,0.308,0.3544,214200000.0,154188000.0,114080000.0,0.4455,0.4455
