,0,1,2,3,4,5,6,7,8,9,10,11,12,13,14,15,16,17,18,19,20,21,22,23,24,25,26,27,28,29,30
Date,Revenue,Revenue Growth,Cost of Revenue,Gross Profit,R&D Expenses,SG&A Expense,Operating Expenses,Operating Income,Interest Expense,Earnings before Tax,Income Tax Expense,Net Income - Non-Controlling int,Net Income - Discontinued ops,Net Income,Preferred Dividends,Net Income Com,EPS,EPS Diluted,Weighted Average Shs Out,Weighted Average Shs Out (Dil),Dividend per Share,Gross Margin,EBITDA Margin,EBIT Margin,Profit Margin,Free Cash Flow margin,EBITDA,EBIT,Consolidated Income,Earnings Before Tax Margin,Net Profit Margin
2018-10,7000000.0,,,7000000.0,,,1000000.0,6000000.0,,6000000.0,,,,6000000.0,,6000000.0,0.7,0.7,9000000.0,9000000.0,,1.0,0.85714285714286,0.85714285714286,0.85714285714286,,6000000.0,6000000.0,6000000.0,0.85714285714286,0.85714285714286
2017-10,8000000.0,,,8000000.0,,,0.0,8000000.0,,7000000.0,,,,7000000.0,,7000000.0,0.76,0.76,9000000.0,9000000.0,,1.0,1.0,0.875,0.875,,8000000.0,7000000.0,7000000.0,0.875,0.875
2016-10,7000000.0,,,7000000.0,,,0.0,7000000.0,,6000000.0,,,,6000000.0,,6000000.0,0.67,0.67,9000000.0,9000000.0,,1.0,1.0,0.85714285714286,0.85714285714286,,7000000.0,6000000.0,6000000.0,0.85714285714286,0.85714285714286
2015-10,12000000.0,,,12000000.0,,,0.0,12000000.0,,12000000.0,,,,12000000.0,,12000000.0,1.26,1.26,9000000.0,9000000.0,,1.0,1.0,1.0,1.0,,12000000.0,12000000.0,12000000.0,1.0,1.0
2014-10,19000000.0,,,19000000.0,,,0.0,19000000.0,,18000000.0,,,,18000000.0,,18000000.0,1.96,1.96,9000000.0,9000000.0,,1.0,1.0,0.94736842105263,0.94736842105263,,19000000.0,18000000.0,18000000.0,0.94736842105263,0.94736842105263
