,0,1,2,3,4,5,6,7,8,9,10,11,12,13,14,15,16,17,18,19,20,21,22,23,24,25,26,27,28,29,30
Date,Revenue,Revenue Growth,Cost of Revenue,Gross Profit,R&D Expenses,SG&A Expense,Operating Expenses,Operating Income,Interest Expense,Earnings before Tax,Income Tax Expense,Net Income - Non-Controlling int,Net Income - Discontinued ops,Net Income,Preferred Dividends,Net Income Com,EPS,EPS Diluted,Weighted Average Shs Out,Weighted Average Shs Out (Dil),Dividend per Share,Gross Margin,EBITDA Margin,EBIT Margin,Profit Margin,Free Cash Flow margin,EBITDA,EBIT,Consolidated Income,Earnings Before Tax Margin,Net Profit Margin
2005-12,601000000.0,,439000000.0,162000000.0,,23000000.0,,,,,14000000.0,,,127000000.0,,127000000.0,5.7,5.62,22000000.0,23000000.0,,0.26955074875207996,0.24126455906822,0.23460898502496,0.21131447587354002,,145000000.0,141000000.0,127000000.0,0.0,0.21131447587354002
2004-12,467000000.0,,368000000.0,99000000.0,,18000000.0,,,,,3000000.0,,,75000000.0,,75000000.0,3.53,3.45,21000000.0,22000000.0,,0.21199143468951,0.18415417558887,0.16702355460385002,0.16059957173448003,,86000000.0,78000000.0,75000000.0,0.0,0.16059957173448003
2003-12,259000000.0,,263000000.0,-4000000.0,,15000000.0,,,,,-0.0,,,-17000000.0,,-17000000.0,-0.83,-0.83,21000000.0,21000000.0,,-0.015444015444014999,-0.042471042471042,-0.06563706563706599,-0.06563706563706599,,-11000000.0,-17000000.0,-17000000.0,0.0,-0.06563706563706599
2002-12,192000000.0,,207000000.0,-15000000.0,,18000000.0,,,,,-1000000.0,,,-40000000.0,,-40000000.0,-1.93,-1.93,21000000.0,21000000.0,,-0.078125,-0.109375,-0.21354166666667004,-0.20833333333332996,,-21000000.0,-41000000.0,-40000000.0,0.0,-0.20833333333332996
2001-12,315000000.0,,290000000.0,25000000.0,,20000000.0,,,,,-4000000.0,,,-56000000.0,,-56000000.0,-2.68,-2.68,21000000.0,21000000.0,,0.07936507936507901,0.06031746031746,-0.19047619047619,-0.17777777777778,,19000000.0,-60000000.0,-56000000.0,0.0,-0.17777777777778
