,0,1,2,3,4,5,6,7,8,9,10,11,12,13,14,15,16,17,18,19,20,21,22,23,24,25,26,27,28,29,30
Date,Revenue,Revenue Growth,Cost of Revenue,Gross Profit,R&D Expenses,SG&A Expense,Operating Expenses,Operating Income,Interest Expense,Earnings before Tax,Income Tax Expense,Net Income - Non-Controlling int,Net Income - Discontinued ops,Net Income,Preferred Dividends,Net Income Com,EPS,EPS Diluted,Weighted Average Shs Out,Weighted Average Shs Out (Dil),Dividend per Share,Gross Margin,EBITDA Margin,EBIT Margin,Profit Margin,Free Cash Flow margin,EBITDA,EBIT,Consolidated Income,Earnings Before Tax Margin,Net Profit Margin
2019-04-26,6146000000.0,0.0397563863982,2201000000.0,3945000000.0,827000000.0,1935000000.0,2762000000.0,1221000000.0,58000000.0,1268000000.0,99000000.0,0.0,0.0,1169000000.0,0.0,1169000000.0,4.6,4.51,254000000.0,259000000.0,1.5559845559799999,0.6418808981449999,0.230719166938,0.19866579889400002,0.19020501139,0.190042303938,1418000000.0,1221000000.0,1169000000.0,0.206313049138,0.19020501139
2018-04-27,5911000000.0,0.071027360029,2212000000.0,3699000000.0,783000000.0,2009000000.0,2792000000.0,1125000000.0,62000000.0,1166000000.0,1090000000.0,0.0,0.0,76000000.0,0.0,76000000.0,0.28,0.28,268000000.0,276000000.0,0.775362318841,0.62578243952,0.22381999661600002,0.19032312637499998,0.012857384537299999,0.22551175774,1323000000.0,1125000000.0,76000000.0,0.19725934698,0.012857384537299999
2017-04-28,5519000000.0,-0.004868373602600001,2129000000.0,3390000000.0,779000000.0,1904000000.0,2725000000.0,665000000.0,52000000.0,665000000.0,156000000.0,0.0,0.0,509000000.0,0.0,509000000.0,1.85,1.81,275000000.0,281000000.0,0.740213523132,0.614241710455,0.16144229027,0.120492842906,0.0922268526907,0.146946910672,891000000.0,665000000.0,509000000.0,0.120492842906,0.0922268526907
2016-04-29,5546000000.0,-0.094190471524,2173000000.0,3373000000.0,861000000.0,2099000000.0,3025000000.0,348000000.0,49000000.0,345000000.0,116000000.0,0.0,0.0,229000000.0,0.0,229000000.0,0.78,0.77,294000000.0,297000000.0,0.7070707070710001,0.608186080058,0.11305445365999998,0.0627479264335,0.0412910205554,0.146772448612,627000000.0,348000000.0,229000000.0,0.0622069960332,0.0412910205554
2015-04-24,6122700000.0,-0.0319994940791,2289500000.0,3833200000.0,919300000.0,2197400000.0,3116700000.0,716500000.0,42000000.0,712800000.0,152900000.0,0.0,0.0,559900000.0,0.0,559900000.0,1.77,1.75,315500000.0,320700000.0,0.646710321172,0.626063664723,0.167638460156,0.117023535368,0.09144658402339999,0.178483348849,1026400000.0,716500000.0,559900000.0,0.116419226812,0.09144658402339999
2014-04-25,6325100000.0,-0.00115280146548,2406000000.0,3919100000.0,917300000.0,2179200000.0,3184800000.0,734300000.0,36100000.0,740700000.0,103200000.0,0.0,0.0,637500000.0,0.0,637500000.0,1.87,1.83,340300000.0,347900000.0,0.581488933602,0.619610757142,0.170447898057,0.116093026197,0.10078892033299999,0.17836872144299998,1078100000.0,734300000.0,637500000.0,0.117104867907,0.10078892033299999
2013-04-26,6332400000.0,0.0159147789258,2571300000.0,3761100000.0,904200000.0,2247400000.0,3153300000.0,607800000.0,91700000.0,566600000.0,61300000.0,0.0,0.0,505300000.0,0.0,505300000.0,1.4,1.37,361500000.0,368000000.0,0.0,0.593945423536,0.159907775883,0.0959825658518,0.0797959699324,0.17102520371399998,1012600000.0,607800000.0,505300000.0,0.0894763438823,0.0797959699324
2012-04-27,6233200000.0,0.216803966736,2519800000.0,3713400000.0,828200000.0,2128900000.0,2966900000.0,746500000.0,74700000.0,712400000.0,107000000.0,0.0,0.0,605400000.0,0.0,605400000.0,1.66,1.58,363900000.0,384300000.0,0.0,0.5957453635369999,0.175271128794,0.119761920041,0.0971250721941,0.169335172945,1092500000.0,746500000.0,605400000.0,0.114291214785,0.0971250721941
2011-04-29,5122600000.0,0.302996388055,1793900000.0,3328700000.0,648600000.0,1848300000.0,2504400000.0,824300000.0,75900000.0,794100000.0,121000000.0,0.0,0.0,673100000.0,0.0,673100000.0,1.87,1.71,360900000.0,393700000.0,0.0,0.6498067387650001,0.20360754304499998,0.16091437941700001,0.131398118143,0.219341740522,1043000000.0,824300000.0,673100000.0,0.155018935697,0.131398118143
2010-04-30,3931400000.0,0.1541,1412200000.0,2519200000.0,535700000.0,1532500000.0,2029300000.0,489900000.0,74100000.0,447000000.0,46600000.0,0.0,0.0,400400000.0,0.0,400400000.0,1.18,1.13,344642084.0,339600000.0,0.0,0.6408,0.175,0.1325,0.102,0.2135,687100000.0,521100000.0,400400000.0,0.1137,0.1018
