,0,1,2,3,4,5,6,7,8,9,10,11,12,13,14,15,16,17,18,19,20,21,22,23,24,25,26,27,28,29,30
Date,Revenue,Revenue Growth,Cost of Revenue,Gross Profit,R&D Expenses,SG&A Expense,Operating Expenses,Operating Income,Interest Expense,Earnings before Tax,Income Tax Expense,Net Income - Non-Controlling int,Net Income - Discontinued ops,Net Income,Preferred Dividends,Net Income Com,EPS,EPS Diluted,Weighted Average Shs Out,Weighted Average Shs Out (Dil),Dividend per Share,Gross Margin,EBITDA Margin,EBIT Margin,Profit Margin,Free Cash Flow margin,EBITDA,EBIT,Consolidated Income,Earnings Before Tax Margin,Net Profit Margin
2018-12-31,517811000.0,0.138859625007,0.0,517811000.0,0.0,252208000.0,315773000.0,202038000.0,0.0,196468000.0,1284000.0,0.0,0.0,195184000.0,0.0,195184000.0,3.55,3.5,54692630.0,54692630.0,1.52,1.0,0.469,0.3794,0.377,0.5365,242944000.0,196468000.0,195184000.0,0.3794,0.3769
2017-12-31,454675000.0,0.129436517557,0.0,454675000.0,0.0,232057000.0,292246000.0,162429000.0,0.0,154339000.0,1087000.0,0.0,0.0,153252000.0,0.0,153252000.0,2.82,2.76,53284872.0,53284872.0,1.28,1.0,0.45,0.3394,0.337,0.4902,204737000.0,154339000.0,153252000.0,0.3394,0.3371
2016-12-31,402568000.0,0.10516663921399999,0.0,402568000.0,0.0,221051000.0,286178000.0,116390000.0,0.0,116669000.0,727000.0,0.0,0.0,115942000.0,57568000.0,58374000.0,1.2,1.18,53284872.0,53284872.0,0.1,1.0,0.42,0.2898,0.145,0.4194,168930000.0,116669000.0,115942000.0,0.2898,0.28800000000000003
2015-12-31,364260000.0,-0.043829093572199995,0.0,364260000.0,0.0,223543000.0,285245000.0,79015000.0,0.0,79015000.0,1276000.0,0.0,0.0,77739000.0,16483000.0,61256000.0,1.25,1.23,53000000.0,,0.0,1.0,0.354,0.2169,0.168,0.4229,129084000.0,79015000.0,77739000.0,0.2169,0.2134
2014-12-31,380957000.0,,0.0,380957000.0,0.0,214704000.0,272967000.0,107990000.0,0.0,107990000.0,-169000.0,0.0,0.0,108159000.0,16642000.0,91517000.0,1.67,1.65,,,0.0,1.0,0.402,0.2835,0.24,0.3613,153106000.0,107990000.0,108159000.0,0.2835,0.2839
