,0,1,2,3,4,5,6,7,8,9,10,11,12,13,14,15,16,17,18,19,20,21,22,23,24,25,26,27,28,29,30
Date,Revenue,Revenue Growth,Cost of Revenue,Gross Profit,R&D Expenses,SG&A Expense,Operating Expenses,Operating Income,Interest Expense,Earnings before Tax,Income Tax Expense,Net Income - Non-Controlling int,Net Income - Discontinued ops,Net Income,Preferred Dividends,Net Income Com,EPS,EPS Diluted,Weighted Average Shs Out,Weighted Average Shs Out (Dil),Dividend per Share,Gross Margin,EBITDA Margin,EBIT Margin,Profit Margin,Free Cash Flow margin,EBITDA,EBIT,Consolidated Income,Earnings Before Tax Margin,Net Profit Margin
2018-12-31,9718734153.4009,0.188479586296,5608242691.7511,4110491461.6498,1127720694.6454,1840521997.1056,2968242691.7511,1142248769.8987,0.0,1247335455.8611,356972648.3357,11130535.4559,0.0,890362807.5253,0.0,890362807.5253,6.8741,6.8379,475140008.1042,468208972.5036,0.2412,0.4229,0.023,0.1283,0.0133,0.1421,1548855137.4819,1247335455.8611,937397539.7974,0.1283,0.0916
2017-12-31,8177451481.2576,0.48753588603500003,4260780834.3409996,3916670646.9166,660735792.0193,1418901753.3253,2079637545.3446,1837033101.5719,0.0,1945329806.5296,326838422.0073,21341898.4281,0.0,1618491384.5224,0.0,1618491384.5224,12.2808,12.2053,495991506.3482,497326481.2576,0.5502,0.479,0.0382,0.2379,0.0299,0.1733,2066521463.1197,1945329806.5296,1639833282.9504,0.2379,0.1979
2016-12-31,5497313750.8999,0.5648479527310001,2377974370.0504,3119339380.8495,438729877.6098,862198560.1152,1300928437.725,1818410943.1246,0.0,1973652699.784,302735493.1605,27119222.4622,0.0,1670917206.6235,0.0,1670917206.6235,12.743,12.635,473280371.6343,472531173.5061,0.4219,0.5674,0.053,0.359,0.0438,0.3759,2020811087.113,1973652699.784,1698036429.0857,0.359,0.304
2015-12-31,3513001848.7136,0.857751373488,1448044985.3644,2064956863.3493,332597134.4939,612020335.8496,944617470.3436,1120339393.0057,0.0,1233787706.0545,196180557.6953,15682021.2602,0.0,1037607148.3593,0.0,1037607148.3593,7.8955,7.857,503469319.9815,505990140.1941,0.2735,0.5878,0.0553,0.3512,0.0454,0.3163,1261895855.8003,1233787706.0545,1053289169.6195,0.3512,0.2954
2014-12-31,1890996771.0688,0.24734320663800002,526565062.9642,1364431708.1046,213674200.8395,381444462.383,595118663.2225,769313044.8821,0.0,874936712.9480001,106996286.7291,6309654.5044,0.0,767940426.2189,0.0,767940426.2189,5.8928,5.8524,524747167.5815,527034226.671,0.4004,0.7215,0.0772,0.4627,0.0655,0.4545,903103002.906,874936712.9480001,774250080.7233,0.4627,0.4061
2013-12-31,1516019617.5404,0.152780033813,408591493.5707,1107428123.9697,151931750.7418,237956478.7339,389888229.4758,717539894.4939,0.0,820064787.3393,87471645.2357,215628.09100000001,0.0,732593142.1035,0.0,732593142.1035,5.6462,5.605,535120620.0132,535422683.8114,0.1649,0.7305,0.092,0.5409,0.0796,0.5459,846171447.4118,820064787.3393,732808770.1945,0.5409,0.4832
2012-12-31,1315098781.27,0.137125008453,413416773.5728,901682007.6972,115188422.0654,191297305.9654,306485728.0308,595196279.6665,0.0,694210070.5581,110911161.0006,-8159397.0494,0.0,583298909.5574,0.0,583298909.5574,4.45,4.45,525005914.2078,526405227.7101,0.0,0.6856,0.0892,0.5279,0.0712,0.4934,731655388.0693,694210070.5581,575139512.508,0.5279,0.4435
2011-12-31,1156512055.8376,0.385882043479,376314720.8122,780197335.0254,73840418.7817,179161167.5127,253001586.2944,527195748.731,0.0,575352157.3604,62302664.9746,-1791085.0254,0.0,513049492.3858,0.0,513049492.3858,3.9261,3.9261,515920622.7792,518012373.0964,0.0,0.6746,0.0853,0.4975,0.0704,0.5023,621868496.1929,575352157.3604,511258407.3604,0.4975,0.4436
2010-12-31,834495303.0303,0.516417302077,272551666.6667,561943636.3636,48171060.6061,128272272.7273,176443333.3333,385500303.0303,0.0,390942121.2121,52188787.8788,-567727.2727,0.0,338753333.3333,0.0,338753333.3333,2.6136,2.6136,490609868.3333,491882727.2727,0.0,0.6734,0.0774,0.4685,0.0615,0.4643,426119545.4545,390942121.2121,338185606.0606,0.4685,0.4059
2009-12-31,550307162.7362,0.2174,142430643.035,407876519.7012,35780284.1658,75709096.2355,111489380.4013,296387139.2998,0.0,317020213.8567,45973487.6227,-2000439.4317,0.0,271046726.2341,0.0,271046726.2341,2.0873,2.0873,469674635.2717,472425662.8094,0.0,0.7412,0.0899,0.5761,0.0722,0.449,338051413.5052,317020213.8567,269046286.8024,0.5761,0.4925
