,0,1,2,3,4,5,6,7,8,9,10,11,12,13,14,15,16,17,18,19,20,21,22,23,24,25,26,27,28
Date,Cash and cash equivalents,Short-term investments,Cash and short-term investments,Receivables,Inventories,Total current assets,Property Plant & Equipment Net,Goodwill and Intangible Assets,Long-term investments,Tax assets,Total non-current assets,Total assets,Payables,Short-term debt,Total current liabilities,Long-term debt,Total debt,Deferred revenue,Tax Liabilities,Deposit Liabilities,Total non-current liabilities,Total liabilities,Other comprehensive income,Retained earnings (deficit),Total shareholders equity,Investments,Net Debt,Other Assets,Other Liabilities
2019-08-31,5856758.0,3565258.0,9422016.0,0.0,10488728.0,33302362.0,7358159.0,1008969.0,0.0,1634258.0,34208725.0,67511087.0,4505531.0,0.0,7841793.0,0.0,0.0,0.0,6759.0,0.0,0.0,10916472.0,16013338.0,44992719.0,56594615.0,3565258.0,-5856758.0,0.0,3074679.0
2018-08-31,0.0,3300110.0,3300110.0,0.0,9130861.0,30567773.0,7168826.0,1156257.0,0.0,1551536.0,25812637.0,63549236.0,3905034.0,0.0,7730182.0,0.0,0.0,0.0,70892.0,0.0,1551536.0,10472491.0,14619777.0,41963341.0,53076745.0,3300110.0,0.0,7168826.0,1190773.0
2017-08-31,0.0,3766984.0,3766984.0,0.0,7456552.0,26067618.0,7359662.0,1322089.0,0.0,1756565.0,23185413.0,56612693.0,2676610.0,0.0,4894617.0,0.0,0.0,0.0,0.0,0.0,1756565.0,7752065.0,14163509.0,37077483.0,48860628.0,3766984.0,0.0,7359662.0,1100883.0
2016-08-31,0.0,2243864.0,2243864.0,0.0,7711287.0,20942171.0,7275872.0,1278597.0,0.0,1639762.0,22852007.0,51070050.0,2753903.0,0.0,3994102.0,0.0,0.0,0.0,0.0,0.0,0.0,6535075.0,13798567.0,33655357.0,44534975.0,2243864.0,0.0,7275872.0,2540973.0
2015-08-31,0.0,2027441.0,2027441.0,0.0,7468441.0,19275612.0,7293163.0,1262219.0,20544238.0,1176012.0,24996873.0,51565648.0,2101175.0,0.0,3671841.0,0.0,0.0,0.0,0.0,0.0,424108.0,6691543.0,13441264.0,34522871.0,44874105.0,22571679.0,0.0,7293163.0,2595594.0
2014-08-31,2477017.0,5519766.0,7996783.0,0.0,5961399.0,22319966.0,6477987.0,1197700.0,22961989.0,789364.0,25259822.0,54057775.0,2225029.0,0.0,4466655.0,0.0,0.0,288000.0,0.0,0.0,943279.0,8303912.0,12676546.0,32733300.0,45753863.0,28481755.0,-2477017.0,6477987.0,2893978.0
2013-08-31,4314258.0,0.0,4314258.0,0.0,5111549.0,16932505.0,5323612.0,1060639.0,24702981.0,467548.0,26797832.0,49053949.0,1830729.0,76119.0,3662053.0,857295.0,933414.0,288000.0,0.0,0.0,1891507.0,8320277.0,11701942.0,28626928.0,40733672.0,24702981.0,-3380844.0,5323612.0,2766717.0
2012-08-31,4137547.0,0.0,4137547.0,0.0,4151197.0,14059726.0,4288618.0,961181.0,21461492.0,1030610.0,23529283.0,41877627.0,1818309.0,76120.0,3999645.0,933413.0,1009533.0,288000.0,0.0,0.0,1529498.0,5120971.0,11130966.0,25260034.0,36756656.0,21461492.0,-3128014.0,4288618.0,-408172.0
2011-08-31,3266362.0,0.0,3266362.0,5794893.0,3842854.0,13490514.0,3636335.0,903038.0,20559509.0,1632300.0,26549228.0,40039742.0,2032614.0,76119.0,4404766.0,1009533.0,1085652.0,0.0,195762.0,0.0,1009533.0,5414299.0,2496940.0,21811838.0,34533648.0,20559509.0,-2180710.0,586405.0,2296033.0
2010-08-31,1776162.0,0.0,1776162.0,4744664.0,3639169.0,10752575.0,3452530.0,912718.0,16055943.0,1953900.0,21944725.0,32697300.0,1721237.0,1144922.0,4833652.0,0.0,1144922.0,0.0,174502.0,0.0,0.0,4833652.0,704473.0,17911718.0,27842313.0,16055943.0,-631240.0,592580.0,1967493.0
2009-08-31,138885.0,0.0,138885.0,3797358.0,2002622.0,20014031.0,3542169.0,888065.0,14204122.0,1728638.0,0.0,26482920.0,630363.0,2256973.0,3741117.0,0.0,2256973.0,0.0,0.0,0.0,0.0,3741117.0,1706942.0,15327962.0,22741803.0,14204122.0,2118088.0,530024.0,853781.0
