,0,1,2,3,4,5,6,7,8,9,10,11,12,13,14
Date,Depreciation & Amortization,Stock-based compensation,Operating Cash Flow,Capital Expenditure,Acquisitions and disposals,Investment purchases and sales,Investing Cash flow,Issuance (repayment) of debt,Issuance (buybacks) of shares,Dividend payments,Financing Cash Flow,Effect of forex changes on cash,Net cash flow / Change in cash,Free Cash Flow,Net Cash/Marketcap
2018-12-31,0.0,0.0,2052000000.0,-1405000000.0,5427000000.0,-135000000.0,3887000000.0,-960000000.0,-1793000000.0,-952000000.0,-3705000000.0,-36000000.0,2198000000.0,647000000.0,
2017-12-31,0.0,0.0,1225000000.0,-651000000.0,0.0,0.0,-652000000.0,-160000000.0,1000000.0,-330000000.0,-489000000.0,0.0,84000000.0,574000000.0,
