,0,1,2,3,4,5,6,7,8,9,10,11,12,13,14
Date,Depreciation & Amortization,Stock-based compensation,Operating Cash Flow,Capital Expenditure,Acquisitions and disposals,Investment purchases and sales,Investing Cash flow,Issuance (repayment) of debt,Issuance (buybacks) of shares,Dividend payments,Financing Cash Flow,Effect of forex changes on cash,Net cash flow / Change in cash,Free Cash Flow,Net Cash/Marketcap
2019-12-31,9175000.0,28624000.0,-63444000.0,4968000.0,-0.0,-271060000.0,-266353000.0,-0.0,-61926000.0,-0.0,340774000.0,0.0,61981000.0,-68412000.0,0.0
2018-12-31,8130000.0,14198000.0,-70581000.0,3880000.0,-0.0,131600000.0,-5161000.0,-0.0,-46407000.0,-0.0,113725000.0,0.0,51004000.0,-74461000.0,0.0
2017-12-31,8154000.0,11402000.0,-96792000.0,9867000.0,-0.0,231200000.0,13784000.0,-0.0,-12620000.0,-0.0,80372000.0,0.0,-2636000.0,-106659000.0,0.0
2016-12-31,7621000.0,10601000.0,-73902000.0,23136000.0,-0.0,64500000.0,47027000.0,-0.0,-15256000.0,-0.0,13184000.0,0.0,15256000.0,-97038000.0,0.0
2015-12-31,5851000.0,7326000.0,-37832000.0,7852000.0,-0.0,0.0,-210679000.0,14150000.0,-28947000.0,-0.0,190282000.0,0.0,28947000.0,-45684000.0,0.0
2014-12-31,5148000.0,5157000.0,10490000.0,-9942000.0,0.0,0.0,-9942000.0,2625000.0,170000.0,0.0,56132000.0,0.0,56680000.0,548000.0,0.0396
2013-12-31,2528000.0,1657000.0,-24132000.0,-8245000.0,0.0,0.0,-8245000.0,25225000.0,259000.0,0.0,57126000.0,0.0,24749000.0,-32377000.0,0.0396
