,0,1,2,3,4,5,6,7,8,9,10,11,12,13,14,15,16,17,18,19,20,21,22,23,24,25,26,27,28,29,30
Date,Revenue,Revenue Growth,Cost of Revenue,Gross Profit,R&D Expenses,SG&A Expense,Operating Expenses,Operating Income,Interest Expense,Earnings before Tax,Income Tax Expense,Net Income - Non-Controlling int,Net Income - Discontinued ops,Net Income,Preferred Dividends,Net Income Com,EPS,EPS Diluted,Weighted Average Shs Out,Weighted Average Shs Out (Dil),Dividend per Share,Gross Margin,EBITDA Margin,EBIT Margin,Profit Margin,Free Cash Flow margin,EBITDA,EBIT,Consolidated Income,Earnings Before Tax Margin,Net Profit Margin
2018-12-31,0.0,0.0,0.0,0.0,4885563.0,6263833.0,11149396.0,-11149396.0,0.0,-11022286.0,0.0,0.0,0.0,-11022286.0,0.0,-11022286.0,-1.37,-1.37,7909693.0,8050700.0,0.0,0.0,,0.0,,0.0,-11019287.0,-11022286.0,-11022286.0,0.0,0.0
2017-12-31,0.0,0.0,0.0,0.0,4763454.0,7938543.0,12701997.0,-12701997.0,0.0,-12615070.0,0.0,0.0,0.0,-12615070.0,0.0,-12615070.0,-1.64,-1.64,7895859.0,7709400.0,0.0,0.0,,0.0,,0.0,-12611216.0,-12615070.0,-12615070.0,0.0,0.0
2016-12-31,0.0,0.0,0.0,0.0,6632904.0,6299734.0,12932638.0,-12932638.0,0.0,-12924202.0,0.0,0.0,0.0,-12924202.0,0.0,-12924202.0,-5.69,-5.69,1559215.0,2272000.0,0.0,0.0,,0.0,,0.0,-12917279.0,-12924202.0,-12924202.0,0.0,0.0
2015-12-31,0.0,0.0,0.0,0.0,4203858.0,5241899.0,9445757.0,-9445757.0,0.0,-9441535.0,0.0,0.0,0.0,-9441535.0,279824.0,-9721359.0,-11.64,-11.64,905517.0,835200.0,0.0,0.0,,0.0,,0.0,-9435265.0,-9441535.0,-9441535.0,0.0,0.0
2014-12-31,0.0,0.0,0.0,0.0,3466349.0,5800771.0,9267120.0,-9267120.0,0.0,-9253323.0,0.0,0.0,0.0,-9253323.0,1664219.0,-10917542.0,-15.68,-15.68,691621.0,690844.0,0.0,0.0,,0.0,,0.0,-9251998.0,-9253323.0,-9253323.0,0.0,0.0
2013-12-31,0.0,,0.0,0.0,1367644.0,6223138.0,7590782.0,-7590782.0,0.0,-7589404.0,0.0,0.0,0.0,-7589404.0,1023616.0,-8613020.0,-12.8,-12.8,679375.0,678200.0,0.0,0.0,,0.0,,0.0,-7589404.0,-7589404.0,-7589404.0,0.0,0.0
