,0,1,2,3,4,5,6,7,8,9,10,11,12,13,14,15,16,17,18,19,20,21,22,23,24,25,26,27,28,29,30
Date,Revenue,Revenue Growth,Cost of Revenue,Gross Profit,R&D Expenses,SG&A Expense,Operating Expenses,Operating Income,Interest Expense,Earnings before Tax,Income Tax Expense,Net Income - Non-Controlling int,Net Income - Discontinued ops,Net Income,Preferred Dividends,Net Income Com,EPS,EPS Diluted,Weighted Average Shs Out,Weighted Average Shs Out (Dil),Dividend per Share,Gross Margin,EBITDA Margin,EBIT Margin,Profit Margin,Free Cash Flow margin,EBITDA,EBIT,Consolidated Income,Earnings Before Tax Margin,Net Profit Margin
2018-12-31,102800000.0,-0.928071648475,0.0,0.0,0.0,0.0,0.0,1957800000.0,698700000.0,1957800000.0,401400000.0,0.0,0.0,1556400000.0,46400000.0,1556400000.0,6.68,6.64,223148335.0,224488326.0,1.80588455188,0.0,22.5953307393,19.044747081700002,15.140077820999998,16.2441634241,2322800000.0,1957800000.0,1556400000.0,19.044747081700002,15.140077820999998
2017-12-31,1429200000.0,0.157340675358,0.0,0.0,0.0,0.0,0.0,1633900000.0,340200000.0,1633900000.0,434900000.0,0.0,0.0,1199000000.0,49800000.0,1199000000.0,4.95,4.92,228257664.0,229654401.0,1.55363885232,0.0,1.14854464036,1.14322698013,0.8389308704170001,1.1396585502399998,1641500000.0,1633900000.0,1199000000.0,1.14322698013,0.8389308704170001
2016-12-31,1234900000.0,0.154004298664,0.0,0.0,0.0,0.0,0.0,1517100000.0,182000000.0,1517100000.0,484600000.0,0.0,0.0,1032500000.0,23400000.0,1032500000.0,4.35,4.32,227580584.0,229151406.0,1.45318767976,0.0,1.22617215969,1.22852052798,0.836100089076,1.1326423192200001,1514200000.0,1517100000.0,1032500000.0,1.22852052798,0.836100089076
2015-12-31,1070100000.0,0.064246643461,0.0,0.0,0.0,0.0,0.0,1465000000.0,153900000.0,1465000000.0,491200000.0,0.0,0.0,973800000.0,23400000.0,973800000.0,4.03,3.99,232279849.0,234221729.0,1.3722040280899999,0.0,1.41388655266,1.36903093169,0.9100084104289999,1.62218484254,1513000000.0,1465000000.0,973800000.0,1.36903093169,0.9100084104289999
2014-12-31,1005500000.0,0.077590826278,0.0,0.0,0.0,0.0,225600000.0,1190200000.0,181400000.0,1190200000.0,378400000.0,0.0,0.0,811800000.0,9500000.0,811800000.0,3.34,3.32,235829790.0,237720255.0,1.2741867536700002,0.0,1.4981601193399998,1.18368970661,0.8073595226260001,0.849428145201,1506400000.0,1190200000.0,811800000.0,1.18368970661,0.8073595226260001
2013-12-31,933100000.0,-0.057760274664199994,0.0,0.0,0.0,0.0,205100000.0,1075500000.0,222400000.0,1075500000.0,344200000.0,0.0,0.0,731300000.0,0.0,731300000.0,3.01,2.99,239265313.0,240554840.0,0.9170466077509999,0.0,1.47133211874,1.15260958097,0.7837316471979999,0.800985960776,1372900000.0,1075500000.0,731300000.0,1.15260958097,0.7837316471979999
2012-12-31,990300000.0,-0.018630462788599998,0.0,0.0,0.0,0.0,20300000.0,992300000.0,297400000.0,992300000.0,305000000.0,0.0,0.0,687300000.0,0.0,687300000.0,2.82,2.81,240417805.0,240881244.0,1.4708492621399998,0.0,1.11168332828,1.00201959002,0.6940321114810001,0.748359083106,1100900000.0,992300000.0,687300000.0,1.00201959002,0.6940321114810001
2011-12-31,1009100000.0,0.0983999129204,0.0,0.0,0.0,0.0,0.0,883700000.0,399500000.0,883700000.0,280100000.0,0.0,0.0,603600000.0,0.0,603600000.0,2.47,2.47,241401310.0,241811384.0,1.13187392369,0.0,1.17233178079,0.8757308492720001,0.598156773362,1.14696263998,1183000000.0,883700000.0,603600000.0,0.8757308492720001,0.598156773362
2010-12-31,918700000.0,-0.7427979506710001,0.0,0.0,0.0,0.0,66200000.0,989800000.0,378000000.0,989800000.0,320300000.0,0.0,0.0,669500000.0,0.0,669500000.0,2.74,2.74,242028776000000.0,242502531000000.0,1.12658617984e-06,0.0,1.40938282356,1.07739196691,0.728747142702,0.7616196799830001,1294800000.0,989800000.0,669500000.0,1.07739196691,0.728747142702
2009-12-31,3571900000.0,-0.1421,0.0,3571900000.0,0.0,2198200000.0,2316700000.0,1255200000.0,0.0,1144100000.0,391000000.0,111100000.0,0.0,753100000.0,0.0,753100000.0,3.18,3.16,241505420.0,235511879.0,1.12,1.0,0.389,0.3203,0.21100000000000002,0.1961,1387800000.0,1144100000.0,864200000.0,0.3203,0.2108
