,0,1,2,3,4,5,6,7,8,9,10,11,12,13,14
Date,Depreciation & Amortization,Stock-based compensation,Operating Cash Flow,Capital Expenditure,Acquisitions and disposals,Investment purchases and sales,Investing Cash flow,Issuance (repayment) of debt,Issuance (buybacks) of shares,Dividend payments,Financing Cash Flow,Effect of forex changes on cash,Net cash flow / Change in cash,Free Cash Flow,Net Cash/Marketcap
2018-12-31,169712.0,446077.0,2861713.0,143583.0,-0.0,0.0,-143583.0,-0.0,-6780429.0,-0.0,18618.0,0.0,6780429.0,2718130.0,0.0
2017-12-31,262334.0,209691.0,-12652384.0,163096.0,-0.0,0.0,-163096.0,-0.0,-4000000.0,-0.0,12910026.0,0.0,94546.0,-12815480.0,0.0
2016-12-31,251327.0,225408.0,-15080276.0,100499.0,-0.0,0.0,-100499.0,-0.0,-3949135.0,-0.0,6667038.0,0.0,-8513737.0,-15180775.0,0.0
2015-12-31,222592.0,302415.0,-13099853.0,594606.0,-0.0,0.0,-594606.0,-0.0,-12462872.0,-0.0,16935346.0,0.0,3240887.0,-13694459.0,0.0
2014-12-31,145100.0,289873.0,-7678493.0,227308.0,-0.0,0.0,-227308.0,-0.0,-9221985.0,-0.0,7932033.0,0.0,26232.0,-7905801.0,0.0
2013-12-31,150663.0,245843.0,-6554908.0,86079.0,-0.0,0.0,-86079.0,-0.0,-9195753.0,-0.0,7137262.0,0.0,496275.0,-6640987.0,0.0
2012-12-31,376932.0,837040.0,-6778398.0,110987.0,-0.0,0.0,67513.0,-0.0,-8699478.0,-0.0,14522.0,0.0,-6696363.0,-6889385.0,0.0
2011-12-31,376932.0,837040.0,-6778398.0,110987.0,-0.0,0.0,67513.0,-0.0,-10290446.0,-0.0,14522.0,0.0,-6696363.0,-6889385.0,0.0
2010-12-31,523756.0,1184570.0,-13307114.0,-306451.0,0.0,7495000.0,7188549.0,-27715.0,195679.0,0.0,167964.0,0.0,-5950601.0,-13613565.0,1.1038
2009-12-31,578666.0,2132835.0,-6137087.0,-692115.0,0.0,0.0,-692115.0,-22521.0,17486849.0,0.0,17464328.0,0.0,10635126.0,-6829202.0,0.5427
