,0,1,2,3,4,5,6,7,8,9,10,11,12,13,14,15,16,17,18,19,20,21,22,23,24,25,26,27,28,29,30
Date,Revenue,Revenue Growth,Cost of Revenue,Gross Profit,R&D Expenses,SG&A Expense,Operating Expenses,Operating Income,Interest Expense,Earnings before Tax,Income Tax Expense,Net Income - Non-Controlling int,Net Income - Discontinued ops,Net Income,Preferred Dividends,Net Income Com,EPS,EPS Diluted,Weighted Average Shs Out,Weighted Average Shs Out (Dil),Dividend per Share,Gross Margin,EBITDA Margin,EBIT Margin,Profit Margin,Free Cash Flow margin,EBITDA,EBIT,Consolidated Income,Earnings Before Tax Margin,Net Profit Margin
2019-12-31,9272522.0,-0.42371395447300003,7026899.0,2245623.0,3101976.0,10678358.0,13780334.0,-11534711.0,0.0,0.0,0.0,0.0,0.0,-3773014.0,0.0,-3773014.0,-3.9,-3.9,968116.0,968116.0,0.0,0.242180390621,-1.2305928203799998,-1.2439669595799998,-0.406902674375,-0.39572071115099994,-11410699.0,-11534711.0,-3773014.0,0.0,-0.406902674375
2018-12-31,16090138.0,-0.0586343493365,8707082.0,7383056.0,5134592.0,14540031.0,19674623.0,-12291567.0,0.0,0.0,0.0,0.0,0.0,23605.0,0.0,23605.0,0.0,0.0,7104574.0,13885569.0,0.0,0.458855977494,-0.753371723723,-0.7639193026189999,0.00146704770338,0.16893142868,-12121855.0,-12291567.0,23605.0,0.0,0.00146704770338
2017-12-31,17092336.0,0.42110132688900004,10235538.0,6856798.0,3497636.0,16441780.0,19939416.0,-13082618.0,0.0,0.0,0.0,0.0,0.0,-12859253.0,6874780.0,-12859253.0,-11.6,-11.6,1701481.0,1701481.0,0.0,0.401162134889,-0.750060377938,-0.7654084263259999,-0.752340288653,-0.749779316297,-12820284.0,-13082618.0,-12859253.0,0.0,-0.752340288653
2016-12-31,12027528.0,0.647644945156,7113005.0,4914523.0,4394353.0,15728115.0,20122468.0,-15207945.0,0.0,0.0,0.0,0.0,0.0,-14913151.0,19846377.0,-14913151.0,-7.28,-7.28,4777037.0,4777037.0,0.0,0.408606240617,-1.24353217053,-1.26442815182,-1.23991821096,-1.2621691672600002,-14956618.0,-15207945.0,-14913151.0,0.0,-1.23991821096
2015-12-31,7299830.0,0.324168783572,3950746.0,3349084.0,3894786.0,12730484.0,16625270.0,-13276186.0,0.0,0.0,0.0,0.0,0.0,-9187348.0,8332212.0,-9187348.0,-7.75,-7.75,2719285.0,2719285.0,0.0,0.458789314272,-1.78820520478,-1.8186979696799999,-1.25857013109,-1.87599697527,-13053594.0,-13276186.0,-9187348.0,0.0,-1.25857013109
2014-12-31,5512764.0,0.0443202496928,2568602.0,2944162.0,4075976.0,7638235.0,11714211.0,-8770049.0,0.0,0.0,0.0,0.0,0.0,-7766222.0,0.0,-7766222.0,-1.54,-1.54,6973977.0,6973977.0,0.0,0.534062767788,-1.56454167093,-1.59086240586,-1.4087709903799999,-1.43409023132,-8624949.0,-8770049.0,-7766222.0,0.0,-1.4087709903799999
2013-12-31,5278806.0,-0.492265053346,2194259.0,3084547.0,3438218.0,7005169.0,10443387.0,-7358840.0,0.0,0.0,0.0,0.0,0.0,-8019137.0,0.0,-8019137.0,-3.07,-3.07,2862094.0,2862094.0,0.0,0.584326645078,-1.36549382569,-1.39403493896,-1.51911947512,-1.2580471796100001,-7208177.0,-7358840.0,-8019137.0,0.0,-1.51911947512
2012-12-31,10396775.0,0.0,4722069.0,5674706.0,3877526.0,11800207.0,15677733.0,-10003027.0,0.0,-9981105.0,0.0,0.0,0.0,-9981105.0,0.0,-9981105.0,-15.53,-15.53,642513.0,642513.0,0.0,0.545814062534,-0.9258731673999999,-0.962127871383,-0.9600193329180001,-0.662646349469,-9626095.0,-10003027.0,-9981105.0,-0.9600193329180001,-0.9600193329180001
2011-12-31,10396775.0,0.0,4722069.0,5674706.0,3877526.0,11800207.0,15677733.0,-10003027.0,0.0,-9981105.0,0.0,0.0,0.0,-9981105.0,0.0,-9981105.0,-2.59,-2.59,3855080.0,3855080.0,0.0,0.545814062534,-0.9258731673999999,-0.962127871383,-0.9600193329180001,-0.662646349469,-9626095.0,-10003027.0,-9981105.0,-0.9600193329180001,-0.9600193329180001
