,0,1,2,3,4,5,6,7,8,9,10,11,12,13,14,15,16,17,18,19,20,21,22,23,24,25,26,27,28
Date,Cash and cash equivalents,Short-term investments,Cash and short-term investments,Receivables,Inventories,Total current assets,Property Plant & Equipment Net,Goodwill and Intangible Assets,Long-term investments,Tax assets,Total non-current assets,Total assets,Payables,Short-term debt,Total current liabilities,Long-term debt,Total debt,Deferred revenue,Tax Liabilities,Deposit Liabilities,Total non-current liabilities,Total liabilities,Other comprehensive income,Retained earnings (deficit),Total shareholders equity,Investments,Net Debt,Other Assets,Other Liabilities
2019-12-31,78823000.0,42960000.0,121783000.0,0.0,0.0,97247000.0,11445000.0,56735000.0,0.0,2512000.0,75710000.0,172957000.0,2910000.0,1262000.0,25795000.0,320611000.0,321873000.0,1678000.0,0.0,0.0,335691000.0,358974000.0,1257968000.0,-1431801000.0,-186017000.0,42960000.0,243050000.0,0.0,0.0
2018-12-31,70154000.0,21980000.0,92134000.0,0.0,0.0,119276000.0,28426000.0,58508000.0,0.0,3178000.0,88702000.0,207978000.0,9301000.0,1600000.0,45539000.0,319187000.0,320787000.0,10010000.0,0.0,0.0,333552000.0,375913000.0,1138514000.0,-1299107000.0,-167935000.0,21980000.0,250633000.0,0.0,0.0
2017-12-31,106307000.0,50996000.0,157303000.0,0.0,0.0,203311000.0,35987000.0,61436000.0,0.0,4167000.0,99182000.0,302493000.0,5613000.0,7749000.0,73675000.0,317763000.0,325512000.0,25625000.0,0.0,0.0,334717000.0,404225000.0,1018007000.0,-1114359000.0,-101732000.0,50996000.0,219205000.0,0.0,0.0
2016-12-31,144353000.0,91126000.0,235479000.0,233000.0,0.0,287830000.0,40184000.0,60898000.0,0.0,0.0,106471000.0,394301000.0,5685000.0,0.0,66406000.0,316339000.0,316339000.0,30079000.0,0.0,0.0,338348000.0,399847000.0,933547000.0,-929996000.0,-5546000.0,91126000.0,171986000.0,0.0,0.0
2015-12-31,93108000.0,137548000.0,230656000.0,1449000.0,0.0,287257000.0,32342000.0,63858000.0,0.0,0.0,98781000.0,386038000.0,11889000.0,395000.0,76494000.0,0.0,395000.0,34469000.0,214000.0,0.0,11523000.0,93369000.0,949119000.0,-650030000.0,292669000.0,137548000.0,-92713000.0,0.0,5352000.0
2014-12-31,32335000.0,135721000.0,168056000.0,7510000.0,0.0,188158000.0,19737000.0,67189000.0,0.0,0.0,87844000.0,276002000.0,12908000.0,603000.0,34116000.0,395000.0,998000.0,0.0,4801000.0,0.0,7628000.0,46384000.0,726923000.0,-493093000.0,229618000.0,135721000.0,-31337000.0,0.0,4640000.0
2013-12-31,0.0,0.0,0.0,0.0,0.0,0.0,0.0,0.0,0.0,0.0,0.0,0.0,0.0,0.0,0.0,0.0,0.0,0.0,0.0,0.0,0.0,0.0,0.0,0.0,0.0,0.0,0.0,0.0,0.0
2012-12-31,0.0,0.0,0.0,0.0,0.0,0.0,0.0,0.0,0.0,0.0,0.0,0.0,0.0,0.0,0.0,0.0,0.0,0.0,0.0,0.0,0.0,0.0,0.0,0.0,0.0,0.0,0.0,0.0,0.0
2011-12-31,14104000.0,4205000.0,18309000.0,1965000.0,0.0,26109000.0,6857000.0,0.0,0.0,0.0,40467000.0,66576000.0,2645000.0,20000.0,7579000.0,300000.0,320000.0,0.0,0.0,0.0,2800000.0,12727000.0,381498000.0,-329656000.0,53849000.0,4205000.0,-13784000.0,0.0,2348000.0
2010-12-31,8061000.0,23615000.0,31676000.0,54000.0,0.0,33337000.0,8206000.0,33141000.0,0.0,0.0,41507000.0,74844000.0,3572000.0,80000.0,10266000.0,320000.0,400000.0,0.0,0.0,0.0,5528000.0,15794000.0,772000.0,-310292000.0,59050000.0,23615000.0,-31276000.0,1607000.0,6614000.0
2009-12-31,38757000.0,4193000.0,42950000.0,258000.0,0.0,44503000.0,7801000.0,33141000.0,0.0,0.0,41102000.0,85605000.0,2098000.0,80000.0,8027000.0,406000.0,486000.0,150000.0,0.0,0.0,7626000.0,15653000.0,820000.0,-274584000.0,69952000.0,4193000.0,-42464000.0,1295000.0,5849000.0
