,0,1,2,3,4,5,6,7,8,9,10,11,12,13,14,15,16,17,18,19,20,21,22,23,24,25,26,27,28
Date,Cash and cash equivalents,Short-term investments,Cash and short-term investments,Receivables,Inventories,Total current assets,Property Plant & Equipment Net,Goodwill and Intangible Assets,Long-term investments,Tax assets,Total non-current assets,Total assets,Payables,Short-term debt,Total current liabilities,Long-term debt,Total debt,Deferred revenue,Tax Liabilities,Deposit Liabilities,Total non-current liabilities,Total liabilities,Other comprehensive income,Retained earnings (deficit),Total shareholders equity,Investments,Net Debt,Other Assets,Other Liabilities
2019-12-31,177321000.0,148769000.0,326090000.0,58859000.0,23701000.0,439947000.0,9342000.0,0.0,0.0,383000.0,39501000.0,479448000.0,36925000.0,7807000.0,86311000.0,149424000.0,157231000.0,11773000.0,116000.0,0.0,175347000.0,261658000.0,871442000.0,-650885000.0,217790000.0,148769000.0,-20090000.0,0.0,0.0
2018-12-31,140622000.0,105256000.0,245878000.0,36523000.0,22555000.0,321369000.0,8442000.0,0.0,0.0,1712000.0,18424000.0,339793000.0,26708000.0,31000.0,64560000.0,149268000.0,149299000.0,8840000.0,103000.0,0.0,162974000.0,227534000.0,757314000.0,-643655000.0,112259000.0,105256000.0,8677000.0,0.0,0.0
2017-12-31,78592000.0,104719000.0,183311000.0,29567000.0,22025000.0,245134000.0,9031000.0,0.0,0.0,2095000.0,20164000.0,265298000.0,17206000.0,32000.0,50202000.0,97342000.0,97374000.0,4959000.0,2827000.0,0.0,101532000.0,151734000.0,697165000.0,-582258000.0,113564000.0,104719000.0,18782000.0,0.0,0.0
2016-12-31,99780000.0,119854000.0,219634000.0,6339000.0,25549000.0,261873000.0,9812000.0,0.0,0.0,2109000.0,20208000.0,282081000.0,18356000.0,70000.0,36882000.0,96231000.0,96301000.0,2267000.0,2400000.0,0.0,102854000.0,139736000.0,664154000.0,-519926000.0,142345000.0,119854000.0,-3479000.0,0.0,0.0
2015-12-31,119423000.0,150001000.0,269424000.0,0.0,13594000.0,293904000.0,6552000.0,0.0,0.0,1299000.0,13432000.0,307336000.0,16755000.0,63000.0,28627000.0,23097000.0,23160000.0,0.0,1565000.0,0.0,27889000.0,56516000.0,640406000.0,-388081000.0,250820000.0,150001000.0,-96263000.0,0.0,0.0
2014-12-31,57674000.0,44999000.0,102673000.0,5711000.0,3446000.0,111830000.0,5749000.0,0.0,0.0,0.0,6046000.0,117876000.0,17669000.0,0.0,17669000.0,0.0,0.0,0.0,0.0,0.0,2332000.0,20001000.0,0.0,-276500000.0,97875000.0,44999000.0,-102673000.0,0.0,0.0
2013-12-31,177072000.0,0.0,177072000.0,4519000.0,1892000.0,183483000.0,5176000.0,0.0,0.0,0.0,5428000.0,188911000.0,15598000.0,0.0,15598000.0,0.0,0.0,0.0,0.0,0.0,1534000.0,17132000.0,0.0,-195818000.0,171779000.0,0.0,-177072000.0,0.0,0.0
