,0,1,2,3,4,5,6,7,8,9,10,11,12,13,14
Date,Depreciation & Amortization,Stock-based compensation,Operating Cash Flow,Capital Expenditure,Acquisitions and disposals,Investment purchases and sales,Investing Cash flow,Issuance (repayment) of debt,Issuance (buybacks) of shares,Dividend payments,Financing Cash Flow,Effect of forex changes on cash,Net cash flow / Change in cash,Free Cash Flow,Net Cash/Marketcap
2019-03-31,705197.0,93360.0,14218994.0,68265.0,-0.0,7127593.0,7059328.0,-0.0,-6659364.0,-19374040.0,-19156100.0,0.0,2122222.0,14150729.0,0.0
2018-03-31,979652.0,40920.0,15151928.0,604800.0,-0.0,1322590.0,717790.0,-0.0,-4704042.0,-19365040.0,-19314000.0,0.0,-3444282.0,14547128.0,0.0
2017-03-31,1147451.0,22000.0,12379160.0,519835.0,-0.0,7871760.0,7351925.0,-0.0,-7952254.0,-19346040.0,-19066314.0,0.0,664771.0,11859325.0,0.0
2016-03-31,850970.0,21160.0,14309029.0,287275.0,-0.0,2845238.0,4869636.0,-0.0,-2018764.0,-19414864.0,-21081334.0,0.0,-1902669.0,14021754.0,0.0
2015-03-31,934371.0,58960.0,14870066.0,185007.0,-0.0,3162914.0,2977907.0,-0.0,302701.0,-10000000.0,-9673011.0,0.0,8174962.0,14685059.0,0.0
2014-03-31,844339.0,53200.0,12401424.0,160718.0,-0.0,-13962321.0,-12859634.0,-0.0,-846645.0,-0.0,-789173.0,0.0,-1247383.0,12240706.0,0.0
2013-03-31,647163.0,66720.0,12645302.0,1824324.0,-0.0,-10015753.0,-11840077.0,-0.0,-2365495.0,-0.0,159922.0,0.0,965147.0,10820978.0,0.0
2012-03-31,500121.0,80160.0,12811910.0,1480237.0,-0.0,-10739382.0,-12219619.0,-0.0,-1544500.0,-0.0,36.0,0.0,592327.0,11331673.0,0.0
2011-03-31,411547.0,-153453.0,12808807.0,-732800.0,0.0,-13161964.0,-13894764.0,0.0,418705.0,0.0,648878.0,0.0,-437079.0,12076007.0,0.0332
2010-03-31,389273.0,-179606.0,12463616.0,-305862.0,0.0,-13546400.0,-13852262.0,0.0,622423.0,0.0,902871.0,0.0,-485775.0,12157754.0,0.0139
