,0,1,2,3,4,5,6,7,8,9,10,11,12,13,14,15,16,17,18,19,20,21,22,23,24,25,26,27,28,29,30
Date,Revenue,Revenue Growth,Cost of Revenue,Gross Profit,R&D Expenses,SG&A Expense,Operating Expenses,Operating Income,Interest Expense,Earnings before Tax,Income Tax Expense,Net Income - Non-Controlling int,Net Income - Discontinued ops,Net Income,Preferred Dividends,Net Income Com,EPS,EPS Diluted,Weighted Average Shs Out,Weighted Average Shs Out (Dil),Dividend per Share,Gross Margin,EBITDA Margin,EBIT Margin,Profit Margin,Free Cash Flow margin,EBITDA,EBIT,Consolidated Income,Earnings Before Tax Margin,Net Profit Margin
2018-12-29,418081000.0,0.25537032255,216677000.0,201404000.0,0.0,31713000.0,165719000.0,33719000.0,1966000.0,33719000.0,6863000.0,0.0,0.0,26856000.0,0.0,26856000.0,2.44,2.33,10991124.0,11506466.0,0.0,0.48173440075,0.122232294699,0.0806518354099,0.06423635611280001,0.0784441292477,51103000.0,33719000.0,26856000.0,0.0806518354099,0.06423635611280001
2017-12-30,333034000.0,0.48735652717600003,167780000.0,165254000.0,0.0,26747000.0,138686000.0,24633000.0,1935000.0,24633000.0,627000.0,0.0,0.0,24006000.0,0.0,24006000.0,2.36,2.23,10178901.0,10777806.0,0.0,0.49620759442,0.113384819568,0.073965420948,0.0720827302918,0.0461994871395,37761000.0,24633000.0,24006000.0,0.073965420948,0.0720827302918
2016-12-31,223910000.0,0.447803174808,116330000.0,107580000.0,0.0,19351000.0,89177000.0,18146000.0,257000.0,18146000.0,6539000.0,0.0,0.0,11607000.0,0.0,11607000.0,1.27,1.22,9125167.0,9540051.0,0.0,0.480460899469,0.108856236881,0.0810414898843,0.05183779197,0.0635433879684,24374000.0,18146000.0,11607000.0,0.0810414898843,0.05183779197
2015-12-31,154655000.0,0.426943588419,85877000.0,68778000.0,0.0,11930000.0,55079000.0,13487000.0,212000.0,13487000.0,4995000.0,0.0,0.0,8492000.0,0.0,8492000.0,1.25,1.18,6773135.0,7215898.0,0.0,0.444718890434,0.109631114416,0.0872070091494,0.054909314280199996,0.0347289127413,16955000.0,13487000.0,8492000.0,0.0872070091494,0.054909314280199996
2014-12-31,108382000.0,0.588433579552,63201000.0,45181000.0,0.0,8865000.0,36938000.0,7969000.0,274000.0,7969000.0,3076000.0,0.0,0.0,4893000.0,0.0,4893000.0,0.96,0.87,5102058.0,5592010.0,0.0,0.416868114632,0.0918694986252,0.07352696942300001,0.0451458729309,0.005489841486590001,9957000.0,7969000.0,4893000.0,0.07352696942300001,0.0451458729309
2013-12-31,68232000.0,0.126386687797,33416000.0,34816000.0,0.0,6708000.0,30920000.0,3633000.0,263000.0,3633000.0,874000.0,0.0,0.0,2759000.0,0.0,2759000.0,0.75,0.7,3660289.0,3967056.0,0.0,0.510259115957,0.07543381404619999,0.0532448118185,0.0404355727518,0.042326181263899997,5147000.0,3633000.0,2759000.0,0.0532448118185,0.0404355727518
2012-12-31,60576000.0,-0.044029921409,28908000.0,31668000.0,0.0,24453000.0,29311000.0,2357000.0,389000.0,1968000.0,675000.0,0.0,0.0,1293000.0,0.0,1293000.0,0.58,0.52,,2244737.0,0.0,0.5228,0.063,0.0389,0.021,0.0162,3825000.0,2357000.0,1293000.0,0.0325,0.0213
2011-12-31,63366000.0,0.9741416910709999,30948000.0,32418000.0,0.0,24238000.0,29690000.0,2728000.0,376000.0,1855000.0,436000.0,530000.0,-33000.0,1419000.0,0.0,1419000.0,0.73,0.66,,,0.0,0.5116,0.066,0.0352,0.022000000000000002,0.0332,4180000.0,2231000.0,1949000.0,0.0293,0.0224
2010-12-31,32098000.0,,15866000.0,16232000.0,0.0,12742000.0,15947000.0,285000.0,260000.0,-43000.0,132000.0,104000.0,-35000.0,-175000.0,0.0,-175000.0,-0.09,-0.09,,,0.0,0.5057,0.042,0.0068,-0.005,0.0734,1354000.0,217000.0,-71000.0,-0.0013,-0.0055
