,0,1,2,3,4,5,6,7,8,9,10,11,12,13,14,15,16,17,18,19,20,21,22,23,24,25,26,27,28,29,30
Date,Revenue,Revenue Growth,Cost of Revenue,Gross Profit,R&D Expenses,SG&A Expense,Operating Expenses,Operating Income,Interest Expense,Earnings before Tax,Income Tax Expense,Net Income - Non-Controlling int,Net Income - Discontinued ops,Net Income,Preferred Dividends,Net Income Com,EPS,EPS Diluted,Weighted Average Shs Out,Weighted Average Shs Out (Dil),Dividend per Share,Gross Margin,EBITDA Margin,EBIT Margin,Profit Margin,Free Cash Flow margin,EBITDA,EBIT,Consolidated Income,Earnings Before Tax Margin,Net Profit Margin
2019-12-31,390255000.0,0.00765836365092,121905000.0,268350000.0,59017000.0,305812000.0,364829000.0,-96479000.0,10931000.0,-102087000.0,1599000.0,0.0,0.0,-103686000.0,0.0,-103686000.0,-3.37,-3.37,30803872.0,30803872.0,0.0,0.687627320598,-0.201645078218,-0.24722040716999996,-0.265687819503,-0.137530588974,-78693000.0,-96479000.0,-103686000.0,-0.26159049852,-0.265687819503
2018-12-31,387289000.0,0.18555195699700003,113965000.0,273324000.0,48459000.0,266608000.0,315067000.0,-41743000.0,10401000.0,-48437000.0,768000.0,0.0,0.0,-49205000.0,0.0,-49205000.0,-1.64,-1.64,30051961.0,30051961.0,0.0,0.705736542995,-0.0754397878587,-0.10778256031,-0.127049825841,-0.0359550619821,-29217000.0,-41743000.0,-49205000.0,-0.125066810573,-0.127049825841
2017-12-31,326674000.0,0.429620488044,98981000.0,227693000.0,37560000.0,219712000.0,257272000.0,-29579000.0,9902000.0,-35250000.0,1408000.0,0.0,0.0,-36658000.0,0.0,-36658000.0,-1.25,-1.25,29424360.0,29424054.0,0.0,0.697003740732,-0.0614435186149,-0.09054592652,-0.11221584821599999,-0.0569374973215,-20072000.0,-29579000.0,-36658000.0,-0.10790574089199999,-0.11221584821599999
2016-12-31,228504000.0,2.2828204465099997,75433000.0,153071000.0,33729000.0,142423000.0,176152000.0,-23081000.0,6394000.0,-30155000.0,1623000.0,0.0,0.0,-31778000.0,0.0,-31778000.0,-1.12,-1.12,28492091.0,28485003.0,0.0,0.669883240556,-0.076375030634,-0.101009172706,-0.139069775584,-0.270765500823,-17452000.0,-23081000.0,-31778000.0,-0.131967055281,-0.139069775584
2015-12-31,69606000.0,1.13692321862,28120000.0,41486000.0,21382000.0,82471000.0,103853000.0,-62367000.0,2732000.0,-66265000.0,1166000.0,0.0,0.0,-67431000.0,0.0,-67431000.0,-2.54,-2.54,26603512.0,26581890.0,0.0,0.59601183806,-0.877280694193,-0.8960003447980001,-0.968752693733,-1.51478320834,-61064000.0,-62367000.0,-67431000.0,-0.952001264259,-0.968752693733
2014-12-31,32573000.0,0.38608510638300003,11278000.0,21295000.0,19824000.0,29777000.0,49601000.0,-28306000.0,0.0,-30202000.0,478000.0,0.0,0.0,-30680000.0,0.0,-30680000.0,-6.94,-6.94,4486569.0,4440663.0,0.0,0.653762318485,-0.868572130292,-0.869001934117,-0.941884382771,-0.9754397814139999,-28292000.0,-28306000.0,-30680000.0,-0.927209652166,-0.941884382771
2013-12-31,23500000.0,0.29476584022,9473000.0,14027000.0,20345000.0,18833000.0,39178000.0,-25151000.0,0.0,-25652000.0,362000.0,0.0,0.0,-26014000.0,153000.0,-26167000.0,-29.84,-29.84,,876932.0,0.0,0.5969,-1.09,-1.0916,-1.113,-0.9,-25605000.0,-25652000.0,-26014000.0,-1.0916,-1.107
2012-12-31,18150000.0,,7527000.0,10623000.0,15659000.0,14094000.0,29753000.0,-19130000.0,-139000.0,-18805000.0,162000.0,0.0,0.0,-18967000.0,98000.0,-19065000.0,-38.59,-38.59,,494066.0,0.0,0.5853,-1.042,-1.0437,-1.05,-1.2395,-18905000.0,-18944000.0,-18967000.0,-1.0361,-1.045
