,0,1,2,3,4,5,6,7,8,9,10,11,12,13,14,15,16,17,18,19,20,21,22,23,24,25,26,27,28,29,30
Date,Revenue,Revenue Growth,Cost of Revenue,Gross Profit,R&D Expenses,SG&A Expense,Operating Expenses,Operating Income,Interest Expense,Earnings before Tax,Income Tax Expense,Net Income - Non-Controlling int,Net Income - Discontinued ops,Net Income,Preferred Dividends,Net Income Com,EPS,EPS Diluted,Weighted Average Shs Out,Weighted Average Shs Out (Dil),Dividend per Share,Gross Margin,EBITDA Margin,EBIT Margin,Profit Margin,Free Cash Flow margin,EBITDA,EBIT,Consolidated Income,Earnings Before Tax Margin,Net Profit Margin
2018-12-31,53166000000.0,0.0604567667298,18407000000.0,34759000000.0,9074000000.0,16471000000.0,28280000000.0,6479000000.0,957000000.0,13832000000.0,1221000000.0,-3000000.0,0.0,12611000000.0,0.0,12611000000.0,5.44,5.38,2317456499.0,2317456499.0,2.207,0.6538,0.278,0.2782,0.237,0.237,14789000000.0,14789000000.0,12614000000.0,0.2602,0.2372
2017-12-31,50135000000.0,0.014139493486500001,17175000000.0,32960000000.0,8972000000.0,14997000000.0,26300000000.0,6660000000.0,777000000.0,8999000000.0,1296000000.0,0.0,0.0,7703000000.0,0.0,7703000000.0,3.28,3.25,2374059013.0,2374059013.0,2.327,0.6574,0.195,0.195,0.154,0.2197,9776000000.0,9776000000.0,7703000000.0,0.1795,0.1536
2016-12-31,49436000000.0,-0.018873915891,17520000000.0,31916000000.0,9039000000.0,14192000000.0,25575000000.0,6341000000.0,707000000.0,7831000000.0,1119000000.0,14000000.0,0.0,6712000000.0,0.0,6712000000.0,2.82,2.8,2373894817.0,2373894817.0,2.762,0.6456,0.17300000000000001,0.1727,0.136,0.1977,8538000000.0,8538000000.0,6698000000.0,0.1584,0.1358
2015-12-31,50387000000.0,-0.0605399559981,17404000000.0,32983000000.0,8935000000.0,14247000000.0,26055000000.0,6928000000.0,655000000.0,18889000000.0,1106000000.0,-11000000.0,-10766000000.0,17783000000.0,0.0,17783000000.0,7.4,7.29,2398626257.0,2398626257.0,2.387,0.6546,0.38799999999999996,0.3879,0.353,0.1938,19544000000.0,19544000000.0,17794000000.0,0.3749,0.3529
2014-12-31,53634000000.0,0.0174140678352,17345000000.0,36289000000.0,9086000000.0,14993000000.0,26591000000.0,9698000000.0,704000000.0,11755000000.0,1545000000.0,70000000.0,447000000.0,10210000000.0,0.0,10210000000.0,4.21,4.13,2426084308.0,2426084308.0,2.719,0.6766,0.23199999999999998,0.2323,0.19,0.2113,12459000000.0,12459000000.0,10280000000.0,0.2192,0.1904
2013-12-31,52716000000.0,0.014334917550200001,16579000000.0,36137000000.0,9071000000.0,15241000000.0,26359000000.0,9778000000.0,683000000.0,10673000000.0,1498000000.0,117000000.0,17000000.0,9175000000.0,0.0,9175000000.0,3.76,3.76,2420620174.0,2420620174.0,2.53,0.6855,0.215,0.2154,0.174,0.1957,11356000000.0,11356000000.0,9292000000.0,0.2025,0.174
2012-12-31,51971000000.0,-0.124698947368,15866000000.0,36105000000.0,8588000000.0,15117000000.0,25541000000.0,10564000000.0,724000000.0,10976000000.0,1706000000.0,113000000.0,0.0,9270000000.0,0.0,9270000000.0,3.83,3.83,2406693857.0,2406693857.0,2.46,0.6947,0.225,0.2251,0.17800000000000002,0.2274,11700000000.0,11700000000.0,9383000000.0,0.2112,0.1784
2011-12-31,59375000000.0,0.151548651112,18983000000.0,40392000000.0,9583000000.0,18049000000.0,30804000000.0,9588000000.0,751000000.0,10423000000.0,1483000000.0,132000000.0,0.0,8940000000.0,0.0,8940000000.0,3.75,3.7,2289445178.0,2289445178.0,2.353,0.6803,0.188,0.1882,0.151,0.2055,11174000000.0,11174000000.0,9072000000.0,0.1755,0.1506
2010-12-31,51561000000.0,0.143183380263,14488000000.0,37073000000.0,9070000000.0,15797000000.0,26781000000.0,10292000000.0,692000000.0,11527000000.0,1733000000.0,175000000.0,0.0,9794000000.0,0.0,9794000000.0,4.28,4.26,2274353351.0,2274353351.0,1.9869999999999999,0.7190000000000001,0.237,0.237,0.19,0.24100000000000002,12219000000.0,12219000000.0,9969000000.0,0.2236,0.1899
2009-12-31,45103000000.0,0.0592,12179000000.0,32924000000.0,7469000000.0,14331000000.0,23724000000.0,9200000000.0,551000000.0,9868000000.0,1468000000.0,54000000.0,0.0,8400000000.0,0.0,8400000000.0,3.7,3.69,2264852842.0,2264852842.0,1.72,0.73,0.231,0.231,0.18600000000000003,0.2295,10419000000.0,10419000000.0,8454000000.0,0.2188,0.1862
