,0,1,2,3,4,5,6,7,8,9,10,11,12,13,14,15,16,17,18,19,20,21,22,23,24,25,26,27,28,29,30
Date,Revenue,Revenue Growth,Cost of Revenue,Gross Profit,R&D Expenses,SG&A Expense,Operating Expenses,Operating Income,Interest Expense,Earnings before Tax,Income Tax Expense,Net Income - Non-Controlling int,Net Income - Discontinued ops,Net Income,Preferred Dividends,Net Income Com,EPS,EPS Diluted,Weighted Average Shs Out,Weighted Average Shs Out (Dil),Dividend per Share,Gross Margin,EBITDA Margin,EBIT Margin,Profit Margin,Free Cash Flow margin,EBITDA,EBIT,Consolidated Income,Earnings Before Tax Margin,Net Profit Margin
2019-12-31,5448000.0,-0.037965742539300004,0.0,0.0,0.0,14655000.0,14756000.0,16823000.0,8678000.0,16823000.0,2608000.0,0.0,0.0,14215000.0,0.0,14215000.0,2.27,2.25,6260000.0,6332000.0,0.9540429564120001,0.0,3.02514684288,3.0879221732700004,2.6092143906,3.08645374449,16481000.0,16823000.0,14215000.0,3.0879221732700004,2.6092143906
2018-12-31,5663000.0,-0.837773576258,0.0,0.0,0.0,14020000.0,14146000.0,16204000.0,5657000.0,16204000.0,2553000.0,0.0,0.0,13651000.0,0.0,13651000.0,2.19,2.17,6232000.0,6290000.0,0.875834658188,0.0,2.7395373477,2.86138089352,2.41055977397,2.90040614515,15514000.0,16204000.0,13651000.0,2.86138089352,2.41055977397
2017-12-31,34908000.0,0.220986358867,0.0,0.0,0.0,12850000.0,13000000.0,14749000.0,4080000.0,14749000.0,6551000.0,0.0,0.0,8198000.0,0.0,8198000.0,1.32,1.31,6210000.0,6271000.0,0.858874182746,0.0,0.39263206141900003,0.42251059928999996,0.23484588059999997,0.41302853214199997,13706000.0,14749000.0,8198000.0,0.42251059928999996,0.23484588059999997
2016-12-31,28590000.0,0.165939398883,0.0,0.0,0.0,10928000.0,11050000.0,8595000.0,3654000.0,8595000.0,1884000.0,0.0,0.0,6711000.0,0.0,6711000.0,1.74,1.73,3863000.0,3885000.0,1.21338481338,0.0,0.272647778944,0.300629590766,0.234732423924,0.37869884575,7795000.0,8595000.0,6711000.0,0.300629590766,0.234732423924
2015-12-31,24521000.0,-0.00158794788274,0.0,0.0,0.0,8535000.0,8640000.0,7540000.0,3258000.0,7540000.0,1632000.0,0.0,0.0,5908000.0,0.0,5908000.0,1.6,1.6,3673000.0,3691000.0,1.2264968843100001,0.0,0.296072753966,0.30749153786600003,0.24093634028000002,0.416296235879,7260000.0,7540000.0,5908000.0,0.30749153786600003,0.24093634028000002
2014-12-31,24560000.0,-0.00409553546085,0.0,0.0,0.0,8616000.0,8737000.0,10263000.0,3208000.0,10263000.0,2606000.0,0.0,0.0,7657000.0,0.0,7657000.0,2.1,2.1,3645000.0,3657000.0,1.19496855346,0.0,0.411074918567,0.41787459283399997,0.311767100977,0.420928338762,10096000.0,10263000.0,7657000.0,0.41787459283399997,0.311767100977
2013-12-31,24661000.0,-0.0041592634469400005,0.0,0.0,0.0,8447000.0,8584000.0,11171000.0,3598000.0,11171000.0,2706000.0,0.0,0.0,8465000.0,0.0,8465000.0,2.33,2.33,3627000.0,3632000.0,1.14399779736,0.0,0.43976318884099996,0.45298244191200004,0.343254531446,0.49868212967799996,10845000.0,11171000.0,8465000.0,0.45298244191200004,0.343254531446
2012-12-31,24764000.0,0.09633433681600001,0.0,0.0,0.0,8403000.0,8556000.0,11439000.0,4650000.0,11439000.0,3036000.0,0.0,0.0,8403000.0,0.0,8403000.0,2.56,2.56,3280.0,3285.0,1196.95585997,0.0,0.44225488612499997,0.46192052980099996,0.339323211113,0.441931836537,10952000.0,11439000.0,8403000.0,0.46192052980099996,0.339323211113
2011-12-31,22588000.0,-0.006159802886310001,0.0,0.0,0.0,7848000.0,7956000.0,9935000.0,5182000.0,9935000.0,2579000.0,0.0,0.0,7356000.0,0.0,7356000.0,2.39,2.39,0.0,0.0,0.0,0.0,0.43222064813199995,0.439835310784,0.325659642288,0.47007260492299996,9763000.0,9935000.0,7356000.0,0.439835310784,0.325659642288
2010-12-31,22728000.0,-0.00385694249649,0.0,22728000.0,0.0,10715000.0,12753000.0,9975000.0,0.0,9975000.0,2662000.0,0.0,0.0,7313000.0,0.0,7313000.0,1.6059999999999999,1.6,4555477.0,4555477.0,0.679,1.0,0.461,0.4389,0.322,0.3741,10486000.0,9975000.0,7313000.0,0.4389,0.3218
2009-12-31,22816000.0,0.0489,0.0,22816000.0,0.0,10776000.0,13471000.0,9345000.0,0.0,9345000.0,2282000.0,0.0,0.0,7063000.0,0.0,7063000.0,1.558,1.545,4558592.0,4558592.0,0.655,1.0,0.436,0.4096,0.31,0.2576,9943000.0,9345000.0,7063000.0,0.4096,0.3096
