,0,1,2,3,4,5,6,7,8,9,10,11,12,13,14,15,16,17,18,19,20,21,22,23,24,25,26,27,28
Date,Cash and cash equivalents,Short-term investments,Cash and short-term investments,Receivables,Inventories,Total current assets,Property Plant & Equipment Net,Goodwill and Intangible Assets,Long-term investments,Tax assets,Total non-current assets,Total assets,Payables,Short-term debt,Total current liabilities,Long-term debt,Total debt,Deferred revenue,Tax Liabilities,Deposit Liabilities,Total non-current liabilities,Total liabilities,Other comprehensive income,Retained earnings (deficit),Total shareholders equity,Investments,Net Debt,Other Assets,Other Liabilities
2019-06-30,1643000000.0,1000000.0,1644000000.0,1544000000.0,348000000.0,4050000000.0,2554000000.0,7573000000.0,83000000.0,269000000.0,11661000000.0,15711000000.0,411000000.0,449000000.0,3340000000.0,1004000000.0,1453000000.0,428000000.0,22000000.0,0.0,1794000000.0,6567000000.0,12245000000.0,-1979000000.0,9144000000.0,84000000.0,-190000000.0,0.0,1433000000.0
2018-06-30,2034000000.0,3000000.0,2037000000.0,1612000000.0,376000000.0,4394000000.0,2560000000.0,7889000000.0,93000000.0,279000000.0,11952000000.0,16346000000.0,605000000.0,462000000.0,3295000000.0,1490000000.0,1952000000.0,516000000.0,17000000.0,0.0,2309000000.0,7055000000.0,12324000000.0,-2163000000.0,9291000000.0,96000000.0,-82000000.0,0.0,1451000000.0
2017-06-30,2016000000.0,97000000.0,2113000000.0,1276000000.0,0.0,3815000000.0,1624000000.0,6119000000.0,97000000.0,525000000.0,10737000000.0,14552000000.0,222000000.0,600000000.0,2452000000.0,276000000.0,876000000.0,426000000.0,39000000.0,0.0,688000000.0,3763000000.0,12399000000.0,-648000000.0,10789000000.0,194000000.0,-1140000000.0,0.0,623000000.0
2017-06,2016000000.0,,,1358000000.0,208000000.0,3815000000.0,1624000000.0,6119000000.0,2027000000.0,0.0,10737000000.0,14552000000.0,222000000.0,103000000.0,2452000000.0,276000000.0,276000000.0,426000000.0,61000000.0,,1311000000.0,3763000000.0,-964000000.0,-648000000.0,10789000000.0,2027000000.0,-1637000000.0,442000000.0,829000000.0
2016-06-30,1832000000.0,189000000.0,2021000000.0,1229000000.0,0.0,3889000000.0,2405000000.0,5921000000.0,338000000.0,0.0,11594000000.0,15483000000.0,217000000.0,466000000.0,2442000000.0,369000000.0,835000000.0,388000000.0,33000000.0,0.0,889000000.0,3919000000.0,12436000000.0,150000000.0,11564000000.0,527000000.0,-997000000.0,0.0,588000000.0
2016-06,1832000000.0,,,1284000000.0,218000000.0,3889000000.0,2405000000.0,5921000000.0,2270000000.0,0.0,11594000000.0,15483000000.0,217000000.0,0.0,2442000000.0,369000000.0,369000000.0,388000000.0,171000000.0,,1477000000.0,3919000000.0,-1026000000.0,150000000.0,11564000000.0,2270000000.0,-1463000000.0,711000000.0,802000000.0
2015-06-30,1951000000.0,185000000.0,2136000000.0,1310000000.0,0.0,3975000000.0,2746000000.0,5305000000.0,39000000.0,61000000.0,11118000000.0,15093000000.0,239000000.0,404000000.0,2155000000.0,0.0,404000000.0,361000000.0,27000000.0,0.0,497000000.0,3148000000.0,12437000000.0,88000000.0,11945000000.0,224000000.0,-1547000000.0,0.0,496000000.0
2015-06,1951000000.0,,,1373000000.0,0.0,3975000000.0,2746000000.0,5305000000.0,2379000000.0,1000000.0,11118000000.0,15093000000.0,239000000.0,0.0,2155000000.0,0.0,0.0,361000000.0,166000000.0,,993000000.0,3148000000.0,-582000000.0,88000000.0,11945000000.0,2379000000.0,-1951000000.0,1339000000.0,1032000000.0
2014-06-30,3145000000.0,151000000.0,3296000000.0,1388000000.0,0.0,5270000000.0,3009000000.0,4919000000.0,83000000.0,76000000.0,11219000000.0,16489000000.0,276000000.0,431000000.0,2264000000.0,0.0,431000000.0,369000000.0,25000000.0,0.0,534000000.0,3246000000.0,12394000000.0,237000000.0,13243000000.0,234000000.0,-2714000000.0,0.0,448000000.0
2014-06,3145000000.0,,,1454000000.0,310000000.0,5270000000.0,3009000000.0,4919000000.0,2609000000.0,36000000.0,11219000000.0,16489000000.0,276000000.0,0.0,2264000000.0,0.0,0.0,369000000.0,224000000.0,,982000000.0,3246000000.0,610000000.0,237000000.0,13243000000.0,2609000000.0,-3145000000.0,547000000.0,972000000.0
2013-06,2381000000.0,,,1582000000.0,0.0,4643000000.0,2992000000.0,4911000000.0,2499000000.0,61000000.0,11000000000.0,15643000000.0,242000000.0,0.0,2171000000.0,0.0,0.0,389000000.0,152000000.0,,914000000.0,3085000000.0,271000000.0,0.0,12558000000.0,2499000000.0,-2381000000.0,1278000000.0,987000000.0
