,0,1,2,3,4,5,6,7,8,9,10,11,12,13,14,15,16,17,18,19,20,21,22,23,24,25,26,27,28,29,30
Date,Revenue,Revenue Growth,Cost of Revenue,Gross Profit,R&D Expenses,SG&A Expense,Operating Expenses,Operating Income,Interest Expense,Earnings before Tax,Income Tax Expense,Net Income - Non-Controlling int,Net Income - Discontinued ops,Net Income,Preferred Dividends,Net Income Com,EPS,EPS Diluted,Weighted Average Shs Out,Weighted Average Shs Out (Dil),Dividend per Share,Gross Margin,EBITDA Margin,EBIT Margin,Profit Margin,Free Cash Flow margin,EBITDA,EBIT,Consolidated Income,Earnings Before Tax Margin,Net Profit Margin
2018-02-03,,0.0,,282827000.0,,,275899000.0,6928000.0,815000.0,,,0.0,0.0,,0.0,,,,,63273000.0,0.0,,0.031,,0.006,,,6928000.0,,,
2017-01-28,,0.0,,263979000.0,,,279362000.0,-15383000.0,1235000.0,,,0.0,0.0,,0.0,,,,,63356000.0,0.0,,0.008,,-0.019,,,-15383000.0,,,
2016-01-30,,0.0,,264855000.0,,,272960000.0,-8105000.0,1227000.0,,,0.0,0.0,,0.0,,,,,63154000.0,0.0,,0.017,,-0.011000000000000001,,,-8105000.0,,,
2015-01-31,,0.0,,249775000.0,,,265371000.0,-15596000.0,573000.0,,,0.0,0.0,,0.0,,,,,62825000.0,0.0,,0.013000000000000001,,-0.018000000000000002,,,-15596000.0,,,
2014-02-01,,0.0,,264370000.0,,,261293000.0,3077000.0,369000.0,,,0.0,0.0,,0.0,,,,,62313000.0,0.0,,0.038,,0.003,,,3077000.0,,,
2013-02-02,,0.0,,264821000.0,,,262569000.0,2252000.0,360000.0,,,0.0,0.0,,0.0,,,,,61516000.0,0.0,,0.038,,0.002,,,2252000.0,,,
2012-01-28,,0.0,,221618000.0,,,257188000.0,-35570000.0,495000.0,,,0.0,0.0,,0.0,,,,,60824000.0,0.0,,0.003,,-0.040999999999999995,,,-35714000.0,,,
2011-01-29,,0.0,,233321000.0,,,299700000.0,-66379000.0,697000.0,,,0.0,-81000.0,,0.0,,,,,59443000.0,0.0,,-0.025,,-0.075,,,-66298000.0,,,
2010-01-30,,,,252589000.0,,,276515000.0,-23926000.0,755000.0,,,0.0,-3000.0,,0.0,,,,,59457000.0,0.0,,0.018000000000000002,,-0.013000000000000001,,,-23923000.0,,,
