,0,1,2,3,4,5,6,7,8,9,10,11,12,13,14,15,16,17,18,19,20,21,22,23,24,25,26,27,28,29,30
Date,Revenue,Revenue Growth,Cost of Revenue,Gross Profit,R&D Expenses,SG&A Expense,Operating Expenses,Operating Income,Interest Expense,Earnings before Tax,Income Tax Expense,Net Income - Non-Controlling int,Net Income - Discontinued ops,Net Income,Preferred Dividends,Net Income Com,EPS,EPS Diluted,Weighted Average Shs Out,Weighted Average Shs Out (Dil),Dividend per Share,Gross Margin,EBITDA Margin,EBIT Margin,Profit Margin,Free Cash Flow margin,EBITDA,EBIT,Consolidated Income,Earnings Before Tax Margin,Net Profit Margin
2018-12-31,0.0,0.0,0.0,0.0,0.0,-5742719.2593,-19224765.9259,19224765.9259,8854922.963,-1452141.4815,229109.6296,-576357.7778,0.0,-1681251.1111,0.0,-1681251.1111,-0.0074,0.0444,251362485.9259,256199055.5556,0.0,0.0,,0.0,,0.0,8538806.6667,7402781.4815,-1104893.3333,0.0,0.0
2017-12-31,0.0,0.0,0.0,0.0,0.0,-4317568.7353,-14073942.6551,14073942.6551,6829416.3394,44046850.7463,26168.1068,-622373.1343,0.0,44020682.6394,0.0,44020682.6394,0.1335,0.1335,266566658.2875,252884476.0408,0.0,0.0,,0.0,,0.0,51471760.4085,50876267.0856,44643055.7738,0.0,0.0
2016-12-31,0.0,0.0,0.0,0.0,0.0,3151807.2917,11980441.9643,-11980441.9643,2594494.7917,12625925.5952,56380.9524,474848.9583,0.0,12569544.6429,0.0,12569544.6429,-0.0446,-0.0446,252484639.88099998,223436735.8631,0.0,0.0,,0.0,,0.0,15686911.4583,15220420.3869,-13044393.6012,0.0,0.0
2015-12-31,0.0,,0.0,0.0,0.0,1252456.9776,3567239.3348,-3567239.3348,0.0,3360315.9798,0.0,0.0,0.0,3360315.9798,0.0,3360315.9798,-0.0145,-0.0145,,168124767.1728,0.0,0.0,,0.0,,0.0,3538284.1649,3360315.9798,-3360315.9798,0.0,0.0
