,0,1,2,3,4,5,6,7,8,9,10,11,12,13,14,15,16,17,18,19,20,21,22,23,24,25,26,27,28,29,30
Date,Revenue,Revenue Growth,Cost of Revenue,Gross Profit,R&D Expenses,SG&A Expense,Operating Expenses,Operating Income,Interest Expense,Earnings before Tax,Income Tax Expense,Net Income - Non-Controlling int,Net Income - Discontinued ops,Net Income,Preferred Dividends,Net Income Com,EPS,EPS Diluted,Weighted Average Shs Out,Weighted Average Shs Out (Dil),Dividend per Share,Gross Margin,EBITDA Margin,EBIT Margin,Profit Margin,Free Cash Flow margin,EBITDA,EBIT,Consolidated Income,Earnings Before Tax Margin,Net Profit Margin
2017-09,3637000000.0,,3238000000.0,398000000.0,,315000000.0,331000000.0,67000000.0,51000000.0,25000000.0,10000000.0,,,14000000.0,,14000000.0,0.19,0.19,77000000.0,77000000.0,,0.10943084960132,0.04096783062964,0.020621391256529998,0.0038493263678856,,149000000.0,75000000.0,14000000.0,0.00687379708551,0.0038493263678856
2016-09,1066000000.0,,957000000.0,108000000.0,,113000000.0,102000000.0,7000000.0,15000000.0,-7000000.0,1000000.0,,,-8000000.0,,-8000000.0,-0.24,-0.24,35000000.0,35000000.0,,0.10131332082552001,0.026266416510319003,0.0075046904315197,-0.0075046904315197,,28000000.0,8000000.0,-8000000.0,-0.0065666041275797,-0.0075046904315197
2015-12,0.0,,0.0,0.0,,1000000.0,1000000.0,-1000000.0,0.0,-0.0,0.0,,,-0.0,,-0.0,-0.02,-0.02,15000000.0,15000000.0,,,,,,,-0.0,0.0,-0.0,,
2014-12,0.0,,0.0,0.0,,0.0,0.0,0.0,0.0,0.0,0.0,,,0.0,,0.0,,,,,,,,,,,0.0,0.0,0.0,,
2013-12,0.0,,0.0,0.0,,0.0,0.0,0.0,0.0,0.0,0.0,,,0.0,,0.0,,,,,,,,,,,0.0,0.0,0.0,,
