,0,1,2,3,4,5,6,7,8,9,10,11,12,13,14,15,16,17,18,19,20,21,22,23,24,25,26,27,28,29,30
Date,Revenue,Revenue Growth,Cost of Revenue,Gross Profit,R&D Expenses,SG&A Expense,Operating Expenses,Operating Income,Interest Expense,Earnings before Tax,Income Tax Expense,Net Income - Non-Controlling int,Net Income - Discontinued ops,Net Income,Preferred Dividends,Net Income Com,EPS,EPS Diluted,Weighted Average Shs Out,Weighted Average Shs Out (Dil),Dividend per Share,Gross Margin,EBITDA Margin,EBIT Margin,Profit Margin,Free Cash Flow margin,EBITDA,EBIT,Consolidated Income,Earnings Before Tax Margin,Net Profit Margin
2019-03-31,529173000.0,-0.0034763351217199996,246697000.0,282476000.0,80994000.0,164879000.0,250857000.0,31619000.0,2814000.0,29288000.0,4794000.0,0.0,0.0,24494000.0,0.0,24494000.0,0.38,0.38,64417000.0,64600000.0,0.0,0.53380652452,0.142601757837,0.0597517258061,0.0462873200258,0.08602668692469999,75461000.0,31619000.0,24494000.0,0.05534673915709999,0.0462873200258
2018-03-31,531019000.0,0.0419819317772,241535000.0,289484000.0,81259000.0,193226000.0,286663000.0,2821000.0,3323000.0,-410000.0,-2830000.0,0.0,0.0,2420000.0,0.0,2420000.0,0.04,0.04,63435000.0,63440000.0,0.0,0.545148102045,0.0844169417667,0.00531242761558,0.0045572757283599994,0.12576762789999998,44827000.0,2821000.0,2420000.0,-0.0007721004333180001,0.0045572757283599994
2017-03-31,509624000.0,0.034817869667000005,223134000.0,286490000.0,78341000.0,163623000.0,259477000.0,27013000.0,3156000.0,23609000.0,5368000.0,0.0,0.0,18241000.0,0.0,18241000.0,0.3,0.29,61818000.0,62010000.0,0.0,0.562159552925,0.134457953315,0.05300574541230001,0.0357930552721,0.193136508485,68523000.0,27013000.0,18241000.0,0.0463263111627,0.0357930552721
2016-03-31,492477000.0,0.004593808965270001,225615000.0,266862000.0,65661000.0,156234000.0,259500000.0,7362000.0,1304000.0,6320000.0,663000.0,0.0,0.0,5657000.0,0.0,5657000.0,0.09,0.09,60635000.0,61233000.0,0.699786063071,0.541877082585,0.075859380235,0.0149489214725,0.0114868308571,0.0543842656611,37359000.0,7362000.0,5657000.0,0.012833086621299998,0.0114868308571
2015-03-31,490225000.0,0.10245419606100001,223164000.0,267061000.0,69240000.0,158172000.0,231105000.0,35956000.0,0.0,35664000.0,8332000.0,0.0,0.0,27332000.0,0.0,27332000.0,0.45,0.45,60259000.0,60849000.0,0.702887475554,0.544772298434,0.133047070223,0.07334591259119999,0.0557539905146,0.15549390586,65223000.0,35956000.0,27332000.0,0.0727502677342,0.0557539905146
2014-03-31,444667000.0,-0.0338136014897,220163000.0,224504000.0,41524000.0,149214000.0,201416000.0,23088000.0,0.0,23001000.0,7321000.0,0.0,0.0,15680000.0,0.0,15680000.0,0.26,0.26,59918000.0,60134000.0,0.7018159443909999,0.504881180749,0.11654788864499999,0.051922000058500006,0.0352623423821,0.216355160154,51825000.0,23088000.0,15680000.0,0.05172634803119999,0.0352623423821
2013-03-31,460229000.0,1.0,189652000.0,270577000.0,30865000.0,148353000.0,201477000.0,69100000.0,0.0,68914000.0,26190000.0,0.0,0.0,42724000.0,0.0,42724000.0,720.0,720.0,59392000.0,59462000.0,0.6985133362479999,0.587918188554,0.16061352066,0.150142646378,0.092832046655,0.14784161797700002,73919000.0,69100000.0,42724000.0,0.14973849974700001,0.092832046655
2012-03-31,0.0,0.0,0.0,0.0,0.0,0.0,0.0,0.0,0.0,0.0,0.0,0.0,0.0,0.0,0.0,0.0,0.0,0.0,0.0,0.0,0.0,0.0,0.0,0.0,0.0,0.0,0.0,0.0,0.0,0.0,0.0
2011-03-31,0.0,-1.0,0.0,0.0,0.0,0.0,0.0,0.0,0.0,0.0,0.0,0.0,0.0,0.0,0.0,0.0,0.0,0.0,0.0,0.0,0.0,0.0,0.0,0.0,0.0,0.0,0.0,0.0,0.0,0.0,0.0
2010-03-31,291811000.0,0.1886,110807000.0,181004000.0,16546000.0,86951000.0,105280000.0,75724000.0,0.0,76218000.0,27839000.0,0.0,0.0,48379000.0,0.0,48379000.0,0.84,0.84,57345478.0,57270000.0,0.6,0.6203,0.3,0.2612,0.166,0.1452,87591000.0,76218000.0,48379000.0,0.2612,0.1658
