,0,1,2,3,4,5,6,7,8,9,10,11,12,13,14,15,16,17,18,19,20,21,22,23,24,25,26,27,28,29,30
Date,Revenue,Revenue Growth,Cost of Revenue,Gross Profit,R&D Expenses,SG&A Expense,Operating Expenses,Operating Income,Interest Expense,Earnings before Tax,Income Tax Expense,Net Income - Non-Controlling int,Net Income - Discontinued ops,Net Income,Preferred Dividends,Net Income Com,EPS,EPS Diluted,Weighted Average Shs Out,Weighted Average Shs Out (Dil),Dividend per Share,Gross Margin,EBITDA Margin,EBIT Margin,Profit Margin,Free Cash Flow margin,EBITDA,EBIT,Consolidated Income,Earnings Before Tax Margin,Net Profit Margin
2012-12,15000000.0,,5000000.0,11000000.0,,,10000000.0,1000000.0,0.0,-1000000.0,0.0,,,-1000000.0,,-1000000.0,-0.08,-0.08,8000000.0,8000000.0,,0.73333333333333,0.13333333333333,-0.066666666666667,-0.066666666666667,,2000000.0,-1000000.0,-1000000.0,-0.066666666666667,-0.066666666666667
2011-12,17000000.0,,7000000.0,9000000.0,,,10000000.0,-0.0,1000000.0,-1000000.0,0.0,,,-1000000.0,,-1000000.0,-0.1,-0.1,8000000.0,8000000.0,,0.52941176470588,0.058823529411765,0.0,-0.058823529411765,,1000000.0,0.0,-1000000.0,-0.058823529411765,-0.058823529411765
2010-12,15000000.0,,7000000.0,9000000.0,,,10000000.0,-2000000.0,0.0,-1000000.0,0.0,,,-1000000.0,,-1000000.0,-0.09,-0.09,8000000.0,8000000.0,,0.6,0.0,-0.066666666666667,-0.066666666666667,,0.0,-1000000.0,-1000000.0,-0.066666666666667,-0.066666666666667
2009-12,13000000.0,,6000000.0,7000000.0,,,11000000.0,-4000000.0,0.0,1000000.0,0.0,,,1000000.0,,1000000.0,0.09,0.09,7000000.0,7000000.0,,0.53846153846154,0.076923076923077,0.076923076923077,0.076923076923077,,1000000.0,1000000.0,1000000.0,0.076923076923077,0.076923076923077
2008-12,19000000.0,,10000000.0,10000000.0,,,12000000.0,-2000000.0,0.0,-1000000.0,0.0,,,-1000000.0,,-1000000.0,-2.67,-2.67,1000000.0,1000000.0,,0.52631578947368,-0.052631578947367995,-0.052631578947367995,-0.052631578947367995,,-1000000.0,-1000000.0,-1000000.0,-0.052631578947367995,-0.052631578947367995
