,0,1,2,3,4,5,6,7,8,9,10,11,12,13,14
Date,Depreciation & Amortization,Stock-based compensation,Operating Cash Flow,Capital Expenditure,Acquisitions and disposals,Investment purchases and sales,Investing Cash flow,Issuance (repayment) of debt,Issuance (buybacks) of shares,Dividend payments,Financing Cash Flow,Effect of forex changes on cash,Net cash flow / Change in cash,Free Cash Flow,Net Cash/Marketcap
2017-12-31,,0.0,516000000.0,-31000000.0,-276000000.0,17000000.0,-283000000.0,-240000000.0,34000000.0,-202000000.0,-415000000.0,0.0,-182000000.0,485000000.0,
2016-12-31,,0.0,577000000.0,-20000000.0,-132000000.0,17000000.0,-131000000.0,150000000.0,0.0,-173000000.0,-202000000.0,0.0,244000000.0,557000000.0,
2015-12-31,,0.0,425000000.0,-29000000.0,-1095000000.0,17000000.0,-1098000000.0,-149000000.0,599000000.0,-139000000.0,354000000.0,0.0,-319000000.0,396000000.0,
2014-12-31,,0.0,362000000.0,-60000000.0,-1208000000.0,14000000.0,-739000000.0,361000000.0,630000000.0,-101000000.0,747000000.0,0.0,370000000.0,302000000.0,
2013-12-31,,0.0,120000000.0,-353000000.0,-154000000.0,10000000.0,-515000000.0,515000000.0,468000000.0,-15000000.0,432000000.0,0.0,37000000.0,-233000000.0,
2012-12-31,,0.0,56000000.0,-564000000.0,-27000000.0,-17000000.0,-594000000.0,253000000.0,0.0,0.0,536000000.0,0.0,-2000000.0,-508000000.0,
2011-12-31,,0.0,33000000.0,-132000000.0,-88000000.0,7000000.0,-219000000.0,-20000000.0,0.0,0.0,180000000.0,0.0,-6000000.0,-99000000.0,
