,0,1,2,3,4,5,6,7,8,9,10,11,12,13,14,15,16,17,18,19,20,21,22,23,24,25,26,27,28
Date,Cash and cash equivalents,Short-term investments,Cash and short-term investments,Receivables,Inventories,Total current assets,Property Plant & Equipment Net,Goodwill and Intangible Assets,Long-term investments,Tax assets,Total non-current assets,Total assets,Payables,Short-term debt,Total current liabilities,Long-term debt,Total debt,Deferred revenue,Tax Liabilities,Deposit Liabilities,Total non-current liabilities,Total liabilities,Other comprehensive income,Retained earnings (deficit),Total shareholders equity,Investments,Net Debt,Other Assets,Other Liabilities
2017-12-31,45536000.0,0.0,45536000.0,0.0,0.0,45536000.0,0.0,0.0,0.0,0.0,2106844000.0,2152380000.0,33364000.0,0.0,33364000.0,1213193000.0,1213193000.0,0.0,0.0,0.0,1213193000.0,1221403000.0,1445092000.0,-515073000.0,930977000.0,0.0,1167657000.0,0.0,-25154000.0
2016-12-31,45536000.0,0.0,45536000.0,0.0,0.0,45536000.0,0.0,0.0,0.0,0.0,2106844000.0,2152380000.0,33364000.0,0.0,33364000.0,0.0,0.0,0.0,0.0,0.0,0.0,1221403000.0,1445092000.0,-515073000.0,930977000.0,0.0,-45536000.0,0.0,1188039000.0
2016-12,46000000.0,,,313000000.0,,,,0.0,,,,2152000000.0,,,,1108000000.0,1108000000.0,,,,,1211000000.0,-1000000.0,-515000000.0,931000000.0,,1062000000.0,0.0,0.0
2015-12-31,98604000.0,0.0,98604000.0,0.0,0.0,98604000.0,0.0,0.0,0.0,0.0,1973151000.0,2071755000.0,27736000.0,485000000.0,512736000.0,485000000.0,970000000.0,0.0,0.0,0.0,485000000.0,1037015000.0,1403624000.0,-369273000.0,1034740000.0,0.0,871396000.0,0.0,39279000.0
2015-12,99000000.0,,,0.0,,,,0.0,,,,2072000000.0,,,,388000000.0,388000000.0,,,,,979000000.0,-1000000.0,-369000000.0,1035000000.0,,289000000.0,0.0,0.0
2014-12-31,22512000.0,4659000.0,27171000.0,0.0,0.0,27171000.0,0.0,0.0,0.0,0.0,2093664000.0,2120835000.0,27850000.0,635000000.0,662850000.0,635000000.0,1270000000.0,0.0,0.0,0.0,635000000.0,973888000.0,1401619000.0,-255478000.0,1146947000.0,4659000.0,1247488000.0,0.0,-323962000.0
2014-12,23000000.0,,,0.0,,,,0.0,,,,2121000000.0,,,,172000000.0,172000000.0,,,,,925000000.0,-1000000.0,-255000000.0,1147000000.0,,149000000.0,0.0,0.0
2013-12-31,233377000.0,1048000.0,234425000.0,0.0,0.0,234425000.0,0.0,0.0,0.0,0.0,1813880000.0,2048305000.0,30703000.0,305000000.0,335703000.0,305000000.0,610000000.0,0.0,0.0,0.0,305000000.0,599487000.0,1533698000.0,-86008000.0,1448818000.0,1048000.0,376623000.0,0.0,-41216000.0
2013-12,233000000.0,,,0.0,,,,0.0,,,,2048000000.0,,,,173000000.0,173000000.0,,,,,599000000.0,-1000000.0,-86000000.0,1449000000.0,,-60000000.0,0.0,0.0
2012-12-31,5354000.0,0.0,5354000.0,0.0,0.0,5354000.0,0.0,0.0,0.0,0.0,362496000.0,367850000.0,10058000.0,19995000.0,30053000.0,0.0,19995000.0,0.0,0.0,0.0,0.0,226710000.0,164972000.0,-22338000.0,141140000.0,0.0,14641000.0,0.0,196657000.0
2012-12,5000000.0,,,0.0,,,,0.0,,,,368000000.0,,,,186000000.0,186000000.0,,,,,225000000.0,-2000000.0,-22000000.0,141000000.0,,181000000.0,0.0,0.0
2011-12-31,10222000.0,0.0,10222000.0,0.0,0.0,10222000.0,0.0,0.0,0.0,0.0,126742000.0,136964000.0,2293000.0,0.0,2293000.0,5933000.0,5933000.0,0.0,0.0,0.0,5933000.0,97909000.0,47786000.0,-8597000.0,39055000.0,0.0,-4289000.0,0.0,89683000.0
