,0,1,2,3,4,5,6,7,8,9,10,11,12,13,14,15,16,17,18,19,20,21,22,23,24,25,26,27,28,29,30
Date,Revenue,Revenue Growth,Cost of Revenue,Gross Profit,R&D Expenses,SG&A Expense,Operating Expenses,Operating Income,Interest Expense,Earnings before Tax,Income Tax Expense,Net Income - Non-Controlling int,Net Income - Discontinued ops,Net Income,Preferred Dividends,Net Income Com,EPS,EPS Diluted,Weighted Average Shs Out,Weighted Average Shs Out (Dil),Dividend per Share,Gross Margin,EBITDA Margin,EBIT Margin,Profit Margin,Free Cash Flow margin,EBITDA,EBIT,Consolidated Income,Earnings Before Tax Margin,Net Profit Margin
2019-12-31,1408771000.0,-0.393280294511,62146000.0,1346625000.0,6658000.0,143506000.0,373548000.0,154423000.0,176223000.0,-123362000.0,-32715000.0,0.0,0.0,-128243000.0,0.0,-128243000.0,-0.41,-0.41,315002000.0,315002000.0,0.0,0.9558863718799999,0.687746979459,0.109615402361,-0.0910318284519,0.633781501749,968878000.0,154423000.0,-128243000.0,-0.08756710636430001,-0.0910318284519
2018-12-31,2321947000.0,1.2436611743100001,41200000.0,2280747000.0,27432000.0,121346000.0,342690000.0,119012000.0,159085000.0,-25343000.0,-5843000.0,0.0,0.0,-35296000.0,0.0,-35296000.0,-0.11,-0.11,307480000.0,307480000.0,0.0,0.982256270277,0.33780486807,0.0512552612097,-0.0152010360271,0.42913167268700003,784365000.0,119012000.0,-35296000.0,-0.010914547145100002,-0.0152010360271
2017-12-31,1034892000.0,0.6284561097079999,0.0,0.0,11600000.0,91797000.0,280531000.0,143968000.0,146837000.0,-75858000.0,-203304000.0,0.0,0.0,123796000.0,0.0,123796000.0,0.53,0.52,234986000.0,237875000.0,0.0,0.0,0.669713361394,0.139114033155,0.119622144146,0.490752658248,693081000.0,143968000.0,123796000.0,-0.0733004023608,0.119622144146
2016-12-31,635505000.0,-0.11939911760500001,0.0,0.0,1785000.0,93008000.0,230237000.0,-130833000.0,140305000.0,-371554000.0,-128538000.0,0.0,0.0,-243016000.0,0.0,-243016000.0,-1.32,-1.32,183615000.0,183615000.0,0.0,0.0,0.566214270541,-0.205872495102,-0.38239825020999996,0.358798121179,359832000.0,-130833000.0,-243016000.0,-0.5846594440640001,-0.38239825020999996
2015-12-31,721672000.0,-0.446572249778,0.0,0.0,2369000.0,92498000.0,243243000.0,-114164000.0,149648000.0,-56371000.0,-16123000.0,0.0,0.0,-40248000.0,0.0,-40248000.0,-0.31,-0.31,130186000.0,130186000.0,0.0,0.0,0.531345264885,-0.158193750069,-0.0557704885322,0.498585229855,383457000.0,-114164000.0,-40248000.0,-0.0781116629161,-0.0557704885322
2014-12-31,1304004000.0,0.20249868131299997,0.0,0.0,3064000.0,92306000.0,315222000.0,645652000.0,158390000.0,814468000.0,307591000.0,0.0,0.0,506877000.0,0.0,506877000.0,5.09,5.05,99677000.0,100365000.0,0.0,0.0,0.8197934975660001,0.495130383036,0.388708163472,0.669105309493,1069014000.0,645652000.0,506877000.0,0.624590108619,0.388708163472
2013-12-31,1084412000.0,0.617340128354,0.0,0.0,2260000.0,75310000.0,202917000.0,504398000.0,107165000.0,0.0,135058000.0,0.0,0.0,227959000.0,0.0,227959000.0,2.45,2.44,92867000.0,93411000.0,0.0,0.0,0.752205803698,0.465135022482,0.21021438346299998,0.64353400737,815701000.0,504398000.0,227959000.0,0.0,0.21021438346299998
2012-12-31,670491000.0,1.0,0.0,0.0,3250000.0,57190000.0,128908000.0,276993000.0,70143000.0,245874000.0,92486000.0,0.0,0.0,153388000.0,0.0,153388000.0,1.66,1.66,92180000.0,92513000.0,0.0,0.0,0.725642849792,0.41311963919,0.22876966282900002,0.5852218747160001,486537000.0,276993000.0,153388000.0,0.36670738309699996,0.22876966282900002
2011-12-31,0.0,-1.0,0.0,0.0,1685000.0,29435000.0,65192000.0,152567000.0,29618000.0,126179000.0,46789000.0,0.0,0.0,79390000.0,0.0,79390000.0,0.86,0.86,92056000.0,92241000.0,0.0,0.0,0.0,0.0,0.0,0.0,229109000.0,152567000.0,79390000.0,0.0,0.0
2010-12-31,128927000.0,2.41483247252,28350000.0,100577000.0,297000.0,19745000.0,78584000.0,21993000.0,1357000.0,13267000.0,42962000.0,0.0,0.0,-29695000.0,0.0,-29695000.0,-0.31,-0.31,92240345.0,92000000.0,0.0,0.7801,0.40700000000000003,0.1134,-0.23,-2.0424,52456000.0,14624000.0,-29695000.0,0.1029,-0.2303
2009-12-31,37755000.0,0.0869,12501000.0,25254000.0,1019000.0,9342000.0,34809000.0,-9555000.0,912000.0,-15209000.0,0.0,0.0,0.0,-15209000.0,0.0,-15209000.0,0.0,0.0,,,0.0,0.6689,0.063,-0.3787,-0.40299999999999997,-1.9853,2373000.0,-14297000.0,-15209000.0,-0.4028,-0.4028
