,0,1,2,3,4,5,6,7,8,9,10,11,12,13,14
Date,Depreciation & Amortization,Stock-based compensation,Operating Cash Flow,Capital Expenditure,Acquisitions and disposals,Investment purchases and sales,Investing Cash flow,Issuance (repayment) of debt,Issuance (buybacks) of shares,Dividend payments,Financing Cash Flow,Effect of forex changes on cash,Net cash flow / Change in cash,Free Cash Flow,Net Cash/Marketcap
2018-12-31,304444444.4444,5185185.1852,73333333.3333,-114814814.8148,0.0,0.0,-119259259.2593,38518518.5185,0.0,0.0,44444444.4444,0.0,-1481481.4815,-41481481.4815,
2017-12-31,253731343.2836,6284367.6355,98193244.3048,-24351924.5876,0.0,0.0,-26708562.4509,-80125687.3527,-3142183.8178,0.0,-78554595.4438,0.0,-7069913.5899,73841319.7172,
2016-12-31,505952380.9524,5208333.3333,-101934523.8095,991815476.1905,0.0,0.0,974702380.9524,-1036458333.3333,744047.6190000001,0.0,-866071428.5714,0.0,6696428.5714,889880952.381,
2015-12-31,1738250180.7664,2892263.1960000005,126536514.8228,238611713.6659,0.0,0.0,141720896.6016,-375994215.4736,0.0,-54229934.9241,-315256688.3586,0.0,-46999276.9342,365148228.4888,
2014-12-31,1222030981.0671,8605851.9793,729776247.8485,-148020654.0448,0.0,0.0,-97246127.3666,-400172117.0396,9466437.1773,-186746987.9518,-574870912.2203,0.0,57659208.2616,581755593.8038,
2013-12-31,1631578947.3684,14097744.3609,909774436.0902,-154135338.3459,0.0,0.0,-248120300.7519,-334586466.1654,11278195.4887,-338345864.6617,-661654135.3383,0.0,0.0,755639097.7444,
2012-12-31,1558350100.6036,-18108651.9115,1133802816.9014,-71428571.4286,0.0,0.0,-240442655.9356,-498993963.7827,3018108.6519,-397384305.835,-893360160.9658,0.0,0.0,1062374245.4728,
2011-12-31,1177103718.1996,73385518.591,1376712328.7671,-1545988258.3170002,-162426614.4814,0.0,-1597847358.1213,634050880.6262,157534246.5753,-320939334.638,221135029.3542,0.0,0.0,-169275929.5499,
2010-12-31,1216649949.8495,151454363.0893,1220661985.9579,-1190571715.1454,512537612.8385,0.0,-522567703.1093,-663991975.9278,558676028.0843,-592778335.005,-698094282.8485,0.0,0.0,30090270.8124,
2009-12-31,1484732824.4275,49618320.6107,1336832061.0687,-304389312.9771,0.0,0.0,-379770992.3664,-432251908.3969,267175572.5191,-762404580.1527,-957061068.7023,0.0,0.0,1032442748.0916,
