,0,1,2,3,4,5,6,7,8,9,10,11,12,13,14,15,16,17,18,19,20,21,22,23,24,25,26,27,28
Date,Cash and cash equivalents,Short-term investments,Cash and short-term investments,Receivables,Inventories,Total current assets,Property Plant & Equipment Net,Goodwill and Intangible Assets,Long-term investments,Tax assets,Total non-current assets,Total assets,Payables,Short-term debt,Total current liabilities,Long-term debt,Total debt,Deferred revenue,Tax Liabilities,Deposit Liabilities,Total non-current liabilities,Total liabilities,Other comprehensive income,Retained earnings (deficit),Total shareholders equity,Investments,Net Debt,Other Assets,Other Liabilities
2019-12-31,428339000.0,0.0,428339000.0,201220000.0,0.0,629559000.0,38274000.0,0.0,0.0,2169000.0,9776640000.0,10406199000.0,0.0,372015000.0,383092000.0,1025791000.0,1397806000.0,488000.0,10589000.0,0.0,1027391000.0,9994188000.0,556798000.0,-138542000.0,412011000.0,0.0,969467000.0,0.0,8583705000.0
2018-12-31,329132000.0,0.0,329132000.0,198262000.0,0.0,527394000.0,33417000.0,0.0,0.0,5289000.0,8866822000.0,9394216000.0,0.0,0.0,14063000.0,382538000.0,382538000.0,4441000.0,9622000.0,0.0,384638000.0,8839511000.0,554056000.0,3567000.0,554705000.0,0.0,53406000.0,0.0,8440810000.0
2017-12-31,259655000.0,0.0,259655000.0,199529000.0,0.0,459184000.0,37006000.0,0.0,0.0,36831000.0,7943980000.0,8403164000.0,0.0,0.0,5744000.0,545850000.0,545850000.0,3463000.0,2281000.0,0.0,550750000.0,7858124000.0,547057000.0,-2083000.0,545040000.0,0.0,286195000.0,0.0,7301630000.0
2016-12-31,256549000.0,0.0,256549000.0,265720000.0,0.0,522269000.0,62744000.0,0.0,0.0,2732000.0,7133394000.0,7655663000.0,0.0,0.0,21475000.0,678543000.0,678543000.0,4481000.0,16994000.0,0.0,692143000.0,7002705000.0,527001000.0,126167000.0,652958000.0,0.0,421994000.0,0.0,6289087000.0
2015-12-31,257272000.0,0.0,257272000.0,286981000.0,0.0,544253000.0,57626000.0,0.0,0.0,53519000.0,6860556000.0,7404809000.0,0.0,0.0,32548000.0,2716472000.0,2716472000.0,0.0,32548000.0,0.0,2718260000.0,6553247000.0,526148000.0,325929000.0,851562000.0,0.0,2459200000.0,0.0,3802439000.0
2014-12-31,129473000.0,0.0,129473000.0,43690000.0,0.0,173163000.0,43310000.0,0.0,0.0,76987000.0,8094115000.0,8267278000.0,55585000.0,55585000.0,133693000.0,4173938000.0,4229523000.0,0.0,22523000.0,0.0,4180138000.0,7228884000.0,515194000.0,530361000.0,1038394000.0,0.0,4100050000.0,0.0,2915053000.0
2013-12-31,178512000.0,0.0,178512000.0,24476000.0,0.0,202988000.0,53786000.0,0.0,0.0,115571000.0,7724015000.0,7927003000.0,77901000.0,77901000.0,183075000.0,4142483000.0,4220384000.0,0.0,27273000.0,0.0,4194182000.0,6114412000.0,818427000.0,1002963000.0,1812591000.0,0.0,4041872000.0,0.0,1737155000.0
2012-12-31,220130000.0,0.0,220130000.0,88748000.0,0.0,308878000.0,37536000.0,0.0,25187000.0,92136000.0,5363004000.0,5671882000.0,45034000.0,107291.0,67843291.0,3325719000.0,3325826291.0,0.0,22702000.0,0.0,3383174000.0,4060460000.0,911942000.0,704565000.0,1611422000.0,25187000.0,3105696291.0,0.0,609442709.0
2011-12-31,144234000.0,0.0,144234000.0,83202000.0,0.0,227436000.0,7350000.0,0.0,0.0,107968000.0,4509721000.0,4737157000.0,0.0,0.0,0.0,0.0,0.0,0.0,0.0,0.0,0.0,3393846000.0,826121000.0,523787000.0,1343311000.0,0.0,-144234000.0,0.0,3393846000.0
2010-12-31,128523000.0,,,69518000.0,0.0,,5475000.0,12810000.0,,138716000.0,,2921409000.0,0.0,,,,1873861000.0,0.0,0.0,0.0,,2016592000.0,-9392000.0,445456000.0,904571000.0,484033000.0,,,
2009-12-31,90919000.0,,,67095000.0,0.0,,3325000.0,0.0,,132683000.0,,1769350000.0,0.0,,,,812705000.0,0.0,0.0,0.0,,903487000.0,-129000.0,405198000.0,865611000.0,563077000.0,,,
