,0,1,2,3,4,5,6,7,8,9,10,11,12,13,14
Date,Depreciation & Amortization,Stock-based compensation,Operating Cash Flow,Capital Expenditure,Acquisitions and disposals,Investment purchases and sales,Investing Cash flow,Issuance (repayment) of debt,Issuance (buybacks) of shares,Dividend payments,Financing Cash Flow,Effect of forex changes on cash,Net cash flow / Change in cash,Free Cash Flow,Net Cash/Marketcap
2019-12-31,6213000.0,8759000.0,-77578000.0,2238000.0,-0.0,0.0,-2238000.0,-0.0,-16900000.0,-0.0,75341000.0,0.0,-4475000.0,-79816000.0,0.0
2018-12-31,2683000.0,7483000.0,-49227000.0,1889000.0,-0.0,0.0,-1889000.0,-0.0,7509000.0,-0.0,68640000.0,0.0,17524000.0,-51116000.0,0.0
2017-12-31,2050000.0,7321000.0,-50473000.0,8252000.0,-0.0,35200000.0,27067000.0,-0.0,-12300000.0,-0.0,32008000.0,0.0,8602000.0,-58725000.0,0.0
2016-12-31,1438000.0,5956000.0,-34001000.0,1919000.0,-0.0,38985000.0,35568000.0,-0.0,-32064000.0,-0.0,585000.0,0.0,2152000.0,-35920000.0,0.0
2015-12-31,1203000.0,4640000.0,-33743000.0,1778000.0,-0.0,-36858000.0,-38569000.0,-0.0,-30784000.0,-0.0,65703000.0,0.0,-6609000.0,-35521000.0,0.0
2014-12-31,674000.0,2644000.0,-20496000.0,1260000.0,-0.0,-37326000.0,-38586000.0,-0.0,32125000.0,-0.0,78970000.0,0.0,19888000.0,-21756000.0,0.0
2013-12-31,404000.0,476000.0,-12645000.0,-387000.0,0.0,0.0,-387000.0,-1818000.0,7000.0,0.0,6683000.0,0.0,-6349000.0,-13032000.0,0.2079
2012-12-31,404000.0,243000.0,-12585000.0,-203000.0,0.0,4017000.0,3814000.0,-909000.0,3000.0,0.0,27295000.0,0.0,18524000.0,-12788000.0,0.2079
