,0,1,2,3,4,5,6,7,8,9,10,11,12,13,14,15,16,17,18,19,20,21,22,23,24,25,26,27,28,29,30
Date,Revenue,Revenue Growth,Cost of Revenue,Gross Profit,R&D Expenses,SG&A Expense,Operating Expenses,Operating Income,Interest Expense,Earnings before Tax,Income Tax Expense,Net Income - Non-Controlling int,Net Income - Discontinued ops,Net Income,Preferred Dividends,Net Income Com,EPS,EPS Diluted,Weighted Average Shs Out,Weighted Average Shs Out (Dil),Dividend per Share,Gross Margin,EBITDA Margin,EBIT Margin,Profit Margin,Free Cash Flow margin,EBITDA,EBIT,Consolidated Income,Earnings Before Tax Margin,Net Profit Margin
2019-12-31,4227000.0,1.12412060302,2325000.0,1902000.0,41091000.0,46613000.0,87704000.0,-85802000.0,6101000.0,0.0,0.0,0.0,0.0,-86372000.0,0.0,-86372000.0,-1.91,-1.91,45273231.0,45273231.0,0.0,0.44996451383999997,-18.8287201325,-20.2985568961,-20.433404305699998,-18.8824225219,-79589000.0,-85802000.0,-86372000.0,0.0,-20.433404305699998
2018-12-31,1990000.0,0.0348413936557,465000.0,1525000.0,36915000.0,23728000.0,60643000.0,-59118000.0,1739000.0,0.0,0.0,0.0,0.0,-59978000.0,0.0,-59978000.0,-1.57,-1.57,38115142.0,38115142.0,0.0,0.766331658291,-28.359296482399998,-29.707537688400002,-30.1396984925,-25.6864321608,-56435000.0,-59118000.0,-59978000.0,0.0,-30.1396984925
2017-12-31,1923000.0,0.019077901430799998,457000.0,1466000.0,30880000.0,32509000.0,63389000.0,-61923000.0,1892000.0,0.0,0.0,0.0,0.0,-63386000.0,0.0,-63386000.0,-2.2,-2.2,28818196.0,28818196.0,0.0,0.76235049402,-31.1352054082,-32.201248049899995,-32.9620384815,-30.5382215289,-59873000.0,-61923000.0,-63386000.0,0.0,-32.9620384815
2016-12-31,1887000.0,0.0782857142857,443000.0,1444000.0,27065000.0,17705000.0,44770000.0,-43326000.0,1680000.0,0.0,0.0,0.0,0.0,-44703000.0,0.0,-44703000.0,-1.8,-1.8,24816348.0,24816348.0,0.0,0.765235824059,-22.1981981982,-22.960254371999998,-23.689984101700002,-19.0355060943,-41888000.0,-43326000.0,-44703000.0,0.0,-23.689984101700002
2015-12-31,1750000.0,1.26683937824,319000.0,1431000.0,26611000.0,13017000.0,39947000.0,-38197000.0,1724000.0,0.0,0.0,0.0,0.0,-39748000.0,0.0,-39748000.0,-1.71,-1.71,23244162.0,23244162.0,0.0,0.8177142857140001,-21.1394285714,-21.8268571429,-22.7131428571,-20.2977142857,-36994000.0,-38197000.0,-39748000.0,0.0,-22.7131428571
2014-12-31,772000.0,1.0,91000.0,681000.0,18880000.0,8895000.0,27866000.0,-27094000.0,1119000.0,0.0,0.0,0.0,0.0,-28648000.0,0.0,-28648000.0,-2.69,-2.69,10652865.0,10652865.0,0.0,0.882124352332,-34.2227979275,-35.0958549223,-37.1088082902,-28.181347150300002,-26420000.0,-27094000.0,-28648000.0,0.0,-37.1088082902
2013-12-31,0.0,-1.0,0.0,0.0,10517000.0,2386000.0,12903000.0,-12903000.0,441000.0,-13317000.0,0.0,0.0,0.0,-13317000.0,27000.0,-13344000.0,-5.11,-5.11,,2609020.0,0.0,0.0,-1331.2,0.0,-1412.8,0.0,-12472000.0,-12876000.0,-13317000.0,0.0,0.0
2012-12-31,10000.0,,7000.0,3000.0,11540000.0,2134000.0,13674000.0,-13671000.0,377000.0,-14093000.0,0.0,0.0,0.0,-14093000.0,35000.0,-14128000.0,-5.6,-5.6,,2522564.0,0.0,0.3,,-1371.6,,-1278.8,-13312000.0,-13716000.0,-14093000.0,-1409.3,-1409.3
