,0,1,2,3,4,5,6,7,8,9,10,11,12,13,14
Date,Depreciation & Amortization,Stock-based compensation,Operating Cash Flow,Capital Expenditure,Acquisitions and disposals,Investment purchases and sales,Investing Cash flow,Issuance (repayment) of debt,Issuance (buybacks) of shares,Dividend payments,Financing Cash Flow,Effect of forex changes on cash,Net cash flow / Change in cash,Free Cash Flow,Net Cash/Marketcap
2018-12-31,146696000.0,6376000.0,180482000.0,0.0,-0.0,-1702000.0,-232918000.0,-8292000.0,200363000.0,-114286000.0,49555000.0,0.0,8066000.0,180482000.0,0.0
2017-12-31,144670000.0,5615000.0,230654000.0,0.0,-0.0,-1973000.0,-89710000.0,-500000.0,67561000.0,-109174000.0,-338546000.0,0.0,-197602000.0,230654000.0,0.0
2016-12-31,146150000.0,6843000.0,232538000.0,0.0,-0.0,-2466000.0,71449000.0,-825000.0,106603000.0,-104135000.0,-154434000.0,0.0,149553000.0,232538000.0,0.0
2015-12-31,154547000.0,6574000.0,204008000.0,0.0,-0.0,-2462000.0,-307532000.0,-7522000.0,26105000.0,-103638000.0,157757000.0,0.0,54233000.0,204008000.0,0.0
2014-12-31,150594000.0,6164000.0,193885000.0,0.0,-0.0,-1554000.0,-209689000.0,-708000.0,148620000.0,-96330000.0,-32492000.0,0.0,-48296000.0,193885000.0,0.0
2013-12-31,135864000.0,6530000.0,158979000.0,0.0,-0.0,-2002000.0,-119790000.0,-9361000.0,155442000.0,-93474000.0,4590000.0,0.0,43779000.0,158979000.0,0.0
2012-12-31,145500000.0,9982000.0,191838000.0,0.0,-0.0,-3379000.0,13744000.0,-3371000.0,202046000.0,-89161000.0,-200547000.0,0.0,5035000.0,191838000.0,0.0
2011-12-31,162485000.0,11920000.0,152143000.0,0.0,-0.0,0.0,-260387000.0,-13113000.0,-5559000.0,-130745000.0,103701000.0,0.0,-4543000.0,152143000.0,0.0
2010-12-31,153605000.0,11845000.0,156436000.0,0.0,-0.0,0.0,-479167000.0,-8570000.0,-10102000.0,-109894000.0,324571000.0,0.0,1840000.0,156436000.0,0.0
2009-12-31,111811000.0,10602000.0,194817000.0,-251500000.0,-3000000.0,-81733000.0,-349076000.0,191681000.0,77052000.0,-109674000.0,155746000.0,0.0,1487000.0,-56683000.0,-0.6905
