,0,1,2,3,4,5,6,7,8,9,10,11,12,13,14,15,16,17,18,19,20,21,22,23,24,25,26,27,28,29,30
Date,Revenue,Revenue Growth,Cost of Revenue,Gross Profit,R&D Expenses,SG&A Expense,Operating Expenses,Operating Income,Interest Expense,Earnings before Tax,Income Tax Expense,Net Income - Non-Controlling int,Net Income - Discontinued ops,Net Income,Preferred Dividends,Net Income Com,EPS,EPS Diluted,Weighted Average Shs Out,Weighted Average Shs Out (Dil),Dividend per Share,Gross Margin,EBITDA Margin,EBIT Margin,Profit Margin,Free Cash Flow margin,EBITDA,EBIT,Consolidated Income,Earnings Before Tax Margin,Net Profit Margin
2019-12-31,459955000.0,0.0152590709029,100607000.0,359348000.0,34637000.0,309283000.0,378132000.0,-18784000.0,0.0,-27049000.0,1413000.0,0.0,0.0,-28462000.0,0.0,-28462000.0,-1.51,-1.51,18903289.0,18903289.0,0.0,0.781267732713,0.021073800697900002,-0.0408387777065,-0.0618799665185,0.0283419030123,9693000.0,-18784000.0,-28462000.0,-0.058807926862399995,-0.0618799665185
2018-12-31,453042000.0,0.04430147779159999,96628000.0,356414000.0,33218000.0,290033000.0,326320000.0,30094000.0,0.0,22885000.0,9074000.0,0.0,0.0,13811000.0,0.0,13811000.0,0.73,0.72,18494002.0,18911610.0,0.0,0.786712931693,0.109872815324,0.0664265123322,0.0304850322928,0.08018241134380001,49777000.0,30094000.0,13811000.0,0.050514080372199996,0.0304850322928
2017-12-31,433823000.0,0.058652278739300005,93037000.0,340786000.0,29700000.0,272758000.0,302458000.0,40811000.0,0.0,36391000.0,29100000.0,0.0,0.0,6223000.0,0.0,6223000.0,0.34,0.34,18117405.0,18498745.0,0.0,0.785541568796,0.144406820293,0.09407292836020001,0.0143445598781,0.0891515664223,62647000.0,40811000.0,6223000.0,0.0838844413505,0.0143445598781
2016-12-31,409788000.0,0.0335419141515,87853000.0,321935000.0,28803000.0,255691000.0,300868000.0,21067000.0,0.0,19024000.0,15527000.0,0.0,0.0,3056000.0,0.0,3056000.0,0.17,0.17,18144019.0,18463161.0,0.0,0.7856135367560001,0.10609632297700002,0.051409509307300004,0.00745751461731,0.06899909221350001,43477000.0,21067000.0,3056000.0,0.04642400460730001,0.00745751461731
2015-12-31,396489000.0,-0.0143880957649,86525000.0,309964000.0,26389000.0,265237000.0,300709000.0,9255000.0,0.0,8507000.0,10849000.0,0.0,0.0,-2809000.0,0.0,-2809000.0,-0.15,-0.15,18795194.0,18795194.0,0.0,0.781772003763,0.0805318684755,0.023342387809,-0.00708468582987,0.0404223067979,31930000.0,9255000.0,-2809000.0,0.021455828535000002,-0.00708468582987
2014-12-31,402277000.0,0.011735087812,98912000.0,303365000.0,24994000.0,243337000.0,286229000.0,17136000.0,1785000.0,17532000.0,16200000.0,0.0,0.0,-8537000.0,0.0,-8537000.0,-0.46,-0.46,18459054.0,18459054.0,0.0,0.754119673757,0.106068703903,0.042597513653499994,-0.0212216954984,0.0817570977212,42669000.0,17136000.0,-8537000.0,0.0435819099775,-0.0212216954984
2013-12-31,397611000.0,-0.111644596174,106912000.0,290699000.0,26768000.0,240298000.0,301891000.0,-11192000.0,1827000.0,-3546000.0,7602000.0,0.0,0.0,-28812000.0,0.0,-28812000.0,-1.54,-1.54,18697228.0,18697228.0,0.0,0.731114078836,0.03494873129769999,-0.028148114614499998,-0.07246278397730001,0.106272210779,13896000.0,-11192000.0,-28812000.0,-0.00891826433373,-0.07246278397730001
2012-12-31,447581000.0,-0.226959798821,98253000.0,349328000.0,28577000.0,240522000.0,272692000.0,76636000.0,4743000.0,0.0,25138000.0,0.0,0.0,42838000.0,0.0,42838000.0,2.25,2.21,18977263.0,19390413.0,0.0,0.7804799578180001,0.221084004906,0.171222639031,0.0957100502479,-0.0397872117002,98953000.0,76636000.0,42838000.0,0.0,0.0957100502479
2011-12-31,578988000.0,0.251673797104,139186000.0,439802000.0,25148000.0,320077000.0,407283000.0,32519000.0,9789000.0,20703000.0,21776000.0,0.0,0.0,-1073000.0,0.0,-1073000.0,-0.06,-0.06,18219343.0,18219343.0,0.0,0.759604689562,0.0976427836155,0.0561652400395,-0.00185323357306,0.0687682646272,56534000.0,32519000.0,-1073000.0,0.0357572177662,-0.00185323357306
2010-12-31,462571000.0,-0.152233636039,97093000.0,365478000.0,27958000.0,269123000.0,299494000.0,65984000.0,11287000.0,68327000.0,24031000.0,0.0,-13299000.0,44296000.0,0.0,44296000.0,2.52,2.47,17726450.0,17601956.0,0.0,0.7901,0.22,0.1721,0.096,0.0345,101701000.0,79614000.0,44296000.0,0.1477,0.0958
2009-12-31,545635000.0,0.05,138450000.0,407185000.0,31460000.0,304809000.0,343310000.0,63875000.0,24820000.0,40021000.0,15549000.0,0.0,0.0,24472000.0,0.0,24472000.0,1.43,1.42,17135398.0,17119474.0,0.0,0.7463,0.16,0.1188,0.045,0.0524,87185000.0,64841000.0,24472000.0,0.0733,0.0449
