,0,1,2,3,4,5,6,7,8,9,10,11,12,13,14
Date,Depreciation & Amortization,Stock-based compensation,Operating Cash Flow,Capital Expenditure,Acquisitions and disposals,Investment purchases and sales,Investing Cash flow,Issuance (repayment) of debt,Issuance (buybacks) of shares,Dividend payments,Financing Cash Flow,Effect of forex changes on cash,Net cash flow / Change in cash,Free Cash Flow,Net Cash/Marketcap
2019-12-31,28477000.0,21540000.0,32033000.0,20524000.0,-0.0,0.0,-22924000.0,-0.0,-58168000.0,-0.0,-10688000.0,-207000.0,69719000.0,11509000.0,0.0
2018-12-31,19683000.0,18930000.0,49918000.0,15256000.0,-44294000.0,0.0,-60998000.0,-0.0,-62523000.0,-0.0,2993000.0,-881000.0,69623000.0,34662000.0,0.0
2017-12-31,21836000.0,12557000.0,53341000.0,16948000.0,-0.0,0.0,-16474000.0,-0.0,-73374000.0,-0.0,3538000.0,1180000.0,41585000.0,36393000.0,0.0
2016-12-31,22410000.0,15966000.0,44707000.0,18334000.0,-0.0,0.0,-22686000.0,-0.0,-19852000.0,-0.0,-46112000.0,-739000.0,-24091000.0,26373000.0,0.0
2015-12-31,22675000.0,7214000.0,43224000.0,27899000.0,-0.0,-15250000.0,-41490000.0,-0.0,-59959000.0,-0.0,25114000.0,-3141000.0,26848000.0,15325000.0,0.0
2014-12-31,25533000.0,5724000.0,50958000.0,18525000.0,-0.0,0.0,5851000.0,-20000000.0,-26353000.0,-0.0,-19994000.0,-3123000.0,36815000.0,32433000.0,0.0
2013-12-31,25088000.0,6267000.0,67042000.0,29678000.0,-0.0,-39494000.0,-30532000.0,-16000.0,-36044000.0,-0.0,-38353000.0,520000.0,-1843000.0,37364000.0,0.0
2012-12-31,22317000.0,6303000.0,10186000.0,28774000.0,-0.0,0.0,158456000.0,-187398000.0,-5469000.0,-0.0,-137587000.0,250000.0,31055000.0,-18588000.0,0.0
2011-12-31,24015000.0,6648000.0,64781000.0,25758000.0,-5250000.0,0.0,-31008000.0,-758000.0,-13094000.0,-0.0,-13664000.0,-463000.0,33207000.0,39023000.0,0.0
2010-12-31,22087000.0,5721000.0,42313000.0,-26361000.0,24215000.0,0.0,-2146000.0,-34546000.0,7854000.0,0.0,-39831000.0,-103000.0,233000.0,15952000.0,-0.35700000000000004
2009-12-31,22344000.0,10727000.0,50582000.0,-21998000.0,0.0,1711000.0,-22287000.0,-28075000.0,-150000.0,0.0,-29955000.0,394000.0,-1266000.0,28584000.0,-0.4334
