,0,1,2,3,4,5,6,7,8,9,10,11,12,13,14
Date,Depreciation & Amortization,Stock-based compensation,Operating Cash Flow,Capital Expenditure,Acquisitions and disposals,Investment purchases and sales,Investing Cash flow,Issuance (repayment) of debt,Issuance (buybacks) of shares,Dividend payments,Financing Cash Flow,Effect of forex changes on cash,Net cash flow / Change in cash,Free Cash Flow,Net Cash/Marketcap
2019-12-31,719000.0,2472000.0,16041000.0,1225000.0,-0.0,-55938000.0,13719000.0,-0.0,-16098000.0,-46028000.0,-46028000.0,-26000.0,16098000.0,14816000.0,0.0
2018-12-31,543000.0,118000.0,21058000.0,1924000.0,-0.0,-35099000.0,-16868000.0,-0.0,-32392000.0,-9775000.0,-9775000.0,39000.0,-5585000.0,19134000.0,0.0
2017-12-31,502000.0,1042000.0,18048000.0,3093000.0,-0.0,0.0,-3093000.0,-0.0,-37938000.0,2220000.0,-13018000.0,683000.0,1937000.0,14955000.0,0.0
2016-12-31,459000.0,996000.0,14758000.0,233000.0,-0.0,0.0,-233000.0,-0.0,-35318000.0,8578000.0,-8578000.0,-781000.0,5947000.0,14525000.0,0.0
2015-12-31,460000.0,177000.0,13250000.0,620000.0,-0.0,0.0,-620000.0,-0.0,0.0,-4945000.0,-4945000.0,-118000.0,7686000.0,12630000.0,0.0
2014-12-31,486000.0,634000.0,14840000.0,215000.0,-0.0,0.0,-215000.0,-0.0,0.0,-145000.0,-145000.0,-152000.0,14480000.0,14625000.0,0.0
2013-12-31,547000.0,312000.0,12389000.0,487000.0,-0.0,0.0,-487000.0,-0.0,0.0,-4289000.0,-4613000.0,29000.0,7289000.0,11902000.0,0.0
2012-12-31,588000.0,72000.0,7298000.0,130000.0,-0.0,0.0,-130000.0,-0.0,0.0,-10092000.0,-9768000.0,63000.0,-2600000.0,7168000.0,0.0
2011-12-31,651000.0,0.0,1422000.0,-131000.0,-0.0,0.0,-131000.0,-0.0,0.0,-0.0,0.0,-24000.0,1291000.0,1553000.0,0.0
2010-12-31,637000.0,99000.0,4760000.0,-144000.0,3250000.0,0.0,3106000.0,-7500000.0,0.0,0.0,-7500000.0,-38000.0,366000.0,4616000.0,0.0132
2009-12-31,623000.0,102000.0,8343000.0,-438000.0,-3250000.0,0.0,-3688000.0,7500000.0,-25000.0,-20183000.0,-12708000.0,161000.0,-8053000.0,7905000.0,-0.0398
