,0,1,2,3,4,5,6,7,8,9,10,11,12,13,14,15,16,17,18,19,20,21,22,23,24,25,26,27,28,29,30
Date,Revenue,Revenue Growth,Cost of Revenue,Gross Profit,R&D Expenses,SG&A Expense,Operating Expenses,Operating Income,Interest Expense,Earnings before Tax,Income Tax Expense,Net Income - Non-Controlling int,Net Income - Discontinued ops,Net Income,Preferred Dividends,Net Income Com,EPS,EPS Diluted,Weighted Average Shs Out,Weighted Average Shs Out (Dil),Dividend per Share,Gross Margin,EBITDA Margin,EBIT Margin,Profit Margin,Free Cash Flow margin,EBITDA,EBIT,Consolidated Income,Earnings Before Tax Margin,Net Profit Margin
2018-12-31,42834000.0,0.281457548017,10722000.0,32112000.0,0.0,2846000.0,4495000.0,27617000.0,9232000.0,9572000.0,0.0,0.0,0.0,9572000.0,0.0,9572000.0,0.72,0.72,13352824.0,13348203.0,1.39,0.7497,0.444,0.439,0.223,-2.36,18999000.0,18804000.0,9572000.0,0.2235,0.2235
2017-12-31,33426000.0,0.07499839197269999,7961000.0,25465000.0,0.0,2429000.0,3775000.0,21690000.0,5813000.0,7910000.0,0.0,0.0,0.0,7910000.0,0.0,7910000.0,0.64,0.64,13334851.0,12403706.0,1.36,0.7618,0.41600000000000004,0.4105,0.237,0.3193,13918000.0,13723000.0,7910000.0,0.2366,0.2366
2016-12-31,31094000.0,-0.036263327547699994,7849000.0,23245000.0,0.0,2504000.0,3798000.0,19447000.0,5302000.0,13828000.0,0.0,0.0,0.0,13828000.0,0.0,13828000.0,1.43,1.43,9697210.0,9692634.0,1.36,0.7476,0.622,0.6152,0.445,-0.3639,19325000.0,19130000.0,13828000.0,0.4447,0.4447
2015-12-31,32264000.0,0.41384750219099997,7852000.0,24412000.0,0.0,4042000.0,4042000.0,20370000.0,6959000.0,18231000.0,0.0,0.0,0.0,18231000.0,0.0,18231000.0,1.89,1.89,9690129.0,9670153.0,1.36,0.7566,0.787,0.7807,0.565,2.5954,25385000.0,25190000.0,18231000.0,0.5651,0.5651
2014-12-31,22820000.0,0.336848271822,4169000.0,18651000.0,0.0,3938000.0,3938000.0,14713000.0,5578000.0,9940000.0,0.0,0.0,0.0,9940000.0,0.0,9940000.0,1.03,1.03,9638061.0,9634471.0,1.36,0.8173,0.6890000000000001,0.68,0.436,-2.8575,15727000.0,15518000.0,9940000.0,0.4356,0.4356
2013-12-31,17070000.0,0.270845741513,3435000.0,13635000.0,0.0,3568000.0,3568000.0,10067000.0,3384000.0,7675000.0,0.0,0.0,0.0,7675000.0,0.0,7675000.0,0.8,0.8,9629797.0,9619723.0,1.19,0.7988,0.648,0.6479,0.45,1.7093,11059000.0,11059000.0,7675000.0,0.4496,0.4496
2012-12-31,13432000.0,6.58013544018,2872000.0,10560000.0,0.0,1830000.0,1830000.0,8730000.0,4163000.0,6216000.0,0.0,0.0,0.0,6216000.0,0.0,6216000.0,,,9578691.0,9578691.0,0.0,0.7862,0.773,0.7727,0.46299999999999997,-2.0333,10379000.0,10379000.0,6216000.0,0.4628,0.4628
2011-12-31,1772000.0,-0.830235677333,1365000.0,407000.0,0.0,439000.0,439000.0,-32000.0,831000.0,-2187000.0,0.0,0.0,0.0,-2187000.0,0.0,-2187000.0,,,,,0.0,0.2297,-0.765,-0.7652,-1.234,-0.342,-1356000.0,-1356000.0,-2187000.0,-1.2342,-1.2342
2010-12-31,10438000.0,,1850000.0,8588000.0,0.0,462000.0,462000.0,8126000.0,3654000.0,5239000.0,0.0,0.0,0.0,5239000.0,0.0,5239000.0,,,,,0.0,0.8228,0.852,0.852,0.502,0.3321,8893000.0,8893000.0,5239000.0,0.5019,0.5019
