,0,1,2,3,4,5,6,7,8,9,10,11,12,13,14
Date,Depreciation & Amortization,Stock-based compensation,Operating Cash Flow,Capital Expenditure,Acquisitions and disposals,Investment purchases and sales,Investing Cash flow,Issuance (repayment) of debt,Issuance (buybacks) of shares,Dividend payments,Financing Cash Flow,Effect of forex changes on cash,Net cash flow / Change in cash,Free Cash Flow,Net Cash/Marketcap
2018-12-31,507000000.0,27000000.0,791000000.0,536000000.0,-175000000.0,-163000000.0,-698000000.0,-2353000000.0,-163000000.0,-22000000.0,-53000000.0,-20000000.0,20000000.0,255000000.0,0.0
2017-12-31,501000000.0,18000000.0,721000000.0,441000000.0,-39000000.0,0.0,-351000000.0,-1764000000.0,-492000000.0,-17000000.0,-392000000.0,22000000.0,492000000.0,280000000.0,0.0
2016-12-31,491000000.0,15000000.0,751000000.0,454000000.0,-56000000.0,0.0,-417000000.0,-1453000000.0,-492000000.0,-16000000.0,-228000000.0,-13000000.0,93000000.0,297000000.0,0.0
2015-12-31,424000000.0,15000000.0,608000000.0,402000000.0,-2351000000.0,-100000000.0,-2748000000.0,-2321000000.0,-100000000.0,-22000000.0,2057000000.0,-30000000.0,-113000000.0,206000000.0,0.0
2014-12-31,448000000.0,21000000.0,675000000.0,369000000.0,-114000000.0,-32000000.0,-455000000.0,-1101000000.0,-32000000.0,-37000000.0,-70000000.0,-21000000.0,129000000.0,306000000.0,0.0
2013-12-31,429000000.0,11000000.0,682000000.0,361000000.0,-4000000.0,-33000000.0,-409000000.0,-1040000000.0,-33000000.0,-22000000.0,-321000000.0,-7000000.0,-48000000.0,321000000.0,0.0
2012-12-31,445000000.0,11000000.0,575000000.0,290000000.0,-5000000.0,-27000000.0,-221000000.0,-402000000.0,-27000000.0,-24000000.0,-339000000.0,16000000.0,31000000.0,285000000.0,0.0
2011-12-31,454000000.0,1000000.0,503000000.0,285000000.0,-144000000.0,0.0,-426000000.0,-1797000000.0,-400000000.0,-35000000.0,-323000000.0,6000000.0,-240000000.0,218000000.0,0.0
2010-12-31,410000000.0,11000000.0,592000000.0,500000000.0,-817000000.0,-199000000.0,-1314000000.0,-573000000.0,-199000000.0,-25000000.0,547000000.0,3000000.0,-172000000.0,92000000.0,0.0
2009-12-31,364000000.0,0.0,800000000.0,-428000000.0,-5000000.0,0.0,-418000000.0,169000000.0,7000000.0,0.0,114000000.0,-64000000.0,432000000.0,372000000.0,-0.5149
