,0,1,2,3,4,5,6,7,8,9,10,11,12,13,14
Date,Depreciation & Amortization,Stock-based compensation,Operating Cash Flow,Capital Expenditure,Acquisitions and disposals,Investment purchases and sales,Investing Cash flow,Issuance (repayment) of debt,Issuance (buybacks) of shares,Dividend payments,Financing Cash Flow,Effect of forex changes on cash,Net cash flow / Change in cash,Free Cash Flow,Net Cash/Marketcap
2020-02-01,17843000.0,7302000.0,105344000.0,76979000.0,-0.0,-40014000.0,-34124000.0,-460000.0,-40014000.0,-0.0,-33211000.0,0.0,89950000.0,28365000.0,0.0
2019-02-02,14830000.0,7291000.0,126079000.0,74178000.0,-0.0,0.0,-73848000.0,-49001000.0,-51941000.0,-0.0,-39524000.0,0.0,12707000.0,51901000.0,0.0
2018-02-03,12918000.0,7413000.0,95936000.0,19285000.0,-0.0,0.0,-19157000.0,-146422000.0,-39234000.0,-0.0,-136228000.0,0.0,-59449000.0,76651000.0,0.0
2017-01-28,11439000.0,6685000.0,67088000.0,16438000.0,-0.0,0.0,-16423000.0,-5104000.0,-98683000.0,-0.0,17759000.0,0.0,68424000.0,50650000.0,0.0
2016-01-30,11050000.0,5035000.0,45848000.0,14360000.0,-0.0,0.0,-14337000.0,-324076000.0,119547000.0,-48848000.0,-23204000.0,0.0,8307000.0,31488000.0,0.0
2015-01-31,8785000.0,3761000.0,31842000.0,-14007000.0,0.0,0.0,-14007000.0,49931000.0,-29000.0,-57951000.0,-8049000.0,0.0,9786000.0,17835000.0,-0.1792
2014-02-01,9491000.0,3440000.0,19713000.0,-9554000.0,0.0,0.0,-9554000.0,43605000.0,-46198000.0,0.0,-2593000.0,0.0,7566000.0,10159000.0,-0.1792
