,0,1,2,3,4,5,6,7,8,9,10,11,12,13,14
Date,Depreciation & Amortization,Stock-based compensation,Operating Cash Flow,Capital Expenditure,Acquisitions and disposals,Investment purchases and sales,Investing Cash flow,Issuance (repayment) of debt,Issuance (buybacks) of shares,Dividend payments,Financing Cash Flow,Effect of forex changes on cash,Net cash flow / Change in cash,Free Cash Flow,Net Cash/Marketcap
2018-12-31,17946173.4694,0.0,189252346.9388,-65451683.6735,0.0,1514336.7347,-55529234.6939,-153724.4898,0.0,-81925306.1224,-99003214.2857,-2786479.5918,34719897.9592,123800663.2653,-0.0704
2017-12-31,15210574.4789,0.0,148517183.5282,-80793238.4342,0.0,-2508286.7311,-78432943.5689,-1853990.8490000002,-1740416.8785,-80075394.001,-100616929.33399999,-3670920.183,-30532689.3747,67723945.0941,-0.0766
2016-12-31,13343333.9765,0.0,115094829.2495,-28188934.9797,0.0,2915541.1924,-22735722.5545,-2839812.8497,8893015.627999999,-66160621.2618,-73036513.6022,0.0,19322593.0928,86905894.2697,-0.0766
2015-12-31,13854441.027999999,0.0,120051691.1295,-26396878.8072,0.0,-3506700.702,-28614898.1841,-3061147.5315,-82910425.248,0.0,-103211057.6086,0.0,-11774264.6632,93654812.3223,-0.0766
2014-12-31,15189339.4819,0.0,109234504.2723,-31335616.4384,0.0,0.0,-25216601.1122,107714905.7371,-91080971.1108,0.0,2388105.2489,0.0,86406008.4091,77898887.83399999,-0.0766
