,0,1,2,3,4,5,6,7,8,9,10,11,12,13,14,15,16,17,18,19,20,21,22,23,24,25,26,27,28
Date,Cash and cash equivalents,Short-term investments,Cash and short-term investments,Receivables,Inventories,Total current assets,Property Plant & Equipment Net,Goodwill and Intangible Assets,Long-term investments,Tax assets,Total non-current assets,Total assets,Payables,Short-term debt,Total current liabilities,Long-term debt,Total debt,Deferred revenue,Tax Liabilities,Deposit Liabilities,Total non-current liabilities,Total liabilities,Other comprehensive income,Retained earnings (deficit),Total shareholders equity,Investments,Net Debt,Other Assets,Other Liabilities
2017-12,186000000.0,,,238000000.0,,,,275000000.0,,,,1492000000.0,,,,426000000.0,426000000.0,,,,,1416000000.0,75000000.0,0.0,75000000.0,,240000000.0,0.0,0.0
2016-12,102000000.0,,,164000000.0,,,,273000000.0,,,,1294000000.0,,,,392000000.0,392000000.0,,,,,1130000000.0,-26000000.0,190000000.0,164000000.0,,290000000.0,0.0,0.0
2015-12,136000000.0,,,152000000.0,,,,126000000.0,,,,1014000000.0,,,,90000000.0,90000000.0,,,,,848000000.0,166000000.0,0.0,166000000.0,,-46000000.0,0.0,0.0
2014-12,269000000.0,,,161000000.0,,,,126000000.0,,,,7773000000.0,,,,4310000000.0,4310000000.0,,,,,7736000000.0,36000000.0,0.0,36000000.0,,4041000000.0,0.0,0.0
2013-12,282000000.0,,,155000000.0,,,,118000000.0,,,,8552000000.0,,,,5431000000.0,5431000000.0,,,,,8999000000.0,0.0,0.0,-447000000.0,,5149000000.0,0.0,0.0
