,0,1,2,3,4,5,6,7,8,9,10,11,12,13,14,15,16,17,18,19,20,21,22,23,24,25,26,27,28,29,30
Date,Revenue,Revenue Growth,Cost of Revenue,Gross Profit,R&D Expenses,SG&A Expense,Operating Expenses,Operating Income,Interest Expense,Earnings before Tax,Income Tax Expense,Net Income - Non-Controlling int,Net Income - Discontinued ops,Net Income,Preferred Dividends,Net Income Com,EPS,EPS Diluted,Weighted Average Shs Out,Weighted Average Shs Out (Dil),Dividend per Share,Gross Margin,EBITDA Margin,EBIT Margin,Profit Margin,Free Cash Flow margin,EBITDA,EBIT,Consolidated Income,Earnings Before Tax Margin,Net Profit Margin
2019-12-31,3072987.0,-0.0618990503863,0.0,0.0,0.0,5491849.0,13419680.0,-10346693.0,5360192.0,-15499726.0,0.0,0.0,0.0,-10439961.0,0.0,-10439961.0,-1.12,-1.12,9346213.0,9346213.0,0.0,0.0,-3.31176994891,-3.366982353,-3.39733327866,-1.7767048803,-10177026.0,-10346693.0,-10439961.0,-5.04386318588,-3.39733327866
2018-12-31,3275753.0,1.62379923699,0.0,0.0,0.0,5654409.0,9342969.0,-6067216.0,3142280.0,-5172436.0,0.0,0.0,0.0,-5172436.0,0.0,-5172436.0,-0.6,-0.6,8583795.0,8583795.0,8.154901182980001e-06,0.0,-1.71372811076,-1.8521591829400004,-1.57900671998,-1.9726881117099997,-5613750.0,-6067216.0,-5172436.0,0.0,-1.57900671998
2017-12-31,1248477.0,-0.7334042987080001,0.0,0.0,0.0,6167181.0,9605570.0,-8357093.0,2727235.0,-7759472.0,0.0,0.0,0.0,-7759472.0,0.0,-7759472.0,-0.95,-0.95,8209539.0,8209539.0,0.0,0.0,-6.084474924249999,-6.693830162669999,-6.21515013893,-4.6862553335,-7596327.0,-8357093.0,-7759472.0,0.0,-6.21515013893
2016-12-31,4683035.0,-0.12142317500600001,0.0,0.0,0.0,7959122.0,7959122.0,-10550893.0,2396994.0,-6316021.0,0.0,0.0,0.0,-6316021.0,0.0,-6316021.0,-0.84,-0.84,7564082.0,7564082.0,0.0,0.0,-2.02595667126,-2.25300323401,-1.3487024974200001,-1.8011558743400002,-9487626.0,-10550893.0,-6316021.0,0.0,-1.3487024974200001
2015-12-31,5330251.0,3.0292716961900004,1447331.0,3882920.0,0.0,11458528.0,26854365.0,-21524114.0,4551799.0,-18207163.0,0.0,0.0,0.0,-18207163.0,0.0,-18207163.0,-2.46,-2.46,7413602.0,7413602.0,0.0,0.728468509269,-3.77183344649,-4.0381051473900005,-3.41581719135,-3.2292321693700003,-20104819.0,-21524114.0,-18207163.0,0.0,-3.41581719135
2014-12-31,1322882.0,-0.944681574758,247087.0,1075795.0,0.0,9791260.0,29515574.0,-28192692.0,1560254.0,-26954169.0,-481055.0,0.0,0.0,-26473114.0,0.0,-26473114.0,-0.31,-0.31,84870635.0,84870635.0,0.0,0.8132206803030001,-17.1343604343,-21.3115697394,-20.0116971884,-23.8288637989,-22666737.0,-28192692.0,-26473114.0,0.0,-20.0116971884
2013-12-31,23913949.0,0.812003926497,694787.0,23219162.0,0.0,14161465.0,40880800.0,-16966851.0,3581642.0,-14365254.0,496055.0,0.0,0.0,-14861309.0,0.0,-14861309.0,-0.13,-0.13,80128827.0,80128827.0,0.0,0.970946371091,-0.620729641934,-0.7094959933220001,-0.621449389225,-1.02749253166,-14844097.0,-16966851.0,-14861309.0,-0.600706056536,-0.621449389225
2012-12-31,13197515.0,-0.16084947433900001,235537.0,12961978.0,0.0,10606281.0,28783391.0,-15585876.0,6263589.0,-18184113.0,0.0,0.0,0.0,-18184113.0,0.0,-18184113.0,-0.25,-0.25,73889112.0,73889112.0,0.00013533793720500002,0.982152928032,-1.02831343628,-1.18097050846,-1.3778437077,-0.578514136942,-13571182.0,-15585876.0,-18184113.0,-1.3778437077,-1.3778437077
2011-12-31,15727232.0,-0.251108975203,414993.0,15312239.0,0.0,9392465.0,31095934.0,-15368702.0,1155072.0,-16225308.0,0.0,0.0,0.0,-16225308.0,0.0,-16225308.0,-0.28,-0.28,70179935.0,70179935.0,0.00734620230127,0.973613093518,-0.839482434035,-0.9772032357629999,-1.03166965427,-1.0277698580399999,-13202735.0,-15368702.0,-16225308.0,-1.03166965427,-1.03166965427
2010-12-31,21000695.0,3.83056102809,191091.0,20809604.0,19570672.0,9151502.0,37216846.0,-16407242.0,515878.0,-23343066.0,0.0,0.0,0.0,-23343066.0,0.0,-23343066.0,-4.32,-4.32,5564242.0,5469446.0,0.0,0.9909,-0.9840000000000001,-1.087,-1.112,-0.6566,-20664994.0,-22827188.0,-23343066.0,-1.1115,-1.1115
2009-12-31,4347465.0,0.0591,680530.0,3666935.0,12594834.0,9426775.0,22021609.0,-18354674.0,334364.0,-18628198.0,0.0,0.0,0.0,-18628198.0,0.0,-18628198.0,-3.96,-3.96,4943848.0,4684327.0,0.0,0.8435,-3.6839999999999997,-4.2079,-4.285,-3.1621,-16017481.0,-18293834.0,-18628198.0,-4.2848,-4.2848
