,0,1,2,3,4,5,6,7,8,9,10,11,12,13,14
Date,Depreciation & Amortization,Stock-based compensation,Operating Cash Flow,Capital Expenditure,Acquisitions and disposals,Investment purchases and sales,Investing Cash flow,Issuance (repayment) of debt,Issuance (buybacks) of shares,Dividend payments,Financing Cash Flow,Effect of forex changes on cash,Net cash flow / Change in cash,Free Cash Flow,Net Cash/Marketcap
2019-12-31,116678000.0,15803000.0,166085000.0,42419000.0,-0.0,0.0,-51897000.0,-85592000.0,-67030000.0,-5226000.0,-130197000.0,-2671000.0,-18680000.0,123666000.0,0.0
2018-12-31,101927000.0,16400000.0,115589000.0,44873000.0,-751834000.0,0.0,-815829000.0,-16250000.0,0.0,-48200000.0,701071000.0,-1986000.0,-1155000.0,70716000.0,0.0
2017-12-31,59443000.0,11911000.0,56774000.0,34613000.0,-366569000.0,-5000000.0,-416643000.0,-3125000.0,-5000000.0,-63151000.0,272806000.0,6097000.0,-80966000.0,22161000.0,0.0
2016-12-31,55393000.0,12042000.0,186934000.0,20302000.0,-0.0,-71028000.0,-24746000.0,-0.0,-71028000.0,-63382000.0,-141943000.0,4223000.0,24468000.0,166632000.0,0.0
2015-12-31,65982000.0,11306000.0,269597000.0,20531000.0,-0.0,-20000000.0,-36473000.0,-0.0,-20000000.0,-63651000.0,-124233000.0,-4643000.0,104248000.0,249066000.0,0.0
2014-12-31,63407000.0,8207000.0,-3761000.0,48424000.0,-248536000.0,-9934000.0,-317251000.0,-217352000.0,-9934000.0,-63104000.0,278560000.0,-2681000.0,-45133000.0,-52185000.0,0.0
2013-12-31,50586000.0,6381000.0,140554000.0,60129000.0,-0.0,-18876000.0,-54557000.0,-0.0,-18876000.0,-60731000.0,-81980000.0,2521000.0,4017000.0,80425000.0,0.0
2012-12-31,39604000.0,5697000.0,218506000.0,38963000.0,-155210000.0,-15000000.0,-190875000.0,-1303000.0,-15000000.0,-55681000.0,-68415000.0,2734000.0,-38050000.0,179543000.0,0.0
2011-12-31,34135000.0,5674000.0,68419000.0,36315000.0,-0.0,-16124000.0,-33885000.0,-0.0,-16124000.0,-50909000.0,-57531000.0,0.0,-23275000.0,32104000.0,0.0
2010-12-31,29148000.0,6358000.0,244583000.0,31221000.0,-0.0,0.0,-37423000.0,-0.0,-159213000.0,-44780000.0,-142423000.0,0.0,63077000.0,213362000.0,0.0
2009-12-31,25265000.0,7035000.0,228295000.0,-28209000.0,6994000.0,0.0,41785000.0,-150578000.0,6593000.0,-38370000.0,-181830000.0,0.0,88250000.0,200086000.0,-0.0625
