,0,1,2,3,4,5,6,7,8,9,10,11,12,13,14,15,16,17,18,19,20,21,22,23,24,25,26,27,28,29,30
Date,Revenue,Revenue Growth,Cost of Revenue,Gross Profit,R&D Expenses,SG&A Expense,Operating Expenses,Operating Income,Interest Expense,Earnings before Tax,Income Tax Expense,Net Income - Non-Controlling int,Net Income - Discontinued ops,Net Income,Preferred Dividends,Net Income Com,EPS,EPS Diluted,Weighted Average Shs Out,Weighted Average Shs Out (Dil),Dividend per Share,Gross Margin,EBITDA Margin,EBIT Margin,Profit Margin,Free Cash Flow margin,EBITDA,EBIT,Consolidated Income,Earnings Before Tax Margin,Net Profit Margin
2019-07-31,0.0,0.0,0.0,0.0,18445199.0,11971479.0,30416678.0,-30416678.0,3805.0,-30274756.0,1297.0,0.0,0.0,-30276053.0,0.0,-30276053.0,-4.29,-4.29,7053279.0,7053279.0,0.0,0.0,0.0,0.0,0.0,0.0,-30121485.0,-30416678.0,-30276053.0,0.0,0.0
2018-07-31,0.0,0.0,0.0,0.0,17415520.0,18689839.0,36105359.0,-36105359.0,0.0,-39135686.0,680.0,0.0,0.0,-39136366.0,0.0,-39136366.0,-0.98,-0.98,40123371.0,40123371.0,0.0,0.0,0.0,0.0,0.0,0.0,-35741917.0,-36105359.0,-39136366.0,0.0,0.0
2017-07-31,0.0,0.0,0.0,0.0,11952748.0,9495659.0,21448407.0,-21448407.0,0.0,-21448407.0,1391.0,0.0,0.0,-21449798.0,0.0,-21449798.0,-1.06,-1.06,20189678.0,20189678.0,0.0,0.0,0.0,0.0,0.0,0.0,-21068419.0,-21448407.0,-21449798.0,0.0,0.0
2016-07-31,0.0,0.0,0.0,0.0,14741694.0,12144358.0,26886052.0,-26886052.0,0.0,0.0,2462.0,0.0,0.0,-26888514.0,0.0,-26888514.0,-1.63,-1.63,16514737.0,16514737.0,0.0,0.0,0.0,0.0,0.0,0.0,-26530469.0,-26886052.0,-26888514.0,0.0,0.0
2015-07-31,0.0,0.0,0.0,0.0,13132898.0,8108244.0,21241142.0,-21241142.0,0.0,-21241142.0,1969.0,0.0,0.0,-21243111.0,0.0,-21243111.0,-1.67,-1.67,12708974.0,12708974.0,0.0,0.0,0.0,0.0,0.0,0.0,-20576546.0,-21241142.0,-21243111.0,0.0,0.0
2014-07-31,0.0,0.0,0.0,0.0,5796347.0,6153313.0,11949660.0,-11949660.0,0.0,-11970344.0,41773.0,0.0,0.0,-12012117.0,0.0,-12012117.0,-0.06,-0.06,190543627.0,190543627.0,0.0,0.0,0.0,0.0,0.0,0.0,-11169550.0,-11949660.0,-12012117.0,0.0,0.0
2013-07-31,0.0,0.0,0.0,0.0,3159209.0,3905763.0,7064972.0,-7064972.0,0.0,-7148187.0,2000.0,0.0,0.0,-7150187.0,0.0,-7150187.0,-0.07,-0.07,106558325.0,106558325.0,0.0,0.0,0.0,0.0,0.0,0.0,-6328097.0,-7064972.0,-7150187.0,0.0,0.0
2012-07-31,0.0,0.0,0.0,0.0,2368481.0,3158693.0,5527174.0,-5527174.0,0.0,-2362452.0,2400.0,0.0,0.0,-2364852.0,0.0,-2364852.0,-0.04,-0.04,67443432.0,67443432.0,0.0,0.0,0.0,0.0,0.0,0.0,-4809724.0,-5527174.0,-2364852.0,0.0,0.0
2011-07-31,0.0,0.0,0.0,0.0,648314.0,1047161.0,1695475.0,-1695475.0,1357.0,-3757217.0,1600.0,0.0,0.0,-3758817.0,0.0,-3758817.0,-12.0,-12.0,263280.0,316502.0,0.0,0.0,,0.0,,0.0,-3505039.0,-3755860.0,-3758817.0,0.0,0.0
2010-07-31,0.0,0.0,0.0,0.0,0.0,27158.0,36158.0,-36158.0,0.0,-36158.0,0.0,0.0,0.0,-36158.0,0.0,-36158.0,0.0,0.0,342400.0,342400.0,0.0,0.0,,0.0,,0.0,-36158.0,-36158.0,-36158.0,0.0,0.0
2009-07-31,0.0,0.0,0.0,0.0,0.0,33714.0,33714.0,-33714.0,0.0,-33714.0,0.0,0.0,0.0,-33714.0,0.0,-33714.0,0.0,0.0,342400.0,342400.0,0.0,0.0,,0.0,,0.0,-33714.0,-33714.0,-33714.0,0.0,0.0
