,0,1,2,3,4,5,6,7,8,9,10,11,12,13,14
Date,Depreciation & Amortization,Stock-based compensation,Operating Cash Flow,Capital Expenditure,Acquisitions and disposals,Investment purchases and sales,Investing Cash flow,Issuance (repayment) of debt,Issuance (buybacks) of shares,Dividend payments,Financing Cash Flow,Effect of forex changes on cash,Net cash flow / Change in cash,Free Cash Flow,Net Cash/Marketcap
2016-12,15000000.0,1000000.0,15000000.0,-12000000.0,,0.0,-12000000.0,-21000000.0,,,-4000000.0,-0.0,-0.0,4000000.0,
2015-12,13000000.0,0.0,21000000.0,-19000000.0,,0.0,-19000000.0,-20000000.0,,,-3000000.0,-0.0,-1000000.0,2000000.0,
2014-12,8000000.0,0.0,32000000.0,-39000000.0,,0.0,-36000000.0,-13000000.0,,,5000000.0,-0.0,1000000.0,-7000000.0,
2013-12,8000000.0,1000000.0,30000000.0,-0.0,,0.0,-60000000.0,-15000000.0,,,20000000.0,0.0,-10000000.0,30000000.0,
2012-12,8000000.0,0.0,22000000.0,-16000000.0,,0.0,-12000000.0,-6000000.0,,,-1000000.0,0.0,9000000.0,6000000.0,
