,0,1,2,3,4,5,6,7,8,9,10,11,12,13,14,15,16,17,18,19,20,21,22,23,24,25,26,27,28,29,30
Date,Revenue,Revenue Growth,Cost of Revenue,Gross Profit,R&D Expenses,SG&A Expense,Operating Expenses,Operating Income,Interest Expense,Earnings before Tax,Income Tax Expense,Net Income - Non-Controlling int,Net Income - Discontinued ops,Net Income,Preferred Dividends,Net Income Com,EPS,EPS Diluted,Weighted Average Shs Out,Weighted Average Shs Out (Dil),Dividend per Share,Gross Margin,EBITDA Margin,EBIT Margin,Profit Margin,Free Cash Flow margin,EBITDA,EBIT,Consolidated Income,Earnings Before Tax Margin,Net Profit Margin
2000-12,479000000.0,,437000000.0,42000000.0,14000000.0,90000000.0,109000000.0,-67000000.0,,,,,,-62000000.0,,-62000000.0,-1.53,-1.53,41000000.0,41000000.0,,0.08768267223382,-0.1294363256785,-0.1294363256785,-0.1294363256785,,-62000000.0,-62000000.0,-62000000.0,0.0,-0.1294363256785
1999-12,515000000.0,,480000000.0,35000000.0,16000000.0,124000000.0,148000000.0,-113000000.0,,,,,,-155000000.0,,-155000000.0,-4.29,-4.29,36000000.0,36000000.0,,0.067961165048544,-0.20194174757282,-0.30097087378640996,-0.30097087378640996,,-104000000.0,-155000000.0,-155000000.0,0.0,-0.30097087378640996
1998-12,356000000.0,,316000000.0,41000000.0,12000000.0,81000000.0,99000000.0,-58000000.0,,,,,,-49000000.0,,-49000000.0,-1.5,-1.5,33000000.0,33000000.0,,0.11516853932584,-0.14606741573034,-0.1376404494382,-0.1376404494382,,-52000000.0,-49000000.0,-49000000.0,0.0,-0.1376404494382
1997-12,0.0,,0.0,0.0,0.0,0.0,0.0,0.0,,,,,,0.0,,0.0,,,,,,,,,,,0.0,0.0,0.0,,
1996-12,0.0,,0.0,0.0,0.0,0.0,0.0,0.0,,,,,,0.0,,0.0,,,,,,,,,,,0.0,0.0,0.0,,
