,0,1,2,3,4,5,6,7,8,9,10,11,12,13,14,15,16,17,18,19,20,21,22,23,24,25,26,27,28
Date,Cash and cash equivalents,Short-term investments,Cash and short-term investments,Receivables,Inventories,Total current assets,Property Plant & Equipment Net,Goodwill and Intangible Assets,Long-term investments,Tax assets,Total non-current assets,Total assets,Payables,Short-term debt,Total current liabilities,Long-term debt,Total debt,Deferred revenue,Tax Liabilities,Deposit Liabilities,Total non-current liabilities,Total liabilities,Other comprehensive income,Retained earnings (deficit),Total shareholders equity,Investments,Net Debt,Other Assets,Other Liabilities
2000-12,31000000.0,1000000.0,1000000.0,15000000.0,6000000.0,14000000.0,13000000.0,0.0,,,,72000000.0,26000000.0,,51000000.0,,,,,,,51000000.0,0.0,-331000000.0,19000000.0,,-31000000.0,5000000.0,24000000.0
1999-12,68000000.0,18000000.0,18000000.0,13000000.0,18000000.0,11000000.0,10000000.0,0.0,,,,129000000.0,34000000.0,,74000000.0,,,,,,,74000000.0,0.0,-269000000.0,53000000.0,,-68000000.0,3000000.0,39000000.0
1998-12,146000000.0,21000000.0,21000000.0,8000000.0,23000000.0,47000000.0,13000000.0,32000000.0,,,,246000000.0,26000000.0,,52000000.0,,,,,,,52000000.0,0.0,-126000000.0,192000000.0,,-146000000.0,3000000.0,26000000.0
1997-12,0.0,0.0,0.0,0.0,0.0,0.0,0.0,0.0,,,,0.0,0.0,,0.0,,,,,,,0.0,0.0,0.0,0.0,,0.0,0.0,0.0
1996-12,0.0,0.0,0.0,0.0,0.0,0.0,0.0,0.0,,,,0.0,0.0,,0.0,,,,,,,0.0,0.0,0.0,0.0,,0.0,0.0,0.0
