,0,1,2,3,4,5,6,7,8,9,10,11,12,13,14,15,16,17,18,19,20,21,22,23,24,25,26,27,28
Date,Cash and cash equivalents,Short-term investments,Cash and short-term investments,Receivables,Inventories,Total current assets,Property Plant & Equipment Net,Goodwill and Intangible Assets,Long-term investments,Tax assets,Total non-current assets,Total assets,Payables,Short-term debt,Total current liabilities,Long-term debt,Total debt,Deferred revenue,Tax Liabilities,Deposit Liabilities,Total non-current liabilities,Total liabilities,Other comprehensive income,Retained earnings (deficit),Total shareholders equity,Investments,Net Debt,Other Assets,Other Liabilities
2018-12-31,77726000.0,0.0,77726000.0,0.0,0.0,81546000.0,4633000.0,6987000.0,752000000000.0,3672000.0,,1044186000.0,0.0,0.0,906891000.0,0.0,0.0,0.0,0.0,905176000.0,,914399000.0,-548000.0,32877000.0,129787000.0,928771000.0,-77726000.0,3820000.0,906891000.0
2017-12-31,63250000.0,0.0,63250000.0,0.0,0.0,81452000.0,4481000.0,6771000.0,16000000.0,3383000.0,,900999000.0,0.0,0.0,798729000.0,25000000.0,25000000.0,0.0,0.0,773306000.0,,809519000.0,-350000.0,18624000.0,91480000.0,800382000.0,,,798729000.0
2016-12-31,20126028.0,0.0,20126028.0,0.0,0.0,23773766.0,5067095.0,6782555.0,2000000.0,3276063.0,,761250420.0,0.0,0.0,672105653.0,10000000.0,10000000.0,0.0,0.0,661783900.0,,679966633.0,-214966.0,9387470.0,81283787.0,706864393.0,,,672105653.0
2015-12-31,37399318.0,0.0,37399318.0,0.0,0.0,44540135.0,5892133.0,0.0,6000000.0,,,617000000.0,519721067.0,0.0,540068203.0,20000000.0,,,,,,544870690.0,,2000000.0,72479284.0,-21537358.0,,,20347136.0
