,0,1,2,3,4,5,6,7,8,9,10,11,12,13,14
Date,Depreciation & Amortization,Stock-based compensation,Operating Cash Flow,Capital Expenditure,Acquisitions and disposals,Investment purchases and sales,Investing Cash flow,Issuance (repayment) of debt,Issuance (buybacks) of shares,Dividend payments,Financing Cash Flow,Effect of forex changes on cash,Net cash flow / Change in cash,Free Cash Flow,Net Cash/Marketcap
2018-12-31,2556.0,6492681.0,-522972.0,0.0,0.0,0.0,0.0,0.0,17153126.0,0.0,17020707.0,0.0,16497735.0,-522972.0,0.4442
2017-12-31,,,-378577.0,0.0,,,0.0,380587.0,0.0,0.0,380587.0,,,,
2017-07-31,5140.0,1696926.0,-9217166.0,0.0,0.0,0.0,0.0,0.0,0.0,0.0,12201202.0,0.0,5391162.0,5556162.0,0.2609
2016-07-31,2389.0,11496025.0,5556162.0,0.0,0.0,0.0,0.0,-165000.0,0.0,0.0,-165000.0,0.0,1047176.0,-922824.0,0.0846
2015-07-31,1373.0,1729216.0,-915287.0,-7537.0,0.0,0.0,-7537.0,-130000.0,0.0,0.0,1962463.0,0.0,179447.0,-4239083.0,0.0322
2014-07-31,1372.0,9217549.0,-4239083.0,0.0,0.0,0.0,0.0,-220000.0,0.0,0.0,4418530.0,0.0,-343853.0,-1005323.0,2.3867
2013-07-31,1373.0,7808715.0,-1005323.0,0.0,0.0,0.0,0.0,0.0,0.0,0.0,661470.0,0.0,578200.0,-747300.0,12.3137
2012-07-31,1373.0,11238058.0,-747300.0,0.0,0.0,0.0,0.0,520500.0,55000.0,0.0,1325500.0,0.0,-31366.0,-1096738.0,-1.1549
2012-03-31,6341000.0,2688000.0,27152000.0,5596000.0,-0.0,-61517000.0,-13223000.0,-0.0,-72357000.0,-29933000.0,-24570000.0,-298000.0,-10939000.0,21556000.0,0.0
2011-07-31,1016.0,6649420.0,-1096738.0,0.0,0.0,0.0,0.0,262443.0,802929.0,0.0,1065372.0,0.0,49489.0,-2955913.0,-1.1549
2010-07-31,508.0,1358800.0,-2955913.0,0.0,0.0,0.0,0.0,-72618.0,3078020.0,0.0,3005402.0,0.0,2010.0,-378577.0,-1.1549
2009-07-31,508.0,0.0,-378577.0,0.0,0.0,0.0,0.0,380587.0,0.0,0.0,380587.0,0.0,84.0,84.0,-1.1549
