,0,1,2,3,4,5,6,7,8,9,10,11,12,13,14,15,16,17,18,19,20,21,22,23,24,25,26,27,28
Date,Cash and cash equivalents,Short-term investments,Cash and short-term investments,Receivables,Inventories,Total current assets,Property Plant & Equipment Net,Goodwill and Intangible Assets,Long-term investments,Tax assets,Total non-current assets,Total assets,Payables,Short-term debt,Total current liabilities,Long-term debt,Total debt,Deferred revenue,Tax Liabilities,Deposit Liabilities,Total non-current liabilities,Total liabilities,Other comprehensive income,Retained earnings (deficit),Total shareholders equity,Investments,Net Debt,Other Assets,Other Liabilities
2018-12-31,177873000.0,1254000.0,179127000.0,44591000.0,0.0,238090000.0,12162000.0,537022000.0,37085000.0,944000.0,587213000.0,825303000.0,17957000.0,0.0,34002000.0,0.0,0.0,1932000.0,15278000.0,0.0,15841000.0,49843000.0,316000.0,36432000.0,775460000.0,38339000.0,,14372000.0,16045000.0
2017-12-31,33207000.0,0.0,33207000.0,38937000.0,0.0,74311000.0,13460000.0,540198000.0,7374000.0,958000.0,561989000.0,636300000.0,21401000.0,0.0,36850000.0,0.0,0.0,1472000.0,15537000.0,0.0,15947000.0,52797000.0,1605000.0,5366000.0,583503000.0,7374000.0,,,15449000.0
