,0,1,2,3,4,5,6,7,8,9,10,11,12,13,14,15,16,17,18,19,20,21,22,23,24,25,26,27,28,29,30
Date,Revenue,Revenue Growth,Cost of Revenue,Gross Profit,R&D Expenses,SG&A Expense,Operating Expenses,Operating Income,Interest Expense,Earnings before Tax,Income Tax Expense,Net Income - Non-Controlling int,Net Income - Discontinued ops,Net Income,Preferred Dividends,Net Income Com,EPS,EPS Diluted,Weighted Average Shs Out,Weighted Average Shs Out (Dil),Dividend per Share,Gross Margin,EBITDA Margin,EBIT Margin,Profit Margin,Free Cash Flow margin,EBITDA,EBIT,Consolidated Income,Earnings Before Tax Margin,Net Profit Margin
2019-12-31,1033379000.0,0.0785103438487,0.0,0.0,81588000.0,657714000.0,958467000.0,74912000.0,45687000.0,74912000.0,12081000.0,0.0,0.0,52953000.0,0.0,52953000.0,3.82,3.82,12904397.0,13851832.0,0.429112914451,0.0,0.116999668079,0.07249228017989999,0.0512425741185,0.0668854311922,120905000.0,74912000.0,52953000.0,0.07249228017989999,0.0512425741185
2018-12-31,958154000.0,0.041089251992199996,0.0,0.0,74479000.0,607192000.0,913301000.0,44853000.0,46396000.0,44853000.0,13204000.0,0.0,0.0,28892000.0,0.0,28892000.0,2.18,2.05,13248876.0,14061369.0,0.414824474061,0.0,0.06734094936719999,0.0468118903642,0.030153816609900002,0.16688131553,64523000.0,44853000.0,28892000.0,0.0468118903642,0.030153816609900002
2017-12-31,920338000.0,0.0729313727662,0.0,0.0,71978000.0,602138000.0,900602000.0,19736000.0,28354000.0,19736000.0,-676000.0,0.0,0.0,22816000.0,0.0,22816000.0,1.67,1.67,13246423.0,13673361.0,0.426815323606,0.0,0.0407861024971,0.0214442954654,0.0247908920418,-0.023629362256,37537000.0,19736000.0,22816000.0,0.0214442954654,0.0247908920418
2016-12-31,857779000.0,-0.0760524997711,0.0,0.0,70390000.0,584710000.0,879671000.0,-21892000.0,19437000.0,-21892000.0,-20018000.0,0.0,0.0,-1161000.0,0.0,-1161000.0,-0.09,-0.09,13368768.0,13368768.0,0.440354713314,0.0,0.0010935217579400001,-0.0255217252929,-0.00135349548077,-0.0853331685667,938000.0,-21892000.0,-1161000.0,-0.0255217252929,-0.00135349548077
2015-12-31,928385000.0,-0.0757408926552,0.0,0.0,66910000.0,623226000.0,921674000.0,6711000.0,17323000.0,6711000.0,3813000.0,0.0,0.0,1962000.0,0.0,1962000.0,0.14,0.14,13640610.0,14291534.0,0.420388742034,0.0,0.0299778647867,0.00722868206617,0.00211334737205,-0.0287682373153,27831000.0,6711000.0,1962000.0,0.00722868206617,0.00211334737205
2014-12-31,1004464000.0,-0.014955173705599999,0.0,0.0,67170000.0,664641000.0,978728000.0,25736000.0,17801000.0,25736000.0,16175000.0,0.0,0.0,8826000.0,0.0,8826000.0,0.65,0.62,13604258.0,14250663.0,0.41984011550899997,0.0,0.056702878351,0.025621625065700003,0.00878677583268,0.0735885009318,56956000.0,25736000.0,8826000.0,0.025621625065700003,0.00878677583268
2013-12-31,1019714000.0,0.0704400112533,0.0,0.0,65817000.0,675936000.0,975805000.0,43909000.0,26142000.0,43909000.0,17756000.0,0.0,0.0,25061000.0,0.0,25061000.0,1.85,1.77,13577725.0,14124060.0,0.423249405624,0.0,0.0768578248411,0.043060112933599994,0.024576498900700003,-0.0171038153835,78373000.0,43909000.0,25061000.0,0.043060112933599994,0.024576498900700003
2012-12-31,952612000.0,1.0,0.0,0.0,63359000.0,626411000.0,953139000.0,-527000.0,35086000.0,-527000.0,324000.0,0.0,0.0,-3613000.0,0.0,-3613000.0,-0.27,-0.27,13602205.0,13602205.0,0.44007570831299997,0.0,0.0356724458646,-0.000553215789849,-0.00379272988373,-0.0253943893212,33982000.0,-527000.0,-3613000.0,-0.000553215789849,-0.00379272988373
2011-12-31,0.0,-1.0,0.0,0.0,0.0,0.0,0.0,0.0,0.0,0.0,0.0,0.0,0.0,0.0,0.0,0.0,0.0,0.0,0.0,0.0,0.0,0.0,0.0,0.0,0.0,0.0,0.0,0.0,0.0,0.0,0.0
2010-12-31,1036273000.0,0.0462331394879,25754000.0,1010519000.0,0.0,815130000.0,916778000.0,93741000.0,25750000.0,65743000.0,27211000.0,2248000.0,0.0,38532000.0,0.0,38532000.0,2.89,2.77,13364202.0,13340846.0,0.44,0.9751,0.10400000000000001,0.0883,0.037000000000000005,-0.1442,108265000.0,91493000.0,40780000.0,0.0634,0.0372
2009-12-31,990480000.0,0.0765,26748000.0,963732000.0,0.0,806029000.0,905236000.0,58496000.0,21429000.0,37067000.0,16243000.0,0.0,0.0,20824000.0,0.0,20824000.0,1.59,1.55,13180983.0,13110647.0,0.44,0.973,0.077,0.0591,0.021,0.0474,75940000.0,58496000.0,20824000.0,0.0374,0.021
