,0,1,2,3,4,5,6,7,8,9,10,11,12,13,14
Date,Depreciation & Amortization,Stock-based compensation,Operating Cash Flow,Capital Expenditure,Acquisitions and disposals,Investment purchases and sales,Investing Cash flow,Issuance (repayment) of debt,Issuance (buybacks) of shares,Dividend payments,Financing Cash Flow,Effect of forex changes on cash,Net cash flow / Change in cash,Free Cash Flow,Net Cash/Marketcap
2019-12-31,146076000.0,9358000.0,236493000.0,279986000.0,0.0,0.0,-254538000.0,-5165000.0,0.0,-22386000.0,-5765000.0,-575000.0,-24385000.0,-43493000.0,0.0
2018-12-31,129548000.0,10218000.0,145822000.0,258521000.0,-95093000.0,0.0,-342434000.0,-62774000.0,-98802000.0,-26834000.0,251131000.0,-660000.0,53859000.0,-112699000.0,0.0
2017-12-31,115146000.0,8760000.0,245575000.0,260102000.0,-35300000.0,0.0,-368121000.0,-66223000.0,-47818000.0,-20511000.0,-59850000.0,0.0,-182396000.0,-14527000.0,0.0
2016-12-31,105464000.0,5157000.0,159285000.0,151930000.0,-20135000.0,0.0,-158531000.0,-62052000.0,-230214000.0,-25682000.0,43541000.0,0.0,44295000.0,7355000.0,0.0
2015-12-31,106900000.0,3955000.0,190025000.0,152950000.0,-0.0,0.0,-90971000.0,-71701000.0,-185919000.0,-12716000.0,46635000.0,0.0,145689000.0,37075000.0,0.0
2014-12-31,100490000.0,5571000.0,213235000.0,158781000.0,-0.0,0.0,-129162000.0,-111180000.0,-40230000.0,-9555000.0,-101197000.0,0.0,-17124000.0,54454000.0,0.0
2013-12-31,92625000.0,6262000.0,86760000.0,204628000.0,-0.0,0.0,-157153000.0,-68370000.0,-57354000.0,-3636000.0,61119000.0,0.0,-9274000.0,-117868000.0,0.0
2012-12-31,102033000.0,6394000.0,89471000.0,233020000.0,-0.0,0.0,-100790000.0,-74502000.0,-66628000.0,-3636000.0,-21939000.0,0.0,-33258000.0,-143549000.0,0.0
2011-12-31,98099000.0,6672000.0,132734000.0,271463000.0,-0.0,0.0,-341002000.0,-50130000.0,-99886000.0,-5924000.0,225339000.0,0.0,17071000.0,-138729000.0,0.0
2010-12-31,0.0,0.0,0.0,0.0,-0.0,0.0,0.0,-0.0,0.0,-0.0,0.0,0.0,0.0,0.0,0.0
2009-12-31,64376000.0,5755000.0,110772000.0,-270623000.0,-261000.0,-14231000.0,-286036000.0,254400000.0,1242000.0,-11347000.0,187036000.0,142000.0,11914000.0,-159851000.0,-0.2735
