,0,1,2,3,4,5,6,7,8,9,10,11,12,13,14,15,16,17,18,19,20,21,22,23,24,25,26,27,28,29,30
Date,Revenue,Revenue Growth,Cost of Revenue,Gross Profit,R&D Expenses,SG&A Expense,Operating Expenses,Operating Income,Interest Expense,Earnings before Tax,Income Tax Expense,Net Income - Non-Controlling int,Net Income - Discontinued ops,Net Income,Preferred Dividends,Net Income Com,EPS,EPS Diluted,Weighted Average Shs Out,Weighted Average Shs Out (Dil),Dividend per Share,Gross Margin,EBITDA Margin,EBIT Margin,Profit Margin,Free Cash Flow margin,EBITDA,EBIT,Consolidated Income,Earnings Before Tax Margin,Net Profit Margin
2017-12,901000000.0,,476000000.0,425000000.0,125000000.0,143000000.0,288000000.0,138000000.0,2000000.0,132000000.0,1000000.0,,,132000000.0,,132000000.0,2.76,2.71,48000000.0,49000000.0,,0.47169811320754995,0.19866814650387998,0.14983351831299,0.14650388457270003,,179000000.0,135000000.0,132000000.0,0.14650388457270003,0.14650388457270003
2016-12,806000000.0,,434000000.0,372000000.0,107000000.0,124000000.0,255000000.0,117000000.0,8000000.0,96000000.0,16000000.0,,,79000000.0,,79000000.0,1.74,1.71,46000000.0,46000000.0,,0.46153846153846,0.1848635235732,0.12779156327543,0.098014888337469,,149000000.0,103000000.0,79000000.0,0.11910669975186,0.098014888337469
2015-12,753000000.0,,413000000.0,340000000.0,104000000.0,117000000.0,245000000.0,95000000.0,18000000.0,71000000.0,14000000.0,,,57000000.0,,57000000.0,1.34,1.31,42000000.0,43000000.0,,0.45152722443559007,0.17795484727756,0.11819389110226,0.07569721115537799,,134000000.0,89000000.0,57000000.0,0.094289508632138,0.07569721115537799
2014-12,583000000.0,,330000000.0,253000000.0,89000000.0,96000000.0,205000000.0,48000000.0,10000000.0,39000000.0,3000000.0,,,35000000.0,,35000000.0,0.85,0.83,42000000.0,43000000.0,,0.43396226415094,0.13722126929674,0.08233276157804499,0.06003430531732401,,80000000.0,48000000.0,35000000.0,0.066895368782161,0.06003430531732401
2013-12,440000000.0,,248000000.0,192000000.0,70000000.0,76000000.0,144000000.0,48000000.0,3000000.0,46000000.0,7000000.0,,,40000000.0,,40000000.0,0.94,0.92,43000000.0,43000000.0,,0.43636363636364,0.14090909090909,0.11363636363636,0.09090909090909101,,62000000.0,50000000.0,40000000.0,0.10454545454545,0.09090909090909101
