,0,1,2,3,4,5,6,7,8,9,10,11,12,13,14,15,16,17,18,19,20,21,22,23,24,25,26,27,28,29,30
Date,Revenue,Revenue Growth,Cost of Revenue,Gross Profit,R&D Expenses,SG&A Expense,Operating Expenses,Operating Income,Interest Expense,Earnings before Tax,Income Tax Expense,Net Income - Non-Controlling int,Net Income - Discontinued ops,Net Income,Preferred Dividends,Net Income Com,EPS,EPS Diluted,Weighted Average Shs Out,Weighted Average Shs Out (Dil),Dividend per Share,Gross Margin,EBITDA Margin,EBIT Margin,Profit Margin,Free Cash Flow margin,EBITDA,EBIT,Consolidated Income,Earnings Before Tax Margin,Net Profit Margin
2018-12-31,388858000.0,1.4322018526499998,52148000.0,336710000.0,0.0,5498000.0,13321000.0,323389000.0,76774000.0,203336000.0,1093000.0,0.0,0.0,202243000.0,0.0,202243000.0,1.38,1.38,191434974.0,146422371.0,0.0,0.8659,0.72,0.7203,0.52,-8.1569,280110000.0,280110000.0,202243000.0,0.5229,0.5201
2017-12-31,159879000.0,4.55058325233,31062000.0,128817000.0,0.0,4859000.0,10289000.0,118528000.0,24580000.0,103898000.0,158000.0,0.0,0.0,103740000.0,0.0,103740000.0,1.55,1.55,85413892.0,67082905.0,0.0,0.8057,0.804,0.8036,0.649,-8.3483,128478000.0,128478000.0,103740000.0,0.6499,0.6489
2016-12-31,28804000.0,,9238000.0,19566000.0,0.0,3197000.0,7450000.0,12116000.0,2758000.0,16989000.0,352000.0,0.0,0.0,16637000.0,0.0,16637000.0,0.78,0.78,32325468.0,21345191.0,0.0,0.6793,0.6859999999999999,0.6856,0.578,-32.8089,19747000.0,19747000.0,16637000.0,0.5898,0.5776
