,0,1,2,3,4,5,6,7,8,9,10,11,12,13,14,15,16,17,18,19,20,21,22,23,24,25,26,27,28
Date,Cash and cash equivalents,Short-term investments,Cash and short-term investments,Receivables,Inventories,Total current assets,Property Plant & Equipment Net,Goodwill and Intangible Assets,Long-term investments,Tax assets,Total non-current assets,Total assets,Payables,Short-term debt,Total current liabilities,Long-term debt,Total debt,Deferred revenue,Tax Liabilities,Deposit Liabilities,Total non-current liabilities,Total liabilities,Other comprehensive income,Retained earnings (deficit),Total shareholders equity,Investments,Net Debt,Other Assets,Other Liabilities
2019-12-31,60174000.0,0.0,60174000.0,39359000.0,22918000.0,125600000.0,47184000.0,46336000.0,556000.0,127000.0,95087000.0,220687000.0,28387000.0,0.0,59894000.0,0.0,0.0,0.0,0.0,0.0,22092000.0,165104000.0,226580000.0,-171007000.0,55583000.0,556000.0,-60174000.0,0.0,83118000.0
2018-12-31,21291000.0,0.0,21291000.0,34077000.0,13321000.0,71131000.0,39623000.0,51630000.0,477000.0,238000.0,92547000.0,163678000.0,19165000.0,2545000.0,66388000.0,12578000.0,15123000.0,80000.0,3286000.0,0.0,23765000.0,116637000.0,177272000.0,-130240000.0,47041000.0,477000.0,-6168000.0,0.0,26484000.0
2017-12-31,125886.0,0.0,125886.0,0.0,0.0,294439.0,0.0,0.0,312497921.0,0.0,312497921.0,312792360.0,0.0,1500000.0,3928722.0,0.0,1500000.0,0.0,0.0,0.0,0.0,307792352.0,7327588.0,-2327773.0,5000008.0,312497921.0,1374114.0,0.0,303863630.0
2016-12-31,1040068.0,0.0,1040068.0,0.0,0.0,1435911.0,0.0,0.0,310000000.0,0.0,310000000.0,311435911.0,0.0,1500000.0,478360.0,0.0,1500000.0,0.0,0.0,0.0,0.0,306435910.0,5233712.0,-233860.0,5000001.0,310000000.0,459932.0,0.0,305957550.0
2015-12-31,126000.0,0.0,126000.0,0.0,0.0,126000.0,0.0,0.0,0.0,,,416000.0,0.0,0.0,416000.0,0.0,,,,,,416000.0,,-25000.0,0.0,0.0,-126000.0,62.0,416000.0
