,0,1,2,3,4,5,6,7,8,9,10,11,12,13,14,15,16,17,18,19,20,21,22,23,24,25,26,27,28,29,30
Date,Revenue,Revenue Growth,Cost of Revenue,Gross Profit,R&D Expenses,SG&A Expense,Operating Expenses,Operating Income,Interest Expense,Earnings before Tax,Income Tax Expense,Net Income - Non-Controlling int,Net Income - Discontinued ops,Net Income,Preferred Dividends,Net Income Com,EPS,EPS Diluted,Weighted Average Shs Out,Weighted Average Shs Out (Dil),Dividend per Share,Gross Margin,EBITDA Margin,EBIT Margin,Profit Margin,Free Cash Flow margin,EBITDA,EBIT,Consolidated Income,Earnings Before Tax Margin,Net Profit Margin
2018-11-30,18655000.0,0.849043512737,10824000.0,7831000.0,6464000.0,16303000.0,24680000.0,-16849000.0,3117000.0,-16954000.0,1337000.0,-813000.0,0.0,-18291000.0,0.0,-18291000.0,-1.43,-1.43,15570973.0,13374103.0,0.0,0.4198,-0.601,-0.7417,-0.98,-1.1385,-11213000.0,-13837000.0,-19104000.0,-0.9088,-0.9805
2017-11-30,10089000.0,0.5771455369699999,6807000.0,3282000.0,2478000.0,9189000.0,13298000.0,-10016000.0,2447000.0,-13677000.0,-1310000.0,0.0,0.0,-12367000.0,0.0,-12367000.0,-1.28,-1.31,10148271.0,9679964.0,0.0,0.3253,-0.856,-1.1131,-1.226,-0.4766,-8632000.0,-11230000.0,-12367000.0,-1.3556,-1.2258
2016-11-30,6397000.0,1.1509751176899998,7657000.0,-1260000.0,2157000.0,6240000.0,10017000.0,-11277000.0,1260000.0,-12660000.0,-1547000.0,0.0,0.0,-11113000.0,0.0,-11113000.0,-1.3,-1.3,9508038.0,8521583.0,0.0,-0.19699999999999998,-1.325,-1.7821,-1.7369999999999999,-0.8141,-8477000.0,-11400000.0,-11113000.0,-1.9791,-1.7372
2015-11-30,2974000.0,1.0,3880000.0,-906000.0,1067000.0,4035000.0,6305000.0,-7211000.0,0.0,-5361000.0,-900000.0,0.0,0.0,-4461000.0,0.0,-4461000.0,-0.96,-1.32,8186473.0,4649868.0,0.0,-0.3046,-1.133,-1.8026,-1.5,-1.2401,-3370000.0,-5361000.0,-4461000.0,-1.8026,-1.5
2014-11-30,0.0,0.0,0.0,0.0,1549000.0,3028000.0,4577000.0,-4577000.0,927000.0,-5504000.0,0.0,0.0,0.0,-5504000.0,0.0,-5504000.0,-1.2,-1.32,4597718.0,4513549.0,0.0,0.0,,0.0,,0.0,-4572000.0,-4577000.0,-5504000.0,0.0,0.0
2013-11-30,0.0,0.0,0.0,0.0,1452456.0,4008046.0,5460502.0,-5460502.0,78657.0,-5539159.0,0.0,0.0,0.0,-5539159.0,0.0,-5539159.0,-1.32,-1.32,4262052.0,4206984.0,0.0,0.0,,0.0,,0.0,-5457245.0,-5460502.0,-5539159.0,0.0,0.0
2012-11-30,0.0,0.0,0.0,0.0,2308811.0,2679748.0,4988559.0,-4988559.0,9584.0,-4998143.0,0.0,0.0,0.0,-4998143.0,0.0,-4998143.0,-1.08,-1.08,4093158.0,4522102.0,0.0,0.0,,0.0,,0.0,-4987153.0,-4988559.0,-4998143.0,0.0,0.0
2011-11-30,0.0,0.0,0.0,0.0,0.0,72352.0,72352.0,-72352.0,0.0,-72352.0,0.0,0.0,0.0,-72352.0,0.0,-72352.0,0.0,0.0,6708333.0,6708333.0,0.0,0.0,,0.0,,0.0,-72352.0,-72352.0,-72352.0,0.0,0.0
2010-11-30,0.0,0.0,0.0,0.0,0.0,21173.0,36173.0,-36173.0,0.0,-36173.0,0.0,0.0,0.0,-36173.0,0.0,-36173.0,0.0,0.0,6708333.0,6708333.0,0.0,0.0,,0.0,,0.0,-36173.0,-36173.0,-36173.0,0.0,0.0
2009-11-30,0.0,,0.0,0.0,0.0,25648.0,25648.0,-25648.0,0.0,-25648.0,0.0,0.0,0.0,-25648.0,0.0,-25648.0,-0.003,-0.003,6708333.0,6708333.0,0.0,0.0,,0.0,,0.0,-25648.0,-25648.0,-25648.0,0.0,0.0
