,0,1,2,3,4,5,6,7,8,9,10,11,12,13,14,15,16,17,18,19,20,21,22,23,24,25,26,27,28,29,30
Date,Revenue,Revenue Growth,Cost of Revenue,Gross Profit,R&D Expenses,SG&A Expense,Operating Expenses,Operating Income,Interest Expense,Earnings before Tax,Income Tax Expense,Net Income - Non-Controlling int,Net Income - Discontinued ops,Net Income,Preferred Dividends,Net Income Com,EPS,EPS Diluted,Weighted Average Shs Out,Weighted Average Shs Out (Dil),Dividend per Share,Gross Margin,EBITDA Margin,EBIT Margin,Profit Margin,Free Cash Flow margin,EBITDA,EBIT,Consolidated Income,Earnings Before Tax Margin,Net Profit Margin
2017-12,1008000000.0,,295000000.0,712000000.0,,73000000.0,,,187000000.0,,63000000.0,,,-5000000.0,,-5000000.0,-0.21,-0.21,25000000.0,25000000.0,,0.70634920634921,0.36309523809523997,0.24305555555556,-0.0049603174603175,,366000000.0,245000000.0,-5000000.0,0.0,-0.0049603174603175
2016-12,1654000000.0,,454000000.0,1199000000.0,,104000000.0,,,207000000.0,,106000000.0,,,-3242000000.0,,-3242000000.0,-306697.25,-306697.25,0.0,0.0,,0.72490931076179,-1.5683192261185,-1.7708585247884,-1.9600967351874,,-2594000000.0,-2929000000.0,-3242000000.0,0.0,-1.9600967351874
2015-12,1748000000.0,,582000000.0,1166000000.0,,100000000.0,,,250000000.0,,100000000.0,,,80000000.0,,80000000.0,5229.36,5229.36,0.0,0.0,,0.66704805491991,0.45366132723112,0.24599542334096,0.045766590389016,,793000000.0,430000000.0,80000000.0,0.0,0.045766590389016
2014-12,1817000000.0,,728000000.0,1089000000.0,,132000000.0,,,224000000.0,,78000000.0,,,260000000.0,,260000000.0,17981.65,17981.65,0.0,0.0,,0.59933957072097,0.48761695101816,0.30930104567969,0.1430930104568,,886000000.0,562000000.0,260000000.0,0.0,0.1430930104568
2013-12,1180000000.0,,505000000.0,675000000.0,,127000000.0,,,125000000.0,,45000000.0,,,63000000.0,,63000000.0,4403.67,4403.67,0.0,0.0,,0.5720338983050799,0.39661016949153005,0.19745762711864,0.053389830508475,,468000000.0,233000000.0,63000000.0,0.0,0.053389830508475
