,0,1,2,3,4,5,6,7,8,9,10,11,12,13,14
Date,Depreciation & Amortization,Stock-based compensation,Operating Cash Flow,Capital Expenditure,Acquisitions and disposals,Investment purchases and sales,Investing Cash flow,Issuance (repayment) of debt,Issuance (buybacks) of shares,Dividend payments,Financing Cash Flow,Effect of forex changes on cash,Net cash flow / Change in cash,Free Cash Flow,Net Cash/Marketcap
2019-12-31,-2856000.0,19424000.0,-166131000.0,4367000.0,-0.0,-304991000.0,-309358000.0,-0.0,-19053000.0,-0.0,157453000.0,1672000.0,-316364000.0,-170498000.0,0.0
2018-12-31,1199000.0,6766000.0,-97536000.0,-4032000.0,0.0,0.0,-4032000.0,0.0,205497000.0,0.0,354864000.0,-3471000.0,249825000.0,-101568000.0,
2017-12-31,302000.0,1019000.0,-32487000.0,-1559000.0,0.0,0.0,-1559000.0,0.0,0.0,0.0,115696000.0,4709000.0,86359000.0,-34046000.0,
2016-12-31,6000.0,204000.0,-14566000.0,-190000.0,0.0,0.0,-190000.0,0.0,0.0,0.0,18034000.0,-751000.0,2527000.0,-14756000.0,
