,0,1,2,3,4,5,6,7,8,9,10,11,12,13,14
Date,Depreciation & Amortization,Stock-based compensation,Operating Cash Flow,Capital Expenditure,Acquisitions and disposals,Investment purchases and sales,Investing Cash flow,Issuance (repayment) of debt,Issuance (buybacks) of shares,Dividend payments,Financing Cash Flow,Effect of forex changes on cash,Net cash flow / Change in cash,Free Cash Flow,Net Cash/Marketcap
2019-12-31,1648036.0,649469.0,2374868.0,2386227.0,-0.0,0.0,-2385177.0,-791171.0,-2484607.0,-0.0,2922101.0,1273.0,5185321.0,-11359.0,0.0
2018-12-31,1240519.0,527335.0,-3909643.0,623166.0,-0.0,0.0,-5909192.0,-163483.0,17227744.0,-0.0,11900178.0,5196.0,2272256.0,-4532809.0,0.0
2017-12-31,836274.0,160062.0,-381766.0,-425482.0,0.0,0.0,-425482.0,123266.0,105502.0,0.0,978768.0,0.0,171520.0,-807248.0,-1.5592
2016-12-31,437036.0,77647.0,-273224.0,-206319.0,68308.0,0.0,-138011.0,382786.0,17572.0,0.0,400358.0,0.0,-10877.0,-479543.0,-1.93
2015-12-31,156945.0,52212.0,445512.0,-194422.0,0.0,0.0,-194422.0,-242472.0,16456.0,0.0,-226016.0,0.0,25074.0,251090.0,-1.93
