,0,1,2,3,4,5,6,7,8,9,10,11,12,13,14,15,16,17,18,19,20,21,22,23,24,25,26,27,28,29,30
Date,Revenue,Revenue Growth,Cost of Revenue,Gross Profit,R&D Expenses,SG&A Expense,Operating Expenses,Operating Income,Interest Expense,Earnings before Tax,Income Tax Expense,Net Income - Non-Controlling int,Net Income - Discontinued ops,Net Income,Preferred Dividends,Net Income Com,EPS,EPS Diluted,Weighted Average Shs Out,Weighted Average Shs Out (Dil),Dividend per Share,Gross Margin,EBITDA Margin,EBIT Margin,Profit Margin,Free Cash Flow margin,EBITDA,EBIT,Consolidated Income,Earnings Before Tax Margin,Net Profit Margin
2019-12-31,0.0,-1.0,0.0,0.0,0.0,0.0,0.0,0.0,0.0,0.0,0.0,0.0,0.0,0.0,0.0,0.0,0.0,0.0,0.0,0.0,0.0,0.0,0.0,0.0,0.0,0.0,0.0,0.0,0.0,0.0,0.0
2018-12-31,540778000.0,0.06728638108490001,463175000.0,77603000.0,0.0,25561000.0,29082000.0,48521000.0,34099000.0,10974000.0,1088000.0,3857000.0,0.0,9886000.0,0.0,9886000.0,-0.44,-0.44,58071500.0,58071500.0,0.0,0.1435,0.102,0.0833,0.018000000000000002,0.0507,55128000.0,45073000.0,13743000.0,0.0203,0.0183
2017-12-31,506685000.0,0.0638295638737,440350000.0,66335000.0,0.0,24516000.0,28037000.0,38298000.0,0.0,36380000.0,5263000.0,2109000.0,0.0,31117000.0,0.0,31117000.0,-0.02,-0.02,58071500.0,58071500.0,0.0,0.1309,0.091,0.0718,0.061,0.1331,46209000.0,36380000.0,33226000.0,0.0718,0.0614
2016-12-31,476284000.0,,424260000.0,52024000.0,0.0,24886000.0,28407000.0,23617000.0,0.0,20518000.0,5615000.0,3261000.0,0.0,14903000.0,0.0,14903000.0,,,,,0.0,0.1092,0.07,0.0431,0.031,0.1545,33402000.0,20518000.0,18164000.0,0.0431,0.0313
