,0,1,2,3,4,5,6,7,8,9,10,11,12,13,14
Date,Depreciation & Amortization,Stock-based compensation,Operating Cash Flow,Capital Expenditure,Acquisitions and disposals,Investment purchases and sales,Investing Cash flow,Issuance (repayment) of debt,Issuance (buybacks) of shares,Dividend payments,Financing Cash Flow,Effect of forex changes on cash,Net cash flow / Change in cash,Free Cash Flow,Net Cash/Marketcap
2019-12-31,0.0,0.0,0.0,0.0,-0.0,0.0,13863000.0,-0.0,-13863000.0,-0.0,0.0,0.0,13863000.0,0.0,0.0
2018-12-31,10055000.0,0.0,32387000.0,-4983000.0,0.0,0.0,-4983000.0,0.0,0.0,0.0,-20557000.0,-216000.0,6631000.0,27404000.0,-0.58
2017-12-31,9829000.0,0.0,70118000.0,-2683000.0,0.0,0.0,-2683000.0,0.0,0.0,0.0,-65499000.0,124000.0,2060000.0,67435000.0,0.0156
2016-12-31,12884000.0,0.0,76651000.0,-3081000.0,-5446000.0,0.0,-8527000.0,0.0,0.0,0.0,-71507000.0,-480000.0,-3863000.0,73570000.0,0.0156
