,0,1,2,3,4,5,6,7,8,9,10,11,12,13,14,15,16,17,18,19,20,21,22,23,24,25,26,27,28,29,30
Date,Revenue,Revenue Growth,Cost of Revenue,Gross Profit,R&D Expenses,SG&A Expense,Operating Expenses,Operating Income,Interest Expense,Earnings before Tax,Income Tax Expense,Net Income - Non-Controlling int,Net Income - Discontinued ops,Net Income,Preferred Dividends,Net Income Com,EPS,EPS Diluted,Weighted Average Shs Out,Weighted Average Shs Out (Dil),Dividend per Share,Gross Margin,EBITDA Margin,EBIT Margin,Profit Margin,Free Cash Flow margin,EBITDA,EBIT,Consolidated Income,Earnings Before Tax Margin,Net Profit Margin
2019-12-31,600000.0,-0.194630872483,912000.0,-312000.0,32805000.0,11690000.0,44495000.0,-44807000.0,0.0,0.0,0.0,0.0,0.0,-44675000.0,0.0,-44675000.0,-1.45,-1.45,30726786.0,30726786.0,0.0,-0.52,-71.1366666667,-74.6783333333,-74.4583333333,-62.7083333333,-42682000.0,-44807000.0,-44675000.0,0.0,-74.4583333333
2018-12-31,745000.0,-0.397249190939,946000.0,-201000.0,31844000.0,20008000.0,51852000.0,-52053000.0,0.0,0.0,0.0,0.0,0.0,-50368000.0,0.0,-50368000.0,-1.65,-1.65,30610244.0,30610244.0,0.0,-0.269798657718,-67.5986577181,-69.8697986577,-67.6080536913,-52.255033557,-50361000.0,-52053000.0,-50368000.0,0.0,-67.6080536913
2017-12-31,1236000.0,0.809663250366,3098000.0,-1862000.0,42701000.0,46838000.0,89539000.0,-91401000.0,0.0,0.0,0.0,0.0,0.0,-90130000.0,0.0,-90130000.0,-2.97,-2.97,30304158.0,30304158.0,0.0,-1.50647249191,-72.61650485439999,-73.9490291262,-72.9207119741,-61.9466019417,-89754000.0,-91401000.0,-90130000.0,0.0,-72.9207119741
2016-12-31,683000.0,1.0,1664000.0,-981000.0,60723000.0,49777000.0,110500000.0,-111481000.0,0.0,0.0,1000.0,0.0,0.0,-110583000.0,0.0,-110583000.0,-3.69,-3.69,29962781.0,29962781.0,0.0,-1.4363103953100003,-161.043923865,-163.22254758399998,-161.90775988299998,-141.802342606,-109993000.0,-111481000.0,-110583000.0,0.0,-161.90775988299998
2015-12-31,0.0,0.0,0.0,0.0,38762000.0,23214000.0,61976000.0,-61976000.0,0.0,0.0,1000.0,0.0,0.0,-61668000.0,0.0,-61668000.0,-2.57,-2.57,23952562.0,23952562.0,0.0,0.0,0.0,0.0,0.0,0.0,-61605000.0,-61976000.0,-61668000.0,0.0,0.0
2014-12-31,0.0,0.0,0.0,0.0,31803000.0,7836000.0,39639000.0,-39639000.0,39000.0,0.0,1000.0,0.0,0.0,-42877000.0,0.0,-42877000.0,-5.46,-5.46,7853228.0,7853228.0,0.0,0.0,0.0,0.0,0.0,0.0,-39386000.0,-39639000.0,-42877000.0,0.0,0.0
2013-12-31,0.0,0.0,0.0,0.0,16336000.0,3514000.0,19850000.0,-19850000.0,2528000.0,-19559000.0,0.0,0.0,0.0,-19559000.0,539000.0,-20098000.0,-268.79,-268.79,,74772.0,0.0,0.0,,0.0,,0.0,-16774000.0,-17031000.0,-19559000.0,0.0,0.0
2012-12-31,0.0,,0.0,0.0,8523000.0,2408000.0,10931000.0,-10931000.0,444000.0,-7569000.0,0.0,0.0,0.0,-7569000.0,801000.0,-8370000.0,-118.99,-118.99,,70343.0,0.0,0.0,,0.0,,0.0,-6933000.0,-7125000.0,-7569000.0,0.0,0.0
