,0,1,2,3,4,5,6,7,8,9,10,11,12,13,14,15,16,17,18,19,20,21,22,23,24,25,26,27,28
Date,Cash and cash equivalents,Short-term investments,Cash and short-term investments,Receivables,Inventories,Total current assets,Property Plant & Equipment Net,Goodwill and Intangible Assets,Long-term investments,Tax assets,Total non-current assets,Total assets,Payables,Short-term debt,Total current liabilities,Long-term debt,Total debt,Deferred revenue,Tax Liabilities,Deposit Liabilities,Total non-current liabilities,Total liabilities,Other comprehensive income,Retained earnings (deficit),Total shareholders equity,Investments,Net Debt,Other Assets,Other Liabilities
2018-12-31,8430458.0,25533767.0,33964225.0,824542.0,0.0,34788767.0,6621080.0,877869.0,6013890.0,1898141.0,258047312.0,292836079.0,0.0,0.0,0.0,12100000.0,12100000.0,0.0,0.0,223448529.0,12209267.0,240011713.0,33962629.0,18859232.0,52824366.0,31547657.0,3669542.0,0.0,227802446.0
2017-12-31,3755817.0,26045675.0,29801492.0,794449.0,0.0,30595941.0,6670088.0,935869.0,1328893.0,1870490.0,224803934.0,255399875.0,0.0,4000000.0,4000000.0,15100000.0,19100000.0,0.0,0.0,182774624.0,15284246.0,203498954.0,33992862.0,17720962.0,51900921.0,27374568.0,15344183.0,0.0,184214708.0
2016-12-31,5946649.0,44560680.0,50507329.0,785484.0,0.0,51292813.0,6843906.0,1008869.0,2030090.0,2593786.0,178868571.0,230161384.0,0.0,0.0,0.0,1121153.0,1121153.0,0.0,0.0,172547021.0,1372820.0,178224980.0,34377034.0,17455472.0,51936404.0,46590770.0,-4825496.0,0.0,176852160.0
2015-12-31,8989719.0,250000.0,9239719.0,0.0,0.0,10095728.0,7058047.0,1100869.0,5289000.0,2725354.0,,213563351.0,0.0,1002431.0,177737733.0,2139000.0,2139117.0,0.0,0.0,176734908.0,,182475074.0,437925.0,16194374.0,30711734.0,188453229.0,,,176735302.0
2014-12-31,7710096.0,,,0.0,0.0,,7040228.0,1216869.0,,3055068.0,,221724891.0,0.0,,,,5483036.0,0.0,0.0,182233019.0,,191592477.0,327255.0,15423412.0,29707684.0,197054295.0,,,
