,0,1,2,3,4,5,6,7,8,9,10,11,12,13,14
Date,Depreciation & Amortization,Stock-based compensation,Operating Cash Flow,Capital Expenditure,Acquisitions and disposals,Investment purchases and sales,Investing Cash flow,Issuance (repayment) of debt,Issuance (buybacks) of shares,Dividend payments,Financing Cash Flow,Effect of forex changes on cash,Net cash flow / Change in cash,Free Cash Flow,Net Cash/Marketcap
2018-12-31,11000.0,126000.0,-6633000.0,0.0,-0.0,3437000.0,5045000.0,-0.0,0.0,-0.0,2000000.0,0.0,412000.0,-6633000.0,0.0
2017-12-31,108000.0,127000.0,-26310000.0,6000.0,-0.0,489000.0,24983000.0,-0.0,-1061000.0,-2091000.0,-3152000.0,0.0,-4479000.0,-26316000.0,0.0
2016-12-31,42000.0,119000.0,416000.0,11000.0,-0.0,-3734000.0,6869000.0,-0.0,-742000.0,-2885000.0,-3627000.0,0.0,3658000.0,405000.0,0.0
2015-12-31,18000.0,117000.0,8126000.0,36000.0,-0.0,32000.0,-1951000.0,-0.0,-8584000.0,-2908000.0,-2908000.0,0.0,3267000.0,8090000.0,0.0
2014-12-31,13000.0,0.0,8679000.0,59000.0,-0.0,-3682000.0,-29299000.0,-0.0,-5312000.0,-1708000.0,25242000.0,0.0,4622000.0,8620000.0,0.0
