,0,1,2,3,4,5,6,7,8,9,10,11,12,13,14,15,16,17,18,19,20,21,22,23,24,25,26,27,28
Date,Cash and cash equivalents,Short-term investments,Cash and short-term investments,Receivables,Inventories,Total current assets,Property Plant & Equipment Net,Goodwill and Intangible Assets,Long-term investments,Tax assets,Total non-current assets,Total assets,Payables,Short-term debt,Total current liabilities,Long-term debt,Total debt,Deferred revenue,Tax Liabilities,Deposit Liabilities,Total non-current liabilities,Total liabilities,Other comprehensive income,Retained earnings (deficit),Total shareholders equity,Investments,Net Debt,Other Assets,Other Liabilities
2019-12-31,181270000.0,154300000.0,335570000.0,13669000.0,11096000.0,215881000.0,7095000.0,2570000.0,0.0,2163000.0,19371000.0,235252000.0,2420000.0,984000.0,13819000.0,7710000.0,8694000.0,19000.0,105000.0,0.0,8028000.0,21561000.0,304909000.0,-84033000.0,213691000.0,154300000.0,-172576000.0,0.0,0.0
2018-12-31,192844000.0,0.0,192844000.0,9158000.0,7767000.0,216780000.0,7144000.0,2544000.0,0.0,1052000.0,15340000.0,232120000.0,2801000.0,85000.0,18008000.0,106000.0,191000.0,125000.0,1616000.0,0.0,1158000.0,18114000.0,303015000.0,-80762000.0,214006000.0,0.0,-192653000.0,0.0,0.0
2017-12-31,90332000.0,0.0,90332000.0,16981000.0,10142000.0,120482000.0,9067000.0,11816000.0,0.0,2486000.0,23754000.0,144236000.0,6842000.0,91000.0,22445000.0,29904000.0,29995000.0,36000.0,0.0,0.0,32754000.0,56607000.0,294613000.0,-201541000.0,87629000.0,0.0,-60337000.0,0.0,1408000.0
2016-12-31,59110000.0,0.0,59110000.0,13265000.0,7437000.0,82202000.0,7793000.0,14839000.0,0.0,6077000.0,41810000.0,124012000.0,3201000.0,84000.0,18490000.0,29601000.0,29685000.0,41000.0,0.0,0.0,33412000.0,51048000.0,249128000.0,-168656000.0,72964000.0,0.0,-29425000.0,0.0,0.0
2015-12-31,83715000.0,0.0,83715000.0,7058000.0,7099000.0,101464000.0,6284000.0,224000.0,0.0,0.0,8388000.0,109852000.0,3799000.0,79000.0,15481000.0,386000.0,465000.0,1654000.0,0.0,0.0,386000.0,17160000.0,244033000.0,-146307000.0,92692000.0,0.0,-83250000.0,0.0,1293000.0
2014-12-31,50165000.0,0.0,50165000.0,6823000.0,6425000.0,66368000.0,4537000.0,323000.0,0.0,428000.0,7481000.0,73849000.0,2368000.0,137000.0,11568000.0,454000.0,591000.0,1993000.0,0.0,0.0,882000.0,13240000.0,186816000.0,-121829000.0,60609000.0,0.0,-49574000.0,0.0,790000.0
2013-12-31,76581000.0,0.0,76581000.0,4754000.0,5450000.0,89027000.0,2964000.0,331000.0,362000.0,0.0,3717000.0,92744000.0,2310000.0,170000.0,11133000.0,563000.0,733000.0,1540000.0,177000.0,0.0,859000.0,11992000.0,-3748000.0,-99655000.0,80752000.0,362000.0,-75848000.0,2242000.0,8653000.0
2012-12-31,12965000.0,0.0,12965000.0,5400000.0,3073000.0,22780000.0,2249000.0,107000.0,287000.0,0.0,2703000.0,25483000.0,1754000.0,1627000.0,8391000.0,143000.0,1770000.0,908000.0,140000.0,0.0,143000.0,8534000.0,-3622000.0,-90991000.0,16949000.0,287000.0,-11195000.0,1342000.0,5010000.0
