,0,1,2,3,4,5,6,7,8,9,10,11,12,13,14,15,16,17,18,19,20,21,22,23,24,25,26,27,28,29,30
Date,Revenue,Revenue Growth,Cost of Revenue,Gross Profit,R&D Expenses,SG&A Expense,Operating Expenses,Operating Income,Interest Expense,Earnings before Tax,Income Tax Expense,Net Income - Non-Controlling int,Net Income - Discontinued ops,Net Income,Preferred Dividends,Net Income Com,EPS,EPS Diluted,Weighted Average Shs Out,Weighted Average Shs Out (Dil),Dividend per Share,Gross Margin,EBITDA Margin,EBIT Margin,Profit Margin,Free Cash Flow margin,EBITDA,EBIT,Consolidated Income,Earnings Before Tax Margin,Net Profit Margin
2018-03,40000000.0,,,,,,2000000.0,38000000.0,13000000.0,76000000.0,,,,38000000.0,,38000000.0,,,,,,0.0,0.0,1.275,0.95,,,51000000.0,38000000.0,1.9,0.95
2017-03,107000000.0,,,,,,2000000.0,105000000.0,12000000.0,210000000.0,,,,105000000.0,,105000000.0,,,,,,0.0,0.0,1.0934579439252,0.9813084112149499,,,117000000.0,105000000.0,1.9626168224298999,0.9813084112149499
2016-03,-83000000.0,,,,,,2000000.0,-86000000.0,15000000.0,-172000000.0,,,,-86000000.0,,-86000000.0,,,,,,,,,,,,-71000000.0,-86000000.0,,
2015-03,6000000.0,,,,,,3000000.0,3000000.0,11000000.0,7000000.0,,,,3000000.0,,3000000.0,,,,,,0.0,0.0,2.3333333333332997,0.5,,,14000000.0,3000000.0,1.1666666666667,0.5
2014-03,25000000.0,,,,,,3000000.0,23000000.0,5000000.0,45000000.0,,,,23000000.0,,23000000.0,,,,,,0.0,0.0,1.12,0.92,,,28000000.0,23000000.0,1.8,0.92
