,0,1,2,3,4,5,6,7,8,9,10,11,12,13,14
Date,Depreciation & Amortization,Stock-based compensation,Operating Cash Flow,Capital Expenditure,Acquisitions and disposals,Investment purchases and sales,Investing Cash flow,Issuance (repayment) of debt,Issuance (buybacks) of shares,Dividend payments,Financing Cash Flow,Effect of forex changes on cash,Net cash flow / Change in cash,Free Cash Flow,Net Cash/Marketcap
2018-03,,,-71000000.0,,,0.0,,,,,77000000.0,,6000000.0,-71000000.0,
2017-03,,,-1000000.0,,,0.0,,,,,-6000000.0,,-6000000.0,-1000000.0,
2016-03,,,31000000.0,,,0.0,,,,,-19000000.0,,13000000.0,31000000.0,
2015-03,,,-135000000.0,,,0.0,,,,,40000000.0,,-96000000.0,-135000000.0,
2014-03,,,-73000000.0,,,0.0,,,,,161000000.0,,87000000.0,-73000000.0,
