,0,1,2,3,4,5,6,7,8,9,10,11,12,13,14,15,16,17,18,19,20,21,22,23,24,25,26,27,28,29,30
Date,Revenue,Revenue Growth,Cost of Revenue,Gross Profit,R&D Expenses,SG&A Expense,Operating Expenses,Operating Income,Interest Expense,Earnings before Tax,Income Tax Expense,Net Income - Non-Controlling int,Net Income - Discontinued ops,Net Income,Preferred Dividends,Net Income Com,EPS,EPS Diluted,Weighted Average Shs Out,Weighted Average Shs Out (Dil),Dividend per Share,Gross Margin,EBITDA Margin,EBIT Margin,Profit Margin,Free Cash Flow margin,EBITDA,EBIT,Consolidated Income,Earnings Before Tax Margin,Net Profit Margin
2018-12-31,0.0,0.0,0.0,0.0,13755000.0,2981000.0,16736000.0,-16736000.0,0.0,-16503000.0,0.0,0.0,0.0,-16503000.0,0.0,-16503000.0,-11.69,-11.69,,1411966.0,0.0,0.0,,0.0,,0.0,-16503000.0,-16503000.0,-16503000.0,0.0,0.0
2017-12-31,0.0,,0.0,0.0,3632000.0,2051000.0,5683000.0,-5683000.0,488000.0,-6601000.0,0.0,0.0,0.0,-6601000.0,12543000.0,-19144000.0,-13.56,-13.56,,1411966.0,0.0,0.0,,0.0,,0.0,-6113000.0,-6113000.0,-6601000.0,0.0,0.0
