,0,1,2,3,4,5,6,7,8,9,10,11,12,13,14,15,16,17,18,19,20,21,22,23,24,25,26,27,28,29,30
Date,Revenue,Revenue Growth,Cost of Revenue,Gross Profit,R&D Expenses,SG&A Expense,Operating Expenses,Operating Income,Interest Expense,Earnings before Tax,Income Tax Expense,Net Income - Non-Controlling int,Net Income - Discontinued ops,Net Income,Preferred Dividends,Net Income Com,EPS,EPS Diluted,Weighted Average Shs Out,Weighted Average Shs Out (Dil),Dividend per Share,Gross Margin,EBITDA Margin,EBIT Margin,Profit Margin,Free Cash Flow margin,EBITDA,EBIT,Consolidated Income,Earnings Before Tax Margin,Net Profit Margin
2018-12-31,784495000.0,-0.0395836087891,683598000.0,100897000.0,11138000.0,22649000.0,62561000.0,38336000.0,8139000.0,31441000.0,21147000.0,1747000.0,0.0,10294000.0,0.0,10294000.0,0.07,0.07,153302976.0,153315000.0,0.14,0.1286,0.23800000000000002,0.0505,0.013000000000000001,0.0241,186869000.0,39580000.0,12041000.0,0.0401,0.0131
2017-12-31,816828000.0,0.05427769352390001,648068000.0,168760000.0,19755000.0,21397000.0,-15694000.0,184454000.0,7185000.0,180025000.0,59034000.0,2460000.0,0.0,120991000.0,0.0,120991000.0,0.79,0.79,152334652.0,153070000.0,0.1,0.2066,0.38,0.2292,0.14800000000000002,0.0781,310098000.0,187210000.0,123451000.0,0.2204,0.1481
2016-12-31,774775000.0,0.14834560567299998,575896000.0,198879000.0,11334000.0,23663000.0,13299000.0,185580000.0,9551000.0,174531000.0,74446000.0,1740000.0,0.0,100085000.0,0.0,100085000.0,0.66,0.66,151883734.0,152118000.0,0.052000000000000005,0.2567,0.387,0.2376,0.129,0.0367,300037000.0,184082000.0,101825000.0,0.2253,0.1292
2015-12-31,674688000.0,-0.102739307021,706777000.0,-32089000.0,11940000.0,18027000.0,179863000.0,-211952000.0,8452000.0,-230849000.0,-4199000.0,4906000.0,0.0,-226650000.0,0.0,-226650000.0,-1.49,-1.49,151643372.0,151664000.0,0.275,-0.0476,-0.106,-0.3296,-0.336,-0.0851,-71552000.0,-222397000.0,-231556000.0,-0.3422,-0.3359
2014-12-31,751942000.0,-0.08800685017899999,743869000.0,8073000.0,13225000.0,17908000.0,627564000.0,-619491000.0,8739000.0,-637317000.0,-92494000.0,-765000.0,0.0,-544823000.0,0.0,-544823000.0,-3.6,-3.6,151500294.0,151511000.0,0.5,0.0107,-0.64,-0.8359,-0.725,-0.0076,-480868000.0,-628578000.0,-545588000.0,-0.8476,-0.7246
2013-12-31,824504000.0,-0.112094198326,692985000.0,131519000.0,15475000.0,17596000.0,559231000.0,-427712000.0,10277000.0,-429089000.0,16757000.0,5000.0,0.0,-445846000.0,0.0,-445846000.0,-2.94,-2.96,151820635.0,151501000.0,0.5,0.1595,-0.34299999999999997,-0.508,-0.541,-0.0317,-282899000.0,-418812000.0,-445841000.0,-0.5204,-0.5407
2012-12-31,928594000.0,0.0857256437988,624649000.0,303945000.0,36746000.0,20790000.0,158685000.0,145260000.0,7678000.0,173763000.0,95562000.0,154000.0,0.0,78201000.0,0.0,78201000.0,0.56,0.49,104492743.0,140883000.0,0.17600000000000002,0.3273,0.308,0.1954,0.084,0.0378,285850000.0,181441000.0,78355000.0,0.1871,0.0842
2011-12-31,855275000.0,0.322822722963,446150000.0,409125000.0,27727000.0,18291000.0,44828000.0,364297000.0,6199000.0,469612000.0,117118000.0,1652000.0,0.0,352494000.0,0.0,352494000.0,3.31,3.31,107791368.0,106434000.0,0.1,0.4784,0.653,0.5563,0.41200000000000003,0.2827,558567000.0,475811000.0,354146000.0,0.5491,0.4121
2010-12-31,646553000.0,0.421582983738,405438000.0,241115000.0,24527000.0,17109000.0,45739000.0,195376000.0,5730000.0,103926000.0,90215000.0,1996000.0,0.0,13711000.0,0.0,13711000.0,0.13,0.13,105117000.0,106969000.0,0.075,0.3729,0.298,0.1696,0.021,0.2561,192740000.0,109656000.0,15707000.0,0.1607,0.0212
2009-12-31,454812000.0,0.3432,328806000.0,126006000.0,9934000.0,12769000.0,30296000.0,95710000.0,4292000.0,89754000.0,27756000.0,0.0,0.0,61998000.0,0.0,61998000.0,0.71,0.71,80786107.0,87578000.0,0.0,0.2771,0.39,0.2068,0.136,0.1388,177215000.0,94046000.0,61998000.0,0.1973,0.1363
