,0,1,2,3,4,5,6,7,8,9,10,11,12,13,14,15,16,17,18,19,20,21,22,23,24,25,26,27,28,29,30
Date,Revenue,Revenue Growth,Cost of Revenue,Gross Profit,R&D Expenses,SG&A Expense,Operating Expenses,Operating Income,Interest Expense,Earnings before Tax,Income Tax Expense,Net Income - Non-Controlling int,Net Income - Discontinued ops,Net Income,Preferred Dividends,Net Income Com,EPS,EPS Diluted,Weighted Average Shs Out,Weighted Average Shs Out (Dil),Dividend per Share,Gross Margin,EBITDA Margin,EBIT Margin,Profit Margin,Free Cash Flow margin,EBITDA,EBIT,Consolidated Income,Earnings Before Tax Margin,Net Profit Margin
2018-12-31,720555612.2449,0.146160672653,125189897.9592,595365714.2857,0.0,0.0,229472857.1429,365892857.1429,51653622.44899999,357534285.7143,95359234.6939,0.0,0.0,262175051.0204,0.0,262175051.0204,4.89,4.89,24329081.6327,26815078.9286,0.2608,0.8263,0.0346,0.5679,0.0186,0.4959,489271428.5714,409187908.1633,262175051.0204,0.4962,0.3639
2017-12-31,628668937.4682,0.173395708706,107290645.6533,521378291.8149,0.0,0.0,206288815.455,315089476.3599,31479766.1413,313763192.6792,73240518.5562,0.0,0.0,240522674.123,0.0,240522674.123,4.4971,4.4971,24242501.270999998,26719651.6014,0.1495,0.8293,0.0339,0.5492,0.0195,0.4905,418631977.6309,345242958.8205,240522674.123,0.4991,0.3826
2016-12-31,535768907.9684,0.139157805601,85971975.6898,449796932.2786,0.0,0.0,197308170.9435,252488761.3351,18411537.7195,222850279.7608,61092658.6919,0.0,0.0,161757621.0689,0.0,161757621.0689,3.0119,3.0119,23000675.2846,25350933.1951,0.1949,0.8395,0.0276,0.4503,0.0146,0.4709,306300742.81299996,241261817.4802,161757621.0689,0.4159,0.3019
2015-12-31,470320183.3266,0.250478065393,90401926.0892,379918257.2373,0.0,0.0,157490456.576,222427800.6614,12142716.2499,209902303.185,49156407.7276,0.0,0.0,160745895.4574,0.0,160745895.4574,3.0091,3.0091,27664326.739,30491126.4721,0.2118,0.8078,0.0357,0.4721,0.0198,0.5809,289135290.3638,222045019.4349,160745895.4574,0.4463,0.3418
2014-12-31,376112301.6411,-0.0615602971084,78773091.0077,297339210.6334,0.0,0.0,112769496.8127,184569713.8207,5872846.8737,186972670.5547,34896175.234,0.0,0.0,152076495.3208,0.0,152076495.3208,2.8932,2.8932,32337583.0734,35646056.2186,0.3074,0.7906,0.0461,0.5127,0.0274,0.6489,255589312.3559,192845517.4285,152076495.3208,0.4971,0.4043
2013-12-31,400784728.6109,0.051269565793399995,86549448.0221,314235280.5888,0.0,0.0,132870361.8522,181364918.7366,13733900.644000001,178014259.4296,5810180.9261,0.0,0.0,172204078.5035,0.0,172204078.5035,3.2488,3.2488,36557037.7185,40636448.2521,0.1395,0.7841,0.0496,0.4784,0.033,0.5522,259460134.9279,191748160.0736,172204078.5035,0.4442,0.4297
2012-12-31,381238781.8042,0.0770826536749,81727216.6538,299511565.1503,0.0,0.0,136558442.5598,162953122.5906,9353816.4996,161871935.2352,25246646.1064,0.0,0.0,136625289.1288,0.0,136625289.1288,2.5743,2.5743,36765612.953,40919090.2082,0.2172,0.7856,0.0475,0.4491,0.0276,0.4486,235006013.8782,171225751.7348,136625289.1288,0.4246,0.3584
2011-12-31,353954991.758,0.0014916590636400002,70733032.3228,283221959.4352,0.0,0.0,151635920.5906,131586038.8447,6719200.172,134260589.1206,18759979.9326,0.0,0.0,115500609.188,0.0,115500609.188,2.1479,2.1479,34175446.1406,38540463.9146,0.1118,0.8002,0.0393,0.3983,0.0234,0.3151,194227764.6384,140979789.2926,115500609.188,0.3793,0.3263
2010-12-31,353427797.9798,0.417502741236,77888646.4646,275539151.5152,0.0,0.0,149530909.0909,126008242.4242,10930747.4747,128938343.4343,7713292.9293,0.0,0.0,121225050.5051,0.0,121225050.5051,2.1715,2.1715,38533333.3333,45110756.3636,0.1401,0.7796,0.0482,0.3958,0.0277,0.483,210975434.3434,139869090.9091,121225050.5051,0.3648,0.34299999999999997
2009-12-31,249331297.7099,-0.013000000000000001,66359923.6641,182971374.0458,0.0,0.0,84203282.4427,98768091.6031,5768244.2748,102317633.5878,10757022.9008,0.0,0.0,91560610.687,0.0,91560610.687,1.6336,1.6336,36400763.3588,42784272.6718,0.1152,0.7338,0.0524,0.4335,0.027999999999999997,0.5296,171355725.1908,108085877.8626,91560610.687,0.4104,0.3672
