,0,1,2,3,4,5,6,7,8,9,10,11,12,13,14,15,16,17,18,19,20,21,22,23,24,25,26,27,28,29,30
Date,Revenue,Revenue Growth,Cost of Revenue,Gross Profit,R&D Expenses,SG&A Expense,Operating Expenses,Operating Income,Interest Expense,Earnings before Tax,Income Tax Expense,Net Income - Non-Controlling int,Net Income - Discontinued ops,Net Income,Preferred Dividends,Net Income Com,EPS,EPS Diluted,Weighted Average Shs Out,Weighted Average Shs Out (Dil),Dividend per Share,Gross Margin,EBITDA Margin,EBIT Margin,Profit Margin,Free Cash Flow margin,EBITDA,EBIT,Consolidated Income,Earnings Before Tax Margin,Net Profit Margin
2018-12-31,1117188659.7938,0.465892700708,552757474.2268,564431185.5669999,0.0,240491494.8454,240491494.8454,323939690.7216,8043556.701,313526288.6598,79179123.7113,294072.1649,0.0,234347164.9485,0.0,234347164.9485,0.7376,0.7366,67600156.4433,67600156.4433,0.0,0.5052,0.0799,0.2878,0.0541,-0.4653,346147938.1443,321569845.3608,234641237.1134,0.2806,0.2098
2017-12-31,762121715.4938,1.1798146546600001,399993959.5288,362127755.965,0.0,120488070.0695,120488070.0695,241639685.8955,31574750.8306,206430383.5699,61827242.5249,3926.3063,0.0,144603141.045,0.0,144603141.045,0.5512,0.5512,79217338.2664,79217338.2664,0.0,0.4752,0.1006,0.3123,0.0574,0.1371,253580791.3017,238005134.4005,144607067.3513,0.2709,0.1897
2016-12-31,349626842.7518,1.04517094646,191543918.9189,158082923.8329,0.0,87345823.0958,87345823.0958,70737100.7371,20976965.602,47532555.2826,8470515.9705,182125.3071,0.0,39062039.312,0.0,39062039.312,0.149,0.149,307000000.0,,0.0,0.4521,0.0685,0.196,0.0344,0.004,78105958.231,68509520.8845,39244164.6192,0.136,0.1117
2015-12-31,170952380.9524,,96880192.5025,74072188.4498,0.0,56679584.5998,56679584.5998,17392603.8501,7521783.1814,10108915.9068,1222391.0841,102836.8794,0.0,8886524.8227,0.0,8886524.8227,0.0339,0.0339,307000000.0,,0.0,0.4333,0.0332,0.1031,0.0132,0.0081,22426291.7933,17630699.0881,8989361.7021,0.0591,0.052000000000000005
