,0,1,2,3,4,5,6,7,8,9,10,11,12,13,14
Date,Depreciation & Amortization,Stock-based compensation,Operating Cash Flow,Capital Expenditure,Acquisitions and disposals,Investment purchases and sales,Investing Cash flow,Issuance (repayment) of debt,Issuance (buybacks) of shares,Dividend payments,Financing Cash Flow,Effect of forex changes on cash,Net cash flow / Change in cash,Free Cash Flow,Net Cash/Marketcap
2017-12,354000000.0,0.0,182000000.0,-59000000.0,,-40000000.0,-93000000.0,-4122000000.0,,,-67000000.0,33000000.0,55000000.0,123000000.0,
2016-12,342000000.0,0.0,185000000.0,-56000000.0,,-36000000.0,-75000000.0,-3340000000.0,,,-102000000.0,-18000000.0,-10000000.0,128000000.0,
2015-12,251000000.0,1000000.0,321000000.0,-48000000.0,,-34000000.0,-4256000000.0,-296000000.0,,,4001000000.0,-31000000.0,35000000.0,273000000.0,
2014-12,88000000.0,1000000.0,98000000.0,-18000000.0,,0.0,-1983000000.0,-9000000.0,,,2169000000.0,-10000000.0,274000000.0,80000000.0,
2013-12,0.0,0.0,0.0,0.0,,0.0,0.0,0.0,,,0.0,0.0,0.0,0.0,
