,0,1,2,3,4,5,6,7,8,9,10,11,12,13,14
Date,Depreciation & Amortization,Stock-based compensation,Operating Cash Flow,Capital Expenditure,Acquisitions and disposals,Investment purchases and sales,Investing Cash flow,Issuance (repayment) of debt,Issuance (buybacks) of shares,Dividend payments,Financing Cash Flow,Effect of forex changes on cash,Net cash flow / Change in cash,Free Cash Flow,Net Cash/Marketcap
2018-12-31,58967718.8329,0.0,339432625.9947,-215481803.7135,0.0,89984244.0318,-125497559.6817,-32521511.9363,-37690344.8276,-114832572.9443,181574164.4562,177391724.1379,268287931.0345,123950822.2812,
2017-12-31,109200864.8649,0.0,300365837.8378,-104933243.2432,0.0,-104671567.5676,-209604810.8108,-3236540.5405,0.0,-324.3243,-3236864.8649,12162486.4865,87524162.1622,195432594.5946,
2016-12-31,131217859.60299999,0.0,258388941.0733,-63722837.9986,0.0,7481182.2907,-56241655.7079,-110966059.2398,0.0,-14208716.889,-125174776.1287,11069259.1897,76972509.2366,194666103.0747,
2015-12-31,55628525.0715,0.0,337325195.0861,-370702310.129,0.0,-201653403.3841,-549717994.2826,128100131.3451,0.0,0.0,220350768.7553,6103685.3898,7957969.5588,-33377115.0429,
2014-12-31,55070754.717,825471.6981,258608490.56599998,-274646226.4151,0.0,15801886.7925,-291509433.9623,-35731132.0755,0.0,0.0,27476415.0943,4599056.6038,-5424528.3019,-16037735.8491,
2013-12-31,57518605.1258,1372828.7293,254173817.833,-161121189.8404,-31520.2578,-51728728.361,-223540188.4592,-18890089.1651,0.0,0.0,-11806507.213,7856098.2198,18827122.1608,93052627.9926,
2012-12-31,76101291.5565,1820010.5799,246602043.1333,-130296192.8789,-40399.7965,-5372434.3845,-183750773.9573,-138150991.8616,0.0,-2846882.6043,-113167637.0295,8480611.1902,-50316367.8535,116305850.2543,
2011-12-31,85599175.5406,2079830.737,251449073.2388,-154688970.937,-75377278.7724,11025415.0198,-385381858.405,83527987.4448,0.0,-4210928.6213,89080565.4499,22592009.5327,-44852219.7163,96760102.3018,
2010-12-31,88245815.4582,2252102.719,166219478.0967,-141164012.3364,0.0,14731809.1641,-126432203.1722,86348074.0181,0.0,-3970727.8449,79257752.2659,0.0,119045027.1903,25055465.7603,
2009-12-31,89060827.1962,2909348.2378,241608141.5045,-256190852.4461,13880428.4587,97872977.6433,-144437446.34399998,-59803747.5013,-22259478.6954,-4417995.0026,-86481221.1994,0.0,10689473.9611,-14582710.9416,
