,0,1,2,3,4,5,6,7,8,9,10,11,12,13,14,15,16,17,18,19,20,21,22,23,24,25,26,27,28,29,30
Date,Revenue,Revenue Growth,Cost of Revenue,Gross Profit,R&D Expenses,SG&A Expense,Operating Expenses,Operating Income,Interest Expense,Earnings before Tax,Income Tax Expense,Net Income - Non-Controlling int,Net Income - Discontinued ops,Net Income,Preferred Dividends,Net Income Com,EPS,EPS Diluted,Weighted Average Shs Out,Weighted Average Shs Out (Dil),Dividend per Share,Gross Margin,EBITDA Margin,EBIT Margin,Profit Margin,Free Cash Flow margin,EBITDA,EBIT,Consolidated Income,Earnings Before Tax Margin,Net Profit Margin
2019-06-30,49679000.0,-0.0822957845347,0.0,0.0,0.0,22647000.0,22647000.0,23846000.0,4480000.0,23846000.0,4830000.0,0.0,0.0,19016000.0,0.0,19016000.0,0.0,0.0,0.0,0.0,0.0,0.0,0.547374141992,0.480001610338,0.382777431108,0.07739688802110001,27193000.0,23846000.0,19016000.0,0.480001610338,0.382777431108
2018-06-30,54134000.0,0.238424231332,0.0,54134000.0,0.0,30802000.0,36325000.0,17809000.0,0.0,17809000.0,6310000.0,0.0,0.0,11499000.0,0.0,11499000.0,,,,,0.0,1.0,0.37799999999999995,0.32899999999999996,0.212,0.2782,20447000.0,17809000.0,11499000.0,0.32899999999999996,0.2124
2017-06-30,43712000.0,,0.0,43712000.0,0.0,30416000.0,35366000.0,8346000.0,0.0,8346000.0,2715000.0,0.0,0.0,5631000.0,0.0,5631000.0,,,,,0.0,1.0,0.23600000000000002,0.1909,0.129,0.0572,10307000.0,8346000.0,5631000.0,0.1909,0.1288
