,0,1,2,3,4,5,6,7,8,9,10,11,12,13,14,15,16,17,18,19,20,21,22,23,24,25,26,27,28,29,30
Date,Revenue,Revenue Growth,Cost of Revenue,Gross Profit,R&D Expenses,SG&A Expense,Operating Expenses,Operating Income,Interest Expense,Earnings before Tax,Income Tax Expense,Net Income - Non-Controlling int,Net Income - Discontinued ops,Net Income,Preferred Dividends,Net Income Com,EPS,EPS Diluted,Weighted Average Shs Out,Weighted Average Shs Out (Dil),Dividend per Share,Gross Margin,EBITDA Margin,EBIT Margin,Profit Margin,Free Cash Flow margin,EBITDA,EBIT,Consolidated Income,Earnings Before Tax Margin,Net Profit Margin
2018-12-31,95584000000.0,0.07606921318969999,61517000000.0,34067000000.0,1166000000.0,7086000000.0,11009000000.0,23058000000.0,5790000000.0,11857000000.0,4684000000.0,241000000.0,0.0,7173000000.0,0.0,7173000000.0,1.1,1.1,13044496930.0,13044496930.0,0.134,0.3564,0.31,0.1846,0.075,0.1499,29675000000.0,17647000000.0,7414000000.0,0.124,0.075
2017-12-31,88827000000.0,0.09117376082550001,60147000000.0,28680000000.0,1372000000.0,7456000000.0,11862000000.0,16818000000.0,7395000000.0,1737000000.0,1828000000.0,260000000.0,0.0,-91000000.0,0.0,-91000000.0,-0.02,-0.02,13044496930.0,13044496930.0,0.0,0.3229,0.253,0.1028,-0.001,0.1517,22439000000.0,9132000000.0,169000000.0,0.0196,-0.001
2016-12-31,81405000000.0,-0.163481102411,55417000000.0,25988000000.0,2284000000.0,7282000000.0,16473000000.0,9515000000.0,6958000000.0,-4154000000.0,684000000.0,489000000.0,0.0,-4838000000.0,0.0,-4838000000.0,-0.74,-0.74,3721000000.0,,0.0,0.3192,0.20600000000000002,0.0344,-0.059000000000000004,0.1478,16769000000.0,2804000000.0,-4349000000.0,-0.051,-0.0594
2015-12-31,97314000000.0,,67485000000.0,29829000000.0,2541000000.0,7978000000.0,25614000000.0,4215000000.0,6437000000.0,-9587000000.0,-1137000000.0,-161000000.0,0.0,-8450000000.0,0.0,-8450000000.0,-1.3,-1.3,3721000000.0,,0.0,0.3065,0.087,-0.0324,-0.087,0.0445,8441000000.0,-3150000000.0,-8611000000.0,-0.0985,-0.0868
