,0,1,2,3,4,5,6,7,8,9,10,11,12,13,14,15,16,17,18,19,20,21,22,23,24,25,26,27,28,29,30
Date,Revenue,Revenue Growth,Cost of Revenue,Gross Profit,R&D Expenses,SG&A Expense,Operating Expenses,Operating Income,Interest Expense,Earnings before Tax,Income Tax Expense,Net Income - Non-Controlling int,Net Income - Discontinued ops,Net Income,Preferred Dividends,Net Income Com,EPS,EPS Diluted,Weighted Average Shs Out,Weighted Average Shs Out (Dil),Dividend per Share,Gross Margin,EBITDA Margin,EBIT Margin,Profit Margin,Free Cash Flow margin,EBITDA,EBIT,Consolidated Income,Earnings Before Tax Margin,Net Profit Margin
2017-12,31000000.0,,,31000000.0,,1000000.0,,,,,,,,29000000.0,,29000000.0,0.63,0.63,47000000.0,47000000.0,,1.0,0.0,0.93548387096774,0.93548387096774,,,29000000.0,29000000.0,0.0,0.93548387096774
2016-12,21000000.0,,,21000000.0,,1000000.0,,,,,,,,19000000.0,,19000000.0,0.42,0.42,47000000.0,47000000.0,,1.0,0.0,0.9047619047619,0.9047619047619,,,19000000.0,19000000.0,0.0,0.9047619047619
2015-12,18000000.0,,,18000000.0,,1000000.0,,,,,,,,16000000.0,,16000000.0,0.34,0.34,47000000.0,47000000.0,,1.0,0.0,0.88888888888889,0.88888888888889,,,16000000.0,16000000.0,0.0,0.88888888888889
2014-12,49000000.0,,,49000000.0,,1000000.0,,,,,,,,48000000.0,,48000000.0,1.02,1.02,47000000.0,47000000.0,,1.0,0.0,0.97959183673469,0.97959183673469,,,48000000.0,48000000.0,0.0,0.97959183673469
2013-12,42000000.0,,,42000000.0,,1000000.0,,,,,,,,41000000.0,,41000000.0,0.87,0.87,47000000.0,47000000.0,,1.0,0.0,0.9761904761904799,0.9761904761904799,,,41000000.0,41000000.0,0.0,0.9761904761904799
