,0,1,2,3,4,5,6,7,8,9,10,11,12,13,14
Date,Depreciation & Amortization,Stock-based compensation,Operating Cash Flow,Capital Expenditure,Acquisitions and disposals,Investment purchases and sales,Investing Cash flow,Issuance (repayment) of debt,Issuance (buybacks) of shares,Dividend payments,Financing Cash Flow,Effect of forex changes on cash,Net cash flow / Change in cash,Free Cash Flow,Net Cash/Marketcap
2018-12-31,13440000.0,3059000.0,133670000.0,5741000.0,-0.0,0.0,-5776000.0,-275000.0,-6032000.0,-0.0,-129998000.0,-977000.0,6032000.0,127929000.0,0.0
2017-12-31,14181000.0,2605000.0,-64778000.0,17325000.0,-4806000.0,-11602000.0,-22131000.0,-1009000.0,-11602000.0,-0.0,88446000.0,404000.0,1941000.0,-82103000.0,0.0
2016-12-31,15784000.0,1961000.0,95618000.0,8705000.0,-0.0,-3608000.0,-10782000.0,-653000.0,-3608000.0,-0.0,-89129000.0,289000.0,-4004000.0,86913000.0,0.0
2015-12-31,12217000.0,1589000.0,-52436000.0,21380000.0,-0.0,-5854000.0,-66241000.0,-760000.0,-5854000.0,-0.0,122232000.0,-1271000.0,2284000.0,-73816000.0,0.0
2014-12-31,11893000.0,1502000.0,73264000.0,26666000.0,-0.0,-2151000.0,-26666000.0,-30000.0,-2151000.0,-0.0,-47181000.0,-517000.0,8892000.0,46598000.0,0.0
2013-12-31,11830000.0,1517000.0,922000.0,15498000.0,-0.0,-1633000.0,-15498000.0,-1163000.0,-1633000.0,-0.0,18389000.0,-356000.0,9992000.0,-14576000.0,0.0
2012-12-31,12496000.0,1900000.0,13574000.0,9446000.0,-0.0,-3910000.0,-9446000.0,-0.0,-3910000.0,-0.0,-7280000.0,203000.0,6535000.0,4128000.0,0.0
2011-12-31,10044000.0,2404000.0,-22053000.0,10865000.0,-0.0,-2557000.0,-30298000.0,-25000.0,-2557000.0,-0.0,51204000.0,-80000.0,9484000.0,-32918000.0,0.0
2010-12-31,8157000.0,2430000.0,28340000.0,-8000000.0,-8788000.0,0.0,-16788000.0,-9316000.0,-850000.0,0.0,-10239000.0,183000.0,1496000.0,20340000.0,-0.4897
2009-12-31,5597000.0,1704000.0,-8962000.0,-8240000.0,-1020000.0,0.0,-9260000.0,21546000.0,-1995000.0,0.0,19840000.0,849000.0,2467000.0,-17202000.0,-0.7801
