,0,1,2,3,4,5,6,7,8,9,10,11,12,13,14,15,16,17,18,19,20,21,22,23,24,25,26,27,28
Date,Cash and cash equivalents,Short-term investments,Cash and short-term investments,Receivables,Inventories,Total current assets,Property Plant & Equipment Net,Goodwill and Intangible Assets,Long-term investments,Tax assets,Total non-current assets,Total assets,Payables,Short-term debt,Total current liabilities,Long-term debt,Total debt,Deferred revenue,Tax Liabilities,Deposit Liabilities,Total non-current liabilities,Total liabilities,Other comprehensive income,Retained earnings (deficit),Total shareholders equity,Investments,Net Debt,Other Assets,Other Liabilities
2018-12-31,132526000.0,250928000.0,383454000.0,38000000.0,48569000.0,477969000.0,108670000.0,0.0,25871000.0,0.0,211384000.0,689353000.0,14368000.0,338000.0,60661000.0,290592000.0,290930000.0,0.0,90000.0,0.0,314366000.0,368127000.0,709691000.0,-388226000.0,321226000.0,276799000.0,158404000.0,0.0,0.0
2017-12-31,54126000.0,257221000.0,311347000.0,31658000.0,41411000.0,391110000.0,107046000.0,0.0,60047000.0,0.0,237261000.0,628371000.0,14658000.0,324000.0,56217000.0,276173000.0,276497000.0,102000.0,76000.0,0.0,299471000.0,348888000.0,669032000.0,-389136000.0,279483000.0,317268000.0,222371000.0,0.0,0.0
2016-12-31,35944000.0,136653000.0,172597000.0,29937000.0,31278000.0,243089000.0,101016000.0,46737000.0,0.0,0.0,148377000.0,391466000.0,7511000.0,0.0,44838000.0,108738000.0,108738000.0,595000.0,66000.0,0.0,127652000.0,172490000.0,565207000.0,-346238000.0,218976000.0,136653000.0,72794000.0,0.0,0.0
2015-12-31,56984000.0,101981000.0,158965000.0,25855000.0,61645000.0,252582000.0,90324000.0,30961000.0,13462000.0,0.0,137041000.0,389623000.0,8739000.0,105928000.0,151676000.0,105928000.0,211856000.0,1426000.0,208000.0,0.0,125483000.0,171231000.0,526696000.0,-308289000.0,218392000.0,115443000.0,154872000.0,0.0,0.0
2014-12-31,37520000.0,119138000.0,156658000.0,22366000.0,29263000.0,214257000.0,60632000.0,24164000.0,24431000.0,0.0,111815000.0,326072000.0,6758000.0,103100000.0,140010000.0,103100000.0,206200000.0,1426000.0,139000.0,0.0,118017000.0,154927000.0,481334000.0,-310145000.0,171145000.0,143569000.0,168680000.0,0.0,0.0
2013-12-31,12515000.0,59637000.0,72152000.0,14590000.0,15557000.0,106751000.0,48182000.0,11485000.0,0.0,0.0,63069000.0,169820000.0,3069000.0,98961000.0,121943000.0,0.0,98961000.0,1008000.0,420000.0,0.0,16502000.0,128571000.0,337639000.0,-296429000.0,41249000.0,59637000.0,86446000.0,0.0,0.0
2012-12-31,10126000.0,30924000.0,41050000.0,4352000.0,12077000.0,60922000.0,39116000.0,11505000.0,0.0,0.0,51132000.0,112054000.0,2569000.0,0.0,14156000.0,25191000.0,25191000.0,972000.0,420000.0,0.0,31186000.0,46199000.0,298315000.0,-232520000.0,65855000.0,30924000.0,15065000.0,0.0,857000.0
2011-12-31,46168000.0,29985000.0,76153000.0,2113000.0,1245000.0,82649000.0,25103000.0,5259000.0,0.0,0.0,30841000.0,113490000.0,3440000.0,7039000.0,31911000.0,18537000.0,25576000.0,13054000.0,0.0,0.0,29731000.0,65221000.0,228468000.0,-180239000.0,48269000.0,29985000.0,-20592000.0,0.0,3579000.0
2010-12-31,27447000.0,0.0,27447000.0,1191000.0,1605000.0,31055000.0,23950000.0,8912000.0,0.0,0.0,35507000.0,66562000.0,4315000.0,3182000.0,16322000.0,71664000.0,74846000.0,20405000.0,0.0,0.0,98623000.0,114945000.0,0.0,-136911000.0,-48383000.0,0.0,47399000.0,812000.0,8825000.0
2009-12-31,8293000.0,0.0,8293000.0,1455000.0,1729000.0,12549000.0,19560000.0,11178000.0,0.0,0.0,31405000.0,43954000.0,6994000.0,0.0,14417000.0,22173000.0,22173000.0,22733000.0,0.0,0.0,52486000.0,66903000.0,0.0,-109762000.0,-22949000.0,0.0,13880000.0,1072000.0,7423000.0
