,0,1,2,3,4,5,6,7,8,9,10,11,12,13,14
Date,Depreciation & Amortization,Stock-based compensation,Operating Cash Flow,Capital Expenditure,Acquisitions and disposals,Investment purchases and sales,Investing Cash flow,Issuance (repayment) of debt,Issuance (buybacks) of shares,Dividend payments,Financing Cash Flow,Effect of forex changes on cash,Net cash flow / Change in cash,Free Cash Flow,Net Cash/Marketcap
2019-06-30,34564000.0,38765000.0,115032000.0,11280000.0,-0.0,-285676000.0,-97280000.0,-0.0,-34991000.0,-0.0,114724000.0,0.0,132476000.0,103752000.0,0.0
2018-06-30,30645000.0,30354000.0,97866000.0,21676000.0,-0.0,0.0,-339358000.0,-0.0,-137193000.0,-0.0,275217000.0,0.0,33725000.0,76190000.0,0.0
2017-06-30,21027000.0,26734000.0,61980000.0,21338000.0,-0.0,0.0,259339000.0,-0.0,-103468000.0,-0.0,-304347000.0,0.0,16972000.0,40642000.0,0.0
2016-06-30,13873000.0,17563000.0,32993000.0,16083000.0,-0.0,0.0,-673360000.0,-0.0,-86496000.0,-0.0,645605000.0,0.0,86496000.0,16910000.0,0.0
2015-06-30,8609000.0,13169000.0,11105000.0,9020000.0,-0.0,0.0,-199172000.0,-0.0,-62891000.0,-0.0,190477000.0,0.0,81258000.0,2085000.0,0.0
2014-06-30,6336000.0,4929000.0,7199000.0,6667000.0,-0.0,0.0,-78822000.0,-1563000.0,-78848000.0,-0.0,142877000.0,0.0,78848000.0,532000.0,0.0
2013-06-30,5571000.0,523000.0,6228000.0,-5954000.0,0.0,0.0,-98604000.0,-1625000.0,-86000.0,0.0,90939000.0,0.0,-1437000.0,274000.0,0.0756
2012-06-30,4624000.0,203000.0,8564000.0,-7162000.0,0.0,0.0,28562000.0,-312000.0,-27283000.0,0.0,-36085000.0,0.0,1041000.0,1402000.0,0.0756
2011-06-30,3779000.0,177000.0,5022000.0,-4733000.0,0.0,0.0,-181213000.0,52000.0,0.0,0.0,176532000.0,0.0,341000.0,289000.0,0.0756
