,0,1,2,3,4,5,6,7,8,9,10,11,12,13,14
Date,Depreciation & Amortization,Stock-based compensation,Operating Cash Flow,Capital Expenditure,Acquisitions and disposals,Investment purchases and sales,Investing Cash flow,Issuance (repayment) of debt,Issuance (buybacks) of shares,Dividend payments,Financing Cash Flow,Effect of forex changes on cash,Net cash flow / Change in cash,Free Cash Flow,Net Cash/Marketcap
2019-08-31,1280830.0,336228.0,3530527.0,0.0,-0.0,55697933.0,-10803751.0,-0.0,-4478020.0,-0.0,186205.0,0.0,4478019.0,3530527.0,0.0
2018-08-31,902676.0,324840.0,482.0,445286.0,-0.0,34057552.0,5700752.0,-0.0,-11565038.0,-0.0,287981.0,0.0,5989215.0,-444804.0,0.0
2017-08-31,734324.0,233245.0,-1052879.0,95385.0,-0.0,9786406.0,1933822.0,-0.0,-5575823.0,-0.0,-2408.0,0.0,878535.0,-1148264.0,0.0
2016-08-31,420104.0,219886.0,-270729.0,472310.0,-0.0,9695189.0,-32118983.0,-0.0,-4697288.0,-0.0,-2041.0,0.0,-32391753.0,-743039.0,0.0
2015-08-31,347263.0,239986.0,-974066.0,17186.0,-0.0,0.0,42531710.0,-0.0,-37089041.0,-0.0,-6218161.0,0.0,35339483.0,-991252.0,0.0
2014-08-31,196564.0,251915.0,51744.0,3370.0,-0.0,0.0,2136303.0,-0.0,-1749558.0,-0.0,-2886852.0,0.0,-698805.0,48374.0,0.0
2013-08-31,0.0,66812.0,-1756665.0,40300.0,-0.0,1101367.0,4098059.0,-0.0,-2448363.0,-0.0,-1516548.0,0.0,824846.0,-1796965.0,0.0
2012-08-31,307507.0,54588.0,-1887106.0,3894.0,-0.0,3488990.0,3353974.0,-0.0,-1623517.0,-0.0,84854.0,0.0,1551722.0,-1891000.0,0.0
2011-08-31,297212.0,94550.0,-623245.0,-6841255.0,0.0,-3154804.0,-9996059.0,5200000.0,5401606.0,0.0,10679082.0,0.0,59778.0,-7464500.0,0.0655
2010-08-31,258872.0,87639.0,-1584574.0,-9649.0,-735000.0,1561588.0,806939.0,0.0,0.0,0.0,84569.0,0.0,-693066.0,-1594223.0,0.0238
2009-08-31,390794.0,325518.0,-1482485.0,-65675.0,0.0,-2998222.0,-3070897.0,0.0,0.0,0.0,19492.0,0.0,-4533890.0,-1548160.0,0.0565
