,0,1,2,3,4,5,6,7,8,9,10,11,12,13,14
Date,Depreciation & Amortization,Stock-based compensation,Operating Cash Flow,Capital Expenditure,Acquisitions and disposals,Investment purchases and sales,Investing Cash flow,Issuance (repayment) of debt,Issuance (buybacks) of shares,Dividend payments,Financing Cash Flow,Effect of forex changes on cash,Net cash flow / Change in cash,Free Cash Flow,Net Cash/Marketcap
2019-12-31,2180000.0,1256000.0,6076000.0,3816000.0,-0.0,-49763000.0,-39699000.0,-0.0,-15763000.0,-0.0,-8478000.0,0.0,-42101000.0,2260000.0,0.0
2018-12-31,1788000.0,98000.0,7885000.0,5761000.0,-0.0,-1236000.0,-126608000.0,-0.0,-69778000.0,-0.0,128777000.0,0.0,10054000.0,2124000.0,0.0
2017-12-31,1576000.0,0.0,8646000.0,2769000.0,-0.0,0.0,-135898000.0,-0.0,18467000.0,-0.0,175260000.0,0.0,48008000.0,5877000.0,0.0
2016-12-31,1679000.0,0.0,4343000.0,-530000.0,0.0,-43363000.0,-43893000.0,-5000000.0,0.0,0.0,38572000.0,0.0,-978000.0,3813000.0,0.1446
2015-12-31,1817000.0,0.0,5230000.0,-276000.0,0.0,-5918000.0,-6194000.0,-2000000.0,0.0,0.0,-2191000.0,0.0,-3155000.0,4954000.0,0.1446
