,0,1,2,3,4,5,6,7,8,9,10,11,12,13,14
Date,Depreciation & Amortization,Stock-based compensation,Operating Cash Flow,Capital Expenditure,Acquisitions and disposals,Investment purchases and sales,Investing Cash flow,Issuance (repayment) of debt,Issuance (buybacks) of shares,Dividend payments,Financing Cash Flow,Effect of forex changes on cash,Net cash flow / Change in cash,Free Cash Flow,Net Cash/Marketcap
2018-12-31,270859259.2593,12889629.6296,217284444.4444,-66754814.8148,0.0,0.0,-74662222.2222,-125451851.8519,0.0,0.0,-125248148.1481,5992592.5926,23366666.6667,150529629.6296,
2017-12-31,296736842.1053,5337784.7604,91559308.7196,-47118617.4391,0.0,0.0,-71602513.7471,-57960722.7023,0.0,0.0,-57960722.7023,-1763550.6677,-39767478.3975,44440691.2804,
2016-12-31,291412946.4286,21066220.2381,91151785.7143,-145559523.8095,-9077380.9524,0.0,-159170386.9048,-162973214.2857,0.0,0.0,-162443452.381,-14369791.6667,-244831845.2381,-54407738.0952,
2015-12-31,351883586.4064,11275488.0694,373836587.1294,-324601590.7448,0.0,0.0,-391252349.9638,-1543022.415,0.0,-59293564.7144,-60769342.0101,44402024.5842,-33783080.2603,49234996.3847,
2014-12-31,386117900.1721,13938898.4509,585334767.642,-649624784.8537,0.0,0.0,-542157487.0912,340588640.2754,0.0,-62944922.5473,283738382.0998,26677280.5508,353592943.2014,-64290017.2117,
2013-12-31,313119360.9023,19462406.015,402336466.1654,-491007518.797,0.0,0.0,-494863721.8045,27159774.4361,0.0,-54617481.203,20222744.3609,4483082.7068,-67821428.5714,-88671052.6316,
2012-12-31,309381287.7264,19466800.8048,639120724.3461,-841684104.6278,-25150.9054,0.0,-935735412.4748,-2872233.4004,0.0,-13904426.5594,-14988933.6016,-5004024.1449,-316607645.8753,-202563380.2817,
2011-12-31,246069471.6243,20112524.4618,521303326.8102,-695082191.7808,-90886497.0646,0.0,-700060665.362,358638943.2485,0.0,0.0,358989236.7906,25878669.2759,206110567.5147,-173778864.9706,
2010-12-31,210735205.6169,13035105.3159,307185556.67,-164137412.2367,0.0,0.0,-118468405.2156,-59969909.7292,-6018.0542,0.0,-59737211.6349,-2568706.1184,126411233.7011,143048144.4333,
2009-12-31,131679389.313,3158396.9466,481611641.2214,-169329198.4733,0.0,0.0,-200602099.2366,-560120229.0076,394296755.7252,-25985687.0229,-191809160.3053,-23085877.8626,66114503.8168,312282442.7481,
