,0,1,2,3,4,5,6,7,8,9,10,11,12,13,14
Date,Depreciation & Amortization,Stock-based compensation,Operating Cash Flow,Capital Expenditure,Acquisitions and disposals,Investment purchases and sales,Investing Cash flow,Issuance (repayment) of debt,Issuance (buybacks) of shares,Dividend payments,Financing Cash Flow,Effect of forex changes on cash,Net cash flow / Change in cash,Free Cash Flow,Net Cash/Marketcap
2018-12-31,579596000.0,19877000.0,1218974000.0,0.0,-0.0,-11014000.0,-1594036000.0,-2888000.0,-11014000.0,-0.0,-15911000.0,0.0,-390973000.0,1218974000.0,0.0
2017-12-31,347011000.0,19619000.0,694040000.0,0.0,-0.0,-354000.0,-3456860000.0,-74769000.0,2122990000.0,-0.0,3183630000.0,0.0,420810000.0,694040000.0,0.0
2016-12-31,229702000.0,12871000.0,228191000.0,0.0,-0.0,-213000.0,-1885366000.0,-521944000.0,930102000.0,-0.0,1447470000.0,0.0,-209705000.0,228191000.0,0.0
2015-12-31,174815000.0,8133000.0,172290000.0,0.0,-2408000.0,0.0,-427165000.0,-225794000.0,326334000.0,-0.0,547409000.0,0.0,292534000.0,172290000.0,0.0
2014-12-31,96050000.0,51088000.0,184983000.0,0.0,-0.0,0.0,-1247677000.0,-700766000.0,817200000.0,-0.0,1093851000.0,0.0,31157000.0,184983000.0,0.0
2013-12-31,28152000.0,1233000.0,53235000.0,-425611000.0,0.0,0.0,-425611000.0,304824000.0,0.0,0.0,378096000.0,0.0,5720000.0,-372376000.0,-0.0138
2012-12-31,6406000.0,0.0,5025000.0,-89339000.0,0.0,-200000.0,-89539000.0,90415000.0,0.0,0.0,74245000.0,0.0,-10269000.0,-84314000.0,-0.0138
2011-12-31,1247000.0,0.0,16031000.0,-14910000.0,0.0,-744000.0,-15654000.0,23929000.0,0.0,0.0,19729000.0,0.0,20106000.0,1121000.0,-0.0138
