,0,1,2,3,4,5,6,7,8,9,10,11,12,13,14,15,16,17,18,19,20,21,22,23,24,25,26,27,28,29,30
Date,Revenue,Revenue Growth,Cost of Revenue,Gross Profit,R&D Expenses,SG&A Expense,Operating Expenses,Operating Income,Interest Expense,Earnings before Tax,Income Tax Expense,Net Income - Non-Controlling int,Net Income - Discontinued ops,Net Income,Preferred Dividends,Net Income Com,EPS,EPS Diluted,Weighted Average Shs Out,Weighted Average Shs Out (Dil),Dividend per Share,Gross Margin,EBITDA Margin,EBIT Margin,Profit Margin,Free Cash Flow margin,EBITDA,EBIT,Consolidated Income,Earnings Before Tax Margin,Net Profit Margin
2019-12-31,28221569.0,39.3165271429,24050197.0,4171372.0,0.0,2385900.0,3250259.0,921113.0,244068.0,677045.0,1104840.0,0.0,0.0,-427795.0,0.0,-427795.0,-0.1,-0.1,4447681.0,4447681.0,0.0,0.147807940799,0.0547060299872,0.0326386176474,-0.0151584414035,-0.07690238625639999,1543890.0,921113.0,-427795.0,0.023990338737,-0.0151584414035
2018-12-31,700000.0,1.0,0.0,0.0,0.0,839061.0,839061.0,-839061.0,121194.0,-31367.0,0.0,0.0,0.0,-31367.0,0.0,-31367.0,-0.02,-0.02,2042348.0,2042348.0,0.0,0.0,-1.10884285714,-1.19865857143,-0.04481,-0.10495857142899999,-776190.0,-839061.0,-31367.0,0.0,-0.04481
2017-12-31,0.0,0.0,0.0,0.0,0.0,746563.0,746563.0,-746563.0,54371.0,-584277.0,0.0,0.0,0.0,-584277.0,0.0,-584277.0,-0.3,-0.3,1939175.0,1939175.0,0.0,0.0,0.0,0.0,0.0,0.0,-700432.0,-746563.0,-584277.0,0.0,0.0
2016-12-31,0.0,0.0,0.0,0.0,0.0,541802.0,541802.0,-541802.0,848.0,-434228.0,0.0,0.0,0.0,-434228.0,0.0,-434228.0,-0.23,-0.23,1887614.0,1887614.0,0.0,0.0,0.0,0.0,0.0,0.0,-541802.0,-541802.0,-434228.0,0.0,0.0
2015-12-31,0.0,,0.0,0.0,0.0,129952.0,129952.0,-129952.0,374.0,-130326.0,0.0,0.0,0.0,-130326.0,0.0,-130326.0,-0.1,-0.1,5295000.0,1370548.0,0.0,0.0,,0.0,,0.0,-129952.0,-129952.0,-130326.0,0.0,0.0
