,0,1,2,3,4,5,6,7,8,9,10,11,12,13,14,15,16,17,18,19,20,21,22,23,24,25,26,27,28
Date,Cash and cash equivalents,Short-term investments,Cash and short-term investments,Receivables,Inventories,Total current assets,Property Plant & Equipment Net,Goodwill and Intangible Assets,Long-term investments,Tax assets,Total non-current assets,Total assets,Payables,Short-term debt,Total current liabilities,Long-term debt,Total debt,Deferred revenue,Tax Liabilities,Deposit Liabilities,Total non-current liabilities,Total liabilities,Other comprehensive income,Retained earnings (deficit),Total shareholders equity,Investments,Net Debt,Other Assets,Other Liabilities
2018-12-31,6555376.0,0.0,6555376.0,326786.0,0.0,7265381.0,810334.0,13970695.0,832892.0,0.0,17167187.0,24432568.0,2842947.0,114789.0,9161097.0,117634.0,232423.0,4848006.0,0.0,0.0,117634.0,9278731.0,0.0,-4720291.0,15153837.0,832892.0,-6322953.0,383219.0,6203361.0
2017-12-31,4137050.0,0.0,4137050.0,479148.0,0.0,4985283.0,622712.0,17006915.0,0.0,0.0,17779164.0,22764447.0,2374253.0,0.0,5333725.0,0.0,0.0,2553826.0,0.0,0.0,0.0,5333725.0,0.0,-923074.0,17430722.0,0.0,-4137050.0,369085.0,2959472.0
2016-12-31,4162596.0,0.0,4162596.0,1041130.0,0.0,6340943.0,793305.0,19909860.0,0.0,0.0,21183208.0,27524151.0,1665831.0,0.0,4967064.0,0.0,0.0,2828827.0,0.0,0.0,1713625.0,6680689.0,0.0,4971179.0,20843462.0,0.0,-4162596.0,1137217.0,3301233.0
2015-12-31,6676557.0,0.0,6676557.0,832621.0,0.0,8677057.0,917720.0,6832348.0,0.0,754535.0,8586686.0,17263743.0,667782.0,0.0,3827691.0,0.0,0.0,2262818.0,0.0,0.0,134000.0,3961691.0,0.0,6423955.0,13302052.0,0.0,-6676557.0,1167879.0,3159909.0
2014-12-31,1138385.0,0.0,1138385.0,221128.0,0.0,2216918.0,563123.0,0.0,278520.0,0.0,976643.0,3193561.0,1074345.0,400000.0,4502683.0,149055.0,549055.0,1965502.0,0.0,0.0,172480.0,4675163.0,0.0,-13379274.0,-1481602.0,278520.0,-589330.0,857405.0,3028338.0
2013-12-31,1417667.0,0.0,1417667.0,385370.0,0.0,2150164.0,522462.0,0.0,270566.0,0.0,793028.0,2943192.0,861730.0,0.0,3659643.0,0.0,0.0,2126771.0,0.0,0.0,152608.0,3812251.0,0.0,-11721397.0,-869059.0,270566.0,-1417667.0,347127.0,2797913.0
2012-12-31,5462596.0,0.0,5462596.0,320019.0,0.0,6274732.0,548549.0,0.0,165716.0,0.0,714265.0,6988997.0,799183.0,0.0,3563461.0,0.0,0.0,2524229.0,0.0,0.0,1664665.0,5228126.0,0.0,-7715384.0,1760871.0,165716.0,-5462596.0,492117.0,2764278.0
2011-12-31,2397828.0,6481205.0,8879033.0,480190.0,0.0,9903785.0,578463.0,0.0,138803.0,0.0,736786.0,10640571.0,1027841.0,0.0,5031230.0,0.0,0.0,3138406.0,0.0,0.0,998640.0,6029870.0,0.0,-3684743.0,4610701.0,6620008.0,-8879033.0,544562.0,4003389.0
2010-12-31,3018876.0,0.0,3018876.0,185585.0,0.0,3518173.0,89506.0,0.0,0.0,0.0,107691.0,3625864.0,497303.0,45486.0,2961167.0,0.0,45486.0,1937915.0,0.0,0.0,0.0,2961167.0,0.0,-2091570.0,664697.0,0.0,-2973390.0,313712.0,2418378.0
2009-12-31,1895449.0,0.0,1895449.0,322351.0,0.0,2456168.0,86633.0,0.0,0.0,0.0,120068.0,2576236.0,552808.0,45486.0,900766.0,0.0,45486.0,281049.0,0.0,0.0,0.0,900766.0,0.0,-924500.0,1675470.0,0.0,-1849963.0,238368.0,302472.0
