,0,1,2,3,4,5,6,7,8,9,10,11,12,13,14
Date,Depreciation & Amortization,Stock-based compensation,Operating Cash Flow,Capital Expenditure,Acquisitions and disposals,Investment purchases and sales,Investing Cash flow,Issuance (repayment) of debt,Issuance (buybacks) of shares,Dividend payments,Financing Cash Flow,Effect of forex changes on cash,Net cash flow / Change in cash,Free Cash Flow,Net Cash/Marketcap
2018-02-03,15105000.0,6166000.0,30172000.0,7936000.0,-0.0,34994000.0,-11243000.0,-865000.0,-937000.0,-0.0,-14402000.0,-331000.0,4527000.0,22236000.0,0.0
2018-01,15000000.0,6000000.0,30000000.0,-8000000.0,,-3000000.0,-11000000.0,-280000000.0,-1000000.0,,-14000000.0,-0.0,5000000.0,22000000.0,
2017-01-28,14936000.0,6459000.0,42294000.0,13273000.0,-0.0,10595000.0,-14002000.0,-274000.0,-2151000.0,2706000.0,-29499000.0,171000.0,-1207000.0,29021000.0,0.0
2017-01,15000000.0,6000000.0,42000000.0,-13000000.0,,-1000000.0,-14000000.0,-363000000.0,-2000000.0,,-29000000.0,0.0,-1000000.0,29000000.0,
2016-01-30,15471000.0,5196000.0,30165000.0,16150000.0,-0.0,15247000.0,3631000.0,-574000.0,-6950000.0,-0.0,-45441000.0,644000.0,-11645000.0,14015000.0,0.0
2016-01,14000000.0,5000000.0,30000000.0,-16000000.0,,10000000.0,3000000.0,-448000000.0,-7000000.0,,-45000000.0,1000000.0,-12000000.0,14000000.0,
2015-01-31,14390000.0,6035000.0,55143000.0,16733000.0,-0.0,-13682000.0,-21147000.0,-792000.0,-8773000.0,-8037000.0,-17785000.0,347000.0,16558000.0,38410000.0,0.0
2015-01,13000000.0,6000000.0,55000000.0,-17000000.0,,-5000000.0,-21000000.0,-243000000.0,-9000000.0,,-18000000.0,0.0,17000000.0,38000000.0,
2014-02-01,14563000.0,5284000.0,220000.0,22243000.0,-0.0,-6957000.0,-27600000.0,-327000.0,-6957000.0,-0.0,-588000.0,-246000.0,-27968000.0,-22023000.0,0.0
2014-01,13000000.0,5000000.0,0.0,-22000000.0,,-15000000.0,-27000000.0,-409000000.0,-7000000.0,,-1000000.0,-0.0,-28000000.0,-22000000.0,
2013-02-02,14708000.0,4262000.0,76981000.0,16840000.0,-0.0,-2582000.0,-8908000.0,-100000.0,-2582000.0,-14992000.0,-37085000.0,-147000.0,30841000.0,60141000.0,0.0
2012-01-28,14007000.0,-108000.0,712000.0,13667000.0,-0.0,-15958000.0,-2327000.0,-103000.0,40042000.0,-0.0,7011000.0,196000.0,5592000.0,-12955000.0,0.0
