,0,1,2,3,4,5,6,7,8,9,10,11,12,13,14
Date,Depreciation & Amortization,Stock-based compensation,Operating Cash Flow,Capital Expenditure,Acquisitions and disposals,Investment purchases and sales,Investing Cash flow,Issuance (repayment) of debt,Issuance (buybacks) of shares,Dividend payments,Financing Cash Flow,Effect of forex changes on cash,Net cash flow / Change in cash,Free Cash Flow,Net Cash/Marketcap
2018-12-31,395355.0,0.0,-2173742.0,-6481643.0,19888.0,-132703.0,-6594458.0,7628120.0,100000.0,0.0,7728120.0,96808.0,-943272.0,-8655385.0,
2017-12-31,364170.0,0.0,-2674936.0,-329484.0,0.0,-517799.0,-847283.0,-1111004.0,6369777.0,0.0,5258773.0,55000.0,1791554.0,-3004420.0,
2016-12-31,256104.0,0.0,-1489118.0,-9002.0,0.0,856853.0,847851.0,192341.0,3759423.0,0.0,1071764.0,-84892.0,345605.0,-1498120.0,
2015-12-31,266534.0,0.0,-700738.0,-231939.0,0.0,-151573.0,-309661.0,1501316.0,10.0,0.0,1501326.0,-29581.0,461346.0,-932677.0,
