,0,1,2,3,4,5,6,7,8,9,10,11,12,13,14
Date,Depreciation & Amortization,Stock-based compensation,Operating Cash Flow,Capital Expenditure,Acquisitions and disposals,Investment purchases and sales,Investing Cash flow,Issuance (repayment) of debt,Issuance (buybacks) of shares,Dividend payments,Financing Cash Flow,Effect of forex changes on cash,Net cash flow / Change in cash,Free Cash Flow,Net Cash/Marketcap
2018-12-31,,,,-2766000.0,0.0,,,,,,357905000.0,,47437000.0,,
2017-12-31,,,,-1360000.0,0.0,,,,,,487806000.0,,151492000.0,,
2017-12,1000000.0,4000000.0,,,,-15000000.0,-389000000.0,,,,488000000.0,,151000000.0,,
2016-12-31,,,,-641000.0,0.0,,,,,,572210000.0,,94655000.0,,
2016-12,1000000.0,2000000.0,,,,-67000000.0,-530000000.0,,,,572000000.0,,95000000.0,,
2015-12-31,,,,-2092000.0,3115000.0,,,,,,514006000.0,,68981000.0,,
2015-12,1000000.0,3000000.0,,,,-31000000.0,-473000000.0,,,,514000000.0,,69000000.0,,
2014-12,0.0,4000000.0,,,,-50000000.0,-296000000.0,,,,246000000.0,,-6000000.0,,
2013-12,1000000.0,1000000.0,,,,-10000000.0,-131000000.0,,,,192000000.0,,95000000.0,,
