,0,1,2,3,4,5,6,7,8,9,10,11,12,13,14,15,16,17,18,19,20,21,22,23,24,25,26,27,28
Date,Cash and cash equivalents,Short-term investments,Cash and short-term investments,Receivables,Inventories,Total current assets,Property Plant & Equipment Net,Goodwill and Intangible Assets,Long-term investments,Tax assets,Total non-current assets,Total assets,Payables,Short-term debt,Total current liabilities,Long-term debt,Total debt,Deferred revenue,Tax Liabilities,Deposit Liabilities,Total non-current liabilities,Total liabilities,Other comprehensive income,Retained earnings (deficit),Total shareholders equity,Investments,Net Debt,Other Assets,Other Liabilities
2018-12-31,2977500000.0,84766600000.0,87744100000.0,636200000.0,0.0,88380300000.0,767300000.0,2415100000.0,0.0,141300000.0,154655800000.0,243036100000.0,0.0,42900000.0,68200000.0,3259600000.0,3302500000.0,0.0,25300000.0,489100000.0,4218000000.0,231646100000.0,2660100000.0,10290200000.0,11390000000.0,84766600000.0,325000000.0,0.0,227359900000.0
2017-12-31,2470800000.0,82102700000.0,84573500000.0,610600000.0,0.0,85184100000.0,759500000.0,2383500000.0,0.0,48400000.0,168757100000.0,253941200000.0,0.0,39500000.0,56200000.0,3178400000.0,3217900000.0,0.0,16700000.0,2328900000.0,4270900000.0,241091900000.0,3196200000.0,9482900000.0,12849300000.0,82102700000.0,747100000.0,0.0,236764800000.0
2016-12-31,2719600000.0,75835500000.0,78555100000.0,580600000.0,0.0,79135700000.0,699000000.0,2346100000.0,0.0,103900000.0,148878600000.0,228014300000.0,0.0,51400000.0,64300000.0,3125700000.0,3177100000.0,0.0,12900000.0,2204100000.0,4098100000.0,217787000000.0,3177400000.0,7720400000.0,10227300000.0,75835500000.0,457500000.0,0.0,213624600000.0
2015-12-31,2564800000.0,69820500000.0,72385300000.0,545600000.0,0.0,72930900000.0,633800000.0,2368200000.0,0.0,96000000.0,145755000000.0,218685900000.0,0.0,181100000.0,199500000.0,3290800000.0,3471900000.0,0.0,18400000.0,2074400000.0,3988000000.0,209374300000.0,3313500000.0,6875900000.0,9311600000.0,69820500000.0,907100000.0,0.0,205186800000.0
2014-12-31,1863900000.0,68433800000.0,70297700000.0,505900000.0,0.0,70803600000.0,590200000.0,2330900000.0,0.0,90800000.0,148283400000.0,219087000000.0,0.0,28000000.0,39500000.0,2531200000.0,2559200000.0,0.0,11500000.0,1343800000.0,3566500000.0,208903000000.0,4014900000.0,6114100000.0,10184000000.0,68433800000.0,695300000.0,0.0,205297000000.0
2013-12-31,2371800000.0,716900000.0,3088700000.0,11533600000.0,0.0,14622300000.0,500700000.0,2559300000.0,0.0,49600000.0,193569100000.0,208191400000.0,0.0,150600000.0,155800000.0,2601400000.0,2752000000.0,0.0,5200000.0,1252200000.0,3425400000.0,198507200000.0,4091000000.0,5405400000.0,9684200000.0,716900000.0,380200000.0,0.0,194926000000.0
2012-12-31,4177200000.0,252800000.0,4430000000.0,11519700000.0,0.0,15949700000.0,464200000.0,1470600000.0,0.0,20800000.0,145976800000.0,161926500000.0,0.0,40800000.0,56100000.0,2671300000.0,2712100000.0,0.0,15300000.0,1404400000.0,3297800000.0,152173300000.0,4176600000.0,4940200000.0,9753200000.0,252800000.0,-1465100000.0,0.0,148819400000.0
2011-12-31,2833900000.0,66153500000.0,68987400000.0,615200000.0,0.0,69602600000.0,0.0,1372900000.0,0.0,15500000.0,78695400000.0,148298000000.0,0.0,105200000.0,108300000.0,1564800000.0,1670000000.0,0.0,3100000.0,2150200000.0,2098200000.0,138661000000.0,4353100000.0,5077500000.0,9637000000.0,66153500000.0,-1163900000.0,0.0,136454500000.0
2010-12-31,1877400000.0,65977500000.0,67854900000.0,666100000.0,0.0,68521000000.0,0.0,1180000000.0,0.0,13000000.0,77110100000.0,145631100000.0,0.0,107900000.0,114100000.0,1583700000.0,1691600000.0,0.0,6200000.0,2230900000.0,1993600000.0,135903300000.0,4838600000.0,4612300000.0,9727800000.0,65977500000.0,-185800000.0,0.0,133795600000.0
2009-12-31,2240400000.0,,,1065400000.0,0.0,,489300000.0,1238100000.0,,0.0,,137759400000.0,0.0,,,,1686200000.0,0.0,123000000.0,39801900000.0,,129743000000.0,-1042000000.0,4160700000.0,7893500000.0,63936500000.0,,,
