,0,1,2,3,4,5,6,7,8,9,10,11,12,13,14
Date,Depreciation & Amortization,Stock-based compensation,Operating Cash Flow,Capital Expenditure,Acquisitions and disposals,Investment purchases and sales,Investing Cash flow,Issuance (repayment) of debt,Issuance (buybacks) of shares,Dividend payments,Financing Cash Flow,Effect of forex changes on cash,Net cash flow / Change in cash,Free Cash Flow,Net Cash/Marketcap
2019-12-31,3144000.0,106000.0,-2514000.0,1524000.0,-0.0,-3518000.0,3724000.0,-0.0,-3518000.0,-632000.0,-1815000.0,-14000.0,380000.0,-4038000.0,0.0
2018-12-31,2302000.0,196000.0,2966000.0,1878000.0,-0.0,-1516000.0,-1852000.0,-0.0,-1516000.0,-723000.0,-1315000.0,-41000.0,-242000.0,1088000.0,0.0
2017-12-31,2173000.0,80000.0,4634000.0,1110000.0,-0.0,-358000.0,-7943000.0,-0.0,-358000.0,-722000.0,812000.0,39000.0,-2458000.0,3524000.0,0.0
2016-12-31,2764000.0,13000.0,-1158000.0,1066000.0,-0.0,-255000.0,22595000.0,-6343000.0,-255000.0,-2335000.0,-18616000.0,-49000.0,2772000.0,-2224000.0,0.0
2015-12-31,3126000.0,86000.0,6573000.0,1422000.0,-0.0,0.0,-1374000.0,-3127000.0,0.0,-0.0,-5269000.0,-14000.0,-84000.0,5151000.0,0.0
2014-12-31,2363000.0,220000.0,8716000.0,1072000.0,-7659000.0,-1583000.0,-20885000.0,-793000.0,-1583000.0,-0.0,12827000.0,-60000.0,598000.0,7644000.0,0.0
2013-12-31,1912000.0,338000.0,3242000.0,693000.0,-0.0,0.0,-693000.0,-67786000.0,-413000.0,-0.0,-2831000.0,0.0,-282000.0,2549000.0,0.0
2012-12-31,2236000.0,201000.0,5363000.0,598000.0,-0.0,0.0,-596000.0,-44628000.0,-695000.0,-0.0,-5827000.0,0.0,-431000.0,4765000.0,0.0
2011-12-31,2196000.0,103000.0,9039000.0,244000.0,-0.0,0.0,-237000.0,-22054000.0,-443000.0,-0.0,-8904000.0,0.0,328000.0,8795000.0,0.0
2010-12-31,1986000.0,103000.0,11787000.0,-244000.0,0.0,0.0,-237000.0,-8088000.0,0.0,0.0,-8904000.0,0.0,328000.0,11543000.0,-1.2542
2009-12-31,1979000.0,208000.0,5604000.0,-1665000.0,-1216000.0,0.0,-2881000.0,-6227000.0,0.0,0.0,-6227000.0,0.0,-299000.0,3939000.0,-2.6513
