,0,1,2,3,4,5,6,7,8,9,10,11,12,13,14,15,16,17,18,19,20,21,22,23,24,25,26,27,28
Date,Cash and cash equivalents,Short-term investments,Cash and short-term investments,Receivables,Inventories,Total current assets,Property Plant & Equipment Net,Goodwill and Intangible Assets,Long-term investments,Tax assets,Total non-current assets,Total assets,Payables,Short-term debt,Total current liabilities,Long-term debt,Total debt,Deferred revenue,Tax Liabilities,Deposit Liabilities,Total non-current liabilities,Total liabilities,Other comprehensive income,Retained earnings (deficit),Total shareholders equity,Investments,Net Debt,Other Assets,Other Liabilities
2019-12-31,80382000.0,0.0,80382000.0,47059000.0,0.0,132444000.0,3083000.0,14255000.0,0.0,0.0,17990000.0,150434000.0,19388000.0,0.0,36163000.0,0.0,0.0,0.0,390000.0,0.0,0.0,36163000.0,227746000.0,-113483000.0,114271000.0,0.0,-80382000.0,0.0,0.0
2018-12-31,127000.0,0.0,127000.0,23325000.0,0.0,24537000.0,776000.0,15739000.0,0.0,0.0,16787000.0,41324000.0,15578000.0,253000.0,30202000.0,0.0,253000.0,0.0,0.0,0.0,0.0,30202000.0,0.0,-104854000.0,-95115000.0,0.0,126000.0,1085000.0,14371000.0
2017-12-31,4691000.0,0.0,4691000.0,11373000.0,0.0,16770000.0,597000.0,17222000.0,0.0,0.0,18191000.0,34961000.0,5130000.0,3556000.0,17770000.0,1632000.0,5188000.0,0.0,0.0,0.0,6501000.0,24271000.0,0.0,-104556000.0,-97622000.0,0.0,497000.0,706000.0,9084000.0
