,0,1,2,3,4,5,6,7,8,9,10,11,12,13,14
Date,Depreciation & Amortization,Stock-based compensation,Operating Cash Flow,Capital Expenditure,Acquisitions and disposals,Investment purchases and sales,Investing Cash flow,Issuance (repayment) of debt,Issuance (buybacks) of shares,Dividend payments,Financing Cash Flow,Effect of forex changes on cash,Net cash flow / Change in cash,Free Cash Flow,Net Cash/Marketcap
2019-12-31,272800000.0,0.0,6261600000.0,363500000.0,-0.0,-10352500000.0,-4338300000.0,-0.0,0.0,-1643200000.0,-1770900000.0,0.0,152400000.0,5898100000.0,0.0
2018-12-31,228100000.0,0.0,6284800000.0,266000000.0,-0.0,-13317400000.0,-7331800000.0,-37100000.0,0.0,-654900000.0,846700000.0,0.0,-200300000.0,6018800000.0,0.0
2017-12-31,149900000.0,0.0,3756800000.0,155700000.0,-0.0,-9205300000.0,-3406700000.0,-49000000.0,0.0,-395400000.0,-300900000.0,-300000.0,48900000.0,3601100000.0,0.0
2016-12-31,122300000.0,0.0,2701900000.0,215000000.0,-0.0,-6108200000.0,-2464500000.0,-25500000.0,-192500000.0,-519000000.0,-250400000.0,400000.0,-12600000.0,2486900000.0,0.0
2015-12-31,52100000.0,1700000.0,2292900000.0,130700000.0,-752700000.0,-4606100000.0,-1923900000.0,-20400000.0,-208500000.0,-403600000.0,-252800000.0,-200000.0,116000000.0,2162200000.0,0.0
2014-12-31,18900000.0,0.0,1725600000.0,108100000.0,-0.0,-2601400000.0,-836900000.0,-0.0,-271400000.0,-892600000.0,-855400000.0,0.0,33300000.0,1617500000.0,0.0
2013-12-31,101300000.0,0.0,1899900000.0,140400000.0,-0.0,-4290100000.0,-1357100000.0,-150000000.0,-273400000.0,-175600000.0,-646800000.0,-600000.0,-104000000.0,1759500000.0,0.0
2012-12-31,94400000.0,0.0,1691400000.0,127700000.0,-0.0,-1667800000.0,-263900000.0,-350000000.0,-174200000.0,-853700000.0,-1404100000.0,1000000.0,23400000.0,1563700000.0,0.0
2011-12-31,88500000.0,0.0,1497900000.0,78900000.0,-0.0,-2587600000.0,-745400000.0,-0.0,-997800000.0,-263600000.0,-755700000.0,-500000.0,-3200000.0,1419000000.0,0.0
2010-12-31,-146100000.0,0.0,1679300000.0,64700000.0,-0.0,-1694500000.0,-486500000.0,-0.0,-258600000.0,-763700000.0,-1195400000.0,800000.0,-1800000.0,1614600000.0,0.0
2009-12-31,87300000.0,40300000.0,1486800000.0,-64800000.0,0.0,-867300000.0,-1178600000.0,0.0,-161800000.0,0.0,-152100000.0,1700000.0,157800000.0,1422000000.0,-0.0135
