,0,1,2,3,4,5,6,7,8,9,10,11,12,13,14,15,16,17,18,19,20,21,22,23,24,25,26,27,28,29,30
Date,Revenue,Revenue Growth,Cost of Revenue,Gross Profit,R&D Expenses,SG&A Expense,Operating Expenses,Operating Income,Interest Expense,Earnings before Tax,Income Tax Expense,Net Income - Non-Controlling int,Net Income - Discontinued ops,Net Income,Preferred Dividends,Net Income Com,EPS,EPS Diluted,Weighted Average Shs Out,Weighted Average Shs Out (Dil),Dividend per Share,Gross Margin,EBITDA Margin,EBIT Margin,Profit Margin,Free Cash Flow margin,EBITDA,EBIT,Consolidated Income,Earnings Before Tax Margin,Net Profit Margin
2019-12-31,39022300000.0,0.220247662529,0.0,0.0,0.0,4975100000.0,4975100000.0,5160300000.0,0.0,5160300000.0,1180300000.0,0.0,0.0,3970300000.0,26900000.0,3970300000.0,6.75,6.72,583800000.0,587200000.0,2.7983651226200004,0.0,0.139230645041,0.132239770593,0.101744387184,0.151146908306,5433100000.0,5160300000.0,3970300000.0,0.132239770593,0.101744387184
2018-12-31,31979000000.0,0.191512351429,0.0,0.0,0.0,4195800000.0,4195800000.0,3163600000.0,0.0,3163600000.0,542600000.0,0.0,0.0,2615300000.0,21400000.0,2615300000.0,4.45,4.42,582400000.0,586700000.0,1.1162433952600002,0.0,0.106060227024,0.0989274211201,0.0817817943025,0.188211013478,3391700000.0,3163600000.0,2615300000.0,0.0989274211201,0.0817817943025
2017-12-31,26839000000.0,0.144940148626,0.0,0.0,0.0,3480700000.0,3480700000.0,2138900000.0,0.0,2138900000.0,540800000.0,0.0,0.0,1592200000.0,0.0,1592200000.0,2.74,2.72,580800000.0,585700000.0,0.675089636333,0.0,0.0852788852044,0.07969372927460001,0.0593241178881,0.134174149558,2288800000.0,2138900000.0,1592200000.0,0.07969372927460001,0.0593241178881
2016-12-31,23441400000.0,0.124082900958,0.0,0.0,0.0,2972000000.0,2972000000.0,1470700000.0,0.0,1470700000.0,413500000.0,0.0,0.0,1031000000.0,0.0,1031000000.0,1.77,1.76,581700000.0,585000000.0,0.887179487179,0.0,0.0679566920065,0.062739426826,0.04398201472609999,0.10609007994400001,1593000000.0,1470700000.0,1031000000.0,0.062739426826,0.04398201472609999
2015-12-31,20853800000.0,0.07541487463510001,0.0,0.0,0.0,2712100000.0,2712100000.0,1911600000.0,1800000.0,1911600000.0,611100000.0,0.0,0.0,1267600000.0,0.0,1267600000.0,2.16,2.15,585500000.0,589200000.0,0.684996605567,0.0,0.09416509221339998,0.0916667465882,0.060785084732800004,0.103683741093,1963700000.0,1911600000.0,1267600000.0,0.0916667465882,0.060785084732800004
2014-12-31,19391400000.0,0.06716783428449999,0.0,0.0,0.0,2467100000.0,2467100000.0,1907400000.0,2000000.0,1907400000.0,626400000.0,0.0,0.0,1281000000.0,0.0,1281000000.0,2.17,2.15,590600000.0,594800000.0,1.5006724949599999,0.0,0.09933785079980001,0.09836319193040001,0.066060212259,0.0834132656745,1926300000.0,1907400000.0,1281000000.0,0.09836319193040001,0.066060212259
2013-12-31,18170900000.0,0.06362715773330001,0.0,0.0,0.0,2350900000.0,2350900000.0,1165400000.0,2100000.0,0.0,554600000.0,0.0,0.0,1165400000.0,0.0,1165400000.0,1.95,1.93,599100000.0,603600000.0,0.290921139828,0.0,0.06971036107180001,0.06413551337580001,0.06413551337580001,0.09683064680339999,1266700000.0,1165400000.0,1165400000.0,0.0,0.06413551337580001
2012-12-31,17083900000.0,0.10161141597000001,0.0,0.0,0.0,2206300000.0,2206300000.0,902300000.0,0.0,0.0,415400000.0,0.0,0.0,902300000.0,0.0,902300000.0,1.5,1.48,603300000.0,607800000.0,1.4045738729799997,0.0,0.0583414794046,0.052815809036600006,0.052815809036600006,0.0915306223989,996700000.0,902300000.0,902300000.0,0.0,0.052815809036600006
2011-12-31,15508100000.0,0.0364090808846,0.0,0.0,0.0,1821500000.0,1821500000.0,1015500000.0,0.0,0.0,471500000.0,0.0,0.0,1015500000.0,0.0,1015500000.0,1.61,1.59,632300000.0,636900000.0,0.413879729942,0.0,0.07118860466469999,0.0654819094538,0.0654819094538,0.09150057066950001,1104000000.0,1015500000.0,1015500000.0,0.0,0.0654819094538
2010-12-31,14963300000.0,0.0274451371914,0.0,0.0,0.0,1740100000.0,1740100000.0,1565200000.0,0.0,1565200000.0,496900000.0,0.0,0.0,1068300000.0,0.0,1068300000.0,1.62,1.61,657900000.0,663300000.0,1.1513643901700001,0.0,0.0948387053658,0.10460259434800001,0.0713946789812,0.107904005133,1419100000.0,1565200000.0,1068300000.0,0.10460259434800001,0.0713946789812
2009-12-31,14563600000.0,0.1342,9904900000.0,4658700000.0,0.0,2932300000.0,2962800000.0,1695900000.0,139000000.0,1556900000.0,499400000.0,0.0,0.0,1057500000.0,0.0,1057500000.0,1.59,1.57,674228419.0,666800000.0,0.0,0.3199,0.122,0.1164,0.073,0.0976,1783200000.0,1695900000.0,1057500000.0,0.1069,0.0726
