,0,1,2,3,4,5,6,7,8,9,10,11,12,13,14,15,16,17,18,19,20,21,22,23,24,25,26,27,28,29,30
Date,Revenue,Revenue Growth,Cost of Revenue,Gross Profit,R&D Expenses,SG&A Expense,Operating Expenses,Operating Income,Interest Expense,Earnings before Tax,Income Tax Expense,Net Income - Non-Controlling int,Net Income - Discontinued ops,Net Income,Preferred Dividends,Net Income Com,EPS,EPS Diluted,Weighted Average Shs Out,Weighted Average Shs Out (Dil),Dividend per Share,Gross Margin,EBITDA Margin,EBIT Margin,Profit Margin,Free Cash Flow margin,EBITDA,EBIT,Consolidated Income,Earnings Before Tax Margin,Net Profit Margin
2019-12-28,744956000.0,0.0665189200178,484588000.0,260368000.0,0.0,176312000.0,176312000.0,84056000.0,26468000.0,56127000.0,12439000.0,0.0,0.0,43688000.0,0.0,43688000.0,0.75,0.74,58346000.0,59150000.0,0.0,0.349507890399,0.16173572667400002,0.11283350963,0.05864507433999999,0.067048255199,120486000.0,84056000.0,43688000.0,0.075342704804,0.05864507433999999
2018-12-29,698493000.0,0.366697255425,455025000.0,243468000.0,1900000.0,150910000.0,152810000.0,95109000.0,26598000.0,65205000.0,11272000.0,0.0,0.0,53933000.0,0.0,53933000.0,1.03,1.0,52461000.0,54106000.0,0.0,0.348561832402,0.18231965102000003,0.13616313978800001,0.07721337221699999,0.100984548163,127349000.0,95109000.0,53933000.0,0.0933509713054,0.07721337221699999
2017-12-30,511081000.0,0.114558935776,352097000.0,158984000.0,1400000.0,98803000.0,100203000.0,60181000.0,20340000.0,39902000.0,63000.0,0.0,0.0,39839000.0,0.0,39839000.0,0.8,0.77,49522000.0,51728000.0,0.0,0.31107397848900004,0.166273056521,0.11775237193299999,0.0779504618642,0.06106077118890001,84979000.0,60181000.0,39839000.0,0.0780737299958,0.0779504618642
2016-12-31,458550000.0,0.17634232061799998,318452000.0,140098000.0,1700000.0,83995000.0,85695000.0,59103000.0,20263000.0,35547000.0,11800000.0,0.0,0.0,23747000.0,0.0,23747000.0,0.49,0.47,48856000.0,50579000.0,0.0,0.30552393414,0.177854105332,0.128891069676,0.051787155163000004,0.0625253516519,81555000.0,59103000.0,23747000.0,0.0775204448806,0.051787155163000004
2016-01-02,389810000.0,0.272275676593,270678000.0,119132000.0,2000000.0,68190000.0,70190000.0,50942000.0,11775000.0,38849000.0,15297000.0,0.0,0.0,23552000.0,0.0,23552000.0,0.49,0.47,48272000.0,50368000.0,0.0,0.305615556297,0.160018983607,0.130684179472,0.06041917857419999,0.03864703317,62377000.0,50942000.0,23552000.0,0.09966137348960001,0.06041917857419999
2015-01-03,306388000.0,0.280334972817,213596000.0,92792000.0,1800000.0,56377000.0,58177000.0,36415000.0,5989000.0,0.0,9675000.0,0.0,0.0,16405000.0,0.0,16405000.0,0.35,0.33,47376000.0,49777000.0,0.0,0.30285781427499997,0.149901432171,0.118852566027,0.0535432197083,0.00962505058945,45928000.0,36415000.0,16405000.0,0.0,0.0535432197083
2013-12-28,239303000.0,0.37104961613399995,159169000.0,80134000.0,1300000.0,54594000.0,55894000.0,27735000.0,3526000.0,0.0,-3374000.0,0.0,0.0,26819000.0,0.0,26819000.0,0.55,0.51,48881000.0,52211000.0,0.0,0.334864168021,0.16913703547400002,0.115899090275,0.11207130708799999,0.07597481017789999,40475000.0,27735000.0,26819000.0,0.0,0.11207130708799999
2012-12-29,174540000.0,0.043425237332300005,114872000.0,59668000.0,1400000.0,47094000.0,48494000.0,12574000.0,3446000.0,0.0,110000.0,0.0,0.0,8955000.0,0.0,8955000.0,0.17,0.16,53620000.0,55262000.0,0.0,0.341858599748,0.147037928269,0.07204079294139999,0.0513062908216,0.111126389366,25664000.0,12574000.0,8955000.0,0.0,0.0513062908216
2011-12-31,167276000.0,-0.0481674737255,128171000.0,39105000.0,0.0,48619000.0,48619000.0,-15473000.0,4168000.0,-19222000.0,-2324000.0,0.0,0.0,-16898000.0,0.0,-16898000.0,-0.31,-0.31,53659000.0,53659000.0,0.0,0.233775317439,-0.00088476529807,-0.0924998206557,-0.101018675722,-0.030895047705599997,-148000.0,-15473000.0,-16898000.0,-0.114911882159,-0.101018675722
2011-01-01,175741000.0,0.0586807228916,125615000.0,50126000.0,0.0,53879000.0,59440000.0,-9314000.0,5123000.0,-14418000.0,77000.0,0.0,0.0,-14495000.0,0.0,-14495000.0,-0.29,-0.29,53654496.0,50174000.0,0.0,0.2852,0.034,-0.0529,-0.08199999999999999,0.0523,5913000.0,-9295000.0,-14495000.0,-0.08199999999999999,-0.0825
2010-01-02,166000000.0,-0.2405,121821000.0,44179000.0,0.0,51703000.0,52445000.0,-8266000.0,6698000.0,-15001000.0,-5584000.0,0.0,0.0,-9417000.0,0.0,-9417000.0,-0.26,-0.26,35673171.0,36241000.0,0.0,0.2661,0.047,-0.05,-0.057,0.0437,7863000.0,-8303000.0,-9417000.0,-0.0904,-0.0567
