,0,1,2,3,4,5,6,7,8,9,10,11,12,13,14
Date,Depreciation & Amortization,Stock-based compensation,Operating Cash Flow,Capital Expenditure,Acquisitions and disposals,Investment purchases and sales,Investing Cash flow,Issuance (repayment) of debt,Issuance (buybacks) of shares,Dividend payments,Financing Cash Flow,Effect of forex changes on cash,Net cash flow / Change in cash,Free Cash Flow,Net Cash/Marketcap
2019-12-31,318000.0,938000.0,-17577000.0,1312000.0,-0.0,0.0,19740000.0,-21052000.0,-72256000.0,-0.0,61554000.0,-483000.0,63717000.0,-18889000.0,0.0
2019-06-30,0.0,0.0,-204579.0,0.0,-0.0,0.0,-70000000.0,-105500.0,-696830.0,-0.0,70900979.0,0.0,696400.0,-204579.0,0.0
2018-06-30,,,-38.0,0.0,,,0.0,60000.0,0.0,0.0,683.0,,,,
