,0,1,2,3,4,5,6,7,8,9,10,11,12,13,14,15,16,17,18,19,20,21,22,23,24,25,26,27,28,29,30
Date,Revenue,Revenue Growth,Cost of Revenue,Gross Profit,R&D Expenses,SG&A Expense,Operating Expenses,Operating Income,Interest Expense,Earnings before Tax,Income Tax Expense,Net Income - Non-Controlling int,Net Income - Discontinued ops,Net Income,Preferred Dividends,Net Income Com,EPS,EPS Diluted,Weighted Average Shs Out,Weighted Average Shs Out (Dil),Dividend per Share,Gross Margin,EBITDA Margin,EBIT Margin,Profit Margin,Free Cash Flow margin,EBITDA,EBIT,Consolidated Income,Earnings Before Tax Margin,Net Profit Margin
2018-12-31,3138133333.3333,-0.018506739367,414438095.2381,2723695238.0952,0.0,1407923809.5238,2461352380.9524,262342857.1429,0.0,433485714.2857,73180952.381,1085714.2857,0.0,360304761.9048,0.0,360304761.9048,1.6625,1.6625,4115348.0952,4115348.0952,0.023,0.8679,0.0082,0.1381,0.0022,0.1011,1350285714.2857,433485714.2857,361390476.1905,0.1381,0.1148
2017-12-31,3197305024.0908,-0.0411296510753,424878546.1525,2772426477.9384,0.0,1379275875.1674,2582278734.081,190147743.8573,0.0,289370039.385,22051620.3843,1899278.2743,0.0,267318419.0008,0.0,267318419.0008,1.2317,1.2317,4319474.0998,4319474.0998,0.0246,0.8671,0.0084,0.0905,0.0017,0.1552,1343969291.6692,289370039.385,269217697.275,0.0905,0.0836
2016-12-31,3334449780.0734,-0.0865404783003,562245268.5525,2772204511.5209,0.0,1355796779.7910001,2273778297.8895,498426213.6314,0.0,442173439.3285,38517412.5338,3147572.7372,0.0,403656026.7947,0.0,403656026.7947,1.8629,1.8629,4359302.9942,4359302.9942,0.0663,0.8314,0.006999999999999999,0.1326,0.0024,0.0942,1156107501.715,442173439.3285,406803599.5319,0.1326,0.1211
2015-12-31,3650353081.7315,-0.0433675331804,592451944.6163,3057901137.1152,0.0,1499562648.0063,2378725492.2877,679175644.8275,0.0,568088238.4315,97348153.5212,213342.4359,0.0,470740084.9103,0.0,470740084.9103,2.1729,2.1729,4609386.5338,4609386.5338,0.0519,0.8377,0.0074,0.1556,0.0028,0.2094,1263477908.3908,568088238.4315,470953427.3462,0.1556,0.129
2014-12-31,3815836497.6547,0.00686579919507,869332142.0594,2946504355.5953,0.0,1055260218.8966,2044605762.7876,901898592.8077,118829573.375,986129104.3109,224659370.1139,-22336.386000000002,0.0,761469734.197,0.0,761469734.197,3.5182,3.5182,4825905.182,4825905.182,0.0935,0.7722,0.0107,0.2896,0.0045,0.256,1831516640.6075,1104958677.686,761447397.8110001,0.2584,0.1996
2013-12-31,3789816379.4075,-0.04627537728969999,800337952.0108,2989478427.3966,0.0,1072231609.7781,2027531823.8144,961946603.5823,148451053.2838,983845893.8831,185828545.6798,743494.4238,-46614847.3583,798017348.2032,0.0,798017348.2032,3.6875,3.6875,4867765.574,4867765.574,0.0946,0.7888,0.0109,0.2988,0.0048,0.3475,1842717134.1669,1132296947.1668,798760842.627,0.2596,0.2106
2012-12-31,3973700887.1990004,0.17290266692499998,791069513.503,3182631373.6959996,0.0,1134201033.4406,2195403139.3195,987228234.3765,167592863.4104,1077264307.3023,196207468.0706,1194306.3274,-13234863.9953,881056839.2317,0.0,881056839.2317,4.0721,4.0721,5226585.0882,5226585.0882,0.0984,0.8009,0.0127,0.3133,0.0054,0.3392,2071634006.0447,1244857170.7127,879862532.9044,0.2711,0.2217
2011-12-31,3387920412.5405,-0.019526208934599998,640761191.9865,2747159220.554,0.0,804773422.1695,1787569022.9544,959590197.5996,147264181.0797,958609044.8592,244923105.0062,1369050.3354,-19782777.3468,713685939.8531,0.0,713685939.8531,3.6748,3.6716,4261316.0681,4261316.0681,0.1181,0.8109,0.0118,0.3264,0.0048,0.4091,1749806051.2025,1105873225.9389,712316889.5176,0.2829,0.2107
2010-12-31,3455391101.1318,-0.0155665971606,636621912.661,2818769188.4709,0.0,808344407.2767,1532557393.5756,1286211794.8953,149612793.8414,1230513678.2294,309077578.7014,-962287.4948,0.0,921436099.528,0.0,921436099.528,4.8767,4.8767,4279826.4217,4279826.4217,0.1099,0.8158,0.0132,0.3994,0.0061,0.4141,1991064473.2622,1380126472.0708,922398387.0229,0.3561,0.2667
2009-12-31,3510030329.2894,0.1405,608600519.9307,2901429809.3588,0.0,875888214.9047,1647487001.7331,1253942807.6256,142027729.636,1181217504.3328,319410745.234,6802426.3432,0.0,861806759.0988,0.0,861806759.0988,4.5576,4.5572,4061608.2539,4061608.2539,0.09300000000000001,0.8266,0.0116,0.377,0.0053,0.3899,1885961871.7504,1323245233.9688,868609185.4419,0.3365,0.2455
