,0,1,2,3,4,5,6,7,8,9,10,11,12,13,14,15,16,17,18,19,20,21,22,23,24,25,26,27,28
Date,Cash and cash equivalents,Short-term investments,Cash and short-term investments,Receivables,Inventories,Total current assets,Property Plant & Equipment Net,Goodwill and Intangible Assets,Long-term investments,Tax assets,Total non-current assets,Total assets,Payables,Short-term debt,Total current liabilities,Long-term debt,Total debt,Deferred revenue,Tax Liabilities,Deposit Liabilities,Total non-current liabilities,Total liabilities,Other comprehensive income,Retained earnings (deficit),Total shareholders equity,Investments,Net Debt,Other Assets,Other Liabilities
2019-12-31,276000.0,0.0,276000.0,1671000.0,0.0,2315000.0,24000.0,26110000.0,0.0,241000.0,26737000.0,29052000.0,10159000.0,0.0,19833000.0,1105000.0,1105000.0,3360000.0,0.0,1202000.0,5110000.0,25026000.0,128008000.0,-123604000.0,4026000.0,0.0,829000.0,0.0,83000.0
2018-12-31,844000.0,0.0,844000.0,3606000.0,0.0,4722000.0,66000.0,521000.0,0.0,64000.0,32159000.0,36881000.0,9890000.0,1993000.0,19974000.0,17000.0,2010000.0,990000.0,0.0,0.0,5639000.0,36878000.0,112238000.0,-111820000.0,3000.0,0.0,1166000.0,0.0,11265000.0
2018-11-30,93.0,0.0,93.0,0.0,0.0,18332.0,0.0,0.0,19705944.0,0.0,19705944.0,19724276.0,778629.0,1105786.0,2599570.0,1105786.0,2211572.0,0.0,0.0,0.0,1105786.0,19723989.0,1320643.0,-1320643.0,287.0,19705944.0,2211479.0,0.0,16018633.0
2017-11-30,117205.0,0.0,117205.0,0.0,0.0,134074.0,0.0,0.0,71215856.0,0.0,71215856.0,71349930.0,124931.0,604300.0,741731.0,604300.0,1208600.0,0.0,0.0,0.0,1725153.0,66349923.0,5397188.0,-397463.0,5000007.0,71215856.0,1091395.0,0.0,63883039.0
2016-11-30,490888.0,0.0,490888.0,0.0,0.0,523107.0,0.0,0.0,70442615.0,0.0,70442615.0,70965722.0,24750.0,0.0,50250.0,0.0,0.0,0.0,0.0,0.0,1725153.0,65965717.0,5089922.0,-90189.0,5000005.0,70442615.0,-490888.0,0.0,64190314.0
