,0,1,2,3,4,5,6,7,8,9,10,11,12,13,14,15,16,17,18,19,20,21,22,23,24,25,26,27,28
Date,Cash and cash equivalents,Short-term investments,Cash and short-term investments,Receivables,Inventories,Total current assets,Property Plant & Equipment Net,Goodwill and Intangible Assets,Long-term investments,Tax assets,Total non-current assets,Total assets,Payables,Short-term debt,Total current liabilities,Long-term debt,Total debt,Deferred revenue,Tax Liabilities,Deposit Liabilities,Total non-current liabilities,Total liabilities,Other comprehensive income,Retained earnings (deficit),Total shareholders equity,Investments,Net Debt,Other Assets,Other Liabilities
2019-09-30,6160691.0,2256639.0,8417330.0,4377646.0,0.0,14477455.0,111724911.0,0.0,205076.0,1505442.0,112167492.0,126644947.0,665160.0,0.0,3098626.0,35425000.0,35425000.0,396954.0,0.0,0.0,41401007.0,47335414.0,0.0,81848301.0,79309533.0,2461715.0,29264309.0,0.0,2835781.0
2018-09-30,532502.0,0.0,532502.0,7101629.0,0.0,8246176.0,198284401.0,0.0,219109.0,33165.0,198503510.0,206749686.0,881130.0,0.0,5737126.0,51000000.0,51000000.0,0.0,0.0,0.0,69088007.0,77984481.0,3216758.0,125266945.0,128765205.0,219109.0,50467498.0,0.0,3159348.0
2017-09-30,557791.0,544924.0,1102715.0,7585485.0,0.0,9989375.0,196584358.0,0.0,170486.0,489945.0,196754844.0,206744219.0,1847230.0,0.0,3538019.0,52222000.0,52222000.0,0.0,0.0,0.0,83273007.0,90036680.0,3096385.0,113330216.0,116707539.0,715410.0,51664209.0,0.0,3225654.0
2016-09-30,471213.0,0.0,471213.0,5287229.0,0.0,6572253.0,191405651.0,0.0,157322.0,310900.0,191562973.0,198135226.0,2351623.0,0.0,4473793.0,44500000.0,44500000.0,0.0,0.0,0.0,75486907.0,82943407.0,2428597.0,112482284.0,115191819.0,157322.0,44028787.0,0.0,2982707.0
2015-09-30,603915.0,4210764.0,4814679.0,7895591.0,0.0,13784184.0,222792090.0,0.0,2248999.0,345897.0,225041089.0,238825273.0,2028746.0,0.0,4876747.0,65000000.0,65000000.0,0.0,0.0,0.0,104118907.0,111820598.0,1277264.0,125446473.0,127004675.0,6459763.0,64396085.0,0.0,2824944.0
2014-09-30,509755.0,1650563.0,2160318.0,16227469.0,0.0,19368611.0,225084293.0,0.0,1936421.0,600100.0,227271993.0,246640604.0,7034773.0,0.0,9449574.0,78000000.0,78000000.0,0.0,523843.0,0.0,115363907.0,127451951.0,113527.0,118794188.0,119188653.0,3586984.0,77490245.0,0.0,2638470.0
2013-09-30,2867171.0,425198.0,3292369.0,13720761.0,0.0,17805179.0,127918127.0,0.0,1574642.0,127100.0,130033251.0,147838430.0,8409634.0,0.0,10300591.0,8262256.0,8262256.0,0.0,751992.0,0.0,39489163.0,52182944.0,0.0,96454449.0,95655486.0,1999840.0,5395085.0,0.0,2393190.0
2012-09-30,1984099.0,0.0,1984099.0,8349865.0,0.0,11622845.0,121617055.0,0.0,1034870.0,121900.0,123563885.0,135186730.0,6447692.0,14874985.0,7627742.0,14874985.0,29749970.0,0.0,0.0,0.0,41583892.0,51334584.0,0.0,84821395.0,83852146.0,1034870.0,27765871.0,0.0,2122950.0
2011-09-30,0.0,0.0,0.0,0.0,0.0,0.0,0.0,0.0,0.0,0.0,0.0,0.0,0.0,0.0,0.0,0.0,0.0,0.0,0.0,0.0,0.0,0.0,0.0,0.0,0.0,0.0,0.0,0.0,0.0
2010-09-30,5597258.0,0.0,5597258.0,9063002.0,0.0,17358685.0,86218548.0,0.0,754208.0,1458719.0,87766154.0,105124839.0,5062806.0,0.0,7259824.0,0.0,0.0,0.0,22906750.0,0.0,24283019.0,31542843.0,0.0,73599733.0,73581996.0,754208.0,-5597258.0,2698425.0,2197018.0
2009-09-30,639908.0,0.0,639908.0,7747557.0,0.0,97541782.0,96087214.0,0.0,682391.0,3323745.0,36856131.0,108549632.0,4810687.0,0.0,7571158.0,10384722.0,10384722.0,0.0,25098220.0,0.0,36856131.0,44427289.0,0.0,64507547.0,64122343.0,682391.0,9744814.0,2620385.0,2760471.0
