,0,1,2,3,4,5,6,7,8,9,10,11,12,13,14
Date,Depreciation & Amortization,Stock-based compensation,Operating Cash Flow,Capital Expenditure,Acquisitions and disposals,Investment purchases and sales,Investing Cash flow,Issuance (repayment) of debt,Issuance (buybacks) of shares,Dividend payments,Financing Cash Flow,Effect of forex changes on cash,Net cash flow / Change in cash,Free Cash Flow,Net Cash/Marketcap
2019-12-31,5521000.0,18486000.0,4708000.0,2429000.0,-0.0,-72413000.0,-13099000.0,-28192000.0,-66898000.0,-0.0,57759000.0,0.0,49368000.0,2279000.0,0.0
2018-12-31,5028000.0,11317000.0,-11777000.0,6367000.0,-0.0,-51651000.0,-5666000.0,-2451000.0,-17530000.0,-0.0,15688000.0,0.0,-1755000.0,-18144000.0,0.0
2017-12-31,4115000.0,7428000.0,-35886000.0,6552000.0,-0.0,-49125000.0,21398000.0,-2772000.0,-19285000.0,-0.0,137000.0,0.0,-14351000.0,-42438000.0,0.0
2016-12-31,3139000.0,2765000.0,-9497000.0,3530000.0,-0.0,-67103000.0,-70633000.0,-65320000.0,-33636000.0,-0.0,103645000.0,0.0,23515000.0,-13027000.0,0.0
2015-12-31,1972000.0,1178000.0,3456000.0,-7450000.0,0.0,0.0,-7450000.0,6960000.0,538000.0,0.0,7176000.0,0.0,3182000.0,-3994000.0,0.0678
2014-12-31,1366000.0,1175000.0,-832000.0,-1017000.0,0.0,0.0,-817000.0,-3292000.0,702000.0,0.0,-2590000.0,0.0,-4239000.0,-1849000.0,0.0678
2010-12-31,1317000.0,499000.0,-14601000.0,-468000.0,0.0,3691000.0,3572000.0,10057000.0,104000.0,0.0,10161000.0,-4000.0,-872000.0,-15069000.0,0.0678
2009-12-31,1502000.0,313000.0,-8853000.0,-98000.0,0.0,11278000.0,11852000.0,-453000.0,26000.0,0.0,-427000.0,-9000.0,2563000.0,-8951000.0,0.0678
