,0,1,2,3,4,5,6,7,8,9,10,11,12,13,14,15,16,17,18,19,20,21,22,23,24,25,26,27,28,29,30
Date,Revenue,Revenue Growth,Cost of Revenue,Gross Profit,R&D Expenses,SG&A Expense,Operating Expenses,Operating Income,Interest Expense,Earnings before Tax,Income Tax Expense,Net Income - Non-Controlling int,Net Income - Discontinued ops,Net Income,Preferred Dividends,Net Income Com,EPS,EPS Diluted,Weighted Average Shs Out,Weighted Average Shs Out (Dil),Dividend per Share,Gross Margin,EBITDA Margin,EBIT Margin,Profit Margin,Free Cash Flow margin,EBITDA,EBIT,Consolidated Income,Earnings Before Tax Margin,Net Profit Margin
2019-12-31,152836000.0,0.246287703962,78834000.0,74002000.0,38880000.0,56783000.0,95663000.0,-21661000.0,1794000.0,-22789000.0,198000.0,0.0,0.0,-22987000.0,0.0,-22987000.0,-1.05,-1.05,21847000.0,21847000.0,0.0,0.484192206025,-0.10560339187100001,-0.14172708000700002,-0.150403046403,0.0149114083069,-16140000.0,-21661000.0,-22987000.0,-0.149107540108,-0.150403046403
2018-12-31,122633000.0,-0.0212849162011,64352000.0,58281000.0,34168000.0,55233000.0,93150000.0,-34869000.0,1403000.0,-35464000.0,-233000.0,0.0,0.0,-35231000.0,0.0,-35231000.0,-1.65,-1.65,21334000.0,21334000.0,0.0,0.475247282542,-0.24333580683800002,-0.284336190096,-0.28728808722,-0.14795365032299998,-29841000.0,-34869000.0,-35231000.0,-0.289188065203,-0.28728808722
2017-12-31,125300000.0,0.115890530516,60359000.0,64941000.0,32220000.0,49740000.0,81960000.0,-17019000.0,908000.0,-17419000.0,-97000.0,0.0,0.0,-17322000.0,0.0,-17322000.0,-0.84,-0.84,20680000.0,20680000.0,0.0,0.518284118117,-0.102984836393,-0.135826017558,-0.13824421388699998,-0.33869114126100003,-12904000.0,-17019000.0,-17322000.0,-0.13901835594599998,-0.13824421388699998
2016-12-31,112287000.0,0.43079040252800005,52834000.0,59453000.0,25185000.0,34756000.0,59941000.0,-488000.0,1633000.0,-1505000.0,168000.0,0.0,0.0,-1673000.0,0.0,-1673000.0,-0.74,-0.74,10778000.0,10778000.0,0.0,0.529473581091,0.0236091444246,-0.00434600621621,-0.014899320491200001,-0.11601521102199999,2651000.0,-488000.0,-1673000.0,-0.0134031544168,-0.014899320491200001
2015-12-31,78479000.0,0.23079215218899998,37633000.0,40846000.0,17579000.0,21666000.0,39245000.0,1601000.0,1208000.0,1066000.0,166000.0,0.0,0.0,900000.0,11301000.0,-10401000.0,-2.67,-2.67,17810000.0,3893000.0,0.0,0.5205,0.054000000000000006,0.028999999999999998,-0.133,-0.0509,4246000.0,2274000.0,900000.0,0.0136,0.0115
2014-12-31,63763000.0,1.00531496682,30121000.0,33642000.0,14287000.0,16940000.0,33186000.0,456000.0,901000.0,393000.0,96000.0,0.0,0.0,297000.0,11301000.0,-11004000.0,-3.3,-3.3,,3338000.0,0.0,0.5276,0.042,0.0203,-0.17300000000000001,-0.028999999999999998,2660000.0,1294000.0,297000.0,0.0062,0.0047
2010-12-31,31797000.0,0.527526902383,17611000.0,14186000.0,10662000.0,13841000.0,24503000.0,-10317000.0,793000.0,-19853000.0,90000.0,8558000.0,0.0,-19943000.0,0.0,-19943000.0,-0.58,-0.58,,34127000.0,0.0,0.4461,-0.5579999999999999,-0.5994,-0.627,-0.4739,-17743000.0,-19060000.0,-11385000.0,-0.6244,-0.6272
2009-12-31,20816000.0,-0.1688,9001000.0,11815000.0,9492000.0,12591000.0,22083000.0,-10268000.0,524000.0,-18469000.0,-50000.0,8559000.0,-291000.0,-18419000.0,0.0,-18419000.0,-0.55,-0.55,,33527000.0,0.0,0.5676,-0.79,-0.8621,-0.885,-0.43,-16443000.0,-17945000.0,-9860000.0,-0.8873,-0.8848
