,0,1,2,3,4,5,6,7,8,9,10,11,12,13,14
Date,Depreciation & Amortization,Stock-based compensation,Operating Cash Flow,Capital Expenditure,Acquisitions and disposals,Investment purchases and sales,Investing Cash flow,Issuance (repayment) of debt,Issuance (buybacks) of shares,Dividend payments,Financing Cash Flow,Effect of forex changes on cash,Net cash flow / Change in cash,Free Cash Flow,Net Cash/Marketcap
2019-12-31,0.0,0.0,0.0,0.0,-0.0,0.0,0.0,-0.0,0.0,-0.0,0.0,0.0,0.0,0.0,0.0
2018-12-31,8967000.0,,87178000.0,-11503000.0,,,-42259000.0,,,,-4346000.0,-890000.0,39683000.0,,0.0033
2017-12-31,8364000.0,,75822000.0,-12111000.0,,,-20202000.0,,,,-1454000.0,-2101000.0,52065000.0,,0.0033
2016-12-31,8963000.0,,79989000.0,-7076000.0,,,-69969000.0,,,,-4993000.0,-1093000.0,3934000.0,,0.0033
2015-12-31,8527000.0,,85335000.0,-7918000.0,,,-31226000.0,,,,-8244000.0,1977000.0,47842000.0,,0.0033
