,0,1,2,3,4,5,6,7,8,9,10,11,12,13,14,15,16,17,18,19,20,21,22,23,24,25,26,27,28,29,30
Date,Revenue,Revenue Growth,Cost of Revenue,Gross Profit,R&D Expenses,SG&A Expense,Operating Expenses,Operating Income,Interest Expense,Earnings before Tax,Income Tax Expense,Net Income - Non-Controlling int,Net Income - Discontinued ops,Net Income,Preferred Dividends,Net Income Com,EPS,EPS Diluted,Weighted Average Shs Out,Weighted Average Shs Out (Dil),Dividend per Share,Gross Margin,EBITDA Margin,EBIT Margin,Profit Margin,Free Cash Flow margin,EBITDA,EBIT,Consolidated Income,Earnings Before Tax Margin,Net Profit Margin
2018-12-31,6078540000.0,0.119750530397,4577340000.0,1501200000.0,259682000.0,841536000.0,1101218000.0,487412000.0,56967000.0,429249000.0,93992000.0,0.0,0.0,335257000.0,0.0,335257000.0,5.36,5.24,62513000.0,63949000.0,2.33048210293,0.24696719936,0.114903907846,0.0801857024878,0.0551541982121,0.0414076406506,698448000.0,487412000.0,335257000.0,0.0706171218747,0.0551541982121
2017-12-31,5428477000.0,0.201886849684,4103826000.0,1324651000.0,238299000.0,803001000.0,1041300000.0,359657000.0,32155000.0,318791000.0,146299000.0,0.0,0.0,172492000.0,0.0,172492000.0,2.74,2.69,62916000.0,64180000.0,2.26586163914,0.244018902539,0.10145847537000001,0.0662537577298,0.0317753948299,0.0728734781413,550765000.0,359657000.0,172492000.0,0.0587256794125,0.0317753948299
2016-12-31,4516629000.0,-0.0429431122054,3411006000.0,1105623000.0,185126000.0,648677000.0,833803000.0,350278000.0,16319000.0,313251000.0,100303000.0,0.0,0.0,212948000.0,0.0,212948000.0,3.31,3.27,64296000.0,65158000.0,2.1537800423599998,0.24478942149099997,0.114640808444,0.077552971475,0.0471475518578,0.0802912968942,517790000.0,350278000.0,212948000.0,0.06935504332989999,0.0471475518578
2015-12-31,4719290000.0,0.0534957210924,3380248000.0,1339042000.0,166460000.0,525746000.0,692206000.0,716139000.0,11456000.0,685737000.0,230376000.0,0.0,0.0,455361000.0,0.0,455361000.0,6.9,6.75,66020000.0,67484000.0,2.0639707189900003,0.283738019914,0.183984667185,0.151747190785,0.09648930241630001,0.0404183680172,868277000.0,716139000.0,455361000.0,0.14530512005000001,0.09648930241630001
2014-12-31,4479648000.0,0.186012007197,3160470000.0,1319178000.0,148458000.0,517697000.0,666155000.0,714690000.0,11239000.0,699317000.0,245288000.0,0.0,0.0,454029000.0,0.0,454029000.0,6.86,6.65,66175000.0,68229000.0,1.8600301924400002,0.294482512912,0.18800517362100003,0.159541553265,0.101353722435,0.0723697486945,842197000.0,714690000.0,454029000.0,0.15610981041400002,0.101353722435
2013-12-31,3777068000.0,0.17673661326499998,2656189000.0,1120879000.0,139193000.0,449673000.0,588866000.0,577914000.0,6210000.0,574429000.0,193360000.0,0.0,0.0,377292000.0,0.0,377292000.0,5.51,5.35,68535000.0,70546000.0,1.61202619567,0.296759020489,0.17738997550500002,0.153005982418,0.09989017936660001,0.06376348003269999,670014000.0,577914000.0,377292000.0,0.152083309064,0.09989017936660001
2012-12-31,3209782000.0,0.208070610313,2284485000.0,925297000.0,127361000.0,353431000.0,480792000.0,478425000.0,5932000.0,479843000.0,167533000.0,0.0,0.0,312310000.0,0.0,312310000.0,4.54,4.4,68849000.0,71005000.0,1.42995563693,0.288274094627,0.171041210898,0.149052178621,0.0972994427659,0.09752282242219999,549005000.0,478425000.0,312310000.0,0.14949395317199998,0.0972994427659
2011-12-31,2656949000.0,1.0,1916366000.0,740583000.0,105631000.0,309120000.0,414751000.0,349924000.0,3987000.0,346626000.0,119051000.0,0.0,0.0,227575000.0,0.0,227575000.0,3.31,3.2,68792000.0,71057000.0,0.8666985659399999,0.278734367878,0.156688743367,0.131701436497,0.0856527543434,0.0820663098915,416314000.0,349924000.0,227575000.0,0.130460163142,0.0856527543434
2010-12-31,0.0,-1.0,0.0,0.0,0.0,0.0,0.0,0.0,0.0,0.0,0.0,0.0,0.0,0.0,0.0,0.0,0.0,0.0,0.0,0.0,0.0,0.0,0.0,0.0,0.0,0.0,0.0,0.0,0.0,0.0,0.0
2009-12-31,1565887000.0,-0.1963,1172668000.0,393219000.0,62999000.0,182321000.0,228249000.0,164970000.0,4111000.0,151174000.0,50157000.0,0.0,0.0,101017000.0,0.0,101017000.0,1.56,1.56,65400264.0,64798000.0,0.78,0.2511,0.14,0.0992,0.065,0.0953,219878000.0,155285000.0,101017000.0,0.0965,0.0645
