,0,1,2,3,4,5,6,7,8,9,10,11,12,13,14,15,16,17,18,19,20,21,22,23,24,25,26,27,28,29,30
Date,Revenue,Revenue Growth,Cost of Revenue,Gross Profit,R&D Expenses,SG&A Expense,Operating Expenses,Operating Income,Interest Expense,Earnings before Tax,Income Tax Expense,Net Income - Non-Controlling int,Net Income - Discontinued ops,Net Income,Preferred Dividends,Net Income Com,EPS,EPS Diluted,Weighted Average Shs Out,Weighted Average Shs Out (Dil),Dividend per Share,Gross Margin,EBITDA Margin,EBIT Margin,Profit Margin,Free Cash Flow margin,EBITDA,EBIT,Consolidated Income,Earnings Before Tax Margin,Net Profit Margin
2019-12-31,846299000.0,0.056562292055000005,0.0,0.0,30760000.0,516090000.0,551148000.0,118979000.0,1910000.0,118979000.0,24577000.0,0.0,0.0,111711000.0,0.0,111711000.0,7.9,7.69,13555000.0,13937000.0,2.5539212169,0.0,0.168664975381,0.14058742832,0.13199944700400001,0.0801111663845,142741000.0,118979000.0,111711000.0,0.14058742832,0.13199944700400001
2018-12-31,800993000.0,-0.10522670580900001,0.0,0.0,31621000.0,512847000.0,554928000.0,74877000.0,4902000.0,74877000.0,19047000.0,0.0,0.0,57036000.0,0.0,57036000.0,3.78,3.72,13234000.0,13425000.0,3.5126256983199995,0.0,0.123388094528,0.0934802176798,0.0712066147894,0.63652241655,98833000.0,74877000.0,57036000.0,0.0934802176798,0.0712066147894
2017-12-31,895191000.0,0.16277598672000002,0.0,0.0,29891000.0,617635000.0,662926000.0,-29323000.0,7170000.0,-29323000.0,30229000.0,0.0,0.0,-61939000.0,0.0,-61939000.0,-5.07,-5.07,12807000.0,12978000.0,1.45993219294,0.0,7.70785229074e-05,-0.032756138075599996,-0.06919082072989999,0.25929550230099996,69000.0,-29323000.0,-61939000.0,-0.032756138075599996,-0.06919082072989999
2016-12-31,769874000.0,0.105637231318,0.0,0.0,29626000.0,510612000.0,561452000.0,-30874000.0,8195000.0,-30874000.0,-17128000.0,0.0,0.0,-21952000.0,0.0,-21952000.0,-1.73,-1.73,12674000.0,12779000.0,0.0,0.0,0.007189488150010001,-0.0401026661506,-0.0285137567966,0.06336361534479999,5535000.0,-30874000.0,-21952000.0,-0.0401026661506,-0.0285137567966
2015-12-31,696317000.0,0.034322077327900005,0.0,0.0,23762000.0,421733000.0,453157000.0,86423000.0,6406000.0,86423000.0,27941000.0,0.0,0.0,52075000.0,0.0,52075000.0,3.34,3.34,14368000.0,14389000.0,0.0,0.0,0.151540174949,0.124114447874,0.0747863401296,0.545044857443,105520000.0,86423000.0,52075000.0,0.124114447874,0.0747863401296
2014-12-31,673211000.0,0.223506127426,0.0,0.0,22732000.0,394510000.0,426514000.0,110311000.0,5463000.0,110311000.0,35986000.0,0.0,0.0,63172000.0,0.0,63172000.0,3.88,3.87,14971000.0,15025000.0,0.0,0.0,0.193353941038,0.16385798806,0.0938368505565,-0.0743734133875,130168000.0,110311000.0,63172000.0,0.16385798806,0.0938368505565
2013-12-31,550231000.0,0.0617259890167,0.0,0.0,21431000.0,322464000.0,351888000.0,45090000.0,0.0,55223000.0,20390000.0,0.0,0.0,45090000.0,0.0,45090000.0,2.7,2.7,15046000.0,15061000.0,0.0,0.0,0.118308492251,0.0819474002737,0.0819474002737,0.074666821753,65097000.0,45090000.0,45090000.0,0.100363301959,0.0819474002737
2012-12-31,518242000.0,0.058280341922199996,0.0,0.0,20543000.0,296882000.0,324369000.0,41268000.0,0.0,49541000.0,19470000.0,0.0,0.0,41268000.0,0.0,41268000.0,2.26,2.26,15615000.0,15616000.0,0.0,0.0,0.12349249964299999,0.07963075165660001,0.07963075165660001,-0.412766622543,63999000.0,41268000.0,41268000.0,0.09559433623670001,0.07963075165660001
2011-12-31,489702000.0,0.0,0.0,0.0,24472000.0,288129000.0,320877000.0,-102020000.0,0.0,0.0,10876000.0,0.0,0.0,-102020000.0,0.0,-102020000.0,-6.51,-6.51,15672000.0,15672000.0,0.0,0.0,-0.15936426643100002,-0.208330780761,-0.208330780761,0.399336739486,-78041000.0,-102020000.0,-102020000.0,0.0,-0.208330780761
