,0,1,2,3,4,5,6,7,8,9,10,11,12,13,14,15,16,17,18,19,20,21,22,23,24,25,26,27,28
Date,Cash and cash equivalents,Short-term investments,Cash and short-term investments,Receivables,Inventories,Total current assets,Property Plant & Equipment Net,Goodwill and Intangible Assets,Long-term investments,Tax assets,Total non-current assets,Total assets,Payables,Short-term debt,Total current liabilities,Long-term debt,Total debt,Deferred revenue,Tax Liabilities,Deposit Liabilities,Total non-current liabilities,Total liabilities,Other comprehensive income,Retained earnings (deficit),Total shareholders equity,Investments,Net Debt,Other Assets,Other Liabilities
2019-12-31,250018000.0,2100000.0,252118000.0,18574000.0,0.0,270692000.0,29850000.0,104335000.0,931444000.0,68035000.0,1358027000.0,1628719000.0,0.0,49978000.0,54237000.0,0.0,49978000.0,0.0,4259000.0,0.0,68035000.0,897436000.0,473291000.0,258669000.0,731283000.0,933544000.0,-200040000.0,0.0,775164000.0
2018-12-31,50364000.0,3000000.0,53364000.0,23120000.0,0.0,76484000.0,32619000.0,94229000.0,676516000.0,101857000.0,1268785000.0,1345269000.0,0.0,49953000.0,50727000.0,0.0,49953000.0,0.0,774000.0,0.0,101857000.0,667825000.0,496095000.0,182552000.0,677444000.0,679516000.0,-411000.0,0.0,515241000.0
2017-12-31,33793000.0,14100000.0,47893000.0,20884000.0,0.0,68777000.0,25179000.0,104689000.0,827158000.0,101205000.0,1955906000.0,2024683000.0,0.0,289937000.0,290103000.0,0.0,289937000.0,0.0,166000.0,0.0,101205000.0,1331351000.0,518146000.0,176270000.0,693332000.0,841258000.0,256144000.0,0.0,940043000.0
2016-12-31,41359000.0,19700000.0,61059000.0,22840000.0,0.0,83899000.0,25343000.0,233452000.0,941215000.0,107110000.0,2041604000.0,2125503000.0,0.0,418832000.0,418955000.0,0.0,418832000.0,0.0,123000.0,0.0,9277000.0,1366253000.0,504466000.0,257188000.0,759250000.0,960915000.0,377473000.0,0.0,938021000.0
2015-12-31,189910000.0,19700000.0,209610000.0,18362000.0,0.0,227972000.0,18984000.0,248506000.0,982426000.0,88544000.0,1910546000.0,2138518000.0,0.0,446190000.0,446313000.0,0.0,446190000.0,0.0,123000.0,0.0,21734000.0,1354859000.0,504513000.0,279140000.0,783659000.0,1002126000.0,256280000.0,0.0,886812000.0
2014-12-31,15867000.0,20704000.0,36571000.0,23959000.0,0.0,60530000.0,18171000.0,242536000.0,956609000.0,66119000.0,2563387000.0,2623917000.0,0.0,377767000.0,380090000.0,0.0,377767000.0,0.0,2323000.0,0.0,20268000.0,1804005000.0,592275000.0,227065000.0,819912000.0,977313000.0,361900000.0,0.0,1403647000.0
2013-12-31,123683000.0,0.0,123683000.0,112043000.0,0.0,235726000.0,16114000.0,250564000.0,0.0,52380000.0,2082431000.0,2318157000.0,0.0,514711000.0,516911000.0,0.0,514711000.0,0.0,2200000.0,0.0,16128000.0,1583481000.0,569692000.0,163893000.0,734676000.0,0.0,391028000.0,0.0,1050442000.0
2012-12-31,105371000.0,0.0,105371000.0,44874000.0,0.0,150245000.0,15089000.0,238102000.0,0.0,45298000.0,1937488000.0,2087733000.0,0.0,477014000.0,477304000.0,0.0,477014000.0,0.0,290000.0,0.0,11676000.0,1354441000.0,613627000.0,118803000.0,733292000.0,0.0,371643000.0,0.0,865461000.0
2011-12-31,85807000.0,0.0,85807000.0,41502000.0,0.0,127309000.0,21793000.0,253656000.0,0.0,51606000.0,1528412000.0,1655721000.0,0.0,166175000.0,175090000.0,115000000.0,281175000.0,0.0,8915000.0,0.0,121526000.0,937330000.0,640056000.0,77535000.0,718391000.0,0.0,195368000.0,0.0,640714000.0
