,0,1,2,3,4,5,6,7,8,9,10,11,12,13,14,15,16,17,18,19,20,21,22,23,24,25,26,27,28,29,30
Date,Revenue,Revenue Growth,Cost of Revenue,Gross Profit,R&D Expenses,SG&A Expense,Operating Expenses,Operating Income,Interest Expense,Earnings before Tax,Income Tax Expense,Net Income - Non-Controlling int,Net Income - Discontinued ops,Net Income,Preferred Dividends,Net Income Com,EPS,EPS Diluted,Weighted Average Shs Out,Weighted Average Shs Out (Dil),Dividend per Share,Gross Margin,EBITDA Margin,EBIT Margin,Profit Margin,Free Cash Flow margin,EBITDA,EBIT,Consolidated Income,Earnings Before Tax Margin,Net Profit Margin
2019-12-31,46279000.0,0.590288993505,0.0,0.0,54996000.0,18440000.0,73436000.0,-27157000.0,0.0,-25469000.0,0.0,0.0,0.0,-25469000.0,0.0,-25469000.0,-0.56,-0.56,50625000.0,50625000.0,0.0,0.0,-0.564338036691,-0.586810432378,-0.550336005532,-1.18690982951,-26117000.0,-27157000.0,-25469000.0,-0.550336005532,-0.550336005532
2018-12-31,29101000.0,0.15137487636,0.0,0.0,41490000.0,18442000.0,59932000.0,-30831000.0,0.0,-27066000.0,-312000.0,0.0,0.0,-26754000.0,0.0,-26754000.0,-0.5,-0.5,53081000.0,53081000.0,0.0,0.0,-1.03986117316,-1.05944812893,-0.919349850521,-0.0949795539672,-30261000.0,-30831000.0,-26754000.0,-0.930071131576,-0.919349850521
2017-12-31,25275000.0,3.3348333314499996,0.0,0.0,22285000.0,17584000.0,39869000.0,-14594000.0,0.0,-16544000.0,1103000.0,0.0,0.0,-17647000.0,0.0,-17647000.0,-0.4,-0.4,43931000.0,43931000.0,0.0,0.0,-0.561582591494,-0.577408506429,-0.6981998021760001,1.8913550939700001,-14194000.0,-14594000.0,-17647000.0,-0.654559841741,-0.6981998021760001
2016-12-31,5830674.0,0.988680497597,0.0,0.0,19698803.0,8890886.0,28589689.0,-22759015.0,0.0,-22637194.0,161970.0,0.0,0.0,-22799164.0,0.0,-22799164.0,-0.55,-0.55,41713223.0,41713223.0,0.0,0.0,-3.8413454430800003,-3.90332489863,-3.9102107234900005,-2.56721144074,-22397633.0,-22759015.0,-22799164.0,-3.88243177375,-3.9102107234900005
2015-12-31,2931931.0,-0.453513235841,0.0,0.0,8244751.0,8368215.0,16612966.0,-13681035.0,0.0,-13854775.0,203866.0,0.0,0.0,-14058641.0,0.0,-14058641.0,-0.41,-0.41,34392636.0,34392636.0,0.0,0.0,-4.5612018154600005,-4.66621997585,-4.79501086485,-4.54520484964,-13373129.0,-13681035.0,-14058641.0,-4.7254778506,-4.79501086485
2014-12-31,5365054.0,1.0,0.0,0.0,5600421.0,6962891.0,12563312.0,-7198257.0,2654727.0,-9849982.0,-18.0,0.0,0.0,-9849964.0,0.0,-9849964.0,-0.71,-0.71,13872390.0,13872390.0,0.0,0.0,-1.27329156426,-1.3416932988899999,-1.83594871552,-0.994045353504,-6831278.0,-7198257.0,-9849964.0,-1.83595207057,-1.83594871552
2014-06-30,0.0,-1.0,0.0,0.0,0.0,525.0,15712.0,-15712.0,0.0,0.0,0.0,0.0,0.0,-15712.0,0.0,-15712.0,0.0,0.0,6100000.0,6100000.0,0.0,0.0,0.0,0.0,0.0,0.0,-15712.0,-15712.0,-15712.0,0.0,0.0
2013-12-31,12427292.0,,0.0,12427292.0,9411856.0,2461610.0,11873466.0,553826.0,493937.0,66196.0,0.0,0.0,0.0,66196.0,0.0,66196.0,0.01,0.01,,11828974.0,0.0,1.0,0.076,0.0451,0.005,-0.2515,944810.0,560133.0,66196.0,0.0053,0.0053
