,0,1,2,3,4,5,6,7,8,9,10,11,12,13,14,15,16,17,18,19,20,21,22,23,24,25,26,27,28
Date,Cash and cash equivalents,Short-term investments,Cash and short-term investments,Receivables,Inventories,Total current assets,Property Plant & Equipment Net,Goodwill and Intangible Assets,Long-term investments,Tax assets,Total non-current assets,Total assets,Payables,Short-term debt,Total current liabilities,Long-term debt,Total debt,Deferred revenue,Tax Liabilities,Deposit Liabilities,Total non-current liabilities,Total liabilities,Other comprehensive income,Retained earnings (deficit),Total shareholders equity,Investments,Net Debt,Other Assets,Other Liabilities
2019-12-31,215950000.0,1543000.0,217493000.0,227516000.0,0.0,445009000.0,37123000.0,212531000.0,0.0,48237000.0,507768000.0,952777000.0,24767000.0,0.0,38956000.0,21500000.0,21500000.0,14189000.0,0.0,0.0,26341000.0,921387000.0,175912000.0,-144919000.0,31390000.0,1543000.0,-194450000.0,0.0,856090000.0
2018-12-31,106110000.0,2157000.0,108267000.0,217768000.0,0.0,326035000.0,34805000.0,225191000.0,0.0,58851000.0,345782000.0,671817000.0,24657000.0,234000.0,32747000.0,30000000.0,30234000.0,7856000.0,0.0,0.0,37040000.0,758304000.0,83736000.0,-169836000.0,-86487000.0,2157000.0,-75876000.0,0.0,688517000.0
2017-12-31,145619000.0,37121000.0,182740000.0,190389000.0,0.0,373129000.0,33789000.0,84581000.0,0.0,44002000.0,185836000.0,558965000.0,16873000.0,288000.0,17543000.0,0.0,288000.0,382000.0,0.0,0.0,2413000.0,716243000.0,28372000.0,-185991000.0,-157278000.0,37121000.0,-145331000.0,0.0,696287000.0
2016-12-31,152431000.0,0.0,152431000.0,227560000.0,0.0,379991000.0,38155000.0,86999000.0,0.0,70957000.0,210485000.0,590476000.0,17354000.0,365000.0,18505000.0,0.0,365000.0,786000.0,0.0,0.0,1527000.0,599036000.0,9145000.0,-17946000.0,-8560000.0,0.0,-152066000.0,0.0,579004000.0
2015-12-31,82322000.0,0.0,82322000.0,169590000.0,0.0,251912000.0,31490000.0,99415000.0,0.0,68688000.0,215340000.0,467252000.0,29533000.0,425000.0,30435000.0,0.0,425000.0,477000.0,0.0,0.0,1672000.0,578102000.0,0.0,-110982000.0,-110850000.0,0.0,-81897000.0,0.0,545995000.0
2014-12-31,38533000.0,,,211603000.0,0.0,,5111000.0,88670000.0,,2704000.0,,347951000.0,4817000.0,,,,0.0,1574000.0,62000.0,0.0,,15631000.0,1010000.0,0.0,332320000.0,0.0,,,
