,0,1,2,3,4,5,6,7,8,9,10,11,12,13,14,15,16,17,18,19,20,21,22,23,24,25,26,27,28,29,30
Date,Revenue,Revenue Growth,Cost of Revenue,Gross Profit,R&D Expenses,SG&A Expense,Operating Expenses,Operating Income,Interest Expense,Earnings before Tax,Income Tax Expense,Net Income - Non-Controlling int,Net Income - Discontinued ops,Net Income,Preferred Dividends,Net Income Com,EPS,EPS Diluted,Weighted Average Shs Out,Weighted Average Shs Out (Dil),Dividend per Share,Gross Margin,EBITDA Margin,EBIT Margin,Profit Margin,Free Cash Flow margin,EBITDA,EBIT,Consolidated Income,Earnings Before Tax Margin,Net Profit Margin
2019-03-03,51116000.0,-0.540307205295,34932000.0,16184000.0,0.0,8968000.0,8968000.0,7216000.0,0.0,8097000.0,1791000.0,0.0,0.0,113545000.0,0.0,113545000.0,5.6,5.57,20288000.0,20385000.0,4.66279126809,0.316613193521,0.175052821035,0.141169105564,2.2213201346,0.09349323108219999,8948000.0,7216000.0,113545000.0,0.15840441349099998,2.2213201346
2018-02-25,111196000.0,-0.029779511207699998,84737000.0,26459000.0,0.0,19371000.0,19371000.0,2066000.0,2269000.0,1130000.0,-19465000.0,0.0,0.0,20595000.0,0.0,20595000.0,1.02,1.02,20237000.0,20267000.0,3.3949770563,0.23794920680599999,0.0483290765855,0.018579805028999998,0.18521349688799998,0.022078132306900002,5374000.0,2066000.0,20595000.0,0.010162236051700002,0.18521349688799998
2017-02-26,114609000.0,-0.21422645778299998,84568000.0,30041000.0,0.0,19739000.0,19739000.0,9989000.0,1432000.0,10261000.0,978000.0,0.0,0.0,9283000.0,0.0,9283000.0,0.46,0.46,20235000.0,20239000.0,0.399871535155,0.26211728572799997,0.11804483068499999,0.087157204059,0.0809971293703,0.11277473845899999,13529000.0,9989000.0,9283000.0,0.0895304906246,0.0809971293703
2016-02-28,145855000.0,-0.10013819823999999,103103000.0,42752000.0,0.0,21211000.0,21211000.0,21006000.0,1657000.0,20498000.0,2469000.0,0.0,0.0,18029000.0,0.0,18029000.0,0.89,0.89,20347000.0,20352000.0,0.40069772012599997,0.293113023208,0.17319255424899999,0.144019745638,0.123609063796,0.0929004833568,25261000.0,21006000.0,18029000.0,0.140536834527,0.123609063796
2015-03-01,162086000.0,-0.022188171134900004,113133000.0,48953000.0,0.0,24373000.0,24373000.0,23401000.0,1438000.0,22790000.0,2747000.0,0.0,0.0,20043000.0,0.0,20043000.0,0.96,0.96,20912000.0,20986000.0,1.88916420471,0.30201868144099997,0.17124242686000002,0.14437397431,0.123656577373,0.176332317412,27756000.0,23401000.0,20043000.0,0.140604370519,0.123656577373
2014-03-02,165764000.0,-0.060380010883400004,117664000.0,48100000.0,0.0,25168000.0,25168000.0,22386000.0,764000.0,22082000.0,64411000.0,0.0,0.0,-42329000.0,0.0,-42329000.0,-2.03,-2.03,20849000.0,20849000.0,2.90344860665,0.290171569219,0.168667503197,0.135047416809,-0.255357013586,0.17654617407900003,27959000.0,22386000.0,-42329000.0,0.133213484231,-0.255357013586
2013-03-03,176416000.0,-0.08712885632379999,125866000.0,50550000.0,0.0,26595000.0,26595000.0,20252000.0,14000.0,20885000.0,3924000.0,0.0,0.0,16961000.0,0.0,16961000.0,0.82,0.81,20801000.0,20823000.0,2.90006243097,0.286538635951,0.14749229094900002,0.114796843824,0.0961420732813,0.101391030292,26020000.0,20252000.0,16961000.0,0.11838495374600001,0.0961420732813
2012-02-26,193254000.0,-0.0869257082381,138512000.0,54742000.0,0.0,28247000.0,28247000.0,25245000.0,0.0,27651000.0,4209000.0,0.0,0.0,23442000.0,0.0,23442000.0,1.13,1.13,20746000.0,20792000.0,0.398999615237,0.283264511989,0.168777877819,0.13063119004,0.121301499581,0.141989299057,32617000.0,25245000.0,23442000.0,0.143081126393,0.121301499581
2011-02-27,211652000.0,0.204717507371,141751000.0,69901000.0,0.0,27917000.0,29229000.0,40672000.0,0.0,41317000.0,8696000.0,0.0,0.0,32621000.0,0.0,32621000.0,1.58,1.58,20670249.0,20628000.0,1.4,0.3303,0.22699999999999998,0.1952,0.154,0.1883,48063000.0,41317000.0,32621000.0,0.1952,0.1541
2010-02-28,175686000.0,-0.1218,124084000.0,51602000.0,0.0,24480000.0,24480000.0,27122000.0,0.0,28184000.0,2825000.0,0.0,0.0,25359000.0,0.0,25359000.0,1.24,1.23,20540690.0,20522000.0,0.36,0.2937,0.201,0.1604,0.14400000000000002,0.1152,35241000.0,28184000.0,25359000.0,0.1604,0.1443
