,0,1,2,3,4,5,6,7,8,9,10,11,12,13,14,15,16,17,18,19,20,21,22,23,24,25,26,27,28,29,30
Date,Revenue,Revenue Growth,Cost of Revenue,Gross Profit,R&D Expenses,SG&A Expense,Operating Expenses,Operating Income,Interest Expense,Earnings before Tax,Income Tax Expense,Net Income - Non-Controlling int,Net Income - Discontinued ops,Net Income,Preferred Dividends,Net Income Com,EPS,EPS Diluted,Weighted Average Shs Out,Weighted Average Shs Out (Dil),Dividend per Share,Gross Margin,EBITDA Margin,EBIT Margin,Profit Margin,Free Cash Flow margin,EBITDA,EBIT,Consolidated Income,Earnings Before Tax Margin,Net Profit Margin
2019-12-29,2883673000.0,0.0380407315201,956398000.0,1396055000.0,189336000.0,815318000.0,1004654000.0,361973000.0,63627000.0,237142000.0,9389000.0,0.0,0.0,227558000.0,0.0,227558000.0,2.06,2.04,110827000.0,111501000.0,0.278553555573,0.484123893382,0.208565256879,0.125524981508,0.07891255353849999,0.0995737033984,601434000.0,361973000.0,227558000.0,0.08223609264989999,0.07891255353849999
2018-12-30,2777996000.0,0.230845438732,1437057000.0,1340939000.0,193998000.0,811913000.0,1005911000.0,323884000.0,66976000.0,257683000.0,20208000.0,0.0,0.0,237927000.0,0.0,237927000.0,2.15,2.13,110561000.0,111534000.0,0.278022845052,0.48270011907899996,0.189735694364,0.11658908076199999,0.0856469915723,0.0783964411756,527085000.0,323884000.0,237927000.0,0.09275859288489999,0.0856469915723
2017-12-31,2256982000.0,0.06687017877899999,708685000.0,1073031000.0,139404000.0,616167000.0,755571000.0,304803000.0,43940000.0,296718000.0,139828000.0,0.0,0.0,292633000.0,0.0,292633000.0,2.67,2.64,109857000.0,110859000.0,0.277767253899,0.475427362735,0.185461381615,0.13504892817,0.129656771742,0.11048559536599999,418583000.0,304803000.0,292633000.0,0.131466710855,0.129656771742
2017-01-01,2115517000.0,-0.0649065864436,664803000.0,1013353000.0,124278000.0,600885000.0,725163000.0,283066000.0,41528000.0,244068000.0,28362000.0,0.0,0.0,234299000.0,0.0,234299000.0,2.14,2.12,109478000.0,110313000.0,0.27919646823100003,0.479009622707,0.18225852120299998,0.133804644444,0.110752596174,0.150749438553,385571000.0,283066000.0,234299000.0,0.115370379912,0.110752596174
2016-01-03,2262359000.0,0.0112371654273,793728000.0,1024500000.0,125928000.0,598848000.0,724776000.0,286134000.0,37997000.0,244015000.0,31327000.0,0.0,0.0,212425000.0,0.0,212425000.0,1.89,1.87,112507000.0,113315000.0,0.278612716763,0.452845901115,0.179861816803,0.126475948335,0.09389535436239999,0.113804219401,406912000.0,286134000.0,212425000.0,0.107858655501,0.09389535436239999
2014-12-28,2237219000.0,0.0327698048962,805345000.0,1004608000.0,121141000.0,659335000.0,780476000.0,210742000.0,36270000.0,169603000.0,8437000.0,0.0,0.0,157778000.0,0.0,157778000.0,1.4,1.39,112593000.0,113739000.0,0.278004905969,0.449043209449,0.14810217506599999,0.0941981987459,0.070524164152,0.11287451072100001,331337000.0,210742000.0,157778000.0,0.0758097441511,0.070524164152
2013-12-29,2166232000.0,0.0241239028841,783584000.0,976974000.0,133023000.0,585850000.0,718873000.0,217442000.0,49924000.0,-82253000.0,-14592000.0,0.0,0.0,167212000.0,0.0,167212000.0,1.49,1.47,112254000.0,113503000.0,0.27840673814800004,0.451001554773,0.162779425288,0.100377983522,0.07719025478339998,0.0552110761913,352618000.0,217442000.0,167212000.0,-0.0379705405515,0.07719025478339998
2012-12-30,2115205000.0,0.100931302819,762989000.0,963206000.0,132639000.0,632734000.0,765373000.0,98543000.0,45787000.0,50587000.0,-17854000.0,0.0,0.0,69940000.0,0.0,69940000.0,0.61,0.61,113728000.0,114860000.0,0.27775552846900003,0.45537241071199996,0.11069328977600001,0.046587919374199996,0.0330653530036,0.0518918970029,234139000.0,98543000.0,69940000.0,0.0239158852215,0.0330653530036
2012-01-01,1921287000.0,0.127286947603,686812000.0,850579000.0,115821000.0,627172000.0,742993000.0,91128000.0,24783000.0,64354000.0,63182000.0,0.0,0.0,7655000.0,0.0,7655000.0,0.07,0.07,112976000.0,113864000.0,0.279535235017,0.442713139682,0.110234441809,0.0474307066045,0.00398430843492,0.10112075915799999,211792000.0,91128000.0,7655000.0,0.0334952560445,0.00398430843492
2011-01-02,1704346000.0,0.099034928545,945715000.0,758631000.0,95409000.0,490658000.0,586067000.0,153601000.0,0.0,161984000.0,26062000.0,0.0,0.0,383919000.0,0.0,383919000.0,0.0,0.0,0.0,0.0,0.0,0.44511560446099996,0.0901231322748,0.0901231322748,0.225258838288,0.0,153601000.0,153601000.0,383919000.0,0.09504173448349999,0.225258838288
2010-01-03,1550766000.0,-0.0656,849521000.0,701245000.0,90491000.0,476821000.0,585299000.0,115946000.0,15787000.0,108779000.0,26698000.0,0.0,-8620000.0,82081000.0,0.0,82081000.0,0.71,0.7,116764074.0,116764074.0,0.28,0.4522,0.132,0.0803,0.053,0.0794,205328000.0,124566000.0,82081000.0,0.0701,0.0529
