,0,1,2,3,4,5,6,7,8,9,10,11,12,13,14
Date,Depreciation & Amortization,Stock-based compensation,Operating Cash Flow,Capital Expenditure,Acquisitions and disposals,Investment purchases and sales,Investing Cash flow,Issuance (repayment) of debt,Issuance (buybacks) of shares,Dividend payments,Financing Cash Flow,Effect of forex changes on cash,Net cash flow / Change in cash,Free Cash Flow,Net Cash/Marketcap
2020-02-01,74788000.0,16219000.0,177902000.0,57502000.0,-0.0,-131393000.0,-134350000.0,-0.0,-131393000.0,-34928000.0,-44374000.0,173000.0,-649000.0,120400000.0,0.0
2019-02-02,68884000.0,27415000.0,139914000.0,71114000.0,-0.0,-253543000.0,-56863000.0,-0.0,-253543000.0,-33042000.0,-259183000.0,749000.0,-175383000.0,68800000.0,0.0
2018-02-03,68159000.0,30797000.0,214383000.0,58657000.0,-0.0,-118579000.0,-25145000.0,-0.0,-118579000.0,-28101000.0,-140600000.0,2172000.0,50810000.0,155726000.0,0.0
2017-01-28,65734000.0,28040000.0,199292000.0,34684000.0,-0.0,-157809000.0,-44252000.0,-0.0,-157809000.0,-14785000.0,-155048000.0,6183000.0,6175000.0,164608000.0,0.0
2016-01-30,62685000.0,21119000.0,182650000.0,42145000.0,-0.0,-120893000.0,-30624000.0,-0.0,-120893000.0,-12217000.0,-131353000.0,-6430000.0,14243000.0,140505000.0,0.0
2015-01-31,60494000.0,17783000.0,161410000.0,72212000.0,-0.0,-76129000.0,-61707000.0,-0.0,-76129000.0,-11491000.0,-87603000.0,-12806000.0,-706000.0,89198000.0,0.0
2014-02-01,64858000.0,21210000.0,173470000.0,72606000.0,-0.0,-65830000.0,-119700000.0,-0.0,-65830000.0,-0.0,-64140000.0,-9761000.0,-20131000.0,100864000.0,0.0
2013-02-02,77435000.0,14253000.0,205042000.0,90182000.0,-0.0,-89020000.0,-105220000.0,-0.0,-89020000.0,-0.0,-82257000.0,-92000.0,17473000.0,114860000.0,0.0
2012-01-28,74573000.0,9286000.0,156103000.0,79764000.0,-0.0,-91757000.0,-77659000.0,-0.0,-91757000.0,-0.0,-85028000.0,-418000.0,-7002000.0,76339000.0,0.0
2011-01-29,71640000.0,8045000.0,174511000.0,83945000.0,-0.0,-90623000.0,-84318000.0,-0.0,-90623000.0,-0.0,-78008000.0,3092000.0,15277000.0,90566000.0,0.0
2010-01-30,71447000.0,8450000.0,155177000.0,-62217000.0,0.0,0.0,-64329000.0,-85000000.0,-68012000.0,0.0,-154012000.0,5338000.0,-57826000.0,92960000.0,0.1896
