,0,1,2,3,4,5,6,7,8,9,10,11,12,13,14
Date,Depreciation & Amortization,Stock-based compensation,Operating Cash Flow,Capital Expenditure,Acquisitions and disposals,Investment purchases and sales,Investing Cash flow,Issuance (repayment) of debt,Issuance (buybacks) of shares,Dividend payments,Financing Cash Flow,Effect of forex changes on cash,Net cash flow / Change in cash,Free Cash Flow,Net Cash/Marketcap
2018-12-31,1026805000.0,76093000.0,1803559000.0,0.0,-45870000.0,-53192000.0,-674648000.0,4166088000.0,-53192000.0,-1123367000.0,-1232101000.0,-10852000.0,-103190000.0,1803559000.0,0.0
2017-12-31,960912000.0,76640000.0,1687246000.0,0.0,-0.0,-23831000.0,559068000.0,3578889000.0,-23831000.0,-942884000.0,-2606584000.0,15790000.0,-360270000.0,1687246000.0,0.0
2016-12-31,1009456000.0,60341000.0,1417005000.0,0.0,-0.0,0.0,1251696000.0,2301647000.0,-807316000.0,-893455000.0,-2125465000.0,-342000.0,543236000.0,1417005000.0,0.0
2015-12-31,908151000.0,53665000.0,963410000.0,0.0,-4809499000.0,0.0,-4658236000.0,3156294000.0,-192580000.0,-804697000.0,3608214000.0,-9623000.0,-86612000.0,963410000.0,0.0
2014-12-31,663574000.0,57478000.0,704531000.0,0.0,-0.0,0.0,-507151000.0,4205806000.0,-350692000.0,-672190000.0,-337817000.0,-18842000.0,-140437000.0,704531000.0,0.0
2013-12-31,674147000.0,49239000.0,484989000.0,0.0,-678642000.0,0.0,2270952000.0,-2026760000.0,-491129000.0,-552170000.0,-2365622000.0,-62970000.0,390319000.0,484989000.0,0.0
2012-12-31,788467000.0,32138000.0,463492000.0,24000000.0,-365156000.0,0.0,532757000.0,-196710000.0,-100810000.0,-520253000.0,-1071511000.0,3142000.0,-75262000.0,439492000.0,0.0
2011-12-31,603884000.0,28920000.0,207064000.0,0.0,-0.0,0.0,-233065000.0,-975466000.0,-176072000.0,387133000.0,163318000.0,1121000.0,138438000.0,207064000.0,0.0
2010-12-31,0.0,0.0,0.0,0.0,-0.0,0.0,0.0,-0.0,0.0,-0.0,0.0,0.0,0.0,0.0,0.0
2009-12-31,327126000.0,17242000.0,89095000.0,-1318125000.0,1025298000.0,7585000.0,1235277000.0,-2529774000.0,1491137000.0,-271845000.0,-1462636000.0,-2010000.0,-140274000.0,-1229030000.0,-0.2555
