,0,1,2,3,4,5,6,7,8,9,10,11,12,13,14,15,16,17,18,19,20,21,22,23,24,25,26,27,28
Date,Cash and cash equivalents,Short-term investments,Cash and short-term investments,Receivables,Inventories,Total current assets,Property Plant & Equipment Net,Goodwill and Intangible Assets,Long-term investments,Tax assets,Total non-current assets,Total assets,Payables,Short-term debt,Total current liabilities,Long-term debt,Total debt,Deferred revenue,Tax Liabilities,Deposit Liabilities,Total non-current liabilities,Total liabilities,Other comprehensive income,Retained earnings (deficit),Total shareholders equity,Investments,Net Debt,Other Assets,Other Liabilities
2019-06-30,3216005.0,0.0,3216005.0,39914268.0,112641.0,45698915.0,4549212.0,462738.0,0.0,0.0,5652402.0,51351317.0,10206543.0,4843500.0,22828865.0,3997238.0,8840738.0,0.0,2975046.0,736615.0,3997238.0,26826103.0,-308571.0,12085566.0,24525214.0,0.0,,,7778822.0
2018-06-30,319093.0,1957720.0,2276813.0,24954466.0,2728.0,29044735.0,3962455.0,492330.0,0.0,220222.0,4684958.0,33729693.0,3490962.0,4530011.0,16914656.0,981502.0,5511513.0,0.0,3037585.0,685599.0,981502.0,17896158.0,-41025.0,8277801.0,14033535.0,1957720.0,,,8893683.0
2017-06-30,21530.0,2989062.0,3010592.0,16272934.0,282474.0,22126781.0,4293063.0,493167.0,0.0,93320.0,4889167.0,27015948.0,2807624.0,11874233.0,16884075.0,0.0,11874233.0,0.0,2075120.0,106516.0,0.0,16884075.0,-174578.0,4888298.0,10131873.0,2989062.0,,,2202218.0
2016-06-30,51848.0,0.0,51848.0,6248957.0,1138801.0,7643345.0,4900721.0,515671.0,2296330.0,50297.0,7770920.0,15414265.0,396592.0,5342892.0,6907596.0,978276.0,6321168.0,0.0,1137535.0,30101.0,978276.0,7885872.0,-38915.0,2696145.0,7528393.0,2296330.0,,,1168112.0
