,0,1,2,3,4,5,6,7,8,9,10,11,12,13,14,15,16,17,18,19,20,21,22,23,24,25,26,27,28
Date,Cash and cash equivalents,Short-term investments,Cash and short-term investments,Receivables,Inventories,Total current assets,Property Plant & Equipment Net,Goodwill and Intangible Assets,Long-term investments,Tax assets,Total non-current assets,Total assets,Payables,Short-term debt,Total current liabilities,Long-term debt,Total debt,Deferred revenue,Tax Liabilities,Deposit Liabilities,Total non-current liabilities,Total liabilities,Other comprehensive income,Retained earnings (deficit),Total shareholders equity,Investments,Net Debt,Other Assets,Other Liabilities
2019-12-31,17792000.0,0.0,17792000.0,4700000.0,8155000.0,32479000.0,5273000.0,0.0,0.0,0.0,12913000.0,45392000.0,6495000.0,4301000.0,40175000.0,4528000.0,8829000.0,16335000.0,0.0,0.0,75539000.0,115714000.0,270492000.0,-340829000.0,-70322000.0,0.0,-8963000.0,0.0,0.0
2018-12-31,37808000.0,0.0,37808000.0,4729000.0,8569000.0,52983000.0,6390000.0,0.0,0.0,0.0,8148000.0,61131000.0,5211000.0,33027000.0,25353000.0,47966000.0,80993000.0,9868000.0,0.0,0.0,88659000.0,114012000.0,269524000.0,-322553000.0,-52881000.0,0.0,43185000.0,0.0,0.0
2017-12-31,51163000.0,0.0,51163000.0,1721000.0,7833000.0,62651000.0,7676000.0,0.0,0.0,0.0,9563000.0,72214000.0,7521000.0,5921000.0,22752000.0,46267000.0,52188000.0,0.0,0.0,0.0,80755000.0,103507000.0,266495000.0,-297932000.0,-31293000.0,0.0,1025000.0,0.0,0.0
2016-12-31,63281000.0,327000.0,63281000.0,693000.0,5245000.0,71867000.0,8703000.0,0.0,0.0,0.0,10380000.0,82247000.0,4007000.0,53872000.0,66212000.0,19343000.0,73215000.0,837000.0,0.0,0.0,25992000.0,92204000.0,202575000.0,-212656000.0,-9957000.0,327000.0,9934000.0,0.0,0.0
2015-12-31,76374000.0,0.0,76374000.0,0.0,5767000.0,85881000.0,9744000.0,0.0,0.0,0.0,11372000.0,97253000.0,3629000.0,0.0,11235000.0,67796000.0,67796000.0,504000.0,0.0,0.0,75145000.0,86380000.0,194064000.0,-183291000.0,10873000.0,0.0,-8578000.0,0.0,0.0
2014-12-31,54767000.0,0.0,54767000.0,0.0,3451000.0,65520000.0,11282000.0,0.0,0.0,0.0,12837000.0,78357000.0,10638000.0,0.0,64354000.0,67351000.0,67351000.0,886000.0,0.0,0.0,69604000.0,133958000.0,0.0,-241328000.0,-55601000.0,0.0,12584000.0,7302000.0,53716000.0
2013-12-31,0.0,0.0,0.0,0.0,0.0,0.0,0.0,0.0,0.0,0.0,0.0,0.0,0.0,0.0,0.0,0.0,0.0,0.0,0.0,0.0,0.0,0.0,0.0,0.0,0.0,0.0,0.0,0.0,0.0
2012-12-31,0.0,0.0,0.0,0.0,0.0,0.0,0.0,0.0,0.0,0.0,0.0,0.0,0.0,0.0,0.0,0.0,0.0,0.0,0.0,0.0,0.0,0.0,0.0,0.0,0.0,0.0,0.0,0.0,0.0
2011-12-31,27001000.0,0.0,27001000.0,1374000.0,279000.0,32491000.0,18271000.0,0.0,0.0,0.0,19314000.0,51805000.0,5032000.0,0.0,18693000.0,0.0,0.0,6121000.0,0.0,0.0,59189000.0,77882000.0,145814000.0,-171977000.0,-26077000.0,0.0,-27001000.0,0.0,0.0
