,0,1,2,3,4,5,6,7,8,9,10,11,12,13,14
Date,Depreciation & Amortization,Stock-based compensation,Operating Cash Flow,Capital Expenditure,Acquisitions and disposals,Investment purchases and sales,Investing Cash flow,Issuance (repayment) of debt,Issuance (buybacks) of shares,Dividend payments,Financing Cash Flow,Effect of forex changes on cash,Net cash flow / Change in cash,Free Cash Flow,Net Cash/Marketcap
2019-12-31,103005000.0,8845000.0,72188000.0,212539000.0,-0.0,-13694000.0,-203816000.0,-0.0,-13694000.0,-0.0,36206000.0,0.0,-95422000.0,-140351000.0,0.0
2018-12-31,74801000.0,6116000.0,114430000.0,113683000.0,-93128000.0,-314000.0,-204586000.0,-0.0,-314000.0,-0.0,89280000.0,0.0,116353000.0,747000.0,0.0
2017-12-31,55373000.0,3765000.0,64191000.0,107233000.0,-0.0,0.0,-109829000.0,-495997000.0,-117229000.0,-0.0,119704000.0,0.0,117229000.0,-43042000.0,0.0
2016-12-31,52744000.0,0.0,76181000.0,-19208000.0,0.0,0.0,-19046000.0,-3250000.0,0.0,0.0,-55815000.0,0.0,1320000.0,56973000.0,-0.6752
2015-12-31,46098000.0,0.0,30799000.0,-119674000.0,0.0,0.0,-104147000.0,72750000.0,0.0,0.0,69662000.0,0.0,-3686000.0,-88875000.0,-0.6752
2014-12-31,65874000.0,0.0,3715000.0,-126041000.0,0.0,0.0,-116462000.0,100375000.0,-23108000.0,0.0,68447000.0,0.0,-44300000.0,-122326000.0,-0.6752
