,0,1,2,3,4,5,6,7,8,9,10,11,12,13,14,15,16,17,18,19,20,21,22,23,24,25,26,27,28,29,30
Date,Revenue,Revenue Growth,Cost of Revenue,Gross Profit,R&D Expenses,SG&A Expense,Operating Expenses,Operating Income,Interest Expense,Earnings before Tax,Income Tax Expense,Net Income - Non-Controlling int,Net Income - Discontinued ops,Net Income,Preferred Dividends,Net Income Com,EPS,EPS Diluted,Weighted Average Shs Out,Weighted Average Shs Out (Dil),Dividend per Share,Gross Margin,EBITDA Margin,EBIT Margin,Profit Margin,Free Cash Flow margin,EBITDA,EBIT,Consolidated Income,Earnings Before Tax Margin,Net Profit Margin
2019-12-31,75290000.0,0.529755978625,0.0,0.0,0.0,7481000.0,72099000.0,-10420000.0,14948000.0,0.0,0.0,0.0,0.0,-10420000.0,6263000.0,-10420000.0,-2.88,-2.88,8503375.0,8503375.0,2.3437752656999997,0.0,0.352012219418,-0.138398193651,-0.138398193651,0.368136538717,26503000.0,-10420000.0,-10420000.0,0.0,-0.138398193651
2018-12-31,49217000.0,0.983117092433,0.0,0.0,0.0,6032000.0,50269000.0,-1052000.0,15734000.0,0.0,3188000.0,0.0,0.0,-18716000.0,3940000.0,-18716000.0,-5.76,-5.76,4027329.0,4027329.0,2.75194800325,0.0,0.549403661337,-0.0213747282443,-0.38027510819399996,0.302070422821,27040000.0,-1052000.0,-18716000.0,0.0,-0.38027510819399996
2017-12-31,24818000.0,0.24788817377300001,0.0,0.0,0.0,0.0,27495000.0,-2677000.0,11581000.0,0.0,2951000.0,0.0,0.0,-8707000.0,723000.0,-8707000.0,-4.45,-4.45,2149977.0,2149977.0,0.816287802149,0.0,0.473204931904,-0.107865259086,-0.350834072044,0.30546377629099997,11744000.0,-2677000.0,-8707000.0,0.0,-0.350834072044
2016-12-31,19888000.0,0.035563655298099996,5927000.0,13961000.0,0.0,3709000.0,15416000.0,-1455000.0,40679000.0,-36987000.0,0.0,-2301000.0,0.0,-36987000.0,0.0,-36987000.0,-111.42,-111.42,331965.0,331965.0,0.0,0.7020000000000001,0.773,0.1856,-1.86,-0.0317,15366000.0,3692000.0,-39288000.0,-1.8598,-1.8598
2015-12-31,19205000.0,5.76470588235,5751000.0,13454000.0,0.0,4688000.0,18823000.0,-5369000.0,44676000.0,-48665000.0,0.0,0.0,0.0,-48665000.0,0.0,-48665000.0,-146.6,-146.6,331965.0,331965.0,0.0,0.7005,0.479,-0.2077,-2.5340000000000003,-0.2556,9191000.0,-3989000.0,-48665000.0,-2.5340000000000003,-2.5340000000000003
2014-12-31,2839000.0,-5.82003395586,604000.0,2235000.0,0.0,3302000.0,7717000.0,-5482000.0,13279000.0,-18429000.0,0.0,0.0,0.0,-18429000.0,0.0,-18429000.0,-56.76,-56.76,331448.0,324661.0,0.0,0.7872,-1.255,-1.814,-6.4910000000000005,-56.1899,-3563000.0,-5150000.0,-18429000.0,-6.4914,-6.4914
2013-12-31,-589000.0,,0.0,-589000.0,0.0,2883000.0,2883000.0,-3472000.0,0.0,-3472000.0,0.0,0.0,0.0,-3472000.0,0.0,-3472000.0,-20.36,-20.36,,170408.0,0.0,1.0,5.895,5.8947,5.895,4.9643,-3472000.0,-3472000.0,-3472000.0,5.8947,5.8947
