,0,1,2,3,4,5,6,7,8,9,10,11,12,13,14
Date,Depreciation & Amortization,Stock-based compensation,Operating Cash Flow,Capital Expenditure,Acquisitions and disposals,Investment purchases and sales,Investing Cash flow,Issuance (repayment) of debt,Issuance (buybacks) of shares,Dividend payments,Financing Cash Flow,Effect of forex changes on cash,Net cash flow / Change in cash,Free Cash Flow,Net Cash/Marketcap
2019-12-31,2914000.0,759000.0,4309000.0,1677000.0,-0.0,3810000.0,2077000.0,-0.0,0.0,-3970000.0,-3002000.0,-170000.0,0.0,2632000.0,0.0
2018-12-31,3063000.0,594000.0,7929000.0,1191000.0,-0.0,-4035000.0,-5359000.0,-0.0,-4069000.0,-3797000.0,-5639000.0,-1027000.0,-4096000.0,6738000.0,0.0
2017-12-31,2807000.0,582000.0,9146000.0,1197000.0,-0.0,0.0,-1246000.0,-2082000.0,-8165000.0,-3289000.0,-3456000.0,-217000.0,4227000.0,7949000.0,0.0
2016-12-31,2294000.0,671000.0,9269000.0,2012000.0,-0.0,0.0,-2094000.0,-0.0,-3938000.0,-3267000.0,-5926000.0,0.0,1249000.0,7257000.0,0.0
2015-12-31,1730306.0,673855.0,4579837.0,1752583.0,-0.0,0.0,-1798156.0,-0.0,-2689464.0,-3242020.0,-3704370.0,0.0,-922689.0,2827254.0,0.0
2014-12-31,1050281.0,608645.0,4457233.0,7564676.0,-0.0,0.0,-7808380.0,-0.0,-3612153.0,-3212267.0,2992788.0,0.0,-358359.0,-3107443.0,0.0
2013-12-31,872171.0,538304.0,5951547.0,1531632.0,-0.0,0.0,-1757762.0,-0.0,0.0,-3178909.0,-3289058.0,0.0,904727.0,4419915.0,0.0
2012-12-31,370020.0,418077.0,3935201.0,1358790.0,-0.0,-22391.0,528788.0,-0.0,-22391.0,-2510861.0,-2620244.0,0.0,1843745.0,2576411.0,0.0
2011-12-31,284911.0,394972.0,3295397.0,817960.0,-0.0,-6034.0,-1859713.0,-0.0,-55295.0,-2500268.0,-2555563.0,0.0,-1119879.0,2477437.0,0.0
2010-12-31,284911.0,394972.0,3295397.0,-817960.0,0.0,-1012016.0,-1859713.0,0.0,-6034.0,-2500268.0,-2555563.0,0.0,-1119879.0,2477437.0,0.1343
2009-12-31,336795.0,340090.0,2399582.0,-35427.0,0.0,-1006436.0,-1056445.0,0.0,-118788.0,-3014101.0,-3132889.0,0.0,-1789752.0,2364155.0,0.1531
