,0,1,2,3,4,5,6,7,8,9,10,11,12,13,14,15,16,17,18,19,20,21,22,23,24,25,26,27,28,29,30
Date,Revenue,Revenue Growth,Cost of Revenue,Gross Profit,R&D Expenses,SG&A Expense,Operating Expenses,Operating Income,Interest Expense,Earnings before Tax,Income Tax Expense,Net Income - Non-Controlling int,Net Income - Discontinued ops,Net Income,Preferred Dividends,Net Income Com,EPS,EPS Diluted,Weighted Average Shs Out,Weighted Average Shs Out (Dil),Dividend per Share,Gross Margin,EBITDA Margin,EBIT Margin,Profit Margin,Free Cash Flow margin,EBITDA,EBIT,Consolidated Income,Earnings Before Tax Margin,Net Profit Margin
2019-12-31,278073000.0,0.087012438725,186754000.0,91319000.0,0.0,65744000.0,65775000.0,25544000.0,0.0,-678000.0,3652000.0,0.0,0.0,-4454000.0,0.0,-4454000.0,-0.4,-0.4,11196710.0,11196710.0,0.0,0.328399377142,0.160051497269,0.09186077037319999,-0.016017376732000002,-0.004351375358270001,44506000.0,25544000.0,-4454000.0,-0.00243820867182,-0.016017376732000002
2018-12-31,255814000.0,0.0037353548194699994,177224000.0,78590000.0,0.0,68014000.0,74002000.0,4588000.0,0.0,-19138000.0,-4339000.0,0.0,0.0,-37462000.0,0.0,-37462000.0,-3.36,-3.36,11149554.0,11149554.0,0.0,0.307215398688,0.0975005277272,0.01793490583,-0.14644233701,0.005613453524830001,24942000.0,4588000.0,-37462000.0,-0.07481216821600001,-0.14644233701
2017-12-31,254862000.0,-0.174402332362,179871000.0,74991000.0,0.0,67258000.0,93096000.0,-18105000.0,0.0,-38382000.0,-16372000.0,0.0,0.0,-22010000.0,0.0,-22010000.0,-1.98,-1.98,11117454.0,11117454.0,0.678212835421,0.294241589566,0.007282372421149999,-0.0710384443346,-0.08636046174010001,-0.024966452433099997,1856000.0,-18105000.0,-22010000.0,-0.150599147774,-0.08636046174010001
2016-12-31,308700000.0,-0.174841624121,206802000.0,101898000.0,0.0,66711000.0,72916000.0,28982000.0,0.0,8541000.0,3142000.0,0.0,0.0,5399000.0,0.0,5399000.0,0.1,0.1,55827409.0,56203789.0,0.13378101608100001,0.330087463557,0.154943310658,0.09388402980239999,0.0174894719793,0.147923550373,47831000.0,28982000.0,5399000.0,0.027667638484,0.0174894719793
2015-12-31,374110000.0,0.43333869719499996,238289000.0,135821000.0,0.0,61116000.0,68101000.0,67720000.0,0.0,49107000.0,17846000.0,0.0,0.0,30863000.0,32548000.0,30863000.0,-0.04,-0.04,44816263.0,44816263.0,5.13909426138,0.36305097431199995,0.23886824730700001,0.181016278635,0.0824971265136,0.06749886397049999,89363000.0,67720000.0,30863000.0,0.131263532116,0.0824971265136
2014-12-31,261006000.0,0.32915414778200003,179279000.0,81727000.0,0.0,42650000.0,47356000.0,34371000.0,7508000.0,23593000.0,10291000.0,0.0,2670000.0,13302000.0,44477000.0,-31175000.0,-3.8,-3.8,11295223.0,11295223.0,0.0,0.3131,0.174,0.1192,-0.11900000000000001,0.0371,45299000.0,31101000.0,13302000.0,0.0904,0.051
2013-12-31,196370000.0,0.0684709390269,136874000.0,59496000.0,0.0,29418000.0,33347000.0,26149000.0,7838000.0,15575000.0,6988000.0,0.0,2612000.0,8587000.0,35268000.0,8587000.0,-3.25,-3.25,,,0.0,0.303,0.192,0.1192,0.044000000000000004,0.0732,37708000.0,23413000.0,8587000.0,0.0793,0.0437
2012-12-31,183786000.0,,130897000.0,52889000.0,0.0,29231000.0,32985000.0,19904000.0,5765000.0,10839000.0,5909000.0,0.0,3796000.0,4930000.0,36363000.0,4930000.0,-3.8,-3.8,,,0.0,0.2878,0.159,0.0903,0.027000000000000003,0.0559,29270000.0,16604000.0,4930000.0,0.059000000000000004,0.0268
