,0,1,2,3,4,5,6,7,8,9,10,11,12,13,14
Date,Depreciation & Amortization,Stock-based compensation,Operating Cash Flow,Capital Expenditure,Acquisitions and disposals,Investment purchases and sales,Investing Cash flow,Issuance (repayment) of debt,Issuance (buybacks) of shares,Dividend payments,Financing Cash Flow,Effect of forex changes on cash,Net cash flow / Change in cash,Free Cash Flow,Net Cash/Marketcap
2019-12-31,-11952000.0,21226000.0,434288000.0,42153000.0,-44594000.0,310884000.0,-2619061000.0,-184401000.0,-61416000.0,-49828000.0,1989788000.0,0.0,-194985000.0,392135000.0,0.0
2018-12-31,-42745000.0,17636000.0,470757000.0,23739000.0,-0.0,302877000.0,-2969084000.0,-788000.0,-20694000.0,-45454000.0,2440423000.0,0.0,-57904000.0,447018000.0,0.0
2017-12-31,-36465046.0,19538083.0,147941106.0,53498776.0,-0.0,323235144.0,-2097602927.0,-368741.0,127342750.0,-35907449.0,2545613698.0,0.0,595951877.0,94442330.0,0.0
2016-12-31,16995490.0,10970849.0,126638676.0,17058292.0,-0.0,280805769.0,-1253404506.0,-74070703.0,-36984000.0,24725598.0,989459917.0,0.0,-137305913.0,109580384.0,0.0
2015-12-31,10268576.0,7341603.0,83733334.0,10870851.0,-0.0,146441236.0,-742598028.0,-0.0,-21740023.0,18307075.0,791908517.0,0.0,133043823.0,72862483.0,0.0
2014-12-31,9282197.0,5308167.0,95058155.0,5878562.0,-0.0,123949792.0,-487879654.0,-0.0,-36496871.0,11398285.0,371790272.0,0.0,-21031227.0,89179593.0,0.0
2013-12-31,9245876.0,4082132.0,126435352.0,5293919.0,-0.0,143322733.0,-564692904.0,-0.0,-21095990000.0,2814691.0,481907620.0,0.0,43650068.0,121141433.0,0.0
2012-12-31,2915863.0,4414452.0,114277665.0,5864452.0,-0.0,210732980.0,-250387452.0,-0.0,-13657278.0,-2127604.0,129235416.0,0.0,-6874371.0,108413213.0,0.0
2011-12-31,3248311.0,5018294.0,113089755.0,2031265.0,-0.0,233622196.0,-13149288.0,-0.0,0.0,-4891839.0,-116363608.0,0.0,-16423141.0,111058490.0,0.0
2010-12-31,11500075.0,3964237.0,129589112.0,-9587707.0,0.0,114025238.0,104437531.0,-220320372.0,3322064.0,0.0,-212042536.0,0.0,21984107.0,120001405.0,-0.2884
2009-12-31,10804664.0,3197465.0,90305539.0,-19175840.0,0.0,-421638241.0,-440814081.0,30371005.0,109993819.0,0.0,426857861.0,0.0,76349319.0,71129699.0,-0.2884
