,0,1,2,3,4,5,6,7,8,9,10,11,12,13,14
Date,Depreciation & Amortization,Stock-based compensation,Operating Cash Flow,Capital Expenditure,Acquisitions and disposals,Investment purchases and sales,Investing Cash flow,Issuance (repayment) of debt,Issuance (buybacks) of shares,Dividend payments,Financing Cash Flow,Effect of forex changes on cash,Net cash flow / Change in cash,Free Cash Flow,Net Cash/Marketcap
2017-12-31,224825000.0,14704000.0,285800000.0,78941000.0,-0.0,-22345000.0,-80948000.0,-0.0,-22345000.0,-0.0,-205727000.0,0.0,-875000.0,206859000.0,0.0
2016-12-31,225666000.0,35470000.0,255747000.0,97932000.0,-107509000.0,-70166000.0,-195096000.0,-0.0,-70166000.0,-0.0,-39592000.0,0.0,21059000.0,157815000.0,0.0
2015-12,243000000.0,18000000.0,408000000.0,-109000000.0,-25000000.0,0.0,-80000000.0,-803000000.0,0.0,,-329000000.0,,-1000000.0,299000000.0,
2014-12,241000000.0,14000000.0,328000000.0,-256000000.0,-25000000.0,0.0,33000000.0,-693000000.0,0.0,,-396000000.0,,-34000000.0,73000000.0,
2013-12,161000000.0,12000000.0,161000000.0,-293000000.0,0.0,-5000000.0,-1843000000.0,-1205000000.0,0.0,,1778000000.0,,97000000.0,-132000000.0,
2012-12,116000000.0,9000000.0,187000000.0,-301000000.0,-1000000.0,-13000000.0,-302000000.0,-496000000.0,-51000000.0,,137000000.0,,21000000.0,-114000000.0,
2011-12,105000000.0,7000000.0,132000000.0,-153000000.0,0.0,-98000000.0,-293000000.0,-53000000.0,0.0,,46000000.0,,-115000000.0,-22000000.0,
