,0,1,2,3,4,5,6,7,8,9,10,11,12,13,14,15,16,17,18,19,20,21,22,23,24,25,26,27,28
Date,Cash and cash equivalents,Short-term investments,Cash and short-term investments,Receivables,Inventories,Total current assets,Property Plant & Equipment Net,Goodwill and Intangible Assets,Long-term investments,Tax assets,Total non-current assets,Total assets,Payables,Short-term debt,Total current liabilities,Long-term debt,Total debt,Deferred revenue,Tax Liabilities,Deposit Liabilities,Total non-current liabilities,Total liabilities,Other comprehensive income,Retained earnings (deficit),Total shareholders equity,Investments,Net Debt,Other Assets,Other Liabilities
2017-12-31,184218000.0,0.0,184218000.0,53998000.0,10145000.0,270305000.0,2629013000.0,994469000.0,16900000.0,1500000.0,3679923000.0,3950228000.0,81071000.0,9000.0,331022000.0,812315000.0,812324000.0,0.0,56538000.0,0.0,851306000.0,4280294000.0,839735000.0,-1170715000.0,-330066000.0,16900000.0,628106000.0,0.0,3097966000.0
2016-12-31,185093000.0,0.0,185093000.0,42997000.0,9967000.0,255817000.0,2768500000.0,1003287000.0,15600000.0,0.0,3821250000.0,4077067000.0,69069000.0,12258000.0,358591000.0,924400000.0,936658000.0,0.0,58207000.0,0.0,977743000.0,4460132000.0,849808000.0,-1233819000.0,-383065000.0,15600000.0,751565000.0,0.0,3123798000.0
2015-12,164000000.0,0.0,0.0,34000000.0,10000000.0,4297000000.0,2856000000.0,1395000000.0,0.0,0.0,3851000000.0,4531000000.0,67000000.0,11000000.0,326000000.0,3617000000.0,3617000000.0,,188000000.0,,3851000000.0,4178000000.0,0.0,-705000000.0,353000000.0,0.0,3464000000.0,58000000.0,111000000.0
2014-12,165000000.0,0.0,0.0,28000000.0,10000000.0,4555000000.0,3017000000.0,1448000000.0,2000000.0,0.0,4205000000.0,4834000000.0,58000000.0,11000000.0,351000000.0,3976000000.0,3976000000.0,,178000000.0,,4205000000.0,4556000000.0,0.0,-754000000.0,278000000.0,2000000.0,3822000000.0,129000000.0,40000000.0
2013-12,192000000.0,0.0,0.0,34000000.0,8000000.0,4561000000.0,3040000000.0,1419000000.0,2000000.0,0.0,4573000000.0,5159000000.0,69000000.0,16000000.0,372000000.0,4364000000.0,4364000000.0,,166000000.0,,4573000000.0,4946000000.0,0.0,-798000000.0,214000000.0,2000000.0,4188000000.0,436000000.0,134000000.0
2012-12,102000000.0,4000000.0,4000000.0,22000000.0,7000000.0,1924000000.0,1696000000.0,76000000.0,91000000.0,3000000.0,1464000000.0,2109000000.0,33000000.0,3000000.0,198000000.0,1437000000.0,1437000000.0,,3000000.0,,1464000000.0,1662000000.0,0.0,-542000000.0,447000000.0,91000000.0,1338000000.0,99000000.0,61000000.0
2011-12,79000000.0,0.0,0.0,20000000.0,7000000.0,1760000000.0,1515000000.0,72000000.0,98000000.0,2000000.0,1249000000.0,1951000000.0,46000000.0,0.0,182000000.0,1224000000.0,1224000000.0,,3000000.0,,1249000000.0,1431000000.0,0.0,-510000000.0,519000000.0,98000000.0,1145000000.0,150000000.0,65000000.0
