,0,1,2,3,4,5,6,7,8,9,10,11,12,13,14,15,16,17,18,19,20,21,22,23,24,25,26,27,28
Date,Cash and cash equivalents,Short-term investments,Cash and short-term investments,Receivables,Inventories,Total current assets,Property Plant & Equipment Net,Goodwill and Intangible Assets,Long-term investments,Tax assets,Total non-current assets,Total assets,Payables,Short-term debt,Total current liabilities,Long-term debt,Total debt,Deferred revenue,Tax Liabilities,Deposit Liabilities,Total non-current liabilities,Total liabilities,Other comprehensive income,Retained earnings (deficit),Total shareholders equity,Investments,Net Debt,Other Assets,Other Liabilities
2019-12-31,402000.0,0.0,402000.0,32183000.0,0.0,38683000.0,14644000.0,74695000.0,0.0,0.0,409067000.0,447750000.0,8653000.0,12285000.0,51192000.0,304044000.0,316329000.0,1937000.0,1130000.0,6292000.0,309024000.0,376639000.0,74882000.0,-3799000.0,71111000.0,0.0,315927000.0,0.0,16423000.0
2018-12-31,41000.0,0.0,41000.0,24469000.0,0.0,29123000.0,10458000.0,56106000.0,0.0,0.0,69028000.0,98151000.0,4390000.0,0.0,29547000.0,0.0,0.0,0.0,0.0,0.0,3316000.0,32863000.0,0.0,,55856000.0,0.0,-41000.0,4613000.0,25157000.0
2017-12-31,36000.0,0.0,36000.0,22245000.0,0.0,26697000.0,8793000.0,50848000.0,0.0,0.0,61592000.0,88289000.0,3077000.0,0.0,26253000.0,0.0,0.0,0.0,0.0,0.0,2120000.0,28373000.0,0.0,,54996000.0,0.0,-36000.0,4416000.0,23176000.0
