,0,1,2,3,4,5,6,7,8,9,10,11,12,13,14,15,16,17,18,19,20,21,22,23,24,25,26,27,28,29,30
Date,Revenue,Revenue Growth,Cost of Revenue,Gross Profit,R&D Expenses,SG&A Expense,Operating Expenses,Operating Income,Interest Expense,Earnings before Tax,Income Tax Expense,Net Income - Non-Controlling int,Net Income - Discontinued ops,Net Income,Preferred Dividends,Net Income Com,EPS,EPS Diluted,Weighted Average Shs Out,Weighted Average Shs Out (Dil),Dividend per Share,Gross Margin,EBITDA Margin,EBIT Margin,Profit Margin,Free Cash Flow margin,EBITDA,EBIT,Consolidated Income,Earnings Before Tax Margin,Net Profit Margin
2018-12-31,24046354.0,0.667716967505,16614574.0,7431780.0,1907810.0,6622758.0,8530568.0,-1098788.0,20170.0,-1063252.0,-215000.0,0.0,0.0,-848252.0,0.0,-848252.0,-0.08,-0.08,10143158.0,10143158.0,0.0,0.309060575254,-0.0296595899736,-0.045694578063699996,-0.035275701256,-0.35026861036799994,-713205.0,-1098788.0,-848252.0,-0.044216765668500004,-0.035275701256
2017-12-31,14418726.0,-0.367641172986,9657558.0,4761168.0,1334637.0,4197395.0,5563128.0,-801960.0,17822.0,-757416.0,0.0,0.0,0.0,-757416.0,0.0,-757416.0,-0.07,-0.07,10143158.0,10143158.0,0.0,0.330207259643,-0.03789024078830001,-0.0556193383521,-0.0525300224167,-0.133801765843,-546329.0,-801960.0,-757416.0,-0.0525300224167,-0.0525300224167
2016-12-31,22801494.0,2.3302609307599997,12619837.0,10181657.0,213931.0,2536915.0,2777734.0,7403923.0,112550.0,7263857.0,2861047.0,0.0,0.0,4402810.0,0.0,4402810.0,0.58,0.58,9683158.0,7564629.0,0.0,0.4465,0.33299999999999996,0.3235,0.193,0.0203,7584264.0,7376407.0,4402810.0,0.3186,0.1931
2015-12-31,6846759.0,0.316354321916,4558725.0,2288034.0,116297.0,1846869.0,1996833.0,291201.0,50971.0,240230.0,273569.0,0.0,0.0,-33339.0,0.0,-33339.0,-0.01,-0.01,9383000.0,6832329.0,0.0,0.3342,0.064,0.0425,-0.005,-0.1233,434774.0,291201.0,-33339.0,0.0351,-0.0049
2014-12-31,5201304.0,,3287625.0,1913679.0,108559.0,744896.0,948454.0,965225.0,44927.0,865586.0,290338.0,0.0,0.0,575248.0,0.0,575248.0,0.09,0.09,,6435116.0,0.0,0.3679,0.193,0.1751,0.111,-0.0812,1005512.0,910513.0,575248.0,0.1664,0.1106
