,0,1,2,3,4,5,6,7,8,9,10,11,12,13,14
Date,Depreciation & Amortization,Stock-based compensation,Operating Cash Flow,Capital Expenditure,Acquisitions and disposals,Investment purchases and sales,Investing Cash flow,Issuance (repayment) of debt,Issuance (buybacks) of shares,Dividend payments,Financing Cash Flow,Effect of forex changes on cash,Net cash flow / Change in cash,Free Cash Flow,Net Cash/Marketcap
2019-12-31,49693000.0,10528000.0,182690000.0,18834000.0,-0.0,-1004585000.0,-98251000.0,96517000.0,-100000000.0,-53867000.0,39005000.0,0.0,123444000.0,163856000.0,0.0
2018-12-31,10243000.0,9033000.0,298688000.0,10295000.0,-0.0,-464203000.0,-239690000.0,108064000.0,-1669000.0,-0.0,-52756000.0,0.0,6242000.0,288393000.0,0.0
2017-12-31,1816000.0,5809000.0,83999000.0,4165000.0,-0.0,-1258000.0,-295879000.0,-61120000.0,-1258000.0,-0.0,255087000.0,0.0,43207000.0,79834000.0,0.0
2016-12-31,-6050000.0,2729000.0,63447000.0,11970000.0,40132000.0,7454000.0,-430915000.0,-0.0,-126000.0,-0.0,445908000.0,0.0,78440000.0,51477000.0,0.0
2015-12-31,2895000.0,1165000.0,25248000.0,1887000.0,-0.0,-116000.0,-332859000.0,-0.0,-116000.0,-0.0,275103000.0,0.0,78417000.0,23361000.0,0.0
2014-12-31,1577000.0,514000.0,13287000.0,1448000.0,-0.0,-5638000.0,-252113000.0,-0.0,-5638000.0,-0.0,222938000.0,0.0,0.0,11839000.0,0.0
2013-12-31,2127000.0,943000.0,15504000.0,3581000.0,-0.0,-59000.0,114887000.0,-0.0,4501000.0,-0.0,-62930000.0,0.0,0.0,11923000.0,0.0
2012-12-31,2365000.0,177000.0,12169000.0,4525000.0,-0.0,-195000.0,-91361000.0,-0.0,30763000.0,-0.0,78309000.0,0.0,0.0,7644000.0,0.0
2011-12-31,2118000.0,208000.0,11997000.0,2822000.0,-0.0,-451000.0,63654000.0,-0.0,-451000.0,-0.0,-78878000.0,0.0,0.0,9175000.0,0.0
2010-12-31,991000.0,86000.0,9432000.0,-531000.0,0.0,-22651000.0,-23182000.0,-23000000.0,0.0,0.0,17506000.0,0.0,3756000.0,8901000.0,-0.17800000000000002
2009-12-31,1017000.0,271000.0,5728000.0,-167000.0,0.0,-13776000.0,-13943000.0,-118400000.0,15008000.0,0.0,58214000.0,0.0,49999000.0,5561000.0,-0.17800000000000002
