,0,1,2,3,4,5,6,7,8,9,10,11,12,13,14
Date,Depreciation & Amortization,Stock-based compensation,Operating Cash Flow,Capital Expenditure,Acquisitions and disposals,Investment purchases and sales,Investing Cash flow,Issuance (repayment) of debt,Issuance (buybacks) of shares,Dividend payments,Financing Cash Flow,Effect of forex changes on cash,Net cash flow / Change in cash,Free Cash Flow,Net Cash/Marketcap
2018-12-31,100000.0,0.0,3740619.0,0.0,0.0,-6081663.0,-6081663.0,-594545.0,0.0,0.0,-594545.0,0.0,-2935589.0,3740619.0,
2017-12-31,100000.0,0.0,1221017.0,0.0,0.0,-1543845.0,-1543845.0,-55233.0,0.0,0.0,-55233.0,0.0,-378061.0,1221017.0,
2016-12-31,100000.0,0.0,1221017.0,0.0,0.0,-1543845.0,-1543845.0,-55233.0,0.0,0.0,-55233.0,0.0,-378061.0,1221017.0,
