,0,1,2,3,4,5,6,7,8,9,10,11,12,13,14,15,16,17,18,19,20,21,22,23,24,25,26,27,28,29,30
Date,Revenue,Revenue Growth,Cost of Revenue,Gross Profit,R&D Expenses,SG&A Expense,Operating Expenses,Operating Income,Interest Expense,Earnings before Tax,Income Tax Expense,Net Income - Non-Controlling int,Net Income - Discontinued ops,Net Income,Preferred Dividends,Net Income Com,EPS,EPS Diluted,Weighted Average Shs Out,Weighted Average Shs Out (Dil),Dividend per Share,Gross Margin,EBITDA Margin,EBIT Margin,Profit Margin,Free Cash Flow margin,EBITDA,EBIT,Consolidated Income,Earnings Before Tax Margin,Net Profit Margin
2019-12-31,1567072000.0,-0.0255460608872,1176550000.0,390522000.0,14030000.0,166880000.0,180910000.0,187802000.0,111525000.0,121009000.0,40699000.0,0.0,0.0,79539000.0,0.0,79539000.0,0.59,0.59,134389667.0,135548694.0,0.0,0.24920488656599998,0.239726700496,0.119842610933,0.0507564425885,0.0894158022095,375669000.0,187802000.0,79539000.0,0.07721980866230001,0.0507564425885
2018-12-31,1608154000.0,0.09242096839819999,1226520000.0,381634000.0,15565000.0,168628000.0,184193000.0,183556000.0,113723000.0,88616000.0,28995000.0,0.0,0.0,58300000.0,0.0,58300000.0,0.44,0.43,133380567.0,134684931.0,0.005382933299350001,0.237311849487,0.23313003605399998,0.114140809898,0.036252746938400006,0.07272686571060001,374909000.0,183556000.0,58300000.0,0.055104175346400004,0.036252746938400006
2017-12-31,1472101000.0,0.383323450892,1095265000.0,376836000.0,13859000.0,145107000.0,158966000.0,167504000.0,179044000.0,-60634000.0,-119197000.0,0.0,0.0,57603000.0,0.0,57603000.0,0.52,0.52,111299670.0,111669037.0,0.00889234855674,0.25598515319299997,0.240049425957,0.11378567095599999,0.03912978796969999,-0.0165885357051,353377000.0,167504000.0,57603000.0,-0.041188749956699994,0.03912978796969999
2016-12-31,1064177000.0,1.73655287689,810085000.0,254092000.0,0.0,110252000.0,172553000.0,81539000.0,140315000.0,-69705000.0,10041000.0,588000.0,0.0,-79746000.0,0.0,-79746000.0,-1.02,-1.02,129000000.0,78016005.0,0.0,0.2388,0.187,0.0664,-0.075,0.0012,198899000.0,70610000.0,-79158000.0,-0.0655,-0.0749
2015-12-31,388875000.0,,278791000.0,110084000.0,0.0,34613000.0,54309000.0,55775000.0,44348000.0,11427000.0,0.0,0.0,0.0,11427000.0,0.0,11427000.0,0.51,0.51,129000000.0,22615787.0,0.0,0.2831,0.244,0.1434,0.028999999999999998,0.0096,94775000.0,55775000.0,11427000.0,0.0294,0.0294
