,0,1,2,3,4,5,6,7,8,9,10,11,12,13,14,15,16,17,18,19,20,21,22,23,24,25,26,27,28
Date,Cash and cash equivalents,Short-term investments,Cash and short-term investments,Receivables,Inventories,Total current assets,Property Plant & Equipment Net,Goodwill and Intangible Assets,Long-term investments,Tax assets,Total non-current assets,Total assets,Payables,Short-term debt,Total current liabilities,Long-term debt,Total debt,Deferred revenue,Tax Liabilities,Deposit Liabilities,Total non-current liabilities,Total liabilities,Other comprehensive income,Retained earnings (deficit),Total shareholders equity,Investments,Net Debt,Other Assets,Other Liabilities
2019-12-31,72284000.0,4199000.0,76483000.0,179632000.0,280945000.0,568591000.0,1186770000.0,1936190000.0,1779450000.0,150515000.0,3752254000.0,4320845000.0,144365000.0,7766000.0,269468000.0,1899196000.0,1906962000.0,6450000.0,6217000.0,0.0,2225903000.0,2541395000.0,1690416000.0,103013000.0,1779450000.0,1783649000.0,1834678000.0,0.0,46024000.0
2018-12-31,57854000.0,4244000.0,62098000.0,0.0,264748000.0,558616000.0,1208979000.0,1983365000.0,1659560000.0,18795000.0,3768809000.0,4327425000.0,148365000.0,7237000.0,255611000.0,2106720000.0,2113957000.0,0.0,2123000.0,0.0,2407669000.0,2667865000.0,1671783000.0,25523000.0,1659560000.0,1663804000.0,2056103000.0,0.0,4585000.0
2017-12-31,66195000.0,5576000.0,71771000.0,0.0,262388000.0,548968000.0,1230384000.0,2092100000.0,1628000000.0,2300000.0,3866487000.0,4415455000.0,149326000.0,45166000.0,288409000.0,2185320000.0,2230486000.0,0.0,1166000.0,0.0,2495127000.0,2787455000.0,1655114000.0,-32777000.0,1628000000.0,1633576000.0,2164291000.0,0.0,3919000.0
2016-12-31,70742000.0,0.0,70742000.0,160581000.0,227048000.0,492678000.0,1181388000.0,2058002000.0,459406000.0,0.0,3766993000.0,4259671000.0,128478000.0,14481000.0,242392000.0,2547717000.0,2562198000.0,0.0,318463000.0,0.0,2989335000.0,3231727000.0,-53711000.0,-90380000.0,1022880000.0,459406000.0,2491456000.0,34307000.0,99433000.0
2015-12-31,25155000.0,0.0,25155000.0,34333000.0,10179000.0,71525000.0,481073000.0,449176000.0,0.0,0.0,936111000.0,1007636000.0,15878000.0,5000000.0,56265000.0,668101000.0,673101000.0,0.0,0.0,0.0,716078000.0,772343000.0,648000.0,-10634000.0,235293000.0,0.0,647946000.0,1858000.0,35387000.0
