,0,1,2,3,4,5,6,7,8,9,10,11,12,13,14
Date,Depreciation & Amortization,Stock-based compensation,Operating Cash Flow,Capital Expenditure,Acquisitions and disposals,Investment purchases and sales,Investing Cash flow,Issuance (repayment) of debt,Issuance (buybacks) of shares,Dividend payments,Financing Cash Flow,Effect of forex changes on cash,Net cash flow / Change in cash,Free Cash Flow,Net Cash/Marketcap
2018-06-30,,0.0,-4611717.6193,-46082.558,0.0,0.0,-13599.9114,0.0,0.0,0.0,-79514.1043,-2285.0136,-52346.3817,-51823.0974,
2017-06-30,,0.0,-4507092.9071,-21453.9307,0.0,0.0,-21453.9307,0.0,0.0,0.0,-122618.9195,-9858.7711,-90958.9859,-88561.0295,
2016-06-30,,0.0,-5516863.2409,-1715.6243,0.0,0.0,-619.469,0.0,0.0,0.0,-118661.4115,8488.607,-66244.5544,-66257.7152,
2015-06-30,,0.0,-8359792.3716,-22113.9649,0.0,0.0,-140598.2775,0.0,5481499.5386,0.0,5262389.2648,76294.8866,-64857.3069,-167889.9443,
2014-06-30,,0.0,-5170174.8715,-8803.2084,0.0,0.0,-8803.2084,-309443.0073,14174328.3769,0.0,13353311.9454,-222014.0252,8174333.8657,-5178978.0796,
2013-06-30,,0.0,-1888680.4073,-5225.7125,0.0,0.0,-6686.7745,80048.4173,3862468.1969,0.0,3701237.1453,25573.9252,1805869.9635,-1893906.1201,
2012-06-30,,0.0,-9772580.4655,-38204.3765,0.0,0.0,-38204.3765,0.0,5486616.9877,0.0,5170464.1017,69762.2797,-4640320.7409,-9810784.8423,
2011-06-30,,0.0,-13825537.5822,-42339.7226,0.0,0.0,-50447.3289,1052502.5935,25937312.7924,0.0,25282076.8476,-453552.7896,11406091.9364,-13867877.3048,
2010-06-30,,0.0,-328794.6201,-1582.6893,0.0,0.0,-1582.6893,0.0,418941.0227,0.0,394917.8273,-140.834,64540.5179,-330377.3095,
2009-06-30,0.0,0.0,-235744.1369,-1219.8798,0.0,0.0,-1219.8798,0.0,3842.4597,0.0,3397.7793,522.4734,-233566.2375,-236964.0167,
