,0,1,2,3,4,5,6,7,8,9,10,11,12,13,14
Date,Depreciation & Amortization,Stock-based compensation,Operating Cash Flow,Capital Expenditure,Acquisitions and disposals,Investment purchases and sales,Investing Cash flow,Issuance (repayment) of debt,Issuance (buybacks) of shares,Dividend payments,Financing Cash Flow,Effect of forex changes on cash,Net cash flow / Change in cash,Free Cash Flow,Net Cash/Marketcap
2018-12-31,21863000.0,15731000.0,68580000.0,4084000.0,-26640000.0,0.0,-31288000.0,-0.0,-44984000.0,-0.0,1919000.0,-534000.0,38677000.0,64496000.0,0.0
2017-12-31,19747000.0,14096000.0,55221000.0,3361000.0,-37886000.0,0.0,-41752000.0,-0.0,-6307000.0,-0.0,-17275000.0,456000.0,-3806000.0,51860000.0,0.0
2016-12-31,18238000.0,13974000.0,63301000.0,-6051000.0,-7464000.0,-16000.0,-13531000.0,-24194000.0,-17826000.0,0.0,-47887000.0,-581000.0,1302000.0,57250000.0,-0.0343
2015-12-31,18315000.0,11678000.0,44721000.0,-4391000.0,-37848000.0,0.0,-42239000.0,1807000.0,-2503000.0,0.0,-4268000.0,-338000.0,-2124000.0,40330000.0,-0.078
2014-12-31,18187000.0,10112000.0,34033000.0,-7148000.0,-46447000.0,0.0,-53595000.0,35000000.0,-6251000.0,0.0,23560000.0,-81000.0,3917000.0,26885000.0,-0.0671
2013-12-31,11236000.0,8416000.0,46851000.0,-7978000.0,-38434000.0,0.0,-46412000.0,15801000.0,-13462000.0,0.0,670000.0,96000.0,1205000.0,38873000.0,-0.0155
2012-12-31,10078000.0,9590000.0,39211000.0,1923000.0,-36560000.0,0.0,-38670000.0,-0.0,-5813000.0,-0.0,-4468000.0,8000.0,-3919000.0,37288000.0,0.0
2011-12-31,8095000.0,9178000.0,14320000.0,2776000.0,-19385000.0,0.0,-8785000.0,-306000.0,-9732000.0,-0.0,-8538000.0,28000.0,-2975000.0,11544000.0,0.0
2010-12-31,4784000.0,9300000.0,18731000.0,-1321000.0,-4941000.0,-4252000.0,-10514000.0,0.0,-13208000.0,0.0,-13552000.0,67000.0,-5268000.0,17410000.0,0.0646
2009-12-31,5750000.0,9253000.0,22563000.0,-726000.0,0.0,-9984000.0,-10710000.0,0.0,-17375000.0,0.0,-16792000.0,5000.0,-4934000.0,21837000.0,0.094
