,0,1,2,3,4,5,6,7,8,9,10,11,12,13,14,15,16,17,18,19,20,21,22,23,24,25,26,27,28,29,30
Date,Revenue,Revenue Growth,Cost of Revenue,Gross Profit,R&D Expenses,SG&A Expense,Operating Expenses,Operating Income,Interest Expense,Earnings before Tax,Income Tax Expense,Net Income - Non-Controlling int,Net Income - Discontinued ops,Net Income,Preferred Dividends,Net Income Com,EPS,EPS Diluted,Weighted Average Shs Out,Weighted Average Shs Out (Dil),Dividend per Share,Gross Margin,EBITDA Margin,EBIT Margin,Profit Margin,Free Cash Flow margin,EBITDA,EBIT,Consolidated Income,Earnings Before Tax Margin,Net Profit Margin
2019-12-31,169758000.0,-0.0118859138533,100176000.0,69582000.0,4700000.0,57599000.0,181044000.0,-11286000.0,1945000.0,-13398000.0,930000.0,0.0,0.0,-13720000.0,0.0,-13720000.0,-0.6,-0.6,22651000.0,22651000.0,0.0,0.40988937192900005,0.0134662283957,-0.06648287562289999,-0.0808209333286,-0.026667373555299998,2286000.0,-11286000.0,-13720000.0,-0.07892411550560001,-0.0808209333286
2018-12-31,171800000.0,0.0629872540527,104825000.0,66975000.0,8300000.0,50456000.0,164418000.0,7358000.0,1824000.0,4672000.0,1321000.0,0.0,0.0,4593000.0,0.0,4593000.0,0.2,0.2,22811000.0,23434000.0,0.0,0.389842840512,0.105803259604,0.04282887078,0.0267345750873,-0.0463736903376,18177000.0,7358000.0,4593000.0,0.027194412107099997,0.0267345750873
2017-12-31,161620000.0,0.147510721081,102052000.0,59568000.0,2200000.0,46941000.0,154913000.0,6707000.0,1785000.0,7518000.0,2962000.0,0.0,0.0,3184000.0,0.0,3184000.0,0.15,0.15,21937000.0,22111000.0,0.0,0.368568246504,0.0927793589902,0.0414985769088,0.019700532112400002,0.0253990842717,14995000.0,6707000.0,3184000.0,0.0465165202326,0.019700532112400002
2016-12-31,140844000.0,0.018380066810299998,91299000.0,49545000.0,3500000.0,39399000.0,137563000.0,3281000.0,107000.0,3471000.0,1242000.0,0.0,0.0,905000.0,0.0,905000.0,0.04,0.04,21969000.0,22016000.0,0.0,0.351772173469,0.0725625514754,0.023295277044099998,0.006425548834170001,0.0300403283065,10220000.0,3281000.0,905000.0,0.0246442872966,0.006425548834170001
2015-12-31,138302000.0,-0.157681251218,93169000.0,45133000.0,3000000.0,32284000.0,133228000.0,5074000.0,71000.0,1908000.0,369000.0,0.0,0.0,-3226000.0,0.0,-3226000.0,-0.12,-0.12,25868000.0,25904000.0,0.0,0.326336567801,0.0933030614163,0.0366878280864,-0.0233257653541,0.06486529478969999,12904000.0,5074000.0,-3226000.0,0.013795895937900001,-0.0233257653541
2014-12-31,164192000.0,-0.158921399885,115959000.0,48233000.0,3100000.0,40788000.0,166494000.0,-2302000.0,351000.0,-4285000.0,3241000.0,0.0,0.0,-7526000.0,0.0,-7526000.0,-0.26,-0.26,28707000.0,28707000.0,0.0,0.293759744689,0.045976661469499996,-0.0140201715065,-0.045836581563,0.0325107191581,7549000.0,-2302000.0,-7526000.0,-0.0260974956149,-0.045836581563
2013-12-31,195216000.0,-0.0637257017885,122545000.0,72671000.0,6000000.0,52757000.0,192737000.0,2479000.0,138000.0,2569000.0,2755000.0,0.0,0.0,-186000.0,0.0,-186000.0,-0.01,-0.01,29169000.0,29169000.0,0.0,0.372259445947,0.0814482419474,0.0126987542005,-0.0009527907548560001,0.0591601098271,15900000.0,2479000.0,-186000.0,0.0131597819851,-0.0009527907548560001
2012-12-31,208503000.0,1.0,134390000.0,74113000.0,4000000.0,52527000.0,201225000.0,7278000.0,1116000.0,6689000.0,1297000.0,0.0,0.0,5392000.0,0.0,5392000.0,0.21,0.21,25566000.0,26137000.0,0.0,0.35545291914300003,0.104406171614,0.0349059725759,0.0258605391769,0.0523349783936,21769000.0,7278000.0,5392000.0,0.032081073174000004,0.0258605391769
2011-12-31,0.0,-1.0,0.0,0.0,0.0,0.0,0.0,0.0,0.0,0.0,0.0,0.0,0.0,0.0,0.0,0.0,0.0,0.0,0.0,0.0,0.0,0.0,0.0,0.0,0.0,0.0,0.0,0.0,0.0,0.0,0.0
2010-12-31,184081000.0,0.025046914240200002,126069000.0,58012000.0,0.0,40735000.0,49769000.0,8243000.0,1451000.0,5135000.0,1882000.0,0.0,0.0,3253000.0,0.0,3253000.0,0.14,0.13,23904475.0,23906000.0,0.0,0.3151,0.085,0.0358,0.018000000000000002,-0.0188,15620000.0,6586000.0,3253000.0,0.0279,0.0177
2009-12-31,179583000.0,-0.0824,115064000.0,64519000.0,0.0,40390000.0,47122000.0,17397000.0,3229000.0,18355000.0,3028000.0,0.0,0.0,15327000.0,0.0,15327000.0,0.67,0.65,23170760.0,22915000.0,0.0,0.3593,0.158,0.1202,0.085,0.0705,28316000.0,21584000.0,15327000.0,0.1022,0.0853
