,0,1,2,3,4,5,6,7,8,9,10,11,12,13,14,15,16,17,18,19,20,21,22,23,24,25,26,27,28
Date,Cash and cash equivalents,Short-term investments,Cash and short-term investments,Receivables,Inventories,Total current assets,Property Plant & Equipment Net,Goodwill and Intangible Assets,Long-term investments,Tax assets,Total non-current assets,Total assets,Payables,Short-term debt,Total current liabilities,Long-term debt,Total debt,Deferred revenue,Tax Liabilities,Deposit Liabilities,Total non-current liabilities,Total liabilities,Other comprehensive income,Retained earnings (deficit),Total shareholders equity,Investments,Net Debt,Other Assets,Other Liabilities
2019-12-31,256876000.0,3658210000.0,3915086000.0,17361000.0,0.0,3932447000.0,47265000.0,45275000.0,1756845000.0,69472000.0,9756084000.0,13688531000.0,0.0,0.0,35694000.0,374037000.0,374037000.0,15470000.0,20224000.0,0.0,563034000.0,12036040000.0,0.0,1593281000.0,1652491000.0,5415055000.0,117161000.0,0.0,11437312000.0
2018-12-31,262138000.0,8171000.0,270309000.0,17057000.0,0.0,287366000.0,35996000.0,48111000.0,1678231000.0,59336000.0,12307682000.0,12595048000.0,0.0,0.0,38286000.0,373661000.0,373661000.0,15587000.0,22699000.0,0.0,538066000.0,11133535000.0,0.0,1489520000.0,1461513000.0,1686402000.0,111523000.0,0.0,10557183000.0
2017-12-31,279962000.0,2745143000.0,3025105000.0,16665000.0,0.0,3041770000.0,28101000.0,51513000.0,1683149000.0,48614000.0,9418933000.0,12460703000.0,0.0,0.0,25382000.0,373288000.0,373288000.0,486000.0,24896000.0,0.0,525860000.0,11041602000.0,3882000.0,1375090000.0,1419101000.0,4428292000.0,93326000.0,0.0,10490360000.0
2016-12-31,211976000.0,2378861000.0,2590837000.0,16520000.0,0.0,2607357000.0,27466000.0,54915000.0,1534774000.0,37369000.0,8831586000.0,11438943000.0,0.0,0.0,26892000.0,372919000.0,372919000.0,527000.0,26365000.0,0.0,571560000.0,10217569000.0,39214000.0,1138851000.0,1221374000.0,3913635000.0,160943000.0,0.0,9619117000.0
2015-12-31,152294000.0,2178503000.0,2330797000.0,17080000.0,0.0,2347877000.0,29409000.0,58318000.0,1442608000.0,30112000.0,8264242000.0,10612119000.0,0.0,0.0,7104000.0,374585000.0,374585000.0,628000.0,6476000.0,0.0,516234000.0,9466347000.0,160378000.0,952804000.0,1145772000.0,3621111000.0,222291000.0,0.0,8943009000.0
2014-12-31,192516000.0,2068316000.0,2260832000.0,17401000.0,0.0,2278233000.0,26463000.0,61720000.0,1430484000.0,36082000.0,8459881000.0,10738114000.0,0.0,1182000.0,17108000.0,374532000.0,375714000.0,912000.0,15014000.0,0.0,499985000.0,9492988000.0,374556000.0,795740000.0,1245126000.0,3498800000.0,183198000.0,0.0,8975895000.0
2013-12-31,149189000.0,1755712000.0,1904901000.0,0.0,0.0,1904901000.0,25050000.0,68863000.0,0.0,32450000.0,8425049000.0,10329950000.0,0.0,0.0,16821000.0,374481000.0,374481000.0,1802000.0,15019000.0,0.0,465347000.0,9107923000.0,513260000.0,640840000.0,1222027000.0,1755712000.0,225292000.0,0.0,8625755000.0
2012-12-31,112216000.0,1956536000.0,2068752000.0,19540000.0,0.0,2088292000.0,13358000.0,69816000.0,1597896000.0,17256000.0,8249585000.0,10337877000.0,0.0,604000.0,35067000.0,374433000.0,375037000.0,6056000.0,28407000.0,0.0,460637000.0,9062461000.0,656721000.0,503173000.0,1275416000.0,3554432000.0,262821000.0,0.0,8566757000.0
2011-12-31,136078000.0,2021504000.0,2157582000.0,21579000.0,0.0,2179161000.0,0.0,71928000.0,0.0,0.0,7819383000.0,9998544000.0,0.0,0.0,40199000.0,0.0,0.0,7022000.0,33177000.0,0.0,98300000.0,8575903000.0,758889000.0,566021000.0,1422641000.0,2021504000.0,-136078000.0,0.0,8437404000.0
2010-12-31,126038000.0,,,3899660000.0,0.0,,0.0,75357000.0,,0.0,,9884306000.0,0.0,,,,300000000.0,5563000.0,136226000.0,357253000.0,,8452814000.0,152539000.0,395057000.0,1431492000.0,2153584000.0,,,
2009-12-31,602522000.0,,,1038382000.0,0.0,,0.0,78895000.0,,0.0,,13715144000.0,202507000.0,,,,0.0,3185000.0,890617000.0,382768000.0,,8771371000.0,170876000.0,3648801000.0,4943773000.0,6471448000.0,,,
