,0,1,2,3,4,5,6,7,8,9,10,11,12,13,14,15,16,17,18,19,20,21,22,23,24,25,26,27,28,29,30
Date,Revenue,Revenue Growth,Cost of Revenue,Gross Profit,R&D Expenses,SG&A Expense,Operating Expenses,Operating Income,Interest Expense,Earnings before Tax,Income Tax Expense,Net Income - Non-Controlling int,Net Income - Discontinued ops,Net Income,Preferred Dividends,Net Income Com,EPS,EPS Diluted,Weighted Average Shs Out,Weighted Average Shs Out (Dil),Dividend per Share,Gross Margin,EBITDA Margin,EBIT Margin,Profit Margin,Free Cash Flow margin,EBITDA,EBIT,Consolidated Income,Earnings Before Tax Margin,Net Profit Margin
2019-12-31,74000.0,-0.451851851852,73000.0,-5000.0,334000.0,7602000.0,7936000.0,-9453000.0,421000.0,-9453000.0,0.0,0.0,0.0,-9453000.0,0.0,-9453000.0,-0.3,-0.3,31461.0,31461.0,0.0,-0.0675675675676,-116.459459459,-127.743243243,-127.743243243,-45.648648648599995,-8618000.0,-9453000.0,-9453000.0,-127.743243243,-127.743243243
2018-12-31,135000.0,0.35,103000.0,-1102000.0,2875000.0,10427000.0,13992000.0,-20869000.0,116000.0,-20869000.0,0.0,0.0,0.0,-20869000.0,0.0,-20869000.0,-0.85,-0.85,24429.0,24429.0,0.0,-8.16296296296,-145.62962963,-154.585185185,-154.585185185,-76.31111111109999,-19660000.0,-20869000.0,-20869000.0,-154.585185185,-154.585185185
2017-12-31,100000.0,1.0,200000.0,-100000.0,4344000.0,14061000.0,18405000.0,-19259000.0,69000.0,-19259000.0,0.0,0.0,0.0,-19259000.0,0.0,-19259000.0,-1.09,-1.09,17688.0,17688.0,0.0,-1.0,-179.58,-192.59,-192.59,-143.12,-17958000.0,-19259000.0,-19259000.0,-192.59,-192.59
2016-12-31,0.0,0.0,341979.0,3722208.0,3343327.0,16317724.0,19661051.0,-21509270.0,67904.0,-21509270.0,0.0,0.0,0.0,-21509270.0,0.0,-21509270.0,-1.76,-1.76,12244254.0,12244254.0,0.0,0.0,0.0,0.0,0.0,0.0,-20134693.0,-21509270.0,-21509270.0,0.0,0.0
2015-12-31,0.0,0.0,12219.0,-1439.0,5456037.0,11606654.0,17062691.0,-17075007.0,21739.0,-17075007.0,0.0,0.0,0.0,-17075007.0,0.0,-17075007.0,-1.74,-1.74,9842334.0,9842334.0,0.0,0.0,0.0,0.0,0.0,0.0,-15766496.0,-17075007.0,-17075007.0,0.0,0.0
2014-12-31,0.0,0.0,0.0,0.0,8497914.0,15169064.0,23666978.0,-23568955.0,6920.0,-23568955.0,0.0,0.0,0.0,-23568955.0,0.0,-23568955.0,-0.24,-0.24,96225952.0,96225952.0,0.0,0.0,0.0,0.0,0.0,0.0,-22179840.0,-23568955.0,-23568955.0,0.0,0.0
2013-12-31,0.0,0.0,0.0,0.0,10406362.0,17542729.0,27949091.0,-27872293.0,7094.0,-27872293.0,0.0,0.0,0.0,-27872293.0,0.0,-27872293.0,-0.31,-0.31,88968043.0,88968043.0,0.0,0.0,0.0,0.0,0.0,0.0,-26620151.0,-27872293.0,-27872293.0,0.0,0.0
2012-12-31,0.0,0.0,0.0,0.0,8447639.0,11935394.0,20383033.0,-20321812.0,8843.0,-20321812.0,0.0,0.0,0.0,-20321812.0,0.0,-20321812.0,-0.27,-0.27,75999278.0,75999278.0,0.0,0.0,0.0,0.0,0.0,0.0,-19083768.0,-20321812.0,-20321812.0,0.0,0.0
2011-12-31,0.0,0.0,0.0,0.0,8423683.0,6252004.0,14675687.0,-14573353.0,5716.0,-14573353.0,0.0,0.0,0.0,-14573353.0,0.0,-14573353.0,-0.24,-0.24,0.0,0.0,0.0,0.0,0.0,0.0,0.0,0.0,-13245559.0,-14573353.0,-14573353.0,0.0,0.0
2010-12-31,0.0,0.0,0.0,0.0,7046772.0,16620206.0,23666978.0,-23666978.0,6920.0,-23568955.0,0.0,0.0,0.0,-23568955.0,0.0,-23568955.0,-2.45,-2.45,9713977.0,9622595.0,0.0,0.0,-209.145,0.0,-235.78099999999998,0.0,-22182526.0,-23562035.0,-23568955.0,0.0,0.0
2009-12-31,0.0,0.0,0.0,0.0,10406362.0,17542729.0,27949091.0,-27949091.0,7094.0,-27872293.0,0.0,0.0,0.0,-27872293.0,0.0,-27872293.0,-3.13,-3.13,9296448.0,8896805.0,0.0,0.0,-306.961,0.0,-334.24800000000005,0.0,-26613057.0,-27865199.0,-27872293.0,0.0,0.0
