,0,1,2,3,4,5,6,7,8,9,10,11,12,13,14,15,16,17,18,19,20,21,22,23,24,25,26,27,28
Date,Cash and cash equivalents,Short-term investments,Cash and short-term investments,Receivables,Inventories,Total current assets,Property Plant & Equipment Net,Goodwill and Intangible Assets,Long-term investments,Tax assets,Total non-current assets,Total assets,Payables,Short-term debt,Total current liabilities,Long-term debt,Total debt,Deferred revenue,Tax Liabilities,Deposit Liabilities,Total non-current liabilities,Total liabilities,Other comprehensive income,Retained earnings (deficit),Total shareholders equity,Investments,Net Debt,Other Assets,Other Liabilities
2019-12-31,125225000.0,35437000.0,160662000.0,57450000.0,10075000.0,236419000.0,263712000.0,146121000.0,12960000.0,0.0,437248000.0,673667000.0,16804000.0,3340000.0,47581000.0,8565000.0,11905000.0,0.0,1322000.0,0.0,40296000.0,87877000.0,268059000.0,324722000.0,585790000.0,48397000.0,-113320000.0,0.0,0.0
2018-12-31,85046000.0,46750000.0,131796000.0,59155000.0,10087000.0,215362000.0,228001000.0,148602000.0,23579000.0,5757000.0,403623000.0,618985000.0,17411000.0,0.0,52734000.0,0.0,0.0,0.0,491000.0,0.0,24754000.0,77488000.0,258502000.0,291460000.0,541497000.0,70329000.0,-85046000.0,0.0,0.0
2017-12-31,36707000.0,57424000.0,94131000.0,51503000.0,11271000.0,165004000.0,166440000.0,147588000.0,37034000.0,1832000.0,353734000.0,518738000.0,15876000.0,5000000.0,43755000.0,5000000.0,10000000.0,0.0,2371000.0,0.0,16587000.0,57523000.0,241725000.0,224697000.0,461215000.0,94458000.0,-26707000.0,0.0,0.0
2016-12-31,68795000.0,39477000.0,108272000.0,34060000.0,9310000.0,157784000.0,139474000.0,31571000.0,84479000.0,445000.0,256457000.0,414241000.0,11322000.0,0.0,23427000.0,0.0,0.0,0.0,3796000.0,0.0,10981000.0,34408000.0,213857000.0,176703000.0,379833000.0,123956000.0,-68795000.0,0.0,0.0
2015-12-31,47653000.0,33201000.0,80854000.0,36125000.0,9771000.0,138002000.0,125475000.0,32253000.0,64789000.0,6028000.0,223034000.0,361036000.0,13643000.0,0.0,26262000.0,0.0,0.0,0.0,2769000.0,0.0,7129000.0,33391000.0,198835000.0,133996000.0,327645000.0,97990000.0,-47653000.0,0.0,0.0
2014-12-31,43329000.0,30706000.0,74035000.0,24226000.0,6194000.0,108344000.0,91626000.0,32999000.0,54318000.0,483000.0,179170000.0,287514000.0,7882000.0,139000.0,18759000.0,10000.0,149000.0,0.0,1953000.0,0.0,3216000.0,21975000.0,180960000.0,87482000.0,265539000.0,85024000.0,-43180000.0,0.0,0.0
2013-12-31,43039000.0,36339000.0,79378000.0,18320000.0,5166000.0,109795000.0,56101000.0,0.0,64023000.0,455000.0,120380000.0,230175000.0,6455000.0,204000.0,13663000.0,159000.0,363000.0,0.0,695000.0,0.0,4869000.0,18532000.0,166861000.0,45847000.0,211643000.0,100362000.0,-42676000.0,0.0,0.0
2012-12-31,36759000.0,25137000.0,61896000.0,15791000.0,4619000.0,90156000.0,45316000.0,0.0,36965000.0,609000.0,82566000.0,172722000.0,4758000.0,273000.0,11539000.0,356000.0,629000.0,0.0,412000.0,0.0,4484000.0,16023000.0,147032000.0,10570000.0,156699000.0,62102000.0,-36130000.0,0.0,0.0
2011-12-31,8135000.0,250000.0,8385000.0,11533000.0,3797000.0,28077000.0,34249000.0,0.0,0.0,932000.0,34249000.0,62326000.0,4431000.0,390000.0,9939000.0,613000.0,1003000.0,0.0,4285000.0,0.0,72630000.0,82569000.0,-738000.0,-27744000.0,-20243000.0,250000.0,-7382000.0,4362000.0,5118000.0
2010-12-31,6101000.0,750000.0,6851000.0,8373000.0,1606000.0,18887000.0,19467000.0,0.0,0.0,222000.0,19467000.0,38354000.0,2755000.0,3742000.0,8463000.0,1290000.0,5032000.0,0.0,0.0,0.0,65982000.0,74445000.0,-458000.0,-41537000.0,-36091000.0,750000.0,-1819000.0,2057000.0,1966000.0
