,0,1,2,3,4,5,6,7,8,9,10,11,12,13,14,15,16,17,18,19,20,21,22,23,24,25,26,27,28
Date,Cash and cash equivalents,Short-term investments,Cash and short-term investments,Receivables,Inventories,Total current assets,Property Plant & Equipment Net,Goodwill and Intangible Assets,Long-term investments,Tax assets,Total non-current assets,Total assets,Payables,Short-term debt,Total current liabilities,Long-term debt,Total debt,Deferred revenue,Tax Liabilities,Deposit Liabilities,Total non-current liabilities,Total liabilities,Other comprehensive income,Retained earnings (deficit),Total shareholders equity,Investments,Net Debt,Other Assets,Other Liabilities
2019-06-30,70632000.0,94090000.0,164722000.0,3424000.0,0.0,168146000.0,8226000.0,0.0,115185000.0,3539000.0,916704000.0,1084850000.0,21831000.0,0.0,21831000.0,101107000.0,101107000.0,0.0,0.0,841271000.0,104815000.0,964209000.0,0.0,190839000.0,120641000.0,209275000.0,30475000.0,0.0,837563000.0
2018-06-30,43301000.0,600000.0,73426000.0,0.0,0.0,206780000.0,9602000.0,0.0,96000000.0,0.0,,1175549000.0,21331000.0,25011000.0,971001000.0,101000000.0,126163000.0,0.0,0.0,907598000.0,,1055092000.0,210000.0,190616000.0,120457000.0,1102491000.0,,,926334000.0
2017-06-30,72826000.0,800000.0,52006000.0,0.0,0.0,260437000.0,8256000.0,0.0,117000000.0,0.0,,1200633000.0,19656000.0,0.0,946415000.0,101000000.0,126226000.0,0.0,0.0,926521000.0,,1072403000.0,229000.0,192754000.0,128230000.0,1099334000.0,,,926168000.0
2016-06-30,51206000.0,800000.0,82203000.0,0.0,0.0,326597000.0,8749000.0,0.0,189000000.0,0.0,,1171381000.0,20247000.0,0.0,941817000.0,91000000.0,91299000.0,0.0,0.0,926384000.0,,1037930000.0,313000.0,191666000.0,133451000.0,1089096000.0,,,923852000.0
2015-06-30,81403000.0,,,0.0,0.0,,7815000.0,0.0,22318000.0,0.0,,1174555000.0,17965000.0,,,91367000.0,91367000.0,0.0,0.0,924086000.0,,1033418000.0,331000.0,188206000.0,141137000.0,1062004000.0,,,
2014-06-30,118937000.0,,,0.0,0.0,,8836000.0,0.0,,0.0,,1105629000.0,20466000.0,,,,41431000.0,0.0,0.0,897870000.0,,959767000.0,386000.0,182458000.0,145862000.0,955227000.0,,,
2013-06-30,193839000.0,,,0.0,0.0,,8987000.0,0.0,,0.0,,1211041000.0,21566000.0,,,,106491000.0,0.0,0.0,923010000.0,,1051067000.0,554000.0,179816000.0,159974000.0,971230000.0,,,
2012-06-30,145136000.0,22898000.0,168034000.0,3277000.0,0.0,171311000.0,6600000.0,0.0,0.0,0.0,1089606000.0,1260917000.0,0.0,0.0,0.0,0.0,0.0,0.0,0.0,961411000.0,0.0,1116140000.0,0.0,156560000.0,144777000.0,22898000.0,-145136000.0,0.0,1116140000.0
2011-06-30,142550000.0,,,0.0,0.0,,13134000.0,0.0,,0.0,,1313724000.0,20441000.0,,,,206598000.0,0.0,0.0,945767000.0,,1172806000.0,638000.0,147322000.0,140918000.0,1126457000.0,,,
2010-06-30,96201000.0,,,0.0,0.0,,20508000.0,0.0,,0.0,,1399401000.0,29077000.0,,,,309647000.0,0.0,0.0,932933000.0,,1271657000.0,667000.0,135383000.0,127744000.0,1243313000.0,,,
