,0,1,2,3,4,5,6,7,8,9,10,11,12,13,14,15,16,17,18,19,20,21,22,23,24,25,26,27,28,29,30
Date,Revenue,Revenue Growth,Cost of Revenue,Gross Profit,R&D Expenses,SG&A Expense,Operating Expenses,Operating Income,Interest Expense,Earnings before Tax,Income Tax Expense,Net Income - Non-Controlling int,Net Income - Discontinued ops,Net Income,Preferred Dividends,Net Income Com,EPS,EPS Diluted,Weighted Average Shs Out,Weighted Average Shs Out (Dil),Dividend per Share,Gross Margin,EBITDA Margin,EBIT Margin,Profit Margin,Free Cash Flow margin,EBITDA,EBIT,Consolidated Income,Earnings Before Tax Margin,Net Profit Margin
2018-12-31,424415000.0,1.0,296223000.0,128192000.0,0.0,32081000.0,404496000.0,19919000.0,29935000.0,-16800000.0,-1759000.0,0.0,0.0,-15041000.0,0.0,-15041000.0,-0.24,-0.24,61607000.0,61607000.0,0.114840846008,0.302043989963,0.096784986393,0.046932836963800004,-0.0354393694851,0.0489756488343,41077000.0,19919000.0,-15041000.0,-0.039583897835800005,-0.0354393694851
2017-12-31,0.0,0.0,0.0,0.0,0.0,0.0,951721.0,-124854.0,0.0,0.0,0.0,0.0,0.0,-124854.0,309425.0,-124854.0,-0.19,-0.19,2330884.0,2330884.0,0.0,0.0,0.0,0.0,0.0,0.0,-124854.0,-124854.0,-124854.0,0.0,0.0
2016-12-31,0.0,0.0,0.0,0.0,0.0,0.0,173196.0,-107995.0,0.0,0.0,0.0,0.0,0.0,-107995.0,0.0,-107995.0,-0.06,-0.06,1664794.0,1664794.0,0.0,0.0,0.0,0.0,0.0,0.0,-107995.0,-107995.0,-107995.0,0.0,0.0
2015-12-31,0.0,,,0.0,,10000.0,272260000.0,-10000.0,-3800000.0,-10000.0,0.0,,,,,-10000.0,0.0,0.0,6653000.0,,,0.0,,0.0,,,,13984000.0,,0.0,
