,0,1,2,3,4,5,6,7,8,9,10,11,12,13,14,15,16,17,18,19,20,21,22,23,24,25,26,27,28,29,30
Date,Revenue,Revenue Growth,Cost of Revenue,Gross Profit,R&D Expenses,SG&A Expense,Operating Expenses,Operating Income,Interest Expense,Earnings before Tax,Income Tax Expense,Net Income - Non-Controlling int,Net Income - Discontinued ops,Net Income,Preferred Dividends,Net Income Com,EPS,EPS Diluted,Weighted Average Shs Out,Weighted Average Shs Out (Dil),Dividend per Share,Gross Margin,EBITDA Margin,EBIT Margin,Profit Margin,Free Cash Flow margin,EBITDA,EBIT,Consolidated Income,Earnings Before Tax Margin,Net Profit Margin
2019-12-31,316910000.0,0.36582065172899997,71353000.0,245557000.0,102902000.0,292645000.0,395547000.0,-149990000.0,23565000.0,-162756000.0,823000.0,0.0,0.0,-112658000.0,0.0,-112658000.0,-1.19,-1.19,94515000.0,94515000.0,0.0,0.774847748572,-0.270562620302,-0.473288946389,-0.35548894007799997,-0.0722918178663,-85744000.0,-149990000.0,-112658000.0,-0.513571676501,-0.35548894007799997
2018-12-31,232029000.0,0.39086102719000004,62615000.0,169414000.0,69289000.0,236827000.0,306116000.0,-136702000.0,6826000.0,-146109000.0,664000.0,0.0,0.0,-97113000.0,0.0,-97113000.0,0.0,0.0,0.0,0.0,0.0,0.730141490934,-0.5021484383420001,-0.5891591137309999,-0.418538199966,-0.063319671248,-116513000.0,-136702000.0,-97113000.0,-0.629701459731,-0.418538199966
2017-12-31,166824000.0,0.265342344187,49828000.0,116996000.0,49293000.0,150449000.0,199742000.0,-82746000.0,11665000.0,-96212000.0,324000.0,0.0,0.0,-96536000.0,63800000.0,-160336000.0,-3.34,-3.34,135081000.0,47957000.0,0.0,0.7013,-0.41600000000000004,-0.5068,-0.961,-0.1084,-69346000.0,-84547000.0,-96536000.0,-0.5767,-0.5787
2016-12-31,131841000.0,0.0,40161000.0,91680000.0,36159000.0,69364000.0,105523000.0,-13843000.0,6320000.0,-20118000.0,494000.0,0.0,0.0,-20612000.0,6325000.0,-26937000.0,-0.57,-0.57,135081000.0,47480000.0,0.0,0.6954,-0.011000000000000001,-0.1047,-0.204,-0.043,-1490000.0,-13798000.0,-20612000.0,-0.1526,-0.1563
2015-12-31,,,,,31197000.0,92116000.0,,,,,,,,,,,,,,,,,,,,,,,,,
