,0,1,2,3,4,5,6,7,8,9,10,11,12,13,14
Date,Depreciation & Amortization,Stock-based compensation,Operating Cash Flow,Capital Expenditure,Acquisitions and disposals,Investment purchases and sales,Investing Cash flow,Issuance (repayment) of debt,Issuance (buybacks) of shares,Dividend payments,Financing Cash Flow,Effect of forex changes on cash,Net cash flow / Change in cash,Free Cash Flow,Net Cash/Marketcap
2019-12-31,4748000.0,4858000.0,-18069000.0,8382000.0,-0.0,-78897000.0,-81579000.0,-25000000.0,-55046000.0,-0.0,134948000.0,2000.0,35302000.0,-26451000.0,0.0
2018-12-31,3066000.0,1317000.0,5572000.0,-7852000.0,0.0,0.0,-7852000.0,-645000.0,76000.0,0.0,-591000.0,-2000.0,-2873000.0,-2280000.0,0.0176
2017-12-31,1216000.0,753000.0,290000.0,-5158000.0,0.0,0.0,-5158000.0,16339000.0,65000.0,0.0,16404000.0,4000.0,11540000.0,-4868000.0,0.0176
