,0,1,2,3,4,5,6,7,8,9,10,11,12,13,14,15,16,17,18,19,20,21,22,23,24,25,26,27,28
Date,Cash and cash equivalents,Short-term investments,Cash and short-term investments,Receivables,Inventories,Total current assets,Property Plant & Equipment Net,Goodwill and Intangible Assets,Long-term investments,Tax assets,Total non-current assets,Total assets,Payables,Short-term debt,Total current liabilities,Long-term debt,Total debt,Deferred revenue,Tax Liabilities,Deposit Liabilities,Total non-current liabilities,Total liabilities,Other comprehensive income,Retained earnings (deficit),Total shareholders equity,Investments,Net Debt,Other Assets,Other Liabilities
2018-12-31,720812182.7411,1269035.533,722081218.2741,1621827411.1675,208121827.4112,3461928934.0102,300761421.3198,4855329949.2386,700507614.2132,76142131.9797,6569796954.3147,10031725888.3249,1776649746.1929,58375634.5178,1980964467.0051,855329949.2386,913705583.7563,0.0,263959390.8629,0.0,2308375634.5178,4289340101.5228,860406091.3706,1318527918.7817,5730964467.0051,701776649.7462,192893401.0153,1769526122.7683,145939086.2944
2017-12-31,700000000.0,10810810.8108,710810810.8108,1639189189.1892,200000000.0,3412162162.1622,379729729.7297,5006756756.7568,831081081.0811,128378378.3784,7247297297.2973,10659459459.4595,1813513513.5135,25675675.6757,2185135135.1351,1440540540.5405,1466216216.2162,0.0,533783783.7838,0.0,3040540540.5405,5225675675.6757,800000000.0,894594594.5946,5422972972.973,841891891.8919,,,345945945.9459
2016-12-31,1801234567.9012,12345679.0123,1813580246.9135,1803703703.7037,290123456.7901,5043209876.5432,423456790.1235,5513580246.9136,1830864197.5309,556790123.4568,7383950617.284,12427160493.8272,2011111111.1111,54320987.6543,2375308641.9753,2992592592.5926,3046913580.2469,0.0,851851851.8519,0.0,4683950617.284,7059259259.2593,1117283950.6173,883950617.2839999,5362962962.963,1843209876.5432,,,309876543.2099
2015-12-31,2511799410.0295,88495575.2212,2600294985.2507,2063421828.9086,311209439.528,6045722713.8643,471976401.1799,8856932153.3923,1952802359.8820002,407079646.0177,11115044247.7876,17160766961.6519,2050147492.6254,415929203.5398,2812684365.7817,3020648967.5516,3436578171.0914,0.0,1067846607.6696,0.0,4882005899.705,7694690265.4867,-10324483.7758,5454277286.1357,9460176991.1504,2041297935.1032,,,346607669.6165
2014-12-31,825545171.3396,62305295.9502,887850467.2898,2168224299.0654,348909657.3209,4554517133.9564,520249221.1838,11105919003.1153,1965732087.2274,459501557.6324,13197819314.6417,17752336448.5981,2493769470.405,532710280.3738,3406542056.0748,2933021806.8536,3465732087.2274,0.0,1408099688.4735,0.0,5023364485.9813,8429906542.0561,109034267.9128,4984423676.0125,9313084112.1495,2028037383.1776,,,380062305.296
2013-12-31,1206953642.3841,31456953.6424,1238410596.0265,2057947019.8675,370860927.1523,4738410596.0265,566225165.5629,10791390728.4768,2147350993.3775,413907284.7682,13359271523.1788,18097682119.2053,2491721854.3046,882450331.1258,3831125827.8146,2802980132.4503,3685430463.5762,0.0,1284768211.9205,0.0,4819536423.8411,8650662251.6556,-170529801.3245,5178807947.0199,9437086092.7152,2178807947.0199,,,456953642.3842
2012-12-31,1724025974.026,16233766.2338,1740259740.2598,1920454545.4545,423701298.7013,5037337662.3377,530844155.8442,11175324675.3247,357142857.1429,371753246.7532,13384740259.7403,18422077922.0779,2525974025.974,425324675.3247,3485389610.3896,3262987012.987,3688311688.3117,0.0,1448051948.0519,0.0,5667207792.2078,9152597402.5974,207792207.7922,4711038961.0390005,9230519480.5195,373376623.3766,,,534090909.0909
2011-12-31,2125776397.5155,13975155.2795,2139751552.795,2386645962.7329,631987577.6398,5933229813.6646,594720496.8944,10857142857.1429,364906832.2981,445652173.91300005,11526397515.528,17459627329.1925,2703416149.0683,135093167.7019,3245341614.9068,3049689440.9938,3184782608.6957,0.0,1293478260.8696,0.0,4956521739.1304,8201863354.0373,565217391.3043,4627329192.5466,9228260869.5652,378881987.5776,,,406832298.1366
2010-12-31,2704049844.2368,28037383.1776,2732087227.4144,2283489096.5732,668224299.0654,6490654205.6075,570093457.9439,9523364485.9813,409657320.8723,429906542.0561,10126168224.2991,16616822429.9065,2500000000.0,629283489.0966,3492211838.0062,2971962616.8224,3601246105.919,0.0,1068535825.5452,0.0,4394080996.8847,7886292834.891,626168224.2991,3965732087.2274,8626168224.2991,437694704.0498,,,362928348.9096
2009-12-31,1213592233.0097,101941747.5728,1315533980.5825,2258899676.3754,720064724.9191,5165048543.6893,627831715.2104,9351132686.0841,330097087.3786,626213592.233,10064724919.0939,15229773462.7832,2373786407.767,119741100.3236,2791262135.9223,3129449838.1877,3249190938.5113,0.0,1022653721.6828,0.0,4936893203.8835,7728155339.8058,367313915.8576,2635922330.0971,7030744336.5696,432038834.9515,,,297734627.8317
