,0,1,2,3,4,5,6,7,8,9,10,11,12,13,14
Date,Depreciation & Amortization,Stock-based compensation,Operating Cash Flow,Capital Expenditure,Acquisitions and disposals,Investment purchases and sales,Investing Cash flow,Issuance (repayment) of debt,Issuance (buybacks) of shares,Dividend payments,Financing Cash Flow,Effect of forex changes on cash,Net cash flow / Change in cash,Free Cash Flow,Net Cash/Marketcap
2019-12-31,38505000.0,42134000.0,-98639000.0,45439000.0,-0.0,-337798000.0,-387237000.0,-11667000.0,35728000.0,-0.0,613209000.0,-1303000.0,126030000.0,-144078000.0,0.0
2018-12-31,27044000.0,33252000.0,-27641000.0,15530000.0,-48892000.0,21809000.0,-42613000.0,-0.0,-51582000.0,-0.0,131571000.0,-3611000.0,57706000.0,-43171000.0,0.0
2017-12-31,17580000.0,30559000.0,-10063000.0,80264000.0,-0.0,93381000.0,13117000.0,-0.0,-111792000.0,-0.0,44218000.0,6199000.0,53471000.0,-90327000.0,0.0
2016-12-31,1707000.0,35009000.0,-103566000.0,1776000.0,-0.0,106257000.0,104481000.0,-0.0,-58321000.0,-0.0,968000.0,-1584000.0,299000.0,-105342000.0,0.0
2015-12-31,503000.0,33979000.0,-124337000.0,2720000.0,-0.0,-18091000.0,-20811000.0,-0.0,-58022000.0,-0.0,154061000.0,0.0,8274000.0,-127057000.0,0.0
2014-12-31,628000.0,19310000.0,-57274000.0,4664000.0,-0.0,-140504000.0,-145168000.0,-49000.0,186231000.0,-0.0,237126000.0,-350000.0,49748000.0,-61938000.0,0.0
2013-12-31,2396405.0,8427188.0,-46922124.0,845732.0,-0.0,-126982731.0,-127828463.0,-4995763.0,-15414403.0,-0.0,187439288.0,0.0,15414403.0,-47767856.0,0.0
2012-12-31,2704000.0,2289000.0,-47928000.0,-189000.0,0.0,0.0,-189000.0,-6944000.0,0.0,0.0,22411000.0,0.0,-25706000.0,-48117000.0,0.4359
2011-12-31,2871200.0,2816637.0,-20766787.0,-165116.0,0.0,27868164.0,27703048.0,-7185610.0,5889.0,0.0,-7179721.0,0.0,-243460.0,-20931903.0,0.4359
