,0,1,2,3,4,5,6,7,8,9,10,11,12,13,14,15,16,17,18,19,20,21,22,23,24,25,26,27,28
Date,Cash and cash equivalents,Short-term investments,Cash and short-term investments,Receivables,Inventories,Total current assets,Property Plant & Equipment Net,Goodwill and Intangible Assets,Long-term investments,Tax assets,Total non-current assets,Total assets,Payables,Short-term debt,Total current liabilities,Long-term debt,Total debt,Deferred revenue,Tax Liabilities,Deposit Liabilities,Total non-current liabilities,Total liabilities,Other comprehensive income,Retained earnings (deficit),Total shareholders equity,Investments,Net Debt,Other Assets,Other Liabilities
2019-12-31,318000.0,29521000.0,29839000.0,61784000.0,1327000.0,105892000.0,387275000.0,0.0,0.0,504000.0,392117000.0,498009000.0,16597000.0,67637000.0,124845000.0,174187000.0,241824000.0,0.0,2719000.0,0.0,239190000.0,364034000.0,0.0,207007000.0,133975000.0,29521000.0,241506000.0,0.0,0.0
2018-12-31,282000.0,27549000.0,27831000.0,63350000.0,1461000.0,108725000.0,354587000.0,0.0,0.0,1876000.0,357341000.0,466066000.0,20002000.0,63908000.0,107407000.0,157315000.0,221223000.0,0.0,2319000.0,0.0,219212000.0,326619000.0,0.0,199107000.0,139447000.0,27549000.0,220941000.0,0.0,0.0
2017-12-31,224000.0,26664000.0,26888000.0,59055000.0,1660000.0,102242000.0,286944000.0,0.0,0.0,1499000.0,289943000.0,392185000.0,19645000.0,73641000.0,110895000.0,98995000.0,172636000.0,0.0,2488000.0,0.0,153686000.0,264581000.0,0.0,167669000.0,127604000.0,26664000.0,172412000.0,0.0,0.0
2016-12-31,137000.0,27621000.0,27758000.0,56143000.0,1900000.0,100298000.0,277376000.0,0.0,0.0,738000.0,279768000.0,380066000.0,16088000.0,42806000.0,81224000.0,124391000.0,167197000.0,0.0,2062000.0,0.0,204684000.0,285908000.0,0.0,128580000.0,94158000.0,27621000.0,167060000.0,0.0,0.0
2015-12-31,157000.0,24575000.0,24732000.0,49312000.0,1890000.0,92701000.0,262852000.0,0.0,0.0,2865000.0,265294000.0,357995000.0,17791000.0,40025000.0,86744000.0,99223000.0,139248000.0,131000.0,2371000.0,0.0,169697000.0,256441000.0,0.0,117479000.0,101554000.0,24575000.0,139091000.0,0.0,0.0
2014-12-31,27649000.0,24895000.0,52544000.0,52983000.0,1306000.0,128919000.0,193247000.0,0.0,0.0,507000.0,195686000.0,324605000.0,41695000.0,42908000.0,224620000.0,52293000.0,95201000.0,224000.0,2309000.0,0.0,109549000.0,224620000.0,0.0,96043000.0,99985000.0,24895000.0,67552000.0,0.0,-109549000.0
2013-12-31,1172000.0,20975000.0,22147000.0,58484000.0,1498000.0,92640000.0,234225000.0,0.0,0.0,230000.0,236662000.0,329302000.0,27970000.0,40103000.0,93226000.0,70366000.0,110469000.0,0.0,0.0,0.0,120130000.0,213356000.0,27120000.0,82552000.0,115946000.0,20975000.0,109297000.0,0.0,0.0
2012-12-31,507000.0,17320000.0,17827000.0,50017000.0,1770000.0,84800000.0,230439000.0,0.0,0.0,354000.0,232869000.0,317669000.0,19025000.0,28918000.0,72523000.0,78583000.0,107501000.0,0.0,2063000.0,0.0,122951000.0,195474000.0,41209000.0,76637000.0,122195000.0,17320000.0,106994000.0,0.0,0.0
2011-12-31,180000.0,20264000.0,20444000.0,48019000.0,1658000.0,83565000.0,193130000.0,0.0,0.0,233000.0,195528000.0,279093000.0,23803000.0,17438000.0,53188000.0,44135000.0,61573000.0,0.0,0.0,0.0,88428000.0,141616000.0,40797000.0,91861000.0,137477000.0,20264000.0,61393000.0,0.0,0.0
2010-12-31,13774000.0,18273000.0,32047000.0,51800000.0,832000.0,96553000.0,165377000.0,0.0,0.0,2356000.0,167787000.0,264340000.0,17092000.0,23410000.0,51145000.0,17201000.0,40611000.0,0.0,49192000.0,0.0,65247000.0,116392000.0,4406000.0,94718000.0,147948000.0,18273000.0,8564000.0,11874000.0,10643000.0
2009-12-31,9870000.0,14921000.0,24791000.0,47462000.0,750000.0,80129000.0,178780000.0,0.0,0.0,1868000.0,180527000.0,260656000.0,14492000.0,10331000.0,35327000.0,27202000.0,37533000.0,0.0,51000000.0,0.0,78202000.0,113529000.0,3063000.0,95373000.0,147127000.0,14921000.0,12742000.0,7126000.0,10504000.0
