,0,1,2,3,4,5,6,7,8,9,10,11,12,13,14
Date,Depreciation & Amortization,Stock-based compensation,Operating Cash Flow,Capital Expenditure,Acquisitions and disposals,Investment purchases and sales,Investing Cash flow,Issuance (repayment) of debt,Issuance (buybacks) of shares,Dividend payments,Financing Cash Flow,Effect of forex changes on cash,Net cash flow / Change in cash,Free Cash Flow,Net Cash/Marketcap
2018-12-31,61267000.0,475000.0,100708000.0,5439000.0,-0.0,-114458000.0,23651000.0,-0.0,-4596000.0,-16835000.0,-21431000.0,-830000.0,102098000.0,95269000.0,0.0
2017-12-31,55004000.0,1154000.0,93711000.0,6661000.0,-0.0,-158537000.0,-74347000.0,-0.0,-1880000.0,-16302000.0,-18182000.0,522000.0,1704000.0,87050000.0,0.0
2016-12-31,26636000.0,1343000.0,32368000.0,7725000.0,-0.0,-122189000.0,-27362000.0,-0.0,-62976000.0,-15803000.0,-15803000.0,235000.0,-10562000.0,24643000.0,0.0
2015-12-31,29739000.0,1094000.0,38197000.0,7662000.0,-0.0,-180886000.0,-12832000.0,-0.0,-73538000.0,-15003000.0,-15003000.0,-1456000.0,8906000.0,30535000.0,0.0
2014-12-31,34107000.0,1262000.0,30160000.0,13451000.0,-0.0,-189569000.0,-18867000.0,-0.0,-64632000.0,-14947000.0,-4947000.0,-1011000.0,5335000.0,16709000.0,0.0
2013-12-31,35962000.0,318000.0,35907000.0,28607000.0,-0.0,-240146000.0,-32641000.0,-0.0,-59297000.0,-14943000.0,-14943000.0,-575000.0,-12252000.0,7300000.0,0.0
2012-12-31,37377000.0,1526000.0,55794000.0,4054000.0,-0.0,-169782000.0,-59302000.0,-0.0,-71549000.0,-14886000.0,-14886000.0,217000.0,-18177000.0,51740000.0,0.0
2011-12-31,39156000.0,879000.0,54284000.0,3488000.0,-0.0,-125951000.0,17295000.0,-5000000.0,0.0,-14846000.0,-19846000.0,-230000.0,51503000.0,50796000.0,0.0
