,0,1,2,3,4,5,6,7,8,9,10,11,12,13,14,15,16,17,18,19,20,21,22,23,24,25,26,27,28
Date,Cash and cash equivalents,Short-term investments,Cash and short-term investments,Receivables,Inventories,Total current assets,Property Plant & Equipment Net,Goodwill and Intangible Assets,Long-term investments,Tax assets,Total non-current assets,Total assets,Payables,Short-term debt,Total current liabilities,Long-term debt,Total debt,Deferred revenue,Tax Liabilities,Deposit Liabilities,Total non-current liabilities,Total liabilities,Other comprehensive income,Retained earnings (deficit),Total shareholders equity,Investments,Net Debt,Other Assets,Other Liabilities
2019-12-31,211981000.0,405995000.0,617976000.0,7904000.0,0.0,625880000.0,39474000.0,28643000.0,405995000.0,9716000.0,1780454000.0,2406334000.0,61000.0,0.0,61000.0,676900000.0,676900000.0,0.0,0.0,2056367000.0,686616000.0,2073972000.0,87913000.0,242878000.0,332362000.0,811990000.0,464919000.0,0.0,1387295000.0
2018-12-31,48547000.0,346426000.0,394973000.0,8282000.0,0.0,403255000.0,36532000.0,29085000.0,346426000.0,11514000.0,1781039000.0,2184294000.0,337000.0,0.0,337000.0,611000000.0,611000000.0,0.0,0.0,1877055000.0,622514000.0,1894132000.0,86308000.0,207779000.0,290162000.0,692852000.0,562453000.0,0.0,1271281000.0
2017-12-31,51027000.0,337710000.0,388737000.0,7594000.0,0.0,396331000.0,30399000.0,29862000.0,337710000.0,8827000.0,1727198000.0,2123529000.0,369000.0,40000000.0,40369000.0,480200000.0,520200000.0,0.0,0.0,1814632000.0,489027000.0,1866111000.0,84532000.0,174804000.0,257418000.0,675420000.0,469173000.0,0.0,1336715000.0
2016-12-31,67938000.0,409121000.0,477059000.0,5557000.0,0.0,482616000.0,21926000.0,0.0,409121000.0,9799000.0,1183365000.0,1665981000.0,1411000.0,3199000.0,4810000.0,311200000.0,314399000.0,0.0,200000.0,1425074000.0,320999000.0,1437464000.0,68657000.0,160692000.0,228517000.0,818242000.0,246461000.0,0.0,1111655000.0
2015-12-31,2637000.0,398618000.0,401255000.0,5767000.0,0.0,407022000.0,22104000.0,0.0,398618000.0,8606000.0,1148960000.0,1555982000.0,257000.0,27204000.0,27461000.0,187400000.0,214604000.0,0.0,0.0,1309185000.0,196006000.0,1346574000.0,67338000.0,142223000.0,209408000.0,797236000.0,211967000.0,0.0,1123107000.0
2014-12-31,47702000.0,,,0.0,0.0,,21608000.0,0.0,,7682000.0,,1367125000.0,0.0,,,,1496000.0,0.0,0.0,1199233000.0,,1209466000.0,779000.0,125595000.0,157659000.0,1271045000.0,,,
2013-12-31,94406000.0,,,0.0,0.0,,21803000.0,0.0,,8603000.0,,1299190000.0,0.0,,,,1095000.0,0.0,0.0,1144314000.0,,1155518000.0,-556000.0,113933000.0,143672000.0,1153001000.0,,,
