,0,1,2,3,4,5,6,7,8,9,10,11,12,13,14
Date,Depreciation & Amortization,Stock-based compensation,Operating Cash Flow,Capital Expenditure,Acquisitions and disposals,Investment purchases and sales,Investing Cash flow,Issuance (repayment) of debt,Issuance (buybacks) of shares,Dividend payments,Financing Cash Flow,Effect of forex changes on cash,Net cash flow / Change in cash,Free Cash Flow,Net Cash/Marketcap
2018-12-31,89141000.0,5482000.0,393079000.0,284197000.0,-0.0,0.0,-280604000.0,-80946000.0,-132700000.0,-0.0,-3724000.0,0.0,108751000.0,108882000.0,0.0
2017-12-31,60831000.0,9489000.0,109257000.0,285891000.0,-0.0,0.0,-281469000.0,-166546000.0,-23949000.0,-0.0,62565000.0,0.0,-109647000.0,-176634000.0,0.0
2016-12-31,43542000.0,1649000.0,10659000.0,-42832000.0,0.0,0.0,-41688000.0,-72361000.0,40425000.0,0.0,130315000.0,0.0,99286000.0,-32173000.0,0.0634
2015-12-31,50134000.0,1239000.0,81230000.0,-62855000.0,0.0,0.0,-62776000.0,-15216000.0,0.0,0.0,-15216000.0,0.0,3238000.0,18375000.0,0.0634
