,0,1,2,3,4,5,6,7,8,9,10,11,12,13,14
Date,Depreciation & Amortization,Stock-based compensation,Operating Cash Flow,Capital Expenditure,Acquisitions and disposals,Investment purchases and sales,Investing Cash flow,Issuance (repayment) of debt,Issuance (buybacks) of shares,Dividend payments,Financing Cash Flow,Effect of forex changes on cash,Net cash flow / Change in cash,Free Cash Flow,Net Cash/Marketcap
2018-12-31,1561000.0,2163000.0,-1702000.0,-251000.0,0.0,6847000.0,6596000.0,0.0,69000.0,0.0,69000.0,100000.0,5063000.0,-1953000.0,0.1072
2017-12-31,1132000.0,2437000.0,3919000.0,-386000.0,-7373000.0,-9970000.0,-17729000.0,-2993000.0,17342000.0,0.0,14349000.0,-413000.0,126000.0,3533000.0,0.0548
2016-12-31,685000.0,1658000.0,-2483000.0,-505000.0,0.0,-24000.0,-529000.0,2993000.0,70000.0,0.0,3063000.0,433000.0,484000.0,-2988000.0,0.0322
2015-12-31,718000.0,1609000.0,-6902000.0,-2182000.0,0.0,5680000.0,3498000.0,-149000.0,2006000.0,0.0,1857000.0,62000.0,-1485000.0,-9084000.0,0.0815
2014-12-31,2216000.0,1334000.0,-301000.0,-410000.0,0.0,-170000.0,-580000.0,-144000.0,460000.0,0.0,316000.0,-43000.0,-608000.0,-711000.0,0.1094
2013-12-31,2171000.0,1118000.0,-1143000.0,-538000.0,0.0,6586000.0,6048000.0,-12000.0,203000.0,0.0,191000.0,-128000.0,4968000.0,-1681000.0,0.1513
2012-12-31,2186000.0,1154000.0,-9136000.0,-326000.0,0.0,2921000.0,2595000.0,0.0,-76000.0,0.0,-76000.0,-155000.0,-6772000.0,-9462000.0,0.0955
2011-12-31,2367000.0,1188000.0,-6597000.0,-434000.0,0.0,-2762000.0,-3196000.0,0.0,3590000.0,0.0,3590000.0,98000.0,-6105000.0,-7031000.0,0.3051
2010-12-31,2435000.0,1558000.0,-3595000.0,-1459000.0,-15000000.0,26777000.0,10318000.0,-11638000.0,-96000.0,0.0,-11734000.0,21000.0,-4990000.0,-5054000.0,0.5164
2009-12-31,533000.0,2157000.0,-6871000.0,-358000.0,-518000.0,3031000.0,2155000.0,11638000.0,2000.0,0.0,11640000.0,-1000.0,6923000.0,-7229000.0,1.1745
