,0,1,2,3,4,5,6,7,8,9,10,11,12,13,14,15,16,17,18,19,20,21,22,23,24,25,26,27,28
Date,Cash and cash equivalents,Short-term investments,Cash and short-term investments,Receivables,Inventories,Total current assets,Property Plant & Equipment Net,Goodwill and Intangible Assets,Long-term investments,Tax assets,Total non-current assets,Total assets,Payables,Short-term debt,Total current liabilities,Long-term debt,Total debt,Deferred revenue,Tax Liabilities,Deposit Liabilities,Total non-current liabilities,Total liabilities,Other comprehensive income,Retained earnings (deficit),Total shareholders equity,Investments,Net Debt,Other Assets,Other Liabilities
2018-12-31,800000.0,0.0,800000.0,2585000.0,807000.0,4307000.0,107992000.0,0.0,3404000.0,0.0,112310000.0,116617000.0,8148000.0,4333000.0,13545000.0,63129000.0,67462000.0,0.0,0.0,0.0,63129000.0,76674000.0,0.0,-34845000.0,39943000.0,3404000.0,66662000.0,115000.0,1064000.0
2017-12-31,1834000.0,0.0,1834000.0,703000.0,1016000.0,3895000.0,115774000.0,0.0,4859000.0,0.0,120918000.0,124813000.0,4418000.0,7304000.0,12531000.0,64126000.0,71430000.0,0.0,0.0,0.0,64126000.0,76657000.0,0.0,-26631000.0,48156000.0,4859000.0,,,809000.0
2016-12-31,926000.0,0.0,926000.0,1681000.0,1173000.0,4184000.0,121341000.0,0.0,4857000.0,0.0,126556000.0,130740000.0,5068000.0,6813000.0,12870000.0,69117000.0,75930000.0,0.0,0.0,0.0,69117000.0,81987000.0,0.0,-21388000.0,48753000.0,4857000.0,,,989000.0
2015-12-31,4265000.0,0.0,4265000.0,455000.0,583000.0,6028000.0,130501000.0,0.0,4357000.0,0.0,135694000.0,141722000.0,1224000.0,7095000.0,11200000.0,75956000.0,83051000.0,0.0,0.0,0.0,75956000.0,87156000.0,0.0,-15575000.0,54566000.0,4357000.0,,,2881000.0
2014-12-31,647000.0,0.0,647000.0,1203000.0,904000.0,3372000.0,117445000.0,0.0,1000000.0,0.0,118567000.0,121939000.0,702000.0,5529000.0,7047000.0,60991000.0,66520000.0,0.0,0.0,0.0,60991000.0,68038000.0,0.0,-19080000.0,53901000.0,1000000.0,,,816000.0
