,0,1,2,3,4,5,6,7,8,9,10,11,12,13,14,15,16,17,18,19,20,21,22,23,24,25,26,27,28
Date,Cash and cash equivalents,Short-term investments,Cash and short-term investments,Receivables,Inventories,Total current assets,Property Plant & Equipment Net,Goodwill and Intangible Assets,Long-term investments,Tax assets,Total non-current assets,Total assets,Payables,Short-term debt,Total current liabilities,Long-term debt,Total debt,Deferred revenue,Tax Liabilities,Deposit Liabilities,Total non-current liabilities,Total liabilities,Other comprehensive income,Retained earnings (deficit),Total shareholders equity,Investments,Net Debt,Other Assets,Other Liabilities
2018-12-31,43695000.0,0.0,43695000.0,58677000.0,67379000.0,193397000.0,73901000.0,512050000.0,0.0,22192000.0,612974000.0,806371000.0,25171000.0,0.0,159735000.0,0.0,0.0,0.0,15245000.0,0.0,12077000.0,380787000.0,363921000.0,61763000.0,425584000.0,0.0,-43695000.0,0.0,208975000.0
2017-12-31,36086000.0,0.0,36086000.0,67046000.0,67078000.0,331229000.0,61585000.0,540855000.0,0.0,13401000.0,604022000.0,935251000.0,27279000.0,10184000.0,128348000.0,227394000.0,237578000.0,0.0,9565000.0,0.0,234765000.0,708147000.0,239489000.0,-12420000.0,227104000.0,0.0,201492000.0,0.0,345034000.0
2016-12-31,169508000.0,0.0,169508000.0,24990000.0,26045000.0,225394000.0,50858000.0,111473000.0,0.0,21222000.0,162856000.0,388250000.0,16047000.0,4999000.0,33612000.0,144340000.0,149339000.0,0.0,8604000.0,0.0,146635000.0,187620000.0,204905000.0,-4255000.0,200630000.0,0.0,-20169000.0,0.0,7373000.0
2015-12-31,191471000.0,0.0,191471000.0,18398000.0,26388000.0,240664000.0,52547000.0,112563000.0,0.0,0.0,165841000.0,406505000.0,8675000.0,6999000.0,30830000.0,143297000.0,150296000.0,3658000.0,7684000.0,0.0,147827000.0,187829000.0,209121000.0,9553000.0,218676000.0,0.0,-41175000.0,0.0,9172000.0
2014-12-31,200895000.0,0.0,200895000.0,34466000.0,24763000.0,275121000.0,49226000.0,122638000.0,0.0,8316000.0,176429000.0,451550000.0,12421000.0,8043000.0,36385000.0,142097000.0,150140000.0,6330000.0,7065000.0,0.0,159708000.0,206539000.0,229374000.0,15632000.0,245011000.0,0.0,-50755000.0,0.0,10446000.0
2013-12-31,8388000.0,0.0,8388000.0,29928000.0,27639000.0,78619000.0,48057000.0,143025000.0,0.0,8362000.0,192866000.0,271485000.0,6950000.0,7640000.0,24009000.0,5126000.0,12766000.0,2029000.0,20000.0,0.0,14264000.0,47706000.0,201021000.0,22706000.0,223779000.0,0.0,4378000.0,0.0,9433000.0
2012-12-31,14856000.0,0.0,14856000.0,32570000.0,15496000.0,74772000.0,34156000.0,131354000.0,0.0,6622000.0,167327000.0,242099000.0,7864000.0,8649000.0,23161000.0,5000000.0,13649000.0,0.0,9051000.0,0.0,9043000.0,42319000.0,184431000.0,15316000.0,199780000.0,0.0,-1207000.0,0.0,10115000.0
2011-12-31,0.0,0.0,0.0,0.0,0.0,0.0,0.0,0.0,0.0,0.0,0.0,0.0,0.0,0.0,0.0,0.0,0.0,0.0,0.0,0.0,0.0,0.0,0.0,0.0,0.0,0.0,0.0,0.0,0.0
2010-12-31,6788000.0,0.0,6788000.0,13477000.0,17707000.0,56027000.0,30763000.0,125680000.0,0.0,15503000.0,158566000.0,214593000.0,4715000.0,280000.0,15777000.0,79774000.0,80054000.0,0.0,5250000.0,0.0,86295000.0,102072000.0,0.0,2690000.0,112521000.0,0.0,73266000.0,18055000.0,10782000.0
2009-12-31,89003000.0,3999000.0,93002000.0,9717000.0,15038000.0,126223000.0,21251000.0,8413000.0,0.0,15083000.0,40122000.0,166345000.0,5212000.0,234000.0,29524000.0,6527000.0,6761000.0,0.0,8511000.0,0.0,10371000.0,39895000.0,34000.0,13961000.0,126450000.0,3999000.0,-86241000.0,8466000.0,24078000.0
