,0,1,2,3,4,5,6,7,8,9,10,11,12,13,14
Date,Depreciation & Amortization,Stock-based compensation,Operating Cash Flow,Capital Expenditure,Acquisitions and disposals,Investment purchases and sales,Investing Cash flow,Issuance (repayment) of debt,Issuance (buybacks) of shares,Dividend payments,Financing Cash Flow,Effect of forex changes on cash,Net cash flow / Change in cash,Free Cash Flow,Net Cash/Marketcap
2019-12-31,49519000.0,8928000.0,36277000.0,35247000.0,-0.0,0.0,-18437000.0,-0.0,-14700000.0,-0.0,-16914000.0,0.0,926000.0,1030000.0,0.0
2018-12-31,46683000.0,17898000.0,39939000.0,64957000.0,-0.0,0.0,-54213000.0,-1564000.0,76738000.0,-0.0,19327000.0,0.0,5053000.0,-25018000.0,0.0
2017-12-31,45687000.0,0.0,-11540000.0,14510000.0,0.0,0.0,14510000.0,-6438000.0,0.0,0.0,-6438000.0,0.0,-3468000.0,2970000.0,-0.0015
2016-12-31,78661000.0,0.0,-42835000.0,2266000.0,0.0,0.0,2266000.0,39564000.0,1000000.0,0.0,46525000.0,0.0,5956000.0,-40569000.0,-0.0015
2015-12-31,39682000.0,0.0,32075000.0,-54438000.0,0.0,0.0,-54438000.0,15684000.0,0.0,0.0,15684000.0,0.0,-6679000.0,-22363000.0,-0.0015
