,0,1,2,3,4,5,6,7,8,9,10,11,12,13,14,15,16,17,18,19,20,21,22,23,24,25,26,27,28,29,30
Date,Revenue,Revenue Growth,Cost of Revenue,Gross Profit,R&D Expenses,SG&A Expense,Operating Expenses,Operating Income,Interest Expense,Earnings before Tax,Income Tax Expense,Net Income - Non-Controlling int,Net Income - Discontinued ops,Net Income,Preferred Dividends,Net Income Com,EPS,EPS Diluted,Weighted Average Shs Out,Weighted Average Shs Out (Dil),Dividend per Share,Gross Margin,EBITDA Margin,EBIT Margin,Profit Margin,Free Cash Flow margin,EBITDA,EBIT,Consolidated Income,Earnings Before Tax Margin,Net Profit Margin
2018-12-31,443623188.4058,0.22512773139199999,-219260869.5652,662884057.971,0.0,-140159420.2899,-156594202.8986,819478260.8696,-246376.8116,64623188.4058,12681159.4203,608695.6522,0.0,51942028.9855,0.0,51942028.9855,0.8487,0.8414,883081.942,883081.942,0.0,1.4943,0.0025,0.1451,0.0017,0.7157,76898550.7246,64376811.5942,52550724.6377,0.1457,0.1171
2017-12-31,362103621.5561,0.247515832654,-169173453.4743,531277075.0303,0.0,-104366660.8907,-123063593.8312,654340668.8615,-103968.1164,66054409.9809,12094957.5464,485184.5434,0.0,53959452.4346,0.0,53959452.4346,0.8881,0.8823,1050026.5812,1050026.5812,0.0107,1.4672,0.0038,0.1821,0.0026,0.1564,79743545.3128,65950441.8645,54444636.978,0.1824,0.149
2016-12-31,290259740.2597,0.199391845384,-140357142.8571,430616883.1169,0.0,-52077922.0779,-81461038.96100001,512077922.0779,454545.4545,50194805.1948,10032467.5325,243506.4935,0.0,40162337.6623,0.0,40162337.6623,0.6641,0.6622,980821.4448,980821.4448,0.0188,1.4836,0.0036,0.1745,0.0022,0.2883,63571428.5714,50649350.6494,40405844.1558,0.1729,0.1384
2015-12-31,242005764.3186,-0.0571509354674,118769550.1919,123236214.1267,0.0,47384884.3721,57110464.5604,66125749.5663,1270335.6145,82831345.8728,11979401.4397,1188378.4781,0.0,70851944.4331,0.0,70851944.4331,1.2255,1.2224,744525.9189,744525.9189,0.0034,0.5092,0.0053,0.3475,0.004,-0.0462,93513092.6525,84101681.4872,72040322.9111,0.3423,0.2928
2014-12-31,256674979.5086,-0.276446322781,126837690.3089,129837289.1997,0.0,53748626.6371,59904780.1747,69932509.025,732460.1943,103207129.2792,15590938.420999998,-976613.5924,0.0,87616190.8582,0.0,87616190.8582,1.6409,1.6172,908927.19,908927.19,0.0249,0.5058,0.0075,0.4049,0.0059,0.3397,110095743.0111,103939589.4735,86639577.2658,0.4021,0.3414
2013-12-31,354742139.5123,0.216198984539,194505230.1891,160236909.3231,0.0,81441920.5741,85047679.8638,75189229.4593,872286.0792,75495195.5239,18533996.2294,1151006.5073,0.0,56961199.2945,0.0,56961199.2945,1.0947,1.0856,1584832.2691,1584832.2691,0.0283,0.4517,0.0068,0.2153,0.0049,0.4126,79806635.0423,76367481.6031,55810192.7872,0.2128,0.1606
2012-12-31,291681002.8803,0.150835558919,178524744.6976,113156258.1828,0.0,60185814.3493,64923834.7735,48232423.4093,246137.7324,43135212.0974,13345411.1024,3350353.4957,7867340.9269,29789800.995,0.0,29789800.995,0.5728,0.5728,,,0.0,0.3879,0.0054,0.1487,0.0033,0.414,47868813.8256,43381349.8298,26439447.4993,0.1479,0.1021
2011-12-31,253451503.66599998,0.262352212486,173126910.6499,80324593.016,0.0,47958493.8486,54301230.2722,26023362.7439,126258.2329,23627314.5272,7472443.1465,2804430.2224,4854448.8629,16154871.3806,0.0,16154871.3806,0.3107,0.3107,,,0.0,0.3169,0.0035,0.0937,0.002,0.2432,28618304.9584,23753572.76,13350441.1582,0.0932,0.0637
2010-12-31,200777169.1284,,122304900.7141,78472268.4144,0.0,46259708.5004,52303009.5536,26169258.8607,69940.3306,29272066.2558,6662949.5582,-1996250.2853,-4490886.563,22609116.6976,0.0,22609116.6976,0.4346,0.4294,,,0.0,0.3908,0.0058,0.1461,0.0037,1.1109,35578336.4309,29342006.5865,24605366.9829,0.1458,0.1126
