,0,1,2,3,4,5,6,7,8,9,10,11,12,13,14
Date,Depreciation & Amortization,Stock-based compensation,Operating Cash Flow,Capital Expenditure,Acquisitions and disposals,Investment purchases and sales,Investing Cash flow,Issuance (repayment) of debt,Issuance (buybacks) of shares,Dividend payments,Financing Cash Flow,Effect of forex changes on cash,Net cash flow / Change in cash,Free Cash Flow,Net Cash/Marketcap
2018-12-31,12521739.1304,9202898.5507,328188405.7971,-10666666.6667,1695652.1739,-4652173.913,-19202898.5507,0.0,0.0,0.0,-420289.8551,17971014.4928,326536231.8841,317521739.1304,1.4577
2017-12-31,13793103.4483,6896551.7241,61687749.0903,-5059781.666999999,-19649974.008,5874198.5791,-28643216.0804,0.0,0.0,-37220585.6871,-37428521.9199,-5770230.4627,-10154219.3727,56627967.4233,0.0153
2016-12-31,12922077.9221,3636363.6364,89983766.2338,-6298701.2987,-162337.6623,14220779.2208,2922077.9221,-32467.5325,0.0,-75129870.1299,-75275974.02600001,-23181818.1818,-5551948.0519,83685064.9351,0.0153
2015-12-31,9411411.1653,1202038.0008,-9985111.1202,-1202038.0008,42672349.0281,10135365.8703,48573262.8502,-16309470.1471,0.0,-9548006.3927,-25857476.5398,22019150.6509,30979797.5659,-11187149.121,0.0153
2014-12-31,6156153.5376,7359480.9996,92307424.0073,-5127221.3599,0.0,-18555658.255,-27938124.5531,1238206.5189,53085924.5566,-51289653.1278,3121675.5899,37076437.4531,95184946.1991,87180202.6473,0.0153
2013-12-31,3439153.4392,7022349.9361,151714012.0416,-5351061.2419,120294.3502,-25426503.6794,-36507328.3464,959131.5453,0.0,-57200085.1426,-56146840.6009,456486.0427,51503770.6015,146362950.7997,0.0153
2012-12-31,4487463.9958,2151021.2097,121731441.4768,-989722.4404,-2650890.2854,-43995843.1527,-49018656.7164,-487398.5336,0.0,-28334871.6942,-28513747.0542,76427.0752,37075117.8319,120741719.0364,0.0153
2011-12-31,4864732.1983,0.0,64313812.601,-2665993.538,-466913.1353,15165527.5258,10543214.8627,808251.5223,0.0,-13194979.4955,-14661861.5633,72294.0226,59604821.6727,61647819.063,0.0153
2010-12-31,6236329.8445,0.0,226106426.6849,-3060354.1035,4502070.4946,-43668231.765,-44067364.4397,289054.0937,0.0,-12074961.6877,-12227754.41,-420848.4137,155854902.3444,223046072.5814,0.0153
