,0,1,2,3,4,5,6,7,8,9,10,11,12,13,14,15,16,17,18,19,20,21,22,23,24,25,26,27,28
Date,Cash and cash equivalents,Short-term investments,Cash and short-term investments,Receivables,Inventories,Total current assets,Property Plant & Equipment Net,Goodwill and Intangible Assets,Long-term investments,Tax assets,Total non-current assets,Total assets,Payables,Short-term debt,Total current liabilities,Long-term debt,Total debt,Deferred revenue,Tax Liabilities,Deposit Liabilities,Total non-current liabilities,Total liabilities,Other comprehensive income,Retained earnings (deficit),Total shareholders equity,Investments,Net Debt,Other Assets,Other Liabilities
2018-09-30,17336058.3942,0.0,17336058.3942,5848029.1971,0.0,65392554.7445,192820729.92700002,1788759.1241,0.0,0.0,194666277.3723,260058832.1168,67621605.8394,181043065.6934,287574160.5839,24157518.2482,205200583.9416,8912554.7445,0.0,16543795.6204,86226861.3139,373801021.8978,250072.9927,-215834452.5547,-210357518.2482,0.0,,,38909489.0511
2017-09-30,55238489.3169,0.0,55238489.3169,6037466.145,0.0,81559584.7126,87019410.1715,1959223.5931,0.0,0.0,89008877.5203,170568462.2329,20942973.217,129098856.455,176524074.6314,27460878.724,156559735.1791,5848480.2889,0.0,12211405.3566,58138579.5967,234662654.2281,-427023.7737,-127191393.3193,-122231567.8604,0.0,,,26482244.9594
