,0,1,2,3,4,5,6,7,8,9,10,11,12,13,14,15,16,17,18,19,20,21,22,23,24,25,26,27,28,29,30
Date,Revenue,Revenue Growth,Cost of Revenue,Gross Profit,R&D Expenses,SG&A Expense,Operating Expenses,Operating Income,Interest Expense,Earnings before Tax,Income Tax Expense,Net Income - Non-Controlling int,Net Income - Discontinued ops,Net Income,Preferred Dividends,Net Income Com,EPS,EPS Diluted,Weighted Average Shs Out,Weighted Average Shs Out (Dil),Dividend per Share,Gross Margin,EBITDA Margin,EBIT Margin,Profit Margin,Free Cash Flow margin,EBITDA,EBIT,Consolidated Income,Earnings Before Tax Margin,Net Profit Margin
2019-12-31,321607000.0,0.153172050529,69517000.0,252090000.0,68239000.0,111598000.0,179837000.0,72253000.0,106000.0,72124000.0,10647000.0,0.0,0.0,69336000.0,0.0,69336000.0,1.77,1.68,39075000.0,41345000.0,0.0,0.783844878998,0.32167832167800003,0.224662398517,0.215592322306,0.413653931662,103454000.0,72253000.0,69336000.0,0.224261287845,0.215592322306
2018-12-31,278889000.0,0.208211308853,66185000.0,212704000.0,53255000.0,109088000.0,162343000.0,50361000.0,172000.0,55468000.0,-1836000.0,0.0,0.0,57304000.0,0.0,57304000.0,1.47,1.37,38876000.0,41897000.0,0.0,0.762683361481,0.28829032339,0.18057721889400002,0.20547242809900002,0.36820742302500004,80401000.0,50361000.0,57304000.0,0.19888916378899998,0.20547242809900002
2017-12-31,230828000.0,0.166239737274,51580000.0,179248000.0,42816000.0,99189000.0,142005000.0,37243000.0,3000.0,39378000.0,-1062000.0,0.0,0.0,40440000.0,0.0,40440000.0,1.08,1.01,37443000.0,40071000.0,0.0,0.7765435735699999,0.24500927097199998,0.161345244078,0.175195383576,0.302510960542,56555000.0,37243000.0,40440000.0,0.170594555253,0.175195383576
2016-12-31,197925000.0,0.204773441114,42473000.0,155452000.0,35267000.0,90078000.0,125345000.0,30107000.0,26000.0,30429000.0,11205000.0,0.0,0.0,19224000.0,0.0,19224000.0,0.55,0.5,35247000.0,38369000.0,0.0,0.785408614374,0.232921561197,0.152113174182,0.0971276998863,0.226676771504,46101000.0,30107000.0,19224000.0,0.15374005305,0.0971276998863
2015-12-31,164284000.0,0.229863975625,33885000.0,130399000.0,29451000.0,76142000.0,105593000.0,24806000.0,6000.0,24520000.0,8655000.0,0.0,0.0,15865000.0,0.0,15865000.0,0.47,0.42,34050000.0,38184000.0,0.0,0.793741325996,0.234788536924,0.150994619074,0.09657057291030001,0.279449002946,38572000.0,24806000.0,15865000.0,0.149253731343,0.09657057291030001
2014-12-31,133579000.0,0.237277931124,28963000.0,104616000.0,26320000.0,69049000.0,95369000.0,9247000.0,9000.0,8613000.0,-21631000.0,0.0,0.0,30244000.0,0.0,30244000.0,0.92,0.81,32979000.0,37170000.0,0.0,0.7831769963840001,0.154058646943,0.0692249530241,0.226412834353,0.205938059126,20579000.0,9247000.0,30244000.0,0.0644786979989,0.226412834353
2013-12-31,107962000.0,0.18094508860199998,24660000.0,83302000.0,21678000.0,59315000.0,80993000.0,2309000.0,43000.0,947000.0,500000.0,0.0,0.0,1624000.0,0.0,1624000.0,0.05,0.05,31914000.0,35973000.0,0.0,0.771586298883,0.11041848057600001,0.021387154739599998,0.0150423297086,0.106361497564,11921000.0,2309000.0,1624000.0,0.00877160482392,0.0150423297086
2012-12-31,91420000.0,0.199548627513,18404000.0,73016000.0,20195000.0,49817000.0,70012000.0,3004000.0,192000.0,1656000.0,358000.0,0.0,0.0,2280000.0,0.0,2280000.0,0.09,0.08,11891000.0,28352000.0,0.0,0.798687376942,0.113159046161,0.0328593305622,0.0249398381098,0.11774228834,10345000.0,3004000.0,2280000.0,0.0181141982061,0.0249398381098
2011-12-31,76212000.0,0.16475119207699998,13247000.0,62965000.0,19633000.0,40426000.0,60059000.0,2906000.0,204000.0,852000.0,416000.0,1518000.0,0.0,436000.0,0.0,436000.0,0.09,0.08,,5053000.0,0.0,0.8262,0.084,0.0139,0.006,0.1272,6429000.0,1056000.0,1954000.0,0.0112,0.0057
2010-12-31,65432000.0,0.139434044406,11204000.0,54228000.0,15780000.0,37239000.0,53019000.0,1209000.0,186000.0,-25000.0,-204000.0,668000.0,0.0,179000.0,0.0,179000.0,0.04,0.04,,4706000.0,0.0,0.8288,0.07200000000000001,0.0025,0.003,0.1282,4730000.0,161000.0,847000.0,-0.0004,0.0027
2009-12-31,57425000.0,,10692000.0,46733000.0,13377000.0,32237000.0,45614000.0,1119000.0,180000.0,391000.0,220000.0,688000.0,0.0,171000.0,0.0,171000.0,0.04,0.04,,4400000.0,0.0,0.8138,0.078,0.0099,0.003,0.0624,4494000.0,571000.0,859000.0,0.0068,0.003
