,0,1,2,3,4,5,6,7,8,9,10,11,12,13,14,15,16,17,18,19,20,21,22,23,24,25,26,27,28
Date,Cash and cash equivalents,Short-term investments,Cash and short-term investments,Receivables,Inventories,Total current assets,Property Plant & Equipment Net,Goodwill and Intangible Assets,Long-term investments,Tax assets,Total non-current assets,Total assets,Payables,Short-term debt,Total current liabilities,Long-term debt,Total debt,Deferred revenue,Tax Liabilities,Deposit Liabilities,Total non-current liabilities,Total liabilities,Other comprehensive income,Retained earnings (deficit),Total shareholders equity,Investments,Net Debt,Other Assets,Other Liabilities
2018-12-31,,3455000.0,3455000.0,254000.0,,,,,,,,,,,,0.0,,,,,,,,766552000.0,,,,,
2017-12-31,,28000.0,28000.0,3225000.0,,,,,,,,,,,,0.0,,,,,,,,292144000.0,,,,,
2016-12-31,,0.0,0.0,269000.0,,,,,,,,,,,,0.0,,,,,,,,323659000.0,,,,,
2015-12-31,,0.0,0.0,7261000.0,,,,,,,,,,,,0.0,,,,,,,,343320000.0,,,,,
