,0,1,2,3,4,5,6,7,8,9,10,11,12,13,14,15,16,17,18,19,20,21,22,23,24,25,26,27,28,29,30
Date,Revenue,Revenue Growth,Cost of Revenue,Gross Profit,R&D Expenses,SG&A Expense,Operating Expenses,Operating Income,Interest Expense,Earnings before Tax,Income Tax Expense,Net Income - Non-Controlling int,Net Income - Discontinued ops,Net Income,Preferred Dividends,Net Income Com,EPS,EPS Diluted,Weighted Average Shs Out,Weighted Average Shs Out (Dil),Dividend per Share,Gross Margin,EBITDA Margin,EBIT Margin,Profit Margin,Free Cash Flow margin,EBITDA,EBIT,Consolidated Income,Earnings Before Tax Margin,Net Profit Margin
2019-12-31,98979140.0,-0.0464936362868,80253172.0,18725968.0,0.0,16815767.0,18130498.0,595470.0,431628.0,163842.0,219082.0,0.0,0.0,-55240.0,0.0,-55240.0,0.0,0.0,15347039.0,15347039.0,0.0,0.189191055812,0.021127219331299997,0.006016116123050001,-0.0005580973930469999,0.0215284856991,2091154.0,595470.0,-55240.0,0.00165531848428,-0.0005580973930469999
2018-12-31,103805432.0,-0.249669765356,86942718.0,16862714.0,0.0,16163153.0,18863962.0,-2001248.0,437733.0,-2438981.0,0.0,0.0,0.0,-2438981.0,0.0,-2438981.0,-0.16,-0.16,15311220.0,15311220.0,0.0,0.162445391104,0.009420181402450002,-0.0192788369688,-0.0234956972194,0.0281774657033,977866.0,-2001248.0,-2438981.0,-0.0234956972194,-0.0234956972194
2017-12-31,138346327.0,-0.24734630983000003,122633815.0,15712512.0,0.0,17078033.0,21064758.0,-5352246.0,468030.0,-5820276.0,0.0,0.0,0.0,-5820276.0,0.0,-5820276.0,-0.38,-0.38,15280617.0,15280617.0,0.0,0.11357375609999999,-0.00807201769802,-0.038687301036900004,-0.042070332665900004,-0.012380270854599999,-1116734.0,-5352246.0,-5820276.0,-0.042070332665900004,-0.042070332665900004
2016-12-31,183811398.0,0.08035985319280001,169401718.0,14409680.0,0.0,18170371.0,22214468.0,-7804788.0,240798.0,-8045586.0,0.0,0.0,0.0,-8045586.0,0.0,-8045586.0,-0.55,-0.55,14737885.0,14737885.0,0.0,0.0783938327916,-0.019777957403900003,-0.0424608489186,-0.0437708764937,-0.0264413961968,-3635414.0,-7804788.0,-8045586.0,-0.0437708764937,-0.0437708764937
2015-12-31,170139049.0,-0.0247321714367,156498149.0,13640900.0,0.0,16300453.0,20868555.0,-7227655.0,218275.0,-7445930.0,0.0,0.0,0.0,-7445930.0,0.0,-7445930.0,-0.07,-0.07,111692934.0,111692934.0,0.0,0.0801750102647,-0.0156102435955,-0.042480871043300006,-0.043763792285,0.0116631602896,-2655912.0,-7227655.0,-7445930.0,-0.043763792285,-0.043763792285
2014-12-31,174453667.0,1.58432495059,160185976.0,14267691.0,0.0,14383540.0,18210668.0,-3942977.0,4296170.0,-9897678.0,0.0,0.0,0.0,-9897678.0,0.0,-9897678.0,-0.1,-0.1,100554314.0,100554314.0,0.0,0.0817849876437,0.016523321347000002,-0.0226018579478,-0.0567352820391,-0.050098356488,2882554.0,-3942977.0,-9897678.0,-0.0567352820391,-0.0567352820391
2013-12-31,67504540.0,57.923149304700004,62430670.0,5073870.0,0.0,12675261.0,17879258.0,-12805388.0,4196279.0,-17799351.0,0.0,0.0,0.0,-17799351.0,0.0,-17799351.0,-0.23,-0.23,77055327.0,77055327.0,0.0,0.0751633890106,-0.113919211952,-0.189696692993,-0.263676354213,-0.0667887226548,-7690064.0,-12805388.0,-17799351.0,-0.263676354213,-0.263676354213
2012-12-31,1145637.0,11.1908699122,36021.0,1109616.0,0.0,6848782.0,24554333.0,-23444717.0,996924.0,-41210439.0,941054.0,0.0,0.0,-42151493.0,0.0,-42151493.0,-0.74,-0.74,56988497.0,56988497.0,0.0,0.968558103483,-19.745997205,-20.4643504007,-36.7930618512,-3.3473325320300003,-22621745.0,-23444717.0,-42151493.0,-35.971637613,-36.7930618512
2012-06-30,93975.0,9.25927947598,20086.0,73889.0,191150.0,122591.0,1924818.0,-1850929.0,74976.0,0.0,0.0,0.0,0.0,-1912705.0,0.0,-1912705.0,-0.05,-0.05,39686576.0,39686576.0,0.0,0.786262303804,-18.995956371400002,-19.6959723331,-20.3533386539,-5.2238254855,-1785145.0,-1850929.0,-1912705.0,0.0,-20.3533386539
2011-06-30,9160.0,1.0,5386.0,3774.0,0.0,206818.0,728648.0,-724874.0,48530.0,-755275.0,0.0,0.0,0.0,-755275.0,0.0,-755275.0,-0.8,-0.8,944017.0,915221.0,0.0,0.41200000000000003,-77.025,-77.1556,-82.454,-48.6949,-705545.0,-706745.0,-755275.0,-82.4536,-82.4536
2010-06-30,0.0,,0.0,0.0,0.0,37422.0,943770.0,-943770.0,63681.0,-1000057.0,0.0,0.0,0.0,-1000057.0,0.0,-1000057.0,-2.0,-2.0,898462.0,473065.0,0.0,0.0,,0.0,,0.0,-936376.0,-936376.0,-1000057.0,0.0,0.0
