,0,1,2,3,4,5,6,7,8,9,10,11,12,13,14
Date,Depreciation & Amortization,Stock-based compensation,Operating Cash Flow,Capital Expenditure,Acquisitions and disposals,Investment purchases and sales,Investing Cash flow,Issuance (repayment) of debt,Issuance (buybacks) of shares,Dividend payments,Financing Cash Flow,Effect of forex changes on cash,Net cash flow / Change in cash,Free Cash Flow,Net Cash/Marketcap
2018-12-31,643000000.0,88000000.0,1273000000.0,275000000.0,-0.0,-1088000000.0,47000000.0,-4395000000.0,-988000000.0,-0.0,-1574000000.0,2000000.0,-252000000.0,998000000.0,0.0
2017-12-31,725000000.0,123000000.0,1492000000.0,204000000.0,22000000.0,-924000000.0,-391000000.0,-2631000000.0,-765000000.0,-0.0,-1036000000.0,13000000.0,78000000.0,1288000000.0,0.0
2016-12-31,886000000.0,97000000.0,1443000000.0,233000000.0,-0.0,25000000.0,-1492000000.0,-4498000000.0,-799000000.0,-0.0,-1572000000.0,-20000000.0,-1624000000.0,1210000000.0,0.0
2015-12-31,708000000.0,127000000.0,1046000000.0,258000000.0,-844000000.0,-939000000.0,-811000000.0,-3811000000.0,-785000000.0,-0.0,-89000000.0,-3000000.0,143000000.0,788000000.0,0.0
2014-12-31,668000000.0,108000000.0,1640000000.0,241000000.0,-0.0,-1149000000.0,-458000000.0,-3749000000.0,-785000000.0,-0.0,-66000000.0,-46000000.0,1404000000.0,1399000000.0,0.0
2013-12-31,956000000.0,178000000.0,1360000000.0,352000000.0,-58000000.0,-1089000000.0,-384000000.0,-5474000000.0,-1089000000.0,-0.0,-2380000000.0,-24000000.0,-1404000000.0,1008000000.0,0.0
2012-12-31,618000000.0,91000000.0,1432000000.0,339000000.0,-0.0,-1051000000.0,153000000.0,-1512000000.0,-487000000.0,-0.0,248000000.0,-20000000.0,1813000000.0,1093000000.0,0.0
2011-12-31,650000000.0,49000000.0,914000000.0,312000000.0,-0.0,-431000000.0,-437000000.0,-899000000.0,-366000000.0,-0.0,-930000000.0,-4000000.0,-506000000.0,602000000.0,0.0
2010-12-31,0.0,0.0,0.0,274000000.0,-33000000.0,-406000000.0,351000000.0,-5838000000.0,-754000000.0,-66000000.0,-3398000000.0,14000000.0,0.0,-274000000.0,0.0
2009-12-31,566000000.0,38000000.0,1030000000.0,-208000000.0,306000000.0,-17000000.0,48000000.0,-1261000000.0,0.0,0.0,-1382000000.0,-17000000.0,52000000.0,822000000.0,-0.8968
