,0,1,2,3,4,5,6,7,8,9,10,11,12,13,14,15,16,17,18,19,20,21,22,23,24,25,26,27,28,29,30
Date,Revenue,Revenue Growth,Cost of Revenue,Gross Profit,R&D Expenses,SG&A Expense,Operating Expenses,Operating Income,Interest Expense,Earnings before Tax,Income Tax Expense,Net Income - Non-Controlling int,Net Income - Discontinued ops,Net Income,Preferred Dividends,Net Income Com,EPS,EPS Diluted,Weighted Average Shs Out,Weighted Average Shs Out (Dil),Dividend per Share,Gross Margin,EBITDA Margin,EBIT Margin,Profit Margin,Free Cash Flow margin,EBITDA,EBIT,Consolidated Income,Earnings Before Tax Margin,Net Profit Margin
2019-12-31,13458000000.0,-0.0434968017058,8899000000.0,4559000000.0,0.0,1758000000.0,1732000000.0,184000000.0,374000000.0,-622000000.0,-217000000.0,0.0,0.0,-456000000.0,0.0,-456000000.0,-1.08,-1.08,424000000.0,424000000.0,0.0,0.338757616288,0.0590726705305,0.013672165254899999,-0.0338831921534,0.0712587308664,795000000.0,184000000.0,-456000000.0,-0.0462178629811,-0.0338831921534
2018-12-31,14070000000.0,0.0,9209000000.0,4861000000.0,0.0,1897000000.0,1929000000.0,1324000000.0,381000000.0,883000000.0,60000000.0,0.0,0.0,916000000.0,0.0,916000000.0,1.46,1.45,462000000.0,465000000.0,0.0,0.345486851457,0.13980099502499999,0.0941009239517,0.0651030561478,0.0709310589908,1967000000.0,1324000000.0,916000000.0,0.0627576403696,0.0651030561478
2018-12,14070000000.0,0.352364475202,9209000000.0,4861000000.0,,1897000000.0,3504000000.0,1357000000.0,381000000.0,,60000000.0,,,916000000.0,,916000000.0,1.46,1.45,462000000.0,465000000.0,,0.345486851457,0.13511016346837,0.096446339729922,0.065103056147832,,1901000000.0,1357000000.0,916000000.0,0.0,0.065103056147832
2017-12-31,10404000000.0,0.0022155861670399997,6789000000.0,3615000000.0,0.0,1153000000.0,1153000000.0,1043000000.0,355000000.0,1523000000.0,-964000000.0,0.0,0.0,2441000000.0,0.0,2441000000.0,14.34,14.17,86000000.0,87000000.0,0.0,0.34746251441799997,0.16993464052299997,0.100249903883,0.2346212995,0.123798539023,1768000000.0,1043000000.0,2441000000.0,0.146386005383,0.2346212995
2017-12,10381000000.0,-0.0249835634451,6789000000.0,3592000000.0,,1088000000.0,2457000000.0,1135000000.0,293000000.0,,-3000000.0,,,1208000000.0,,1208000000.0,2.71,2.7,445000000.0,448000000.0,,0.346016761391,0.21818707253636,0.14430209035738,0.11636643868605999,,2265000000.0,1498000000.0,1208000000.0,0.0,0.11636643868605999
2016-12-31,10647000000.0,0.0418827673941,6908000000.0,3739000000.0,0.0,1190000000.0,1190000000.0,968000000.0,363000000.0,1852000000.0,598000000.0,0.0,0.0,1235000000.0,0.0,1235000000.0,5.69,5.64,134000000.0,135000000.0,0.0,0.35117873579400005,0.174133558749,0.0909176293792,0.11599511599500001,0.11364703672399999,1854000000.0,968000000.0,1235000000.0,0.173945712407,0.11599511599500001
2016-12,10219000000.0,0.0230253278606,6642000000.0,3577000000.0,,1063000000.0,2566000000.0,1011000000.0,289000000.0,,297000000.0,,,473000000.0,,473000000.0,0.99,0.98,476000000.0,481000000.0,,0.35003424992661,0.19052744886975,0.10363049222036999,0.046286329386437,,1947000000.0,1059000000.0,473000000.0,0.0,0.046286329386437
2015-12-31,9989000000.0,0.0894317810012,6393000000.0,5363000000.0,0.0,1078000000.0,1078000000.0,1116000000.0,360000000.0,1253000000.0,342000000.0,0.0,0.0,869000000.0,0.0,869000000.0,1.61,1.6,142000000.0,143000000.0,0.0,0.536890579638,0.182600860947,0.111722895185,0.0869956952648,0.078886775453,1824000000.0,1116000000.0,869000000.0,0.12543798177999999,0.0869956952648
2015-12,9169000000.0,-0.126678731308,5847000000.0,3322000000.0,,875000000.0,2152000000.0,1170000000.0,283000000.0,,304000000.0,,,640000000.0,,640000000.0,1.35,1.33,475000000.0,481000000.0,,0.36230777620242,0.20918311702476003,0.13382048205910999,0.069800414439961,,1918000000.0,1227000000.0,640000000.0,0.0,0.069800414439961
2014-12-31,10499000000.0,0.0469684882329,6684000000.0,3815000000.0,0.0,1067000000.0,1067000000.0,1188000000.0,387000000.0,836000000.0,258000000.0,0.0,0.0,537000000.0,0.0,537000000.0,0.19,0.19,87000000.0,88000000.0,0.0,0.36336793980400006,0.17677874083200001,0.11315363367900001,0.051147728355099994,0.133250785789,1856000000.0,1188000000.0,537000000.0,0.0796266311077,0.051147728355099994
2014-12,10028000000.0,-0.108780661216,6378000000.0,3650000000.0,,940000000.0,2437000000.0,1213000000.0,312000000.0,,306000000.0,,,520000000.0,,520000000.0,1.07,1.06,484000000.0,492000000.0,,0.36398085360989,0.18298763462306,0.11348224970084,0.051854806541683,,1835000000.0,1138000000.0,520000000.0,0.0,0.051854806541683
2013-12-31,11252000000.0,0.119156554605,6602000000.0,4650000000.0,0.0,1525000000.0,1525000000.0,1120000000.0,373000000.0,580000000.0,130000000.0,0.0,0.0,501000000.0,0.0,501000000.0,1.7,1.7,37000000.0,37000000.0,0.0,0.41325986491300004,0.18450053323899998,0.09953785993599999,0.0445254177035,0.08958407394239999,2076000000.0,1120000000.0,501000000.0,0.0515463917526,0.0445254177035
2012-12-31,10054000000.0,0.04554908485859999,6396000000.0,3658000000.0,0.0,1009000000.0,1009000000.0,1108000000.0,432000000.0,1985000000.0,394000000.0,0.0,0.0,1530000000.0,0.0,1530000000.0,31.03,31.03,0.0,0.0,0.0,0.363835289437,0.171672965984,0.110204893575,0.15217823751700002,0.10871295007000001,1726000000.0,1108000000.0,1530000000.0,0.19743385717099998,0.15217823751700002
2011-12-31,9616000000.0,0.07657859382,6114000000.0,3502000000.0,0.0,862000000.0,862000000.0,1133000000.0,427000000.0,939000000.0,352000000.0,0.0,0.0,912000000.0,0.0,912000000.0,0.0,0.0,595000000.0,602000000.0,0.0,0.36418469218000005,0.18542013311099997,0.117824459235,0.0948419301165,0.0626039933444,1783000000.0,1133000000.0,912000000.0,0.097649750416,0.0948419301165
2010-12-31,8932000000.0,0.0,5705000000.0,2655000000.0,0.0,1274000000.0,1275000000.0,1303000000.0,647000000.0,1826000000.0,-379000000.0,0.0,0.0,1766000000.0,0.0,1766000000.0,9.06,8.76,90000000.0,9000000.0,7.333333333330001,0.29724585759100003,0.14587998208699998,0.14587998208699998,0.197716077026,-0.0306762203314,1303000000.0,1303000000.0,1766000000.0,0.204433497537,0.197716077026
