,0,1,2,3,4,5,6,7,8,9,10,11,12,13,14
Date,Depreciation & Amortization,Stock-based compensation,Operating Cash Flow,Capital Expenditure,Acquisitions and disposals,Investment purchases and sales,Investing Cash flow,Issuance (repayment) of debt,Issuance (buybacks) of shares,Dividend payments,Financing Cash Flow,Effect of forex changes on cash,Net cash flow / Change in cash,Free Cash Flow,Net Cash/Marketcap
2019-12-31,214000000.0,68000000.0,1476000000.0,62000000.0,-0.0,0.0,-30000000.0,-2266000000.0,0.0,-901000000.0,-842000000.0,16000000.0,620000000.0,1414000000.0,0.0
2018-12-31,209000000.0,48000000.0,1165000000.0,86000000.0,-0.0,0.0,-64000000.0,-74000000.0,-913000000.0,-728000000.0,-1285000000.0,-20000000.0,-184000000.0,1079000000.0,0.0
2017-12-31,213800000.0,48300000.0,1382000000.0,36700000.0,-0.0,0.0,-857800000.0,-2741500000.0,-1073400000.0,-663500000.0,-935200000.0,24000000.0,-387000000.0,1345300000.0,0.0
2016-12-31,211000000.0,35100000.0,1269000000.0,33700000.0,-0.0,0.0,24500000.0,-69700000.0,-1460400000.0,-538100000.0,-590900000.0,-2400000.0,702600000.0,1235300000.0,0.0
2015-12-31,216500000.0,50800000.0,1204800000.0,115300000.0,-0.0,0.0,-61500000.0,-2627800000.0,-755700000.0,-362400000.0,-2115200000.0,-73500000.0,-1045400000.0,1089500000.0,0.0
2014-12-31,129200000.0,43100000.0,259300000.0,30900000.0,-3900000.0,0.0,-7790800000.0,-3102000000.0,-1803200000.0,-105600000.0,8565600000.0,-17800000.0,1016300000.0,228400000.0,0.0
2013-12-31,65800000.0,14800000.0,325200000.0,-25500000.0,52900000.0,15400000.0,43000000.0,-57200000.0,-1300000.0,-84300000.0,-132700000.0,4700000.0,240200000.0,299700000.0,-1.0533
2012-12-31,114200000.0,12200000.0,224400000.0,-70200000.0,89600000.0,14200000.0,33600000.0,-162100000.0,1500000.0,-14000000.0,-174600000.0,4300000.0,87700000.0,154200000.0,-1.0533
