,0,1,2,3,4,5,6,7,8,9,10,11,12,13,14
Date,Depreciation & Amortization,Stock-based compensation,Operating Cash Flow,Capital Expenditure,Acquisitions and disposals,Investment purchases and sales,Investing Cash flow,Issuance (repayment) of debt,Issuance (buybacks) of shares,Dividend payments,Financing Cash Flow,Effect of forex changes on cash,Net cash flow / Change in cash,Free Cash Flow,Net Cash/Marketcap
2017-03,6000000.0,7000000.0,9000000.0,-2000000.0,,0.0,-22000000.0,-113000000.0,0.0,,-8000000.0,0.0,-21000000.0,7000000.0,
2016-03,7000000.0,9000000.0,-12000000.0,-3000000.0,,0.0,-4000000.0,-87000000.0,0.0,,-19000000.0,-0.0,-34000000.0,-15000000.0,
2015-03,12000000.0,12000000.0,6000000.0,-3000000.0,,15000000.0,12000000.0,-50000000.0,0.0,,-49000000.0,-0.0,-31000000.0,3000000.0,
2014-03,21000000.0,13000000.0,35000000.0,-6000000.0,,-1000000.0,-7000000.0,-1000000.0,0.0,,1000000.0,0.0,30000000.0,30000000.0,
2013-03,27000000.0,15000000.0,8000000.0,-10000000.0,,-2000000.0,-11000000.0,-49000000.0,-2000000.0,,21000000.0,-0.0,18000000.0,-2000000.0,
