,0,1,2,3,4,5,6,7,8,9,10,11,12,13,14,15,16,17,18,19,20,21,22,23,24,25,26,27,28,29,30
Date,Revenue,Revenue Growth,Cost of Revenue,Gross Profit,R&D Expenses,SG&A Expense,Operating Expenses,Operating Income,Interest Expense,Earnings before Tax,Income Tax Expense,Net Income - Non-Controlling int,Net Income - Discontinued ops,Net Income,Preferred Dividends,Net Income Com,EPS,EPS Diluted,Weighted Average Shs Out,Weighted Average Shs Out (Dil),Dividend per Share,Gross Margin,EBITDA Margin,EBIT Margin,Profit Margin,Free Cash Flow margin,EBITDA,EBIT,Consolidated Income,Earnings Before Tax Margin,Net Profit Margin
2018-12-30,220460000.0,0.250063790337,111058000.0,109402000.0,71522000.0,35070000.0,106592000.0,2810000.0,0.0,4049000.0,966000.0,0.0,0.0,3083000.0,0.0,3083000.0,0.08,0.08,,36744000.0,0.0,0.4962,0.04,0.0184,0.013999999999999999,0.0816,8910000.0,4049000.0,3083000.0,0.0184,0.013999999999999999
2017-12-31,176359000.0,0.36639316954499995,88208000.0,88151000.0,59747000.0,29339000.0,89086000.0,-935000.0,713000.0,-530000.0,-34942000.0,0.0,0.0,34412000.0,0.0,34412000.0,1.0,0.89,,34259000.0,0.0,0.4998,0.016,0.001,0.195,-0.0133,2852000.0,183000.0,34412000.0,-0.003,0.1951
2017-01-01,129069000.0,0.540699270648,64640000.0,64429000.0,46604000.0,18650000.0,65254000.0,-825000.0,665000.0,-1528000.0,367000.0,0.0,0.0,-1895000.0,0.0,-1895000.0,-0.3,-0.3,,6385000.0,0.0,0.4992,0.003,-0.0067,-0.015,-0.0032,415000.0,-863000.0,-1895000.0,-0.0118,-0.0147
2015-12-27,83773000.0,0.252961411905,42554000.0,41219000.0,35575000.0,11856000.0,47431000.0,-6212000.0,697000.0,-6930000.0,115000.0,0.0,0.0,-7045000.0,0.0,-7045000.0,-9.16,-9.16,,769000.0,0.0,0.49200000000000005,-0.063,-0.0744,-0.084,-0.1652,-5246000.0,-6233000.0,-7045000.0,-0.0827,-0.0841
2014-12-28,66860000.0,,38211000.0,28649000.0,31283000.0,10464000.0,41747000.0,-13098000.0,481000.0,-13490000.0,108000.0,0.0,0.0,-13598000.0,0.0,-13598000.0,-20.72,-20.72,,656146.0,0.0,0.4285,-0.18100000000000002,-0.1946,-0.203,-0.2858,-12134000.0,-13009000.0,-13598000.0,-0.2018,-0.2034
