,0,1,2,3,4,5,6,7,8,9,10,11,12,13,14
Date,Depreciation & Amortization,Stock-based compensation,Operating Cash Flow,Capital Expenditure,Acquisitions and disposals,Investment purchases and sales,Investing Cash flow,Issuance (repayment) of debt,Issuance (buybacks) of shares,Dividend payments,Financing Cash Flow,Effect of forex changes on cash,Net cash flow / Change in cash,Free Cash Flow,Net Cash/Marketcap
2018-12-30,4861000.0,17289000.0,24820000.0,-6832000.0,0.0,-4133000.0,-10965000.0,-3943000.0,8418000.0,0.0,888000.0,-294000.0,14449000.0,17988000.0,0.2537
2017-12-31,2669000.0,10683000.0,6629000.0,-8970000.0,0.0,-94666000.0,-103636000.0,-2406000.0,7579000.0,0.0,4281000.0,113000.0,-92613000.0,-2341000.0,0.2676
2017-01-01,1278000.0,3065000.0,2316000.0,-2724000.0,0.0,0.0,-2783000.0,-12000.0,98674000.0,0.0,98662000.0,0.0,98195000.0,-408000.0,0.1843
2015-12-27,987000.0,1202000.0,-12077000.0,-1761000.0,0.0,0.0,-1702000.0,-111000.0,164000.0,0.0,14309000.0,0.0,530000.0,-13838000.0,0.1843
2014-12-28,875000.0,567000.0,-17851000.0,-1257000.0,0.0,0.0,-1257000.0,15063000.0,128000.0,0.0,20566000.0,0.0,1458000.0,-19108000.0,0.1843
