,0,1,2,3,4,5,6,7,8,9,10,11,12,13,14,15,16,17,18,19,20,21,22,23,24,25,26,27,28
Date,Cash and cash equivalents,Short-term investments,Cash and short-term investments,Receivables,Inventories,Total current assets,Property Plant & Equipment Net,Goodwill and Intangible Assets,Long-term investments,Tax assets,Total non-current assets,Total assets,Payables,Short-term debt,Total current liabilities,Long-term debt,Total debt,Deferred revenue,Tax Liabilities,Deposit Liabilities,Total non-current liabilities,Total liabilities,Other comprehensive income,Retained earnings (deficit),Total shareholders equity,Investments,Net Debt,Other Assets,Other Liabilities
2019-03-31,4096000.0,0.0,4096000.0,3348000.0,15551000.0,116926000.0,47293000.0,751000.0,0.0,605000.0,60844000.0,177770000.0,5936000.0,471000.0,25449000.0,865000.0,1336000.0,0.0,0.0,0.0,2874000.0,176056000.0,28665000.0,-381025000.0,1714000.0,0.0,-2760000.0,0.0,147733000.0
2018-03-31,20165000.0,0.0,20165000.0,2862000.0,16278000.0,52039000.0,60156000.0,914000.0,0.0,649000.0,71802000.0,123841000.0,5441000.0,515000.0,27051000.0,1422000.0,1937000.0,0.0,0.0,0.0,2844000.0,138472000.0,23708000.0,-275639000.0,-14631000.0,0.0,-18228000.0,0.0,108577000.0
2017-03-31,4754000.0,0.0,4754000.0,2556000.0,13636000.0,40632000.0,63530000.0,769000.0,0.0,0.0,69339000.0,109971000.0,10782000.0,1374000.0,29728000.0,174000.0,1548000.0,0.0,0.0,0.0,348000.0,134062000.0,15885000.0,-193301000.0,-24091000.0,0.0,-3206000.0,0.0,103986000.0
2016-03-31,44100000.0,0.0,44100000.0,2269000.0,12584000.0,61733000.0,57115000.0,902000.0,0.0,0.0,58017000.0,119750000.0,7286000.0,1000000.0,21351000.0,1723000.0,2723000.0,0.0,0.0,0.0,3446000.0,73027000.0,11664000.0,-108232000.0,46723000.0,0.0,-41377000.0,0.0,48230000.0
2015-03-31,37525000.0,0.0,37525000.0,1808000.0,4608000.0,50070000.0,29733000.0,950000.0,0.0,0.0,31049000.0,81119000.0,7238000.0,4500000.0,54775000.0,10768000.0,15268000.0,0.0,0.0,0.0,11044000.0,82734000.0,0.0,-74354000.0,-1615000.0,0.0,-22257000.0,0.0,16915000.0
2014-03-31,7192000.0,0.0,7192000.0,2439000.0,4557000.0,19388000.0,8556000.0,967000.0,0.0,0.0,10420000.0,29808000.0,5343000.0,183000.0,12899000.0,15259000.0,15442000.0,0.0,0.0,0.0,17682000.0,30581000.0,305000.0,-32088000.0,-31536000.0,0.0,8250000.0,5200000.0,7373000.0
2013-03-31,4219000.0,0.0,4219000.0,1516000.0,3324000.0,10171000.0,1650000.0,1070000.0,0.0,0.0,2720000.0,12891000.0,2338000.0,198000.0,4624000.0,3307000.0,3505000.0,0.0,0.0,0.0,3307000.0,7931000.0,-186000.0,-22875000.0,-23061000.0,0.0,-714000.0,1112000.0,2088000.0
2012-03-31,4354000.0,0.0,4354000.0,1513000.0,2659000.0,9969000.0,1176000.0,1212000.0,0.0,0.0,2388000.0,12357000.0,2120000.0,43000.0,4232000.0,3054000.0,3097000.0,0.0,0.0,0.0,3054000.0,7286000.0,53000.0,-18740000.0,-18687000.0,0.0,-1257000.0,1443000.0,2069000.0
