,0,1,2,3,4,5,6,7,8,9,10,11,12,13,14,15,16,17,18,19,20,21,22,23,24,25,26,27,28,29,30
Date,Revenue,Revenue Growth,Cost of Revenue,Gross Profit,R&D Expenses,SG&A Expense,Operating Expenses,Operating Income,Interest Expense,Earnings before Tax,Income Tax Expense,Net Income - Non-Controlling int,Net Income - Discontinued ops,Net Income,Preferred Dividends,Net Income Com,EPS,EPS Diluted,Weighted Average Shs Out,Weighted Average Shs Out (Dil),Dividend per Share,Gross Margin,EBITDA Margin,EBIT Margin,Profit Margin,Free Cash Flow margin,EBITDA,EBIT,Consolidated Income,Earnings Before Tax Margin,Net Profit Margin
2019-03-31,29134000.0,0.17798803170000002,17230000.0,11904000.0,50677000.0,40182000.0,90859000.0,-78955000.0,0.0,-105342000.0,44000.0,0.0,0.0,-105386000.0,0.0,-105386000.0,-1.92,-1.92,54874391.0,54874391.0,0.0,0.408594768998,-2.0818287911,-2.71006384293,-3.61728564564,-2.76124116153,-60652000.0,-78955000.0,-105386000.0,-3.61577538271,-3.61728564564
2018-03-31,24732000.0,0.11270076933499999,10471000.0,14261000.0,51202000.0,33047000.0,84249000.0,-69988000.0,0.0,-82987000.0,-649000.0,0.0,0.0,-82338000.0,0.0,-82338000.0,-2.02,-2.02,40839309.0,40839309.0,0.0,0.576621381207,-2.21530810286,-2.82985605693,-3.3292091217900004,-3.63989972505,-54789000.0,-69988000.0,-82338000.0,-3.35545042859,-3.3292091217900004
2017-03-31,22227000.0,0.20003239391,10844000.0,11383000.0,57064000.0,28378000.0,85442000.0,-74059000.0,0.0,-85069000.0,0.0,0.0,0.0,-85069000.0,0.0,-85069000.0,-3.02,-3.02,28145472.0,28145472.0,0.0,0.512124893148,-2.58226481307,-3.33193863319,-3.8272821343400003,-3.4352364241699997,-57396000.0,-74059000.0,-85069000.0,-3.8272821343400003,-3.8272821343400003
2016-03-31,18522000.0,0.00619295958279,9658000.0,8864000.0,28781000.0,29171000.0,57952000.0,-49088000.0,0.0,-33878000.0,0.0,0.0,0.0,-33878000.0,0.0,-33878000.0,-1.73,-1.73,19558152.0,19558152.0,0.0,0.478566029586,-2.38834899039,-2.65025375229,-1.8290681351900002,-4.09669582119,-44237000.0,-49088000.0,-33878000.0,-1.8290681351900002,-1.8290681351900002
2015-03-31,18408000.0,-0.068185269552,9763000.0,8645000.0,19216000.0,19143000.0,38359000.0,-29714000.0,0.0,-59059000.0,0.0,0.0,0.0,-59059000.0,0.0,-59059000.0,-4.0,-4.0,14773386.0,14773386.0,0.0,0.46963276836199996,-1.4569209039500002,-1.6141894828299999,-3.20833333333,-2.74038461538,-26819000.0,-29714000.0,-59059000.0,-3.20833333333,-3.20833333333
2014-03-31,19755000.0,0.374643379027,8406000.0,11349000.0,8066000.0,12175000.0,20241000.0,-8892000.0,1076000.0,-10165000.0,0.0,0.0,0.0,-10165000.0,0.0,-10165000.0,-54.41,-54.41,,186817.0,0.0,0.5745,-0.429,-0.4601,-0.515,-0.5875,-8467000.0,-9089000.0,-10165000.0,-0.5146,-0.5146
2013-03-31,14371000.0,0.176119158687,7169000.0,7202000.0,2617000.0,9076000.0,11693000.0,-4491000.0,234000.0,-4714000.0,0.0,0.0,0.0,-4714000.0,0.0,-4714000.0,-62.97,-62.97,,74866.0,0.0,0.5011,-0.264,-0.3117,-0.32799999999999996,-0.3138,-3789000.0,-4480000.0,-4714000.0,-0.32799999999999996,-0.32799999999999996
2012-03-31,12219000.0,0.217759617301,6749000.0,5470000.0,1749000.0,7685000.0,9434000.0,-3964000.0,427000.0,-4473000.0,0.0,0.0,0.0,-4473000.0,0.0,-4473000.0,-78.04,-78.04,,57317.0,0.0,0.4477,-0.25,-0.3311,-0.366,-0.2795,-3057000.0,-4046000.0,-4473000.0,-0.3661,-0.3661
2011-03-31,10034000.0,,5628000.0,4406000.0,1703000.0,6802000.0,8505000.0,-4099000.0,312000.0,-4621000.0,0.0,0.0,0.0,-4621000.0,0.0,-4621000.0,-81.16,-81.16,,56936.0,0.0,0.4391,-0.332,-0.4294,-0.461,-0.3633,-3329000.0,-4309000.0,-4621000.0,-0.4605,-0.4605
