,0,1,2,3,4,5,6,7,8,9,10,11,12,13,14
Date,Depreciation & Amortization,Stock-based compensation,Operating Cash Flow,Capital Expenditure,Acquisitions and disposals,Investment purchases and sales,Investing Cash flow,Issuance (repayment) of debt,Issuance (buybacks) of shares,Dividend payments,Financing Cash Flow,Effect of forex changes on cash,Net cash flow / Change in cash,Free Cash Flow,Net Cash/Marketcap
2019-12-31,58486000.0,40510000.0,567000.0,14037000.0,-505577000.0,36650000.0,-483252000.0,-0.0,95206000.0,-0.0,476091000.0,0.0,-6594000.0,-13470000.0,0.0
2018-12-31,33728000.0,29545000.0,4595000.0,13285000.0,-130694000.0,-27267000.0,-171292000.0,-0.0,-108341000.0,-0.0,216577000.0,0.0,108341000.0,-8690000.0,0.0
2017-12-31,22748000.0,20939000.0,9472000.0,13285000.0,-3816000.0,0.0,-17943000.0,-0.0,-57961000.0,-0.0,11559000.0,0.0,3088000.0,-3813000.0,0.0
2016-12-31,19495000.0,12640000.0,3394000.0,14672000.0,-95000.0,41105000.0,-16514000.0,-4890000.0,-54873000.0,-0.0,944000.0,0.0,-12176000.0,-11278000.0,0.0
2015-12-31,12269000.0,7362000.0,5399000.0,7128000.0,-27469000.0,20908000.0,-58416000.0,-4241000.0,-67049000.0,-0.0,52087000.0,0.0,-930000.0,-1729000.0,0.0
2014-12-31,8631000.0,4570000.0,-5286000.0,5036000.0,-0.0,2230000.0,-26735000.0,-0.0,-67979000.0,-0.0,81325000.0,0.0,49304000.0,-10322000.0,0.0
2013-12-31,2971000.0,1605000.0,-1507000.0,-11138000.0,-46000.0,0.0,-11309000.0,2950000.0,435000.0,0.0,22380000.0,0.0,9564000.0,-12645000.0,0.16
2012-12-31,1697000.0,1031000.0,-3009000.0,-1804000.0,-425000.0,0.0,-2606000.0,-654000.0,17000.0,0.0,-637000.0,0.0,-6252000.0,-4813000.0,0.16
2011-12-31,1013000.0,397000.0,-1120000.0,-1073000.0,-300000.0,0.0,-1389000.0,2044000.0,7000.0,0.0,12966000.0,0.0,10457000.0,-2193000.0,0.16
