,0,1,2,3,4,5,6,7,8,9,10,11,12,13,14,15,16,17,18,19,20,21,22,23,24,25,26,27,28,29,30
Date,Revenue,Revenue Growth,Cost of Revenue,Gross Profit,R&D Expenses,SG&A Expense,Operating Expenses,Operating Income,Interest Expense,Earnings before Tax,Income Tax Expense,Net Income - Non-Controlling int,Net Income - Discontinued ops,Net Income,Preferred Dividends,Net Income Com,EPS,EPS Diluted,Weighted Average Shs Out,Weighted Average Shs Out (Dil),Dividend per Share,Gross Margin,EBITDA Margin,EBIT Margin,Profit Margin,Free Cash Flow margin,EBITDA,EBIT,Consolidated Income,Earnings Before Tax Margin,Net Profit Margin
2019-12-31,315484000.0,0.30851928660300004,162485000.0,152999000.0,76273000.0,120686000.0,219745000.0,-66746000.0,6799000.0,-83364000.0,-12487000.0,0.0,0.0,-70877000.0,0.0,-70877000.0,-1.53,-1.53,46198000.0,46198000.0,0.0,0.48496595706900003,-0.0261819933816,-0.21156698913400002,-0.22466115555799998,-0.0421352588404,-8260000.0,-66746000.0,-70877000.0,-0.264241609717,-0.22466115555799998
2018-12-31,241100000.0,0.24292445535100002,121855000.0,119245000.0,51334000.0,93114000.0,151095000.0,-31850000.0,9957000.0,-39200000.0,-3803000.0,0.0,0.0,-35397000.0,0.0,-35397000.0,-0.83,-0.83,42797000.0,42797000.0,0.0,0.49458730817100005,0.00778929904604,-0.132102861883,-0.146814599751,-0.0360431356284,1878000.0,-31850000.0,-35397000.0,-0.16258813770199998,-0.146814599751
2017-12-31,193978000.0,0.291258387475,99485000.0,94493000.0,40338000.0,78349000.0,121400000.0,-26907000.0,0.0,-26478000.0,-314000.0,0.0,0.0,-26164000.0,0.0,-26164000.0,-0.63,-0.63,41218000.0,41218000.0,0.0,0.48713256142399997,-0.0214405757354,-0.138711606471,-0.134881275196,-0.014656301230000002,-4159000.0,-26907000.0,-26164000.0,-0.136500015466,-0.134881275196
2016-12-31,150224000.0,0.37988554842100003,77429000.0,72795000.0,32460000.0,68243000.0,108513000.0,-35718000.0,0.0,-35927000.0,427000.0,0.0,0.0,-36354000.0,0.0,-36354000.0,-0.92,-0.92,39649000.0,39649000.0,0.0,0.48457636596000003,-0.107992065183,-0.237764937693,-0.241998615401,-0.07292443284689999,-16223000.0,-35718000.0,-36354000.0,-0.239156193418,-0.241998615401
2015-12-31,108867000.0,0.375816704369,59128000.0,49739000.0,21534000.0,49976000.0,74579000.0,-24840000.0,0.0,-24843000.0,220000.0,0.0,0.0,-25063000.0,0.0,-25063000.0,-0.67,-0.67,37275000.0,37275000.0,0.0,0.45687857661200004,-0.11547117124600001,-0.228168315467,-0.23021668641600002,-0.0158817639873,-12571000.0,-24840000.0,-25063000.0,-0.228195872027,-0.23021668641600002
2014-12-31,79129000.0,0.391352510902,46054000.0,33075000.0,12086000.0,40060000.0,52146000.0,-19071000.0,0.0,-19563000.0,71000.0,0.0,0.0,-19634000.0,0.0,-19634000.0,-0.67,-0.67,29257000.0,29257000.0,0.0,0.41798834814,-0.13193645818900002,-0.241011512846,-0.248126477019,-0.130445222358,-10440000.0,-19071000.0,-19634000.0,-0.24722920800200002,-0.248126477019
2013-12-31,56872000.0,0.383713291647,36261000.0,20611000.0,9029000.0,28468000.0,37733000.0,-17122000.0,505000.0,-17820000.0,55000.0,0.0,199000.0,-17875000.0,0.0,-17875000.0,-1.51,-1.51,,11866000.0,0.0,0.3624,-0.252,-0.3045,-0.314,-0.2223,-14344000.0,-17315000.0,-17875000.0,-0.3133,-0.3143
2012-12-31,41101000.0,0.523274775776,25170000.0,15931000.0,5317000.0,17742000.0,23059000.0,-7128000.0,232000.0,-8615000.0,164000.0,0.0,1259000.0,-8779000.0,0.0,-8779000.0,-0.77,-0.77,,11345000.0,0.0,0.3876,-0.163,-0.204,-0.214,-0.1171,-6686000.0,-8383000.0,-8779000.0,-0.2096,-0.2136
2011-12-31,26982000.0,,14795000.0,12187000.0,3428000.0,10446000.0,13874000.0,-1687000.0,83000.0,-2895000.0,132000.0,0.0,1132000.0,-3027000.0,0.0,-3027000.0,-0.27,-0.27,,11326000.0,0.0,0.4517,-0.067,-0.1042,-0.11199999999999999,-0.0813,-1799000.0,-2812000.0,-3027000.0,-0.1073,-0.1122
