,0,1,2,3,4,5,6,7,8,9,10,11,12,13,14,15,16,17,18,19,20,21,22,23,24,25,26,27,28
Date,Cash and cash equivalents,Short-term investments,Cash and short-term investments,Receivables,Inventories,Total current assets,Property Plant & Equipment Net,Goodwill and Intangible Assets,Long-term investments,Tax assets,Total non-current assets,Total assets,Payables,Short-term debt,Total current liabilities,Long-term debt,Total debt,Deferred revenue,Tax Liabilities,Deposit Liabilities,Total non-current liabilities,Total liabilities,Other comprehensive income,Retained earnings (deficit),Total shareholders equity,Investments,Net Debt,Other Assets,Other Liabilities
2019-12-31,224764000.0,0.0,224764000.0,125304000.0,0.0,372094000.0,13704000.0,198179000.0,0.0,117500000.0,219844000.0,591938000.0,19116000.0,50032000.0,122283000.0,166157000.0,216189000.0,10903000.0,8840000.0,0.0,175213000.0,306716000.0,671060000.0,-384923000.0,285222000.0,0.0,-8575000.0,0.0,9220000.0
2018-12-31,302028000.0,20738000.0,322766000.0,112108000.0,0.0,444918000.0,15579000.0,200545000.0,0.0,109600000.0,217435000.0,662353000.0,17060000.0,53255000.0,92108000.0,155719000.0,208974000.0,8686000.0,8217000.0,0.0,161195000.0,282266000.0,703023000.0,-322093000.0,380087000.0,20738000.0,-93054000.0,0.0,28963000.0
2017-12-31,334635000.0,59902000.0,394537000.0,81189000.0,0.0,484463000.0,16610000.0,126996000.0,0.0,100900000.0,144612000.0,629075000.0,6090000.0,35538000.0,80318000.0,145821000.0,181359000.0,6276000.0,7527000.0,0.0,150716000.0,231034000.0,686025000.0,-287285000.0,398041000.0,59902000.0,-153276000.0,0.0,0.0
2016-12-31,106174000.0,0.0,106174000.0,71945000.0,0.0,253584000.0,16376000.0,91882000.0,0.0,93800000.0,109172000.0,362756000.0,4968000.0,20864000.0,45890000.0,2285000.0,23149000.0,6856000.0,6447000.0,0.0,7217000.0,51007000.0,550900000.0,-238404000.0,311749000.0,0.0,-83025000.0,0.0,0.0
2015-12-31,134947000.0,0.0,134947000.0,63239000.0,0.0,228483000.0,25128000.0,58775000.0,0.0,86500000.0,92588000.0,321071000.0,8187000.0,0.0,50936000.0,701000.0,701000.0,7342000.0,8759000.0,0.0,3939000.0,55581000.0,485161000.0,-218925000.0,265490000.0,0.0,-134246000.0,0.0,706000.0
2014-12-31,201075000.0,0.0,201075000.0,51061000.0,0.0,256305000.0,25399000.0,41095000.0,0.0,457000.0,75502000.0,331807000.0,6358000.0,7500000.0,51468000.0,738000.0,8238000.0,6219000.0,1366000.0,0.0,4189000.0,54919000.0,469083000.0,-192195000.0,276888000.0,0.0,-192837000.0,0.0,0.0
2013-12-31,38972000.0,0.0,38972000.0,42185000.0,0.0,85177000.0,29942000.0,11700000.0,0.0,195000.0,49059000.0,134236000.0,5589000.0,23077000.0,63757000.0,0.0,23077000.0,6751000.0,195000.0,0.0,2463000.0,66220000.0,37000.0,-168751000.0,-202246000.0,0.0,-15895000.0,4020000.0,35091000.0
2012-12-31,58395000.0,0.0,58395000.0,29206000.0,0.0,90820000.0,27282000.0,12605000.0,0.0,282000.0,41072000.0,131892000.0,11322000.0,0.0,45397000.0,14743000.0,14743000.0,7406000.0,282000.0,0.0,16615000.0,62012000.0,40000.0,-157502000.0,-200382000.0,0.0,-43652000.0,3219000.0,34075000.0
