,0,1,2,3,4,5,6,7,8,9,10,11,12,13,14,15,16,17,18,19,20,21,22,23,24,25,26,27,28,29,30
Date,Revenue,Revenue Growth,Cost of Revenue,Gross Profit,R&D Expenses,SG&A Expense,Operating Expenses,Operating Income,Interest Expense,Earnings before Tax,Income Tax Expense,Net Income - Non-Controlling int,Net Income - Discontinued ops,Net Income,Preferred Dividends,Net Income Com,EPS,EPS Diluted,Weighted Average Shs Out,Weighted Average Shs Out (Dil),Dividend per Share,Gross Margin,EBITDA Margin,EBIT Margin,Profit Margin,Free Cash Flow margin,EBITDA,EBIT,Consolidated Income,Earnings Before Tax Margin,Net Profit Margin
2019-03-02,21639557000.0,0.005136753419859999,16963205000.0,4676352000.0,0.0,4592375000.0,4592375000.0,-589477000.0,227728000.0,-589477000.0,77477000.0,0.0,0.0,-422213000.0,0.0,-422213000.0,-7.99,-7.99,52854000.0,52854000.0,0.0,0.216102020942,-0.010702390996299998,-0.0272407147706,-0.019511166517900004,-0.0167511285005,-231595000.0,-589477000.0,-422213000.0,-0.0272407147706,-0.019511166517900004
2018-03-03,21528968000.0,-0.344529756411,16748863000.0,4780105000.0,0.0,4651262000.0,4651262000.0,-43545000.0,202768000.0,-43545000.0,305987000.0,0.0,0.0,943470000.0,0.0,943470000.0,0.9,0.9,1049628000.0,1049628000.0,0.0,0.22203131148699998,0.0159093552464,-0.00202262365758,0.04382328033559999,0.0151233909586,342512000.0,-43545000.0,943470000.0,-0.00202262365758,0.04382328033559999
2017-03-04,32845073000.0,0.0685961391312,25071008000.0,7774065000.0,0.0,7242359000.0,7242359000.0,48445000.0,431991000.0,48445000.0,44392000.0,0.0,0.0,4053000.0,0.0,4053000.0,0.0,0.0,1044427000.0,1060826000.0,0.0,0.236688924394,0.0187752969829,0.0014749548585299998,0.000123397503181,-0.0060412713955600005,616676000.0,48445000.0,4053000.0,0.0014749548585299998,0.000123397503181
2016-02-27,30736657000.0,0.15863314970200001,22910402000.0,7826255000.0,0.0,7013346000.0,7013346000.0,278404000.0,449574000.0,278404000.0,112939000.0,0.0,0.0,165465000.0,0.0,165465000.0,0.16,0.16,1024377000.0,1042362000.0,0.0,0.254622843337,0.025624647469000002,0.0090577189315,0.00538331152929,0.0148374951772,787616000.0,278404000.0,165465000.0,0.0090577189315,0.00538331152929
2015-02-28,26528377000.0,0.0392520484566,18951645000.0,7576732000.0,0.0,6695642000.0,6695642000.0,426820000.0,397612000.0,426820000.0,-1682353000.0,0.0,0.0,2109173000.0,0.0,2109173000.0,2.17,2.08,971102000.0,1017861000.0,0.0,0.285608576808,0.0317941802471,0.0160891863079,0.07950629622010001,0.0083733354664,843448000.0,426820000.0,2109173000.0,0.0160891863079,0.07950629622010001
2014-03-01,25526413000.0,0.00528310533016,18202679000.0,7323734000.0,0.0,6561162000.0,6561162000.0,250218000.0,424591000.0,250218000.0,804000.0,0.0,0.0,249414000.0,8318000.0,249414000.0,0.23,0.23,922199000.0,979092000.0,0.0,0.28690807439300003,0.025618914808,0.00980231730953,0.00977082052226,0.014423334763100001,653959000.0,250218000.0,249414000.0,0.00980231730953,0.00977082052226
2013-03-02,25392263000.0,-0.0279067725086,18073987000.0,7318276000.0,0.0,6600765000.0,6600765000.0,7505000.0,515421000.0,7505000.0,-110600000.0,0.0,0.0,118105000.0,10528000.0,118105000.0,0.12,0.12,889562000.0,907259000.0,0.0,0.288208892606,0.0166041128355,0.00029556247113499996,0.0046512199405,0.0198384051079,421616000.0,7505000.0,118105000.0,0.00029556247113499996,0.0046512199405
2012-03-03,26121222000.0,0.0359436185904,19327887000.0,6793335000.0,0.0,6531411000.0,6531411000.0,-392257000.0,529255000.0,-392257000.0,-23686000.0,0.0,0.0,-368571000.0,9919000.0,-368571000.0,-0.43,-0.43,885819000.0,885819000.0,0.0,0.260069571018,0.00185002830266,-0.0150167936247,-0.0141100213459,0.00197284032118,48325000.0,-392257000.0,-368571000.0,-0.0150167936247,-0.0141100213459
2011-02-26,25214907000.0,-0.0176948042272,18522403000.0,6692504000.0,0.0,6457833000.0,6457833000.0,-545582000.0,547581000.0,-545582000.0,9842000.0,0.0,0.0,-564872000.0,9346000.0,-564872000.0,-0.64,-0.64,0.0,0.0,0.0,0.265418547846,-0.0015877909047999998,-0.0216372798837,-0.0224023035262,0.00926285391415,-40036000.0,-545582000.0,-564872000.0,-0.0216372798837,-0.0224023035262
2010-02-27,25669117000.0,-0.0236,18845027000.0,6824090000.0,0.0,6603372000.0,6787252000.0,36838000.0,515763000.0,-479918000.0,26758000.0,0.0,0.0,-506676000.0,8909000.0,-515585000.0,-11.8,-11.8,44387152.0,44387152.0,0.0,0.2658,0.022000000000000002,0.0014,-0.02,-0.0198,570083000.0,35845000.0,-506676000.0,-0.0187,-0.0197
