,0,1,2,3,4,5,6,7,8,9,10,11,12,13,14
Date,Depreciation & Amortization,Stock-based compensation,Operating Cash Flow,Capital Expenditure,Acquisitions and disposals,Investment purchases and sales,Investing Cash flow,Issuance (repayment) of debt,Issuance (buybacks) of shares,Dividend payments,Financing Cash Flow,Effect of forex changes on cash,Net cash flow / Change in cash,Free Cash Flow,Net Cash/Marketcap
2019-12-31,1330000.0,2051000.0,-35474000.0,888000.0,-0.0,0.0,-843000.0,-0.0,-76581000.0,-0.0,49902000.0,0.0,13585000.0,-36362000.0,0.0
2018-12-31,1237000.0,1170000.0,-32953000.0,-3500000.0,0.0,0.0,-3500000.0,0.0,266000.0,0.0,52734000.0,0.0,16281000.0,-36453000.0,
2017-12-31,1384000.0,716000.0,-27123000.0,-1124000.0,0.0,0.0,-1124000.0,0.0,246000.0,0.0,30102000.0,0.0,1855000.0,-28247000.0,
