,0,1,2,3,4,5,6,7,8,9,10,11,12,13,14,15,16,17,18,19,20,21,22,23,24,25,26,27,28
Date,Cash and cash equivalents,Short-term investments,Cash and short-term investments,Receivables,Inventories,Total current assets,Property Plant & Equipment Net,Goodwill and Intangible Assets,Long-term investments,Tax assets,Total non-current assets,Total assets,Payables,Short-term debt,Total current liabilities,Long-term debt,Total debt,Deferred revenue,Tax Liabilities,Deposit Liabilities,Total non-current liabilities,Total liabilities,Other comprehensive income,Retained earnings (deficit),Total shareholders equity,Investments,Net Debt,Other Assets,Other Liabilities
2019-12-31,77383000.0,0.0,77383000.0,0.0,0.0,80506000.0,3707000.0,0.0,0.0,0.0,4096000.0,84602000.0,1143000.0,471000.0,9256000.0,2225000.0,2696000.0,4000000.0,0.0,0.0,4450000.0,11481000.0,235049000.0,-161950000.0,73121000.0,0.0,-74687000.0,0.0,-2225000.0
2018-12-31,63798000.0,0.0,63798000.0,0.0,0.0,65062000.0,4159000.0,0.0,0.0,0.0,4548000.0,69610000.0,1771000.0,0.0,4643000.0,0.0,0.0,0.0,0.0,0.0,162080000.0,166723000.0,-4000.0,-118953000.0,-97113000.0,0.0,-63798000.0,1264000.0,2872000.0
2017-12-31,47517000.0,0.0,47517000.0,0.0,0.0,48242000.0,1913000.0,0.0,0.0,0.0,2149000.0,50391000.0,1106000.0,0.0,3248000.0,0.0,0.0,0.0,0.0,0.0,109548000.0,112796000.0,0.0,-82806000.0,-62405000.0,0.0,-47517000.0,725000.0,2142000.0
