,0,1,2,3,4,5,6,7,8,9,10,11,12,13,14,15,16,17,18,19,20,21,22,23,24,25,26,27,28,29,30
Date,Revenue,Revenue Growth,Cost of Revenue,Gross Profit,R&D Expenses,SG&A Expense,Operating Expenses,Operating Income,Interest Expense,Earnings before Tax,Income Tax Expense,Net Income - Non-Controlling int,Net Income - Discontinued ops,Net Income,Preferred Dividends,Net Income Com,EPS,EPS Diluted,Weighted Average Shs Out,Weighted Average Shs Out (Dil),Dividend per Share,Gross Margin,EBITDA Margin,EBIT Margin,Profit Margin,Free Cash Flow margin,EBITDA,EBIT,Consolidated Income,Earnings Before Tax Margin,Net Profit Margin
2018-12-31,51495000.0,18.7147779479,1146000.0,50349000.0,293998000.0,127724000.0,422868000.0,-371373000.0,0.0,-197097000.0,514000.0,0.0,0.0,-197611000.0,0.0,-197611000.0,-3.97,-3.97,49775223.0,49775223.0,0.0,0.9777454121760001,-6.78112438101,-7.211826390910001,-3.8374793669300002,-5.721759394119999,-349194000.0,-371373000.0,-197611000.0,-3.8274978153199997,-3.8374793669300002
2017-12-31,2612000.0,18.6390977444,1000.0,2611000.0,231644000.0,99909000.0,331554000.0,-328942000.0,0.0,-318338000.0,-16199000.0,0.0,0.0,-302139000.0,0.0,-302139000.0,-7.12,-7.12,42453135.0,42453135.0,0.0,0.9996171516079999,-124.357963247,-125.93491577299999,-115.673430322,-98.25267993870001,-324823000.0,-328942000.0,-302139000.0,-121.875191424,-115.673430322
2016-12-31,133000.0,1.0,0.0,0.0,183204000.0,64936000.0,248140000.0,-248007000.0,0.0,-245839000.0,35000.0,0.0,0.0,-245874000.0,0.0,-245874000.0,-6.21,-6.21,39586908.0,39586908.0,0.0,0.0,-1875.37593985,-1864.71428571,-1848.67669173,-1286.93984962,-249425000.0,-248007000.0,-245874000.0,-1848.41353383,-1848.67669173
2015-12-31,0.0,0.0,0.0,0.0,114737000.0,33001000.0,147738000.0,-147738000.0,0.0,0.0,0.0,0.0,0.0,-145618000.0,0.0,-145618000.0,-3.96,-3.96,36782603.0,36782603.0,0.0,0.0,0.0,0.0,0.0,0.0,-151991000.0,-147738000.0,-145618000.0,0.0,0.0
2014-12-31,0.0,0.0,0.0,0.0,45967000.0,10811000.0,56778000.0,-56778000.0,0.0,0.0,0.0,0.0,0.0,-59802000.0,4808000.0,-59802000.0,-2.25,-2.25,28755758.0,28755758.0,0.151134948347,0.0,0.0,0.0,0.0,0.0,-59694000.0,-56778000.0,-59802000.0,0.0,0.0
2013-12-31,0.0,0.0,0.0,0.0,27829000.0,4451000.0,32280000.0,-32280000.0,0.0,-50289000.0,0.0,15219000.0,0.0,-50289000.0,0.0,-50289000.0,-14.87,-14.87,,3382489.0,0.0,0.0,,0.0,,0.0,-49845000.0,-50289000.0,-35070000.0,0.0,0.0
2012-12-31,0.0,0.0,0.0,0.0,12641000.0,3344000.0,15985000.0,-15985000.0,0.0,-19561000.0,0.0,3227000.0,0.0,-19561000.0,0.0,-19561000.0,-14.2,-14.2,,1377207.0,0.0,0.0,,0.0,,0.0,-19248000.0,-19561000.0,-16334000.0,0.0,0.0
2011-12-31,0.0,,0.0,0.0,4717000.0,1844000.0,6561000.0,-6561000.0,270000.0,-7466000.0,0.0,617000.0,0.0,-7466000.0,0.0,-7466000.0,-4.62,-4.62,,1617384.0,0.0,0.0,,0.0,,0.0,-7162000.0,-7196000.0,-6849000.0,0.0,0.0
