,0,1,2,3,4,5,6,7,8,9,10,11,12,13,14
Date,Depreciation & Amortization,Stock-based compensation,Operating Cash Flow,Capital Expenditure,Acquisitions and disposals,Investment purchases and sales,Investing Cash flow,Issuance (repayment) of debt,Issuance (buybacks) of shares,Dividend payments,Financing Cash Flow,Effect of forex changes on cash,Net cash flow / Change in cash,Free Cash Flow,Net Cash/Marketcap
2017-12,28000000.0,3000000.0,10000000.0,-9000000.0,,454000000.0,265000000.0,-747000000.0,,,-333000000.0,,-57000000.0,1000000.0,
2016-12,79000000.0,8000000.0,109000000.0,-30000000.0,,425000000.0,609000000.0,-1032000000.0,,,-734000000.0,,-15000000.0,79000000.0,
2015-12,74000000.0,4000000.0,88000000.0,-52000000.0,,322000000.0,-403000000.0,-565000000.0,,,319000000.0,,4000000.0,35000000.0,
2014-12,57000000.0,4000000.0,49000000.0,-367000000.0,,205000000.0,-635000000.0,-281000000.0,,,619000000.0,,33000000.0,-318000000.0,
2013-12,36000000.0,3000000.0,70000000.0,-75000000.0,,98000000.0,-101000000.0,-350000000.0,,,20000000.0,,-11000000.0,-5000000.0,
