,0,1,2,3,4,5,6,7,8,9,10,11,12,13,14,15,16,17,18,19,20,21,22,23,24,25,26,27,28
Date,Cash and cash equivalents,Short-term investments,Cash and short-term investments,Receivables,Inventories,Total current assets,Property Plant & Equipment Net,Goodwill and Intangible Assets,Long-term investments,Tax assets,Total non-current assets,Total assets,Payables,Short-term debt,Total current liabilities,Long-term debt,Total debt,Deferred revenue,Tax Liabilities,Deposit Liabilities,Total non-current liabilities,Total liabilities,Other comprehensive income,Retained earnings (deficit),Total shareholders equity,Investments,Net Debt,Other Assets,Other Liabilities
2017-12,53000000.0,,,30000000.0,,,,5000000.0,,,,1792000000.0,,,,1390000000.0,1390000000.0,,,,,1616000000.0,0.0,-1922000000.0,176000000.0,,1337000000.0,0.0,0.0
2016-12,111000000.0,,,36000000.0,,,,19000000.0,,,,2407000000.0,,,,1751000000.0,1751000000.0,,,,,2034000000.0,0.0,-1724000000.0,372000000.0,,1640000000.0,0.0,0.0
2015-12,126000000.0,,,47000000.0,,,,33000000.0,,,,4447000000.0,,,,3359000000.0,3359000000.0,,,,,4043000000.0,-5000000.0,-1681000000.0,405000000.0,,3233000000.0,0.0,0.0
2014-12,122000000.0,,,52000000.0,,,,29000000.0,,,,3513000000.0,,,,2616000000.0,2616000000.0,,,,,3140000000.0,-21000000.0,-1634000000.0,374000000.0,,2494000000.0,0.0,0.0
2013-12,89000000.0,,,48000000.0,,,,22000000.0,,,,3027000000.0,,,,2086000000.0,2086000000.0,,,,,2426000000.0,-64000000.0,-1257000000.0,602000000.0,,1997000000.0,0.0,0.0
