,0,1,2,3,4,5,6,7,8,9,10,11,12,13,14,15,16,17,18,19,20,21,22,23,24,25,26,27,28
Date,Cash and cash equivalents,Short-term investments,Cash and short-term investments,Receivables,Inventories,Total current assets,Property Plant & Equipment Net,Goodwill and Intangible Assets,Long-term investments,Tax assets,Total non-current assets,Total assets,Payables,Short-term debt,Total current liabilities,Long-term debt,Total debt,Deferred revenue,Tax Liabilities,Deposit Liabilities,Total non-current liabilities,Total liabilities,Other comprehensive income,Retained earnings (deficit),Total shareholders equity,Investments,Net Debt,Other Assets,Other Liabilities
2019-12-31,359671000.0,67395000.0,359671000.0,137402000.0,64956000.0,679584000.0,484482000.0,905690000.0,0.0,13995000.0,1549846000.0,2229430000.0,194279000.0,18277000.0,501258000.0,627204000.0,645481000.0,0.0,7809000.0,0.0,821185000.0,1327597000.0,52110000.0,714051000.0,901833000.0,67395000.0,285810000.0,0.0,5154000.0
2018-12-31,237744000.0,74188000.0,237744000.0,129257000.0,113294000.0,603538000.0,486599000.0,917216000.0,0.0,6365000.0,1448858000.0,2052396000.0,201255000.0,13126000.0,440092000.0,698172000.0,711298000.0,0.0,2312000.0,0.0,775671000.0,1221753000.0,56885000.0,648255000.0,830643000.0,74188000.0,473554000.0,0.0,5990000.0
2017-12-31,267910000.0,1954000.0,269864000.0,92105000.0,38238000.0,508487000.0,526581000.0,932016000.0,2649000.0,19418000.0,1508825000.0,2017312000.0,164553000.0,16907000.0,388455000.0,795985000.0,812892000.0,0.0,732000.0,0.0,875092000.0,1277630000.0,41005000.0,602609000.0,739682000.0,4603000.0,544982000.0,0.0,14083000.0
2016-12-31,207867000.0,1079000.0,208946000.0,52979000.0,28491000.0,377998000.0,515030000.0,169841000.0,1777000.0,13181000.0,1221535000.0,1599533000.0,124694000.0,60000000.0,252834000.0,595706000.0,655706000.0,0.0,5355000.0,0.0,646676000.0,912476000.0,27638000.0,601071000.0,687057000.0,2856000.0,447839000.0,0.0,12966000.0
2015-12-31,210148000.0,710000.0,210858000.0,59412000.0,58463000.0,430099000.0,528591000.0,138207000.0,1138000.0,2495000.0,690016000.0,1120115000.0,120042000.0,43348000.0,289966000.0,54567000.0,97915000.0,0.0,13011000.0,0.0,92372000.0,416939000.0,27728000.0,601051000.0,703176000.0,1848000.0,-112233000.0,0.0,34601000.0
2014-12-31,233089000.0,0.0,233089000.0,76062000.0,42750000.0,394573000.0,580701000.0,127858000.0,3001000.0,13110000.0,726937000.0,1121510000.0,126738000.0,7839000.0,254091000.0,110846000.0,118685000.0,0.0,44210000.0,0.0,175487000.0,429578000.0,-16750000.0,536111000.0,691932000.0,3001000.0,-114404000.0,42672000.0,119514000.0
2013-12-31,234361000.0,0.0,234361000.0,85873000.0,52419000.0,398379000.0,630634000.0,121004000.0,6554000.0,3753000.0,763916000.0,1162295000.0,120276000.0,34391000.0,288331000.0,147234000.0,181625000.0,0.0,31882000.0,0.0,179413000.0,467744000.0,-12909000.0,550398000.0,694017000.0,6554000.0,-52736000.0,25726000.0,133664000.0
2012-12-31,178051000.0,118000.0,178169000.0,76066000.0,60947000.0,345601000.0,655677000.0,109817000.0,11699000.0,9058000.0,786897000.0,1132498000.0,117766000.0,39480000.0,249548000.0,200746000.0,240226000.0,0.0,25643000.0,0.0,226419000.0,475967000.0,533000.0,510491000.0,656798000.0,11817000.0,62057000.0,30419000.0,92302000.0
2011-12-31,109323000.0,111000.0,109434000.0,60980000.0,49212000.0,253840000.0,644333000.0,45957000.0,12805000.0,13875000.0,713401000.0,967241000.0,100868000.0,12595000.0,190544000.0,133881000.0,146476000.0,0.0,28678000.0,0.0,158791000.0,349335000.0,-1550000.0,480718000.0,617906000.0,12916000.0,37042000.0,34214000.0,77081000.0
2010-12-31,68185000.0,105000.0,68290000.0,59818000.0,26533000.0,182678000.0,618984000.0,46254000.0,13272000.0,19778000.0,689880000.0,872558000.0,87685000.0,1087000.0,137135000.0,135886000.0,136973000.0,0.0,19911000.0,0.0,155556000.0,292691000.0,4520000.0,450268000.0,579867000.0,13377000.0,68683000.0,28037000.0,48363000.0
2009-12-31,122596000.0,99000.0,122695000.0,51963000.0,6640000.0,201668000.0,590108000.0,45593000.0,12968000.0,7309000.0,657820000.0,859488000.0,88402000.0,19326000.0,182454000.0,116137000.0,135463000.0,0.0,13565000.0,0.0,130956000.0,313410000.0,0.0,427859000.0,546078000.0,13067000.0,12768000.0,20370000.0,74726000.0
