,0,1,2,3,4,5,6,7,8,9,10,11,12,13,14,15,16,17,18,19,20,21,22,23,24,25,26,27,28,29,30
Date,Revenue,Revenue Growth,Cost of Revenue,Gross Profit,R&D Expenses,SG&A Expense,Operating Expenses,Operating Income,Interest Expense,Earnings before Tax,Income Tax Expense,Net Income - Non-Controlling int,Net Income - Discontinued ops,Net Income,Preferred Dividends,Net Income Com,EPS,EPS Diluted,Weighted Average Shs Out,Weighted Average Shs Out (Dil),Dividend per Share,Gross Margin,EBITDA Margin,EBIT Margin,Profit Margin,Free Cash Flow margin,EBITDA,EBIT,Consolidated Income,Earnings Before Tax Margin,Net Profit Margin
2019-12-31,563111000.0,-0.025599363217099998,246027000.0,317084000.0,141060000.0,171832000.0,506544000.0,-189460000.0,0.0,-122893000.0,7182000.0,0.0,0.0,-130075000.0,0.0,-130075000.0,-1.19,-1.19,109734000.0,109734000.0,0.0,0.563093244494,-0.22781654061099998,-0.336452315796,-0.230993534134,0.07966635352530001,-128286000.0,-189460000.0,-130075000.0,-0.218239387971,-0.230993534134
2018-12-31,577905000.0,0.751535118294,269573000.0,308332000.0,145462000.0,194312000.0,373740000.0,-65408000.0,0.0,-73410000.0,3400000.0,0.0,0.0,-76810000.0,0.0,-76810000.0,-0.74,-0.74,103916000.0,103916000.0,0.0,0.533534058366,-0.00776079113349,-0.11318123220899999,-0.13291111860899998,-0.0302852544968,-4485000.0,-65408000.0,-76810000.0,-0.12702779868699998,-0.13291111860899998
2017-12-31,329942000.0,0.306230229897,128446000.0,201496000.0,101481000.0,131045000.0,256725000.0,-55229000.0,0.0,-53692000.0,-18440000.0,0.0,0.0,-35252000.0,0.0,-35252000.0,-0.6,-0.6,58822000.0,58822000.0,0.0,0.61070127477,-0.08980669329760001,-0.167390026126,-0.106843020895,0.0123688405841,-29631000.0,-55229000.0,-35252000.0,-0.16273163162,-0.106843020895
2016-12-31,252591000.0,0.0142831902471,84980000.0,167611000.0,72841000.0,104487000.0,181220000.0,-13609000.0,-769000.0,-11416000.0,2516000.0,0.0,0.0,-13932000.0,0.0,-13932000.0,-0.28,-0.28,49436925.0,49385000.0,0.0,0.6636,0.013000000000000001,-0.0482,-0.055,0.0577,3285000.0,-12185000.0,-13932000.0,-0.0452,-0.0552
2015-12-31,249034000.0,-0.159594500651,87377000.0,161657000.0,77908000.0,112687000.0,192874000.0,-31217000.0,-207000.0,-29888000.0,2007000.0,0.0,0.0,-31895000.0,0.0,-31895000.0,-0.64,-0.64,49739312.0,49560000.0,0.0,0.6491,-0.044000000000000004,-0.1208,-0.128,0.0485,-11027000.0,-30095000.0,-31895000.0,-0.12,-0.1281
2014-12-31,296326000.0,0.07080109708639999,102921000.0,193405000.0,79396000.0,124078000.0,210657000.0,-17252000.0,-75000.0,-14641000.0,2214000.0,0.0,0.0,-16855000.0,0.0,-16855000.0,-0.34,-0.34,49424947.0,50245000.0,0.0,0.6527,0.005,-0.0497,-0.057,0.0701,1369000.0,-14716000.0,-16855000.0,-0.0494,-0.0569
2013-12-31,276733000.0,0.08892552747759999,104273000.0,172460000.0,69559000.0,118472000.0,193535000.0,-21075000.0,-405000.0,-20667000.0,1452000.0,0.0,0.0,-22119000.0,0.0,-22119000.0,-0.4,-0.4,54699020.0,55686000.0,0.0,0.6232,-0.015,-0.0761,-0.08,0.0981,-4197000.0,-21072000.0,-22119000.0,-0.0747,-0.0799
2012-12-31,254134000.0,-0.0214173495164,111540000.0,142594000.0,67341000.0,110624000.0,191136000.0,-48542000.0,-612000.0,-47728000.0,2441000.0,0.0,0.0,-50169000.0,0.0,-50169000.0,-0.9,-0.9,56150625.0,56018000.0,0.0,0.5611,-0.129,-0.1902,-0.19699999999999998,-0.1962,-32676000.0,-48340000.0,-50169000.0,-0.1878,-0.1974
2011-12-31,259696000.0,0.041671513435199994,113575000.0,146121000.0,64410000.0,94236000.0,158646000.0,-12525000.0,-1287000.0,-11238000.0,1465000.0,0.0,0.0,-12703000.0,0.0,-12703000.0,-0.25,-0.25,55860096.0,55708000.0,0.0,0.5627,-0.002,-0.0482,-0.049,-0.0735,-496000.0,-12525000.0,-12703000.0,-0.0433,-0.0489
2010-12-31,249307000.0,0.09587421317299999,96155000.0,153152000.0,62786000.0,100424000.0,164711000.0,-11559000.0,-1549000.0,-9998000.0,693000.0,0.0,0.0,-10691000.0,0.0,-10691000.0,-0.2,-0.2,55293947.0,55094000.0,0.0,0.6143,0.002,-0.0463,-0.043,0.0049,399000.0,-11547000.0,-10691000.0,-0.0401,-0.0429
2009-12-31,227496000.0,-0.2735,83360000.0,144136000.0,59864000.0,92146000.0,155520000.0,-11384000.0,-3922000.0,-7391000.0,-2459000.0,0.0,0.0,-4932000.0,0.0,-4932000.0,-0.1,-0.1,54864801.0,54746000.0,0.0,0.6336,-0.004,-0.0497,-0.022000000000000002,0.1193,-977000.0,-11313000.0,-4932000.0,-0.0325,-0.0217
