,0,1,2,3,4,5,6,7,8,9,10,11,12,13,14
Date,Depreciation & Amortization,Stock-based compensation,Operating Cash Flow,Capital Expenditure,Acquisitions and disposals,Investment purchases and sales,Investing Cash flow,Issuance (repayment) of debt,Issuance (buybacks) of shares,Dividend payments,Financing Cash Flow,Effect of forex changes on cash,Net cash flow / Change in cash,Free Cash Flow,Net Cash/Marketcap
2019-12-31,-1055000.0,1222000.0,-4115000.0,1339000.0,-0.0,39893000.0,-132276000.0,-0.0,-7779000.0,-4013000.0,152255000.0,0.0,15864000.0,-5454000.0,0.0
2018-12-31,-1485000.0,923000.0,42265000.0,4342000.0,-0.0,12981000.0,-109716000.0,-0.0,392000.0,-3451000.0,81961000.0,0.0,14510000.0,37923000.0,0.0
2017-12-31,-711000.0,616000.0,-19644000.0,1766000.0,-0.0,6763000.0,-186489000.0,-0.0,3364000.0,-3193000.0,202558000.0,0.0,-3575000.0,-21410000.0,0.0
2016-12-31,1332000.0,251000.0,48762000.0,873000.0,-0.0,9255000.0,-72682000.0,-0.0,-19471000.0,-1489000.0,27593000.0,0.0,3673000.0,47889000.0,0.0
2015-12-31,1190000.0,104000.0,-22685000.0,926000.0,-0.0,7297000.0,-72468000.0,-0.0,-18750000.0,-1489000.0,104576000.0,0.0,9423000.0,-23611000.0,0.0
2014-12-31,698000.0,32000.0,-20788000.0,-340000.0,0.0,-36190000.0,-38439000.0,15151000.0,-2000.0,-783000.0,59705000.0,0.0,478000.0,-21128000.0,-0.2355
2013-12-31,387000.0,27000.0,3140000.0,-147000.0,0.0,-21971000.0,-24118000.0,1145000.0,0.0,0.0,19644000.0,0.0,-1334000.0,2993000.0,-0.2355
