,0,1,2,3,4,5,6,7,8,9,10,11,12,13,14,15,16,17,18,19,20,21,22,23,24,25,26,27,28,29,30
Date,Revenue,Revenue Growth,Cost of Revenue,Gross Profit,R&D Expenses,SG&A Expense,Operating Expenses,Operating Income,Interest Expense,Earnings before Tax,Income Tax Expense,Net Income - Non-Controlling int,Net Income - Discontinued ops,Net Income,Preferred Dividends,Net Income Com,EPS,EPS Diluted,Weighted Average Shs Out,Weighted Average Shs Out (Dil),Dividend per Share,Gross Margin,EBITDA Margin,EBIT Margin,Profit Margin,Free Cash Flow margin,EBITDA,EBIT,Consolidated Income,Earnings Before Tax Margin,Net Profit Margin
2019-12-31,2669852000.0,0.00352833057379,1025781000.0,1644071000.0,0.0,142634000.0,1390212000.0,253859000.0,31031000.0,223783000.0,50237000.0,0.0,0.0,173546000.0,0.0,173546000.0,3.19,3.1,54325000.0,55955000.0,0.24496470378000001,0.615791062576,0.35196033338200006,0.09508354770230001,0.0650021049856,0.0727602129257,939682000.0,253859000.0,173546000.0,0.0838185037972,0.0650021049856
2018-12-31,2660465000.0,-0.015568687235000002,972297000.0,1688168000.0,0.0,163445000.0,1632031000.0,56137000.0,42968000.0,13841000.0,5349000.0,0.0,0.0,8492000.0,0.0,8492000.0,0.16,0.16,53471000.0,54542000.0,0.0,0.634538699062,0.281035082213,0.0211004467264,0.00319192321643,0.0750030539774,747684000.0,56137000.0,8492000.0,0.0052024740036,0.00319192321643
2017-12-31,2702540000.0,-0.0879817173835,983998000.0,1718542000.0,0.0,171090000.0,1781601000.0,-63059000.0,45996000.0,-110200000.0,-116853000.0,0.0,0.0,6653000.0,0.0,6653000.0,0.12,0.12,53282000.0,53844000.0,0.237928088552,0.635898821109,0.23700925795699998,-0.0233332346607,0.00246175819784,0.0166780140164,640527000.0,-63059000.0,6653000.0,-0.0407764547426,0.00246175819784
2016-12-31,2963252000.0,-0.0961341133839,1028203000.0,1935049000.0,0.0,168907000.0,2001645000.0,-66596000.0,47181000.0,-113274000.0,-8079000.0,0.0,0.0,-105195000.0,0.0,-105195000.0,-1.98,-1.98,53121000.0,53121000.0,0.481052691026,0.653015335854,0.22686156965399998,-0.0224739576654,-0.035499849489699996,0.0987401678966,672248000.0,-66596000.0,-105195000.0,-0.0382262460297,-0.035499849489699996
2015-12-31,3278420000.0,0.038198794349000004,1160311000.0,2118109000.0,0.0,166102000.0,3125997000.0,-1007888000.0,49326000.0,-1056580000.0,-189952000.0,0.0,0.0,-866628000.0,0.0,-866628000.0,-16.34,-16.34,53050000.0,53050000.0,0.961564561734,0.6460761586370001,-0.0631096686819,-0.3074310186,-0.264343189707,0.0456372276889,-206900000.0,-1007888000.0,-866628000.0,-0.322283295002,-0.264343189707
2014-12-31,3157796000.0,0.0172712111367,973433000.0,2184363000.0,0.0,162316000.0,1990901000.0,193462000.0,47843000.0,142353000.0,45931000.0,0.0,0.0,96422000.0,0.0,96422000.0,1.82,1.81,52850000.0,53126000.0,0.915992169559,0.691736578297,0.30511692332199997,0.06126488221530001,0.030534588048099998,-0.0204801070113,963497000.0,193462000.0,96422000.0,0.0450798594969,0.030534588048099998
2013-12-31,3104183000.0,0.00698653040278,954737000.0,2149446000.0,0.0,158424000.0,1903277000.0,246169000.0,39628000.0,207356000.0,79118000.0,0.0,0.0,128238000.0,0.0,128238000.0,2.34,2.32,54804000.0,55162000.0,0.8485732932089999,0.692435336448,0.317301202925,0.07930234783189999,0.0413113531,0.00836774120598,984961000.0,246169000.0,128238000.0,0.0667988968434,0.0413113531
2012-12-31,3082646000.0,0.0695521174221,948729000.0,2133917000.0,0.0,148500000.0,1815445000.0,318472000.0,32065000.0,287249000.0,103757000.0,0.0,0.0,183492000.0,0.0,183492000.0,3.11,3.09,0.0,0.0,0.0,0.692235501579,0.331379924909,0.103311246248,0.059524187986599995,0.0374499699284,1021527000.0,318472000.0,183492000.0,0.0931826100045,0.059524187986599995
2011-12-31,2882184000.0,0.0551143052944,829668000.0,2052516000.0,0.0,136141000.0,1759359000.0,293157000.0,37234000.0,256550000.0,91913000.0,0.0,0.0,164637000.0,0.0,164637000.0,2.69,2.66,61188000.0,61889000.0,0.43450370825199996,0.712139127828,0.31987721811000003,0.101713492268,0.0571223072503,0.0534025586153,921945000.0,293157000.0,164637000.0,0.0890123600714,0.0571223072503
2010-12-31,2731632000.0,-0.00738529249741,2279351000.0,452281000.0,0.0,126319000.0,2427863000.0,303769000.0,26766000.0,274757000.0,103115000.0,0.0,0.0,171642000.0,0.0,171642000.0,2.64,2.6,0.0,0.0,0.0,0.165571716834,0.320973322907,0.111204217845,0.0628349645926,0.0452044784949,876781000.0,303769000.0,171642000.0,0.10058346072999999,0.0628349645926
2009-12-31,2751956000.0,-0.0458,763958000.0,1987998000.0,0.0,1693700000.0,1691674000.0,296324000.0,26791000.0,270370000.0,102515000.0,0.0,0.0,167855000.0,0.0,167855000.0,2.54,2.52,66105786.0,66105786.0,0.0,0.7224,0.321,0.10800000000000001,0.061,0.0961,883343000.0,297161000.0,167855000.0,0.0982,0.061
