,0,1,2,3,4,5,6,7,8,9,10,11,12,13,14
Date,Depreciation & Amortization,Stock-based compensation,Operating Cash Flow,Capital Expenditure,Acquisitions and disposals,Investment purchases and sales,Investing Cash flow,Issuance (repayment) of debt,Issuance (buybacks) of shares,Dividend payments,Financing Cash Flow,Effect of forex changes on cash,Net cash flow / Change in cash,Free Cash Flow,Net Cash/Marketcap
2004-12,4000000.0,,18000000.0,-3000000.0,,-1000000.0,-3000000.0,0.0,0.0,,1000000.0,0.0,16000000.0,15000000.0,
2003-12,5000000.0,,11000000.0,-4000000.0,,125000000.0,121000000.0,-11000000.0,-120000000.0,,-130000000.0,1000000.0,2000000.0,7000000.0,
2002-12,22000000.0,,16000000.0,-3000000.0,,-30000000.0,-42000000.0,-0.0,-2000000.0,,13000000.0,2000000.0,-11000000.0,13000000.0,
2001-12,49000000.0,,24000000.0,-2000000.0,,-22000000.0,-24000000.0,0.0,0.0,,1000000.0,0.0,2000000.0,22000000.0,
2000-12,8000000.0,,32000000.0,-9000000.0,,-108000000.0,-129000000.0,-0.0,0.0,,117000000.0,0.0,19000000.0,23000000.0,
