,0,1,2,3,4,5,6,7,8,9,10,11,12,13,14,15,16,17,18,19,20,21,22,23,24,25,26,27,28,29,30
Date,Revenue,Revenue Growth,Cost of Revenue,Gross Profit,R&D Expenses,SG&A Expense,Operating Expenses,Operating Income,Interest Expense,Earnings before Tax,Income Tax Expense,Net Income - Non-Controlling int,Net Income - Discontinued ops,Net Income,Preferred Dividends,Net Income Com,EPS,EPS Diluted,Weighted Average Shs Out,Weighted Average Shs Out (Dil),Dividend per Share,Gross Margin,EBITDA Margin,EBIT Margin,Profit Margin,Free Cash Flow margin,EBITDA,EBIT,Consolidated Income,Earnings Before Tax Margin,Net Profit Margin
2019-06-30,14838308.2609,0.156067397101,10509994.6377,4328313.6232,454136.9565,7299219.8551,7841875.0725,-3513561.4493,230296.3768,-3617018.5507,57750.2899,-61811.7391,0.0,-3674768.8406,0.0,-3674768.8406,-0.1884,-0.1884,2678311.4493,2832487.5362,0.0,0.2917,-0.0314,-0.2282,-0.0359,-0.3766,-3223822.0289999996,-3386722.1739,-3736580.5797,-0.2438,-0.2477
2018-06-30,12835158.4848,0.456324259726,12206342.5758,628815.9091,487220.1515,6469798.4848,6829557.7273,-6200741.8182,135988.0303,-6675165.302999999,2459.0909,-197411.0606,0.0,-6677624.3939,0.0,-6677624.3939,-0.5818,-0.5818,1500441.5152,1739918.7879,0.0,0.049,-0.0752,-0.5095,-0.0788,-0.3726,-6369624.3939,-6539177.2727,-6875035.4545,-0.5201,-0.5203
2017-06-30,8813393.3079,0.370499744028,6470642.7942,2342750.5136,1115253.8891,5460722.0429,6835190.1967,-4492439.683,80551.5116,-4569598.914,45186.380999999994,35419.1371,0.0,-4614785.295,0.0,-4614785.295,-0.7191,-0.7191,914410.3317,941782.3598,0.0,0.2658,-0.0726,-0.5093,-0.0769,-0.1327,-4363315.8204,-4489047.4024,-4579366.1579,-0.5185,-0.5236
2016-06-30,6430788.0,-0.23988392334000003,5340101.0,1090687.0,1031936.0,3886986.0,7097482.0,-6006795.0,135961.0,-6070850.0,82152.0,0.0,0.0,-6153002.0,0.0,-6153002.0,-1.09,-1.09,5653149.0,5653149.0,0.0,0.16960394278299998,-0.911715795949,-0.934068266595,-0.956803738515,-0.0109235446729,-5863051.0,-6006795.0,-6153002.0,-0.944028943265,-0.956803738515
2015-06-30,8460271.0,-0.442736523927,6799489.0,1660782.0,684669.0,6809157.0,7493826.0,-35516233.0,182376.0,-5585415.0,-419143.0,0.0,0.0,-5166272.0,0.0,-5166272.0,-1.06,-1.06,4876504.0,4876504.0,0.0,0.19630364086399998,-4.18778984739,-4.1980018134199995,-0.610650888133,-0.333519458183,-35429837.0,-35516233.0,-5166272.0,-0.660193390968,-0.610650888133
2014-06-30,15181815.0,0.226705085903,9915234.0,5266581.0,1315040.0,3491729.0,4806769.0,459812.0,154759.0,453106.0,156150.0,0.0,0.0,131140.0,0.0,131140.0,0.03,0.03,4303955.0,4368162.0,0.0,0.346900617614,0.0366611633721,0.030287024311700002,0.008637965882209999,-0.0902972404815,556583.0,459812.0,131140.0,0.029845311644200002,0.008637965882209999
2013-06-30,12376092.0,-0.805677659034,8327423.0,4048669.0,1375793.0,2764138.0,4139931.0,-91262.0,251641.0,99629.0,46358.0,0.0,0.0,6415.0,0.0,6415.0,0.0,0.0,3951811.0,3951811.0,0.0,0.327136304417,0.0007025642666519999,-0.0073740563661000005,0.0005183380989730001,0.313430362347,8695.0,-91262.0,6415.0,0.00805011792091,0.0005183380989730001
2012-06-30,63688467.0,5.46399999998,43469506.0,20218961.0,0.0,39791743.0,39791743.0,-19572782.0,600500.0,-28900424.0,665146.0,0.0,0.0,-29036375.0,0.0,-29036375.0,-7.35,-7.35,3951811.0,3951811.0,0.0,0.31746659878,-0.301639306219,-0.307320664509,-0.45591260659500005,-0.0966979311969,-19210945.0,-19572782.0,-29036375.0,-0.45377798149899995,-0.45591260659500005
2011-06-30,9852795.0186,-0.42889490589900003,6724861.6955,3127933.3230000003,0.0,6155900.8354,6155900.8354,-3027967.5124,92899.1337,-4389113.3973,102900.0619,53813.5829,0.0,-4492013.4592,0.0,-4492013.4592,-1.1371,-1.1371,611356.8998,611356.8998,0.0,0.3175,-0.0665,-0.436,-0.0705,-0.1021,-4240237.005,-4296214.2636,-4438199.8762,-0.4455,-0.4559
2010-06-30,17252157.4757,0.557889045168,9966606.3108,7285551.1648,0.0,3165423.7688,3165423.7688,4120127.396,31617.6644,4064201.7104,1106587.5848,405895.0162,0.0,2957614.1256,0.0,2957614.1256,0.7756,0.7712,582691.0941,562088.6169,0.0,0.4223,0.0355,0.2374,0.0252,-0.4629,4150199.2038,4095819.3748,3363509.1418,0.2356,0.1714
2009-06-30,11074060.4597,0.1549,6698697.7017,4375362.758,0.0,1647427.9022,1647427.9022,2727934.8558,16568.438000000002,2771887.2786,538411.2136,238479.8712,0.0,2233476.065,7547.0649,2225929.0001,1.0408,0.9881,313161.0306,329645.8791,0.0,0.3951,0.0375,0.2518,0.0294,-0.0924,2835491.2897,2788455.7166,2471955.9362,0.2503,0.2017
