,0,1,2,3,4,5,6,7,8,9,10,11,12,13,14,15,16,17,18,19,20,21,22,23,24,25,26,27,28,29,30
Date,Revenue,Revenue Growth,Cost of Revenue,Gross Profit,R&D Expenses,SG&A Expense,Operating Expenses,Operating Income,Interest Expense,Earnings before Tax,Income Tax Expense,Net Income - Non-Controlling int,Net Income - Discontinued ops,Net Income,Preferred Dividends,Net Income Com,EPS,EPS Diluted,Weighted Average Shs Out,Weighted Average Shs Out (Dil),Dividend per Share,Gross Margin,EBITDA Margin,EBIT Margin,Profit Margin,Free Cash Flow margin,EBITDA,EBIT,Consolidated Income,Earnings Before Tax Margin,Net Profit Margin
2018-12-31,486920000.0,0.315871969214,367496000.0,119424000.0,53797000.0,65500000.0,163358000.0,-43934000.0,3681000.0,0.0,0.0,0.0,0.0,-41978000.0,0.0,-41978000.0,-0.49,-0.49,85669039.0,85669039.0,0.0,0.245264109094,-0.0675367616857,-0.09022837427089998,-0.08621128727510001,-0.0924279142364,-32885000.0,-43934000.0,-41978000.0,0.0,-0.08621128727510001
2017-12-31,370036000.0,0.384886001287,258216000.0,111820000.0,42532000.0,53009000.0,127792000.0,-15972000.0,0.0,0.0,0.0,0.0,0.0,-15002000.0,0.0,-15002000.0,-4.47,-4.47,42722114.0,42722114.0,0.0,0.302186814256,-0.023770660152,-0.043163367888500004,-0.0405420013188,-0.0182630879158,-8796000.0,-15972000.0,-15002000.0,0.0,-0.0405420013188
2016-12-31,267196000.0,0.42627763721199996,184452000.0,82744000.0,34588000.0,70940000.0,105528000.0,-22784000.0,0.0,-22526000.0,0.0,0.0,0.0,-22526000.0,55502000.0,-78028000.0,-5.42,-5.42,79537000.0,14395067.0,0.0,0.3097,-0.061,-0.0843,-0.292,-0.0858,-16233000.0,-22526000.0,-22526000.0,-0.0843,-0.0843
2015-12-31,187338000.0,0.494364365881,138492000.0,48846000.0,27842000.0,51293000.0,79135000.0,-30289000.0,0.0,-30236000.0,0.0,0.0,0.0,-30236000.0,102224000.0,-132460000.0,-9.87,-9.87,79537000.0,13416411.0,0.0,0.2607,-0.138,-0.1614,-0.7070000000000001,-0.1432,-25841000.0,-30236000.0,-30236000.0,-0.1614,-0.1614
2014-12-31,125363000.0,,93272000.0,32091000.0,17876000.0,39298000.0,57174000.0,-25083000.0,0.0,-25036000.0,-306000.0,0.0,0.0,-24730000.0,101251000.0,-125981000.0,-11.76,-11.76,,10716557.0,0.0,0.256,-0.17800000000000002,-0.1997,-1.005,-0.14800000000000002,-22364000.0,-25036000.0,-24730000.0,-0.1997,-0.1973
