,0,1,2,3,4,5,6,7,8,9,10,11,12,13,14
Date,Depreciation & Amortization,Stock-based compensation,Operating Cash Flow,Capital Expenditure,Acquisitions and disposals,Investment purchases and sales,Investing Cash flow,Issuance (repayment) of debt,Issuance (buybacks) of shares,Dividend payments,Financing Cash Flow,Effect of forex changes on cash,Net cash flow / Change in cash,Free Cash Flow,Net Cash/Marketcap
2018-12-31,21704000000.0,,50334000000.0,-23011000000.0,0.0,,-14482000000.0,,,,-28974000000.0,-449000000.0,6429000000.0,,
2017-12-31,22033000000.0,,32824000000.0,-20845000000.0,0.0,,-8753000000.0,,,,-23536000000.0,647000000.0,1182000000.0,,
2016-12-31,23091000000.0,,18147000000.0,-22116000000.0,-11421000000.0,,-31433000000.0,,,,2167000000.0,-1503000000.0,-12622000000.0,,
2015-12-31,17707000000.0,,28356000000.0,-26131000000.0,,,-22695000000.0,,,,5554000000.0,-1070000000.0,10145000000.0,,
