,0,1,2,3,4,5,6,7,8,9,10,11,12,13,14,15,16,17,18,19,20,21,22,23,24,25,26,27,28,29,30
Date,Revenue,Revenue Growth,Cost of Revenue,Gross Profit,R&D Expenses,SG&A Expense,Operating Expenses,Operating Income,Interest Expense,Earnings before Tax,Income Tax Expense,Net Income - Non-Controlling int,Net Income - Discontinued ops,Net Income,Preferred Dividends,Net Income Com,EPS,EPS Diluted,Weighted Average Shs Out,Weighted Average Shs Out (Dil),Dividend per Share,Gross Margin,EBITDA Margin,EBIT Margin,Profit Margin,Free Cash Flow margin,EBITDA,EBIT,Consolidated Income,Earnings Before Tax Margin,Net Profit Margin
2019-03-31,2223280346.8208,0.0190634985921,1017644508.6705,1205635838.1503,225534682.0809,706502890.1734,903786127.1676,301849710.9827,16806358.3815,324320809.2486,52716763.0058,0.0,0.0,271604046.2428,0.0,271604046.2428,1.6369999999999998,1.6342,2397556.4595,2397556.4595,0.0042,0.5423,0.0034,0.1534,0.0018,0.1811,517283236.9942,341127167.6301,271604046.2428,0.1459,0.1222
2018-03-31,2181689708.1413,0.00610061287385,1009585253.4562,1172104454.6851,280568356.3748,720583717.3579,989047619.0476,183056835.6375,12549923.1951,220291858.67900002,69662058.3717,0.0,0.0,150629800.3072,0.0,150629800.3072,0.9083,0.9063,2545955.6528,2547548.51,0.0045,0.5372,0.0029,0.1067,0.0011,0.0819,412718894.0092,232841781.874,150629800.3072,0.10099999999999999,0.069
2017-03-31,2168460768.4608,-0.07087592484079999,961777161.7772,1206683606.6836,301085701.0857,714129514.1295,998814198.8142,207869407.8694,12027412.0274,225656425.6564,40255640.2556,0.0,0.0,185400785.4008,0.0,185400785.4008,1.1125,1.1102,2627360.4836,2566396.2886,0.0046,0.5565,0.0029,0.1096,0.0013,0.1069,411349811.3498,237683837.6838,185400785.4008,0.1041,0.0855
2016-03-31,2333876418.0545,-0.0142498768058,941754163.6495,1392122254.405,269038136.616,689446053.5844,945299300.0241,446822954.3809,74809920.3476,409425537.0504,107515689.1142,0.0,0.0,301909847.9363,0.0,301909847.9363,1.7702,1.7647,2570317.0106,2572828.3098,0.0044,0.5965,0.0041,0.2075,0.0019,0.2348,638863746.0777,484235457.398,301909847.9363,0.1754,0.1294
2015-03-31,2367614634.9257,0.07238594325360001,1003131490.6535,1364483144.2722,278782553.1235,680380252.4365,944511902.8599,419971241.4124,17446876.4978,449960057.5172,95606326.8893,0.0,0.0,354353730.6279,0.0,354353730.6279,2.0805,2.073,2717828.2154,2721113.6923,0.0094,0.5763,0.004,0.1974,0.0024,0.1435,596820578.3672,467406934.015,354353730.6279,0.19,0.1497
2014-03-31,2207800885.3253,0.0314755499457,941601937.6931,1266198947.6322,207166123.7785,647840975.5283,831353879.5623,434845068.0698,21281216.0695,444483421.0307,85091455.7755,50112.7537,0.0,359391965.2552,0.0,359391965.2552,2.1134,2.1054,2836991.1467,2840466.3493,0.0044,0.5735,0.0044,0.21100000000000002,0.0027,0.1252,584465046.3543,465764637.1001,359341852.5015,0.2013,0.1628
2013-03-31,2140429683.9043,0.121957141339,1025184557.8895,1115245126.0148,141276533.0731,630939450.2844,726578177.0651,388666948.9497,18741140.3008,399068465.9143,90207846.2416,18409.7645,0.0,308860619.6727,0.0,308860619.6727,1.8193,1.8123,3121566.045,3125563.0258,0.0042,0.521,0.0045,0.1952,0.0027,0.1053,519965389.6427,417809606.2151,308842209.9081,0.1864,0.1443
2012-03-31,1907764214.0138,0.138252743865,856528684.4025,1051235529.6113,116571676.4944,589800224.821,691285226.8918,359950302.7195,21042459.621,364170627.3296,82907685.3294,0.0,0.0,281262942.0001,0.0,281262942.0001,1.6597,1.6528,3337857.3373,3342139.9018,0.0178,0.551,0.005,0.2019,0.0029,0.1435,488019405.6047,385213086.9505,281262942.0001,0.1909,0.1474
2011-03-31,1676046224.6157,0.0711127116972,772579378.4360001,903466846.1797,113542017.2781,531560641.7592,620083024.7952,283383821.3845,8122966.4535,279210142.4885,31482104.7908,0.0,0.0,247728037.6977,0.0,247728037.6977,1.4648,1.4574,3788744.1939,3795100.3927,0.0054,0.539,0.0051,0.1714,0.0033,-0.0095,380410636.1494,287333108.94200003,247728037.6977,0.1666,0.1478
2010-03-31,1564771107.9444,0.14400000000000002,755633238.3327,809137869.6117,84454043.4628,501091022.4439,764428215.1763,44709654.4353,8282864.2679,45711613.8226,21931777.6986,0.0,0.0,23779836.124,0.0,23779836.124,0.1409,0.1403,3751086.0572,3756389.7622,0.0029,0.5171,0.0021,0.0345,0.0003,0.1303,146620057.0004,53994478.0905,23779836.124,0.0292,0.0152
