,0,1,2,3,4,5,6,7,8,9,10,11,12,13,14,15,16,17,18,19,20,21,22,23,24,25,26,27,28,29,30
Date,Revenue,Revenue Growth,Cost of Revenue,Gross Profit,R&D Expenses,SG&A Expense,Operating Expenses,Operating Income,Interest Expense,Earnings before Tax,Income Tax Expense,Net Income - Non-Controlling int,Net Income - Discontinued ops,Net Income,Preferred Dividends,Net Income Com,EPS,EPS Diluted,Weighted Average Shs Out,Weighted Average Shs Out (Dil),Dividend per Share,Gross Margin,EBITDA Margin,EBIT Margin,Profit Margin,Free Cash Flow margin,EBITDA,EBIT,Consolidated Income,Earnings Before Tax Margin,Net Profit Margin
2018-12-31,48562441.0,1.19383991141,34765781.0,13796660.0,0.0,18833280.0,18833280.0,-5036620.0,609461.0,-5674249.0,29250.0,0.0,0.0,-5703499.0,0.0,-5703499.0,-0.44,-0.44,18767619.0,15409014.0,0.0,0.2841,-0.076,-0.1043,-0.11699999999999999,-0.0645,-3698476.0,-5064788.0,-5703499.0,-0.1168,-0.1174
2017-12-31,22135818.0,0.825121784347,13792473.0,8343345.0,0.0,12981744.0,12981744.0,-4638399.0,213492.0,-5335800.0,-294666.0,0.0,0.0,-5041134.0,0.0,-5041134.0,-0.51,-0.51,14308784.0,11767304.0,0.0,0.3769,-0.2,-0.2314,-0.228,-0.1562,-4433353.0,-5122308.0,-5041134.0,-0.24100000000000002,-0.2277
2016-12-31,12128406.0,3.31319780834,6959514.0,5168892.0,0.0,5262768.0,5262768.0,-93876.0,165079.0,-258955.0,-219971.0,0.0,0.0,-38984.0,0.0,-38984.0,-0.01,-0.01,13934000.0,7679501.0,0.0,0.4262,-0.003,-0.0077,-0.003,-0.0143,-42006.0,-93876.0,-38984.0,-0.0214,-0.0032
2015-12-31,2811929.0,,804171.0,2007758.0,0.0,2842014.0,2842014.0,-834256.0,455937.0,-756771.0,-385600.0,0.0,-573659.0,-371171.0,0.0,-371171.0,-0.01,-0.01,13934000.0,44690550.0,0.0,0.7140000000000001,-0.054000000000000006,-0.107,-0.132,-0.3361,-151602.0,-300834.0,-371171.0,-0.2691,-0.132
