,0,1,2,3,4,5,6,7,8,9,10,11,12,13,14
Date,Depreciation & Amortization,Stock-based compensation,Operating Cash Flow,Capital Expenditure,Acquisitions and disposals,Investment purchases and sales,Investing Cash flow,Issuance (repayment) of debt,Issuance (buybacks) of shares,Dividend payments,Financing Cash Flow,Effect of forex changes on cash,Net cash flow / Change in cash,Free Cash Flow,Net Cash/Marketcap
2019-12-31,583824.0,21224.0,-942591.0,98773.0,-0.0,0.0,63684.0,-0.0,-1630779.0,-0.0,500000.0,19712.0,-359195.0,-1041364.0,0.0
2018-12-31,790113.0,23627.0,-1169924.0,181343.0,-0.0,0.0,3009264.0,-3045421.0,-1989974.0,-0.0,-3045421.0,-76733.0,-1282814.0,-1351267.0,0.0
2017-12-31,1020666.0,33776.0,-156795.0,499409.0,-0.0,0.0,-377106.0,-363736.0,-3272788.0,-0.0,136264.0,63608.0,-334029.0,-656204.0,0.0
2016-12-31,1101781.0,60342.0,1525272.0,173903.0,-0.0,-2211.0,-70173.0,-1017367.0,-2211.0,-0.0,-1019578.0,-90967.0,344554.0,1351369.0,0.0
2015-12-31,1103384.0,63064.0,-799555.0,250284.0,-0.0,0.0,-146158.0,-3482561.0,-3262263.0,-0.0,-733060.0,-48356.0,-1727129.0,-1049839.0,0.0
2014-12-31,1053663.0,46370.0,-391724.0,909403.0,-0.0,0.0,-1069248.0,-633257.0,0.0,-0.0,-133257.0,-73177.0,-1667406.0,-1301127.0,0.0
2013-12-31,952660.0,41745.0,2590260.0,1532580.0,-0.0,-5364.0,-1770738.0,-630246.0,-5364.0,-378576.0,149482.0,-113248.0,855756.0,1057680.0,0.0
2012-12-31,1109088.0,169413.0,2792373.0,414170.0,-0.0,-120378.0,-679835.0,-566595.0,-120378.0,-497585.0,-1184558.0,-84805.0,843175.0,2378203.0,0.0
2011-12-31,1244990.0,170618.0,2227656.0,618545.0,-0.0,0.0,-844763.0,-521091.0,0.0,-495344.0,-1015888.0,203120.0,570125.0,1609111.0,0.0
2010-12-31,1244990.0,170618.0,2227656.0,-577213.0,0.0,0.0,-844763.0,-521091.0,0.0,-495344.0,-1015888.0,203120.0,570125.0,1650443.0,0.0672
2009-12-31,1192948.0,120632.0,5758881.0,-533639.0,-716119.0,488633.0,-1013325.0,2218558.0,-5014115.0,-856377.0,-3651934.0,206654.0,1300276.0,5225242.0,0.013000000000000001
