,0,1,2,3,4,5,6,7,8,9,10,11,12,13,14,15,16,17,18,19,20,21,22,23,24,25,26,27,28,29,30
Date,Revenue,Revenue Growth,Cost of Revenue,Gross Profit,R&D Expenses,SG&A Expense,Operating Expenses,Operating Income,Interest Expense,Earnings before Tax,Income Tax Expense,Net Income - Non-Controlling int,Net Income - Discontinued ops,Net Income,Preferred Dividends,Net Income Com,EPS,EPS Diluted,Weighted Average Shs Out,Weighted Average Shs Out (Dil),Dividend per Share,Gross Margin,EBITDA Margin,EBIT Margin,Profit Margin,Free Cash Flow margin,EBITDA,EBIT,Consolidated Income,Earnings Before Tax Margin,Net Profit Margin
2018-12-31,77347000.0,0.0767463875045,43160000.0,34187000.0,39985000.0,36879000.0,76864000.0,-54043000.0,8756000.0,-62287000.0,17436000.0,0.0,0.0,-79723000.0,0.0,-79723000.0,-3.9,-3.9,20465106.0,20465106.0,0.0,0.441995164648,-0.5929253881859999,-0.6987084179090001,-1.03071870919,-0.693511060545,-45861000.0,-54043000.0,-79723000.0,-0.805293030111,-1.03071870919
2017-12-31,71834000.0,0.0360125185687,38193000.0,33641000.0,33095000.0,25426000.0,58521000.0,-40311000.0,12034000.0,-51960000.0,-1880000.0,0.0,0.0,-50080000.0,0.0,-50080000.0,-2.63,-2.63,19070983.0,19070983.0,0.0,0.468315839296,-0.45749923434600004,-0.561168805858,-0.697162903361,-0.32316173399799997,-32864000.0,-40311000.0,-50080000.0,-0.723334354206,-0.697162903361
2016-12-31,69337000.0,0.334635817678,37152000.0,32185000.0,33278000.0,12742000.0,46020000.0,-25773000.0,5588000.0,-31312000.0,-1107000.0,0.0,0.0,-30205000.0,0.0,-30205000.0,-2.82,-2.82,10721928.0,10721928.0,0.0,0.46418218267300004,-0.24092475878699998,-0.371706303994,-0.43562600054799994,-0.100552374634,-16705000.0,-25773000.0,-30205000.0,-0.451591502372,-0.43562600054799994
2015-12-31,51952000.0,1.0,28054000.0,23898000.0,12281000.0,13017000.0,25298000.0,-6970000.0,5560000.0,-12518000.0,-15551000.0,0.0,0.0,3033000.0,0.0,3033000.0,0.36,0.21,8491025.0,8749234.0,0.0,0.460001539883,-0.00573606405913,-0.13416230366499998,0.0583808130582,0.116395903911,-298000.0,-6970000.0,3033000.0,-0.24095318755800002,0.0583808130582
2014-12-31,0.0,0.0,0.0,0.0,7874187.0,3997596.0,11871783.0,-16134158.0,4272919.0,0.0,0.0,0.0,0.0,-16134158.0,0.0,-16134158.0,-2.79,-2.79,6238581.0,6238581.0,0.0,0.0,0.0,0.0,0.0,0.0,-16134158.0,-16134158.0,-16134158.0,0.0,0.0
2013-12-31,0.0,0.0,0.0,0.0,543632.0,546119.0,1089751.0,-1089751.0,868109.0,-1957818.0,0.0,0.0,0.0,-1957818.0,440204.0,-2398022.0,-15.41,-15.41,,155600.0,0.0,0.0,,0.0,,0.0,-1088262.0,-1089709.0,-1957818.0,0.0,0.0
2012-12-31,0.0,,0.0,0.0,541951.0,339255.0,881206.0,-881206.0,740365.0,-1536536.0,0.0,0.0,0.0,-1536536.0,412623.0,-1949159.0,-12.53,-12.53,,155600.0,0.0,0.0,,0.0,,0.0,-794233.0,-796171.0,-1536536.0,0.0,0.0
