,0,1,2,3,4,5,6,7,8,9,10,11,12,13,14
Date,Depreciation & Amortization,Stock-based compensation,Operating Cash Flow,Capital Expenditure,Acquisitions and disposals,Investment purchases and sales,Investing Cash flow,Issuance (repayment) of debt,Issuance (buybacks) of shares,Dividend payments,Financing Cash Flow,Effect of forex changes on cash,Net cash flow / Change in cash,Free Cash Flow,Net Cash/Marketcap
2019-03-31,1863000.0,2730000.0,-25378000.0,2600000.0,-0.0,0.0,-65944000.0,-0.0,4296000.0,-0.0,101390000.0,-839000.0,9229000.0,-27978000.0,0.0
2018-03-31,109000.0,812000.0,-16014000.0,-136000.0,0.0,-43910000.0,-44046000.0,0.0,0.0,0.0,54752000.0,2297000.0,-3011000.0,-16150000.0,0.0
2017-03-31,122000.0,208000.0,-7077000.0,-238000.0,0.0,0.0,-238000.0,0.0,0.0,0.0,15000000.0,-1419000.0,6266000.0,-7315000.0,0.0
