,0,1,2,3,4,5,6,7,8,9,10,11,12,13,14,15,16,17,18,19,20,21,22,23,24,25,26,27,28,29,30
Date,Revenue,Revenue Growth,Cost of Revenue,Gross Profit,R&D Expenses,SG&A Expense,Operating Expenses,Operating Income,Interest Expense,Earnings before Tax,Income Tax Expense,Net Income - Non-Controlling int,Net Income - Discontinued ops,Net Income,Preferred Dividends,Net Income Com,EPS,EPS Diluted,Weighted Average Shs Out,Weighted Average Shs Out (Dil),Dividend per Share,Gross Margin,EBITDA Margin,EBIT Margin,Profit Margin,Free Cash Flow margin,EBITDA,EBIT,Consolidated Income,Earnings Before Tax Margin,Net Profit Margin
2018-12-31,53589000.0,0.115090099463,0.0,0.0,97288000.0,32748000.0,130467000.0,-80520000.0,6176000.0,-80520000.0,26000.0,0.0,0.0,-80546000.0,0.0,-80546000.0,-2.91,-2.91,27701783.0,27701783.0,0.0,0.0,-1.47793390435,-1.5025471645299997,-1.50303233873,-1.57610703689,-79201000.0,-80520000.0,-80546000.0,-1.5025471645299997,-1.50303233873
2017-12-31,48058000.0,-0.036063863928099994,0.0,0.0,71273000.0,23260000.0,94970000.0,-47668000.0,1454000.0,-47668000.0,3000.0,0.0,0.0,-47671000.0,0.0,-47671000.0,-1.99,-1.99,23933309.0,23933309.0,0.0,0.0,-0.97992009655,-0.99188480586,-0.99194723043,-1.7395646926599997,-47093000.0,-47668000.0,-47671000.0,-0.99188480586,-0.99194723043
2016-12-31,49856000.0,-0.00920129573322,0.0,0.0,39453000.0,16603000.0,56738000.0,-6668000.0,0.0,-6668000.0,-441000.0,0.0,0.0,-6227000.0,0.0,-6227000.0,-0.31,-0.31,19816635.0,19816635.0,0.0,0.0,-0.120065789474,-0.133745186136,-0.12489971116800001,-0.39311216303,-5986000.0,-6668000.0,-6227000.0,-0.133745186136,-0.12489971116800001
2015-12-31,50319000.0,-0.0314701466682,0.0,50319000.0,35141000.0,13693000.0,50653000.0,-334000.0,0.0,-302000.0,1148000.0,0.0,0.0,-1450000.0,0.0,-1450000.0,-0.09,-0.09,19998000.0,15974974.0,0.0,1.0,0.03,-0.006,-0.028999999999999998,-0.8919,1517000.0,-302000.0,-1450000.0,-0.006,-0.0288
2014-12-31,51954000.0,,0.0,51954000.0,34305000.0,11512000.0,48329000.0,3625000.0,0.0,3668000.0,2979000.0,0.0,0.0,689000.0,0.0,689000.0,0.04,0.04,,15950023.0,0.0,1.0,0.11900000000000001,0.0706,0.013000000000000001,-1.7086,6180000.0,3668000.0,689000.0,0.0706,0.0133
