,0,1,2,3,4,5,6,7,8,9,10,11,12,13,14,15,16,17,18,19,20,21,22,23,24,25,26,27,28,29,30
Date,Revenue,Revenue Growth,Cost of Revenue,Gross Profit,R&D Expenses,SG&A Expense,Operating Expenses,Operating Income,Interest Expense,Earnings before Tax,Income Tax Expense,Net Income - Non-Controlling int,Net Income - Discontinued ops,Net Income,Preferred Dividends,Net Income Com,EPS,EPS Diluted,Weighted Average Shs Out,Weighted Average Shs Out (Dil),Dividend per Share,Gross Margin,EBITDA Margin,EBIT Margin,Profit Margin,Free Cash Flow margin,EBITDA,EBIT,Consolidated Income,Earnings Before Tax Margin,Net Profit Margin
2020-01-31,418034000.0,-0.141033675728,405549000.0,12485000.0,0.0,19258000.0,19258000.0,-1169000.0,0.0,-1169000.0,-12813000.0,0.0,0.0,7427000.0,0.0,7427000.0,1.18,1.18,6318000.0,6318000.0,0.0,0.0298659917614,0.0673198830717,-0.0027964232574400004,0.0177664974619,0.01570924853,28142000.0,-1169000.0,7427000.0,-0.0027964232574400004,0.0177664974619
2019-01-31,486671000.0,0.0753116534758,456456000.0,30215000.0,0.0,20551000.0,20551000.0,14588000.0,0.0,14588000.0,-22922000.0,0.0,0.0,31645000.0,0.0,31645000.0,4.91,4.91,6440000.0,6440000.0,0.0,0.0620850636261,0.08099105966860001,0.0299750755644,0.0650233936273,0.0763472654011,39416000.0,14588000.0,31645000.0,0.0299750755644,0.0650233936273
2018-01-31,452586000.0,-0.0026729895834899996,408425000.0,44161000.0,0.0,24060000.0,24060000.0,25393000.0,0.0,25393000.0,-19519000.0,0.0,0.0,39706000.0,0.0,39706000.0,6.02,6.02,6596000.0,6596000.0,0.0,0.097574825558,0.10352728542199999,0.056106463743900006,0.0877313924867,0.0374558647417,46855000.0,25393000.0,39706000.0,0.056106463743900006,0.0877313924867
2017-01-31,453799000.0,0.039659738641199996,382760000.0,71039000.0,0.0,21388000.0,21388000.0,56911000.0,0.0,56911000.0,17393000.0,0.0,0.0,32333000.0,0.0,32333000.0,4.91,4.91,6587000.0,6587000.0,0.0,0.156542874709,0.168422583567,0.125410148546,0.07124960610310001,0.120980874793,76430000.0,56911000.0,32333000.0,0.125410148546,0.07124960610310001
2016-01-31,436488000.0,-0.23721580483399998,385654000.0,50834000.0,0.0,19813000.0,19813000.0,51518000.0,0.0,51518000.0,14108000.0,0.0,0.0,31436000.0,0.0,31436000.0,4.31,4.3,7297000.0,7307000.0,0.0,0.11646139183700001,0.160730650098,0.118028445226,0.0720203075457,0.05657658400690001,70157000.0,51518000.0,31436000.0,0.118028445226,0.0720203075457
2015-01-31,572230000.0,-0.14091317853,430291000.0,141939000.0,0.0,19422000.0,19422000.0,152802000.0,2074000.0,152802000.0,49649000.0,0.0,0.0,87337000.0,0.0,87337000.0,10.77,10.76,8109000.0,8118000.0,0.0,0.24804536637400001,0.29636509795000004,0.267028991839,0.152625692466,0.22244377260899997,169589000.0,152802000.0,87337000.0,0.267028991839,0.152625692466
2014-01-31,666091000.0,0.012701125221799999,601940000.0,64151000.0,0.0,17846000.0,17846000.0,59770000.0,3902000.0,59770000.0,20695000.0,0.0,0.0,35073000.0,0.0,35073000.0,4.31,4.29,8137000.0,8180000.0,0.0,0.09630966339430001,0.115680890449,0.0897324839999,0.0526549675645,0.0914544709357,77054000.0,59770000.0,35073000.0,0.0897324839999,0.0526549675645
2013-01-31,657737000.0,0.60442442042,644201000.0,13536000.0,0.0,12545000.0,12545000.0,-3856000.0,4870000.0,-3856000.0,-1639000.0,0.0,0.0,-2295000.0,0.0,-2295000.0,-0.28,-0.28,8272000.0,8272000.0,0.0,0.0205796541779,0.019378566205,-0.00586252559914,-0.0034892365793600002,0.02031815148,12746000.0,-3856000.0,-2295000.0,-0.00586252559914,-0.0034892365793600002
2012-01-31,409952000.0,0.7404402555769999,376116000.0,33836000.0,0.0,10376000.0,10376000.0,47825000.0,3484000.0,47825000.0,15902000.0,0.0,0.0,28270000.0,0.0,28270000.0,3.1,3.08,9117000.0,9187000.0,0.0,0.08253649207710001,0.146141499493,0.116659999219,0.0689592927953,0.06721274685819999,59911000.0,47825000.0,28270000.0,0.116659999219,0.0689592927953
2011-01-31,235545000.0,0.387378737992,201990000.0,33555000.0,0.0,8810000.0,8810000.0,24745000.0,2935000.0,17427000.0,12358000.0,3673000.0,13545000.0,5069000.0,0.0,5069000.0,0.53,0.52,9489944.0,9651000.0,0.0,0.1425,0.163,0.0864,0.022000000000000002,0.1268,38305000.0,20362000.0,8742000.0,0.07400000000000001,0.0215
2010-01-31,169777000.0,1.4754,148895000.0,20882000.0,0.0,6161000.0,6161000.0,14721000.0,4724000.0,13237000.0,4585000.0,3900000.0,-2496000.0,8652000.0,0.0,8652000.0,0.93,0.91,9153853.0,9254000.0,0.0,0.12300000000000001,0.168,0.1058,0.051,-0.1173,28564000.0,17961000.0,12552000.0,0.078,0.051
