,0,1,2,3,4,5,6,7,8,9,10,11,12,13,14,15,16,17,18,19,20,21,22,23,24,25,26,27,28
Date,Cash and cash equivalents,Short-term investments,Cash and short-term investments,Receivables,Inventories,Total current assets,Property Plant & Equipment Net,Goodwill and Intangible Assets,Long-term investments,Tax assets,Total non-current assets,Total assets,Payables,Short-term debt,Total current liabilities,Long-term debt,Total debt,Deferred revenue,Tax Liabilities,Deposit Liabilities,Total non-current liabilities,Total liabilities,Other comprehensive income,Retained earnings (deficit),Total shareholders equity,Investments,Net Debt,Other Assets,Other Liabilities
2019-12-31,1935000000.0,22606000000.0,24541000000.0,362000000.0,0.0,24903000000.0,1960000000.0,4950000000.0,2516000000.0,461000000.0,101337000000.0,126240000000.0,0.0,2100000000.0,2137000000.0,7879000000.0,9979000000.0,0.0,37000000.0,97475000000.0,8207000000.0,109945000000.0,12624000000.0,3751000000.0,16295000000.0,25122000000.0,8044000000.0,0.0,99601000000.0
2018-12-31,3538000000.0,22729000000.0,26267000000.0,375000000.0,0.0,26642000000.0,2045000000.0,4944000000.0,1520000000.0,677000000.0,99046000000.0,125688000000.0,0.0,1600000000.0,1613000000.0,12424000000.0,14024000000.0,0.0,13000000.0,94491000000.0,13081000000.0,110598000000.0,13215000000.0,2828000000.0,15090000000.0,24249000000.0,10486000000.0,0.0,95904000000.0
2017-12-31,3981000000.0,23628000000.0,27609000000.0,337000000.0,0.0,27946000000.0,2064000000.0,5081000000.0,1899000000.0,655000000.0,96348000000.0,124294000000.0,0.0,500000000.0,527000000.0,8132000000.0,8632000000.0,0.0,27000000.0,96889000000.0,8624000000.0,108102000000.0,15301000000.0,1628000000.0,16192000000.0,25527000000.0,4651000000.0,0.0,98951000000.0
2016-12-31,5451000000.0,23781000000.0,29232000000.0,319000000.0,0.0,29551000000.0,2096000000.0,5125000000.0,3583000000.0,1044000000.0,96417000000.0,125968000000.0,0.0,0.0,31000000.0,7763000000.0,7763000000.0,0.0,31000000.0,99035000000.0,8499000000.0,109304000000.0,16535000000.0,666000000.0,16664000000.0,27364000000.0,2312000000.0,0.0,100774000000.0
2015-12-31,5314000000.0,22710000000.0,28024000000.0,319000000.0,0.0,28343000000.0,2152000000.0,5137000000.0,3932000000.0,990000000.0,97707000000.0,126050000000.0,0.0,10000000.0,48000000.0,8349000000.0,8359000000.0,0.0,38000000.0,98430000000.0,9085000000.0,109206000000.0,17326000000.0,-115000000.0,16844000000.0,26642000000.0,3045000000.0,0.0,100073000000.0
2014-12-31,4004000000.0,22580000000.0,26584000000.0,310000000.0,0.0,26894000000.0,2193000000.0,5091000000.0,2303000000.0,1083000000.0,92785000000.0,119679000000.0,0.0,2253000000.0,2303000000.0,3462000000.0,5715000000.0,0.0,50000000.0,94200000000.0,4178000000.0,102690000000.0,18274000000.0,-1061000000.0,16989000000.0,24883000000.0,1711000000.0,0.0,96209000000.0
2013-12-31,5273000000.0,21485000000.0,26758000000.0,0.0,0.0,26758000000.0,2216000000.0,5111000000.0,3612000000.0,1345000000.0,90638000000.0,117396000000.0,0.0,2182000000.0,2809000000.0,4830000000.0,7012000000.0,576000000.0,51000000.0,92453000000.0,5563000000.0,101628000000.0,18289000000.0,-2216000000.0,15768000000.0,25097000000.0,1739000000.0,0.0,93256000000.0
2012-12-31,5489000000.0,27244000000.0,32733000000.0,73995000000.0,0.0,106728000000.0,2279000000.0,5161000000.0,3510000000.0,1449000000.0,14619000000.0,121347000000.0,0.0,1574000000.0,2377000000.0,5861000000.0,7435000000.0,748000000.0,55000000.0,95474000000.0,6547000000.0,105848000000.0,18757000000.0,-3338000000.0,15499000000.0,30754000000.0,1946000000.0,0.0,96924000000.0
2011-12-31,7245000000.0,24471000000.0,31716000000.0,361000000.0,0.0,32077000000.0,2375000000.0,5265000000.0,4913000000.0,1917000000.0,94973000000.0,127050000000.0,0.0,3067000000.0,3976000000.0,8110000000.0,11177000000.0,870000000.0,39000000.0,95627000000.0,8741000000.0,110551000000.0,21082000000.0,-4527000000.0,16499000000.0,29384000000.0,3932000000.0,0.0,97834000000.0
2010-12-31,6919000000.0,23289000000.0,30208000000.0,421000000.0,0.0,30629000000.0,2569000000.0,5946000000.0,4880000000.0,2113000000.0,101722000000.0,132351000000.0,0.0,3937000000.0,5017000000.0,13190000000.0,17127000000.0,1042000000.0,38000000.0,94614000000.0,13916000000.0,115617000000.0,21028000000.0,-4047000000.0,16734000000.0,28169000000.0,10208000000.0,0.0,96684000000.0
2009-12-31,8011000000.0,,,0.0,0.0,,2668000000.0,6060000000.0,,0.0,,142318000000.0,0.0,,,,22132000000.0,0.0,0.0,98680000000.0,,124437000000.0,130000000.0,-3235000000.0,17881000000.0,117191000000.0,,,
