,0,1,2,3,4,5,6,7,8,9,10,11,12,13,14,15,16,17,18,19,20,21,22,23,24,25,26,27,28,29,30
Date,Revenue,Revenue Growth,Cost of Revenue,Gross Profit,R&D Expenses,SG&A Expense,Operating Expenses,Operating Income,Interest Expense,Earnings before Tax,Income Tax Expense,Net Income - Non-Controlling int,Net Income - Discontinued ops,Net Income,Preferred Dividends,Net Income Com,EPS,EPS Diluted,Weighted Average Shs Out,Weighted Average Shs Out (Dil),Dividend per Share,Gross Margin,EBITDA Margin,EBIT Margin,Profit Margin,Free Cash Flow margin,EBITDA,EBIT,Consolidated Income,Earnings Before Tax Margin,Net Profit Margin
2019-12-31,2923000000.0,-0.221778487753,2198000000.0,725000000.0,0.0,136000000.0,136000000.0,17000000.0,31000000.0,11000000.0,58000000.0,0.0,0.0,-47000000.0,0.0,-47000000.0,-0.51,-0.51,91400000.0,91400000.0,0.0,0.24803284296999997,0.0585015395142,0.0058159425248000005,-0.0160793705098,-0.00957919945262,171000000.0,17000000.0,-47000000.0,0.00376325692781,-0.0160793705098
2018-12-31,3756000000.0,0.069171648164,475000000.0,3281000000.0,0.0,165000000.0,165000000.0,379000000.0,47000000.0,387000000.0,152000000.0,0.0,0.0,235000000.0,0.0,235000000.0,2.57,2.52,91300000.0,93300000.0,0.0,0.873535676251,0.162673056443,0.10090521831700001,0.0625665601704,0.0745473908413,611000000.0,379000000.0,235000000.0,0.10303514377,0.0625665601704
2017-12-31,3513000000.0,-0.009026798307479999,2574000000.0,939000000.0,0.0,172000000.0,172000000.0,49000000.0,49000000.0,6000000.0,84000000.0,0.0,0.0,-84000000.0,0.0,-84000000.0,-0.93,-0.93,90500000.0,90500000.0,0.0,0.26729291204100003,0.0711642470823,0.0139481924281,-0.0239111870196,-0.00170794192997,250000000.0,49000000.0,-84000000.0,0.00170794192997,-0.0239111870196
2016-12-31,3545000000.0,-0.027434842249699998,2716000000.0,829000000.0,0.0,149000000.0,149000000.0,-26000000.0,38000000.0,-57000000.0,19000000.0,0.0,0.0,-81000000.0,0.0,-81000000.0,-0.9,-0.9,89900000.0,89900000.0,0.0,0.233850493653,0.0516220028209,-0.00733427362482,-0.0228490832158,-0.0473906911142,183000000.0,-26000000.0,-81000000.0,-0.0160789844852,-0.0228490832158
2015-12-31,3645000000.0,-0.143964302489,2826000000.0,819000000.0,0.0,160000000.0,160000000.0,-219000000.0,41000000.0,-256000000.0,-1000000.0,0.0,0.0,-257000000.0,0.0,-257000000.0,-2.78,-2.78,92400000.0,92400000.0,0.0,0.22469135802499998,0.004938271604939999,-0.06008230452669999,-0.07050754458160001,-0.0128943758573,18000000.0,-219000000.0,-257000000.0,-0.0702331961591,-0.07050754458160001
2014-12-31,4258000000.0,-0.0455054920421,3240000000.0,1018000000.0,0.0,155000000.0,155000000.0,-174000000.0,47000000.0,-304000000.0,-30000000.0,0.0,0.0,-277000000.0,0.0,-277000000.0,-2.93,-2.93,94600000.0,94600000.0,0.0422832980973,0.23907937999099999,0.016204790981700003,-0.040864255519,-0.0650540159699,-0.00164396430249,69000000.0,-174000000.0,-277000000.0,-0.0713950211367,-0.0650540159699
2013-12-31,4461000000.0,-0.0093271152565,3446000000.0,1015000000.0,0.0,166000000.0,166000000.0,-2000000.0,51000000.0,-115000000.0,524000000.0,0.0,0.0,-639000000.0,0.0,-639000000.0,-6.75,-6.75,94700000.0,94700000.0,0.021119324181599997,0.22752746021099998,0.054247926473900004,-0.00044832997085900004,-0.143241425689,0.0100874243443,242000000.0,-2000000.0,-639000000.0,-0.0257789733244,-0.143241425689
2012-12-31,4503000000.0,1.0,3492000000.0,1011000000.0,0.0,149000000.0,149000000.0,-30000000.0,66000000.0,-74000000.0,38000000.0,0.0,0.0,-2000000.0,0.0,-2000000.0,-0.02,-0.02,97400000.0,97400000.0,0.051334702258699995,0.22451698867400002,0.04508105707309999,-0.00666222518321,-0.000444148345547,0.021541194758999998,203000000.0,-30000000.0,-2000000.0,-0.016433488785299998,-0.000444148345547
2011-12-31,0.0,-1.0,0.0,0.0,0.0,0.0,0.0,0.0,0.0,0.0,0.0,0.0,0.0,0.0,0.0,0.0,0.0,0.0,0.0,0.0,0.0,0.0,0.0,0.0,0.0,0.0,0.0,0.0,0.0,0.0,0.0
2010-12-31,4746000000.0,0.0870361887311,4217000000.0,529000000.0,0.0,155000000.0,-1123000000.0,1652000000.0,483000000.0,1008000000.0,-1606000000.0,161000000.0,0.0,2614000000.0,0.0,2614000000.0,45.3,27.63,97134954.0,57700000.0,0.0,0.1115,0.418,0.3142,0.551,0.0114,1984000000.0,1491000000.0,2775000000.0,0.2124,0.5508
2009-12-31,4366000000.0,-0.3552,3945000000.0,421000000.0,0.0,198000000.0,1506000000.0,-1085000000.0,597000000.0,-1675000000.0,-122000000.0,-7000000.0,0.0,-1553000000.0,0.0,-1553000000.0,-26.91,-26.91,,57700000.0,0.0,0.0964,-0.109,-0.2469,-0.35600000000000004,0.0147,-476000000.0,-1078000000.0,-1560000000.0,-0.3836,-0.3557
