,0,1,2,3,4,5,6,7,8,9,10,11,12,13,14,15,16,17,18,19,20,21,22,23,24,25,26,27,28
Date,Cash and cash equivalents,Short-term investments,Cash and short-term investments,Receivables,Inventories,Total current assets,Property Plant & Equipment Net,Goodwill and Intangible Assets,Long-term investments,Tax assets,Total non-current assets,Total assets,Payables,Short-term debt,Total current liabilities,Long-term debt,Total debt,Deferred revenue,Tax Liabilities,Deposit Liabilities,Total non-current liabilities,Total liabilities,Other comprehensive income,Retained earnings (deficit),Total shareholders equity,Investments,Net Debt,Other Assets,Other Liabilities
2019-12-31,4400000.0,0.0,4400000.0,840000.0,0.0,5240000.0,54672000.0,4056000.0,317000.0,0.0,108518000.0,113758000.0,3699000.0,1750000.0,6378000.0,48415000.0,50165000.0,46000.0,883000.0,0.0,48415000.0,102015000.0,122727000.0,-112672000.0,11743000.0,317000.0,45765000.0,0.0,47222000.0
2018-12-31,2400000.0,0.0,2400000.0,971000.0,0.0,8075000.0,77237000.0,4576000.0,331000.0,0.0,92495000.0,100570000.0,4361000.0,26397000.0,36710000.0,48317000.0,74714000.0,138000.0,851000.0,0.0,51110000.0,94419000.0,122635000.0,-118172000.0,6151000.0,331000.0,72314000.0,0.0,6599000.0
2017-12-31,1818000.0,0.0,1818000.0,945000.0,0.0,4704000.0,81213000.0,4576000.0,3540000.0,0.0,101847000.0,106551000.0,4386000.0,1469000.0,19498000.0,644000.0,2113000.0,0.0,423000.0,0.0,4815000.0,88681000.0,104450000.0,-106277000.0,17870000.0,3540000.0,295000.0,0.0,64368000.0
2016-12-31,14045000.0,0.0,14045000.0,2429000.0,0.0,20469000.0,79168000.0,4576000.0,2274000.0,-62000000.0,99017000.0,119486000.0,3037000.0,9136000.0,25268000.0,0.0,9136000.0,0.0,557000.0,0.0,3903000.0,157433000.0,41671000.0,-99590000.0,-37947000.0,2274000.0,-4909000.0,0.0,128262000.0
2015-12-31,2720000.0,0.0,2720000.0,8805000.0,0.0,25157000.0,126676000.0,6654000.0,2264000.0,0.0,146828000.0,171985000.0,8741000.0,0.0,63784000.0,9200000.0,9200000.0,0.0,411000.0,0.0,12969000.0,195820000.0,41807000.0,-84793000.0,-23835000.0,2264000.0,6480000.0,0.0,119067000.0
2014-12-31,10735000.0,0.0,10735000.0,24294000.0,0.0,52422000.0,135585000.0,6695000.0,0.0,569000.0,157539000.0,209961000.0,16434000.0,5576000.0,65353000.0,0.0,5576000.0,0.0,1335000.0,0.0,2734000.0,204132000.0,42745000.0,-56067000.0,5829000.0,0.0,-5159000.0,0.0,136045000.0
2013-12-31,19374000.0,0.0,19374000.0,23598000.0,0.0,53601000.0,143368000.0,6695000.0,0.0,1686000.0,172827000.0,226428000.0,23783000.0,2738000.0,69235000.0,7500000.0,10238000.0,0.0,1543000.0,0.0,9280000.0,217942000.0,32354000.0,-39884000.0,8486000.0,0.0,-9136000.0,0.0,139427000.0
2012-12-31,15937000.0,0.0,15937000.0,26037000.0,0.0,50364000.0,151064000.0,7494000.0,0.0,1729000.0,184085000.0,234449000.0,19503000.0,1498000.0,56282000.0,12009000.0,13507000.0,0.0,1245000.0,0.0,14907000.0,218558000.0,26985000.0,-25753000.0,15891000.0,0.0,-2430000.0,0.0,147369000.0
2011-12-31,7363953.0,0.0,7363953.0,18782052.0,0.0,28738874.0,105143341.0,2095161.0,0.0,0.0,130365161.0,159104035.0,12074582.0,7342943.0,34105417.0,14613765.0,21956708.0,0.0,0.0,0.0,17137119.0,142769951.0,22854540.0,-18713125.0,16334084.0,0.0,14592755.0,0.0,91527415.0
2010-12-31,8058530.0,0.0,8058530.0,11215187.0,0.0,19261462.0,43660350.0,10945699.0,0.0,0.0,63697444.0,82958906.0,3411322.0,3445628.0,17158178.0,46976390.0,50422018.0,0.0,0.0,0.0,51190635.0,68348813.0,0.0,-12548870.0,14063000.0,0.0,42363488.0,-12255.0,10301228.0
2009-12-31,6286053.0,0.0,6286053.0,2054712.0,0.0,7677747.0,16445028.0,3868789.0,0.0,0.0,22501674.0,30179421.0,1039422.0,707935.0,4821414.0,16725472.0,17433407.0,0.0,0.0,0.0,17282199.0,22103613.0,0.0,-9805249.0,7766552.0,0.0,11147354.0,-663018.0,3074057.0
