,0,1,2,3,4,5,6,7,8,9,10,11,12,13,14,15,16,17,18,19,20,21,22,23,24,25,26,27,28,29,30
Date,Revenue,Revenue Growth,Cost of Revenue,Gross Profit,R&D Expenses,SG&A Expense,Operating Expenses,Operating Income,Interest Expense,Earnings before Tax,Income Tax Expense,Net Income - Non-Controlling int,Net Income - Discontinued ops,Net Income,Preferred Dividends,Net Income Com,EPS,EPS Diluted,Weighted Average Shs Out,Weighted Average Shs Out (Dil),Dividend per Share,Gross Margin,EBITDA Margin,EBIT Margin,Profit Margin,Free Cash Flow margin,EBITDA,EBIT,Consolidated Income,Earnings Before Tax Margin,Net Profit Margin
2017-10-31,12095000.0,0.2875,,10930000.0,,,,9999000.0,,9985000.0,,,,,,,2.66,2.66,3755000.0,,,0.9037,,,,,,,,0.8255,
2016-10-31,9394000.0,,,8357000.0,,,,9515000.0,,9515000.0,,,,,,,2.49,2.49,3816000.0,,,0.8896,,,,,,,,1.0129,
