,0,1,2,3,4,5,6,7,8,9,10,11,12,13,14,15,16,17,18,19,20,21,22,23,24,25,26,27,28,29,30
Date,Revenue,Revenue Growth,Cost of Revenue,Gross Profit,R&D Expenses,SG&A Expense,Operating Expenses,Operating Income,Interest Expense,Earnings before Tax,Income Tax Expense,Net Income - Non-Controlling int,Net Income - Discontinued ops,Net Income,Preferred Dividends,Net Income Com,EPS,EPS Diluted,Weighted Average Shs Out,Weighted Average Shs Out (Dil),Dividend per Share,Gross Margin,EBITDA Margin,EBIT Margin,Profit Margin,Free Cash Flow margin,EBITDA,EBIT,Consolidated Income,Earnings Before Tax Margin,Net Profit Margin
2019-12-31,1003591000.0,0.22669940828000001,413416000.0,590175000.0,0.0,12686000.0,69430000.0,232734000.0,0.0,232734000.0,41092000.0,0.0,0.0,191642000.0,0.0,191642000.0,4.28,4.23,44734000.0,45257000.0,1.89122124754,0.588063264816,0.240036030614,0.231901242638,0.190956276013,0.268996035237,240898000.0,232734000.0,191642000.0,0.231901242638,0.190956276013
2018-12-31,818123000.0,0.026214715061300003,428193000.0,389930000.0,0.0,9427000.0,53803000.0,67581000.0,0.0,67581000.0,3402000.0,0.0,0.0,64179000.0,0.0,64179000.0,1.45,1.43,44358000.0,44835000.0,1.85346269655,0.47661537446099994,0.0912124460503,0.0826049383772,0.0784466394417,0.257925764219,74623000.0,67581000.0,64179000.0,0.0826049383772,0.0784466394417
2017-12-31,797224000.0,-0.023402357875799997,401584000.0,395640000.0,0.0,11340000.0,56994000.0,84589000.0,0.0,84589000.0,-20439000.0,0.0,0.0,105028000.0,0.0,105028000.0,2.39,2.36,44033000.0,44500000.0,2.55759550562,0.496272064062,0.11481465685900001,0.10610443238,0.131742145244,0.236178288662,91533000.0,84589000.0,105028000.0,0.10610443238,0.131742145244
2016-12-31,816328000.0,0.0273006189013,349778000.0,466550000.0,0.0,10170000.0,53093000.0,157082000.0,0.0,157082000.0,42162000.0,0.0,0.0,114920000.0,0.0,114920000.0,2.63,2.59,43772000.0,44432000.0,2.75675189053,0.571522721259,0.200301839457,0.19242510363499998,0.14077674660199999,0.19392695093100001,163512000.0,157082000.0,114920000.0,0.19242510363499998,0.14077674660199999
2015-12-31,794634000.0,0.0251159430573,299045000.0,495589000.0,0.0,9837000.0,51480000.0,196682000.0,0.0,196682000.0,59138000.0,0.0,0.0,137544000.0,0.0,137544000.0,3.18,3.12,43299000.0,44131000.0,2.70959189685,0.6236695132600001,0.25431582338500003,0.247512691377,0.173091007936,0.179392021987,202088000.0,196682000.0,137544000.0,0.247512691377,0.173091007936
2014-12-31,775165000.0,0.0985882956515,296609000.0,478556000.0,0.0,10222000.0,54464000.0,189487000.0,0.0,189487000.0,54042000.0,0.0,0.0,135445000.0,0.0,135445000.0,3.15,3.09,43020.0,43819.0,3648.12067824,0.6173601749300001,0.25032605961300003,0.244447311218,0.17473054124,0.149599117607,194044000.0,189487000.0,135445000.0,0.244447311218,0.17473054124
2013-12-31,705601000.0,0.0678401389885,259801000.0,445800000.0,0.0,8746000.0,53557000.0,175666000.0,0.0,175666000.0,49411000.0,0.0,0.0,126255000.0,0.0,126255000.0,2.95,2.9,42744000.0,43514000.0,2.14039159811,0.631801825678,0.254295274525,0.248959397733,0.17893256954,0.155270471555,179431000.0,175666000.0,126255000.0,0.248959397733,0.17893256954
2012-12-31,660774000.0,1.0,0.0,0.0,0.0,7867000.0,44971000.0,142732000.0,0.0,142732000.0,39386000.0,0.0,0.0,103346000.0,0.0,103346000.0,4.87,4.79,21216000.0,21580000.0,6.16482854495,0.0,0.22076685825999998,0.216007288422,0.15640143226,0.026815522402499996,145877000.0,142732000.0,103346000.0,0.216007288422,0.15640143226
2012-01-31,0.0,-1.0,0.0,0.0,0.0,0.0,0.0,0.0,0.0,0.0,0.0,0.0,0.0,0.0,0.0,0.0,0.0,0.0,0.0,0.0,0.0,0.0,0.0,0.0,0.0,0.0,0.0,0.0,0.0,0.0,0.0
2011-12-31,619169000.0,0.0612676201185,200084000.0,419085000.0,0.0,235946000.0,235946000.0,183139000.0,6050000.0,183586000.0,56988000.0,0.0,0.0,126598000.0,0.0,126598000.0,3.0,2.95,42162800.0,42156000.0,3.095,0.6769,0.311,0.3063,0.204,0.1842,192813000.0,189636000.0,126598000.0,0.2965,0.2045
2010-12-31,583424000.0,0.067462931249,0.0,0.0,0.0,0.0,38584000.0,0.0,0.0,146013000.0,51058000.0,0.0,0.0,127432000.0,0.0,127432000.0,6.06,6.0,21020000.0,21241000.0,8.32361941528,0.0,0.00520547663449,0.0,0.218420908293,0.166935196358,3037000.0,0.0,127432000.0,0.25026910103100003,0.218420908293
2009-12-31,546552000.0,-0.0258,203388000.0,343164000.0,0.0,209729000.0,209729000.0,133435000.0,6050000.0,132437000.0,38592000.0,0.0,0.0,93845000.0,0.0,93845000.0,2.175,2.16,43257750.0,43124000.0,0.54,0.6279,0.259,0.2534,0.172,0.2322,141771000.0,138487000.0,93845000.0,0.2423,0.1717
