,0,1,2,3,4,5,6,7,8,9,10,11,12,13,14,15,16,17,18,19,20,21,22,23,24,25,26,27,28,29,30
Date,Revenue,Revenue Growth,Cost of Revenue,Gross Profit,R&D Expenses,SG&A Expense,Operating Expenses,Operating Income,Interest Expense,Earnings before Tax,Income Tax Expense,Net Income - Non-Controlling int,Net Income - Discontinued ops,Net Income,Preferred Dividends,Net Income Com,EPS,EPS Diluted,Weighted Average Shs Out,Weighted Average Shs Out (Dil),Dividend per Share,Gross Margin,EBITDA Margin,EBIT Margin,Profit Margin,Free Cash Flow margin,EBITDA,EBIT,Consolidated Income,Earnings Before Tax Margin,Net Profit Margin
2019-12-31,1566192000.0,-0.11073662407500001,957210000.0,608982000.0,0.0,45252000.0,1348044000.0,127301000.0,91295000.0,125628000.0,-3751000.0,0.0,0.0,127842000.0,25115000.0,127842000.0,0.59,0.59,171287086.0,171388476.0,1.3319857048000001,0.388829722026,0.217680846282,0.0812805837343,0.08162600753930001,0.25368856436500004,340930000.0,127301000.0,127842000.0,0.0802123877532,0.08162600753930001
2018-12-31,1761224000.0,0.29858780868900003,1077229000.0,683995000.0,0.0,49195000.0,1505181000.0,199019000.0,101643000.0,199655000.0,8793000.0,0.0,0.0,188643000.0,25115000.0,188643000.0,0.93,0.93,174225130.0,174316405.0,1.3262549787,0.388363433612,0.250441170459,0.113000390637,0.107109033263,0.224023179334,441083000.0,199019000.0,188643000.0,0.113361503136,0.107109033263
2017-12-31,1356261000.0,0.169195556877,113914000.0,1242347000.0,0.0,40453000.0,1175121000.0,181140000.0,78322000.0,108744000.0,42118000.0,0.0,0.0,74835000.0,8372000.0,74835000.0,0.47,0.47,140616838.0,140694049.0,1.2078833554600001,0.9160087918179999,0.272954836864,0.133558363766,0.055177432662300005,0.191980747069,370198000.0,181140000.0,74835000.0,0.0801792575323,0.055177432662300005
2016-12-31,1159995000.0,0.0208168329901,79589000.0,1080406000.0,0.0,31516000.0,939598000.0,220397000.0,58820000.0,163575000.0,8190000.0,0.0,0.0,200352000.0,0.0,200352000.0,1.61,1.61,123651003.0,123879007.0,1.32681076464,0.931388497364,0.33467902878899997,0.189998232751,0.172717985853,0.285415023341,388226000.0,220397000.0,200352000.0,0.141013538851,0.172717985853
2015-12-31,1136340000.0,0.0244708559435,81117000.0,1055223000.0,0.0,37810000.0,932425000.0,203915000.0,54788000.0,152288000.0,-39126000.0,0.0,0.0,218221000.0,0.0,218221000.0,1.69,1.68,128444469.0,128967754.0,1.31887231284,0.9286155552040001,0.321627329848,0.179448932538,0.19203847440000002,0.28887040850400003,365478000.0,203915000.0,218221000.0,0.134016227538,0.19203847440000002
2014-12-31,1109197000.0,0.1430542674,75468000.0,1033729000.0,0.0,41671000.0,917803000.0,191394000.0,56810000.0,137272000.0,1145000.0,0.0,0.0,135441000.0,0.0,135441000.0,1.06,1.05,127360669.0,128293843.0,0.975440419226,0.931961590231,0.307599100971,0.172551855081,0.122107254167,0.26937144619000003,341188000.0,191394000.0,135441000.0,0.123757997903,0.122107254167
2013-12-31,970380000.0,0.136003652519,67945000.0,902435000.0,0.0,35466000.0,805841000.0,164539000.0,64348000.0,107622000.0,879000.0,0.0,0.0,112921000.0,0.0,112921000.0,0.95,0.94,117950066.0,118738626.0,0.0,0.929981038356,0.307193058389,0.169561408933,0.116367814671,0.258868690616,298094000.0,164539000.0,112921000.0,0.110907067334,0.116367814671
2012-12-31,854205000.0,0.12550596085100002,60508000.0,793697000.0,0.0,31099000.0,728005000.0,126200000.0,84997000.0,42688000.0,1369000.0,0.0,0.0,41298000.0,0.0,41298000.0,0.38,0.38,105423604.0,105748686.0,0.650145194239,0.929164544811,0.303732710532,0.147739711193,0.0483467083428,0.205796032568,259450000.0,126200000.0,41298000.0,0.049973952388500005,0.0483467083428
2011-12-31,758952000.0,0.468941250247,56606000.0,702346000.0,0.0,24253000.0,675002000.0,83950000.0,96020000.0,-9387000.0,740000.0,0.0,0.0,11407000.0,0.0,11407000.0,0.12,0.12,95340666.0,95340666.0,0.032556936407400004,0.9254155730529999,0.29185771959199996,0.110613055898,0.015029936017,0.17656452582,221506000.0,83950000.0,11407000.0,-0.012368371122299998,0.015029936017
2010-12-31,516666000.0,0.133633636928,311827000.0,204839000.0,0.0,52042000.0,163327000.0,41512000.0,86735000.0,-21458000.0,945000.0,-213000.0,-19571000.0,-22403000.0,62000.0,-22465000.0,,,,,0.0,0.3965,0.321,0.1263,-0.043,-1.3705,166070000.0,65277000.0,-22616000.0,-0.0415,-0.0434
2009-12-31,455761000.0,,279399000.0,176362000.0,0.0,51399000.0,212993000.0,-36631000.0,87849000.0,-166197000.0,1801000.0,0.0,43290000.0,-167998000.0,62000.0,-168060000.0,,,,,0.0,0.387,0.045,-0.1719,-0.369,-0.3008,20536000.0,-78348000.0,-167998000.0,-0.3647,-0.3686
