,0,1,2,3,4,5,6,7,8,9,10,11,12,13,14,15,16,17,18,19,20,21,22,23,24,25,26,27,28,29,30
Date,Revenue,Revenue Growth,Cost of Revenue,Gross Profit,R&D Expenses,SG&A Expense,Operating Expenses,Operating Income,Interest Expense,Earnings before Tax,Income Tax Expense,Net Income - Non-Controlling int,Net Income - Discontinued ops,Net Income,Preferred Dividends,Net Income Com,EPS,EPS Diluted,Weighted Average Shs Out,Weighted Average Shs Out (Dil),Dividend per Share,Gross Margin,EBITDA Margin,EBIT Margin,Profit Margin,Free Cash Flow margin,EBITDA,EBIT,Consolidated Income,Earnings Before Tax Margin,Net Profit Margin
2017-12-31,86304000.0,0.0035348837209299997,49174000.0,37130000.0,0.0,19704000.0,36305000.0,825000.0,0.0,-4892000.0,1234000.0,0.0,0.0,-6126000.0,1155000.0,-6126000.0,-0.75,-0.75,9741000.0,9741000.0,0.0726824761318,0.43022339636600004,0.46202956989200006,0.00955923248053,-0.0709816462736,-0.125359195402,39875000.0,825000.0,-6126000.0,-0.0566833518725,-0.0709816462736
2017-12,86000000.0,0.07181136120039999,49000000.0,37000000.0,,33000000.0,36000000.0,1000000.0,0.0,-5000000.0,1000000.0,,,-6000000.0,,-6000000.0,-0.75,-0.75,10000000.0,10000000.0,,0.43023255813953004,0.058139534883721,-0.058139534883721,-0.069767441860465,,5000000.0,-5000000.0,-6000000.0,-0.058139534883721,-0.069767441860465
2016-12-31,80238000.0,0.002975,53847000.0,26391000.0,0.0,17841000.0,30096000.0,-3705000.0,0.0,-18442000.0,155000.0,0.0,0.0,-21874000.0,4301000.0,-21874000.0,-5.69,-5.69,4603000.0,4603000.0,0.0,0.32890899573800003,0.466998180413,-0.04617512899130001,-0.272613973429,-0.036292031207199996,37471000.0,-3705000.0,-21874000.0,-0.229841222363,-0.272613973429
2016-12,80000000.0,-0.359574757639,54000000.0,26000000.0,,27000000.0,30000000.0,-4000000.0,0.0,-18000000.0,0.0,,,-22000000.0,,-22000000.0,-5.69,-5.69,5000000.0,5000000.0,,0.325,0.0,-0.275,-0.275,,0.0,-22000000.0,-22000000.0,-0.225,-0.275
2015-12-31,124917000.0,-0.000664,91328000.0,33589000.0,0.0,19247000.0,80624000.0,-47035000.0,0.0,-54815000.0,165000.0,0.0,0.0,-57606000.0,2626000.0,-57606000.0,-4.52,-4.52,12753000.0,12753000.0,0.0,0.268890543321,0.108431998847,-0.37653001593099994,-0.46115420639300003,-0.0878263166743,13545000.0,-47035000.0,-57606000.0,-0.43881137075000004,-0.46115420639300003
2015-12,125000000.0,-0.0942028985507,91000000.0,34000000.0,,44000000.0,50000000.0,-17000000.0,0.0,-55000000.0,0.0,,,-55000000.0,,-55000000.0,-13.56,-13.56,4000000.0,4000000.0,,0.272,-0.08800000000000001,-0.44,-0.44,,-11000000.0,-55000000.0,-55000000.0,-0.44,-0.44
2014-12,138000000.0,-0.163636363636,101000000.0,36000000.0,,44000000.0,50000000.0,-14000000.0,9000000.0,-21000000.0,0.0,,,-21000000.0,,-21000000.0,-5.07,-5.07,4000000.0,4000000.0,,0.26086956521739,-0.043478260869565,-0.08695652173913,-0.15217391304348002,,-6000000.0,-12000000.0,-21000000.0,-0.15217391304348002,-0.15217391304348002
2013-12,165000000.0,-0.259252608329,133000000.0,32000000.0,,50000000.0,56000000.0,-24000000.0,8000000.0,-29000000.0,2000000.0,,,-31000000.0,,-31000000.0,-6.9,-6.9,5000000.0,5000000.0,,0.19393939393939,-0.08484848484848499,-0.12727272727273,-0.18787878787879,,-14000000.0,-21000000.0,-31000000.0,-0.17575757575758,-0.18787878787879
2012-12-31,222748000.0,0.0,0.0,0.0,0.0,0.0,0.0,0.0,0.0,0.0,0.0,0.0,0.0,0.0,0.0,0.0,-1.55,-1.55,38.0,38.0,0.0,0.0,0.0,0.0,0.0,0.0,0.0,0.0,0.0,0.0,0.0
