,0,1,2,3,4,5,6,7,8,9,10,11,12,13,14
Date,Depreciation & Amortization,Stock-based compensation,Operating Cash Flow,Capital Expenditure,Acquisitions and disposals,Investment purchases and sales,Investing Cash flow,Issuance (repayment) of debt,Issuance (buybacks) of shares,Dividend payments,Financing Cash Flow,Effect of forex changes on cash,Net cash flow / Change in cash,Free Cash Flow,Net Cash/Marketcap
2017-12-31,39050000.0,5000000.0,-8886000.0,1933000.0,-0.0,0.0,-1465000.0,-8618000.0,-6200000.0,-708000.0,8732000.0,468000.0,-1619000.0,-10819000.0,0.0
2017-12,4000000.0,2000000.0,-9000000.0,-2000000.0,,0.0,-2000000.0,-9000000.0,,,9000000.0,0.0,-2000000.0,-11000000.0,
2016-12-31,41176000.0,1000000.0,-1484000.0,1428000.0,-0.0,0.0,-1674000.0,-56938000.0,-7800000.0,-0.0,6462000.0,-246000.0,3304000.0,-2912000.0,0.0
2016-12,4000000.0,1000000.0,-1000000.0,-1000000.0,,0.0,-1000000.0,-57000000.0,,,6000000.0,-0.0,3000000.0,-3000000.0,
2015-12-31,60580000.0,310000.0,-9160000.0,1811000.0,-0.0,0.0,-1790000.0,-12449000.0,-4530000.0,-0.0,8818000.0,21000.0,-2132000.0,-10971000.0,0.0
2015-12,6000000.0,0.0,-9000000.0,-2000000.0,,0.0,-2000000.0,-12000000.0,,,9000000.0,0.0,-2000000.0,-11000000.0,
2014-12,6000000.0,1000000.0,-2000000.0,-2000000.0,,0.0,2000000.0,-75000000.0,,,-1000000.0,-0.0,-1000000.0,-3000000.0,
2013-12,6000000.0,1000000.0,7000000.0,-1000000.0,,0.0,3000000.0,-18000000.0,,,-6000000.0,-1000000.0,3000000.0,6000000.0,
2012-12-31,0.0,0.0,0.0,0.0,-0.0,0.0,0.0,-0.0,0.0,-0.0,0.0,0.0,0.0,0.0,0.0
