,0,1,2,3,4,5,6,7,8,9,10,11,12,13,14,15,16,17,18,19,20,21,22,23,24,25,26,27,28,29,30
Date,Revenue,Revenue Growth,Cost of Revenue,Gross Profit,R&D Expenses,SG&A Expense,Operating Expenses,Operating Income,Interest Expense,Earnings before Tax,Income Tax Expense,Net Income - Non-Controlling int,Net Income - Discontinued ops,Net Income,Preferred Dividends,Net Income Com,EPS,EPS Diluted,Weighted Average Shs Out,Weighted Average Shs Out (Dil),Dividend per Share,Gross Margin,EBITDA Margin,EBIT Margin,Profit Margin,Free Cash Flow margin,EBITDA,EBIT,Consolidated Income,Earnings Before Tax Margin,Net Profit Margin
2019-06-30,0.0,0.0,0.0,0.0,7024747.0,5703173.0,12727920.0,-12727920.0,761038.0,-17318060.0,0.0,0.0,0.0,-17318060.0,0.0,-17318060.0,-2.74,-2.74,8314247.0,6311769.0,0.0,0.0,,0.0,,0.0,-16552152.0,-16557022.0,-17318060.0,0.0,0.0
2018-06-30,0.0,0.0,0.0,0.0,2942625.0,3974850.0,6917475.0,-6917475.0,1336826.0,-8960852.0,0.0,0.0,0.0,-8960852.0,0.0,-8960852.0,-2.86,-2.86,3137218.0,3136336.0,0.0,0.0,,0.0,,0.0,-7621399.0,-7624026.0,-8960852.0,0.0,0.0
2017-06-30,0.0,0.0,0.0,0.0,1293498.0,5925335.0,7218833.0,-7218833.0,550.0,-6286521.0,0.0,0.0,0.0,-6286521.0,0.0,-6286521.0,-2.08,-2.08,3009978.0,3018561.0,0.0,0.0,,0.0,,0.0,-6200700.0,-6285971.0,-6286521.0,0.0,0.0
2016-06-30,0.0,0.0,0.0,0.0,6206660.0,10008913.0,16215573.0,-16215573.0,1747.0,-2974691.0,0.0,0.0,0.0,-2974691.0,0.0,-2974691.0,-1.04,-1.04,3004791.0,2899738.0,0.0,0.0,,0.0,,0.0,-2918125.0,-2972944.0,-2974691.0,0.0,0.0
2015-06-30,0.0,,0.0,0.0,7872397.0,9226883.0,17099280.0,-17099280.0,0.0,-20803596.0,0.0,0.0,0.0,-20803596.0,0.0,-20803596.0,-8.36,-8.36,10778000.0,2485289.0,0.0,0.0,,0.0,,0.0,-20794340.0,-20803596.0,-20803596.0,0.0,0.0
