,0,1,2,3,4,5,6,7,8,9,10,11,12,13,14,15,16,17,18,19,20,21,22,23,24,25,26,27,28,29,30
Date,Revenue,Revenue Growth,Cost of Revenue,Gross Profit,R&D Expenses,SG&A Expense,Operating Expenses,Operating Income,Interest Expense,Earnings before Tax,Income Tax Expense,Net Income - Non-Controlling int,Net Income - Discontinued ops,Net Income,Preferred Dividends,Net Income Com,EPS,EPS Diluted,Weighted Average Shs Out,Weighted Average Shs Out (Dil),Dividend per Share,Gross Margin,EBITDA Margin,EBIT Margin,Profit Margin,Free Cash Flow margin,EBITDA,EBIT,Consolidated Income,Earnings Before Tax Margin,Net Profit Margin
2019-12-31,443657000.0,0.11886261900299999,0.0,0.0,0.0,250784000.0,258889000.0,215687000.0,98923000.0,215687000.0,48091000.0,0.0,0.0,167596000.0,0.0,167596000.0,2.89,2.88,58046716.0,58226686.0,0.8741867946940001,0.0,0.504606035744,0.48615709883999997,0.37776029680600004,0.289992043403,223872000.0,215687000.0,167596000.0,0.48615709883999997,0.37776029680600004
2018-12-31,396525000.0,0.17699178087099998,0.0,0.0,0.0,214294000.0,221473000.0,188647000.0,65329000.0,188647000.0,41727000.0,0.0,0.0,146920000.0,0.0,146920000.0,2.8,2.79,52492104.0,52626850.0,0.828740462331,0.0,0.484567177353,0.475750583191,0.37051888279399997,0.138821007503,192143000.0,188647000.0,146920000.0,0.475750583191,0.37051888279399997
2017-12-31,336897000.0,0.119292603433,0.0,0.0,0.0,184540000.0,191070000.0,159869000.0,37853000.0,159869000.0,67681000.0,0.0,0.0,92188000.0,0.0,92188000.0,1.97,1.96,46874502.0,47001516.0,0.732231700782,0.0,0.488876422171,0.47453375957599997,0.273638530471,0.559559746748,164701000.0,159869000.0,92188000.0,0.47453375957599997,0.273638530471
2016-12-31,300991000.0,0.247072813,0.0,0.0,0.0,172448000.0,179195000.0,135777000.0,28147000.0,135777000.0,44847000.0,0.0,0.0,90930000.0,0.0,90930000.0,2.18,2.17,41737636.0,41989455.0,0.7081301722059999,0.0,0.451787594978,0.451099866773,0.302102056208,0.499141170334,135984000.0,135777000.0,90930000.0,0.451099866773,0.302102056208
2015-12-31,241358000.0,0.191132562466,0.0,0.0,0.0,145111000.0,151180000.0,99764000.0,21665000.0,99764000.0,31750000.0,0.0,0.0,68014000.0,0.0,68014000.0,1.89,1.88,35971877.0,36227439.0,0.677856361859,0.0,0.438009098518,0.413344492414,0.281797164378,0.9424174877150001,105717000.0,99764000.0,68014000.0,0.413344492414,0.281797164378
2014-12-31,202629000.0,0.288980349998,0.0,0.0,0.0,115108000.0,120714000.0,85887000.0,23780000.0,85887000.0,26305000.0,0.0,0.0,59582000.0,0.0,59582000.0,1.89,1.88,31499498.0,31759647.0,0.6775264221289999,0.0,0.463857591954,0.423863316702,0.294044781349,0.505870334454,93991000.0,85887000.0,59582000.0,0.423863316702,0.294044781349
2013-12-31,157201000.0,-0.145293708271,0.0,0.0,0.0,98780000.0,101649000.0,33487000.0,23403000.0,0.0,12259000.0,0.0,0.0,33487000.0,0.0,33487000.0,1.23,1.22,27269613.0,27460757.0,0.7029303671420001,0.0,0.27088250074700004,0.21302027340799998,0.21302027340799998,0.923887252626,42583000.0,33487000.0,33487000.0,0.0,0.21302027340799998
2012-12-31,183924000.0,0.42491691006099996,0.0,183924000.0,0.0,113370000.0,149561000.0,34363000.0,0.0,33465000.0,6828000.0,0.0,0.0,26637000.0,0.0,26637000.0,1.06,1.06,25123651.0,25123651.0,0.68,1.0,0.22399999999999998,0.182,0.145,0.8723,41175000.0,33465000.0,26637000.0,0.182,0.1448
2011-12-31,129077000.0,-0.228160709908,0.0,0.0,0.0,66135000.0,67877000.0,34675000.0,41401000.0,34675000.0,9043000.0,0.0,0.0,25632000.0,0.0,25632000.0,1.02,1.02,0.0,0.0,0.0,0.0,0.30580971048300004,0.268638099739,0.198579142682,1.1372901446400001,39473000.0,34675000.0,25632000.0,0.268638099739,0.198579142682
2010-12-31,167233000.0,0.285083068222,0.0,167233000.0,0.0,84316000.0,117755000.0,49478000.0,0.0,46693000.0,15018000.0,0.0,0.0,31675000.0,0.0,31675000.0,1.39,1.38,25042100.0,25042100.0,0.68,1.0,0.336,0.2792,0.18899999999999997,0.5319,56196000.0,46693000.0,31675000.0,0.2792,0.1894
2009-12-31,130134000.0,-0.075,0.0,130134000.0,0.0,80924000.0,105753000.0,24381000.0,0.0,24381000.0,5863000.0,0.0,0.0,18518000.0,0.0,18518000.0,0.88,0.87,21078828.0,21078828.0,0.68,1.0,0.256,0.1874,0.142,0.3739,33280000.0,24381000.0,18518000.0,0.1874,0.1423
