,0,1,2,3,4,5,6,7,8,9,10,11,12,13,14,15,16,17,18,19,20,21,22,23,24,25,26,27,28
Date,Cash and cash equivalents,Short-term investments,Cash and short-term investments,Receivables,Inventories,Total current assets,Property Plant & Equipment Net,Goodwill and Intangible Assets,Long-term investments,Tax assets,Total non-current assets,Total assets,Payables,Short-term debt,Total current liabilities,Long-term debt,Total debt,Deferred revenue,Tax Liabilities,Deposit Liabilities,Total non-current liabilities,Total liabilities,Other comprehensive income,Retained earnings (deficit),Total shareholders equity,Investments,Net Debt,Other Assets,Other Liabilities
2019-03-31,517309.0,0.0,517309.0,16494234.0,44232340.0,66995265.0,724597.0,6261170.0,0.0,9552385.0,17985301.0,84980566.0,11375965.0,87678.0,18046580.0,211580.0,299258.0,0.0,41000.0,0.0,769517.0,72381430.0,157342730.0,-144227656.0,12599136.0,0.0,-218051.0,0.0,53565333.0
2018-03-31,376987.0,0.0,376987.0,13083487.0,34555553.0,51740786.0,839409.0,6465171.0,0.0,398000.0,8592574.0,60333360.0,7674858.0,176148.0,13133917.0,211580.0,387728.0,0.0,6000.0,0.0,703842.0,55912292.0,154731044.0,-149891272.0,4421068.0,0.0,10741.0,0.0,42074533.0
2017-03-31,611048.0,0.0,611048.0,11460432.0,29801080.0,45547483.0,909780.0,6883556.0,0.0,490000.0,8794661.0,54342144.0,7549942.0,2158318.0,14376968.0,211580.0,2369898.0,0.0,18000.0,0.0,770346.0,52355567.0,150889613.0,-148223822.0,1986577.0,0.0,1758850.0,0.0,37208253.0
2016-03-31,1430532.0,0.0,1430532.0,10410571.0,27233322.0,40689501.0,876255.0,7544528.0,0.0,18000.0,9584912.0,50274413.0,5652260.0,0.0,11342502.0,211580.0,211580.0,0.0,0.0,0.0,1415580.0,29874867.0,166866671.0,-145878079.0,20399546.0,0.0,-1218952.0,0.0,17116785.0
2015-03-31,1191603.0,0.0,1191603.0,10550990.0,21068241.0,34479390.0,665373.0,8179453.0,0.0,37000.0,9559550.0,44038940.0,5753617.0,31466.0,8819101.0,211580.0,243046.0,0.0,0.0,0.0,1581732.0,25487806.0,162626893.0,-143361711.0,18551134.0,0.0,-948557.0,0.0,15086973.0
2014-03-31,908501.0,0.0,908501.0,8858146.0,14650029.0,26581241.0,568395.0,8675114.0,0.0,473330.0,9940269.0,36521510.0,4483764.0,14693.0,7513398.0,211580.0,226273.0,0.0,0.0,0.0,1729884.0,18804019.0,157485965.0,-139561969.0,17717491.0,0.0,-682228.0,0.0,9560737.0
2013-03-31,439323.0,0.0,439323.0,7025358.0,13731962.0,22483703.0,516641.0,9296199.0,0.0,0.0,10633392.0,33117095.0,5301524.0,69761.0,8536131.0,211580.0,281341.0,0.0,0.0,0.0,1878036.0,21489527.0,142728555.0,-130270623.0,11627568.0,0.0,-157982.0,0.0,11075360.0
2012-03-31,484362.0,0.0,484362.0,6268432.0,10732698.0,18392463.0,620840.0,11545346.0,0.0,0.0,12962314.0,31354777.0,4771140.0,0.0,6798028.0,4061411.0,4061411.0,0.0,0.0,0.0,5876019.0,14030910.0,142121611.0,-124076608.0,17323867.0,0.0,3577049.0,0.0,1356863.0
2011-03-31,1515379.0,0.0,1515379.0,5852855.0,9869080.0,13327454.0,509554.0,12125345.0,155573.0,0.0,7873244.0,31105646.0,5179310.0,426175.0,6339036.0,5910484.0,6336659.0,0.0,0.0,0.0,7873244.0,14212280.0,-1633502.0,-118413246.0,16493393.0,155573.0,4821280.0,540878.0,733551.0
2010-03-31,1975107.0,0.0,1975107.0,5396211.0,9243801.0,14008601.0,482025.0,12663476.0,0.0,0.0,2544946.0,30889787.0,4502733.0,425435.0,5586102.0,434034.0,859469.0,0.0,0.0,0.0,2544946.0,8131048.0,-1768531.0,-112105964.0,22671505.0,0.0,-1115638.0,266067.0,657934.0
