,0,1,2,3,4,5,6,7,8,9,10,11,12,13,14,15,16,17,18,19,20,21,22,23,24,25,26,27,28
Date,Cash and cash equivalents,Short-term investments,Cash and short-term investments,Receivables,Inventories,Total current assets,Property Plant & Equipment Net,Goodwill and Intangible Assets,Long-term investments,Tax assets,Total non-current assets,Total assets,Payables,Short-term debt,Total current liabilities,Long-term debt,Total debt,Deferred revenue,Tax Liabilities,Deposit Liabilities,Total non-current liabilities,Total liabilities,Other comprehensive income,Retained earnings (deficit),Total shareholders equity,Investments,Net Debt,Other Assets,Other Liabilities
2019-12-31,197154000.0,0.0,197154000.0,143127000.0,0.0,635530000.0,163282000.0,1984745000.0,7400000.0,33812000.0,2334287000.0,2969817000.0,40092000.0,18750000.0,525344000.0,305188000.0,323938000.0,134148000.0,0.0,0.0,337714000.0,1796891000.0,1182873000.0,-7695000.0,1172926000.0,7400000.0,126784000.0,0.0,933833000.0
2018-12-31,228159000.0,0.0,228159000.0,123596000.0,0.0,540753000.0,153528000.0,1340497000.0,3000000.0,42602000.0,1557020000.0,2097773000.0,25312000.0,16133000.0,412232000.0,292843000.0,308976000.0,120704000.0,0.0,0.0,339837000.0,1034749000.0,1122213000.0,-58793000.0,1063024000.0,3000000.0,80817000.0,0.0,282680000.0
2017-12-31,69343000.0,0.0,69343000.0,124505000.0,0.0,308579000.0,148428000.0,1003389000.0,3000000.0,44887000.0,1207714000.0,1516293000.0,26733000.0,14116000.0,332907000.0,281199000.0,295315000.0,116622000.0,0.0,96057000.0,350320000.0,1014418000.0,576591000.0,-75046000.0,501875000.0,3000000.0,225972000.0,0.0,331191000.0
2016-12-31,104886000.0,0.0,104886000.0,92367000.0,0.0,297455000.0,130428000.0,334914000.0,3000000.0,15665000.0,490643000.0,788098000.0,21421000.0,5469000.0,250527000.0,0.0,5469000.0,89583000.0,0.0,83590000.0,76381000.0,403335000.0,503990000.0,-119260000.0,384763000.0,3000000.0,-99417000.0,0.0,76427000.0
2015-12-31,30911000.0,0.0,30911000.0,74192000.0,0.0,221943000.0,82198000.0,301377000.0,0.0,12051000.0,401258000.0,623201000.0,17448000.0,292000.0,215347000.0,40000000.0,40292000.0,84200000.0,0.0,85405000.0,106303000.0,296749000.0,447330000.0,-120415000.0,326452000.0,0.0,9381000.0,0.0,0.0
2014-12-31,26936000.0,0.0,26936000.0,64845000.0,0.0,197815000.0,72616000.0,293463000.0,0.0,2537000.0,373675000.0,571490000.0,14830000.0,575000.0,196709000.0,20000000.0,20575000.0,73485000.0,0.0,85489000.0,46001000.0,242710000.0,404266000.0,-75360000.0,328780000.0,0.0,-6361000.0,0.0,0.0
2013-12-31,34502000.0,0.0,34502000.0,66635000.0,0.0,183815000.0,54775000.0,261237000.0,0.0,3284000.0,319398000.0,503213000.0,11978000.0,562000.0,173095000.0,0.0,562000.0,66085000.0,1900000.0,71910000.0,15614000.0,188709000.0,379671000.0,-65086000.0,314504000.0,0.0,-33940000.0,0.0,0.0
2012-12-31,33804000.0,0.0,33804000.0,51937000.0,0.0,127484000.0,32487000.0,238665000.0,0.0,2000.0,274713000.0,402197000.0,9805000.0,8089000.0,124857000.0,10000000.0,18089000.0,60633000.0,0.0,35171000.0,22269000.0,147126000.0,340880000.0,-85778000.0,255071000.0,0.0,-15715000.0,0.0,0.0
2011-12-31,0.0,0.0,0.0,0.0,0.0,0.0,0.0,0.0,0.0,0.0,0.0,0.0,0.0,0.0,0.0,0.0,0.0,0.0,0.0,0.0,0.0,0.0,0.0,0.0,0.0,0.0,0.0,0.0,0.0
2010-12-31,133356000.0,0.0,133356000.0,29577000.0,0.0,170522000.0,24515000.0,128246000.0,0.0,18851000.0,172270000.0,342792000.0,4787000.0,10781000.0,93974000.0,55258000.0,66039000.0,55664000.0,0.0,15253000.0,76234000.0,170208000.0,-16000.0,-89730000.0,172584000.0,0.0,-67317000.0,7589000.0,78406000.0
2009-12-31,19313000.0,0.0,19313000.0,25841000.0,0.0,51003000.0,20749000.0,50257000.0,0.0,20913000.0,91110000.0,142113000.0,3705000.0,8412000.0,78050000.0,43449000.0,51861000.0,49428000.0,0.0,15127000.0,58707000.0,136757000.0,0.0,-89797000.0,-66476000.0,0.0,32548000.0,5849000.0,65933000.0
