,0,1,2,3,4,5,6,7,8,9,10,11,12,13,14,15,16,17,18,19,20,21,22,23,24,25,26,27,28,29,30
Date,Revenue,Revenue Growth,Cost of Revenue,Gross Profit,R&D Expenses,SG&A Expense,Operating Expenses,Operating Income,Interest Expense,Earnings before Tax,Income Tax Expense,Net Income - Non-Controlling int,Net Income - Discontinued ops,Net Income,Preferred Dividends,Net Income Com,EPS,EPS Diluted,Weighted Average Shs Out,Weighted Average Shs Out (Dil),Dividend per Share,Gross Margin,EBITDA Margin,EBIT Margin,Profit Margin,Free Cash Flow margin,EBITDA,EBIT,Consolidated Income,Earnings Before Tax Margin,Net Profit Margin
2018-12-31,482497000.0,-0.103397077707,74885000.0,407612000.0,0.0,42363000.0,42363000.0,77640000.0,73746000.0,0.0,0.0,0.0,0.0,77640000.0,0.0,77640000.0,0.35,0.35,217830000.0,218231000.0,0.665959464971,0.8447969624680001,0.532714193042,0.160912917593,0.160912917593,0.423138382208,257033000.0,77640000.0,77640000.0,0.0,0.160912917593
2017-12-31,538139000.0,-0.0771748953516,0.0,0.0,0.0,40724000.0,40724000.0,59235000.0,146092000.0,-86484000.0,0.0,0.0,0.0,251491000.0,13867000.0,251491000.0,1.03,1.03,230747000.0,230927000.0,0.708812741689,0.0,0.5031339486640001,0.11007379134400001,0.46733464773999994,0.459948080329,270756000.0,59235000.0,251491000.0,-0.16070940779200002,0.46733464773999994
2016-12-31,583143000.0,-0.0344675144049,0.0,0.0,0.0,44522000.0,44522000.0,126146000.0,109730000.0,37110000.0,0.0,0.0,0.0,166817000.0,9450000.0,166817000.0,0.66,0.66,236651000.0,236951000.0,0.703491439158,0.0,0.611097106542,0.216320868123,0.28606533903299997,0.452287003359,356357000.0,126146000.0,166817000.0,0.06363790699710001,0.28606533903299997
2015-12-31,603960000.0,0.005570965711750001,0.0,0.0,0.0,50657000.0,50657000.0,141070000.0,138938000.0,3832000.0,0.0,0.0,0.0,125096000.0,9450000.0,125096000.0,0.49,0.49,236380000.0,236382000.0,0.704423348648,0.0,0.597564408239,0.233575071197,0.207126299755,0.440116895159,360905000.0,141070000.0,125096000.0,0.00634479104576,0.207126299755
2014-12-31,600614000.0,0.08960257463860001,0.0,0.0,0.0,34229000.0,34229000.0,102645000.0,133835000.0,597000.0,0.0,0.0,0.0,43300000.0,9450000.0,43300000.0,0.14,0.14,236184000.0,236187000.0,0.703438377218,0.0,0.538677087114,0.170900112218,0.0720928916076,0.422923874568,323537000.0,102645000.0,43300000.0,0.000993982824243,0.0720928916076
2013-12-31,551223000.0,-0.027864830879900004,0.0,0.0,0.0,31533000.0,31533000.0,77521000.0,146805000.0,-42855000.0,189000.0,0.0,0.0,13626000.0,9450000.0,13626000.0,0.02,0.02,234134000.0,234134000.0,0.702123570263,0.0,0.577323515165,0.140634552622,0.0247195781018,0.434727868757,318234000.0,77521000.0,13626000.0,-0.0777453045319,0.0247195781018
2012-12-31,567023000.0,-0.0638287685142,0.0,0.0,0.0,26878000.0,30178000.0,142642000.0,179237000.0,-14235000.0,150000.0,0.0,0.0,-447000.0,263000.0,-447000.0,0.0,0.0,220464000.0,220464000.0,0.5823671892010001,0.0,0.656837553327,0.251562987745,-0.0007883278103360001,0.294670586555,372442000.0,142642000.0,-447000.0,-0.0251048017453,-0.0007883278103360001
2011-12-31,605683000.0,0.0169854944952,0.0,0.0,0.0,20605000.0,27772000.0,120829000.0,232400000.0,-103131000.0,0.0,0.0,0.0,-72609000.0,0.0,-72609000.0,-0.15,-0.15,481141000.0,481141000.0,0.149132998435,0.0,0.60375311838,0.19949214358,-0.11987954094799999,0.288281163579,365683000.0,120829000.0,-72609000.0,-0.170272238118,-0.11987954094799999
2010-12-31,595567000.0,-0.0817625092893,181942000.0,413625000.0,0.0,18119000.0,258121000.0,155504000.0,239469000.0,-95843000.0,0.0,1136000.0,-1581000.0,-95843000.0,0.0,-95843000.0,-0.5,-0.5,194538192.0,193497000.0,0.0,0.6945,0.6579999999999999,0.2412,-0.161,0.2511,391715000.0,143626000.0,-94707000.0,-0.1609,-0.1609
2009-12-31,648598000.0,-0.0829,212214000.0,436384000.0,0.0,21191000.0,282098000.0,154286000.0,228271000.0,-112335000.0,0.0,-3074000.0,7879000.0,-112335000.0,0.0,-112335000.0,-0.58,-0.58,,192124000.0,0.0,0.6728,0.5770000000000001,0.1787,-0.17300000000000001,0.3532,374528000.0,115936000.0,-115409000.0,-0.1732,-0.1732
