,0,1,2,3,4,5,6,7,8,9,10,11,12,13,14
Date,Depreciation & Amortization,Stock-based compensation,Operating Cash Flow,Capital Expenditure,Acquisitions and disposals,Investment purchases and sales,Investing Cash flow,Issuance (repayment) of debt,Issuance (buybacks) of shares,Dividend payments,Financing Cash Flow,Effect of forex changes on cash,Net cash flow / Change in cash,Free Cash Flow,Net Cash/Marketcap
2019-12-31,3699000.0,227000.0,26443000.0,3772000.0,-0.0,-19641000.0,-134819000.0,-11341000.0,0.0,-1326000.0,89762000.0,0.0,-18614000.0,22671000.0,0.0
2018-12-31,2041000.0,193000.0,24133000.0,-5432000.0,0.0,-42681000.0,-45856000.0,-182000.0,-4445000.0,-1009000.0,113962000.0,0.0,92239000.0,18701000.0,
2017-12-31,2042000.0,180000.0,20093000.0,-3487000.0,0.0,-143192000.0,-145899000.0,-233000.0,12101000.0,0.0,64964000.0,0.0,-60842000.0,16606000.0,
2016-12-31,,,,-576000.0,,,,,,,140890000.0,,28266000.0,,
