,0,1,2,3,4,5,6,7,8,9,10,11,12,13,14,15,16,17,18,19,20,21,22,23,24,25,26,27,28,29,30
Date,Revenue,Revenue Growth,Cost of Revenue,Gross Profit,R&D Expenses,SG&A Expense,Operating Expenses,Operating Income,Interest Expense,Earnings before Tax,Income Tax Expense,Net Income - Non-Controlling int,Net Income - Discontinued ops,Net Income,Preferred Dividends,Net Income Com,EPS,EPS Diluted,Weighted Average Shs Out,Weighted Average Shs Out (Dil),Dividend per Share,Gross Margin,EBITDA Margin,EBIT Margin,Profit Margin,Free Cash Flow margin,EBITDA,EBIT,Consolidated Income,Earnings Before Tax Margin,Net Profit Margin
2019-12-31,1856534000.0,0.104402657894,351043000.0,1505491000.0,0.0,416355000.0,416670000.0,186001000.0,156679000.0,-8471000.0,-1734000.0,0.0,0.0,-3351000.0,0.0,-3351000.0,-0.05,-0.05,69565000.0,69565000.0,0.401049378279,0.8109148553159999,0.227192176389,0.100187230614,-0.0018049763699500001,-0.0197340851285,421790000.0,186001000.0,-3351000.0,-0.00456280358992,-0.0018049763699500001
2018-12-31,1681030000.0,0.0404885814451,340212000.0,1340818000.0,0.0,390492000.0,766257000.0,372208000.0,143099000.0,243355000.0,23875000.0,0.0,0.0,157541000.0,0.0,157541000.0,2.28,1.77,69115000.0,116859000.0,0.23702068304499999,0.7976169372349999,0.336509758898,0.22141663146999999,0.0937169473478,-0.13877206236700002,565683000.0,372208000.0,157541000.0,0.144765411682,0.0937169473478
2017-12-31,1615616000.0,0.112356077104,211094000.0,1404522000.0,0.0,379246000.0,831150000.0,330399000.0,131442000.0,197794000.0,134755000.0,0.0,0.0,35152000.0,0.0,35152000.0,0.52,0.42,67397000.0,115930000.0,0.23272664538899998,0.869341477183,0.326190134289,0.204503421605,0.021757645381099998,0.025148921525900002,526998000.0,330399000.0,35152000.0,0.122426368642,0.021757645381099998
2016-12-31,1452427000.0,0.0741730670384,185177000.0,1267250000.0,0.0,325694000.0,720843000.0,309446000.0,140189000.0,163987000.0,8212000.0,0.0,0.0,91967000.0,0.0,91967000.0,1.03,1.03,34141000.0,34285000.0,0.310485635117,0.872505124182,0.336452021341,0.213054425455,0.063319533443,0.126568151102,488672000.0,309446000.0,91967000.0,0.11290550230799999,0.063319533443
2015-12-31,1352135000.0,0.0468552572901,556790000.0,795345000.0,0.0,327857000.0,497477000.0,297868000.0,144489000.0,137658000.0,0.0,5594000.0,166000.0,137658000.0,0.0,137658000.0,1.53,1.53,115854824.0,9888000.0,0.0,0.5882,0.311,0.2087,0.102,0.1623,420012000.0,282147000.0,143252000.0,0.1018,0.1018
2014-12-31,1291616000.0,0.0282445306523,544160000.0,747456000.0,0.0,320120000.0,489439000.0,258017000.0,151702000.0,100542000.0,0.0,-11955000.0,42548000.0,100542000.0,0.0,100542000.0,1.12,1.12,,9888000.0,0.0,0.5787,0.298,0.1953,0.078,0.1293,384287000.0,252244000.0,88587000.0,0.0778,0.0778
2013-12-31,1256137000.0,,544503000.0,711634000.0,0.0,327820000.0,484763000.0,226871000.0,165220000.0,-94998000.0,0.0,-9067000.0,24976000.0,-94998000.0,0.0,-94998000.0,-1.05,-1.05,,9888000.0,0.0,0.5665,0.163,0.0559,-0.076,0.1305,204275000.0,70222000.0,-104065000.0,-0.0756,-0.0756
