,0,1,2,3,4,5,6,7,8,9,10,11,12,13,14,15,16,17,18,19,20,21,22,23,24,25,26,27,28,29,30
Date,Revenue,Revenue Growth,Cost of Revenue,Gross Profit,R&D Expenses,SG&A Expense,Operating Expenses,Operating Income,Interest Expense,Earnings before Tax,Income Tax Expense,Net Income - Non-Controlling int,Net Income - Discontinued ops,Net Income,Preferred Dividends,Net Income Com,EPS,EPS Diluted,Weighted Average Shs Out,Weighted Average Shs Out (Dil),Dividend per Share,Gross Margin,EBITDA Margin,EBIT Margin,Profit Margin,Free Cash Flow margin,EBITDA,EBIT,Consolidated Income,Earnings Before Tax Margin,Net Profit Margin
2018-12-31,2216141000.0,0.059699965236800004,0.0,0.0,0.0,309753000.0,2274640000.0,-58499000.0,0.0,-175411000.0,-9814000.0,0.0,0.0,-165597000.0,0.0,-165597000.0,-4.3,-4.3,38552000.0,38552000.0,0.0,0.0,-0.00624148012243,-0.0263967861251,-0.0747231335912,-0.008980024285459999,-13832000.0,-58499000.0,-165597000.0,-0.0791515521801,-0.0747231335912
2017-12-31,2091291000.0,0.0285712177848,0.0,0.0,0.0,296925000.0,2127743000.0,-36452000.0,0.0,-116377000.0,-25191000.0,0.0,0.0,-91186000.0,0.0,-91186000.0,-2.37,-2.37,38405000.0,38405000.0,0.0,0.0,0.00886533724862,-0.0174303815203,-0.0436027315185,-0.028723405781400004,18540000.0,-36452000.0,-91186000.0,-0.055648400916,-0.0436027315185
2016-12-31,2033200000.0,0.020597681116900003,0.0,0.0,0.0,286134000.0,2436974000.0,-403774000.0,22827000.0,-426601000.0,-66281000.0,0.0,0.0,-360320000.0,0.0,-360320000.0,-9.4,-9.4,38318000.0,38318000.0,0.0,0.0,-0.17856285658100002,-0.19859039937,-0.177218178241,0.005817430651189999,-363054000.0,-403774000.0,-360320000.0,-0.209817529018,-0.177218178241
2015-12-31,1992166000.0,0.0637275631989,0.0,0.0,0.0,263254000.0,1929795000.0,62371000.0,19439000.0,42932000.0,17312000.0,0.0,0.0,25620000.0,0.0,25620000.0,0.67,0.65,38179000.0,39180000.0,0.0,0.0,0.048330309823599996,0.0313081339607,0.012860374085299999,0.00915084385538,96282000.0,62371000.0,25620000.0,0.021550412967599998,0.012860374085299999
2014-12-31,1872816000.0,0.375644368706,0.0,0.0,0.0,213079000.0,1777130000.0,95686000.0,13363000.0,82323000.0,30349000.0,0.0,0.0,51974000.0,0.0,51974000.0,1.37,1.32,37852000.0,39259000.0,0.0,0.0,0.0655862615441,0.05109204534780001,0.0277517919539,-0.0023211036215,122831000.0,95686000.0,51974000.0,0.043956800881699995,0.0277517919539
2013-12-31,1361410000.0,0.268369987907,0.0,0.0,0.0,151158000.0,1276047000.0,85363000.0,7883000.0,77480000.0,28484000.0,0.0,0.0,48996000.0,0.0,48996000.0,1.36,1.29,36133000.0,37913000.0,0.0,0.0,0.0762834120507,0.062701904643,0.0359891582991,0.00336195561954,103853000.0,85363000.0,48996000.0,0.0569115843133,0.0359891582991
2012-12-31,1073354000.0,1.0,0.0,0.0,0.0,119955000.0,1004404000.0,68950000.0,8030000.0,60920000.0,23390000.0,0.0,0.0,37530000.0,0.0,37530000.0,1.21,1.16,31040000.0,32425000.0,0.0,0.0,0.0745867626151,0.0642378935561,0.034965165267,0.0201079979205,80058000.0,68950000.0,37530000.0,0.0567566711448,0.034965165267
2011-12-31,0.0,-1.0,0.0,0.0,0.0,0.0,0.0,0.0,0.0,0.0,0.0,0.0,0.0,0.0,0.0,0.0,0.0,0.0,0.0,0.0,0.0,0.0,0.0,0.0,0.0,0.0,0.0,0.0,0.0,0.0,0.0
2010-12-31,632018000.0,0.30765411050999997,494045000.0,137973000.0,0.0,61853000.0,108204000.0,29769000.0,8154000.0,5699000.0,2108000.0,0.0,0.0,3591000.0,765000.0,2826000.0,2.75,2.75,1203968.0,1031160.0,0.0,0.2183,0.027999999999999997,0.0219,0.004,-0.0002,17670000.0,13853000.0,3591000.0,0.009000000000000001,0.0057
2009-12-31,483322000.0,-0.1459,378858000.0,104464000.0,0.0,52621000.0,90724000.0,13740000.0,13426000.0,314000.0,337000.0,0.0,0.0,-23000.0,1950000.0,-1973000.0,-2.75,-2.75,,706240.0,0.0,0.2161,0.036000000000000004,0.0284,-0.004,-0.0029,17421000.0,13740000.0,-23000.0,0.0006,0.0
