,0,1,2,3,4,5,6,7,8,9,10,11,12,13,14,15,16,17,18,19,20,21,22,23,24,25,26,27,28,29,30
Date,Revenue,Revenue Growth,Cost of Revenue,Gross Profit,R&D Expenses,SG&A Expense,Operating Expenses,Operating Income,Interest Expense,Earnings before Tax,Income Tax Expense,Net Income - Non-Controlling int,Net Income - Discontinued ops,Net Income,Preferred Dividends,Net Income Com,EPS,EPS Diluted,Weighted Average Shs Out,Weighted Average Shs Out (Dil),Dividend per Share,Gross Margin,EBITDA Margin,EBIT Margin,Profit Margin,Free Cash Flow margin,EBITDA,EBIT,Consolidated Income,Earnings Before Tax Margin,Net Profit Margin
2019-12-31,10973800000.0,-0.048610689670099995,7644400000.0,3329400000.0,0.0,2095400000.0,2095400000.0,1013500000.0,85000000.0,929300000.0,223200000.0,0.0,0.0,701500000.0,0.0,701500000.0,10.49,10.34,66885000.0,67855000.0,0.0,0.303395359857,0.112340301445,0.0923563396453,0.0639249849642,0.0965299167107,1232800000.0,1013500000.0,701500000.0,0.08468351892689999,0.0639249849642
2018-12-31,11534500000.0,0.18655488118500002,8253000000.0,3281500000.0,0.0,2091800000.0,2091800000.0,937500000.0,86200000.0,850600000.0,208800000.0,0.0,0.0,633700000.0,0.0,633700000.0,8.85,8.75,71621000.0,72441000.0,0.0,0.284494343058,0.0999349776757,0.08127790541419999,0.0549395292384,0.036819974857999996,1152700000.0,937500000.0,633700000.0,0.07374398543499999,0.0549395292384
2017-12-31,9721000000.0,0.128590335988,6933200000.0,2787800000.0,0.0,1902800000.0,1902800000.0,662400000.0,73900000.0,583800000.0,-37200000.0,0.0,0.0,613400000.0,0.0,613400000.0,8.42,8.34,72851021.0,73539424.0,0.0,0.28678119535,0.0906079621438,0.068141137743,0.0631005040634,0.024421355827599998,880800000.0,662400000.0,613400000.0,0.0600555498406,0.0631005040634
2016-12-31,8613400000.0,-0.0788300090904,6023100000.0,2590300000.0,0.0,1803300000.0,1803300000.0,512600000.0,84600000.0,429200000.0,120100000.0,0.0,0.0,304300000.0,0.0,304300000.0,4.21,4.16,72362513.0,73120918.0,0.0,0.300729096524,0.0852857176028,0.059511923282300004,0.03532867392669999,0.0547518982051,734600000.0,512600000.0,304300000.0,0.049829335686300005,0.03532867392669999
2015-12-31,9350500000.0,-0.10535229055800001,6803600000.0,2546900000.0,0.0,1728500000.0,1728500000.0,546600000.0,84300000.0,458700000.0,142500000.0,0.0,0.0,311500000.0,0.0,311500000.0,4.2,4.16,74096349.0,74902064.0,0.0,0.272381156088,0.0818245013636,0.058456767017800004,0.0333137265387,0.09120367894760001,765100000.0,546600000.0,311500000.0,0.0490562002032,0.0333137265387
2014-12-31,10451600000.0,0.133112166352,7830600000.0,2621000000.0,0.0,1789800000.0,1789800000.0,617400000.0,81900000.0,546300000.0,170000000.0,0.0,0.0,371500000.0,0.0,371500000.0,4.78,4.73,77682943.0,78615939.0,1.38267126721,0.250775000957,0.0795284932451,0.059072295151,0.035544796968900005,0.0158444640055,831200000.0,617400000.0,371500000.0,0.052269508974699994,0.035544796968900005
2013-12-31,9223800000.0,0.09256956042780001,6826200000.0,2397600000.0,0.0,1638400000.0,1638400000.0,551900000.0,77500000.0,478300000.0,153600000.0,0.0,0.0,321600000.0,0.0,321600000.0,4.19,4.14,76844912.0,77646192.0,1.2479684773200002,0.25993625186999997,0.0806934235348,0.0598343415946,0.03486632407469999,0.05044558641769999,744300000.0,551900000.0,321600000.0,0.0518549838461,0.03486632407469999
2012-12-31,8442300000.0,0.037813318253900004,6235400000.0,2206900000.0,0.0,1396200000.0,1396200000.0,659200000.0,58400000.0,609400000.0,201100000.0,0.0,0.0,403500000.0,0.0,403500000.0,5.36,5.33,75216955.0,75694212.0,0.7953051945370001,0.26140980538499997,0.096028333511,0.0780829868638,0.0477950321595,0.045947194484900006,810700000.0,659200000.0,403500000.0,0.07218412044110001,0.0477950321595
2011-12-31,8134700000.0,0.288605126572,6148700000.0,1986000000.0,0.0,1280100000.0,1280100000.0,572800000.0,59800000.0,511600000.0,162400000.0,0.0,0.0,349200000.0,0.0,349200000.0,0.0,0.0,74767988.0,75041753.0,0.47840033800899995,0.244139304461,0.0867764023258,0.07041439758069999,0.042927213050300006,0.009637724808540001,705900000.0,572800000.0,349200000.0,0.0628910715822,0.042927213050300006
2010-12-31,6312795000.0,0.18703954419799998,4727887000.0,1584908000.0,0.0,1103584000.0,1103584000.0,360721000.0,0.0,209647000.0,0.0,0.0,0.0,360721000.0,0.0,360721000.0,2.62,2.61,74230452.0,74472380.0,0.39869814822599997,0.251062801818,0.0571412504287,0.0571412504287,0.0571412504287,0.0,360721000.0,360721000.0,360721000.0,0.033209853955299996,0.0571412504287
2009-12-31,5318100000.0,-0.39,3918600000.0,1399500000.0,0.0,1030200000.0,1149100000.0,250400000.0,67500000.0,194500000.0,46300000.0,1000000.0,0.0,148200000.0,0.0,148200000.0,2.02,2.01,73549671.0,73445583.0,0.4,0.2632,0.07200000000000001,0.0493,0.027999999999999997,0.1644,380900000.0,262000000.0,149200000.0,0.0366,0.0279
