,0,1,2,3,4,5,6,7,8,9,10,11,12,13,14
Date,Depreciation & Amortization,Stock-based compensation,Operating Cash Flow,Capital Expenditure,Acquisitions and disposals,Investment purchases and sales,Investing Cash flow,Issuance (repayment) of debt,Issuance (buybacks) of shares,Dividend payments,Financing Cash Flow,Effect of forex changes on cash,Net cash flow / Change in cash,Free Cash Flow,Net Cash/Marketcap
2019-12-31,42336000.0,5208000.0,218193000.0,0.0,-0.0,0.0,-578369000.0,-0.0,-10633000.0,-14858000.0,362245000.0,0.0,2069000.0,218193000.0,0.0
2018-12-31,25134000.0,,173431000.0,-164876000.0,,,-164876000.0,,,,0.0,,8555000.0,,0.0035
2017-12-31,3486000.0,,8000.0,0.0,,,0.0,,,,0.0,,8000.0,,0.0035
2016-12-31,873000.0,,0.0,0.0,,,0.0,,,,0.0,,0.0,,0.0035
