,0,1,2,3,4,5,6,7,8,9,10,11,12,13,14,15,16,17,18,19,20,21,22,23,24,25,26,27,28
Date,Cash and cash equivalents,Short-term investments,Cash and short-term investments,Receivables,Inventories,Total current assets,Property Plant & Equipment Net,Goodwill and Intangible Assets,Long-term investments,Tax assets,Total non-current assets,Total assets,Payables,Short-term debt,Total current liabilities,Long-term debt,Total debt,Deferred revenue,Tax Liabilities,Deposit Liabilities,Total non-current liabilities,Total liabilities,Other comprehensive income,Retained earnings (deficit),Total shareholders equity,Investments,Net Debt,Other Assets,Other Liabilities
2019-12-31,10633000.0,50270000.0,10633000.0,9071000.0,14325000.0,85727000.0,958145000.0,8070000.0,0.0,0.0,1550666000.0,1636393000.0,147000.0,400000.0,77379000.0,424000000.0,424400000.0,0.0,189000.0,0.0,431827000.0,896856000.0,739933000.0,-198000.0,739537000.0,50270000.0,413767000.0,0.0,387650000.0
2018-12-31,8563000.0,,8563000.0,20123000.0,9200000.0,42095000.0,457944000.0,,93023000.0,,,604016000.0,100000.0,,63418000.0,0.0,,,,,,76891000.0,,527125000.0,527125000.0,,,4210000.0,
2017-12-31,8000.0,,8000.0,35899000.0,0.0,35907000.0,255323000.0,,0.0,,,299605000.0,1685000.0,,2143000.0,0.0,,,,,,6997000.0,,292608000.0,292608000.0,,,,
2016-12-31,0.0,,0.0,7886000.0,0.0,7886000.0,81448000.0,,0.0,,,95683000.0,0.0,,62000.0,0.0,,,,,,2954000.0,,92729000.0,92729000.0,,,,
