,0,1,2,3,4,5,6,7,8,9,10,11,12,13,14,15,16,17,18,19,20,21,22,23,24,25,26,27,28,29,30
Date,Revenue,Revenue Growth,Cost of Revenue,Gross Profit,R&D Expenses,SG&A Expense,Operating Expenses,Operating Income,Interest Expense,Earnings before Tax,Income Tax Expense,Net Income - Non-Controlling int,Net Income - Discontinued ops,Net Income,Preferred Dividends,Net Income Com,EPS,EPS Diluted,Weighted Average Shs Out,Weighted Average Shs Out (Dil),Dividend per Share,Gross Margin,EBITDA Margin,EBIT Margin,Profit Margin,Free Cash Flow margin,EBITDA,EBIT,Consolidated Income,Earnings Before Tax Margin,Net Profit Margin
2019-12-31,0.0,0.0,0.0,0.0,112419000.0,57182000.0,169601000.0,-169601000.0,2590000.0,0.0,0.0,0.0,0.0,-163458000.0,0.0,-163458000.0,-2.08,-2.08,78688878.0,78688878.0,0.0,0.0,0.0,0.0,0.0,0.0,-164286000.0,-169601000.0,-163458000.0,0.0,0.0
2018-12-31,0.0,0.0,0.0,0.0,51769000.0,39894000.0,91663000.0,-91663000.0,464000.0,0.0,0.0,0.0,0.0,-89195000.0,0.0,-89195000.0,-2.27,-2.27,39285468.0,39285468.0,0.0,0.0,0.0,0.0,0.0,0.0,-90071000.0,-91663000.0,-89195000.0,0.0,0.0
2017-12-31,0.0,0.0,0.0,0.0,21226000.0,22038000.0,43264000.0,-43264000.0,309000.0,-43847000.0,0.0,0.0,0.0,-43847000.0,656000.0,-44503000.0,-5.55,-5.55,77335000.0,8023785.0,0.0,0.0,,0.0,,0.0,-43091000.0,-43538000.0,-43847000.0,0.0,0.0
2016-12-31,0.0,,0.0,0.0,8403000.0,2449000.0,10852000.0,-10852000.0,149000.0,-11016000.0,0.0,0.0,0.0,-11016000.0,748000.0,-11764000.0,-1.63,-1.63,77335000.0,7200581.0,0.0,0.0,,0.0,,0.0,-10749000.0,-10867000.0,-11016000.0,0.0,0.0
