,0,1,2,3,4,5,6,7,8,9,10,11,12,13,14
Date,Depreciation & Amortization,Stock-based compensation,Operating Cash Flow,Capital Expenditure,Acquisitions and disposals,Investment purchases and sales,Investing Cash flow,Issuance (repayment) of debt,Issuance (buybacks) of shares,Dividend payments,Financing Cash Flow,Effect of forex changes on cash,Net cash flow / Change in cash,Free Cash Flow,Net Cash/Marketcap
2018-12-31,185122000.0,18059000.0,215364000.0,238260000.0,-0.0,-120558000.0,-227243000.0,-167106000.0,-120558000.0,-9332000.0,19064000.0,0.0,7185000.0,-22896000.0,0.0
2018-12,185000000.0,18000000.0,215000000.0,-238000000.0,,6000000.0,-227000000.0,,,,19000000.0,,7000000.0,-23000000.0,
2017-12-31,157951000.0,15606000.0,152737000.0,209917000.0,-0.0,-33800000.0,-206563000.0,-145038000.0,-33800000.0,-0.0,96341000.0,0.0,42515000.0,-57180000.0,0.0
2017-12,158000000.0,16000000.0,153000000.0,-210000000.0,,0.0,-207000000.0,,,,96000000.0,,43000000.0,-57000000.0,
2016-12-31,157627000.0,12875000.0,521170000.0,196965000.0,-0.0,-43514000.0,-189410000.0,-164940000.0,-43514000.0,-0.0,-314581000.0,0.0,17179000.0,324205000.0,0.0
2016-12,158000000.0,13000000.0,521000000.0,-197000000.0,,0.0,-189000000.0,,,,-315000000.0,,17000000.0,324000000.0,
2015-12-31,144935000.0,12384000.0,227250000.0,367790000.0,-0.0,-1464000.0,-436234000.0,-154685000.0,-1464000.0,-0.0,82368000.0,0.0,-126616000.0,-140540000.0,0.0
2015-12,145000000.0,12000000.0,227000000.0,-368000000.0,,0.0,-436000000.0,,,,82000000.0,,-127000000.0,-141000000.0,
2014-12-31,126452000.0,11343000.0,88937000.0,260820000.0,-0.0,-12253000.0,-416416000.0,-112828000.0,-12253000.0,-0.0,301637000.0,0.0,-25842000.0,-171883000.0,0.0
2014-12,126000000.0,11000000.0,89000000.0,-261000000.0,,0.0,-416000000.0,,,,302000000.0,,-26000000.0,-172000000.0,
2013-12-31,93486000.0,8645000.0,173488000.0,191584000.0,-0.0,-12873000.0,-269668000.0,-88048000.0,-12873000.0,-0.0,114712000.0,0.0,18532000.0,-18096000.0,0.0
2012-12-31,73289000.0,7332000.0,219336000.0,170951000.0,-0.0,0.0,-274297000.0,-73151000.0,-198773000.0,-0.0,45959000.0,0.0,-9002000.0,48385000.0,0.0
2011-12-31,0.0,0.0,0.0,0.0,-0.0,0.0,0.0,-0.0,0.0,-0.0,0.0,0.0,0.0,0.0,0.0
