,0,1,2,3,4,5,6,7,8,9,10,11,12,13,14,15,16,17,18,19,20,21,22,23,24,25,26,27,28,29,30
Date,Revenue,Revenue Growth,Cost of Revenue,Gross Profit,R&D Expenses,SG&A Expense,Operating Expenses,Operating Income,Interest Expense,Earnings before Tax,Income Tax Expense,Net Income - Non-Controlling int,Net Income - Discontinued ops,Net Income,Preferred Dividends,Net Income Com,EPS,EPS Diluted,Weighted Average Shs Out,Weighted Average Shs Out (Dil),Dividend per Share,Gross Margin,EBITDA Margin,EBIT Margin,Profit Margin,Free Cash Flow margin,EBITDA,EBIT,Consolidated Income,Earnings Before Tax Margin,Net Profit Margin
2019-12-31,5809847000.0,0.0551482967351,4784219000.0,1025628000.0,0.0,753749000.0,753749000.0,216405000.0,30487000.0,189523000.0,47940000.0,0.0,0.0,141583000.0,0.0,141583000.0,3.86,3.77,36659000.0,37571000.0,0.48753027601099996,0.176532703873,0.0674525508159,0.037247968836400004,0.0243694885597,0.0219935223768,391889000.0,216405000.0,141583000.0,0.0326209967319,0.0243694885597
2018-12-31,5506190000.0,0.16807972707000002,4527921000.0,978269000.0,0.0,705226000.0,705226000.0,202851000.0,21058000.0,183169000.0,44107000.0,0.0,0.0,139062000.0,0.0,139062000.0,3.55,3.45,39223000.0,40293000.0,0.231603504331,0.17766713462499997,0.0704612445266,0.0368405376494,0.025255575997200002,-0.00415822919296,387973000.0,202851000.0,139062000.0,0.033266015157499995,0.025255575997200002
2017-12-31,4713882000.0,0.118461144959,3883946000.0,829936000.0,0.0,631053000.0,631053000.0,148709000.0,13201000.0,136399000.0,-35730000.0,0.0,0.0,172129000.0,0.0,172129000.0,4.34,4.2,39627000.0,40980000.0,0.0,0.176062107622,0.0650546619538,0.0315470349067,0.0365153391621,-0.012130129689299999,306660000.0,148709000.0,172129000.0,0.0289355991516,0.0365153391621
2016-12-31,4214614000.0,-0.15364659109200002,3496602000.0,718012000.0,0.0,587778000.0,587778000.0,80728000.0,14900000.0,66449000.0,25867000.0,0.0,0.0,40582000.0,0.0,40582000.0,1.02,1.0,39938000.0,40603000.0,0.0,0.170362457867,0.056554408066800003,0.0191543045223,0.009628877045440002,0.0769240077502,238355000.0,80728000.0,40582000.0,0.0157663311516,0.009628877045440002
2015-12-31,4979733000.0,0.0533865018839,4194786000.0,784947000.0,0.0,619268000.0,619268000.0,121276000.0,13963000.0,107803000.0,41750000.0,0.0,0.0,66053000.0,0.0,66053000.0,1.64,1.61,40271000.0,41093000.0,0.0,0.15762833067600002,0.0534588902658,0.0243539161638,0.0132643657803,-0.0282223966626,266211000.0,121276000.0,66053000.0,0.021648349419499998,0.0132643657803
2014-12-31,4727356000.0,0.396681837856,3971310000.0,756046000.0,2000000.0,573670000.0,575670000.0,141741000.0,11437000.0,130543000.0,50586000.0,0.0,0.0,79957000.0,0.0,79957000.0,2.01,1.96,39783000.0,40894000.0,0.0,0.159929990464,0.056732135257,0.0299831449123,0.0169136828282,-0.0363592249029,268193000.0,141741000.0,79957000.0,0.0276143789467,0.0169136828282
2013-12-31,3384705000.0,0.0951728275103,2812691000.0,572014000.0,0.0,450340000.0,450340000.0,91754000.0,10734000.0,81061000.0,31844000.0,0.0,0.0,49217000.0,0.0,49217000.0,1.25,1.22,39405000.0,40506000.0,0.0,0.168999661714,0.05472855093719999,0.027108418606599998,0.0145410013576,-0.00534640389635,185240000.0,91754000.0,49217000.0,0.0239492067994,0.0145410013576
2012-12-31,3090567000.0,1.0,2589800000.0,500767000.0,0.0,361727000.0,361727000.0,114200000.0,13038000.0,101183000.0,38728000.0,0.0,0.0,62455000.0,0.0,62455000.0,1.62,1.57,38643189.0,39688443.0,0.0,0.162030785937,0.06066492006159999,0.0369511484462,0.0202082659913,0.015655703306200003,187489000.0,114200000.0,62455000.0,0.0327392999408,0.0202082659913
2011-12-31,0.0,-1.0,0.0,0.0,0.0,0.0,0.0,0.0,0.0,0.0,0.0,0.0,0.0,0.0,0.0,0.0,0.0,0.0,0.0,0.0,0.0,0.0,0.0,0.0,0.0,0.0,0.0,0.0,0.0,0.0,0.0
2010-12-31,1497927000.0,0.24780145495099998,1213037000.0,284890000.0,0.0,227467000.0,243223000.0,41667000.0,5363000.0,43019000.0,11737000.0,0.0,-6715000.0,31282000.0,0.0,31282000.0,0.84,0.82,37373632.0,37307000.0,0.0,0.1902,0.063,0.0323,0.021,0.0058,94302000.0,48382000.0,31282000.0,0.0287,0.0209
2009-12-31,1200453000.0,-0.23600000000000002,984812000.0,215641000.0,0.0,192296000.0,208024000.0,7617000.0,5695000.0,2711000.0,-3173000.0,0.0,-789000.0,5884000.0,0.0,5884000.0,0.16,0.16,37119056.0,37066000.0,0.0,0.1796,0.040999999999999995,0.006999999999999999,0.005,0.0835,49104000.0,8406000.0,5884000.0,0.0023,0.0049
