,0,1,2,3,4,5,6,7,8,9,10,11,12,13,14,15,16,17,18,19,20,21,22,23,24,25,26,27,28
Date,Cash and cash equivalents,Short-term investments,Cash and short-term investments,Receivables,Inventories,Total current assets,Property Plant & Equipment Net,Goodwill and Intangible Assets,Long-term investments,Tax assets,Total non-current assets,Total assets,Payables,Short-term debt,Total current liabilities,Long-term debt,Total debt,Deferred revenue,Tax Liabilities,Deposit Liabilities,Total non-current liabilities,Total liabilities,Other comprehensive income,Retained earnings (deficit),Total shareholders equity,Investments,Net Debt,Other Assets,Other Liabilities
2017-12-31,945000.0,0.0,945000.0,34972000.0,26164000.0,77674000.0,1603000.0,89880000.0,0.0,0.0,92560000.0,170234000.0,28833000.0,1796000.0,43329000.0,270000.0,2066000.0,0.0,0.0,0.0,689000.0,94371000.0,204944000.0,-129102000.0,75863000.0,0.0,1121000.0,0.0,50353000.0
2016-12-31,883000.0,10167000.0,883000.0,53347000.0,26678000.0,99438000.0,1474000.0,115883000.0,0.0,0.0,118061000.0,217499000.0,32409000.0,2360000.0,48137000.0,12066000.0,14426000.0,0.0,0.0,0.0,22575000.0,91786000.0,200887000.0,-75195000.0,125713000.0,10167000.0,13543000.0,0.0,21074000.0
2015-12-31,219000.0,4559000.0,219000.0,41132000.0,22135000.0,71875000.0,1247000.0,103862000.0,0.0,0.0,105760000.0,177635000.0,19908000.0,10360000.0,46024000.0,2426000.0,12786000.0,0.0,0.0,0.0,9753000.0,75532000.0,176616000.0,-74673000.0,102103000.0,4559000.0,12567000.0,0.0,19755000.0
2014-12-31,6033000.0,0.0,6033000.0,23779000.0,13673000.0,46642000.0,1211000.0,77775000.0,0.0,0.0,79900000.0,126542000.0,11573000.0,966000.0,27854000.0,2816000.0,3782000.0,0.0,0.0,1295000.0,10561000.0,49226000.0,149477000.0,-72291000.0,77316000.0,0.0,-2251000.0,0.0,10811000.0
2013-12-31,1757000.0,0.0,1757000.0,4353000.0,5423000.0,12276000.0,757000.0,38938000.0,0.0,0.0,39986000.0,52262000.0,6109000.0,860000.0,13618000.0,0.0,860000.0,960000.0,0.0,132000.0,193000.0,26781000.0,92510000.0,-67111000.0,25481000.0,0.0,-897000.0,0.0,12970000.0
2012-12-31,4434292.0,0.0,4434292.0,1306600.0,2576453.0,8708322.0,319504.0,23509469.0,0.0,0.0,23859364.0,32567686.0,2631164.0,3421592.0,11814062.0,0.0,3421592.0,29626.0,0.0,1397736.0,57642.0,11871704.0,70915734.0,-50289966.0,20695982.0,0.0,-1012700.0,0.0,0.0
2011-12-31,3014656.0,65749.0,3014656.0,564474.0,2977047.0,6648285.0,742977.0,4532889.0,0.0,0.0,5299723.0,11948008.0,1070916.0,74.0,1321826.0,2314854.0,2314928.0,0.0,0.0,0.0,2314854.0,3636680.0,50007362.0,-41712487.0,8311328.0,65749.0,-699728.0,0.0,0.0
2010-12-31,5308900.0,1110982.0,6419882.0,645254.0,3543526.0,10733915.0,1081485.0,5146299.0,0.0,0.0,6286294.0,17020209.0,1306149.0,0.0,1603128.0,2231588.0,2231588.0,25882.0,0.0,0.0,2257470.0,3860598.0,0.0,-36243417.0,13159611.0,1110982.0,-4188294.0,125253.0,296979.0
2009-12-31,15167496.0,0.0,15167496.0,1103569.0,2798738.0,22163292.0,1232743.0,5106992.0,0.0,0.0,7389752.0,29553044.0,2031297.0,0.0,2974732.0,5569970.0,5569970.0,113733.0,0.0,0.0,5690285.0,8665017.0,0.0,-28231947.0,20888027.0,0.0,-9597526.0,3093489.0,943435.0
