,0,1,2,3,4,5,6,7,8,9,10,11,12,13,14,15,16,17,18,19,20,21,22,23,24,25,26,27,28
Date,Cash and cash equivalents,Short-term investments,Cash and short-term investments,Receivables,Inventories,Total current assets,Property Plant & Equipment Net,Goodwill and Intangible Assets,Long-term investments,Tax assets,Total non-current assets,Total assets,Payables,Short-term debt,Total current liabilities,Long-term debt,Total debt,Deferred revenue,Tax Liabilities,Deposit Liabilities,Total non-current liabilities,Total liabilities,Other comprehensive income,Retained earnings (deficit),Total shareholders equity,Investments,Net Debt,Other Assets,Other Liabilities
2019-03-31,3630568181.8182,0.0,3630568181.8182,67613636.3636,3295454.5455,4322727272.7273,10260909090.9091,166363636.3636,0.0,49090909.0909,10734886363.6364,15057613636.3636,652045454.5455,351590909.0909,4655227272.7273,3789772727.2727,4141363636.3636,0.0,559318181.8182,0.0,4476363636.3636,9131590909.0909,0.0,4752159090.9091,5926022727.2727,0.0,-1156882334.4671,567522727.2727,3651590909.0909
2018-03-31,4504406364.7491,0.0,4504406364.7491,70501835.9853,4528763.7699,5127294981.6401,9942962056.3035,57282741.7381,0.0,0.0,10003427172.5826,15130722154.2228,305507955.9364,531946144.4308,4177356181.1506,4318727050.1836,4850673194.6144,0.0,527784577.7234,0.0,5483476132.1909,9660832313.3415,0.0,4991309669.5226,5469889840.8813,0.0,-2278794776.8375,581972596.856,3339902080.7834
2017-03-31,4451935483.870999,0.0,4451935483.870999,58387096.7742,3333333.3333,5060322580.6452,7756774193.5484,50322580.6452,0.0,0.0,7831827956.9892,12892150537.6344,316236559.1398,490215053.7634,3238494623.6559,4224301075.2688,4714516129.0323,0.0,511827956.9892,0.0,4897741935.4839,8136236559.1398,0.0,3716989247.3118,4755913978.4946,0.0,,,2432043010.7527
2016-03-31,4908833522.0838,0.0,4908833522.0838,74858437.1461,3737259.3431,5460362400.906,7091166477.9162,53001132.5028,0.0,0.0,7244394110.9853,12704756511.8913,261155152.8879,509513023.7826,3815968289.9207,4046545866.3647,4556058890.1472,0.0,460249150.6229,0.0,4815402038.5051,8631370328.4258,0.0,3585617214.0429997,4073386183.4655,0.0,,,3045300113.2502
2015-03-31,5190367965.368,0.0,5190367965.368,65043290.0433,2272727.2727,6214285714.2857,5921103896.1039,50649350.6494,401515151.5152,865800.8658,6973376623.3766,13187662337.6623,212662337.6623,432467532.4675,3621212121.2121,4363636363.6364,4796103896.1039,0.0,500324675.3247,0.0,5199458874.4589,8820670995.671,0.0,2928787878.7879,4366991341.9913,401515151.5152,,,2976082251.0823
2014-03-31,4459009628.6107,0.0,4459009628.6107,79917469.0509,3438789.5461,4737689133.425,6960522696.011,64374140.3026,358046767.5378,1513067.4003,7383493810.1788,12121182943.6039,206327372.7648,643603851.4443,3128610729.0234,3597936726.2724,4241540577.7166,0.0,507015130.674,0.0,4472902338.3769,7601513067.4003,0.0,3390784044.0165,4519669876.2036,358046767.5378,,,2278679504.8143
2013-03-31,4562820512.8205,0.0,4562820512.8205,71923076.9231,3461538.4615,4825128205.1282,6290128205.1282,60000000.0,283589743.5897,0.0,6640256410.2564,11465384615.3846,177307692.3077,512692307.6923,2450897435.8974,3972307692.3077,4485000000.0,0.0,444615384.6154,0.0,4818846153.8462,7269743589.7436,0.0,3100769230.7692,4195641025.641,283589743.5897,,,1760897435.8974
2012-03-31,4687466666.6667,0.0,4687466666.6667,68666666.6667,3733333.3333,5168000000.0,6566933333.3333,62400000.0,199600000.0,12400000.0,6833333333.3333,12001333333.3333,241600000.0,491200000.0,2420000000.0,4342400000.0,4833600000.0,0.0,425866666.6667,0.0,5172400000.0,7592400000.0,0.0,3200133333.3333,4408933333.3333,199600000.0,,,1687200000.0
2011-03-31,4171063829.7872,0.0,4171063829.7872,71773049.6454,3829787.2339999997,4932765957.4468,6998156028.3688,66382978.7234,161702127.6596,709219.8582,7260141843.9716,12192907801.4184,213900709.2199,477588652.4823,2605957446.8085,4698865248.227,5176453900.7092,0.0,379716312.0567,0.0,5397021276.5957,8002978723.4043,0.0,2790921985.8156,4189929078.0142,161702127.6596,,,1914468085.1063
2010-03-31,3801891891.8919,0.0,3801891891.8919,59864864.8649,3378378.3784,4139729729.7297,5830000000.0,63243243.2432,157027027.027,0.0,6081081081.0811,10220810810.8108,208108108.1081,358783783.7838,2094054054.0541,3636081081.0811,3994864864.8649,0.0,270945945.9459,0.0,4277297297.2973,6371351351.3514,0.0,2815540540.5405,3849459459.4595,157027027.027,,,1527162162.1622
