,0,1,2,3,4,5,6,7,8,9,10,11,12,13,14,15,16,17,18,19,20,21,22,23,24,25,26,27,28,29,30
Date,Revenue,Revenue Growth,Cost of Revenue,Gross Profit,R&D Expenses,SG&A Expense,Operating Expenses,Operating Income,Interest Expense,Earnings before Tax,Income Tax Expense,Net Income - Non-Controlling int,Net Income - Discontinued ops,Net Income,Preferred Dividends,Net Income Com,EPS,EPS Diluted,Weighted Average Shs Out,Weighted Average Shs Out (Dil),Dividend per Share,Gross Margin,EBITDA Margin,EBIT Margin,Profit Margin,Free Cash Flow margin,EBITDA,EBIT,Consolidated Income,Earnings Before Tax Margin,Net Profit Margin
2020-01-31,6379000000.0,0.369177935179,5673000000.0,706000000.0,7000000.0,288000000.0,295000000.0,370000000.0,90000000.0,286000000.0,57000000.0,0.0,0.0,226000000.0,0.0,226000000.0,3.87,3.83,58400000.0,59000000.0,1.47457627119,0.110675654491,0.07963630663110001,0.05800282175890001,0.0354287505879,0.0685060354288,508000000.0,370000000.0,226000000.0,0.04483461357580001,0.0354287505879
2019-02-01,4659000000.0,0.046026044005399995,4195000000.0,464000000.0,5000000.0,158000000.0,163000000.0,220000000.0,53000000.0,170000000.0,33000000.0,0.0,0.0,137000000.0,0.0,137000000.0,3.16,3.11,43400000.0,44100000.0,1.20181405896,0.09959218716460001,0.0577377119554,0.047220433569400005,0.0294054518137,0.0334835801674,269000000.0,220000000.0,137000000.0,0.0364885168491,0.0294054518137
2018-02-02,4454000000.0,0.000898876404494,4043000000.0,411000000.0,4000000.0,155000000.0,159000000.0,256000000.0,44000000.0,214000000.0,35000000.0,0.0,0.0,179000000.0,0.0,179000000.0,4.13,4.02,43300000.0,44500000.0,1.2134831460700002,0.09227660529860002,0.067804220925,0.0574764256848,0.04018859452180001,0.0487202514594,302000000.0,256000000.0,179000000.0,0.0480466995959,0.04018859452180001
2017-02-03,4450000000.0,0.031286210892199996,4003000000.0,447000000.0,4000000.0,166000000.0,170000000.0,271000000.0,52000000.0,220000000.0,72000000.0,0.0,0.0,148000000.0,0.0,148000000.0,3.33,3.22,44500000.0,45900000.0,1.17647058824,0.100449438202,0.07280898876400001,0.0608988764045,0.0332584269663,0.0608988764045,324000000.0,271000000.0,148000000.0,0.04943820224719999,0.0332584269663
2016-01-29,4315000000.0,0.110682110682,3904000000.0,411000000.0,4000000.0,158000000.0,162000000.0,227000000.0,44000000.0,183000000.0,66000000.0,0.0,0.0,117000000.0,0.0,117000000.0,2.55,2.47,45800000.0,47400000.0,1.16033755274,0.0952491309386,0.0669756662804,0.052607184241000006,0.027114716106599997,0.0477404403244,289000000.0,227000000.0,117000000.0,0.0424101969873,0.027114716106599997
2015-01-30,3885000000.0,-0.057267653482200004,3550000000.0,335000000.0,5000000.0,95000000.0,100000000.0,240000000.0,17000000.0,223000000.0,82000000.0,0.0,0.0,141000000.0,0.0,141000000.0,3.01,2.91,46900000.0,48500000.0,1.07216494845,0.0862290862291,0.0671814671815,0.0617760617761,0.0362934362934,0.06563706563709999,261000000.0,240000000.0,141000000.0,0.0574002574003,0.0362934362934
2014-01-31,4121000000.0,-0.1380464338,3788000000.0,333000000.0,4000000.0,92000000.0,96000000.0,183000000.0,7000000.0,176000000.0,63000000.0,0.0,0.0,113000000.0,0.0,113000000.0,2.33,2.27,48600000.0,49700000.0,5.93561368209,0.0808056297015,0.047561271536,0.0444066974035,0.027420528997800002,0.0405241446251,196000000.0,183000000.0,113000000.0,0.042708080563,0.027420528997800002
2013-01-31,4781000000.0,0.010141559264700001,4373000000.0,408000000.0,0.0,99000000.0,127000000.0,281000000.0,0.0,281000000.0,99000000.0,0.0,0.0,182000000.0,0.0,182000000.0,3.74,3.66,,,0.0,0.0853,0.061,0.0588,0.038,0.0571,294000000.0,281000000.0,182000000.0,0.0588,0.0381
2012-01-31,4733000000.0,,4307000000.0,426000000.0,0.0,127000000.0,127000000.0,299000000.0,0.0,298000000.0,116000000.0,0.0,0.0,182000000.0,0.0,182000000.0,3.74,3.66,,,0.0,0.09,0.066,0.063,0.038,0.0628,313000000.0,298000000.0,182000000.0,0.063,0.0385
