,0,1,2,3,4,5,6,7,8,9,10,11,12,13,14,15,16,17,18,19,20,21,22,23,24,25,26,27,28
Date,Cash and cash equivalents,Short-term investments,Cash and short-term investments,Receivables,Inventories,Total current assets,Property Plant & Equipment Net,Goodwill and Intangible Assets,Long-term investments,Tax assets,Total non-current assets,Total assets,Payables,Short-term debt,Total current liabilities,Long-term debt,Total debt,Deferred revenue,Tax Liabilities,Deposit Liabilities,Total non-current liabilities,Total liabilities,Other comprehensive income,Retained earnings (deficit),Total shareholders equity,Investments,Net Debt,Other Assets,Other Liabilities
2019-12-31,52832000.0,0.0,52832000.0,8958000.0,0.0,61790000.0,6015000.0,92961000.0,0.0,13190000.0,152459000.0,214249000.0,18527000.0,16200000.0,34727000.0,16200000.0,32400000.0,0.0,0.0,0.0,18367000.0,149213000.0,49295000.0,15648000.0,65036000.0,0.0,-20432000.0,0.0,96119000.0
2018-12-31,69283000.0,0.0,69283000.0,8022000.0,0.0,77305000.0,3436000.0,35061000.0,0.0,12206000.0,56058000.0,133363000.0,2947000.0,188000.0,3580000.0,0.0,188000.0,0.0,445000.0,0.0,926000.0,77316000.0,43632000.0,12330000.0,56047000.0,0.0,-69095000.0,0.0,72810000.0
2017-12-31,53822000.0,0.0,53822000.0,9436000.0,0.0,63258000.0,2453000.0,36746000.0,0.0,11838000.0,54102000.0,117360000.0,3506000.0,299000.0,4506000.0,740000.0,1039000.0,0.0,701000.0,0.0,1966000.0,68265000.0,41655000.0,7359000.0,49095000.0,0.0,-52783000.0,0.0,61793000.0
2016-12-31,37517000.0,0.0,37517000.0,6270000.0,0.0,43787000.0,2411000.0,38572000.0,0.0,20221000.0,68494000.0,112281000.0,4485000.0,95000.0,4580000.0,2486000.0,2581000.0,0.0,0.0,0.0,2614000.0,64976000.0,41308000.0,5916000.0,47305000.0,0.0,-34936000.0,0.0,57782000.0
2015-12-31,31562000.0,0.0,31562000.0,4502000.0,0.0,36064000.0,2425000.0,40013000.0,0.0,21498000.0,72147000.0,108211000.0,4031000.0,0.0,4031000.0,4514000.0,4514000.0,0.0,0.0,0.0,4622000.0,62376000.0,40997000.0,4758000.0,45835000.0,0.0,-27048000.0,0.0,53723000.0
2014-12-31,30820000.0,0.0,30820000.0,4534000.0,0.0,35354000.0,2354000.0,31175000.0,0.0,23000000.0,64342000.0,99696000.0,3291000.0,24000.0,3315000.0,4124000.0,4148000.0,0.0,0.0,0.0,4188000.0,57180000.0,39221000.0,3217000.0,42516000.0,0.0,-26672000.0,0.0,49677000.0
2013-12-31,27122000.0,103000.0,27225000.0,1973000.0,0.0,29198000.0,1913000.0,32620000.0,0.0,25022000.0,71529000.0,100727000.0,6587000.0,3000000.0,9587000.0,8303000.0,11303000.0,0.0,0.0,0.0,9456000.0,59505000.0,39048000.0,2099000.0,41222000.0,103000.0,-15819000.0,0.0,40462000.0
2012-12-31,13443000.0,,,5297000.0,0.0,,2061000.0,28254000.0,,0.0,,52454000.0,4513000.0,,,,-95000.0,0.0,565000.0,0.0,,14317000.0,0.0,0.0,-60470000.0,3000000.0,,,
2011-12-31,7354000.0,,,4281000.0,0.0,,2275000.0,28493000.0,,0.0,,45262000.0,4365000.0,,,,-1215000.0,0.0,375000.0,0.0,,15751000.0,0.0,,-55666000.0,2258000.0,,,
