,0,1,2,3,4,5,6,7,8,9,10,11,12,13,14,15,16,17,18,19,20,21,22,23,24,25,26,27,28,29,30
Date,Revenue,Revenue Growth,Cost of Revenue,Gross Profit,R&D Expenses,SG&A Expense,Operating Expenses,Operating Income,Interest Expense,Earnings before Tax,Income Tax Expense,Net Income - Non-Controlling int,Net Income - Discontinued ops,Net Income,Preferred Dividends,Net Income Com,EPS,EPS Diluted,Weighted Average Shs Out,Weighted Average Shs Out (Dil),Dividend per Share,Gross Margin,EBITDA Margin,EBIT Margin,Profit Margin,Free Cash Flow margin,EBITDA,EBIT,Consolidated Income,Earnings Before Tax Margin,Net Profit Margin
2018-12-31,,0.0,,,,,,16136000000.0,,,5757000000.0,,,,,9202000000.0,0.57,0.57,16224000000.0,,,,,,,,,,,,
2017-12-31,,0.0,,,,,,14072000000.0,,,4424000000.0,,,,,7540000000.0,0.49,0.48,16263000000.0,,,,,,,,,,,,
2017-12,,0.0,,,,,,,,,,,,6619000000.0,,6619000000.0,0.4,0.4,15394000000.0,15445000000.0,,,,,,,,6619000000.0,6619000000.0,,
2016-12-31,,0.0,,,,,,11640000000.0,,,3622000000.0,,,,,6848000000.0,0.46,0.46,15034000000.0,,,,,,,,,,,,
2016-12,,0.0,,,,,,,,,,,,6204000000.0,,6204000000.0,0.41,0.41,14416000000.0,14461000000.0,,,,,,,,6204000000.0,6204000000.0,,
2015-12-31,,0.0,,,,,,11088000000.0,,,2441000000.0,,,,,6276000000.0,0.43,0.43,14994000000.0,,,,,,,,,,,,
2015-12,,0.0,,,,,,,,,,,,5966000000.0,,5966000000.0,0.4,0.4,14114000000.0,14140000000.0,,,,,,,,5966000000.0,5966000000.0,,
2014-12,,0.0,,,,,,,,,,,,5816000000.0,,5816000000.0,0.48,0.48,11859000000.0,11889000000.0,,,,,,,,5816000000.0,5816000000.0,,
2013-12,,,,,,,,,,,,,,4370000000.0,,4370000000.0,0.4,0.4,10836000000.0,10888000000.0,,,,,,,,4370000000.0,4370000000.0,,
