,0,1,2,3,4,5,6,7,8,9,10,11,12,13,14,15,16,17,18,19,20,21,22,23,24,25,26,27,28
Date,Cash and cash equivalents,Short-term investments,Cash and short-term investments,Receivables,Inventories,Total current assets,Property Plant & Equipment Net,Goodwill and Intangible Assets,Long-term investments,Tax assets,Total non-current assets,Total assets,Payables,Short-term debt,Total current liabilities,Long-term debt,Total debt,Deferred revenue,Tax Liabilities,Deposit Liabilities,Total non-current liabilities,Total liabilities,Other comprehensive income,Retained earnings (deficit),Total shareholders equity,Investments,Net Debt,Other Assets,Other Liabilities
2018-12-31,5892000.0,13937000.0,19829000.0,6870000.0,0.0,26699000.0,501430000.0,0.0,46243000.0,9038000.0,562188000.0,588887000.0,4980000.0,0.0,5490000.0,0.0,0.0,0.0,510000.0,0.0,0.0,5490000.0,-102774000.0,-19263000.0,583397000.0,60180000.0,-19829000.0,0.0,510000.0
2017-12-31,12539000.0,18252000.0,30791000.0,7568000.0,0.0,38359000.0,545528000.0,0.0,60630000.0,13581000.0,622556000.0,660915000.0,6438000.0,0.0,9245000.0,0.0,0.0,0.0,2807000.0,0.0,0.0,9245000.0,-40734000.0,-25135000.0,651670000.0,78882000.0,,,2807000.0
2016-12-31,21434000.0,0.0,21434000.0,6663000.0,0.0,28097000.0,402785000.0,0.0,84650000.0,16934000.0,506785000.0,534882000.0,4289000.0,0.0,3288000.0,0.0,0.0,0.0,3288000.0,0.0,4289000.0,7577000.0,-34023000.0,-35672000.0,527305000.0,84650000.0,,,-1001000.0
2015-12-31,5346000.0,0.0,5346000.0,4893000.0,0.0,9222000.0,414363000.0,0.0,50401000.0,19650000.0,487651000.0,496873000.0,7443000.0,0.0,7443000.0,83500000.0,83500000.0,0.0,3279000.0,0.0,5892000.0,94222000.0,-51560000.0,-60926000.0,402651000.0,50401000.0,,,0.0
2014-12-31,90224000.0,0.0,90224000.0,4082000.0,0.0,92970000.0,261882000.0,0.0,45144000.0,27600000.0,338100000.0,431070000.0,3631000.0,0.0,3631000.0,0.0,0.0,0.0,5892000.0,0.0,6134000.0,9523000.0,-38385000.0,-17870000.0,421547000.0,45144000.0,,,0.0
2013-12-31,98936000.0,0.0,98936000.0,3491000.0,0.0,101561000.0,237940000.0,0.0,23291000.0,14414000.0,278142000.0,379703000.0,2306000.0,0.0,3433000.0,0.0,0.0,0.0,6134000.0,0.0,0.0,9567000.0,-11749000.0,-29385000.0,370136000.0,23291000.0,,,1127000.0
2012-12-31,127359000.0,19000000.0,146359000.0,381000.0,0.0,146740000.0,185000000.0,0.0,7542000.0,386000.0,194687000.0,341427000.0,1247000.0,0.0,5247000.0,0.0,0.0,0.0,0.0,0.0,,5247000.0,164000.0,27669000.0,336180000.0,26542000.0,,,4000000.0
