,0,1,2,3,4,5,6,7,8,9,10,11,12,13,14
Date,Depreciation & Amortization,Stock-based compensation,Operating Cash Flow,Capital Expenditure,Acquisitions and disposals,Investment purchases and sales,Investing Cash flow,Issuance (repayment) of debt,Issuance (buybacks) of shares,Dividend payments,Financing Cash Flow,Effect of forex changes on cash,Net cash flow / Change in cash,Free Cash Flow,Net Cash/Marketcap
2018-12-31,0.0,-1506944.4444,847027777.7778,-486027777.7778,34743055.5556,-79840277.7778,-537743055.5556,-284812500.0,0.0,-41666.6667,-284812500.0,9326388.8889,24472222.2222,361000000.0,
2017-12-31,0.0,-35046880.0517,221524409.958,-487188813.4497,-2068719689.6217,290316844.4876,-2274846427.4167,1121427416.7475,1086202715.8099,-45295829.2919,2166723246.0394,-24935337.8597,113401228.5807,-265664403.4918,
2016-12-31,0.0,-110548154.6189,320703210.3079,-294947950.7898,-386350731.6008,-735240.5911,-687471791.512,396432991.1917,0.0,-117340030.5744,396432991.1917,-11428987.4063,29664409.9876,25755259.5181,
2015-12-31,0.0,-2727860.3749,227233354.8804,-212003878.4745,0.0,1157078.2159,-215895281.1894,-1351001.9392,0.0,-42559793.148,-1351001.9392,0.0,9987071.7518,15229476.4059,
2014-12-31,0.0,-14431739.4317,351056826.0568,-279643104.6431,-53343728.3437,-33316008.316,-373250173.2502,-58324670.8247,0.0,-87075537.0755,-58324670.8247,0.0,-80518018.018,71413721.4137,
2013-12-31,0.0,-372386.1358,607314045.6412,-276386899.6467,563353.3849,0.0,-293277952.8311,-1845507495.4645,1646691492.4091,0.0,-199398453.1653,0.0,114637639.6448,330927145.9945,
2012-12-31,0.0,0.0,309322633.9391,-366025489.7333,0.0,0.0,-368893084.7298,-6183620.4862,0.0,0.0,51191881.0479,0.0,-8378569.7427,-56702855.7942,
