,0,1,2,3,4,5,6,7,8,9,10,11,12,13,14,15,16,17,18,19,20,21,22,23,24,25,26,27,28
Date,Cash and cash equivalents,Short-term investments,Cash and short-term investments,Receivables,Inventories,Total current assets,Property Plant & Equipment Net,Goodwill and Intangible Assets,Long-term investments,Tax assets,Total non-current assets,Total assets,Payables,Short-term debt,Total current liabilities,Long-term debt,Total debt,Deferred revenue,Tax Liabilities,Deposit Liabilities,Total non-current liabilities,Total liabilities,Other comprehensive income,Retained earnings (deficit),Total shareholders equity,Investments,Net Debt,Other Assets,Other Liabilities
2018-12-31,,,,,,,,,485000000.0,,,47365000000.0,,,,1603000000.0,,,,,,,,2731000000.0,,,,,
2018-12,,,,142000000.0,,,,0.0,,,,47365000000.0,,,,5228000000.0,5228000000.0,,,,,42958000000.0,-145000000.0,2731000000.0,4407000000.0,,5228000000.0,0.0,0.0
2017-12-31,,,,,,,,,432000000.0,,,43118000000.0,,,,1632000000.0,,,,,,,,2291000000.0,,,,,
2017-12,,,,117000000.0,,,,0.0,,,,43118000000.0,,,,4452000000.0,4452000000.0,,,,,39086000000.0,-69000000.0,2291000000.0,4032000000.0,,4452000000.0,0.0,0.0
2016-12-31,,,,,,,,,560000000.0,,,39048000000.0,,,,867000000.0,,,,,,,,1903000000.0,,,,,
2016-12,,,,103000000.0,,,,0.0,,,,39048000000.0,,,,2307000000.0,2307000000.0,,,,,35435000000.0,-55000000.0,1903000000.0,3612000000.0,,2307000000.0,0.0,0.0
2015-12-31,,,,,,,,,456000000.0,,,33451000000.0,,,,1201000000.0,,,,,,,,1507000000.0,,,,,
2015-12,,,,94000000.0,,,,0.0,,,,33451000000.0,,,,2720000000.0,2720000000.0,,,,,30559000000.0,-10000000.0,1507000000.0,2892000000.0,,2720000000.0,0.0,0.0
2014-12,,,,80000000.0,,,,0.0,,,,27319000000.0,,,,1335000000.0,1335000000.0,,,,,24822000000.0,13000000.0,1134000000.0,2496000000.0,,1335000000.0,0.0,0.0
