,0,1,2,3,4,5,6,7,8,9,10,11,12,13,14
Date,Depreciation & Amortization,Stock-based compensation,Operating Cash Flow,Capital Expenditure,Acquisitions and disposals,Investment purchases and sales,Investing Cash flow,Issuance (repayment) of debt,Issuance (buybacks) of shares,Dividend payments,Financing Cash Flow,Effect of forex changes on cash,Net cash flow / Change in cash,Free Cash Flow,Net Cash/Marketcap
2018-12-31,,,,-11487000.0,,,,,,,3619360000.0,,-18211000.0,,
2018-12,14000000.0,53000000.0,,,,-1572000000.0,-4289000000.0,,,,3619000000.0,,-18000000.0,,
2017-12-31,,,,-23066000.0,,,,,,,3591835000.0,,-203485000.0,,
2017-12,12000000.0,46000000.0,,,,-1836000000.0,-4342000000.0,,,,3647000000.0,,-203000000.0,,
2016-12-31,,,,-16623000.0,,,,,,,5104732000.0,,197405000.0,,
2016-12,10000000.0,42000000.0,,,,-1804000000.0,-5420000000.0,,,,5078000000.0,,197000000.0,,
2015-12-31,,,,-12209000.0,,,,,,,5651132000.0,,42468000.0,,
2015-12,9000000.0,35000000.0,,,,-1514000000.0,-6172000000.0,,,,5651000000.0,,42000000.0,,
2014-12,9000000.0,28000000.0,,,,-1620000000.0,-4816000000.0,,,,4550000000.0,,155000000.0,,
