,0,1,2,3,4,5,6,7,8,9,10,11,12,13,14,15,16,17,18,19,20,21,22,23,24,25,26,27,28,29,30
Date,Revenue,Revenue Growth,Cost of Revenue,Gross Profit,R&D Expenses,SG&A Expense,Operating Expenses,Operating Income,Interest Expense,Earnings before Tax,Income Tax Expense,Net Income - Non-Controlling int,Net Income - Discontinued ops,Net Income,Preferred Dividends,Net Income Com,EPS,EPS Diluted,Weighted Average Shs Out,Weighted Average Shs Out (Dil),Dividend per Share,Gross Margin,EBITDA Margin,EBIT Margin,Profit Margin,Free Cash Flow margin,EBITDA,EBIT,Consolidated Income,Earnings Before Tax Margin,Net Profit Margin
2018-09-30,,0.0,,-233471.0,,,5290099.0,-5078250.0,0.0,,,0.0,0.0,,0.0,,,,,2869374.0,0.0,,-22.893,,-23.785999999999998,,,-5078250.0,,,
2017-09-30,,0.0,,-306166.0,,,5452833.0,-5224546.0,0.0,,,0.0,0.0,,0.0,,,,,1462459.0,0.0,,-21.247,,-22.037,,,-5224546.0,,,
2016-09-30,,0.0,,143861.0,,,6180045.0,-4908356.0,0.0,,,0.0,0.0,,0.0,,,,,1260900.0,0.0,,-3.8289999999999997,,-3.952,,,-4908356.0,,,
2015-09-30,,0.0,,-81558.0,,,5097281.0,-4338592.0,0.0,,,0.0,0.0,,0.0,,,,,1136708.0,0.0,,-3.489,,-3.747,,,-4338592.0,,,
2014-08-31,,0.0,,-388127.0,,,5330389.0,-5718516.0,0.0,,,0.0,0.0,,0.0,,,,,1083237.0,0.0,,-22.18,,-22.679000000000002,,,-8412323.0,,,
2013-08-31,,0.0,,-58746.0,,,3789173.0,-3847919.0,0.0,,,0.0,0.0,,0.0,,,,,737313.0,0.0,,-26.345,,-26.575,,,-14494979.0,,,
2012-08-31,,0.0,,-249871.0,,,6296128.0,-6545999.0,0.0,,,0.0,0.0,,0.0,,,,,625367.0,0.0,,-18.935,,-19.329,,,-5528478.0,,,
2011-08-31,,,,-311896.0,,,4519650.0,-4831546.0,0.0,,,0.0,0.0,,0.0,,,,,544108.0,0.0,,-5.033,,-5.16,,,-3596479.0,,,
