,0,1,2,3,4,5,6,7,8,9,10,11,12,13,14,15,16,17,18,19,20,21,22,23,24,25,26,27,28,29,30
Date,Revenue,Revenue Growth,Cost of Revenue,Gross Profit,R&D Expenses,SG&A Expense,Operating Expenses,Operating Income,Interest Expense,Earnings before Tax,Income Tax Expense,Net Income - Non-Controlling int,Net Income - Discontinued ops,Net Income,Preferred Dividends,Net Income Com,EPS,EPS Diluted,Weighted Average Shs Out,Weighted Average Shs Out (Dil),Dividend per Share,Gross Margin,EBITDA Margin,EBIT Margin,Profit Margin,Free Cash Flow margin,EBITDA,EBIT,Consolidated Income,Earnings Before Tax Margin,Net Profit Margin
2019-12-31,288631000.0,0.12182940385399998,0.0,0.0,0.0,24851000.0,183328000.0,105303000.0,36561000.0,93074000.0,-21582000.0,0.0,0.0,114656000.0,0.0,114656000.0,9.76,9.74,11753000.0,11778000.0,0.0,0.0,0.697146183189,0.36483607097,0.397240767624,-0.275393149038,201218000.0,105303000.0,114656000.0,0.32246709466400003,0.397240767624
2018-12-31,257286000.0,0.313286713287,0.0,0.0,0.0,22570000.0,143909000.0,113377000.0,27666000.0,75543000.0,928000.0,0.0,0.0,74615000.0,0.0,74615000.0,6.4,6.34,11655000.0,11764000.0,0.0,0.0,0.70509860622,0.440665251899,0.290008006654,-0.563415809644,181412000.0,113377000.0,74615000.0,0.293614887713,0.290008006654
2017-12-31,195910000.0,1.0,0.0,0.0,0.0,30000000.0,128728000.0,67182000.0,15070000.0,70017000.0,-1954000.0,0.0,0.0,71971000.0,0.0,71971000.0,6.28,6.25,11453000.0,11514000.0,0.0,0.0,0.582486856209,0.34292277066,0.367367668828,-0.434607728038,114115000.0,67182000.0,71971000.0,0.357393701189,0.367367668828
2016-12-31,0.0,-1.0,0.0,0.0,0.0,0.0,0.0,0.0,0.0,0.0,0.0,0.0,0.0,0.0,0.0,0.0,0.0,0.0,0.0,0.0,0.0,0.0,0.0,0.0,0.0,0.0,0.0,0.0,0.0,0.0,0.0
2015-12-31,244721000.0,-0.554612198247,0.0,0.0,0.0,42611000.0,118371000.0,-1734514000.0,75870000.0,-1734514000.0,-80543000.0,0.0,0.0,-1653971000.0,0.0,-1653971000.0,-37.2,-37.2,44463000.0,44463000.0,0.0,0.0,-6.3623554987099995,-7.087720301889999,-6.75859856735,-0.398061465914,-1557002000.0,-1734514000.0,-1653971000.0,-7.087720301889999,-6.75859856735
2014-12-31,549456000.0,-0.0597962700269,0.0,0.0,0.0,39629000.0,138555000.0,-433470000.0,73207000.0,-433470000.0,-150043000.0,0.0,0.0,-283427000.0,0.0,-283427000.0,-6.47,-6.47,43795000.0,43795000.0,0.0,0.0,-0.30189860516600003,-0.788907574037,-0.5158320229460001,-0.145534856294,-165880000.0,-433470000.0,-283427000.0,-0.788907574037,-0.5158320229460001
2013-12-31,584401000.0,0.04864792119,0.0,0.0,0.0,45423000.0,151335000.0,198000.0,69382000.0,198000.0,2640000.0,0.0,0.0,-2442000.0,0.0,-2442000.0,-0.06,-0.06,43331000.0,43331000.0,0.0,0.0,0.43286544684199996,0.00033880845515300005,-0.0041786376135599995,-0.391719042233,252967000.0,198000.0,-2442000.0,0.00033880845515300005,-0.0041786376135599995
2012-12-31,557290000.0,0.0,0.0,0.0,0.0,46778000.0,167369000.0,36578000.0,57303000.0,36578000.0,15639000.0,0.0,0.0,20939000.0,0.0,20939000.0,0.48,0.48,42840000.0,42930000.0,0.0,0.0,0.509171167615,0.0656354860127,0.037572897414300005,-0.7951856304620001,283756000.0,36578000.0,20939000.0,0.0656354860127,0.037572897414300005
