,0,1,2,3,4,5,6,7,8,9,10,11,12,13,14,15,16,17,18,19,20,21,22,23,24,25,26,27,28,29,30
Date,Revenue,Revenue Growth,Cost of Revenue,Gross Profit,R&D Expenses,SG&A Expense,Operating Expenses,Operating Income,Interest Expense,Earnings before Tax,Income Tax Expense,Net Income - Non-Controlling int,Net Income - Discontinued ops,Net Income,Preferred Dividends,Net Income Com,EPS,EPS Diluted,Weighted Average Shs Out,Weighted Average Shs Out (Dil),Dividend per Share,Gross Margin,EBITDA Margin,EBIT Margin,Profit Margin,Free Cash Flow margin,EBITDA,EBIT,Consolidated Income,Earnings Before Tax Margin,Net Profit Margin
2018-12-31,0.0,0.0,0.0,0.0,19751000.0,8719000.0,28470000.0,-28470000.0,0.0,0.0,0.0,0.0,0.0,-22854000.0,0.0,-22854000.0,-1.59,-1.88,14372174.0,14618976.0,0.0,0.0,0.0,0.0,0.0,0.0,-28182000.0,-28470000.0,-22854000.0,0.0,0.0
2017-12-31,0.0,-1.0,0.0,0.0,13075000.0,8178000.0,21253000.0,-21253000.0,0.0,0.0,0.0,0.0,0.0,-27679000.0,0.0,-27679000.0,-2.48,-2.48,11153269.0,11153269.0,0.0,0.0,0.0,0.0,0.0,0.0,-21095000.0,-21253000.0,-27679000.0,0.0,0.0
2016-12-31,352000.0,-0.627906976744,0.0,0.0,14017000.0,5739000.0,19756000.0,-19404000.0,0.0,0.0,0.0,0.0,0.0,-17366000.0,0.0,-17366000.0,-2.39,-2.39,7256671.0,7256671.0,0.0,0.0,-54.7897727273,-55.125,-49.3352272727,-45.630681818199996,-19286000.0,-19404000.0,-17366000.0,0.0,-49.3352272727
2015-12-31,946000.0,0.28184281842799996,0.0,946000.0,7539000.0,5003000.0,12542000.0,-11596000.0,0.0,-11564000.0,0.0,0.0,0.0,-11564000.0,0.0,-11564000.0,-2.03,-2.03,7325091.0,5682799.0,0.0,1.0,,-12.2241,,-9.0909,-11476000.0,-11564000.0,-11564000.0,-12.2241,-12.2241
2014-12-31,738000.0,,0.0,738000.0,6132000.0,2412000.0,8544000.0,-7806000.0,1907000.0,-9712000.0,0.0,0.0,0.0,-9712000.0,0.0,-9712000.0,-3.11,-3.11,,3118344.0,0.0,1.0,,-10.5759,,-10.0705,-7763000.0,-7805000.0,-9712000.0,-13.1599,-13.1599
