,0,1,2,3,4,5,6,7,8,9,10,11,12,13,14,15,16,17,18,19,20,21,22,23,24,25,26,27,28,29,30
Date,Revenue,Revenue Growth,Cost of Revenue,Gross Profit,R&D Expenses,SG&A Expense,Operating Expenses,Operating Income,Interest Expense,Earnings before Tax,Income Tax Expense,Net Income - Non-Controlling int,Net Income - Discontinued ops,Net Income,Preferred Dividends,Net Income Com,EPS,EPS Diluted,Weighted Average Shs Out,Weighted Average Shs Out (Dil),Dividend per Share,Gross Margin,EBITDA Margin,EBIT Margin,Profit Margin,Free Cash Flow margin,EBITDA,EBIT,Consolidated Income,Earnings Before Tax Margin,Net Profit Margin
2019-12-31,169805000.0,-0.013128835782000001,0.0,0.0,0.0,73731000.0,73731000.0,87775000.0,70982000.0,87775000.0,13221000.0,0.0,0.0,74554000.0,0.0,74554000.0,2.21,2.2,33747000.0,33895000.0,1.25449181295,0.0,0.513665675333,0.516916463002,0.43905656488300004,0.381160743205,87223000.0,87775000.0,74554000.0,0.516916463002,0.43905656488300004
2018-12-31,172064000.0,0.195137875946,0.0,0.0,0.0,70643000.0,70643000.0,84301000.0,57101000.0,84301000.0,10163000.0,0.0,0.0,74138000.0,0.0,74138000.0,2.12,2.11,34951000.0,35116000.0,1.19543797699,0.0,0.505649060815,0.489939789846,0.43087455830399995,0.633241119583,87004000.0,84301000.0,74138000.0,0.489939789846,0.43087455830399995
2017-12-31,143970000.0,0.031562354458499996,0.0,0.0,0.0,60475000.0,60475000.0,70433000.0,43504000.0,70433000.0,16121000.0,0.0,0.0,54312000.0,0.0,54312000.0,1.82,1.81,29841000.0,30047000.0,1.0716211269,0.0,0.445537264708,0.48921997638400005,0.377245259429,0.5702368549,64144000.0,70433000.0,54312000.0,0.48921997638400005,0.377245259429
2016-12-31,139565000.0,0.0362865501418,0.0,0.0,0.0,63978000.0,63978000.0,59674000.0,29348000.0,59674000.0,10325000.0,0.0,0.0,49349000.0,0.0,49349000.0,1.86,1.86,26453000.0,26578000.0,0.9768605613670001,0.0,0.373675348404,0.42757138251000004,0.353591516498,0.5744706767459999,52152000.0,59674000.0,49349000.0,0.42757138251000004,0.353591516498
2015-12-31,134678000.0,0.260770253319,0.0,0.0,0.0,67221000.0,67221000.0,51276000.0,19854000.0,51276000.0,7279000.0,0.0,0.0,43997000.0,0.0,43997000.0,1.74,1.73,25350000.0,25435000.0,0.985689011205,0.0,0.30196468614,0.380730334576,0.326682902924,0.513936945901,40668000.0,51276000.0,43997000.0,0.380730334576,0.326682902924
2014-12-31,106822000.0,0.0510459098333,0.0,0.0,0.0,60821000.0,60821000.0,18669000.0,16956000.0,18669000.0,-2164000.0,0.0,0.0,20833000.0,0.0,20833000.0,1.09,1.09,19072000.0,19166000.0,0.9349368673690001,0.0,0.429274868473,0.174767370017,0.19502536930599998,0.476231487896,45856000.0,18669000.0,20833000.0,0.174767370017,0.19502536930599998
2013-12-31,101634000.0,0.14035343618499999,0.0,0.0,0.0,52054000.0,52054000.0,46287000.0,17968000.0,46287000.0,5097000.0,0.0,0.0,41190000.0,0.0,41190000.0,2.3,2.3,17872000.0,17910000.0,0.898269123395,0.0,0.8382824645300001,0.455428301553,0.405277761379,0.529783340221,85198000.0,46287000.0,41190000.0,0.455428301553,0.405277761379
2012-12-31,89125000.0,-0.06584422526650001,0.0,0.0,0.0,48084000.0,48084000.0,34695000.0,26895000.0,22912000.0,7608000.0,0.0,0.0,34695000.0,0.0,34695000.0,2.0,2.0,17325000.0,17337000.0,1.10076714541,0.0,0.9450434782610001,0.389284712482,0.389284712482,0.745683029453,84227000.0,34695000.0,34695000.0,0.25707713885,0.389284712482
2011-12-31,95407000.0,-0.225139692028,0.0,0.0,0.0,45421000.0,45421000.0,50885000.0,35631000.0,50885000.0,10394000.0,0.0,0.0,39133000.0,0.0,39133000.0,2.38,2.38,0.0,0.0,0.0,0.0,1.00310249772,0.533346609788,0.410169065163,0.7302084752689999,95703000.0,50885000.0,39133000.0,0.533346609788,0.410169065163
2010-12-31,123128000.0,-0.08183323142089999,0.0,123128000.0,0.0,61065000.0,71314000.0,51814000.0,0.0,50859000.0,11756000.0,955000.0,0.0,39103000.0,0.0,39103000.0,1.806,1.806,21449804.0,21449804.0,0.613,1.0,0.439,0.4131,0.318,0.3713,54063000.0,50859000.0,40058000.0,0.4131,0.3176
2009-12-31,134102000.0,0.3091,0.0,134102000.0,0.0,59101000.0,71630000.0,62472000.0,0.0,61005000.0,16609000.0,1467000.0,0.0,44396000.0,0.0,44396000.0,2.072,2.049,21540476.0,21540476.0,0.516,1.0,0.47600000000000003,0.4549,0.331,0.1349,63893000.0,61005000.0,45863000.0,0.4549,0.3311
