,0,1,2,3,4,5,6,7,8,9,10,11,12,13,14,15,16,17,18,19,20,21,22,23,24,25,26,27,28,29,30
Date,Revenue,Revenue Growth,Cost of Revenue,Gross Profit,R&D Expenses,SG&A Expense,Operating Expenses,Operating Income,Interest Expense,Earnings before Tax,Income Tax Expense,Net Income - Non-Controlling int,Net Income - Discontinued ops,Net Income,Preferred Dividends,Net Income Com,EPS,EPS Diluted,Weighted Average Shs Out,Weighted Average Shs Out (Dil),Dividend per Share,Gross Margin,EBITDA Margin,EBIT Margin,Profit Margin,Free Cash Flow margin,EBITDA,EBIT,Consolidated Income,Earnings Before Tax Margin,Net Profit Margin
2019-12-31,48766000.0,-0.9891292959739999,1210551000.0,-1161785000.0,0.0,510743000.0,510743000.0,1354268000.0,1331804000.0,1354268000.0,359898000.0,0.0,0.0,994370000.0,0.0,994370000.0,2.87,2.86,346992000.0,347508000.0,0.8387116267829999,-23.8236681294,68.5481688061,27.770741910300003,20.3906410204,113.464975598,3342820000.0,1354268000.0,994370000.0,27.770741910300003,20.3906410204
2018-12-31,4486002000.0,0.0389619834114,1093672000.0,3392330000.0,0.0,482800000.0,482800000.0,1192268000.0,1111760000.0,1192268000.0,276342000.0,0.0,0.0,915926000.0,0.0,915926000.0,2.55,2.54,359861764.0,360672000.0,0.499916821932,0.7562034078450001,0.637702569014,0.265775182445,0.20417422908,1.39207896029,2860735000.0,1192268000.0,915926000.0,0.265775182445,0.20417422908
2017-12-31,4317773000.0,-0.08650518665110002,1311436000.0,3006337000.0,0.0,581017000.0,581017000.0,823514000.0,947734000.0,823514000.0,-364092000.0,0.0,0.0,1187606000.0,0.0,1187606000.0,3.3,3.3,359613714.0,360292000.0,0.0299840129673,0.696270276367,0.5158138234690001,0.19072656204900001,0.275050587421,0.8723490095469999,2227167000.0,823514000.0,1187606000.0,0.19072656204900001,0.275050587421
2016-12-31,4726653000.0,-0.0012509051630099999,1143472000.0,3583181000.0,0.0,498224000.0,498224000.0,1160711000.0,807484000.0,1160711000.0,394245000.0,0.0,0.0,766466000.0,0.0,766466000.0,2.14,2.13,358280814.0,359078000.0,0.0,0.7580799775229999,0.47718438396000007,0.245567212148,0.162158296791,0.946360352664,2255485000.0,1160711000.0,766466000.0,0.245567212148,0.162158296791
2015-12-31,4732573000.0,0.0990083880971,1021249000.0,3711324000.0,0.0,434041000.0,434041000.0,1289612000.0,628791000.0,1289612000.0,465572000.0,0.0,0.0,824040000.0,0.0,824040000.0,2.32,2.31,355102742.0,356163076.0,0.0,0.784208505606,0.44614082022600005,0.272497011668,0.17412092745299998,0.826126929262,2111394000.0,1289612000.0,824040000.0,0.272497011668,0.17412092745299998
2014-12-31,4306221000.0,1.32194992804,962036000.0,3344185000.0,0.0,482637000.0,482637000.0,1209988000.0,523203000.0,1209988000.0,443639000.0,0.0,0.0,766349000.0,0.0,766349000.0,2.2,2.15,348723472.0,355722363.0,0.147069752823,0.776593909138,0.47256863964900003,0.280986043215,0.177963230405,0.90531210544,2034985000.0,1209988000.0,766349000.0,0.280986043215,0.177963230405
2013-12-31,1854571000.0,0.0611422248059,0.0,1854571000.0,0.0,305056000.0,706264000.0,1148307000.0,0.0,1150128000.0,427142000.0,-1821000.0,0.0,722986000.0,0.0,722986000.0,2.09,2.09,348710767.0,346177515.0,0.0,1.0,0.698,0.6202,0.39,-0.1799,1295321000.0,1150128000.0,721165000.0,0.6202,0.3898
2012-12-31,1747712000.0,-0.0340370144172,0.0,1747712000.0,0.0,225159000.0,559163000.0,1188549000.0,0.0,1168618000.0,453615000.0,19931000.0,0.0,715003000.0,0.0,715003000.0,2.07,2.07,,346164717.0,0.0,1.0,0.7759999999999999,0.6687,0.409,0.8248,1355967000.0,1168618000.0,734934000.0,0.6687,0.4091
2011-12-31,1809295000.0,,0.0,1809295000.0,0.0,213688000.0,557083000.0,1252212000.0,0.0,1232231000.0,464034000.0,19981000.0,0.0,768197000.0,0.0,768197000.0,3.12,3.12,,246056761.0,0.0,1.0,0.8240000000000001,0.6811,0.425,0.8558,1490455000.0,1232231000.0,788178000.0,0.6811,0.4246
