,0,1,2,3,4,5,6,7,8,9,10,11,12,13,14,15,16,17,18,19,20,21,22,23,24,25,26,27,28,29,30
Date,Revenue,Revenue Growth,Cost of Revenue,Gross Profit,R&D Expenses,SG&A Expense,Operating Expenses,Operating Income,Interest Expense,Earnings before Tax,Income Tax Expense,Net Income - Non-Controlling int,Net Income - Discontinued ops,Net Income,Preferred Dividends,Net Income Com,EPS,EPS Diluted,Weighted Average Shs Out,Weighted Average Shs Out (Dil),Dividend per Share,Gross Margin,EBITDA Margin,EBIT Margin,Profit Margin,Free Cash Flow margin,EBITDA,EBIT,Consolidated Income,Earnings Before Tax Margin,Net Profit Margin
2018-12,18755000000.0,,5532000000.0,13223000000.0,,0.0,9222000000.0,4001000000.0,28000000.0,3973000000.0,314000000.0,,,3659000000.0,,3659000000.0,5.21,5.21,702000000.0,702000000.0,,0.7050386563583,0.27997867235403995,0.21332977872567002,0.19509464142895003,,5251000000.0,4001000000.0,3659000000.0,0.21183684350839999,0.19509464142895003
2017-12,16664000000.0,,5493000000.0,11171000000.0,,0.0,9441000000.0,1730000000.0,74000000.0,2418000000.0,544000000.0,,,141828000000.0,,141828000000.0,201.94,201.94,702000000.0,702000000.0,,0.6703672587614,0.21777484397504002,8.548127700432099,8.5110417666827,,3629000000.0,142446000000.0,141828000000.0,0.14510321651464003,8.5110417666827
2016-12,117314000000.0,,86250000000.0,31064000000.0,,19513000000.0,19513000000.0,11551000000.0,934000000.0,10360000000.0,4348000000.0,,,5570000000.0,,5570000000.0,7.93,7.93,702000000.0,702000000.0,,0.26479363076871,0.15436350307720997,0.09250387847997699,0.047479414221662006,,18109000000.0,10852000000.0,5570000000.0,0.08831000562592699,0.047479414221662006
2015-12,115316000000.0,,85476000000.0,29840000000.0,,17025000000.0,19092000000.0,10748000000.0,1066000000.0,9992000000.0,2540000000.0,,,7002000000.0,,7002000000.0,9.97,9.97,702000000.0,702000000.0,,0.25876721356967003,0.16714072635194,0.091990703805196,0.060720108224357,,19274000000.0,10608000000.0,7002000000.0,0.086648860522391,0.060720108224357
2014-12,104054000000.0,,77520000000.0,26534000000.0,,14798000000.0,16198000000.0,10336000000.0,1072000000.0,9488000000.0,2420000000.0,,,6599000000.0,,6599000000.0,18.8,18.8,702000000.0,702000000.0,,0.25500221039076,0.15538085993811,0.09697849193687899,0.06341899398389299,,16168000000.0,10091000000.0,6599000000.0,0.09118342399138901,0.06341899398389299
