,0,1,2,3,4,5,6,7,8,9,10,11,12,13,14,15,16,17,18,19,20,21,22,23,24,25,26,27,28
Date,Cash and cash equivalents,Short-term investments,Cash and short-term investments,Receivables,Inventories,Total current assets,Property Plant & Equipment Net,Goodwill and Intangible Assets,Long-term investments,Tax assets,Total non-current assets,Total assets,Payables,Short-term debt,Total current liabilities,Long-term debt,Total debt,Deferred revenue,Tax Liabilities,Deposit Liabilities,Total non-current liabilities,Total liabilities,Other comprehensive income,Retained earnings (deficit),Total shareholders equity,Investments,Net Debt,Other Assets,Other Liabilities
2017-12,409000000.0,,,968000000.0,304000000.0,16888000000.0,10708000000.0,210000000.0,204000000.0,,11371000000.0,18739000000.0,438000000.0,1077000000.0,2113000000.0,5906000000.0,5906000000.0,0.0,1261000000.0,,11371000000.0,13484000000.0,-50000000.0,2915000000.0,5255000000.0,204000000.0,6574000000.0,257000000.0,970000000.0
2016-12,208000000.0,,,885000000.0,291000000.0,17201000000.0,14390000000.0,210000000.0,199000000.0,,10917000000.0,18707000000.0,404000000.0,958000000.0,2065000000.0,6473000000.0,6473000000.0,0.0,2159000000.0,,10917000000.0,12982000000.0,-49000000.0,3384000000.0,5725000000.0,199000000.0,7223000000.0,289000000.0,1232000000.0
2015-12,176000000.0,,,732000000.0,312000000.0,15768000000.0,13215000000.0,210000000.0,186000000.0,,9751000000.0,17146000000.0,590000000.0,647000000.0,1952000000.0,5882000000.0,5882000000.0,0.0,1907000000.0,,9751000000.0,11703000000.0,-65000000.0,3118000000.0,5443000000.0,186000000.0,6353000000.0,263000000.0,1045000000.0
2014-12,137000000.0,,,838000000.0,361000000.0,14707000000.0,12137000000.0,210000000.0,188000000.0,,9332000000.0,16852000000.0,520000000.0,1084000000.0,2533000000.0,5531000000.0,5531000000.0,215000000.0,1866000000.0,,9332000000.0,11865000000.0,-75000000.0,2684000000.0,4987000000.0,188000000.0,6478000000.0,838000000.0,1157000000.0
2013-12,136000000.0,,,802000000.0,363000000.0,13743000000.0,11730000000.0,230000000.0,187000000.0,,9058000000.0,15164000000.0,425000000.0,430000000.0,1442000000.0,5395000000.0,5395000000.0,159000000.0,1703000000.0,,9058000000.0,10500000000.0,-60000000.0,2444000000.0,4664000000.0,187000000.0,5689000000.0,189000000.0,819000000.0
