,0,1,2,3,4,5,6,7,8,9,10,11,12,13,14,15,16,17,18,19,20,21,22,23,24,25,26,27,28,29,30
Date,Revenue,Revenue Growth,Cost of Revenue,Gross Profit,R&D Expenses,SG&A Expense,Operating Expenses,Operating Income,Interest Expense,Earnings before Tax,Income Tax Expense,Net Income - Non-Controlling int,Net Income - Discontinued ops,Net Income,Preferred Dividends,Net Income Com,EPS,EPS Diluted,Weighted Average Shs Out,Weighted Average Shs Out (Dil),Dividend per Share,Gross Margin,EBITDA Margin,EBIT Margin,Profit Margin,Free Cash Flow margin,EBITDA,EBIT,Consolidated Income,Earnings Before Tax Margin,Net Profit Margin
2019-12-31,10721000000.0,0.0581326490328,0.0,0.0,0.0,3320000000.0,3320000000.0,4848000000.0,1064000000.0,4848000000.0,1144000000.0,0.0,0.0,3704000000.0,178000000.0,3704000000.0,2.69,2.67,1311000000.0,1320000000.0,0.80303030303,0.0,0.443148959985,0.45219662344899997,0.3454901595,0.803749650219,4751000000.0,4848000000.0,3704000000.0,0.45219662344899997,0.3454901595
2018-12-31,10132000000.0,0.175678811789,0.0,0.0,0.0,3057000000.0,3057000000.0,4562000000.0,857000000.0,4562000000.0,1055000000.0,0.0,0.0,3507000000.0,178000000.0,3507000000.0,2.47,2.45,1348000000.0,1361000000.0,0.578251285819,0.0,0.44591393604400004,0.450256612712,0.346131069878,1.17311488354,4518000000.0,4562000000.0,3507000000.0,0.450256612712,0.346131069878
2017-12-31,8618000000.0,0.15244717839000002,0.0,0.0,0.0,2737000000.0,2737000000.0,3650000000.0,342000000.0,3650000000.0,1296000000.0,0.0,0.0,2354000000.0,174000000.0,2354000000.0,1.63,1.61,1339000000.0,1353000000.0,0.437546193644,0.0,0.41506149918799995,0.423532142028,0.27314922255699997,0.10013924344399999,3577000000.0,3650000000.0,2354000000.0,0.423532142028,0.27314922255699997
2016-12-31,7478000000.0,0.17210031348000002,0.0,0.0,0.0,2466000000.0,2466000000.0,2993000000.0,171000000.0,2993000000.0,1104000000.0,0.0,0.0,1889000000.0,143000000.0,1889000000.0,1.32,1.31,1324000000.0,1334000000.0,0.364317841079,0.0,0.395961487029,0.40024070607100004,0.252607649104,0.309708478203,2961000000.0,2993000000.0,1889000000.0,0.40024070607100004,0.252607649104
2015-12-31,6380000000.0,0.053152855728,0.0,0.0,0.0,2241000000.0,2241000000.0,2279000000.0,132000000.0,2279000000.0,832000000.0,0.0,0.0,1447000000.0,83000000.0,1447000000.0,1.04,1.03,1315000000.0,1327000000.0,0.291635267521,0.0,0.366927899687,0.357210031348,0.226802507837,0.15360501567399998,2341000000.0,2279000000.0,1447000000.0,0.357210031348,0.226802507837
2014-12-31,6058000000.0,0.11462741490299999,0.0,0.0,0.0,2184000000.0,2184000000.0,2115000000.0,102000000.0,2115000000.0,794000000.0,0.0,0.0,1321000000.0,60000000.0,1321000000.0,0.96,0.95,1303000000.0,1315000000.0,0.283650190114,0.0,0.36134037636200006,0.349125123803,0.218058765269,0.321558270056,2189000000.0,2115000000.0,1321000000.0,0.349125123803,0.218058765269
2013-12-31,5435000000.0,0.113045259062,0.0,0.0,0.0,2027000000.0,2027000000.0,1705000000.0,105000000.0,1705000000.0,634000000.0,0.0,0.0,1071000000.0,61000000.0,1071000000.0,0.78,0.78,1285000000.0,1293000000.0,0.284609435422,0.0,0.32106715731400004,0.31370745170200004,0.19705611775499998,0.258877644894,1745000000.0,1705000000.0,1071000000.0,0.31370745170200004,0.19705611775499998
2012-12-31,4883000000.0,0.040929439352000004,0.0,0.0,0.0,1803000000.0,1803000000.0,1450000000.0,150000000.0,1450000000.0,522000000.0,0.0,0.0,928000000.0,45000000.0,928000000.0,0.69,0.69,1274000000.0,1275000000.0,0.26431372549000004,0.0,0.291624001638,0.296948597174,0.190047102191,0.228957608028,1424000000.0,1450000000.0,928000000.0,0.296948597174,0.190047102191
2011-12-31,4691000000.0,0.104284369115,0.0,0.0,0.0,1732000000.0,1732000000.0,1392000000.0,175000000.0,1392000000.0,528000000.0,0.0,0.0,864000000.0,0.0,864000000.0,0.7,0.7,1227000000.0,1229000000.0,0.24003254678599997,0.0,0.300788744404,0.296738435302,0.184182477084,0.486889788958,1411000000.0,1392000000.0,864000000.0,0.296738435302,0.184182477084
2010-12-31,4248000000.0,0.013117099928500001,0.0,0.0,0.0,1573000000.0,1573000000.0,779000000.0,199000000.0,779000000.0,325000000.0,0.0,0.0,454000000.0,0.0,454000000.0,0.38,0.38,1191000000.0,1194000000.0,0.24120603015099998,0.0,0.21774952918999999,0.183380414313,0.106873822976,-0.0324858757062,925000000.0,779000000.0,454000000.0,0.183380414313,0.106873822976
2009-12-31,4193000000.0,-0.1858,0.0,4193000000.0,0.0,2534000000.0,2917000000.0,1276000000.0,0.0,1276000000.0,489000000.0,0.0,0.0,787000000.0,0.0,787000000.0,0.68,0.68,1162131202.0,1160000000.0,0.24,1.0,0.342,0.3043,0.188,0.3093,1435000000.0,1276000000.0,787000000.0,0.3043,0.1877
