,0,1,2,3,4,5,6,7,8,9,10,11,12,13,14,15,16,17,18,19,20,21,22,23,24,25,26,27,28,29,30
Date,Revenue,Revenue Growth,Cost of Revenue,Gross Profit,R&D Expenses,SG&A Expense,Operating Expenses,Operating Income,Interest Expense,Earnings before Tax,Income Tax Expense,Net Income - Non-Controlling int,Net Income - Discontinued ops,Net Income,Preferred Dividends,Net Income Com,EPS,EPS Diluted,Weighted Average Shs Out,Weighted Average Shs Out (Dil),Dividend per Share,Gross Margin,EBITDA Margin,EBIT Margin,Profit Margin,Free Cash Flow margin,EBITDA,EBIT,Consolidated Income,Earnings Before Tax Margin,Net Profit Margin
2018-12-31,3190174000.0,0.030740564472500002,2429852000.0,760322000.0,0.0,145499000.0,145499000.0,630659000.0,181556000.0,441732000.0,-5826000.0,0.0,0.0,447208000.0,0.0,447208000.0,2.45,2.39,182447000.0,186972000.0,0.662393299531,0.238332454593,0.277477968286,0.19768796310199999,0.140182949269,0.11920509665,885203000.0,630659000.0,447208000.0,0.138466428477,0.140182949269
2017-12-31,3095031000.0,0.021079218788200002,2372842000.0,722189000.0,0.0,154423000.0,154423000.0,569197000.0,169125000.0,400258000.0,-146589000.0,0.0,0.0,546663000.0,0.0,546663000.0,2.91,2.84,187630000.0,192246000.0,0.565681470616,0.233338212121,0.266216719639,0.183906720159,0.17662601763900002,0.0930003609011,823949000.0,569197000.0,546663000.0,0.129322775765,0.17662601763900002
2016-12-31,3031137000.0,0.0149870411669,2354703000.0,676434000.0,0.0,137730000.0,137730000.0,511885000.0,162093000.0,326658000.0,149353000.0,0.0,0.0,177038000.0,0.0,177038000.0,0.92,0.9,193086000.0,196042000.0,0.5020250762590001,0.22316180364,0.251603606172,0.16887557375300002,0.058406465956499995,0.0891246420073,762645000.0,511885000.0,177038000.0,0.107767481311,0.058406465956499995
2015-12-31,2986380000.0,-0.00254908797961,2314435000.0,671945000.0,0.0,128188000.0,128188000.0,550279000.0,172897000.0,370351000.0,135027000.0,0.0,0.0,233772000.0,0.0,233772000.0,1.17,1.14,200356000.0,204450000.0,0.42831988261200005,0.225003181109,0.26622030686000003,0.18426288684,0.07827938842339999,0.10755496621300001,795035000.0,550279000.0,233772000.0,0.12401335396,0.07827938842339999
2014-12-31,2994012000.0,0.17119116000700002,2318199000.0,675813000.0,0.0,184877000.0,184877000.0,607549000.0,177571000.0,402600000.0,225980000.0,0.0,0.0,172469000.0,0.0,172469000.0,0.82,0.81,210741000.0,214200000.0,0.33387955182100004,0.225721540194,0.28505396772,0.202921364377,0.0576046455392,0.057733903538100005,853455000.0,607549000.0,172469000.0,0.134468398924,0.0576046455392
2013-12-31,2556382000.0,0.0605277535894,2006813000.0,549569000.0,0.0,155136000.0,155136000.0,388170000.0,142360000.0,245719000.0,96615000.0,0.0,0.0,143848000.0,0.0,143848000.0,0.68,0.67,211811000.0,216014000.0,0.264931902562,0.214979216721,0.233501096471,0.151843503827,0.0562701505487,0.106253681961,596918000.0,388170000.0,143848000.0,0.09611982872670001,0.0562701505487
2012-12-31,2410481000.0,0.0407769295867,1885254000.0,525227000.0,0.0,123905000.0,123905000.0,399789000.0,135068000.0,245683000.0,91548000.0,0.0,0.0,152546000.0,0.0,152546000.0,0.71,0.7,215712000.0,219066000.0,0.275241251495,0.21789302633000002,0.24632013278700002,0.16585444979699998,0.0632844648018,0.10521468536800001,593750000.0,399789000.0,152546000.0,0.10192281125600001,0.0632844648018
2011-12-31,2316040000.0,1.0,1837504000.0,478536000.0,0.0,103860000.0,103860000.0,363699000.0,133782000.0,225636000.0,79404000.0,0.0,0.0,144903000.0,0.0,144903000.0,0.62,0.61,234242000.0,236669000.0,0.189272781818,0.206618193123,0.23825970190499998,0.15703485259299998,0.0625649816065,0.11646474154200001,551819000.0,363699000.0,144903000.0,0.0974231878551,0.0625649816065
2010-12-31,0.0,-1.0,0.0,0.0,0.0,0.0,0.0,0.0,0.0,0.0,0.0,0.0,0.0,0.0,0.0,0.0,0.0,0.0,0.0,0.0,0.0,0.0,0.0,0.0,0.0,0.0,0.0,0.0,0.0,0.0,0.0
2009-12-31,2053520000.0,-0.0474,1632125000.0,421395000.0,0.0,102501000.0,97508000.0,323887000.0,128981000.0,199373000.0,76275000.0,-5000.0,0.0,123098000.0,0.0,123098000.0,0.49,0.49,253384884.0,251709000.0,0.16,0.2052,0.225,0.1599,0.06,0.1404,461154000.0,328354000.0,123093000.0,0.0971,0.0599
