,0,1,2,3,4,5,6,7,8,9,10,11,12,13,14
Date,Depreciation & Amortization,Stock-based compensation,Operating Cash Flow,Capital Expenditure,Acquisitions and disposals,Investment purchases and sales,Investing Cash flow,Issuance (repayment) of debt,Issuance (buybacks) of shares,Dividend payments,Financing Cash Flow,Effect of forex changes on cash,Net cash flow / Change in cash,Free Cash Flow,Net Cash/Marketcap
2019-12-31,462930.0,519891.0,873534.0,595154.0,-0.0,0.0,-602954.0,-0.0,-958860.0,-0.0,-396711.0,0.0,-126131.0,278380.0,0.0
2018-12-31,432042.0,487806.0,750145.0,423700.0,-0.0,-5021830.0,-423700.0,-28420.0,-5021830.0,-0.0,-2620962.0,0.0,-2294517.0,326445.0,0.0
2017-12-31,313653.0,426950.0,2376303.0,412674.0,-0.0,0.0,-620575.0,-26945.0,-3379508.0,-0.0,304774.0,0.0,2060502.0,1963629.0,0.0
2016-12-31,279392.0,342610.0,879816.0,304470.0,-0.0,0.0,-304470.0,-31152.0,-1319006.0,-0.0,-194495.0,0.0,380851.0,575346.0,0.0
2015-12-31,197686.0,209864.0,1352976.0,391375.0,-0.0,0.0,-391375.0,-27295.0,-938155.0,-0.0,-656077.0,0.0,305524.0,961601.0,0.0
2014-12-31,246577.0,217178.0,52214.0,166172.0,-0.0,0.0,-166172.0,-46831.0,-632631.0,-0.0,140334.0,0.0,26376.0,-113958.0,0.0
2013-12-31,281337.0,249704.0,-93900.0,-158903.0,-0.0,0.0,158903.0,-145289.0,-606255.0,-0.0,468545.0,0.0,215742.0,65003.0,0.0
2012-12-31,0.0,0.0,0.0,0.0,-0.0,0.0,0.0,-0.0,0.0,-0.0,0.0,0.0,0.0,0.0,0.0
2011-12-31,0.0,0.0,0.0,0.0,-0.0,0.0,0.0,-0.0,0.0,-0.0,0.0,0.0,0.0,0.0,0.0
2010-12-31,519686.0,676554.0,-638521.0,-143559.0,0.0,0.0,-143559.0,-14401.0,27816.0,0.0,-697382.0,0.0,-1479462.0,-782080.0,0.0806
2009-12-31,580770.0,715086.0,146336.0,-285668.0,450000.0,0.0,164332.0,-15108.0,887393.0,0.0,872285.0,0.0,1182953.0,-139332.0,0.0681
