,0,1,2,3,4,5,6,7,8,9,10,11,12,13,14,15,16,17,18,19,20,21,22,23,24,25,26,27,28,29,30
Date,Revenue,Revenue Growth,Cost of Revenue,Gross Profit,R&D Expenses,SG&A Expense,Operating Expenses,Operating Income,Interest Expense,Earnings before Tax,Income Tax Expense,Net Income - Non-Controlling int,Net Income - Discontinued ops,Net Income,Preferred Dividends,Net Income Com,EPS,EPS Diluted,Weighted Average Shs Out,Weighted Average Shs Out (Dil),Dividend per Share,Gross Margin,EBITDA Margin,EBIT Margin,Profit Margin,Free Cash Flow margin,EBITDA,EBIT,Consolidated Income,Earnings Before Tax Margin,Net Profit Margin
2019-12-31,19253105.0,0.17008669886100003,9152462.0,10100643.0,3893563.0,5600710.0,9494273.0,606370.0,100656.0,505714.0,-219128.0,0.0,0.0,286586.0,0.0,286586.0,0.05,0.05,5984381.0,6207731.0,0.0,0.524624106086,0.055539093564400004,0.031494660212,0.0148851834548,0.0144589664888,1069300.0,606370.0,286586.0,0.0262666203711,0.0148851834548
2018-12-31,16454426.0,-0.226976388015,7998018.0,8456408.0,3640296.0,5402100.0,9042396.0,-585988.0,128612.0,-714600.0,143459.0,0.0,0.0,-571141.0,0.0,-571141.0,-0.09,-0.09,6094709.0,6094709.0,0.0,0.5139290790209999,-0.00935590217489,-0.0356127889238,-0.0347104785059,0.0198393429221,-153946.0,-585988.0,-571141.0,-0.0434290445622,-0.0347104785059
2017-12-31,21285800.0,0.023966801728,9895791.0,11390009.0,3473610.0,5498684.0,8972294.0,2417715.0,79443.0,2338272.0,3768926.0,0.0,0.0,-1430731.0,0.0,-1430731.0,-0.23,-0.23,6292898.0,6292898.0,0.0,0.535098939199,0.128318785293,0.11358346879100001,-0.06721527967,0.0922506553665,2731368.0,2417715.0,-1430731.0,0.109851262344,-0.06721527967
2016-12-31,20787588.0,0.12974904269999998,10353370.0,10434218.0,2889168.0,4982034.0,7871202.0,2563016.0,131349.0,2431667.0,-9715421.0,0.0,0.0,12147088.0,0.0,12147088.0,2.1,1.8,5793245.0,6819821.0,0.0,0.501944621954,0.136735825243,0.123295497294,0.584343311018,0.0276773813297,2842408.0,2563016.0,12147088.0,0.116976871006,0.584343311018
2015-12-31,18400182.0,0.0810438832498,9465443.0,8934739.0,2323005.0,4482897.0,6805902.0,2128837.0,100455.0,1849612.0,31940.0,0.0,0.0,1817672.0,0.0,1817672.0,0.33,0.3,5554541.0,5975052.0,0.0,0.485578838296,0.126440216733,0.11569651865399999,0.0987855446212,0.0522604069895,2326523.0,2128837.0,1817672.0,0.100521397017,0.0987855446212
2014-12-31,17020754.0,0.08680304738330001,9607829.0,7412925.0,2332918.0,4149200.0,6482118.0,930807.0,207299.0,464057.0,31940.0,0.0,0.0,432117.0,0.0,432117.0,0.09,0.08,5005579.0,5250914.0,0.0,0.43552271538599996,0.0691734337974,0.054686590264999994,0.0253876532144,-0.006695238060550001,1177384.0,930807.0,432117.0,0.0272641858287,0.0253876532144
2013-12-31,15661305.0,1.0,9357868.0,6303437.0,2269454.0,4156590.0,6426044.0,-122607.0,465947.0,-588554.0,31939.0,0.0,0.0,-620493.0,0.0,-620493.0,-0.13,-0.13,4865036.0,4865036.0,0.0,0.402484786549,0.010135170728100001,-0.00782865795666,-0.0396194953103,0.00415054811844,158730.0,-122607.0,-620493.0,-0.0375801377982,-0.0396194953103
2012-12-31,0.0,0.0,0.0,0.0,0.0,0.0,0.0,0.0,0.0,0.0,0.0,0.0,0.0,0.0,0.0,0.0,0.0,0.0,4853630.0,4853630.0,0.0,0.0,0.0,0.0,0.0,0.0,0.0,0.0,0.0,0.0,0.0
2011-12-31,0.0,-1.0,0.0,0.0,0.0,0.0,0.0,0.0,0.0,0.0,0.0,0.0,0.0,0.0,0.0,0.0,0.0,0.0,4360217.0,4360217.0,0.0,0.0,0.0,0.0,0.0,0.0,0.0,0.0,0.0,0.0,0.0
2010-12-31,13498196.0,-0.211859192381,8096520.0,5401676.0,2463268.0,6652908.0,9116176.0,-3714500.0,245822.0,-3960322.0,15515.0,0.0,0.0,-3975837.0,0.0,-3975837.0,-1.05,-1.05,3801991.0,3795673.0,0.0,0.4002,-0.237,-0.2752,-0.295,-0.0579,-3194814.0,-3714500.0,-3975837.0,-0.2934,-0.2945
2009-12-31,17126630.0,-0.3551,9753006.0,7373624.0,2926954.0,7404089.0,15251989.0,-7878365.0,224700.0,-8103065.0,-214261.0,0.0,0.0,-7888804.0,0.0,-7888804.0,-2.21,-2.21,3786702.0,3562080.0,0.0,0.4305,-0.426,-0.46,-0.461,-0.0081,-7297595.0,-7878365.0,-7888804.0,-0.4731,-0.4606
