,0,1,2,3,4,5,6,7,8,9,10,11,12,13,14
Date,Depreciation & Amortization,Stock-based compensation,Operating Cash Flow,Capital Expenditure,Acquisitions and disposals,Investment purchases and sales,Investing Cash flow,Issuance (repayment) of debt,Issuance (buybacks) of shares,Dividend payments,Financing Cash Flow,Effect of forex changes on cash,Net cash flow / Change in cash,Free Cash Flow,Net Cash/Marketcap
2019-02-22,81600000.0,17700000.0,131200000.0,81400000.0,-226200000.0,-4200000.0,-271600000.0,-252700000.0,-4200000.0,-64300000.0,122300000.0,-2700000.0,-20800000.0,49800000.0,0.0
2018-02-23,65900000.0,19100000.0,227000000.0,87900000.0,-68300000.0,-33800000.0,-47500000.0,-2700000.0,-33800000.0,-61000000.0,-97500000.0,4000000.0,86000000.0,139100000.0,0.0
2017-02-24,60300000.0,19800000.0,170700000.0,61100000.0,-0.0,-48400000.0,-48400000.0,-2300000.0,-48400000.0,-58500000.0,-105900000.0,-1200000.0,15200000.0,109600000.0,0.0
2016-02-26,65700000.0,21000000.0,186400000.0,93400000.0,-6900000.0,-56400000.0,-87800000.0,-33700000.0,-56400000.0,-57000000.0,-90100000.0,-3100000.0,5400000.0,93000000.0,0.0
2015-02-27,59900000.0,18400000.0,84200000.0,97500000.0,-0.0,-36300000.0,-14300000.0,-2500000.0,-36300000.0,-52500000.0,-89800000.0,-5400000.0,-25300000.0,-13300000.0,0.0
2014-02-28,60000000.0,16800000.0,178800000.0,86800000.0,-0.0,-49900000.0,-25800000.0,-2500000.0,-49900000.0,-50200000.0,-101600000.0,-600000.0,51400000.0,92000000.0,0.0
2013-02-22,58300000.0,9600000.0,187300000.0,74000000.0,-6200000.0,-19900000.0,-84800000.0,-2600000.0,-19900000.0,-45800000.0,-64200000.0,700000.0,38300000.0,113300000.0,0.0
2012-02-24,56400000.0,11600000.0,101700000.0,64900000.0,-0.0,-47700000.0,203200000.0,-255500000.0,-47700000.0,-31700000.0,-334300000.0,-700000.0,-30100000.0,36800000.0,0.0
2011-02-25,64400000.0,7400000.0,72700000.0,-1100000.0,29800000.0,-276400000.0,-254300000.0,243100000.0,-10800000.0,-21600000.0,211100000.0,1600000.0,31100000.0,71600000.0,-0.0415
2010-02-26,74200000.0,5700000.0,-10900000.0,-25800000.0,0.0,10900000.0,-10000000.0,45500000.0,-4600000.0,-26900000.0,13000000.0,1400000.0,-6500000.0,-36700000.0,-0.1392
