,0,1,2,3,4,5,6,7,8,9,10,11,12,13,14,15,16,17,18,19,20,21,22,23,24,25,26,27,28,29,30
Date,Revenue,Revenue Growth,Cost of Revenue,Gross Profit,R&D Expenses,SG&A Expense,Operating Expenses,Operating Income,Interest Expense,Earnings before Tax,Income Tax Expense,Net Income - Non-Controlling int,Net Income - Discontinued ops,Net Income,Preferred Dividends,Net Income Com,EPS,EPS Diluted,Weighted Average Shs Out,Weighted Average Shs Out (Dil),Dividend per Share,Gross Margin,EBITDA Margin,EBIT Margin,Profit Margin,Free Cash Flow margin,EBITDA,EBIT,Consolidated Income,Earnings Before Tax Margin,Net Profit Margin
2020-01-31,552765000.0,0.0656553096245,252796000.0,299969000.0,94964000.0,257179000.0,352143000.0,-52174000.0,0.0,-51324000.0,-19658000.0,0.0,0.0,-31666000.0,0.0,-31666000.0,-0.39,-0.39,80563000.0,80563000.0,0.0,0.5426700315690001,-0.0167195824627,-0.0943873074453,-0.0572865503424,0.119850207593,-9242000.0,-52174000.0,-31666000.0,-0.0928495834577,-0.0572865503424
2019-02-01,518709000.0,0.108579965121,246117000.0,272592000.0,87608000.0,233716000.0,321324000.0,-48732000.0,0.0,-45954000.0,-6853000.0,0.0,0.0,-39101000.0,0.0,-39101000.0,-0.48,-0.48,80710000.0,80710000.0,0.0,0.525520089299,-0.014507170687200002,-0.09394863015680001,-0.07538137954039999,0.0906076432065,-7525000.0,-48732000.0,-39101000.0,-0.0885930261476,-0.07538137954039999
2018-02-02,467904000.0,0.0894105266099,226718000.0,241186000.0,80164000.0,244067000.0,324231000.0,-83045000.0,0.0,-85780000.0,-57703000.0,0.0,0.0,-28077000.0,0.0,-28077000.0,-0.35,-0.35,80280000.0,80280000.0,0.0,0.515460436329,-0.0873555259198,-0.17748298796300002,-0.0600058986459,-0.0278518670497,-40874000.0,-83045000.0,-28077000.0,-0.183328204076,-0.0600058986459
2017-02-03,429502000.0,0.26501964526599997,212599000.0,216903000.0,71030000.0,211826000.0,282856000.0,-65953000.0,0.0,-63477000.0,-25264000.0,0.0,0.0,-38213000.0,0.0,-38213000.0,-0.49,-0.49,77635000.0,77635000.0,0.0,0.5050104539679999,-0.0617645552291,-0.153556910096,-0.08897048209319999,-0.0609985518112,-26528000.0,-65953000.0,-38213000.0,-0.1477920941,-0.08897048209319999
2016-01-29,339522000.0,0.295242818449,183809000.0,155713000.0,69598000.0,192123000.0,261721000.0,-106008000.0,6569000.0,-112577000.0,-40196000.0,0.0,0.0,-72381000.0,0.0,-72381000.0,-1.03,-1.03,81000000.0,70000000.0,0.0,0.4586,-0.193,-0.3122,-0.213,-0.0556,-65370000.0,-106008000.0,-72381000.0,-0.3316,-0.2132
2015-01-30,262130000.0,,144846000.0,117284000.0,45092000.0,133285000.0,178377000.0,-61093000.0,142000.0,-61235000.0,-22745000.0,0.0,0.0,-38490000.0,0.0,-38490000.0,-0.55,-0.55,,70000000.0,0.0,0.4474,-0.075,-0.2331,-0.147,-0.0279,-19668000.0,-61093000.0,-38490000.0,-0.2336,-0.1468
