,0,1,2,3,4,5,6,7,8,9,10,11,12,13,14,15,16,17,18,19,20,21,22,23,24,25,26,27,28
Date,Cash and cash equivalents,Short-term investments,Cash and short-term investments,Receivables,Inventories,Total current assets,Property Plant & Equipment Net,Goodwill and Intangible Assets,Long-term investments,Tax assets,Total non-current assets,Total assets,Payables,Short-term debt,Total current liabilities,Long-term debt,Total debt,Deferred revenue,Tax Liabilities,Deposit Liabilities,Total non-current liabilities,Total liabilities,Other comprehensive income,Retained earnings (deficit),Total shareholders equity,Investments,Net Debt,Other Assets,Other Liabilities
2019-06-30,15582000.0,0.0,15582000.0,35980000.0,61790000.0,119975000.0,36679000.0,13128000.0,0.0,18639000.0,70112000.0,190087000.0,12881000.0,4065000.0,32680000.0,17541000.0,21606000.0,300000.0,10939000.0,0.0,20128000.0,106708000.0,55966000.0,80487000.0,83379000.0,0.0,6024000.0,0.0,53900000.0
2018-06-30,14827000.0,0.0,14827000.0,33089000.0,58039000.0,113228000.0,36514000.0,13985000.0,0.0,16739000.0,69058000.0,182286000.0,9836000.0,3655000.0,26187000.0,17307000.0,20962000.0,0.0,10882000.0,0.0,21729000.0,94415000.0,56361000.0,74368000.0,87871000.0,0.0,6135000.0,0.0,46499000.0
2017-06-30,14607000.0,0.0,14607000.0,30425000.0,58097000.0,110123000.0,39345000.0,14536000.0,0.0,26032000.0,82542000.0,192665000.0,8366000.0,11514000.0,30739000.0,6095000.0,17609000.0,0.0,11588000.0,0.0,11329000.0,100639000.0,56341000.0,79402000.0,92026000.0,0.0,3002000.0,0.0,58571000.0
2016-06-30,19794000.0,0.0,19794000.0,34367000.0,56321000.0,120911000.0,41010000.0,9524000.0,0.0,25284000.0,80687000.0,201598000.0,8981000.0,1543000.0,21818000.0,17109000.0,18652000.0,0.0,10820000.0,0.0,17296000.0,110085000.0,56000000.0,81228000.0,91513000.0,0.0,-1142000.0,0.0,70971000.0
2015-06-30,11108000.0,7855000.0,18963000.0,40311000.0,63003000.0,133413000.0,44413000.0,10159000.0,0.0,18803000.0,78859000.0,212272000.0,9471000.0,1552000.0,23599000.0,18552000.0,20104000.0,0.0,11192000.0,0.0,20100000.0,97842000.0,55658000.0,98164000.0,114430000.0,7855000.0,8996000.0,0.0,54143000.0
2014-06-30,16233000.0,8723000.0,24956000.0,43712000.0,65582000.0,147006000.0,51537000.0,10794000.0,0.0,24238000.0,92242000.0,239248000.0,9980000.0,10548000.0,35686000.0,10804000.0,21352000.0,0.0,11251000.0,0.0,12841000.0,102934000.0,54858000.0,95715000.0,136314000.0,8723000.0,5119000.0,0.0,54407000.0
2013-06-30,19755000.0,7657000.0,27412000.0,37875000.0,56501000.0,133948000.0,51200000.0,11256000.0,0.0,28274000.0,96846000.0,230794000.0,17084000.0,1557000.0,23945000.0,24252000.0,25809000.0,0.0,-11011000.0,0.0,27207000.0,104052000.0,53363000.0,91778000.0,126742000.0,7657000.0,6054000.0,0.0,52900000.0
2012-06-30,17502000.0,6282000.0,23784000.0,42167000.0,69895000.0,151230000.0,53597000.0,11789000.0,0.0,29842000.0,100936000.0,252166000.0,20912000.0,1800000.0,30011000.0,29387000.0,31187000.0,0.0,-10590000.0,0.0,31917000.0,124328000.0,52694000.0,94661000.0,127838000.0,6282000.0,13685000.0,0.0,62400000.0
2011-06-30,21572000.0,6421000.0,27993000.0,45567000.0,58789000.0,143943000.0,56265000.0,231000.0,0.0,31101000.0,83236000.0,227179000.0,22030000.0,8238000.0,37397000.0,721000.0,8959000.0,0.0,13933000.0,0.0,37121000.0,74518000.0,-1961000.0,96477000.0,152661000.0,6421000.0,-19034000.0,11594000.0,7129000.0
2010-06-26,20478000.0,1250000.0,21728000.0,33707000.0,46156000.0,110401000.0,59228000.0,1303000.0,0.0,32222000.0,89733000.0,200134000.0,17740000.0,2696000.0,25473000.0,706000.0,3402000.0,0.0,11568000.0,0.0,42279000.0,67752000.0,-17677000.0,93006000.0,132382000.0,1250000.0,-18326000.0,8810000.0,5037000.0
2009-06-27,10248000.0,1791000.0,12039000.0,27233000.0,60226000.0,81519000.0,59727000.0,3498000.0,0.0,23189000.0,25749000.0,194241000.0,10369000.0,10136000.0,25614000.0,1264000.0,11400000.0,0.0,9140000.0,0.0,25749000.0,51363000.0,-41452000.0,127707000.0,142878000.0,1791000.0,-639000.0,13224000.0,5109000.0
