,0,1,2,3,4,5,6,7,8,9,10,11,12,13,14
Date,Depreciation & Amortization,Stock-based compensation,Operating Cash Flow,Capital Expenditure,Acquisitions and disposals,Investment purchases and sales,Investing Cash flow,Issuance (repayment) of debt,Issuance (buybacks) of shares,Dividend payments,Financing Cash Flow,Effect of forex changes on cash,Net cash flow / Change in cash,Free Cash Flow,Net Cash/Marketcap
2019-12-31,1298000.0,1828000.0,-38119000.0,0.0,-0.0,0.0,26240000.0,-15973000.0,4417000.0,-0.0,42305000.0,0.0,42193000.0,-38119000.0,0.0
2018-12-31,481000.0,1816000.0,-28323000.0,565000.0,-0.0,0.0,10666000.0,-0.0,20218000.0,-0.0,29424000.0,0.0,11767000.0,-28888000.0,0.0
2017-12-31,565000.0,1662000.0,-24556000.0,2000.0,-0.0,0.0,-9620000.0,-0.0,-1182000.0,-0.0,9989000.0,0.0,-24187000.0,-24558000.0,0.0
2016-12-31,441000.0,1210000.0,-29353000.0,27000.0,-0.0,300000.0,-22472000.0,-0.0,-7579000.0,-0.0,40496000.0,0.0,-11329000.0,-29380000.0,0.0
2015-12-31,447000.0,3023000.0,-24545000.0,589000.0,-0.0,-300000.0,1586000.0,-0.0,-5585000.0,-0.0,37701000.0,0.0,14742000.0,-25134000.0,0.0
2014-12-31,1993000.0,1201000.0,-9472000.0,704000.0,-0.0,0.0,-488000.0,-0.0,29757000.0,-0.0,40801000.0,0.0,30841000.0,-10176000.0,0.0
2013-12-31,1329000.0,180000.0,-4307000.0,-431000.0,988000.0,0.0,557000.0,899000.0,5000.0,0.0,2767000.0,0.0,-983000.0,-4738000.0,-0.1886
2012-12-31,1489000.0,358000.0,-10596000.0,-361000.0,3412000.0,0.0,3051000.0,5947000.0,7000.0,0.0,5954000.0,0.0,-1591000.0,-10957000.0,-0.1886
