,0,1,2,3,4,5,6,7,8,9,10,11,12,13,14,15,16,17,18,19,20,21,22,23,24,25,26,27,28
Date,Cash and cash equivalents,Short-term investments,Cash and short-term investments,Receivables,Inventories,Total current assets,Property Plant & Equipment Net,Goodwill and Intangible Assets,Long-term investments,Tax assets,Total non-current assets,Total assets,Payables,Short-term debt,Total current liabilities,Long-term debt,Total debt,Deferred revenue,Tax Liabilities,Deposit Liabilities,Total non-current liabilities,Total liabilities,Other comprehensive income,Retained earnings (deficit),Total shareholders equity,Investments,Net Debt,Other Assets,Other Liabilities
2019-12-31,112467000.0,21680000.0,134147000.0,7213000.0,70979000.0,212339000.0,30368000.0,188370000.0,60231000.0,21759000.0,298707000.0,511046000.0,14746000.0,0.0,21269000.0,299569000.0,299569000.0,5818000.0,705000.0,0.0,304511000.0,464078000.0,83849000.0,-35236000.0,46968000.0,81911000.0,187102000.0,0.0,138298000.0
2018-12-31,21201000.0,32132000.0,53333000.0,2901000.0,91237000.0,147471000.0,27741000.0,185021000.0,0.0,0.0,274472000.0,421943000.0,9225000.0,9431000.0,31737000.0,208616000.0,218047000.0,12707000.0,374000.0,0.0,213014000.0,368249000.0,79899000.0,-24613000.0,53694000.0,32132000.0,196846000.0,0.0,123498000.0
2017-12-31,18219000.0,30826000.0,49045000.0,3249000.0,63296000.0,95615000.0,9172000.0,161056000.0,27393000.0,450000.0,203099000.0,298714000.0,3686000.0,7850000.0,39550000.0,186190000.0,194040000.0,0.0,479000.0,0.0,196255000.0,256277000.0,70894000.0,-26982000.0,42437000.0,58219000.0,175821000.0,0.0,20472000.0
2016-12-31,1836000.0,19956000.0,21792000.0,0.0,0.0,22018000.0,0.0,0.0,0.0,0.0,0.0,22018000.0,1498000.0,0.0,1751000.0,0.0,0.0,0.0,628000.0,0.0,0.0,1751000.0,43753000.0,-23703000.0,20267000.0,19956000.0,-1836000.0,0.0,0.0
2015-12-31,23467000.0,0.0,23467000.0,0.0,0.0,23513000.0,0.0,0.0,0.0,0.0,0.0,23513000.0,83000.0,0.0,351000.0,0.0,0.0,0.0,628000.0,0.0,0.0,351000.0,43617000.0,-20672000.0,23162000.0,0.0,-23467000.0,0.0,0.0
2014-12-31,24818000.0,0.0,24818000.0,0.0,0.0,24840000.0,0.0,0.0,0.0,0.0,0.0,24840000.0,122000.0,0.0,486000.0,0.0,0.0,0.0,628000.0,0.0,0.0,486000.0,43593000.0,-19456000.0,24354000.0,0.0,-24818000.0,0.0,0.0
2013-12-31,24598000.0,0.0,24598000.0,0.0,0.0,25964000.0,0.0,0.0,0.0,0.0,0.0,25964000.0,164000.0,0.0,625000.0,0.0,0.0,0.0,619000.0,0.0,0.0,625000.0,43588000.0,-18466000.0,25339000.0,0.0,-24598000.0,0.0,0.0
2012-12-31,18145000.0,0.0,18145000.0,2276000.0,1990000.0,22868000.0,4637000.0,0.0,0.0,37000.0,4702000.0,27570000.0,419000.0,47000.0,2269000.0,191000.0,238000.0,32000.0,590000.0,0.0,191000.0,2460000.0,42324000.0,-17195000.0,25110000.0,0.0,-17907000.0,0.0,0.0
2011-12-31,10665000.0,0.0,10665000.0,0.0,2142000.0,17483000.0,3890000.0,1207000.0,0.0,36000.0,5139000.0,22622000.0,556000.0,300000.0,2625000.0,0.0,300000.0,0.0,0.0,0.0,0.0,2625000.0,41591000.0,-21537000.0,19997000.0,0.0,-10365000.0,0.0,0.0
