,0,1,2,3,4,5,6,7,8,9,10,11,12,13,14,15,16,17,18,19,20,21,22,23,24,25,26,27,28
Date,Cash and cash equivalents,Short-term investments,Cash and short-term investments,Receivables,Inventories,Total current assets,Property Plant & Equipment Net,Goodwill and Intangible Assets,Long-term investments,Tax assets,Total non-current assets,Total assets,Payables,Short-term debt,Total current liabilities,Long-term debt,Total debt,Deferred revenue,Tax Liabilities,Deposit Liabilities,Total non-current liabilities,Total liabilities,Other comprehensive income,Retained earnings (deficit),Total shareholders equity,Investments,Net Debt,Other Assets,Other Liabilities
2018-12-31,4264767.0,0.0,4264767.0,2273189.0,1003623.0,7675186.0,8226009.0,3686111.0,0.0,0.0,11964007.0,19639193.0,721361.0,4578759.0,5931980.0,6296994.0,10875753.0,0.0,0.0,0.0,6296994.0,12228974.0,0.0,-32055410.0,7410219.0,0.0,6610986.0,133607.0,631860.0
2017-12-31,2375179.0,0.0,2375179.0,2667042.0,1196813.0,6350564.0,8809348.0,6132778.0,0.0,0.0,14958080.0,21308644.0,1021469.0,6101678.0,7666905.0,6706375.0,12808053.0,0.0,0.0,0.0,6706375.0,14373280.0,0.0,-31997035.0,6935364.0,0.0,10432874.0,111530.0,543758.0
2016-12-31,2241902.0,0.0,2241902.0,9335381.0,1167692.0,7028031.0,9068359.0,8579444.0,0.0,0.0,25960474.0,32988505.0,1066514.0,3395199.0,4910717.0,13288701.0,16683900.0,0.0,0.0,0.0,14109358.0,19020075.0,0.0,-24351118.0,13968430.0,0.0,14441998.0,-5716944.0,449004.0
2015-12-31,1297002.0,0.0,1297002.0,1861002.0,1410794.0,4748248.0,14655502.0,11026111.0,8296717.0,0.0,33997695.0,38745943.0,638593.0,3410449.0,4860807.0,16830393.0,20240842.0,0.0,2000.0,0.0,17710425.0,22571232.0,0.0,-15222269.0,16174711.0,8296717.0,18943840.0,179450.0,811765.0
2014-12-31,5792388.0,0.0,5792388.0,4403001.0,1219079.0,11894700.0,15963629.0,21275681.0,8296717.0,271298.0,45648633.0,57543333.0,893376.0,11505674.0,14367141.0,12365404.0,23871078.0,0.0,1000.0,0.0,13109981.0,27477122.0,0.0,-766690.0,30066211.0,8296717.0,18078690.0,480232.0,1968091.0
2013-12-31,11256.0,0.0,11256.0,2978666.0,96028.0,3329518.0,15048871.0,0.0,0.0,0.0,17431732.0,20761250.0,445947.0,7970450.0,8693976.0,11810468.0,19780918.0,0.0,0.0,0.0,11810468.0,20504444.0,0.0,0.0,256806.0,0.0,19769662.0,243568.0,277579.0
