,0,1,2,3,4,5,6,7,8,9,10,11,12,13,14,15,16,17,18,19,20,21,22,23,24,25,26,27,28,29,30
Date,Revenue,Revenue Growth,Cost of Revenue,Gross Profit,R&D Expenses,SG&A Expense,Operating Expenses,Operating Income,Interest Expense,Earnings before Tax,Income Tax Expense,Net Income - Non-Controlling int,Net Income - Discontinued ops,Net Income,Preferred Dividends,Net Income Com,EPS,EPS Diluted,Weighted Average Shs Out,Weighted Average Shs Out (Dil),Dividend per Share,Gross Margin,EBITDA Margin,EBIT Margin,Profit Margin,Free Cash Flow margin,EBITDA,EBIT,Consolidated Income,Earnings Before Tax Margin,Net Profit Margin
2018-12-31,779678292.33,0.37907061629,640787843.7048,138890448.6252,11635021.7077,75448625.1809,107157452.9667,31732995.6585,6155282.1997,27867004.3415,5894066.5702,537337.1925,0.0,21972937.7713,0.0,21972937.7713,0.4356,0.4197,3658474.3849,3652012.1563,0.0,0.1781,0.0068,0.0436,0.0041,-0.1292,36660926.1939,34022286.5412,22510274.9638,0.0357,0.0282
2017-12-31,565365024.1838,0.513773918548,472859885.127,92505139.0568,9383464.3289,53816203.1439,78173065.2963,14332073.7606,991837.9686,15497430.4716,-4764963.7243,-97793.2285,0.0,20262394.1959,30755290.2056,-10492896.0097,-0.4194,-0.4194,3882377.1161,1889483.2225,0.0,0.1636,0.005,0.0292,-0.0029,-0.0526,18518288.9964,16489268.4401,20164600.9674,0.0274,0.0358
2016-12-31,373480489.5608,0.390753781558,315864074.874,57616414.6868,7813102.9518,42198560.1152,61825485.9611,-4209071.2743,564866.8107,-6400719.9424,0.0,-17278.6177,0.0,-6400719.9424,85803599.712,-92204319.6544,-6.4118,-6.4118,3698460.3312,1035267.5306,0.0,0.1543,-0.0014,-0.0156,-0.0356,-0.1011,-3908135.3492,-5835853.1317,-6417998.5601,-0.0171,-0.0171
2015-12-31,268545370.513,,235101987.3671,33443383.1459,6301648.4363,49517639.80899999,66071329.5332,-32627946.3873,429825.9128,-34201663.8422,0.0,0.0,0.0,-34201663.8422,32920967.4935,-67122631.3357,-6.2564,-6.2564,,826457.5566,0.0,0.1245,-0.0183,-0.1258,-0.0385,-0.0815,-32066707.7492,-33771837.9294,-34201663.8422,-0.1274,-0.1274
