,0,1,2,3,4,5,6,7,8,9,10,11,12,13,14,15,16,17,18,19,20,21,22,23,24,25,26,27,28
Date,Cash and cash equivalents,Short-term investments,Cash and short-term investments,Receivables,Inventories,Total current assets,Property Plant & Equipment Net,Goodwill and Intangible Assets,Long-term investments,Tax assets,Total non-current assets,Total assets,Payables,Short-term debt,Total current liabilities,Long-term debt,Total debt,Deferred revenue,Tax Liabilities,Deposit Liabilities,Total non-current liabilities,Total liabilities,Other comprehensive income,Retained earnings (deficit),Total shareholders equity,Investments,Net Debt,Other Assets,Other Liabilities
2019-03-31,11480000.0,2887000.0,11480000.0,84122000.0,501684000.0,603248000.0,239273000.0,0.0,0.0,2417000.0,245634000.0,848882000.0,61024000.0,6763000.0,112377000.0,265900000.0,272663000.0,4098000.0,396000.0,0.0,301366000.0,431397000.0,23227000.0,409504000.0,417485000.0,2887000.0,261183000.0,0.0,17654000.0
2018-03-31,15102000.0,1142000.0,15102000.0,78796000.0,680828000.0,778012000.0,277025000.0,0.0,0.0,10289000.0,292419000.0,1070431000.0,69618000.0,9815000.0,194354000.0,414132000.0,423947000.0,60657000.0,855000.0,0.0,455857000.0,673501000.0,29312000.0,389647000.0,396930000.0,1142000.0,408845000.0,0.0,23290000.0
2017-03-31,11992000.0,2471000.0,11992000.0,72080000.0,598056000.0,688270000.0,237476000.0,0.0,0.0,0.0,257749000.0,946019000.0,72824000.0,8334000.0,132277000.0,329138000.0,337472000.0,0.0,0.0,0.0,337094000.0,511758000.0,32283000.0,410129000.0,434261000.0,2471000.0,325480000.0,0.0,42387000.0
2016-03-31,8602000.0,5025000.0,8602000.0,76788000.0,567707000.0,673887000.0,188837000.0,0.0,0.0,12897000.0,221440000.0,895327000.0,67410000.0,279815000.0,399458000.0,35967000.0,315782000.0,0.0,2974000.0,0.0,47909000.0,490153000.0,33008000.0,397539000.0,405174000.0,5025000.0,307180000.0,0.0,42786000.0
2015-03-31,10608000.0,6997000.0,10608000.0,69837000.0,472412000.0,587293000.0,185557000.0,0.0,0.0,14829000.0,218401000.0,805694000.0,68105000.0,2530000.0,123748000.0,271634000.0,274164000.0,0.0,1787000.0,0.0,282253000.0,453964000.0,37420000.0,343104000.0,351730000.0,6997000.0,263556000.0,0.0,47963000.0
2014-03-31,13839000.0,8412000.0,13839000.0,76964000.0,451250000.0,584059000.0,183917000.0,0.0,0.0,8412000.0,184794000.0,768853000.0,71219000.0,2277000.0,131288000.0,216239000.0,218516000.0,0.0,913000.0,0.0,243933000.0,375221000.0,68698000.0,333228000.0,393632000.0,8412000.0,204677000.0,0.0,0.0
2013-03-31,14104000.0,9400000.0,14104000.0,82933000.0,479730000.0,611466000.0,188407000.0,0.0,0.0,2097000.0,191683000.0,803149000.0,72128000.0,40170000.0,164567000.0,230016000.0,270186000.0,4154000.0,4100000.0,0.0,280816000.0,435983000.0,67287000.0,319472000.0,367166000.0,9400000.0,256082000.0,0.0,0.0
2012-03-31,9420000.0,18953000.0,9420000.0,77105000.0,432433000.0,543250000.0,192825000.0,0.0,0.0,403000.0,194786000.0,738036000.0,61074000.0,7336000.0,118168000.0,226873000.0,234209000.0,0.0,0.0,0.0,273832000.0,383363000.0,96972000.0,278082000.0,354673000.0,18953000.0,224789000.0,0.0,0.0
2011-03-31,4762000.0,0.0,4762000.0,78536000.0,455236000.0,556267000.0,188012000.0,0.0,0.0,7623000.0,188441000.0,744708000.0,64369000.0,142559000.0,261555000.0,90060000.0,232619000.0,0.0,3666000.0,0.0,129321000.0,390876000.0,-13981000.0,266849000.0,353832000.0,0.0,227857000.0,17733000.0,54627000.0
2010-03-31,7421000.0,0.0,7421000.0,73460000.0,446464000.0,540227000.0,178113000.0,0.0,0.0,10032000.0,179106000.0,719333000.0,67674000.0,6356000.0,135617000.0,207924000.0,214280000.0,0.0,9207000.0,0.0,248706000.0,384323000.0,-15030000.0,249201000.0,335010000.0,0.0,206859000.0,12882000.0,61587000.0
