,0,1,2,3,4,5,6,7,8,9,10,11,12,13,14
Date,Depreciation & Amortization,Stock-based compensation,Operating Cash Flow,Capital Expenditure,Acquisitions and disposals,Investment purchases and sales,Investing Cash flow,Issuance (repayment) of debt,Issuance (buybacks) of shares,Dividend payments,Financing Cash Flow,Effect of forex changes on cash,Net cash flow / Change in cash,Free Cash Flow,Net Cash/Marketcap
2018-12-31,270000.0,6412000.0,-90771000.0,-989000.0,0.0,20415000.0,19426000.0,40685000.0,151303000.0,0.0,191988000.0,0.0,120643000.0,-91760000.0,0.1876
2017-12-31,227000.0,3993000.0,-55739000.0,-345000.0,0.0,-12881000.0,-13226000.0,4920000.0,67252000.0,0.0,72068000.0,0.0,3103000.0,-56084000.0,0.0297
2016-12-31,155000.0,2421000.0,-38016000.0,-479000.0,0.0,-7291000.0,-7770000.0,8996000.0,45898000.0,0.0,54894000.0,0.0,9108000.0,-38495000.0,0.005
2015-12-31,118000.0,1433000.0,-25465000.0,-202000.0,0.0,0.0,-202000.0,0.0,50000.0,0.0,10683000.0,0.0,-14984000.0,-25667000.0,-0.0239
2015-06-30,189000.0,,-19270000.0,-29000.0,,,-29000.0,,,,29976000.0,,10677000.0,,-0.0239
2014-12-31,118000.0,539000.0,-25465000.0,-202000.0,0.0,0.0,-202000.0,9876000.0,10000.0,0.0,10683000.0,0.0,-14984000.0,-19299000.0,-0.0239
