,0,1,2,3,4,5,6,7,8,9,10,11,12,13,14,15,16,17,18,19,20,21,22,23,24,25,26,27,28,29,30
Date,Revenue,Revenue Growth,Cost of Revenue,Gross Profit,R&D Expenses,SG&A Expense,Operating Expenses,Operating Income,Interest Expense,Earnings before Tax,Income Tax Expense,Net Income - Non-Controlling int,Net Income - Discontinued ops,Net Income,Preferred Dividends,Net Income Com,EPS,EPS Diluted,Weighted Average Shs Out,Weighted Average Shs Out (Dil),Dividend per Share,Gross Margin,EBITDA Margin,EBIT Margin,Profit Margin,Free Cash Flow margin,EBITDA,EBIT,Consolidated Income,Earnings Before Tax Margin,Net Profit Margin
2019-06-30,0.0,-1.0,0.0,0.0,0.0,5437000.0,5437000.0,-11066000.0,1326000.0,-10720000.0,0.0,0.0,0.0,-10716000.0,0.0,-10716000.0,-7.74,-7.74,1384000.0,1384000.0,0.0,0.0,0.0,0.0,0.0,0.0,-10362000.0,-11066000.0,-10716000.0,0.0,0.0
2018-06-30,1507000.0,8.98013245033,413000.0,1094000.0,0.0,6450000.0,6450000.0,-10151000.0,869000.0,-9734000.0,-129000.0,0.0,0.0,-9604000.0,0.0,-9604000.0,-0.88,-0.88,10964000.0,10964000.0,0.0,0.7259455872589999,-6.5355009953600005,-6.73589913736,-6.3729263437300006,-4.06104844061,-9849000.0,-10151000.0,-9604000.0,-6.45919044459,-6.3729263437300006
2017-06-30,151000.0,-0.9747955266230001,142000.0,9000.0,0.0,8622000.0,8622000.0,-28080000.0,0.0,-28480000.0,0.0,0.0,0.0,-26236000.0,0.0,-26236000.0,-0.3,-0.3,87140000.0,87140000.0,0.0,0.0596026490066,-185.52317880799998,-185.960264901,-173.74834437099997,-56.410596026499995,-28014000.0,-28080000.0,-26236000.0,-188.609271523,-173.74834437099997
2016-06-30,5991000.0,-0.613907327447,7213000.0,-1222000.0,0.0,8514000.0,8514000.0,-22535000.0,439000.0,-23181000.0,0.0,0.0,0.0,-23072000.0,0.0,-23072000.0,-0.27,-0.27,86776000.0,86776000.0,0.0,-0.20397262560499999,-3.6164246369599997,-3.7614755466500003,-3.85110999833,-1.5793690535799998,-21666000.0,-22535000.0,-23072000.0,-3.8693039559300004,-3.85110999833
2015-06-30,15517000.0,-0.113668818187,19713000.0,-4196000.0,0.0,8974000.0,8974000.0,-38273000.0,372000.0,-38416000.0,0.0,0.0,0.0,-37882000.0,0.0,-37882000.0,-0.5,-0.5,75699000.0,75699000.0,0.0,-0.270413095315,-2.3632145388900003,-2.46652059032,-2.44132242057,-0.022878133659900005,-36670000.0,-38273000.0,-37882000.0,-2.47573628923,-2.44132242057
2014-06-30,17507000.0,29.236614853200003,17361000.0,146000.0,0.0,9958000.0,9958000.0,-13649000.0,381000.0,-13899000.0,0.0,0.0,0.0,-14243000.0,0.0,-14243000.0,-0.22,-0.22,66118000.0,66118000.0,0.0,0.00833952133432,-0.648654823785,-0.7796310047409999,-0.8135602901700001,-0.593591134975,-11356000.0,-13649000.0,-14243000.0,-0.793911007026,-0.8135602901700001
2013-06-30,579000.0,1.0,0.0,0.0,0.0,13599000.0,14349000.0,-18379000.0,302000.0,-6863000.0,0.0,0.0,0.0,-19923000.0,0.0,-19923000.0,-0.33,-0.33,0.0,0.0,0.0,0.0,-27.7841105354,-31.742659758200002,-34.409326424899994,-22.511226252199997,-16087000.0,-18379000.0,-19923000.0,-11.8531951641,-34.409326424899994
2012-06-30,0.0,-1.0,0.0,0.0,0.0,0.0,0.0,0.0,0.0,0.0,0.0,0.0,0.0,0.0,0.0,0.0,0.0,0.0,0.0,0.0,0.0,0.0,0.0,0.0,0.0,0.0,0.0,0.0,0.0,0.0,0.0
2011-06-30,10158000.0,0.0921406300398,9120000.0,1038000.0,0.0,12913000.0,16768000.0,-15730000.0,700000.0,-15463000.0,0.0,-157000.0,0.0,-15463000.0,0.0,-15463000.0,-20.48,-20.48,759812.0,759125.0,0.0,0.1022,-1.195,-1.4533,-1.5219999999999998,-1.3395,-12142000.0,-14763000.0,-15620000.0,-1.5222,-1.5222
2010-06-30,9301000.0,3.42483349191,8621000.0,680000.0,0.0,14216000.0,25644000.0,-24964000.0,668000.0,-21748000.0,0.0,-3667000.0,0.0,-21748000.0,0.0,-21748000.0,-28.8,-28.8,755258.0,753594.0,0.0,0.0731,-1.979,-2.2664,-2.338,-1.8618,-18406000.0,-21080000.0,-25415000.0,-2.3382,-2.3382
2009-06-30,2102000.0,5.4085,7449000.0,-5347000.0,1046000.0,16395000.0,24715000.0,-30062000.0,959000.0,-28576000.0,0.0,-703000.0,0.0,-28576000.0,0.0,-28576000.0,-4.8,-4.8,6002125.0,6002125.0,0.0,-2.5438,-11.755999999999998,-13.1384,-13.595,-14.6989,-24712000.0,-27617000.0,-29279000.0,-13.5947,-13.5947
