,0,1,2,3,4,5,6,7,8,9,10,11,12,13,14
Date,Depreciation & Amortization,Stock-based compensation,Operating Cash Flow,Capital Expenditure,Acquisitions and disposals,Investment purchases and sales,Investing Cash flow,Issuance (repayment) of debt,Issuance (buybacks) of shares,Dividend payments,Financing Cash Flow,Effect of forex changes on cash,Net cash flow / Change in cash,Free Cash Flow,Net Cash/Marketcap
2018-12-31,100520000.0,100789000.0,529526000.0,108207000.0,-0.0,1074230000.0,-989241000.0,-7500000.0,-170204000.0,-41450000.0,1747695000.0,-5691000.0,1282289000.0,421319000.0,0.0
2017-12-31,120387000.0,140461000.0,662349000.0,28217000.0,-0.0,972522000.0,-2647383000.0,121000000.0,-12998000.0,-17446000.0,1760490000.0,7895000.0,-216649000.0,634132000.0,0.0
2016-12-31,152328000.0,186303000.0,-349175000.0,28211000.0,-0.0,290489000.0,-5267116000.0,-9393000.0,-113462000.0,-3906000.0,5718204000.0,-12600000.0,101913000.0,-377386000.0,0.0
2015-12-31,101051000.0,165641000.0,-326829000.0,69822000.0,-604659000.0,749147000.0,-1976866000.0,-126637000.0,-117752000.0,-0.0,2424932000.0,-3601000.0,121237000.0,-396651000.0,0.0
2014-12-31,100534000.0,94006000.0,250269000.0,26632000.0,-80378000.0,698895000.0,-392936000.0,52569000.0,-689782000.0,-0.0,123197000.0,-7308000.0,-26778000.0,223637000.0,0.0
2013-12-31,99948000.0,137447000.0,702219000.0,32278000.0,-88592000.0,422157000.0,-1106274000.0,246813000.0,-13670000.0,-0.0,715024000.0,1650000.0,312619000.0,669941000.0,0.0
2012-12-31,75956000.0,40747000.0,-264267000.0,18837000.0,-120180000.0,518740000.0,-1225859000.0,-106939000.0,-11380000.0,-0.0,1725335000.0,1061000.0,236270000.0,-283104000.0,0.0
2011-12-31,68933000.0,26411000.0,45888000.0,59730000.0,-18817000.0,606453000.0,-716084000.0,-91084000.0,-48505000.0,-0.0,585145000.0,-807000.0,-85858000.0,-13842000.0,0.0
2010-12-31,0.0,0.0,0.0,0.0,-0.0,0.0,91709000.0,-0.0,0.0,-0.0,0.0,0.0,91709000.0,0.0,0.0
2009-12-31,25978000.0,34625000.0,-347250000.0,-27892000.0,-251652000.0,-570037000.0,-850813000.0,205817000.0,140003000.0,0.0,1120158000.0,0.0,-77905000.0,-375142000.0,0.2244
