,0,1,2,3,4,5,6,7,8,9,10,11,12,13,14,15,16,17,18,19,20,21,22,23,24,25,26,27,28
Date,Cash and cash equivalents,Short-term investments,Cash and short-term investments,Receivables,Inventories,Total current assets,Property Plant & Equipment Net,Goodwill and Intangible Assets,Long-term investments,Tax assets,Total non-current assets,Total assets,Payables,Short-term debt,Total current liabilities,Long-term debt,Total debt,Deferred revenue,Tax Liabilities,Deposit Liabilities,Total non-current liabilities,Total liabilities,Other comprehensive income,Retained earnings (deficit),Total shareholders equity,Investments,Net Debt,Other Assets,Other Liabilities
2018-12-31,3717000.0,0.0,3717000.0,854000.0,0.0,4906000.0,143000.0,1319000.0,0.0,0.0,1462000.0,6368000.0,1598000.0,0.0,1598000.0,0.0,0.0,0.0,0.0,0.0,1060000.0,2658000.0,0.0,-49689000.0,3710000.0,0.0,,,0.0
2017-12-31,3514000.0,0.0,3514000.0,644000.0,0.0,4414000.0,165000.0,1287000.0,0.0,0.0,1513000.0,5927000.0,1571000.0,0.0,1571000.0,0.0,0.0,0.0,0.0,0.0,1215000.0,2786000.0,0.0,-37936000.0,3141000.0,0.0,,,0.0
2016-12-31,1311000.0,0.0,1311000.0,144000.0,0.0,1606000.0,70000.0,1538000.0,0.0,0.0,1621000.0,3227000.0,44000.0,63000.0,954000.0,0.0,63000.0,206000.0,0.0,0.0,1101000.0,2055000.0,0.0,-32672000.0,1172000.0,0.0,,,847000.0
