,0,1,2,3,4,5,6,7,8,9,10,11,12,13,14,15,16,17,18,19,20,21,22,23,24,25,26,27,28,29,30
Date,Revenue,Revenue Growth,Cost of Revenue,Gross Profit,R&D Expenses,SG&A Expense,Operating Expenses,Operating Income,Interest Expense,Earnings before Tax,Income Tax Expense,Net Income - Non-Controlling int,Net Income - Discontinued ops,Net Income,Preferred Dividends,Net Income Com,EPS,EPS Diluted,Weighted Average Shs Out,Weighted Average Shs Out (Dil),Dividend per Share,Gross Margin,EBITDA Margin,EBIT Margin,Profit Margin,Free Cash Flow margin,EBITDA,EBIT,Consolidated Income,Earnings Before Tax Margin,Net Profit Margin
2018-12-31,1961820000.0,0.6483084384000001,961575000.0,1000245000.0,0.0,703173000.0,884792000.0,115453000.0,61239000.0,59658000.0,9262000.0,0.0,0.0,50396000.0,0.0,50396000.0,1.52,1.45,33258000.0,34832000.0,0.0,0.509855644249,0.140364049709,0.0588499454588,0.0256883913917,0.0818270789369,275369000.0,115453000.0,50396000.0,0.030409517692800002,0.0256883913917
2017-12-31,1190202000.0,0.0493535668439,619650000.0,569077000.0,0.0,315505000.0,507477000.0,61600000.0,27836000.0,35245000.0,5160000.0,0.0,0.0,30085000.0,0.0,30085000.0,0.91,0.88,33113000.0,34106000.0,0.0,0.47813480400799996,0.152011171213,0.051755920423600006,0.025277221849700004,0.17037360044799998,180924000.0,61600000.0,30085000.0,0.0296126203787,0.025277221849700004
2016-12-31,1134224000.0,0.0705993511599,566117000.0,568107000.0,0.0,352088000.0,518997000.0,49110000.0,23023000.0,26588000.0,10682000.0,0.0,0.0,15906000.0,0.0,15906000.0,0.47,0.45,34097000.0,35190000.0,0.0,0.5008772517600001,0.156223991028,0.043298325551199994,0.0140236849159,0.120927612182,177193000.0,49110000.0,15906000.0,0.0234415776778,0.0140236849159
2015-12-31,1059429000.0,0.14957898391899999,528078000.0,531351000.0,0.0,357768000.0,513086000.0,18265000.0,20998000.0,-1989000.0,-1146000.0,0.0,0.0,-843000.0,0.0,-843000.0,-0.02,-0.02,36761000.0,36761000.0,0.0,0.501544700022,0.137044577787,0.017240419131400002,-0.00079571165222,0.10344157088400001,145189000.0,18265000.0,-843000.0,-0.0018774264249900002,-0.00079571165222
2014-12-31,921580000.0,0.176021703788,452720000.0,468860000.0,0.0,328992000.0,462615000.0,6245000.0,16732000.0,-9979000.0,-2119000.0,0.0,0.0,-7860000.0,0.0,-7860000.0,-0.2,-0.2,38452000.0,38452000.0,0.0,0.508756700449,0.127934633998,0.00677640573797,-0.00852883092081,0.103429978949,117902000.0,6245000.0,-7860000.0,-0.0108281429719,-0.00852883092081
2013-12-31,783642000.0,0.223247958241,369593000.0,414049000.0,0.0,282996000.0,391991000.0,22058000.0,9446000.0,12920000.0,3635000.0,0.0,0.0,9285000.0,0.0,9285000.0,0.25,0.24,37680000.0,39493000.0,0.0,0.528364993198,0.133506116313,0.028148057403799998,0.011848522667200002,0.108067204157,104621000.0,22058000.0,9285000.0,0.0164871203943,0.011848522667200002
2012-12-31,640624000.0,0.353612103028,294857000.0,345767000.0,0.0,219308000.0,305054000.0,40713000.0,597000.0,40158000.0,17160000.0,0.0,0.0,22998000.0,0.0,22998000.0,0.64,0.61,35826000.0,37432000.0,0.0,0.539734696171,0.141771148131,0.0635520992033,0.0358993731112,0.17302817253199998,90822000.0,40713000.0,22998000.0,0.0626857563875,0.0358993731112
2011-12-31,473270000.0,0.538054057919,219542000.0,253728000.0,0.0,172662000.0,238337000.0,15391000.0,64000.0,15362000.0,1314000.0,0.0,0.0,14048000.0,0.0,14048000.0,0.43,0.4,32788.0,35007.0,0.0,0.536116804361,0.105316204281,0.032520548524099996,0.0296828448877,0.08472753396579999,49843000.0,15391000.0,14048000.0,0.0324592727196,0.0296828448877
2010-12-31,307707000.0,0.24864871445300002,134491000.0,173216000.0,48393000.0,100048000.0,148441000.0,24775000.0,42000.0,25215000.0,8088000.0,0.0,0.0,17127000.0,0.0,17127000.0,0.63,0.59,27442153.0,27025000.0,0.0,0.5629,0.166,0.0821,0.055999999999999994,0.1847,51229000.0,25257000.0,17127000.0,0.0819,0.0557
2009-12-31,246432000.0,0.1544,111648000.0,134784000.0,46003000.0,80071000.0,126074000.0,8710000.0,157000.0,9367000.0,3514000.0,0.0,0.0,5853000.0,0.0,5853000.0,0.23,0.22,25673740.0,25420000.0,0.0,0.5469,0.149,0.0386,0.024,0.147,36718000.0,9524000.0,5853000.0,0.038,0.0238
