,0,1,2,3,4,5,6,7,8,9,10,11,12,13,14
Date,Depreciation & Amortization,Stock-based compensation,Operating Cash Flow,Capital Expenditure,Acquisitions and disposals,Investment purchases and sales,Investing Cash flow,Issuance (repayment) of debt,Issuance (buybacks) of shares,Dividend payments,Financing Cash Flow,Effect of forex changes on cash,Net cash flow / Change in cash,Free Cash Flow,Net Cash/Marketcap
2018-12-30,111548000.0,14512000.0,294379000.0,177083000.0,-0.0,-258307000.0,-177082000.0,-2131000.0,-258307000.0,-0.0,-134528000.0,0.0,-17231000.0,117296000.0,0.0
2017-12-31,97207000.0,14221000.0,309567000.0,198624000.0,-0.0,-203392000.0,-198594000.0,-257800000.0,-203392000.0,-0.0,-103959000.0,0.0,7014000.0,110943000.0,0.0
2017-01-01,80877000.0,13399000.0,254351000.0,181018000.0,-0.0,-294265000.0,-180803000.0,-258514000.0,-294265000.0,-0.0,-197152000.0,0.0,-123604000.0,73333000.0,0.0
2016-01-03,69911000.0,8018000.0,239898000.0,125313000.0,-0.0,-25735000.0,-128312000.0,-1896000.0,-25735000.0,-0.0,-106030000.0,0.0,5556000.0,114585000.0,0.0
2014-12-28,61856000.0,5355000.0,181218000.0,127065000.0,-0.0,0.0,-126671000.0,-57585000.0,-130513000.0,-0.0,-1686000.0,0.0,52861000.0,54153000.0,0.0
2013-12-29,49699000.0,5780000.0,160588000.0,87463000.0,-0.0,0.0,-86291000.0,-1370000.0,270884000.0,-0.0,-63856000.0,0.0,10441000.0,73125000.0,0.0
2012-12-30,35773000.0,4653000.0,84431000.0,-36828000.0,-129875000.0,0.0,-166703000.0,129397000.0,5401000.0,0.0,134941000.0,0.0,52669000.0,47603000.0,-0.1254
2012-01-01,54645000.0,3774000.0,52384000.0,-27594000.0,-232911000.0,0.0,-260505000.0,291112000.0,206000000.0,0.0,217745000.0,0.0,9624000.0,24790000.0,-0.1254
