,0,1,2,3,4,5,6,7,8,9,10,11,12,13,14,15,16,17,18,19,20,21,22,23,24,25,26,27,28
Date,Cash and cash equivalents,Short-term investments,Cash and short-term investments,Receivables,Inventories,Total current assets,Property Plant & Equipment Net,Goodwill and Intangible Assets,Long-term investments,Tax assets,Total non-current assets,Total assets,Payables,Short-term debt,Total current liabilities,Long-term debt,Total debt,Deferred revenue,Tax Liabilities,Deposit Liabilities,Total non-current liabilities,Total liabilities,Other comprehensive income,Retained earnings (deficit),Total shareholders equity,Investments,Net Debt,Other Assets,Other Liabilities
2019-12-31,1083611.0,0.0,1083611.0,0.0,0.0,1286083.0,0.0,0.0,316958514.0,1361.0,316959875.0,318245958.0,181732.0,0.0,276368.0,0.0,0.0,0.0,94636.0,0.0,0.0,313245954.0,4651140.0,348716.0,5000004.0,316958514.0,-1083611.0,0.0,312969586.0
