,0,1,2,3,4,5,6,7,8,9,10,11,12,13,14
Date,Depreciation & Amortization,Stock-based compensation,Operating Cash Flow,Capital Expenditure,Acquisitions and disposals,Investment purchases and sales,Investing Cash flow,Issuance (repayment) of debt,Issuance (buybacks) of shares,Dividend payments,Financing Cash Flow,Effect of forex changes on cash,Net cash flow / Change in cash,Free Cash Flow,Net Cash/Marketcap
2019-12-31,29900000.0,9100000.0,109800000.0,0.0,-0.0,0.0,-77700000.0,-0.0,0.0,-1000000.0,-8000000.0,-5700000.0,18400000.0,109800000.0,0.0
2018-12-31,19500000.0,2000000.0,108000000.0,0.0,-7900000.0,0.0,-189900000.0,-0.0,61200000.0,-0.0,-6600000.0,-9900000.0,-98400000.0,108000000.0,0.0
2017-12-31,19100000.0,0.0,-36000000.0,0.0,-353700000.0,433500000.0,66000000.0,337000000.0,0.0,0.0,53600000.0,9900000.0,93500000.0,-36000000.0,0.1055
2016-12-31,6700000.0,0.0,-46800000.0,0.0,201000000.0,-225200000.0,18500000.0,-13200000.0,0.0,0.0,30900000.0,-9400000.0,-6800000.0,-46800000.0,0.1055
2015-12-31,5500000.0,0.0,9500000.0,0.0,14300000.0,55600000.0,48600000.0,0.0,0.0,0.0,-21200000.0,-4500000.0,32400000.0,9500000.0,0.1055
