,0,1,2,3,4,5,6,7,8,9,10,11,12,13,14
Date,Depreciation & Amortization,Stock-based compensation,Operating Cash Flow,Capital Expenditure,Acquisitions and disposals,Investment purchases and sales,Investing Cash flow,Issuance (repayment) of debt,Issuance (buybacks) of shares,Dividend payments,Financing Cash Flow,Effect of forex changes on cash,Net cash flow / Change in cash,Free Cash Flow,Net Cash/Marketcap
2019-12-31,863005.0,74623.0,7023117.0,616906.0,-0.0,5487335.0,-18459476.0,-41490744.0,-11929.0,-1221766.0,13568200.0,0.0,2131841.0,6406211.0,0.0
2018-12-31,696510.0,17627.0,6560776.0,3382015.0,-0.0,488996.0,-47249700.0,-22971429.0,-306032.0,-1196332.0,42049295.0,0.0,1360371.0,3178761.0,0.0
2017-12-31,499726.0,0.0,5882947.0,1955067.0,-0.0,513478.0,-35086383.0,-13447619.0,-122340.0,-1120872.0,36821941.0,0.0,7618505.0,3927880.0,0.0
2016-12-31,630018.0,0.0,5181703.0,1455043.0,-0.0,10347679.0,-39552022.0,-7590476.0,-6658.0,-1070047.0,29809962.0,0.0,-4560357.0,3726660.0,0.0
2015-12-31,669728.0,0.0,4470467.0,370837.0,-0.0,4143139.0,-22838674.0,-5133333.0,-31080273.0,-1019135.0,36889783.0,0.0,18521576.0,4099630.0,0.0
2014-12-31,611534.0,0.0,4414361.0,2311767.0,-0.0,2460175.0,-24149569.0,-11800000.0,-12558697.0,-815308.0,-3076255.0,0.0,-22811463.0,2102594.0,0.0
2013-12-31,752463.0,0.0,3987180.0,1105919.0,-0.0,4340089.0,-30360984.0,-2000000.0,-35370160.0,-509567.0,25162912.0,0.0,-1210892.0,2881261.0,0.0
2012-12-31,0.0,0.0,0.0,0.0,-0.0,0.0,0.0,-0.0,0.0,-0.0,0.0,0.0,0.0,0.0,0.0
2011-12-31,0.0,0.0,0.0,0.0,-0.0,0.0,0.0,-0.0,0.0,-0.0,0.0,0.0,0.0,0.0,0.0
2010-12-31,990377.0,0.0,4002268.0,-2362448.0,0.0,-13631944.0,-15073314.0,0.0,0.0,-254784.0,3845264.0,0.0,-7225782.0,1639820.0,0.1644
2009-12-31,927165.0,0.0,3032411.0,-4141012.0,0.0,-4376323.0,-8517335.0,570000.0,0.0,-178349.0,21281657.0,0.0,15796733.0,-1108601.0,0.1644
