,0,1,2,3,4,5,6,7,8,9,10,11,12,13,14
Date,Depreciation & Amortization,Stock-based compensation,Operating Cash Flow,Capital Expenditure,Acquisitions and disposals,Investment purchases and sales,Investing Cash flow,Issuance (repayment) of debt,Issuance (buybacks) of shares,Dividend payments,Financing Cash Flow,Effect of forex changes on cash,Net cash flow / Change in cash,Free Cash Flow,Net Cash/Marketcap
2019-12-31,38430000.0,127300000.0,-163737000.0,70753000.0,-0.0,-206976000.0,-277729000.0,-0.0,274129000.0,-0.0,637842000.0,0.0,196376000.0,-234490000.0,0.0
2018-12-31,28562000.0,78900000.0,-203536000.0,0.0,-598151000.0,26740000.0,-592630000.0,-0.0,580056000.0,-0.0,713407000.0,0.0,-82759000.0,-203536000.0,0.0
2017-12-31,23772000.0,63802000.0,-118900000.0,41657000.0,-0.0,653200000.0,129861000.0,-0.0,-160945000.0,-0.0,41311000.0,0.0,52272000.0,-160557000.0,0.0
2016-12-31,18034000.0,52471000.0,-96971000.0,27835000.0,-0.0,699800000.0,68193000.0,-0.0,-108673000.0,-0.0,35196000.0,0.0,6418000.0,-124806000.0,0.0
2015-12-31,14505000.0,41836000.0,-133203000.0,13392000.0,-0.0,367200000.0,-375850000.0,-0.0,424363000.0,-0.0,554381000.0,0.0,45328000.0,-146595000.0,0.0
2014-12-31,12640000.0,40619000.0,-59999000.0,17176000.0,-0.0,504100000.0,36622000.0,-0.0,-56927000.0,-0.0,16188000.0,0.0,-7189000.0,-77175000.0,0.0
2013-12-31,6732000.0,31406000.0,-1110000.0,22154000.0,-0.0,0.0,-24636000.0,-0.0,-64116000.0,-0.0,35199000.0,0.0,9453000.0,-23264000.0,0.0
2012-12-31,3585000.0,25340000.0,11481000.0,10485000.0,-0.0,0.0,-80176000.0,-0.0,-54663000.0,-0.0,35724000.0,0.0,-32971000.0,996000.0,0.0
2011-12-31,-8304000.0,19984000.0,-124031000.0,11252000.0,-0.0,0.0,2554000.0,-0.0,80419000.0,-0.0,187984000.0,0.0,66507000.0,-135283000.0,0.0
2010-12-31,3562000.0,14330000.0,6808000.0,-3548000.0,0.0,-8022000.0,-11544000.0,0.0,7377000.0,0.0,7377000.0,0.0,2641000.0,3260000.0,0.1859
2009-12-31,3260000.0,11849000.0,-61755000.0,-4589000.0,0.0,-142829000.0,-147446000.0,0.0,196887000.0,0.0,196887000.0,0.0,-12314000.0,-66344000.0,0.2553
