,0,1,2,3,4,5,6,7,8,9,10,11,12,13,14,15,16,17,18,19,20,21,22,23,24,25,26,27,28,29,30
Date,Revenue,Revenue Growth,Cost of Revenue,Gross Profit,R&D Expenses,SG&A Expense,Operating Expenses,Operating Income,Interest Expense,Earnings before Tax,Income Tax Expense,Net Income - Non-Controlling int,Net Income - Discontinued ops,Net Income,Preferred Dividends,Net Income Com,EPS,EPS Diluted,Weighted Average Shs Out,Weighted Average Shs Out (Dil),Dividend per Share,Gross Margin,EBITDA Margin,EBIT Margin,Profit Margin,Free Cash Flow margin,EBITDA,EBIT,Consolidated Income,Earnings Before Tax Margin,Net Profit Margin
2018-12-31,388574.0,-0.39384664822800003,270107.0,118467.0,493410.0,3721130.0,5687271.0,-5568804.0,3966.0,-5574163.0,0.0,0.0,0.0,-5574163.0,15125.0,-5589288.0,-0.81,-0.81,8700204.0,6898047.0,0.0,0.3049,-13.84,-14.335,-14.384,-9.8877,-5377823.0,-5570197.0,-5574163.0,-14.3452,-14.3452
2017-12-31,641049.0,-0.33667797297700003,272372.0,368677.0,302043.0,2952882.0,4267654.0,-3898977.0,161852.0,-4424503.0,0.0,0.0,0.0,-4424503.0,0.0,-4424503.0,-1.0,-1.0,4718651.0,4403479.0,0.0,0.5751,-6.3420000000000005,-6.6495,-6.902,-4.2241,-4065708.0,-4262651.0,-4424503.0,-6.902,-6.902
2016-12-31,966422.0,-0.21735165734,228902.0,737520.0,120638.0,2438001.0,3211258.0,-2473738.0,40228.0,-2196834.0,0.0,0.0,0.0,-2196834.0,0.0,-2196834.0,-0.7,-0.7,3133789.0,3125022.0,0.0,0.7631,-2.046,-2.2315,-2.273,-2.0538,-1977765.0,-2156606.0,-2196834.0,-2.2732,-2.2732
2015-12-31,1234810.0,1.25033395721,214004.0,1020806.0,330554.0,1282952.0,2717650.0,-1696844.0,0.0,-1696282.0,0.0,0.0,0.0,-1696282.0,0.0,-1696282.0,-0.54,-0.54,3117974.0,3114241.0,0.0,0.8267,-1.237,-1.3737,-1.374,-1.0843,-1527230.0,-1696282.0,-1696282.0,-1.3737,-1.3737
2014-12-31,548723.0,-0.487863518128,158936.0,389787.0,219132.0,1020262.0,2225998.0,-1836211.0,0.0,-3116080.0,0.0,0.0,0.0,-3116080.0,0.0,-3116080.0,-2.0,-2.0,3091205.0,3051723.0,0.0,0.7104,-5.638,-5.6788,-5.678999999999999,-3.0989999999999998,-3093431.0,-3116080.0,-3116080.0,-5.6788,-5.6788
2013-12-31,1071439.0,0.08610246943989999,488627.0,582812.0,14275.0,709948.0,1317582.0,-734770.0,0.0,-734117.0,0.0,0.0,0.0,-734117.0,0.0,-734117.0,0.0,0.0,2796330.0,2449607.0,0.0,0.544,-0.5920000000000001,-0.6852,-0.685,-0.3014,-634017.0,-734117.0,-734117.0,-0.6852,-0.6852
2012-12-31,986499.0,0.237215841395,554828.0,431671.0,0.0,649926.0,1117668.0,-685997.0,112.0,-685566.0,0.0,0.0,0.0,-685566.0,0.0,-685566.0,0.0,0.0,2138337.0,2139700.0,0.0,0.4376,-0.583,-0.6948,-0.695,-0.4891,-575275.0,-685454.0,-685566.0,-0.6949,-0.6949
2011-12-31,797354.0,0.599493685106,412396.0,384958.0,0.0,426519.0,1296200.0,-911242.0,123.0,-910129.0,0.0,0.0,0.0,-910129.0,0.0,-910129.0,0.0,0.0,1973337.0,1852845.0,0.0,0.4828,-1.115,-1.1413,-1.141,-0.7329,-888844.0,-910006.0,-910129.0,-1.1414,-1.1414
2010-12-31,498504.0,,107063.0,391441.0,0.0,407358.0,801387.0,-409946.0,17000.0,-421946.0,0.0,0.0,0.0,-421946.0,0.0,-421946.0,0.0,0.0,1570837.0,1151795.0,0.0,0.7852,-0.784,-0.8123,-0.846,-1.0596,-391007.0,-404946.0,-421946.0,-0.8464,-0.8464
