,0,1,2,3,4,5,6,7,8,9,10,11,12,13,14
Date,Depreciation & Amortization,Stock-based compensation,Operating Cash Flow,Capital Expenditure,Acquisitions and disposals,Investment purchases and sales,Investing Cash flow,Issuance (repayment) of debt,Issuance (buybacks) of shares,Dividend payments,Financing Cash Flow,Effect of forex changes on cash,Net cash flow / Change in cash,Free Cash Flow,Net Cash/Marketcap
2019-04-30,5473269.0,166612.0,-1619500.0,0.0,-0.0,0.0,-2361629.0,-0.0,0.0,-0.0,3265340.0,0.0,1005810.0,-1619500.0,0.0
2018-04-30,5617009.0,83659.0,-4717084.0,0.0,-0.0,0.0,-3731370.0,-880000.0,-1625582.0,-0.0,6676729.0,0.0,-1771725.0,-4717084.0,0.0
2017-04-30,5310867.0,332783.0,-53761.0,0.0,-0.0,0.0,-3505486.0,-0.0,-3489004.0,-0.0,2727303.0,0.0,-831944.0,-53761.0,0.0
2016-04-30,5590275.0,588245.0,13130447.0,0.0,-0.0,0.0,-3049943.0,-0.0,-4318068.0,-0.0,-8623453.0,0.0,1457051.0,13130447.0,0.0
2015-04-30,5413882.0,59648.0,-2781680.0,0.0,-0.0,0.0,-4802389.0,-2289500.0,-2810256.0,-0.0,5011967.0,0.0,-2572102.0,-2781680.0,0.0
2014-04-30,5138343.0,89219.0,1696831.0,0.0,-0.0,-300410.0,-8366039.0,-0.0,-141617.0,-0.0,7501796.0,0.0,832588.0,1696831.0,0.0
2013-04-30,4654888.0,189305.0,3751631.0,0.0,-0.0,0.0,-6006446.0,-26832.0,-4567831.0,-0.0,2193615.0,0.0,-61200.0,3751631.0,0.0
2012-04-30,0.0,0.0,0.0,0.0,-0.0,0.0,0.0,-0.0,0.0,-0.0,0.0,0.0,0.0,0.0,0.0
2011-04-30,4440426.0,9657.0,-185067.0,-4920081.0,0.0,0.0,-4920081.0,5097999.0,92679.0,0.0,5190678.0,0.0,85530.0,-5105148.0,-1.1218
2010-04-30,4007026.0,16779.0,8061036.0,-2578873.0,0.0,0.0,-1345043.0,-6201600.0,0.0,0.0,-6444673.0,0.0,271320.0,5482163.0,-0.7147
