,0,1,2,3,4,5,6,7,8,9,10,11,12,13,14,15,16,17,18,19,20,21,22,23,24,25,26,27,28,29,30
Date,Revenue,Revenue Growth,Cost of Revenue,Gross Profit,R&D Expenses,SG&A Expense,Operating Expenses,Operating Income,Interest Expense,Earnings before Tax,Income Tax Expense,Net Income - Non-Controlling int,Net Income - Discontinued ops,Net Income,Preferred Dividends,Net Income Com,EPS,EPS Diluted,Weighted Average Shs Out,Weighted Average Shs Out (Dil),Dividend per Share,Gross Margin,EBITDA Margin,EBIT Margin,Profit Margin,Free Cash Flow margin,EBITDA,EBIT,Consolidated Income,Earnings Before Tax Margin,Net Profit Margin
2019-12-31,50131000.0,-0.00995358941444,1065000.0,49066000.0,0.0,111000.0,716000.0,21894000.0,9636000.0,21894000.0,5610000.0,0.0,0.0,16198000.0,0.0,16198000.0,1.27,1.27,12725000.0,12730000.0,0.42003142183799996,0.97875566017,0.47483592986400003,0.436735752329,0.32311344278,0.22937902694899998,23804000.0,21894000.0,16198000.0,0.436735752329,0.32311344278
2018-12-31,50635000.0,0.11217272887,8685000.0,41950000.0,0.0,4580000.0,5446000.0,21143000.0,5272000.0,21143000.0,5380000.0,0.0,0.0,24997000.0,0.0,24997000.0,1.96,1.96,12739000.0,12753000.0,0.31984631067200003,0.8284783252689999,0.450696158783,0.41755702577299997,0.49367038609700004,0.33895526809500004,22821000.0,21143000.0,24997000.0,0.41755702577299997,0.49367038609700004
2017-12-31,45528000.0,0.19030562890500002,8305000.0,37223000.0,0.0,4799000.0,5113000.0,19785000.0,2273000.0,19785000.0,8523000.0,0.0,0.0,11262000.0,0.0,11262000.0,0.89,0.89,12682000.0,12718000.0,0.219374115427,0.817584782991,0.45343524863799994,0.434567738535,0.247364259357,0.355319803198,20644000.0,19785000.0,11262000.0,0.434567738535,0.247364259357
2016-12-31,38249000.0,0.0766783954961,9408000.0,28841000.0,0.0,6296000.0,6427000.0,15899000.0,2403000.0,15899000.0,6261000.0,0.0,0.0,9638000.0,0.0,9638000.0,0.76,0.76,12652000.0,12669000.0,0.139790038677,0.754032785171,0.480273994091,0.415670997935,0.251980443933,0.478339302988,18370000.0,15899000.0,9638000.0,0.415670997935,0.251980443933
2015-12-31,35525000.0,0.0435638329123,9137000.0,26388000.0,0.0,5536000.0,5669000.0,11516000.0,3346000.0,11516000.0,4408000.0,0.0,0.0,7108000.0,0.0,7108000.0,0.56,0.56,12629000.0,12639000.0,0.040034812880800005,0.742800844476,0.395467980296,0.324166080225,0.200084447572,0.382744546094,14049000.0,11516000.0,7108000.0,0.324166080225,0.200084447572
2014-12-31,34042000.0,-0.0239132928088,8329000.0,25713000.0,0.0,5321000.0,5522000.0,8112000.0,4247000.0,8112000.0,3061000.0,0.0,0.0,5051000.0,0.0,5051000.0,0.46,0.46,10945.0,10953.0,0.0,0.7553316491390001,0.307972504553,0.23829387227499998,0.14837553610200002,0.326126549556,10484000.0,8112000.0,5051000.0,0.23829387227499998,0.14837553610200002
2013-12-31,34876000.0,-0.122925259028,6896000.0,27980000.0,0.0,4447000.0,4743000.0,-16135000.0,6475000.0,-16135000.0,-6501000.0,0.0,0.0,-9634000.0,0.0,-9634000.0,-1.14,-1.14,8461000.0,8461000.0,0.0,0.8022709026260001,-0.39282027755500004,-0.46263906411300004,-0.276235806859,0.553446496158,-13700000.0,-16135000.0,-9634000.0,-0.46263906411300004,-0.276235806859
2012-12-31,39764000.0,-0.0674265343934,5962000.0,33802000.0,0.0,3977000.0,4489000.0,-897000.0,11088000.0,1781000.0,-658000.0,0.0,0.0,-897000.0,0.0,-897000.0,-0.11,-0.11,8451.0,8451.0,89.9301857768,0.850065385776,0.0464741977668,-0.0225580927472,-0.0225580927472,0.5207725580929999,1848000.0,-897000.0,-897000.0,0.044789256613999996,-0.0225580927472
2011-12-31,42639000.0,0.07780389777810001,0.0,0.0,0.0,0.0,515000.0,-2159000.0,12822000.0,-2159000.0,-492000.0,0.0,0.0,-1667000.0,0.0,-1667000.0,-0.2,-0.2,0.0,0.0,0.0,0.0,0.008771312648049999,-0.050634395740999996,-0.039095663594400004,0.43617345622599996,374000.0,-2159000.0,-1667000.0,-0.050634395740999996,-0.039095663594400004
2010-12-31,39561000.0,-0.23823002715,0.0,39561000.0,0.0,37497000.0,41720000.0,-2159000.0,0.0,-2159000.0,-492000.0,0.0,0.0,-1667000.0,0.0,-1667000.0,-0.2,-0.2,8443436.0,8443436.0,0.24,1.0,0.006,-0.0546,-0.042,0.4701,246000.0,-2159000.0,-1667000.0,-0.0546,-0.0421
2009-12-31,51933000.0,-0.0878,0.0,51933000.0,0.0,39733000.0,40248000.0,11685000.0,0.0,11685000.0,4412000.0,0.0,0.0,7273000.0,1876000.0,5397000.0,0.64,0.64,8418963.0,8418963.0,0.64,1.0,0.261,0.225,0.10400000000000001,0.2594,13565000.0,11685000.0,7273000.0,0.225,0.14
