,0,1,2,3,4,5,6,7,8,9,10,11,12,13,14
Date,Depreciation & Amortization,Stock-based compensation,Operating Cash Flow,Capital Expenditure,Acquisitions and disposals,Investment purchases and sales,Investing Cash flow,Issuance (repayment) of debt,Issuance (buybacks) of shares,Dividend payments,Financing Cash Flow,Effect of forex changes on cash,Net cash flow / Change in cash,Free Cash Flow,Net Cash/Marketcap
2019-12-31,19469000.0,23170000.0,233780000.0,18311000.0,-37173000.0,-6097000.0,-27748000.0,-0.0,-101768000.0,-48426000.0,-142178000.0,216000.0,64070000.0,215469000.0,0.0
2018-12-31,22482000.0,21076000.0,154376000.0,12450000.0,-0.0,-5147000.0,11065000.0,-0.0,-105924000.0,-47316000.0,-145810000.0,-814000.0,18817000.0,141926000.0,0.0
2017-12-31,21389000.0,20847000.0,157935000.0,14775000.0,-16795000.0,-20271000.0,-13417000.0,-0.0,-99412000.0,-0.0,-90338000.0,919000.0,55099000.0,143160000.0,0.0
2016-12-31,21102000.0,19509000.0,153604000.0,15897000.0,-0.0,-33790000.0,-3884000.0,-0.0,-86005000.0,-0.0,-95453000.0,-566000.0,53701000.0,137707000.0,0.0
2015-12-31,20757000.0,18698000.0,134720000.0,19459000.0,-9129000.0,-92284000.0,-33660000.0,-0.0,-135637000.0,-0.0,-110096000.0,0.0,-9036000.0,115261000.0,0.0
2014-12-31,15077000.0,19260000.0,151975000.0,18341000.0,-81885000.0,-13565000.0,-108911000.0,-0.0,-142228000.0,-0.0,-141889000.0,0.0,-98825000.0,133634000.0,0.0
2013-12-31,12979000.0,20141000.0,155453000.0,20746000.0,-0.0,-58497000.0,-40381000.0,-0.0,-102172000.0,-0.0,-103574000.0,0.0,11498000.0,134707000.0,0.0
2012-12-31,12642000.0,17434000.0,143341000.0,20102000.0,-29367000.0,46447000.0,-91273000.0,-0.0,0.0,-0.0,13879000.0,0.0,65947000.0,123239000.0,0.0
2011-12-31,11060000.0,11404000.0,74968000.0,15477000.0,-89730000.0,67885000.0,-47437000.0,-0.0,-102830000.0,-0.0,0.0,0.0,36679000.0,59491000.0,0.0
2010-12-31,9999000.0,3553000.0,86873000.0,-3424000.0,-40602000.0,-51203000.0,-95229000.0,0.0,523000.0,0.0,5241000.0,0.0,-3115000.0,83449000.0,0.0686
2009-12-31,9560000.0,5443000.0,64342000.0,-3399000.0,-5776000.0,-49722000.0,-58897000.0,-30168000.0,3904000.0,0.0,-25767000.0,0.0,-20322000.0,60943000.0,0.1167
