,0,1,2,3,4,5,6,7,8,9,10,11,12,13,14,15,16,17,18,19,20,21,22,23,24,25,26,27,28
Date,Cash and cash equivalents,Short-term investments,Cash and short-term investments,Receivables,Inventories,Total current assets,Property Plant & Equipment Net,Goodwill and Intangible Assets,Long-term investments,Tax assets,Total non-current assets,Total assets,Payables,Short-term debt,Total current liabilities,Long-term debt,Total debt,Deferred revenue,Tax Liabilities,Deposit Liabilities,Total non-current liabilities,Total liabilities,Other comprehensive income,Retained earnings (deficit),Total shareholders equity,Investments,Net Debt,Other Assets,Other Liabilities
2019-12-31,133604000.0,897766000.0,1031370000.0,5950000.0,0.0,1037320000.0,3259000.0,0.0,132025000.0,0.0,1090807000.0,2128127000.0,0.0,15816000.0,15816000.0,3714000.0,19530000.0,0.0,0.0,1814654000.0,4138000.0,1897091000.0,132138000.0,92310000.0,231036000.0,1029791000.0,-114074000.0,0.0,1877137000.0
2018-12-31,674420000.0,,,0.0,0.0,,3656000.0,0.0,,3329000.0,,2004318000.0,0.0,,,,20659000.0,0.0,0.0,1783005000.0,,1813072000.0,-2061000.0,67464000.0,191246000.0,1312371000.0,,,
2017-12-31,797668000.0,,,0.0,0.0,,1753000.0,0.0,,2840000.0,,1891948000.0,0.0,,,,36788000.0,0.0,0.0,1775146000.0,,1818148000.0,-1217000.0,45131000.0,73800000.0,1081196000.0,,,
