,0,1,2,3,4,5,6,7,8,9,10,11,12,13,14
Date,Depreciation & Amortization,Stock-based compensation,Operating Cash Flow,Capital Expenditure,Acquisitions and disposals,Investment purchases and sales,Investing Cash flow,Issuance (repayment) of debt,Issuance (buybacks) of shares,Dividend payments,Financing Cash Flow,Effect of forex changes on cash,Net cash flow / Change in cash,Free Cash Flow,Net Cash/Marketcap
2019-12-31,-258000.0,177000.0,-126862000.0,1213000.0,-0.0,-534341000.0,-574501000.0,-0.0,6462000.0,-0.0,160547000.0,0.0,-540816000.0,-128075000.0,0.0
2018-12-31,1178000.0,112000.0,-3067000.0,-2664000.0,0.0,-203969000.0,-206633000.0,-16143000.0,96632000.0,0.0,86452000.0,0.0,-123248000.0,-5731000.0,
2017-12-31,1103000.0,21000.0,-18246000.0,-1119000.0,0.0,-123749000.0,-124868000.0,-101143000.0,0.0,0.0,906133000.0,0.0,763019000.0,-19365000.0,
