,0,1,2,3,4,5,6,7,8,9,10,11,12,13,14,15,16,17,18,19,20,21,22,23,24,25,26,27,28
Date,Cash and cash equivalents,Short-term investments,Cash and short-term investments,Receivables,Inventories,Total current assets,Property Plant & Equipment Net,Goodwill and Intangible Assets,Long-term investments,Tax assets,Total non-current assets,Total assets,Payables,Short-term debt,Total current liabilities,Long-term debt,Total debt,Deferred revenue,Tax Liabilities,Deposit Liabilities,Total non-current liabilities,Total liabilities,Other comprehensive income,Retained earnings (deficit),Total shareholders equity,Investments,Net Debt,Other Assets,Other Liabilities
2019-12-31,5002000.0,0.0,5002000.0,63419000.0,104741000.0,186429000.0,26494000.0,190537000.0,0.0,10550000.0,233846000.0,420275000.0,42734000.0,11749000.0,82166000.0,6907000.0,18656000.0,511000.0,3998000.0,0.0,20571000.0,259000000.0,161005000.0,19000.0,161275000.0,0.0,13654000.0,0.0,156263000.0
2018-12-31,6362000.0,0.0,6362000.0,63601000.0,108270000.0,185305000.0,19798000.0,195308000.0,0.0,9355000.0,230709000.0,416014000.0,37265000.0,1368000.0,77645000.0,142442000.0,143810000.0,511000.0,984000.0,0.0,152969000.0,267320000.0,156601000.0,-8164000.0,148694000.0,0.0,137448000.0,0.0,36706000.0
2017-12-31,5547000.0,0.0,5547000.0,45284000.0,87629000.0,142605000.0,13226000.0,148589000.0,0.0,13089000.0,177641000.0,320246000.0,38491000.0,1678000.0,65329000.0,106830000.0,108508000.0,0.0,0.0,5320000.0,106830000.0,172159000.0,0.0,-5689000.0,148087000.0,0.0,102961000.0,4145000.0,25160000.0
2016-12-31,4726895.0,0.0,4726895.0,27904470.0,31653513.0,65132671.0,8896557.0,61608668.0,0.0,0.0,71374544.0,136507215.0,20988281.0,5340167.0,36746176.0,54599886.0,59940053.0,0.0,6306236.0,3114731.0,60020047.0,96766223.0,0.0,0.0,39740992.0,0.0,55213158.0,847793.0,10417728.0
