,0,1,2,3,4,5,6,7,8,9,10,11,12,13,14,15,16,17,18,19,20,21,22,23,24,25,26,27,28,29,30
Date,Revenue,Revenue Growth,Cost of Revenue,Gross Profit,R&D Expenses,SG&A Expense,Operating Expenses,Operating Income,Interest Expense,Earnings before Tax,Income Tax Expense,Net Income - Non-Controlling int,Net Income - Discontinued ops,Net Income,Preferred Dividends,Net Income Com,EPS,EPS Diluted,Weighted Average Shs Out,Weighted Average Shs Out (Dil),Dividend per Share,Gross Margin,EBITDA Margin,EBIT Margin,Profit Margin,Free Cash Flow margin,EBITDA,EBIT,Consolidated Income,Earnings Before Tax Margin,Net Profit Margin
2019-12-31,507988000.0,-0.281747036076,71355000.0,436633000.0,0.0,58384000.0,366504000.0,75129000.0,84721000.0,102484000.0,659000.0,0.0,0.0,100699000.0,32231000.0,100699000.0,0.33,0.33,183026000.0,183254000.0,0.986052146201,0.8595340834819999,0.480704268605,0.14789522587099999,0.19823106057599998,0.5318117750810001,244192000.0,75129000.0,100699000.0,0.20174492310800002,0.19823106057599998
2018-12-31,707255000.0,1.0,104232000.0,603023000.0,0.0,61639000.0,581874000.0,-106382000.0,141305000.0,116967000.0,862000.0,0.0,0.0,114434000.0,33531000.0,114434000.0,0.43,0.43,184528000.0,184535000.0,1.5245454791799997,0.852624583778,0.215020042276,-0.150415338174,0.161800199362,0.37441516850400003,152074000.0,-106382000.0,114434000.0,0.165381651597,0.161800199362
2017-12-31,0.0,-1.0,122315000.0,0.0,0.0,89854000.0,1033385000.0,-391878000.0,188647000.0,-391878000.0,12418000.0,0.0,0.0,-241685000.0,28759000.0,-241685000.0,-0.74,-0.74,367362000.0,367362000.0,0.8324731463789999,0.0,0.0,0.0,0.0,0.0,-38202000.0,-391878000.0,-241685000.0,0.0,0.0
2016-12-31,-1087000.0,-1.13986103963,131177000.0,-132264000.0,0.0,76101000.0,853610000.0,-10406000.0,217589000.0,-10406000.0,1781000.0,0.0,0.0,60012000.0,22375000.0,60012000.0,0.1,0.1,365294000.0,365561000.0,0.803983466508,121.678012879,-350.74517019300004,9.57313707452,-55.2088316467,-425.86476540900003,381260000.0,-10406000.0,60012000.0,9.57313707452,-55.2088316467
2015-12-31,7772000.0,-0.911677803537,144611000.0,-136839000.0,0.0,73382000.0,1048141000.0,-231595000.0,241727000.0,-231595000.0,6286000.0,0.0,0.0,-72168000.0,22375000.0,-72168000.0,-0.27,-0.27,360946000.0,360946000.0,0.73494927219,-17.606664951099997,21.2474266598,-29.798636129699997,-9.28564076171,55.9170097787,165135000.0,-231595000.0,-72168000.0,-29.798636129699997,-9.28564076171
2014-12-31,87996000.0,-0.7065724098839999,142336000.0,-54340000.0,0.0,84484000.0,797591000.0,22962000.0,237120000.0,22962000.0,1855000.0,0.0,0.0,117282000.0,24054000.0,117282000.0,0.25,0.25,358122000.0,358122000.0,0.6717012638150001,-0.617528069458,5.161211873269999,0.260943679258,1.3328105823,4.7761489158599995,454166000.0,22962000.0,117282000.0,0.260943679258,1.3328105823
2013-12-31,299890000.0,1.0,137979000.0,161911000.0,0.0,79556000.0,697974000.0,4600000.0,228869000.0,4600000.0,2713000.0,0.0,0.0,-10175000.0,27721000.0,-10175000.0,-0.14,-0.14,326426000.0,326426000.0,0.595837954085,0.539901297142,1.14334255894,0.015338957617799999,-0.0339291073394,1.24703724699,342877000.0,4600000.0,-10175000.0,0.015338957617799999,-0.0339291073394
2012-12-31,0.0,0.0,128821000.0,0.0,0.0,76444000.0,663697000.0,-100322000.0,221424000.0,-13616000.0,1160000.0,0.0,0.0,-25822000.0,28645000.0,-25822000.0,-0.21,-0.21,291726000.0,291726000.0,0.5305012237510001,0.0,0.0,0.0,0.0,0.0,164873000.0,-100322000.0,-25822000.0,0.0,0.0
2011-12-31,0.0,0.0,0.0,0.0,0.0,0.0,0.0,0.0,0.0,0.0,0.0,0.0,0.0,0.0,0.0,0.0,0.0,0.0,0.0,0.0,0.0,0.0,0.0,0.0,0.0,0.0,0.0,0.0,0.0,0.0,0.0
2010-12-31,0.0,-1.0,0.0,0.0,0.0,0.0,0.0,0.0,0.0,0.0,0.0,0.0,0.0,0.0,0.0,0.0,0.0,0.0,0.0,0.0,0.0,0.0,0.0,0.0,0.0,0.0,0.0,0.0,0.0,0.0,0.0
2009-12-31,755986000.0,-0.0837,222526000.0,533460000.0,0.0,94365000.0,311332000.0,222128000.0,211617000.0,-356593000.0,0.0,-47047000.0,181911000.0,-356593000.0,42269000.0,-398862000.0,-5.02,-5.02,98285045.0,98285045.0,0.88,0.7056,0.11800000000000001,-0.1918,-0.528,0.7634,88991000.0,-144976000.0,-403640000.0,-0.4717,-0.4717
