,0,1,2,3,4,5,6,7,8,9,10,11,12,13,14
Date,Depreciation & Amortization,Stock-based compensation,Operating Cash Flow,Capital Expenditure,Acquisitions and disposals,Investment purchases and sales,Investing Cash flow,Issuance (repayment) of debt,Issuance (buybacks) of shares,Dividend payments,Financing Cash Flow,Effect of forex changes on cash,Net cash flow / Change in cash,Free Cash Flow,Net Cash/Marketcap
2019-04-30,446300000.0,20700000.0,1141200000.0,359800000.0,-1903000000.0,-5400000.0,-1924200000.0,-700000000.0,-5400000.0,-377900000.0,699000000.0,-7300000.0,-91300000.0,781400000.0,0.0
2018-04-30,413100000.0,15400000.0,1218000000.0,321900000.0,-0.0,-7000000.0,-277600000.0,-1050300000.0,-7000000.0,-350300000.0,-922000000.0,7400000.0,25800000.0,896100000.0,0.0
2017-04-30,419000000.0,22000000.0,1059000000.0,192400000.0,-0.0,-437600000.0,-189700000.0,-200000000.0,-437600000.0,-339300000.0,-806100000.0,-6200000.0,57000000.0,866600000.0,0.0
2016-04-30,430100000.0,34600000.0,1458300000.0,201400000.0,7900000.0,-441100000.0,21700000.0,-800000000.0,-441100000.0,-316600000.0,-1496200000.0,400000.0,-15800000.0,1256900000.0,0.0
2015-04-30,0.0,0.0,0.0,0.0,-0.0,0.0,125600000.0,-0.0,-125600000.0,-0.0,0.0,0.0,125600000.0,0.0,0.0
2014-04-30,0.0,0.0,0.0,0.0,-0.0,0.0,153500000.0,-0.0,-153500000.0,-0.0,0.0,0.0,153500000.0,0.0,0.0
2013-04-30,0.0,0.0,0.0,0.0,-0.0,0.0,256400000.0,-0.0,-256400000.0,-0.0,0.0,0.0,256400000.0,0.0,0.0
2012-04-30,0.0,0.0,0.0,0.0,-0.0,0.0,0.0,-0.0,0.0,-0.0,0.0,0.0,0.0,0.0,0.0
2011-04-30,0.0,0.0,0.0,0.0,-0.0,0.0,0.0,-0.0,0.0,-0.0,0.0,0.0,0.0,0.0,0.0
2010-04-30,185752000.0,25949000.0,713478000.0,-136778000.0,19554000.0,13519000.0,-104443000.0,-625000000.0,844000.0,-166224000.0,-788548000.0,6390000.0,-173123000.0,576700000.0,-0.0861
