,0,1,2,3,4,5,6,7,8,9,10,11,12,13,14,15,16,17,18,19,20,21,22,23,24,25,26,27,28,29,30
Date,Revenue,Revenue Growth,Cost of Revenue,Gross Profit,R&D Expenses,SG&A Expense,Operating Expenses,Operating Income,Interest Expense,Earnings before Tax,Income Tax Expense,Net Income - Non-Controlling int,Net Income - Discontinued ops,Net Income,Preferred Dividends,Net Income Com,EPS,EPS Diluted,Weighted Average Shs Out,Weighted Average Shs Out (Dil),Dividend per Share,Gross Margin,EBITDA Margin,EBIT Margin,Profit Margin,Free Cash Flow margin,EBITDA,EBIT,Consolidated Income,Earnings Before Tax Margin,Net Profit Margin
2019-04-30,7838000000.0,0.0653654293132,4922300000.0,2915700000.0,0.0,1508600000.0,1748900000.0,928600000.0,0.0,701600000.0,187200000.0,0.0,0.0,514400000.0,0.0,514400000.0,4.52,4.52,113100000.0,113100000.0,3.34129089302,0.37199540699199996,0.17541464659400002,0.11847410053600001,0.0656289869865,0.0996937994386,1374900000.0,928600000.0,514400000.0,0.0895126307732,0.0656289869865
2018-04-30,7357100000.0,-0.00476171151063,4521000000.0,2836100000.0,56000000.0,1370800000.0,1633600000.0,1036100000.0,0.0,861000000.0,-477600000.0,0.0,0.0,1338600000.0,0.0,1338600000.0,11.79,11.78,113000000.0,113000000.0,3.1,0.38549156596999995,0.196979788232,0.140829946582,0.18194669095199997,0.121800709519,1449200000.0,1036100000.0,1338600000.0,0.117029807941,0.18194669095199997
2017-04-30,7392300000.0,-0.053628123719800004,4557000000.0,2835300000.0,58100000.0,1390700000.0,1656100000.0,1031500000.0,0.0,878400000.0,286100000.0,0.0,0.0,592300000.0,0.0,592300000.0,5.11,5.1,115471395.0,115578424.0,2.9356690311,0.38354774562700006,0.196217685971,0.139537085887,0.08012391272000001,0.11723009076999999,1450500000.0,1031500000.0,592300000.0,0.118826346333,0.08012391272000001
2016-04-30,7811200000.0,0.372143271207,4843400000.0,2967800000.0,58800000.0,1510300000.0,1777500000.0,1145300000.0,0.0,977900000.0,289200000.0,0.0,0.0,688700000.0,0.0,688700000.0,5.77,5.76,118918701.0,118959814.0,2.66140295075,0.37994162228600004,0.201684760344,0.146622798034,0.0881682712003,0.16090997542000002,1575400000.0,1145300000.0,688700000.0,0.125192031954,0.0881682712003
2015-04-30,5692700000.0,0.014633016076700001,3724000000.0,1968700000.0,32500000.0,1031300000.0,1174700000.0,772000000.0,0.0,523000000.0,178100000.0,0.0,0.0,344900000.0,0.0,344900000.0,3.33,3.33,0.0,0.0,0.0,0.345828868551,0.13561227537,0.13561227537,0.0605863649938,-0.0435118660741,772000000.0,772000000.0,344900000.0,0.0918720466562,0.0605863649938
2014-04-30,5610600000.0,-0.0486799938959,3579600000.0,2031000000.0,24300000.0,988800000.0,1112000000.0,919000000.0,0.0,849700000.0,284500000.0,0.0,0.0,565200000.0,0.0,565200000.0,5.42,5.42,0.0,0.0,0.0,0.361993369693,0.16379709835,0.16379709835,0.10073788899599999,-0.0498164189213,919000000.0,919000000.0,565200000.0,0.151445478202,0.10073788899599999
2013-04-30,5897700000.0,1.0,3870100000.0,2027600000.0,24700000.0,973900000.0,1095400000.0,910400000.0,0.0,817300000.0,273100000.0,0.0,0.0,544200000.0,0.0,544200000.0,5.0,5.0,108827897.0,108851153.0,0.0,0.34379503874399997,0.154365261034,0.154365261034,0.0922732590671,-0.0350136493887,910400000.0,910400000.0,544200000.0,0.138579446225,0.0922732590671
2012-04-30,0.0,0.0,0.0,0.0,0.0,0.0,0.0,0.0,0.0,0.0,0.0,0.0,0.0,0.0,0.0,0.0,0.0,0.0,0.0,0.0,0.0,0.0,0.0,0.0,0.0,0.0,0.0,0.0,0.0,0.0,0.0
2011-04-30,0.0,-1.0,0.0,0.0,0.0,0.0,0.0,0.0,0.0,0.0,0.0,0.0,0.0,0.0,0.0,0.0,0.0,0.0,0.0,0.0,0.0,0.0,0.0,0.0,0.0,0.0,0.0,0.0,0.0,0.0,0.0
2010-04-30,4605289000.0,0.2255,2818599000.0,1786690000.0,0.0,878221000.0,1009388000.0,777302000.0,65187000.0,730753000.0,236615000.0,0.0,0.0,494138000.0,0.0,494138000.0,4.15,4.15,119122549.0,119122549.0,1.4,0.38799999999999996,0.213,0.1728,0.107,0.1252,981692000.0,795940000.0,494138000.0,0.1587,0.1073
