,0,1,2,3,4,5,6,7,8,9,10,11,12,13,14,15,16,17,18,19,20,21,22,23,24,25,26,27,28,29,30
Date,Revenue,Revenue Growth,Cost of Revenue,Gross Profit,R&D Expenses,SG&A Expense,Operating Expenses,Operating Income,Interest Expense,Earnings before Tax,Income Tax Expense,Net Income - Non-Controlling int,Net Income - Discontinued ops,Net Income,Preferred Dividends,Net Income Com,EPS,EPS Diluted,Weighted Average Shs Out,Weighted Average Shs Out (Dil),Dividend per Share,Gross Margin,EBITDA Margin,EBIT Margin,Profit Margin,Free Cash Flow margin,EBITDA,EBIT,Consolidated Income,Earnings Before Tax Margin,Net Profit Margin
2019-12-31,420482000.0,0.057287043718999994,0.0,0.0,0.0,66301000.0,66301000.0,57479000.0,31796000.0,32081000.0,8454000.0,0.0,0.0,23403000.0,0.0,23403000.0,0.82,0.82,28443052.0,28562546.0,1.1950615326799998,0.0,0.299580005803,0.136697884808,0.055657554901300005,0.30918089240400004,125968000.0,57479000.0,23403000.0,0.07629577484889999,0.055657554901300005
2018-12-31,397699000.0,1.0,0.0,0.0,0.0,48933000.0,48933000.0,73440000.0,24332000.0,48832000.0,10065000.0,0.0,0.0,38767000.0,0.0,38767000.0,1.83,1.82,21214277.0,21332387.0,1.08164173095,0.0,0.32775289854899997,0.18466226970600003,0.0974782435963,0.22967872687600002,130347000.0,73440000.0,38767000.0,0.122786328354,0.0974782435963
2017-12-31,0.0,0.0,0.0,0.0,0.0,55011000.0,55011000.0,98079000.0,22929000.0,96493000.0,35393000.0,0.0,0.0,59204000.0,0.0,59204000.0,2.89,2.86,20506960.0,20685118.0,1.03127282136,0.0,0.0,0.0,0.0,0.0,148580000.0,98079000.0,59204000.0,0.0,0.0
2016-12-31,0.0,0.0,0.0,0.0,0.0,48038000.0,48038000.0,93116000.0,21838000.0,86381000.0,33542000.0,0.0,0.0,52839000.0,0.0,52839000.0,2.59,2.57,20439957.0,20588973.0,0.804265467734,0.0,0.0,0.0,0.0,0.0,139411000.0,93116000.0,52839000.0,0.0,0.0
2015-12-31,0.0,0.0,0.0,0.0,0.0,47131000.0,47131000.0,79960000.0,22186000.0,61154000.0,23272000.0,0.0,0.0,37882000.0,0.0,37882000.0,1.86,1.85,20360663.0,20515643.0,0.7742872109829999,0.0,0.0,0.0,0.0,0.0,122290000.0,79960000.0,37882000.0,0.0,0.0
2014-12-31,0.0,0.0,0.0,0.0,0.0,40573000.0,40573000.0,92878000.0,20788000.0,76777000.0,24971000.0,0.0,0.0,51806000.0,0.0,51806000.0,2.56,2.54,20227297.0,20416734.0,0.743360813733,0.0,0.0,0.0,0.0,0.0,132369000.0,92878000.0,51806000.0,0.0,0.0
2013-12-31,0.0,0.0,0.0,0.0,0.0,43714000.0,43714000.0,53407000.0,19922000.0,36519000.0,14135000.0,0.0,0.0,22384000.0,0.0,22384000.0,1.13,1.12,19774589.0,19971236.0,0.7231900919900001,0.0,0.0,0.0,0.0,0.0,90002000.0,53407000.0,22384000.0,0.0,0.0
2012-12-31,0.0,0.0,0.0,0.0,0.0,42812000.0,42812000.0,55297000.0,20185000.0,37860000.0,15542000.0,0.0,0.0,22318000.0,0.0,22318000.0,1.2,1.18,18635206.0,18839231.0,0.702311044437,0.0,0.0,0.0,0.0,0.0,89926000.0,55297000.0,22318000.0,0.0,0.0
2011-12-31,0.0,-1.0,0.0,0.0,0.0,39136000.0,39136000.0,54391000.0,0.0,35444000.0,14566000.0,0.0,0.0,20878000.0,0.0,20878000.0,1.12,1.11,18581762.0,18794066.0,0.682289824884,0.0,0.0,0.0,0.0,0.0,87100000.0,54391000.0,20878000.0,0.0,0.0
2010-12-31,215638000.0,-0.00212404614594,107451000.0,108187000.0,0.0,38184000.0,66515000.0,41672000.0,17683000.0,41146000.0,16740000.0,0.0,0.0,24406000.0,0.0,24406000.0,1.32,1.3,18540845.0,18531458.0,0.68,0.5017,0.41100000000000003,0.2728,0.113,-0.2944,88585000.0,58829000.0,24406000.0,0.1908,0.1132
2009-12-31,216097000.0,-0.0193,115329000.0,100768000.0,0.0,35445000.0,61088000.0,39680000.0,15970000.0,25451000.0,10280000.0,0.0,0.0,15171000.0,0.0,15171000.0,0.82,0.81,18498897.0,18486536.0,0.68,0.4663,0.317,0.1917,0.07,-0.0147,68438000.0,41421000.0,15171000.0,0.1178,0.0702
