,0,1,2,3,4,5,6,7,8,9,10,11,12,13,14,15,16,17,18,19,20,21,22,23,24,25,26,27,28,29,30
Date,Revenue,Revenue Growth,Cost of Revenue,Gross Profit,R&D Expenses,SG&A Expense,Operating Expenses,Operating Income,Interest Expense,Earnings before Tax,Income Tax Expense,Net Income - Non-Controlling int,Net Income - Discontinued ops,Net Income,Preferred Dividends,Net Income Com,EPS,EPS Diluted,Weighted Average Shs Out,Weighted Average Shs Out (Dil),Dividend per Share,Gross Margin,EBITDA Margin,EBIT Margin,Profit Margin,Free Cash Flow margin,EBITDA,EBIT,Consolidated Income,Earnings Before Tax Margin,Net Profit Margin
2018-12-31,64669000.0,0.139883313063,30262000.0,34407000.0,0.0,30558000.0,32492000.0,1915000.0,17330000.0,-14670000.0,7285000.0,165000.0,0.0,-21955000.0,0.0,-21955000.0,-1.0,-1.0,167818606.0,167818606.0,0.0,0.532,0.345,0.0411,-0.33899999999999997,0.6046,22330000.0,2660000.0,-22120000.0,-0.2268,-0.3395
2017-12-31,56733000.0,-0.139431171786,23201000.0,33532000.0,0.0,25664000.0,68803000.0,-35271000.0,12200000.0,-39701000.0,-6530000.0,-121000.0,0.0,-33171000.0,0.0,-33171000.0,-2.0,-2.0,167818606.0,167818606.0,0.0,0.591,-0.22699999999999998,-0.4847,-0.585,-1.4677,-12887000.0,-27501000.0,-33050000.0,-0.6998,-0.5847
2016-12-31,65925000.0,0.398048987382,30911000.0,35014000.0,0.0,30626000.0,24585000.0,10429000.0,6368000.0,5061000.0,1277000.0,502000.0,0.0,3784000.0,0.0,3784000.0,0.2,0.2,156010668.0,156010668.0,0.0,0.5311,0.39399999999999996,0.1734,0.057,-1.1434,25979000.0,11429000.0,3282000.0,0.0768,0.0574
2015-12-31,47155000.0,0.43393644518799995,18533000.0,28622000.0,0.0,23727000.0,33337000.0,-4715000.0,3897000.0,-8263000.0,-6709000.0,0.0,0.0,-1554000.0,0.0,-1554000.0,0.0,0.0,156010668.0,156010668.0,0.0,0.607,0.111,-0.0926,-0.033,-2.0299,5246000.0,-4366000.0,-1554000.0,-0.1752,-0.033
2014-12-31,32885000.0,-0.0979784403544,20747000.0,12138000.0,0.0,64930000.0,62386000.0,-50248000.0,3817000.0,-72833000.0,910000.0,0.0,0.0,-73743000.0,0.0,-73743000.0,-4.2,-4.2,156010668.0,156010668.0,0.0,0.3691,-1.8880000000000001,-2.0987,-2.242,-0.529,-62094000.0,-69016000.0,-73743000.0,-2.2148,-2.2425
2013-12-31,36457000.0,-0.82107608573,29270000.0,7187000.0,0.0,25878000.0,50560000.0,-43373000.0,2352000.0,-50519000.0,3372000.0,0.0,0.0,-53891000.0,0.0,-53891000.0,-3.2,-3.2,,,0.0,0.1971,-1.19,-1.3212,-1.4780000000000002,-1.5809,-43388000.0,-48167000.0,-53891000.0,-1.3857,-1.4782
2012-12-31,203757000.0,1.45114087696,142433000.0,61324000.0,0.0,24642000.0,24482000.0,36842000.0,1132000.0,33495000.0,6630000.0,0.0,0.0,26865000.0,0.0,26865000.0,1.6,1.6,,,0.0,0.301,0.184,0.1699,0.132,-0.2691,37505000.0,34627000.0,26865000.0,0.1644,0.1318
2011-12-31,83127413.0,,59148876.0,23978537.0,0.0,15780334.0,14388627.0,9589910.0,138405.0,9081947.0,1991428.0,0.0,0.0,7090519.0,0.0,7090519.0,0.4,0.4,,,0.0,0.2885,0.115,0.1109,0.085,0.0098,9586315.0,9220352.0,7090519.0,0.1093,0.0853
