,0,1,2,3,4,5,6,7,8,9,10,11,12,13,14
Date,Depreciation & Amortization,Stock-based compensation,Operating Cash Flow,Capital Expenditure,Acquisitions and disposals,Investment purchases and sales,Investing Cash flow,Issuance (repayment) of debt,Issuance (buybacks) of shares,Dividend payments,Financing Cash Flow,Effect of forex changes on cash,Net cash flow / Change in cash,Free Cash Flow,Net Cash/Marketcap
2019-12-31,180497000.0,15906000.0,144046000.0,122289000.0,-0.0,0.0,-120393000.0,-23449000.0,0.0,-18592000.0,-40411000.0,0.0,185740000.0,21757000.0,0.0
2018-12-31,149664000.0,22337000.0,310706000.0,349861000.0,-743249000.0,-148469000.0,-1066879000.0,-501425000.0,-148469000.0,-19912000.0,574104000.0,0.0,-182069000.0,-39155000.0,0.0
2017-12-31,97605000.0,25050000.0,238156000.0,384622000.0,-119801000.0,-25022000.0,-507672000.0,-7211000.0,-25022000.0,-20377000.0,-57142000.0,0.0,-326658000.0,-146466000.0,0.0
2016-12-31,68512000.0,12107000.0,381000.0,46450000.0,-176617000.0,0.0,-201657000.0,-5202000.0,678791000.0,-15125000.0,635424000.0,0.0,434148000.0,-46069000.0,0.0
2015-12-31,58856000.0,3857000.0,61492000.0,53646000.0,-0.0,-15255000.0,49000.0,-5093000.0,-15255000.0,-26797000.0,-47530000.0,0.0,14011000.0,7846000.0,0.0
2014-12-31,45291000.0,7487000.0,171411000.0,92609000.0,-98317000.0,-499000.0,-190906000.0,-3750000.0,-499000.0,-26871000.0,208520000.0,0.0,189025000.0,78802000.0,0.0
2013-12-31,36627000.0,3039000.0,46451000.0,60470000.0,-0.0,0.0,-135113000.0,-257976000.0,-78256000.0,-20009000.0,105896000.0,0.0,17234000.0,-14019000.0,0.0
2012-12-31,25267000.0,2330000.0,100950000.0,105719000.0,-0.0,-1072000.0,-104461000.0,-2600000.0,48928000.0,-26461000.0,5334000.0,0.0,1823000.0,-4769000.0,0.0
2011-12-31,20999000.0,1238000.0,42565000.0,-66639000.0,0.0,0.0,-66639000.0,24378000.0,0.0,0.0,18773000.0,0.0,-5301000.0,-24074000.0,-0.2635
2010-12-31,19305000.0,383000.0,36738000.0,-15163000.0,0.0,0.0,-15163000.0,72187000.0,0.0,-51601000.0,28451000.0,0.0,50026000.0,21575000.0,-0.2635
2009-12-31,17887000.0,949000.0,13863000.0,-13308000.0,0.0,0.0,-13308000.0,-233000.0,0.0,0.0,-288000.0,0.0,267000.0,555000.0,-0.2635
