,0,1,2,3,4,5,6,7,8,9,10,11,12,13,14,15,16,17,18,19,20,21,22,23,24,25,26,27,28
Date,Cash and cash equivalents,Short-term investments,Cash and short-term investments,Receivables,Inventories,Total current assets,Property Plant & Equipment Net,Goodwill and Intangible Assets,Long-term investments,Tax assets,Total non-current assets,Total assets,Payables,Short-term debt,Total current liabilities,Long-term debt,Total debt,Deferred revenue,Tax Liabilities,Deposit Liabilities,Total non-current liabilities,Total liabilities,Other comprehensive income,Retained earnings (deficit),Total shareholders equity,Investments,Net Debt,Other Assets,Other Liabilities
2017-12-31,75091000.0,,,6756000.0,0.0,,0.0,0.0,,0.0,,2523503000.0,74636000.0,,,,1775937000.0,0.0,0.0,0.0,,1968036000.0,0.0,-3385000.0,536073000.0,1429116000.0,,,
2016-12-31,79756000.0,,,7220000.0,0.0,,0.0,0.0,,0.0,,2605267000.0,70207000.0,,,,1818980000.0,0.0,0.0,0.0,,2053165000.0,0.0,-201000.0,513097000.0,1689064000.0,,,
2015-12-31,56326000.0,,,0.0,0.0,,0.0,28250000.0,,0.0,,2329781000.0,47665000.0,,,,1781651000.0,0.0,0.0,0.0,,1849568000.0,0.0,-5899000.0,441321000.0,1546568000.0,,,
2014-12-31,40934091.0,,,0.0,0.0,,0.0,55560269.0,,0.0,,792398605.0,11731089.0,,,,547998703.0,0.0,0.0,0.0,,599014793.0,0.0,9029947.0,173238362.0,689811382.0,,,
2013-12-31,59189042.0,,,0.0,0.0,,0.0,0.0,,0.0,,620081058.0,3198274.0,,,,429189705.0,0.0,0.0,0.0,,442312496.0,0.0,-4958607.0,159249808.0,558225217.0,,,
2012-12-31,22829261.0,,,6801398.0,0.0,,0.0,0.0,,0.0,,201648007.0,8016348.0,,,,116080467.0,0.0,0.0,0.0,,136507212.0,0.0,5281941.0,45041918.0,170671683.0,,,
