,0,1,2,3,4,5,6,7,8,9,10,11,12,13,14,15,16,17,18,19,20,21,22,23,24,25,26,27,28
Date,Cash and cash equivalents,Short-term investments,Cash and short-term investments,Receivables,Inventories,Total current assets,Property Plant & Equipment Net,Goodwill and Intangible Assets,Long-term investments,Tax assets,Total non-current assets,Total assets,Payables,Short-term debt,Total current liabilities,Long-term debt,Total debt,Deferred revenue,Tax Liabilities,Deposit Liabilities,Total non-current liabilities,Total liabilities,Other comprehensive income,Retained earnings (deficit),Total shareholders equity,Investments,Net Debt,Other Assets,Other Liabilities
2019-12-31,76043000.0,7481000.0,83524000.0,0.0,0.0,86302000.0,11645000.0,0.0,0.0,0.0,17169000.0,103471000.0,7124000.0,1736000.0,18276000.0,4414000.0,6150000.0,0.0,0.0,0.0,4414000.0,23423000.0,396278000.0,-316279000.0,80048000.0,7481000.0,-69893000.0,0.0,733000.0
2018-12-31,86366000.0,36098000.0,122464000.0,0.0,0.0,128639000.0,10422000.0,0.0,0.0,0.0,10958000.0,139597000.0,3691000.0,173000.0,12481000.0,859000.0,1032000.0,0.0,0.0,0.0,2792000.0,14414000.0,324209000.0,-199056000.0,125183000.0,36098000.0,-85334000.0,0.0,0.0
2017-12-31,52145000.0,17014000.0,69159000.0,0.0,0.0,70658000.0,2429000.0,0.0,0.0,0.0,5535000.0,76193000.0,5066000.0,0.0,11271000.0,0.0,0.0,0.0,0.0,0.0,0.0,11271000.0,-13000.0,-124258000.0,-59257000.0,17014000.0,-69159000.0,1499000.0,6205000.0
2016-12-31,7843000.0,29980000.0,37823000.0,0.0,0.0,39972000.0,452000.0,0.0,0.0,0.0,664000.0,40636000.0,2984000.0,0.0,6873000.0,0.0,0.0,0.0,0.0,0.0,0.0,6873000.0,23000.0,-84941000.0,-84360000.0,29980000.0,-37823000.0,2149000.0,3889000.0
2015-12-31,28595000.0,26792000.0,55387000.0,0.0,0.0,55696000.0,0.0,0.0,0.0,0.0,0.0,55696000.0,608000.0,0.0,13924000.0,0.0,0.0,0.0,0.0,0.0,0.0,13924000.0,-10000.0,-67711000.0,-67513000.0,26792000.0,-55387000.0,309000.0,13316000.0
