,0,1,2,3,4,5,6,7,8,9,10,11,12,13,14
Date,Depreciation & Amortization,Stock-based compensation,Operating Cash Flow,Capital Expenditure,Acquisitions and disposals,Investment purchases and sales,Investing Cash flow,Issuance (repayment) of debt,Issuance (buybacks) of shares,Dividend payments,Financing Cash Flow,Effect of forex changes on cash,Net cash flow / Change in cash,Free Cash Flow,Net Cash/Marketcap
2019-12-31,284011000.0,22200000.0,376473000.0,252986000.0,-0.0,-384399000.0,114494000.0,-21162000.0,-384065000.0,-306386000.0,-528650000.0,0.0,166070000.0,123487000.0,0.0
2018-12-31,291915000.0,24400000.0,441537000.0,254460000.0,-0.0,-979541000.0,681662000.0,-15109000.0,-979405000.0,-313230000.0,-1094112000.0,0.0,29087000.0,187077000.0,0.0
2017-12-31,592218000.0,26100000.0,548373000.0,335253000.0,-0.0,-806302000.0,-18851000.0,-27100000.0,-806302000.0,-333543000.0,-681077000.0,0.0,-151555000.0,213120000.0,0.0
2016-12-31,1018005000.0,26500000.0,634714000.0,411950000.0,-0.0,-109272000.0,2122570000.0,-4156907000.0,-279443000.0,-314079000.0,-2733240000.0,0.0,24044000.0,222764000.0,0.0
2015-12-31,588238000.0,30200000.0,526484000.0,406442000.0,-0.0,-258870000.0,-2265911000.0,-2487243000.0,-130638000.0,-257378000.0,1713417000.0,0.0,-26010000.0,120042000.0,0.0
2014-12-31,400001000.0,31400000.0,490381000.0,369887000.0,-0.0,-53727000.0,-796835000.0,-3588587000.0,-96088000.0,-206974000.0,381171000.0,0.0,74717000.0,120494000.0,0.0
2013-12-31,357599000.0,27300000.0,386203000.0,196571000.0,-0.0,-9123000.0,-628435000.0,-2105435000.0,84007000.0,-148407000.0,258940000.0,0.0,16708000.0,189632000.0,0.0
2012-12-31,351539000.0,5100000.0,353743000.0,148148000.0,-0.0,-14150000.0,-1170393000.0,-2269619000.0,187129000.0,-121238000.0,868442000.0,0.0,51792000.0,205595000.0,0.0
2011-12-31,292311000.0,4700000.0,312860000.0,159100000.0,-0.0,-331495000.0,-739597000.0,-2808522000.0,510682000.0,-63866000.0,232099000.0,0.0,-194638000.0,153760000.0,0.0
2010-12-31,240445000.0,0.0,321058000.0,108145000.0,-0.0,-150408000.0,18815000.0,-1196458000.0,-332830000.0,-58984000.0,-350758000.0,0.0,-10885000.0,212913000.0,0.0
2009-12-31,235200000.0,0.0,275211000.0,-107030000.0,-40924000.0,-192107000.0,-345379000.0,-593173000.0,387757000.0,-78321000.0,-313006000.0,0.0,-383174000.0,168181000.0,-0.5918
