,0,1,2,3,4,5,6,7,8,9,10,11,12,13,14,15,16,17,18,19,20,21,22,23,24,25,26,27,28,29,30
Date,Revenue,Revenue Growth,Cost of Revenue,Gross Profit,R&D Expenses,SG&A Expense,Operating Expenses,Operating Income,Interest Expense,Earnings before Tax,Income Tax Expense,Net Income - Non-Controlling int,Net Income - Discontinued ops,Net Income,Preferred Dividends,Net Income Com,EPS,EPS Diluted,Weighted Average Shs Out,Weighted Average Shs Out (Dil),Dividend per Share,Gross Margin,EBITDA Margin,EBIT Margin,Profit Margin,Free Cash Flow margin,EBITDA,EBIT,Consolidated Income,Earnings Before Tax Margin,Net Profit Margin
2018-12-31,129000.0,-0.258620689655,0.0,129000.0,28146000.0,5504000.0,33650000.0,-33521000.0,-1318000.0,-32203000.0,0.0,0.0,0.0,-32203000.0,0.0,-32203000.0,-1.8,-1.8,18922569.0,17867589.0,0.0,1.0,-253.946,-259.8527,-249.636,-190.0698,-32759000.0,-33521000.0,-32203000.0,-249.6357,-249.6357
2017-12-31,174000.0,1.0,0.0,174000.0,25805000.0,6002000.0,31807000.0,-31633000.0,-65000.0,-31568000.0,0.0,0.0,0.0,-31568000.0,0.0,-31568000.0,-5.02,-5.02,16735069.0,6290244.0,0.0,1.0,-179.092,-181.7989,-181.425,-149.5057,-31162000.0,-31633000.0,-31568000.0,-181.4253,-181.4253
2016-12-31,0.0,0.0,0.0,0.0,17023000.0,3733000.0,20756000.0,-20756000.0,15000.0,-20771000.0,0.0,0.0,0.0,-20771000.0,0.0,-20771000.0,-3.3,-3.3,16735069.0,6290242.0,0.0,0.0,,0.0,,0.0,-20397000.0,-20756000.0,-20771000.0,0.0,0.0
2015-12-31,0.0,,0.0,0.0,7184000.0,2463000.0,9647000.0,-9647000.0,13000.0,-9660000.0,0.0,0.0,0.0,-9660000.0,0.0,-9660000.0,-1.53,-1.53,17985000.0,6290242.0,0.0,0.0,,0.0,,0.0,-9347000.0,-9647000.0,-9660000.0,0.0,0.0
