,0,1,2,3,4,5,6,7,8,9,10,11,12,13,14
Date,Depreciation & Amortization,Stock-based compensation,Operating Cash Flow,Capital Expenditure,Acquisitions and disposals,Investment purchases and sales,Investing Cash flow,Issuance (repayment) of debt,Issuance (buybacks) of shares,Dividend payments,Financing Cash Flow,Effect of forex changes on cash,Net cash flow / Change in cash,Free Cash Flow,Net Cash/Marketcap
2019-12-31,0.0,573000.0,-17643000.0,0.0,-0.0,0.0,0.0,-0.0,8671000.0,-0.0,19569000.0,0.0,1926000.0,-17643000.0,0.0
2018-12-31,0.0,395000.0,-30422000.0,0.0,-0.0,0.0,0.0,-7601000.0,21564000.0,-487000.0,23123000.0,0.0,-7299000.0,-30422000.0,0.0
2017-12-31,0.0,3169000.0,-10989000.0,0.0,-0.0,0.0,1812000.0,-473000.0,3688000.0,-0.0,5534000.0,0.0,-3643000.0,-10989000.0,0.0
2016-12-31,-2912000.0,2264000.0,-44915000.0,0.0,-0.0,0.0,-1056000.0,-5579000.0,15451000.0,-0.0,34324000.0,0.0,-11647000.0,-44915000.0,0.0
2015-12-31,355000.0,1931000.0,-48160000.0,534000.0,-0.0,0.0,10395000.0,-0.0,17686000.0,-0.0,43845000.0,0.0,6080000.0,-48694000.0,0.0
2014-12-31,889000.0,5387000.0,-42869000.0,57000.0,-0.0,0.0,-5528000.0,-0.0,-12946000.0,-0.0,24260000.0,0.0,-24137000.0,-42926000.0,0.0
2013-12-31,452000.0,2530000.0,-28908000.0,705000.0,-15143000.0,3911000.0,-12036000.0,-0.0,-10248000.0,-0.0,55924000.0,0.0,14980000.0,-29613000.0,0.0
2012-12-31,49000.0,1394000.0,-20963000.0,0.0,-0.0,0.0,-87000.0,-0.0,3571000.0,-0.0,42424000.0,0.0,21374000.0,-20963000.0,0.0
2011-12-31,0.0,0.0,0.0,0.0,-0.0,0.0,0.0,-0.0,0.0,-0.0,0.0,0.0,0.0,0.0,0.0
2010-12-31,172000.0,4368000.0,-10257000.0,-106000.0,0.0,0.0,-106000.0,-70000.0,11640000.0,0.0,11570000.0,0.0,1207000.0,-10363000.0,0.1443
2009-12-31,162000.0,4202000.0,-11769000.0,-83000.0,0.0,0.0,-83000.0,-34000.0,7714000.0,0.0,7680000.0,0.0,-4172000.0,-11852000.0,0.0756
