,0,1,2,3,4,5,6,7,8,9,10,11,12,13,14
Date,Depreciation & Amortization,Stock-based compensation,Operating Cash Flow,Capital Expenditure,Acquisitions and disposals,Investment purchases and sales,Investing Cash flow,Issuance (repayment) of debt,Issuance (buybacks) of shares,Dividend payments,Financing Cash Flow,Effect of forex changes on cash,Net cash flow / Change in cash,Free Cash Flow,Net Cash/Marketcap
2019-03-31,1990136363.6364,0.0,25325754545.4545,-3676654545.4545,1763654545.4545,14102790909.0909,10923363636.3636,-315645454.5455,-634545454.5455,-2232681818.1818,-6649018181.8182,400563636.3636,30000663636.3636,21649100000.0,9.011000000000001
2018-03-31,2713157342.2903,0.0,97722096847.5561,-3575898324.0614,-8759053217.1722,-17908715580.2806,-31434143311.9905,-744970434.9043,3315139.4283,-1911838284.1748,-3155960253.3151,-401184353.2417,62730808929.0088,94146198523.4946,6.457000000000001
2017-03-31,2722512049.389,0.0,33761747026.0122,-2910058306.4065,-1815567630.0161,13709767676.95,7686156290.0518,-1248488185.2808,1621540877.6649,-1850984710.3634,-1572747621.7124,-2708404787.2628,37166750907.0888,30851688719.6058,6.457000000000001
2016-03-31,2279431146.2563,0.0,-17029324285.8161,-3388375365.1065,19484416185.7947,34107964664.8144,48848739046.8049,604669801.2396,-1219990.0264,-1887440336.2542,-584642373.7266,-4357510507.9433,26877261879.3189,-20417699650.9226,6.457000000000001
2015-03-31,2007839212.7429,0.0,65067000250.1876,-3215086314.7361,-798674005.5041,-5300858977.5665,-11072954716.036999,514252355.9336,-1192561.0875,-1425385705.9461,-2604836961.0541,6241614544.2415,57630823117.338,61851913935.4516,6.457000000000001
2014-03-31,2129485634.3066,0.0,67885307725.2051,-2963502585.436,-1084541814.0819,149872186151.3938,144590781851.4055,-3691273667.4313,584794525.8738,-1652190816.8423,-10089780723.9221,6360036546.0130005,208746345398.7015,64921805139.7691,6.457000000000001
2013-03-31,2110668789.8089,0.0,25198280254.7771,-2032749469.2144,-322887473.4607,18058800424.6285,14945870488.3227,-5156072186.8365,-2547770.7006,-1435276008.4926,-7854129511.6773,6628938428.8747,38918959660.2972,23165530785.5626,6.457000000000001
2012-03-31,2084675280.8447,0.0,15922701412.6609,-1201195699.3395,-370956077.3347,-27003435224.9168,-29796791379.3935,3005255291.4517,-1315365700.7859,-1710645581.2159,-3678716069.6206,-743430885.6854,-18296236922.0385,14721505713.3214,6.457000000000001
2011-03-31,1971287248.1602,0.0,179859995174.3274,-2060658704.3069,872940041.0182,-134672674629.0264,-137083737483.4118,-846688382.1933,-576004343.1053,-1841138858.7284,-4419133791.7722,-2622584147.6656,35734539751.4779,177799336470.0205,6.457000000000001
2010-03-31,1505918109.6295,0.0,-4732218916.5472,-1440112583.2067,-1417060850.5811,4147738704.2229,483733224.8882,-1205699792.3846,19528156503.4995,-760503841.9554,15309967680.4863,-590986922.369,10470495066.4583,-6172331499.7539,6.457000000000001
