,0,1,2,3,4,5,6,7,8,9,10,11,12,13,14,15,16,17,18,19,20,21,22,23,24,25,26,27,28
Date,Cash and cash equivalents,Short-term investments,Cash and short-term investments,Receivables,Inventories,Total current assets,Property Plant & Equipment Net,Goodwill and Intangible Assets,Long-term investments,Tax assets,Total non-current assets,Total assets,Payables,Short-term debt,Total current liabilities,Long-term debt,Total debt,Deferred revenue,Tax Liabilities,Deposit Liabilities,Total non-current liabilities,Total liabilities,Other comprehensive income,Retained earnings (deficit),Total shareholders equity,Investments,Net Debt,Other Assets,Other Liabilities
2018-12-31,93254000.0,0.0,93254000.0,55048000.0,1977000.0,179032000.0,744102000.0,0.0,121773000.0,0.0,923906000.0,1102938000.0,18541000.0,16812000.0,83617000.0,387854000.0,404666000.0,1327000.0,46603000.0,0.0,464386000.0,548003000.0,-16788000.0,126834000.0,525531000.0,121773000.0,311412000.0,28753000.0,48264000.0
2017-12-31,112551000.0,0.0,112551000.0,45616000.0,3756000.0,177290000.0,689833000.0,0.0,92169000.0,0.0,831214000.0,1008504000.0,25382000.0,22858000.0,99218000.0,292041000.0,314899000.0,10104000.0,59796000.0,0.0,386120000.0,485338000.0,-12493000.0,216511000.0,508191000.0,92169000.0,202348000.0,15367000.0,50978000.0
2016-12-31,118771000.0,40139000.0,158910000.0,63932000.0,3058000.0,250565000.0,541941000.0,0.0,138311000.0,0.0,764554000.0,1015119000.0,25969000.0,20400000.0,81016000.0,217805000.0,238205000.0,6953000.0,130499000.0,0.0,383948000.0,464964000.0,-11337000.0,249412000.0,544611000.0,178450000.0,79295000.0,24665000.0,34647000.0
2015-12-31,150242000.0,29506000.0,179748000.0,62089000.0,4000000.0,264664000.0,653557000.0,1049000.0,130010000.0,0.0,943486000.0,1208150000.0,29000000.0,31493000.0,108000000.0,181340000.0,212833000.0,6953000.0,181168000.0,0.0,410296000.0,518296000.0,-6095000.0,381459000.0,681900000.0,159516000.0,33085000.0,18827000.0,47507000.0
2014-12-31,104769000.0,0.0,104769000.0,95910000.0,5570000.0,233826000.0,648914000.0,15284000.0,115436000.0,0.0,933711000.0,1167537000.0,41690000.0,32410000.0,124698000.0,34811000.0,67221000.0,6794000.0,195091000.0,0.0,332977000.0,457675000.0,-3645000.0,402190000.0,701012000.0,115436000.0,-37548000.0,27577000.0,50598000.0
