,0,1,2,3,4,5,6,7,8,9,10,11,12,13,14
Date,Depreciation & Amortization,Stock-based compensation,Operating Cash Flow,Capital Expenditure,Acquisitions and disposals,Investment purchases and sales,Investing Cash flow,Issuance (repayment) of debt,Issuance (buybacks) of shares,Dividend payments,Financing Cash Flow,Effect of forex changes on cash,Net cash flow / Change in cash,Free Cash Flow,Net Cash/Marketcap
2019-12-31,3050000.0,590000.0,40927000.0,9218000.0,-0.0,43548000.0,-77570000.0,-18000.0,-10246000.0,-7361000.0,38991000.0,0.0,2348000.0,31709000.0,0.0
2018-12-31,1007000.0,391000.0,38521000.0,5545000.0,-0.0,1226000.0,-71735000.0,-45016000.0,-1452000.0,-6545000.0,40123000.0,0.0,6909000.0,32976000.0,0.0
2017-12-31,158000.0,385000.0,24373000.0,6185000.0,-0.0,2700000.0,13969000.0,-918000.0,10000.0,-5238000.0,-32327000.0,0.0,6015000.0,18188000.0,0.0
2016-12-31,-2810000.0,200000.0,23210000.0,1857000.0,-0.0,3235000.0,-128551000.0,-28911000.0,101000.0,-4272000.0,142470000.0,0.0,37129000.0,21353000.0,0.0
2015-12-31,-3867000.0,151000.0,23648000.0,2588000.0,-0.0,963000.0,-58989000.0,-1909000.0,3624000.0,-3330000.0,32318000.0,0.0,-3023000.0,21060000.0,0.0
2014-12-31,-3943000.0,1000.0,25602000.0,511000.0,-0.0,4051000.0,-64333000.0,-86027000.0,-4688000.0,-774000.0,39459000.0,0.0,728000.0,25091000.0,0.0
2013-12-31,-4508000.0,1000.0,28167000.0,677000.0,-0.0,2669000.0,-26207000.0,-43251000.0,-11782000.0,-776000.0,-4980000.0,0.0,-3020000.0,27490000.0,0.0
2012-12-31,-2973000.0,2000.0,21746000.0,343000.0,-0.0,0.0,29453000.0,-66986000.0,-14802000.0,-731000.0,-69089000.0,0.0,-17890000.0,21403000.0,0.0
2011-12-31,-399000.0,10000.0,18232000.0,384000.0,-0.0,-2000000.0,15924000.0,-34697000.0,0.0,-297000.0,-34410000.0,0.0,-254000.0,17848000.0,0.0
2010-12-31,1566000.0,0.0,21099000.0,17869000.0,0.0,76557000.0,94426000.0,-125541000.0,0.0,0.0,-106237000.0,0.0,9288000.0,38968000.0,0.0781
2009-12-31,1600000.0,0.0,20315000.0,2000.0,0.0,20477000.0,18379000.0,-97853000.0,55000.0,-445000.0,-43237000.0,0.0,-4543000.0,20317000.0,0.0781
