,0,1,2,3,4,5,6,7,8,9,10,11,12,13,14,15,16,17,18,19,20,21,22,23,24,25,26,27,28,29,30
Date,Revenue,Revenue Growth,Cost of Revenue,Gross Profit,R&D Expenses,SG&A Expense,Operating Expenses,Operating Income,Interest Expense,Earnings before Tax,Income Tax Expense,Net Income - Non-Controlling int,Net Income - Discontinued ops,Net Income,Preferred Dividends,Net Income Com,EPS,EPS Diluted,Weighted Average Shs Out,Weighted Average Shs Out (Dil),Dividend per Share,Gross Margin,EBITDA Margin,EBIT Margin,Profit Margin,Free Cash Flow margin,EBITDA,EBIT,Consolidated Income,Earnings Before Tax Margin,Net Profit Margin
2019-12-31,2529250000.0,9.26868907502,0.0,0.0,0.0,0.0,0.0,0.0,0.0,0.0,0.0,0.0,0.0,0.0,0.0,0.0,0.0,0.0,0.0,0.0,0.0,0.0,0.0,0.0,0.0,0.0,0.0,0.0,0.0,0.0,0.0
2018-12-31,246307000.0,0.0625749562126,0.0,0.0,0.0,13425000.0,31217000.0,-220017000.0,114997000.0,-220017000.0,221000.0,0.0,0.0,-220238000.0,9275000.0,-220238000.0,-5.36,-5.36,42851010.0,42851010.0,0.331147387191,0.0,-0.502283735338,-0.8932632852500001,-0.894160539489,0.392510160085,-123716000.0,-220017000.0,-220238000.0,-0.8932632852500001,-0.894160539489
2017-12-31,231802000.0,-0.05503805497690001,12496000.0,219306000.0,0.0,20491000.0,144279000.0,75027000.0,76733000.0,18464000.0,179000.0,0.0,0.0,18285000.0,0.0,18285000.0,0.43,0.43,43000000.0,42851010.0,0.0,0.9461,0.757,0.4107,0.079,1.1914,175583000.0,95197000.0,18285000.0,0.0797,0.0789
2016-12-31,245303000.0,-0.060728357386,5258000.0,240045000.0,0.0,18956000.0,139174000.0,100871000.0,77895000.0,48103000.0,181000.0,0.0,0.0,47922000.0,0.0,47922000.0,1.12,1.12,43000000.0,42851010.0,0.0,0.9786,0.863,0.5136,0.195,1.1285,211759000.0,125998000.0,47922000.0,0.1961,0.1954
2015-12-31,261163000.0,,5043000.0,256120000.0,0.0,20790000.0,142959000.0,113161000.0,83719000.0,113454000.0,-33000.0,0.0,-688000.0,113487000.0,0.0,113487000.0,2.65,2.65,,,0.0,0.9807,1.114,0.755,0.435,1.7814,290865000.0,197173000.0,113487000.0,0.4344,0.4345
