,0,1,2,3,4,5,6,7,8,9,10,11,12,13,14
Date,Depreciation & Amortization,Stock-based compensation,Operating Cash Flow,Capital Expenditure,Acquisitions and disposals,Investment purchases and sales,Investing Cash flow,Issuance (repayment) of debt,Issuance (buybacks) of shares,Dividend payments,Financing Cash Flow,Effect of forex changes on cash,Net cash flow / Change in cash,Free Cash Flow,Net Cash/Marketcap
2018-12-31,31349000.0,1542000.0,61903000.0,-49315000.0,0.0,0.0,-49315000.0,-11576000.0,0.0,0.0,-14459000.0,-175000.0,-2046000.0,12588000.0,
2017-12-31,58236000.0,1198000.0,54469000.0,-51607000.0,0.0,0.0,-51607000.0,-17719000.0,0.0,0.0,-21091000.0,-38000.0,-18267000.0,2862000.0,
2016-12-31,45711000.0,819000.0,43640000.0,-25352000.0,0.0,0.0,-25352000.0,-469000.0,0.0,0.0,-964000.0,-281000.0,17043000.0,18288000.0,
2015-12-31,46840000.0,1317000.0,31307000.0,-37601000.0,0.0,0.0,-37601000.0,-8286000.0,0.0,0.0,-9174000.0,-703000.0,-16171000.0,-6294000.0,
