,0,1,2,3,4,5,6,7,8,9,10,11,12,13,14,15,16,17,18,19,20,21,22,23,24,25,26,27,28
Date,Cash and cash equivalents,Short-term investments,Cash and short-term investments,Receivables,Inventories,Total current assets,Property Plant & Equipment Net,Goodwill and Intangible Assets,Long-term investments,Tax assets,Total non-current assets,Total assets,Payables,Short-term debt,Total current liabilities,Long-term debt,Total debt,Deferred revenue,Tax Liabilities,Deposit Liabilities,Total non-current liabilities,Total liabilities,Other comprehensive income,Retained earnings (deficit),Total shareholders equity,Investments,Net Debt,Other Assets,Other Liabilities
2019-12-31,1936000.0,20000.0,1956000.0,26000.0,1180000.0,3542000.0,738000.0,0.0,0.0,182000.0,1437000.0,4979000.0,265000.0,123000.0,1581000.0,137000.0,260000.0,0.0,0.0,0.0,319000.0,2412000.0,98433000.0,-95867000.0,2567000.0,20000.0,-1676000.0,0.0,512000.0
2018-12-31,4920000.0,9000.0,4929000.0,139000.0,1261000.0,6671000.0,1083000.0,0.0,0.0,53000.0,1083000.0,7754000.0,173000.0,219000.0,1163000.0,261000.0,480000.0,0.0,0.0,0.0,330000.0,1440000.0,92128000.0,-85838000.0,6314000.0,9000.0,-4440000.0,0.0,0.0
2017-12-31,2101000.0,5023000.0,7124000.0,16000.0,540000.0,7869000.0,1454000.0,0.0,0.0,49000.0,1454000.0,9323000.0,391000.0,177000.0,1169000.0,591000.0,768000.0,0.0,0.0,0.0,681000.0,1801000.0,81103000.0,-73597000.0,7522000.0,5023000.0,-1333000.0,0.0,0.0
2016-12-31,11826000.0,0.0,11826000.0,10000.0,57000.0,12230000.0,631000.0,0.0,0.0,83000.0,640000.0,12870000.0,351000.0,45000.0,1797000.0,138000.0,183000.0,0.0,0.0,0.0,254000.0,2043000.0,72128000.0,-61311000.0,10827000.0,0.0,-11643000.0,0.0,0.0
2015-12-31,141000.0,0.0,141000.0,13000.0,0.0,190000.0,613000.0,0.0,0.0,0.0,751000.0,941000.0,544000.0,689000.0,2212000.0,484000.0,1173000.0,221000.0,0.0,0.0,2575000.0,4787000.0,17000.0,-50357000.0,-11322000.0,0.0,1032000.0,36000.0,979000.0
2014-12-31,821000.0,0.0,821000.0,31000.0,0.0,885000.0,635000.0,0.0,0.0,0.0,644000.0,1529000.0,151000.0,2884000.0,4790000.0,277000.0,3161000.0,372000.0,0.0,0.0,2463000.0,7253000.0,0.0,-32167000.0,-5724000.0,0.0,2340000.0,33000.0,1755000.0
