,0,1,2,3,4,5,6,7,8,9,10,11,12,13,14,15,16,17,18,19,20,21,22,23,24,25,26,27,28,29,30
Date,Revenue,Revenue Growth,Cost of Revenue,Gross Profit,R&D Expenses,SG&A Expense,Operating Expenses,Operating Income,Interest Expense,Earnings before Tax,Income Tax Expense,Net Income - Non-Controlling int,Net Income - Discontinued ops,Net Income,Preferred Dividends,Net Income Com,EPS,EPS Diluted,Weighted Average Shs Out,Weighted Average Shs Out (Dil),Dividend per Share,Gross Margin,EBITDA Margin,EBIT Margin,Profit Margin,Free Cash Flow margin,EBITDA,EBIT,Consolidated Income,Earnings Before Tax Margin,Net Profit Margin
2018-12-31,1117164000.0,0.0393973310855,451581000.0,665583000.0,0.0,85885000.0,85885000.0,292374000.0,179287000.0,292374000.0,476000.0,0.0,0.0,286872000.0,0.0,286872000.0,1.21,1.21,237511000.0,237546000.0,1.56073350004,0.595779133592,0.518315126517,0.261710903681,0.25678593295200003,0.351640403737,579043000.0,292374000.0,286872000.0,0.261710903681,0.25678593295200003
2017-12-31,1074819000.0,0.015875851352799997,413430000.0,661389000.0,0.0,103702000.0,103702000.0,275197000.0,165019000.0,105594000.0,454000.0,0.0,0.0,147610000.0,0.0,147610000.0,0.62,0.62,237420000.0,237452000.0,1.56077017671,0.615349189026,0.513566470262,0.256040319347,0.137334751246,0.37871492781599997,551991000.0,275197000.0,147610000.0,0.098243518211,0.137334751246
2016-12-31,1058022000.0,0.05932178783369999,399790000.0,658232000.0,0.0,46559000.0,46559000.0,303083000.0,167574000.0,137521000.0,424000.0,0.0,0.0,141295000.0,0.0,141295000.0,0.6,0.6,237345000.0,237382000.0,1.5607291201499998,0.622134511381,0.559253021204,0.286461907219,0.13354637238199998,0.40340087446199996,591702000.0,303083000.0,141295000.0,0.129979338804,0.13354637238199998
2015-12-31,998773000.0,0.18213796637899998,377579000.0,621194000.0,0.0,42830000.0,42830000.0,313534000.0,150881000.0,125474000.0,574000.0,0.0,0.0,123968000.0,0.0,123968000.0,0.53,0.53,232931000.0,232963000.0,1.52981374725,0.621957141413,0.573903179201,0.313919178832,0.124120295603,0.40601918554099997,573199000.0,313534000.0,123968000.0,0.125628145735,0.124120295603
2014-12-31,844887000.0,0.10959395249500001,324564000.0,520323000.0,0.0,38946000.0,38946000.0,291389000.0,135114000.0,156688000.0,576000.0,0.0,0.0,158637000.0,0.0,158637000.0,0.8,0.8,198868000.0,198894000.0,1.53733647068,0.6158492200729999,0.569042960775,0.34488517399400004,0.187761203569,-1.01018479394,480777000.0,291389000.0,158637000.0,0.185454386208,0.187761203569
2013-12-31,761438000.0,0.180813284494,299878000.0,461560000.0,0.0,32657000.0,32657000.0,264510000.0,117819000.0,146605000.0,600000.0,0.0,0.0,151164000.0,0.0,151164000.0,0.81,0.81,187251000.0,187251000.0,1.54308922249,0.606168854194,0.562137692104,0.347382190014,0.19852437099300002,0.40279444945,428033000.0,264510000.0,151164000.0,0.192537015489,0.19852437099300002
2012-12-31,644842000.0,0.432928089383,201263000.0,443579000.0,0.0,31517000.0,31517000.0,258141000.0,117240000.0,136259000.0,375000.0,0.0,0.0,135884000.0,0.0,135884000.0,0.8,0.8,169176000.0,169176000.0,1.53412422566,0.687887885715,0.630419544633,0.40031666671800004,0.210724487549,0.43933552715199997,406521000.0,258141000.0,135884000.0,0.211306025352,0.210724487549
2011-12-31,450017000.0,1.0,68967000.0,381050000.0,0.0,26041000.0,26041000.0,227515000.0,98262000.0,151731000.0,312000.0,0.0,0.0,151419000.0,0.0,151419000.0,1.01,1.01,149577000.0,149577000.0,1.49440756266,0.846745789604,0.768313197057,0.505569789586,0.336473955428,0.567887435364,345754000.0,227515000.0,151419000.0,0.33716726257,0.336473955428
2010-12-31,0.0,-1.0,19195000.0,0.0,0.0,21865000.0,21865000.0,203930000.0,80017000.0,128040000.0,300000.0,0.0,0.0,116485000.0,0.0,116485000.0,0.91,0.91,128092000.0,128092000.0,1.44237735378,0.0,0.0,0.0,0.0,0.0,297726000.0,203930000.0,116485000.0,0.0,0.0
2009-12-31,297399000.0,0.2752,14901000.0,282498000.0,0.0,19825000.0,116868000.0,165630000.0,56404000.0,110027000.0,312000.0,0.0,0.0,109715000.0,0.0,109715000.0,0.9,0.9,127377665.0,121863000.0,1.42,0.9499,0.8240000000000001,0.5596,0.369,-1.1208,245014000.0,166431000.0,109715000.0,0.37,0.3689
