,0,1,2,3,4,5,6,7,8,9,10,11,12,13,14,15,16,17,18,19,20,21,22,23,24,25,26,27,28
Date,Cash and cash equivalents,Short-term investments,Cash and short-term investments,Receivables,Inventories,Total current assets,Property Plant & Equipment Net,Goodwill and Intangible Assets,Long-term investments,Tax assets,Total non-current assets,Total assets,Payables,Short-term debt,Total current liabilities,Long-term debt,Total debt,Deferred revenue,Tax Liabilities,Deposit Liabilities,Total non-current liabilities,Total liabilities,Other comprehensive income,Retained earnings (deficit),Total shareholders equity,Investments,Net Debt,Other Assets,Other Liabilities
2019-12-31,39614000.0,0.0,39614000.0,1345000.0,0.0,40959000.0,1800000.0,5404000.0,0.0,0.0,2153750000.0,2194709000.0,17554000.0,0.0,23419000.0,1590632000.0,1590632000.0,5865000.0,0.0,0.0,1590643000.0,1958314000.0,901889000.0,-660588000.0,236395000.0,0.0,1551018000.0,0.0,344252000.0
2018-12-31,72422000.0,0.0,72422000.0,3200000.0,0.0,75622000.0,0.0,5761000.0,0.0,35000.0,2210636000.0,2286258000.0,52679000.0,0.0,59133000.0,1884882000.0,1884882000.0,6454000.0,0.0,0.0,1884917000.0,2003806000.0,898135000.0,-616504000.0,282452000.0,0.0,1812460000.0,0.0,59756000.0
2017-12-31,137327000.0,0.0,137327000.0,2672000.0,0.0,139999000.0,0.0,15240000.0,0.0,5930000.0,2368028000.0,2508027000.0,84664000.0,9550000.0,98826000.0,1907928000.0,1917478000.0,4612000.0,0.0,0.0,1908383000.0,2002142000.0,898132000.0,-393068000.0,505885000.0,0.0,1780151000.0,0.0,0.0
2016-12-31,58048000.0,0.0,58048000.0,3111000.0,0.0,61159000.0,0.0,64477000.0,0.0,9486000.0,2760569000.0,2821728000.0,100823000.0,11623000.0,117703000.0,2130387000.0,2142010000.0,5257000.0,0.0,0.0,2131213000.0,2242833000.0,897918000.0,-319844000.0,578895000.0,0.0,2083962000.0,0.0,0.0
2015-12-31,116881000.0,0.0,116881000.0,2594000.0,0.0,119475000.0,0.0,142203000.0,0.0,9310000.0,2897984000.0,3017459000.0,89173000.0,9644000.0,103267000.0,2151317000.0,2160961000.0,4450000.0,0.0,0.0,2151870000.0,2250134000.0,928654000.0,-162183000.0,767325000.0,0.0,2044080000.0,0.0,0.0
2014-12-31,226377000.0,0.0,226377000.0,3162000.0,0.0,229539000.0,0.0,99594000.0,0.0,4672000.0,1772826000.0,2002365000.0,72241000.0,6882000.0,82236000.0,1259430000.0,1266312000.0,3113000.0,0.0,0.0,1259430000.0,1353829000.0,672587000.0,-24715000.0,648536000.0,0.0,1039935000.0,0.0,12163000.0
2013-12-31,30393000.0,,,13432000.0,0.0,,1463791000.0,0.0,,0.0,,1549595000.0,5894000.0,,,,1077172000.0,0.0,0.0,0.0,,1141760000.0,0.0,0.0,407835000.0,0.0,,,
