,0,1,2,3,4,5,6,7,8,9,10,11,12,13,14,15,16,17,18,19,20,21,22,23,24,25,26,27,28
Date,Cash and cash equivalents,Short-term investments,Cash and short-term investments,Receivables,Inventories,Total current assets,Property Plant & Equipment Net,Goodwill and Intangible Assets,Long-term investments,Tax assets,Total non-current assets,Total assets,Payables,Short-term debt,Total current liabilities,Long-term debt,Total debt,Deferred revenue,Tax Liabilities,Deposit Liabilities,Total non-current liabilities,Total liabilities,Other comprehensive income,Retained earnings (deficit),Total shareholders equity,Investments,Net Debt,Other Assets,Other Liabilities
2017-12,30000000.0,,,6000000.0,,,,0.0,,,,410000000.0,,,,297000000.0,297000000.0,,,,,316000000.0,-5000000.0,-49000000.0,93000000.0,,267000000.0,0.0,0.0
2016-12,32000000.0,,,4000000.0,,,,0.0,,,,406000000.0,,,,307000000.0,307000000.0,,,,,325000000.0,0.0,-40000000.0,79000000.0,,275000000.0,0.0,0.0
2015-12,11000000.0,,,7000000.0,,,,0.0,,,,393000000.0,,,,325000000.0,325000000.0,,,,,340000000.0,0.0,-34000000.0,49000000.0,,314000000.0,0.0,0.0
2014-12,17000000.0,,,2000000.0,,,,0.0,,,,300000000.0,,,,258000000.0,258000000.0,,,,,272000000.0,0.0,-35000000.0,23000000.0,,241000000.0,0.0,0.0
2013-12,9000000.0,,,2000000.0,,,,0.0,,,,228000000.0,,,,188000000.0,188000000.0,,,,,197000000.0,0.0,-32000000.0,25000000.0,,179000000.0,0.0,0.0
