,0,1,2,3,4,5,6,7,8,9,10,11,12,13,14,15,16,17,18,19,20,21,22,23,24,25,26,27,28,29,30
Date,Revenue,Revenue Growth,Cost of Revenue,Gross Profit,R&D Expenses,SG&A Expense,Operating Expenses,Operating Income,Interest Expense,Earnings before Tax,Income Tax Expense,Net Income - Non-Controlling int,Net Income - Discontinued ops,Net Income,Preferred Dividends,Net Income Com,EPS,EPS Diluted,Weighted Average Shs Out,Weighted Average Shs Out (Dil),Dividend per Share,Gross Margin,EBITDA Margin,EBIT Margin,Profit Margin,Free Cash Flow margin,EBITDA,EBIT,Consolidated Income,Earnings Before Tax Margin,Net Profit Margin
2018-12-31,197196000.0,1.92597373692,2242000.0,194954000.0,0.0,6375000.0,26213000.0,99287000.0,374000.0,98913000.0,12961000.0,0.0,0.0,42431000.0,0.0,42431000.0,1.6,1.59,25678.0,25829.0,106.469472299,0.988630601026,0.6019036897300001,0.5034939856790001,0.215171707337,-0.22674902127799998,118693000.0,99287000.0,42431000.0,0.501597395485,0.215171707337
2017-12-31,67395000.0,2.71179159553,14184000.0,53211000.0,210000.0,5077000.0,45038000.0,25461000.0,97000.0,48386000.0,25899000.0,0.0,0.0,3636000.0,0.0,3636000.0,0.28,0.27,12117000.0,12482000.0,0.0,0.78953928333,0.48690555679200004,0.377787669708,0.053950589806399996,-0.9968543660510001,32815000.0,25461000.0,3636000.0,0.717946435195,0.053950589806399996
2016-12-31,18157000.0,0.278211897219,6347000.0,11810000.0,0.0,5157000.0,8949000.0,2861000.0,23000.0,43000.0,43000.0,2803000.0,0.0,0.0,0.0,0.0,0.0,0.0,42224320.0,42224320.0,0.0,0.6504,0.212,0.0036,0.0,-0.3533,3858000.0,66000.0,2803000.0,0.0024,0.0
2015-12-31,14205000.0,,6789000.0,7416000.0,0.0,6234000.0,8629000.0,-1213000.0,22000.0,67000.0,67000.0,-1373000.0,0.0,0.0,0.0,0.0,0.0,0.0,42224000.0,,0.0,0.5221,0.175,0.0063,0.0,-1.8046,2484000.0,89000.0,-1373000.0,0.0047,0.0
