,0,1,2,3,4,5,6,7,8,9,10,11,12,13,14,15,16,17,18,19,20,21,22,23,24,25,26,27,28
Date,Cash and cash equivalents,Short-term investments,Cash and short-term investments,Receivables,Inventories,Total current assets,Property Plant & Equipment Net,Goodwill and Intangible Assets,Long-term investments,Tax assets,Total non-current assets,Total assets,Payables,Short-term debt,Total current liabilities,Long-term debt,Total debt,Deferred revenue,Tax Liabilities,Deposit Liabilities,Total non-current liabilities,Total liabilities,Other comprehensive income,Retained earnings (deficit),Total shareholders equity,Investments,Net Debt,Other Assets,Other Liabilities
2018-12-31,14101955.5556,0.0,14101955.5556,881991.8519,311657.037,16894174.0741,3943530.3704,917868.8889,0.0,0.0,4943404.4444,21837578.5185,935452.5926,4614.8148,1349383.7037,0.0,4614.8148,0.0,110958.5185,224500.7407,3520648.1481,4870031.8519,0.0,-23239775.5556,16967546.6667,0.0,-14097340.7408,7511395.5555,409316.2963
2017-12-31,6764333.0715,0.0,6764333.0715,191389.6308,182956.0094,7861495.6795,1094802.0424,989798.9002,0.0,0.0,2084600.9427,9946096.6222,882788.6881,1283597.8005,2635251.3747,0.0,1283597.8005,0.0,117670.0707,285018.8531,2871712.4902,5506963.8649,0.0,-16760056.5593,4439132.7573,0.0,,,468864.8861
2016-12-31,2913901.0417,0.0,2913901.0417,201848.2143,0.0,3301452.381,167610.8631,18857.8869,74404.7619,0.0,260873.5119,3562325.8929,348214.2857,181306.5476,655636.9048,0.0,181306.5476,0.0,0.0,126116.0714,0.0,655636.9048,0.0,-7417544.6429,2906688.9881,74404.7619,,,126116.0715
2015-12-31,76903.1092,0.0,76903.1092,20707.8814,10821.4027,142667.3897,11430.9472,0.0,0.0,0.0,11430.9472,154098.3369,96102.6753,133767.1728,250481.5618,0.0,133767.1728,0.0,0.0,20611.7137,0.0,250481.5618,0.0,-720052.7838,-96383.2249,0.0,,,20611.7137
