,0,1,2,3,4,5,6,7,8,9,10,11,12,13,14,15,16,17,18,19,20,21,22,23,24,25,26,27,28,29,30
Date,Revenue,Revenue Growth,Cost of Revenue,Gross Profit,R&D Expenses,SG&A Expense,Operating Expenses,Operating Income,Interest Expense,Earnings before Tax,Income Tax Expense,Net Income - Non-Controlling int,Net Income - Discontinued ops,Net Income,Preferred Dividends,Net Income Com,EPS,EPS Diluted,Weighted Average Shs Out,Weighted Average Shs Out (Dil),Dividend per Share,Gross Margin,EBITDA Margin,EBIT Margin,Profit Margin,Free Cash Flow margin,EBITDA,EBIT,Consolidated Income,Earnings Before Tax Margin,Net Profit Margin
2019-12-31,5374207000.0,-0.00310354153581,4316378000.0,1057829000.0,23300000.0,530867000.0,554167000.0,467082000.0,66845000.0,380766000.0,93269000.0,0.0,0.0,291785000.0,0.0,291785000.0,2.9,2.88,100742000.0,101176000.0,1.68274096624,0.196834435294,0.131409527024,0.0869117992664,0.0542935915941,0.042781381513599996,706222000.0,467082000.0,291785000.0,0.0708506389873,0.0542935915941
2018-12-31,5390938000.0,0.07034199318989999,4349932000.0,1041006000.0,23200000.0,563306000.0,586506000.0,437629000.0,63147000.0,238118000.0,75008000.0,0.0,0.0,313560000.0,0.0,313560000.0,3.12,3.1,100539000.0,101016000.0,1.5981032707700003,0.193102944237,0.12500125210100002,0.0811786371871,0.0581642749369,0.0737022017319,673874000.0,437629000.0,313560000.0,0.044170049813199996,0.0581642749369
2017-12-31,5036650000.0,0.053058650682399996,4087260000.0,949390000.0,21000000.0,543672000.0,564672000.0,367299000.0,57220000.0,314554000.0,146589000.0,0.0,0.0,175345000.0,0.0,175345000.0,1.75,1.74,100237000.0,100852000.0,1.51843295126,0.18849632196,0.116133541143,0.07292525785989999,0.034813814738,0.0318554991909,584924000.0,367299000.0,175345000.0,0.062453019368000004,0.034813814738
2016-12-31,4782877000.0,-0.03655892622,3845451000.0,937426000.0,22500000.0,506001000.0,528501000.0,492834000.0,54170000.0,441277000.0,164631000.0,0.0,0.0,286434000.0,0.0,286434000.0,2.83,2.81,101093000.0,101782000.0,1.4380145801800002,0.195996259155,0.14594061273199999,0.10304132847200001,0.05988738577219999,0.04431182319759999,698016000.0,492834000.0,286434000.0,0.0922618332021,0.05988738577219999
2015-12-31,4964369000.0,-0.0104893488013,4034947000.0,929422000.0,22100000.0,496241000.0,518341000.0,382544000.0,56973000.0,327946000.0,87738000.0,0.0,0.0,250136000.0,0.0,250136000.0,2.46,2.44,101482000.0,102392000.0,1.3480740682899999,0.18721855688,0.11999611632400001,0.0770579302224,0.0503862625844,0.0525011335781,595705000.0,382544000.0,250136000.0,0.0660599564617,0.0503862625844
2014-12-31,5016994000.0,0.034838860318699996,4109108000.0,907886000.0,24200000.0,506996000.0,531196000.0,378098000.0,55140000.0,325707000.0,108758000.0,0.0,0.0,225916000.0,0.0,225916000.0,2.21,2.19,102215000.0,103172000.0,1.24833288101,0.180962145859,0.114972431699,0.07536345469019999,0.045030151521,0.0480046418234,576816000.0,378098000.0,225916000.0,0.06492074736390001,0.045030151521
2013-12-31,4848092000.0,0.0129463706473,3974588000.0,873504000.0,20100000.0,487171000.0,507271000.0,361295000.0,59913000.0,208366000.0,96203000.0,0.0,0.0,219113000.0,0.0,219113000.0,2.14,2.12,102577000.0,103248000.0,1.20917596467,0.180174798663,0.115296079365,0.07452313198680001,0.0451957182331,0.07540801618449999,558966000.0,361295000.0,219113000.0,0.04297896987099999,0.0451957182331
2012-12-31,4786129000.0,0.037962464766899996,3942497000.0,843632000.0,20200000.0,463715000.0,483915000.0,347059000.0,64114000.0,287074000.0,103759000.0,0.0,0.0,196010000.0,0.0,196010000.0,1.93,1.91,101804000.0,102573000.0,1.16766595498,0.176266038797,0.114385132536,0.0725135072623,0.040953764514099995,0.0395001889836,547462000.0,347059000.0,196010000.0,0.0599804142346,0.040953764514099995
2011-12-31,4611081000.0,1.0,3854298000.0,756783000.0,18839000.0,0.0,18839000.0,284406000.0,0.0,50523000.0,78423000.0,0.0,0.0,218044000.0,0.0,218044000.0,2.15,2.13,101071000.0,102173000.0,1.12513090543,0.164122686199,0.100687235813,0.0616788124086,0.047286959392,0.0155935235143,464277000.0,284406000.0,218044000.0,0.0109568667304,0.047286959392
2010-12-31,0.0,-1.0,0.0,0.0,0.0,0.0,0.0,0.0,0.0,0.0,0.0,0.0,0.0,0.0,0.0,0.0,0.0,0.0,0.0,0.0,0.0,0.0,0.0,0.0,0.0,0.0,0.0,0.0,0.0,0.0,0.0
2009-12-31,3597331000.0,-0.1274,2931285000.0,666046000.0,0.0,386459000.0,413260000.0,252786000.0,40992000.0,218300000.0,66818000.0,3663000.0,0.0,151482000.0,0.0,151482000.0,1.5,1.5,100013196.0,100780000.0,1.08,0.1852,0.12,0.0721,0.042,0.0797,432879000.0,259292000.0,155145000.0,0.0607,0.0421
