,0,1,2,3,4,5,6,7,8,9,10,11,12,13,14,15,16,17,18,19,20,21,22,23,24,25,26,27,28
Date,Cash and cash equivalents,Short-term investments,Cash and short-term investments,Receivables,Inventories,Total current assets,Property Plant & Equipment Net,Goodwill and Intangible Assets,Long-term investments,Tax assets,Total non-current assets,Total assets,Payables,Short-term debt,Total current liabilities,Long-term debt,Total debt,Deferred revenue,Tax Liabilities,Deposit Liabilities,Total non-current liabilities,Total liabilities,Other comprehensive income,Retained earnings (deficit),Total shareholders equity,Investments,Net Debt,Other Assets,Other Liabilities
2019-03-31,115529.0,0.0,115529.0,0.0,0.0,156779.0,0.0,0.0,152420927.0,0.0,152420927.0,152577706.0,2211055.0,491419.0,2461697.0,0.0,491419.0,0.0,59223.0,0.0,8085000.0,10546697.0,0.0,1097645.0,5000004.0,152420927.0,,,-240777.0
2018-03-31,558398.0,0.0,558398.0,0.0,0.0,600481.0,0.0,0.0,210502923.0,0.0,210502923.0,211103404.0,397627.0,0.0,533130.0,0.0,0.0,0.0,435503.0,0.0,8085000.0,8618130.0,0.0,449545.0,5000005.0,210502923.0,,,135503.0
