,0,1,2,3,4,5,6,7,8,9,10,11,12,13,14,15,16,17,18,19,20,21,22,23,24,25,26,27,28,29,30
Date,Revenue,Revenue Growth,Cost of Revenue,Gross Profit,R&D Expenses,SG&A Expense,Operating Expenses,Operating Income,Interest Expense,Earnings before Tax,Income Tax Expense,Net Income - Non-Controlling int,Net Income - Discontinued ops,Net Income,Preferred Dividends,Net Income Com,EPS,EPS Diluted,Weighted Average Shs Out,Weighted Average Shs Out (Dil),Dividend per Share,Gross Margin,EBITDA Margin,EBIT Margin,Profit Margin,Free Cash Flow margin,EBITDA,EBIT,Consolidated Income,Earnings Before Tax Margin,Net Profit Margin
2019-12-31,116251000.0,-0.14310249511700002,81742000.0,34509000.0,26064000.0,30090000.0,56890000.0,-22381000.0,0.0,-24446000.0,1388000.0,0.0,0.0,-25834000.0,0.0,-25834000.0,-1.39,-1.39,18603582.0,18603582.0,0.0,0.296849059363,-0.162200755262,-0.19252307507,-0.222226045367,-0.296900671822,-18856000.0,-22381000.0,-25834000.0,-0.210286363128,-0.222226045367
2018-12-31,135665000.0,1.29819925124,87576000.0,48089000.0,23247000.0,19448000.0,42695000.0,5394000.0,1828000.0,2031000.0,754000.0,0.0,0.0,1277000.0,10152000.0,-8875000.0,-2.57,-2.57,19509611.0,3447283.0,0.0,0.3545,0.042,0.0284,-0.065,0.0097,5709000.0,3859000.0,1277000.0,0.015,0.0094
2017-12-31,59031000.0,,38720000.0,20311000.0,13008000.0,14073000.0,27081000.0,-6770000.0,820000.0,-8385000.0,134000.0,0.0,0.0,-8519000.0,6836000.0,-15355000.0,-14.96,-14.96,19510000.0,1026616.0,0.0,0.3441,-0.106,-0.1282,-0.26,-0.1708,-6249000.0,-7565000.0,-8519000.0,-0.142,-0.1443
