,0,1,2,3,4,5,6,7,8,9,10,11,12,13,14
Date,Depreciation & Amortization,Stock-based compensation,Operating Cash Flow,Capital Expenditure,Acquisitions and disposals,Investment purchases and sales,Investing Cash flow,Issuance (repayment) of debt,Issuance (buybacks) of shares,Dividend payments,Financing Cash Flow,Effect of forex changes on cash,Net cash flow / Change in cash,Free Cash Flow,Net Cash/Marketcap
2018-12-31,18900000.0,3100000.0,70900000.0,10000000.0,-277900000.0,0.0,-268400000.0,-149500000.0,0.0,-0.0,215200000.0,-600000.0,17100000.0,60900000.0,0.0
2017-12-31,20700000.0,3100000.0,45200000.0,7500000.0,-0.0,0.0,2300000.0,-19500000.0,0.0,-0.0,-47200000.0,300000.0,22800000.0,37700000.0,0.0
2016-12-31,33700000.0,3400000.0,59700000.0,16800000.0,-0.0,-7500000.0,-13800000.0,-14700000.0,-7500000.0,-0.0,-42100000.0,-300000.0,22200000.0,42900000.0,0.0
2015-12-31,35300000.0,3700000.0,43600000.0,13300000.0,-0.0,0.0,-11800000.0,-300000.0,-18700000.0,-0.0,-30600000.0,-700000.0,18700000.0,30300000.0,0.0
2014-12-31,31927000.0,3267000.0,51629000.0,15842000.0,-40000.0,0.0,-14965000.0,239000.0,-18196000.0,-0.0,-41464000.0,-162000.0,18196000.0,35787000.0,0.0
2013-12-31,27983000.0,4227000.0,35247000.0,16095000.0,-0.0,0.0,14626000.0,-154000.0,-23158000.0,-0.0,-26715000.0,-463000.0,23158000.0,19152000.0,0.0
2012-12-31,15803000.0,2103000.0,11404000.0,6196000.0,27736000.0,0.0,21226000.0,-145000.0,-28450000.0,-0.0,-17403000.0,3000.0,28450000.0,5208000.0,0.0
2011-12-31,0.0,0.0,0.0,0.0,-0.0,0.0,0.0,-0.0,0.0,-0.0,0.0,0.0,0.0,0.0,0.0
2010-12-31,6018000.0,864000.0,19534000.0,-2985000.0,-3937000.0,-678000.0,-7734000.0,-15339000.0,1773000.0,0.0,-12920000.0,169000.0,-951000.0,16549000.0,-0.2864
2009-12-31,5460000.0,1757000.0,21761000.0,-3486000.0,-2718000.0,-934000.0,-7080000.0,-11883000.0,-3470000.0,0.0,-14954000.0,228000.0,-45000.0,18275000.0,-0.4052
