,0,1,2,3,4,5,6,7,8,9,10,11,12,13,14
Date,Depreciation & Amortization,Stock-based compensation,Operating Cash Flow,Capital Expenditure,Acquisitions and disposals,Investment purchases and sales,Investing Cash flow,Issuance (repayment) of debt,Issuance (buybacks) of shares,Dividend payments,Financing Cash Flow,Effect of forex changes on cash,Net cash flow / Change in cash,Free Cash Flow,Net Cash/Marketcap
2019-12-31,6999000.0,2535000.0,-203556000.0,19411000.0,-0.0,0.0,-19411000.0,-0.0,-460443000.0,-0.0,634320000.0,0.0,480443000.0,-222967000.0,0.0
2018-12-31,0.0,0.0,-1146655.0,0.0,-0.0,0.0,0.0,-126378.0,-462162.0,-0.0,912435.0,0.0,-234220.0,-1146655.0,0.0
2017-12-31,0.0,0.0,0.0,0.0,-0.0,0.0,696382.0,-0.0,-696382.0,-0.0,0.0,0.0,696382.0,0.0,0.0
