,0,1,2,3,4,5,6,7,8,9,10,11,12,13,14,15,16,17,18,19,20,21,22,23,24,25,26,27,28
Date,Cash and cash equivalents,Short-term investments,Cash and short-term investments,Receivables,Inventories,Total current assets,Property Plant & Equipment Net,Goodwill and Intangible Assets,Long-term investments,Tax assets,Total non-current assets,Total assets,Payables,Short-term debt,Total current liabilities,Long-term debt,Total debt,Deferred revenue,Tax Liabilities,Deposit Liabilities,Total non-current liabilities,Total liabilities,Other comprehensive income,Retained earnings (deficit),Total shareholders equity,Investments,Net Debt,Other Assets,Other Liabilities
2019-12-31,158099000.0,707650000.0,865749000.0,13924000.0,0.0,879673000.0,61873000.0,27389000.0,101853000.0,5619000.0,2357494000.0,3237167000.0,0.0,37165000.0,37165000.0,95000000.0,132165000.0,0.0,0.0,2696857000.0,99724000.0,2930985000.0,140492000.0,146696000.0,306182000.0,809503000.0,-25934000.0,0.0,2794096000.0
2018-12-31,245989000.0,,,0.0,0.0,,59787000.0,0.0,238000000.0,0.0,,2712745000.0,0.0,,,168000000.0,193100000.0,0.0,0.0,2277454000.0,,2499970000.0,-2243000.0,119834000.0,154580000.0,2310649000.0,,,
2017-12-31,294563000.0,,,0.0,0.0,,61887000.0,0.0,271000000.0,0.0,,2573375000.0,0.0,,,162000000.0,177830000.0,0.0,0.0,2154081000.0,,2358048000.0,-446000.0,120589000.0,158206000.0,2130107000.0,,,
2016-12-31,,,,,,,,,,,,2501000000.0,,,,189000000.0,,,,,,,,150000000.0,,,,,
2015-12-31,,,,,,,,,,,,2537000000.0,,,,206000000.0,,,,,,,,145000000.0,,,,,
