,0,1,2,3,4,5,6,7,8,9,10,11,12,13,14,15,16,17,18,19,20,21,22,23,24,25,26,27,28,29,30
Date,Revenue,Revenue Growth,Cost of Revenue,Gross Profit,R&D Expenses,SG&A Expense,Operating Expenses,Operating Income,Interest Expense,Earnings before Tax,Income Tax Expense,Net Income - Non-Controlling int,Net Income - Discontinued ops,Net Income,Preferred Dividends,Net Income Com,EPS,EPS Diluted,Weighted Average Shs Out,Weighted Average Shs Out (Dil),Dividend per Share,Gross Margin,EBITDA Margin,EBIT Margin,Profit Margin,Free Cash Flow margin,EBITDA,EBIT,Consolidated Income,Earnings Before Tax Margin,Net Profit Margin
2019-09-28,1267705000.0,-0.0570568716607,521988000.0,745717000.0,0.0,71034000.0,75736000.0,150854000.0,76663000.0,69489000.0,857000.0,0.0,0.0,68632000.0,0.0,68632000.0,1.11,1.1,61992000.0,62366000.0,0.0,0.588241743939,0.21434481997000002,0.11899771634600001,0.054138778343500005,0.151299395364,271726000.0,150854000.0,68632000.0,0.054814803128500005,0.054138778343500005
2018-09-29,1344413000.0,0.131769378543,592630000.0,751783000.0,0.0,66246000.0,143629000.0,153311000.0,77383000.0,75928000.0,-606000.0,0.0,0.0,76534000.0,0.0,76534000.0,1.24,1.24,61557000.0,61847000.0,0.0,0.559190516605,0.207178151357,0.11403564232100001,0.0569274471461,0.130644377881,278533000.0,153311000.0,76534000.0,0.056476692801999996,0.0569274471461
2017-09-30,1187886000.0,0.13552577116599998,476661000.0,711225000.0,0.0,57338000.0,132601000.0,115284000.0,75263000.0,38454000.0,459000.0,0.0,0.0,37995000.0,0.0,37995000.0,0.62,0.62,61224000.0,61542000.0,0.0,0.598731696476,0.204751971149,0.09704971689200001,0.031985392537700004,0.111285089647,243222000.0,115284000.0,37995000.0,0.0323717932529,0.031985392537700004
2016-09-24,1046111000.0,-0.261731472379,361953000.0,684158000.0,0.0,61149000.0,136235000.0,90406000.0,75086000.0,15028000.0,588000.0,0.0,0.0,14440000.0,0.0,14440000.0,0.24,0.24,60956000.0,61176000.0,0.0,0.654001344026,0.210323761054,0.0864210394499,0.013803506511299999,0.11349942788100001,220022000.0,90406000.0,14440000.0,0.014365588355299998,0.013803506511299999
2015-09-26,1416979000.0,-0.26894163157900003,593380000.0,823599000.0,0.0,68296000.0,145930000.0,177758000.0,77634000.0,85052000.0,700000.0,0.0,0.0,84352000.0,0.0,84352000.0,1.39,1.38,60650000.0,60907000.0,0.0,0.581235854589,0.219517720446,0.125448577572,0.059529463739400004,0.19971785044100002,311052000.0,177758000.0,84352000.0,0.0600234724721,0.059529463739400004
2014-09-27,1938257000.0,0.137737833748,1080750000.0,857507000.0,0.0,64593000.0,-18668000.0,190126000.0,0.0,0.0,767000.0,0.0,0.0,94509000.0,0.0,94509000.0,1.56,1.56,60481000.0,60751000.0,0.0,0.44241140364799997,0.168463212051,0.0980912231969,0.04875978778869999,0.100863301409,326525000.0,190126000.0,94509000.0,0.0,0.04875978778869999
2013-09-28,1703606000.0,0.601949489308,861905000.0,841701000.0,0.0,64845000.0,-30582000.0,176976000.0,0.0,0.0,607000.0,0.0,0.0,78798000.0,0.0,78798000.0,1.35,1.34,58378000.0,58600000.0,0.0,0.494070225158,0.18041730306200002,0.103883174866,0.0462536525464,0.109463690548,307360000.0,176976000.0,78798000.0,0.0,0.0462536525464
2012-09-29,1063458000.0,-0.106752162022,599059000.0,464399000.0,0.0,59020000.0,59020000.0,42901000.0,38643000.0,2019000.0,137000.0,0.0,0.0,1882000.0,0.0,1882000.0,0.05,0.05,38848000.0,38990000.0,0.0,0.436687673608,0.0833986861728,0.0403410383861,0.00176969847422,0.08791790554960001,88691000.0,42901000.0,1882000.0,0.00189852349599,0.00176969847422
2011-09-24,1190552000.0,0.047381265318499996,678719000.0,511833000.0,0.0,51648000.0,51648000.0,143228000.0,27394000.0,115850000.0,884000.0,0.0,0.0,114966000.0,0.0,114966000.0,3.24,3.22,35525000.0,35723000.0,0.0,0.429912343182,0.150229473387,0.12030385904999999,0.0965652907223,0.0928157694918,178856000.0,143228000.0,114966000.0,0.09730780343910002,0.0965652907223
2010-09-25,1136694000.0,-0.0056510321444,598451000.0,538243000.0,0.0,61656000.0,61656000.0,153368000.0,0.0,116498000.0,1182000.0,0.0,0.0,115316000.0,0.0,115316000.0,3.26,3.24,35374000.0,35613000.0,0.0,0.473516179376,0.16205064863500002,0.134924614716,0.10144858686699999,0.120231126407,184202000.0,153368000.0,115316000.0,0.10248844455900001,0.10144858686699999
2009-09-26,1143154000.0,-0.2738,845152000.0,298002000.0,0.0,57044000.0,87387000.0,210615000.0,39069000.0,167724000.0,2486000.0,0.0,0.0,165238000.0,0.0,165238000.0,4.99,4.96,32797000.0,33134000.0,3.27,0.2607,0.207,0.1809,0.145,0.2009,237136000.0,206793000.0,165238000.0,0.1467,0.1445
