,0,1,2,3,4,5,6,7,8,9,10,11,12,13,14,15,16,17,18,19,20,21,22,23,24,25,26,27,28,29,30
Date,Revenue,Revenue Growth,Cost of Revenue,Gross Profit,R&D Expenses,SG&A Expense,Operating Expenses,Operating Income,Interest Expense,Earnings before Tax,Income Tax Expense,Net Income - Non-Controlling int,Net Income - Discontinued ops,Net Income,Preferred Dividends,Net Income Com,EPS,EPS Diluted,Weighted Average Shs Out,Weighted Average Shs Out (Dil),Dividend per Share,Gross Margin,EBITDA Margin,EBIT Margin,Profit Margin,Free Cash Flow margin,EBITDA,EBIT,Consolidated Income,Earnings Before Tax Margin,Net Profit Margin
2019-12-31,813725000.0,-0.19107033505399998,615225000.0,198500000.0,0.0,133534000.0,136305000.0,23979000.0,8621000.0,21470000.0,7257000.0,0.0,0.0,8450000.0,8091000.0,8450000.0,0.03,0.02,14286000.0,14568000.0,0.7126578802860001,0.243939905988,0.08142308519460001,0.0294681864266,0.010384343604999999,0.11135825985400001,66256000.0,23979000.0,8450000.0,0.026384835171599997,0.010384343604999999
2018-12-31,1005928000.0,0.26047452869800003,845493000.0,160435000.0,0.0,111431000.0,1009582000.0,-3654000.0,9410000.0,-12315000.0,2077000.0,0.0,0.0,-1186000.0,8109000.0,-1186000.0,-0.69,-0.69,13390000.0,13390000.0,0.5238237490659999,0.159489545971,0.0487838095768,-0.00363246673718,-0.00117901082384,0.0523238243691,49073000.0,-3654000.0,-1186000.0,-0.0122424268934,-0.00117901082384
2017-12-31,798055000.0,0.45977570756700004,53000.0,798002000.0,0.0,101127000.0,101127000.0,102420000.0,11134000.0,113809000.0,37528000.0,0.0,0.0,18854000.0,3038000.0,18854000.0,1.2,1.19,13143000.0,13346000.0,0.157800089915,0.999933588537,0.18309640313,0.128337019378,0.023624938130799997,0.0779495147578,146121000.0,102420000.0,18854000.0,0.142607965616,0.023624938130799997
2016-12-31,546697000.0,0.526434233414,1633000.0,545064000.0,0.0,84964000.0,84964000.0,84001000.0,8859000.0,76099000.0,10426000.0,0.0,0.0,14444000.0,0.0,14444000.0,2.53,2.23,5701000.0,6345000.0,1.31867612293,0.9970129706219999,0.243635871424,0.15365184005000002,0.0264204852048,0.11987444599099999,133195000.0,84001000.0,14444000.0,0.139197764027,0.0264204852048
2015-12-31,358153000.0,0.10925866276799999,0.0,0.0,0.0,61682000.0,61682000.0,29905000.0,2280000.0,27949000.0,1974000.0,0.0,0.0,3865000.0,0.0,3865000.0,1.26,1.06,3064000.0,3327000.0,1.33934475503,0.0,0.155506166359,0.0834978347243,0.0107914773854,0.123313220886,55695000.0,29905000.0,3865000.0,0.0780364816154,0.0107914773854
2014-12-31,322876000.0,0.0182471853417,0.0,0.0,0.0,45880000.0,45880000.0,-3841000.0,1578000.0,-5156000.0,-891000.0,0.0,0.0,-54000.0,0.0,-54000.0,-0.02,-0.02,3000000.0,3000000.0,0.0,0.0,0.0588801892987,-0.0118962078321,-0.000167246868767,0.008777363446030001,19011000.0,-3841000.0,-54000.0,-0.015968978803,-0.000167246868767
2013-12-31,317090000.0,-0.163487767173,0.0,317090000.0,0.0,35020000.0,51235000.0,265855000.0,1714000.0,31468000.0,56000.0,0.0,0.0,31412000.0,0.0,31412000.0,,,27500000.0,27500000.0,0.0,1.0,0.156,0.1046,0.099,0.1356,49397000.0,33182000.0,31412000.0,0.0992,0.0991
2012-12-31,379062000.0,,0.0,379062000.0,0.0,47321000.0,70116000.0,308946000.0,3363000.0,26139000.0,46000.0,0.0,0.0,26093000.0,0.0,26093000.0,,,,,0.0,1.0,0.138,0.0778,0.069,0.1119,52297000.0,29502000.0,26093000.0,0.069,0.0688
