,0,1,2,3,4,5,6,7,8,9,10,11,12,13,14
Date,Depreciation & Amortization,Stock-based compensation,Operating Cash Flow,Capital Expenditure,Acquisitions and disposals,Investment purchases and sales,Investing Cash flow,Issuance (repayment) of debt,Issuance (buybacks) of shares,Dividend payments,Financing Cash Flow,Effect of forex changes on cash,Net cash flow / Change in cash,Free Cash Flow,Net Cash/Marketcap
2019-12-31,9249000.0,3643000.0,11693000.0,4837000.0,-0.0,-6575000.0,-30222000.0,-0.0,-6575000.0,-9819000.0,-17153000.0,-300000.0,-35982000.0,6856000.0,0.0
2018-12-31,10769000.0,4954000.0,10315000.0,5915000.0,-0.0,-13483000.0,-5826000.0,-0.0,-13483000.0,-10064000.0,-24276000.0,-49000.0,83343000.0,4400000.0,0.0
2017-12-31,11624000.0,3688000.0,15556000.0,9214000.0,-0.0,-10023000.0,-9214000.0,-0.0,-10023000.0,-15234000.0,-25001000.0,0.0,-18659000.0,6342000.0,0.0
2016-12-31,12963000.0,854000.0,37461000.0,6254000.0,-0.0,-6436000.0,-6254000.0,-0.0,-6436000.0,-10287000.0,-16723000.0,0.0,14484000.0,31207000.0,0.0
2015-12-31,13970000.0,1868000.0,38012000.0,6374000.0,-0.0,-15008000.0,-5565000.0,-0.0,-15008000.0,-13976000.0,-28984000.0,0.0,3463000.0,31638000.0,0.0
2014-12-31,17133000.0,3838000.0,41559000.0,7679000.0,-0.0,-4325000.0,-7614000.0,-0.0,-4325000.0,-10826000.0,-15151000.0,0.0,18794000.0,33880000.0,0.0
2013-12-31,15425000.0,3045000.0,50456000.0,10408000.0,-0.0,0.0,-10115000.0,-0.0,0.0,-12312000.0,-12312000.0,0.0,28029000.0,40048000.0,0.0
2012-12-31,18491000.0,1224000.0,72877000.0,9989000.0,-3000000.0,-8065000.0,-12659000.0,-28250000.0,-8065000.0,-16512000.0,-52827000.0,0.0,7391000.0,62888000.0,0.0
2011-12-31,0.0,0.0,0.0,0.0,-0.0,0.0,0.0,-0.0,0.0,-0.0,0.0,0.0,0.0,0.0,0.0
2010-12-31,24127000.0,817000.0,79419000.0,-8663000.0,0.0,0.0,-6663000.0,0.0,-8893000.0,-44234000.0,-53127000.0,0.0,19629000.0,70756000.0,0.3295
2009-12-31,41914000.0,1560000.0,101860000.0,-17061000.0,0.0,0.0,-17061000.0,0.0,-4738000.0,-45502000.0,-50240000.0,0.0,34559000.0,84799000.0,0.4402
