,0,1,2,3,4,5,6,7,8,9,10,11,12,13,14
Date,Depreciation & Amortization,Stock-based compensation,Operating Cash Flow,Capital Expenditure,Acquisitions and disposals,Investment purchases and sales,Investing Cash flow,Issuance (repayment) of debt,Issuance (buybacks) of shares,Dividend payments,Financing Cash Flow,Effect of forex changes on cash,Net cash flow / Change in cash,Free Cash Flow,Net Cash/Marketcap
2019-12-31,255200000.0,36100000.0,922700000.0,232200000.0,-0.0,75800000.0,-239900000.0,13400000.0,75800000.0,50400000.0,884400000.0,5900000.0,1573100000.0,690500000.0,0.0
2018-12-31,248900000.0,27400000.0,769900000.0,271200000.0,-0.0,805800000.0,-267800000.0,6700000.0,805800000.0,48000000.0,-153500000.0,0.0,348600000.0,498700000.0,0.0
2017-12-31,217700000.0,22100000.0,573700000.0,273100000.0,-0.0,496300000.0,-272800000.0,2800000.0,496300000.0,47100000.0,-580900000.0,5600000.0,-274400000.0,300600000.0,0.0
2016-12-31,228100000.0,42500000.0,716900000.0,254000000.0,-0.0,649600000.0,-253400000.0,36400000.0,649600000.0,12000000.0,-718700000.0,-4400000.0,-259600000.0,462900000.0,0.0
2015-12-31,188000000.0,26000000.0,1289700000.0,360100000.0,-0.0,300000000.0,-357400000.0,36500000.0,300000000.0,-0.0,-351100000.0,-1800000.0,579400000.0,929600000.0,0.0
2014-12-31,199300000.0,16400000.0,361600000.0,220200000.0,-0.0,129200000.0,-239600000.0,16800000.0,129200000.0,-0.0,-164200000.0,-600000.0,-42800000.0,141400000.0,0.0
2013-12-31,168000000.0,19600000.0,260600000.0,234200000.0,-0.0,0.0,-266700000.0,-10400000.0,-420700000.0,-0.0,-13900000.0,1500000.0,-20000000.0,26400000.0,0.0
2012-12-31,170800000.0,15300000.0,544400000.0,236100000.0,-0.0,0.0,-248800000.0,-571000000.0,-440700000.0,-0.0,-34600000.0,1900000.0,262900000.0,308300000.0,0.0
2011-12-31,139.7,11.2,-47.3,249.7,-0.0,0.0,-249.2,-8.0,-177.8,-0.0,-6.7,-0.6,-303.8,-297.0,0.0
2010-12-31,128000000.0,28800000.0,125100000.0,288100000.0,-0.0,0.0,-288400000.0,-9600000.0,-481600000.0,-0.0,277400000.0,-1500000.0,112600000.0,-163000000.0,0.0
2009-12-31,127300000.0,10100000.0,-13900000.0,-228200000.0,0.0,0.0,-112400000.0,292700000.0,0.0,0.0,276100000.0,2700000.0,152500000.0,-242100000.0,-0.1874
