,0,1,2,3,4,5,6,7,8,9,10,11,12,13,14
Date,Depreciation & Amortization,Stock-based compensation,Operating Cash Flow,Capital Expenditure,Acquisitions and disposals,Investment purchases and sales,Investing Cash flow,Issuance (repayment) of debt,Issuance (buybacks) of shares,Dividend payments,Financing Cash Flow,Effect of forex changes on cash,Net cash flow / Change in cash,Free Cash Flow,Net Cash/Marketcap
2019-12-31,16415000.0,14690000.0,71794000.0,13585000.0,-0.0,-94318000.0,-14313000.0,-0.0,-20618000.0,-0.0,-12142000.0,54000.0,45393000.0,58209000.0,0.0
2018-12-31,12686000.0,12510000.0,55015000.0,13750000.0,-0.0,-101530000.0,-40465000.0,-0.0,-19864000.0,-0.0,-3775000.0,-43000.0,10732000.0,41265000.0,0.0
2017-12-31,11782000.0,12728000.0,31050000.0,7271000.0,-0.0,-53693000.0,-22620000.0,-0.0,-5815000.0,-0.0,-2472000.0,1292000.0,7250000.0,23779000.0,0.0
2016-12-31,11336000.0,8023000.0,18765000.0,8008000.0,-18032000.0,-8117000.0,-34157000.0,-0.0,-115877000.0,-0.0,10105000.0,-374000.0,-5661000.0,10757000.0,0.0
2015-12-31,9572000.0,6379000.0,14429000.0,8757000.0,-0.0,-22527000.0,-31284000.0,-0.0,-121538000.0,-0.0,8254000.0,-656000.0,-9257000.0,5672000.0,0.0
2014-12-31,8570000.0,5396000.0,16788000.0,7582000.0,-12595000.0,0.0,-20177000.0,-0.0,-130795000.0,-0.0,3485000.0,-595000.0,-499000.0,9206000.0,0.0
2013-12-31,8051000.0,4203000.0,18243000.0,5701000.0,-0.0,0.0,-5701000.0,-0.0,-83556000.0,-0.0,52702000.0,0.0,65244000.0,12542000.0,0.0
2012-12-31,0.0,0.0,0.0,0.0,-0.0,0.0,0.0,-0.0,57940000.0,-0.0,0.0,0.0,0.0,0.0,0.0
2011-12-31,0.0,0.0,0.0,0.0,-0.0,0.0,0.0,-0.0,0.0,-0.0,0.0,0.0,0.0,0.0,0.0
2010-12-31,1533000.0,750000.0,4919000.0,-1772000.0,0.0,0.0,-1772000.0,-2570000.0,33965000.0,0.0,31395000.0,0.0,34542000.0,3147000.0,0.2193
2009-12-31,1445000.0,228000.0,5158000.0,-1000000.0,0.0,0.0,-1000000.0,-1743000.0,2000.0,0.0,-1942000.0,0.0,2216000.0,4158000.0,0.0226
