,0,1,2,3,4,5,6,7,8,9,10,11,12,13,14,15,16,17,18,19,20,21,22,23,24,25,26,27,28
Date,Cash and cash equivalents,Short-term investments,Cash and short-term investments,Receivables,Inventories,Total current assets,Property Plant & Equipment Net,Goodwill and Intangible Assets,Long-term investments,Tax assets,Total non-current assets,Total assets,Payables,Short-term debt,Total current liabilities,Long-term debt,Total debt,Deferred revenue,Tax Liabilities,Deposit Liabilities,Total non-current liabilities,Total liabilities,Other comprehensive income,Retained earnings (deficit),Total shareholders equity,Investments,Net Debt,Other Assets,Other Liabilities
2019-12-31,6264000.0,0.0,6264000.0,39500000.0,0.0,58826000.0,5349000.0,599967000.0,0.0,0.0,664418000.0,723244000.0,15721000.0,12750000.0,40442000.0,433250000.0,446000000.0,6977000.0,0.0,0.0,452205000.0,609528000.0,511266000.0,-394126000.0,113716000.0,0.0,439736000.0,0.0,116881000.0
2018-12-31,14106000.0,0.0,14106000.0,66202000.0,0.0,93564000.0,8971000.0,964911000.0,0.0,0.0,985104000.0,1078668000.0,23527000.0,28300000.0,63522000.0,582487000.0,610787000.0,11695000.0,0.0,0.0,657713000.0,804750000.0,509538000.0,-234723000.0,273918000.0,0.0,596681000.0,0.0,83515000.0
2017-12-31,18902000.0,0.0,18902000.0,60102000.0,0.0,89170000.0,7035000.0,995170000.0,0.0,0.0,1008041000.0,1097211000.0,19126000.0,28300000.0,55528000.0,602297000.0,630597000.0,8102000.0,0.0,0.0,681941000.0,815220000.0,506645000.0,-225369000.0,281991000.0,0.0,611695000.0,0.0,77751000.0
2016-12-31,19133000.0,7673000.0,26806000.0,53195000.0,0.0,85888000.0,7674000.0,1337956000.0,0.0,0.0,1348975000.0,1434863000.0,18915000.0,28300000.0,57589000.0,616735000.0,645035000.0,10374000.0,0.0,0.0,831001000.0,972108000.0,501926000.0,-39651000.0,462755000.0,7673000.0,625902000.0,0.0,83518000.0
2015-12-31,41560000.0,5611000.0,47171000.0,42026000.0,0.0,94586000.0,6547000.0,1186565000.0,0.0,0.0,1203186000.0,1297772000.0,23722000.0,19000000.0,44879000.0,531000000.0,550000000.0,2157000.0,0.0,0.0,727244000.0,846284000.0,496179000.0,-38830000.0,451488000.0,5611000.0,508440000.0,0.0,74161000.0
2014-12-31,22521000.0,0.0,22521000.0,15720000.0,0.0,44084000.0,2255000.0,472825000.0,0.0,0.0,482279000.0,526363000.0,6691000.0,13253000.0,20574000.0,162247000.0,175500000.0,394000.0,0.0,0.0,240889000.0,261463000.0,-36000.0,-35959000.0,258120000.0,0.0,152979000.0,5843000.0,630000.0
2013-12-31,25125000.0,0.0,25125000.0,5286000.0,0.0,32269000.0,986000.0,116953000.0,0.0,0.0,121336000.0,153605000.0,4963000.0,8000000.0,15416000.0,49931000.0,57931000.0,1348000.0,0.0,0.0,57020000.0,72436000.0,0.0,-34890000.0,78856000.0,0.0,32806000.0,1858000.0,2453000.0
2012-12-31,2659000.0,0.0,2659000.0,476000.0,0.0,3652000.0,0.0,4722000.0,0.0,0.0,5325000.0,8977000.0,3720000.0,0.0,5493000.0,3502000.0,3502000.0,422000.0,0.0,0.0,3532000.0,9025000.0,0.0,-16916000.0,-2123000.0,0.0,843000.0,517000.0,1773000.0
2011-12-31,278059.0,0.0,278059.0,0.0,0.0,728126.0,300049.0,820147.0,0.0,0.0,1460273.0,2188399.0,1618374.0,1750000.0,6860231.0,0.0,1750000.0,1780700.0,0.0,0.0,743965.0,7604196.0,0.0,-7790564.0,-5415797.0,0.0,1471941.0,450067.0,3491857.0
2010-12-31,1340991.0,0.0,1340991.0,0.0,0.0,5534115.0,243546.0,835801.0,0.0,0.0,3905521.0,9439636.0,20742.0,0.0,5588978.0,750000.0,750000.0,250000.0,0.0,0.0,1658487.0,7247465.0,0.0,-5453514.0,2752801.0,0.0,-590991.0,4193124.0,5568236.0
2009-12-31,2734005.0,0.0,2734005.0,94306.0,2731754.0,5965680.0,1528033.0,1027520.0,0.0,0.0,3024659.0,8990339.0,4021391.0,0.0,3645651.0,248740.0,248740.0,0.0,9400.0,0.0,633880.0,4279531.0,0.0,-4538516.0,3600504.0,0.0,-2485265.0,405615.0,-375740.0
