,0,1,2,3,4,5,6,7,8,9,10,11,12,13,14,15,16,17,18,19,20,21,22,23,24,25,26,27,28,29,30
Date,Revenue,Revenue Growth,Cost of Revenue,Gross Profit,R&D Expenses,SG&A Expense,Operating Expenses,Operating Income,Interest Expense,Earnings before Tax,Income Tax Expense,Net Income - Non-Controlling int,Net Income - Discontinued ops,Net Income,Preferred Dividends,Net Income Com,EPS,EPS Diluted,Weighted Average Shs Out,Weighted Average Shs Out (Dil),Dividend per Share,Gross Margin,EBITDA Margin,EBIT Margin,Profit Margin,Free Cash Flow margin,EBITDA,EBIT,Consolidated Income,Earnings Before Tax Margin,Net Profit Margin
2019-12-31,657910000.0,1.0,547014000.0,110896000.0,0.0,91363000.0,91363000.0,9717000.0,0.0,-8490000.0,4791000.0,0.0,0.0,-15018000.0,0.0,-15018000.0,-0.39,-0.39,38132000.0,38132000.0,0.0,0.16855800945399999,0.0599474092201,0.0147694973477,-0.0228268304175,0.0167074523871,39440000.0,9717000.0,-15018000.0,-0.0129045006156,-0.0228268304175
2018-12-31,0.0,0.0,0.0,0.0,0.0,0.0,0.0,0.0,0.0,0.0,0.0,0.0,0.0,0.0,0.0,0.0,0.0,0.0,0.0,0.0,0.0,0.0,0.0,0.0,0.0,0.0,0.0,0.0,0.0,0.0,0.0
2018-03-31,,0.0,,16209000.0,,,42830000.0,-26621000.0,0.0,,,,,,,,,,,,,,,,,,,-26588000.0,,,
2017-12-31,292604000.0,0.0,260242000.0,32362000.0,0.0,32584000.0,32584000.0,-742000.0,0.0,-1712000.0,-436000.0,0.0,0.0,-1276000.0,0.0,-1276000.0,-0.08,-0.08,15966000.0,15966000.0,0.0,0.110599991798,0.0353310276004,-0.00253585050102,-0.00436084264057,0.0285129389892,10338000.0,-742000.0,-1276000.0,-0.00585091112903,-0.00436084264057
2017-03-31,,0.0,,27704000.0,,,46116000.0,-18412000.0,0.0,,,,,,,,,,,,,,,,,,,-18139000.0,,,
2016-12-31,307200000.0,0.0,270779000.0,36421000.0,0.0,33196000.0,33196000.0,2861000.0,0.0,1113000.0,718000.0,0.0,0.0,395000.0,0.0,395000.0,0.03,0.02,15731000.0,16258000.0,0.0,0.118557942708,0.049189453125,0.009313151041670001,0.0012858072916700001,0.0232421875,15111000.0,2861000.0,395000.0,0.003623046875,0.0012858072916700001
2016-03-31,,0.0,,49101000.0,,,49633000.0,-532000.0,0.0,,,,,,,,,,,,,,,,,,,3898000.0,,,
2015-12-31,282134000.0,0.128174984005,257830000.0,24304000.0,0.0,34427000.0,34427000.0,-14013000.0,0.0,-15152000.0,464000.0,0.0,0.0,-15616000.0,0.0,-15616000.0,-1.01,-1.01,15529000.0,15529000.0,0.0,0.0861434637442,-0.00266540012902,-0.0496678883084,-0.055349585657900005,-0.0438018813755,-752000.0,-14013000.0,-15616000.0,-0.053704977067599996,-0.055349585657900005
2014-12-31,250080000.0,0.0813942929295,219608000.0,30472000.0,0.0,31397000.0,31397000.0,-4890000.0,0.0,-4896000.0,564000.0,0.0,0.0,-5460000.0,0.0,-5460000.0,-0.35,-0.35,15394000.0,15394000.0,0.0,0.121849008317,0.0219489763276,-0.0195537428023,-0.0218330134357,-0.0291146833013,5489000.0,-4890000.0,-5460000.0,-0.0195777351248,-0.0218330134357
2013-12-31,231257000.0,0.167422207863,206932000.0,24325000.0,0.0,28828000.0,28828000.0,-4597000.0,0.0,-15452000.0,230000.0,0.0,0.0,-6406000.0,0.0,-6406000.0,-0.42,-0.42,15339000.0,15339000.0,0.0,0.10518600517999999,0.0342908538985,-0.019878317196900003,-0.027700783111400003,-0.011247227111,7930000.0,-4597000.0,-6406000.0,-0.0668174368776,-0.027700783111400003
2012-12-31,198092000.0,-0.0975019704501,175095000.0,22997000.0,0.0,29645000.0,29645000.0,-10714000.0,0.0,-10372000.0,116000.0,0.0,0.0,-10488000.0,0.0,-10488000.0,-0.69,-0.69,15241000.0,15241000.0,0.0,0.116092522666,0.011323021626299999,-0.0540859802516,-0.0529450962179,-0.022181612584099997,2243000.0,-10714000.0,-10488000.0,-0.052359509722800006,-0.0529450962179
2011-12-31,219493000.0,-0.17289807669100002,196508000.0,22985000.0,0.0,44110000.0,44110000.0,-26621000.0,0.0,-26588000.0,-126000.0,0.0,0.0,-26462000.0,0.0,-26462000.0,-1.75,-1.75,15084000.0,15084000.0,0.0,0.104718601504,-0.0495277753732,-0.12128405006100001,-0.12055965338300001,-0.0465891850765,-10871000.0,-26621000.0,-26462000.0,-0.12113370358100001,-0.12055965338300001
2010-12-31,265376000.0,-0.0816803931068,237672000.0,24325000.0,0.0,43281000.0,28922000.0,-4597000.0,0.0,-18139000.0,1244000.0,0.0,-4640000.0,4649000.0,0.0,-19383000.0,0.31,0.31,15107515.0,14792000.0,0.0,0.1044,0.069,-0.0684,0.016,0.0034,19875000.0,-6176000.0,4649000.0,-0.0684,0.0161
2009-12-31,288980000.0,0.0611,239879000.0,22997000.0,,43196000.0,33711000.0,-10714000.0,0.0,3898000.0,-751000.0,,,,,4649000.0,,,14868875.0,,,0.1699,,0.0135,,,,-10372000.0,,0.0135,
