,0,1,2,3,4,5,6,7,8,9,10,11,12,13,14,15,16,17,18,19,20,21,22,23,24,25,26,27,28,29,30
Date,Revenue,Revenue Growth,Cost of Revenue,Gross Profit,R&D Expenses,SG&A Expense,Operating Expenses,Operating Income,Interest Expense,Earnings before Tax,Income Tax Expense,Net Income - Non-Controlling int,Net Income - Discontinued ops,Net Income,Preferred Dividends,Net Income Com,EPS,EPS Diluted,Weighted Average Shs Out,Weighted Average Shs Out (Dil),Dividend per Share,Gross Margin,EBITDA Margin,EBIT Margin,Profit Margin,Free Cash Flow margin,EBITDA,EBIT,Consolidated Income,Earnings Before Tax Margin,Net Profit Margin
2019-06-30,14541142857.1429,0.10584517570499999,6470642857.1429,8070500000.0,47357142.8571,559714285.7143,6122785714.2857,1947714285.7143,89500000.0,532500000.0,225500000.0,126857142.8571,0.0,307000000.0,0.0,307000000.0,0.4979,0.495,44962552.0714,44962552.0714,0.0703,0.555,0.0031,0.0428,0.0015,-0.1218,622000000.0,622000000.0,433857142.8571,0.0366,0.0211
2018-06-30,13149347826.087,-0.00247484024784,5551159420.2899,7598188405.7971,25507246.3768,511594202.8986,5491594202.8986,2106594202.8986,272391304.3478,1035289855.0725,402753623.1884,102681159.4203,0.0,632536231.8841,0.0,632536231.8841,1.0333,1.0275,47411257.8261,47411257.8261,0.0628,0.5778,0.0072,0.0994,0.0035,-0.1668,1307681159.4203,1307681159.4203,735217391.3043,0.0787,0.0481
2017-06-30,13181971098.7079,0.12640751752999999,5461885465.2496,7720085633.4582,37541096.4141,489716339.1697,5254300787.522,2465784845.9362,249636822.387,2207278843.9483,649514488.8753,87086168.6673,0.0,1557764355.073,0.0,1557764355.073,2.5507,2.5438,50021261.6408,50021261.6408,0.0698,0.5857,0.0142,0.1864,0.009000000000000001,-0.1701,2456915666.3353,2456915666.3353,1644850523.7403,0.1674,0.1182
2016-06-30,11702666125.3214,-0.23075433120900002,4826092840.7092,6876573284.6123,19082419.8132,467857626.2011,4398430098.7955,2478143185.8168,158343483.5566,1483015293.0031,588103938.2866,121938015.9697,0.0,894911354.7165,0.0,894911354.7165,1.4657,1.4657,44250458.8578,44250458.8578,0.0719,0.5876,0.0095,0.1403,0.0051,-0.2114,1641358776.5598,1641358776.5598,1016849370.6862,0.1267,0.0765
2015-06-30,15213171292.4947,-0.204300168876,6583100673.3454,8630070619.1493,45491870.5863,496058466.0864,4910330103.4653,3719740515.684,183117096.4034,3625143701.7573,1185005748.0703,118738709.1476,0.0,2440137953.6870003,0.0,2440137953.6870003,3.9998,3.9989999999999997,53653205.0419,53653205.0419,0.142,0.5673,0.0205,0.2503,0.0131,-0.0092,3808260798.1606,3808260798.1606,2558876662.8346,0.2383,0.1604
2014-06-30,19119234034.525,0.113565879132,8416564475.0495,10702669559.4755,56975757.0041,543533628.9029,6051881897.9342,4650787661.5414,181586642.7696,4176587114.4232,1386284312.8007,78954815.5834,0.0,2790302801.6225,0.0,2790302801.6225,4.5816,4.5533,61634631.7329,61634631.7329,0.1641,0.5598,0.0215,0.2279,0.0138,0.0256,4358173757.1927,4358173757.1927,2869257617.2059,0.2184,0.1459
2013-06-30,17169378473.9768,-0.11495379260399999,7743001515.9171,9426376958.0596,138352703.3855,515613946.4376,4959575543.2036,4466801414.856,182718544.7196,3928145528.0445,1272865083.3754,84588175.8464,0.0,2655280444.669,0.0,2655280444.669,4.3839999999999995,4.3759,,,0.188,0.5489999999999999,0.0242,0.2394,0.0157,0.0346,4110864072.7640004,4110864072.7640004,2739868620.5154,0.2288,0.1547
2012-06-30,19399414776.8837,,9596561814.1917,9802852962.692,127164106.3155,510363326.018,5026456961.7167,4776396000.9754,221653255.3036,4277127529.8708,1402218970.9827,75835162.1556,0.0,2874908558.8881,0.0,2874908558.8881,4.7659,4.7427,,,0.2377,0.5053,0.0283,0.2319,0.018000000000000002,-0.0113,4498780785.1743,4498780785.1743,2950743721.0436,0.2205,0.1482
