,0,1,2,3,4,5,6,7,8,9,10,11,12,13,14,15,16,17,18,19,20,21,22,23,24,25,26,27,28,29,30
Date,Revenue,Revenue Growth,Cost of Revenue,Gross Profit,R&D Expenses,SG&A Expense,Operating Expenses,Operating Income,Interest Expense,Earnings before Tax,Income Tax Expense,Net Income - Non-Controlling int,Net Income - Discontinued ops,Net Income,Preferred Dividends,Net Income Com,EPS,EPS Diluted,Weighted Average Shs Out,Weighted Average Shs Out (Dil),Dividend per Share,Gross Margin,EBITDA Margin,EBIT Margin,Profit Margin,Free Cash Flow margin,EBITDA,EBIT,Consolidated Income,Earnings Before Tax Margin,Net Profit Margin
2019-12-31,4632900000.0,0.354213557043,2611700000.0,2021200000.0,383700000.0,723100000.0,1106800000.0,914400000.0,409600000.0,531700000.0,93200000.0,0.0,0.0,438500000.0,0.0,438500000.0,1.73,1.66,252900000.0,264200000.0,0.407645722937,0.436271018153,0.370826048479,0.19737097714200003,0.09464913984760001,0.273111873772,1718000000.0,914400000.0,438500000.0,0.114766129206,0.09464913984760001
2018-12-31,3421100000.0,1.0420881098600001,2051100000.0,1370000000.0,318200000.0,524900000.0,940900000.0,429100000.0,280100000.0,125100000.0,21900000.0,0.0,0.0,103200000.0,0.0,103200000.0,0.44,0.42,232500000.0,243700000.0,0.290931473123,0.40045599368600004,0.280962263599,0.12542749408099998,0.0301657361667,0.17728216070900002,961200000.0,429100000.0,103200000.0,0.036567185992800004,0.0301657361667
2017-12-31,1675295000.0,0.130858842366,886425000.0,788870000.0,153334000.0,238623000.0,391957000.0,396913000.0,108639000.0,282630000.0,-46234000.0,0.0,0.0,328864000.0,0.0,328864000.0,1.6,1.55,204923000.0,211632000.0,0.256846790655,0.470884232329,0.384800288904,0.236921258644,0.19630214380199998,0.259531604882,644654000.0,396913000.0,328864000.0,0.168704616202,0.19630214380199998
2016-12-31,1481436000.0,0.481013911035,800489000.0,680947000.0,152689000.0,239563000.0,392252000.0,288695000.0,129942000.0,163616000.0,32620000.0,0.0,0.0,130996000.0,0.0,130996000.0,0.65,0.64,200252000.0,205793000.0,0.24364288386900002,0.459653336357,0.35645009301799996,0.19487510766600002,0.0884250146479,0.263582766991,528058000.0,288695000.0,130996000.0,0.11044419063699999,0.0884250146479
2015-12-31,1000285000.0,0.30269020044,532350000.0,467935000.0,110415000.0,192782000.0,303197000.0,164738000.0,79333000.0,60842000.0,17980000.0,0.0,0.0,42862000.0,0.0,42862000.0,0.47,0.45,91098000.0,95448000.0,0.476185986087,0.467801676522,0.323605772355,0.164691063047,0.0428497878105,0.21696216578299998,323698000.0,164738000.0,42862000.0,0.0608246649705,0.0428497878105
2014-12-31,767861000.0,0.0773941984167,410731000.0,357130000.0,57287000.0,99471000.0,156758000.0,200372000.0,27177000.0,124032000.0,46527000.0,0.0,0.0,131127000.0,0.0,131127000.0,1.57,1.5,83314000.0,87331000.0,0.120163515819,0.465097198582,0.398564323491,0.260948270585,0.17076918869399998,0.309290353332,306042000.0,200372000.0,131127000.0,0.161529235109,0.17076918869399998
2013-12-31,712702000.0,3562.51,388800000.0,323902000.0,53862000.0,87072000.0,140934000.0,182968000.0,42395000.0,90332000.0,27292000.0,0.0,0.0,117895000.0,0.0,117895000.0,1.45,1.38,81195000.0,85616000.0,0.0,0.45447045188600005,0.40490695971100005,0.25672440936,0.165419768711,0.275498034242,288578000.0,182968000.0,117895000.0,0.126745820834,0.165419768711
2012-12-31,200000.0,1.0,0.0,0.0,0.0,0.0,0.0,50710000.0,0.0,50710000.0,31015000.0,0.0,0.0,0.0,0.0,0.0,0.0,0.0,0.0,0.0,0.0,0.0,253.55,253.55,0.0,0.0,50710000.0,50710000.0,0.0,253.55,0.0
2011-12-31,0.0,-1.0,0.0,0.0,0.0,0.0,0.0,0.0,0.0,0.0,0.0,0.0,0.0,0.0,0.0,0.0,0.0,0.0,0.0,0.0,0.0,0.0,0.0,0.0,0.0,0.0,0.0,0.0,0.0,0.0,0.0
2010-12-31,328905000.0,0.214052378052,165932000.0,162973000.0,31442000.0,51691000.0,83133000.0,79840000.0,30582000.0,44447000.0,12034000.0,0.0,0.0,32413000.0,0.0,32413000.0,0.235,0.22,144542924.0,138054000.0,0.0,0.4955,0.35200000000000004,0.2281,0.099,0.2135,115757000.0,75029000.0,32413000.0,0.1351,0.0985
2009-12-31,270915000.0,-0.0325,137740000.0,133175000.0,26513000.0,39559000.0,66072000.0,67103000.0,36891000.0,28822000.0,9804000.0,0.0,0.0,19018000.0,0.0,19018000.0,0.155,0.15,,120762000.0,0.0,0.4916,0.376,0.2426,0.07,0.2111,101741000.0,65713000.0,19018000.0,0.1064,0.0702
