,0,1,2,3,4,5,6,7,8,9,10,11,12,13,14,15,16,17,18,19,20,21,22,23,24,25,26,27,28,29,30
Date,Revenue,Revenue Growth,Cost of Revenue,Gross Profit,R&D Expenses,SG&A Expense,Operating Expenses,Operating Income,Interest Expense,Earnings before Tax,Income Tax Expense,Net Income - Non-Controlling int,Net Income - Discontinued ops,Net Income,Preferred Dividends,Net Income Com,EPS,EPS Diluted,Weighted Average Shs Out,Weighted Average Shs Out (Dil),Dividend per Share,Gross Margin,EBITDA Margin,EBIT Margin,Profit Margin,Free Cash Flow margin,EBITDA,EBIT,Consolidated Income,Earnings Before Tax Margin,Net Profit Margin
2019-12-31,40752000.0,0.172618191235,16409000.0,24343000.0,5344000.0,17404000.0,22748000.0,1595000.0,0.0,1757000.0,-41000.0,0.0,0.0,1798000.0,0.0,1798000.0,0.16,0.15,11302780.0,11846348.0,0.0,0.597344915587,0.16139085198300002,0.039139183353,0.0441205339615,0.217633490381,6577000.0,1595000.0,1798000.0,0.043114448370599995,0.0441205339615
2018-12-31,34753000.0,0.462483693136,15532000.0,19221000.0,4987000.0,16802000.0,21789000.0,-2568000.0,0.0,-2738000.0,-13000.0,0.0,0.0,-2725000.0,0.0,-2725000.0,-0.26,-0.26,10569007.0,10569007.0,0.0,0.553074554715,0.0388167927949,-0.0738929013323,-0.0784104969355,-0.282853278854,1349000.0,-2568000.0,-2725000.0,-0.0787845653613,-0.0784104969355
2017-12-31,23763000.0,0.532404720449,12163000.0,11600000.0,4159000.0,11774000.0,15933000.0,-4333000.0,0.0,-9820000.0,160000.0,0.0,0.0,-9980000.0,0.0,-9980000.0,-1.61,-1.61,6197775.0,6197775.0,0.0,0.488153852628,-0.04544880696880001,-0.182342296848,-0.41998064217500003,-0.128056221858,-1080000.0,-4333000.0,-9980000.0,-0.41324748558700003,-0.41998064217500003
2016-12-31,15507000.0,0.315155627173,9549000.0,5958000.0,4093000.0,6837000.0,10930000.0,-4972000.0,1317000.0,-6860000.0,0.0,0.0,0.0,-6860000.0,0.0,-6860000.0,-4.28,-4.28,9113000.0,1602402.0,0.0,0.3842,-0.193,-0.3575,-0.442,-0.1431,-2992000.0,-5543000.0,-6860000.0,-0.4424,-0.4424
2015-12-31,11791000.0,,8304000.0,3487000.0,3359000.0,5648000.0,9035000.0,-5548000.0,643000.0,-6191000.0,0.0,0.0,0.0,-6191000.0,0.0,-6191000.0,-3.99,-3.99,9113000.0,1552780.0,0.0,0.2957,-0.27899999999999997,-0.4705,-0.525,-0.4799,-3284000.0,-5548000.0,-6191000.0,-0.5251,-0.5251
