,0,1,2,3,4,5,6,7,8,9,10,11,12,13,14,15,16,17,18,19,20,21,22,23,24,25,26,27,28,29,30
Date,Revenue,Revenue Growth,Cost of Revenue,Gross Profit,R&D Expenses,SG&A Expense,Operating Expenses,Operating Income,Interest Expense,Earnings before Tax,Income Tax Expense,Net Income - Non-Controlling int,Net Income - Discontinued ops,Net Income,Preferred Dividends,Net Income Com,EPS,EPS Diluted,Weighted Average Shs Out,Weighted Average Shs Out (Dil),Dividend per Share,Gross Margin,EBITDA Margin,EBIT Margin,Profit Margin,Free Cash Flow margin,EBITDA,EBIT,Consolidated Income,Earnings Before Tax Margin,Net Profit Margin
2019-06-30,45618000.0,-0.137199273718,18941000.0,26677000.0,0.0,19191000.0,19191000.0,-2314000.0,241000.0,-2078000.0,-82000.0,0.0,0.0,-1754000.0,0.0,-1754000.0,-0.25,-0.25,7149000.0,7149000.0,0.0,0.584791091236,-0.0128458064799,-0.0507255907756,-0.0384497347538,-0.059165241790500006,-586000.0,-2314000.0,-1754000.0,-0.045552194309300006,-0.0384497347538
2018-06-30,52872000.0,-0.00780663564029,18529000.0,34343000.0,0.0,23551000.0,23551000.0,-1994000.0,359000.0,-1478000.0,-345000.0,0.0,0.0,-1593000.0,0.0,-1593000.0,-0.19,-0.19,8283000.0,8283000.0,0.0,0.649549856257,-0.00257224996217,-0.0377137237101,-0.0301293690422,-0.0277084279013,-136000.0,-1994000.0,-1593000.0,-0.027954304736,-0.0301293690422
2017-06-30,53288000.0,-0.159932527233,19917000.0,33371000.0,0.0,23378000.0,23378000.0,-4510000.0,635000.0,-2471000.0,-512000.0,0.0,0.0,2688000.0,0.0,2688000.0,0.29,0.29,9346000.0,9346000.0,0.0,0.62623855277,-0.0473464945203,-0.08463443927339999,0.05044287644500001,-0.135865485663,-2523000.0,-4510000.0,2688000.0,-0.0463706650653,0.05044287644500001
2016-06-30,63433000.0,-0.30925702089699997,20404000.0,43029000.0,0.0,30783000.0,30783000.0,-6523000.0,843000.0,-7356000.0,4558000.0,0.0,0.0,-14083000.0,0.0,-14083000.0,-1.49,-1.49,9443000.0,9443000.0,0.0,0.678337773714,-0.0644301861807,-0.10283291031500001,-0.222013778317,-0.0279507511863,-4087000.0,-6523000.0,-14083000.0,-0.115964876326,-0.222013778317
2015-06-30,91833000.0,-0.211700072965,21042000.0,70791000.0,0.0,43127000.0,43127000.0,2534000.0,861000.0,1694000.0,1020000.0,0.0,0.0,245000.0,0.0,245000.0,0.03,0.03,9443000.0,9496000.0,0.0,0.770866681912,0.05678786492869999,0.027593566582800003,0.00266788627182,0.0178149466967,5215000.0,2534000.0,245000.0,0.018446527936599996,0.00266788627182
2014-06-30,116495000.0,-0.029838938023599996,22110000.0,94385000.0,0.0,51096000.0,51096000.0,-40000.0,1220000.0,-1303000.0,88000.0,0.0,0.0,-545000.0,0.0,-545000.0,-0.06,-0.06,9443000.0,9443000.0,0.0,0.810206446629,0.0310914631529,-0.00034336237606800003,-0.00467831237392,0.0186188248423,3622000.0,-40000.0,-545000.0,-0.0111850294004,-0.00467831237392
2013-06-30,120078000.0,-0.181327297272,22363000.0,97715000.0,0.0,52660000.0,52660000.0,-1095000.0,1797000.0,-2891000.0,-1306000.0,0.0,0.0,4488000.0,0.0,4488000.0,0.48,0.48,9445000.0,9445000.0,0.0,0.813762720898,0.024592348306900002,-0.009119072602809999,0.037375705791199997,-0.0167890870934,2953000.0,-1095000.0,4488000.0,-0.0240760172555,0.037375705791199997
2012-06-30,146674000.0,0.218748961345,26073000.0,120601000.0,0.0,63263000.0,63263000.0,5908000.0,4392000.0,1510000.0,858000.0,0.0,0.0,1081000.0,0.0,1081000.0,0.12,0.12,9350000.0,9350000.0,0.0,0.8222384335330001,0.0402798041916,0.0402798041916,0.00737008604115,0.0,5908000.0,5908000.0,1081000.0,0.0102949397985,0.00737008604115
2011-06-30,120348000.0,-0.27641562751800003,46133000.0,74215000.0,0.0,70083000.0,92135000.0,-17920000.0,7433000.0,-25175000.0,-9072000.0,0.0,-173000.0,-16103000.0,0.0,-16103000.0,-1.99,-1.99,8119232.0,8094000.0,0.0,0.6167,-0.10300000000000001,-0.1474,-0.134,0.0178,-12398000.0,-17742000.0,-16103000.0,-0.2092,-0.1338
2010-06-30,166322000.0,0.0206245666141,52013000.0,114309000.0,0.0,83813000.0,114194000.0,115000.0,3471000.0,-476000.0,-578000.0,0.0,-524000.0,102000.0,0.0,102000.0,0.01,0.01,8072482.0,8052000.0,0.0,0.6873,0.055,0.018000000000000002,0.001,0.0086,9119000.0,2995000.0,102000.0,-0.0029,0.0006
2009-06-30,162961000.0,0.0286,52370000.0,110591000.0,0.0,79577000.0,105749000.0,4842000.0,3765000.0,1608000.0,696000.0,0.0,-301000.0,912000.0,0.0,912000.0,0.11,0.11,7975000.0,8019000.0,0.0,0.6786,0.071,0.033,0.006,0.0207,11618000.0,5373000.0,912000.0,0.0099,0.0056
