,0,1,2,3,4,5,6,7,8,9,10,11,12,13,14,15,16,17,18,19,20,21,22,23,24,25,26,27,28,29,30
Date,Revenue,Revenue Growth,Cost of Revenue,Gross Profit,R&D Expenses,SG&A Expense,Operating Expenses,Operating Income,Interest Expense,Earnings before Tax,Income Tax Expense,Net Income - Non-Controlling int,Net Income - Discontinued ops,Net Income,Preferred Dividends,Net Income Com,EPS,EPS Diluted,Weighted Average Shs Out,Weighted Average Shs Out (Dil),Dividend per Share,Gross Margin,EBITDA Margin,EBIT Margin,Profit Margin,Free Cash Flow margin,EBITDA,EBIT,Consolidated Income,Earnings Before Tax Margin,Net Profit Margin
2019-12-31,8623000.0,-0.144882982943,0.0,0.0,0.0,83986000.0,83986000.0,117360000.0,73693000.0,117360000.0,19126000.0,0.0,0.0,98234000.0,0.0,98234000.0,2.84,2.82,34628191.0,34722954.0,1.07594532424,0.0,13.9023541691,13.6101124899,11.392090919600001,15.4551780123,119880000.0,117360000.0,98234000.0,13.6101124899,11.392090919600001
2018-12-31,10084000.0,-0.9553277544709999,0.0,0.0,12200000.0,76108000.0,88308000.0,123179000.0,55388000.0,123179000.0,17845000.0,0.0,0.0,105334000.0,0.0,105334000.0,3.03,3.01,34775784.0,34975409.0,0.9875224046700001,0.0,12.35600952,12.215291550999998,10.445656485499999,12.2813367711,124598000.0,123179000.0,105334000.0,12.215291550999998,10.445656485499999
2017-12-31,225733000.0,0.110568289719,0.0,0.0,10400000.0,80776000.0,91176000.0,119405000.0,34909000.0,119405000.0,46437000.0,0.0,0.0,72968000.0,0.0,72968000.0,2.1,2.09,34729376.0,34954767.0,0.8173134153630001,0.0,0.522298467659,0.528965636393,0.32324914833,0.485272423616,117900000.0,119405000.0,72968000.0,0.528965636393,0.32324914833
2016-12-31,203259000.0,0.0837532191244,0.0,0.0,10400000.0,77325000.0,87725000.0,96697000.0,24515000.0,96697000.0,25305000.0,0.0,0.0,71392000.0,0.0,71392000.0,2.06,2.05,34677738.0,34773170.0,0.770249016699,0.0,0.474744045774,0.475732931875,0.351236599609,0.458705395579,96496000.0,96697000.0,71392000.0,0.475732931875,0.351236599609
2015-12-31,187551000.0,0.266876967347,0.0,0.0,11700000.0,68252000.0,79952000.0,91479000.0,15997000.0,91479000.0,24398000.0,0.0,0.0,67081000.0,0.0,67081000.0,1.98,1.98,33812990.0,33848082.0,0.7234383324879999,0.0,0.4704587019,0.48775533055,0.357668047624,0.29565824762299997,88235000.0,91479000.0,67081000.0,0.48775533055,0.357668047624
2014-12-31,148042000.0,0.0635735992471,0.0,0.0,9800000.0,60442000.0,70242000.0,75425000.0,12481000.0,75425000.0,17515000.0,0.0,0.0,57910000.0,0.0,57910000.0,1.95,1.95,29683103.0,29708724.0,0.680035938265,0.0,0.516393996298,0.509483795139,0.391172775293,0.49326542467699996,76448000.0,75425000.0,57910000.0,0.509483795139,0.391172775293
2013-12-31,139193000.0,0.029328462511200002,0.0,0.0,9500000.0,60902000.0,70402000.0,50539000.0,14563000.0,0.0,14478000.0,0.0,0.0,50539000.0,0.0,50539000.0,1.7,1.7,29647231.0,29682553.0,0.611032346173,0.0,0.401399495664,0.36308578736,0.36308578736,0.5980401313279999,55872000.0,50539000.0,50539000.0,0.0,0.36308578736
2012-12-31,135227000.0,-0.0154281886622,0.0,0.0,10300000.0,60256000.0,70556000.0,41461000.0,21024000.0,41461000.0,7261000.0,0.0,0.0,34200000.0,0.0,34200000.0,1.18,1.18,28976619.0,29008880.0,0.598334027374,0.0,0.341507243376,0.30660297129999997,0.252908073092,0.604250630421,46181000.0,41461000.0,34200000.0,0.30660297129999997,0.252908073092
2011-12-31,137346000.0,-0.160194441897,0.0,0.0,0.0,51078000.0,51078000.0,61886000.0,27733000.0,61886000.0,14622000.0,0.0,0.0,47264000.0,7611000.0,47264000.0,1.41,1.41,0.0,0.0,0.0,0.0,0.524878773317,0.450584654813,0.34412360025,0.5196438192589999,72090000.0,61886000.0,47264000.0,0.450584654813,0.34412360025
2010-12-31,163545000.0,0.45751639811800004,0.0,163545000.0,0.0,76526000.0,105633000.0,57912000.0,0.0,57912000.0,14432000.0,0.0,0.0,43480000.0,6201000.0,37279000.0,1.34,1.34,27850678.0,27791000.0,0.6,1.0,0.39399999999999996,0.3541,0.228,0.5233,64499000.0,57912000.0,43480000.0,0.3541,0.2659
2009-12-31,112208000.0,-0.3342,0.0,112208000.0,0.0,73677000.0,103733000.0,8475000.0,0.0,4082000.0,-3869000.0,0.0,0.0,7951000.0,5913000.0,2038000.0,0.07,0.07,27708094.0,27626000.0,0.61,1.0,0.099,0.0364,0.018000000000000002,0.484,11126000.0,4082000.0,7951000.0,0.0364,0.0709
