,0,1,2,3,4,5,6,7,8,9,10,11,12,13,14
Date,Depreciation & Amortization,Stock-based compensation,Operating Cash Flow,Capital Expenditure,Acquisitions and disposals,Investment purchases and sales,Investing Cash flow,Issuance (repayment) of debt,Issuance (buybacks) of shares,Dividend payments,Financing Cash Flow,Effect of forex changes on cash,Net cash flow / Change in cash,Free Cash Flow,Net Cash/Marketcap
2017-12-31,45745000.0,3791000.0,69827000.0,0.0,-137714000.0,233946000.0,-20814000.0,-0.0,1000.0,-21814000.0,32271000.0,0.0,81284000.0,69827000.0,0.0
2017-12,12000000.0,4000000.0,,,,-388000000.0,-21000000.0,,,,32000000.0,,81000000.0,,
2016-12-31,54640000.0,3889000.0,19420000.0,0.0,3661000.0,108461000.0,-198684000.0,-0.0,-4928000.0,-20681000.0,153495000.0,0.0,-25769000.0,19420000.0,0.0
2016-12,11000000.0,4000000.0,,,,-309000000.0,-199000000.0,,,,153000000.0,,-26000000.0,,
2015-12-31,59283000.0,3595000.0,-28882000.0,0.0,-14958000.0,364023000.0,-322060000.0,-0.0,-174815000.0,-11631000.0,45146000.0,0.0,-305796000.0,-28882000.0,0.0
2015-12,11000000.0,4000000.0,,,,-648000000.0,-322000000.0,,,,45000000.0,,-306000000.0,,
2014-12-31,70347000.0,2035000.0,42765000.0,0.0,-0.0,107484000.0,-257440000.0,5000000.0,-480963000.0,-4830000.0,97084000.0,0.0,481158000.0,42765000.0,0.0
2014-12,7000000.0,2000000.0,,,,-431000000.0,-257000000.0,,,,97000000.0,,-118000000.0,,
2013-12-31,38552000.0,1321000.0,96236000.0,0.0,-0.0,28636000.0,529906000.0,-0.0,-598649000.0,-3840000.0,-27393000.0,0.0,598749000.0,96236000.0,0.0
2013-12,4000000.0,1000000.0,,,,-198000000.0,86000000.0,,,,-27000000.0,,155000000.0,,
2012-12-31,73896000.0,779000.0,193000000.0,5700000.0,-0.0,142780000.0,404206000.0,-0.0,-445218000.0,-1910000.0,-151821000.0,0.0,445385000.0,187300000.0,0.0
2011-12-31,130768000.0,188000.0,162222000.0,7035000.0,-0.0,175516000.0,151602000.0,24572000.0,-220532000.0,-0.0,-479781000.0,0.0,220532000.0,155187000.0,0.0
