,0,1,2,3,4,5,6,7,8,9,10,11,12,13,14,15,16,17,18,19,20,21,22,23,24,25,26,27,28
Date,Cash and cash equivalents,Short-term investments,Cash and short-term investments,Receivables,Inventories,Total current assets,Property Plant & Equipment Net,Goodwill and Intangible Assets,Long-term investments,Tax assets,Total non-current assets,Total assets,Payables,Short-term debt,Total current liabilities,Long-term debt,Total debt,Deferred revenue,Tax Liabilities,Deposit Liabilities,Total non-current liabilities,Total liabilities,Other comprehensive income,Retained earnings (deficit),Total shareholders equity,Investments,Net Debt,Other Assets,Other Liabilities
2019-12-28,1498000.0,284000.0,1782000.0,121445000.0,323546000.0,489954000.0,184550000.0,178431000.0,0.0,7480000.0,433405000.0,923359000.0,133529000.0,2987000.0,405664000.0,52020000.0,55007000.0,0.0,1272000.0,37000.0,63058000.0,795338000.0,35767000.0,-214931000.0,128021000.0,284000.0,53509000.0,0.0,326616000.0
2018-12-29,3280000.0,0.0,3280000.0,132131000.0,361957000.0,533421000.0,171032000.0,188934000.0,0.0,182000.0,363317000.0,896738000.0,155371000.0,1840000.0,446346000.0,227023000.0,228863000.0,0.0,2208000.0,1445000.0,237251000.0,766403000.0,31796000.0,-206151000.0,130335000.0,0.0,225583000.0,0.0,82806000.0
2017-12-30,3228000.0,0.0,3228000.0,125152000.0,354978000.0,528577000.0,163624000.0,281592000.0,0.0,363000.0,453596000.0,982173000.0,161364000.0,2228000.0,410052000.0,225805000.0,228033000.0,0.0,1351000.0,4901000.0,250007000.0,741827000.0,28006000.0,-89291000.0,240346000.0,0.0,224805000.0,0.0,81768000.0
2016-12-31,1251000.0,0.0,1251000.0,157369000.0,368482000.0,549697000.0,162239000.0,407135000.0,0.0,1045000.0,579861000.0,1129558000.0,173745000.0,2079000.0,392038000.0,229008000.0,231087000.0,0.0,5661000.0,2543000.0,288923000.0,762876000.0,25522000.0,53838000.0,366682000.0,0.0,229836000.0,0.0,81915000.0
2016-01-02,2274000.0,0.0,2274000.0,117412000.0,371223000.0,597055000.0,176513000.0,436698000.0,0.0,958000.0,622148000.0,1219203000.0,151831000.0,1773000.0,379669000.0,321222000.0,322995000.0,0.0,1720000.0,5322000.0,413355000.0,798164000.0,22327000.0,106838000.0,421039000.0,0.0,320721000.0,0.0,5140000.0
2015-01-03,9938000.0,0.0,9938000.0,125896000.0,264256000.0,429365000.0,134920000.0,69722000.0,0.0,2061000.0,211585000.0,640950000.0,128437000.0,5927000.0,236328000.0,33928000.0,39855000.0,0.0,3090000.0,4127000.0,51294000.0,300261000.0,22490000.0,129309000.0,340689000.0,0.0,29917000.0,0.0,12639000.0
2013-12-28,8537000.0,0.0,8537000.0,109917000.0,274286000.0,419729000.0,158073000.0,101664000.0,0.0,12565000.0,286206000.0,705935000.0,129829000.0,6354000.0,287156000.0,42654000.0,49008000.0,0.0,2564000.0,3408000.0,76167000.0,380631000.0,19323000.0,116208000.0,325304000.0,0.0,40471000.0,0.0,17308000.0
2012-12-29,6840000.0,0.0,6840000.0,113314000.0,255738000.0,407492000.0,140579000.0,110299000.0,0.0,12879000.0,299818000.0,707310000.0,128544000.0,6925000.0,279520000.0,51273000.0,58198000.0,0.0,4125000.0,4734000.0,84255000.0,381159000.0,16855000.0,124732000.0,326151000.0,0.0,51358000.0,0.0,17384000.0
2011-12-31,2378000.0,0.0,2378000.0,94177000.0,240852000.0,365308000.0,120734000.0,98011000.0,33845000.0,11751000.0,266195000.0,631503000.0,120228000.0,35198000.0,269630000.0,17066000.0,52264000.0,0.0,1229000.0,843000.0,46925000.0,332371000.0,14134000.0,100508000.0,299132000.0,33845000.0,49886000.0,0.0,15816000.0
2011-01-01,2335000.0,0.0,2335000.0,98777000.0,200278000.0,332707000.0,115200000.0,108374000.0,33345000.0,12759000.0,276593000.0,609300000.0,122743000.0,98157000.0,233926000.0,42485000.0,140642000.0,0.0,21781000.0,2858000.0,70247000.0,304173000.0,2833000.0,95212000.0,291042000.0,33345000.0,138307000.0,31317000.0,13026000.0
2009-12-31,1752000.0,0.0,1752000.0,78483000.0,155882000.0,308157000.0,105220000.0,86660000.0,0.0,21156000.0,243133000.0,551290000.0,87519000.0,115936000.0,225903000.0,34734000.0,150670000.0,0.0,12708000.0,1064000.0,78876000.0,304779000.0,12079000.0,34146000.0,232853000.0,0.0,148918000.0,72040000.0,22448000.0
