,0,1,2,3,4,5,6,7,8,9,10,11,12,13,14
Date,Depreciation & Amortization,Stock-based compensation,Operating Cash Flow,Capital Expenditure,Acquisitions and disposals,Investment purchases and sales,Investing Cash flow,Issuance (repayment) of debt,Issuance (buybacks) of shares,Dividend payments,Financing Cash Flow,Effect of forex changes on cash,Net cash flow / Change in cash,Free Cash Flow,Net Cash/Marketcap
2019-12-31,114006000.0,19473000.0,438069000.0,23705000.0,-0.0,1240925000.0,1032750000.0,-8294000.0,-382883000.0,-58110000.0,-1579778000.0,0.0,-108959000.0,414364000.0,0.0
2018-12-31,127037000.0,12984000.0,394775000.0,24015000.0,-0.0,-501509000.0,-1062559000.0,-87631000.0,-159903000.0,-8775000.0,625988000.0,0.0,-41796000.0,370760000.0,0.0
2017-12-31,46725000.0,8110000.0,242605000.0,8259000.0,-0.0,276872000.0,-1409294000.0,1129759000.0,-479906000.0,-44035000.0,1352949000.0,0.0,186260000.0,234346000.0,0.0
2016-12-31,23913000.0,6517000.0,198899000.0,4155000.0,-0.0,286371000.0,-2210144000.0,-23869000.0,-202651000.0,-36451000.0,2075378000.0,0.0,64133000.0,194744000.0,0.0
2015-12-31,22271000.0,4360000.0,91756000.0,8047000.0,854318000.0,135978000.0,-636759000.0,-14161000.0,-144454000.0,-30384000.0,652996000.0,0.0,107993000.0,83709000.0,0.0
2014-12-31,0.0,0.0,0.0,0.0,-0.0,0.0,121520000.0,-0.0,-121520000.0,-0.0,0.0,0.0,121520000.0,0.0,0.0
2014-09-30,16771000.0,3409000.0,127664000.0,2584000.0,-0.0,163199000.0,-1639000.0,147506000.0,-177619000.0,-17677000.0,-61496000.0,0.0,64529000.0,125080000.0,0.0
2013-09-30,7092000.0,695000.0,22624000.0,2355000.0,-0.0,168771000.0,-436843000.0,-217000.0,0.0,-10642000.0,89327000.0,0.0,-324892000.0,20269000.0,0.0
2012-09-30,7383000.0,521000.0,25026000.0,1853000.0,-126818000.0,174497000.0,93107000.0,-5244000.0,46000000.0,-9100000.0,38337000.0,0.0,156470000.0,23173000.0,0.0
2011-09-30,5425000.0,558000.0,26478000.0,3465000.0,-0.0,247964000.0,62629000.0,-1238000.0,-3810000.0,-8973000.0,101533000.0,0.0,190640000.0,23013000.0,0.0
2010-09-30,6993000.0,1572000.0,21861000.0,-8104000.0,0.0,-517303000.0,-63775000.0,394980000.0,-12054000.0,-9216000.0,-27622000.0,0.0,-69536000.0,13757000.0,-0.2676
2009-09-30,6860000.0,2946000.0,20687000.0,-8134000.0,0.0,23836000.0,15702000.0,-83446000.0,-3312000.0,-9379000.0,-1791000.0,0.0,34598000.0,12553000.0,-0.2676
