,0,1,2,3,4,5,6,7,8,9,10,11,12,13,14
Date,Depreciation & Amortization,Stock-based compensation,Operating Cash Flow,Capital Expenditure,Acquisitions and disposals,Investment purchases and sales,Investing Cash flow,Issuance (repayment) of debt,Issuance (buybacks) of shares,Dividend payments,Financing Cash Flow,Effect of forex changes on cash,Net cash flow / Change in cash,Free Cash Flow,Net Cash/Marketcap
2017-11-30,,0.0,-204743.0,0.0,0.0,0.0,0.0,0.0,0.0,0.0,604300.0,0.0,-373683.0,-204743.0,
2016-11-30,,0.0,-72158.0,0.0,0.0,0.0,0.0,0.0,67020417.0,0.0,71005661.0,0.0,490888.0,-72158.0,
