,0,1,2,3,4,5,6,7,8,9,10,11,12,13,14,15,16,17,18,19,20,21,22,23,24,25,26,27,28,29,30
Date,Revenue,Revenue Growth,Cost of Revenue,Gross Profit,R&D Expenses,SG&A Expense,Operating Expenses,Operating Income,Interest Expense,Earnings before Tax,Income Tax Expense,Net Income - Non-Controlling int,Net Income - Discontinued ops,Net Income,Preferred Dividends,Net Income Com,EPS,EPS Diluted,Weighted Average Shs Out,Weighted Average Shs Out (Dil),Dividend per Share,Gross Margin,EBITDA Margin,EBIT Margin,Profit Margin,Free Cash Flow margin,EBITDA,EBIT,Consolidated Income,Earnings Before Tax Margin,Net Profit Margin
2019-12-31,571850000.0,-0.0256930127954,155216000.0,416634000.0,78041000.0,245030000.0,323071000.0,93563000.0,2513000.0,90749000.0,31520000.0,0.0,0.0,59229000.0,0.0,59229000.0,3.43,3.33,17260000.0,17795000.0,0.0,0.728572178019,0.212999912564,0.163614584244,0.10357436390699999,0.23589577686500002,121804000.0,93563000.0,59229000.0,0.158693713386,0.10357436390699999
2018-12-31,586930000.0,0.252226861443,126909000.0,460021000.0,56591000.0,209031000.0,265622000.0,194399000.0,2595000.0,190914000.0,22272000.0,0.0,0.0,168642000.0,0.0,168642000.0,9.39,8.99,17952000.0,18762000.0,0.0,0.783774896495,0.37289455301299995,0.331213262229,0.287328983013,0.46544392005900004,218863000.0,194399000.0,168642000.0,0.325275586527,0.287328983013
2017-12-31,468709000.0,0.28658404359,79226000.0,389483000.0,46208000.0,179772000.0,225980000.0,163503000.0,3669000.0,160248000.0,9645000.0,0.0,0.0,150603000.0,0.0,150603000.0,8.81,8.19,17099000.0,18387000.0,0.0,0.830969748821,0.395381782727,0.348836911602,0.321314504309,0.40752364473499997,185319000.0,163503000.0,150603000.0,0.34189230418000005,0.321314504309
2016-12-31,364305000.0,0.7027019447830001,62972000.0,301333000.0,35158000.0,145955000.0,181113000.0,120220000.0,3552000.0,116974000.0,41745000.0,0.0,0.0,75229000.0,0.0,75229000.0,4.36,4.12,17245000.0,18251000.0,0.0,0.82714483743,0.383590672651,0.32999821578099997,0.206500048037,0.385108631504,139744000.0,120220000.0,75229000.0,0.321088099257,0.206500048037
2015-12-31,213957000.0,0.452831213629,43935000.0,170022000.0,20711000.0,98543000.0,175342000.0,-5320000.0,397000.0,-5571000.0,-1373000.0,0.0,0.0,-4198000.0,0.0,-4198000.0,-0.26,-0.26,16436000.0,16436000.0,0.0,0.7946550007709999,0.011277967068100001,-0.0248648092841,-0.0196207649201,0.204830877232,2413000.0,-5320000.0,-4198000.0,-0.0260379422033,-0.0196207649201
2014-12-31,147269000.0,0.152168300487,32906000.0,114363000.0,13309000.0,68806000.0,90553000.0,23810000.0,0.0,24185000.0,-12697000.0,0.0,0.0,36882000.0,0.0,36882000.0,2.3,2.25,16011000.0,16417000.0,0.0,0.7765585425309999,0.194494428563,0.16167693133,0.250439671621,0.331821360911,28643000.0,23810000.0,36882000.0,0.164223292071,0.250439671621
2013-12-31,127819000.0,0.10511754178200002,27500000.0,100319000.0,10958000.0,55243000.0,66201000.0,34118000.0,0.0,34598000.0,-9555000.0,0.0,0.0,44153000.0,0.0,44153000.0,2.81,2.71,15691000.0,16298000.0,0.0,0.784852017306,0.286780525587,0.266924322675,0.345433777451,0.23841525907699998,36656000.0,34118000.0,44153000.0,0.270679632918,0.345433777451
2012-12-31,115661000.0,0.138563764335,27756000.0,87905000.0,10243000.0,53505000.0,63748000.0,24157000.0,0.0,24698000.0,-13859000.0,0.0,0.0,38557000.0,0.0,38557000.0,2.4,2.3,16079000.0,16793000.0,0.0,0.760022825326,0.223117559073,0.208860376445,0.333362153189,0.235948158844,25806000.0,24157000.0,38557000.0,0.21353783903,0.333362153189
2011-12-31,101585000.0,0.187517534836,26212000.0,75373000.0,9395000.0,48750000.0,58145000.0,17228000.0,0.0,17790000.0,-8475000.0,0.0,0.0,26265000.0,0.0,26265000.0,1.78,1.73,14767000.0,15168000.0,0.0,0.741969779003,0.17830388344700002,0.169591967318,0.25855195156800004,0.13760889895199999,18113000.0,17228000.0,26265000.0,0.175124280159,0.25855195156800004
2010-12-31,85544000.0,0.0416443427013,23684000.0,61860000.0,9420000.0,45764000.0,61029000.0,831000.0,0.0,1587000.0,-3945000.0,0.0,0.0,5532000.0,0.0,5532000.0,0.38,0.38,14345706.0,14529000.0,2.0,0.7231,0.028999999999999998,0.0186,0.065,0.0385,2481000.0,1587000.0,5532000.0,0.0186,0.0647
2009-12-31,82124000.0,-0.0328,22914000.0,59210000.0,8699000.0,44696000.0,53395000.0,5815000.0,0.0,6731000.0,554000.0,0.0,0.0,6177000.0,0.0,6177000.0,0.38,0.38,15781000.0,16238000.0,0.0,0.721,0.09699999999999999,0.08199999999999999,0.075,0.1191,7947000.0,6731000.0,6177000.0,0.08199999999999999,0.0752
