,0,1,2,3,4,5,6,7,8,9,10,11,12,13,14,15,16,17,18,19,20,21,22,23,24,25,26,27,28,29,30
Date,Revenue,Revenue Growth,Cost of Revenue,Gross Profit,R&D Expenses,SG&A Expense,Operating Expenses,Operating Income,Interest Expense,Earnings before Tax,Income Tax Expense,Net Income - Non-Controlling int,Net Income - Discontinued ops,Net Income,Preferred Dividends,Net Income Com,EPS,EPS Diluted,Weighted Average Shs Out,Weighted Average Shs Out (Dil),Dividend per Share,Gross Margin,EBITDA Margin,EBIT Margin,Profit Margin,Free Cash Flow margin,EBITDA,EBIT,Consolidated Income,Earnings Before Tax Margin,Net Profit Margin
2019-01-31,22365000.0,-0.08106947653010001,942000.0,21423000.0,4261000.0,10554000.0,14815000.0,-5302000.0,384000.0,-5865000.0,0.0,0.0,0.0,-5865000.0,0.0,-5865000.0,-0.3,-0.3,19540980.0,19540980.0,0.0,0.957880617036,-0.123183545719,-0.237066845518,-0.262240107311,0.0615247037782,-2755000.0,-5302000.0,-5865000.0,-0.262240107311,-0.262240107311
2018-01-31,24338075.0,-0.100585349431,1946347.0,22391728.0,5352189.0,11434276.0,16786465.0,-2621652.0,474657.0,-3183044.0,-83830.0,0.0,0.0,-3099214.0,0.0,-3099214.0,-0.16,-0.16,19876383.0,19876383.0,0.0,0.920028720431,0.05863984723519999,-0.107718133008,-0.12734014502,0.0814607975364,1427181.0,-2621652.0,-3099214.0,-0.130784542327,-0.12734014502
2017-01-31,27059905.0,-0.0443078585506,2712663.0,24347242.0,7454000.0,13088074.0,20542074.0,-4770815.0,508859.0,-5173590.0,-12024.0,0.0,0.0,-5161566.0,875935.0,-5161566.0,-0.31,-0.31,19528341.0,19528341.0,0.0,0.899753417464,0.0164510924927,-0.17630568178300002,-0.19074590247099998,0.0185611146824,445165.0,-4770815.0,-5161566.0,-0.191190249929,-0.19074590247099998
2016-01-31,28314458.0,0.024942655143499998,2778041.0,25536417.0,9093000.0,13442799.0,22535799.0,-5622309.0,884226.0,-4282112.0,8003.0,0.0,0.0,-4290115.0,1336072.0,-4290115.0,-0.3,-0.3,18689854.0,18689854.0,0.0,0.901886131813,0.0014537449383599998,-0.19856671810600002,-0.151516762214,0.18938455399700002,41162.0,-5622309.0,-4290115.0,-0.151234115094,-0.151516762214
2015-01-31,27625407.0,-0.0305072841082,3536495.0,14621000.0,9756206.0,16225574.0,25981780.0,-13312097.0,748969.0,-12898466.0,-887009.0,0.0,0.0,-12011457.0,1038310.0,-12011457.0,-0.71,-0.71,18261800.0,18261800.0,0.0,0.529259170734,-0.526360969089,-0.481878764718,-0.434797467418,-0.185947812461,-14540936.0,-13312097.0,-12011457.0,-0.46690591743999993,-0.434797467418
2014-01-31,28494703.0,0.19892873265299998,3142525.0,15317000.0,7088077.0,14546335.0,21634412.0,-6318031.0,1765813.0,0.0,-100458.0,0.0,0.0,-11717190.0,1180904.0,-11717190.0,-0.94,-0.94,13747700.0,13747700.0,0.0,0.537538503209,-0.261312778028,-0.221726508257,-0.411205900269,0.0021207450381199996,-7446030.0,-6318031.0,-11717190.0,0.0,-0.411205900269
2013-01-31,23766803.0,1.0,2747230.0,12174000.0,2948313.0,10060469.0,18978784.0,-834931.0,1957010.0,-8267266.0,-2888537.0,0.0,0.0,-5378729.0,176048.0,-5378729.0,-0.48,-0.48,11634540.0,11634540.0,0.0,0.5122270757240001,-0.087212907853,-0.035130135088,-0.226312684967,-0.029110688551599997,-2072772.0,-834931.0,-5378729.0,-0.347849308971,-0.226312684967
2012-01-31,0.0,-1.0,0.0,0.0,0.0,0.0,0.0,0.0,0.0,0.0,0.0,0.0,0.0,0.0,0.0,0.0,0.0,0.0,0.0,0.0,0.0,0.0,0.0,0.0,0.0,0.0,0.0,0.0,0.0,0.0,0.0
2011-01-31,17605991.0,-0.0330733991359,11291412.0,6314579.0,1759694.0,6406190.0,8165884.0,-1851305.0,116392.0,-1933617.0,1017000.0,0.0,0.0,-2950617.0,0.0,-2950617.0,-0.31,-0.31,9796517.0,9504986.0,0.0,0.3587,0.083,-0.1032,-0.168,0.0092,1453677.0,-1817225.0,-2950617.0,-0.1098,-0.1676
2010-01-31,18208198.0,0.1181,9668163.0,8540035.0,1682773.0,5503580.0,7186353.0,1353682.0,43823.0,1328608.0,40500.0,0.0,0.0,1288108.0,0.0,1288108.0,0.14,0.14,9426744.0,9381285.0,0.0,0.469,0.233,0.0754,0.071,-0.1226,4241428.0,1372431.0,1288108.0,0.073,0.0707
