,0,1,2,3,4,5,6,7,8,9,10,11,12,13,14,15,16,17,18,19,20,21,22,23,24,25,26,27,28,29,30
Date,Revenue,Revenue Growth,Cost of Revenue,Gross Profit,R&D Expenses,SG&A Expense,Operating Expenses,Operating Income,Interest Expense,Earnings before Tax,Income Tax Expense,Net Income - Non-Controlling int,Net Income - Discontinued ops,Net Income,Preferred Dividends,Net Income Com,EPS,EPS Diluted,Weighted Average Shs Out,Weighted Average Shs Out (Dil),Dividend per Share,Gross Margin,EBITDA Margin,EBIT Margin,Profit Margin,Free Cash Flow margin,EBITDA,EBIT,Consolidated Income,Earnings Before Tax Margin,Net Profit Margin
2019-12-31,42736000.0,0.112366277102,0.0,0.0,65612000.0,32592000.0,98204000.0,-55468000.0,0.0,0.0,0.0,0.0,0.0,-55744000.0,0.0,-55744000.0,-2.43,-2.43,22958577.0,22958577.0,0.0,0.0,-1.1520497940799999,-1.29792212654,-1.30438038188,-1.52150411831,-49234000.0,-55468000.0,-55744000.0,0.0,-1.30438038188
2018-12-31,38419000.0,-0.257474729905,0.0,0.0,54262000.0,21380000.0,75642000.0,-37223000.0,1623000.0,0.0,0.0,0.0,0.0,-35317000.0,0.0,-35317000.0,-6.13,-6.13,5758875.0,5758875.0,0.0,0.0,-0.8370077305500001,-0.968869569744,-0.919258700122,0.28959629350099997,-32157000.0,-37223000.0,-35317000.0,0.0,-0.919258700122
2017-12-31,51741000.0,-0.133766385964,0.0,51741000.0,54639000.0,16374000.0,71013000.0,-19272000.0,612000.0,-19688000.0,0.0,0.0,0.0,-19688000.0,0.0,-19688000.0,-43.95,-43.95,22156630.0,447946.0,0.0,1.0,-0.272,-0.3687,-0.381,-0.7806,-14086000.0,-19076000.0,-19688000.0,-0.3805,-0.3805
2016-12-31,59731000.0,,0.0,59731000.0,43550000.0,14817000.0,58367000.0,1364000.0,0.0,1702000.0,0.0,0.0,0.0,1702000.0,0.0,1702000.0,0.0,0.0,22157000.0,407735.0,0.0,1.0,0.12300000000000001,0.0285,0.027999999999999997,-0.2935,7364000.0,1702000.0,1702000.0,0.0285,0.0285
