,0,1,2,3,4,5,6,7,8,9,10,11,12,13,14,15,16,17,18,19,20,21,22,23,24,25,26,27,28,29,30
Date,Revenue,Revenue Growth,Cost of Revenue,Gross Profit,R&D Expenses,SG&A Expense,Operating Expenses,Operating Income,Interest Expense,Earnings before Tax,Income Tax Expense,Net Income - Non-Controlling int,Net Income - Discontinued ops,Net Income,Preferred Dividends,Net Income Com,EPS,EPS Diluted,Weighted Average Shs Out,Weighted Average Shs Out (Dil),Dividend per Share,Gross Margin,EBITDA Margin,EBIT Margin,Profit Margin,Free Cash Flow margin,EBITDA,EBIT,Consolidated Income,Earnings Before Tax Margin,Net Profit Margin
2019-12-31,0.0,0.0,0.0,0.0,24196000.0,4685000.0,28881000.0,-28881000.0,482000.0,0.0,1000.0,0.0,0.0,-28175000.0,0.0,-28175000.0,-4.8,-4.8,5879820.0,5879820.0,0.0,0.0,0.0,0.0,0.0,0.0,-28481000.0,-28881000.0,-28175000.0,0.0,0.0
2018-12-31,0.0,0.0,0.0,0.0,6433000.0,1082000.0,7515000.0,-7515000.0,90000.0,-7346000.0,0.0,0.0,0.0,-7346000.0,0.0,-7346000.0,-7.15,-7.15,16105256.0,1026905.0,0.0,0.0,,0.0,,0.0,-7199000.0,-7256000.0,-7346000.0,0.0,0.0
2017-12-31,0.0,,0.0,0.0,4193000.0,754000.0,4947000.0,-4947000.0,15000.0,-5172000.0,0.0,0.0,0.0,-5172000.0,0.0,-5172000.0,-9.26,-9.26,,558597.0,0.0,0.0,,0.0,,0.0,-5147000.0,-5157000.0,-5172000.0,0.0,0.0
