,0,1,2,3,4,5,6,7,8,9,10,11,12,13,14,15,16,17,18,19,20,21,22,23,24,25,26,27,28
Date,Cash and cash equivalents,Short-term investments,Cash and short-term investments,Receivables,Inventories,Total current assets,Property Plant & Equipment Net,Goodwill and Intangible Assets,Long-term investments,Tax assets,Total non-current assets,Total assets,Payables,Short-term debt,Total current liabilities,Long-term debt,Total debt,Deferred revenue,Tax Liabilities,Deposit Liabilities,Total non-current liabilities,Total liabilities,Other comprehensive income,Retained earnings (deficit),Total shareholders equity,Investments,Net Debt,Other Assets,Other Liabilities
2018-12-31,3597000000.0,45148000000.0,48745000000.0,3203000000.0,0.0,51948000000.0,2214000000.0,9815000000.0,73040000000.0,113000000.0,192678000000.0,244626000000.0,0.0,102000000.0,210000000.0,11093000000.0,11195000000.0,0.0,108000000.0,180360000000.0,12054000000.0,219836000000.0,5036000000.0,20606000000.0,24790000000.0,118188000000.0,7598000000.0,0.0,207572000000.0
2017-12-31,2107000000.0,57121000000.0,59228000000.0,3099000000.0,0.0,62327000000.0,2186000000.0,7635000000.0,67227000000.0,679000000.0,176098000000.0,238425000000.0,0.0,0.0,94000000.0,11620000000.0,11620000000.0,0.0,94000000.0,184896000000.0,12723000000.0,216108000000.0,3966000000.0,18856000000.0,22317000000.0,124348000000.0,9513000000.0,0.0,203291000000.0
2016-12-31,1314000000.0,61998000000.0,63312000000.0,2644000000.0,0.0,65956000000.0,2062000000.0,7564000000.0,70935000000.0,1446000000.0,176742000000.0,242698000000.0,0.0,0.0,71000000.0,11430000000.0,11430000000.0,0.0,71000000.0,187163000000.0,12913000000.0,221479000000.0,5296000000.0,17459000000.0,21219000000.0,132933000000.0,10116000000.0,0.0,208495000000.0
2015-12-31,1207000000.0,70070000000.0,71277000000.0,2346000000.0,0.0,73623000000.0,1894000000.0,7439000000.0,75338000000.0,910000000.0,171569000000.0,245192000000.0,0.0,0.0,63000000.0,11534000000.0,11534000000.0,0.0,63000000.0,191627000000.0,13058000000.0,224089000000.0,5992000000.0,16049000000.0,21103000000.0,145408000000.0,10327000000.0,0.0,210968000000.0
2014-12-31,1855000000.0,94913000000.0,96768000000.0,2242000000.0,0.0,99010000000.0,1937000000.0,7851000000.0,93523000000.0,600000000.0,175109000000.0,274119000000.0,0.0,2485000000.0,2648000000.0,10042000000.0,12527000000.0,0.0,163000000.0,209040000000.0,11629000000.0,252646000000.0,6594000000.0,14882000000.0,21473000000.0,188436000000.0,10672000000.0,0.0,238369000000.0
2013-12-31,3220000000.0,99174000000.0,102394000000.0,950000000.0,0.0,103344000000.0,1860000000.0,8396000000.0,64257000000.0,895000000.0,139947000000.0,243291000000.0,0.0,1819000000.0,1977000000.0,9699000000.0,11518000000.0,0.0,158000000.0,182268000000.0,11315000000.0,222913000000.0,6574000000.0,13395000000.0,20378000000.0,163431000000.0,8298000000.0,0.0,209621000000.0
2012-12-31,10000000.0,109682000000.0,109692000000.0,511000000.0,0.0,110203000000.0,1728000000.0,8516000000.0,50763000000.0,764000000.0,112379000000.0,222582000000.0,0.0,2318000000.0,2413000000.0,7429000000.0,9747000000.0,0.0,95000000.0,164181000000.0,9153000000.0,201713000000.0,8254000000.0,11751000000.0,20869000000.0,160445000000.0,9737000000.0,0.0,190147000000.0
2011-12-31,6000000.0,99832000000.0,99838000000.0,1822000000.0,0.0,101660000000.0,1747000000.0,8104000000.0,58886000000.0,1249000000.0,115167000000.0,216827000000.0,0.0,2384000000.0,2509000000.0,8131000000.0,10515000000.0,0.0,125000000.0,157287000000.0,9616000000.0,197429000000.0,9377000000.0,10176000000.0,19398000000.0,158718000000.0,10509000000.0,0.0,185304000000.0
2010-12-31,9000000.0,81881000000.0,81890000000.0,1733000000.0,0.0,83623000000.0,1843000000.0,8190000000.0,22234000000.0,1786000000.0,76882000000.0,160505000000.0,0.0,1919000000.0,2338000000.0,8550000000.0,10469000000.0,0.0,419000000.0,98345000000.0,10164000000.0,142718000000.0,9340000000.0,8634000000.0,17787000000.0,104115000000.0,10460000000.0,0.0,130216000000.0
2009-12-31,29273000000.0,,,1497000000.0,0.0,,1953000000.0,6360000000.0,,0.0,,157946000000.0,0.0,,,,44112000000.0,0.0,0.0,90062000000.0,,143455000000.0,-2238000000.0,7071000000.0,14491000000.0,106840000000.0,,,
