,0,1,2,3,4,5,6,7,8,9,10,11,12,13,14
Date,Depreciation & Amortization,Stock-based compensation,Operating Cash Flow,Capital Expenditure,Acquisitions and disposals,Investment purchases and sales,Investing Cash flow,Issuance (repayment) of debt,Issuance (buybacks) of shares,Dividend payments,Financing Cash Flow,Effect of forex changes on cash,Net cash flow / Change in cash,Free Cash Flow,Net Cash/Marketcap
2018-12-31,2778000.0,672000.0,14095000.0,6617000.0,-0.0,6975000.0,-64685000.0,-14331000.0,-89015000.0,-0.0,81656000.0,0.0,31066000.0,7478000.0,0.0
2017-12-31,2465000.0,1520000.0,13852000.0,-13662000.0,0.0,-136743000.0,-149931000.0,20395000.0,471000.0,0.0,41796000.0,0.0,-94283000.0,190000.0,-0.0634
2016-12-31,2459000.0,1069000.0,7147000.0,-7230000.0,31889000.0,-67308000.0,-41086000.0,-20834000.0,59000.0,0.0,95576000.0,0.0,61637000.0,-83000.0,-0.0634
2015-12-31,,,6154000.0,-5457000.0,,,-111532000.0,355000.0,91000.0,0.0,128382000.0,,23004000.0,,
