,0,1,2,3,4,5,6,7,8,9,10,11,12,13,14,15,16,17,18,19,20,21,22,23,24,25,26,27,28,29,30
Date,Revenue,Revenue Growth,Cost of Revenue,Gross Profit,R&D Expenses,SG&A Expense,Operating Expenses,Operating Income,Interest Expense,Earnings before Tax,Income Tax Expense,Net Income - Non-Controlling int,Net Income - Discontinued ops,Net Income,Preferred Dividends,Net Income Com,EPS,EPS Diluted,Weighted Average Shs Out,Weighted Average Shs Out (Dil),Dividend per Share,Gross Margin,EBITDA Margin,EBIT Margin,Profit Margin,Free Cash Flow margin,EBITDA,EBIT,Consolidated Income,Earnings Before Tax Margin,Net Profit Margin
2018-12-31,29346617.0,-0.05771504073,5717179.0,23629438.0,8219387.0,17867090.0,26086477.0,-2457039.0,16566.0,0.0,-475725.0,0.0,0.0,116756.0,1434000.0,116756.0,-0.03,-0.03,52082618.0,52082618.0,0.0,0.805184393145,-0.0631542981598,-0.0837247782257,0.00397851650158,-0.095822424779,-1853365.0,-2457039.0,116756.0,0.0,0.00397851650158
2017-12-31,31144100.0,-0.0317128566506,10754239.0,20389861.0,4760806.0,21548652.0,26309458.0,-5919597.0,179844.0,0.0,13044336.0,0.0,0.0,-5887410.0,1432259.0,-5887410.0,-0.32,-0.32,22614248.0,22614248.0,0.0,0.6546941796360001,-0.162660568133,-0.190071217341,-0.189037731063,-0.152714125629,-5065917.0,-5919597.0,-5887410.0,0.0,-0.189037731063
2016-12-31,32164116.0,-0.146263506873,7529333.0,24634783.0,5487609.0,25573531.0,31061140.0,-6426357.0,2483752.0,0.0,-1086822.0,0.0,0.0,-5286720.0,368152.0,-5286720.0,-0.54,-0.54,21807634.0,21807634.0,0.0,0.765908909171,-0.176320312985,-0.199798962297,-0.164367023176,-0.20403961980500002,-5671187.0,-6426357.0,-5286720.0,0.0,-0.164367023176
2015-12-31,37674524.0,0.0760682929694,10438158.0,27236366.0,6252791.0,26394103.0,32646894.0,-5410528.0,3284168.0,0.0,-2360189.0,0.0,0.0,-7352775.0,0.0,-7352775.0,-0.35,-0.35,21113203.0,21113203.0,0.0,0.7229385565690001,-0.121241399095,-0.143612378487,-0.19516570401799999,-0.0671143449616,-4567712.0,-5410528.0,-7352775.0,0.0,-0.19516570401799999
2014-12-31,35011276.0,-0.07940360675,8223380.0,26787896.0,5158331.0,27014229.0,32172560.0,-5384664.0,3335300.0,0.0,-2477006.0,0.0,0.0,-5202441.0,0.0,-5202441.0,-0.26,-0.26,19945038.0,19945038.0,0.0,0.7651219567090001,-0.126543716944,-0.153797993538,-0.148593298913,-0.259691848992,-4430457.0,-5384664.0,-5202441.0,0.0,-0.148593298913
2013-12-31,38031081.0,-0.183223948301,11001301.0,27029780.0,5672058.0,30198196.0,35870254.0,-8840474.0,12573537.0,0.0,-99206958.0,0.0,0.0,-68757589.0,0.0,-68757589.0,-5.95,-5.95,11554566.0,11554566.0,0.0,0.71072868005,0.0021516874579499998,-0.23245392367400003,-1.8079314916099998,-0.166486038091,81831.0,-8840474.0,-68757589.0,0.0,-1.8079314916099998
2012-12-31,46562434.0,0.108961224397,14781055.0,31781379.0,8405086.0,34002555.0,42407641.0,-10626262.0,6885033.0,0.0,5080452.0,0.0,0.0,-9238427.0,0.0,-9238427.0,-1.33,-1.33,6944928.0,6944928.0,0.0,0.682554073526,-0.12991421367699998,-0.228215346303,-0.198409451705,-0.260245372912,-6049122.0,-10626262.0,-9238427.0,0.0,-0.198409451705
2011-12-31,41987432.0,-0.22319202426399998,12498081.0,29489351.0,12886488.0,48544071.0,61430559.0,-31941208.0,3515402.0,0.0,0.0,0.0,0.0,-32031175.0,0.0,-32031175.0,-0.58,-0.58,0.0,0.0,0.0,0.7023375709190001,-0.687052925742,-0.760732592553,-0.762875305163,-0.7518744656730001,-28847588.0,-31941208.0,-32031175.0,0.0,-0.762875305163
2010-12-31,54051237.0,0.0567293693953,15564687.0,38486550.0,12244163.0,45201507.0,57445670.0,-18959120.0,3035291.0,-19923487.0,0.0,0.0,0.0,-19923487.0,0.0,-19923487.0,-3.94,-3.94,5041924.0,5052200.0,0.0,0.7120000000000001,-0.27699999999999997,-0.3124,-0.369,-0.3631,-14960043.0,-16888196.0,-19923487.0,-0.3686,-0.3686
2009-12-31,51149555.0,0.2672,17021633.0,34127922.0,14260854.0,43705030.0,57965884.0,-23837962.0,4613240.0,-27494457.0,0.0,0.0,0.0,-27494457.0,0.0,-27494457.0,-6.3,-6.3,5025845.0,4334432.0,0.0,0.6672,-0.405,-0.4473,-0.5379999999999999,-0.4652,-20697377.0,-22881217.0,-27494457.0,-0.5375,-0.5375
