,0,1,2,3,4,5,6,7,8,9,10,11,12,13,14,15,16,17,18,19,20,21,22,23,24,25,26,27,28
Date,Cash and cash equivalents,Short-term investments,Cash and short-term investments,Receivables,Inventories,Total current assets,Property Plant & Equipment Net,Goodwill and Intangible Assets,Long-term investments,Tax assets,Total non-current assets,Total assets,Payables,Short-term debt,Total current liabilities,Long-term debt,Total debt,Deferred revenue,Tax Liabilities,Deposit Liabilities,Total non-current liabilities,Total liabilities,Other comprehensive income,Retained earnings (deficit),Total shareholders equity,Investments,Net Debt,Other Assets,Other Liabilities
2018-12-29,128508000.0,18602000.0,128508000.0,214518000.0,213851000.0,591540000.0,1780132000.0,1210488000.0,0.0,225397000.0,3266101000.0,3857641000.0,107702000.0,6354000.0,260657000.0,1821805000.0,1828159000.0,11840000.0,7442000.0,0.0,1962893000.0,2529900000.0,1194204000.0,129739000.0,1327741000.0,18602000.0,1699651000.0,0.0,306350000.0
2017-12-30,383556000.0,9512000.0,383556000.0,198330000.0,184439000.0,783601000.0,1615424000.0,1053153000.0,0.0,284092000.0,3003732000.0,3787333000.0,98744000.0,4765000.0,249975000.0,1827690000.0,1832455000.0,15750000.0,7236000.0,0.0,2177111000.0,2528790000.0,1154220000.0,95833000.0,1258543000.0,9512000.0,1448899000.0,0.0,101704000.0
2016-12-31,143392000.0,7450000.0,143392000.0,162377000.0,157679000.0,483698000.0,1446452000.0,800201000.0,0.0,4326000.0,2297768000.0,2781466000.0,81565000.0,6500000.0,239288000.0,1529565000.0,1536065000.0,15456000.0,5491000.0,0.0,1712401000.0,1939422000.0,824304000.0,19028000.0,842044000.0,7450000.0,1392673000.0,0.0,-12267000.0
2016-01-02,186405000.0,224000.0,186629000.0,145544000.0,130082000.0,472528000.0,1269006000.0,611402000.0,681000.0,0.0,1923651000.0,2396179000.0,81397000.0,6500000.0,214504000.0,1273652000.0,1280152000.0,13081000.0,4618000.0,0.0,1395757000.0,1767914000.0,619693000.0,10870000.0,628265000.0,905000.0,1093747000.0,0.0,157653000.0
2015-12-26,186000000.0,0.0,186000000.0,146000000.0,136000000.0,473000000.0,1269000000.0,436917000.0,0.0,0.0,1420404000.0,2396000000.0,81000000.0,5275000.0,215000000.0,1303000000.0,1048960000.0,8958000.0,0.0,0.0,1178945000.0,1628000000.0,0.0,11000000.0,628000000.0,0.0,1035745000.0,16005000.0,128856000.0
2014-12-27,13215000.0,0.0,13215000.0,151476000.0,111553000.0,292249000.0,950601000.0,142185000.0,0.0,0.0,1013160000.0,1712653000.0,78854000.0,30220000.0,212985000.0,1043685000.0,688987000.0,9263000.0,0.0,0.0,760003000.0,1391930000.0,-6045000.0,0.0,285685000.0,0.0,670804000.0,13181000.0,77149000.0
2013-12-28,18183000.0,,18183000.0,110104000.0,96432000.0,237900000.0,831778000.0,,,,,1251060000.0,72104000.0,,179473000.0,658767000.0,,,,,,939476000.0,,-198511000.0,285606000.0,,,,
