,0,1,2,3,4,5,6,7,8,9,10,11,12,13,14
Date,Depreciation & Amortization,Stock-based compensation,Operating Cash Flow,Capital Expenditure,Acquisitions and disposals,Investment purchases and sales,Investing Cash flow,Issuance (repayment) of debt,Issuance (buybacks) of shares,Dividend payments,Financing Cash Flow,Effect of forex changes on cash,Net cash flow / Change in cash,Free Cash Flow,Net Cash/Marketcap
2019-12-31,26694000.0,14846000.0,143129000.0,2736000.0,-0.0,-156537000.0,-157924000.0,-0.0,-177453000.0,-0.0,3928000.0,0.0,-10867000.0,140393000.0,0.0
2018-12-31,20584000.0,11291000.0,128986000.0,1653000.0,-0.0,-411827000.0,-413480000.0,-0.0,-180666000.0,-0.0,376438000.0,0.0,192248000.0,127333000.0,0.0
2017-12-31,8745000.0,8433000.0,114640000.0,13183000.0,-0.0,-73232000.0,-86415000.0,-0.0,-94623000.0,-0.0,5681000.0,0.0,33906000.0,101457000.0,0.0
2016-12-31,2919000.0,5926000.0,66812000.0,20424000.0,-0.0,-15540000.0,-35964000.0,-0.0,-64346000.0,-0.0,2052000.0,0.0,32900000.0,46388000.0,0.0
2015-12-31,1669000.0,4090000.0,34524000.0,13011000.0,-0.0,-26278000.0,-39289000.0,-0.0,-31631000.0,-0.0,1867000.0,0.0,-2898000.0,21513000.0,0.0
2014-12-31,3018000.0,2716000.0,7733000.0,5098000.0,-0.0,211000.0,-4887000.0,-1000.0,-35825000.0,-0.0,570000.0,0.0,3416000.0,2635000.0,0.0
2013-12-31,3775000.0,1913000.0,-57949000.0,2351000.0,-0.0,-9761000.0,-12112000.0,-3627000.0,-30543000.0,-0.0,62739000.0,0.0,-7322000.0,-60300000.0,0.0
2012-12-31,1201000.0,443000.0,-47199000.0,753000.0,-0.0,-48206000.0,-48959000.0,-6044000.0,60433000.0,-0.0,87916000.0,0.0,-8242000.0,-47952000.0,0.0
2011-12-31,879000.0,-82000.0,-36185000.0,-685000.0,25607000.0,8980000.0,33902000.0,30000000.0,29000.0,0.0,27087000.0,0.0,24804000.0,-36870000.0,0.0654
2010-12-31,1188000.0,297000.0,-32544000.0,-294000.0,0.0,26117000.0,25823000.0,0.0,4000.0,0.0,-944000.0,0.0,-7665000.0,-32838000.0,0.0654
2009-12-31,1072000.0,111000.0,2634000.0,-714000.0,0.0,-27671000.0,-28385000.0,0.0,20000.0,0.0,4280000.0,0.0,-21471000.0,1920000.0,0.0654
