,0,1,2,3,4,5,6,7,8,9,10,11,12,13,14,15,16,17,18,19,20,21,22,23,24,25,26,27,28
Date,Cash and cash equivalents,Short-term investments,Cash and short-term investments,Receivables,Inventories,Total current assets,Property Plant & Equipment Net,Goodwill and Intangible Assets,Long-term investments,Tax assets,Total non-current assets,Total assets,Payables,Short-term debt,Total current liabilities,Long-term debt,Total debt,Deferred revenue,Tax Liabilities,Deposit Liabilities,Total non-current liabilities,Total liabilities,Other comprehensive income,Retained earnings (deficit),Total shareholders equity,Investments,Net Debt,Other Assets,Other Liabilities
2019-12-31,181381000.0,165692000.0,347073000.0,87332000.0,26628000.0,472644000.0,17068000.0,24840000.0,591773000.0,32063000.0,687638000.0,1160282000.0,10141000.0,2825000.0,160587000.0,30440000.0,33265000.0,0.0,2443000.0,0.0,77140000.0,564854000.0,388410000.0,199548000.0,595428000.0,757465000.0,-148116000.0,0.0,327127000.0
2018-12-31,192248000.0,163770000.0,356018000.0,102922000.0,25659000.0,493487000.0,4095000.0,31368000.0,418798000.0,29683000.0,484324000.0,977811000.0,3195000.0,0.0,161353000.0,329462000.0,329462000.0,0.0,12377000.0,0.0,370543000.0,524788000.0,369637000.0,86492000.0,453023000.0,582568000.0,137214000.0,0.0,0.0
2017-12-31,100304000.0,39736000.0,140040000.0,65586000.0,16304000.0,228451000.0,5124000.0,36019000.0,133638000.0,20843000.0,196013000.0,424464000.0,6844000.0,0.0,123000000.0,0.0,0.0,0.0,15938000.0,0.0,31420000.0,156984000.0,294999000.0,-26823000.0,267480000.0,173374000.0,-100304000.0,0.0,2564000.0
2016-12-31,66398000.0,23723000.0,90121000.0,41527000.0,16801000.0,151404000.0,4344000.0,16490000.0,75410000.0,41729000.0,158164000.0,309568000.0,8055000.0,0.0,80742000.0,4165000.0,4165000.0,0.0,9299000.0,0.0,49896000.0,117813000.0,276127000.0,-84288000.0,191755000.0,99133000.0,-62233000.0,0.0,0.0
2015-12-31,33498000.0,28692000.0,62190000.0,25908000.0,12587000.0,105946000.0,3874000.0,976000.0,55009000.0,-200000.0,82680000.0,188626000.0,4314000.0,0.0,56934000.0,7085000.0,7085000.0,30000.0,9341000.0,0.0,11210000.0,100619000.0,263955000.0,-175509000.0,88007000.0,83701000.0,-26413000.0,0.0,32475000.0
2014-12-31,36396000.0,37940000.0,74336000.0,17270000.0,13441000.0,108892000.0,2448000.0,5434000.0,19816000.0,0.0,28616000.0,137508000.0,1863000.0,0.0,27493000.0,26947000.0,26947000.0,100000.0,8342000.0,0.0,32123000.0,66154000.0,230122000.0,-158657000.0,71354000.0,57756000.0,-9449000.0,0.0,6538000.0
2013-12-31,32980000.0,49211000.0,82191000.0,5054000.0,7152000.0,97161000.0,2554000.0,1158000.0,8756000.0,0.0,13834000.0,110995000.0,18314000.0,0.0,26400000.0,34393000.0,34393000.0,229000.0,9828000.0,0.0,37070000.0,77531000.0,211952000.0,-178528000.0,33464000.0,57967000.0,1413000.0,0.0,14061000.0
2012-12-31,40302000.0,48206000.0,88508000.0,11000.0,1152000.0,91741000.0,1421000.0,683000.0,0.0,0.0,2248000.0,93989000.0,10666000.0,11809000.0,22983000.0,11088000.0,22897000.0,508000.0,688000.0,0.0,12906000.0,36419000.0,143851000.0,-86255000.0,57570000.0,48206000.0,-17405000.0,0.0,530000.0
2011-12-31,48544000.0,245000.0,48789000.0,0.0,0.0,49399000.0,1310000.0,912000.0,0.0,0.0,4331000.0,53730000.0,11763000.0,6775000.0,18770000.0,22711000.0,29486000.0,841000.0,0.0,0.0,25517000.0,44287000.0,1000.0,-39971000.0,9443000.0,245000.0,-19303000.0,610000.0,232000.0
2010-12-31,23740000.0,9225000.0,32965000.0,44000.0,0.0,39814000.0,1249000.0,1142000.0,0.0,0.0,7195000.0,47009000.0,11263000.0,0.0,15207000.0,0.0,0.0,53000.0,0.0,0.0,76122000.0,91329000.0,0.0,-93786000.0,-44320000.0,9225000.0,-32965000.0,6805000.0,3944000.0
