,0,1,2,3,4,5,6,7,8,9,10,11,12,13,14
Date,Depreciation & Amortization,Stock-based compensation,Operating Cash Flow,Capital Expenditure,Acquisitions and disposals,Investment purchases and sales,Investing Cash flow,Issuance (repayment) of debt,Issuance (buybacks) of shares,Dividend payments,Financing Cash Flow,Effect of forex changes on cash,Net cash flow / Change in cash,Free Cash Flow,Net Cash/Marketcap
2019-12-31,2549000.0,5991000.0,-60140000.0,1538000.0,-0.0,18503000.0,16965000.0,-0.0,-46731000.0,-0.0,7415000.0,0.0,-35760000.0,-61678000.0,0.0
2018-12-31,1724000.0,5217000.0,-13222000.0,2019000.0,-0.0,-34565000.0,-36584000.0,-0.0,-82912000.0,-0.0,110376000.0,0.0,60570000.0,-15241000.0,0.0
2017-12-31,964000.0,4709000.0,-12422000.0,-1973000.0,0.0,27891000.0,25918000.0,0.0,-1098000.0,0.0,-1036000.0,0.0,12460000.0,-14395000.0,0.4021
2016-12-31,331000.0,1345000.0,41413000.0,-836000.0,0.0,-68132000.0,-68968000.0,0.0,4000.0,0.0,25942000.0,0.0,-1613000.0,40577000.0,0.4021
