,0,1,2,3,4,5,6,7,8,9,10,11,12,13,14
Date,Depreciation & Amortization,Stock-based compensation,Operating Cash Flow,Capital Expenditure,Acquisitions and disposals,Investment purchases and sales,Investing Cash flow,Issuance (repayment) of debt,Issuance (buybacks) of shares,Dividend payments,Financing Cash Flow,Effect of forex changes on cash,Net cash flow / Change in cash,Free Cash Flow,Net Cash/Marketcap
2018-12-31,2928000.0,218000.0,5717000.0,918000.0,-0.0,-2000000.0,-301000.0,-61500000.0,374000.0,-1511000.0,161071000.0,0.0,166487000.0,4799000.0,0.0
2017-12-31,2638000.0,205000.0,10881000.0,342000.0,-0.0,0.0,-70731000.0,-74950000.0,-21646000.0,-280000.0,14689000.0,0.0,-45161000.0,10539000.0,0.0
2016-12-31,2082000.0,184000.0,7621000.0,903000.0,-0.0,0.0,3376000.0,-18500000.0,-56604000.0,-7630000.0,12526000.0,0.0,23523000.0,6718000.0,0.0
2015-12-31,1962000.0,120000.0,1153000.0,268000.0,-0.0,0.0,29050000.0,-0.0,-43591000.0,-0.0,-19947000.0,0.0,10256000.0,885000.0,0.0
2014-12-31,1866000.0,201000.0,1340000.0,431000.0,-0.0,0.0,-38949000.0,-0.0,-33335000.0,-0.0,-27432000.0,0.0,-65041000.0,909000.0,0.0
2013-12-31,1733000.0,108000.0,13425000.0,578000.0,-0.0,0.0,19704000.0,-0.0,-98376000.0,-0.0,-28145000.0,0.0,4984000.0,12847000.0,0.0
2012-12-31,1887000.0,43000.0,6660000.0,311000.0,-0.0,0.0,53945000.0,-0.0,-93392000.0,-70000.0,-54603000.0,0.0,6002000.0,6349000.0,0.0
2011-12-31,2422000.0,61000.0,13322000.0,139000.0,-0.0,0.0,66582000.0,-0.0,-87390000.0,-0.0,-63469000.0,0.0,16435000.0,13183000.0,0.0
2010-12-31,1238000.0,162000.0,17733000.0,-461000.0,0.0,-11571000.0,8824000.0,-10000000.0,0.0,0.0,-7003000.0,0.0,19554000.0,17272000.0,-0.9113
2009-12-31,1276000.0,128000.0,-3549000.0,-113000.0,0.0,17336000.0,26518000.0,-28000000.0,0.0,-906000.0,-3873000.0,0.0,19096000.0,-3662000.0,-0.9113
