,0,1,2,3,4,5,6,7,8,9,10,11,12,13,14
Date,Depreciation & Amortization,Stock-based compensation,Operating Cash Flow,Capital Expenditure,Acquisitions and disposals,Investment purchases and sales,Investing Cash flow,Issuance (repayment) of debt,Issuance (buybacks) of shares,Dividend payments,Financing Cash Flow,Effect of forex changes on cash,Net cash flow / Change in cash,Free Cash Flow,Net Cash/Marketcap
2019-12-31,45133000.0,60245000.0,54652000.0,2450000.0,-114603000.0,0.0,-128086000.0,-2200000.0,0.0,-0.0,50822000.0,-76000.0,-22688000.0,52202000.0,0.0
2018-12-31,48068000.0,131770000.0,45372000.0,9981000.0,-0.0,-16000.0,-21034000.0,-104050000.0,-16000.0,-0.0,95475000.0,-787000.0,153807000.0,35391000.0,0.0
2017-12-31,42391000.0,34986000.0,45026000.0,-47807000.0,0.0,15453000.0,-32354000.0,-383000.0,9000.0,0.0,-614000.0,0.0,12058000.0,-2781000.0,-0.174
2016-12-31,36698000.0,32957000.0,35842000.0,-46253000.0,0.0,-650000.0,-46903000.0,21910000.0,201000.0,0.0,614000.0,0.0,-10447000.0,-10411000.0,-0.174
