,0,1,2,3,4,5,6,7,8,9,10,11,12,13,14,15,16,17,18,19,20,21,22,23,24,25,26,27,28,29,30
Date,Revenue,Revenue Growth,Cost of Revenue,Gross Profit,R&D Expenses,SG&A Expense,Operating Expenses,Operating Income,Interest Expense,Earnings before Tax,Income Tax Expense,Net Income - Non-Controlling int,Net Income - Discontinued ops,Net Income,Preferred Dividends,Net Income Com,EPS,EPS Diluted,Weighted Average Shs Out,Weighted Average Shs Out (Dil),Dividend per Share,Gross Margin,EBITDA Margin,EBIT Margin,Profit Margin,Free Cash Flow margin,EBITDA,EBIT,Consolidated Income,Earnings Before Tax Margin,Net Profit Margin
2019-12-31,0.0,0.0,0.0,0.0,38781000.0,13081000.0,79025000.0,-79025000.0,0.0,-78173000.0,0.0,0.0,0.0,-78173000.0,0.0,-78173000.0,-1.95,-1.95,40027758.0,40027758.0,0.0,0.0,0.0,0.0,0.0,0.0,-77433000.0,-79025000.0,-78173000.0,0.0,0.0
2018-12-31,0.0,0.0,0.0,0.0,37173000.0,10654000.0,70045000.0,-70045000.0,0.0,-70027000.0,-8511000.0,0.0,0.0,-61516000.0,0.0,-61516000.0,-1.85,-1.85,33300704.0,33300704.0,0.0,0.0,0.0,0.0,0.0,0.0,-69051000.0,-70045000.0,-61516000.0,0.0,0.0
2017-12-31,0.0,-1.0,0.0,0.0,18512000.0,11081000.0,29956000.0,-29956000.0,1161000.0,-33431000.0,-3634000.0,0.0,0.0,-29797000.0,0.0,-29797000.0,-1.76,-1.76,17521119.0,17521119.0,0.0,0.0,0.0,0.0,0.0,0.0,-29192000.0,-29956000.0,-29797000.0,0.0,0.0
2016-12-31,128000.0,1.0,0.0,0.0,20793000.0,9342000.0,36584000.0,-36456000.0,2132000.0,-38509000.0,-2409000.0,0.0,0.0,-36100000.0,0.0,-36100000.0,-0.17,-0.17,208484370.0,208484370.0,0.0,0.0,-276.15625,-284.8125,-282.03125,-291.2109375,-35348000.0,-36456000.0,-36100000.0,-300.8515625,-282.03125
2015-12-31,0.0,0.0,0.0,0.0,28264000.0,10963000.0,39373000.0,-39373000.0,603000.0,0.0,0.0,0.0,0.0,-39842000.0,0.0,-39842000.0,-0.25,-0.25,162219116.0,162219116.0,0.0,0.0,0.0,0.0,0.0,0.0,-39042000.0,-39373000.0,-39842000.0,0.0,0.0
2014-12-31,0.0,0.0,0.0,0.0,19435000.0,9488000.0,29279000.0,-29279000.0,0.0,0.0,0.0,0.0,0.0,-28702000.0,0.0,-28702000.0,-0.23,-0.23,122409183.0,122409183.0,0.0,0.0,0.0,0.0,0.0,0.0,-29194000.0,-29279000.0,-28702000.0,0.0,0.0
2013-12-31,0.0,0.0,0.0,0.0,12902263.0,8517781.0,21539201.0,-21539201.0,0.0,0.0,0.0,0.0,0.0,-21480285.0,0.0,-21480285.0,-0.28,-0.28,76585752.0,76585752.0,0.0,0.0,0.0,0.0,0.0,0.0,-21499684.0,-21539201.0,-21480285.0,0.0,0.0
2012-12-31,0.0,0.0,0.0,0.0,0.0,0.0,0.0,-15559489.0,0.0,0.0,0.0,0.0,0.0,-15559489.0,0.0,-15559489.0,0.0,0.0,0.0,0.0,0.0,0.0,0.0,0.0,0.0,0.0,-15559489.0,-15559489.0,-15559489.0,0.0,0.0
2011-12-31,0.0,0.0,0.0,0.0,0.0,0.0,0.0,0.0,0.0,0.0,0.0,0.0,0.0,0.0,0.0,0.0,0.0,0.0,0.0,0.0,0.0,0.0,0.0,0.0,0.0,0.0,0.0,0.0,0.0,0.0,0.0
2010-12-31,,0.0,,488959.0,,,9028656.0,-8539697.0,1629.0,,,0.0,0.0,,5639796.0,,,,,188294.0,0.0,,,,,,,-8449293.0,,,
2009-12-31,,,,300000.0,,,11585685.0,-11285685.0,0.0,,,0.0,0.0,,4866887.0,,,,,66674.0,0.0,,,,,,,-11325058.0,,,
