,0,1,2,3,4,5,6,7,8,9,10,11,12,13,14
Date,Depreciation & Amortization,Stock-based compensation,Operating Cash Flow,Capital Expenditure,Acquisitions and disposals,Investment purchases and sales,Investing Cash flow,Issuance (repayment) of debt,Issuance (buybacks) of shares,Dividend payments,Financing Cash Flow,Effect of forex changes on cash,Net cash flow / Change in cash,Free Cash Flow,Net Cash/Marketcap
2019-12-31,123425000.0,29524000.0,209413000.0,307712000.0,-0.0,-91046000.0,-309382000.0,-6876000.0,-91046000.0,-9051000.0,43130000.0,0.0,-56839000.0,-98299000.0,0.0
2018-12-31,110769000.0,35733000.0,178330000.0,275549000.0,-0.0,-60644000.0,-278095000.0,-6333000.0,-60644000.0,-2835000.0,-83341000.0,0.0,-183106000.0,-97219000.0,0.0
2017-12-31,90403000.0,84790000.0,145101000.0,402593000.0,-0.0,0.0,-402451000.0,-8968000.0,-264666000.0,-503000.0,499303000.0,0.0,241953000.0,-257492000.0,0.0
2016-12-31,66591000.0,5935000.0,166065000.0,-287097000.0,0.0,-4904000.0,-292001000.0,177995000.0,0.0,0.0,134457000.0,0.0,8521000.0,-121032000.0,-0.1633
2015-12-31,55355000.0,5237000.0,129281000.0,-189319000.0,0.0,-7025000.0,-196344000.0,95527000.0,-1317000.0,-20519000.0,67693000.0,0.0,630000.0,-60038000.0,-0.1633
