,0,1,2,3,4,5,6,7,8,9,10,11,12,13,14,15,16,17,18,19,20,21,22,23,24,25,26,27,28,29,30
Date,Revenue,Revenue Growth,Cost of Revenue,Gross Profit,R&D Expenses,SG&A Expense,Operating Expenses,Operating Income,Interest Expense,Earnings before Tax,Income Tax Expense,Net Income - Non-Controlling int,Net Income - Discontinued ops,Net Income,Preferred Dividends,Net Income Com,EPS,EPS Diluted,Weighted Average Shs Out,Weighted Average Shs Out (Dil),Dividend per Share,Gross Margin,EBITDA Margin,EBIT Margin,Profit Margin,Free Cash Flow margin,EBITDA,EBIT,Consolidated Income,Earnings Before Tax Margin,Net Profit Margin
2018-12-31,833089000.0,0.144326300073,246735000.0,586354000.0,96272000.0,308109000.0,471169000.0,115185000.0,142008000.0,344991000.0,-19644000.0,-466701000.0,0.0,364635000.0,0.0,364635000.0,2.6,2.56,309943622.0,140301000.0,0.0,0.7038,0.895,0.5846,0.43799999999999994,0.2859,745361000.0,486999000.0,-102066000.0,0.4141,0.4377
2017-12-31,728017000.0,0.724774576279,231731000.0,496286000.0,86618000.0,272934000.0,426632000.0,69654000.0,169786000.0,-329475000.0,22398000.0,268007000.0,0.0,-351873000.0,0.0,-351873000.0,-3.5,-3.5,305000000.0,100433000.0,0.0,0.6817,0.125,-0.2193,-0.483,0.3092,91187000.0,-159689000.0,-83866000.0,-0.4526,-0.4833
2016-12-31,422094000.0,-0.0154415297844,193755000.0,228339000.0,65806000.0,236366000.0,360725000.0,-132386000.0,169900000.0,-577149000.0,-96651000.0,217904000.0,0.0,-480498000.0,0.0,-480498000.0,-4.98,-4.98,305000000.0,96465000.0,0.0,0.541,-0.455,-0.9648,-1.138,0.1285,-191924000.0,-407249000.0,-262594000.0,-1.3673,-1.1384
2014-12-31,428714000.0,0.278274222163,44366000.0,384348000.0,56479000.0,225592000.0,282071000.0,102277000.0,684000.0,66871000.0,24483000.0,0.0,0.0,78113000.0,0.0,78113000.0,1.03,1.02,75476000.0,76462000.0,0.0,0.896513759756,0.324071525539,0.238566970055,0.182203053784,0.42122253996799996,138934000.0,102277000.0,78113000.0,0.155980443839,0.182203053784
2013-12-31,335385000.0,0.246951264853,27916000.0,307469000.0,37514000.0,148333000.0,185847000.0,121747000.0,215000.0,86805000.0,31725000.0,0.0,0.0,89778000.0,0.0,89778000.0,1.19,1.17,75182000.0,76475000.0,0.0,0.916764315637,0.44318022571099996,0.3630066938,0.267686390268,0.47279097157,148636000.0,121747000.0,89778000.0,0.258821950892,0.267686390268
2012-12-31,268964000.0,0.355952368949,18400000.0,250564000.0,28769000.0,108695000.0,137464000.0,113670000.0,0.0,83188000.0,33176000.0,0.0,0.0,81343000.0,0.0,81343000.0,1.1,1.07,74166000.0,76035000.0,0.0,0.931589357684,0.490879820348,0.422621614789,0.302430808584,0.518887286031,132029000.0,113670000.0,81343000.0,0.309290462664,0.302430808584
2011-12-31,198358000.0,0.0,11989000.0,186369000.0,21332000.0,81926000.0,103258000.0,83775000.0,0.0,84803000.0,22360000.0,0.0,0.0,62443000.0,0.0,62443000.0,0.86,0.84,72812000.0,74413000.0,0.0,0.9395587775640001,0.47253954970299994,0.422342431361,0.314799503927,0.546854676897,93732000.0,83775000.0,62443000.0,0.42752498008699996,0.314799503927
