,0,1,2,3,4,5,6,7,8,9,10,11,12,13,14,15,16,17,18,19,20,21,22,23,24,25,26,27,28
Date,Cash and cash equivalents,Short-term investments,Cash and short-term investments,Receivables,Inventories,Total current assets,Property Plant & Equipment Net,Goodwill and Intangible Assets,Long-term investments,Tax assets,Total non-current assets,Total assets,Payables,Short-term debt,Total current liabilities,Long-term debt,Total debt,Deferred revenue,Tax Liabilities,Deposit Liabilities,Total non-current liabilities,Total liabilities,Other comprehensive income,Retained earnings (deficit),Total shareholders equity,Investments,Net Debt,Other Assets,Other Liabilities
2018-12-29,288700000.0,7700000.0,296400000.0,1607800000.0,2373500000.0,4569400000.0,1915200000.0,9021100000.0,153700000.0,0.0,14838600000.0,19408000000.0,2233200000.0,2500000.0,4001600000.0,3819800000.0,3822300000.0,98600000.0,67500000.0,0.0,6971100000.0,11571800000.0,2989200000.0,6219000000.0,7836200000.0,161400000.0,3533600000.0,0.0,599100000.0
2018-12,474000000.0,82000000.0,82000000.0,2076000000.0,154000000.0,18596000000.0,10894000000.0,7022000000.0,,167000000.0,9836000000.0,22586000000.0,1658000000.0,0.0,4527000000.0,0.0,0.0,,814000000.0,,9836000000.0,14363000000.0,-1588000000.0,9759000000.0,8223000000.0,,-474000000.0,1366000000.0,9014000000.0
2017-12-30,637500000.0,7900000.0,645400000.0,1635900000.0,2018400000.0,4566100000.0,1742500000.0,8863900000.0,191700000.0,0.0,14513800000.0,19079900000.0,2021000000.0,983400000.0,4361800000.0,2843000000.0,3826400000.0,98900000.0,142100000.0,0.0,5788300000.0,10782800000.0,3450300000.0,5990400000.0,8297100000.0,199600000.0,3188900000.0,0.0,632700000.0
2017-12,525000000.0,78000000.0,78000000.0,2196000000.0,168000000.0,18327000000.0,10697000000.0,6944000000.0,,197000000.0,9260000000.0,22058000000.0,1753000000.0,0.0,5142000000.0,0.0,0.0,,725000000.0,,9260000000.0,14402000000.0,-1551000000.0,9155000000.0,7656000000.0,,-525000000.0,902000000.0,8749000000.0
2016-12-31,1131800000.0,9200000.0,1141000000.0,1302800000.0,1478000000.0,4788500000.0,1451200000.0,6797700000.0,180900000.0,147100000.0,10846400000.0,15634900000.0,1640400000.0,7800000.0,2807500000.0,3815300000.0,3823100000.0,81900000.0,117600000.0,0.0,5809500000.0,9267900000.0,2718600000.0,5127300000.0,6367000000.0,190100000.0,2691300000.0,0.0,650900000.0
2016-12,329000000.0,2000000.0,2000000.0,2218000000.0,154000000.0,17919000000.0,10177000000.0,6912000000.0,,281000000.0,10962000000.0,21454000000.0,1192000000.0,857000000.0,3978000000.0,6330000000.0,6330000000.0,,621000000.0,,10962000000.0,14940000000.0,-1686000000.0,8149000000.0,6514000000.0,,6858000000.0,1094000000.0,3355000000.0
2016-01-02,465400000.0,11700000.0,477100000.0,1331800000.0,1526400000.0,3662100000.0,1450200000.0,7205300000.0,182100000.0,120500000.0,11510200000.0,15172300000.0,1533100000.0,5100000.0,2802600000.0,3836600000.0,3841700000.0,89200000.0,157600000.0,0.0,5841100000.0,9360700000.0,2571800000.0,4491700000.0,5811600000.0,193800000.0,3376300000.0,0.0,717000000.0
2015-12,324000000.0,2000000.0,2000000.0,2150000000.0,174000000.0,17772000000.0,9855000000.0,7022000000.0,,354000000.0,11759000000.0,21149000000.0,1058000000.0,823000000.0,4153000000.0,6252000000.0,6252000000.0,,290000000.0,,11759000000.0,15912000000.0,-1598000000.0,6783000000.0,5237000000.0,,6751000000.0,1062000000.0,3796000000.0
2015-01-03,496600000.0,11900000.0,508500000.0,1396700000.0,1562700000.0,3948800000.0,1454100000.0,7419700000.0,169500000.0,108700000.0,11900300000.0,15849100000.0,1579200000.0,5900000.0,2832000000.0,3839800000.0,3845700000.0,84400000.0,139200000.0,0.0,5755300000.0,9420000000.0,3330700000.0,3926300000.0,6429100000.0,181400000.0,3349100000.0,0.0,832700000.0
2014-12,302000000.0,9000000.0,9000000.0,2218000000.0,149000000.0,17506000000.0,9720000000.0,6908000000.0,,417000000.0,11020000000.0,20932000000.0,1102000000.0,1517000000.0,4458000000.0,5503000000.0,5503000000.0,,357000000.0,,11020000000.0,15478000000.0,-1454000000.0,6856000000.0,5454000000.0,,6718000000.0,990000000.0,3702000000.0
2013-12-28,496200000.0,181100000.0,496200000.0,1633000000.0,1485200000.0,3968700000.0,1485300000.0,7735400000.0,157800000.0,-174600000.0,12566400000.0,16535100000.0,1575900000.0,9900000.0,3221000000.0,3799400000.0,3809300000.0,79700000.0,87800000.0,0.0,5689400000.0,9735900000.0,3371000000.0,3484900000.0,6799200000.0,338900000.0,3313100000.0,0.0,825500000.0
2012-12-29,716000000.0,333000000.0,716000000.0,1538200000.0,1316600000.0,4098300000.0,1333700000.0,0.0,146400000.0,-132400000.0,11745700000.0,15844000000.0,1350100000.0,10400000.0,3073400000.0,3526500000.0,3536900000.0,78600000.0,220000000.0,0.0,5227200000.0,9176900000.0,3313300000.0,3299500000.0,6667100000.0,479400000.0,2820900000.0,0.0,876300000.0
2011-12-31,906900000.0,209000000.0,906900000.0,1553200000.0,1438600000.0,4322700000.0,1250900000.0,0.0,131200000.0,90300000.0,11626300000.0,15949000000.0,1312600000.0,526400000.0,3268500000.0,2925800000.0,3452200000.0,89800000.0,201600000.0,0.0,4889600000.0,8945400000.0,4204800000.0,2707300000.0,7003600000.0,340200000.0,2545300000.0,0.0,787300000.0
2011-04-02,0.0,0.0,0.0,0.0,0.0,0.0,0.0,0.0,0.0,0.0,0.0,0.0,0.0,0.0,0.0,0.0,0.0,0.0,0.0,0.0,0.0,0.0,0.0,0.0,0.0,0.0,0.0,0.0,0.0
2011-01-01,0.0,0.0,0.0,0.0,0.0,0.0,0.0,0.0,0.0,0.0,0.0,0.0,0.0,0.0,0.0,0.0,0.0,0.0,0.0,0.0,0.0,0.0,0.0,0.0,0.0,0.0,0.0,0.0,0.0
