,0,1,2,3,4,5,6,7,8,9,10,11,12,13,14,15,16,17,18,19,20,21,22,23,24,25,26,27,28
Date,Cash and cash equivalents,Short-term investments,Cash and short-term investments,Receivables,Inventories,Total current assets,Property Plant & Equipment Net,Goodwill and Intangible Assets,Long-term investments,Tax assets,Total non-current assets,Total assets,Payables,Short-term debt,Total current liabilities,Long-term debt,Total debt,Deferred revenue,Tax Liabilities,Deposit Liabilities,Total non-current liabilities,Total liabilities,Other comprehensive income,Retained earnings (deficit),Total shareholders equity,Investments,Net Debt,Other Assets,Other Liabilities
2019-12-31,11158000.0,1802000.0,12960000.0,2554000.0,0.0,16601000.0,1292000.0,33517000.0,1802000.0,25780000.0,237771000.0,254372000.0,3061000.0,0.0,3061000.0,0.0,0.0,0.0,0.0,0.0,25983000.0,17840000.0,4432146000.0,-4195627000.0,236532000.0,3604000.0,-11158000.0,0.0,0.0
2018-12-31,20227000.0,532000.0,20759000.0,2195000.0,0.0,22954000.0,0.0,0.0,532000.0,22684000.0,192708000.0,215662000.0,2592000.0,0.0,2592000.0,0.0,0.0,0.0,0.0,0.0,22684000.0,2605000.0,4432499000.0,-4219455000.0,213057000.0,1064000.0,-20227000.0,0.0,0.0
2017-12-31,30557000.0,1856000.0,32413000.0,1637000.0,0.0,34050000.0,0.0,0.0,1856000.0,22725000.0,175833000.0,209883000.0,1840000.0,0.0,1840000.0,0.0,0.0,0.0,0.0,0.0,22725000.0,1931000.0,4433589000.0,-4225863000.0,207952000.0,3712000.0,-30557000.0,0.0,0.0
2016-12-31,32182000.0,2621000.0,34803000.0,1054000.0,0.0,35857000.0,0.0,0.0,2621000.0,38471000.0,173075000.0,208932000.0,682000.0,0.0,682000.0,0.0,0.0,0.0,0.0,0.0,38471000.0,4627000.0,4433289000.0,-4228910000.0,204305000.0,5242000.0,-32182000.0,0.0,-34526000.0
2015-12-31,47287000.0,5286000.0,52573000.0,1127000.0,0.0,53700000.0,0.0,0.0,5286000.0,16833000.0,126787000.0,180487000.0,788000.0,0.0,788000.0,0.0,0.0,0.0,0.0,0.0,16833000.0,5346000.0,4432926000.0,-4257798000.0,175141000.0,10572000.0,-47287000.0,0.0,-12275000.0
2014-12-31,58728000.0,4849000.0,63577000.0,1053000.0,0.0,71067000.0,0.0,0.0,4849000.0,706000.0,117152000.0,188219000.0,863000.0,0.0,863000.0,0.0,0.0,0.0,0.0,0.0,19400000.0,6152000.0,4432364000.0,-4250428000.0,182067000.0,9698000.0,-58728000.0,0.0,-14111000.0
2013-12-31,7664000.0,3119000.0,10783000.0,528000.0,0.0,9032000.0,5000.0,0.0,28626000.0,164000.0,52543000.0,61575000.0,363000.0,0.0,363000.0,5000000.0,5000000.0,0.0,0.0,0.0,14639000.0,11271000.0,4321454000.0,-4271193000.0,50304000.0,31745000.0,-2664000.0,0.0,-3731000.0
2012-12-31,24584000.0,0.0,24584000.0,197000.0,0.0,26047000.0,3000.0,0.0,6270000.0,0.0,19273000.0,45320000.0,91000.0,0.0,91000.0,0.0,0.0,0.0,0.0,0.0,1000000.0,8132000.0,4321200000.0,-4284055000.0,37188000.0,6270000.0,-24584000.0,0.0,7041000.0
2011-12-31,38203000.0,0.0,38203000.0,0.0,0.0,38269000.0,4000.0,0.0,0.0,0.0,4000.0,38273000.0,187000.0,0.0,187000.0,0.0,0.0,0.0,0.0,0.0,63000.0,250000.0,4320615000.0,-4282634000.0,38023000.0,0.0,-38203000.0,0.0,0.0
2010-12-31,39259000.0,0.0,39259000.0,0.0,0.0,39322000.0,6000.0,0.0,0.0,0.0,,39328000.0,201000.0,0.0,231000.0,0.0,0.0,0.0,0.0,0.0,,320000.0,0.0,-4281568000.0,39008000.0,0.0,,,30000.0
2009-12-31,38608000.0,0.0,38608000.0,0.0,0.0,40079000.0,0.0,0.0,0.0,0.0,,40079000.0,0.0,0.0,285000.0,0.0,0.0,0.0,0.0,0.0,,394000.0,0.0,-4280861000.0,39685000.0,0.0,,,285000.0
