,0,1,2,3,4,5,6,7,8,9,10,11,12,13,14,15,16,17,18,19,20,21,22,23,24,25,26,27,28,29,30
Date,Revenue,Revenue Growth,Cost of Revenue,Gross Profit,R&D Expenses,SG&A Expense,Operating Expenses,Operating Income,Interest Expense,Earnings before Tax,Income Tax Expense,Net Income - Non-Controlling int,Net Income - Discontinued ops,Net Income,Preferred Dividends,Net Income Com,EPS,EPS Diluted,Weighted Average Shs Out,Weighted Average Shs Out (Dil),Dividend per Share,Gross Margin,EBITDA Margin,EBIT Margin,Profit Margin,Free Cash Flow margin,EBITDA,EBIT,Consolidated Income,Earnings Before Tax Margin,Net Profit Margin
2019-12-31,1022800000.0,-0.0177662537213,732800000.0,290000000.0,13500000.0,105100000.0,118600000.0,134000000.0,36100000.0,96900000.0,15200000.0,0.0,0.0,85800000.0,0.0,85800000.0,2.78,2.76,30652200.0,30838300.0,1.76404017083,0.283535393039,0.18742667188099998,0.13101290574899999,0.0838873680094,0.12876417677000002,191700000.0,134000000.0,85800000.0,0.094739929605,0.0838873680094
2018-12-31,1041300000.0,0.060278993992499995,762800000.0,278500000.0,15200000.0,90900000.0,141800000.0,135000000.0,28200000.0,116800000.0,10700000.0,0.0,0.0,94500000.0,0.0,94500000.0,3.07,3.06,30551300.0,30692900.0,1.7332998836900002,0.26745414385899996,0.18880245846500002,0.129645635264,0.0907519446845,0.10765389417099999,196600000.0,135000000.0,94500000.0,0.11216748295399999,0.0907519446845
2017-12-31,982100000.0,0.16930586974599998,699800000.0,282300000.0,17800000.0,98400000.0,149500000.0,124700000.0,26900000.0,101500000.0,69600000.0,0.0,0.0,34500000.0,0.0,34500000.0,1.12,1.12,30407100.0,30549300.0,1.6988932643299999,0.287445270339,0.187557275227,0.126972813359,0.0351288056206,0.0955096222381,184200000.0,124700000.0,34500000.0,0.103349964362,0.0351288056206
2016-12-31,839900000.0,0.09920167517339999,583200000.0,256700000.0,17500000.0,82200000.0,125000000.0,106100000.0,16600000.0,93400000.0,15400000.0,0.0,0.0,82800000.0,0.0,82800000.0,2.71,2.7,30310900.0,30463400.0,1.62161807283,0.305631622812,0.17930706036400001,0.126324562448,0.0985831646625,0.121323967139,150600000.0,106100000.0,82800000.0,0.111203714728,0.0985831646625
2015-12-31,764100000.0,-0.03802089890469999,539700000.0,224400000.0,14000000.0,70600000.0,106800000.0,103000000.0,9700000.0,105500000.0,21600000.0,0.0,0.0,89700000.0,0.0,89700000.0,2.95,2.94,30251400.0,30374300.0,1.54406850528,0.29367883784800003,0.18845700824499997,0.134799110064,0.11739301138599999,0.157701871483,144000000.0,103000000.0,89700000.0,0.138070933124,0.11739301138599999
2014-12-31,794300000.0,0.027820910973099997,575500000.0,218800000.0,15700000.0,61900000.0,99600000.0,106100000.0,7200000.0,108200000.0,20500000.0,0.0,0.0,89700000.0,0.0,89700000.0,2.94,2.93,30238000.0,30356500.0,1.46591339581,0.275462671535,0.19035628855599998,0.133576734231,0.11292962356799999,0.164673297243,151200000.0,106100000.0,89700000.0,0.136220571572,0.11292962356799999
2013-12-31,772800000.0,-0.0194137799772,520100000.0,252700000.0,15300000.0,50300000.0,86500000.0,124900000.0,2900000.0,127700000.0,53000000.0,0.0,0.0,76100000.0,0.0,76100000.0,2.43,2.42,31056700.0,31238300.0,1.26447341885,0.326992753623,0.20988612836399997,0.16162008281600002,0.09847308488610002,0.192805383023,162200000.0,124900000.0,76100000.0,0.165243271222,0.09847308488610002
2012-12-31,788100000.0,-0.034427836314599995,537200000.0,250900000.0,10000000.0,55000000.0,87400000.0,133400000.0,3400000.0,131600000.0,51900000.0,0.0,0.0,79800000.0,0.0,79800000.0,2.54,2.51,30986200.0,31341900.0,0.449877001713,0.318360614135,0.21926151503600003,0.16926785940900002,0.10125618576300001,0.18703210252500002,172800000.0,133400000.0,79800000.0,0.16698388529400002,0.10125618576300001
2011-12-31,816200000.0,0.122232916266,575700000.0,240500000.0,9300000.0,60100000.0,91400000.0,119200000.0,2600000.0,114000000.0,31100000.0,0.0,0.0,92600000.0,0.0,92600000.0,5.5,5.46,16615100.0,16743400.0,0.603222762402,0.294658172017,0.199460916442,0.146042636609,0.113452585151,0.025238912031400003,162800000.0,119200000.0,92600000.0,0.139671649106,0.113452585151
2010-12-31,727300000.0,0.010700389105100001,532100000.0,195200000.0,8500000.0,64300000.0,84400000.0,110800000.0,1700000.0,105000000.0,39700000.0,0.0,7600000.0,65300000.0,0.0,65300000.0,1.8,1.76,36038098.0,35373400.0,0.3,0.2684,0.201,0.1467,0.09,0.0799,146300000.0,106700000.0,65300000.0,0.1444,0.0898
2009-12-31,719600000.0,-0.0068,531800000.0,187800000.0,8000000.0,66700000.0,98600000.0,89200000.0,4300000.0,60900000.0,25300000.0,0.0,24000000.0,35600000.0,0.0,35600000.0,1.135,1.1,31332414.0,31100200.0,0.3,0.261,0.152,0.0906,0.049,0.0592,109100000.0,65200000.0,35600000.0,0.0846,0.0495
