,0,1,2,3,4,5,6,7,8,9,10,11,12,13,14,15,16,17,18,19,20,21,22,23,24,25,26,27,28
Date,Cash and cash equivalents,Short-term investments,Cash and short-term investments,Receivables,Inventories,Total current assets,Property Plant & Equipment Net,Goodwill and Intangible Assets,Long-term investments,Tax assets,Total non-current assets,Total assets,Payables,Short-term debt,Total current liabilities,Long-term debt,Total debt,Deferred revenue,Tax Liabilities,Deposit Liabilities,Total non-current liabilities,Total liabilities,Other comprehensive income,Retained earnings (deficit),Total shareholders equity,Investments,Net Debt,Other Assets,Other Liabilities
2019-03-31,9291933.0,81265.0,9373198.0,4499647.0,1007918.0,15588100.0,1808133.0,61096.0,0.0,13504.0,1882733.0,17470833.0,4210219.0,261153.0,6321372.0,0.0,261153.0,57553.0,1064314.0,0.0,41706.0,6363078.0,50395.0,3083872.0,11107755.0,81265.0,,910416.0,1850000.0
2018-03-31,657767.0,303379.0,961146.0,2963558.0,1266880.0,6102190.0,1488857.0,60673.0,0.0,6174.0,1555704.0,7657894.0,2407359.0,385121.0,4372119.0,0.0,385121.0,292947.0,870466.0,0.0,0.0,4372119.0,257373.0,1544645.0,3285775.0,303379.0,,51162.0,1579639.0
2017-03-31,65570.0,0.0,65570.0,3897482.0,890786.0,4905116.0,485294.0,41004.0,0.0,0.0,526298.0,5431414.0,1821524.0,302168.0,3578768.0,0.0,302168.0,585969.0,293676.0,0.0,0.0,3578768.0,11825.0,357064.0,1852646.0,0.0,,,1455076.0
2016-03-31,11000.0,,11000.0,4099000.0,1353000.0,5735000.0,430000.0,,,,,6206000.0,2888000.0,,5463000.0,0.0,,,,,,5463000.0,,-828000.0,743000.0,,,,
