,0,1,2,3,4,5,6,7,8,9,10,11,12,13,14,15,16,17,18,19,20,21,22,23,24,25,26,27,28,29,30
Date,Revenue,Revenue Growth,Cost of Revenue,Gross Profit,R&D Expenses,SG&A Expense,Operating Expenses,Operating Income,Interest Expense,Earnings before Tax,Income Tax Expense,Net Income - Non-Controlling int,Net Income - Discontinued ops,Net Income,Preferred Dividends,Net Income Com,EPS,EPS Diluted,Weighted Average Shs Out,Weighted Average Shs Out (Dil),Dividend per Share,Gross Margin,EBITDA Margin,EBIT Margin,Profit Margin,Free Cash Flow margin,EBITDA,EBIT,Consolidated Income,Earnings Before Tax Margin,Net Profit Margin
2018-12-31,23810000.0,-0.770180400181,0.0,0.0,8897000.0,0.0,8897000.0,67548000.0,15357000.0,67548000.0,12031000.0,0.0,0.0,55517000.0,0.0,55517000.0,2.45,2.42,22619000.0,22944000.0,0.948657601116,0.0,3.07979840403,2.8369592608099996,2.33166736665,2.47089458211,73330000.0,67548000.0,55517000.0,2.8369592608099996,2.33166736665
2017-12-31,103603000.0,0.06528266189569999,0.0,0.0,8525000.0,0.0,8525000.0,55182000.0,7246000.0,55182000.0,17139000.0,0.0,0.0,38043000.0,0.0,38043000.0,1.69,1.66,22532000.0,22983000.0,0.786537875821,0.0,0.66428578323,0.532629364015,0.36719979151199994,0.49120199221999994,68822000.0,55182000.0,38043000.0,0.532629364015,0.36719979151199994
2016-12-31,97254000.0,0.101179827442,0.0,0.0,7073000.0,49185000.0,56258000.0,56271000.0,4918000.0,56271000.0,15244000.0,0.0,0.0,41027000.0,0.0,41027000.0,1.84,1.8,22356000.0,22792000.0,0.706081081081,0.0,0.693164291443,0.578598309581,0.42185411397,0.585425792255,67413000.0,56271000.0,41027000.0,0.578598309581,0.42185411397
2015-12-31,88318000.0,0.05445515001730001,0.0,0.0,6348000.0,44709000.0,51057000.0,37187000.0,4852000.0,0.0,16933000.0,0.0,0.0,37187000.0,0.0,37187000.0,2.53,2.48,14725000.0,14973000.0,0.949976624591,0.0,0.49920740958800003,0.421057994973,0.421057994973,0.449647863403,44089000.0,37187000.0,37187000.0,0.0,0.421057994973
2014-12-31,83757000.0,0.08355972987660001,0.0,0.0,6393000.0,44687000.0,51080000.0,50103000.0,5330000.0,50103000.0,15281000.0,0.0,0.0,34822000.0,0.0,34822000.0,2.39,2.36,14559000.0,14762000.0,0.875491125864,0.0,0.6867008130660001,0.59819477775,0.415750325346,0.446064209559,57516000.0,50103000.0,34822000.0,0.59819477775,0.415750325346
2013-12-31,77298000.0,0.0452738336714,0.0,0.0,6319000.0,41145000.0,47464000.0,27170000.0,9166000.0,0.0,11228000.0,0.0,0.0,27170000.0,0.0,27170000.0,1.91,1.89,14223000.0,14353000.0,0.8130704382359999,0.0,0.454591321897,0.35149680457500004,0.35149680457500004,0.7240032083619999,35139000.0,27170000.0,27170000.0,0.0,0.35149680457500004
2012-12-31,73950000.0,0.045495673811,0.0,0.0,5278000.0,37960000.0,43238000.0,25801000.0,12951000.0,0.0,9634000.0,0.0,0.0,25801000.0,0.0,25801000.0,1.86,1.85,13875000.0,13932000.0,0.767370083262,0.0,0.41602434077100003,0.348897903989,0.348897903989,0.155442866802,30765000.0,25801000.0,25801000.0,0.0,0.348897903989
2011-12-31,70732000.0,-0.206586725594,0.0,0.0,5014000.0,33125000.0,38139000.0,31795000.0,15307000.0,31795000.0,8191000.0,0.0,0.0,23604000.0,0.0,23604000.0,1.71,1.71,0.0,0.0,0.0,0.0,0.506333766895,0.449513657185,0.333710343268,0.5115082282419999,35814000.0,31795000.0,23604000.0,0.449513657185,0.333710343268
2010-12-31,89149000.0,0.174001790982,0.0,89149000.0,0.0,44525000.0,57131000.0,32018000.0,0.0,32018000.0,9065000.0,0.0,0.0,22953000.0,0.0,22953000.0,1.12,1.113,20567810.0,20567810.0,0.46,1.0,0.396,0.3592,0.257,0.3418,35292000.0,32018000.0,22953000.0,0.3592,0.2575
2009-12-31,75936000.0,-0.0631,0.0,75936000.0,0.0,40045000.0,52695000.0,23241000.0,0.0,23241000.0,6933000.0,0.0,0.0,16308000.0,0.0,16308000.0,0.8,0.7929999999999999,20381982.0,20381982.0,0.45299999999999996,1.0,0.34,0.3061,0.215,0.1375,25795000.0,23241000.0,16308000.0,0.3061,0.2148
