,0,1,2,3,4,5,6,7,8,9,10,11,12,13,14,15,16,17,18,19,20,21,22,23,24,25,26,27,28,29,30
Date,Revenue,Revenue Growth,Cost of Revenue,Gross Profit,R&D Expenses,SG&A Expense,Operating Expenses,Operating Income,Interest Expense,Earnings before Tax,Income Tax Expense,Net Income - Non-Controlling int,Net Income - Discontinued ops,Net Income,Preferred Dividends,Net Income Com,EPS,EPS Diluted,Weighted Average Shs Out,Weighted Average Shs Out (Dil),Dividend per Share,Gross Margin,EBITDA Margin,EBIT Margin,Profit Margin,Free Cash Flow margin,EBITDA,EBIT,Consolidated Income,Earnings Before Tax Margin,Net Profit Margin
2019-12-31,14884000000.0,0.0943312991692,5188000000.0,9696000000.0,971000000.0,5356000000.0,6983000000.0,2713000000.0,0.0,366000000.0,479000000.0,0.0,0.0,2083000000.0,0.0,2083000000.0,5.57,5.48,374000000.0,379900000.0,2.04790734404,0.651437785542,0.234547164741,0.18227626982,0.139948938457,0.103601182478,3491000000.0,2713000000.0,2083000000.0,0.024590163934400004,0.139948938457
2018-12-31,13601000000.0,0.0929765348762,4663000000.0,8938000000.0,862000000.0,5099000000.0,6401000000.0,2537000000.0,0.0,2356000000.0,-1197000000.0,0.0,0.0,3553000000.0,0.0,3553000000.0,9.5,9.34,374100000.0,380300000.0,1.8485406258200001,0.657157561944,0.239688258216,0.186530402176,0.261230791854,0.149841923388,3260000000.0,2537000000.0,3553000000.0,0.17322255716499999,0.261230791854
2017-12-31,12444000000.0,0.09880794701989999,4271000000.0,8173000000.0,787000000.0,4552000000.0,5883000000.0,2290000000.0,0.0,2063000000.0,1043000000.0,0.0,0.0,1020000000.0,0.0,1020000000.0,2.73,2.68,374000000.0,380100000.0,1.67324388319,0.656782385085,0.235615557698,0.18402442944400002,0.0819672131148,0.07722597235619999,2932000000.0,2290000000.0,1020000000.0,0.165782706525,0.0819672131148
2016-12-31,11325000000.0,0.138648702996,3830000000.0,7495000000.0,715000000.0,4137000000.0,5329000000.0,2166000000.0,0.0,1921000000.0,274000000.0,0.0,0.0,1647000000.0,0.0,1647000000.0,4.4,4.35,374100000.0,378500000.0,1.50066050198,0.661810154525,0.239470198675,0.191258278146,0.145430463576,0.116732891832,2712000000.0,2166000000.0,1647000000.0,0.169624724062,0.145430463576
2015-12-31,9946000000.0,0.0280103359173,3344000000.0,6602000000.0,625000000.0,3610000000.0,4741000000.0,1861000000.0,0.0,1735000000.0,296000000.0,0.0,0.0,1439000000.0,0.0,1439000000.0,3.82,3.78,376600000.0,380900000.0,1.3678130743,0.6637844359539999,0.227025940076,0.187110396139,0.144681278906,0.0632415041223,2258000000.0,1861000000.0,1439000000.0,0.17444198672800001,0.144681278906
2014-12-31,9675000000.0,0.07249750581980001,3291000000.0,6384000000.0,614000000.0,3575000000.0,5138000000.0,1246000000.0,0.0,1160000000.0,645000000.0,0.0,0.0,515000000.0,0.0,515000000.0,1.36,1.34,378500000.0,382800000.0,1.20689655172,0.65984496124,0.167855297158,0.128785529716,0.05322997416019999,0.160103359173,1624000000.0,1246000000.0,515000000.0,0.119896640827,0.05322997416019999
2013-12-31,9021000000.0,0.042046898463699994,2977000000.0,6044000000.0,536000000.0,4066000000.0,4788000000.0,1256000000.0,0.0,193000000.0,206000000.0,0.0,0.0,1006000000.0,0.0,1006000000.0,2.66,2.63,378600000.0,382100000.0,1.04946349123,0.669992240328,0.173262387762,0.13923068396,0.11151757011399999,0.187451502051,1563000000.0,1256000000.0,1006000000.0,0.021394523888699998,0.11151757011399999
2012-12-31,8657000000.0,0.0421331407247,2781000000.0,5876000000.0,471000000.0,3466000000.0,4135000000.0,1741000000.0,0.0,1705000000.0,407000000.0,0.0,0.0,1298000000.0,0.0,1298000000.0,3.41,3.39,380600000.0,383000000.0,0.8459530026109999,0.678757075199,0.233106156867,0.20110892919,0.149936467598,0.167147972739,2018000000.0,1741000000.0,1298000000.0,0.196950444727,0.149936467598
2011-12-31,8307000000.0,0.134836065574,2811000000.0,5496000000.0,462000000.0,3150000000.0,3810000000.0,1686000000.0,0.0,1686000000.0,341000000.0,0.0,0.0,1345000000.0,0.0,1345000000.0,3.48,3.45,386500000.0,389500000.0,0.716302952503,0.66161068978,0.260864331287,0.20296135789099998,0.161911640785,0.145419525701,2167000000.0,1686000000.0,1345000000.0,0.20296135789099998,0.161911640785
2010-12-31,7320000000.0,0.08879964301650001,2285700000.0,5034300000.0,393900000.0,2707300000.0,3282900000.0,1751400000.0,0.0,1729600000.0,456200000.0,0.0,0.0,1273400000.0,0.0,1273400000.0,3.21,3.19,396400000.0,399500000.0,0.596495619524,0.6877459016390001,0.295300546448,0.239262295082,0.17396174863400002,0.18651639344300003,2161600000.0,1751400000.0,1273400000.0,0.23628415300500002,0.17396174863400002
2009-12-31,6723000000.0,0.0007,2184000000.0,4539000000.0,336000000.0,2506000000.0,2945000000.0,1594000000.0,0.0,1624000000.0,517000000.0,0.0,0.0,1107000000.0,0.0,1107000000.0,2.79,2.77,397738563.0,397400000.0,0.25,0.6751,0.266,0.2416,0.165,0.198,1789000000.0,1624000000.0,1107000000.0,0.2416,0.1647
