,0,1,2,3,4,5,6,7,8,9,10,11,12,13,14
Date,Depreciation & Amortization,Stock-based compensation,Operating Cash Flow,Capital Expenditure,Acquisitions and disposals,Investment purchases and sales,Investing Cash flow,Issuance (repayment) of debt,Issuance (buybacks) of shares,Dividend payments,Financing Cash Flow,Effect of forex changes on cash,Net cash flow / Change in cash,Free Cash Flow,Net Cash/Marketcap
2019-12-31,778000000.0,127000000.0,2191000000.0,649000000.0,-802000000.0,-312000000.0,-1473000000.0,-1342000000.0,-307000000.0,-778000000.0,3000000.0,-18000000.0,721000000.0,1542000000.0,0.0
2018-12-31,723000000.0,119000000.0,2610000000.0,572000000.0,-2451000000.0,-132000000.0,-2857000000.0,-669000000.0,-300000000.0,-703000000.0,1329000000.0,-8000000.0,1074000000.0,2038000000.0,0.0
2017-12-31,642000000.0,113000000.0,1559000000.0,598000000.0,-831000000.0,-413000000.0,-1613000000.0,-933000000.0,-230000000.0,-636000000.0,-794000000.0,74000000.0,-774000000.0,961000000.0,0.0
2016-12-31,546000000.0,97000000.0,1812000000.0,490000000.0,-4332000000.0,621000000.0,-4191000000.0,-1635000000.0,-13000000.0,-568000000.0,2361000000.0,-45000000.0,-63000000.0,1322000000.0,0.0
2015-12-31,397000000.0,86000000.0,899000000.0,270000000.0,-153000000.0,1679000000.0,1956000000.0,-2272000000.0,-700000000.0,-521000000.0,-1141000000.0,-130000000.0,1584000000.0,629000000.0,0.0
2014-12-31,378000000.0,77000000.0,1782000000.0,233000000.0,-916000000.0,-829000000.0,-1878000000.0,-1428000000.0,-100000000.0,-462000000.0,629000000.0,-77000000.0,456000000.0,1549000000.0,0.0
2013-12-31,307000000.0,76000000.0,1886000000.0,195000000.0,-2320000000.0,-19000000.0,-2242000000.0,-355000000.0,-317000000.0,-401000000.0,300000000.0,-25000000.0,-56000000.0,1691000000.0,0.0
2012-12-31,277000000.0,75000000.0,1657000000.0,210000000.0,-154000000.0,-480000000.0,-736000000.0,-182000000.0,-108000000.0,-324000000.0,-449000000.0,18000000.0,490000000.0,1447000000.0,0.0
2011-12-31,481000000.0,75000000.0,1434000000.0,226000000.0,-2066000000.0,-532000000.0,-2135000000.0,-190000000.0,-622000000.0,-279000000.0,-161000000.0,9000000.0,-853000000.0,1208000000.0,0.0
2010-12-31,410200000.0,68800000.0,1547400000.0,182100000.0,-265400000.0,-834400000.0,-795500000.0,-80800000.0,-425500000.0,-238300000.0,410100000.0,-63100000.0,1098900000.0,1365300000.0,0.0
2009-12-31,165000000.0,62000000.0,1461000000.0,-130000000.0,-570000000.0,-628000000.0,-1328000000.0,-3000000.0,0.0,-198000000.0,-193000000.0,18000000.0,-42000000.0,1331000000.0,0.1466
