,0,1,2,3,4,5,6,7,8,9,10,11,12,13,14,15,16,17,18,19,20,21,22,23,24,25,26,27,28,29,30
Date,Revenue,Revenue Growth,Cost of Revenue,Gross Profit,R&D Expenses,SG&A Expense,Operating Expenses,Operating Income,Interest Expense,Earnings before Tax,Income Tax Expense,Net Income - Non-Controlling int,Net Income - Discontinued ops,Net Income,Preferred Dividends,Net Income Com,EPS,EPS Diluted,Weighted Average Shs Out,Weighted Average Shs Out (Dil),Dividend per Share,Gross Margin,EBITDA Margin,EBIT Margin,Profit Margin,Free Cash Flow margin,EBITDA,EBIT,Consolidated Income,Earnings Before Tax Margin,Net Profit Margin
2019-12-31,121845000.0,-0.15314257118799998,61990000.0,59855000.0,18273000.0,39524000.0,57797000.0,-7807000.0,268000.0,-8092000.0,929000.0,0.0,0.0,-9021000.0,0.0,-9021000.0,-0.23,-0.23,39090239.0,39090239.0,0.0,0.491238869055,0.028265419180099997,-0.064073207764,-0.0740366859535,-0.0107759858837,3444000.0,-7807000.0,-9021000.0,-0.0664122450655,-0.0740366859535
2018-12-31,143879000.0,0.0275089804109,72547000.0,71332000.0,24510000.0,43570000.0,68080000.0,-6389000.0,338000.0,-6939000.0,616000.0,0.0,0.0,-7555000.0,0.0,-7555000.0,-0.19,-0.19,38895301.0,38895301.0,0.0,0.495777702097,0.023929829926499998,-0.044405368399800006,-0.0525094002599,-0.029191195379499997,3443000.0,-6389000.0,-7555000.0,-0.0482280249376,-0.0525094002599
2017-12-31,140027000.0,0.0993460152466,70053000.0,69974000.0,27642000.0,42741000.0,70383000.0,-10229000.0,433000.0,-8677000.0,1100000.0,0.0,0.0,-9777000.0,0.0,-9777000.0,-0.27,-0.27,36381299.0,36381299.0,0.0,0.49971791154600004,-0.0029208652616999997,-0.07305019746189999,-0.0698222485663,-0.0581245045598,-409000.0,-10229000.0,-9777000.0,-0.0619666207231,-0.0698222485663
2016-12-31,127373000.0,0.155363055014,59146000.0,68227000.0,25612000.0,42541000.0,68153000.0,-9161000.0,318000.0,-9521000.0,1219000.0,0.0,0.0,-10740000.0,0.0,-10740000.0,-0.36,-0.36,30251685.0,30251685.0,0.0,0.5356472721850001,0.000580970849395,-0.07192262096360001,-0.0843192827365,0.01813571165,74000.0,-9161000.0,-10740000.0,-0.07474896563639999,-0.0843192827365
2015-12-31,110245000.0,0.0343970200509,54423000.0,55822000.0,20007000.0,31815000.0,51822000.0,-2901000.0,245000.0,-3162000.0,239000.0,0.0,0.0,-3474000.0,0.0,-3474000.0,-0.12,-0.12,28213838.0,28213838.0,0.0,0.506344958955,0.0362828246179,-0.0263141185541,-0.0315116331806,0.040038096965800005,4000000.0,-2901000.0,-3474000.0,-0.0286815728604,-0.0315116331806
2014-12-31,106579000.0,-0.0467591474595,57939000.0,48640000.0,26259000.0,25056000.0,51315000.0,-6801000.0,218000.0,-7047000.0,4821000.0,0.0,0.0,-12931000.0,0.0,-12931000.0,-0.47,-0.47,27389793.0,27389793.0,0.0,0.45637508327200005,-0.0157160416217,-0.06381182033980001,-0.12132784132000002,-0.07779206034960001,-1675000.0,-6801000.0,-12931000.0,-0.0661199673482,-0.12132784132000002
2013-12-31,111807000.0,-0.0834064321493,59622000.0,52185000.0,28458000.0,19787000.0,48245000.0,-710000.0,193000.0,-940000.0,-134000.0,0.0,0.0,-1367000.0,0.0,-1367000.0,-0.05,-0.05,27306882.0,27306882.0,0.0,0.466741796131,0.0352392962874,-0.00635022851879,-0.012226425894599999,-0.00618923680986,3940000.0,-710000.0,-1367000.0,-0.008407344799520001,-0.012226425894599999
2012-12-31,121981000.0,0.339567318252,66620000.0,55361000.0,25603000.0,20131000.0,45734000.0,5848000.0,270000.0,5579000.0,1764000.0,0.0,0.0,3815000.0,0.0,3815000.0,0.16,0.14,24411194.0,28097313.0,0.0,0.45384936998400005,0.0789221272165,0.04794189258980001,0.0312753625565,0.0851608037317,9627000.0,5848000.0,3815000.0,0.0457366311147,0.0312753625565
2011-12-31,91060000.0,0.374864114023,48661000.0,42399000.0,20228000.0,15461000.0,38356000.0,4043000.0,109000.0,3917000.0,-6015000.0,0.0,0.0,9932000.0,8583000.0,1349000.0,0.59,0.45,,2303443.0,0.0,0.4656,0.07400000000000001,0.0442,0.015,0.075,6693000.0,4026000.0,9932000.0,0.043,0.1091
2010-12-31,66232000.0,0.08937794006380001,36703000.0,29529000.0,18494000.0,11867000.0,32867000.0,-3338000.0,240000.0,-3580000.0,11000.0,0.0,0.0,-3591000.0,0.0,-3591000.0,-1.93,-1.93,,1865294.0,0.0,0.4458,-0.013000000000000001,-0.0504,-0.054000000000000006,-0.0436,-834000.0,-3340000.0,-3591000.0,-0.0541,-0.0542
2009-12-31,60798000.0,0.1565,34074000.0,26724000.0,13627000.0,10557000.0,26189000.0,535000.0,285000.0,319000.0,15000.0,0.0,0.0,304000.0,279000.0,25000.0,0.01,0.01,,1814029.0,0.0,0.4396,0.043,0.0099,0.0,0.0602,2609000.0,604000.0,304000.0,0.0052,0.005
