,0,1,2,3,4,5,6,7,8,9,10,11,12,13,14
Date,Depreciation & Amortization,Stock-based compensation,Operating Cash Flow,Capital Expenditure,Acquisitions and disposals,Investment purchases and sales,Investing Cash flow,Issuance (repayment) of debt,Issuance (buybacks) of shares,Dividend payments,Financing Cash Flow,Effect of forex changes on cash,Net cash flow / Change in cash,Free Cash Flow,Net Cash/Marketcap
2019-12-31,11224000.0,2091000.0,28640000.0,4537000.0,-0.0,548000.0,-25695000.0,-3666000.0,-626000.0,-0.0,-4539000.0,0.0,-1594000.0,24103000.0,0.0
2018-12-31,8907207.0,826998.0,-21221496.0,7354737.0,-0.0,-4970470.0,-22703489.0,-0.0,982519.0,-2215215.0,46130551.0,0.0,2205566.0,-28576233.0,0.0
2017-12-31,7798341.0,638416.0,2235450.0,5278608.0,-0.0,0.0,-17400633.0,-0.0,0.0,-1148513.0,15117016.0,0.0,-48167.0,-3043158.0,0.0
2016-12-31,6767280.0,459473.0,1457658.0,3044411.0,-0.0,-253889.0,17673234.0,-26068228.0,-253889.0,-0.0,-19459443.0,0.0,-328551.0,-1586753.0,0.0
2015-12-31,6755001.0,521695.0,16461632.0,10905230.0,-0.0,-820460.0,-8944164.0,-4700570.0,-820460.0,-2617513.0,-7152667.0,0.0,364801.0,5556402.0,0.0
2015-01-03,5191152.0,364157.0,28889025.0,8065992.0,-0.0,0.0,-35946401.0,-2533903.0,-26623.0,-2632537.0,5310256.0,0.0,-1747120.0,20823033.0,0.0
2013-12-28,5113952.0,331362.0,-5541798.0,5766091.0,-0.0,0.0,-9448876.0,-2401103.0,-1776763.0,-2259728.0,15682176.0,0.0,691502.0,-11307889.0,0.0
2012-12-29,3399411.0,337750.0,1634863.0,4739728.0,-0.0,0.0,-30357827.0,-759962.0,-1085261.0,-1596302.0,29698087.0,0.0,975123.0,-3104865.0,0.0
2011-12-31,2658822.0,276553.0,-3857780.0,3185129.0,-0.0,0.0,-3153639.0,-0.0,-110138.0,1580404.0,7012655.0,0.0,1236.0,-7042909.0,0.0
2011-01-01,2642465.0,179814.0,-6047943.0,-5032222.0,0.0,0.0,-5032222.0,219275.0,39066.0,-3165831.0,-2907490.0,0.0,-13987655.0,-11080165.0,-0.0015
2010-01-01,2402066.0,209475.0,20188531.0,-1231422.0,6098990.0,0.0,4867568.0,-10425649.0,0.0,-631108.0,-11056757.0,0.0,13999342.0,18957109.0,0.2577
