,0,1,2,3,4,5,6,7,8,9,10,11,12,13,14,15,16,17,18,19,20,21,22,23,24,25,26,27,28,29,30
Date,Revenue,Revenue Growth,Cost of Revenue,Gross Profit,R&D Expenses,SG&A Expense,Operating Expenses,Operating Income,Interest Expense,Earnings before Tax,Income Tax Expense,Net Income - Non-Controlling int,Net Income - Discontinued ops,Net Income,Preferred Dividends,Net Income Com,EPS,EPS Diluted,Weighted Average Shs Out,Weighted Average Shs Out (Dil),Dividend per Share,Gross Margin,EBITDA Margin,EBIT Margin,Profit Margin,Free Cash Flow margin,EBITDA,EBIT,Consolidated Income,Earnings Before Tax Margin,Net Profit Margin
2017-12-31,923828000.0,-0.00018614718614700003,572789000.0,351039000.0,0.0,115323000.0,115323000.0,235716000.0,0.0,64947000.0,59217000.0,0.0,0.0,166268000.0,0.0,166268000.0,1.99,1.99,83537000.0,83618000.0,0.0,0.379983070442,0.270443199383,0.255151391818,0.179977225198,0.187161462956,249843000.0,235716000.0,166268000.0,0.0703020475673,0.179977225198
2017-12,924000000.0,-0.04402255444619999,573000000.0,351000000.0,,115000000.0,115000000.0,236000000.0,13000000.0,225000000.0,59000000.0,,,166000000.0,,166000000.0,1.99,1.99,84000000.0,84000000.0,,0.37987012987012997,0.27272727272727,0.25757575757576,0.17965367965367998,,252000000.0,238000000.0,166000000.0,0.24350649350648998,0.17965367965367998
2016-12-31,966550000.0,-0.000465356773526,595725000.0,370825000.0,0.0,108528000.0,108528000.0,262297000.0,4707000.0,52742000.0,330775000.0,0.0,0.0,-57390000.0,0.0,-57390000.0,-0.68,-0.68,84146000.0,84146000.0,14.9917999667,0.383658372562,0.286807718173,0.27137447623000005,-0.059376131602099994,-0.0301722621696,277214000.0,262297000.0,-57390000.0,0.0545672753608,-0.059376131602099994
2016-12,967000000.0,-0.0016642370732600001,596000000.0,371000000.0,,109000000.0,109000000.0,262000000.0,5000000.0,273000000.0,331000000.0,,,-57000000.0,,-57000000.0,-0.68,-0.68,84000000.0,84000000.0,,0.38366080661840996,0.30299896587384006,0.28852119958635,-0.058945191313339994,,293000000.0,279000000.0,-57000000.0,0.28231644260600003,-0.058945191313339994
2015-12-31,968612000.0,-0.000400412796698,584611000.0,384001000.0,0.0,100256000.0,100256000.0,283745000.0,0.0,42342000.0,74675000.0,0.0,0.0,252526000.0,0.0,252526000.0,3.01,3.0,83982000.0,84149000.0,0.0,0.396444603205,0.309011244957,0.292939794262,0.260709138437,0.21319991905900001,299312000.0,283745000.0,252526000.0,0.043714098111500004,0.260709138437
2015-12,969000000.0,0.0631656442795,585000000.0,384000000.0,,100000000.0,100000000.0,284000000.0,0.0,327000000.0,75000000.0,,,253000000.0,,253000000.0,3.01,3.0,84000000.0,84000000.0,,0.39628482972136,0.30856553147575,0.33849329205366,0.26109391124871,,299000000.0,328000000.0,253000000.0,0.33746130030960003,0.26109391124871
2014-12-31,911429000.0,0.0004709110867180001,533862000.0,377567000.0,0.0,109217000.0,109217000.0,268350000.0,0.0,268350000.0,69133000.0,0.0,0.0,249740000.0,0.0,249740000.0,2.98,2.97,83785000.0,83971000.0,0.0,0.41425826915799996,0.31213841121999997,0.294427761241,0.274009275544,0.234995814265,284492000.0,268350000.0,249740000.0,0.294427761241,0.274009275544
2014-12,911000000.0,0.104557055646,534000000.0,378000000.0,,109000000.0,109000000.0,268000000.0,0.0,319000000.0,69000000.0,,,250000000.0,,250000000.0,2.98,2.97,84000000.0,84000000.0,,0.41492864983535,0.31174533479693,0.35016465422613,0.27442371020856,,284000000.0,319000000.0,250000000.0,0.35016465422613,0.27442371020856
2013-12-31,824765000.0,-0.000284848484848,460576000.0,364189000.0,0.0,96587000.0,96587000.0,267602000.0,0.0,267602000.0,66164000.0,0.0,0.0,219658000.0,0.0,219658000.0,5.26,5.24,41791000.0,41882000.0,0.0,0.44156699181000003,0.34200772341200003,0.324458482113,0.266327984335,0.21760258982900002,282076000.0,267602000.0,219658000.0,0.324458482113,0.266327984335
2013-12,825000000.0,0.139655451076,461000000.0,364000000.0,,97000000.0,97000000.0,268000000.0,0.0,286000000.0,66000000.0,,,220000000.0,,220000000.0,2.63,2.62,84000000.0,84000000.0,,0.44121212121212,0.34181818181818,0.34666666666667,0.26666666666667005,,282000000.0,286000000.0,220000000.0,0.34666666666667,0.26666666666667005
2012-12-31,723903000.0,0.126865648408,408919000.0,314984000.0,0.0,103044000.0,103044000.0,211940000.0,0.0,211940000.0,54385000.0,0.0,0.0,185543000.0,0.0,185543000.0,4.45,4.44,41697000.0,41793000.0,2.5418371497599996,0.43511906982,0.31272836277800004,0.29277403188,0.256309201647,0.216096631731,226385000.0,211940000.0,185543000.0,0.29277403188,0.256309201647
2011-12-31,642404000.0,0.0,395455000.0,246949000.0,0.0,108721000.0,108721000.0,138228000.0,0.0,154436000.0,31580000.0,0.0,0.0,122856000.0,0.0,122856000.0,2.95,2.94,41619000.0,41717000.0,0.23951866145700001,0.384413857946,0.24144930604400003,0.215173006395,0.191244139202,0.110242152913,155108000.0,138228000.0,122856000.0,0.24040323534699998,0.191244139202
