,0,1,2,3,4,5,6,7,8,9,10,11,12,13,14,15,16,17,18,19,20,21,22,23,24,25,26,27,28
Date,Cash and cash equivalents,Short-term investments,Cash and short-term investments,Receivables,Inventories,Total current assets,Property Plant & Equipment Net,Goodwill and Intangible Assets,Long-term investments,Tax assets,Total non-current assets,Total assets,Payables,Short-term debt,Total current liabilities,Long-term debt,Total debt,Deferred revenue,Tax Liabilities,Deposit Liabilities,Total non-current liabilities,Total liabilities,Other comprehensive income,Retained earnings (deficit),Total shareholders equity,Investments,Net Debt,Other Assets,Other Liabilities
2019-12-31,12130000000.0,0.0,12130000000.0,22636000000.0,0.0,54761000000.0,130128000000.0,247633000000.0,0.0,0.0,496908000000.0,551669000000.0,45956000000.0,11838000000.0,68911000000.0,151309000000.0,163147000000.0,0.0,1212000000.0,6124000000.0,240232000000.0,349735000000.0,130907000000.0,57936000000.0,201934000000.0,0.0,151017000000.0,0.0,40592000000.0
2018-12-31,5204000000.0,0.0,5204000000.0,26472000000.0,0.0,51427000000.0,131473000000.0,172639000000.0,0.0,0.0,480437000000.0,531864000000.0,43184000000.0,10255000000.0,64420000000.0,166250000000.0,176505000000.0,0.0,1179000000.0,5948000000.0,254342000000.0,337980000000.0,123261000000.0,58753000000.0,193884000000.0,0.0,171301000000.0,0.0,19218000000.0
2017-12-31,50498000000.0,0.0,50498000000.0,16522000000.0,0.0,79146000000.0,125222000000.0,112913000000.0,0.0,0.0,364951000000.0,444097000000.0,34470000000.0,38374000000.0,81389000000.0,125972000000.0,164346000000.0,0.0,1262000000.0,4213000000.0,188926000000.0,302090000000.0,77995000000.0,50500000000.0,142007000000.0,0.0,113848000000.0,0.0,31775000000.0
2016-12-31,5788000000.0,0.0,5788000000.0,16794000000.0,0.0,38369000000.0,124899000000.0,113648000000.0,0.0,0.0,365452000000.0,403821000000.0,31138000000.0,9832000000.0,50576000000.0,113681000000.0,123513000000.0,0.0,2079000000.0,4519000000.0,195557000000.0,279711000000.0,77920000000.0,34734000000.0,124110000000.0,0.0,117725000000.0,0.0,33578000000.0
2015-12-31,5121000000.0,0.0,5121000000.0,16532000000.0,0.0,35992000000.0,124450000000.0,113977000000.0,0.0,0.0,366680000000.0,402672000000.0,30372000000.0,7636000000.0,47816000000.0,118515000000.0,126151000000.0,0.0,2176000000.0,4682000000.0,196954000000.0,279032000000.0,78140000000.0,33671000000.0,123640000000.0,0.0,121030000000.0,0.0,34262000000.0
2014-12-31,8603000000.0,0.0,8603000000.0,14527000000.0,0.0,32028000000.0,112898000000.0,75831000000.0,0.0,1142000000.0,260801000000.0,292829000000.0,23592000000.0,6056000000.0,37282000000.0,76011000000.0,82067000000.0,0.0,1091000000.0,4105000000.0,56456000000.0,205905000000.0,44633000000.0,27736000000.0,86924000000.0,0.0,73464000000.0,0.0,112167000000.0
2014-03-31,3611000000.0,0.0,3611000000.0,13120000000.0,0.0,24089000000.0,112809000000.0,76235000000.0,0.0,1171000000.0,261251000000.0,285340000000.0,22234000000.0,8301000000.0,39830000000.0,71575000000.0,79876000000.0,0.0,2784000000.0,4121000000.0,51216000000.0,193971000000.0,44806000000.0,32402000000.0,91369000000.0,0.0,76265000000.0,0.0,102925000000.0
2013-12-31,3339000000.0,0.0,3339000000.0,12918000000.0,0.0,23196000000.0,110968000000.0,74289000000.0,0.0,1199000000.0,254591000000.0,277787000000.0,21107000000.0,5498000000.0,34995000000.0,69290000000.0,74788000000.0,0.0,1774000000.0,4212000000.0,48748000000.0,186305000000.0,45966000000.0,31141000000.0,91482000000.0,0.0,71449000000.0,0.0,102562000000.0
2012-12-31,4868000000.0,0.0,4868000000.0,12657000000.0,0.0,22706000000.0,109767000000.0,74805000000.0,0.0,1036000000.0,249609000000.0,272315000000.0,20911000000.0,3486000000.0,31787000000.0,66358000000.0,69844000000.0,0.0,1026000000.0,3808000000.0,49459000000.0,179620000000.0,58483000000.0,22481000000.0,92695000000.0,0.0,64976000000.0,0.0,98374000000.0
2011-12-31,3185000000.0,0.0,3185000000.0,13606000000.0,0.0,23027000000.0,107087000000.0,76054000000.0,0.0,1470000000.0,247317000000.0,270344000000.0,19858000000.0,3453000000.0,30794000000.0,61300000000.0,64753000000.0,0.0,1003000000.0,3872000000.0,72453000000.0,164547000000.0,70669000000.0,25453000000.0,105797000000.0,0.0,61568000000.0,0.0,61300000000.0
2010-12-31,1437000000.0,0.0,1437000000.0,13610000000.0,0.0,20854000000.0,103196000000.0,134121000000.0,4515000000.0,1170000000.0,248537000000.0,269391000000.0,20055000000.0,7196000000.0,34854000000.0,58971000000.0,66167000000.0,4086000000.0,23045000000.0,0.0,122587000000.0,157441000000.0,2712000000.0,31792000000.0,111647000000.0,4515000000.0,64730000000.0,5807000000.0,7603000000.0
2009-12-31,3741000000.0,0.0,3741000000.0,14845000000.0,0.0,25187000000.0,99519000000.0,134410000000.0,2921000000.0,1247000000.0,243125000000.0,268312000000.0,21260000000.0,7361000000.0,36951000000.0,64720000000.0,72081000000.0,4170000000.0,25260000000.0,0.0,129372000000.0,166323000000.0,2678000000.0,21944000000.0,101564000000.0,2921000000.0,68340000000.0,6601000000.0,8330000000.0
