,0,1,2,3,4,5,6,7,8,9,10,11,12,13,14,15,16,17,18,19,20,21,22,23,24,25,26,27,28,29,30
Date,Revenue,Revenue Growth,Cost of Revenue,Gross Profit,R&D Expenses,SG&A Expense,Operating Expenses,Operating Income,Interest Expense,Earnings before Tax,Income Tax Expense,Net Income - Non-Controlling int,Net Income - Discontinued ops,Net Income,Preferred Dividends,Net Income Com,EPS,EPS Diluted,Weighted Average Shs Out,Weighted Average Shs Out (Dil),Dividend per Share,Gross Margin,EBITDA Margin,EBIT Margin,Profit Margin,Free Cash Flow margin,EBITDA,EBIT,Consolidated Income,Earnings Before Tax Margin,Net Profit Margin
2019-01-01,505490000.0,0.07218913323830001,471457000.0,34033000.0,0.0,43773000.0,43773000.0,34033000.0,9075000.0,25618000.0,6659000.0,0.0,0.0,18959000.0,0.0,18959000.0,0.5,0.49,38106057.0,38683959.0,0.0,0.0673267522602,0.117717462264,0.0673267522602,0.037506182120300005,0.027300243328299997,59505000.0,34033000.0,18959000.0,0.050679538665500005,0.037506182120300005
2018-01-02,471456000.0,0.0428527504905,430209000.0,41247000.0,0.0,38154000.0,38154000.0,41247000.0,7200000.0,34047000.0,-15824000.0,0.0,0.0,49871000.0,0.0,49871000.0,1.29,1.25,38689508.0,39949907.0,0.0,0.087488546121,0.136150563361,0.087488546121,0.105780815177,0.015189116269600001,64189000.0,41247000.0,49871000.0,0.07221670739160001,0.105780815177
2017-01-03,452083000.0,1.0,408783000.0,43300000.0,0.0,37220000.0,37220000.0,43300000.0,6327000.0,36242000.0,15329000.0,0.0,0.0,20913000.0,0.0,20913000.0,0.54,0.53,38725541.0,39274649.0,0.0,0.09577887246369998,0.14646425545800001,0.09577887246369998,0.0462592046151,0.0258647195316,66214000.0,43300000.0,20913000.0,0.0801666950538,0.0462592046151
2015-12-29,0.0,0.0,0.0,0.0,0.0,0.0,0.0,0.0,0.0,0.0,0.0,0.0,0.0,0.0,0.0,0.0,0.0,0.0,0.0,0.0,0.0,0.0,0.0,0.0,0.0,0.0,0.0,0.0,0.0,0.0,0.0
2014-12-31,0.0,-1.0,0.0,0.0,0.0,861678.0,861678.0,-1397896.0,0.0,-1515896.0,8973.0,0.0,0.0,-1524869.0,0.0,-1524869.0,-0.32,-0.32,4752646.0,4752646.0,0.0,0.0,0.0,0.0,0.0,0.0,-1397896.0,-1397896.0,-1524869.0,0.0,0.0
2013-12-31,370988000.0,,182697000.0,188291000.0,,131900000.0,154926000.0,33365000.0,35613000.0,-6459000.0,80000.0,,,,,-6539000.0,-1.67,-1.67,18750000.0,,,0.5075,,0.0786,,,,29154000.0,,-0.0174,
