,0,1,2,3,4,5,6,7,8,9,10,11,12,13,14,15,16,17,18,19,20,21,22,23,24,25,26,27,28,29,30
Date,Revenue,Revenue Growth,Cost of Revenue,Gross Profit,R&D Expenses,SG&A Expense,Operating Expenses,Operating Income,Interest Expense,Earnings before Tax,Income Tax Expense,Net Income - Non-Controlling int,Net Income - Discontinued ops,Net Income,Preferred Dividends,Net Income Com,EPS,EPS Diluted,Weighted Average Shs Out,Weighted Average Shs Out (Dil),Dividend per Share,Gross Margin,EBITDA Margin,EBIT Margin,Profit Margin,Free Cash Flow margin,EBITDA,EBIT,Consolidated Income,Earnings Before Tax Margin,Net Profit Margin
2019-03-31,669893000.0,0.0120559650589,224169000.0,445724000.0,63238000.0,89971000.0,147721000.0,298003000.0,-58851000.0,356509000.0,74732000.0,345000.0,0.0,281777000.0,0.0,281777000.0,7.23,7.23,39427515.0,38990000.0,12.81,0.6654,0.47200000000000003,0.4443,0.42100000000000004,0.4429,316255000.0,297658000.0,282122000.0,0.5322,0.4206
2018-03-31,661913000.0,-0.24730181364999998,198405000.0,463508000.0,70418000.0,88196000.0,158609000.0,304899000.0,12531000.0,293104000.0,81954000.0,-1071000.0,0.0,211150000.0,0.0,211150000.0,5.26,5.26,40513209.0,40155000.0,0.0,0.7003,0.48700000000000004,0.4617,0.319,0.45,322131000.0,305635000.0,210079000.0,0.4428,0.319
2017-03-31,879387000.0,-0.075060662571,208136000.0,671251000.0,70644000.0,85656000.0,145089000.0,526162000.0,-34636000.0,560136000.0,103780000.0,310000.0,0.0,456356000.0,0.0,456356000.0,11.05,11.05,42765934.0,41301000.0,0.0,0.7633,0.614,0.5976,0.519,0.4666,540329000.0,525500000.0,456666000.0,0.637,0.5189
2016-03-31,950751000.0,0.101752836801,171785000.0,778966000.0,71160000.0,92365000.0,161818000.0,617148000.0,-19672000.0,636245000.0,95313000.0,339000.0,0.0,540932000.0,0.0,540932000.0,12.62,12.62,42833273.0,42832000.0,0.0,0.8193,0.664,0.6485,0.569,0.3956,631421000.0,616573000.0,541271000.0,0.6692,0.569
2015-03-31,862944000.0,0.136521859381,186359000.0,676585000.0,65510000.0,87644000.0,146216000.0,530369000.0,-51311000.0,580316000.0,96059000.0,577000.0,0.0,484257000.0,0.0,484257000.0,11.31,11.31,42832273.0,42834000.0,0.0,0.784,0.631,0.613,0.561,0.4485,544803000.0,529005000.0,484834000.0,0.6725,0.5612
2014-03-31,759285000.0,0.131649859752,179279000.0,580006000.0,55430000.0,91733000.0,148384000.0,431622000.0,-12285000.0,443116000.0,82729000.0,472000.0,0.0,360387000.0,0.0,360387000.0,8.14,8.14,44768087.0,44276000.0,0.0,0.7639,0.589,0.5674,0.475,0.4431,447398000.0,430831000.0,360859000.0,0.5836,0.4746
2013-03-31,670954000.0,0.0,176128000.0,494826000.0,46508000.0,86438000.0,162894000.0,331932000.0,-3931000.0,334005000.0,67799000.0,664000.0,0.0,266206000.0,0.0,266206000.0,5.96,5.95,44476532.0,44678000.0,0.0,0.7375,0.518,0.4919,0.397,0.3565,347839000.0,330074000.0,266870000.0,0.4978,0.3968
2012-03-31,,0.0,,,,,,,,,,,,,,,,,,39232000.0,0.0,,,,,,,,,,
2011-12-31,505668000.0,0.28821124231,176143000.0,329525000.0,30867000.0,93918000.0,124176000.0,205349000.0,-3697000.0,207231000.0,24551000.0,598000.0,0.0,182680000.0,0.0,182680000.0,4.11,4.11,43080457.0,44476000.0,0.0,0.6517,0.44,0.4025,0.361,0.3472,222264000.0,203534000.0,183278000.0,0.4098,0.3613
2010-12-31,392535000.0,0.10282466510800001,159158000.0,233377000.0,36393000.0,107902000.0,143540000.0,89837000.0,11840000.0,74555000.0,10477000.0,473000.0,0.0,64078000.0,0.0,64078000.0,1.59,1.53,29358265.0,44406000.0,0.0,0.5945,0.268,0.2201,0.163,0.1653,105222000.0,86395000.0,64551000.0,0.1899,0.1632
2009-12-31,355936000.0,0.0818,147091000.0,208845000.0,33303000.0,100344000.0,136462000.0,72383000.0,13575000.0,44366000.0,-69657000.0,2728000.0,0.0,114023000.0,0.0,114023000.0,2.91,2.81,29358265.0,40272000.0,0.0,0.5867,0.215,0.1628,0.32,0.1701,76386000.0,57941000.0,116751000.0,0.1246,0.3203
