,0,1,2,3,4,5,6,7,8,9,10,11,12,13,14,15,16,17,18,19,20,21,22,23,24,25,26,27,28,29,30
Date,Revenue,Revenue Growth,Cost of Revenue,Gross Profit,R&D Expenses,SG&A Expense,Operating Expenses,Operating Income,Interest Expense,Earnings before Tax,Income Tax Expense,Net Income - Non-Controlling int,Net Income - Discontinued ops,Net Income,Preferred Dividends,Net Income Com,EPS,EPS Diluted,Weighted Average Shs Out,Weighted Average Shs Out (Dil),Dividend per Share,Gross Margin,EBITDA Margin,EBIT Margin,Profit Margin,Free Cash Flow margin,EBITDA,EBIT,Consolidated Income,Earnings Before Tax Margin,Net Profit Margin
2019-12-31,67380000.0,-0.0481571995649,5101000.0,62279000.0,330000.0,11785000.0,18595000.0,18783000.0,10667000.0,3528000.0,3119000.0,0.0,0.0,-5366000.0,0.0,-5366000.0,-0.1,-0.1,55134000.0,55134000.0,0.0,0.924295043039,0.47567527456200004,0.27876224398899996,-0.0796378747403,0.49277233600500003,32051000.0,18783000.0,-5366000.0,0.0523597506679,-0.0796378747403
2018-12-31,70789000.0,0.24982785713000003,4665000.0,66124000.0,489000.0,14719000.0,15783000.0,25513000.0,10048000.0,4458000.0,2820000.0,0.0,0.0,-5216000.0,0.0,-5216000.0,-0.1,-0.1,50505000.0,50505000.0,0.0,0.93409993078,0.559606718558,0.36040910310900004,-0.0736837644267,0.405359589767,39614000.0,25513000.0,-5216000.0,0.062975886084,-0.0736837644267
2017-12-31,56639000.0,-0.174298418252,0.0,0.0,4723000.0,12817000.0,18664000.0,8233000.0,8838000.0,-18446000.0,2073000.0,0.0,0.0,-23875000.0,0.0,-23875000.0,-0.5,-0.5,48196000.0,48196000.0,0.0,0.0,0.44562933667599997,0.14535920478800002,-0.421529334911,0.315683539611,25240000.0,8233000.0,-23875000.0,-0.32567665389600003,-0.421529334911
2016-12-31,68595000.0,-0.193607166369,0.0,0.0,104000.0,16320000.0,22760000.0,24000.0,11841000.0,-16399000.0,6071000.0,0.0,0.0,-6243000.0,0.0,-6243000.0,-0.51,-0.51,43885000.0,43885000.0,0.0,0.0,0.440994241563,0.00034987972884300005,-0.0910124644653,0.314498141264,30250000.0,24000.0,-6243000.0,-0.239069903054,-0.0910124644653
2015-12-31,85064000.0,-0.39554317548699996,0.0,0.0,370000.0,24138000.0,46420000.0,-14018000.0,13077000.0,-4436000.0,3587000.0,0.0,0.0,-107538000.0,0.0,-107538000.0,-0.65,-0.65,40841000.0,40841000.0,0.0,0.0,0.298199003104,-0.164793567196,-1.26420107213,0.846727170131,25366000.0,-14018000.0,-107538000.0,-0.0521489701872,-1.26420107213
2014-12-31,140728000.0,0.0756800966161,0.0,0.0,4285000.0,31625000.0,56187000.0,15776000.0,6213000.0,42143000.0,1784000.0,0.0,0.0,29076000.0,0.0,29076000.0,0.77,0.77,37829000.0,38031000.0,0.0,0.0,0.46705701779299996,0.112102779831,0.20661133534200002,0.5546302086289999,65728000.0,15776000.0,29076000.0,0.299464214655,0.20661133534200002
2013-12-31,130827000.0,-0.0908983517247,0.0,0.0,0.0,29020000.0,70870000.0,2786000.0,3929000.0,-12164000.0,128000.0,0.0,0.0,-13713000.0,0.0,-13713000.0,-0.36,-0.36,37069000.0,37069000.0,0.0,0.0,0.341045808587,0.0212952983711,-0.10481781283700001,0.5148019904150001,44618000.0,2786000.0,-13713000.0,-0.09297774924139998,-0.10481781283700001
2012-12-31,143908000.0,0.13907137994899998,532000.0,143376000.0,0.0,33947000.0,78980000.0,10505000.0,8340000.0,118000.0,4674000.0,0.0,0.0,16246000.0,0.0,16246000.0,-0.02,-0.02,367415000.0,367415000.0,0.0,0.996303193707,0.2828960169,0.0729980265169,0.112891569614,0.18206770992600002,40711000.0,10505000.0,16246000.0,0.000819968313089,0.112891569614
2011-12-31,126338000.0,0.783075055748,0.0,0.0,0.0,35388000.0,105249000.0,-45642000.0,13464000.0,-78325000.0,2386000.0,0.0,0.0,-115843000.0,0.0,-115843000.0,-0.21,-0.21,0.0,0.0,0.0,0.0,-0.00304738083554,-0.36126897687200005,-0.916929189951,0.3204894806,-385000.0,-45642000.0,-115843000.0,-0.619963906346,-0.916929189951
2010-12-31,70854000.0,1.55348133199,34284000.0,36570000.0,29574000.0,26049000.0,56093000.0,-19523000.0,7055000.0,-69277000.0,469000.0,0.0,40201000.0,-69746000.0,0.0,-69746000.0,-2.2,-2.2,33634298.0,31248800.0,0.0,0.5161,-0.6809999999999999,-0.8782,-0.9840000000000001,-1.5181,-48224000.0,-62222000.0,-69746000.0,-0.9777,-0.9844
2009-12-31,27748000.0,248.982,14448000.0,13300000.0,29392000.0,15227000.0,44783000.0,-31483000.0,2303000.0,-61066000.0,1080000.0,129000.0,21956000.0,-62146000.0,0.0,-62146000.0,-2.9,-2.9,25363667.0,21232000.0,0.0,0.4793,-1.96,-2.1177,-2.24,-3.068,-54392000.0,-58763000.0,-62017000.0,-2.2007,-2.2397
