,0,1,2,3,4,5,6,7,8,9,10,11,12,13,14
Date,Depreciation & Amortization,Stock-based compensation,Operating Cash Flow,Capital Expenditure,Acquisitions and disposals,Investment purchases and sales,Investing Cash flow,Issuance (repayment) of debt,Issuance (buybacks) of shares,Dividend payments,Financing Cash Flow,Effect of forex changes on cash,Net cash flow / Change in cash,Free Cash Flow,Net Cash/Marketcap
2019-05-31,1072959.0,106656.0,2657523.0,472837.0,-0.0,-16509.0,-494365.0,-0.0,-5021481.0,-0.0,50341.0,0.0,2213499.0,2184686.0,0.0
2018-05-31,995924.0,124931.0,304471.0,936833.0,-0.0,-16756.0,-958740.0,-0.0,-2670665.0,-0.0,187658.0,0.0,-466611.0,-632362.0,0.0
2017-05-31,868609.0,177693.0,-1055663.0,1868821.0,-0.0,-22326.0,-1896376.0,-0.0,-3134041.0,-0.0,190893.0,0.0,-2761146.0,-2924484.0,0.0
2016-05-31,818385.0,151184.0,3788077.0,1939378.0,-0.0,-1000000.0,-2944733.0,-0.0,-5739242.0,-0.0,346838.0,0.0,1190182.0,1848699.0,0.0
2015-05-31,740844.0,116069.0,2776316.0,746627.0,-0.0,0.0,-752054.0,-0.0,-4817904.0,-0.0,77994.0,0.0,2102256.0,2029689.0,0.0
2014-05-31,699039.0,112171.0,1984032.0,1355605.0,-0.0,0.0,-1361095.0,-0.0,-2620811.0,-0.0,172831.0,0.0,795768.0,628427.0,0.0
2013-05-31,564262.0,109586.0,5472861.0,3293471.0,-0.0,0.0,-3298999.0,3657.0,-1986157.0,-0.0,-249940.0,0.0,1923922.0,2179390.0,0.0
2012-05-31,0.0,0.0,0.0,0.0,-0.0,0.0,0.0,-0.0,0.0,-0.0,0.0,0.0,0.0,0.0,0.0
2011-05-31,470755.0,80424.0,2395411.0,-386401.0,0.0,0.0,-392016.0,-5484.0,-1964.0,0.0,-7448.0,0.0,1995947.0,2009010.0,0.1152
2010-05-31,442263.0,86259.0,1508691.0,-252326.0,0.0,0.0,-220003.0,-1167485.0,31087.0,0.0,-1136398.0,0.0,152290.0,1256365.0,0.1158
2009-05-31,422495.0,54636.0,594869.0,-675800.0,0.0,0.0,-688997.0,20490.0,8215.0,0.0,28705.0,0.0,-65423.0,-80931.0,-0.1204
