,0,1,2,3,4,5,6,7,8,9,10,11,12,13,14,15,16,17,18,19,20,21,22,23,24,25,26,27,28
Date,Cash and cash equivalents,Short-term investments,Cash and short-term investments,Receivables,Inventories,Total current assets,Property Plant & Equipment Net,Goodwill and Intangible Assets,Long-term investments,Tax assets,Total non-current assets,Total assets,Payables,Short-term debt,Total current liabilities,Long-term debt,Total debt,Deferred revenue,Tax Liabilities,Deposit Liabilities,Total non-current liabilities,Total liabilities,Other comprehensive income,Retained earnings (deficit),Total shareholders equity,Investments,Net Debt,Other Assets,Other Liabilities
2019-12-31,944472000.0,1320692000.0,2265164000.0,13619000.0,0.0,2278783000.0,17538000.0,2315000.0,39154000.0,12538000.0,3378180000.0,5656963000.0,0.0,13401000.0,13739000.0,0.0,13401000.0,0.0,338000.0,5052030000.0,4072000.0,5172466000.0,427707999.0,50742000.0,484497000.0,1359846000.0,-931071000.0,0.0,5154655000.0
2018-12-31,554302000.0,1236324000.0,1790626000.0,12753000.0,0.0,1803379000.0,18895000.0,3846000.0,59273000.0,21622000.0,2634532000.0,4437911000.0,0.0,13401000.0,13739000.0,41674000.0,55075000.0,0.0,338000.0,3935714000.0,43646000.0,4031135000.0,421760999.0,-817000.0,406776000.0,1295597000.0,-499227000.0,0.0,3973750000.0
2017-12-31,908935000.0,1294484000.0,2203419000.0,10900000.0,0.0,2214319000.0,20051000.0,5377000.0,74473000.0,34802000.0,2493828000.0,4708147000.0,0.0,13401000.0,13739000.0,42323000.0,55724000.0,0.0,338000.0,4260842000.0,43416000.0,4383998000.0,418190999.0,-89485000.0,324149000.0,1368957000.0,-853211000.0,0.0,4326843000.0
2016-12-31,999059000.0,1248614000.0,2247673000.0,10589000.0,0.0,2258262000.0,24125000.0,6906000.0,126930000.0,55666000.0,2599852000.0,4858114000.0,0.0,13401000.0,13740000.0,263099000.0,276500000.0,0.0,339000.0,4238304000.0,268342000.0,4559151000.0,415116999.0,-111941000.0,298963000.0,1375544000.0,-722559000.0,0.0,4277069000.0
2015-12-31,1155162000.0,1070098000.0,2225260000.0,9471000.0,0.0,2234731000.0,21631000.0,4929000.0,178520000.0,36207000.0,2531092000.0,4765823000.0,0.0,13401000.0,13741000.0,0.0,13401000.0,0.0,340000.0,4414757000.0,2719000.0,4445822000.0,337543999.0,-15449000.0,320001000.0,1248618000.0,-1141761000.0,0.0,4429362000.0
2014-12-31,1114235000.0,1493639000.0,2607874000.0,11251000.0,0.0,2619125000.0,17697000.0,6228000.0,193595000.0,33673000.0,2367192000.0,4986317000.0,0.0,13401000.0,13714000.0,49000000.0,62401000.0,0.0,313000.0,4621784000.0,57768000.0,4667294000.0,334929999.0,-28242000.0,319023000.0,1687234000.0,-1051834000.0,0.0,4595812000.0
2013-12-31,1237942000.0,1253117000.0,2491059000.0,13131000.0,0.0,2504190000.0,15659000.0,7612000.0,1196515000.0,30415000.0,2201875000.0,4706065000.0,0.0,13401000.0,13753000.0,0.0,13401000.0,0.0,352000.0,4272989000.0,365000.0,4346461000.0,331430999.0,27615000.0,359604000.0,2449632000.0,-1224541000.0,0.0,4332343000.0
2012-12-31,968092000.0,718065000.0,1686157000.0,9857000.0,0.0,1696014000.0,10368000.0,7004000.0,948111000.0,22789000.0,2003645000.0,3699659000.0,0.0,13401000.0,13631000.0,0.0,13401000.0,0.0,230000.0,3313221000.0,5579000.0,3362982000.0,319088999.0,7347000.0,336677000.0,1666176000.0,-954691000.0,0.0,3343772000.0
2011-12-31,749174000.0,,,0.0,0.0,,8358000.0,8004000.0,,21941000.0,,3010681000.0,0.0,,,,46578000.0,0.0,0.0,2682551000.0,,2739202000.0,6429000.0,-9277000.0,271479000.0,2186596000.0,,,
2010-12-31,472319000.0,,,0.0,0.0,,8767000.0,9005000.0,,24365000.0,,2395723000.0,0.0,,,,163784000.0,0.0,0.0,2024097000.0,,2196817000.0,-1791000.0,-18195000.0,198906000.0,1847661000.0,,,
2009-12-31,354459000.0,,,0.0,0.0,,7942000.0,10005000.0,,20875000.0,,2043534000.0,0.0,,,,115989000.0,0.0,0.0,1654509000.0,,1798331000.0,-89000.0,-17175000.0,245203000.0,1619545000.0,,,
