,0,1,2,3,4,5,6,7,8,9,10,11,12,13,14,15,16,17,18,19,20,21,22,23,24,25,26,27,28,29,30
Date,Revenue,Revenue Growth,Cost of Revenue,Gross Profit,R&D Expenses,SG&A Expense,Operating Expenses,Operating Income,Interest Expense,Earnings before Tax,Income Tax Expense,Net Income - Non-Controlling int,Net Income - Discontinued ops,Net Income,Preferred Dividends,Net Income Com,EPS,EPS Diluted,Weighted Average Shs Out,Weighted Average Shs Out (Dil),Dividend per Share,Gross Margin,EBITDA Margin,EBIT Margin,Profit Margin,Free Cash Flow margin,EBITDA,EBIT,Consolidated Income,Earnings Before Tax Margin,Net Profit Margin
2019-12-31,7804000.0,4.49577464789,0.0,0.0,76369000.0,28632000.0,123573000.0,-115769000.0,0.0,-113779000.0,-486000.0,0.0,0.0,-113293000.0,0.0,-113293000.0,-2.2,-2.2,51445539.0,51445539.0,0.0,0.0,-14.228216299300001,-14.8345720144,-14.517298821099999,-10.9814197847,-111037000.0,-115769000.0,-113293000.0,-14.5795745771,-14.517298821099999
2018-12-31,1420000.0,1.0,0.0,0.0,58024000.0,22606000.0,105650000.0,-104230000.0,0.0,-102960000.0,-5565000.0,0.0,0.0,-97395000.0,0.0,-97395000.0,-3.64,-3.64,26945508.0,26945508.0,0.0,0.0,-71.4007042254,-73.4014084507,-68.588028169,-20.2204225352,-101389000.0,-104230000.0,-97395000.0,-72.5070422535,-68.588028169
2017-12-31,0.0,0.0,0.0,0.0,47023000.0,14311000.0,79248000.0,-79248000.0,0.0,-78924000.0,-12481000.0,0.0,0.0,-66443000.0,719000.0,-67162000.0,-8.66,-8.66,44778000.0,7756180.0,0.0,0.0,,0.0,,0.0,-77339000.0,-78924000.0,-66443000.0,0.0,0.0
2016-12-31,0.0,,0.0,0.0,15658000.0,11144000.0,26802000.0,-26802000.0,0.0,-26698000.0,0.0,0.0,0.0,-26698000.0,671000.0,-27369000.0,-18.14,-18.14,44778000.0,1509048.0,0.0,0.0,,0.0,,0.0,-25968000.0,-26698000.0,-26698000.0,0.0,0.0
