,0,1,2,3,4,5,6,7,8,9,10,11,12,13,14
Date,Depreciation & Amortization,Stock-based compensation,Operating Cash Flow,Capital Expenditure,Acquisitions and disposals,Investment purchases and sales,Investing Cash flow,Issuance (repayment) of debt,Issuance (buybacks) of shares,Dividend payments,Financing Cash Flow,Effect of forex changes on cash,Net cash flow / Change in cash,Free Cash Flow,Net Cash/Marketcap
2017-12-31,,6022861.0,7967061.0,-40512.0,0.0,0.0,-40512.0,27505861.0,131996144.0,-77069133.0,76835485.0,0.0,84762034.0,7926549.0,
2016-12-31,,10331464.0,-23135906.0,-70904.0,0.0,0.0,-70904.0,20601849.0,129126224.0,-66476054.0,77679055.0,0.0,54472245.0,-23206810.0,
2015-12-31,,6989341.0,-31234156.0,-57189.0,0.0,0.0,-57189.0,85372640.0,-54967.0,-74752788.0,5147737.0,0.0,-26143608.0,-31291345.0,
2014-12-31,,5840464.0,-188251165.0,-96591.0,0.0,0.0,-96591.0,83779873.0,127730614.0,-74290996.0,133802436.0,0.0,-54545320.0,-188347756.0,
2013-12-31,,3980708.0,127359403.0,-45141.0,0.0,0.0,-45141.0,-8874346.0,0.0,-56735702.0,-66310339.0,0.0,61003923.0,127314262.0,
2012-12-31,,3030757.0,-130560845.0,-30269.0,0.0,0.0,-30269.0,123690000.0,77122974.0,-51789022.0,136023197.0,0.0,5432083.0,-130591114.0,
2011-12-31,,1909808.0,-118212754.0,-37952.0,0.0,0.0,-37952.0,36600000.0,128636252.0,-32370760.0,130298824.0,0.0,12048118.0,-118250706.0,
2010-12-31,,1151576.0,-97452134.0,-38535.0,0.0,0.0,-38535.0,80503918.0,41212968.0,-20914748.0,97110470.0,0.0,-380199.0,-97490669.0,
2009-12-31,,701601.0,-13374086.0,-3194.0,0.0,0.0,-3194.0,6800000.0,47332682.0,-12322468.0,41384414.0,0.0,28007134.0,-13377280.0,
