,0,1,2,3,4,5,6,7,8,9,10,11,12,13,14
Date,Depreciation & Amortization,Stock-based compensation,Operating Cash Flow,Capital Expenditure,Acquisitions and disposals,Investment purchases and sales,Investing Cash flow,Issuance (repayment) of debt,Issuance (buybacks) of shares,Dividend payments,Financing Cash Flow,Effect of forex changes on cash,Net cash flow / Change in cash,Free Cash Flow,Net Cash/Marketcap
2018-12-31,32022000.0,16938000.0,-679715000.0,7651000.0,-0.0,-101558000.0,-1992746000.0,-1100000000.0,-3080065000.0,-9750000.0,2846935000.0,0.0,174474000.0,-687366000.0,0.0
2017-12-31,27871000.0,22019000.0,132161000.0,12265000.0,-0.0,94775000.0,-3215745000.0,-800000000.0,-2905591000.0,-9750000.0,3149823000.0,0.0,66239000.0,119896000.0,0.0
2016-12-31,21814000.0,13578000.0,-726293000.0,2176000.0,-0.0,555000.0,-850210000.0,-500000000.0,-2602885000.0,-9750000.0,2624985000.0,0.0,1048482000.0,-728469000.0,0.0
2015-12-31,16495000.0,12304000.0,68943000.0,5034000.0,-0.0,2430000.0,-2460786000.0,-399995000.0,-1790870000.0,-9750000.0,2852199000.0,0.0,460356000.0,63909000.0,0.0
2014-12-31,14798000.0,14577000.0,151960000.0,9965000.0,-0.0,11150000.0,-2977903000.0,-244979000.0,-1074291000.0,-9750000.0,4002546000.0,0.0,1176603000.0,141995000.0,0.0
2013-12-31,11480000.0,20953000.0,189150000.0,4029000.0,-0.0,15890000.0,-1275875000.0,797002000.0,-153911000.0,-7000000.0,1034288000.0,0.0,-52437000.0,185121000.0,0.0
2012-12-31,0.0,0.0,0.0,0.0,-0.0,0.0,0.0,-0.0,0.0,-0.0,0.0,0.0,0.0,0.0,0.0
2011-12-31,5364000.0,7340000.0,-819322000.0,3286000.0,-0.0,8240000.0,-841531000.0,-1341761000.0,-101258000.0,-0.0,1582245000.0,0.0,-78608000.0,-822608000.0,0.0
