,0,1,2,3,4,5,6,7,8,9,10,11,12,13,14
Date,Depreciation & Amortization,Stock-based compensation,Operating Cash Flow,Capital Expenditure,Acquisitions and disposals,Investment purchases and sales,Investing Cash flow,Issuance (repayment) of debt,Issuance (buybacks) of shares,Dividend payments,Financing Cash Flow,Effect of forex changes on cash,Net cash flow / Change in cash,Free Cash Flow,Net Cash/Marketcap
2019-12-31,2421000.0,329000.0,15690000.0,808000.0,-0.0,18370000.0,-96462000.0,-15066000.0,10583000.0,-2668000.0,80205000.0,0.0,-567000.0,14882000.0,0.0
2018-12-31,2248000.0,474000.0,19400000.0,1777000.0,-0.0,8811000.0,-36190000.0,-55064000.0,-70000.0,-2163000.0,34409000.0,0.0,17619000.0,17623000.0,0.0
2017-12-31,1205000.0,515000.0,10102000.0,779000.0,-0.0,7110000.0,-69564000.0,-20061000.0,-15417000.0,-1804000.0,63616000.0,0.0,4154000.0,9323000.0,0.0
2016-12-31,1035000.0,489000.0,12915000.0,3970000.0,-0.0,4788000.0,-195126000.0,-5058000.0,-865000.0,-1814000.0,182335000.0,0.0,124000.0,8945000.0,0.0
2015-12-31,1194000.0,319000.0,12497000.0,3450000.0,-0.0,7159000.0,-74594000.0,-19055000.0,-1827000.0,-1916000.0,51863000.0,0.0,-10234000.0,9047000.0,0.0
2014-12-31,955000.0,191000.0,10633000.0,2355000.0,-0.0,8111000.0,-66436000.0,-804000.0,-21395000.0,-2055000.0,52657000.0,0.0,-3146000.0,8278000.0,0.0
2013-12-31,734000.0,249000.0,8507000.0,1035000.0,-0.0,9940000.0,-31241000.0,-5051000.0,26851000.0,-1579000.0,35957000.0,0.0,13223000.0,7472000.0,0.0
2012-12-31,904103.0,253466.0,10322468.0,5212864.0,-0.0,11573709.0,-93890549.0,-10047449.0,-409965.0,-1932099.0,92862834.0,0.0,9294753.0,5109604.0,0.0
2011-12-31,904103.0,253466.0,10322468.0,5212864.0,-0.0,11573709.0,-93890549.0,-10047449.0,-409965.0,-1932099.0,92862834.0,0.0,9294753.0,5109604.0,0.0
2010-12-31,1042610.0,0.0,8827462.0,-1187061.0,0.0,-67963938.0,-75128499.0,-17309694.0,123799.0,-2043117.0,64876506.0,0.0,-1424531.0,7640401.0,-0.2183
2009-12-31,1188060.0,0.0,2174584.0,-939751.0,0.0,-100130697.0,-101070448.0,-17735638.0,222288.0,-1953851.0,95669299.0,0.0,-3226565.0,1234833.0,-0.2183
