,0,1,2,3,4,5,6,7,8,9,10,11,12,13,14
Date,Depreciation & Amortization,Stock-based compensation,Operating Cash Flow,Capital Expenditure,Acquisitions and disposals,Investment purchases and sales,Investing Cash flow,Issuance (repayment) of debt,Issuance (buybacks) of shares,Dividend payments,Financing Cash Flow,Effect of forex changes on cash,Net cash flow / Change in cash,Free Cash Flow,Net Cash/Marketcap
2019-12-31,3231000.0,9824000.0,2510000.0,5988000.0,-0.0,3653000.0,-2335000.0,-0.0,-19717000.0,-0.0,2496000.0,0.0,22770000.0,-3478000.0,0.0
2018-12-31,3635000.0,7974000.0,9007000.0,9546000.0,-0.0,-5180000.0,-14726000.0,-0.0,-17385000.0,-0.0,1850000.0,0.0,-3869000.0,-539000.0,0.0
2017-12-31,1849000.0,4235000.0,4192000.0,3820000.0,-0.0,-10689000.0,-14016000.0,-0.0,2644000.0,-0.0,3091000.0,0.0,-6733000.0,372000.0,0.0
2016-12-31,799000.0,1889000.0,7033000.0,833000.0,-0.0,-11011000.0,-11844000.0,-0.0,-30701000.0,-8207000.0,28452000.0,0.0,30701000.0,6200000.0,0.0
2015-12-31,827000.0,316000.0,2399000.0,-592000.0,0.0,0.0,-615000.0,-13000.0,914000.0,0.0,-140000.0,0.0,1644000.0,1807000.0,0.0362
2014-12-31,706000.0,148000.0,-991000.0,-353000.0,0.0,0.0,-353000.0,-9000.0,230000.0,0.0,221000.0,0.0,-1123000.0,-1344000.0,0.0362
