,0,1,2,3,4,5,6,7,8,9,10,11,12,13,14
Date,Depreciation & Amortization,Stock-based compensation,Operating Cash Flow,Capital Expenditure,Acquisitions and disposals,Investment purchases and sales,Investing Cash flow,Issuance (repayment) of debt,Issuance (buybacks) of shares,Dividend payments,Financing Cash Flow,Effect of forex changes on cash,Net cash flow / Change in cash,Free Cash Flow,Net Cash/Marketcap
2019-12-31,188407000.0,6400000.0,253773000.0,0.0,-0.0,0.0,97318000.0,-36912000.0,-102762000.0,-165220000.0,-389387000.0,-1200000.0,-39511000.0,253773000.0,0.0
2018-12-31,179275000.0,9200000.0,293832000.0,0.0,-0.0,0.0,-325536000.0,-778549000.0,-48372000.0,-159858000.0,15543000.0,-5314000.0,-21475000.0,293832000.0,0.0
2017-12-31,167806000.0,10800000.0,279853000.0,0.0,-0.0,0.0,-323685000.0,-308673000.0,-42499000.0,-151828000.0,45728000.0,0.0,1896000.0,279853000.0,0.0
2016-12-31,138139000.0,11800000.0,305023000.0,0.0,-0.0,0.0,-722513000.0,-367527000.0,-40603000.0,-143733000.0,251458000.0,0.0,-166032000.0,305023000.0,0.0
2015-12-31,106355000.0,12100000.0,307685000.0,0.0,-0.0,-252633000.0,-505121000.0,-578790000.0,-252633000.0,-137830000.0,127648000.0,0.0,-69788000.0,307685000.0,0.0
2014-12-31,120207000.0,17100000.0,363686000.0,0.0,-0.0,-17000.0,1292539000.0,-264884000.0,-17000.0,-437665000.0,-1420795000.0,0.0,235430000.0,363686000.0,0.0
2013-12-31,155772000.0,12900000.0,371372000.0,0.0,-0.0,-52287000.0,-371433000.0,-317365000.0,-52287000.0,-127105000.0,8997000.0,0.0,8936000.0,371372000.0,0.0
2012-12-31,149517000.0,11900000.0,324349000.0,0.0,-0.0,0.0,126344000.0,-11462000.0,176882000.0,-111543000.0,-442669000.0,0.0,8024000.0,324349000.0,0.0
2011-12-31,143016000.0,9000000.0,270166000.0,0.0,-0.0,0.0,-368340000.0,-334017000.0,87923000.0,-100286000.0,102916000.0,0.0,4742000.0,270166000.0,0.0
2010-12-31,153876000.0,0.0,264608000.0,0.0,-0.0,0.0,-44842000.0,-0.0,-19291000.0,-101890000.0,-216651000.0,0.0,3115000.0,264608000.0,0.0
2009-12-31,147316000.0,0.0,235646000.0,-54592000.0,25616000.0,-2660000.0,6252000.0,-105048000.0,14737000.0,-110492000.0,-284910000.0,0.0,-43012000.0,181054000.0,-1.0146
