,0,1,2,3,4,5,6,7,8,9,10,11,12,13,14
Date,Depreciation & Amortization,Stock-based compensation,Operating Cash Flow,Capital Expenditure,Acquisitions and disposals,Investment purchases and sales,Investing Cash flow,Issuance (repayment) of debt,Issuance (buybacks) of shares,Dividend payments,Financing Cash Flow,Effect of forex changes on cash,Net cash flow / Change in cash,Free Cash Flow,Net Cash/Marketcap
2018-10-31,1061832061.0687,0.0,4345801526.7176,-448091603.0534,0.0,1630534351.145,1182442748.0916,-548091603.0534,-1025190839.6947,-3537404580.1527,-4982442748.0916,37404580.1527,583206106.8702,3897709923.6641,
2017-10-31,1013964313.4213,0.0,20269200930.9542,-336695112.4903,-1651667959.6587,-12700543056.633001,-14688906128.782,-803723816.9123,-1083010085.3375,-3266873545.3840003,-5457719162.1412,-72924747.8666,49650892.1645,19932505818.4639,
2016-10-31,996274217.5857,0.0,27869597615.4993,-593889716.8405,0.0,-26568554396.4232,-27162444113.2638,1701192250.3726,-218330849.4784,-2837555886.7362,-184053651.2668,38002980.6259,561102831.5946,27275707898.6587,
2015-10-31,954927425.5157,0.0,26972498090.1451,-742551566.0810001,-2229182582.1238,-33018334606.5699,-35990068754.7746,11359052711.9939,103896103.8961,-2631016042.7807,9103132161.9557,199388846.4477,284950343.7739,26229946524.0642,
2014-10-31,1005333333.3333,0.0,23033777777.7778,-736000000.0,-2460444444.4444,-28614222222.2222,-31810666666.6667,11861333333.3333,78222222.2222,-2833777777.7778,7938666666.6667,127111111.1111,-711111111.1111,22297777777.7778,
2013-10-31,995210727.9693,0.0,26134099616.8582,-719348659.0038,-5949233716.4751,-8758620689.6552,-15427203065.1341,-7473180076.6284,-494252873.5632,-2535440613.0268,-10603448275.8621,35440613.0268,138888888.8889,25414750957.8544,
2012-10-31,971000000.0,0.0,13065000000.0,-813000000.0,-6839000000.0,-15857000000.0,-23509000000.0,12624000000.0,165000000.0,-1870000000.0,10780000000.0,4000000.0,340000000.0,12252000000.0,
2011-10-31,1128514056.2249,0.0,16699799196.7871,-302208835.3414,-3238955823.2932,-14030120481.9277,-17571285140.5622,3118473895.5823,941767068.2731,-1842369477.9116,1433734939.7589998,-38152610.4418,524096385.5422,16397590361.4458,
2010-10-31,1169607843.1373,0.0,3021568627.4509997,-754901960.7843,1984313725.4902,-43011764705.8824,-41782352941.1765,8744117647.0588,619607843.1373,-1731372549.0196,38999019607.8431,-81372549.0196,156862745.098,2266666666.6667,
2009-10-31,1161260426.3207,0.0,22838739573.6793,-759962928.6376,0.0,-33170528266.9138,-33930491195.5514,-2298424467.0992,1465245597.7757,-1659870250.2317,11318813716.4041,-147358665.431,79703429.10100001,22078776645.0417,
