,0,1,2,3,4,5,6,7,8,9,10,11,12,13,14,15,16,17,18,19,20,21,22,23,24,25,26,27,28,29,30
Date,Revenue,Revenue Growth,Cost of Revenue,Gross Profit,R&D Expenses,SG&A Expense,Operating Expenses,Operating Income,Interest Expense,Earnings before Tax,Income Tax Expense,Net Income - Non-Controlling int,Net Income - Discontinued ops,Net Income,Preferred Dividends,Net Income Com,EPS,EPS Diluted,Weighted Average Shs Out,Weighted Average Shs Out (Dil),Dividend per Share,Gross Margin,EBITDA Margin,EBIT Margin,Profit Margin,Free Cash Flow margin,EBITDA,EBIT,Consolidated Income,Earnings Before Tax Margin,Net Profit Margin
2019-12-31,0.0,0.0,0.0,0.0,0.0,0.0,0.0,-1100138.0,0.0,3223922.0,690816.0,0.0,0.0,2533106.0,0.0,2533106.0,-0.06,-0.06,7101692.0,7101692.0,0.0,0.0,0.0,0.0,0.0,0.0,-1100138.0,-1100138.0,2533106.0,0.0,0.0
2018-12-31,0.0,0.0,0.0,0.0,0.0,0.0,0.0,-699334.0,0.0,1778728.0,374645.0,0.0,0.0,1404083.0,0.0,1404083.0,-0.08,-0.08,5756638.0,5756638.0,0.0,0.0,0.0,0.0,0.0,0.0,-699334.0,-699334.0,1404083.0,0.0,0.0
2017-12-31,0.0,0.0,0.0,0.0,0.0,0.0,387.0,-387.0,0.0,-387.0,0.0,0.0,0.0,-387.0,0.0,-387.0,0.0,0.0,23025000.0,3250000.0,0.0,0.0,,0.0,,0.0,-387.0,-387.0,-387.0,0.0,0.0
2016-12-31,0.0,,2000.0,-2000.0,,,,-2000.0,,-2000.0,0.0,,,,,-2000.0,0.0,0.0,23025000.0,,,0.0,,,,,,,,0.0,
