,0,1,2,3,4,5,6,7,8,9,10,11,12,13,14,15,16,17,18,19,20,21,22,23,24,25,26,27,28
Date,Cash and cash equivalents,Short-term investments,Cash and short-term investments,Receivables,Inventories,Total current assets,Property Plant & Equipment Net,Goodwill and Intangible Assets,Long-term investments,Tax assets,Total non-current assets,Total assets,Payables,Short-term debt,Total current liabilities,Long-term debt,Total debt,Deferred revenue,Tax Liabilities,Deposit Liabilities,Total non-current liabilities,Total liabilities,Other comprehensive income,Retained earnings (deficit),Total shareholders equity,Investments,Net Debt,Other Assets,Other Liabilities
2019-09-30,1467486000.0,0.0,1467486000.0,1067603000.0,1232649000.0,4865247000.0,756757000.0,10563923000.0,0.0,0.0,11389484000.0,16254731000.0,276590000.0,80213000.0,1538756000.0,16469221000.0,16549434000.0,17840000.0,44370000.0,0.0,17614292000.0,19149636000.0,603456000.0,-3119956000.0,-2894905000.0,0.0,15081948000.0,0.0,-3412000.0
2018-09-30,2073017000.0,0.0,2073017000.0,704310000.0,805292000.0,3657287000.0,388333000.0,8011694000.0,97286000.0,0.0,8540180000.0,12197467000.0,173603000.0,75817000.0,900382000.0,12501946000.0,12577763000.0,0.0,14080000.0,0.0,13105556000.0,14005938000.0,433438000.0,-2246578000.0,-1808471000.0,97286000.0,10504746000.0,0.0,0.0
2017-09-30,650561000.0,0.0,650561000.0,636127000.0,730681000.0,2133552000.0,324924000.0,7463200000.0,0.0,0.0,7842109000.0,9975661000.0,148761000.0,69454000.0,870994000.0,11393620000.0,11463074000.0,0.0,8706000.0,0.0,12055871000.0,12926865000.0,320598000.0,-3187220000.0,-2951204000.0,0.0,10812513000.0,0.0,0.0
2016-09-30,1586994000.0,0.0,1586994000.0,576339000.0,724011000.0,2930697000.0,310580000.0,7443795000.0,0.0,0.0,7795580000.0,10726277000.0,156075000.0,52645000.0,752603000.0,9943191000.0,9995836000.0,0.0,8706000.0,0.0,10625164000.0,11377767000.0,644702000.0,-1146963000.0,-651490000.0,0.0,8408842000.0,0.0,0.0
2015-09-30,714033000.0,0.0,714033000.0,444072000.0,591401000.0,1831962000.0,260684000.0,6226071000.0,0.0,45375000.0,6595088000.0,8427050000.0,142822000.0,43840000.0,658215000.0,8183502000.0,8227342000.0,0.0,6859000.0,0.0,8807141000.0,9465356000.0,774384000.0,-1717232000.0,-1038306000.0,0.0,7513309000.0,0.0,0.0
2014-09-30,819548000.0,0.0,819548000.0,351307000.0,459074000.0,1689576000.0,212108000.0,4039597000.0,0.0,37669000.0,5067272000.0,6756848000.0,115741000.0,39295000.0,585907000.0,7233836000.0,7273131000.0,0.0,13951000.0,0.0,7727040000.0,8312947000.0,618827000.0,-2150293000.0,-1556099000.0,0.0,6453583000.0,0.0,0.0
2013-09-30,564740000.0,0.0,564740000.0,290449000.0,413581000.0,1320495000.0,208964000.0,3829597000.0,0.0,30182000.0,4828384000.0,6148879000.0,106768000.0,31045000.0,322500000.0,5700193000.0,5731238000.0,0.0,6129000.0,0.0,6162760000.0,6485260000.0,673847000.0,-1004244000.0,-336381000.0,0.0,5166498000.0,0.0,0.0
2012-09-30,440524000.0,0.0,440524000.0,235783000.0,320503000.0,1050531000.0,172737000.0,3503116000.0,0.0,29134000.0,4409086000.0,5459617000.0,74178000.0,20500000.0,233915000.0,3598625000.0,3619125000.0,0.0,6932000.0,0.0,4006868000.0,4240783000.0,537135000.0,689229000.0,1218834000.0,0.0,3178601000.0,0.0,0.0
2011-09-30,376183000.0,0.0,376183000.0,189293000.0,265317000.0,870292000.0,150800000.0,3079171000.0,3746531000.0,30844000.0,3643344000.0,4513636000.0,62110000.0,15500000.0,206859000.0,3122875000.0,3138375000.0,0.0,8937000.0,0.0,3495828000.0,3702687000.0,449458000.0,364260000.0,810949000.0,3746531000.0,2762192000.0,0.0,0.0
2010-09-30,234112000.0,0.0,234112000.0,134461000.0,188756000.0,583508000.0,99613000.0,1784502000.0,0.0,15200000.0,2094310000.0,2677818000.0,44226000.0,0.0,113012000.0,1771646000.0,1771646000.0,0.0,0.0,0.0,1971827000.0,2084839000.0,404154000.0,192126000.0,592979000.0,0.0,1537534000.0,0.0,0.0
2009-09-30,190167000.0,0.0,190167000.0,106446000.0,167766000.0,1959686000.0,96751000.0,1835231000.0,0.0,18700000.0,1535526000.0,2454440000.0,44680000.0,0.0,99752000.0,1356761000.0,1356761000.0,0.0,162745000.0,0.0,1535526000.0,1635278000.0,-5509000.0,450647000.0,819162000.0,0.0,1166594000.0,30375000.0,55072000.0
