,0,1,2,3,4,5,6,7,8,9,10,11,12,13,14
Date,Depreciation & Amortization,Stock-based compensation,Operating Cash Flow,Capital Expenditure,Acquisitions and disposals,Investment purchases and sales,Investing Cash flow,Issuance (repayment) of debt,Issuance (buybacks) of shares,Dividend payments,Financing Cash Flow,Effect of forex changes on cash,Net cash flow / Change in cash,Free Cash Flow,Net Cash/Marketcap
2019-12-31,44952000.0,66702000.0,29869000.0,3510000.0,-11187000.0,47100000.0,25013000.0,-0.0,-514353000.0,-0.0,35094000.0,388000.0,514353000.0,26359000.0,0.0
2018-12-31,35602000.0,43769000.0,-4860000.0,4011000.0,-282442000.0,0.0,-257496000.0,-0.0,-93146000.0,-0.0,645612000.0,-2084000.0,423989000.0,-8871000.0,0.0
2017-12-31,33217000.0,30597000.0,-34441000.0,2633000.0,-379356000.0,0.0,-448379000.0,-226440000.0,215737000.0,-0.0,475431000.0,191000.0,42817000.0,-37074000.0,0.0
2016-12-31,8270000.0,7723000.0,-51795000.0,2108000.0,-37013000.0,0.0,26146000.0,-17166000.0,-49765000.0,-0.0,20598000.0,0.0,50015000.0,-53903000.0,0.0
2015-12-31,4863000.0,3075000.0,-47181000.0,6275000.0,-17767000.0,0.0,-108203000.0,-6332000.0,-55066000.0,-0.0,164014000.0,0.0,55066000.0,-53456000.0,0.0
2014-12-31,2320000.0,533000.0,-11359000.0,-1734000.0,-13844000.0,0.0,-15578000.0,19700000.0,379000.0,0.0,70161000.0,0.0,43224000.0,-13093000.0,-0.0253
2013-12-31,754000.0,298000.0,-6053000.0,-1294000.0,-16462000.0,0.0,-17756000.0,3000000.0,524000.0,0.0,18327000.0,0.0,-5482000.0,-7347000.0,-0.0253
