,0,1,2,3,4,5,6,7,8,9,10,11,12,13,14,15,16,17,18,19,20,21,22,23,24,25,26,27,28,29,30
Date,Revenue,Revenue Growth,Cost of Revenue,Gross Profit,R&D Expenses,SG&A Expense,Operating Expenses,Operating Income,Interest Expense,Earnings before Tax,Income Tax Expense,Net Income - Non-Controlling int,Net Income - Discontinued ops,Net Income,Preferred Dividends,Net Income Com,EPS,EPS Diluted,Weighted Average Shs Out,Weighted Average Shs Out (Dil),Dividend per Share,Gross Margin,EBITDA Margin,EBIT Margin,Profit Margin,Free Cash Flow margin,EBITDA,EBIT,Consolidated Income,Earnings Before Tax Margin,Net Profit Margin
2018-12-31,5109000000.0,0.0128865979381,1130000000.0,3979000000.0,0.0,1694000000.0,4904000000.0,205000000.0,172000000.0,221000000.0,46000000.0,0.0,0.0,135000000.0,0.0,135000000.0,1.2,1.17,112000000.0,114000000.0,0.052631578947400004,0.778821687219,0.212957525935,0.0401252691329,0.026423957721700003,0.0471716578587,1088000000.0,205000000.0,135000000.0,0.043256997455500004,0.026423957721700003
2017-12-31,5044000000.0,-0.0117554858934,1195000000.0,3849000000.0,0.0,1686000000.0,5149000000.0,-105000000.0,170000000.0,-122000000.0,-279000000.0,0.0,0.0,153000000.0,0.0,153000000.0,1.39,1.37,111000000.0,112000000.0,0.0,0.763084853291,-0.020816812053900003,-0.020816812053900003,0.0303330689929,0.0,-105000000.0,-105000000.0,153000000.0,-0.024187153053099996,0.0303330689929
2016-12-31,5104000000.0,-0.0139562667194,1240000000.0,3864000000.0,0.0,1759000000.0,5044000000.0,60000000.0,170000000.0,92000000.0,40000000.0,0.0,0.0,43000000.0,0.0,43000000.0,0.39,0.39,110000000.0,111000000.0,0.0,0.7570532915360001,0.0117554858934,0.0117554858934,0.008424764890279999,0.0,60000000.0,60000000.0,43000000.0,0.018025078369900003,0.008424764890279999
2015-12-31,5176241000.0,0.0332977471724,1224031000.0,3952210000.0,0.0,1780463000.0,4779170000.0,397071000.0,141719000.0,434602000.0,171992000.0,0.0,0.0,219037000.0,49000.0,219037000.0,2.02,1.98,108645000.0,109910000.0,0.0,0.763528977882,0.0767103000034,0.0767103000034,0.0423158427129,0.0,397071000.0,397071000.0,219037000.0,0.0839609284034,0.0423158427129
2014-12-31,5009438000.0,0.022076472138900002,1346811000.0,3662627000.0,0.0,1865807000.0,5199302000.0,-189864000.0,111397000.0,-152224000.0,-4932000.0,0.0,0.0,-136355000.0,49000.0,-136355000.0,-1.26,-1.26,108485000.0,108485000.0,0.0,0.73114529015,0.129417711128,-0.03790125758619999,-0.027219620244800003,-0.0807843115335,648310000.0,-189864000.0,-136355000.0,-0.030387440667,-0.027219620244800003
2013-12-31,4901236000.0,-0.0830716537235,2225316000.0,2675920000.0,0.0,1947778000.0,4665877000.0,235359000.0,98811000.0,292864000.0,126043000.0,0.0,0.0,141927000.0,49000.0,141927000.0,1.31,1.29,108490000.0,109132000.0,0.50580947843,0.545968404704,0.256241282811,0.0480203360948,0.0289573895238,-0.0794058886371,1255899000.0,235359000.0,141927000.0,0.059753090853000006,0.0289573895238
2012-12-31,5345277000.0,0.0318129374723,2272570000.0,3072707000.0,0.0,2033901000.0,5161414000.0,183863000.0,86745000.0,196235000.0,73582000.0,0.0,0.0,81861000.0,50000.0,81861000.0,0.75,0.75,108671000.0,108937000.0,0.488034368488,0.57484523253,0.186504272837,0.034397281936900004,0.0153146413179,0.020514371846400002,996917000.0,183863000.0,81861000.0,0.036711848609500004,0.0153146413179
2011-12-31,5180471000.0,0.0388306877978,2041142000.0,3139329000.0,0.0,2011861000.0,4817969000.0,362502000.0,118201000.0,363745000.0,113503000.0,0.0,0.0,200566000.0,50000.0,200566000.0,1.85,1.83,108562000.0,109100000.0,0.44610449129199997,0.605992968593,0.221432954648,0.06997471851499999,0.038715784723,0.0548120045455,1147127000.0,362502000.0,200566000.0,0.070214658088,0.038715784723
2010-12-31,4986829000.0,-0.006596489243010001,1911554000.0,3075275000.0,0.0,2011772000.0,4696837000.0,289992000.0,115220000.0,281265000.0,92283000.0,0.0,0.0,143856000.0,50000.0,143856000.0,1.37,1.36,105111000.0,105506000.0,0.44738687847099995,0.616679457026,0.21285530344,0.058151582899699995,0.028847189266,0.0735764149924,1061473000.0,289992000.0,143856000.0,0.0564015730237,0.028847189266
2009-12-31,5019943000.0,-0.013999999999999999,1870663000.0,3149280000.0,0.0,1964431000.0,2741436000.0,407844000.0,126209000.0,326886000.0,135539000.0,58602000.0,0.0,191347000.0,51000.0,191296000.0,1.67,1.67,115754025.0,114354000.0,0.405,0.6274,0.239,0.0903,0.038,0.0876,1197342000.0,453095000.0,249949000.0,0.0651,0.0381
