,0,1,2,3,4,5,6,7,8,9,10,11,12,13,14
Date,Depreciation & Amortization,Stock-based compensation,Operating Cash Flow,Capital Expenditure,Acquisitions and disposals,Investment purchases and sales,Investing Cash flow,Issuance (repayment) of debt,Issuance (buybacks) of shares,Dividend payments,Financing Cash Flow,Effect of forex changes on cash,Net cash flow / Change in cash,Free Cash Flow,Net Cash/Marketcap
2018-12-31,0.0,0.0,15428735632.1839,-9867816091.954,29885057.4713,-144827586.2069,-9982758620.6897,-496551724.1379,-209195402.2989,-3211494252.8736,-4459770114.9425,-280459770.1149,574712643.6782,5560919540.2299,-1.2111
2017-12-31,0.0,0.0,16561824729.892,-10794717887.1549,-105642256.9028,-1398559423.7695,-12298919567.8271,-196878751.5006,2301320528.2113,-2951980792.3169,-2103241296.5186,-409363745.4982,1747899159.6639,5767106842.7371,-1.3077
2016-12-31,0.0,0.0,14040000000.0,-9670526315.7895,750526315.7895,280000000.0,-8640000000.0,680000000.0,-4210526.3158,-3058947368.4211,-4442105263.1579,194736842.1053,1180000000.0,4369473684.2105,-1.3077
2015-12-31,0.0,0.0,14782844733.9848,-11135722041.2595,-3069489685.1249,180238870.7926,-14024972855.5917,-3558089033.6591,2786102062.975,-3013029315.9609,-3921824104.2345,-1085776330.076,-4249728555.9175,3647122692.7253,-1.3077
2014-12-31,0.0,0.0,14761501210.6538,-10732445520.5811,-1700968523.0024,365617433.41400003,-12067796610.1695,-6025423728.8136,3978208232.4455,-2818401937.0459995,-4892251815.9806,-1956416464.891,-4174334140.4358,4029055690.0726,-1.3077
2013-12-31,0.0,0.0,19730398899.5873,-10825309491.0591,-148555708.3906,-861072902.3384,-13617606602.4759,-4199449793.6726,3481430536.4512,-3001375515.8184,-3693259972.4897,-2019257221.458,178817056.3961,8905089408.5282,-1.3077
2012-12-31,0.0,0.0,20069920844.3272,-11269129287.5989,2356200527.7045,-1478891820.5805,-10391820580.4749,1812664907.6517,865435356.2005,-4317941952.5066,-1639841688.6544,-503957783.6412,7535620052.7704,8800791556.7282,-1.3077
2011-12-31,0.0,0.0,22646373056.9948,-10717616580.3109,-3813471502.5907,-1656735751.2953,-16187823834.1969,3955958549.2228,-516839378.2383,-9801813471.5026,-6362694300.5181,-218911917.0984,-110103626.94299999,11928756476.6839,-1.3077
2010-12-31,0.0,0.0,22288770053.4759,-11536096256.6845,-6941176470.5882,-2727272727.2727,-21204545454.5455,2518716577.5401,-1180481283.4225,-8354278074.8663,-7016042780.7487,-618983957.2193,-6541443850.2674,10752673796.7914,-1.3077
2009-12-31,0.0,0.0,23167862266.857998,-10546628407.4605,-20086083.2138,-2776183644.1894,-13342898134.8637,5027259684.3615,-1358680057.3888,-6941176470.5882,-3272596843.6155,385939741.7504,6938307030.1291,12621233859.3974,-1.3077
