,0,1,2,3,4,5,6,7,8,9,10,11,12,13,14,15,16,17,18,19,20,21,22,23,24,25,26,27,28,29,30
Date,Revenue,Revenue Growth,Cost of Revenue,Gross Profit,R&D Expenses,SG&A Expense,Operating Expenses,Operating Income,Interest Expense,Earnings before Tax,Income Tax Expense,Net Income - Non-Controlling int,Net Income - Discontinued ops,Net Income,Preferred Dividends,Net Income Com,EPS,EPS Diluted,Weighted Average Shs Out,Weighted Average Shs Out (Dil),Dividend per Share,Gross Margin,EBITDA Margin,EBIT Margin,Profit Margin,Free Cash Flow margin,EBITDA,EBIT,Consolidated Income,Earnings Before Tax Margin,Net Profit Margin
2019-12-31,941240000.0,0.22785916485100002,279896000.0,661344000.0,0.0,81063000.0,827810000.0,113430000.0,0.0,-194687000.0,11898000.0,0.0,0.0,-148684000.0,0.0,-148684000.0,-0.7,-0.7,213275000.0,213275000.0,0.804140194584,0.7026305724359999,0.639267349454,0.12051124049100001,-0.157966087289,0.323449917131,601704000.0,113430000.0,-148684000.0,-0.20684097573399998,-0.157966087289
2018-12-31,766570000.0,0.255702564086,220907000.0,545663000.0,0.0,87722000.0,696591000.0,69979000.0,0.0,-167088000.0,-12290000.0,0.0,0.0,12380000.0,0.0,12380000.0,0.07,0.07,182239000.0,182239000.0,0.742069480188,0.71182409956,0.602152445308,0.09128846680670001,0.016149862374,0.330303820917,461592000.0,69979000.0,12380000.0,-0.217968352531,0.016149862374
2017-12-31,610471000.0,-0.0673509982339,150733000.0,459738000.0,0.0,139874000.0,569748000.0,40723000.0,0.0,-255944000.0,-23080000.0,0.0,0.0,-164189000.0,0.0,-164189000.0,-1.65,-1.65,103866000.0,103866000.0,2.7487050622900004,0.753087370244,0.574553090974,0.0667075094476,-0.268954626837,0.11007402480999999,350748000.0,40723000.0,-164189000.0,-0.419256606784,-0.268954626837
2016-12-31,654556000.0,0.39413766810199996,113302000.0,541254000.0,0.0,89995000.0,565579000.0,88977000.0,0.0,-241013000.0,494000.0,0.0,0.0,-129847000.0,0.0,-129847000.0,-1.47,-1.47,90815000.0,90815000.0,0.0,0.826902511015,0.606091762966,0.135934893271,-0.198374165083,0.293036806629,396721000.0,88977000.0,-129847000.0,-0.36820837331,-0.198374165083
2015-12-31,469506000.0,2.73026441238,70468000.0,399038000.0,0.0,55811000.0,463992000.0,5514000.0,0.0,-221376000.0,-13241000.0,0.0,0.0,-79886000.0,0.0,-79886000.0,-1.25,-1.25,65883000.0,65883000.0,1.34640195498,0.849910331284,0.424182012583,0.011744258859299998,-0.170149050278,0.26466115449,199156000.0,5514000.0,-79886000.0,-0.47150835133100005,-0.170149050278
2014-12-31,125864000.0,5.72494122676,10544000.0,115320000.0,0.0,20984000.0,119750000.0,6114000.0,0.0,-85114000.0,-4689000.0,0.0,0.0,-25617000.0,0.0,-25617000.0,-0.87,-0.87,29602000.0,29602000.0,0.244882102561,0.916227038708,0.608005466218,0.0485762410221,-0.203529206127,0.656089112057,76526000.0,6114000.0,-25617000.0,-0.6762378440219999,-0.203529206127
2013-12-31,18716000.0,0.19255766535,2180000.0,16536000.0,0.0,5447000.0,11178000.0,5358000.0,8129000.0,-2000000.0,-88000.0,0.0,0.0,-1912000.0,-1912000.0,0.0,,,,,0.0,0.8835,0.634,0.3275,0.0,-11.6591,11860000.0,6129000.0,-1912000.0,-0.1069,-0.1022
2012-12-31,15694000.0,,1517000.0,14177000.0,0.0,4602000.0,8869000.0,5308000.0,5702000.0,-394000.0,-1270000.0,0.0,0.0,876000.0,0.0,876000.0,,,,,0.0,0.9033,0.61,0.3382,0.055999999999999994,0.0393,9575000.0,5308000.0,876000.0,-0.0251,0.0558
