,0,1,2,3,4,5,6,7,8,9,10,11,12,13,14,15,16,17,18,19,20,21,22,23,24,25,26,27,28
Date,Cash and cash equivalents,Short-term investments,Cash and short-term investments,Receivables,Inventories,Total current assets,Property Plant & Equipment Net,Goodwill and Intangible Assets,Long-term investments,Tax assets,Total non-current assets,Total assets,Payables,Short-term debt,Total current liabilities,Long-term debt,Total debt,Deferred revenue,Tax Liabilities,Deposit Liabilities,Total non-current liabilities,Total liabilities,Other comprehensive income,Retained earnings (deficit),Total shareholders equity,Investments,Net Debt,Other Assets,Other Liabilities
2019-12-31,19065000000.0,74727000000.0,93792000000.0,0.0,0.0,93792000000.0,3712000000.0,27296000000.0,14981000000.0,2747000000.0,379286000000.0,473078000000.0,0.0,18218000000.0,18218000127.0,41339000000.0,59557000000.0,0.0,127.0,334727000000.0,42351000000.0,473047000000.0,0.0,19806000000.0,31000000.0,89708000000.0,40492000000.0,0.0,412477999873.0
2018-12-31,3987000000.0,25038000000.0,29025000000.0,0.0,0.0,29025000000.0,2118000000.0,10576000000.0,984000000.0,0.0,196672000000.0,225697000000.0,0.0,5178000000.0,5178000000.0,23709000000.0,28887000000.0,0.0,0.0,161199000000.0,23810000000.0,195519000000.0,9958000000.0,18118000000.0,30178000000.0,26022000000.0,24900000000.0,0.0,166531000000.0
2017-12-31,2713000000.0,24547000000.0,27260000000.0,0.0,0.0,27260000000.0,2055000000.0,10329000000.0,343000000.0,0.0,194382000000.0,221642000000.0,0.0,4938000000.0,4939000000.0,23648000000.0,28586000000.0,0.0,1000000.0,157371000000.0,23800000000.0,191947000000.0,10993000000.0,16259000000.0,29695000000.0,24890000000.0,25873000000.0,0.0,163208000000.0
2016-12-31,3936000000.0,26926000000.0,30862000000.0,21000000.0,0.0,30883000000.0,2107000000.0,10492000000.0,1895000000.0,90000000.0,188393000000.0,219276000000.0,0.0,1406000000.0,1407000000.0,21965000000.0,23371000000.0,0.0,1000000.0,160234000000.0,23840000000.0,189350000000.0,12202000000.0,14809000000.0,29926000000.0,28821000000.0,19435000000.0,0.0,164103000000.0
2015-12-31,3711000000.0,25297000000.0,29008000000.0,0.0,0.0,29008000000.0,2007000000.0,9234000000.0,1435000000.0,-55000000.0,180939000000.0,209947000000.0,0.0,3593000000.0,4019000000.0,23769000000.0,27362000000.0,0.0,426000000.0,149124000000.0,25718000000.0,182607000000.0,11002000000.0,13464000000.0,27340000000.0,26732000000.0,23651000000.0,0.0,152870000000.0
2014-12-31,2325000000.0,20907000000.0,23232000000.0,123000000.0,0.0,23355000000.0,1827000000.0,7374000000.0,529000000.0,-193000000.0,163459000000.0,186814000000.0,40000000.0,3717000000.0,4260000000.0,23312000000.0,27029000000.0,0.0,503000000.0,129040000000.0,25095000000.0,162388000000.0,9208000000.0,12366000000.0,24426000000.0,21436000000.0,24704000000.0,0.0,133033000000.0
2013-12-31,2165000000.0,22104000000.0,24269000000.0,464000000.0,0.0,24733000000.0,1869000000.0,7383000000.0,452000000.0,-153000000.0,158277000000.0,183010000000.0,50000000.0,4138000000.0,4832000000.0,21493000000.0,25631000000.0,0.0,644000000.0,127475000000.0,23175000000.0,160201000000.0,8825000000.0,11044000000.0,22809000000.0,22556000000.0,23466000000.0,0.0,132194000000.0
2012-12-31,3753000000.0,25137000000.0,28890000000.0,479000000.0,0.0,29369000000.0,1888000000.0,7477000000.0,1659000000.0,51000000.0,154503000000.0,183872000000.0,0.0,2864000000.0,3161000000.0,19114000000.0,21978000000.0,0.0,297000000.0,133075000000.0,20854000000.0,162649000000.0,8154000000.0,10129000000.0,21223000000.0,26796000000.0,18225000000.0,0.0,138634000000.0
2011-12-31,4344000000.0,22313000000.0,26657000000.0,1100000000.0,0.0,27757000000.0,1855000000.0,6522000000.0,2646000000.0,642000000.0,146822000000.0,174579000000.0,72000000.0,3566000000.0,3939000000.0,21803000000.0,25369000000.0,0.0,301000000.0,124939000000.0,23227000000.0,157099000000.0,5935000000.0,8772000000.0,17480000000.0,24959000000.0,21025000000.0,0.0,129933000000.0
2010-12-31,212000000.0,104000000.0,316000000.0,1922000000.0,0.0,2238000000.0,1840000000.0,6516000000.0,931000000.0,2194000000.0,25359000000.0,27597000000.0,3000000.0,806000000.0,1101000000.0,6254000000.0,7060000000.0,0.0,292000000.0,107213000000.0,7592000000.0,11099000000.0,5838000000.0,7935000000.0,16498000000.0,1035000000.0,6848000000.0,0.0,2406000000.0
