,0,1,2,3,4,5,6,7,8,9,10,11,12,13,14,15,16,17,18,19,20,21,22,23,24,25,26,27,28,29,30
Date,Revenue,Revenue Growth,Cost of Revenue,Gross Profit,R&D Expenses,SG&A Expense,Operating Expenses,Operating Income,Interest Expense,Earnings before Tax,Income Tax Expense,Net Income - Non-Controlling int,Net Income - Discontinued ops,Net Income,Preferred Dividends,Net Income Com,EPS,EPS Diluted,Weighted Average Shs Out,Weighted Average Shs Out (Dil),Dividend per Share,Gross Margin,EBITDA Margin,EBIT Margin,Profit Margin,Free Cash Flow margin,EBITDA,EBIT,Consolidated Income,Earnings Before Tax Margin,Net Profit Margin
2018-12-31,510762000.0,0.18047222402,153565000.0,357197000.0,0.0,28512000.0,209388000.0,147809000.0,128303000.0,31582000.0,3213000.0,-1494000.0,0.0,28369000.0,25754000.0,2615000.0,0.03,0.03,79626819.0,79672435.0,0.56,0.6993,0.557,0.313,0.005,-1.0307,284263000.0,159885000.0,26875000.0,0.0618,0.0555
2017-12-31,432676000.0,0.09139247913960001,109741000.0,322935000.0,0.0,18141000.0,174286000.0,148649000.0,80937000.0,34789000.0,824000.0,14946000.0,0.0,33965000.0,14379000.0,19586000.0,0.25,0.25,79571820.0,79617778.0,0.56,0.7464,0.511,0.2675,0.045,-1.0846,221271000.0,115726000.0,48911000.0,0.0804,0.0785
2016-12-31,396444000.0,-0.00388702257086,89546000.0,306898000.0,0.0,19199000.0,153717000.0,153181000.0,58844000.0,141424000.0,973000.0,17514000.0,0.0,140451000.0,5474000.0,134977000.0,1.7,1.69,79551012.0,79568352.0,0.56,0.7741,0.746,0.5052,0.34,-0.1441,295810000.0,200268000.0,157965000.0,0.3567,0.3543
2015-12-31,397991000.0,-0.0122528094349,95247000.0,302744000.0,0.0,25118000.0,121372000.0,181372000.0,43259000.0,203605000.0,2722000.0,16627000.0,0.0,200883000.0,26276000.0,174607000.0,2.21,2.21,78353354.0,78896767.0,2.8,0.7607,0.852,0.6203,0.439,0.12,339117000.0,246864000.0,217510000.0,0.5116,0.5047
2014-12-31,402928000.0,0.00914655526503,99129000.0,303799000.0,0.0,23860000.0,119976000.0,183823000.0,60414000.0,213005000.0,7567000.0,13489000.0,0.0,205438000.0,31187000.0,174251000.0,2.3,2.3,74196294.0,75664435.0,2.767,0.754,0.912,0.6786,0.43200000000000005,0.0056,367546000.0,273419000.0,218927000.0,0.5286,0.5099
2013-12-31,399276000.0,0.016228047849299997,102806000.0,296470000.0,0.0,20444000.0,120114000.0,176356000.0,55703000.0,206398000.0,5156000.0,12073000.0,0.0,201242000.0,25365000.0,175877000.0,2.48,2.48,69683763.0,70965496.0,2.7,0.7425,0.902,0.6564,0.44,-0.4624,359985000.0,262101000.0,213315000.0,0.5169,0.504
2012-12-31,392900000.0,0.0326728327406,96308000.0,296592000.0,0.0,18960000.0,148801000.0,147791000.0,54211000.0,124330000.0,625000.0,15437000.0,0.0,123705000.0,21303000.0,102402000.0,1.54,1.54,64857900.0,66328496.0,2.655,0.7549,0.71,0.4544,0.261,0.3872,279015000.0,178541000.0,139142000.0,0.3164,0.3149
2011-12-31,380469000.0,0.0172750315501,98566000.0,281903000.0,0.0,15987000.0,108400000.0,173503000.0,49880000.0,98137000.0,781000.0,0.0,0.0,97356000.0,11474000.0,97356000.0,1.33,1.33,55106100.0,59147422.0,2.52,0.7409,0.632,0.389,0.256,0.1508,240430000.0,148017000.0,97356000.0,0.2579,0.2559
2010-12-31,374008000.0,0.0902497609664,86619000.0,287389000.0,0.0,23247000.0,108429000.0,178960000.0,49019000.0,89294000.0,1670000.0,5320000.0,0.0,87624000.0,8896000.0,78728000.0,1.48,1.48,52339849.0,53297626.0,2.37,0.7684,0.609,0.3698,0.21,0.3966,227660000.0,138313000.0,92944000.0,0.2387,0.2343
2009-12-31,343048000.0,0.0911,84408000.0,258640000.0,0.0,19764000.0,105700000.0,152940000.0,60457000.0,48019000.0,694000.0,34612000.0,0.0,47325000.0,5180000.0,42145000.0,0.85,0.85,44389249.0,49672106.0,2.28,0.7539,0.557,0.3162,0.12300000000000001,0.1063,191162000.0,108476000.0,81937000.0,0.14,0.138
