,0,1,2,3,4,5,6,7,8,9,10,11,12,13,14,15,16,17,18,19,20,21,22,23,24,25,26,27,28,29,30
Date,Revenue,Revenue Growth,Cost of Revenue,Gross Profit,R&D Expenses,SG&A Expense,Operating Expenses,Operating Income,Interest Expense,Earnings before Tax,Income Tax Expense,Net Income - Non-Controlling int,Net Income - Discontinued ops,Net Income,Preferred Dividends,Net Income Com,EPS,EPS Diluted,Weighted Average Shs Out,Weighted Average Shs Out (Dil),Dividend per Share,Gross Margin,EBITDA Margin,EBIT Margin,Profit Margin,Free Cash Flow margin,EBITDA,EBIT,Consolidated Income,Earnings Before Tax Margin,Net Profit Margin
2020-02-01,77130000000.0,0.0235415892563,54864000000.0,22266000000.0,0.0,16233000000.0,16233000000.0,4658000000.0,477000000.0,4190000000.0,921000000.0,0.0,0.0,3281000000.0,0.0,3281000000.0,6.42,6.36,510900000.0,515600000.0,2.57951900698,0.288681446908,0.09415272915860001,0.06039154673930001,0.042538571243400006,0.053027356411300006,7262000000.0,4658000000.0,3281000000.0,0.05432386879290001,0.042538571243400006
2019-02-02,75356000000.0,0.0483729601135,53299000000.0,22057000000.0,0.0,15723000000.0,15723000000.0,4110000000.0,461000000.0,3676000000.0,746000000.0,0.0,0.0,2937000000.0,0.0,2937000000.0,5.55,5.51,528600000.0,533200000.0,2.50375093773,0.292703965179,0.08737194118580001,0.054541111524,0.038974998673,0.0326052338235,6584000000.0,4110000000.0,2937000000.0,0.0487817824725,0.038974998673
2018-02-03,71879000000.0,0.0343046262321,51125000000.0,20754000000.0,0.0,14248000000.0,14248000000.0,3646000000.0,666000000.0,3646000000.0,718000000.0,0.0,0.0,2934000000.0,0.0,2934000000.0,5.36,5.33,546800000.0,550300000.0,2.43140105397,0.288735235604,0.08473963188139999,0.0507241336134,0.0408185979215,0.0610748619207,6091000000.0,3646000000.0,2934000000.0,0.0507241336134,0.0408185979215
2017-01-28,69495000000.0,-0.05814189875990001,48872000000.0,20623000000.0,0.0,13356000000.0,13356000000.0,3965000000.0,1004000000.0,3965000000.0,1296000000.0,0.0,0.0,2737000000.0,0.0,2737000000.0,4.74,4.7,577600000.0,582500000.0,2.3141630901299997,0.296755162242,0.0901215914814,0.05705446434999999,0.0393841283546,0.055960860493599995,6263000000.0,3965000000.0,2737000000.0,0.05705446434999999,0.0393841283546
2016-01-30,73785000000.0,0.0160703957696,51997000000.0,21788000000.0,0.0,14665000000.0,14665000000.0,4923000000.0,607000000.0,4923000000.0,1602000000.0,0.0,0.0,3363000000.0,0.0,3363000000.0,5.35,5.31,627700000.0,632900000.0,2.15199873598,0.29529037067200004,0.0967134241377,0.0667208782273,0.0455783695873,0.0597140340178,7136000000.0,4923000000.0,3363000000.0,0.0667208782273,0.0455783695873
2015-01-31,72618000000.0,0.00030304699983499996,51278000000.0,21340000000.0,0.0,14676000000.0,14676000000.0,3653000000.0,882000000.0,3653000000.0,1204000000.0,0.0,0.0,-1636000000.0,0.0,-1636000000.0,-2.58,-2.56,634700000.0,640100000.0,1.8825183565099999,0.293866534468,0.0796221322537,0.0503043322592,-0.022528849596500002,0.03653364179680001,5782000000.0,3653000000.0,-1636000000.0,0.0503043322592,-0.022528849596500002
2014-02-01,72596000000.0,-0.00961787697303,51160000000.0,21436000000.0,0.0,15375000000.0,15375000000.0,3103000000.0,1126000000.0,3103000000.0,1132000000.0,0.0,0.0,1971000000.0,0.0,1971000000.0,3.1,3.07,635100000.0,641800000.0,1.5674665004700001,0.295277976748,0.07336492368730001,0.042743401840300004,0.027150256212499998,0.0422475067497,5326000000.0,3103000000.0,1971000000.0,0.042743401840300004,0.027150256212499998
2013-02-02,73301000000.0,0.0491805625134,50568000000.0,22733000000.0,0.0,14914000000.0,14914000000.0,4609000000.0,762000000.0,4609000000.0,1610000000.0,0.0,0.0,2999000000.0,0.0,2999000000.0,4.57,4.52,656700000.0,663300000.0,1.31011608624,0.310132194649,0.0920996985034,0.0628777233598,0.0409134936768,0.0279395915472,6751000000.0,4609000000.0,2999000000.0,0.0628777233598,0.0409134936768
2012-01-28,69865000000.0,0.0367265172874,47860000000.0,22005000000.0,0.0,14106000000.0,14106000000.0,4456000000.0,866000000.0,4456000000.0,1527000000.0,0.0,0.0,2929000000.0,0.0,2929000000.0,4.31,4.28,679100000.0,683900000.0,1.09665155725,0.314964574537,0.0942818292421,0.06378014742719999,0.041923710012199994,0.0152579975667,6587000000.0,4456000000.0,2929000000.0,0.06378014742719999,0.041923710012199994
2011-01-29,67390000000.0,0.0311060789204,45725000000.0,21665000000.0,0.0,13469000000.0,13469000000.0,4495000000.0,757000000.0,4495000000.0,1575000000.0,0.0,0.0,2920000000.0,0.0,2920000000.0,4.03,4.0,723600000.0,729400000.0,0.834932821497,0.321486867488,0.0976257604986,0.0667012909927,0.0433298709007,0.0466241282089,6579000000.0,4495000000.0,2920000000.0,0.0667012909927,0.0433298709007
2010-01-30,65357000000.0,0.0,44062000000.0,21295000000.0,0.0,13078000000.0,13078000000.0,3872000000.0,801000000.0,3872000000.0,1384000000.0,0.0,0.0,2488000000.0,0.0,2488000000.0,3.31,3.3,752000000.0,754800000.0,0.6571277159510001,0.3258258488,0.0901969184632,0.0592438453417,0.0380678427712,0.06352800771150001,5895000000.0,3872000000.0,2488000000.0,0.0592438453417,0.0380678427712
