,0,1,2,3,4,5,6,7,8,9,10,11,12,13,14,15,16,17,18,19,20,21,22,23,24,25,26,27,28
Date,Cash and cash equivalents,Short-term investments,Cash and short-term investments,Receivables,Inventories,Total current assets,Property Plant & Equipment Net,Goodwill and Intangible Assets,Long-term investments,Tax assets,Total non-current assets,Total assets,Payables,Short-term debt,Total current liabilities,Long-term debt,Total debt,Deferred revenue,Tax Liabilities,Deposit Liabilities,Total non-current liabilities,Total liabilities,Other comprehensive income,Retained earnings (deficit),Total shareholders equity,Investments,Net Debt,Other Assets,Other Liabilities
2018-12-31,188356000.0,0.0,188356000.0,0.0,0.0,190044000.0,1382000.0,0.0,0.0,0.0,1462000.0,191506000.0,2228000.0,0.0,7042000.0,0.0,0.0,0.0,0.0,0.0,104000.0,7146000.0,0.0,-69478000.0,184360000.0,0.0,-188356000.0,1688000.0,4814000.0
2017-12-31,3661000.0,0.0,3661000.0,0.0,0.0,3727000.0,692000.0,0.0,0.0,0.0,742000.0,4469000.0,469000.0,0.0,881000.0,0.0,0.0,0.0,0.0,0.0,13000.0,894000.0,0.0,-12869000.0,-12528000.0,0.0,-3661000.0,66000.0,412000.0
2016-12-31,4129000.0,0.0,4129000.0,0.0,0.0,4144000.0,431000.0,0.0,0.0,0.0,431000.0,4575000.0,143000.0,0.0,230000.0,0.0,0.0,0.0,0.0,0.0,11105000.0,11335000.0,0.0,-7019000.0,-6760000.0,0.0,-4129000.0,15000.0,87000.0
2015-01-03,,,230478000.0,,,,,,,,,,,,,,,,,,,,,,,,-230478000.0,38963000.0,68818000.0
2013-12-28,,,305790000.0,,,,,,,,,,,,,,,,,,,,,,,,-305790000.0,28166000.0,56722000.0
2012-12-29,,,249748000.0,,,,,,,,,,,,,,,,,,,,,,,,-249748000.0,29738000.0,48727000.0
2011-12-31,,,193414000.0,,,,,,,,,,,,,,,,,,,,,,,,-193414000.0,28868000.0,30675000.0
2011-01-01,,,448143000.0,,,,,,,,,,,,,,,,,,,,,,,,-309978000.0,24921000.0,35357000.0
2010-01-02,,,306961000.0,,,,,,,,,,,,,,,,,,,,,,,,-175032000.0,82555000.0,41883000.0
