,0,1,2,3,4,5,6,7,8,9,10,11,12,13,14
Date,Depreciation & Amortization,Stock-based compensation,Operating Cash Flow,Capital Expenditure,Acquisitions and disposals,Investment purchases and sales,Investing Cash flow,Issuance (repayment) of debt,Issuance (buybacks) of shares,Dividend payments,Financing Cash Flow,Effect of forex changes on cash,Net cash flow / Change in cash,Free Cash Flow,Net Cash/Marketcap
2018-11-30,1497744.3609,1335338.3459,1845864.6617,-31578.9474,0.0,-15538345.8647,-15609774.4361,-4052631.5789,18427819.5489,0.0,13303759.3985,987218.0451,-460150.3759,1814285.7143,
2017-11-30,1652037.6176,660658.3072,2108934.1693,-24294.6708,0.0,-8601097.1787,-9854231.9749,-4072100.3135,286833.8558,0.0,-3804858.9342,350313.4796,-11550156.7398,2084639.4984,
2013-11-30,114043.3553,64090.4807,-7298774.7408,56550.4241,0.0,6728557.9642,6785108.3883,0.0,0.0,0.0,0.0,0.0,-513666.3525,-7242224.3167,
2012-11-30,567975.8308,-502517.6234,-15744209.4663,-69486.4048,0.0,14514602.2155,14445115.8107,0.0,244712.9909,0.0,244712.9909,0.0,-1054380.6647,-15813695.8711,
2011-11-30,325809.6173,360157.0167,-26710500.4907,-229636.8989,0.0,2610402.3553,2380765.4563,0.0,688910.6968,0.0,688910.6968,0.0,-23640824.3376,-26940137.3896,
2010-11-30,454634.1463,1105365.8537,2829268.2927,-404878.0488,0.0,21949268.2927,21544390.2439,0.0,143414.6341,0.0,143414.6341,0.0,24517073.1707,2424390.2439,
2009-11-30,578997.1618,943235.5724,5351939.4513,-385052.0341,0.0,-13061494.7966,-13446546.8307,0.0,9413434.2479,0.0,9405865.6575,0.0,1311258.2781,4966887.4172,
