,0,1,2,3,4,5,6,7,8,9,10,11,12,13,14,15,16,17,18,19,20,21,22,23,24,25,26,27,28,29,30
Date,Revenue,Revenue Growth,Cost of Revenue,Gross Profit,R&D Expenses,SG&A Expense,Operating Expenses,Operating Income,Interest Expense,Earnings before Tax,Income Tax Expense,Net Income - Non-Controlling int,Net Income - Discontinued ops,Net Income,Preferred Dividends,Net Income Com,EPS,EPS Diluted,Weighted Average Shs Out,Weighted Average Shs Out (Dil),Dividend per Share,Gross Margin,EBITDA Margin,EBIT Margin,Profit Margin,Free Cash Flow margin,EBITDA,EBIT,Consolidated Income,Earnings Before Tax Margin,Net Profit Margin
2018-09-30,32019000.0,-0.27699999999999997,,25760000.0,,,,32295000.0,,32295000.0,,,,,,,1.06,1.06,30400000.0,,,0.8045,,,,,,,,1.0086,
2017-09-30,44286000.0,-0.1472,,37813000.0,,,,26528000.0,,26528000.0,,,,,,,0.86,0.86,30855000.0,,,0.8538,,,,,,,,0.599,
2016-09-30,51928000.0,3.6019,,45108000.0,,,,3094000.0,,3094000.0,,,,,,,0.1,0.1,31041000.0,,,0.8687,,,,,,,,0.0596,
2015-09-30,11284000.0,,,9592000.0,,,,-45131000.0,,-45131000.0,,,,,,,-1.45,-1.45,31180000.0,,,0.8501,,,,,,,,-3.9996,
