,0,1,2,3,4,5,6,7,8,9,10,11,12,13,14,15,16,17,18,19,20,21,22,23,24,25,26,27,28,29,30
Date,Revenue,Revenue Growth,Cost of Revenue,Gross Profit,R&D Expenses,SG&A Expense,Operating Expenses,Operating Income,Interest Expense,Earnings before Tax,Income Tax Expense,Net Income - Non-Controlling int,Net Income - Discontinued ops,Net Income,Preferred Dividends,Net Income Com,EPS,EPS Diluted,Weighted Average Shs Out,Weighted Average Shs Out (Dil),Dividend per Share,Gross Margin,EBITDA Margin,EBIT Margin,Profit Margin,Free Cash Flow margin,EBITDA,EBIT,Consolidated Income,Earnings Before Tax Margin,Net Profit Margin
2018-12-31,22162068965.5172,-0.09286995979189999,9409195402.2989,12752873563.2184,0.0,3568965517.2414,12108045977.0115,644827586.2069,2763218390.8046,-1190804597.7011,431034482.7586,297701149.4253,0.0,-1621839080.4598,0.0,-1621839080.4598,-0.0805,-0.0805,,17474853543.6782,0.0,0.5754,0.3356,0.071,-0.0839,0.0913,6463218390.8046,1572413793.1034,-1324137931.0345,-0.0537,-0.0732
2017-12-31,24430972388.9556,0.200321874716,10069627851.1405,14361344537.8151,0.0,4352941176.4706,10410564225.6903,3950780312.1248,3965186074.4298,1933973589.4358,588235294.1176,199279711.8848,0.0,1345738295.3181,0.0,1345738295.3181,0.06,0.06,,18251047518.6074,0.0,0.5878,0.5534,0.2415,0.066,0.0944,11268907563.0252,5899159663.8655,1545018007.2029,0.0792,0.0551
2016-12-31,20353684210.5263,-0.0629939439221,8203157894.7368,12150526315.7895,0.0,3269473684.2105,8232631578.9474,3917894736.8421,3631578947.3684,2829473684.2105,926315789.4737,166315789.4737,-49473684.2105,1903157894.7368,0.0,1903157894.7368,0.0842,0.0842,,14210433443.1579,0.0,0.597,0.5674,0.3174,0.0989,0.1158,10977894736.8421,6461052631.5789,2069473684.2105,0.139,0.0935
2015-12-31,21722041259.5005,-0.183508255729,9263843648.2085,12458197611.2921,0.0,3896851248.6428,9241042345.2769,3217155266.0152,5733984799.1314,361563517.9153,437567861.0206,793702497.2856,-663409337.6764,-76004343.1053,0.0,-76004343.1053,0.0,0.0,,14626444572.2041,0.0,0.5735,0.5288,0.2806,-0.0033,0.0154,10585233441.911,6095548317.0467,717698154.1802,0.0166,-0.0035
2014-12-31,26604116222.7603,-0.18498198584399997,11418886198.5472,15185230024.2131,0.0,3776029055.6901,9702179176.7554,5483050847.4576,5561743341.4044,2761501210.6538,1125907990.3148,738498789.3462,-654963680.3874,1635593220.339,0.0,1635593220.339,0.0726,0.0726,,16243394098.063,0.0,0.5708,0.615,0.3129,0.0738,0.1199,13509685230.0242,8323244552.0581,2374092009.6852,0.1038,0.0615
2013-12-31,32642365887.2077,-0.0499572514781,14273727647.868,18368638239.3398,0.0,4246217331.4993,14629986244.8418,3738651994.4979,5757909215.955999,601100412.6547,1528198074.2779,599724896.8363,-469050894.0853,-927097661.6231,0.0,-927097661.6231,-0.0413,-0.0413,,18231943585.9697,0.2889,0.5627,0.5323,0.1948,-0.0385,0.1785,12621733149.9312,6359009628.6107,-327372764.7868,0.0184,-0.0284
2012-12-31,34358839050.1319,-0.019987299685900003,14893139841.6887,19465699208.4433,0.0,4397097625.3298,17211081794.1953,2254617414.2479997,5251978891.8206,-713720316.6227,1432717678.1003,461741424.8021,-134564643.7995,-2146437994.7229998,0.0,-2146437994.7229998,-0.1055,-0.1055,,17486310009.2348,1.1728,0.5665,0.4116,0.1321,-0.0818,0.1862,10724274406.3325,4538258575.1979,-1684696569.9208,-0.0208,-0.0625
2011-12-31,35059585492.228,-0.057551572335700005,14889896373.057,20169689119.171,0.0,4551813471.5026,21711139896.3731,-1541450777.2021,5751295336.7876,-4388601036.2694,1843264248.7047,576424870.4663,-401554404.1451,-6231865284.9741,0.0,-6231865284.9741,-0.3238,-0.3238,,17157702967.6166,0.8031,0.5753,0.2889,0.0389,-0.2306,0.2035,7805699481.8653,1362694300.5181,-5655440414.5078,-0.1252,-0.1778
2010-12-31,37200534759.3583,-0.0458242169989,15217914438.5027,21982620320.8556,0.0,5322192513.369,14151069518.7166,7831550802.139,6950534759.3583,4902406417.1123,733957219.2513,606951871.6578,9358288.7701,4168449197.8609996,0.0,4168449197.8609996,0.2139,0.2139,,17672046192.5134,0.6016,0.5909,0.6925,0.3186,0.1497,0.15,19262032085.5615,11852941176.4706,4775401069.5187,0.1318,0.1121
2009-12-31,38987087517.934,-0.0365,16470588235.2941,22516499282.6399,0.0,5357245337.1593,14635581061.693,7880918220.9469,6787661406.0258,3876614060.2582,1608321377.3314,21520803.4433,892395982.7834,2268292682.9268,0.0,2268292682.9268,0.1148,0.1148,,19081749047.3458,0.6887,0.5775,0.6858,0.2735,0.0832,0.1313,18628407460.5452,10664275466.2841,2289813486.3702,0.0994,0.0582
