,0,1,2,3,4,5,6,7,8,9,10,11,12,13,14,15,16,17,18,19,20,21,22,23,24,25,26,27,28
Date,Cash and cash equivalents,Short-term investments,Cash and short-term investments,Receivables,Inventories,Total current assets,Property Plant & Equipment Net,Goodwill and Intangible Assets,Long-term investments,Tax assets,Total non-current assets,Total assets,Payables,Short-term debt,Total current liabilities,Long-term debt,Total debt,Deferred revenue,Tax Liabilities,Deposit Liabilities,Total non-current liabilities,Total liabilities,Other comprehensive income,Retained earnings (deficit),Total shareholders equity,Investments,Net Debt,Other Assets,Other Liabilities
2019-12-31,78697.0,0.0,78697.0,0.0,0.0,112260.0,0.0,0.0,0.0,0.0,179491402.0,179603662.0,294560.0,125000.0,441476.0,2225000.0,2350000.0,0.0,5416.0,0.0,2208500.0,174603661.0,1499910.0,3499517.0,5000001.0,0.0,2271303.0,0.0,171953685.0
2018-12-31,325115.0,0.0,325115.0,0.0,0.0,469840.0,0.0,0.0,0.0,30000.0,176444379.0,176914219.0,184237.0,0.0,189237.0,1725000.0,1725000.0,0.0,0.0,0.0,1728649.0,171914218.0,3437124.0,1562312.0,5000001.0,0.0,1399885.0,0.0,169996332.0
2017-12,0.0,,,,,0.0,,0.0,,,,0.0,0.0,,0.0,,,,,,,0.0,,-0.0,0.0,,0.0,0.0,0.0
2016-12,0.0,,,,,0.0,,0.0,,,,0.0,0.0,,0.0,,,,,,,0.0,,-0.0,0.0,,0.0,0.0,0.0
2015-12,0.0,,,,,0.0,,0.0,,,,0.0,0.0,,0.0,,,,,,,0.0,,0.0,0.0,,0.0,0.0,0.0
2014-12,0.0,,,,,0.0,,0.0,,,,0.0,0.0,,0.0,,,,,,,0.0,,0.0,0.0,,0.0,0.0,0.0
2013-12,0.0,,,,,0.0,,0.0,,,,0.0,0.0,,0.0,,,,,,,0.0,,0.0,0.0,,0.0,0.0,0.0
