,0,1,2,3,4,5,6,7,8,9,10,11,12,13,14,15,16,17,18,19,20,21,22,23,24,25,26,27,28
Date,Cash and cash equivalents,Short-term investments,Cash and short-term investments,Receivables,Inventories,Total current assets,Property Plant & Equipment Net,Goodwill and Intangible Assets,Long-term investments,Tax assets,Total non-current assets,Total assets,Payables,Short-term debt,Total current liabilities,Long-term debt,Total debt,Deferred revenue,Tax Liabilities,Deposit Liabilities,Total non-current liabilities,Total liabilities,Other comprehensive income,Retained earnings (deficit),Total shareholders equity,Investments,Net Debt,Other Assets,Other Liabilities
2017-12,34000000.0,0.0,0.0,0.0,1000000.0,42000000.0,4000000.0,36000000.0,0.0,,5000000.0,82000000.0,2000000.0,20000000.0,55000000.0,5000000.0,5000000.0,1000000.0,0.0,,5000000.0,61000000.0,1000000.0,-190000000.0,21000000.0,0.0,-9000000.0,5000000.0,19000000.0
2016-12,78000000.0,2000000.0,2000000.0,2000000.0,0.0,52000000.0,2000000.0,47000000.0,0.0,,36000000.0,136000000.0,3000000.0,5000000.0,20000000.0,29000000.0,29000000.0,0.0,0.0,,36000000.0,57000000.0,0.0,-116000000.0,80000000.0,0.0,-44000000.0,7000000.0,16000000.0
2015-12,18000000.0,2000000.0,2000000.0,2000000.0,0.0,54000000.0,0.0,49000000.0,0.0,,52000000.0,79000000.0,2000000.0,5000000.0,14000000.0,39000000.0,39000000.0,0.0,0.0,,52000000.0,66000000.0,0.0,-120000000.0,13000000.0,0.0,26000000.0,7000000.0,16000000.0
2014-12,13000000.0,1000000.0,1000000.0,1000000.0,0.0,37000000.0,1000000.0,34000000.0,0.0,,11000000.0,54000000.0,1000000.0,2000000.0,8000000.0,10000000.0,10000000.0,0.0,0.0,,11000000.0,19000000.0,0.0,-87000000.0,35000000.0,0.0,-1000000.0,4000000.0,3000000.0
2013-12,16000000.0,1000000.0,1000000.0,1000000.0,0.0,39000000.0,1000000.0,36000000.0,0.0,,8000000.0,63000000.0,2000000.0,0.0,6000000.0,8000000.0,8000000.0,0.0,0.0,,8000000.0,15000000.0,0.0,-74000000.0,48000000.0,0.0,-8000000.0,8000000.0,4000000.0
