,0,1,2,3,4,5,6,7,8,9,10,11,12,13,14,15,16,17,18,19,20,21,22,23,24,25,26,27,28,29,30
Date,Revenue,Revenue Growth,Cost of Revenue,Gross Profit,R&D Expenses,SG&A Expense,Operating Expenses,Operating Income,Interest Expense,Earnings before Tax,Income Tax Expense,Net Income - Non-Controlling int,Net Income - Discontinued ops,Net Income,Preferred Dividends,Net Income Com,EPS,EPS Diluted,Weighted Average Shs Out,Weighted Average Shs Out (Dil),Dividend per Share,Gross Margin,EBITDA Margin,EBIT Margin,Profit Margin,Free Cash Flow margin,EBITDA,EBIT,Consolidated Income,Earnings Before Tax Margin,Net Profit Margin
2018-03,10000000.0,,7000000.0,3000000.0,2000000.0,2000000.0,5000000.0,-2000000.0,0.0,-4000000.0,-0.0,,,-4000000.0,,-4000000.0,-1.36,-1.36,3000000.0,3000000.0,,0.3,-0.4,-0.4,-0.4,,-4000000.0,-4000000.0,-4000000.0,-0.4,-0.4
2017-03,19000000.0,,12000000.0,7000000.0,2000000.0,5000000.0,8000000.0,-1000000.0,0.0,-2000000.0,3000000.0,,,-5000000.0,,-5000000.0,-1.46,-1.49,3000000.0,3000000.0,,0.36842105263158004,-0.10526315789474001,-0.10526315789474001,-0.26315789473684,,-2000000.0,-2000000.0,-5000000.0,-0.10526315789474001,-0.26315789473684
2016-03,25000000.0,,17000000.0,8000000.0,2000000.0,3000000.0,5000000.0,3000000.0,0.0,2000000.0,1000000.0,,,1000000.0,,1000000.0,0.31,0.31,3000000.0,3000000.0,,0.32,0.08,0.08,0.04,,2000000.0,2000000.0,1000000.0,0.08,0.04
2015-03,18000000.0,,13000000.0,5000000.0,2000000.0,3000000.0,5000000.0,0.0,0.0,-0.0,-0.0,,,-0.0,,-0.0,-0.09,-0.09,3000000.0,3000000.0,,0.27777777777778,0.0,0.0,-0.0,,0.0,0.0,-0.0,-0.0,-0.0
2014-03,16000000.0,,9000000.0,6000000.0,2000000.0,3000000.0,5000000.0,1000000.0,0.0,1000000.0,0.0,,,0.0,,0.0,0.08,0.08,3000000.0,3000000.0,,0.375,0.0625,0.0,0.0,,1000000.0,0.0,0.0,0.0625,0.0
