,0,1,2,3,4,5,6,7,8,9,10,11,12,13,14,15,16,17,18,19,20,21,22,23,24,25,26,27,28,29,30
Date,Revenue,Revenue Growth,Cost of Revenue,Gross Profit,R&D Expenses,SG&A Expense,Operating Expenses,Operating Income,Interest Expense,Earnings before Tax,Income Tax Expense,Net Income - Non-Controlling int,Net Income - Discontinued ops,Net Income,Preferred Dividends,Net Income Com,EPS,EPS Diluted,Weighted Average Shs Out,Weighted Average Shs Out (Dil),Dividend per Share,Gross Margin,EBITDA Margin,EBIT Margin,Profit Margin,Free Cash Flow margin,EBITDA,EBIT,Consolidated Income,Earnings Before Tax Margin,Net Profit Margin
2018-12-31,695865000.0,-0.158013251764,0.0,0.0,177285000.0,181047000.0,358332000.0,-298968000.0,49150000.0,-339011000.0,14052000.0,0.0,0.0,-349348000.0,0.0,-349348000.0,-2.84,-2.84,123020000.0,123020000.0,0.7234596000650001,0.0,-0.164718731363,-0.42963505852399997,-0.502034158925,0.19354328785,-114622000.0,-298968000.0,-349348000.0,-0.48717926609300005,-0.502034158925
2017-12-31,826456000.0,0.273247439119,0.0,0.0,194382000.0,205024000.0,399406000.0,4790000.0,42756000.0,-48235000.0,-10279000.0,0.0,0.0,-37956000.0,0.0,-37956000.0,-0.32,-0.32,120355000.0,120355000.0,0.723692409954,0.0,0.252127154985,0.005795831841020001,-0.0459262199077,0.113886280697,208372000.0,4790000.0,-37956000.0,-0.0583636636433,-0.0459262199077
2016-12-31,649093000.0,0.233381660779,0.0,0.0,125172000.0,192755000.0,317927000.0,21441000.0,43681000.0,-24436000.0,-61685000.0,0.0,0.0,32661000.0,0.0,32661000.0,0.35,0.35,93064000.0,94262000.0,0.0,0.0,0.245228341701,0.0330322465348,0.0503179051384,0.174357141427,159176000.0,21441000.0,32661000.0,-0.037646377329599995,0.0503179051384
2015-12-31,526271000.0,-0.029577124565099998,102970000.0,423301000.0,99902000.0,155173000.0,351545000.0,71756000.0,46826000.0,9463000.0,13755000.0,0.0,0.0,-4292000.0,0.0,-4292000.0,-0.05,-0.05,83000000.0,84133000.0,0.0,0.8043,0.28600000000000003,0.107,-0.008,0.2499,150681000.0,56289000.0,-4292000.0,0.018000000000000002,-0.0082
2014-12-31,542311000.0,,107253000.0,435058000.0,106632000.0,138850000.0,351348000.0,83710000.0,54768000.0,-50019000.0,19725000.0,0.0,56222000.0,-69744000.0,0.0,-69744000.0,-0.76,-0.76,,91654000.0,0.0,0.8022,0.185,0.0088,-0.129,0.2977,100176000.0,4749000.0,-69744000.0,-0.0922,-0.1286
