,0,1,2,3,4,5,6,7,8,9,10,11,12,13,14
Date,Depreciation & Amortization,Stock-based compensation,Operating Cash Flow,Capital Expenditure,Acquisitions and disposals,Investment purchases and sales,Investing Cash flow,Issuance (repayment) of debt,Issuance (buybacks) of shares,Dividend payments,Financing Cash Flow,Effect of forex changes on cash,Net cash flow / Change in cash,Free Cash Flow,Net Cash/Marketcap
2018-12-31,895267.0,200111.0,-23035965.0,579948.0,-0.0,0.0,-1846325.0,-4959006.0,-7974884.0,-0.0,928293.0,-662499.0,7974884.0,-23615913.0,0.0
2017-12-31,742272.0,751157.0,-2314997.0,814455.0,-0.0,0.0,-1572959.0,-0.0,-11866965.0,-0.0,1000000.0,1359584.0,-1528372.0,-3129452.0,0.0
2016-12-31,523698.0,812759.0,4624343.0,1412302.0,-0.0,0.0,-7786348.0,-0.0,-13395337.0,-0.0,7340318.0,-1552432.0,2625881.0,3212041.0,0.0
2015-12-31,336222.0,314243.0,5419693.0,512144.0,-0.0,0.0,-512144.0,-0.0,-9189456.0,-0.0,3510853.0,-4785.0,8413617.0,4907549.0,0.0
2014-12-31,216479.0,0.0,2591661.0,497942.0,-0.0,0.0,-497942.0,-0.0,-2355839.0,-0.0,0.0,1933.0,2095652.0,2093719.0,0.0
2013-12-31,63857.0,0.0,185982.0,-608450.0,0.0,0.0,-608450.0,0.0,683531.0,0.0,683531.0,-876.0,260187.0,-422468.0,1.0717
2012-12-31,1124.0,0.0,-167184.0,0.0,-0.0,0.0,45886.0,-0.0,110566.0,-0.0,167262.0,0.0,45964.0,-167184.0,0.0
