,0,1,2,3,4,5,6,7,8,9,10,11,12,13,14,15,16,17,18,19,20,21,22,23,24,25,26,27,28,29,30
Date,Revenue,Revenue Growth,Cost of Revenue,Gross Profit,R&D Expenses,SG&A Expense,Operating Expenses,Operating Income,Interest Expense,Earnings before Tax,Income Tax Expense,Net Income - Non-Controlling int,Net Income - Discontinued ops,Net Income,Preferred Dividends,Net Income Com,EPS,EPS Diluted,Weighted Average Shs Out,Weighted Average Shs Out (Dil),Dividend per Share,Gross Margin,EBITDA Margin,EBIT Margin,Profit Margin,Free Cash Flow margin,EBITDA,EBIT,Consolidated Income,Earnings Before Tax Margin,Net Profit Margin
2019-12-31,247861000.0,0.213084185334,60880000.0,186981000.0,63017000.0,182488000.0,245505000.0,-58524000.0,0.0,-61320000.0,149000.0,0.0,0.0,-61469000.0,0.0,-61469000.0,-2.01,-2.01,30563000.0,30563000.0,0.0,0.754378462122,-0.19738482455899997,-0.236116210295,-0.247997869774,-0.0674087492587,-48924000.0,-58524000.0,-61469000.0,-0.247396726391,-0.247997869774
2018-12-31,204323000.0,0.37503280729500005,49494000.0,154829000.0,42359000.0,154007000.0,196366000.0,-41537000.0,0.0,-40682000.0,-323000.0,0.0,0.0,-40359000.0,0.0,-40359000.0,-1.35,-1.35,29841000.0,29841000.0,0.0,0.757765890282,-0.18099773398,-0.20329086789099998,-0.197525486607,-0.00868722561826,-36982000.0,-41537000.0,-40359000.0,-0.199106316959,-0.197525486607
2017-12-31,148595000.0,0.402051253019,34159000.0,114436000.0,26835000.0,116338000.0,143173000.0,-28737000.0,0.0,-30884000.0,324000.0,0.0,0.0,-31208000.0,0.0,-31208000.0,-1.08,-1.08,28557153.0,28966000.0,0.0,0.7701,-0.19399999999999998,-0.2078,-0.21,-0.0306,-28790000.0,-30884000.0,-31208000.0,-0.2078,-0.21
2016-12-31,105984000.0,0.395260663507,25568000.0,80416000.0,19251000.0,87157000.0,106408000.0,-25992000.0,0.0,-24180000.0,63000.0,0.0,0.0,-24243000.0,0.0,-24243000.0,-1.68,-1.68,28557153.0,14464000.0,0.0,0.7588,-0.214,-0.2281,-0.22899999999999998,0.0185,-22673000.0,-24180000.0,-24243000.0,-0.2281,-0.2287
2015-12-31,75960000.0,0.21378693213599997,18708000.0,57252000.0,15075000.0,63622000.0,78697000.0,-21445000.0,589000.0,-22013000.0,-7000.0,0.0,0.0,-22006000.0,0.0,-22006000.0,-5.79,-5.79,3990000.0,3803000.0,0.0,0.7537,-0.263,-0.282,-0.29,-0.1417,-19956000.0,-21424000.0,-22006000.0,-0.2898,-0.2897
2014-12-31,62581000.0,,16158000.0,46423000.0,13242000.0,55937000.0,69179000.0,-22756000.0,81000.0,-22322000.0,199000.0,0.0,0.0,-22521000.0,0.0,-22521000.0,-6.09,-6.09,,3696000.0,0.0,0.7418,-0.33299999999999996,-0.3554,-0.36,-0.2698,-20847000.0,-22241000.0,-22521000.0,-0.3567,-0.3599
