,0,1,2,3,4,5,6,7,8,9,10,11,12,13,14
Date,Depreciation & Amortization,Stock-based compensation,Operating Cash Flow,Capital Expenditure,Acquisitions and disposals,Investment purchases and sales,Investing Cash flow,Issuance (repayment) of debt,Issuance (buybacks) of shares,Dividend payments,Financing Cash Flow,Effect of forex changes on cash,Net cash flow / Change in cash,Free Cash Flow,Net Cash/Marketcap
2019-12-31,49442000.0,31842000.0,-258065000.0,78616000.0,-163889000.0,-1350666000.0,-253181000.0,-0.0,14282000.0,-0.0,114700000.0,6082000.0,-390464000.0,-336681000.0,0.0
2018-12-31,5742000.0,20988000.0,-46248000.0,54457000.0,-0.0,-319373000.0,-98620000.0,-13467000.0,-487255000.0,-0.0,630998000.0,-1198000.0,484932000.0,-100705000.0,0.0
2017-12-31,1853000.0,139000.0,-6003000.0,-10887000.0,0.0,0.0,-11815000.0,5840000.0,0.0,0.0,12235000.0,375000.0,-5208000.0,-16890000.0,-0.0143
2016-12-31,1953000.0,94000.0,-3318000.0,-488000.0,0.0,0.0,-1025000.0,10919000.0,0.0,0.0,10919000.0,226000.0,6802000.0,-3806000.0,-0.0143
