,0,1,2,3,4,5,6,7,8,9,10,11,12,13,14,15,16,17,18,19,20,21,22,23,24,25,26,27,28,29,30
Date,Revenue,Revenue Growth,Cost of Revenue,Gross Profit,R&D Expenses,SG&A Expense,Operating Expenses,Operating Income,Interest Expense,Earnings before Tax,Income Tax Expense,Net Income - Non-Controlling int,Net Income - Discontinued ops,Net Income,Preferred Dividends,Net Income Com,EPS,EPS Diluted,Weighted Average Shs Out,Weighted Average Shs Out (Dil),Dividend per Share,Gross Margin,EBITDA Margin,EBIT Margin,Profit Margin,Free Cash Flow margin,EBITDA,EBIT,Consolidated Income,Earnings Before Tax Margin,Net Profit Margin
2018-12-31,0.0,0.0,0.0,0.0,5510000.0,4417000.0,9927000.0,-9927000.0,12000.0,-9939000.0,-1945000.0,0.0,0.0,-7994000.0,0.0,-7994000.0,-0.3,-0.3,281159340.0,281159340.0,0.0,0.0,,0.0,,0.0,-9911000.0,-9927000.0,-7994000.0,0.0,0.0
2017-12-31,0.0,0.0,0.0,0.0,6015000.0,4601000.0,10616000.0,-10616000.0,12000.0,-10628000.0,-1912000.0,0.0,0.0,-8716000.0,0.0,-8716000.0,-0.45,-0.45,,,0.0,0.0,,0.0,,0.0,-10603000.0,-10616000.0,-8716000.0,0.0,0.0
2016-12-31,0.0,,0.0,0.0,4007000.0,5872000.0,9879000.0,-9879000.0,12000.0,-9891000.0,-121000.0,0.0,0.0,-9770000.0,0.0,-9770000.0,-0.55,-0.55,,,0.0,0.0,,0.0,,0.0,-9868000.0,-9879000.0,-9770000.0,0.0,0.0
