,0,1,2,3,4,5,6,7,8,9,10,11,12,13,14
Date,Depreciation & Amortization,Stock-based compensation,Operating Cash Flow,Capital Expenditure,Acquisitions and disposals,Investment purchases and sales,Investing Cash flow,Issuance (repayment) of debt,Issuance (buybacks) of shares,Dividend payments,Financing Cash Flow,Effect of forex changes on cash,Net cash flow / Change in cash,Free Cash Flow,Net Cash/Marketcap
2018-12-31,0.0,0.0,810998552.822,-19102749.6382,-123444283.6469,-27930535.4559,-172214182.3444,0.0,1120260492.0405,0.0,1120260492.0405,-144717.8003,1763096960.9262,791895803.1838,
2017-12-31,0.0,0.0,395102781.1366,-11336154.7763,-109431680.7739,48065296.2515,-73004836.7594,0.0,11940749.6977,0.0,14963724.3047,-1964933.4946,319830713.422,383766626.3603,
2016-12-31,0.0,0.0,130741540.6767,-5903527.7178,23902087.833,53419726.4219,71418286.5371,0.0,273722102.2318,0.0,246508279.3377,-1439884.8092,443628509.7192,124838012.95899999,
