,0,1,2,3,4,5,6,7,8,9,10,11,12,13,14
Date,Depreciation & Amortization,Stock-based compensation,Operating Cash Flow,Capital Expenditure,Acquisitions and disposals,Investment purchases and sales,Investing Cash flow,Issuance (repayment) of debt,Issuance (buybacks) of shares,Dividend payments,Financing Cash Flow,Effect of forex changes on cash,Net cash flow / Change in cash,Free Cash Flow,Net Cash/Marketcap
2017-12-31,39000000.0,0.0,177500000.0,27200000.0,-0.0,0.0,-10900000.0,-0.0,-81500000.0,-0.0,-124600000.0,0.0,81500000.0,150300000.0,0.0
2017-12,39000000.0,,178000000.0,-27000000.0,,16000000.0,-11000000.0,,,,-125000000.0,,42000000.0,150000000.0,
2016-12-31,40400000.0,0.0,223500000.0,33100000.0,-0.0,0.0,-32900000.0,-0.0,-39500000.0,-0.0,-257500000.0,0.0,39500000.0,190400000.0,0.0
2016-12,40000000.0,,224000000.0,-33000000.0,,0.0,-33000000.0,,,,-258000000.0,,-67000000.0,190000000.0,
2015-12-31,35800000.0,0.0,375100000.0,87800000.0,-0.0,0.0,-86900000.0,-0.0,-106400000.0,-0.0,-294800000.0,0.0,106400000.0,287300000.0,0.0
2015-12,36000000.0,,375000000.0,-88000000.0,,0.0,-87000000.0,,,,-295000000.0,,-7000000.0,287000000.0,
2014-12-31,23500000.0,0.0,405300000.0,67100000.0,-0.0,0.0,-67100000.0,-0.0,-113000000.0,-0.0,-312100000.0,0.0,113000000.0,338200000.0,0.0
2014-12,24000000.0,,405000000.0,-67000000.0,,0.0,-67000000.0,,,,-312000000.0,,26000000.0,338000000.0,
2013-12-31,19300000.0,0.0,488900000.0,99600000.0,-0.0,0.0,-94200000.0,-0.0,-86900000.0,-0.0,-457200000.0,0.0,86900000.0,389300000.0,0.0
2013-12,19000000.0,,489000000.0,-100000000.0,,0.0,-94000000.0,,,,-457000000.0,,-62000000.0,389000000.0,
2012-12-31,17500000.0,0.0,571400000.0,46700000.0,-0.0,0.0,-43500000.0,-0.0,-149400000.0,-0.0,-558300000.0,0.0,149400000.0,524700000.0,0.0
2011-12-31,19800000.0,0.0,513000000.0,6800000.0,-0.0,0.0,-9300000.0,-0.0,-179800000.0,-0.0,-448700000.0,0.0,179800000.0,506200000.0,0.0
