,0,1,2,3,4,5,6,7,8,9,10,11,12,13,14,15,16,17,18,19,20,21,22,23,24,25,26,27,28
Date,Cash and cash equivalents,Short-term investments,Cash and short-term investments,Receivables,Inventories,Total current assets,Property Plant & Equipment Net,Goodwill and Intangible Assets,Long-term investments,Tax assets,Total non-current assets,Total assets,Payables,Short-term debt,Total current liabilities,Long-term debt,Total debt,Deferred revenue,Tax Liabilities,Deposit Liabilities,Total non-current liabilities,Total liabilities,Other comprehensive income,Retained earnings (deficit),Total shareholders equity,Investments,Net Debt,Other Assets,Other Liabilities
2019-12-31,8986000.0,12835000.0,21821000.0,0.0,0.0,22956000.0,1689000.0,0.0,12835000.0,741000.0,5204000.0,28160000.0,3218000.0,4744000.0,13204000.0,4027000.0,8771000.0,0.0,0.0,0.0,4849000.0,17312000.0,290215000.0,-279400000.0,10848000.0,25670000.0,-215000.0,0.0,0.0
2018-12-31,40813000.0,55273000.0,96086000.0,0.0,0.0,97748000.0,3973000.0,0.0,55273000.0,250000.0,5333000.0,103081000.0,3404000.0,0.0,16534000.0,26201000.0,26201000.0,36000.0,0.0,0.0,28652000.0,44936000.0,274029000.0,-215884000.0,58145000.0,110546000.0,-14612000.0,0.0,0.0
2017-12-31,35933000.0,52792000.0,88725000.0,0.0,0.0,90629000.0,1217000.0,0.0,52792000.0,0.0,1444000.0,92073000.0,1951000.0,7200000.0,17330000.0,3625000.0,10825000.0,36000.0,0.0,0.0,3661000.0,20991000.0,238025000.0,-166929000.0,71082000.0,105584000.0,-25108000.0,0.0,0.0
2016-12-31,5510000.0,25735000.0,31245000.0,0.0,0.0,32461000.0,743000.0,0.0,0.0,0.0,2890000.0,35351000.0,1666000.0,7200000.0,14382000.0,13779000.0,20979000.0,113000.0,0.0,0.0,13973000.0,28355000.0,0.0,-128000000.0,-124417000.0,25735000.0,-10266000.0,1216000.0,5516000.0
2015-12-31,8150000.0,50760000.0,58910000.0,0.0,0.0,60205000.0,445000.0,0.0,0.0,0.0,1970000.0,62175000.0,1300000.0,600000.0,5935000.0,16873000.0,17473000.0,162000.0,0.0,0.0,17157000.0,23092000.0,-58000.0,-94512000.0,-92330000.0,50760000.0,-41437000.0,1295000.0,4035000.0
