,0,1,2,3,4,5,6,7,8,9,10,11,12,13,14,15,16,17,18,19,20,21,22,23,24,25,26,27,28,29,30
Date,Revenue,Revenue Growth,Cost of Revenue,Gross Profit,R&D Expenses,SG&A Expense,Operating Expenses,Operating Income,Interest Expense,Earnings before Tax,Income Tax Expense,Net Income - Non-Controlling int,Net Income - Discontinued ops,Net Income,Preferred Dividends,Net Income Com,EPS,EPS Diluted,Weighted Average Shs Out,Weighted Average Shs Out (Dil),Dividend per Share,Gross Margin,EBITDA Margin,EBIT Margin,Profit Margin,Free Cash Flow margin,EBITDA,EBIT,Consolidated Income,Earnings Before Tax Margin,Net Profit Margin
2018-12-31,1416424000.0,0.275731254346,642095000.0,774329000.0,0.0,65427000.0,662592000.0,111737000.0,199395000.0,-94127000.0,22657000.0,-7161000.0,0.0,-116784000.0,30357000.0,-147141000.0,-0.36,-0.36,410045210.0,410261239.0,0.04,0.5467,0.337,0.0743,-0.10400000000000001,0.0543,477558000.0,105268000.0,-123945000.0,-0.0665,-0.0824
2017-12-31,1110284000.0,-0.0365379775944,533323000.0,576961000.0,0.0,62249000.0,692966000.0,-116005000.0,154890000.0,-303304000.0,-98000.0,3764000.0,0.0,-303206000.0,36295000.0,-339501000.0,-1.45,-1.46,147514113.0,220755937.0,0.24,0.5197,0.146,-0.1337,-0.306,-0.1936,161561000.0,-148414000.0,-299442000.0,-0.2732,-0.2731
2016-12-31,1152390000.0,-0.06265022413139999,520676000.0,631714000.0,0.0,56122000.0,400861000.0,230853000.0,140611000.0,41425000.0,8808000.0,11858000.0,0.0,32617000.0,45569000.0,-12952000.0,-0.25,-0.25,107026979.0,124747207.0,0.44,0.5482,0.418,0.158,-0.011000000000000001,0.149,482047000.0,182036000.0,44475000.0,0.0359,0.0283
2015-12-31,1229413000.0,0.205851860498,528236000.0,701177000.0,0.0,72613000.0,417778000.0,283399000.0,122838000.0,64875000.0,-21357000.0,13911000.0,0.0,86232000.0,55027000.0,31205000.0,0.32,0.32,92386383.0,98507732.0,2.627,0.5703,0.376,0.1527,0.025,-0.2312,462312000.0,187713000.0,100143000.0,0.0528,0.0701
2014-12-31,1019539000.0,0.0954080574683,495839000.0,523700000.0,0.0,67516000.0,267482000.0,256218000.0,88381000.0,9332000.0,2179000.0,10503000.0,0.0,7153000.0,26533000.0,-19380000.0,-0.22,-0.22,85452079.0,86212290.0,2.158,0.5137,0.29100000000000004,0.0958,-0.019,-0.0118,296266000.0,97713000.0,17656000.0,0.0092,0.006999999999999999
2013-12-31,930739000.0,0.0327464667614,504453000.0,426286000.0,0.0,44473000.0,322868000.0,103418000.0,62855000.0,93229000.0,2225000.0,-19089000.0,4642000.0,91004000.0,18699000.0,72305000.0,0.88,0.88,80105408.0,82634000.0,2.612,0.45799999999999996,0.38299999999999995,0.1677,0.078,-0.2151,356326000.0,156084000.0,71915000.0,0.1002,0.0978
2012-12-31,901227000.0,0.0716364916253,485048000.0,416179000.0,0.0,34581000.0,249602000.0,166577000.0,47508000.0,112596000.0,-10477000.0,-58000.0,-17568000.0,123073000.0,11055000.0,112018000.0,1.52,1.52,70626554.0,73750951.0,2.03,0.4618,0.39399999999999996,0.1777,0.124,0.1998,354735000.0,160104000.0,123015000.0,0.1249,0.1366
2011-12-31,840982000.0,0.00037946240051,480022000.0,360960000.0,0.0,37133000.0,249826000.0,111134000.0,35929000.0,-112646000.0,6679000.0,22454000.0,11495000.0,-119325000.0,-10679000.0,-108646000.0,-1.74,-1.74,55237500.0,62362072.0,1.98,0.4292,0.132,-0.0912,-0.129,0.1257,110993000.0,-76717000.0,-96871000.0,-0.1339,-0.1419
2010-12-31,840663000.0,-0.0349541735161,458864000.0,381799000.0,0.0,61192000.0,245613000.0,136186000.0,36576000.0,31767000.0,-9718000.0,37378000.0,-69145000.0,41485000.0,-12326000.0,53811000.0,1.22,1.22,37700000.0,44278158.0,1.89,0.4542,0.308,0.0813,0.064,0.2926,258684000.0,68343000.0,78863000.0,0.0378,0.0493
2009-12-31,871112000.0,-0.132,489205000.0,381907000.0,0.0,61761000.0,247945000.0,133962000.0,50798000.0,77104000.0,13792000.0,57490000.0,0.0,63312000.0,2104000.0,61208000.0,1.84,1.84,30225000.0,33276438.0,1.8,0.4384,0.355,0.1468,0.07,0.1707,309078000.0,127902000.0,120802000.0,0.0885,0.0727
