,0,1,2,3,4,5,6,7,8,9,10,11,12,13,14,15,16,17,18,19,20,21,22,23,24,25,26,27,28,29,30
Date,Revenue,Revenue Growth,Cost of Revenue,Gross Profit,R&D Expenses,SG&A Expense,Operating Expenses,Operating Income,Interest Expense,Earnings before Tax,Income Tax Expense,Net Income - Non-Controlling int,Net Income - Discontinued ops,Net Income,Preferred Dividends,Net Income Com,EPS,EPS Diluted,Weighted Average Shs Out,Weighted Average Shs Out (Dil),Dividend per Share,Gross Margin,EBITDA Margin,EBIT Margin,Profit Margin,Free Cash Flow margin,EBITDA,EBIT,Consolidated Income,Earnings Before Tax Margin,Net Profit Margin
2018-12-31,184106000000.0,0.23479030711100002,125816000000.0,58290000000.0,797000000.0,0.0,43546000000.0,14744000000.0,1933000000.0,17962000000.0,6516000000.0,-104000000.0,0.0,11446000000.0,0.0,11446000000.0,4.27,4.24,2481802636.0,2481802636.0,2.847,0.3166,0.187,0.1081,0.062,0.0616,34479000000.0,19895000000.0,11550000000.0,0.0976,0.0622
2017-12-31,149099000000.0,0.165518858706,99411000000.0,49688000000.0,864000000.0,0.0,42967000000.0,6721000000.0,1396000000.0,11660000000.0,3029000000.0,332000000.0,0.0,8631000000.0,0.0,8631000000.0,3.36,3.34,2430365862.0,2430365862.0,2.476,0.3333,0.19899999999999998,0.0876,0.057999999999999996,0.0643,29667000000.0,13056000000.0,8299000000.0,0.0782,0.0579
2016-12-31,127925000000.0,-0.108045544237,83377000000.0,44548000000.0,1264000000.0,0.0,40116000000.0,4432000000.0,1108000000.0,7166000000.0,970000000.0,-10000000.0,0.0,6196000000.0,0.0,6196000000.0,2.52,2.51,2440057883.0,2440057883.0,2.595,0.3482,0.177,0.0647,0.048,-0.001,22697000000.0,8274000000.0,6206000000.0,0.055999999999999994,0.0484
2015-12-31,143421000000.0,-0.323543284061,96671000000.0,46750000000.0,1991000000.0,0.0,45633000000.0,1117000000.0,967000000.0,6740000000.0,1653000000.0,301000000.0,0.0,5087000000.0,0.0,5087000000.0,2.17,2.16,2385267525.0,2385267525.0,3.155,0.326,0.18899999999999997,0.0537,0.035,-0.0179,27041000000.0,7707000000.0,4786000000.0,0.047,0.0355
2014-12-31,212018000000.0,-0.0699700397861,152975000000.0,59043000000.0,1964000000.0,0.0,50923000000.0,8120000000.0,748000000.0,12858000000.0,8614000000.0,-6000000.0,0.0,4244000000.0,0.0,4244000000.0,1.87,1.86,2377678160.0,2377678160.0,3.103,0.2785,0.163,0.0642,0.02,0.0129,34465000000.0,13606000000.0,4250000000.0,0.0606,0.02
2013-12-31,227969000000.0,-0.026671960924999998,160849000000.0,67120000000.0,2169000000.0,0.0,45727000000.0,21393000000.0,889000000.0,25995000000.0,14767000000.0,-293000000.0,0.0,11228000000.0,0.0,11228000000.0,4.96,4.94,2365933146.0,2365933146.0,2.6,0.2944,0.177,0.1179,0.049,0.0023,40242000000.0,26884000000.0,11521000000.0,0.114,0.0493
2012-12-31,234216000000.0,0.406280396277,162908000000.0,71308000000.0,1857000000.0,0.0,44545000000.0,26763000000.0,863000000.0,30395000000.0,16747000000.0,188000000.0,0.0,13648000000.0,0.0,13648000000.0,6.05,6.02,2363767313.0,2363767313.0,2.52,0.3045,0.191,0.1335,0.057999999999999996,0.0218,44724000000.0,31258000000.0,13836000000.0,0.1298,0.0583
2011-12-31,166550000000.0,0.185611777101,113892000000.0,52658000000.0,1019000000.0,0.0,29564000000.0,23094000000.0,713000000.0,26400000000.0,14091000000.0,305000000.0,0.0,12309000000.0,0.0,12309000000.0,5.48,5.45,2349640931.0,2349640931.0,2.63,0.3162,0.215,0.1628,0.07400000000000001,0.0182,35741000000.0,27113000000.0,12614000000.0,0.1585,0.0739
2010-12-31,140476000000.0,0.252538942338,93171000000.0,47305000000.0,864000000.0,0.0,29320000000.0,17985000000.0,465000000.0,20799000000.0,10228000000.0,236000000.0,0.0,10571000000.0,0.0,10571000000.0,4.73,4.71,2348422884.0,2348422884.0,2.53,0.3367,0.21600000000000003,0.1514,0.075,0.0442,30381000000.0,21264000000.0,10807000000.0,0.1481,0.0753
2009-12-31,112153000000.0,-0.3005,71058000000.0,41095000000.0,698000000.0,0.0,26571000000.0,14524000000.0,530000000.0,16198000000.0,7751000000.0,182000000.0,0.0,8447000000.0,0.0,8447000000.0,3.79,3.78,2371808074.0,2371808074.0,4.6530000000000005,0.3664,0.213,0.1492,0.075,0.0058,23835000000.0,16728000000.0,8629000000.0,0.1444,0.0753
