,0,1,2,3,4,5,6,7,8,9,10,11,12,13,14,15,16,17,18,19,20,21,22,23,24,25,26,27,28,29,30
Date,Revenue,Revenue Growth,Cost of Revenue,Gross Profit,R&D Expenses,SG&A Expense,Operating Expenses,Operating Income,Interest Expense,Earnings before Tax,Income Tax Expense,Net Income - Non-Controlling int,Net Income - Discontinued ops,Net Income,Preferred Dividends,Net Income Com,EPS,EPS Diluted,Weighted Average Shs Out,Weighted Average Shs Out (Dil),Dividend per Share,Gross Margin,EBITDA Margin,EBIT Margin,Profit Margin,Free Cash Flow margin,EBITDA,EBIT,Consolidated Income,Earnings Before Tax Margin,Net Profit Margin
2018-12-31,,0.0,,,,,,180429000.0,,,33531000.0,,,,,134489000.0,1.89,1.89,72000000.0,,,,,,,,,,,,
2018-12,,0.0,,,,,,,,,,,,134000000.0,,134000000.0,1.88,1.88,71000000.0,71000000.0,,,,,,,,134000000.0,134000000.0,,
2017-12-31,,0.0,,,,,,149870000.0,,,44701000.0,,,,,97775000.0,1.57,1.57,63000000.0,,,,,,,,,,,,
2017-12,,0.0,,,,,,,,,,,,88000000.0,,88000000.0,1.41,1.41,62000000.0,62000000.0,,,,,,,,88000000.0,88000000.0,,
2016-12-31,,0.0,,,,,,120024000.0,,,28698000.0,,,,,67250000.0,1.18,1.18,62000000.0,,,,,,,,,,,,
2016-12,,0.0,,,,,,,,,,,,67000000.0,,67000000.0,1.18,1.18,57000000.0,57000000.0,,,,,,,,67000000.0,67000000.0,,
2015-12-31,,0.0,,,,,,92541000.0,,,26876000.0,,,,,62369000.0,1.22,1.22,52000000.0,,,,,,,,,,,,
2015-12,,0.0,,,,,,,,,,,,62000000.0,,62000000.0,1.22,1.22,51000000.0,51000000.0,,,,,,,,62000000.0,62000000.0,,
2014-12,,,,,,,,,,,,,,42000000.0,,42000000.0,1.18,1.18,35000000.0,35000000.0,,,,,,,,42000000.0,42000000.0,,
