,0,1,2,3,4,5,6,7,8,9,10,11,12,13,14,15,16,17,18,19,20,21,22,23,24,25,26,27,28,29,30
Date,Revenue,Revenue Growth,Cost of Revenue,Gross Profit,R&D Expenses,SG&A Expense,Operating Expenses,Operating Income,Interest Expense,Earnings before Tax,Income Tax Expense,Net Income - Non-Controlling int,Net Income - Discontinued ops,Net Income,Preferred Dividends,Net Income Com,EPS,EPS Diluted,Weighted Average Shs Out,Weighted Average Shs Out (Dil),Dividend per Share,Gross Margin,EBITDA Margin,EBIT Margin,Profit Margin,Free Cash Flow margin,EBITDA,EBIT,Consolidated Income,Earnings Before Tax Margin,Net Profit Margin
2018-12-31,1571853000.0,-0.20934777163100002,1377955000.0,193898000.0,0.0,89527000.0,89962000.0,100556000.0,19856000.0,78378000.0,1259000.0,0.0,0.0,48900000.0,0.0,48900000.0,2.37,2.33,20591674.0,20996068.0,0.48047091484,0.123356318943,0.098845757205,0.0639729033186,0.0311097793496,0.009610313432620001,155371000.0,100556000.0,48900000.0,0.049863441428699994,0.0311097793496
2017-12-31,1988046000.0,0.038881378482199996,1743511000.0,244535000.0,0.0,118061000.0,118504000.0,115296000.0,13735000.0,101316000.0,55434000.0,0.0,0.0,47625000.0,0.0,47625000.0,2.32,2.29,20498668.0,20828888.0,0.442702462081,0.123002687061,0.0968689859289,0.057994633926999994,0.023955683117999997,0.030475149971400002,192580000.0,115296000.0,47625000.0,0.050962603481,0.023955683117999997
2016-12-31,1913641000.0,-0.0215103576248,1675232000.0,238409000.0,0.0,131552000.0,132001000.0,101019000.0,21618000.0,73534000.0,17246000.0,0.0,0.0,38579000.0,0.0,38579000.0,1.85,1.82,20864321.0,21222183.0,0.403822735861,0.124583973692,0.09065859270360001,0.0527888982312,0.020159998662199998,0.011195934869699999,173488000.0,101019000.0,38579000.0,0.038426225190599995,0.020159998662199998
2015-12-31,1955709000.0,-0.0541945892461,1737232000.0,218477000.0,0.0,130650000.0,130899000.0,78971000.0,24290000.0,178278000.0,-123001000.0,0.0,0.0,194052000.0,0.0,194052000.0,9.2,9.06,21093387.0,21408301.0,0.09860661058530001,0.11171242756500001,0.08115624563780001,0.040379729295099996,0.09922335071319999,-0.011250139974799999,158718000.0,78971000.0,194052000.0,0.0911577335892,0.09922335071319999
2014-12-31,2067771000.0,-0.0162929069623,1838578000.0,229193000.0,0.0,132635000.0,132635000.0,80766000.0,34767000.0,36523000.0,9272000.0,0.0,0.0,21516000.0,0.0,21516000.0,1.04,1.01,20662425.0,21391000.0,0.476321817587,0.110840610493,0.0812502931901,0.039059450974,0.0104054075621,0.006833928902189999,168007000.0,80766000.0,21516000.0,0.017662981055400002,0.0104054075621
2013-12-31,2102019000.0,0.023523792087300002,1858553000.0,243466000.0,0.0,133588000.0,133588000.0,85878000.0,52068000.0,-13429000.0,2077000.0,0.0,0.0,-20275000.0,0.0,-20275000.0,-0.99,-0.99,20387168.0,20387168.0,0.45759175575499994,0.115824833172,0.08597210586580001,0.040855006543699994,-0.00964548845657,0.026905560796500003,180715000.0,85878000.0,-20275000.0,-0.00638861970325,-0.00964548845657
2012-12-31,2053708000.0,0.028366727456099996,1851878000.0,201830000.0,0.0,151553000.0,151553000.0,43028000.0,54256000.0,-11810000.0,13293000.0,0.0,0.0,-23264000.0,0.0,-23264000.0,-1.2,-1.2,19364433.0,19364433.0,0.0,0.098275899008,0.0709015108282,0.020951371860099998,-0.0113278031736,-0.006801843300020001,145611000.0,43028000.0,-23264000.0,-0.0057505740835600005,-0.0113278031736
2011-12-31,1997058000.0,0.160185136235,1786476000.0,210582000.0,0.0,143975000.0,143975000.0,49054000.0,66872000.0,-18156000.0,10297000.0,0.0,0.0,-36894000.0,10707000.0,-36894000.0,-3.43,-3.43,13865509.0,13865509.0,0.0,0.10544611123,0.08198159492610001,0.024563132367700004,-0.0184741755122,0.00994663149493,163722000.0,49054000.0,-36894000.0,-0.009091373410290001,-0.0184741755122
2010-12-31,1721327000.0,0.0531826566855,1534204000.0,187123000.0,0.0,138013000.0,156866000.0,30257000.0,59148000.0,-21038000.0,14361000.0,8441000.0,-15723000.0,-35399000.0,10707000.0,-46106000.0,-3.33,-3.33,19101588.0,13865509.0,0.0,0.1087,0.084,0.0221,-0.027000000000000003,0.0205,143813000.0,38110000.0,-26958000.0,-0.0122,-0.0206
2009-12-31,1634405000.0,-0.2474,1536752000.0,97653000.0,0.0,118331000.0,134551000.0,-36898000.0,57881000.0,-69040000.0,-1104000.0,8904000.0,0.0,-67936000.0,16087000.0,-84023000.0,-6.74,-6.74,,12467866.0,0.0,0.0597,0.084,-0.0068,-0.051,-0.0227,136546000.0,-11159000.0,-59032000.0,-0.0422,-0.0416
