,0,1,2,3,4,5,6,7,8,9,10,11,12,13,14
Date,Depreciation & Amortization,Stock-based compensation,Operating Cash Flow,Capital Expenditure,Acquisitions and disposals,Investment purchases and sales,Investing Cash flow,Issuance (repayment) of debt,Issuance (buybacks) of shares,Dividend payments,Financing Cash Flow,Effect of forex changes on cash,Net cash flow / Change in cash,Free Cash Flow,Net Cash/Marketcap
2019-12-31,8811000.0,3629000.0,37795000.0,4815000.0,-7704000.0,0.0,15901000.0,-0.0,-95250000.0,-3531000.0,67966000.0,0.0,95250000.0,32980000.0,0.0
2018-12-31,4061000.0,1411000.0,13090000.0,2267000.0,-19161000.0,-2000000.0,-24669000.0,-3286000.0,-3306000.0,-2318000.0,9930000.0,0.0,-1649000.0,10823000.0,0.0
2017-12-31,3399000.0,720000.0,29690000.0,2021000.0,268000.0,-179000.0,-1932000.0,-4783000.0,-2607000.0,-768000.0,-28016000.0,0.0,-258000.0,27669000.0,0.0
2016-12-31,3428000.0,100000.0,9128000.0,3207000.0,-23625000.0,0.0,-26832000.0,-450000.0,55736000.0,-0.0,15734000.0,0.0,-1970000.0,5921000.0,0.0
2015-12-31,1059000.0,234000.0,24430000.0,-1600000.0,0.0,0.0,-2030000.0,-23984000.0,0.0,0.0,-26032000.0,0.0,-3632000.0,22830000.0,-1.6538
2014-12-31,933000.0,585000.0,6025000.0,-1314000.0,0.0,0.0,-1314000.0,-41187000.0,-1436000.0,0.0,-31623000.0,0.0,-26912000.0,4711000.0,-1.6538
