,0,1,2,3,4,5,6,7,8,9,10,11,12,13,14,15,16,17,18,19,20,21,22,23,24,25,26,27,28,29,30
Date,Revenue,Revenue Growth,Cost of Revenue,Gross Profit,R&D Expenses,SG&A Expense,Operating Expenses,Operating Income,Interest Expense,Earnings before Tax,Income Tax Expense,Net Income - Non-Controlling int,Net Income - Discontinued ops,Net Income,Preferred Dividends,Net Income Com,EPS,EPS Diluted,Weighted Average Shs Out,Weighted Average Shs Out (Dil),Dividend per Share,Gross Margin,EBITDA Margin,EBIT Margin,Profit Margin,Free Cash Flow margin,EBITDA,EBIT,Consolidated Income,Earnings Before Tax Margin,Net Profit Margin
2019-12-31,4062000.0,0.0934051144011,0.0,0.0,0.0,5349000.0,14882000.0,-2051000.0,0.0,-2051000.0,128000.0,0.0,0.0,-2179000.0,0.0,-2179000.0,-0.07,-0.07,31915000.0,31915000.0,0.0,0.0,0.901772525849,-0.504923682915,-0.53643525357,-0.8855243722299999,3663000.0,-2051000.0,-2179000.0,-0.504923682915,-0.53643525357
2018-12-31,3715000.0,0.995166487648,0.0,0.0,0.0,5728000.0,10798000.0,-7083000.0,0.0,-7599000.0,290000.0,0.0,0.0,-7889000.0,0.0,-7889000.0,-0.25,-0.25,31607000.0,31607000.0,0.0,0.0,-0.565814266487,-1.9065948856000001,-2.12355316285,-0.7189771197849999,-2102000.0,-7083000.0,-7889000.0,-2.0454912516799997,-2.12355316285
2017-12-31,1862000.0,0.0032327586206900003,0.0,0.0,0.0,5828000.0,11081000.0,-9219000.0,0.0,-9018000.0,-3144000.0,0.0,0.0,-2021000.0,0.0,-2021000.0,-0.07,-0.07,30451000.0,30451000.0,0.0,0.0,-4.2604726101,-4.95112781955,-1.08539205156,-2.49194414608,-7933000.0,-9219000.0,-2021000.0,-4.843179377009999,-1.08539205156
2016-12-31,1856000.0,1.20689655172,0.0,0.0,0.0,5912000.0,9034000.0,-7178000.0,0.0,-7410000.0,26000.0,0.0,0.0,-7436000.0,0.0,-7436000.0,-0.29,-0.29,25439000.0,25439000.0,0.0,0.0,-3.38254310345,-3.86745689655,-4.0064655172400006,-7.99676724138,-6278000.0,-7178000.0,-7436000.0,-3.99245689655,-4.0064655172400006
2015-12-31,841000.0,1.0,0.0,0.0,0.0,4296000.0,7583000.0,-6742000.0,246000.0,-6494000.0,67000.0,0.0,0.0,-6561000.0,0.0,-6561000.0,-0.32,-0.32,20518000.0,20518000.0,0.0,0.0,-7.30321046373,-8.01664684899,-7.80142687277,-8.36385255648,-6142000.0,-6742000.0,-6561000.0,-7.72175980975,-7.80142687277
2015-02-28,0.0,0.0,0.0,0.0,0.0,0.0,0.0,0.0,0.0,0.0,0.0,0.0,0.0,0.0,0.0,0.0,0.0,0.0,0.0,0.0,0.0,0.0,0.0,0.0,0.0,0.0,0.0,0.0,0.0,0.0,0.0
2012-02-25,0.0,0.0,0.0,0.0,0.0,0.0,0.0,0.0,0.0,0.0,0.0,0.0,0.0,0.0,0.0,0.0,0.0,0.0,0.0,0.0,0.0,0.0,0.0,0.0,0.0,0.0,0.0,0.0,0.0,0.0,0.0
