,0,1,2,3,4,5,6,7,8,9,10,11,12,13,14,15,16,17,18,19,20,21,22,23,24,25,26,27,28,29,30
Date,Revenue,Revenue Growth,Cost of Revenue,Gross Profit,R&D Expenses,SG&A Expense,Operating Expenses,Operating Income,Interest Expense,Earnings before Tax,Income Tax Expense,Net Income - Non-Controlling int,Net Income - Discontinued ops,Net Income,Preferred Dividends,Net Income Com,EPS,EPS Diluted,Weighted Average Shs Out,Weighted Average Shs Out (Dil),Dividend per Share,Gross Margin,EBITDA Margin,EBIT Margin,Profit Margin,Free Cash Flow margin,EBITDA,EBIT,Consolidated Income,Earnings Before Tax Margin,Net Profit Margin
2019-12-31,982702000.0,1.6558867487,0.0,0.0,0.0,53763000.0,53763000.0,201332000.0,8228000.0,201332000.0,713000.0,0.0,0.0,200619000.0,0.0,200619000.0,2.18,2.16,91835990.0,92652316.0,0.0,0.0,0.206282270719,0.20487594408100002,0.20415039350699998,0.143595922263,202714000.0,201332000.0,200619000.0,0.20487594408100002,0.20415039350699998
2018-12-31,370009000.0,-0.605958822634,0.0,0.0,0.0,36241000.0,36241000.0,-321479000.0,8228000.0,-321479000.0,-4010000.0,0.0,0.0,-317692000.0,0.0,-317692000.0,-3.27,-3.27,97054315.0,97054315.0,0.0,0.0,-0.8800137293960001,-0.8688410281910001,-0.858606142013,0.0361802010221,-325613000.0,-321479000.0,-317692000.0,-0.8688410281910001,-0.858606142013
2017-12-31,939011000.0,0.36283099787399997,0.0,0.0,0.0,53103000.0,53103000.0,293747000.0,8225000.0,293747000.0,11976000.0,0.0,0.0,277798000.0,0.0,277798000.0,2.71,2.64,102264094.0,105227038.0,0.0,0.0,0.312322219867,0.312825941336,0.29584104978500003,-0.0836369329007,293274000.0,293747000.0,277798000.0,0.312825941336,0.29584104978500003
2016-12-31,689015000.0,0.19880817746800003,0.0,0.0,0.0,39367000.0,39367000.0,34469000.0,8231000.0,34469000.0,5593000.0,0.0,0.0,27635000.0,0.0,27635000.0,0.26,0.26,104060052.0,105563784.0,0.0,0.0,0.04259849205019999,0.0500264870866,0.0401079802327,0.00692437755346,29351000.0,34469000.0,27635000.0,0.0500264870866,0.0401079802327
2015-12-31,574750000.0,0.0842007568183,0.0,0.0,0.0,46033000.0,46033000.0,-90344000.0,7236000.0,-90344000.0,-2905000.0,0.0,0.0,-87390000.0,0.0,-87390000.0,-0.84,-0.84,104003820.0,104003820.0,0.0,0.0,-0.157752066116,-0.157188342758,-0.152048716833,0.326709003915,-90668000.0,-90344000.0,-87390000.0,-0.157188342758,-0.152048716833
2014-12-31,530114000.0,0.11869078017200001,0.0,0.0,1621000.0,40008000.0,41629000.0,62358000.0,0.0,62358000.0,5648000.0,0.0,0.0,50395000.0,0.0,50395000.0,0.48,0.47,103287693.0,106391059.0,0.0,0.0,0.119600689663,0.117631301946,0.09506445783360001,0.230950323893,63402000.0,62358000.0,50395000.0,0.117631301946,0.09506445783360001
2013-12-31,473870000.0,1.03073507922,0.0,0.0,1290000.0,33036000.0,34326000.0,227311000.0,0.0,0.0,0.0,0.0,0.0,227311000.0,0.0,227311000.0,2.58,2.54,87505540.0,88970531.0,0.0,0.0,0.48024352670599996,0.479690632452,0.479690632452,0.0194378204993,227573000.0,227311000.0,227311000.0,0.0,0.479690632452
2012-12-31,233349000.0,1.0,80306000.0,153043000.0,0.0,27376000.0,52426000.0,100617000.0,0.0,99401000.0,0.0,1216000.0,0.0,99401000.0,0.0,99401000.0,1.26,1.26,,78432132.0,0.0,0.6559,0.426,0.426,0.426,-0.1324,99401000.0,99401000.0,100617000.0,0.426,0.426
2011-12-31,0.0,,0.0,0.0,0.0,1130000.0,1130000.0,-1130000.0,0.0,-1130000.0,0.0,0.0,0.0,-1130000.0,0.0,-1130000.0,-0.01,-0.01,,78432132.0,0.0,0.0,,0.0,,0.0,-1130000.0,-1130000.0,-1130000.0,0.0,0.0
