,0,1,2,3,4,5,6,7,8,9,10,11,12,13,14,15,16,17,18,19,20,21,22,23,24,25,26,27,28
Date,Cash and cash equivalents,Short-term investments,Cash and short-term investments,Receivables,Inventories,Total current assets,Property Plant & Equipment Net,Goodwill and Intangible Assets,Long-term investments,Tax assets,Total non-current assets,Total assets,Payables,Short-term debt,Total current liabilities,Long-term debt,Total debt,Deferred revenue,Tax Liabilities,Deposit Liabilities,Total non-current liabilities,Total liabilities,Other comprehensive income,Retained earnings (deficit),Total shareholders equity,Investments,Net Debt,Other Assets,Other Liabilities
2019-12-31,48188000.0,360963000.0,409151000.0,0.0,0.0,414947000.0,2689000.0,0.0,0.0,0.0,7255000.0,422202000.0,2150000.0,1236000.0,14032000.0,3819000.0,5055000.0,0.0,14816000.0,0.0,4917000.0,17851000.0,526960000.0,-122884000.0,404351000.0,360963000.0,-43133000.0,0.0,-1098000.0
2018-12-31,101029000.0,0.0,101029000.0,0.0,0.0,101523000.0,1000000.0,0.0,0.0,0.0,1757000.0,103280000.0,1494000.0,0.0,5322000.0,448000.0,448000.0,0.0,0.0,0.0,146364000.0,151686000.0,0.0,-50753000.0,-48406000.0,0.0,-100581000.0,494000.0,3828000.0
2017-12-31,45033000.0,0.0,45033000.0,0.0,0.0,45614000.0,256000.0,0.0,0.0,0.0,294000.0,45908000.0,1339000.0,0.0,4525000.0,0.0,0.0,0.0,0.0,0.0,66227000.0,70752000.0,0.0,-25968000.0,-24844000.0,0.0,-45033000.0,581000.0,3186000.0
