,0,1,2,3,4,5,6,7,8,9,10,11,12,13,14
Date,Depreciation & Amortization,Stock-based compensation,Operating Cash Flow,Capital Expenditure,Acquisitions and disposals,Investment purchases and sales,Investing Cash flow,Issuance (repayment) of debt,Issuance (buybacks) of shares,Dividend payments,Financing Cash Flow,Effect of forex changes on cash,Net cash flow / Change in cash,Free Cash Flow,Net Cash/Marketcap
2019-12-31,80426000.0,52167000.0,157174000.0,20041000.0,-0.0,-5470000.0,-101060000.0,50000000.0,-5470000.0,-0.0,-87678000.0,0.0,60339000.0,137133000.0,0.0
2018-12-31,44656000.0,44365000.0,123948000.0,14907000.0,-11566000.0,-93704000.0,-383038000.0,-0.0,-91487000.0,-0.0,4843000.0,0.0,105158000.0,109041000.0,0.0
2017-12-31,28968000.0,23361000.0,103538000.0,8045000.0,-29504000.0,-19901000.0,-74437000.0,-0.0,-18299000.0,-0.0,253125000.0,0.0,277419000.0,95493000.0,0.0
2016-12-31,6187000.0,9647000.0,58454000.0,33985000.0,-0.0,-48524000.0,-117215000.0,-0.0,-52609000.0,-0.0,-46880000.0,0.0,-115844000.0,24469000.0,0.0
2015-12-31,3157000.0,8508000.0,32584000.0,7274000.0,-0.0,-218000.0,4901000.0,-0.0,-7830000.0,-131000.0,86909000.0,0.0,120763000.0,25310000.0,0.0
2014-12-31,3381000.0,7446000.0,9075000.0,4596000.0,-0.0,-2610000.0,2704000.0,-0.0,-7422000.0,-229000.0,-7651000.0,0.0,-5455000.0,4479000.0,0.0
2013-12-31,3648000.0,5627000.0,10238000.0,2750000.0,-0.0,-3321000.0,647000.0,-0.0,-6127000.0,144000.0,-5983000.0,0.0,11477000.0,7488000.0,0.0
2012-12-31,4463000.0,4587000.0,-4722000.0,2632000.0,-0.0,-879000.0,-3717000.0,-0.0,-1694000.0,-11428000.0,-11923000.0,0.0,34649000.0,-7354000.0,0.0
2011-12-31,5914000.0,3777000.0,-28052000.0,6110000.0,-0.0,0.0,-8091000.0,-0.0,-46503000.0,-0.0,-3287000.0,0.0,-23278000.0,-34162000.0,0.0
2010-12-31,4448000.0,3104000.0,-24981000.0,-5123000.0,-250000.0,0.0,-5283000.0,0.0,-9102000.0,0.0,12990000.0,0.0,-17274000.0,-30104000.0,0.7349
2009-12-31,11513000.0,3892000.0,13217000.0,-3865000.0,-5726000.0,0.0,-5551000.0,2295000.0,3364000.0,0.0,4784000.0,0.0,12450000.0,9352000.0,1.135
