,0,1,2,3,4,5,6,7,8,9,10,11,12,13,14
Date,Depreciation & Amortization,Stock-based compensation,Operating Cash Flow,Capital Expenditure,Acquisitions and disposals,Investment purchases and sales,Investing Cash flow,Issuance (repayment) of debt,Issuance (buybacks) of shares,Dividend payments,Financing Cash Flow,Effect of forex changes on cash,Net cash flow / Change in cash,Free Cash Flow,Net Cash/Marketcap
2019-12-31,45153000.0,27278000.0,-5815000.0,8676000.0,-158762000.0,0.0,-180925000.0,-9630000.0,-42478000.0,-0.0,208292000.0,0.0,21552000.0,-14491000.0,0.0
2018-12-31,16905000.0,10361000.0,15830000.0,5018000.0,-32232000.0,-2866000.0,-43808000.0,-1051000.0,-2866000.0,-0.0,42577000.0,0.0,14599000.0,10812000.0,0.0
2017-12-31,9604000.0,8752000.0,18308000.0,3303000.0,-34451000.0,-959000.0,-41068000.0,-766000.0,33938000.0,-0.0,28845000.0,0.0,6085000.0,15005000.0,0.0
2016-12-31,6394000.0,4250000.0,6774000.0,3842000.0,-5400000.0,0.0,-10896000.0,-47369000.0,-4345000.0,-0.0,6441000.0,0.0,2319000.0,2932000.0,0.0
2015-12-31,3933000.0,565000.0,3256000.0,-1174000.0,-2403000.0,0.0,-3277000.0,625000.0,-469000.0,0.0,-2075000.0,0.0,-2096000.0,2082000.0,-0.2016
2014-12-31,1817000.0,254000.0,870000.0,-968000.0,-13448000.0,0.0,-14916000.0,13221000.0,59000.0,0.0,12141000.0,0.0,-1905000.0,-98000.0,-0.2016
