,0,1,2,3,4,5,6,7,8,9,10,11,12,13,14
Date,Depreciation & Amortization,Stock-based compensation,Operating Cash Flow,Capital Expenditure,Acquisitions and disposals,Investment purchases and sales,Investing Cash flow,Issuance (repayment) of debt,Issuance (buybacks) of shares,Dividend payments,Financing Cash Flow,Effect of forex changes on cash,Net cash flow / Change in cash,Free Cash Flow,Net Cash/Marketcap
2018-12-31,0.0,0.0,70738000.0,-175592000.0,0.0,0.0,-175592000.0,797000.0,99999000.0,0.0,95994000.0,0.0,-8860000.0,-104854000.0,
2017-12-31,0.0,0.0,109845000.0,-113730000.0,0.0,0.0,-113730000.0,63361000.0,0.0,-1240000.0,62715000.0,0.0,58830000.0,-3885000.0,
2016-12-31,0.0,0.0,171143000.0,-119408000.0,0.0,0.0,-119408000.0,-96894000.0,-22128000.0,-25000000.0,-145610000.0,0.0,-93875000.0,51735000.0,
2015-12-31,0.0,0.0,213955000.0,-236324000.0,77544000.0,0.0,-158780000.0,63886000.0,13864000.0,0.0,75027000.0,0.0,130202000.0,-22369000.0,
2014-12-31,0.0,0.0,17300000.0,-377900000.0,0.0,0.0,-377900000.0,141600000.0,256600000.0,-1100000.0,397100000.0,0.0,36500000.0,-360600000.0,
