,0,1,2,3,4,5,6,7,8,9,10,11,12,13,14,15,16,17,18,19,20,21,22,23,24,25,26,27,28,29,30
Date,Revenue,Revenue Growth,Cost of Revenue,Gross Profit,R&D Expenses,SG&A Expense,Operating Expenses,Operating Income,Interest Expense,Earnings before Tax,Income Tax Expense,Net Income - Non-Controlling int,Net Income - Discontinued ops,Net Income,Preferred Dividends,Net Income Com,EPS,EPS Diluted,Weighted Average Shs Out,Weighted Average Shs Out (Dil),Dividend per Share,Gross Margin,EBITDA Margin,EBIT Margin,Profit Margin,Free Cash Flow margin,EBITDA,EBIT,Consolidated Income,Earnings Before Tax Margin,Net Profit Margin
2018-12-31,419420000.0,0.029125260704200004,0.0,0.0,0.0,238033000.0,238033000.0,149584000.0,66192000.0,0.0,22269000.0,0.0,0.0,149584000.0,0.0,149584000.0,2.22,2.21,67505000.0,67659000.0,0.922641481547,0.0,0.44948738734399996,0.35664489056299997,0.35664489056299997,0.535391731439,188524000.0,149584000.0,149584000.0,0.0,0.35664489056299997
2017-12-31,407550000.0,0.0516523754106,0.0,0.0,0.0,234987000.0,234987000.0,105630000.0,42245000.0,0.0,48715000.0,0.0,0.0,105630000.0,0.0,105630000.0,1.56,1.56,67727000.0,67887000.0,0.924993003079,0.0,0.353578702,0.259182922341,0.259182922341,0.47451355661899997,144101000.0,105630000.0,105630000.0,0.0,0.259182922341
2016-12-31,387533000.0,-0.0108023942925,0.0,0.0,0.0,239637000.0,239637000.0,108411000.0,24547000.0,0.0,31053000.0,0.0,0.0,108411000.0,0.0,108411000.0,1.6,1.6,67620000.0,67784000.0,0.9244954561550001,0.0,0.37422361450499997,0.279746499008,0.279746499008,0.35408339418799994,145024000.0,108411000.0,108411000.0,0.0,0.279746499008
2015-12-31,391765000.0,-0.0334808652575,0.0,0.0,0.0,230198000.0,230198000.0,116038000.0,20460000.0,0.0,35414000.0,0.0,0.0,116038000.0,0.0,116038000.0,1.72,1.71,67550000.0,67692000.0,0.924850794776,0.0,0.39078018710199997,0.296192870726,0.296192870726,0.406187382742,153094000.0,116038000.0,116038000.0,0.0,0.296192870726
2014-12-31,405336000.0,0.043370820645199995,0.0,0.0,0.0,226694000.0,226694000.0,123562000.0,21546000.0,0.0,38529000.0,0.0,0.0,123562000.0,0.0,123562000.0,1.83,1.83,67434000.0,67594000.0,0.924253631979,0.0,0.39383129058399996,0.30483845501,0.30483845501,0.49064973256800004,159634000.0,123562000.0,123562000.0,0.0,0.30483845501
2013-12-31,388487000.0,0.139291474823,0.0,0.0,0.0,221727000.0,221727000.0,117060000.0,25859000.0,0.0,36937000.0,0.0,0.0,117060000.0,0.0,117060000.0,1.75,1.75,66897000.0,67073000.0,0.9284809088600001,0.0,0.39695794196500006,0.30132282418699996,0.30132282418699996,0.358900040413,154213000.0,117060000.0,117060000.0,0.0,0.30132282418699996
2012-12-31,340990000.0,-0.0227916880407,0.0,0.0,0.0,190519000.0,190519000.0,117283000.0,30669000.0,0.0,42100000.0,0.0,0.0,117283000.0,0.0,117283000.0,1.81,1.81,64659000.0,64851000.0,0.924596382477,0.0,0.429801460453,0.34394850288900003,0.34394850288900003,0.21980996510200002,146558000.0,117283000.0,117283000.0,0.0,0.34394850288900003
2011-12-31,348943000.0,-0.0087494283044,0.0,0.0,0.0,178556000.0,178556000.0,106841000.0,43036000.0,0.0,41778000.0,0.0,0.0,106841000.0,0.0,106841000.0,1.67,1.66,64066000.0,64261000.0,0.925678094023,0.0,0.378611979607,0.30618467772700003,0.30618467772700003,0.46255405610699996,132114000.0,106841000.0,106841000.0,0.0,0.30618467772700003
2010-12-31,352023000.0,-0.209539249875,0.0,0.0,0.0,174582000.0,174582000.0,142755000.0,56195000.0,142755000.0,42119000.0,0.0,0.0,100636000.0,0.0,100636000.0,1.58,1.57,0.0,0.0,0.0,0.0,0.48765279541400003,0.405527479739,0.285879047676,0.5683094570530001,171665000.0,142755000.0,100636000.0,0.405527479739,0.285879047676
2009-12-31,445339000.0,0.0603,0.0,445339000.0,0.0,205765000.0,308259000.0,137080000.0,0.0,137080000.0,44033000.0,0.0,0.0,93047000.0,19998000.0,73049000.0,1.26,1.26,57440047.0,57440047.0,0.92,1.0,0.36700000000000005,0.3078,0.16399999999999998,0.3742,163569000.0,137080000.0,93047000.0,0.3078,0.2089
