,0,1,2,3,4,5,6,7,8,9,10,11,12,13,14,15,16,17,18,19,20,21,22,23,24,25,26,27,28
Date,Cash and cash equivalents,Short-term investments,Cash and short-term investments,Receivables,Inventories,Total current assets,Property Plant & Equipment Net,Goodwill and Intangible Assets,Long-term investments,Tax assets,Total non-current assets,Total assets,Payables,Short-term debt,Total current liabilities,Long-term debt,Total debt,Deferred revenue,Tax Liabilities,Deposit Liabilities,Total non-current liabilities,Total liabilities,Other comprehensive income,Retained earnings (deficit),Total shareholders equity,Investments,Net Debt,Other Assets,Other Liabilities
2019-03-30,788000.0,500000.0,1288000.0,27469000.0,14304000.0,45006000.0,19653000.0,39778000.0,0.0,0.0,60224000.0,105230000.0,14572000.0,1899000.0,22149000.0,19103000.0,21002000.0,0.0,228000.0,0.0,23451000.0,45600000.0,16467000.0,40169000.0,59630000.0,500000.0,20214000.0,0.0,0.0
2018-03-31,577000.0,700000.0,1277000.0,24684000.0,12651000.0,40513000.0,17091000.0,38245000.0,0.0,0.0,56309000.0,96822000.0,13535000.0,2143000.0,21150000.0,20707000.0,22850000.0,0.0,232000.0,0.0,24324000.0,45474000.0,14965000.0,33086000.0,51348000.0,700000.0,22273000.0,0.0,0.0
2017-03-25,842000.0,700000.0,1542000.0,22049000.0,10278000.0,35589000.0,15568000.0,40039000.0,0.0,0.0,56508000.0,92097000.0,11615000.0,1429000.0,19756000.0,25883000.0,27312000.0,0.0,805000.0,0.0,28940000.0,48696000.0,12996000.0,27297000.0,43401000.0,700000.0,26470000.0,0.0,0.0
2016-03-26,641000.0,700000.0,1341000.0,17080000.0,6520000.0,26218000.0,12313000.0,37323000.0,0.0,0.0,50489000.0,76707000.0,8141000.0,19100000.0,15829000.0,19073000.0,38173000.0,0.0,0.0,0.0,21967000.0,37796000.0,12993000.0,22814000.0,38911000.0,700000.0,37532000.0,0.0,0.0
2015-03-28,65000.0,0.0,65000.0,18070000.0,6750000.0,27142000.0,9397000.0,24477000.0,0.0,1048000.0,35007000.0,62149000.0,7695000.0,0.0,11933000.0,12168000.0,12168000.0,0.0,1727000.0,0.0,15898000.0,27831000.0,-143000.0,18754000.0,34318000.0,0.0,12103000.0,2257000.0,4238000.0
2014-03-29,23000.0,800000.0,823000.0,15663000.0,6181000.0,25531000.0,7089000.0,20035000.0,0.0,1396000.0,28343000.0,53874000.0,7132000.0,0.0,13857000.0,7593000.0,7593000.0,0.0,1035000.0,0.0,9934000.0,23791000.0,11387000.0,14771000.0,30083000.0,800000.0,7570000.0,0.0,0.0
2013-03-30,406000.0,600000.0,1006000.0,15411000.0,6803000.0,25818000.0,6885000.0,21283000.0,0.0,1087000.0,29229000.0,55047000.0,8883000.0,0.0,13327000.0,8017000.0,8017000.0,0.0,465000.0,0.0,10070000.0,23397000.0,10616000.0,16841000.0,31650000.0,600000.0,7611000.0,0.0,0.0
2012-03-31,0.0,0.0,0.0,0.0,0.0,0.0,0.0,0.0,0.0,0.0,0.0,0.0,0.0,0.0,0.0,0.0,0.0,0.0,0.0,0.0,0.0,0.0,0.0,0.0,0.0,0.0,0.0,0.0,0.0
2011-03-26,32000.0,0.0,32000.0,12681000.0,7571000.0,21755000.0,5253000.0,13648000.0,0.0,927000.0,19605000.0,41360000.0,8241000.0,0.0,12028000.0,5253000.0,5253000.0,0.0,208000.0,0.0,6003000.0,18031000.0,485000.0,11092000.0,23329000.0,0.0,5221000.0,1471000.0,3787000.0
2010-03-27,123000.0,0.0,123000.0,11857000.0,5906000.0,19367000.0,4163000.0,11272000.0,0.0,1099000.0,16346000.0,35713000.0,8798000.0,0.0,12220000.0,2532000.0,2532000.0,0.0,251000.0,0.0,3236000.0,15456000.0,382000.0,8304000.0,20257000.0,0.0,2409000.0,1481000.0,3422000.0
