,0,1,2,3,4,5,6,7,8,9,10,11,12,13,14,15,16,17,18,19,20,21,22,23,24,25,26,27,28
Date,Cash and cash equivalents,Short-term investments,Cash and short-term investments,Receivables,Inventories,Total current assets,Property Plant & Equipment Net,Goodwill and Intangible Assets,Long-term investments,Tax assets,Total non-current assets,Total assets,Payables,Short-term debt,Total current liabilities,Long-term debt,Total debt,Deferred revenue,Tax Liabilities,Deposit Liabilities,Total non-current liabilities,Total liabilities,Other comprehensive income,Retained earnings (deficit),Total shareholders equity,Investments,Net Debt,Other Assets,Other Liabilities
2018-12-31,1425200000.0,99600000.0,1524800000.0,549600000.0,0.0,2074400000.0,661300000.0,0.0,0.0,109900000.0,5614900000.0,7689300000.0,228500000.0,0.0,282700000.0,0.0,0.0,0.0,54200000.0,0.0,96800000.0,1565000000.0,6160700000.0,-42000000.0,6124300000.0,99600000.0,-1425200000.0,0.0,1185500000.0
2017-12-31,1902700000.0,0.0,1902700000.0,556700000.0,0.0,2459400000.0,652000000.0,0.0,0.0,70300000.0,5075300000.0,7534700000.0,215500000.0,0.0,283800000.0,0.0,0.0,0.0,68300000.0,0.0,111200000.0,1710300000.0,5782600000.0,-3600000.0,5824400000.0,0.0,-1902700000.0,0.0,1315300000.0
2016-12-31,1204900000.0,0.0,1204900000.0,455100000.0,0.0,1660000000.0,615100000.0,0.0,0.0,132500000.0,4565000000.0,6225000000.0,180800000.0,0.0,220100000.0,0.0,0.0,0.0,39300000.0,0.0,143300000.0,1216400000.0,4936600000.0,11500000.0,5008600000.0,0.0,-1204900000.0,0.0,853000000.0
2015-12-31,1172300000.0,0.0,1172300000.0,446000000.0,0.0,1618300000.0,607100000.0,0.0,69400000.0,113800000.0,3488600000.0,5106900000.0,170600000.0,0.0,191800000.0,0.0,0.0,0.0,21200000.0,0.0,136500000.0,344900000.0,4538700000.0,86600000.0,4762000000.0,69400000.0,-1172300000.0,0.0,16600000.0
2014-12-31,1506100000.0,0.0,1506100000.0,442800000.0,0.0,1948900000.0,586400000.0,0.0,3000000.0,61700000.0,3695500000.0,5644400000.0,143400000.0,0.0,167000000.0,0.0,0.0,0.0,23600000.0,0.0,166200000.0,249200000.0,5070200000.0,136400000.0,5395200000.0,3000000.0,-1506100000.0,0.0,0.0
2013-12-31,1398000000.0,0.0,1398000000.0,398800000.0,0.0,1796800000.0,572900000.0,0.0,6600000.0,1200000.0,3236300000.0,5033100000.0,103900000.0,0.0,142600000.0,0.0,0.0,0.0,38700000.0,0.0,193200000.0,215000000.0,4389100000.0,188300000.0,4818100000.0,6600000.0,-1398000000.0,0.0,0.0
2012-12-31,879100000.0,136000000.0,1015100000.0,353900000.0,0.0,1369000000.0,561000000.0,0.0,12700000.0,45000000.0,2833800000.0,4202800000.0,89700000.0,0.0,111200000.0,0.0,0.0,0.0,21500000.0,0.0,136700000.0,356700000.0,3530900000.0,131900000.0,3846100000.0,148700000.0,-879100000.0,0.0,108800000.0
2011-12-31,897900000.0,198400000.0,1096300000.0,304500000.0,0.0,1400800000.0,567400000.0,0.0,39900000.0,20100000.0,2369500000.0,3770300000.0,82900000.0,0.0,112900000.0,0.0,0.0,0.0,30000000.0,0.0,110300000.0,349600000.0,3164400000.0,102800000.0,3420700000.0,238300000.0,-897900000.0,0.0,126400000.0
2010-12-31,0.0,4800000.0,4800000.0,307900000.0,0.0,312700000.0,940800000.0,0.0,13600000.0,31900000.0,-312700000.0,0.0,0.0,0.0,0.0,0.0,0.0,0.0,0.0,0.0,112300000.0,-3296500000.0,2966600000.0,139100000.0,3296500000.0,18400000.0,0.0,0.0,-3408800000.0
2009-12-31,743300000.0,,,246200000.0,0.0,,512800000.0,665700000.0,,0.0,,3210300000.0,79900000.0,,,,0.0,0.0,33600000.0,161300000.0,,328100000.0,101900000.0,2240100000.0,2882200000.0,905800000.0,,,
