,0,1,2,3,4,5,6,7,8,9,10,11,12,13,14
Date,Depreciation & Amortization,Stock-based compensation,Operating Cash Flow,Capital Expenditure,Acquisitions and disposals,Investment purchases and sales,Investing Cash flow,Issuance (repayment) of debt,Issuance (buybacks) of shares,Dividend payments,Financing Cash Flow,Effect of forex changes on cash,Net cash flow / Change in cash,Free Cash Flow,Net Cash/Marketcap
2018-12-31,0.0,0.0,179968000.0,-1304347000.0,0.0,0.0,-33731000.0,13261000.0,0.0,0.0,12898000.0,-851000.0,158284000.0,-1124379000.0,
2017-12-31,0.0,0.0,118000000.0,-917541000.0,0.0,1069000.0,-96266000.0,7780000.0,0.0,0.0,5076000.0,219000.0,27029000.0,-799541000.0,
2016-12-31,0.0,0.0,230649000.0,-323536000.0,0.0,12986000.0,-4286471000.0,4287924000.0,0.0,0.0,4128632000.0,1066000.0,73876000.0,-92887000.0,
2015-12-31,0.0,0.0,582481000.0,-114974000.0,11867000.0,20023000.0,-81553000.0,0.0,34000.0,0.0,-22729000.0,-864000.0,477335000.0,467507000.0,
2014-12-31,0.0,0.0,696870000.0,-232033000.0,0.0,115000000.0,-121439000.0,-2075436000.0,2288664000.0,0.0,213130000.0,-130000.0,788431000.0,464837000.0,
2013-12-31,0.0,0.0,-630897000.0,-1070777000.0,59810000.0,247193000.0,-786847000.0,330258000.0,1762000.0,0.0,336623000.0,-3651000.0,-1084772000.0,-1701674000.0,
2012-12-31,0.0,0.0,-507305000.0,-2480460000.0,13000000.0,25544000.0,-2524445000.0,1351545000.0,1792514000.0,0.0,3178671000.0,17909000.0,164830000.0,-2987765000.0,
2011-12-31,0.0,0.0,-371721000.0,-2600871000.0,0.0,-7409000.0,-2543217000.0,391983000.0,2212145000.0,0.0,2660968000.0,-12007000.0,-265977000.0,-2972592000.0,
2010-12-31,0.0,0.0,-294276000.0,-675198000.0,6442000.0,-198687000.0,-866416000.0,-3244000.0,785203000.0,0.0,1426989000.0,31911000.0,298208000.0,-969474000.0,
2009-12-31,0.0,0.0,-183259000.0,-35975000.0,38725000.0,-186759000.0,-190348000.0,520382000.0,392877000.0,0.0,912591000.0,42729000.0,581713000.0,-219234000.0,
