,0,1,2,3,4,5,6,7,8,9,10,11,12,13,14,15,16,17,18,19,20,21,22,23,24,25,26,27,28,29,30
Date,Revenue,Revenue Growth,Cost of Revenue,Gross Profit,R&D Expenses,SG&A Expense,Operating Expenses,Operating Income,Interest Expense,Earnings before Tax,Income Tax Expense,Net Income - Non-Controlling int,Net Income - Discontinued ops,Net Income,Preferred Dividends,Net Income Com,EPS,EPS Diluted,Weighted Average Shs Out,Weighted Average Shs Out (Dil),Dividend per Share,Gross Margin,EBITDA Margin,EBIT Margin,Profit Margin,Free Cash Flow margin,EBITDA,EBIT,Consolidated Income,Earnings Before Tax Margin,Net Profit Margin
2018-12-31,303956000.0,0.252564213511,252590000.0,51366000.0,0.0,43163000.0,52411000.0,-1045000.0,1198000.0,-934000.0,-7000.0,0.0,0.0,-927000.0,0.0,-927000.0,-0.03,-0.03,31961192.0,31961192.0,0.0,0.168991564569,0.0114062561687,-0.0034379976049200003,-0.0030497835213,-0.145600021056,3467000.0,-1045000.0,-927000.0,-0.00307281317033,-0.0030497835213
2017-12-31,242667000.0,0.289204696382,199617000.0,43050000.0,0.0,35924000.0,45692000.0,-2642000.0,533000.0,-1931000.0,-428000.0,0.0,0.0,-1503000.0,0.0,-1503000.0,-0.05,-0.05,29588324.0,29588324.0,0.0,0.17740360246800002,0.00655218880194,-0.0108873476822,-0.006193672810890001,0.0269299080633,1590000.0,-2642000.0,-1503000.0,-0.00795740665191,-0.006193672810890001
2016-12-31,188230000.0,0.280798568347,154942000.0,33288000.0,0.0,30452000.0,39986000.0,-6698000.0,200000.0,-6858000.0,38000.0,0.0,0.0,-6896000.0,0.0,-6896000.0,-0.24,-0.24,28527602.0,28527602.0,0.0,0.176847473835,-0.0148435424746,-0.0355841258035,-0.0366360303884,0.016283270467,-2794000.0,-6698000.0,-6896000.0,-0.0364341497105,-0.0366360303884
2015-12-31,146963000.0,0.26790613406999997,121734000.0,25229000.0,628000.0,30789000.0,42004000.0,-16775000.0,300000.0,-17222000.0,114000.0,0.0,0.0,-17205000.0,0.0,-17205000.0,-0.62,-0.62,27638443.0,27638443.0,0.0,0.171669059559,-0.0967046127257,-0.11414437647600001,-0.117070282996,-0.104237120908,-14212000.0,-16775000.0,-17205000.0,-0.11718595837000001,-0.117070282996
2014-12-31,115910000.0,0.382695725823,96036000.0,19874000.0,9899000.0,25920000.0,35819000.0,-15945000.0,6726000.0,-21371000.0,-7000.0,0.0,0.0,-21177000.0,0.0,-21177000.0,-1.64,-1.64,12934477.0,12934477.0,0.0,0.171460615995,-0.07969976706069999,-0.137563626952,-0.18270209645399998,-0.141782417393,-9238000.0,-15945000.0,-21177000.0,-0.18437580881700003,-0.18270209645399998
2013-12-31,83829000.0,0.509616423555,68185000.0,15644000.0,4888000.0,17743000.0,22631000.0,-6987000.0,609000.0,-8267000.0,-92000.0,0.0,0.0,-8175000.0,0.0,-8175000.0,-6.23,-6.23,,1312019.0,0.0,0.1866,-0.081,-0.0914,-0.098,-0.0298,-6766000.0,-7658000.0,-8175000.0,-0.0986,-0.0975
2012-12-31,55530000.0,0.49898771764100003,44319000.0,11211000.0,3406000.0,13344000.0,16750000.0,-5539000.0,535000.0,-6326000.0,84000.0,0.0,0.0,-6410000.0,1737000.0,-8147000.0,-9.76,-9.76,,834648.0,0.0,0.2019,-0.098,-0.1043,-0.147,-0.0648,-5442000.0,-5791000.0,-6410000.0,-0.1139,-0.1154
2011-12-31,37045000.0,,29002000.0,8043000.0,1499000.0,9495000.0,10994000.0,-2951000.0,690000.0,-3827000.0,92000.0,0.0,0.0,-3919000.0,0.0,-3919000.0,-5.34,-5.34,,734411.0,0.0,0.2171,-0.079,-0.0847,-0.106,-0.0198,-2938000.0,-3137000.0,-3919000.0,-0.1033,-0.1058
