,0,1,2,3,4,5,6,7,8,9,10,11,12,13,14,15,16,17,18,19,20,21,22,23,24,25,26,27,28,29,30
Date,Revenue,Revenue Growth,Cost of Revenue,Gross Profit,R&D Expenses,SG&A Expense,Operating Expenses,Operating Income,Interest Expense,Earnings before Tax,Income Tax Expense,Net Income - Non-Controlling int,Net Income - Discontinued ops,Net Income,Preferred Dividends,Net Income Com,EPS,EPS Diluted,Weighted Average Shs Out,Weighted Average Shs Out (Dil),Dividend per Share,Gross Margin,EBITDA Margin,EBIT Margin,Profit Margin,Free Cash Flow margin,EBITDA,EBIT,Consolidated Income,Earnings Before Tax Margin,Net Profit Margin
2018-12-31,30282000000.0,0.04774756072240001,18291000000.0,11991000000.0,0.0,4297000000.0,4297000000.0,2961000000.0,352000000.0,2961000000.0,438000000.0,0.0,0.0,2523000000.0,0.0,2523000000.0,9.37,9.28,267400000.0,269800000.0,3.01704966642,0.395977808599,0.268971666336,0.0977808599168,0.0833168218744,0.14464038042400001,8145000000.0,2961000000.0,2523000000.0,0.0977808599168,0.0833168218744
2017-12-31,28902000000.0,0.0462262443439,17467000000.0,11435000000.0,0.0,4170000000.0,4170000000.0,2730000000.0,369000000.0,2730000000.0,674000000.0,0.0,0.0,2056000000.0,0.0,2056000000.0,7.39,7.33,276000000.0,278600000.0,2.8176597272099997,0.395647360044,0.266728946094,0.0944571309944,0.07113694554010001,0.130164002491,7709000000.0,2730000000.0,2056000000.0,0.0944571309944,0.07113694554010001
2016-12-31,27625000000.0,0.030783582089599998,15070000000.0,12555000000.0,0.0,4154000000.0,4154000000.0,4053000000.0,363000000.0,4053000000.0,1039000000.0,0.0,0.0,3014000000.0,0.0,3014000000.0,10.39,10.28,288100000.0,291000000.0,2.60137457045,0.454479638009,0.320868778281,0.14671493212700001,0.109104072398,0.15210859728499998,8864000000.0,4053000000.0,3014000000.0,0.14671493212700001,0.109104072398
2015-12-31,26800000000.0,-0.013327442750899999,13723000000.0,13077000000.0,0.0,4079000000.0,4079000000.0,4740000000.0,373000000.0,4740000000.0,1301000000.0,0.0,0.0,3439000000.0,0.0,3439000000.0,10.99,10.88,310600000.0,313900000.0,2.3542529468,0.487947761194,0.35235074626900004,0.176865671642,0.12832089552200002,0.12813432835799998,9443000000.0,4740000000.0,3439000000.0,0.176865671642,0.12832089552200002
2014-12-31,27162000000.0,0.0370738039785,13870000000.0,13292000000.0,0.0,3952000000.0,3952000000.0,5089000000.0,0.0,5089000000.0,1397000000.0,0.0,0.0,3692000000.0,0.0,3692000000.0,10.82,10.7,338800000.0,342500000.0,0.0,0.489360135483,0.362086738826,0.187357337457,0.135925189603,0.135962005743,9835000000.0,5089000000.0,3692000000.0,0.187357337457,0.135925189603
2013-12-31,26191000000.0,0.017521367521400003,13307000000.0,12884000000.0,0.0,3757000000.0,3757000000.0,4945000000.0,0.0,4945000000.0,1272000000.0,0.0,0.0,3673000000.0,0.0,3673000000.0,9.84,9.74,370300000.0,374300000.0,0.0,0.49192470696,0.367798098583,0.18880531480300003,0.14023901340199998,0.145698904204,9633000000.0,4945000000.0,3673000000.0,0.18880531480300003,0.14023901340199998
2012-12-31,25740000000.0,0.011553878802200001,14676000000.0,11064000000.0,0.0,3610000000.0,3610000000.0,3166000000.0,0.0,3166000000.0,693000000.0,0.0,0.0,2473000000.0,0.0,2473000000.0,6.35,6.3,386200000.0,389800000.0,0.0,0.429836829837,0.30703185703200003,0.12299922299900001,0.0960761460761,0.125485625486,7903000000.0,3166000000.0,2473000000.0,0.12299922299900001,0.0960761460761
2011-12-31,25446000000.0,0.0133004141446,16276000000.0,9170000000.0,0.0,3556000000.0,3556000000.0,1352000000.0,0.0,1352000000.0,-74000000.0,0.0,0.0,1426000000.0,1000000.0,1426000000.0,3.4,3.36,415800000.0,420500000.0,0.0,0.36037098168700005,0.236972412167,0.053132122927,0.0560402420813,0.0852393303466,6030000000.0,1352000000.0,1426000000.0,0.053132122927,0.0560402420813
2010-12-31,25112000000.0,0.017504051863900003,13210000000.0,11902000000.0,0.0,3406000000.0,3406000000.0,3188000000.0,0.0,0.0,1090000000.0,0.0,0.0,3216000000.0,3000000.0,3216000000.0,6.69,6.62,476500000.0,482500000.0,0.0,0.4739566741,0.310688117235,0.126951258363,0.128066263141,0.121615164065,7802000000.0,3188000000.0,3216000000.0,0.0,0.128066263141
2009-12-31,24680000000.0,0.0083,12408000000.0,12272000000.0,0.0,3366000000.0,7179000000.0,5093000000.0,382000000.0,4711000000.0,1089000000.0,0.0,0.0,3622000000.0,0.0,3622000000.0,6.38,6.33,546373306.0,563200000.0,1.23,0.4972,0.20600000000000002,0.2064,0.147,0.1714,5093000000.0,5093000000.0,3622000000.0,0.1909,0.1468
