,0,1,2,3,4,5,6,7,8,9,10,11,12,13,14,15,16,17,18,19,20,21,22,23,24,25,26,27,28
Date,Cash and cash equivalents,Short-term investments,Cash and short-term investments,Receivables,Inventories,Total current assets,Property Plant & Equipment Net,Goodwill and Intangible Assets,Long-term investments,Tax assets,Total non-current assets,Total assets,Payables,Short-term debt,Total current liabilities,Long-term debt,Total debt,Deferred revenue,Tax Liabilities,Deposit Liabilities,Total non-current liabilities,Total liabilities,Other comprehensive income,Retained earnings (deficit),Total shareholders equity,Investments,Net Debt,Other Assets,Other Liabilities
2019-12-28,84241000.0,0.0,84241000.0,0.0,1602781000.0,1787887000.0,1163956000.0,124492000.0,0.0,0.0,3501381000.0,5289268000.0,643036000.0,277099000.0,1247600000.0,366500000.0,643599000.0,0.0,5984000.0,0.0,443014000.0,3722145000.0,0.0,3612833000.0,1567123000.0,0.0,559358000.0,0.0,2031531000.0
2018-12-29,86299000.0,0.0,86299000.0,0.0,1589542000.0,1794399000.0,1134464000.0,124492000.0,0.0,6607000.0,1290863000.0,3085262000.0,619981000.0,3646000.0,938107000.0,381100000.0,384746000.0,0.0,1768000.0,0.0,478297000.0,1523442000.0,0.0,3213895000.0,1561820000.0,0.0,298447000.0,0.0,107038000.0
2017-12-31,109000000.0,0.0,109000000.0,5000000.0,1453000000.0,1655000000.0,1079000000.0,124492000.0,0.0,23254000.0,1213401000.0,2850000000.0,577000000.0,28545000.0,849000000.0,434000000.0,462231000.0,0.0,10772000.0,0.0,600882000.0,1432000000.0,3358000.0,2829000000.0,1419000000.0,0.0,353083000.0,93012000.0,244101000.0
2017-12-30,109148000.0,0.0,109148000.0,0.0,1453208000.0,1655368000.0,1044503000.0,124492000.0,0.0,18494000.0,1213401000.0,2868769000.0,576568000.0,3545000.0,849214000.0,401069000.0,404614000.0,0.0,10772000.0,0.0,494976000.0,1450096000.0,0.0,2829220000.0,1418673000.0,0.0,295466000.0,0.0,105906000.0
2016-12-31,53916000.0,0.0,53916000.0,0.0,1369656000.0,1517809000.0,962308000.0,125717000.0,0.0,45218000.0,1157133000.0,2674942000.0,519522000.0,1294000.0,777194000.0,263850000.0,265144000.0,0.0,5482000.0,0.0,344452000.0,1221724000.0,0.0,2540449000.0,1453218000.0,0.0,211228000.0,0.0,100078000.0
2015-12-26,63813000.0,0.0,63813000.0,0.0,1284375000.0,1485431000.0,847576000.0,0.0,0.0,9224000.0,885395000.0,2370826000.0,427249000.0,878000.0,671284000.0,16992000.0,17870000.0,0.0,5449000.0,0.0,117425000.0,977532000.0,0.0,2225601000.0,1393294000.0,0.0,-45943000.0,0.0,188823000.0
2015-02-18,0.0,0.0,0.0,0.0,0.0,0.0,0.0,0.0,0.0,0.0,0.0,0.0,0.0,0.0,0.0,0.0,0.0,0.0,0.0,0.0,0.0,0.0,0.0,0.0,0.0,0.0,0.0,0.0,0.0
2014-12-27,51134000.0,0.0,51134000.0,0.0,1115450000.0,1273990000.0,721000000.0,10258000.0,0.0,29930000.0,694143000.0,2034571000.0,370823000.0,42000.0,603093000.0,4957000.0,1242000.0,0.0,9424000.0,0.0,124356000.0,741010000.0,0.0,1918307000.0,1293561000.0,0.0,-141501000.0,87197000.0,215612000.0
2014-02-19,0.0,0.0,0.0,0.0,0.0,0.0,0.0,0.0,0.0,0.0,0.0,0.0,0.0,0.0,0.0,0.0,0.0,0.0,0.0,0.0,0.0,0.0,0.0,0.0,0.0,0.0,0.0,0.0,0.0
2013-12-28,142743000.0,0.0,142743000.0,0.0,979308000.0,1209248000.0,664932000.0,10258000.0,0.0,23098000.0,576756000.0,1903391000.0,316487000.0,38000.0,532141000.0,1200000.0,1280000.0,0.0,44836000.0,0.0,121329000.0,656497000.0,0.0,1631483000.0,1246894000.0,0.0,-145750000.0,74906000.0,240075000.0
2012-12-29,138630000.0,0.0,138630000.0,0.0,908116000.0,1130052000.0,549998000.0,0.0,0.0,23098000.0,576756000.0,1706808000.0,320392000.0,38000.0,560505000.0,1242000.0,1280000.0,0.0,43359000.0,0.0,66714000.0,681834000.0,0.0,1371733000.0,1024974000.0,0.0,-137350000.0,0.0,54615000.0
2012-02-29,0.0,0.0,0.0,0.0,0.0,0.0,0.0,0.0,0.0,0.0,0.0,0.0,0.0,0.0,0.0,0.0,0.0,0.0,0.0,0.0,0.0,0.0,0.0,0.0,0.0,0.0,0.0,0.0,0.0
2011-12-31,198835000.0,15913000.0,198835000.0,0.0,830819000.0,1090249000.0,480855000.0,10258000.0,0.0,5750000.0,419757000.0,1594832000.0,266409000.0,91000.0,460625000.0,1284000.0,1407000.0,0.0,17123000.0,0.0,103668000.0,586542000.0,0.0,1146594000.0,1008290000.0,15913000.0,-271845000.0,33945000.0,179085000.0
2011-02-23,0.0,0.0,0.0,0.0,0.0,0.0,0.0,0.0,0.0,0.0,0.0,0.0,0.0,0.0,0.0,0.0,0.0,0.0,0.0,0.0,0.0,0.0,0.0,0.0,0.0,0.0,0.0,0.0,0.0
2010-12-25,257339000.0,0.0,273252000.0,0.0,736520000.0,1043717000.0,395789000.0,10258000.0,0.0,11091000.0,396516000.0,1463474000.0,247388000.0,392000.0,426564000.0,1316000.0,1799000.0,0.0,18770000.0,0.0,93212000.0,530232000.0,0.0,954704000.0,933242000.0,0.0,-171052000.0,30747000.0,142190000.0
2009-12-26,172851000.0,,172851000.0,0.0,676466000.0,880064000.0,370245000.0,,0.0,,,1276580000.0,261635000.0,,404217000.0,1407000.0,,,,,,497429000.0,,807087000.0,779151000.0,,,,
