,0,1,2,3,4,5,6,7,8,9,10,11,12,13,14
Date,Depreciation & Amortization,Stock-based compensation,Operating Cash Flow,Capital Expenditure,Acquisitions and disposals,Investment purchases and sales,Investing Cash flow,Issuance (repayment) of debt,Issuance (buybacks) of shares,Dividend payments,Financing Cash Flow,Effect of forex changes on cash,Net cash flow / Change in cash,Free Cash Flow,Net Cash/Marketcap
2018-12-31,282806000.0,12806000.0,559844000.0,-113728000.0,-1864194000.0,19515000.0,-1934173000.0,1892975000.0,748316000.0,0.0,1592579000.0,-7497000.0,218250000.0,446116000.0,
2017-12-31,147186000.0,10622000.0,494600000.0,-36102000.0,7611000.0,213950000.0,174850000.0,-139913000.0,16665000.0,0.0,-443802000.0,16991000.0,225648000.0,458498000.0,
2016-12-31,133941000.0,10289000.0,349936000.0,-6806000.0,-3549000.0,16957000.0,28871000.0,-46353000.0,2113000.0,0.0,-375586000.0,-9896000.0,3221000.0,343130000.0,
2015-12-31,133632000.0,14224000.0,362710000.0,-16080000.0,453792000.0,27833000.0,370653000.0,-588438000.0,-36308000.0,0.0,-807200000.0,-18542000.0,-73837000.0,346630000.0,
