,0,1,2,3,4,5,6,7,8,9,10,11,12,13,14
Date,Depreciation & Amortization,Stock-based compensation,Operating Cash Flow,Capital Expenditure,Acquisitions and disposals,Investment purchases and sales,Investing Cash flow,Issuance (repayment) of debt,Issuance (buybacks) of shares,Dividend payments,Financing Cash Flow,Effect of forex changes on cash,Net cash flow / Change in cash,Free Cash Flow,Net Cash/Marketcap
2018-12-31,20477000.0,1600000.0,36634000.0,18121000.0,-24785000.0,0.0,-18264000.0,-2000.0,-61390000.0,-6179000.0,-18061000.0,-124000.0,185000.0,18513000.0,0.0
2017-12-31,27329000.0,748000.0,50684000.0,22974000.0,-5511000.0,-857000.0,-28930000.0,-526000.0,0.0,-0.0,-7954000.0,-45000.0,0.0,27710000.0,0.0
2016-12-31,25555000.0,4253000.0,59802000.0,20937000.0,-2160000.0,0.0,-20968000.0,-0.0,0.0,-0.0,-19715000.0,-877000.0,0.0,38865000.0,0.0
2015-12-31,18873000.0,4278000.0,25943000.0,15101000.0,-76213000.0,0.0,-71777000.0,-11394000.0,0.0,-0.0,54431000.0,239000.0,0.0,10842000.0,0.0
2014-12-31,20039000.0,37739000.0,45262000.0,14041000.0,-26076000.0,0.0,-39709000.0,-440000.0,0.0,-0.0,-26738000.0,0.0,0.0,31221000.0,0.0
2013-12-31,15189000.0,0.0,26204000.0,-9526000.0,-276799000.0,0.0,-286170000.0,285855000.0,-159000.0,0.0,283308000.0,0.0,23342000.0,16678000.0,-2.4957
2012-12-31,14824000.0,0.0,19847000.0,-9894000.0,-133776000.0,-234000.0,-142200000.0,117589000.0,0.0,0.0,119666000.0,0.0,-2687000.0,9953000.0,-2.4957
