,0,1,2,3,4,5,6,7,8,9,10,11,12,13,14,15,16,17,18,19,20,21,22,23,24,25,26,27,28,29,30
Date,Revenue,Revenue Growth,Cost of Revenue,Gross Profit,R&D Expenses,SG&A Expense,Operating Expenses,Operating Income,Interest Expense,Earnings before Tax,Income Tax Expense,Net Income - Non-Controlling int,Net Income - Discontinued ops,Net Income,Preferred Dividends,Net Income Com,EPS,EPS Diluted,Weighted Average Shs Out,Weighted Average Shs Out (Dil),Dividend per Share,Gross Margin,EBITDA Margin,EBIT Margin,Profit Margin,Free Cash Flow margin,EBITDA,EBIT,Consolidated Income,Earnings Before Tax Margin,Net Profit Margin
2019-10-31,3138084000.0,0.198359460027,2090121000.0,1047963000.0,109100000.0,722934000.0,832034000.0,325029000.0,28835000.0,322133000.0,48150000.0,0.0,0.0,273983000.0,0.0,273983000.0,2.57,2.53,106773000.0,108090000.0,0.8893792210200001,0.33394995162700003,0.13151751196,0.103575621303,0.087309007662,0.0779105976768,412713000.0,325029000.0,273983000.0,0.10265276519,0.087309007662
2018-10-31,2618650000.0,0.045295819535199996,1677639000.0,941011000.0,83500000.0,567926000.0,651426000.0,373085000.0,19096000.0,372397000.0,100458000.0,0.0,0.0,271939000.0,0.0,271939000.0,2.56,2.5,106369000.0,108657000.0,0.7825634795730001,0.359349664904,0.16587249155099998,0.142472266244,0.103847020411,0.104894124835,434362000.0,373085000.0,271939000.0,0.142209535448,0.103847020411
2017-10-31,2505176000.0,0.0472377647956,1584339000.0,920837000.0,0.0,565727000.0,565727000.0,355110000.0,19113000.0,353184000.0,85467000.0,0.0,0.0,267717000.0,0.0,267717000.0,2.47,2.41,108312000.0,111252000.0,0.6809585445649999,0.367573775256,0.167691212114,0.141750519724,0.10686554557399999,0.12073882234200001,420096000.0,355110000.0,267717000.0,0.14098171146500002,0.10686554557399999
2016-10-31,2392175000.0,0.000543733988602,1517580000.0,874595000.0,0.0,540199000.0,540199000.0,334396000.0,19336000.0,330460000.0,99466000.0,0.0,0.0,230994000.0,0.0,230994000.0,2.1,2.06,109834000.0,111987000.0,0.588371864591,0.36560661322899995,0.166581876326,0.13978743194,0.0965623334413,0.130098759497,398493000.0,334396000.0,230994000.0,0.138142067365,0.0965623334413
2015-10-31,2390875000.0,0.100421090712,1554940000.0,835935000.0,0.0,536821000.0,536821000.0,299114000.0,18757000.0,291031000.0,89440000.0,0.0,0.0,201591000.0,0.0,201591000.0,3.63,3.55,55565000.0,56757000.0,0.978716281692,0.349635593663,0.151516495007,0.125106498667,0.08431682961260001,0.0754932817483,362257000.0,299114000.0,201591000.0,0.121725728028,0.08431682961260001
2014-10-31,2172691000.0,0.0642980340751,1399420000.0,773271000.0,0.0,510114000.0,510114000.0,263157000.0,15426000.0,256445000.0,82575000.0,0.0,0.0,173870000.0,0.0,173870000.0,3.09,3.02,56359000.0,57628000.0,0.7817033386550001,0.355904728284,0.145577534955,0.121120306569,0.0800251853577,0.051193197744199996,316295000.0,263157000.0,173870000.0,0.118031049974,0.0800251853577
2013-10-31,2041431000.0,0.0422430297801,1316634000.0,724797000.0,0.0,494135000.0,494135000.0,230662000.0,16210000.0,226713000.0,71868000.0,0.0,0.0,154845000.0,0.0,154845000.0,2.67,2.62,57922000.0,59105000.0,0.549851958379,0.35504359442,0.139508021579,0.112990348437,0.07585120437580001,0.08447456710510001,284796000.0,230662000.0,154845000.0,0.11105592106699999,0.07585120437580001
2012-10-31,1958690000.0,0.0396703102466,1285596000.0,673094000.0,0.0,467481000.0,467481000.0,205613000.0,16906000.0,196262000.0,66721000.0,0.0,0.0,129541000.0,0.0,129541000.0,2.18,2.14,59446000.0,60618000.0,0.43270975617799995,0.343644987211,0.132357340876,0.104974753534,0.0661365504495,0.07278129770410001,259247000.0,205613000.0,129541000.0,0.100200644308,0.0661365504495
2011-10-31,1883953000.0,0.114515806524,1247306000.0,636647000.0,0.0,452160000.0,452160000.0,184487000.0,16970000.0,174826000.0,57168000.0,0.0,0.0,117658000.0,0.0,117658000.0,3.76,3.7,31267000.0,31797000.0,0.785294210146,0.337931466443,0.12367240584000001,0.0979254790327,0.06245272573149999,0.0299529765339,232993000.0,184487000.0,117658000.0,0.09279743178310002,0.06245272573149999
2010-10-31,1690378000.0,0.109574537217,1113987000.0,576391000.0,0.0,425125000.0,425125000.0,151266000.0,17113000.0,93578000.0,48031000.0,0.0,0.0,93237000.0,0.0,93237000.0,2.83,2.79,32982000.0,33437000.0,0.709423692317,0.340983495999,0.11611426556700001,0.08948649355350001,0.05515748548550001,0.0856660462926,196277000.0,151266000.0,93237000.0,0.0553592155127,0.05515748548550001
2009-10-31,1523447000.0,-0.1889,1012472000.0,510975000.0,0.0,395778000.0,395778000.0,115197000.0,17578000.0,95788000.0,32951000.0,0.0,0.0,62837000.0,0.0,62837000.0,0.44,0.43200000000000005,136896928.0,143152000.0,0.15,0.3354,0.10400000000000001,0.0744,0.040999999999999995,0.1402,157901000.0,113366000.0,62837000.0,0.0629,0.0412
