,0,1,2,3,4,5,6,7,8,9,10,11,12,13,14
Date,Depreciation & Amortization,Stock-based compensation,Operating Cash Flow,Capital Expenditure,Acquisitions and disposals,Investment purchases and sales,Investing Cash flow,Issuance (repayment) of debt,Issuance (buybacks) of shares,Dividend payments,Financing Cash Flow,Effect of forex changes on cash,Net cash flow / Change in cash,Free Cash Flow,Net Cash/Marketcap
2018-12-31,121307000.0,7379000.0,46586000.0,141931000.0,-49630000.0,0.0,-161542000.0,-581935000.0,-39764000.0,-0.0,154994000.0,779000.0,40038000.0,-95345000.0,0.0
2017-12-31,120902000.0,7727000.0,64595000.0,51923000.0,-0.0,0.0,-48093000.0,-384100000.0,-26118000.0,-0.0,-21336000.0,1122000.0,-3712000.0,12672000.0,0.0
2016-12-31,133736000.0,13747000.0,53980000.0,21066000.0,-0.0,0.0,-14256000.0,-689783000.0,122817000.0,-0.0,-30954000.0,-1987000.0,6783000.0,32914000.0,0.0
2015-12-31,158976000.0,16887000.0,195951000.0,120597000.0,-0.0,0.0,-114987000.0,-598070000.0,-23057000.0,-0.0,-103437000.0,-2854000.0,-25327000.0,75354000.0,0.0
2014-12-31,116912000.0,6775000.0,108645000.0,131609000.0,-854031000.0,0.0,-967739000.0,-289900000.0,-48384000.0,-0.0,871644000.0,-2920000.0,9630000.0,-22964000.0,0.0
2013-12-31,80985000.0,6724000.0,49656000.0,101379000.0,-0.0,0.0,-100684000.0,-120664000.0,-38754000.0,-0.0,15734000.0,-659000.0,-35294000.0,-51723000.0,0.0
2012-12-31,0.0,0.0,0.0,0.0,-0.0,0.0,74048000.0,-0.0,-74048000.0,-0.0,0.0,0.0,74048000.0,0.0,0.0
2011-12-31,94839000.0,0.0,0.0,0.0,-0.0,0.0,46839000.0,-0.0,-204412000.0,-0.0,50733000.0,-2307000.0,139052000.0,0.0,0.0
2010-12-31,148022000.0,0.0,153325000.0,-107684000.0,6250000.0,0.0,-115886000.0,91784000.0,-65360000.0,-0.0,-5908000.0,435000.0,31966000.0,261009000.0,0.0
2009-12-31,149326000.0,6415000.0,272315000.0,-135848000.0,-18105000.0,0.0,-149699000.0,-97134000.0,1165000.0,0.0,-95722000.0,2618000.0,29512000.0,136467000.0,-0.307
