,0,1,2,3,4,5,6,7,8,9,10,11,12,13,14
Date,Depreciation & Amortization,Stock-based compensation,Operating Cash Flow,Capital Expenditure,Acquisitions and disposals,Investment purchases and sales,Investing Cash flow,Issuance (repayment) of debt,Issuance (buybacks) of shares,Dividend payments,Financing Cash Flow,Effect of forex changes on cash,Net cash flow / Change in cash,Free Cash Flow,Net Cash/Marketcap
2019-12-31,34141000.0,2645000.0,38563000.0,27000000.0,-0.0,-10456000.0,-26390000.0,-53204000.0,-10456000.0,-7706000.0,-8622000.0,-14000.0,9104000.0,11563000.0,0.0
2018-12-31,29152000.0,2669000.0,18170000.0,35287000.0,-0.0,0.0,-34143000.0,-103267000.0,-5557000.0,-10404000.0,14931000.0,-52000.0,5557000.0,-17117000.0,0.0
2017-12-31,26930000.0,3156000.0,45691000.0,40556000.0,-0.0,0.0,-40549000.0,-36575000.0,-6621000.0,-10366000.0,-4594000.0,6000.0,554000.0,5135000.0,0.0
2016-12-31,23529000.0,4333000.0,53552000.0,27256000.0,-0.0,0.0,-27252000.0,-37822000.0,-6067000.0,-0.0,-30528000.0,-35000.0,-4263000.0,26296000.0,0.0
2015-12-31,22544000.0,5545000.0,60264000.0,18994000.0,-0.0,0.0,-18994000.0,-124025000.0,-10330000.0,-0.0,-36688000.0,-11000.0,4571000.0,41270000.0,0.0
2014-12-31,20135000.0,4617000.0,47201000.0,41229000.0,-0.0,0.0,-40552000.0,-26412000.0,-5759000.0,-0.0,-2651000.0,0.0,3998000.0,5972000.0,0.0
2013-12-31,14464000.0,4680000.0,21211000.0,52869000.0,-0.0,0.0,-52955000.0,-3714000.0,-1761000.0,-0.0,30518000.0,0.0,-1226000.0,-31658000.0,0.0
2012-12-31,0.0,0.0,0.0,0.0,-0.0,0.0,0.0,-0.0,0.0,-0.0,0.0,0.0,0.0,0.0,0.0
2011-12-31,8651000.0,1415000.0,34722000.0,-18561000.0,0.0,0.0,-18561000.0,-729000.0,-1485000.0,0.0,-23995000.0,0.0,-7834000.0,16161000.0,-0.1064
2010-12-31,7237000.0,450000.0,32461000.0,-14376000.0,0.0,0.0,-14376000.0,1008000.0,0.0,0.0,-21818000.0,0.0,-3733000.0,18085000.0,-0.1064
