,0,1,2,3,4,5,6,7,8,9,10,11,12,13,14
Date,Depreciation & Amortization,Stock-based compensation,Operating Cash Flow,Capital Expenditure,Acquisitions and disposals,Investment purchases and sales,Investing Cash flow,Issuance (repayment) of debt,Issuance (buybacks) of shares,Dividend payments,Financing Cash Flow,Effect of forex changes on cash,Net cash flow / Change in cash,Free Cash Flow,Net Cash/Marketcap
2018-12-31,956000.0,3181000.0,4627000.0,-1690000.0,0.0,0.0,-1635000.0,-667000.0,163000.0,0.0,-634000.0,-380000.0,1978000.0,2937000.0,
2017-12-31,368000.0,2110000.0,-428000.0,-889000.0,0.0,0.0,-839000.0,-668000.0,395000.0,0.0,-273000.0,-4000.0,-1544000.0,-1317000.0,
