,0,1,2,3,4,5,6,7,8,9,10,11,12,13,14,15,16,17,18,19,20,21,22,23,24,25,26,27,28,29,30
Date,Revenue,Revenue Growth,Cost of Revenue,Gross Profit,R&D Expenses,SG&A Expense,Operating Expenses,Operating Income,Interest Expense,Earnings before Tax,Income Tax Expense,Net Income - Non-Controlling int,Net Income - Discontinued ops,Net Income,Preferred Dividends,Net Income Com,EPS,EPS Diluted,Weighted Average Shs Out,Weighted Average Shs Out (Dil),Dividend per Share,Gross Margin,EBITDA Margin,EBIT Margin,Profit Margin,Free Cash Flow margin,EBITDA,EBIT,Consolidated Income,Earnings Before Tax Margin,Net Profit Margin
2018-12-31,2551064000.0,2.50882007056e-05,1630377000.0,920687000.0,0.0,505148000.0,506143000.0,216894000.0,102647000.0,85517000.0,38091000.0,0.0,0.0,72628000.0,0.0,72628000.0,0.58,0.57,126037947.0,127923586.0,0.297779332108,0.360903136887,0.19707620036200002,0.0850209951612,0.028469689509900004,0.08613308015789999,502754000.0,216894000.0,72628000.0,0.033522091174499995,0.028469689509900004
2018-12,2551000000.0,0.0423821722002,1630000000.0,921000000.0,,505000000.0,704000000.0,217000000.0,,86000000.0,38000000.0,,,73000000.0,,73000000.0,0.58,0.57,126000000.0,128000000.0,,0.36103488827910996,0.19521756174049,0.043512348098785,0.028616228929830997,,498000000.0,111000000.0,73000000.0,0.03371226969815799,0.028616228929830997
2017-12-31,2447279000.0,0.000114017163874,1506010000.0,941269000.0,0.0,448070000.0,448070000.0,285889000.0,111237000.0,170503000.0,32230000.0,0.0,0.0,142463000.0,0.0,142463000.0,1.15,1.13,124530102.0,126008533.0,0.307828359529,0.38461859068800003,0.236124283337,0.11681912851,0.0582128151306,0.0817838914157,577862000.0,285889000.0,142463000.0,0.0696704380661,0.0582128151306
2017-12,2447000000.0,0.10174604461000002,1506000000.0,941000000.0,,448000000.0,655000000.0,286000000.0,,171000000.0,32000000.0,,,142000000.0,,142000000.0,1.15,1.13,125000000.0,126000000.0,,0.38455251328157003,0.23212096444626,0.07110747854515699,0.058030241111565,,568000000.0,174000000.0,142000000.0,0.069881487535758,0.058030241111565
2016-12-31,2221020000.0,-0.0552871118673,1340405000.0,880615000.0,0.0,455864000.0,455864000.0,190523000.0,148787000.0,16315000.0,27126000.0,0.0,0.0,16332000.0,0.0,16332000.0,0.13,0.13,122340491.0,122539422.0,0.302604658932,0.396491251767,0.22609026483300002,0.085781757931,0.00735337817759,0.0702956299358,502151000.0,190523000.0,16332000.0,0.0073457240367,0.00735337817759
2016-12,2351000000.0,0.09450651769089999,1431000000.0,921000000.0,,511000000.0,720000000.0,201000000.0,,45000000.0,30000000.0,,,17000000.0,,17000000.0,0.14,0.13,124000000.0,125000000.0,,0.39174819225860996,0.20459378987664997,0.019991492981709998,0.0072309655465759,,481000000.0,47000000.0,17000000.0,0.019140791152701002,0.0072309655465759
2015-12-31,2148000000.0,-0.0328680774426,1324000000.0,824000000.0,0.0,430000000.0,430000000.0,161000000.0,278000000.0,91000000.0,39000000.0,0.0,0.0,86000000.0,0.0,86000000.0,1.01,0.98,85771655.0,87864090.0,0.102430924852,0.383612662942,0.22625698324000001,0.07495344506519999,0.0400372439479,-0.0251396648045,486000000.0,161000000.0,86000000.0,0.042364990689,0.0400372439479
2015-12,2221000000.0,0.033985102420900005,1340000000.0,881000000.0,,456000000.0,690000000.0,191000000.0,,47000000.0,27000000.0,,,16000000.0,,16000000.0,0.13,0.13,122000000.0,123000000.0,,0.39666816749211997,0.22152183701036,0.019360648356596,0.0072039621791986,,492000000.0,43000000.0,16000000.0,0.021161638901396,0.0072039621791986
2014-12-31,2148000000.0,0.0,1324000000.0,824000000.0,0.0,430000000.0,430000000.0,161000000.0,278000000.0,91000000.0,39000000.0,0.0,0.0,86000000.0,0.0,86000000.0,1.01,0.98,85771655.0,87864090.0,0.102430924852,0.383612662942,0.22625698324000001,0.07495344506519999,0.0400372439479,-0.0251396648045,486000000.0,161000000.0,86000000.0,0.042364990689,0.0400372439479
2014-12,2148000000.0,0.0346820809249,1324000000.0,824000000.0,,430000000.0,663000000.0,161000000.0,,130000000.0,39000000.0,,,86000000.0,,86000000.0,1.01,0.98,86000000.0,88000000.0,,0.38361266294227003,0.21880819366853,0.058193668528864005,0.040037243947858,,470000000.0,125000000.0,86000000.0,0.06052141527001901,0.040037243947858
2013-12-31,2076000000.0,0.036963036963,1266000000.0,810000000.0,0.0,396000000.0,602000000.0,208000000.0,356000000.0,-186000000.0,20000000.0,3000000.0,-4000000.0,-206000000.0,0.0,-206000000.0,-4.52,-4.52,45522506.0,45522506.0,0.0,0.3902,0.18100000000000002,0.0819,-0.099,-0.0034,376000000.0,170000000.0,-203000000.0,-0.0896,-0.0992
2012-12-31,2002000000.0,,1191000000.0,811000000.0,0.0,446000000.0,673000000.0,138000000.0,346000000.0,-269000000.0,23000000.0,0.0,-7000000.0,-292000000.0,0.0,-292000000.0,-35.93,-35.93,8129920.0,8129920.0,0.0,0.4051,0.152,0.0385,-0.146,0.0445,304000000.0,77000000.0,-292000000.0,-0.1344,-0.1459
