,0,1,2,3,4,5,6,7,8,9,10,11,12,13,14
Date,Depreciation & Amortization,Stock-based compensation,Operating Cash Flow,Capital Expenditure,Acquisitions and disposals,Investment purchases and sales,Investing Cash flow,Issuance (repayment) of debt,Issuance (buybacks) of shares,Dividend payments,Financing Cash Flow,Effect of forex changes on cash,Net cash flow / Change in cash,Free Cash Flow,Net Cash/Marketcap
2018-12-31,285860000.0,16980000.0,364364000.0,144633000.0,-0.0,0.0,-144633000.0,2168750000.0,-213001000.0,-38093000.0,-123911000.0,-1479000.0,94341000.0,219731000.0,0.0
2018-12,281000000.0,17000000.0,364000000.0,-145000000.0,,0.0,-145000000.0,-2213000000.0,-3000000.0,,-124000000.0,-1000000.0,94000000.0,220000000.0,
2017-12-31,291973000.0,32972000.0,317662000.0,117514000.0,-0.0,0.0,-120947000.0,237750000.0,-122039000.0,-38789000.0,-215750000.0,1136000.0,-17899000.0,200148000.0,0.0
2017-12,282000000.0,33000000.0,318000000.0,-118000000.0,,0.0,-121000000.0,-281000000.0,-11000000.0,,-216000000.0,1000000.0,-18000000.0,200000000.0,
2016-12-31,311628000.0,29681000.0,262223000.0,106095000.0,-66487000.0,0.0,-168331000.0,23750000.0,-139938000.0,-37081000.0,-78037000.0,-2020000.0,15855000.0,156128000.0,0.0
2016-12,281000000.0,32000000.0,299000000.0,-107000000.0,,0.0,-122000000.0,-289000000.0,-2000000.0,,-191000000.0,-1000000.0,-15000000.0,192000000.0,
2015-12-31,325000000.0,41000000.0,58000000.0,112000000.0,-18000000.0,0.0,224000000.0,889000000.0,-155000000.0,-9000000.0,-297000000.0,-2000000.0,-15000000.0,-54000000.0,0.0
2015-12,301000000.0,30000000.0,262000000.0,-106000000.0,,0.0,-166000000.0,-90000000.0,-13000000.0,,-78000000.0,-2000000.0,16000000.0,156000000.0,
2014-12-31,325000000.0,41000000.0,58000000.0,112000000.0,-18000000.0,0.0,224000000.0,889000000.0,-139000000.0,-9000000.0,-297000000.0,-2000000.0,-15000000.0,-54000000.0,0.0
2014-12,309000000.0,41000000.0,58000000.0,-112000000.0,,0.0,226000000.0,-3460000000.0,0.0,,-297000000.0,-2000000.0,-15000000.0,-54000000.0,
2013-12-31,206000000.0,6000000.0,100000000.0,-107000000.0,17000000.0,0.0,-96000000.0,49000000.0,0.0,0.0,40000000.0,0.0,44000000.0,-7000000.0,-1.173
2012-12-31,227000000.0,2000000.0,181000000.0,-92000000.0,0.0,0.0,-89000000.0,-46000000.0,0.0,0.0,-106000000.0,0.0,-14000000.0,89000000.0,-1.173
