,0,1,2,3,4,5,6,7,8,9,10,11,12,13,14
Date,Depreciation & Amortization,Stock-based compensation,Operating Cash Flow,Capital Expenditure,Acquisitions and disposals,Investment purchases and sales,Investing Cash flow,Issuance (repayment) of debt,Issuance (buybacks) of shares,Dividend payments,Financing Cash Flow,Effect of forex changes on cash,Net cash flow / Change in cash,Free Cash Flow,Net Cash/Marketcap
2018-12-31,9959000.0,6097000.0,108739000.0,9053000.0,-0.0,0.0,-7637000.0,-373536000.0,-1933000.0,-0.0,-127553000.0,-56000.0,1933000.0,99686000.0,0.0
2017-12-31,3357000.0,6658000.0,105276000.0,-5910000.0,0.0,0.0,-5910000.0,-73101000.0,5722000.0,0.0,-74312000.0,1784000.0,26838000.0,99366000.0,-0.0809
2016-12-31,31292000.0,17538000.0,45601000.0,-14474000.0,-23611000.0,0.0,-38872000.0,-8615000.0,10002000.0,0.0,-6736000.0,-261000.0,1369000.0,31127000.0,-0.2398
2015-12-31,59523000.0,10469000.0,60960000.0,34730000.0,-0.0,-1833000.0,-37363000.0,-597837000.0,-1833000.0,-0.0,-21851000.0,-1641000.0,105000.0,26230000.0,0.0
2014-12-31,61990000.0,8349000.0,52098000.0,42991000.0,-0.0,0.0,-51205000.0,-481515000.0,-1765000.0,-0.0,-177000.0,-1535000.0,-819000.0,9107000.0,0.0
2013-12-31,57616000.0,7116000.0,71528000.0,41346000.0,-830000.0,0.0,-49893000.0,-529874000.0,0.0,-0.0,-19896000.0,-914000.0,825000.0,30182000.0,0.0
2012-12-31,54018000.0,6371000.0,40698000.0,48912000.0,-4693000.0,0.0,-60477000.0,-736355000.0,0.0,-0.0,20557000.0,117000.0,895000.0,-8214000.0,0.0
2011-12-31,51882000.0,9246000.0,76292000.0,49290000.0,-23523000.0,-23690000.0,-79702000.0,-417490000.0,-23690000.0,-0.0,2990000.0,220000.0,-200000.0,27002000.0,0.0
2010-12-31,52756000.0,10383000.0,72887000.0,-44431000.0,0.0,1163000.0,-48849000.0,-19908000.0,-3361000.0,0.0,-25421000.0,91000.0,-1292000.0,28456000.0,-0.6432
2009-12-31,49289000.0,9832000.0,112868000.0,-49110000.0,-19486000.0,11626000.0,-62426000.0,-53016000.0,-9000.0,0.0,-53428000.0,185000.0,-2801000.0,63758000.0,-0.4101
