,0,1,2,3,4,5,6,7,8,9,10,11,12,13,14,15,16,17,18,19,20,21,22,23,24,25,26,27,28
Date,Cash and cash equivalents,Short-term investments,Cash and short-term investments,Receivables,Inventories,Total current assets,Property Plant & Equipment Net,Goodwill and Intangible Assets,Long-term investments,Tax assets,Total non-current assets,Total assets,Payables,Short-term debt,Total current liabilities,Long-term debt,Total debt,Deferred revenue,Tax Liabilities,Deposit Liabilities,Total non-current liabilities,Total liabilities,Other comprehensive income,Retained earnings (deficit),Total shareholders equity,Investments,Net Debt,Other Assets,Other Liabilities
2019-12-31,460711000.0,0.0,460711000.0,0.0,0.0,460711000.0,40405000.0,3976238000.0,0.0,256450000.0,4634623000.0,5095334000.0,32834000.0,1506000.0,61030000.0,0.0,1506000.0,23990000.0,2700000.0,0.0,21572000.0,1716746000.0,3329388000.0,47833000.0,3378588000.0,0.0,-459205000.0,0.0,1634144000.0
2018-12-31,285000000.0,138000000.0,423000000.0,265000000.0,0.0,,38000000.0,826821000.0,,6820000.0,,1316887000.0,37264000.0,,,0.0,0.0,29673000.0,0.0,0.0,,317118000.0,-13267000.0,,986468000.0,0.0,,,
2017-12-31,353798000.0,128000000.0,481798000.0,74361000.0,,,27031000.0,,,,,,,,,0.0,,,,,,,,,,,,,
