,0,1,2,3,4,5,6,7,8,9,10,11,12,13,14,15,16,17,18,19,20,21,22,23,24,25,26,27,28,29,30
Date,Revenue,Revenue Growth,Cost of Revenue,Gross Profit,R&D Expenses,SG&A Expense,Operating Expenses,Operating Income,Interest Expense,Earnings before Tax,Income Tax Expense,Net Income - Non-Controlling int,Net Income - Discontinued ops,Net Income,Preferred Dividends,Net Income Com,EPS,EPS Diluted,Weighted Average Shs Out,Weighted Average Shs Out (Dil),Dividend per Share,Gross Margin,EBITDA Margin,EBIT Margin,Profit Margin,Free Cash Flow margin,EBITDA,EBIT,Consolidated Income,Earnings Before Tax Margin,Net Profit Margin
2019-12-31,1448666000.0,-0.0959443537476,1319662000.0,129004000.0,9859000.0,137697000.0,147556000.0,-28432000.0,33137000.0,-48044000.0,3475000.0,0.0,0.0,-48425000.0,0.0,-48425000.0,-0.84,-0.84,60100000.0,60100000.0,0.0200332778702,0.089050202048,0.017908889971900002,-0.0196263320876,-0.0334273048446,0.00623194028161,25944000.0,-28432000.0,-48425000.0,-0.0331643042634,-0.0334273048446
2018-12-31,1602408000.0,0.0908734432461,1404142000.0,198266000.0,11146000.0,134789000.0,145935000.0,42244000.0,30456000.0,19807000.0,6762000.0,0.0,0.0,16087000.0,0.0,16087000.0,0.06,0.06,59820000.0,59909000.0,0.0200470713916,0.123730036295,0.062319958462500005,0.02636282395,0.0100392659048,-0.0469143938373,99862000.0,42244000.0,16087000.0,0.012360772038100001,0.0100392659048
2017-12-31,1468922000.0,0.16074712148700002,1300727000.0,158278000.0,10302000.0,150676000.0,160978000.0,-13184000.0,30229000.0,-52876000.0,11203000.0,0.0,0.0,-60042000.0,0.0,-60042000.0,-1.12,-1.12,59340000.0,59340000.0,0.0196663296259,0.10775112633600001,0.0308117109009,-0.00897528936186,-0.040874872866,-0.0230883600355,45260000.0,-13184000.0,-60042000.0,-0.0359964654352,-0.040874872866
2016-12-31,1265497000.0,-0.092684748966,1123015000.0,142482000.0,9971000.0,144988000.0,154959000.0,-21333000.0,32539000.0,-32856000.0,3281000.0,0.0,0.0,-33987000.0,0.0,-33987000.0,-0.81,-0.81,53916000.0,53916000.0,0.020049706951599997,0.112589757226,0.0303714667044,-0.016857408591200003,-0.026856642094000002,0.00122639563745,38435000.0,-21333000.0,-33987000.0,-0.0259629220773,-0.026856642094000002
2015-12-31,1394771000.0,-0.264177719442,1256962000.0,137809000.0,11162000.0,140393000.0,151555000.0,-24279000.0,34032000.0,-52006000.0,38281000.0,0.0,0.0,-75633000.0,0.0,-75633000.0,-1.74,-1.74,53696000.0,53696000.0,0.0200573599523,0.0988040330635,0.0325064114468,-0.0174071585945,-0.0542261059342,0.011113652348700001,45339000.0,-24279000.0,-75633000.0,-0.037286407589500005,-0.0542261059342
2014-12-31,1895527000.0,-0.123899343454,1714952000.0,140643000.0,14005000.0,173614000.0,187619000.0,-97625000.0,36564000.0,-152244000.0,-21819000.0,0.0,0.0,-80461000.0,0.0,-80461000.0,-2.43,-2.43,53497000.0,53497000.0,0.0200571994691,0.07419730766169999,-0.00470634287984,-0.051502827445900005,-0.042447825855300006,0.029349621503699998,-8921000.0,-97625000.0,-80461000.0,-0.0803175053692,-0.042447825855300006
2013-12-31,2163595000.0,0.188345770092,1868405000.0,295190000.0,11165000.0,167371000.0,178536000.0,102395000.0,47120000.0,54734000.0,25047000.0,0.0,0.0,35205000.0,0.0,35205000.0,0.66,0.64,53039000.0,59522000.0,0.017573334229400002,0.136434961257,0.0834943693251,0.047326324935999996,0.0162715295608,0.016878389902,180648000.0,102395000.0,35205000.0,0.0252977105235,0.0162715295608
2012-12-31,1820678000.0,0.22439841882800002,1526539000.0,294139000.0,7148000.0,126157000.0,133305000.0,174708000.0,27658000.0,180573000.0,86613000.0,0.0,0.0,95553000.0,0.0,95553000.0,2.2,1.83,43380000.0,54662000.0,0.015458636712899999,0.161554651619,0.125669118867,0.095957659729,0.0524820973286,0.03538681743830001,228803000.0,174708000.0,95553000.0,0.0991789871685,0.0524820973286
2011-12-31,1486998000.0,0.686720939756,1254890000.0,232108000.0,4228000.0,85917000.0,90145000.0,132173000.0,25259000.0,95895000.0,37759000.0,0.0,0.0,58152000.0,0.0,58152000.0,1.4,1.18,41657000.0,53144000.0,0.015222790907700002,0.156091669256,0.119086239524,0.0888857954079,0.0391069792965,-0.0210612253682,177081000.0,132173000.0,58152000.0,0.06448899057030001,0.0391069792965
2010-12-31,881591000.0,0.211644051188,777501000.0,104090000.0,6317000.0,57565000.0,73145000.0,30945000.0,26667000.0,-9190000.0,-3264000.0,0.0,0.0,-5926000.0,0.0,-5926000.0,-0.17,-0.17,35355477.0,34896000.0,0.04,0.1181,0.062,0.0198,-0.006999999999999999,0.0248,55044000.0,17477000.0,-5926000.0,-0.0104,-0.0067
2009-12-31,727599000.0,-0.2982,671634000.0,55965000.0,8850000.0,46734000.0,74859000.0,-18894000.0,16246000.0,-32002000.0,-7357000.0,0.0,0.0,-24645000.0,0.0,-24645000.0,-0.71,-0.71,35260941.0,34708000.0,0.04,0.0769,0.025,-0.0217,-0.034,0.045,18540000.0,-15756000.0,-24645000.0,-0.044000000000000004,-0.0339
