,0,1,2,3,4,5,6,7,8,9,10,11,12,13,14,15,16,17,18,19,20,21,22,23,24,25,26,27,28
Date,Cash and cash equivalents,Short-term investments,Cash and short-term investments,Receivables,Inventories,Total current assets,Property Plant & Equipment Net,Goodwill and Intangible Assets,Long-term investments,Tax assets,Total non-current assets,Total assets,Payables,Short-term debt,Total current liabilities,Long-term debt,Total debt,Deferred revenue,Tax Liabilities,Deposit Liabilities,Total non-current liabilities,Total liabilities,Other comprehensive income,Retained earnings (deficit),Total shareholders equity,Investments,Net Debt,Other Assets,Other Liabilities
2019-12-31,253660000.0,1599033000.0,1852693000.0,154067000.0,0.0,2061331000.0,156741000.0,2757633000.0,0.0,183739000.0,3089185000.0,5150516000.0,39099000.0,27156000.0,247222000.0,139200000.0,166356000.0,26362000.0,28592000.0,0.0,164482000.0,871105000.0,4952999000.0,-678812000.0,4279411000.0,1599033000.0,-87304000.0,0.0,459401000.0
2018-12-31,487215000.0,261128000.0,748343000.0,97712000.0,0.0,872948000.0,63534000.0,65723000.0,0.0,40890000.0,155762000.0,1028710000.0,18495000.0,2170000.0,137810000.0,434496000.0,436666000.0,10300000.0,15635000.0,0.0,465415000.0,590475000.0,808527000.0,-371674000.0,438235000.0,261128000.0,-50549000.0,0.0,0.0
2017-12-31,115286000.0,175587000.0,290873000.0,43113000.0,0.0,353265000.0,50541000.0,37915000.0,0.0,11426000.0,96517000.0,449782000.0,11116000.0,0.0,78527000.0,8480000.0,8480000.0,13797000.0,9445000.0,0.0,11409000.0,89936000.0,608165000.0,-250438000.0,359846000.0,175587000.0,-106806000.0,0.0,0.0
2016-12-31,305665000.0,0.0,305665000.0,26203000.0,0.0,353380000.0,37552000.0,13833000.0,0.0,12820000.0,59314000.0,412694000.0,4174000.0,0.0,73704000.0,9387000.0,9387000.0,10222000.0,12275000.0,0.0,28319000.0,83247000.0,516090000.0,-186730000.0,329447000.0,0.0,-296278000.0,0.0,0.0
2015-12-31,110005000.0,0.0,110005000.0,19094000.0,0.0,136475000.0,14058000.0,5457000.0,0.0,0.0,21041000.0,157516000.0,2299000.0,0.0,40443000.0,0.0,0.0,6146000.0,0.0,0.0,448000.0,40891000.0,0.0,-145406000.0,116625000.0,0.0,-110005000.0,7376000.0,38144000.0
2014-12-31,33797000.0,0.0,33797000.0,9264000.0,0.0,46349000.0,6751000.0,510000.0,0.0,0.0,8625000.0,54974000.0,1227000.0,0.0,23198000.0,0.0,0.0,4173000.0,0.0,0.0,582000.0,23780000.0,0.0,-89434000.0,31194000.0,0.0,-33797000.0,3288000.0,21971000.0
