,0,1,2,3,4,5,6,7,8,9,10,11,12,13,14,15,16,17,18,19,20,21,22,23,24,25,26,27,28
Date,Cash and cash equivalents,Short-term investments,Cash and short-term investments,Receivables,Inventories,Total current assets,Property Plant & Equipment Net,Goodwill and Intangible Assets,Long-term investments,Tax assets,Total non-current assets,Total assets,Payables,Short-term debt,Total current liabilities,Long-term debt,Total debt,Deferred revenue,Tax Liabilities,Deposit Liabilities,Total non-current liabilities,Total liabilities,Other comprehensive income,Retained earnings (deficit),Total shareholders equity,Investments,Net Debt,Other Assets,Other Liabilities
2019-12-31,285087000.0,0.0,285087000.0,104900000.0,47608000.0,453156000.0,242384000.0,2389168000.0,0.0,0.0,2644545000.0,3097701000.0,68566000.0,11883000.0,159925000.0,975405000.0,987288000.0,0.0,1255000.0,0.0,1231456000.0,1611909000.0,1152056000.0,334480000.0,1485792000.0,0.0,702201000.0,0.0,220528000.0
2018-12-31,146377000.0,0.0,146377000.0,105679000.0,38580000.0,299442000.0,220349000.0,2476860000.0,0.0,10386000.0,2711271000.0,3010713000.0,65288000.0,11268000.0,141103000.0,976736000.0,988004000.0,0.0,411000.0,0.0,1254690000.0,1810910000.0,925905000.0,271365000.0,1199803000.0,0.0,841627000.0,0.0,415117000.0
2017-12-31,135701000.0,0.0,135701000.0,101012000.0,34345000.0,279028000.0,174121000.0,2502534000.0,0.0,8642000.0,2687247000.0,2966275000.0,49992000.0,11268000.0,127851000.0,987920000.0,999188000.0,0.0,99000.0,0.0,1255691000.0,1835942000.0,920726000.0,208279000.0,1130333000.0,0.0,863487000.0,0.0,452400000.0
2016-12-31,26855000.0,0.0,26855000.0,89200000.0,30444000.0,151363000.0,153224000.0,2535403000.0,0.0,22973000.0,2696529000.0,2847892000.0,34083000.0,11496000.0,103926000.0,993374000.0,1004870000.0,0.0,0.0,0.0,1347171000.0,1950673000.0,912827000.0,-15618000.0,897219000.0,0.0,978015000.0,0.0,499576000.0
2015-12-31,790635.0,0.0,790635.0,0.0,0.0,1049785.0,0.0,0.0,375000000.0,0.0,375010480.0,376060265.0,0.0,0.0,287301.0,0.0,0.0,0.0,0.0,0.0,0.0,371060261.0,5468985.0,-469919.0,5000004.0,375000000.0,-790635.0,0.0,370772960.0
