,0,1,2,3,4,5,6,7,8,9,10,11,12,13,14,15,16,17,18,19,20,21,22,23,24,25,26,27,28
Date,Cash and cash equivalents,Short-term investments,Cash and short-term investments,Receivables,Inventories,Total current assets,Property Plant & Equipment Net,Goodwill and Intangible Assets,Long-term investments,Tax assets,Total non-current assets,Total assets,Payables,Short-term debt,Total current liabilities,Long-term debt,Total debt,Deferred revenue,Tax Liabilities,Deposit Liabilities,Total non-current liabilities,Total liabilities,Other comprehensive income,Retained earnings (deficit),Total shareholders equity,Investments,Net Debt,Other Assets,Other Liabilities
2019-12-31,160829713.0,0.0,160829713.0,24395958.0,11860716.0,208416180.0,2507775.0,5258211.0,0.0,0.0,57569457.0,265985637.0,19181212.0,33823613.0,53004825.0,194634643.0,228458256.0,550757.0,0.0,0.0,194634643.0,256784517.0,704351222.0,-695421279.0,9201120.0,0.0,67628543.0,0.0,9145049.0
2018-12-31,161613077.0,0.0,161613077.0,11063821.0,3267670.0,186779261.0,472683.0,4092679.0,0.0,0.0,24731980.0,211983924.0,22743841.0,18334948.0,41078789.0,73381014.0,91715962.0,1898074.0,0.0,0.0,73381014.0,114459803.0,616559938.0,-519276280.0,97524121.0,0.0,-69897115.0,472683.0,0.0
2017-12-31,127135628.0,0.0,127135628.0,4328802.0,1485358.0,139554072.0,437055.0,3099747.0,0.0,0.0,3238783.0,143229910.0,4097600.0,9223595.0,13321195.0,0.0,9223595.0,0.0,0.0,0.0,0.0,13321195.0,516351405.0,-386659120.0,129908715.0,0.0,-117912033.0,437055.0,0.0
2016-12-31,131534101.0,0.0,131534101.0,4500699.0,1076321.0,139410173.0,516839.0,2405972.0,0.0,0.0,2545008.0,142472020.0,7358514.0,7624085.0,14982599.0,0.0,7624085.0,0.0,0.0,0.0,0.0,14982599.0,436995052.0,-309702319.0,127489421.0,0.0,-123910016.0,516839.0,0.0
2015-12-31,64706355.0,0.0,64706355.0,3049715.0,690153.0,70680120.0,198592.0,1615251.0,1109883.0,0.0,2850134.0,73728846.0,3126174.0,7539526.0,10665700.0,0.0,7539526.0,0.0,0.0,0.0,0.0,10665700.0,282712078.0,-219826860.0,63063146.0,1109883.0,-57166829.0,198592.0,0.0
2014-12-31,51361607.0,0.0,51361607.0,2154217.0,1182113.0,56235344.0,63293.0,1228588.0,1427263.0,0.0,2780851.0,59079488.0,6327129.0,3840639.0,10690381.0,0.0,3840639.0,522613.0,0.0,0.0,0.0,10690381.0,182982846.0,-134749836.0,48389107.0,1427263.0,-47520968.0,63293.0,0.0
2013-12-31,54191260.0,0.0,54191260.0,1690753.0,1043618.0,59403346.0,61318.0,665588.0,308128.0,0.0,2551729.0,62016393.0,2114217.0,3601189.0,7317986.0,0.0,3601189.0,1602580.0,0.0,0.0,0.0,7317986.0,135086056.0,-80532626.0,54698407.0,308128.0,-50590071.0,61318.0,0.0
2012-12-31,0.0,0.0,0.0,0.0,0.0,0.0,0.0,0.0,0.0,0.0,0.0,0.0,0.0,0.0,0.0,0.0,0.0,0.0,0.0,0.0,0.0,0.0,0.0,0.0,0.0,0.0,0.0,0.0,0.0
2011-12-31,0.0,0.0,0.0,0.0,0.0,0.0,0.0,0.0,0.0,0.0,0.0,0.0,0.0,0.0,0.0,0.0,0.0,0.0,0.0,0.0,0.0,0.0,0.0,0.0,0.0,0.0,0.0,0.0,0.0
2010-12-31,422939.0,0.0,422939.0,11812.0,618069.0,1059112.0,96192.0,10000.0,0.0,0.0,138141.0,1197253.0,117636.0,0.0,232842.0,0.0,0.0,0.0,0.0,0.0,0.0,232842.0,0.0,-4079713.0,964411.0,0.0,-422939.0,6292.0,115206.0
