,0,1,2,3,4,5,6,7,8,9,10,11,12,13,14,15,16,17,18,19,20,21,22,23,24,25,26,27,28
Date,Cash and cash equivalents,Short-term investments,Cash and short-term investments,Receivables,Inventories,Total current assets,Property Plant & Equipment Net,Goodwill and Intangible Assets,Long-term investments,Tax assets,Total non-current assets,Total assets,Payables,Short-term debt,Total current liabilities,Long-term debt,Total debt,Deferred revenue,Tax Liabilities,Deposit Liabilities,Total non-current liabilities,Total liabilities,Other comprehensive income,Retained earnings (deficit),Total shareholders equity,Investments,Net Debt,Other Assets,Other Liabilities
2019-12-31,107879000.0,0.0,107879000.0,99305000.0,20267000.0,247899000.0,1056563000.0,125982000.0,0.0,2015000.0,1735666000.0,1983565000.0,61653000.0,17263000.0,417220000.0,538710000.0,555973000.0,209258000.0,1546000.0,0.0,628827000.0,1067571000.0,140501000.0,775649000.0,915994000.0,0.0,448094000.0,0.0,21524000.0
2018-12-25,210125000.0,0.0,210125000.0,92114000.0,18827000.0,345019000.0,956676000.0,125179000.0,0.0,7569000.0,1124257000.0,1469276000.0,62060000.0,1800000.0,385142000.0,2081000.0,3881000.0,0.0,1482000.0,0.0,115723000.0,523707000.0,257388000.0,688337000.0,945569000.0,0.0,-206244000.0,0.0,22842000.0
2017-12-26,150918000.0,0.0,150918000.0,76496000.0,16306000.0,257081000.0,912147000.0,123740000.0,0.0,0.0,1073542000.0,1330623000.0,57579000.0,9000.0,329998000.0,51981000.0,51990000.0,156627000.0,2494000.0,0.0,141535000.0,491544000.0,236548000.0,602499000.0,839079000.0,0.0,-98928000.0,0.0,20011000.0
2016-12-27,112944000.0,0.0,112944000.0,56127000.0,16088000.0,200259000.0,830054000.0,120193000.0,0.0,1996000.0,979712000.0,1179971000.0,50789000.0,167000.0,279527000.0,52381000.0,52548000.0,129558000.0,511000.0,0.0,134711000.0,429745000.0,219626000.0,530723000.0,750226000.0,0.0,-60396000.0,0.0,15507000.0
2015-12-29,59334000.0,0.0,59334000.0,45421000.0,15633000.0,133813000.0,751288000.0,121398000.0,0.0,2077000.0,898893000.0,1032706000.0,50996000.0,144000.0,256642000.0,25550000.0,25694000.0,101274000.0,90000.0,0.0,91841000.0,363044000.0,201023000.0,468678000.0,669662000.0,0.0,-33640000.0,0.0,14561000.0
2014-12-30,86122000.0,0.0,86122000.0,34023000.0,14256000.0,147726000.0,649637000.0,122774000.0,0.0,2773000.0,795416000.0,943142000.0,43585000.0,129000.0,215971000.0,50693000.0,50822000.0,79462000.0,1583000.0,0.0,94202000.0,335250000.0,189168000.0,419436000.0,607892000.0,0.0,-35300000.0,0.0,25077000.0
2013-12-31,94874000.0,0.0,94874000.0,25391000.0,11954000.0,145743000.0,586192000.0,125093000.0,0.0,421000.0,731901000.0,877644000.0,38404000.0,243000.0,175180000.0,50990000.0,51233000.0,62723000.0,172000.0,0.0,89049000.0,289985000.0,215051000.0,374190000.0,587659000.0,0.0,-43641000.0,0.0,25756000.0
2012-12-25,81746000.0,0.0,81746000.0,16416000.0,10909000.0,122472000.0,531654000.0,122699000.0,0.0,3374000.0,668782000.0,791254000.0,32374000.0,338000.0,158662000.0,51264000.0,51602000.0,53041000.0,182000.0,0.0,80917000.0,266170000.0,199967000.0,327509000.0,525084000.0,0.0,-30144000.0,0.0,26591000.0
2011-12-27,73731000.0,0.0,73731000.0,16526000.0,10730000.0,111974000.0,497217000.0,119988000.0,0.0,3367000.0,628696000.0,740670000.0,32744000.0,304000.0,136372000.0,61601000.0,61905000.0,44058000.0,124000.0,0.0,82253000.0,248766000.0,206019000.0,288425000.0,491904000.0,0.0,-11826000.0,0.0,30141000.0
2010-12-28,82215000.0,0.0,82215000.0,12563000.0,9197000.0,113922000.0,458983000.0,121903000.0,0.0,2743000.0,588879000.0,702801000.0,26864000.0,274000.0,112058000.0,51906000.0,52180000.0,39165000.0,8444000.0,0.0,91361000.0,203419000.0,-1338000.0,247008000.0,496616000.0,0.0,-30035000.0,9947000.0,84920000.0
2009-12-29,46858000.0,0.0,46858000.0,12312000.0,8004000.0,74316000.0,456281000.0,124659000.0,0.0,1531000.0,587757000.0,662073000.0,27882000.0,247000.0,108203000.0,101179000.0,101426000.0,34443000.0,12854000.0,0.0,130920000.0,239123000.0,19000.0,188719000.0,420372000.0,0.0,54568000.0,7142000.0,80074000.0
