,0,1,2,3,4,5,6,7,8,9,10,11,12,13,14
Date,Depreciation & Amortization,Stock-based compensation,Operating Cash Flow,Capital Expenditure,Acquisitions and disposals,Investment purchases and sales,Investing Cash flow,Issuance (repayment) of debt,Issuance (buybacks) of shares,Dividend payments,Financing Cash Flow,Effect of forex changes on cash,Net cash flow / Change in cash,Free Cash Flow,Net Cash/Marketcap
2019-12-31,115544000.0,35500000.0,374298000.0,214340000.0,-1536000.0,-139800000.0,-214820000.0,-0.0,-139800000.0,-102366000.0,-261724000.0,0.0,-102246000.0,159958000.0,0.0
2018-12-25,101216000.0,33983000.0,352868000.0,155980000.0,-2165000.0,0.0,-158145000.0,-50000000.0,-210125000.0,-68550000.0,-135516000.0,0.0,59207000.0,196888000.0,0.0
2017-12-26,93499000.0,26934000.0,286373000.0,161628000.0,-16528000.0,0.0,-178156000.0,-558000.0,-150918000.0,-58154000.0,-70243000.0,0.0,37974000.0,124745000.0,0.0
2016-12-27,82964000.0,26067000.0,257065000.0,164738000.0,-0.0,-4110000.0,-164738000.0,-145000.0,-4110000.0,-52054000.0,-38717000.0,0.0,112944000.0,92327000.0,0.0
2015-12-29,69694000.0,22825000.0,227941000.0,173475000.0,-0.0,-11397000.0,-173203000.0,-128000.0,-11397000.0,-46176000.0,-81526000.0,0.0,59334000.0,54466000.0,0.0
2014-12-30,59179000.0,14883000.0,191713000.0,125445000.0,-0.0,-42744000.0,-124240000.0,-1461000.0,-42744000.0,-31333000.0,-76225000.0,0.0,86122000.0,66268000.0,0.0
2013-12-31,51562000.0,14740000.0,173836000.0,111478000.0,-0.0,-12761000.0,-111248000.0,-369000.0,-12761000.0,-46877000.0,-49460000.0,0.0,94874000.0,62358000.0,0.0
2012-12-25,46717000.0,13193000.0,145940000.0,84879000.0,-4297000.0,-29421000.0,-88048000.0,-303000.0,-29421000.0,-24486000.0,-54923000.0,0.0,81746000.0,61061000.0,0.0
2011-12-27,42709000.0,10525000.0,137507000.0,81758000.0,-0.0,-59147000.0,-81570000.0,-275000.0,-59147000.0,-17012000.0,-64421000.0,0.0,73731000.0,55749000.0,0.0
2010-12-28,41283000.0,4527000.0,120056000.0,-44816000.0,0.0,0.0,-44816000.0,-49246000.0,8200000.0,0.0,-39735000.0,0.0,35505000.0,75240000.0,0.0242
2009-12-29,41822000.0,5719000.0,115129000.0,-43159000.0,25000.0,0.0,-43134000.0,-31284000.0,1348000.0,0.0,-30395000.0,0.0,41600000.0,71970000.0,-0.067
