,0,1,2,3,4,5,6,7,8,9,10,11,12,13,14
Date,Depreciation & Amortization,Stock-based compensation,Operating Cash Flow,Capital Expenditure,Acquisitions and disposals,Investment purchases and sales,Investing Cash flow,Issuance (repayment) of debt,Issuance (buybacks) of shares,Dividend payments,Financing Cash Flow,Effect of forex changes on cash,Net cash flow / Change in cash,Free Cash Flow,Net Cash/Marketcap
2018-12-31,61759000.0,52740000.0,250203000.0,27424000.0,-178093000.0,-180973000.0,-238255000.0,-0.0,-146553000.0,-0.0,-63595000.0,0.0,-51647000.0,222779000.0,0.0
2017-12-31,53925000.0,37348000.0,195755000.0,43057000.0,-11344000.0,-38467000.0,-85395000.0,-0.0,-7474000.0,-0.0,39415000.0,0.0,149775000.0,152698000.0,0.0
2016-12-31,50301000.0,29747000.0,191859000.0,37726000.0,-9394000.0,-115317000.0,-50720000.0,-0.0,-111838000.0,-0.0,-138075000.0,0.0,3064000.0,154133000.0,0.0
2015-12-31,19574000.0,20182000.0,89013000.0,12501000.0,-339961000.0,-31652000.0,-398459000.0,-0.0,-645000.0,-0.0,136366000.0,0.0,-173080000.0,76512000.0,0.0
2014-12-31,14605000.0,14819000.0,123437000.0,9343000.0,-3242000.0,-22817000.0,-11555000.0,-0.0,-22817000.0,-0.0,15409000.0,0.0,127291000.0,114094000.0,0.0
2013-12-31,13786000.0,11653000.0,66090000.0,26858000.0,-181000.0,0.0,-25658000.0,-0.0,-78876000.0,-0.0,32038000.0,0.0,72470000.0,39232000.0,0.0
2012-12-31,12711000.0,7411000.0,58668000.0,9102000.0,-25680000.0,0.0,-34736000.0,42700000.0,-6406000.0,-0.0,-18852000.0,0.0,5080000.0,49566000.0,0.0
2011-12-31,10676000.0,6253000.0,56435000.0,12278000.0,-17298000.0,0.0,-28809000.0,-34200000.0,-1326000.0,-0.0,-28414000.0,0.0,-788000.0,44157000.0,0.0
2010-12-31,10788000.0,4132000.0,35350000.0,-4930000.0,-9661000.0,6075000.0,-8694000.0,24473000.0,-60711000.0,0.0,-34238000.0,0.0,-7582000.0,30420000.0,-0.0364
2009-12-31,9497000.0,3920000.0,42941000.0,-12352000.0,-2934000.0,1582000.0,-13658000.0,-8000000.0,-14474000.0,0.0,-21349000.0,0.0,7934000.0,30589000.0,0.0226
