,0,1,2,3,4,5,6,7,8,9,10,11,12,13,14
Date,Depreciation & Amortization,Stock-based compensation,Operating Cash Flow,Capital Expenditure,Acquisitions and disposals,Investment purchases and sales,Investing Cash flow,Issuance (repayment) of debt,Issuance (buybacks) of shares,Dividend payments,Financing Cash Flow,Effect of forex changes on cash,Net cash flow / Change in cash,Free Cash Flow,Net Cash/Marketcap
2019-03-31,8571799.0,9000000.0,-20116101.0,15544.0,-0.0,0.0,-15544.0,-0.0,-8634084.0,-0.0,5458151.0,0.0,-14673494.0,-20131645.0,0.0
2018-03-31,7693630.0,7689334.0,-11879260.0,0.0,-0.0,0.0,0.0,-0.0,-23151805.0,-0.0,30372105.0,0.0,18492845.0,-11879260.0,0.0
2017-03-31,7726118.0,7725000.0,-5861127.0,0.0,-0.0,0.0,0.0,-0.0,-10482977.0,-0.0,10238795.0,0.0,4377668.0,-5861127.0,0.0
2016-03-31,,,-100.0,0.0,,,0.0,0.0,9000.0,0.0,9000.0,,,,
2015-12-31,490151.0,325000.0,-6610156.0,0.0,-0.0,0.0,0.0,-0.0,-4446284.0,-0.0,11046716.0,0.0,4436560.0,-6610156.0,0.0
2014-11-30,0.0,0.0,-6610156.0,0.0,0.0,0.0,0.0,960000.0,9730950.0,0.0,11046716.0,0.0,0.0,-57670.0,-0.0049
2013-11-30,0.0,0.0,0.0,0.0,-0.0,0.0,0.0,-0.0,0.0,-0.0,0.0,0.0,0.0,0.0,0.0
2012-11-30,0.0,0.0,0.0,0.0,-0.0,0.0,0.0,-0.0,0.0,-0.0,0.0,0.0,0.0,0.0,0.0
2011-11-30,0.0,0.0,-27429.0,0.0,0.0,0.0,0.0,0.0,34500.0,0.0,34500.0,0.0,8900.0,-100.0,-0.0049
