,0,1,2,3,4,5,6,7,8,9,10,11,12,13,14,15,16,17,18,19,20,21,22,23,24,25,26,27,28
Date,Cash and cash equivalents,Short-term investments,Cash and short-term investments,Receivables,Inventories,Total current assets,Property Plant & Equipment Net,Goodwill and Intangible Assets,Long-term investments,Tax assets,Total non-current assets,Total assets,Payables,Short-term debt,Total current liabilities,Long-term debt,Total debt,Deferred revenue,Tax Liabilities,Deposit Liabilities,Total non-current liabilities,Total liabilities,Other comprehensive income,Retained earnings (deficit),Total shareholders equity,Investments,Net Debt,Other Assets,Other Liabilities
2018-06,3000000.0,,,2000000.0,0.0,11000000.0,0.0,11000000.0,,0.0,0.0,17000000.0,0.0,,3000000.0,,,1000000.0,,,0.0,3000000.0,-1000000.0,-82000000.0,14000000.0,,-3000000.0,1000000.0,2000000.0
2017-06,5000000.0,,,5000000.0,1000000.0,28000000.0,0.0,27000000.0,,0.0,0.0,39000000.0,1000000.0,,4000000.0,,,1000000.0,,,0.0,4000000.0,-0.0,-54000000.0,35000000.0,,-5000000.0,-2000000.0,2000000.0
2016-06,8000000.0,,,7000000.0,1000000.0,35000000.0,1000000.0,27000000.0,,0.0,0.0,53000000.0,1000000.0,,4000000.0,,,1000000.0,,,0.0,4000000.0,-0.0,-18000000.0,50000000.0,,-8000000.0,6000000.0,2000000.0
2015-06,12000000.0,,,3000000.0,0.0,35000000.0,1000000.0,26000000.0,,0.0,0.0,52000000.0,1000000.0,,5000000.0,,,1000000.0,,,0.0,5000000.0,0.0,-9000000.0,47000000.0,,-12000000.0,8000000.0,3000000.0
2014-06,19000000.0,,,3000000.0,0.0,10000000.0,0.0,9000000.0,,0.0,0.0,33000000.0,2000000.0,,2000000.0,,,0.0,,,0.0,2000000.0,0.0,-9000000.0,31000000.0,,-19000000.0,0.0,0.0
