,0,1,2,3,4,5,6,7,8,9,10,11,12,13,14,15,16,17,18,19,20,21,22,23,24,25,26,27,28
Date,Cash and cash equivalents,Short-term investments,Cash and short-term investments,Receivables,Inventories,Total current assets,Property Plant & Equipment Net,Goodwill and Intangible Assets,Long-term investments,Tax assets,Total non-current assets,Total assets,Payables,Short-term debt,Total current liabilities,Long-term debt,Total debt,Deferred revenue,Tax Liabilities,Deposit Liabilities,Total non-current liabilities,Total liabilities,Other comprehensive income,Retained earnings (deficit),Total shareholders equity,Investments,Net Debt,Other Assets,Other Liabilities
2019-12-31,26412000.0,183611000.0,210023000.0,121929000.0,0.0,331952000.0,18789000.0,29410000.0,18613000.0,0.0,548062000.0,880014000.0,0.0,12908000.0,12908000.0,7000000.0,19908000.0,0.0,0.0,707134000.0,7417000.0,785233000.0,7519000.0,80629000.0,94781000.0,202224000.0,-6504000.0,0.0,764908000.0
2018-12-31,16475000.0,167354000.0,183829000.0,263000.0,0.0,184092000.0,18968000.0,29569000.0,18223000.0,1345000.0,646208000.0,830300000.0,0.0,12874000.0,12874000.0,7000000.0,19874000.0,0.0,0.0,666236000.0,10206000.0,749356000.0,7277000.0,71670000.0,80944000.0,185577000.0,3399000.0,0.0,726276000.0
2017-12-31,27274000.0,169428000.0,196702000.0,1178000.0,0.0,197880000.0,19336000.0,26329000.0,17828000.0,2681000.0,582570000.0,780450000.0,0.0,12840000.0,12840000.0,22048000.0,34888000.0,0.0,0.0,630548000.0,25131000.0,704746000.0,7073000.0,64994000.0,75704000.0,187256000.0,7614000.0,0.0,666775000.0
2016-12-31,14186000.0,190205000.0,204391000.0,624000.0,0.0,205015000.0,13395000.0,10838000.0,17351000.0,1056000.0,428104000.0,633119000.0,0.0,12806000.0,12806000.0,18774000.0,31580000.0,0.0,0.0,524680000.0,23013000.0,560561000.0,6946000.0,62717000.0,72558000.0,207556000.0,17394000.0,0.0,524742000.0
2015-12-31,22922365.0,182929038.0,205851403.0,3857293.0,0.0,209708696.0,12048680.0,10975619.0,16833950.0,804962.0,398956413.0,608665109.0,0.0,12772401.0,12792801.0,645000.0,13417401.0,0.0,20400.0,518419342.0,5405300.0,537103932.0,7761653.0,58641837.0,71561177.0,199762988.0,-9504964.0,0.0,518905831.0
2014-12-31,32354580.0,206461063.0,238815643.0,4798817.0,0.0,243614460.0,12385556.0,11112946.0,16406846.0,632480.0,406585201.0,650199661.0,0.0,12738549.0,12855097.0,0.0,12738549.0,0.0,116548.0,565444959.0,4773700.0,582427384.0,8673837.0,53925768.0,67772277.0,222867909.0,-19616031.0,0.0,564798587.0
2013-12-31,22407458.0,197079925.0,219487383.0,3914625.0,0.0,223402008.0,9165532.0,8687765.0,14173138.0,757993.0,332832736.0,556234744.0,0.0,10300000.0,10513548.0,7500000.0,17800000.0,0.0,213548.0,468000065.0,11148600.0,493226879.0,9797824.0,50807689.0,63007865.0,211253063.0,-4607458.0,0.0,471564731.0
2012-12-31,49911807.0,177607765.0,227519572.0,4381436.0,0.0,231901008.0,9217876.0,8728622.0,13761183.0,137993.0,340546620.0,572447628.0,0.0,10300000.0,10366000.0,17500000.0,27800000.0,0.0,66000.0,471199114.0,22732100.0,508277423.0,9856420.0,46855865.0,64170205.0,191368948.0,-22111807.0,0.0,475179323.0
2011-12-31,57286974.0,151955957.0,209242931.0,0.0,0.0,209242931.0,9581311.0,8769479.0,13335587.0,0.0,377801733.0,587044664.0,0.0,10300000.0,10300000.0,0.0,10300000.0,0.0,0.0,480485565.0,0.0,527296950.0,9845763.0,42543363.0,59747714.0,165291544.0,-46986974.0,0.0,516996950.0
2010-12-31,48603636.0,,,0.0,0.0,,9933432.0,8810336.0,,0.0,,612616555.0,0.0,,,,66077834.0,0.0,0.0,488650626.0,,557611492.0,1810684.0,39600718.0,55005063.0,534119433.0,,,
2009-12-31,27379889.0,,,0.0,0.0,,9132248.0,7345588.0,,0.0,,616405434.0,0.0,,,,88206588.0,0.0,0.0,469668484.0,,562126329.0,2359821.0,38343134.0,54279105.0,558893474.0,,,
