,0,1,2,3,4,5,6,7,8,9,10,11,12,13,14
Date,Depreciation & Amortization,Stock-based compensation,Operating Cash Flow,Capital Expenditure,Acquisitions and disposals,Investment purchases and sales,Investing Cash flow,Issuance (repayment) of debt,Issuance (buybacks) of shares,Dividend payments,Financing Cash Flow,Effect of forex changes on cash,Net cash flow / Change in cash,Free Cash Flow,Net Cash/Marketcap
2019-12-31,31926000.0,8845000.0,85257000.0,23968000.0,-0.0,-1928000.0,-23968000.0,-106000000.0,-1928000.0,-0.0,-39231000.0,-963000.0,21095000.0,61289000.0,0.0
2018-12-31,33602000.0,8820000.0,12855000.0,22663000.0,-0.0,-13824000.0,23575000.0,-104500000.0,-13824000.0,-0.0,-53318000.0,2756000.0,-14132000.0,-9808000.0,0.0
2017-12-31,31312000.0,11943000.0,13788000.0,42333000.0,-0.0,-39085000.0,-51227000.0,-0.0,-39085000.0,-0.0,50370000.0,-1104000.0,11827000.0,-28545000.0,0.0
2016-12-31,26967000.0,10324000.0,49543000.0,42563000.0,-0.0,-12647000.0,-42515000.0,-0.0,-12647000.0,-0.0,-4446000.0,-4937000.0,-2355000.0,6980000.0,0.0
2015-12-31,20452000.0,7913000.0,26094000.0,35384000.0,-12265000.0,-89395000.0,-47649000.0,-0.0,-89395000.0,-0.0,-35142000.0,-2858000.0,-59555000.0,-9290000.0,0.0
2014-12-31,18244000.0,6444000.0,63473000.0,18419000.0,-0.0,-16168000.0,-18419000.0,-0.0,-16168000.0,-0.0,-8046000.0,-661000.0,36347000.0,45054000.0,0.0
2013-12-31,18363000.0,5342000.0,30694000.0,11674000.0,-0.0,-3607000.0,-9151000.0,-19500000.0,-3607000.0,-0.0,10038000.0,2523000.0,31581000.0,19020000.0,0.0
2012-12-31,17613000.0,4575000.0,43543000.0,11603000.0,-0.0,-3451000.0,-10744000.0,-47200000.0,-3451000.0,-0.0,-17578000.0,859000.0,15221000.0,31940000.0,0.0
2011-12-31,0.0,0.0,0.0,0.0,-0.0,0.0,0.0,-0.0,0.0,-0.0,0.0,0.0,0.0,0.0,0.0
2010-12-31,8059000.0,4907000.0,38139000.0,-8440000.0,-74271000.0,49246000.0,-34843000.0,31166000.0,-8181000.0,0.0,23275000.0,-1338000.0,25233000.0,29699000.0,0.0507
2009-12-31,6801000.0,4470000.0,23987000.0,-6171000.0,-9502000.0,-49246000.0,-66091000.0,0.0,-4472000.0,0.0,-4222000.0,104000.0,-46222000.0,17816000.0,0.2461
