,0,1,2,3,4,5,6,7,8,9,10,11,12,13,14,15,16,17,18,19,20,21,22,23,24,25,26,27,28
Date,Cash and cash equivalents,Short-term investments,Cash and short-term investments,Receivables,Inventories,Total current assets,Property Plant & Equipment Net,Goodwill and Intangible Assets,Long-term investments,Tax assets,Total non-current assets,Total assets,Payables,Short-term debt,Total current liabilities,Long-term debt,Total debt,Deferred revenue,Tax Liabilities,Deposit Liabilities,Total non-current liabilities,Total liabilities,Other comprehensive income,Retained earnings (deficit),Total shareholders equity,Investments,Net Debt,Other Assets,Other Liabilities
2017-12-31,45226586.0,,,233141.0,0.0,,0.0,0.0,,0.0,,48759489.0,696221.0,,,,0.0,0.0,0.0,0.0,,711557.0,0.0,,48047932.0,0.0,,,
2016-12-31,66497093.0,,,272824.0,0.0,,0.0,0.0,,0.0,,70781713.0,196703.0,,,,0.0,0.0,0.0,0.0,,197149.0,0.0,,70584564.0,0.0,,,
2015-12-31,75519309.0,,,225509.0,0.0,,0.0,0.0,,0.0,,76350283.0,173413.0,,,,0.0,0.0,0.0,0.0,,173413.0,0.0,,76176870.0,0.0,,,
2014-12-31,41718871.0,,,1825369.0,0.0,,0.0,0.0,,0.0,,40833631.0,151487.0,,,,0.0,0.0,0.0,0.0,,151487.0,0.0,,40682144.0,0.0,,,
2013-12-31,54246641.0,,,138662.0,0.0,,0.0,0.0,,0.0,,57155002.0,257831.0,,,,0.0,0.0,0.0,0.0,,257831.0,0.0,,56897171.0,0.0,,,
2012-12-31,61570752.0,,,140845.0,0.0,,0.0,0.0,,0.0,,64539315.0,310851.0,,,,0.0,0.0,0.0,0.0,,313827.0,0.0,,64225488.0,0.0,,,
2011-12-31,72599046.0,,,104745.0,0.0,,0.0,0.0,,0.0,,77673016.0,281741.0,,,,0.0,0.0,0.0,0.0,,285918.0,0.0,,77387098.0,0.0,,,
2010-12-31,63925522.0,,,268440.0,0.0,,0.0,0.0,,0.0,,67708353.0,409889.0,,,,0.0,0.0,0.0,0.0,,413769.0,0.0,,67294584.0,0.0,,,
2009-12-31,63237601.0,,,259223.0,0.0,,0.0,0.0,,0.0,,69578133.0,352950.0,,,,0.0,0.0,0.0,0.0,,392393.0,0.0,,69185740.0,0.0,,,
