,0,1,2,3,4,5,6,7,8,9,10,11,12,13,14,15,16,17,18,19,20,21,22,23,24,25,26,27,28,29,30
Date,Revenue,Revenue Growth,Cost of Revenue,Gross Profit,R&D Expenses,SG&A Expense,Operating Expenses,Operating Income,Interest Expense,Earnings before Tax,Income Tax Expense,Net Income - Non-Controlling int,Net Income - Discontinued ops,Net Income,Preferred Dividends,Net Income Com,EPS,EPS Diluted,Weighted Average Shs Out,Weighted Average Shs Out (Dil),Dividend per Share,Gross Margin,EBITDA Margin,EBIT Margin,Profit Margin,Free Cash Flow margin,EBITDA,EBIT,Consolidated Income,Earnings Before Tax Margin,Net Profit Margin
2019-12-31,11378259000.0,0.0562537468862,0.0,0.0,0.0,5588893000.0,10162351000.0,1215908000.0,162733000.0,1066337000.0,238794000.0,0.0,0.0,814854000.0,0.0,814854000.0,9.16,9.13,88762000.0,89040000.0,0.59527178796,0.0,0.14996143083,0.106862394326,0.071614998393,0.0706939435989,1706300000.0,1215908000.0,814854000.0,0.09371706163480001,0.071614998393
2018-12-31,10772278000.0,0.0348143803978,0.0,0.0,0.0,5254536000.0,9597016000.0,1175262000.0,154956000.0,1034525000.0,236642000.0,0.0,0.0,779705000.0,0.0,779705000.0,8.35,8.31,93276000.0,93750000.0,0.398314666667,0.0,0.151160042472,0.109100600634,0.07238069793589999,0.121111801979,1628338000.0,1175262000.0,779705000.0,0.09603586168130002,0.07238069793589999
2017-12-31,10409865000.0,0.0659063239476,0.0,0.0,0.0,4980637000.0,9129687000.0,1280178000.0,145169000.0,803906000.0,363697000.0,0.0,0.0,752303000.0,0.0,752303000.0,7.86,7.81,95652000.0,96325000.0,0.39668829483499995,0.0,0.166002248828,0.12297738731499999,0.07226827629369999,0.11081161955499999,1728061000.0,1280178000.0,752303000.0,0.07722540109789999,0.07226827629369999
2016-12-31,9766210000.0,0.07992070726099999,0.0,0.0,0.0,4585530000.0,8484799000.0,1281411000.0,125053000.0,744883000.0,409187000.0,0.0,0.0,702409000.0,0.0,702409000.0,7.22,7.14,97208000.0,98380000.0,0.395151453547,0.0,0.173866730287,0.131208626478,0.0719223731622,0.129732926079,1698019000.0,1281411000.0,702409000.0,0.076271450235,0.0719223731622
2015-12-31,9043451000.0,0.12127532104699999,0.0,0.0,0.0,4212387000.0,7784056000.0,1259395000.0,113494000.0,1145901000.0,395203000.0,0.0,0.0,680528000.0,0.0,680528000.0,6.89,6.76,98797000.0,100694000.0,0.392595388007,0.0,0.183338528621,0.13926044382799999,0.07525091914580001,0.11288809990800001,1658013000.0,1259395000.0,680528000.0,0.12671058869000001,0.07525091914580001
2014-12-31,8065326000.0,0.107293121661,0.0,0.0,0.0,3845461000.0,7002021000.0,1063305000.0,133638000.0,557113000.0,324671000.0,0.0,0.0,545343000.0,0.0,545343000.0,5.52,5.42,98826000.0,100544000.0,0.295044955442,0.0,0.178409279427,0.13183658044299998,0.0676157417567,0.0799379963067,1438929000.0,1063305000.0,545343000.0,0.0690750752046,0.0676157417567
2013-12-31,7283822000.0,0.0463156836269,0.0,0.0,0.0,3604620000.0,6268359000.0,1015463000.0,146131000.0,541273000.0,315309000.0,0.0,0.0,510733000.0,0.0,510733000.0,5.21,5.14,98033000.0,99361000.0,0.19747184509,0.0,0.185729277843,0.139413483745,0.0701188194879,0.07218023724360001,1352819000.0,1015463000.0,510733000.0,0.0743116731848,0.0701188194879
2012-12-31,6961400000.0,-0.0718378368144,0.0,0.0,0.0,3440917000.0,6018819000.0,942581000.0,178918000.0,763663000.0,274616000.0,0.0,0.0,443446000.0,0.0,443446000.0,4.57,4.53,96821000.0,97711000.0,0.59762974486,0.0,0.179744160657,0.135401068751,0.0637006923895,0.06494081650240001,1251271000.0,942581000.0,443446000.0,0.109699629385,0.0637006923895
2011-12-31,7500198000.0,0.346973564995,0.0,0.0,0.0,3394967000.0,6603070000.0,897128000.0,200792000.0,696336000.0,247466000.0,0.0,0.0,398167000.0,0.0,398167000.0,4.09,4.04,97199000.0,98537000.0,0.19755015882399998,0.0,0.15906100079000002,0.119613908859,0.0530875318225,0.057674344063999995,1192989000.0,897128000.0,398167000.0,0.092842348962,0.0530875318225
2010-12-31,5568185000.0,0.07031513851639999,0.0,0.0,0.0,2423102000.0,2423102000.0,505697000.0,77600000.0,428097000.0,152302000.0,0.0,0.0,230183000.0,0.0,230183000.0,0.0,0.0,96786000.0,97973000.0,0.198238290141,0.0,0.13104701082999998,0.0908190011647,0.041338964132800006,0.0470656057584,729694000.0,505697000.0,230183000.0,0.0768826825977,0.041338964132800006
2009-12-31,5202379000.0,0.0358,0.0,5202379000.0,0.0,2204422000.0,4681847000.0,520532000.0,45810000.0,430848000.0,170475000.0,43874000.0,0.0,260373000.0,0.0,260373000.0,2.65,2.64,98400754.0,97794000.0,0.17,1.0,0.131,0.0916,0.05,0.031,681361000.0,476658000.0,304247000.0,0.0828,0.05
