,0,1,2,3,4,5,6,7,8,9,10,11,12,13,14,15,16,17,18,19,20,21,22,23,24,25,26,27,28
Date,Cash and cash equivalents,Short-term investments,Cash and short-term investments,Receivables,Inventories,Total current assets,Property Plant & Equipment Net,Goodwill and Intangible Assets,Long-term investments,Tax assets,Total non-current assets,Total assets,Payables,Short-term debt,Total current liabilities,Long-term debt,Total debt,Deferred revenue,Tax Liabilities,Deposit Liabilities,Total non-current liabilities,Total liabilities,Other comprehensive income,Retained earnings (deficit),Total shareholders equity,Investments,Net Debt,Other Assets,Other Liabilities
2019-12-31,538800000.0,0.0,538800000.0,495000000.0,10900000.0,1221300000.0,124400000.0,0.0,0.0,114000000.0,1282700000.0,2504000000.0,252000000.0,13500000.0,927300000.0,566100000.0,579600000.0,288600000.0,28600000.0,25300000.0,908600000.0,3769400000.0,4533700000.0,-1711200000.0,-1265400000.0,0.0,40800000.0,0.0,1933500000.0
2018-12-31,605000000.0,0.0,605000000.0,509200000.0,14000000.0,1301400000.0,121300000.0,0.0,0.0,109300000.0,1156200000.0,2457600000.0,268900000.0,10000000.0,923300000.0,642800000.0,652800000.0,294400000.0,32300000.0,0.0,1034600000.0,3801100000.0,4434800000.0,-1694000000.0,-1343500000.0,0.0,47800000.0,0.0,1843200000.0
2017-12-31,733900000.0,0.0,733900000.0,503300000.0,13600000.0,1389500000.0,142500000.0,0.0,0.0,119900000.0,1152900000.0,2542400000.0,241800000.0,10800000.0,971600000.0,633900000.0,644700000.0,327500000.0,26000000.0,0.0,943000000.0,3897100000.0,4423700000.0,-1963100000.0,-1354700000.0,0.0,-89200000.0,0.0,1982500000.0
2016-12-31,370600000.0,0.0,370600000.0,505800000.0,14000000.0,1027300000.0,145300000.0,0.0,0.0,146100000.0,994300000.0,2021600000.0,189000000.0,106000000.0,981600000.0,194000000.0,300000000.0,337400000.0,35300000.0,0.0,443500000.0,3652600000.0,4414700000.0,-1893400000.0,-1631000000.0,0.0,-70600000.0,0.0,2227500000.0
2015-12-31,365200000.0,0.0,365200000.0,581600000.0,20900000.0,1135700000.0,153800000.0,0.0,0.0,114500000.0,1007500000.0,2143200000.0,219300000.0,11000000.0,970500000.0,235500000.0,246500000.0,335100000.0,32000000.0,0.0,464100000.0,3532900000.0,4400800000.0,-1845700000.0,-1389700000.0,0.0,-118700000.0,0.0,2098300000.0
2014-12-31,494300000.0,0.0,494300000.0,619300000.0,22200000.0,1317300000.0,168700000.0,0.0,0.0,154600000.0,1031400000.0,2348700000.0,262500000.0,1800000.0,997700000.0,222200000.0,224000000.0,348300000.0,58300000.0,0.0,449900000.0,3808700000.0,4388700000.0,-1735800000.0,-1460000000.0,0.0,-270300000.0,0.0,2361100000.0
2013-12-31,639800000.0,0.0,639800000.0,683100000.0,32800000.0,1540800000.0,174700000.0,0.0,0.0,112300000.0,969200000.0,2510000000.0,246700000.0,375700000.0,1024800000.0,210000000.0,585700000.0,402400000.0,40900000.0,0.0,476000000.0,3210500000.0,4415000000.0,-1782500000.0,-700500000.0,0.0,-54100000.0,0.0,1709700000.0
2012-12-31,655600000.0,0.0,655600000.0,670200000.0,29300000.0,1512400000.0,176400000.0,0.0,0.0,162700000.0,908000000.0,2420400000.0,228600000.0,300000.0,1030300000.0,210000000.0,210300000.0,389500000.0,47800000.0,0.0,446900000.0,4020600000.0,4424000000.0,-1891000000.0,-1600200000.0,0.0,-445300000.0,0.0,2543400000.0
2011-12-31,714900000.0,0.0,714900000.0,673000000.0,38100000.0,1603400000.0,191300000.0,0.0,0.0,181500000.0,1008800000.0,2612200000.0,241600000.0,900000.0,1116100000.0,358800000.0,359700000.0,448100000.0,28800000.0,0.0,610200000.0,3930300000.0,4419000000.0,-2036600000.0,-1318100000.0,0.0,-355200000.0,0.0,2204000000.0
2010-12-31,828300000.0,0.0,828300000.0,789700000.0,44100000.0,1875400000.0,219700000.0,0.0,0.0,179600000.0,0.0,1875400000.0,0.0,0.0,0.0,0.0,0.0,0.0,0.0,0.0,40700000.0,40700000.0,1834699999.99,0.0,1834700000.0,0.0,-828300000.0,0.0,0.0
2009-12-31,647600000.0,0.0,647600000.0,767400000.0,100500000.0,1773400000.0,439400000.0,198500000.0,151500000.0,200500000.0,1183500000.0,2956900000.0,292200000.0,65800000.0,1450200000.0,845900000.0,911700000.0,588300000.0,0.0,0.0,2778400000.0,4228600000.0,-3013500000.0,-2406700000.0,-1268300000.0,151500000.0,264100000.0,257900000.0,1092200000.0
