,0,1,2,3,4,5,6,7,8,9,10,11,12,13,14,15,16,17,18,19,20,21,22,23,24,25,26,27,28
Date,Cash and cash equivalents,Short-term investments,Cash and short-term investments,Receivables,Inventories,Total current assets,Property Plant & Equipment Net,Goodwill and Intangible Assets,Long-term investments,Tax assets,Total non-current assets,Total assets,Payables,Short-term debt,Total current liabilities,Long-term debt,Total debt,Deferred revenue,Tax Liabilities,Deposit Liabilities,Total non-current liabilities,Total liabilities,Other comprehensive income,Retained earnings (deficit),Total shareholders equity,Investments,Net Debt,Other Assets,Other Liabilities
2018-12-31,3712643678.1609,1004597701.1494,4717241379.3103,7454022988.5057,4943678160.9195,17794252873.5632,11893103448.2759,33900000000.0,737931034.4828,1826436781.6092,50545977011.4943,68340229885.0575,16617241379.3103,3718390804.5977,22726436781.6092,24885057471.2644,28603448275.8621,0.0,4071264367.8161,0.0,31485057471.2644,54211494252.8736,0.0,30189655172.4138,13301149425.2874,1742528735.6322,24203834137.431,610040297.003,2390804597.7012
2017-12-31,3981992797.1188,924369747.8992,4906362545.018,6268907563.0252,4756302521.0084,20387755102.0408,12498199279.7119,34094837935.1741,810324129.6519,1888355342.1369,51983193277.3109,72370948379.3517,16117647058.8235,9565426170.4682,27823529411.7647,19762304921.9688,29327731092.437,0.0,3744297719.0876,0.0,27276110444.1777,55099639855.9424,0.0,31990396158.4634,16361344537.8151,1734693877.551,,,2140456182.4729998
2016-12-31,3560000000.0,630526315.7895,4190526315.7895,5370526315.7895,4503157894.7368,14614736842.1053,12287368421.0526,28876842105.2632,708421052.6316,1758947368.4211,44784210526.3158,59398947368.4211,14601052631.5789,5736842105.2632,21637894736.8421,11731578947.3684,17468421052.6316,0.0,3184210526.3158,0.0,19887368421.0526,41525263157.8947,0.0,24398947368.4211,17214736842.1053,1338947368.4211,,,1300000000.0
2015-12-31,2499457111.835,907709011.9435,3407166123.7785,5216069489.6851,4706840390.8795,13774158523.3442,12006514657.9805,27208469055.3746,656894679.696,1536373507.0575,43009771986.9707,56783930510.3149,14970684039.0879,5199782844.734,21736156351.7915,10699239956.5689,15899022801.3029,0.0,3248642779.5874,0.0,17586319218.241,39322475570.0326,0.0,24559174809.9891,16763300760.0434,1564603691.6395,,,1565689467.9696
