,0,1,2,3,4,5,6,7,8,9,10,11,12,13,14
Date,Depreciation & Amortization,Stock-based compensation,Operating Cash Flow,Capital Expenditure,Acquisitions and disposals,Investment purchases and sales,Investing Cash flow,Issuance (repayment) of debt,Issuance (buybacks) of shares,Dividend payments,Financing Cash Flow,Effect of forex changes on cash,Net cash flow / Change in cash,Free Cash Flow,Net Cash/Marketcap
2019-12-31,75351000.0,73000.0,128036000.0,79753000.0,-0.0,-23281000.0,-143060000.0,-70016000.0,-24785000.0,-15042000.0,16747000.0,276000.0,1999000.0,48283000.0,0.0
2018-12-31,55754000.0,413000.0,94901000.0,66585000.0,-0.0,3575000.0,-229673000.0,-112157000.0,-930000.0,-10930000.0,138827000.0,-474000.0,4055000.0,28316000.0,0.0
2017-12-31,47316000.0,414000.0,83849000.0,63360000.0,-0.0,-227000.0,-60773000.0,-48305000.0,-1488000.0,-7960000.0,-23159000.0,516000.0,-83000.0,20489000.0,0.0
2016-12-31,37014000.0,571000.0,68629000.0,97351000.0,-0.0,840000.0,-93918000.0,-78520000.0,-26000.0,-7954000.0,14114000.0,158000.0,-11175000.0,-28722000.0,0.0
2015-12-31,35521000.0,494000.0,78304000.0,26257000.0,-0.0,-35065000.0,-27205000.0,-120000000.0,-35065000.0,-8171000.0,-46170000.0,-1046000.0,4929000.0,52047000.0,0.0
2014-12-31,33746000.0,1485000.0,79392000.0,59784000.0,-2648000.0,-7694000.0,-63169000.0,-5363000.0,-5631000.0,-8409000.0,-17591000.0,-854000.0,-2222000.0,19608000.0,0.0
2013-12-31,19686000.0,585000.0,57590000.0,17035000.0,-121057000.0,490000.0,-135806000.0,-0.0,-6000.0,-4209000.0,85989000.0,-104000.0,7669000.0,40555000.0,0.0
2012-12-31,18237000.0,586000.0,70403000.0,29566000.0,-850000.0,6490000.0,-21948000.0,-69061000.0,-991000.0,-15499000.0,-51494000.0,82000.0,-2957000.0,40837000.0,0.0
2011-12-31,11636000.0,0.0,34163000.0,21044000.0,-1050000.0,-2685000.0,-22102000.0,-0.0,-1700000.0,-15555000.0,-17444000.0,0.0,-5383000.0,13119000.0,0.0
2010-12-31,17539000.0,0.0,46885000.0,-12284000.0,3827000.0,8782000.0,325000.0,-3336000.0,-4567000.0,0.0,-39583000.0,-10000.0,7617000.0,34601000.0,0.0424
2009-12-31,10354000.0,0.0,22917000.0,-21820000.0,-6662000.0,-5911000.0,-34393000.0,0.0,-355000.0,-15983000.0,-16338000.0,0.0,-27814000.0,1097000.0,0.0276
