,0,1,2,3,4,5,6,7,8,9,10,11,12,13,14,15,16,17,18,19,20,21,22,23,24,25,26,27,28
Date,Cash and cash equivalents,Short-term investments,Cash and short-term investments,Receivables,Inventories,Total current assets,Property Plant & Equipment Net,Goodwill and Intangible Assets,Long-term investments,Tax assets,Total non-current assets,Total assets,Payables,Short-term debt,Total current liabilities,Long-term debt,Total debt,Deferred revenue,Tax Liabilities,Deposit Liabilities,Total non-current liabilities,Total liabilities,Other comprehensive income,Retained earnings (deficit),Total shareholders equity,Investments,Net Debt,Other Assets,Other Liabilities
2018-12-31,2734043758.1699,17273464.0523,2751317222.2222,803376895.4248,594873169.9346,4614164444.4444,5648581535.9477,97771372.549,1016004477.1242,222766405.2288,7235418202.6144,11849582647.0588,763390849.6732,428229019.6078,1634537647.0588,2192254934.6405,2620483954.2484,0.0,131983039.2157,0.0,3535388692.8105,5169926339.8693,-459584346.4052,2166069509.8039,6664402450.9804,1033277941.1765,,467432712.4184,442917777.7778
2017-12-31,2749985589.2256,24350202.0202,2774335791.2458,745548451.1785,614730639.7306,4689493535.3535,6927329326.5993,127525555.5556,1040194882.1549,226985589.2256,8479941481.4815,13169435016.835,813793198.6532,856752188.5522,2990410639.7306,1795257407.4074,2652009595.9596,0.0,241714377.1044,0.0,3121078316.4983,6111488956.229,22153434.3434,1786470976.431,7025730303.0303,1064545084.1751,,,1319865252.5252
2016-12-31,1785671608.0012,22397208.8696,1808068816.8708,742968615.2892,527145759.0324,3425944921.6933,6977311335.0907,126788742.4407,1001606636.6879,156936486.2769,8489909164.2115,11915854085.9048,1063488633.8967,637332950.8451,2257395596.2165,1883352209.6449,2520685160.49,0.0,198261466.8941,0.0,2992421150.566,5249816746.7824,161551713.4439,1631245185.3,6598996588.6184,1024003845.5575,,,556574011.4747
2015-12-31,1619327023.0028,21985049.6825,1641312072.6853,604883740.0103,536065665.9273,2881172961.8038,5665118812.4829,136864930.5661,1158040748.7314,71335409.7663,7309179008.7818,10190351970.5856,1006856483.0289999,167280956.5772,1503725090.4008,1444115804.1873,1611396760.7645,0.0,170855297.9428,0.0,1854069008.4779,3357794098.8787,277749339.0866,1681803761.8888,6770961803.7619,1180025798.4138,,,329587650.7946
2014-12-31,1441091508.2143,27315927.2223,1468407435.4366,722155015.2934,480630403.9353,3054367262.6368,5256211742.8184,142936272.1912,1099158452.3697,72576482.8304,6741222337.8425,9795589600.4793,916570649.2606,197103837.54299998,1551368271.6867,1053236527.607,1250340365.1499,0.0,213584492.1641,0.0,1296312490.1460001,2847680761.8327,318725317.6931,1550544382.4299,6826513890.2028,1126474379.592,,,437693784.8831
2013-12-31,1702015000.8371,99199129.4157,1801214130.2528,581024242.4242,468550443.6632,2973253775.3223,5436226351.917,158702394.1068,1008631307.5506,93048150.0084,6868163502.4276,9841417277.7499,842722651.9337,155485451.1971,1614062280.2612,951455047.7147,1106940498.9118,0.0,143532596.6851,0.0,1207633383.5594,2821695663.8205,139941369.4961,1282564071.6558,6875071086.5562,1107830436.9663,,,615854177.1304
2012-12-31,1462699325.2548,172548264.9408,1635247590.1956,587701872.7623,448351349.4905,2754996247.5902,5506189927.0174,96328800.6059,1139880439.2729,120882539.2454,6926007367.1165,9681003614.7067,778366324.7039,198726762.5998,1381179840.2644,1106954454.6957,1305681217.2955,0.0,132636532.6356,0.0,1356581657.9455,2737761498.2099,150475660.9749,1045763908.0143,6854728656.0176,1312428704.2137,,,404086752.9607
2011-12-31,1619907154.8849,195093835.6391,1815000990.524,501028031.8288,419444183.9733,2765344867.4349,4683909334.0377,48990689.0745,1182193548.3871,126628949.7144,6457629544.0288,9222974411.4637,769281738.0394,310756331.0992,1414460857.7938,696516195.0672,1007272526.1663,0.0,64623468.815,0.0,889497969.4258,2303958827.2196,341034602.3046,1024148809.7203,6774139036.5503,1377287384.0261,,,334422788.6552
2010-12-31,1759354368.2657,284827705.7168,2044182073.9825,667068972.6168,447211001.304,3217668553.9771,4555692814.4945,10456660.49,1618937890.3301,127809999.3137,6420894207.6728,9638562761.6499,674070379.521,141517912.2915,1559420252.5564,233319264.2921,374837176.5836,0.0,54758904.6737,0.0,353659391.9429,1913079644.4993,769919120.1702,967523128.1312,7526500686.2947,1903765596.0469,,,743831960.7439
2009-12-31,2068896325.2541,274481532.4472,2343377857.7013,533550961.6888,285891634.0891,3201332791.2432,2802075371.3839,238154.8084,1727183643.4715,115440187.6466,4731065989.0539,7932398780.2971,343824956.9977,4024456.6067,1102294792.8069,23973416.7318,27997873.3385,0.0,6149304.1439,0.0,134364941.3604,1236659734.1673,956900422.2048,333035590.3049,6680166411.2588,2001665175.9187,,,754445379.2025
