,0,1,2,3,4,5,6,7,8,9,10,11,12,13,14,15,16,17,18,19,20,21,22,23,24,25,26,27,28,29,30
Date,Revenue,Revenue Growth,Cost of Revenue,Gross Profit,R&D Expenses,SG&A Expense,Operating Expenses,Operating Income,Interest Expense,Earnings before Tax,Income Tax Expense,Net Income - Non-Controlling int,Net Income - Discontinued ops,Net Income,Preferred Dividends,Net Income Com,EPS,EPS Diluted,Weighted Average Shs Out,Weighted Average Shs Out (Dil),Dividend per Share,Gross Margin,EBITDA Margin,EBIT Margin,Profit Margin,Free Cash Flow margin,EBITDA,EBIT,Consolidated Income,Earnings Before Tax Margin,Net Profit Margin
2019-12-31,64514000.0,-0.050105275556899996,0.0,0.0,0.0,420373000.0,425991000.0,468903000.0,210442000.0,468903000.0,114808000.0,0.0,0.0,354095000.0,0.0,354095000.0,1.61,1.6,220339000.0,220650000.0,0.8388896442329999,0.0,7.52921846421,7.2682363518,5.48865362557,-1.44395015035,485740000.0,468903000.0,354095000.0,7.2682363518,5.48865362557
2018-12-31,67917000.0,-0.9210164579569999,0.0,0.0,0.0,425575000.0,431741000.0,422686000.0,128510000.0,422686000.0,106423000.0,0.0,0.0,316247000.0,0.0,316247000.0,1.44,1.43,220280000.0,220737000.0,0.787878787879,0.0,6.848270683330001,6.2235670009,4.65637469264,7.3067862243600015,465114000.0,422686000.0,316247000.0,6.2235670009,4.65637469264
2017-12-31,859888000.0,0.0181153414446,0.0,0.0,0.0,438180000.0,444936000.0,341955000.0,78216000.0,341955000.0,95936000.0,0.0,0.0,245963000.0,0.0,245963000.0,1.12,1.11,220251000.0,220836000.0,0.658398087268,0.0,0.430966590998,0.39767388310999996,0.286040740189,0.592763243585,370583000.0,341955000.0,245963000.0,0.39767388310999996,0.286040740189
2016-12-31,844588000.0,-0.0310290787188,0.0,0.0,0.0,424830000.0,433452000.0,365699000.0,66051000.0,365699000.0,132759000.0,0.0,0.0,232815000.0,0.0,232815000.0,1.06,1.05,220282000.0,220908000.0,0.63860973799,0.0,0.47503871710199996,0.432990996794,0.275655112315,0.499229209982,401212000.0,365699000.0,232815000.0,0.432990996794,0.275655112315
2015-12-31,871634000.0,0.126392428292,0.0,0.0,0.0,430936000.0,442161000.0,347127000.0,58232000.0,347127000.0,124588000.0,0.0,0.0,222182000.0,0.0,222182000.0,1.01,1.01,220327000.0,221045000.0,0.6090072157249999,0.0,0.43042836787,0.398248576811,0.254902860604,0.43222269897699994,375176000.0,347127000.0,222182000.0,0.398248576811,0.254902860604
2014-12-31,773828000.0,0.9108515550730001,0.0,0.0,0.0,355379000.0,365586000.0,228816000.0,48693000.0,228816000.0,81296000.0,0.0,0.0,147036000.0,484000.0,147036000.0,0.79,0.78,186550000.0,187544000.0,0.529118500192,0.0,0.312559121665,0.295693616669,0.190011216963,0.375032953059,241867000.0,228816000.0,147036000.0,0.295693616669,0.190011216963
2013-12-31,404965000.0,-0.00557661896296,0.0,0.0,0.0,209991000.0,214772000.0,97573000.0,37881000.0,69039000.0,52668000.0,0.0,0.0,97573000.0,788000.0,97573000.0,0.87,0.87,111938000.0,112176000.0,0.452574525745,0.0,0.286049411678,0.240941809786,0.240941809786,0.936135221562,115840000.0,97573000.0,97573000.0,0.17048139962699999,0.240941809786
2012-12-31,407236000.0,-0.049517798960000005,0.0,0.0,0.0,200946000.0,205762000.0,155212000.0,48849000.0,155212000.0,53321000.0,0.0,0.0,101209000.0,0.0,101209000.0,0.9,0.9,111935000.0,112151000.0,0.411953526941,0.0,0.309820349871,0.38113526309100004,0.24852665285,0.009007062244010001,126170000.0,155212000.0,101209000.0,0.38113526309100004,0.24852665285
2011-12-31,428452000.0,0.21764633997299998,0.0,0.0,0.0,179480000.0,184428000.0,111238000.0,73301000.0,111238000.0,36742000.0,0.0,0.0,74140000.0,0.0,74140000.0,0.65,0.65,114220000.0,114409000.0,0.22128503876400002,0.0,0.20609776591099999,0.259627682914,0.173041554246,0.34631183889899997,88303000.0,111238000.0,74140000.0,0.259627682914,0.173041554246
2010-12-31,351869000.0,0.900967044841,0.0,351869000.0,0.0,244597000.0,317738000.0,34131000.0,0.0,34131000.0,5805000.0,0.0,0.0,28326000.0,12259000.0,16067000.0,0.15,0.15,114532543.0,107922000.0,0.2,1.0,0.12300000000000001,0.09699999999999999,0.046,0.4329,43330000.0,34131000.0,28326000.0,0.09699999999999999,0.0805
2009-12-31,185100000.0,-0.3612,0.0,185100000.0,0.0,197805000.0,379403000.0,-194303000.0,0.0,-194303000.0,-40937000.0,0.0,0.0,-153366000.0,12896000.0,-166262000.0,-2.36,-2.36,86781591.0,70399000.0,0.2,1.0,-0.987,-1.0497,-0.898,0.4444,-182654000.0,-194303000.0,-153366000.0,-1.0497,-0.8286
