,0,1,2,3,4,5,6,7,8,9,10,11,12,13,14
Date,Depreciation & Amortization,Stock-based compensation,Operating Cash Flow,Capital Expenditure,Acquisitions and disposals,Investment purchases and sales,Investing Cash flow,Issuance (repayment) of debt,Issuance (buybacks) of shares,Dividend payments,Financing Cash Flow,Effect of forex changes on cash,Net cash flow / Change in cash,Free Cash Flow,Net Cash/Marketcap
2019-08-31,103445000.0,5761000.0,282142000.0,119815000.0,-4919000.0,-30515000.0,-125822000.0,-0.0,-30515000.0,-8260000.0,-41491000.0,-1493000.0,114829000.0,162327000.0,0.0
2018-08-25,96774000.0,4638000.0,230073000.0,112747000.0,-42665000.0,-146011000.0,-153898000.0,-0.0,-146011000.0,-4218000.0,-152948000.0,-2467000.0,-79240000.0,117326000.0,0.0
2017-08-26,88991000.0,12462000.0,218274000.0,108554000.0,-125457000.0,0.0,-233037000.0,-0.0,0.0,-2898000.0,-2182000.0,2902000.0,-14043000.0,109720000.0,0.0
2016-08-27,81796000.0,5628000.0,207636000.0,98235000.0,-16583000.0,0.0,-114669000.0,-1301000.0,-363795000.0,-2878000.0,-5644000.0,-81000.0,87242000.0,109401000.0,0.0
2015-08-29,77322000.0,5366000.0,226917000.0,101163000.0,-22359000.0,0.0,-135872000.0,-13055000.0,-276553000.0,-2869000.0,-6261000.0,-11603000.0,84784000.0,125754000.0,0.0
2014-08-30,71961000.0,5601000.0,194619000.0,91808000.0,-3635000.0,0.0,-94174000.0,-113247000.0,-191769000.0,-2860000.0,-104347000.0,-1808000.0,-5710000.0,102811000.0,0.0
2013-08-31,69845000.0,6315000.0,211571000.0,103526000.0,-30714000.0,0.0,-138029000.0,-24000.0,-197479000.0,-2851000.0,3814000.0,-3843000.0,77356000.0,108045000.0,0.0
2012-08-25,66677000.0,6714000.0,161718000.0,74549000.0,-0.0,0.0,-75057000.0,-55851000.0,-120123000.0,-2840000.0,-15871000.0,521000.0,71311000.0,87169000.0,0.0
2011-08-27,64994000.0,6732000.0,86193000.0,63847000.0,-32556000.0,0.0,-96800000.0,-91464000.0,-48812000.0,-2830000.0,-63909000.0,2070000.0,-72446000.0,22346000.0,0.0
2010-08-28,61477000.0,3662000.0,133973000.0,-50015000.0,-20908000.0,0.0,-72717000.0,-263000.0,1177000.0,-2777000.0,-1863000.0,1714000.0,61107000.0,83958000.0,-0.077
2009-08-29,57789000.0,1025000.0,159195000.0,-65323000.0,-4730000.0,0.0,-69749000.0,-53133000.0,689000.0,-2754000.0,-55198000.0,248000.0,34496000.0,93872000.0,-0.1579
