,0,1,2,3,4,5,6,7,8,9,10,11,12,13,14,15,16,17,18,19,20,21,22,23,24,25,26,27,28,29,30
Date,Revenue,Revenue Growth,Cost of Revenue,Gross Profit,R&D Expenses,SG&A Expense,Operating Expenses,Operating Income,Interest Expense,Earnings before Tax,Income Tax Expense,Net Income - Non-Controlling int,Net Income - Discontinued ops,Net Income,Preferred Dividends,Net Income Com,EPS,EPS Diluted,Weighted Average Shs Out,Weighted Average Shs Out (Dil),Dividend per Share,Gross Margin,EBITDA Margin,EBIT Margin,Profit Margin,Free Cash Flow margin,EBITDA,EBIT,Consolidated Income,Earnings Before Tax Margin,Net Profit Margin
2019-08-03,21387068000.0,1.0913005712600001,18602058000.0,2785010000.0,0.0,2629713000.0,2629713000.0,-291012000.0,179963000.0,-435292000.0,-84609000.0,0.0,0.0,-284990000.0,0.0,-284990000.0,-5.56,-5.56,51245000.0,51537000.0,0.0,0.130219345634,-0.00206606160321,-0.013606914234299999,-0.013325342211500002,0.0035868871787399998,-44187000.0,-291012000.0,-284990000.0,-0.0203530469908,-0.013325342211500002
2018-07-28,10226683000.0,0.102670222377,8703916000.0,1522767000.0,0.0,1279529000.0,1295542000.0,227225000.0,16471000.0,212745000.0,47075000.0,0.0,0.0,165670000.0,0.0,165670000.0,3.26,3.26,50530000.0,50837000.0,0.0,0.148901359317,0.0307876952869,0.022218836743099997,0.016199778559700003,0.00634262350754,314856000.0,227225000.0,165670000.0,0.0208029328767,0.016199778559700003
2017-07-29,9274471000.0,0.09494189452400001,7845550000.0,1428921000.0,0.0,1196032000.0,1202896000.0,226025000.0,17114000.0,214423000.0,84268000.0,0.0,0.0,130155000.0,0.0,130155000.0,2.56,2.56,50570000.0,50775000.0,0.0,0.15407035075099998,0.0336489272542,0.0243706622189,0.0140336845088,0.0242239153047,312076000.0,226025000.0,130155000.0,0.023119701382400003,0.0140336845088
2016-07-30,8470286000.0,0.034857515805199996,7190935000.0,1279351000.0,0.0,1049690000.0,1055242000.0,224109000.0,16259000.0,208222000.0,82456000.0,0.0,0.0,125766000.0,0.0,125766000.0,2.5,2.5,50313000.0,50399000.0,0.0,0.151039882242,0.0348412084315,0.0264582565453,0.0148479047815,0.030132866824099998,295115000.0,224109000.0,125766000.0,0.0245826410112,0.0148479047815
2015-08-01,8184978000.0,0.204656979442,6924463000.0,1260515000.0,0.0,1017755000.0,1018558000.0,241957000.0,14498000.0,229769000.0,91035000.0,0.0,0.0,138734000.0,0.0,138734000.0,2.76,2.76,50021000.0,50267000.0,0.0,0.154003468305,0.0373558731618,0.029561105723200004,0.016949831752799998,-0.00980699031812,305757000.0,241957000.0,138734000.0,0.028072036357299997,0.016949831752799998
2014-08-02,6794447000.0,0.12039070931700001,5666802000.0,1127645000.0,0.0,916857000.0,916857000.0,210788000.0,7753000.0,207408000.0,81926000.0,0.0,0.0,125482000.0,0.0,125482000.0,2.52,2.52,49602000.0,49888000.0,0.0,0.16596567756,0.0381997239805,0.0310235696886,0.0184683168476,-0.0124931432978,259546000.0,210788000.0,125482000.0,0.0305261046263,0.0184683168476
2013-08-03,6064355000.0,0.15819913632899998,5039279000.0,1025076000.0,0.0,837953000.0,839582000.0,185494000.0,5897000.0,166700000.0,66262000.0,0.0,0.0,107854000.0,0.0,107854000.0,2.19,2.18,49217000.0,49509000.0,0.0,0.169032980424,0.0375789346105,0.030587589281999998,0.0177849087001,-0.0036645282144600003,227892000.0,185494000.0,107854000.0,0.0274884963034,0.0177849087001
2012-07-28,5236021000.0,0.15585069806600002,4320018000.0,916003000.0,0.0,755744000.0,760845000.0,155158000.0,4734000.0,150783000.0,59441000.0,0.0,0.0,91342000.0,0.0,91342000.0,1.87,1.86,48766000.0,49100000.0,0.0,0.17494257567000002,0.0371881625379,0.029632807049500002,0.017444926214,0.00663710095892,194718000.0,155158000.0,91342000.0,0.0287972489033,0.017444926214
2011-07-30,4530015000.0,0.20570865224800003,3705205000.0,824810000.0,0.0,688859000.0,695129000.0,129681000.0,5000000.0,126435000.0,49762000.0,0.0,0.0,76673000.0,0.0,76673000.0,1.62,1.6,47459000.0,47815000.0,0.0,0.18207665979,0.0364186432054,0.0286270575263,0.0169255510191,0.00200131787643,164977000.0,129681000.0,76673000.0,0.0279105036076,0.0169255510191
2010-07-31,3757139000.0,0.0874812585024,3060208000.0,696931000.0,0.0,582029000.0,582029000.0,114902000.0,5845000.0,112002000.0,43681000.0,0.0,0.0,68321000.0,0.0,68321000.0,1.58,1.57,43317513.0,43184000.0,0.0,0.1855,0.039,0.0314,0.018000000000000002,0.003,145330000.0,117847000.0,68321000.0,0.0298,0.0182
2009-08-01,3454900000.0,0.0265,2794419000.0,660481000.0,0.0,550560000.0,550560000.0,109921000.0,9914000.0,100182000.0,40998000.0,0.0,0.0,59184000.0,0.0,59184000.0,1.38,1.38,42849000.0,42993000.0,0.0,0.1912,0.04,0.0319,0.017,0.022000000000000002,137125000.0,110096000.0,59184000.0,0.028999999999999998,0.0171
