,0,1,2,3,4,5,6,7,8,9,10,11,12,13,14,15,16,17,18,19,20,21,22,23,24,25,26,27,28
Date,Cash and cash equivalents,Short-term investments,Cash and short-term investments,Receivables,Inventories,Total current assets,Property Plant & Equipment Net,Goodwill and Intangible Assets,Long-term investments,Tax assets,Total non-current assets,Total assets,Payables,Short-term debt,Total current liabilities,Long-term debt,Total debt,Deferred revenue,Tax Liabilities,Deposit Liabilities,Total non-current liabilities,Total liabilities,Other comprehensive income,Retained earnings (deficit),Total shareholders equity,Investments,Net Debt,Other Assets,Other Liabilities
2019-08-03,42350000.0,1799000.0,44149000.0,1065699000.0,2089416000.0,3567921000.0,1639259000.0,1483314000.0,34408000.0,31087000.0,3613044000.0,7180965000.0,1476857000.0,112103000.0,2108947000.0,2819050000.0,2931153000.0,0.0,40141000.0,0.0,3213687000.0,5667294000.0,506570000.0,1115519000.0,1513671000.0,36207000.0,2888803000.0,0.0,344660000.0
2018-07-28,23315000.0,0.0,23315000.0,579702000.0,1135775000.0,1788914000.0,571146000.0,555704000.0,0.0,0.0,1175558000.0,2964472000.0,517125000.0,12441000.0,699224000.0,137709000.0,150150000.0,0.0,0.0,0.0,209293000.0,1118517000.0,459901999.99,1400232000.0,1845955000.0,0.0,126835000.0,0.0,210000000.0
2017-07-29,15414000.0,0.0,15414000.0,525636000.0,1031690000.0,1662670000.0,602090000.0,579548000.0,0.0,40635000.0,1223893000.0,2886563000.0,534616000.0,12128000.0,703987000.0,149863000.0,161991000.0,0.0,0.0,0.0,277043000.0,1204642000.0,460516999.99,1235367000.0,1681921000.0,0.0,146577000.0,0.0,223612000.0
2016-07-30,18593000.0,0.0,18593000.0,489708000.0,1021663000.0,1611190000.0,616605000.0,588482000.0,0.0,35228000.0,1240965000.0,2852155000.0,445430000.0,11854000.0,619722000.0,161739000.0,173593000.0,0.0,0.0,0.0,286410000.0,1332651000.0,436670999.99,1105212000.0,1519504000.0,0.0,155000000.0,0.0,426519000.0
2015-08-01,17380000.0,0.0,17380000.0,474494000.0,982559000.0,1553742000.0,572452000.0,392470000.0,0.0,32333000.0,996448000.0,2550190000.0,390134000.0,11613000.0,530860000.0,174780000.0,186393000.0,0.0,0.0,0.0,270804000.0,1164657000.0,421084999.99,983891000.0,1385533000.0,0.0,169013000.0,0.0,362993000.0
2014-08-02,16116000.0,0.0,16116000.0,449870000.0,834722000.0,1378290000.0,483960000.0,409537000.0,0.0,32518000.0,918943000.0,2297233000.0,385890000.0,990000.0,523839000.0,32510000.0,33500000.0,0.0,0.0,0.0,114370000.0,1053869000.0,484000.0,845157000.0,1243364000.0,0.0,17384000.0,0.0,415660000.0
2013-08-03,11111000.0,0.0,11111000.0,339590000.0,702161000.0,1115218000.0,338594000.0,251414000.0,0.0,23822000.0,614690000.0,1729908000.0,283851000.0,1019000.0,398267000.0,33091000.0,34110000.0,0.0,0.0,0.0,101901000.0,630762000.0,454000.0,719675000.0,1099146000.0,0.0,22999000.0,0.0,130594000.0
2012-07-28,16122000.0,0.0,16122000.0,305177000.0,578555000.0,946861000.0,278455000.0,246237000.0,0.0,25353000.0,547085000.0,1493946000.0,242179000.0,350000.0,334161000.0,635000.0,985000.0,0.0,0.0,0.0,66069000.0,515230000.0,364998999.99,611821000.0,978716000.0,0.0,-15137000.0,0.0,115000000.0
2011-07-30,16867000.0,0.0,16867000.0,257482000.0,514506000.0,844492000.0,285151000.0,250279000.0,2148000.0,22023000.0,556496000.0,1400988000.0,217074000.0,47447000.0,463421000.0,986000.0,48433000.0,0.0,0.0,0.0,67900000.0,531321000.0,343786000.0,520534000.0,869667000.0,2148000.0,31566000.0,0.0,0.0
2010-07-31,13802000.0,0.0,13802000.0,220443000.0,439702000.0,716065000.0,279255000.0,237126000.0,0.0,20560000.0,534734000.0,1250799000.0,205202000.0,247603000.0,521875000.0,48433000.0,296036000.0,0.0,20598000.0,0.0,98477000.0,620352000.0,-1155000.0,443861000.0,630447000.0,0.0,282234000.0,42118000.0,69070000.0
2009-08-01,10269000.0,0.0,10269000.0,183430000.0,366611000.0,465919000.0,242051000.0,202691000.0,0.0,18074000.0,90500000.0,1058550000.0,155211000.0,205020000.0,423578000.0,53858000.0,258878000.0,0.0,12297000.0,0.0,90500000.0,514078000.0,-1623000.0,377450000.0,544472000.0,0.0,248609000.0,32321000.0,63347000.0
