,0,1,2,3,4,5,6,7,8,9,10,11,12,13,14,15,16,17,18,19,20,21,22,23,24,25,26,27,28,29,30
Date,Revenue,Revenue Growth,Cost of Revenue,Gross Profit,R&D Expenses,SG&A Expense,Operating Expenses,Operating Income,Interest Expense,Earnings before Tax,Income Tax Expense,Net Income - Non-Controlling int,Net Income - Discontinued ops,Net Income,Preferred Dividends,Net Income Com,EPS,EPS Diluted,Weighted Average Shs Out,Weighted Average Shs Out (Dil),Dividend per Share,Gross Margin,EBITDA Margin,EBIT Margin,Profit Margin,Free Cash Flow margin,EBITDA,EBIT,Consolidated Income,Earnings Before Tax Margin,Net Profit Margin
2019-12-31,21708000000.0,-0.049229152067300004,0.0,0.0,0.0,4533000000.0,13154000000.0,8554000000.0,1050000000.0,7747000000.0,1828000000.0,0.0,0.0,5919000000.0,0.0,5919000000.0,8.41,8.38,703500000.0,706100000.0,3.6793655289599996,0.0,0.496130458817,0.39404827713299995,0.2726644555,0.23751612308800002,10770000000.0,8554000000.0,5919000000.0,0.35687304219599997,0.2726644555
2018-12-31,22832000000.0,0.0749529190207,0.0,0.0,0.0,5056000000.0,14315000000.0,8517000000.0,870000000.0,7741000000.0,1775000000.0,0.0,0.0,5966000000.0,0.0,5966000000.0,7.95,7.91,750900000.0,754300000.0,3.04785894207,0.0,0.468990889979,0.37302908199,0.261299929923,0.22989663629999998,10708000000.0,8517000000.0,5966000000.0,0.339041695865,0.261299929923
2017-12-31,21240000000.0,0.0651421693997,0.0,0.0,0.0,4984000000.0,13179000000.0,8061000000.0,719000000.0,7632000000.0,-3080000000.0,0.0,0.0,10712000000.0,0.0,10712000000.0,13.42,13.36,798400000.0,801700000.0,2.47224647624,0.0,0.478625235405,0.379519774011,0.504331450094,0.18794726930300001,10166000000.0,8061000000.0,10712000000.0,0.359322033898,0.504331450094
2016-12-31,19941000000.0,-0.0858203823408,0.0,0.0,0.0,4750000000.0,12669000000.0,7272000000.0,698000000.0,6766000000.0,2533000000.0,0.0,0.0,4233000000.0,0.0,4233000000.0,5.09,5.07,832400000.0,835400000.0,2.24922192961,0.0,0.46687728799999995,0.364675793591,0.21227621483399997,0.201594704378,9310000000.0,7272000000.0,4233000000.0,0.339300937766,0.21227621483399997
2015-12-31,21813000000.0,-0.09067033516760001,0.0,0.0,0.0,5161000000.0,13761000000.0,8052000000.0,622000000.0,7656000000.0,2884000000.0,0.0,0.0,4772000000.0,0.0,4772000000.0,5.51,5.49,866200000.0,869400000.0,2.69611226133,0.0,0.461376243525,0.369137670197,0.218768624215,0.123504332279,10064000000.0,8052000000.0,4772000000.0,0.350983358548,0.218768624215
2014-12-31,23988000000.0,0.0922005190548,0.0,0.0,0.0,5076000000.0,15235000000.0,8753000000.0,561000000.0,8343000000.0,3163000000.0,0.0,0.0,5180000000.0,0.0,5180000000.0,5.77,5.75,897100000.0,901100000.0,1.81111974254,0.0,0.444263798566,0.36489077872299996,0.215941303985,0.12668834417199998,10657000000.0,8753000000.0,5180000000.0,0.34779889945,0.215941303985
2013-12-31,21963000000.0,0.0495555767944,0.0,0.0,0.0,4807000000.0,14517000000.0,7446000000.0,526000000.0,7048000000.0,2660000000.0,0.0,0.0,4388000000.0,0.0,4388000000.0,9.47,9.42,463300000.0,465800000.0,2.8617432374400003,0.0,0.419933524564,0.339024723398,0.199790556846,0.151482037973,9223000000.0,7446000000.0,4388000000.0,0.32090333743099997,0.199790556846
2012-12-31,20926000000.0,0.0700005113259,0.0,0.0,0.0,4685000000.0,14181000000.0,6745000000.0,535000000.0,6318000000.0,2375000000.0,0.0,0.0,3943000000.0,0.0,3943000000.0,8.33,8.27,473100000.0,476500000.0,2.40503672613,0.0,0.406432189621,0.32232629265,0.188425881678,0.115788970659,8505000000.0,6745000000.0,3943000000.0,0.301921055147,0.188425881678
2011-12-31,19557000000.0,0.152785145889,0.0,0.0,0.0,4681000000.0,13833000000.0,5724000000.0,572000000.0,5264000000.0,1972000000.0,0.0,0.0,3292000000.0,0.0,3292000000.0,6.78,6.72,485700000.0,489800000.0,1.70886075949,0.0,0.375364319681,0.292682926829,0.168328475738,0.137904586593,7341000000.0,5724000000.0,3292000000.0,0.269161936902,0.168328475738
2010-12-31,16965000000.0,0.199533338047,0.0,0.0,0.0,4314000000.0,11984000000.0,4981000000.0,602000000.0,4433000000.0,1653000000.0,0.0,0.0,2780000000.0,0.0,2780000000.0,5.58,5.53,498200000.0,502900000.0,1.197057069,0.0,0.381255526083,0.293604479811,0.163866784556,0.09566755083999999,6468000000.0,4981000000.0,2780000000.0,0.261302681992,0.163866784556
2009-12-31,14143000000.0,-0.213,4587000000.0,9556000000.0,0.0,4063000000.0,6177000000.0,3379000000.0,600000000.0,2974000000.0,1084000000.0,0.0,0.0,1890000000.0,0.0,1890000000.0,1.88,1.87,1009098436.0,1006000000.0,0.54,0.6757,0.354,0.2527,0.134,0.0672,5001000000.0,3574000000.0,1890000000.0,0.2103,0.1336
