,0,1,2,3,4,5,6,7,8,9,10,11,12,13,14,15,16,17,18,19,20,21,22,23,24,25,26,27,28,29,30
Date,Revenue,Revenue Growth,Cost of Revenue,Gross Profit,R&D Expenses,SG&A Expense,Operating Expenses,Operating Income,Interest Expense,Earnings before Tax,Income Tax Expense,Net Income - Non-Controlling int,Net Income - Discontinued ops,Net Income,Preferred Dividends,Net Income Com,EPS,EPS Diluted,Weighted Average Shs Out,Weighted Average Shs Out (Dil),Dividend per Share,Gross Margin,EBITDA Margin,EBIT Margin,Profit Margin,Free Cash Flow margin,EBITDA,EBIT,Consolidated Income,Earnings Before Tax Margin,Net Profit Margin
2018-12-31,439098000.0,-0.00214298213121,125364000.0,313734000.0,0.0,149710000.0,365458000.0,73640000.0,76667000.0,3406000.0,-138758000.0,0.0,0.0,141001000.0,0.0,141001000.0,2.94,2.94,45647696.0,48000957.0,0.046394908334800006,0.7144965360809999,0.350564110973,0.167707436609,0.321115104145,0.10430701119100001,153932000.0,73640000.0,141001000.0,0.00775681055254,0.321115104145
2017-12-31,440041000.0,-0.0354610395446,130417000.0,309624000.0,0.0,148725000.0,387322000.0,52719000.0,79420000.0,-10701000.0,-123163000.0,0.0,0.0,111887000.0,0.0,111887000.0,2.37,2.25,47169682.0,49632884.0,0.0,0.7036253440019999,0.306782777059,0.11980474546700001,0.254264943494,0.0474092186864,134997000.0,52719000.0,111887000.0,-0.0243181885324,0.254264943494
2016-12-31,456219000.0,0.0118839287497,134000000.0,322219000.0,0.0,147905000.0,368075000.0,88144000.0,81636000.0,10296000.0,9580000.0,0.0,0.0,-423000.0,0.0,-423000.0,-0.01,-0.01,47924609.0,47924609.0,0.0,0.7062814130930001,0.395240005348,0.19320545615200002,-0.0009271862855339999,0.0944392934095,180316000.0,88144000.0,-423000.0,0.022568108737300002,-0.0009271862855339999
2015-12-31,450861000.0,0.0214641573041,134410000.0,316451000.0,0.0,149811000.0,414694000.0,36167000.0,80038000.0,-51076000.0,15058000.0,0.0,0.0,-74022000.0,0.0,-74022000.0,-1.54,-1.54,48027888.0,48027888.0,0.0,0.701881511153,0.28817307329799996,0.0802176280494,-0.16417920379,0.0763272937779,129926000.0,36167000.0,-74022000.0,-0.11328546935799999,-0.16417920379
2014-12-31,441387000.0,-0.016298194784899998,141689000.0,299698000.0,0.0,142454000.0,364222000.0,77165000.0,79810000.0,-7926000.0,34814000.0,0.0,0.0,-62670000.0,0.0,-62670000.0,-1.32,-1.32,47525726.0,47525726.0,0.518519170018,0.678991451946,0.397857209206,0.17482390736499998,-0.141984245118,0.109615824662,175609000.0,77165000.0,-62670000.0,-0.0179570309049,-0.141984245118
2013-12-31,448700000.0,0.056826505689199995,138021000.0,310679000.0,0.0,145261000.0,375732000.0,72968000.0,89196000.0,-15676000.0,28719000.0,0.0,0.0,-61981000.0,0.0,-61981000.0,-1.28,-1.28,48370195.0,48370195.0,0.0,0.6923980387790001,0.393501225763,0.162620904836,-0.138134611099,0.062034767105,176564000.0,72968000.0,-61981000.0,-0.0349364831736,-0.138134611099
2012-12-31,424573000.0,0.51784999285,135781000.0,288792000.0,0.0,137792000.0,353058000.0,71515000.0,91150000.0,-20744000.0,33235000.0,0.0,0.0,-66865000.0,0.0,-66865000.0,-1.34,-1.34,50015252.0,50015252.0,0.0,0.680193983131,0.401796628613,0.16843982071400002,-0.157487640524,0.07763564805110001,170592000.0,71515000.0,-66865000.0,-0.0488585001872,-0.157487640524
2011-12-31,279720000.0,0.0015324463285699998,74852000.0,204868000.0,0.0,32922000.0,264447000.0,15273000.0,46834000.0,-22291000.0,3971000.0,0.0,0.0,-28633000.0,0.0,-28633000.0,-0.56,-0.56,51509239.0,51509239.0,0.055213395794900005,0.732403832404,0.12737022737,0.054601029600999995,-0.10236307736300002,0.04831259831259999,35628000.0,15273000.0,-28633000.0,-0.0796904046904,-0.10236307736300002
2010-12-31,279292000.0,0.0272733625868,74644000.0,204648000.0,0.0,136014000.0,189462000.0,15186000.0,46834000.0,-24662000.0,3971000.0,2008000.0,276000.0,-28633000.0,0.0,-28633000.0,-0.56,-0.56,54262885.0,51509239.0,0.0,0.7327,0.142,0.0794,-0.10300000000000001,0.0472,39557000.0,22172000.0,-26625000.0,-0.0883,-0.1025
2009-12-31,271877000.0,-0.1326,75436000.0,196441000.0,0.0,115610000.0,202511000.0,-6070000.0,38404000.0,-45873000.0,7014000.0,4329000.0,1984000.0,-52887000.0,0.0,-52887000.0,-0.89,-0.89,54727085.0,59465252.0,0.0,0.7225,0.05,-0.0275,-0.195,0.1492,13495000.0,-7469000.0,-48558000.0,-0.1687,-0.1945
