,0,1,2,3,4,5,6,7,8,9,10,11,12,13,14,15,16,17,18,19,20,21,22,23,24,25,26,27,28
Date,Cash and cash equivalents,Short-term investments,Cash and short-term investments,Receivables,Inventories,Total current assets,Property Plant & Equipment Net,Goodwill and Intangible Assets,Long-term investments,Tax assets,Total non-current assets,Total assets,Payables,Short-term debt,Total current liabilities,Long-term debt,Total debt,Deferred revenue,Tax Liabilities,Deposit Liabilities,Total non-current liabilities,Total liabilities,Other comprehensive income,Retained earnings (deficit),Total shareholders equity,Investments,Net Debt,Other Assets,Other Liabilities
2019-12-31,175024000.0,0.0,175024000.0,50938000.0,0.0,238880000.0,3917000.0,628861000.0,0.0,39086000.0,657948000.0,896828000.0,5904000.0,3193000.0,129367000.0,521881000.0,525074000.0,76558000.0,689000.0,0.0,548738000.0,683967000.0,345127000.0,-131046000.0,212861000.0,0.0,350050000.0,0.0,5862000.0
2018-12-31,16738000.0,0.0,16738000.0,40841000.0,0.0,67288000.0,2827000.0,404894000.0,0.0,24506000.0,415910000.0,483198000.0,3494000.0,6015000.0,107649000.0,273713000.0,279728000.0,57626000.0,2006000.0,0.0,288242000.0,395891000.0,180481000.0,-85675000.0,87307000.0,0.0,262990000.0,0.0,0.0
2017-12-31,22326000.0,0.0,22326000.0,26504000.0,0.0,51686000.0,2927000.0,224650000.0,0.0,14119000.0,229573000.0,281259000.0,3887000.0,2301000.0,75139000.0,108843000.0,111144000.0,43807000.0,480000.0,0.0,114705000.0,189844000.0,174944000.0,-81128000.0,91415000.0,0.0,88818000.0,0.0,0.0
2016-12-31,28758000.0,0.0,28758000.0,15254000.0,0.0,47299000.0,4356000.0,97609000.0,0.0,3410000.0,103289000.0,150588000.0,1268000.0,2190000.0,39698000.0,45739000.0,47929000.0,23552000.0,705000.0,0.0,51516000.0,91575000.0,124566000.0,-62403000.0,59013000.0,0.0,19171000.0,0.0,361000.0
2015-12-31,18473000.0,0.0,18473000.0,13972000.0,0.0,35048000.0,6001000.0,78948000.0,0.0,4303000.0,87366000.0,122414000.0,2548000.0,1500000.0,34002000.0,22366000.0,23866000.0,19931000.0,621000.0,0.0,27774000.0,62144000.0,112447000.0,-48890000.0,60270000.0,0.0,5393000.0,0.0,368000.0
2014-12-31,30988000.0,0.0,30988000.0,14559000.0,0.0,47616000.0,3930000.0,79897000.0,0.0,5023000.0,88150000.0,135766000.0,2258000.0,10964000.0,45445000.0,12407000.0,23371000.0,21182000.0,53000.0,0.0,17687000.0,64369000.0,108337000.0,-35226000.0,71397000.0,0.0,-7617000.0,0.0,1237000.0
2013-12-31,4703000.0,0.0,4703000.0,11026000.0,0.0,18291000.0,3942000.0,68377000.0,0.0,3583000.0,76556000.0,94847000.0,2313000.0,5245000.0,29557000.0,23438000.0,28683000.0,17036000.0,5679000.0,0.0,30634000.0,60191000.0,-773000.0,-15109000.0,-15882000.0,0.0,23980000.0,2562000.0,21999000.0
2012-12-31,3892000.0,0.0,3892000.0,9489000.0,0.0,14282000.0,1407000.0,47481000.0,0.0,4395000.0,53526000.0,67808000.0,2443000.0,3800000.0,25228000.0,10920000.0,14720000.0,16502000.0,7072000.0,0.0,19267000.0,44495000.0,0.0,,23313000.0,0.0,10828000.0,901000.0,18985000.0
