,0,1,2,3,4,5,6,7,8,9,10,11,12,13,14,15,16,17,18,19,20,21,22,23,24,25,26,27,28,29,30
Date,Revenue,Revenue Growth,Cost of Revenue,Gross Profit,R&D Expenses,SG&A Expense,Operating Expenses,Operating Income,Interest Expense,Earnings before Tax,Income Tax Expense,Net Income - Non-Controlling int,Net Income - Discontinued ops,Net Income,Preferred Dividends,Net Income Com,EPS,EPS Diluted,Weighted Average Shs Out,Weighted Average Shs Out (Dil),Dividend per Share,Gross Margin,EBITDA Margin,EBIT Margin,Profit Margin,Free Cash Flow margin,EBITDA,EBIT,Consolidated Income,Earnings Before Tax Margin,Net Profit Margin
2018-12-31,14174784.0,0.822244682275,9798384.0,4376400.0,2497127.0,7299860.0,9796987.0,-6429302.0,0.0,0.0,0.0,0.0,0.0,-6503562.0,0.0,-6503562.0,-0.12,-0.12,54183772.0,54183772.0,0.0,0.308745445433,-0.422848771452,-0.453573190251,-0.458812070787,-0.430959089041,-5993790.0,-6429302.0,-6503562.0,0.0,-0.458812070787
2017-12-31,7778749.0,1.0,4368093.0,3410656.0,2042732.0,6367331.0,8410063.0,-5284502.0,108146.0,0.0,0.0,0.0,0.0,-4778316.0,0.0,-4778316.0,-0.1,-0.1,50038799.0,50038799.0,0.0,0.438458163388,-0.627881424121,-0.679351139881,-0.6142782084880001,-0.636922980803,-4884132.0,-5284502.0,-4778316.0,0.0,-0.6142782084880001
2016-12-31,0.0,-1.0,0.0,0.0,0.0,0.0,0.0,0.0,0.0,0.0,0.0,0.0,0.0,0.0,0.0,0.0,0.0,0.0,0.0,0.0,0.0,0.0,0.0,0.0,0.0,0.0,0.0,0.0,0.0,0.0,0.0
2016-03-31,5306799.0,0.321498332563,3343508.0,1963291.0,3459746.0,5406628.0,8866374.0,-6976527.0,0.0,0.0,0.0,0.0,0.0,-6938351.0,0.0,-6938351.0,-0.16,-0.16,43574137.0,43574137.0,0.0,0.369957671282,-1.1355964301600001,-1.31463938996,-1.3074455995,-0.989036705555,-6026382.0,-6976527.0,-6938351.0,0.0,-1.3074455995
2015-03-31,4015744.0,-0.430083733076,2101610.0,1914134.0,1131159.0,5337795.0,6468954.0,-6859891.0,0.0,0.0,0.0,0.0,0.0,-5988530.0,0.0,-5988530.0,-0.15,-0.15,39940795.0,39940795.0,0.0,0.476657376566,-1.44396131825,-1.7082490816100002,-1.4912628892700002,-0.976618280448,-5798579.0,-6859891.0,-5988530.0,0.0,-1.4912628892700002
2014-03-31,7046200.0,-0.01845861143,743068.0,6303132.0,219887.0,5143864.0,5363751.0,-2782503.0,0.0,0.0,0.0,0.0,0.0,-2773244.0,0.0,-2773244.0,-0.07,-0.07,37253066.0,37253066.0,0.0,0.894543441855,-0.23366949561500003,-0.394894127331,-0.39358008572,-0.141914223269,-1646482.0,-2782503.0,-2773244.0,0.0,-0.39358008572
2013-03-31,7178709.0,-0.292281743027,4333005.0,2845704.0,96905.0,7022112.0,7119017.0,-10707432.0,0.0,0.0,0.0,0.0,0.0,-10688312.0,0.0,-10688312.0,-0.29,-0.29,36564952.0,36564952.0,0.0,0.396408880761,-1.317033188,-1.49155398276,-1.48889055121,-1.08950244396,-9454598.0,-10707432.0,-10688312.0,0.0,-1.48889055121
2012-03-31,10143456.0,0.124389361979,6663648.0,3479808.0,37128.0,5678797.0,5715925.0,-4953336.0,0.0,0.0,0.0,0.0,0.0,-4928520.0,0.0,-4928520.0,-0.14,-0.14,0.0,0.0,0.0,0.34305940697099996,-0.27109517702799996,-0.488328238423,-0.485881734983,-1.33551424682,-2749842.0,-4953336.0,-4928520.0,0.0,-0.485881734983
2011-03-31,9021302.0,0.037891254129,6628599.0,2979995.0,3829152.0,4884373.0,7933331.0,-4953336.0,0.0,-1992358.0,0.0,0.0,0.0,-1992358.0,0.0,-1992358.0,-0.06,-0.06,,36070364.0,0.0,0.2652,-0.125,-0.2209,-0.221,-1.0721,-1127786.0,-4928520.0,-1992358.0,-0.2209,-0.2209
2010-03-31,8691953.0,-0.0042,5974820.0,2392703.0,3484675.0,3433549.0,4741877.0,-2349174.0,0.0,-4140872.0,0.0,0.0,0.0,-4140872.0,0.0,-4140872.0,-0.13,-0.13,,30720368.0,0.0,0.3126,-0.405,-0.4746,-0.47600000000000003,-1.339,-3522080.0,-1992358.0,-4140872.0,-0.4764,-0.4764
