,0,1,2,3,4,5,6,7,8,9,10,11,12,13,14
Date,Depreciation & Amortization,Stock-based compensation,Operating Cash Flow,Capital Expenditure,Acquisitions and disposals,Investment purchases and sales,Investing Cash flow,Issuance (repayment) of debt,Issuance (buybacks) of shares,Dividend payments,Financing Cash Flow,Effect of forex changes on cash,Net cash flow / Change in cash,Free Cash Flow,Net Cash/Marketcap
2019-12-31,20664000.0,6066000.0,38442000.0,8440000.0,-0.0,0.0,-8440000.0,-7000.0,-3083000.0,-0.0,-32406000.0,705000.0,-1699000.0,30002000.0,0.0
2018-12-31,21103000.0,6358000.0,45129000.0,8816000.0,-0.0,0.0,-9644000.0,-2906000.0,-6439000.0,-0.0,-36890000.0,-1064000.0,-1405000.0,36313000.0,0.0
2017-12-31,22132000.0,4143000.0,47725000.0,27580000.0,-0.0,0.0,-27580000.0,-0.0,25826000.0,-0.0,-23790000.0,-186000.0,-3831000.0,20145000.0,0.0
2016-12-31,23953000.0,4074000.0,53076000.0,474000.0,-0.0,0.0,-93000.0,-0.0,-11705000.0,-0.0,-51298000.0,-480000.0,1205000.0,52602000.0,0.0
2015-12-31,6769000.0,2461000.0,36204000.0,1671000.0,-210445000.0,0.0,-213283000.0,-854000.0,-10500000.0,-0.0,147957000.0,-627000.0,-29749000.0,34533000.0,0.0
2014-12-31,3687000.0,550000.0,-3085000.0,33736000.0,-0.0,0.0,-34204000.0,-3909000.0,-40249000.0,-0.0,45705000.0,1441000.0,34098000.0,-36821000.0,0.0
2013-12-31,502000.0,0.0,9239000.0,-56114000.0,0.0,0.0,-56114000.0,52693000.0,0.0,-7547000.0,44885000.0,-1498000.0,1680000.0,-46875000.0,-0.2106
2012-12-31,490000.0,0.0,1798000.0,-773000.0,0.0,0.0,-773000.0,-15402000.0,0.0,-8899000.0,-25227000.0,-5000.0,1480000.0,1025000.0,-0.2106
