,0,1,2,3,4,5,6,7,8,9,10,11,12,13,14
Date,Depreciation & Amortization,Stock-based compensation,Operating Cash Flow,Capital Expenditure,Acquisitions and disposals,Investment purchases and sales,Investing Cash flow,Issuance (repayment) of debt,Issuance (buybacks) of shares,Dividend payments,Financing Cash Flow,Effect of forex changes on cash,Net cash flow / Change in cash,Free Cash Flow,Net Cash/Marketcap
2018-12-29,347000000.0,28000000.0,609000000.0,235000000.0,-0.0,0.0,-232000000.0,-1000000.0,0.0,-0.0,-391000000.0,0.0,-14000000.0,374000000.0,0.0
2017-12-30,383602000.0,20532000.0,748447000.0,221281000.0,-182210000.0,-280000000.0,-355831000.0,-1477000.0,-280000000.0,-0.0,-404857000.0,0.0,-12241000.0,527166000.0,0.0
2016-12-31,426959000.0,18355000.0,555642000.0,164395000.0,-122294000.0,-484624000.0,-762144000.0,-25941000.0,-128240000.0,-0.0,-180210000.0,0.0,-386712000.0,391247000.0,0.0
2016-01-02,399247000.0,15832000.0,555768000.0,-182361000.0,-69481000.0,-22139000.0,-271210000.0,-87350000.0,-19492000.0,0.0,-110415000.0,0.0,174143000.0,373407000.0,-0.7363
2014-12-27,411549000.0,11736000.0,402190000.0,-122040000.0,0.0,0.0,-118040000.0,-117583000.0,-431000.0,0.0,-120235000.0,0.0,163915000.0,280150000.0,-0.7363
