,0,1,2,3,4,5,6,7,8,9,10,11,12,13,14,15,16,17,18,19,20,21,22,23,24,25,26,27,28
Date,Cash and cash equivalents,Short-term investments,Cash and short-term investments,Receivables,Inventories,Total current assets,Property Plant & Equipment Net,Goodwill and Intangible Assets,Long-term investments,Tax assets,Total non-current assets,Total assets,Payables,Short-term debt,Total current liabilities,Long-term debt,Total debt,Deferred revenue,Tax Liabilities,Deposit Liabilities,Total non-current liabilities,Total liabilities,Other comprehensive income,Retained earnings (deficit),Total shareholders equity,Investments,Net Debt,Other Assets,Other Liabilities
2018-12-31,328000000.0,55000000.0,383000000.0,0.0,290000000.0,971000000.0,1838000000.0,40000000.0,43000000.0,246000000.0,2871000000.0,3842000000.0,290000000.0,0.0,421000000.0,1079000000.0,1079000000.0,0.0,2000000.0,0.0,1248000000.0,1923000000.0,2830000000.0,-543000000.0,1919000000.0,98000000.0,751000000.0,0.0,254000000.0
2018-12,328000000.0,55000000.0,55000000.0,233000000.0,290000000.0,2871000000.0,1838000000.0,40000000.0,705000000.0,246000000.0,1502000000.0,3842000000.0,290000000.0,0.0,421000000.0,1079000000.0,1079000000.0,,5000000.0,,1502000000.0,1923000000.0,-383000000.0,-543000000.0,1919000000.0,705000000.0,751000000.0,107000000.0,229000000.0
2017-12-31,394000000.0,62000000.0,456000000.0,0.0,252000000.0,991000000.0,1762000000.0,43000000.0,37000000.0,287000000.0,2860000000.0,3851000000.0,280000000.0,0.0,415000000.0,1078000000.0,1078000000.0,0.0,0.0,0.0,1265000000.0,2006000000.0,2888000000.0,-669000000.0,1845000000.0,99000000.0,684000000.0,0.0,326000000.0
2017-12,394000000.0,62000000.0,62000000.0,233000000.0,504000000.0,2860000000.0,1762000000.0,43000000.0,723000000.0,287000000.0,1591000000.0,3851000000.0,280000000.0,0.0,415000000.0,1078000000.0,1078000000.0,,4000000.0,,1591000000.0,2006000000.0,-389000000.0,-669000000.0,1845000000.0,723000000.0,684000000.0,-157000000.0,255000000.0
2016-12-31,427000000.0,62000000.0,489000000.0,0.0,236000000.0,949000000.0,1707000000.0,0.0,29000000.0,492000000.0,2920000000.0,3869000000.0,237000000.0,0.0,422000000.0,1083000000.0,1083000000.0,0.0,10000000.0,0.0,1271000000.0,1983000000.0,3038000000.0,-782000000.0,1886000000.0,91000000.0,656000000.0,0.0,290000000.0
2016-12,427000000.0,62000000.0,62000000.0,183000000.0,472000000.0,2920000000.0,1707000000.0,0.0,657000000.0,492000000.0,1561000000.0,3869000000.0,237000000.0,0.0,422000000.0,1083000000.0,1083000000.0,,4000000.0,,1561000000.0,1983000000.0,-385000000.0,-782000000.0,1886000000.0,657000000.0,656000000.0,-131000000.0,278000000.0
2015-12-31,442000000.0,194000000.0,636000000.0,0.0,314000000.0,1400000000.0,1788000000.0,0.0,36000000.0,728000000.0,3336000000.0,4736000000.0,259000000.0,500000000.0,991000000.0,1675000000.0,2175000000.0,0.0,9000000.0,0.0,1917000000.0,3300000000.0,3027000000.0,-1292000000.0,1436000000.0,230000000.0,1733000000.0,0.0,392000000.0
2015-12,442000000.0,194000000.0,194000000.0,391000000.0,628000000.0,3336000000.0,1788000000.0,0.0,718000000.0,728000000.0,2309000000.0,4736000000.0,259000000.0,500000000.0,991000000.0,1675000000.0,1675000000.0,,5000000.0,,2309000000.0,3300000000.0,-314000000.0,-1292000000.0,1436000000.0,718000000.0,1733000000.0,-153000000.0,348000000.0
2014-12-31,228000000.0,96000000.0,324000000.0,0.0,329000000.0,1152000000.0,1908000000.0,0.0,58000000.0,19000000.0,2842000000.0,3994000000.0,290000000.0,4000000.0,563000000.0,2205000000.0,2209000000.0,0.0,1000000.0,0.0,2532000000.0,3587000000.0,3014000000.0,-2283000000.0,407000000.0,154000000.0,1981000000.0,0.0,492000000.0
2014-12,228000000.0,96000000.0,96000000.0,404000000.0,658000000.0,2842000000.0,1908000000.0,0.0,793000000.0,19000000.0,3024000000.0,3994000000.0,290000000.0,4000000.0,563000000.0,2205000000.0,2205000000.0,,61000000.0,,3024000000.0,3587000000.0,-338000000.0,-2283000000.0,407000000.0,793000000.0,1981000000.0,-155000000.0,385000000.0
2013-12-31,810000000.0,82000000.0,892000000.0,0.0,332000000.0,1700000000.0,2103000000.0,0.0,60000000.0,17000000.0,2421000000.0,4121000000.0,284000000.0,63000000.0,568000000.0,2238000000.0,2301000000.0,0.0,5000000.0,0.0,2560000000.0,3483000000.0,2920000000.0,-2320000000.0,638000000.0,142000000.0,1491000000.0,0.0,355000000.0
2012-12-31,546000000.0,106000000.0,652000000.0,0.0,304000000.0,1327000000.0,2100000000.0,0.0,25000000.0,38000000.0,2396000000.0,3723000000.0,286000000.0,4000000.0,551000000.0,2016000000.0,2020000000.0,0.0,2000000.0,0.0,2291000000.0,3717000000.0,2595000000.0,-2367000000.0,6000000.0,131000000.0,1474000000.0,0.0,875000000.0
2011-12-31,0.0,0.0,0.0,0.0,0.0,0.0,0.0,0.0,0.0,0.0,0.0,0.0,0.0,0.0,0.0,0.0,0.0,0.0,0.0,0.0,0.0,0.0,0.0,0.0,0.0,0.0,0.0,0.0,0.0
2010-12-31,0.0,0.0,0.0,0.0,0.0,0.0,0.0,0.0,0.0,0.0,0.0,0.0,0.0,0.0,0.0,0.0,0.0,0.0,0.0,0.0,0.0,0.0,0.0,0.0,0.0,0.0,0.0,0.0,0.0
