,0,1,2,3,4,5,6,7,8,9,10,11,12,13,14,15,16,17,18,19,20,21,22,23,24,25,26,27,28
Date,Cash and cash equivalents,Short-term investments,Cash and short-term investments,Receivables,Inventories,Total current assets,Property Plant & Equipment Net,Goodwill and Intangible Assets,Long-term investments,Tax assets,Total non-current assets,Total assets,Payables,Short-term debt,Total current liabilities,Long-term debt,Total debt,Deferred revenue,Tax Liabilities,Deposit Liabilities,Total non-current liabilities,Total liabilities,Other comprehensive income,Retained earnings (deficit),Total shareholders equity,Investments,Net Debt,Other Assets,Other Liabilities
2019-12-31,2137580.0,0.0,2137580.0,1274001.0,0.0,53047274.0,1557521.0,2676427.0,0.0,1394000.0,8512905.0,61560179.0,419849.0,356184.0,51712231.0,2279613.0,2635797.0,123529.0,0.0,0.0,2279613.0,53991844.0,69533667.0,-62151988.0,7568335.0,0.0,498217.0,0.0,0.0
2018-12-31,2695177.0,0.0,2695177.0,1214355.0,0.0,60905668.0,1932660.0,3676427.0,0.0,1394000.0,5377184.0,68215512.0,308178.0,0.0,58502038.0,79748.0,79748.0,20000.0,0.0,0.0,1553496.0,58581786.0,66484406.0,-57036241.0,9633726.0,0.0,-2615429.0,1932660.0,0.0
2017-12-31,4800554.0,0.0,4800554.0,969674.0,0.0,59102625.0,2105186.0,4676427.0,0.0,1394000.0,6227992.0,67435803.0,300736.0,0.0,54312450.0,0.0,0.0,0.0,0.0,0.0,1394000.0,54312450.0,66197480.0,-53260426.0,13123353.0,0.0,-4800554.0,2105186.0,-1394000.0
2016-12-31,4120738.0,0.0,4120738.0,907750.0,0.0,65025469.0,2494510.0,172899.0,0.0,1621000.0,1994707.0,69514686.0,145044.0,0.0,60503318.0,0.0,0.0,0.0,0.0,0.0,1621000.0,60503318.0,59081191.0,-50251641.0,9011368.0,0.0,-4120738.0,2494510.0,-1621000.0
2015-12-31,4059606.0,0.0,4059606.0,1135384.0,0.0,63113405.0,3077421.0,341816.0,0.0,1621000.0,2165665.0,68356491.0,143180.0,0.0,59241215.0,0.0,0.0,0.0,0.0,0.0,1621000.0,59241215.0,57984742.0,-49054999.0,9115276.0,0.0,-4059606.0,3077421.0,-1621000.0
2014-12-31,54989851.0,0.0,54989851.0,1037208.0,0.0,56929317.0,2705517.0,412363.0,38408.0,773000.0,1464475.0,61099309.0,37808.0,0.0,54075237.0,0.0,0.0,0.0,0.0,0.0,848000.0,54075237.0,56910982.0,-50071087.0,7024072.0,38408.0,-54989851.0,2705517.0,-848000.0
2013-12-31,26573771.0,0.0,26573771.0,585037.0,0.0,27257774.0,122061.0,0.0,27450.0,0.0,148594.0,27528429.0,60818.0,0.0,26889625.0,0.0,0.0,0.0,0.0,0.0,0.0,26889625.0,54344703.0,-53853620.0,638804.0,27450.0,-26573771.0,122061.0,0.0
2012-12-31,0.0,0.0,0.0,0.0,0.0,0.0,0.0,0.0,0.0,0.0,0.0,0.0,0.0,0.0,0.0,0.0,0.0,0.0,0.0,0.0,0.0,0.0,0.0,0.0,0.0,0.0,0.0,0.0,0.0
2011-12-31,0.0,0.0,0.0,0.0,0.0,0.0,0.0,0.0,0.0,0.0,0.0,0.0,0.0,0.0,0.0,0.0,0.0,0.0,0.0,0.0,0.0,0.0,0.0,0.0,0.0,0.0,0.0,0.0,0.0
2010-12-31,978699.0,0.0,978699.0,841017.0,0.0,1138786.0,3076.0,0.0,99716.0,0.0,845045.0,1983831.0,70725.0,0.0,2118140.0,0.0,0.0,22981.0,0.0,983713.0,0.0,2118140.0,0.0,-54691647.0,-134309.0,99716.0,-978699.0,-680930.0,2047415.0
2009-12-31,565597.0,0.0,565597.0,548713.0,0.0,674411.0,25597.0,0.0,0.0,0.0,488458.0,1162869.0,99738.0,0.0,2047375.0,0.0,0.0,17336.0,0.0,449372.0,0.0,2047375.0,0.0,-54227479.0,-884506.0,0.0,-565597.0,-439899.0,1947637.0
