,0,1,2,3,4,5,6,7,8,9,10,11,12,13,14
Date,Depreciation & Amortization,Stock-based compensation,Operating Cash Flow,Capital Expenditure,Acquisitions and disposals,Investment purchases and sales,Investing Cash flow,Issuance (repayment) of debt,Issuance (buybacks) of shares,Dividend payments,Financing Cash Flow,Effect of forex changes on cash,Net cash flow / Change in cash,Free Cash Flow,Net Cash/Marketcap
2018-12-31,640000000.0,37000000.0,709000000.0,512000000.0,-0.0,-17000000.0,-464000000.0,-19000000.0,0.0,-6000000.0,-14000000.0,0.0,231000000.0,197000000.0,0.0
2017-12-31,0.0,0.0,0.0,0.0,-0.0,0.0,0.0,-0.0,0.0,-0.0,0.0,0.0,0.0,0.0,0.0
2016-12-31,0.0,0.0,0.0,0.0,-0.0,0.0,586000000.0,-0.0,-586000000.0,-0.0,0.0,0.0,586000000.0,0.0,0.0
2015-12-31,0.0,0.0,0.0,0.0,-0.0,0.0,715376000.0,-0.0,-715376000.0,-0.0,0.0,0.0,715376000.0,0.0,0.0
2014-12-31,607152000.0,22383000.0,172342000.0,605083000.0,-0.0,-18943000.0,-470772000.0,-0.0,-18943000.0,-3056000.0,167878000.0,0.0,-130552000.0,-432741000.0,0.0
2013-12-31,804840000.0,15844000.0,290897000.0,717862000.0,-0.0,-18544000.0,172749000.0,-414000.0,-18544000.0,-482270000.0,-499939000.0,0.0,-36293000.0,-426965000.0,0.0
2012-12-31,606811000.0,21466000.0,899291000.0,826400000.0,-0.0,-140045000.0,-896611000.0,-145000.0,-20045000.0,-22970000.0,-48477000.0,0.0,-45797000.0,72891000.0,0.0
2011-12-31,583597000.0,20183000.0,987862000.0,771798000.0,-0.0,-172294000.0,-759603000.0,-330338000.0,-62294000.0,-21094000.0,-81019000.0,0.0,147240000.0,216064000.0,0.0
2010-12-31,579594000.0,18044000.0,874289000.0,583134000.0,-0.0,-303077000.0,-791108000.0,-316000.0,-52827000.0,-19631000.0,-83166000.0,0.0,15000.0,291155000.0,0.0
2009-12-31,564935000.0,16362000.0,871809000.0,-530769000.0,-15977000.0,-330000.0,-545462000.0,-144657000.0,-33667000.0,0.0,-196942000.0,0.0,129405000.0,341040000.0,-0.1557
