,0,1,2,3,4,5,6,7,8,9,10,11,12,13,14,15,16,17,18,19,20,21,22,23,24,25,26,27,28
Date,Cash and cash equivalents,Short-term investments,Cash and short-term investments,Receivables,Inventories,Total current assets,Property Plant & Equipment Net,Goodwill and Intangible Assets,Long-term investments,Tax assets,Total non-current assets,Total assets,Payables,Short-term debt,Total current liabilities,Long-term debt,Total debt,Deferred revenue,Tax Liabilities,Deposit Liabilities,Total non-current liabilities,Total liabilities,Other comprehensive income,Retained earnings (deficit),Total shareholders equity,Investments,Net Debt,Other Assets,Other Liabilities
2019-12-31,23548000.0,0.0,23548000.0,46228000.0,0.0,85386000.0,22090000.0,370264000.0,0.0,1500000.0,475459000.0,560845000.0,2494000.0,728000.0,60563000.0,4361000.0,5089000.0,0.0,0.0,0.0,14573000.0,320588000.0,55755000.0,184352000.0,240257000.0,0.0,-18459000.0,0.0,245452000.0
2018-12-31,23368000.0,0.0,23368000.0,44751000.0,0.0,79214000.0,20169000.0,342353000.0,0.0,900000.0,363952000.0,443166000.0,2019000.0,1434000.0,41946000.0,402000.0,1836000.0,0.0,0.0,0.0,12402000.0,227221000.0,48400000.0,167396000.0,215945000.0,0.0,-21532000.0,0.0,172873000.0
2017-12-31,21933000.0,0.0,21933000.0,44707000.0,0.0,77081000.0,20385000.0,320292000.0,0.0,2200000.0,341901000.0,418982000.0,2165000.0,4044000.0,39551000.0,2728000.0,6772000.0,0.0,2833000.0,0.0,16462000.0,214116000.0,42312000.0,162406000.0,204866000.0,0.0,-15161000.0,0.0,158103000.0
2016-12-31,20047000.0,0.0,20047000.0,38840000.0,0.0,65964000.0,19173000.0,264866000.0,0.0,2300000.0,285267000.0,351231000.0,1634000.0,1227000.0,24617000.0,4596000.0,5823000.0,0.0,500000.0,0.0,22736000.0,163683000.0,37059000.0,150342000.0,187548000.0,0.0,-14224000.0,0.0,116330000.0
2015-12-31,15778000.0,0.0,15778000.0,36231000.0,0.0,60182000.0,16654000.0,201843000.0,0.0,0.0,219731000.0,279913000.0,1636000.0,775000.0,19007000.0,4335000.0,5110000.0,0.0,3300000.0,0.0,14085000.0,117128000.0,13623000.0,149016000.0,162785000.0,0.0,-10668000.0,0.0,84036000.0
2014-12-31,14271000.0,0.0,14271000.0,1503000.0,0.0,54851000.0,15764000.0,172821000.0,0.0,86000.0,189700000.0,244551000.0,1782000.0,883000.0,25504000.0,234000.0,1117000.0,0.0,200000.0,0.0,17952000.0,98271000.0,11949000.0,134186000.0,146280000.0,0.0,-13154000.0,0.0,54815000.0
2013-12-31,12898000.0,0.0,12898000.0,1844000.0,0.0,49660000.0,14960000.0,158434000.0,0.0,482000.0,174475000.0,224135000.0,1722000.0,825000.0,23172000.0,650000.0,1475000.0,0.0,400000.0,0.0,9301000.0,95845000.0,8941000.0,119206000.0,128290000.0,0.0,-11423000.0,0.0,63372000.0
2012-12-31,0.0,0.0,0.0,0.0,0.0,0.0,0.0,0.0,0.0,590000.0,0.0,0.0,0.0,0.0,0.0,0.0,0.0,0.0,0.0,0.0,-1604000.0,-1604000.0,1604000.0,0.0,1604000.0,0.0,0.0,0.0,0.0
2011-12-31,0.0,0.0,0.0,0.0,0.0,0.0,0.0,0.0,0.0,0.0,0.0,0.0,0.0,0.0,0.0,0.0,0.0,0.0,0.0,0.0,0.0,0.0,0.0,0.0,0.0,0.0,0.0,0.0,0.0
2010-12-31,9179000.0,0.0,9179000.0,26369000.0,0.0,39284000.0,13923000.0,86732000.0,0.0,0.0,101577000.0,140861000.0,1237000.0,250000.0,14231000.0,5750000.0,6000000.0,0.0,0.0,0.0,10247000.0,24478000.0,0.0,89876000.0,103957000.0,0.0,-3179000.0,3736000.0,12744000.0
2009-12-31,6429000.0,0.0,6429000.0,23631000.0,0.0,33019000.0,14339000.0,63202000.0,0.0,0.0,78410000.0,111429000.0,1292000.0,1013000.0,14764000.0,400000.0,1413000.0,0.0,0.0,0.0,4440000.0,19204000.0,0.0,75632000.0,87352000.0,0.0,-5016000.0,2959000.0,12459000.0
