,0,1,2,3,4,5,6,7,8,9,10,11,12,13,14,15,16,17,18,19,20,21,22,23,24,25,26,27,28,29,30
Date,Revenue,Revenue Growth,Cost of Revenue,Gross Profit,R&D Expenses,SG&A Expense,Operating Expenses,Operating Income,Interest Expense,Earnings before Tax,Income Tax Expense,Net Income - Non-Controlling int,Net Income - Discontinued ops,Net Income,Preferred Dividends,Net Income Com,EPS,EPS Diluted,Weighted Average Shs Out,Weighted Average Shs Out (Dil),Dividend per Share,Gross Margin,EBITDA Margin,EBIT Margin,Profit Margin,Free Cash Flow margin,EBITDA,EBIT,Consolidated Income,Earnings Before Tax Margin,Net Profit Margin
2018-12-31,115944000.0,0.17958735197200001,83676000.0,32268000.0,12745000.0,15156000.0,27901000.0,4367000.0,47000.0,4442000.0,-378000.0,0.0,0.0,4820000.0,0.0,4820000.0,0.14,0.13,35506366.0,35642000.0,0.0,0.2783,0.045,0.0387,0.042,-0.2271,5191000.0,4489000.0,4820000.0,0.0383,0.0416
2017-12-31,98292000.0,0.136166081006,65146000.0,33146000.0,9853000.0,16777000.0,26630000.0,6516000.0,48000.0,8244000.0,1263000.0,0.0,0.0,6981000.0,0.0,6981000.0,0.2,0.19,35224553.0,35467000.0,0.0,0.3372,0.091,0.0844,0.071,0.0316,8920000.0,8292000.0,6981000.0,0.0839,0.071
2016-12-31,86512000.0,-0.261231565374,58156000.0,28356000.0,8502000.0,18146000.0,26648000.0,1708000.0,55000.0,1078000.0,788000.0,-158000.0,0.0,290000.0,0.0,290000.0,0.01,0.01,36735314.0,35806000.0,0.0,0.3278,0.027000000000000003,0.0131,0.003,0.0496,2341000.0,1133000.0,132000.0,0.0125,0.0034
2015-12-31,117103000.0,-0.0951707618606,89235000.0,27868000.0,11342000.0,21515000.0,32857000.0,-4989000.0,76000.0,-31320000.0,-4162000.0,0.0,0.0,-27158000.0,0.0,-27158000.0,-0.74,-0.74,38148076.0,37003000.0,0.0,0.23800000000000002,-0.248,-0.2668,-0.23199999999999998,-0.1072,-29042000.0,-31244000.0,-27158000.0,-0.2675,-0.2319
2014-12-31,129420000.0,-0.212960429095,107292000.0,22128000.0,11686000.0,24515000.0,36201000.0,-14073000.0,88000.0,-28646000.0,1618000.0,0.0,0.0,-30264000.0,0.0,-30264000.0,-0.81,-0.81,39777854.0,37380000.0,0.0,0.171,-0.2,-0.2207,-0.23399999999999999,-0.1307,-25904000.0,-28558000.0,-30264000.0,-0.2213,-0.2338
2013-12-31,164439000.0,-0.119366136841,124219.0,164314781.0,14520000.0,37626000.0,52146000.0,112168781.0,151000.0,-20370000.0,2351000.0,-9000.0,0.0,-22721000.0,0.0,-22721000.0,-0.58,-0.58,47656092.0,39127000.0,0.0,0.9992,-0.102,-0.12300000000000001,-0.138,-0.0345,-16755000.0,-20219000.0,-22730000.0,-0.1239,-0.1382
2012-12-31,186728000.0,-0.417523457776,118570000.0,68158000.0,28131000.0,52457000.0,81462000.0,-13304000.0,240000.0,-31993000.0,2392000.0,-1194000.0,0.0,-34385000.0,0.0,-34385000.0,-0.71,-0.71,50605382.0,48513000.0,0.0,0.365,-0.149,-0.17,-0.184,-0.1664,-27802000.0,-31753000.0,-35579000.0,-0.1713,-0.1841
2011-12-31,320576000.0,0.09961411151319999,206242000.0,114334000.0,30123000.0,63857000.0,97605000.0,16729000.0,252000.0,16305000.0,2918000.0,-1610000.0,0.0,13387000.0,0.0,13387000.0,0.26,0.26,52043258.0,51491000.0,0.0,0.3567,0.061,0.0516,0.042,-0.1593,19639000.0,16557000.0,11777000.0,0.0509,0.0418
2010-12-31,291535000.0,-0.245400472118,221297000.0,70238000.0,38044000.0,95240000.0,149508000.0,-79270000.0,279000.0,-62014000.0,3115000.0,-161000.0,0.0,-65129000.0,0.0,-65129000.0,-1.43,-1.43,50228678.0,45686000.0,0.0,0.2409,-0.193,-0.2118,-0.223,0.0972,-56308000.0,-61735000.0,-65290000.0,-0.2127,-0.2234
2009-12-31,386344000.0,-0.7645,321365000.0,64979000.0,63243000.0,140742000.0,283767000.0,-218788000.0,552000.0,-214828000.0,10860000.0,-16000.0,0.0,-225688000.0,0.0,-225688000.0,-5.31,-5.31,43139451.0,42448667.0,0.0,0.1682,-0.521,-0.5546,-0.584,-0.1609,-201141000.0,-214276000.0,-225704000.0,-0.5561,-0.5842
