,0,1,2,3,4,5,6,7,8,9,10,11,12,13,14,15,16,17,18,19,20,21,22,23,24,25,26,27,28
Date,Cash and cash equivalents,Short-term investments,Cash and short-term investments,Receivables,Inventories,Total current assets,Property Plant & Equipment Net,Goodwill and Intangible Assets,Long-term investments,Tax assets,Total non-current assets,Total assets,Payables,Short-term debt,Total current liabilities,Long-term debt,Total debt,Deferred revenue,Tax Liabilities,Deposit Liabilities,Total non-current liabilities,Total liabilities,Other comprehensive income,Retained earnings (deficit),Total shareholders equity,Investments,Net Debt,Other Assets,Other Liabilities
2019-03-31,374472.0,0.0,374472.0,365293.0,6852305.0,10387379.0,19998.0,53660.0,0.0,0.0,8519547.0,18906926.0,616444.0,1851591.0,8033066.0,605000.0,2456591.0,0.0,0.0,0.0,605000.0,8033066.0,12885841.0,-2646866.0,10873860.0,0.0,2082119.0,0.0,-605000.0
2018-03-31,128161.0,0.0,128161.0,418550.0,5491892.0,8782951.0,35585.0,58132.0,0.0,0.0,10120992.0,18903943.0,494253.0,1611154.0,6150607.0,1009000.0,2620154.0,0.0,0.0,0.0,1009000.0,6150607.0,12885841.0,-1298880.0,12753336.0,0.0,2491993.0,0.0,-1009000.0
2017-03-31,262355.0,0.0,262355.0,170010.0,4700104.0,7711539.0,46293.0,62604.0,0.0,0.0,10675734.0,18387273.0,525638.0,2264125.0,4155015.0,587000.0,2851125.0,0.0,0.0,0.0,587000.0,4155015.0,12885841.0,963430.0,14232258.0,0.0,2588770.0,0.0,-587000.0
2016-03-31,362728.0,0.0,362728.0,17389.0,3883247.0,6585745.0,71556.0,67075.0,0.0,0.0,11924294.0,18510039.0,587343.0,313891.0,2122144.0,1000000.0,1313891.0,0.0,0.0,0.0,1000000.0,2122144.0,12885841.0,2450540.0,16387895.0,0.0,951163.0,0.0,-1000000.0
2015-03-31,49427.0,0.0,49427.0,381254.0,3852182.0,6760583.0,104618.0,71547.0,0.0,0.0,13145445.0,19906028.0,668846.0,1000000.0,1149031.0,0.0,1000000.0,0.0,0.0,0.0,0.0,1149031.0,12885841.0,4588332.0,18756997.0,0.0,950573.0,0.0,0.0
2014-03-31,2050993.0,0.0,2050993.0,686228.0,4194213.0,8940340.0,146212.0,76020.0,0.0,0.0,14404435.0,23344775.0,606314.0,0.0,785561.0,25000.0,25000.0,0.0,0.0,0.0,25000.0,810561.0,12885841.0,8435116.0,22534214.0,0.0,-2025993.0,0.0,0.0
2013-03-31,2438892.0,0.0,2438892.0,153175.0,4341652.0,10298661.0,152201.0,80491.0,0.0,2310835.0,16111824.0,26410485.0,548388.0,0.0,727990.0,25000.0,25000.0,0.0,0.0,0.0,25000.0,752990.0,12749256.0,12885360.0,25657495.0,0.0,-2413892.0,0.0,0.0
2012-03-31,3186274.0,0.0,3186274.0,229027.0,5398540.0,11786272.0,176144.0,84962.0,0.0,2394801.0,15779534.0,27565806.0,673524.0,0.0,1293765.0,25000.0,25000.0,0.0,0.0,0.0,25000.0,1318765.0,12885756.0,13337921.0,26247041.0,0.0,-3161274.0,0.0,0.0
2011-03-31,6728593.0,0.0,6728593.0,2216635.0,3534011.0,12998595.0,203440.0,89434.0,13149614.0,2002561.0,15485183.0,28483778.0,1247494.0,0.0,1458492.0,0.0,0.0,0.0,0.0,0.0,25000.0,1483492.0,0.0,13841209.0,27000286.0,13149614.0,-6728593.0,519356.0,210998.0
2010-03-31,2253631.0,0.0,2253631.0,4374224.0,3439906.0,14420843.0,199163.0,0.0,12153456.0,1877156.0,14249911.0,28670754.0,2162755.0,0.0,2441790.0,0.0,0.0,0.0,0.0,0.0,46459.0,2488249.0,0.0,13023428.0,26182505.0,12153456.0,-2253631.0,4353082.0,279035.0
