,0,1,2,3,4,5,6,7,8,9,10,11,12,13,14,15,16,17,18,19,20,21,22,23,24,25,26,27,28,29,30
Date,Revenue,Revenue Growth,Cost of Revenue,Gross Profit,R&D Expenses,SG&A Expense,Operating Expenses,Operating Income,Interest Expense,Earnings before Tax,Income Tax Expense,Net Income - Non-Controlling int,Net Income - Discontinued ops,Net Income,Preferred Dividends,Net Income Com,EPS,EPS Diluted,Weighted Average Shs Out,Weighted Average Shs Out (Dil),Dividend per Share,Gross Margin,EBITDA Margin,EBIT Margin,Profit Margin,Free Cash Flow margin,EBITDA,EBIT,Consolidated Income,Earnings Before Tax Margin,Net Profit Margin
2018-12-31,3967000000.0,0.019794344473000002,1031000000.0,2936000000.0,0.0,1388000000.0,3809000000.0,158000000.0,116000000.0,215000000.0,51000000.0,0.0,0.0,150000000.0,0.0,150000000.0,1.75,1.72,86000000.0,87000000.0,0.0689655172414,0.740105873456,0.20115956642299998,0.0398285858331,0.03781194857569999,0.049659692462800005,798000000.0,158000000.0,150000000.0,0.054197126291899995,0.03781194857569999
2017-12-31,3890000000.0,2.75120540019,1071000000.0,2819000000.0,0.0,1412000000.0,4194000000.0,-304000000.0,113000000.0,-272000000.0,-287000000.0,0.0,0.0,12000000.0,0.0,12000000.0,0.14,0.14,85000000.0,86000000.0,0.0,0.724678663239,-0.07814910025710001,-0.07814910025710001,0.0030848329048800004,0.0,-304000000.0,-304000000.0,12000000.0,-0.06992287917739999,0.0030848329048800004
2017-12,1037000000.0,-0.7367352119830001,391000000.0,646000000.0,,43000000.0,306000000.0,340000000.0,14000000.0,,69000000.0,,,285000000.0,,285000000.0,9.29,9.29,31000000.0,31000000.0,,0.62295081967213,0.59209257473481,0.35486981677916996,0.274831243973,,614000000.0,368000000.0,285000000.0,0.0,0.274831243973
2016-12-31,3939000000.0,2.8884501480799996,1081000000.0,2858000000.0,0.0,1480000000.0,3942000000.0,-3000000.0,113000000.0,82000000.0,33000000.0,0.0,0.0,48000000.0,0.0,48000000.0,0.56,0.56,85000000.0,85000000.0,0.0,0.725564864179,-0.000761614623001,-0.000761614623001,0.012185833968,0.0,-3000000.0,-3000000.0,48000000.0,0.020817466362,0.012185833968
2016-12,1013000000.0,-0.746550598684,382000000.0,631000000.0,,40000000.0,294000000.0,337000000.0,18000000.0,,67000000.0,,,248000000.0,,248000000.0,8.07,8.07,31000000.0,31000000.0,,0.6229022704837099,0.56762092793682,0.32872655478776003,0.24481737413623,,575000000.0,333000000.0,248000000.0,0.0,0.24481737413623
2015-12-31,3996853000.0,3.04130738119,1052810000.0,2944043000.0,0.0,1493730000.0,3683911000.0,312942000.0,86194000.0,403629000.0,156334000.0,0.0,0.0,241347000.0,0.0,241347000.0,2.86,2.84,84248000.0,84891000.0,0.0,0.736590262389,0.0782971002436,0.0782971002436,0.0603842573144,0.0,312942000.0,312942000.0,241347000.0,0.10098670128699999,0.0603842573144
2015-12,989000000.0,-0.745937765799,362000000.0,627000000.0,,40000000.0,352000000.0,275000000.0,20000000.0,,53000000.0,,,180000000.0,,180000000.0,5.85,5.85,31000000.0,31000000.0,,0.63397371081901,0.48736097067745,0.25581395348837,0.18200202224468998,,482000000.0,253000000.0,180000000.0,0.0,0.18200202224468998
2014-12-31,3892747000.0,3.0423125649,1192669000.0,2700078000.0,0.0,1591914000.0,4036137000.0,-143390000.0,57386000.0,-58704000.0,-11782000.0,0.0,0.0,-42812000.0,0.0,-42812000.0,-0.51,-0.51,84213000.0,84213000.0,0.0362889340126,0.693617643274,0.119134893688,-0.0368351706391,-0.010997889151299999,-0.111165970971,463762000.0,-143390000.0,-42812000.0,-0.015080353282700002,-0.010997889151299999
2014-12,963000000.0,-0.7542637660770001,375000000.0,589000000.0,,42000000.0,294000000.0,295000000.0,26000000.0,,54000000.0,,,206000000.0,,206000000.0,6.71,6.7,31000000.0,31000000.0,,0.6116303219107,0.53478712357217,0.29698857736240997,0.21391484942887,,515000000.0,286000000.0,206000000.0,0.0,0.21391484942887
2013-12-31,3918836000.0,3.01931897436,999000000.0,2919836000.0,0.0,1677395000.0,3771971000.0,146865000.0,43963000.0,257656000.0,113134000.0,0.0,0.0,140038000.0,0.0,140038000.0,1.67,1.65,83968000.0,84730000.0,5.69184468311,0.745077364809,0.24285400052499997,0.037476689506800005,0.0357345905774,-0.10895199492900001,951705000.0,146865000.0,140038000.0,0.06574809458730001,0.0357345905774
2013-12,975000000.0,-0.7810014366310001,379000000.0,596000000.0,,44000000.0,294000000.0,302000000.0,46000000.0,,34000000.0,,,137000000.0,,137000000.0,4.46,4.47,31000000.0,31000000.0,,0.61128205128205,0.45333333333333,0.2225641025641,0.14051282051282002,,442000000.0,217000000.0,137000000.0,0.0,0.14051282051282002
2012-12-31,4452084000.0,0.0250355371182,935947000.0,3516137000.0,0.0,1764933000.0,4295428000.0,156656000.0,42393000.0,205053000.0,63977000.0,0.0,0.0,111006000.0,0.0,111006000.0,1.31,1.3,84645000.0,85067000.0,0.27002245289,0.7897732837029999,0.17148530890299998,0.0351871168648,0.024933491820900003,0.0163723325975,763467000.0,156656000.0,111006000.0,0.0460577563227,0.024933491820900003
2011-12-31,4343346000.0,0.0396547749816,782300000.0,3561046000.0,0.0,1779203000.0,4062566000.0,280780000.0,65614000.0,312822000.0,114078000.0,0.0,0.0,175041000.0,0.0,175041000.0,2.06,2.05,84877000.0,85335000.0,0.24719048456099998,0.81988540632,0.19901177571400003,0.06464601254420001,0.040300956911999995,0.0497459792519,864377000.0,280780000.0,175041000.0,0.0720232742222,0.040300956911999995
2010-12-31,4177681000.0,0.0,742981000.0,3434700000.0,0.0,1796624000.0,3982307000.0,195374000.0,61555000.0,155408000.0,79609000.0,0.0,0.0,132324000.0,0.0,132324000.0,1.54,1.53,86128000.0,86518000.0,0.226900760535,0.822154683424,0.18550195670800002,0.0467661365241,0.0316740315979,0.0696929708132,774968000.0,195374000.0,132324000.0,0.037199585128699995,0.0316740315979
