,0,1,2,3,4,5,6,7,8,9,10,11,12,13,14,15,16,17,18,19,20,21,22,23,24,25,26,27,28,29,30
Date,Revenue,Revenue Growth,Cost of Revenue,Gross Profit,R&D Expenses,SG&A Expense,Operating Expenses,Operating Income,Interest Expense,Earnings before Tax,Income Tax Expense,Net Income - Non-Controlling int,Net Income - Discontinued ops,Net Income,Preferred Dividends,Net Income Com,EPS,EPS Diluted,Weighted Average Shs Out,Weighted Average Shs Out (Dil),Dividend per Share,Gross Margin,EBITDA Margin,EBIT Margin,Profit Margin,Free Cash Flow margin,EBITDA,EBIT,Consolidated Income,Earnings Before Tax Margin,Net Profit Margin
2019-12-31,4355000000.0,0.467318059299,416000000.0,3939000000.0,0.0,1062000000.0,2256000000.0,138000000.0,0.0,225000000.0,83000000.0,0.0,0.0,138000000.0,0.0,138000000.0,3.13,3.09,43900000.0,44500000.0,1.8202247191,0.9044776119399999,0.0684270952928,0.0316877152698,0.0316877152698,0.07715269804819999,298000000.0,138000000.0,138000000.0,0.0516647531573,0.0316877152698
2018-12-31,2968000000.0,0.5205346462120001,281000000.0,2687000000.0,0.0,725000000.0,1764000000.0,55000000.0,0.0,103000000.0,51000000.0,0.0,0.0,55000000.0,0.0,55000000.0,1.64,1.61,33300000.0,34000000.0,1.5,0.905323450135,0.0448113207547,0.0185309973046,0.0185309973046,0.019204851752,133000000.0,55000000.0,55000000.0,0.0347035040431,0.0185309973046
2017-12-31,1951945000.0,0.0776873238426,63021000.0,1888924000.0,0.0,518940000.0,1487478000.0,225883000.0,0.0,225883000.0,-895000.0,0.0,0.0,226778000.0,0.0,226778000.0,8.38,8.18,27078000.0,27733000.0,1.37121840407,0.967713741934,0.134201527195,0.11572201061,0.116180527628,0.0593638652728,261954000.0,225883000.0,226778000.0,0.11572201061,0.116180527628
2016-12-30,1811235000.0,-0.0105044461429,60953000.0,1750282000.0,0.0,458128000.0,1377197000.0,222928000.0,0.0,222928000.0,85580000.0,0.0,0.0,137348000.0,0.0,137348000.0,4.93,4.83,27882000.0,28422000.0,1.2031173035,0.9663472713369999,0.138292932723,0.12308066043299999,0.0758311317968,0.058193442595800005,250481000.0,222928000.0,137348000.0,0.12308066043299999,0.0758311317968
2016-01-01,1830463000.0,0.0544141705069,58982000.0,1771481000.0,0.0,433562000.0,1353673000.0,206497000.0,0.0,206497000.0,83698000.0,0.0,0.0,122799000.0,0.0,122799000.0,3.9,3.82,31487000.0,32168000.0,0.739648097488,0.9677775513629999,0.128000402084,0.11281134882300001,0.0670863054866,0.0400439670182,234300000.0,206497000.0,122799000.0,0.11281134882300001,0.0670863054866
2015-01-02,1736000000.0,-0.008,60000000.0,1676000000.0,0.0,414000000.0,1308000000.0,151000000.0,0.0,151000000.0,70000000.0,0.0,0.0,81000000.0,0.0,81000000.0,2.4,2.33,33700000.0,34600000.0,0.23121387283199998,0.965437788018,0.100806451613,0.0869815668203,0.0466589861751,0.158986175115,175000000.0,151000000.0,81000000.0,0.0869815668203,0.0466589861751
2014-01-03,1750000000.0,0.061893203883499996,62000000.0,1688000000.0,0.0,415000000.0,1319000000.0,131000000.0,0.0,131000000.0,51000000.0,0.0,0.0,80000000.0,0.0,80000000.0,2.25,2.18,35400000.0,36600000.0,0.0,0.964571428571,0.0914285714286,0.0748571428571,0.0457142857143,0.08,160000000.0,131000000.0,80000000.0,0.0748571428571,0.0457142857143
2012-12-28,1648000000.0,0.021698698078099998,61000000.0,1587000000.0,0.0,416000000.0,1078000000.0,37000000.0,58000000.0,37000000.0,21000000.0,0.0,0.0,16000000.0,0.0,16000000.0,0.46,0.44,34400000.0,36200000.0,0.0,0.962985436893,0.044902912621400004,0.022451456310700002,0.00970873786408,0.0885922330097,74000000.0,37000000.0,16000000.0,0.022451456310700002,0.00970873786408
2011-12-30,1613000000.0,0.0183080808081,4000000.0,1609000000.0,0.0,423000000.0,1019000000.0,-214000000.0,47000000.0,-214000000.0,-36000000.0,0.0,0.0,-178000000.0,0.0,-178000000.0,-5.29,-5.29,33700000.0,33700000.0,0.0,0.9975201487909999,-0.109733415995,-0.132672039678,-0.110353378797,0.189708617483,-177000000.0,-214000000.0,-178000000.0,-0.132672039678,-0.110353378797
2010-12-31,1584000000.0,-0.0075187969924799996,979000000.0,605000000.0,0.0,426000000.0,461000000.0,144000000.0,56000000.0,112000000.0,45000000.0,0.0,0.0,67000000.0,0.0,67000000.0,2.0,2.0,33708051.0,33700000.0,0.0,0.3819,0.128,0.1061,0.042,0.2241,203000000.0,168000000.0,67000000.0,0.0707,0.0423
2009-12-31,1596000000.0,0.0,1043000000.0,553000000.0,0.0,501000000.0,1168000000.0,-615000000.0,0.0,-752000000.0,-231000000.0,-11000000.0,0.0,-521000000.0,0.0,-521000000.0,-15.48,-15.48,,33700000.0,0.0,0.3465,-0.445,-0.4712,-0.326,0.0959,-710000000.0,-752000000.0,-532000000.0,-0.4712,-0.3264
2009-12-30,1596000000.0,-0.16699999999999998,1043000000.0,553000000.0,0.0,501000000.0,1168000000.0,-615000000.0,0.0,-752000000.0,-231000000.0,-11000000.0,0.0,-521000000.0,0.0,-521000000.0,-15.48,-15.48,,33700000.0,0.0,0.3465,-0.445,-0.4712,-0.326,0.0959,-710000000.0,-752000000.0,-532000000.0,-0.4712,-0.3264
