,0,1,2,3,4,5,6,7,8,9,10,11,12,13,14,15,16,17,18,19,20,21,22,23,24,25,26,27,28
Date,Cash and cash equivalents,Short-term investments,Cash and short-term investments,Receivables,Inventories,Total current assets,Property Plant & Equipment Net,Goodwill and Intangible Assets,Long-term investments,Tax assets,Total non-current assets,Total assets,Payables,Short-term debt,Total current liabilities,Long-term debt,Total debt,Deferred revenue,Tax Liabilities,Deposit Liabilities,Total non-current liabilities,Total liabilities,Other comprehensive income,Retained earnings (deficit),Total shareholders equity,Investments,Net Debt,Other Assets,Other Liabilities
2018-12-31,5618000.0,14106000.0,19724000.0,639000.0,0.0,21424000.0,604000.0,0.0,0.0,0.0,604000.0,22028000.0,2322000.0,0.0,6686000.0,0.0,0.0,0.0,0.0,0.0,0.0,6686000.0,0.0,-216767000.0,-8621000.0,14106000.0,-19724000.0,1061000.0,4364000.0
2017-12-31,4180000.0,0.0,4180000.0,117000.0,0.0,4974000.0,601000.0,0.0,0.0,0.0,601000.0,5575000.0,1910000.0,0.0,4165000.0,2813000.0,2813000.0,298000.0,0.0,0.0,3182000.0,7347000.0,0.0,-187249000.0,-125453000.0,0.0,-1367000.0,677000.0,2255000.0
2016-12-31,1661000.0,0.0,1661000.0,104000.0,0.0,2112000.0,730000.0,0.0,0.0,0.0,730000.0,2842000.0,2456000.0,0.0,4440000.0,1037000.0,1037000.0,0.0,0.0,0.0,1731000.0,6171000.0,0.0,-168527000.0,-107065000.0,0.0,-624000.0,347000.0,1984000.0
