,0,1,2,3,4,5,6,7,8,9,10,11,12,13,14,15,16,17,18,19,20,21,22,23,24,25,26,27,28
Date,Cash and cash equivalents,Short-term investments,Cash and short-term investments,Receivables,Inventories,Total current assets,Property Plant & Equipment Net,Goodwill and Intangible Assets,Long-term investments,Tax assets,Total non-current assets,Total assets,Payables,Short-term debt,Total current liabilities,Long-term debt,Total debt,Deferred revenue,Tax Liabilities,Deposit Liabilities,Total non-current liabilities,Total liabilities,Other comprehensive income,Retained earnings (deficit),Total shareholders equity,Investments,Net Debt,Other Assets,Other Liabilities
2019-12-31,37121000.0,771000.0,37892000.0,1459000.0,0.0,39351000.0,13240000.0,1580221000.0,0.0,0.0,1713958000.0,1753309000.0,271000.0,0.0,3171000.0,924539000.0,924539000.0,0.0,2900000.0,0.0,930025000.0,1215438000.0,572395000.0,-34705000.0,537871000.0,771000.0,887418000.0,0.0,282242000.0
2018-12-31,51491000.0,13300000.0,64791000.0,2987000.0,0.0,67778000.0,8780000.0,671787000.0,0.0,0.0,733733000.0,801511000.0,607000.0,0.0,607000.0,268857000.0,268857000.0,0.0,0.0,0.0,275069000.0,345963000.0,575190000.0,-119709000.0,455548000.0,13300000.0,217366000.0,0.0,70287000.0
2017-12-31,12921000.0,677000.0,13598000.0,9728000.0,0.0,23326000.0,8844000.0,692108000.0,0.0,0.0,769296000.0,792622000.0,327000.0,0.0,327000.0,483225000.0,483225000.0,0.0,0.0,0.0,487293000.0,561439000.0,414435000.0,-183888000.0,231183000.0,677000.0,470304000.0,0.0,73819000.0
2016-12-31,16441000.0,0.0,16441000.0,83870000.0,0.0,110177000.0,9544000.0,718457000.0,3525000.0,7452000.0,,850951000.0,3712000.0,0.0,75286000.0,393205000.0,418528000.0,0.0,0.0,0.0,,519953000.0,-537000.0,-74532000.0,330998000.0,6163000.0,,,71574000.0
2015-12-31,15144000.0,0.0,15144000.0,36999000.0,0.0,58901000.0,6592000.0,549131000.0,532000.0,4313000.0,,620389000.0,1413000.0,0.0,42909000.0,311898000.0,311898000.0,0.0,0.0,0.0,,370960000.0,-542000.0,-67834000.0,249429000.0,3370000.0,,,41496000.0
