,0,1,2,3,4,5,6,7,8,9,10,11,12,13,14
Date,Depreciation & Amortization,Stock-based compensation,Operating Cash Flow,Capital Expenditure,Acquisitions and disposals,Investment purchases and sales,Investing Cash flow,Issuance (repayment) of debt,Issuance (buybacks) of shares,Dividend payments,Financing Cash Flow,Effect of forex changes on cash,Net cash flow / Change in cash,Free Cash Flow,Net Cash/Marketcap
2019-02-28,,,68000000.0,,,,,,,,-68000000.0,,0.0,,
2018-02-28,,,15000000.0,,,,,,,,-15000000.0,,0.0,,
2017-02-28,,,8000000.0,,,,,,,,-8000000.0,,0.0,,
2016-02-29,,,35000000.0,,,,,,,,-35000000.0,,0.0,,
