,0,1,2,3,4,5,6,7,8,9,10,11,12,13,14
Date,Depreciation & Amortization,Stock-based compensation,Operating Cash Flow,Capital Expenditure,Acquisitions and disposals,Investment purchases and sales,Investing Cash flow,Issuance (repayment) of debt,Issuance (buybacks) of shares,Dividend payments,Financing Cash Flow,Effect of forex changes on cash,Net cash flow / Change in cash,Free Cash Flow,Net Cash/Marketcap
2019-12-31,4200000.0,9807000.0,-3232000.0,2756000.0,-0.0,0.0,-42733000.0,-24900000.0,-159300000.0,-0.0,127287000.0,0.0,159300000.0,-5988000.0,0.0
2018-12-31,3952000.0,5958000.0,-13521000.0,1874000.0,-0.0,0.0,-1874000.0,-0.0,-77995000.0,-0.0,59499000.0,0.0,77995000.0,-15395000.0,0.0
2017-12-31,4313000.0,6617000.0,-23915000.0,1755000.0,440000.0,0.0,-1195000.0,-25385000.0,-33900000.0,-0.0,-218000.0,0.0,33900000.0,-25670000.0,0.0
2016-12-31,3684000.0,6378000.0,-27982000.0,4210000.0,-0.0,0.0,-4212000.0,-5000000.0,-59219000.0,-0.0,52329000.0,0.0,59219000.0,-32192000.0,0.0
2015-12-31,2300000.0,5602000.0,-26965000.0,6165000.0,-0.0,0.0,-6698000.0,-0.0,-39084000.0,-0.0,37733000.0,0.0,39084000.0,-33130000.0,0.0
2014-12-31,1272000.0,3548000.0,-27632000.0,2024000.0,-6916000.0,0.0,-9010000.0,-0.0,-35014000.0,-0.0,436000.0,0.0,35014000.0,-29656000.0,0.0
2013-12-31,1055000.0,1247000.0,-19159000.0,1332000.0,-0.0,0.0,-1282000.0,-0.0,-71220000.0,-0.0,77659000.0,0.0,71220000.0,-20491000.0,0.0
2012-12-31,706000.0,934000.0,-7167000.0,-1462000.0,0.0,0.0,-1462000.0,0.0,76000.0,0.0,15065000.0,0.0,6436000.0,-8629000.0,0.2178
2011-12-31,611000.0,659000.0,-13524000.0,-276000.0,0.0,0.0,-331000.0,0.0,24000.0,0.0,18646000.0,0.0,4791000.0,-13800000.0,0.2178
