,0,1,2,3,4,5,6,7,8,9,10,11,12,13,14
Date,Depreciation & Amortization,Stock-based compensation,Operating Cash Flow,Capital Expenditure,Acquisitions and disposals,Investment purchases and sales,Investing Cash flow,Issuance (repayment) of debt,Issuance (buybacks) of shares,Dividend payments,Financing Cash Flow,Effect of forex changes on cash,Net cash flow / Change in cash,Free Cash Flow,Net Cash/Marketcap
2019-12-31,6883000.0,8262000.0,27557000.0,16151000.0,-45074000.0,0.0,-55825000.0,-4500000.0,0.0,-0.0,-1896000.0,-663000.0,-30827000.0,11406000.0,0.0
2018-12-31,4223000.0,4096000.0,40056000.0,10025000.0,-36855000.0,0.0,-48079000.0,-4000000.0,0.0,-0.0,-3285000.0,-1232000.0,-11308000.0,30031000.0,0.0
2017-12-31,3164000.0,4467000.0,35410000.0,2344000.0,-0.0,0.0,-2344000.0,-86000000.0,0.0,-0.0,-7130000.0,3866000.0,29802000.0,33066000.0,0.0
2016-12-31,3118000.0,4649000.0,36618000.0,741000.0,-0.0,0.0,-52000.0,-29000000.0,0.0,-0.0,-28062000.0,-848000.0,7656000.0,35877000.0,0.0
2015-12-31,4268000.0,6658000.0,18880000.0,793000.0,-0.0,0.0,118000.0,-23375000.0,0.0,-0.0,-21710000.0,-116000.0,-2828000.0,18087000.0,0.0
2014-12-31,2334000.0,2324000.0,42979000.0,3847000.0,-0.0,0.0,-3350000.0,-2625000.0,0.0,-0.0,-6607000.0,-645000.0,32377000.0,39132000.0,0.0
2013-12-31,2631000.0,0.0,92792000.0,-2429000.0,0.0,0.0,-2429000.0,0.0,0.0,0.0,-94924000.0,607000.0,-3954000.0,90363000.0,-0.4791
2012-12-31,3035000.0,0.0,115869000.0,-3230000.0,666000.0,0.0,-2564000.0,0.0,0.0,0.0,-113753000.0,1052000.0,604000.0,112639000.0,-0.4791
