,0,1,2,3,4,5,6,7,8,9,10,11,12,13,14,15,16,17,18,19,20,21,22,23,24,25,26,27,28,29,30
Date,Revenue,Revenue Growth,Cost of Revenue,Gross Profit,R&D Expenses,SG&A Expense,Operating Expenses,Operating Income,Interest Expense,Earnings before Tax,Income Tax Expense,Net Income - Non-Controlling int,Net Income - Discontinued ops,Net Income,Preferred Dividends,Net Income Com,EPS,EPS Diluted,Weighted Average Shs Out,Weighted Average Shs Out (Dil),Dividend per Share,Gross Margin,EBITDA Margin,EBIT Margin,Profit Margin,Free Cash Flow margin,EBITDA,EBIT,Consolidated Income,Earnings Before Tax Margin,Net Profit Margin
2018-12-31,32000.0,4.41088941495,52000.0,-20000.0,980000.0,6792000.0,7772000.0,-7792000.0,362000.0,-12126000.0,1000.0,0.0,0.0,-12127000.0,0.0,-12127000.0,-1.23,-1.23,9870890.0,9870890.0,0.0,-0.625,-197.0,-243.5,-378.96875,-129.90625,-6304000.0,-7792000.0,-12127000.0,-378.9375,-378.96875
2017-12-31,5914.0,1.0,0.0,0.0,375220.0,4327529.0,4702749.0,-4696835.0,555094.0,-7264953.0,1600.0,0.0,0.0,-7266553.0,0.0,-7266553.0,-0.07,-0.07,106148101.0,106148101.0,0.0,0.0,-719.814677038,-794.1892120389999,-1228.70358471,-283.519952655,-4256984.0,-4696835.0,-7266553.0,-1228.43304024,-1228.70358471
2016-12-31,0.0,0.0,0.0,0.0,257803.0,2873185.0,3130988.0,-3130988.0,0.0,-4273239.0,866.0,0.0,0.0,-4274105.0,0.0,-4274105.0,-0.05,-0.05,79602170.0,79602170.0,0.0,0.0,0.0,0.0,0.0,0.0,-2705646.0,-3130988.0,-4274105.0,0.0,0.0
2015-12-31,0.0,0.0,0.0,0.0,81588.0,5334564.0,5416152.0,-6803252.0,151976.0,0.0,0.0,0.0,0.0,-6955228.0,0.0,-6955228.0,-0.11,-0.11,62707874.0,62707874.0,0.0,0.0,0.0,0.0,0.0,0.0,-6414460.0,-6803252.0,-6955228.0,0.0,0.0
2014-12-31,0.0,0.0,0.0,0.0,485429.0,4096118.0,4581547.0,-4581547.0,0.0,0.0,0.0,0.0,0.0,-4581547.0,0.0,-4581547.0,-0.13,-0.13,36000000.0,36000000.0,0.0,0.0,0.0,0.0,0.0,0.0,-4579899.0,-4581547.0,-4581547.0,0.0,0.0
2013-11-30,0.0,0.0,0.0,0.0,0.0,0.0,950.0,-950.0,0.0,0.0,0.0,0.0,0.0,-950.0,0.0,-950.0,-0.0,-0.0,475000.0,475000.0,0.0,0.0,0.0,0.0,0.0,0.0,-950.0,-950.0,-950.0,0.0,0.0
