,0,1,2,3,4,5,6,7,8,9,10,11,12,13,14,15,16,17,18,19,20,21,22,23,24,25,26,27,28,29,30
Date,Revenue,Revenue Growth,Cost of Revenue,Gross Profit,R&D Expenses,SG&A Expense,Operating Expenses,Operating Income,Interest Expense,Earnings before Tax,Income Tax Expense,Net Income - Non-Controlling int,Net Income - Discontinued ops,Net Income,Preferred Dividends,Net Income Com,EPS,EPS Diluted,Weighted Average Shs Out,Weighted Average Shs Out (Dil),Dividend per Share,Gross Margin,EBITDA Margin,EBIT Margin,Profit Margin,Free Cash Flow margin,EBITDA,EBIT,Consolidated Income,Earnings Before Tax Margin,Net Profit Margin
2019-09-30,31803387.0,1.0046910447700002,10146565.0,21656822.0,13743826.0,14348890.0,28092716.0,-6435894.0,4706056.0,-12321299.0,-303933.0,0.0,0.0,-12017366.0,0.0,-12017366.0,-0.19,-0.19,63323127.0,63323127.0,0.0,0.680959609742,-0.18433546087400002,-0.202365049987,-0.37786434507700006,-0.175884537078,-5862492.0,-6435894.0,-12017366.0,-0.387420968716,-0.37786434507700006
2018-09-30,15864483.0,0.161757249338,7081981.0,8782502.0,10850958.0,14817433.0,29654909.0,-20872407.0,2950501.0,-23072287.0,866102.0,0.0,0.0,-23938389.0,0.0,-23938389.0,-0.44,-0.44,53861981.0,53861981.0,0.0,0.553595222737,-1.28181769302,-1.31566890645,-1.5089296638299998,-0.7309941962809999,-20335375.0,-20872407.0,-23938389.0,-1.4543358897999998,-1.5089296638299998
2017-09-30,13655592.0,-0.38286342751900004,6636080.0,7019512.0,3504482.0,11019091.0,15513624.0,-8494112.0,0.0,-8602490.0,-1990443.0,0.0,0.0,-6612047.0,0.0,-6612047.0,-0.25,-0.25,34640308.0,34640308.0,0.0,0.514039376689,-0.586800191453,-0.622024442441,-0.484200684965,0.0622017705274,-8013104.0,-8494112.0,-6612047.0,-0.6299609713000001,-0.484200684965
2016-09-30,22127342.0,-0.321348455208,8777858.0,13349484.0,99393.0,8660174.0,10330972.0,3018512.0,0.0,2813916.0,2469191.0,0.0,0.0,344725.0,0.0,344725.0,0.01,0.01,28666477.0,28926557.0,0.0,0.603302647015,0.15552636191,0.136415480901,0.0155791418599,-0.0777649660768,3441385.0,3018512.0,344725.0,0.127169182815,0.0155791418599
2015-09-30,32604865.0,0.331322370155,13634906.0,18969959.0,219815.0,12131737.0,12351552.0,6618407.0,0.0,6687040.0,2341004.0,0.0,0.0,4346036.0,0.0,4346036.0,0.15,0.15,28532327.0,28917048.0,0.000184596989292,0.5818137569349999,0.21814735316300002,0.202988327049,0.133294095835,-0.0516524451182,7112665.0,6618407.0,4346036.0,0.20509331966299998,0.133294095835
2014-09-30,24490586.0,-0.22145281376200002,11369108.0,13121478.0,5575.0,9139445.0,9197566.0,3923912.0,0.0,3957191.0,1524130.0,0.0,0.0,2433061.0,0.0,2433061.0,0.09,0.08,28522525.0,28865384.0,0.210430735999,0.53577639996,0.184285300482,0.160221237663,0.0993467857404,0.145692798041,4513255.0,3923912.0,2433061.0,0.161580086324,0.0993467857404
2013-09-30,31456778.0,-0.10210451323799999,13952420.0,17504358.0,4745.0,7493043.0,7714761.0,9789597.0,0.0,9933854.0,-4408744.0,0.0,0.0,14342598.0,0.0,14342598.0,0.51,0.5,28376607.0,28726478.0,0.2599778504,0.556457435024,0.328892583977,0.311207873864,0.455946187496,0.365291162369,10345901.0,9789597.0,14342598.0,0.315793753575,0.455946187496
2012-09-30,35033897.0,0.8870834644490001,14412884.0,20621013.0,5277.0,9628134.0,9681083.0,10939930.0,0.0,10792023.0,-4507298.0,0.0,0.0,15299321.0,0.0,15299321.0,0.55,0.53,27693721.0,28933144.0,0.214033946674,0.588601747616,0.32543844608600003,0.31226700244100003,0.43670051892899997,0.275097885913,11401377.0,10939930.0,15299321.0,0.308045176933,0.43670051892899997
2011-09-30,18565102.0,-0.164560363838,8699912.0,9865190.0,10929.0,6226155.0,6569848.0,3295342.0,0.0,3231975.0,-2167076.0,0.0,0.0,5399051.0,0.0,5399051.0,0.2,0.19,27287342.0,28971011.0,0.0,0.5313835604029999,0.17750196039900001,0.17750196039900001,0.290817201004,0.0,3295342.0,3295342.0,5399051.0,0.174088728411,0.290817201004
2010-09-30,22221955.0,-0.193200454513,9297136.0,12924819.0,0.0,6645737.0,8575659.0,4349160.0,-29168.0,4224132.0,-2512946.0,0.0,0.0,6737078.0,0.0,6737078.0,0.25,0.24,27483424.0,26981275.0,0.15,0.5816,0.21,0.1888,0.303,0.1773,4661508.0,4194964.0,6737078.0,0.1901,0.3032
2009-09-30,27543341.0,0.0745,14025523.0,13517818.0,105916.0,7197264.0,8799804.0,4718014.0,0.0,5050111.0,-1485268.0,0.0,0.0,6535379.0,79717.0,6455662.0,0.25,0.24,27439225.0,25651915.0,0.0,0.4908,0.193,0.1834,0.23399999999999999,0.1501,5318493.0,5050111.0,6535379.0,0.1834,0.2373
