,0,1,2,3,4,5,6,7,8,9,10,11,12,13,14
Date,Depreciation & Amortization,Stock-based compensation,Operating Cash Flow,Capital Expenditure,Acquisitions and disposals,Investment purchases and sales,Investing Cash flow,Issuance (repayment) of debt,Issuance (buybacks) of shares,Dividend payments,Financing Cash Flow,Effect of forex changes on cash,Net cash flow / Change in cash,Free Cash Flow,Net Cash/Marketcap
2018-12-31,474277777.7778,44997037.037,604452592.5926,-383862222.2222,-204672592.5926,0.0,-547430370.3704,172052592.5926,0.0,-244588148.1481,-72535555.5556,0.0,-14631111.1111,220590370.3704,
2017-12-31,407426551.4533,48373134.3284,466532600.1571,-251727415.5538,-21710133.5428,0.0,-273117831.8932,-49971720.3456,0.0,-157167321.2883,-207139041.6339,0.0,-12736842.1053,214805184.6033,
2016-12-31,411298363.0952,51514136.9048,379122023.8095,-253669642.8571,0.0,0.0,-262819940.4762,-19831101.1905,0.0,-77918898.8095,-97750000.0,0.0,15698660.7143,125452380.9524,
2015-12-31,349001446.1316,54397686.1894,321336225.5965,-372926970.3543,0.0,0.0,-391712219.812,98405639.9132,0.0,-92216196.6739,6189443.2393,0.0,-56926247.2885,-51590744.7578,
2014-12-31,386925129.0878,58349397.5904,681571428.5714,-781798623.0637,-151617039.5869,0.0,-922774526.6781,169007745.2668,0.0,-164076592.0826,4931153.1842,0.0,-231629948.3649,-100227194.4923,
2013-12-31,326081766.9173,57185150.3759,662617481.2030001,-526825187.9699,-14564849.6241,0.0,-580573308.2707,326394736.8421,0.0,-158570488.7218,167824248.1203,0.0,270144736.8421,135792293.2331,
2012-12-31,320908450.7042,47388329.9799,499577464.7887,-562094567.4044,-198982897.3843,0.0,-744389336.0161,266996981.8913,36558350.1006,-188615694.165,114939637.827,0.0,-133181086.5191,-62517102.6157,
2011-12-31,253030332.681,37834637.9648,437467710.3718,-529998043.0528,0.0,0.0,-535935420.7436,69041095.8904,304388454.0117,-201990215.2642,171439334.63799998,-807240.7045,72164383.5616,-92530332.68100001,
2010-12-31,202129388.1645,34680040.1204,422549648.9468,-433931795.3862,0.0,64318956.8706,-360908726.1785,143129388.1645,40946840.5216,-188508525.5767,-4432296.8907,-11276830.4915,45931795.3862,-11382146.4393,
2009-12-31,237333969.4656,17362595.4198,219767175.5725,-337979007.6336,0.0,124117366.4122,-215417938.9313,-35355916.0305,229177480.91599998,-157076335.8779,36745229.0076,-10717557.2519,30376908.3969,-118211832.0611,
