,0,1,2,3,4,5,6,7,8,9,10,11,12,13,14,15,16,17,18,19,20,21,22,23,24,25,26,27,28,29,30
Date,Revenue,Revenue Growth,Cost of Revenue,Gross Profit,R&D Expenses,SG&A Expense,Operating Expenses,Operating Income,Interest Expense,Earnings before Tax,Income Tax Expense,Net Income - Non-Controlling int,Net Income - Discontinued ops,Net Income,Preferred Dividends,Net Income Com,EPS,EPS Diluted,Weighted Average Shs Out,Weighted Average Shs Out (Dil),Dividend per Share,Gross Margin,EBITDA Margin,EBIT Margin,Profit Margin,Free Cash Flow margin,EBITDA,EBIT,Consolidated Income,Earnings Before Tax Margin,Net Profit Margin
2019-03-31,13848660000.0,0.0,6827481000.0,7021179000.0,0.0,5345339000.0,5453407000.0,1675840000.0,108068000.0,1527404000.0,268400000.0,0.0,0.0,1259792000.0,0.0,1259792000.0,3.19,3.15,395189000.0,400496000.0,1.9152775558300001,0.506993384197,0.142746301808,0.12101098589999999,0.090968512477,0.12017213217700001,1976845000.0,1675840000.0,1259792000.0,0.11029254815999999,0.090968512477
2019-03-30,13848660000.0,0.136813331144,6827481000.0,7021179000.0,0.0,5345339000.0,10811957000.0,1675840000.0,-102662000.0,1528192000.0,268400000.0,0.0,106286000.0,614923000.0,0.0,1259792000.0,3.19,3.15,395605444.0,399223000.0,1.72,0.507,0.14400000000000002,0.1268,0.052000000000000005,0.105,1702687000.0,1544326000.0,614923000.0,0.1103,0.0521
2018-03-31,12182000000.0,0.031395939625699996,5739000000.0,6156000000.0,0.0,4916000000.0,4453207000.0,1240000000.0,101975000.0,1177000000.0,-132000000.0,0.0,4748000.0,1074106000.0,0.0,1011000000.0,2.56,2.52,394000000.0,416103000.0,1.53,0.5053,0.15,0.1196,0.09699999999999999,0.1143,1656267000.0,1412184000.0,1074106000.0,0.0966,0.0974
2017-12-30,11811177000.0,-0.0172914508799,5844941000.0,5966236000.0,0.0,4463146000.0,4565121000.0,1503090000.0,101975000.0,1416495000.0,695286000.0,0.0,0.0,614923000.0,0.0,614923000.0,1.54,1.52,399223000.0,399223000.0,1.7150289437200001,0.505134754987,0.15185556867,0.127259967402,0.052062804579099994,0.124852925327,1793593000.0,1503090000.0,614923000.0,0.11992835261,0.052062804579099994
2016-12-31,12019003000.0,-0.028904290175200003,6196335000.0,5822668000.0,0.0,4243798000.0,4338528000.0,1499226000.0,94730000.0,1415591000.0,243064000.0,0.0,0.0,1074106000.0,0.0,1074106000.0,2.58,2.54,416103000.0,416103000.0,1.5284532916100002,0.48445515821900004,0.148165617398,0.124737967034,0.08936731274630001,0.12296519104,1780803000.0,1499226000.0,1074106000.0,0.117779403167,0.08936731274630001
2016-01-02,12376744000.0,0.0285667747029,6393800000.0,5982944000.0,0.0,4178386000.0,4267800000.0,1660996000.0,89414000.0,1580389000.0,348796000.0,0.0,0.0,1231593000.0,0.0,1231593000.0,2.9,2.85,425408000.0,432079000.0,1.3082677010500001,0.48340209670699996,0.156185746429,0.134202985858,0.099508642984,0.0926342178524,1933071000.0,1660996000.0,1231593000.0,0.12769020673,0.099508642984
2015-12-31,12033000000.0,-0.020286413767099998,5959000000.0,5801000000.0,0.0,4009000000.0,3841032000.0,1792000000.0,84773000.0,1707000000.0,-392000000.0,139000.0,0.0,1085999000.0,0.0,1232000000.0,2.9,2.85,427000000.0,440629952.0,0.757,0.4821,0.161,0.1442,0.1,0.0912,1753297000.0,1647263000.0,1086138000.0,0.1419,0.0998
2014-12-28,12282161000.0,0.0755288604342,6288190000.0,5993971000.0,0.0,4159885000.0,4246610000.0,1437724000.0,86725000.0,556953000.0,304861000.0,0.0,0.0,1047505000.0,0.0,1047505000.0,2.42,2.38,432611000.0,440153000.0,1.08810572687,0.48802250678900005,0.13943857274,0.117057902107,0.08528670158289998,0.138219080502,1712607000.0,1437724000.0,1047505000.0,0.045346498877499995,0.08528670158289998
2013-12-28,11419648000.0,0.0496139884217,5931469000.0,5488179000.0,0.0,3841032000.0,3925805000.0,1647147000.0,84773000.0,1452294000.0,352371000.0,0.0,0.0,1210119000.0,0.0,1210119000.0,2.76,2.71,438657000.0,446809000.0,0.900017680933,0.48059090788099995,0.16641668815,0.144237983518,0.105968152433,0.131881560623,1900420000.0,1647147000.0,1210119000.0,0.127175023258,0.105968152433
2012-12-29,10879855000.0,0.15018375699,5817880000.0,5061975000.0,0.0,3596708000.0,3690313000.0,1465267000.0,93605000.0,1421875000.0,335737000.0,0.0,0.0,1085999000.0,0.0,1085999000.0,9.89,9.7,109823000.0,111904000.0,2.97781133829,0.46526125578,0.156548317969,0.134677070604,0.0998174148461,0.117189061803,1703223000.0,1465267000.0,1085999000.0,0.130688782157,0.0998174148461
2011-12-31,9459232000.0,0.22805877348499998,5128602000.0,4330630000.0,0.0,3085839000.0,3163417000.0,1244791000.0,77578000.0,1164743000.0,274350000.0,0.0,0.0,888089000.0,0.0,888089000.0,8.13,7.98,109287000.0,111288000.0,2.5674106821900002,0.457820465763,0.152604989496,0.131595355733,0.0938859518405,0.114319111742,1443526000.0,1244791000.0,888089000.0,0.12313293510500001,0.0938859518405
2010-12-28,7702589000.0,1.0,4105201000.0,3597388000.0,0.0,2574790000.0,2652528000.0,820860000.0,77738000.0,750212000.0,176700000.0,0.0,0.0,571362000.0,0.0,571362000.0,5.25,5.18,108764000.0,110328000.0,0.0,0.467036213408,0.12908075453600001,0.106569362587,0.07417791602280001,0.0,994256000.0,820860000.0,571362000.0,0.0973973815817,0.07417791602280001
2009-12-28,0.0,0.0,4025122000.0,0.0,0.0,2336394000.0,2336394000.0,736817000.0,85902000.0,654673000.0,196215000.0,0.0,0.0,461271000.0,0.0,461271000.0,0.0,0.0,0.0,0.0,0.0,0.0,0.0,0.0,0.0,0.0,736817000.0,736817000.0,461271000.0,0.0,0.0
