,0,1,2,3,4,5,6,7,8,9,10,11,12,13,14,15,16,17,18,19,20,21,22,23,24,25,26,27,28,29,30
Date,Revenue,Revenue Growth,Cost of Revenue,Gross Profit,R&D Expenses,SG&A Expense,Operating Expenses,Operating Income,Interest Expense,Earnings before Tax,Income Tax Expense,Net Income - Non-Controlling int,Net Income - Discontinued ops,Net Income,Preferred Dividends,Net Income Com,EPS,EPS Diluted,Weighted Average Shs Out,Weighted Average Shs Out (Dil),Dividend per Share,Gross Margin,EBITDA Margin,EBIT Margin,Profit Margin,Free Cash Flow margin,EBITDA,EBIT,Consolidated Income,Earnings Before Tax Margin,Net Profit Margin
2018-12-31,1048782000.0,0.0463899525684,426995000.0,621787000.0,52139000.0,446757000.0,996871000.0,51911000.0,15068000.0,36525000.0,797000.0,0.0,0.0,35728000.0,0.0,35728000.0,0.15,0.14,237499000.0,248892000.0,0.0,0.592865819589,0.127882629565,0.0494964635167,0.0340661834395,0.0993276009695,134121000.0,51911000.0,35728000.0,0.0348261125763,0.0340661834395
2017-12-31,1002286000.0,0.0488321206838,25994000.0,597332000.0,29630000.0,435788000.0,942895000.0,59391000.0,14868000.0,45793000.0,79726000.0,0.0,0.0,-33933000.0,0.0,-33933000.0,-0.15,-0.15,225311000.0,225311000.0,0.0,0.595969613464,0.132473166342,0.059255541831400006,-0.0338556060845,0.105900910519,132776000.0,59391000.0,-33933000.0,0.045688555961100004,-0.0338556060845
2016-12-31,955621000.0,0.06764707196740001,33777000.0,600471000.0,29759000.0,454273000.0,911467000.0,44154000.0,13042000.0,30845000.0,12938000.0,0.0,0.0,17907000.0,0.0,17907000.0,0.08,0.08,215751000.0,231941000.0,0.0,0.628356848583,0.122976577534,0.0462045099469,0.018738600344700002,0.0636926145407,117519000.0,44154000.0,17907000.0,0.0322774405334,0.018738600344700002
2015-12-31,895072000.0,0.030058012343599998,34210000.0,860862000.0,27220000.0,457049000.0,842080000.0,52992000.0,8786000.0,43453000.0,18418000.0,0.0,0.0,22655000.0,0.0,22655000.0,0.11,0.1,213147000.0,224110000.0,0.0,0.961779611026,0.129613036717,0.059204175753499996,0.0253108129849,0.125585427764,116013000.0,52992000.0,22655000.0,0.0485469325373,0.0253108129849
2014-12-31,868953000.0,0.04810950140340001,36815000.0,832138000.0,0.0,274750000.0,821146000.0,47807000.0,6823000.0,41207000.0,21760000.0,0.0,0.0,20266000.0,0.0,20266000.0,0.1,0.09,209822000.0,219419000.0,0.0,0.9576329214579999,0.115410154519,0.0550167845672,0.0233223200795,0.09218680411939999,100286000.0,47807000.0,20266000.0,0.047421437062800005,0.0233223200795
2013-12-31,829067000.0,-0.023609315121400003,37586000.0,791481000.0,0.0,262302000.0,776718000.0,52349000.0,6557000.0,45995000.0,18194000.0,0.0,0.0,28289000.0,0.0,28289000.0,0.13,0.13,211563000.0,220520000.0,0.0,0.9546647014049999,0.10847132982,0.06314206210109999,0.0341214883719,0.09450864646639999,89930000.0,52349000.0,28289000.0,0.0554780252983,0.0341214883719
2012-12-31,849114000.0,-0.024369113536,39133000.0,809981000.0,0.0,242368000.0,784504000.0,64610000.0,5986000.0,58722000.0,22095000.0,0.0,0.0,36627000.0,0.0,36627000.0,0.16,0.16,224264000.0,232633000.0,0.0,0.953913137694,0.116791149363,0.07609107846530001,0.0431355507034,0.12493022138399999,99169000.0,64610000.0,36627000.0,0.0691567916675,0.0431355507034
2011-12-31,870323000.0,-0.0166308491574,41756000.0,828567000.0,0.0,234754000.0,753973000.0,116350000.0,17118000.0,86340000.0,-322704000.0,0.0,0.0,409044000.0,0.0,409044000.0,1.82,1.69,224324000.0,241744000.0,0.0,0.952022410071,0.178905992373,0.133685999336,0.46999102632,0.154138176286,155706000.0,116350000.0,409044000.0,0.0992045481965,0.46999102632
2010-12-31,885042000.0,-0.00454177351869,299759000.0,585283000.0,0.0,437156000.0,490229000.0,95054000.0,48541000.0,-83347000.0,318000.0,0.0,0.0,-83665000.0,0.0,-83665000.0,-0.4,-0.4,212684909.0,209868000.0,0.0,0.6613,0.021,-0.0393,-0.095,0.1738,18267000.0,-34806000.0,-83665000.0,-0.0942,-0.0945
2009-12-31,889080000.0,-0.0123,285041000.0,604039000.0,0.0,493446000.0,546837000.0,57202000.0,54192000.0,-41762000.0,836000.0,0.0,0.0,-42598000.0,0.0,-42598000.0,-0.25,-0.25,199815997.0,170314000.0,0.0,0.6794,0.07400000000000001,0.013999999999999999,-0.048,-0.0079,65821000.0,12430000.0,-42598000.0,-0.047,-0.0479
