,0,1,2,3,4,5,6,7,8,9,10,11,12,13,14,15,16,17,18,19,20,21,22,23,24,25,26,27,28,29,30
Date,Revenue,Revenue Growth,Cost of Revenue,Gross Profit,R&D Expenses,SG&A Expense,Operating Expenses,Operating Income,Interest Expense,Earnings before Tax,Income Tax Expense,Net Income - Non-Controlling int,Net Income - Discontinued ops,Net Income,Preferred Dividends,Net Income Com,EPS,EPS Diluted,Weighted Average Shs Out,Weighted Average Shs Out (Dil),Dividend per Share,Gross Margin,EBITDA Margin,EBIT Margin,Profit Margin,Free Cash Flow margin,EBITDA,EBIT,Consolidated Income,Earnings Before Tax Margin,Net Profit Margin
2018-12-31,63000.0,-0.9592760181000001,0.0,0.0,4815000.0,20705000.0,25520000.0,-25457000.0,0.0,-25403000.0,3000.0,0.0,0.0,-25406000.0,0.0,-25406000.0,-0.4,-0.4,62985763.0,62985763.0,0.0,0.0,-403.79365079400003,-404.079365079,-403.26984127,-353.936507937,-25439000.0,-25457000.0,-25406000.0,-403.22222222199997,-403.26984127
2017-12-31,1547000.0,-0.00193548387097,0.0,0.0,2674000.0,16194000.0,18868000.0,-17321000.0,0.0,-17275000.0,3000.0,0.0,0.0,-17278000.0,0.0,-17278000.0,-0.3,-0.3,58354397.0,58354397.0,0.0,0.0,-11.1797026503,-11.196509373,-11.1687136393,-9.659987071749999,-17295000.0,-17321000.0,-17278000.0,-11.1667744021,-11.1687136393
2016-12-31,1550000.0,-0.0032154340836,884000.0,666000.0,2499000.0,26672000.0,30055000.0,-28505000.0,0.0,-28436000.0,133000.0,0.0,0.0,-28569000.0,0.0,-28569000.0,-0.51,-0.51,55984825.0,55984825.0,0.0,0.42967741935500003,-18.3529032258,-18.3903225806,-18.431612903199998,-14.211612903199999,-28447000.0,-28505000.0,-28569000.0,-18.3458064516,-18.431612903199998
2015-12-31,1555000.0,0.244995996797,5265000.0,-3710000.0,2277000.0,23190000.0,30732000.0,-29177000.0,0.0,-29226000.0,8000.0,0.0,0.0,-29234000.0,0.0,-29234000.0,-0.56,-0.56,52384494.0,52384494.0,0.0,-2.3858520900299998,-18.688102893900002,-18.7633440514,-18.8,-16.9890675241,-29060000.0,-29177000.0,-29234000.0,-18.7948553055,-18.8
2014-12-31,1249000.0,-0.431497496586,6100000.0,-4851000.0,2004000.0,28310000.0,30314000.0,-12165000.0,0.0,-9887000.0,15000.0,0.0,0.0,-9902000.0,0.0,-9902000.0,-0.19,-0.19,51570000.0,51570472.0,0.0,-3.8839071257,-9.71977582066,-9.73979183347,-7.92794235388,1.54683746998,-12140000.0,-12165000.0,-9902000.0,-7.9159327462,-7.92794235388
2013-12-31,2197000.0,4.3325242718400006,0.0,0.0,1782000.0,29002000.0,30784000.0,-28587000.0,0.0,-26857000.0,751000.0,0.0,0.0,-27608000.0,0.0,-27608000.0,-0.54,-0.54,51188006.0,51188006.0,0.0,0.0,-12.9954483386,-13.0118343195,-12.5662266727,-3.31861629495,-28551000.0,-28587000.0,-27608000.0,-12.2243969049,-12.5662266727
2012-12-31,412000.0,19.6,0.0,0.0,1555000.0,37718000.0,39273000.0,-38861000.0,0.0,-39459000.0,-12535000.0,0.0,0.0,-26924000.0,0.0,-26924000.0,-0.53,-0.53,50934266.0,50934266.0,0.0,0.0,-94.1504854369,-94.322815534,-65.3495145631,-47.645631068,-38790000.0,-38861000.0,-26924000.0,-95.7742718447,-65.3495145631
2011-12-31,20000.0,-0.705882352941,0.0,0.0,1464000.0,15932000.0,17396000.0,-17376000.0,0.0,-22743000.0,-5480000.0,0.0,0.0,-17263000.0,0.0,-17263000.0,-0.35,-0.35,50028413.0,50028413.0,0.0,0.0,-865.4,-868.8,-863.15,-915.15,-17308000.0,-17376000.0,-17263000.0,-1137.15,-863.15
2010-12-31,68000.0,1.6153846153799998,0.0,68000.0,2412000.0,33764000.0,-104617000.0,104685000.0,0.0,75479000.0,34062000.0,0.0,0.0,41417000.0,0.0,41417000.0,0.91,0.84,48840172.0,45452550.0,0.5,1.0,1110.853,1109.9853,609.0740000000001,1115.7059,75538000.0,75479000.0,41417000.0,1109.9853,609.0735
2009-12-31,26000.0,-0.8056,0.0,26000.0,864000.0,12250000.0,13114000.0,-13088000.0,0.0,-12524000.0,0.0,0.0,0.0,-12524000.0,0.0,-12524000.0,-0.33,-0.33,39750927.0,37911340.0,0.0,1.0,-479.269,-481.6923,-481.69199999999995,-267.3462,-12461000.0,-12524000.0,-12524000.0,-481.6923,-481.6923
