,0,1,2,3,4,5,6,7,8,9,10,11,12,13,14
Date,Depreciation & Amortization,Stock-based compensation,Operating Cash Flow,Capital Expenditure,Acquisitions and disposals,Investment purchases and sales,Investing Cash flow,Issuance (repayment) of debt,Issuance (buybacks) of shares,Dividend payments,Financing Cash Flow,Effect of forex changes on cash,Net cash flow / Change in cash,Free Cash Flow,Net Cash/Marketcap
2019-09-30,4754000000.0,64000000.0,1576000000.0,194000000.0,-0.0,0.0,-608000000.0,-1320000000.0,-760000000.0,-322000000.0,-1744000000.0,-21000000.0,760000000.0,1382000000.0,0.0
2018-09-30,4998000000.0,57000000.0,1822000000.0,178000000.0,-0.0,0.0,-224000000.0,-1000000000.0,0.0,-322000000.0,-1410000000.0,-20000000.0,168000000.0,1644000000.0,0.0
2017-09-30,4962000000.0,68000000.0,1671000000.0,195000000.0,-0.0,0.0,329000000.0,-3352000000.0,0.0,-319000000.0,-1010000000.0,20000000.0,1010000000.0,1476000000.0,0.0
2016-09-30,4789000000.0,163000000.0,1371000000.0,172000000.0,-0.0,-100000000.0,-299000000.0,-368000000.0,-100000000.0,-635000000.0,-1173000000.0,-26000000.0,-127000000.0,1199000000.0,0.0
2015-09-30,5147000000.0,101000000.0,2313000000.0,142000000.0,-0.0,-1548000000.0,-257000000.0,-1400000000.0,-1548000000.0,-564000000.0,-2477000000.0,-73000000.0,-494000000.0,2171000000.0,0.0
2014-09-30,4423000000.0,122000000.0,2597000000.0,123000000.0,-0.0,-3529000000.0,-900000000.0,-600000000.0,-3529000000.0,-541000000.0,-3100000000.0,-45000000.0,-1403000000.0,2474000000.0,0.0
2013-09-30,4608000000.0,128000000.0,3083000000.0,160000000.0,-0.0,-4664000000.0,-335000000.0,-0.0,-4664000000.0,-555000000.0,-1159000000.0,-34000000.0,1555000000.0,2923000000.0,0.0
2012-09-30,4616000000.0,122000000.0,2498000000.0,154000000.0,-0.0,-2809000000.0,-256000000.0,-892000000.0,-2809000000.0,-554000000.0,-2413000000.0,-2000000.0,-173000000.0,2344000000.0,0.0
2011-09-30,5080000000.0,128000000.0,2644000000.0,155000000.0,-0.0,-2450000000.0,-227000000.0,-776000000.0,-2450000000.0,-417000000.0,-2227000000.0,-6000000.0,184000000.0,2489000000.0,0.0
2010-09-30,0.0,0.0,0.0,0.0,-0.0,0.0,0.0,-0.0,0.0,-0.0,0.0,0.0,0.0,0.0,0.0
2009-12-31,319000000.0,102000000.0,1151000000.0,-139000000.0,-133000000.0,0.0,-274000000.0,-1303000000.0,-7000000.0,0.0,-1388000000.0,17000000.0,-494000000.0,1012000000.0,-0.3588
