,0,1,2,3,4,5,6,7,8,9,10,11,12,13,14,15,16,17,18,19,20,21,22,23,24,25,26,27,28
Date,Cash and cash equivalents,Short-term investments,Cash and short-term investments,Receivables,Inventories,Total current assets,Property Plant & Equipment Net,Goodwill and Intangible Assets,Long-term investments,Tax assets,Total non-current assets,Total assets,Payables,Short-term debt,Total current liabilities,Long-term debt,Total debt,Deferred revenue,Tax Liabilities,Deposit Liabilities,Total non-current liabilities,Total liabilities,Other comprehensive income,Retained earnings (deficit),Total shareholders equity,Investments,Net Debt,Other Assets,Other Liabilities
2019-12-31,200851000.0,113945000.0,314796000.0,30000000.0,0.0,351038000.0,1499000.0,0.0,31415000.0,0.0,33016000.0,384054000.0,7459000.0,12892000.0,29543000.0,0.0,12892000.0,0.0,0.0,0.0,58000.0,29543000.0,631154000.0,-276699000.0,354511000.0,145360000.0,-187959000.0,0.0,-58000.0
2018-12-31,126898000.0,0.0,126898000.0,0.0,0.0,139354000.0,473000.0,0.0,0.0,0.0,473000.0,139827000.0,1142000.0,0.0,15965000.0,0.0,0.0,0.0,0.0,0.0,312253000.0,328218000.0,0.0,-190270000.0,-188391000.0,0.0,-126898000.0,12456000.0,14823000.0
