,0,1,2,3,4,5,6,7,8,9,10,11,12,13,14,15,16,17,18,19,20,21,22,23,24,25,26,27,28,29,30
Date,Revenue,Revenue Growth,Cost of Revenue,Gross Profit,R&D Expenses,SG&A Expense,Operating Expenses,Operating Income,Interest Expense,Earnings before Tax,Income Tax Expense,Net Income - Non-Controlling int,Net Income - Discontinued ops,Net Income,Preferred Dividends,Net Income Com,EPS,EPS Diluted,Weighted Average Shs Out,Weighted Average Shs Out (Dil),Dividend per Share,Gross Margin,EBITDA Margin,EBIT Margin,Profit Margin,Free Cash Flow margin,EBITDA,EBIT,Consolidated Income,Earnings Before Tax Margin,Net Profit Margin
2019-01-31,200716000.0,0.060379212518600005,133635000.0,67081000.0,0.0,64751000.0,64751000.0,2331000.0,2191000.0,-1117000.0,497000.0,0.0,0.0,-1614000.0,0.0,-1614000.0,-0.1,-0.1,15421000.0,15421000.0,0.060307373062699995,0.33420853345,0.036504314553900005,0.0116134239423,-0.0080412124594,-0.0151059208035,7327000.0,2331000.0,-1614000.0,-0.00556507702425,-0.0080412124594
2018-01-31,189287000.0,0.0915135194358,123816000.0,65471000.0,0.0,61528000.0,61528000.0,3959000.0,1545000.0,2414000.0,5623000.0,0.0,0.0,-3209000.0,0.0,-3209000.0,-0.21,-0.21,15244000.0,15244000.0,0.0,0.345882178914,0.0447468658703,0.0209153296317,-0.0169530923941,-0.0239107809834,8470000.0,3959000.0,-3209000.0,0.0127531209222,-0.0169530923941
2017-01-31,173417000.0,0.028601085441400005,110874000.0,62543000.0,0.0,56601000.0,56601000.0,5944000.0,1217000.0,4727000.0,-18033000.0,0.0,0.0,22760000.0,0.0,22760000.0,1.51,1.49,15067000.0,15266000.0,0.0,0.36065091657700005,0.055600085343399996,0.034275763045099994,0.131244341674,0.0083844144461,9642000.0,5944000.0,22760000.0,0.0272579966209,0.131244341674
2016-01-31,168595000.0,0.027692438982799997,108985000.0,59610000.0,0.0,53653000.0,53653000.0,5948000.0,1281000.0,4667000.0,118000.0,0.0,0.0,4549000.0,0.0,4549000.0,0.31,0.3,14914000.0,15118000.0,0.0,0.35356920430600003,0.0515555028322,0.035279812568599994,0.0269818203387,0.019253240012999998,8692000.0,5948000.0,4549000.0,0.027681722471,0.0269818203387
2015-01-31,164052000.0,0.052154951257100006,108654000.0,55398000.0,0.0,52741000.0,52741000.0,2372000.0,1454000.0,918000.0,69000.0,0.0,0.0,849000.0,0.0,849000.0,0.06,0.06,14756000.0,14987000.0,0.0,0.337685611879,0.0335076683003,0.014458830127000001,0.00517518835491,-0.010088264696600001,5497000.0,2372000.0,849000.0,0.00559578670178,0.00517518835491
2014-01-31,155920000.0,-0.018482147353599997,102488000.0,53432000.0,0.0,53465000.0,53465000.0,-2733000.0,1302000.0,-2733000.0,-1003000.0,0.0,0.0,-1730000.0,0.0,-1730000.0,-0.12,-0.12,14620000.0,14620000.0,0.0,0.342688558235,0.00946639302206,-0.0175282195998,-0.011095433555700002,-0.024852488455599998,1476000.0,-2733000.0,-1730000.0,-0.0175282195998,-0.011095433555700002
2013-01-31,158856000.0,1.0,107304000.0,51552000.0,0.0,54072000.0,54072000.0,-4039000.0,1556000.0,-4039000.0,-209000.0,0.0,0.0,-3830000.0,0.0,-3830000.0,-0.27,-0.27,14387000.0,14387000.0,0.0,0.32452032029,0.0020710580651700002,-0.025425542629800003,-0.024109885682599995,0.0321863826358,329000.0,-4039000.0,-3830000.0,-0.025425542629800003,-0.024109885682599995
2012-01-31,0.0,-1.0,0.0,0.0,0.0,0.0,0.0,0.0,0.0,0.0,0.0,0.0,0.0,0.0,0.0,0.0,0.0,0.0,0.0,0.0,0.0,0.0,0.0,0.0,0.0,0.0,0.0,0.0,0.0,0.0,0.0
2011-01-31,180995000.0,-0.0499598452599,129621000.0,51374000.0,0.0,58891000.0,58884000.0,-7510000.0,1077000.0,-8587000.0,9007000.0,0.0,0.0,-17594000.0,0.0,-17594000.0,-1.25,-1.25,14204998.0,14130000.0,0.1,0.2838,-0.012,-0.0415,-0.09699999999999999,0.0138,-2158000.0,-7510000.0,-17594000.0,-0.0474,-0.0972
2010-01-31,190513000.0,-0.1014,129423000.0,61090000.0,0.0,61412000.0,61414000.0,-324000.0,1127000.0,-1451000.0,-726000.0,0.0,0.0,-725000.0,0.0,-725000.0,-0.05,-0.05,14199087.0,14155000.0,0.1,0.3207,0.027000000000000003,-0.0017,-0.004,-0.0426,5063000.0,-324000.0,-725000.0,-0.0076,-0.0038
