,0,1,2,3,4,5,6,7,8,9,10,11,12,13,14,15,16,17,18,19,20,21,22,23,24,25,26,27,28
Date,Cash and cash equivalents,Short-term investments,Cash and short-term investments,Receivables,Inventories,Total current assets,Property Plant & Equipment Net,Goodwill and Intangible Assets,Long-term investments,Tax assets,Total non-current assets,Total assets,Payables,Short-term debt,Total current liabilities,Long-term debt,Total debt,Deferred revenue,Tax Liabilities,Deposit Liabilities,Total non-current liabilities,Total liabilities,Other comprehensive income,Retained earnings (deficit),Total shareholders equity,Investments,Net Debt,Other Assets,Other Liabilities
2019-01-31,738000.0,0.0,738000.0,13253000.0,47289000.0,63111000.0,41920000.0,0.0,2098000.0,9598000.0,60002000.0,123113000.0,17760000.0,5504000.0,32125000.0,15910000.0,21414000.0,0.0,38000.0,0.0,33961000.0,66086000.0,118106000.0,-52192000.0,57027000.0,2098000.0,20676000.0,0.0,0.0
2018-01-31,534000.0,0.0,534000.0,11385000.0,42057000.0,55713000.0,42442000.0,0.0,2092000.0,10093000.0,60910000.0,116623000.0,14106000.0,4681000.0,27723000.0,12000000.0,16681000.0,0.0,38000.0,0.0,30188000.0,57911000.0,117465000.0,-49648000.0,58712000.0,2092000.0,16147000.0,0.0,0.0
2017-01-31,788000.0,0.0,788000.0,9915000.0,35689000.0,48493000.0,34325000.0,0.0,2231000.0,17008000.0,59694000.0,108187000.0,12388000.0,68000.0,21585000.0,4943000.0,5011000.0,0.0,29000.0,0.0,27248000.0,48833000.0,116976000.0,-46380000.0,59354000.0,2231000.0,4223000.0,0.0,0.0
2016-01-31,815000.0,0.0,815000.0,9929000.0,34603000.0,46772000.0,34820000.0,0.0,2555000.0,703000.0,42663000.0,89435000.0,12982000.0,663000.0,22778000.0,6097000.0,6760000.0,0.0,31000.0,0.0,33344000.0,56122000.0,116633000.0,-69140000.0,33313000.0,2555000.0,5945000.0,0.0,0.0
2015-01-31,470000.0,0.0,470000.0,10614000.0,26678000.0,38971000.0,35221000.0,0.0,2924000.0,624000.0,42840000.0,81811000.0,9901000.0,3366000.0,21405000.0,6153000.0,9519000.0,0.0,36000.0,0.0,37833000.0,59238000.0,116348000.0,-73690000.0,22573000.0,2924000.0,9049000.0,0.0,0.0
2014-01-31,1051000.0,0.0,1051000.0,8468000.0,27780000.0,39639000.0,36305000.0,0.0,3076000.0,611000.0,43705000.0,83344000.0,12355000.0,2248000.0,22656000.0,6000000.0,8248000.0,0.0,52000.0,0.0,33083000.0,55739000.0,115978000.0,-74540000.0,27605000.0,3076000.0,7197000.0,0.0,0.0
2013-01-31,853000.0,0.0,853000.0,8760000.0,25317000.0,36962000.0,36882000.0,0.0,3069000.0,1484000.0,45201000.0,82163000.0,11864000.0,4053000.0,24436000.0,0.0,4053000.0,0.0,106000.0,0.0,30707000.0,55143000.0,115670000.0,-72810000.0,27020000.0,3069000.0,3200000.0,0.0,0.0
2012-01-31,0.0,0.0,0.0,0.0,0.0,0.0,0.0,0.0,0.0,0.0,0.0,0.0,0.0,0.0,0.0,0.0,0.0,0.0,0.0,0.0,0.0,0.0,0.0,0.0,0.0,0.0,0.0,0.0,0.0
2011-01-31,1528000.0,0.0,1528000.0,10630000.0,35371000.0,49515000.0,42061000.0,0.0,0.0,2972000.0,51073000.0,100588000.0,9536000.0,12000.0,20017000.0,6519000.0,6531000.0,0.0,2120000.0,0.0,30169000.0,50186000.0,-9742000.0,-54465000.0,50402000.0,0.0,5003000.0,1986000.0,10469000.0
2010-01-31,1045000.0,0.0,1045000.0,14268000.0,43589000.0,61312000.0,44434000.0,0.0,0.0,11324000.0,61120000.0,122432000.0,11641000.0,2372000.0,22926000.0,6912000.0,9284000.0,0.0,1120000.0,0.0,30236000.0,53162000.0,-9571000.0,-35453000.0,69270000.0,0.0,8239000.0,2410000.0,8913000.0
