,0,1,2,3,4,5,6,7,8,9,10,11,12,13,14,15,16,17,18,19,20,21,22,23,24,25,26,27,28,29,30
Date,Revenue,Revenue Growth,Cost of Revenue,Gross Profit,R&D Expenses,SG&A Expense,Operating Expenses,Operating Income,Interest Expense,Earnings before Tax,Income Tax Expense,Net Income - Non-Controlling int,Net Income - Discontinued ops,Net Income,Preferred Dividends,Net Income Com,EPS,EPS Diluted,Weighted Average Shs Out,Weighted Average Shs Out (Dil),Dividend per Share,Gross Margin,EBITDA Margin,EBIT Margin,Profit Margin,Free Cash Flow margin,EBITDA,EBIT,Consolidated Income,Earnings Before Tax Margin,Net Profit Margin
2018-10-28,1039170000.0,-0.129991058541,885492000.0,153678000.0,0.0,173337000.0,182085000.0,-28407000.0,2765000.0,-31727000.0,958000.0,0.0,0.0,-32685000.0,0.0,-32685000.0,-1.55,-1.55,,21051000.0,0.0,0.1479,-0.021,-0.0279,-0.031,-0.0087,-21753000.0,-28962000.0,-32685000.0,-0.0305,-0.0315
2017-10-29,1194436000.0,-0.105121794617,1007041000.0,187395000.0,0.0,197130000.0,200203000.0,-12808000.0,3790000.0,30520000.0,3388000.0,0.0,1693000.0,27132000.0,0.0,27132000.0,1.3,1.29,,20942000.0,0.0,0.1569,0.035,0.0287,0.023,-0.0037,42335000.0,34310000.0,27132000.0,0.0256,0.0227
2016-10-30,1334747000.0,-0.10832408642699999,1132253000.0,202494000.0,0.0,203930000.0,210046000.0,-7552000.0,3305000.0,-12395000.0,2175000.0,0.0,0.0,-14570000.0,0.0,-14570000.0,-0.7,-0.7,,20831000.0,0.0,0.1517,-0.002,-0.0068,-0.011000000000000001,-0.0187,-3121000.0,-9090000.0,-14570000.0,-0.0093,-0.0109
2015-11-01,1496897000.0,-0.124635970873,1268363000.0,228534000.0,0.0,231033000.0,241294000.0,-12760000.0,3244000.0,-19974000.0,4646000.0,0.0,4834000.0,-24620000.0,0.0,-24620000.0,-1.18,-1.18,,20816000.0,0.0,0.1527,-0.006999999999999999,-0.0112,-0.016,0.0235,-9919000.0,-16730000.0,-24620000.0,-0.0133,-0.0164
2014-11-02,1710028000.0,-0.152390714716,1450448000.0,259580000.0,0.0,249026000.0,254794000.0,4786000.0,3530000.0,-13762000.0,5226000.0,0.0,15601000.0,-18988000.0,0.0,-18988000.0,-0.91,-0.91,,20863000.0,0.0,0.1518,-0.001,-0.006,-0.011000000000000001,0.0189,-909000.0,-10232000.0,-18988000.0,-0.008,-0.0111
2013-11-03,2017472000.0,-0.06008810835390001,1721685000.0,295787000.0,0.0,277430000.0,303039000.0,-7252000.0,3871000.0,-27953000.0,2922000.0,0.0,18132000.0,-30875000.0,0.0,-30875000.0,-1.48,-1.48,,20826000.0,0.0,0.1466,-0.006,-0.0119,-0.015,-0.0105,-12913000.0,-24082000.0,-30875000.0,-0.0139,-0.0153
2012-10-28,2146448000.0,-0.040954663066,1827167000.0,319281000.0,0.0,291288000.0,330299000.0,-11018000.0,3664000.0,-11891000.0,1712000.0,0.0,-2432000.0,-13603000.0,0.0,-13603000.0,-0.65,-0.65,,20813000.0,0.0,0.1487,0.002,-0.0038,-0.006,-0.0137,3592000.0,-8227000.0,-13603000.0,-0.0055,-0.0063
2011-10-30,2238109000.0,0.14398654271199998,1864922000.0,373187000.0,0.0,302882000.0,353422000.0,19765000.0,3576000.0,15281000.0,-348000.0,0.0,0.0,15629000.0,0.0,15629000.0,0.75,0.75,,20813000.0,0.0,0.1667,0.017,0.0084,0.006999999999999999,-0.019,38592000.0,18857000.0,15629000.0,0.0068,0.006999999999999999
2010-10-31,1956412000.0,-0.00386810854736,1657830000.0,298582000.0,0.0,294564000.0,328305000.0,-29723000.0,2633000.0,-33761000.0,62614000.0,0.0,0.0,-96375000.0,0.0,-96375000.0,-4.63,-4.63,,20812000.0,0.0,0.1526,-0.004,-0.0159,-0.049,-0.0183,-7435000.0,-31128000.0,-96375000.0,-0.0173,-0.0493
2009-11-01,1964009000.0,-0.2795,1688751000.0,275258000.0,0.0,288404000.0,301502000.0,-26244000.0,4006000.0,-29737000.0,-3493000.0,0.0,0.0,-26244000.0,0.0,-26244000.0,-1.26,-1.26,,20833000.0,0.0,0.1402,0.001,-0.0131,-0.013000000000000001,0.0165,1871000.0,-25731000.0,-26244000.0,-0.0151,-0.0134
