,0,1,2,3,4,5,6,7,8,9,10,11,12,13,14
Date,Depreciation & Amortization,Stock-based compensation,Operating Cash Flow,Capital Expenditure,Acquisitions and disposals,Investment purchases and sales,Investing Cash flow,Issuance (repayment) of debt,Issuance (buybacks) of shares,Dividend payments,Financing Cash Flow,Effect of forex changes on cash,Net cash flow / Change in cash,Free Cash Flow,Net Cash/Marketcap
2018-10-28,7209000.0,1270000.0,-5496000.0,-3546000.0,0.0,312000.0,-3234000.0,-1469000.0,0.0,0.0,-1740000.0,-1844000.0,-12314000.0,-9042000.0,-0.1217
2017-10-29,8025000.0,2755000.0,4569000.0,-8940000.0,81102000.0,504000.0,72666000.0,-48240000.0,2000.0,0.0,-48290000.0,1746000.0,30691000.0,-4371000.0,0.0907
2016-10-30,5969000.0,1828000.0,-7611000.0,-17390000.0,35202000.0,1028000.0,18840000.0,-11338000.0,74000.0,0.0,-11386000.0,-3645000.0,-3802000.0,-25001000.0,-0.5606
2015-11-01,6811000.0,2906000.0,43324000.0,-8087000.0,0.0,659000.0,-7428000.0,-30764000.0,-3731000.0,0.0,-24059000.0,-924000.0,3676000.0,35237000.0,-0.4656
2014-11-02,9323000.0,1198000.0,34422000.0,-2181000.0,0.0,900000.0,-1281000.0,-39709000.0,0.0,0.0,-18360000.0,-386000.0,-3118000.0,32241000.0,-0.564
2013-11-03,11169000.0,416000.0,-12270000.0,-8915000.0,0.0,357000.0,-8558000.0,21247000.0,0.0,0.0,25043000.0,1376000.0,-13972000.0,-21185000.0,-0.6398
2012-10-28,11819000.0,127000.0,-25222000.0,-4188000.0,-1822000.0,224000.0,-5786000.0,31746000.0,0.0,0.0,30355000.0,-358000.0,-18082000.0,-29410000.0,-0.4163
2011-10-30,19735000.0,460000.0,-28352000.0,-14122000.0,0.0,-87000.0,-14209000.0,39411000.0,0.0,0.0,35650000.0,394000.0,-6517000.0,-42474000.0,0.0099
2010-10-31,23693000.0,1044000.0,-23366000.0,-12456000.0,0.0,81000.0,-12375000.0,-1988000.0,16000.0,0.0,-32401000.0,461000.0,-67681000.0,-35822000.0,0.2612
2009-11-01,27602000.0,680000.0,48459000.0,-16114000.0,0.0,-208000.0,-16322000.0,-34573000.0,-226000.0,0.0,-34799000.0,498000.0,-2164000.0,32345000.0,0.4669
