,0,1,2,3,4,5,6,7,8,9,10,11,12,13,14
Date,Depreciation & Amortization,Stock-based compensation,Operating Cash Flow,Capital Expenditure,Acquisitions and disposals,Investment purchases and sales,Investing Cash flow,Issuance (repayment) of debt,Issuance (buybacks) of shares,Dividend payments,Financing Cash Flow,Effect of forex changes on cash,Net cash flow / Change in cash,Free Cash Flow,Net Cash/Marketcap
2019-02-28,,,55000000.0,,,,1000000.0,,,,-56000000.0,,-541000000000.0,,
2018-02-28,,,52000000.0,,,,2000000.0,,,,-52000000.0,,279000000000.0,,
2017-02-28,,,37000000.0,,,,,,,,-38000000.0,,263000000000.0,,
2016-02-29,,,44000000.0,,,,,,,,-46000000.0,,0.0,,
