,0,1,2,3,4,5,6,7,8,9,10,11,12,13,14,15,16,17,18,19,20,21,22,23,24,25,26,27,28
Date,Cash and cash equivalents,Short-term investments,Cash and short-term investments,Receivables,Inventories,Total current assets,Property Plant & Equipment Net,Goodwill and Intangible Assets,Long-term investments,Tax assets,Total non-current assets,Total assets,Payables,Short-term debt,Total current liabilities,Long-term debt,Total debt,Deferred revenue,Tax Liabilities,Deposit Liabilities,Total non-current liabilities,Total liabilities,Other comprehensive income,Retained earnings (deficit),Total shareholders equity,Investments,Net Debt,Other Assets,Other Liabilities
2019-12-31,8377000.0,267261000.0,275638000.0,0.0,0.0,283501000.0,598000.0,0.0,5900000.0,171000.0,755000.0,284256000.0,2431000.0,302000.0,6777000.0,360000.0,662000.0,0.0,0.0,0.0,360000.0,7137000.0,405803000.0,-128697000.0,277119000.0,273161000.0,-7715000.0,0.0,0.0
2018-12-31,24779000.0,276741000.0,301520000.0,0.0,0.0,302133000.0,0.0,0.0,10000000.0,0.0,179000.0,302312000.0,959000.0,0.0,4550000.0,12000.0,12000.0,0.0,0.0,0.0,12000.0,4562000.0,401090000.0,-102918000.0,297750000.0,286741000.0,-24767000.0,0.0,0.0
2017-12-31,8988478.0,11587478.0,20575956.0,0.0,0.0,21851798.0,0.0,0.0,0.0,225692.0,269613.0,22121411.0,1529935.0,3450540.0,8656575.0,4870097.0,8320637.0,0.0,0.0,0.0,5095789.0,8656575.0,94339179.0,-80854932.0,13464836.0,11587478.0,-667841.0,0.0,0.0
2016-12-31,3075502.0,10075058.0,13150560.0,0.0,0.0,13974829.0,0.0,0.0,0.0,183870.0,560879.0,14535708.0,1203888.0,3269582.0,6476534.0,16307.0,3285889.0,0.0,0.0,0.0,16307.0,6492841.0,68326818.0,-60277267.0,8042867.0,10075058.0,210387.0,0.0,0.0
2015-12-31,768550.0,13335499.0,14104049.0,0.0,0.0,15201648.0,0.0,0.0,0.0,0.0,237455.0,15439103.0,592414.0,0.0,1976812.0,2151540.0,2151540.0,0.0,0.0,0.0,4737293.0,6714105.0,54277716.0,-45545445.0,8724998.0,13335499.0,1382990.0,0.0,0.0
2014-12-31,756632.0,0.0,756632.0,0.0,0.0,773684.0,0.0,0.0,0.0,0.0,2269450.0,3043134.0,1830724.0,304274.0,22517082.0,1264114.0,1568388.0,0.0,0.0,0.0,2654583.0,25171665.0,0.0,-22141457.0,-22128531.0,0.0,811756.0,17052.0,20382084.0
