,0,1,2,3,4,5,6,7,8,9,10,11,12,13,14
Date,Depreciation & Amortization,Stock-based compensation,Operating Cash Flow,Capital Expenditure,Acquisitions and disposals,Investment purchases and sales,Investing Cash flow,Issuance (repayment) of debt,Issuance (buybacks) of shares,Dividend payments,Financing Cash Flow,Effect of forex changes on cash,Net cash flow / Change in cash,Free Cash Flow,Net Cash/Marketcap
2019-12-31,1023000.0,3743000.0,-24752000.0,0.0,-0.0,-362406000.0,7463000.0,-0.0,-8377000.0,-0.0,887000.0,0.0,-16402000.0,-24752000.0,0.0
2018-12-31,1263000.0,2608000.0,-18755000.0,0.0,-0.0,-348204000.0,-265729000.0,-3833000.0,271828000.0,-0.0,300275000.0,0.0,15791000.0,-18755000.0,0.0
2017-12-31,2942265.0,1451465.0,-14757767.0,0.0,-0.0,-22525707.0,-1729707.0,-77261.0,13363412.0,-0.0,22400450.0,0.0,5912976.0,-14757767.0,0.0
2016-12-31,2080524.0,1794327.0,-11071263.0,0.0,-0.0,-16922464.0,3029765.0,-94861.0,11548289.0,-0.0,10348450.0,0.0,2306952.0,-11071263.0,0.0
2015-12-31,1025401.0,2601448.0,-8731494.0,0.0,-0.0,-16033080.0,-13470042.0,-0.0,25392462.0,-0.0,22214229.0,0.0,12693.0,-8731494.0,0.0
2014-12-31,0.0,6258.0,-1591423.0,0.0,0.0,0.0,0.0,2500000.0,-2.0,0.0,2167661.0,0.0,576238.0,-1591423.0,-0.0181
