,0,1,2,3,4,5,6,7,8,9,10,11,12,13,14,15,16,17,18,19,20,21,22,23,24,25,26,27,28,29,30
Date,Revenue,Revenue Growth,Cost of Revenue,Gross Profit,R&D Expenses,SG&A Expense,Operating Expenses,Operating Income,Interest Expense,Earnings before Tax,Income Tax Expense,Net Income - Non-Controlling int,Net Income - Discontinued ops,Net Income,Preferred Dividends,Net Income Com,EPS,EPS Diluted,Weighted Average Shs Out,Weighted Average Shs Out (Dil),Dividend per Share,Gross Margin,EBITDA Margin,EBIT Margin,Profit Margin,Free Cash Flow margin,EBITDA,EBIT,Consolidated Income,Earnings Before Tax Margin,Net Profit Margin
2019-12-28,2766976000.0,0.00356600888456,2074480000.0,692496000.0,13900000.0,454776000.0,468676000.0,237720000.0,40153000.0,209673000.0,50207000.0,0.0,0.0,153769000.0,0.0,153769000.0,7.1,7.06,21659000.0,21769000.0,1.49947172585,0.250271776842,0.115643937642,0.0859132858398,0.055572943169700004,0.0759634344497,319984000.0,237720000.0,153769000.0,0.075776949276,0.055572943169700004
2018-12-29,2757144000.0,0.00407033296467,2098864000.0,658280000.0,11500000.0,440220000.0,451720000.0,202280000.0,44237000.0,143441000.0,43135000.0,0.0,0.0,94351000.0,0.0,94351000.0,4.23,4.2,22306000.0,22446000.0,1.50253942796,0.23875430518000004,0.103406641075,0.0733657726981,0.0342205557635,0.0293865681299,285107000.0,202280000.0,94351000.0,0.05202521159580001,0.0342205557635
2017-12-30,2745967000.0,0.08894520945589998,2064199000.0,681768000.0,11600000.0,415336000.0,426936000.0,266432000.0,44645000.0,228464000.0,106145000.0,0.0,0.0,116240000.0,0.0,116240000.0,5.16,5.11,22520000.0,22738000.0,1.48922508576,0.24827974990200002,0.127965485383,0.0970266576401,0.04233117149619999,0.0329392159483,351389000.0,266432000.0,116240000.0,0.08319983452100001,0.04233117149619999
2016-12-31,2521676000.0,-0.037132807214,1865433000.0,656243000.0,8300000.0,412739000.0,421039000.0,243504000.0,44409000.0,220454000.0,42063000.0,0.0,0.0,173232000.0,0.0,173232000.0,7.68,7.63,22562000.0,22709000.0,1.49953762825,0.260240808097,0.129247770134,0.09656434847300001,0.0686971680739,0.0639447732381,325921000.0,243504000.0,173232000.0,0.08742360239779999,0.0686971680739
2015-12-26,2618924000.0,-0.161446017682,1997891000.0,621033000.0,11600000.0,447368000.0,458968000.0,131695000.0,44621000.0,93007000.0,47427000.0,0.0,0.0,40117000.0,0.0,40117000.0,1.72,1.71,23288000.0,23405000.0,1.51066011536,0.23713288358100001,0.0850879979717,0.0502859189499,0.015318123015399998,0.0866000693415,222839000.0,131695000.0,40117000.0,0.0355134398707,0.015318123015399998
2014-12-27,3123143000.0,-0.0547991638549,2315026000.0,808117000.0,13900000.0,450401000.0,464301000.0,357716000.0,36790000.0,284183000.0,94894000.0,0.0,0.0,183976000.0,0.0,183976000.0,7.15,7.09,25719000.0,25932000.0,1.25107974703,0.25875120031300003,0.143139139002,0.11453718257500001,0.0589073250889,0.0323625911462,447044000.0,357716000.0,183976000.0,0.09099263146130002,0.0589073250889
2013-12-28,3304211000.0,0.0906638992507,2358983000.0,945228000.0,10200000.0,472159000.0,482359000.0,473069000.0,32502000.0,181633000.0,157781000.0,0.0,0.0,278489000.0,0.0,278489000.0,10.45,10.35,26641000.0,26899000.0,0.944793486747,0.286067687566,0.166607096218,0.143171546853,0.08428305577339999,0.0876726698144,550505000.0,473069000.0,278489000.0,0.0549701577775,0.08428305577339999
2012-12-29,3029541000.0,0.138291852653,2227085000.0,802456000.0,7100000.0,420160000.0,427260000.0,382296000.0,31625000.0,359290000.0,126502000.0,0.0,0.0,234072000.0,0.0,234072000.0,8.84,8.75,26471000.0,26764000.0,0.8040651621580001,0.264877088641,0.149367181365,0.126189412852,0.0772631893742,0.0330158925065,452514000.0,382296000.0,234072000.0,0.11859552321599999,0.0772631893742
2011-12-31,2661480000.0,0.347240325891,1994670000.0,666810000.0,6200000.0,403500000.0,409700000.0,263310000.0,36175000.0,233757000.0,4590000.0,0.0,0.0,228308000.0,0.0,228308000.0,8.67,8.6,26329000.0,26550000.0,0.686516007533,0.250541052347,0.126948164179,0.0989336759998,0.0857823466643,0.0250244225018,337870000.0,263310000.0,228308000.0,0.0878297037738,0.0857823466643
2010-12-25,1975505000.0,0.105733736856,1455931000.0,519574000.0,0.0,341161000.0,341161000.0,178413000.0,30947000.0,152982000.0,55008000.0,0.0,0.0,94379000.0,0.0,94379000.0,3.62,3.57,0.0,0.0,0.0,0.263008192842,0.12051399515599999,0.0903126036127,0.04777461965419999,0.0587839565073,238076000.0,178413000.0,94379000.0,0.0774394395357,0.04777461965419999
2009-12-26,1786601000.0,-0.0633,1254587000.0,532014000.0,0.0,294020000.0,294020000.0,237994000.0,15760000.0,223456000.0,72894000.0,3379000.0,0.0,150562000.0,0.0,150562000.0,5.8,5.73,26276932.0,26276932.0,0.58,0.2978,0.159,0.1339,0.084,0.1709,283964000.0,239216000.0,153941000.0,0.1251,0.0843
