,0,1,2,3,4,5,6,7,8,9,10,11,12,13,14,15,16,17,18,19,20,21,22,23,24,25,26,27,28,29,30
Date,Revenue,Revenue Growth,Cost of Revenue,Gross Profit,R&D Expenses,SG&A Expense,Operating Expenses,Operating Income,Interest Expense,Earnings before Tax,Income Tax Expense,Net Income - Non-Controlling int,Net Income - Discontinued ops,Net Income,Preferred Dividends,Net Income Com,EPS,EPS Diluted,Weighted Average Shs Out,Weighted Average Shs Out (Dil),Dividend per Share,Gross Margin,EBITDA Margin,EBIT Margin,Profit Margin,Free Cash Flow margin,EBITDA,EBIT,Consolidated Income,Earnings Before Tax Margin,Net Profit Margin
2019-02-28,64368000.0,-0.0601,,49567000.0,,,,25584000.0,,25584000.0,,,,,,,0.38,0.38,67000000.0,,,0.7701,,,,,,,,0.3975,
2018-02-28,68487000.0,0.0084,,57127000.0,,,,32097000.0,,32097000.0,,,,,,,0.48,0.48,67000000.0,,,0.8341,,,,,,,,0.4687,
2017-02-28,67916000.0,-0.0421,,58398000.0,,,,5031000.0,,5031000.0,,,,,,,0.07,0.07,67000000.0,,,0.8599,,,,,,,,0.0741,
2016-02-29,70899000.0,,,64679000.0,,,,52469000.0,,52469000.0,,,,,,,0.78,0.78,67000000.0,,,0.9123,,,,,,,,0.7401,
