,0,1,2,3,4,5,6,7,8,9,10,11,12,13,14
Date,Depreciation & Amortization,Stock-based compensation,Operating Cash Flow,Capital Expenditure,Acquisitions and disposals,Investment purchases and sales,Investing Cash flow,Issuance (repayment) of debt,Issuance (buybacks) of shares,Dividend payments,Financing Cash Flow,Effect of forex changes on cash,Net cash flow / Change in cash,Free Cash Flow,Net Cash/Marketcap
2019-12-31,6004000.0,13458000.0,45947000.0,1019000.0,-0.0,-394517000.0,-68309000.0,-0.0,-45072000.0,-0.0,6264000.0,-1000.0,-16099000.0,44928000.0,0.0
2018-12-31,5148000.0,11666000.0,29986000.0,25368000.0,-0.0,-282395000.0,-109660000.0,-0.0,39865000.0,-0.0,107126000.0,-38000.0,27414000.0,4618000.0,0.0
2017-12-31,3410000.0,10465000.0,-1983000.0,1664000.0,-0.0,-148135000.0,-10107000.0,-0.0,-33627000.0,-0.0,5251000.0,40000.0,-6799000.0,-3647000.0,0.0
2016-12-31,11806000.0,8543000.0,-8103000.0,1407000.0,-0.0,-165405000.0,-10071000.0,-0.0,-40426000.0,-0.0,7751000.0,6000.0,-10417000.0,-9510000.0,0.0
2015-12-31,12877000.0,7961000.0,12449000.0,2527000.0,-0.0,-193111000.0,-26598000.0,-0.0,-50843000.0,-0.0,4091000.0,0.0,-10058000.0,9922000.0,0.0
2014-12-31,2610000.0,5878000.0,-81554000.0,8769000.0,-0.0,-93343000.0,-12037000.0,-0.0,1412000.0,-0.0,89728000.0,0.0,-3863000.0,-90323000.0,0.0
2013-12-31,1772000.0,4604000.0,-39592000.0,176000.0,-0.0,-65598000.0,-34275000.0,-0.0,-16259000.0,-0.0,49859000.0,0.0,-24008000.0,-39768000.0,0.0
2012-12-31,1568000.0,4094000.0,-44917000.0,2017000.0,-0.0,-60866000.0,45754000.0,-0.0,-88772000.0,-0.0,12000.0,0.0,849000.0,-46934000.0,0.0
2011-12-31,0.0,0.0,0.0,0.0,-0.0,0.0,0.0,-0.0,0.0,-0.0,0.0,0.0,0.0,0.0,0.0
2010-12-31,1831000.0,2090000.0,-10898000.0,66000.0,0.0,-155688000.0,-155622000.0,0.0,892000.0,0.0,3784000.0,0.0,-162736000.0,-10832000.0,0.7482
2009-12-31,1425000.0,11230000.0,169336000.0,-12000000.0,0.0,7261000.0,-4739000.0,0.0,1619000.0,0.0,1619000.0,0.0,166216000.0,157336000.0,0.6723
