,0,1,2,3,4,5,6,7,8,9,10,11,12,13,14
Date,Depreciation & Amortization,Stock-based compensation,Operating Cash Flow,Capital Expenditure,Acquisitions and disposals,Investment purchases and sales,Investing Cash flow,Issuance (repayment) of debt,Issuance (buybacks) of shares,Dividend payments,Financing Cash Flow,Effect of forex changes on cash,Net cash flow / Change in cash,Free Cash Flow,Net Cash/Marketcap
2018-12-31,91838784.3705,8616208.3936,102021128.7988,-60751230.1013,0.0,20493632.4168,-44116642.547,9979739.508,62952.2431,0.0,-2880028.9436,12349204.0521,67373661.3603,41269898.6975,-0.0174
2017-12-31,100831620.3144,7123488.5127,73639963.7243,-58990175.3325,-3786729.1415,-65465538.0895,-125953295.0423,-35930925.0302,-20557134.2201,0.0,-92601420.7981,-21205864.5707,-166120616.6868,14649788.3918,-0.6251
2016-12-31,95618286.5371,17095608.3513,8289272.8582,-82714182.8654,-8101367.8906,-30274874.0101,-121096760.2592,-41419582.4334,355869258.4593,0.0,274857163.4269,23079769.6184,185129445.6443,-74424910.0072,-0.6251
2015-12-31,90306886.4582,29275458.3269,33405330.4576,-161850100.1387,0.0,112147897.0883,-57022030.5038,-96947311.6623,279747650.5931,0.0,171781235.5569,12155754.1211,160320289.6318,-128444769.6811,-0.6251
2014-12-31,65653051.34,37735711.9793,52529060.381000005,-126553438.8118,-227101549.887,-2108007.7494,-365159347.7559,212921214.0781,-34014207.2974,0.0,181099773.9748,41814.6593,-131488698.7407,-74024378.4307,-0.6251
2013-12-31,33001813.3861,11171941.9716,10638147.0491,-69054566.4359,-10351632.0475,-163115067.5898,-248485822.6179,313463072.8652,79121167.1612,0.0,408433399.2746,-1347016.1556,169238707.5503,-58416419.3867,-0.6251
2012-12-31,20552116.7415,10845413.7267,27890153.9448,-71604073.1238,-12821039.1276,97228191.1482,-28170301.4753,49364977.5497,529185.3752,0.0,3840923.6689999998,-54522.1296,3506254.0089999996,-43713919.179,-0.6251
2011-12-31,14114371.8274,6655932.7411,26353902.2843,-39365006.3452,-17091370.5584,-144567100.2538,-201150697.9695,10310913.7056,182848984.7716,0.0,229052506.3452,-2362785.5330000003,51892925.1269,-13011104.0609,-0.6251
2010-12-31,5077575.7576,42103181.8182,12329090.9091,-4834242.4242,4851515.1515,0.0,-93333.3333,5303030.303,2575.7576,0.0,-10530000.0,0.0,1705757.5758,7494848.4848,-0.6251
2009-12-31,4249450.7104,0.0,404277.1349,-5036179.874,0.0,0.0,-5104731.2143,0.0,0.0,0.0,4211220.1553,0.0,-489233.9241,-4631902.7391,-0.6251
