,0,1,2,3,4,5,6,7,8,9,10,11,12,13,14
Date,Depreciation & Amortization,Stock-based compensation,Operating Cash Flow,Capital Expenditure,Acquisitions and disposals,Investment purchases and sales,Investing Cash flow,Issuance (repayment) of debt,Issuance (buybacks) of shares,Dividend payments,Financing Cash Flow,Effect of forex changes on cash,Net cash flow / Change in cash,Free Cash Flow,Net Cash/Marketcap
2017-12-31,-7541000.0,40111000.0,389734000.0,0.0,-183923000.0,-26568000.0,-971424000.0,-0.0,-26568000.0,-123859000.0,1228167000.0,12244000.0,658721000.0,389734000.0,0.0
2017-12,8000000.0,40000000.0,,,,-3850000000.0,-971000000.0,,,,1228000000.0,12000000.0,659000000.0,,
2016-12-31,-12187000.0,42907000.0,410203000.0,0.0,-0.0,-212675000.0,-991793000.0,-0.0,-212675000.0,-115625000.0,301089000.0,-22632000.0,-303133000.0,410203000.0,0.0
2016-12,6000000.0,43000000.0,,,,-3075000000.0,-992000000.0,,,,301000000.0,-23000000.0,-303000000.0,,
2015-12-31,-17301000.0,38341000.0,334506000.0,0.0,-0.0,-260430000.0,-370834000.0,-0.0,-260430000.0,-112991000.0,226641000.0,-17605000.0,172708000.0,334506000.0,0.0
2015-12,6000000.0,38000000.0,,,,-4225000000.0,-371000000.0,,,,227000000.0,-18000000.0,173000000.0,,
2014-12-31,-14461000.0,33073000.0,241781000.0,0.0,-643545000.0,-510952000.0,121582000.0,-617068000.0,-510952000.0,-117043000.0,-489507000.0,-30764000.0,-156908000.0,241781000.0,0.0
2014-12,5000000.0,33000000.0,,,,-4376000000.0,122000000.0,,,,-490000000.0,-31000000.0,-157000000.0,,
2013-12-31,4270000.0,27630000.0,265274000.0,0.0,-0.0,-513504000.0,-164259000.0,-0.0,-513504000.0,-360071000.0,-264048000.0,-6364000.0,-163033000.0,265274000.0,0.0
2013-12,4000000.0,28000000.0,,,,-5407000000.0,-158000000.0,,,,-264000000.0,-6000000.0,-163000000.0,,
2013-03-31,0.0,0.0,0.0,0.0,-0.0,0.0,0.0,-0.0,0.0,-0.0,0.0,0.0,0.0,0.0,0.0
2013-03-25,0.0,0.0,0.0,0.0,-0.0,0.0,0.0,-0.0,0.0,-0.0,0.0,0.0,0.0,0.0,0.0
2012-12-31,10267000.0,26709000.0,562565000.0,0.0,17196000.0,-259962000.0,-251375000.0,-0.0,-259962000.0,-110037000.0,75345000.0,17540000.0,386535000.0,562565000.0,0.0
2011-12-31,4270000.0,34296000.0,545140000.0,0.0,-0.0,-5995000.0,-401717000.0,-0.0,-5995000.0,-107691000.0,68681000.0,-8883000.0,212104000.0,545140000.0,0.0
2010-12-31,0.0,0.0,0.0,0.0,-0.0,0.0,0.0,-0.0,0.0,-0.0,0.0,0.0,0.0,0.0,0.0
