,0,1,2,3,4,5,6,7,8,9,10,11,12,13,14,15,16,17,18,19,20,21,22,23,24,25,26,27,28
Date,Cash and cash equivalents,Short-term investments,Cash and short-term investments,Receivables,Inventories,Total current assets,Property Plant & Equipment Net,Goodwill and Intangible Assets,Long-term investments,Tax assets,Total non-current assets,Total assets,Payables,Short-term debt,Total current liabilities,Long-term debt,Total debt,Deferred revenue,Tax Liabilities,Deposit Liabilities,Total non-current liabilities,Total liabilities,Other comprehensive income,Retained earnings (deficit),Total shareholders equity,Investments,Net Debt,Other Assets,Other Liabilities
2019-12-31,9241000.0,52776000.0,62017000.0,0.0,0.0,64983000.0,2090000.0,0.0,0.0,18000.0,3441000.0,68424000.0,1185000.0,130000.0,3351000.0,58000.0,188000.0,0.0,1500000.0,0.0,76000.0,3409000.0,126184000.0,-61192000.0,65015000.0,52776000.0,-9053000.0,0.0,0.0
2018-12-31,10271000.0,79538000.0,89809000.0,0.0,0.0,91152000.0,255000.0,0.0,0.0,36000.0,754000.0,91906000.0,922000.0,38000.0,2477000.0,0.0,38000.0,0.0,100000.0,0.0,36000.0,2477000.0,122526000.0,-33083000.0,89429000.0,79538000.0,-10233000.0,0.0,0.0
2017-12-31,8663000.0,0.0,8663000.0,0.0,0.0,9083000.0,0.0,0.0,0.0,0.0,0.0,9083000.0,167000.0,0.0,616000.0,0.0,0.0,0.0,0.0,0.0,0.0,616000.0,0.0,-12435000.0,-7041000.0,0.0,-8663000.0,420000.0,449000.0
2016-12-31,527000.0,0.0,527000.0,0.0,0.0,544000.0,0.0,0.0,0.0,0.0,0.0,544000.0,103000.0,0.0,419000.0,0.0,0.0,0.0,0.0,0.0,0.0,419000.0,0.0,-2676000.0,-2664000.0,0.0,-527000.0,17000.0,316000.0
