,0,1,2,3,4,5,6,7,8,9,10,11,12,13,14,15,16,17,18,19,20,21,22,23,24,25,26,27,28,29,30
Date,Revenue,Revenue Growth,Cost of Revenue,Gross Profit,R&D Expenses,SG&A Expense,Operating Expenses,Operating Income,Interest Expense,Earnings before Tax,Income Tax Expense,Net Income - Non-Controlling int,Net Income - Discontinued ops,Net Income,Preferred Dividends,Net Income Com,EPS,EPS Diluted,Weighted Average Shs Out,Weighted Average Shs Out (Dil),Dividend per Share,Gross Margin,EBITDA Margin,EBIT Margin,Profit Margin,Free Cash Flow margin,EBITDA,EBIT,Consolidated Income,Earnings Before Tax Margin,Net Profit Margin
2019-12-31,254190000.0,-0.059558692949699996,35144000.0,219046000.0,80764000.0,214269000.0,295033000.0,-75987000.0,0.0,-76376000.0,2388000.0,0.0,0.0,-78764000.0,0.0,-78764000.0,-2.6,-2.6,30257410.0,30257410.0,0.0,0.8617412172,-0.184952201109,-0.298937802431,-0.309862701129,-0.14192139738,-47013000.0,-75987000.0,-78764000.0,-0.300468153743,-0.309862701129
2018-12-31,270288000.0,0.243480981211,27683000.0,242605000.0,69971000.0,201769000.0,271740000.0,-29135000.0,0.0,-28165000.0,413000.0,0.0,0.0,-28578000.0,0.0,-28578000.0,-0.984737072522,-0.984737072522,29020645.0,29020645.0,0.0,0.897579618777,-0.0436349375481,-0.10779242881699999,-0.10573166400299999,0.0516560113657,-11794000.0,-29135000.0,-28578000.0,-0.10420366424000001,-0.10573166400299999
2017-12-31,217364000.0,0.321715230822,20873000.0,196491000.0,47369000.0,162719000.0,210088000.0,-13597000.0,0.0,-11235000.0,2459000.0,0.0,0.0,-13694000.0,0.0,-13694000.0,-0.5,-0.5,27467440.0,27467440.0,0.0,0.903972138901,-0.0472433337627,-0.06255405678949999,-0.0630003128393,0.0507765775381,-10269000.0,-13597000.0,-13694000.0,-0.051687491949,-0.0630003128393
2016-12-31,164456000.0,0.292791447213,15843000.0,148613000.0,36660000.0,127647000.0,164307000.0,-15694000.0,0.0,-16579000.0,1131000.0,0.0,0.0,-17710000.0,0.0,-17710000.0,-0.67,-0.67,26406312.0,26406312.0,0.0,0.9036642019750001,-0.08217395534369999,-0.09542978061,-0.107688378654,0.021416062655099998,-13514000.0,-15694000.0,-17710000.0,-0.100811159216,-0.107688378654
2015-12-31,127210000.0,0.255180171291,12019000.0,115191000.0,31792000.0,102473000.0,134265000.0,-19074000.0,0.0,-20597000.0,686000.0,0.0,0.0,-21283000.0,0.0,-21283000.0,-0.84,-0.84,25198546.0,25198546.0,0.0,0.905518434085,-0.137245499568,-0.149941042371,-0.1673060294,-0.0571102900715,-17459000.0,-19074000.0,-21283000.0,-0.16191337159000002,-0.1673060294
2014-12-31,101348000.0,0.358260962796,9911000.0,91437000.0,28086000.0,80659000.0,108745000.0,-17308000.0,0.0,-19022000.0,376000.0,0.0,0.0,-19398000.0,0.0,-19398000.0,-0.91,-0.91,21242313.0,21242313.0,0.0,0.902208233019,-0.156253700122,-0.170777913723,-0.19139992895799998,-0.09317401428739998,-15836000.0,-17308000.0,-19398000.0,-0.187689939614,-0.19139992895799998
2013-12-31,74616000.0,0.397041752481,6476000.0,68140000.0,20973000.0,53012000.0,73985000.0,-5845000.0,1274000.0,-7119000.0,356000.0,0.0,0.0,-7475000.0,0.0,-7475000.0,-1.93,-1.93,,3880761.0,0.0,0.9132,-0.068,-0.0783,-0.1,-0.0174,-5049000.0,-5845000.0,-7475000.0,-0.0954,-0.1002
2012-12-31,53410000.0,0.34266824203699997,4928000.0,48482000.0,15034000.0,35002000.0,50036000.0,-1554000.0,3045000.0,-4599000.0,247000.0,0.0,0.0,-4846000.0,0.0,-4846000.0,-1.29,-1.29,,3756761.0,0.0,0.9077,-0.02,-0.0291,-0.091,0.0152,-1089000.0,-1554000.0,-4846000.0,-0.0861,-0.0907
2011-12-31,39779000.0,,3524000.0,36255000.0,13049000.0,26609000.0,39658000.0,-3403000.0,171000.0,-3574000.0,224000.0,0.0,0.0,-3798000.0,0.0,-3798000.0,-1.097,-1.097,,3460612.0,0.0,0.9114,-0.07400000000000001,-0.0855,-0.095,0.018000000000000002,-2950000.0,-3403000.0,-3798000.0,-0.0898,-0.0955
