,0,1,2,3,4,5,6,7,8,9,10,11,12,13,14,15,16,17,18,19,20,21,22,23,24,25,26,27,28,29,30
Date,Revenue,Revenue Growth,Cost of Revenue,Gross Profit,R&D Expenses,SG&A Expense,Operating Expenses,Operating Income,Interest Expense,Earnings before Tax,Income Tax Expense,Net Income - Non-Controlling int,Net Income - Discontinued ops,Net Income,Preferred Dividends,Net Income Com,EPS,EPS Diluted,Weighted Average Shs Out,Weighted Average Shs Out (Dil),Dividend per Share,Gross Margin,EBITDA Margin,EBIT Margin,Profit Margin,Free Cash Flow margin,EBITDA,EBIT,Consolidated Income,Earnings Before Tax Margin,Net Profit Margin
2019-03-31,2068258000.0,0.297018421259,834472000.0,1233786000.0,123044000.0,458458000.0,581502000.0,-60620000.0,50010000.0,-110481000.0,-41014000.0,0.0,0.0,-67623000.0,0.0,-67623000.0,-1.13,-1.13,59942000.0,59942000.0,0.0,0.596533894708,0.12473927334000001,-0.0293096896035,-0.032695630815900004,-0.14954807379,257993000.0,-60620000.0,-67623000.0,-0.053417416976,-0.032695630815900004
2018-03-31,1594625000.0,0.022630130625999997,553677000.0,1040948000.0,168347000.0,385420000.0,553767000.0,-92187000.0,4026000.0,-105470000.0,-35217000.0,0.0,0.0,-67305000.0,0.0,-67305000.0,-1.15,-1.15,58438000.0,58438000.0,0.0,0.652785451125,0.10250999451300001,-0.057811084110699996,-0.0422074155366,-0.095947950145,163465000.0,-92187000.0,-67305000.0,-0.06614094222780001,-0.0422074155366
2017-03-31,1559337000.0,0.10011492622899999,524026000.0,1035311000.0,129647000.0,333468000.0,463115000.0,36459000.0,12083000.0,25384000.0,3617000.0,0.0,0.0,23767000.0,0.0,23767000.0,0.45,0.45,52318000.0,53396000.0,0.0,0.663943073242,0.181090424969,0.0233810908097,0.015241734147299998,-0.066306385342,282381000.0,36459000.0,23767000.0,0.016278713325,0.015241734147299998
2016-03-31,1417431000.0,0.025240590654099997,489246000.0,928185000.0,77184000.0,298345000.0,375529000.0,41119000.0,25748000.0,17597000.0,-4173000.0,0.0,0.0,21741000.0,0.0,21741000.0,0.45,0.44,48464000.0,49445000.0,0.0,0.654836108424,0.199794557901,0.0290095249786,0.0153383127644,-0.0571153022616,283195000.0,41119000.0,21741000.0,0.0124147136615,0.0153383127644
2015-04-03,1382535000.0,0.0229921374038,519483000.0,863052000.0,46670000.0,270841000.0,317511000.0,83144000.0,31448000.0,53718000.0,13827000.0,0.0,0.0,40363000.0,0.0,40363000.0,0.86,0.84,47139000.0,48285000.0,0.0,0.624253273877,0.22030328346099998,0.0601388029959,0.0291949209242,-0.0122788934819,304577000.0,83144000.0,40363000.0,0.0388547125389,0.0291949209242
2014-04-04,1351462000.0,0.20699657941,571855000.0,779607000.0,60736000.0,281533000.0,342269000.0,3299000.0,37938000.0,-34604000.0,-25947000.0,0.0,0.0,-9446000.0,0.0,-9446000.0,-0.21,-0.21,45744000.0,45744000.0,0.0,0.576861946544,0.139377207794,0.002441060126,-0.00698946770238,-0.0758326908193,188363000.0,3299000.0,-9446000.0,-0.025604863473799998,-0.00698946770238
2013-03-29,1119690000.0,1.0,484973000.0,634717000.0,35448000.0,240859000.0,276307000.0,-20362000.0,43993000.0,-90683000.0,-50054000.0,0.0,0.0,-41172000.0,0.0,-41172000.0,-0.94,-0.94,43931000.0,43931000.0,0.0,0.566868508248,0.12218471184,-0.0181853905992,-0.0367708919433,-0.0754646375336,136809000.0,-20362000.0,-41172000.0,-0.08098938098939999,-0.0367708919433
2012-03-30,0.0,0.0,0.0,0.0,0.0,0.0,0.0,0.0,0.0,0.0,0.0,0.0,0.0,0.0,0.0,0.0,0.0,0.0,0.0,0.0,0.0,0.0,0.0,0.0,0.0,0.0,0.0,0.0,0.0,0.0,0.0
2011-04-01,0.0,-1.0,0.0,0.0,0.0,0.0,0.0,0.0,0.0,0.0,0.0,0.0,0.0,0.0,0.0,0.0,0.0,0.0,0.0,0.0,0.0,0.0,0.0,0.0,0.0,0.0,0.0,0.0,0.0,0.0,0.0
2010-04-02,688080000.0,0.0954,475356000.0,212724000.0,27325000.0,132895000.0,169714000.0,43010000.0,7354000.0,36574000.0,5438000.0,-297000.0,0.0,31136000.0,0.0,31136000.0,0.94,0.89,36316906.0,33020000.0,0.0,0.3092,0.132,0.0638,0.045,-0.032,90883000.0,43928000.0,30839000.0,0.0532,0.0453
