,0,1,2,3,4,5,6,7,8,9,10,11,12,13,14,15,16,17,18,19,20,21,22,23,24,25,26,27,28,29,30
Date,Revenue,Revenue Growth,Cost of Revenue,Gross Profit,R&D Expenses,SG&A Expense,Operating Expenses,Operating Income,Interest Expense,Earnings before Tax,Income Tax Expense,Net Income - Non-Controlling int,Net Income - Discontinued ops,Net Income,Preferred Dividends,Net Income Com,EPS,EPS Diluted,Weighted Average Shs Out,Weighted Average Shs Out (Dil),Dividend per Share,Gross Margin,EBITDA Margin,EBIT Margin,Profit Margin,Free Cash Flow margin,EBITDA,EBIT,Consolidated Income,Earnings Before Tax Margin,Net Profit Margin
2018-12-29,1114160000.0,-0.0547504271677,759367000.0,354793000.0,0.0,344947000.0,344947000.0,6829000.0,0.0,17129000.0,3588000.0,0.0,0.0,-3752000.0,0.0,-3752000.0,-0.16,-0.16,23496841.0,23496841.0,0.0,0.31843990091200003,0.047315466360300006,0.006129281252239999,-0.00336755941696,0.0809102821857,52717000.0,6829000.0,-3752000.0,0.01537391398,-0.00336755941696
2017-12-30,1178694000.0,-0.0857472175532,821137000.0,357557000.0,0.0,345494000.0,345494000.0,-262813000.0,0.0,-272514000.0,-20363000.0,0.0,0.0,-252151000.0,0.0,-252151000.0,-10.9,-10.9,23137977.0,23137977.0,0.0,0.303350148554,-0.18489107435899998,-0.22296965964,-0.213924054929,0.04770279648490001,-217930000.0,-262813000.0,-252151000.0,-0.231199955205,-0.213924054929
2016-12-31,1289243000.0,0.0179179802755,862887000.0,426356000.0,0.0,380779000.0,380779000.0,45577000.0,0.0,36054000.0,11090000.0,0.0,0.0,24964000.0,0.0,24964000.0,1.05,1.04,23875540.0,24067686.0,0.0,0.33070259059,0.06981150954469999,0.0353517529279,0.0193633007897,0.0724246709115,90004000.0,45577000.0,24964000.0,0.027965247823700003,0.0193633007897
2015-12-26,1266549000.0,0.044106324079999995,847634000.0,418915000.0,0.0,329922000.0,329922000.0,88993000.0,1105000.0,87888000.0,34717000.0,0.0,0.0,53171000.0,0.0,53171000.0,1.84,1.82,28954804.0,29203429.0,0.0,0.33075309364300004,0.101020963263,0.0702641587495,0.0419810050776,0.0478994496068,127948000.0,88993000.0,53171000.0,0.0693917092825,0.0419810050776
2014-12-27,1213046000.0,0.11547639518899999,808787000.0,404259000.0,0.0,301603000.0,301603000.0,102656000.0,495000.0,102161000.0,40920000.0,0.0,0.0,61241000.0,0.0,61241000.0,2.03,2.0,30239183.0,30664105.0,0.0,0.33325941473000004,0.112970983788,0.0846266341095,0.0504853072348,0.0825582871548,137039000.0,102656000.0,61241000.0,0.0842185704417,0.0504853072348
2013-12-28,1087469000.0,0.143618374974,709823000.0,377646000.0,0.0,267354000.0,267354000.0,110292000.0,495000.0,109797000.0,43251000.0,0.0,0.0,66546000.0,0.0,66546000.0,2.22,2.18,29992620.0,30541057.0,0.0,0.347270588863,0.127280869616,0.10142082211100001,0.0611934685035,0.07459706897389999,138414000.0,110292000.0,66546000.0,0.100965636722,0.0611934685035
2012-12-29,950902000.0,0.110106866094,617920000.0,332982000.0,0.0,233610000.0,233610000.0,99372000.0,659000.0,98713000.0,37888000.0,0.0,0.0,60825000.0,0.0,60825000.0,2.06,2.02,29473711.0,30110237.0,0.0,0.350174886581,0.129041688839,0.104502882526,0.0639655821525,0.0823954518973,122706000.0,99372000.0,60825000.0,0.103809856326,0.0639655821525
2011-12-31,856586000.0,0.139862298764,563627000.0,292959000.0,0.0,216125000.0,216125000.0,76834000.0,2325000.0,73874000.0,29010000.0,0.0,0.0,44864000.0,0.0,44864000.0,1.56,1.52,28802103.0,29556024.0,0.0,0.34200769099699996,0.113830952175,0.0896979404286,0.05237535985880001,0.09004700053470001,97506000.0,76834000.0,44864000.0,0.08624236212130001,0.05237535985880001
2010-12-25,751482000.0,0.11414020860099999,501948000.0,249534000.0,0.0,189872000.0,189872000.0,59662000.0,9517000.0,48796000.0,19550000.0,0.0,0.0,29246000.0,0.0,29246000.0,1.07,1.03,27909279.0,27390419.0,0.0,0.3321,0.106,0.0776,0.039,0.049,79425000.0,58313000.0,29246000.0,0.0649,0.0389
2009-12-26,674495000.0,0.1213,457573000.0,216922000.0,0.0,173144000.0,175590000.0,41332000.0,18636000.0,20680000.0,8014000.0,0.0,0.0,12666000.0,7692000.0,4974000.0,0.31,0.28,26806098.0,16238338.0,0.0,0.3216,0.09,0.0583,0.006999999999999999,0.0329,60411000.0,39316000.0,12666000.0,0.0307,0.0188
