,0,1,2,3,4,5,6,7,8,9,10,11,12,13,14,15,16,17,18,19,20,21,22,23,24,25,26,27,28
Date,Cash and cash equivalents,Short-term investments,Cash and short-term investments,Receivables,Inventories,Total current assets,Property Plant & Equipment Net,Goodwill and Intangible Assets,Long-term investments,Tax assets,Total non-current assets,Total assets,Payables,Short-term debt,Total current liabilities,Long-term debt,Total debt,Deferred revenue,Tax Liabilities,Deposit Liabilities,Total non-current liabilities,Total liabilities,Other comprehensive income,Retained earnings (deficit),Total shareholders equity,Investments,Net Debt,Other Assets,Other Liabilities
2019-12-31,166048000.0,0.0,166048000.0,24314000.0,20576000.0,252075000.0,17500000.0,0.0,0.0,94205000.0,2547315000.0,2799390000.0,59007000.0,16405000.0,241342000.0,1483256000.0,1499661000.0,40715000.0,957000.0,0.0,2159005000.0,2608917000.0,591639000.0,-381961000.0,190473000.0,0.0,1333613000.0,0.0,208570000.0
2018-12-31,219591000.0,0.0,219591000.0,14207000.0,13257000.0,278256000.0,10730000.0,0.0,0.0,78191000.0,2048999000.0,2327255000.0,45929000.0,12155000.0,166430000.0,1203282000.0,1215437000.0,30199000.0,555000.0,0.0,1678536000.0,2038660000.0,574248000.0,-279631000.0,288595000.0,0.0,995846000.0,0.0,193694000.0
2017-12-31,108452000.0,0.0,108452000.0,19665000.0,22597000.0,184763000.0,15078000.0,862000.0,0.0,60274000.0,2279166000.0,2463929000.0,40736000.0,13585000.0,167600000.0,925964000.0,939549000.0,41846000.0,0.0,0.0,1311220000.0,1682978000.0,559788000.0,213107000.0,780951000.0,0.0,831097000.0,0.0,204158000.0
2016-12-31,96586000.0,0.0,96586000.0,12658000.0,11285000.0,167212000.0,23199000.0,1420000.0,0.0,18205000.0,1959144000.0,2126356000.0,46630000.0,6252000.0,133690000.0,750728000.0,756980000.0,19911000.0,0.0,0.0,1190680000.0,1570058000.0,542348000.0,5217000.0,556298000.0,0.0,660394000.0,0.0,245688000.0
2015-12-31,92213000.0,0.0,92213000.0,3636000.0,631000.0,113558000.0,48168000.0,38632000.0,0.0,18049000.0,1495512000.0,1609070000.0,49986000.0,5489000.0,116470000.0,415850000.0,421339000.0,4968000.0,6169000.0,0.0,703752000.0,1090127000.0,530646000.0,-12769000.0,518943000.0,0.0,329126000.0,0.0,269905000.0
2014-12-31,261649000.0,0.0,261649000.0,1837000.0,774000.0,281066000.0,13024000.0,55088000.0,0.0,7594000.0,783258000.0,1064324000.0,51354000.0,3502000.0,94892000.0,105000000.0,108502000.0,314000.0,4097000.0,0.0,221693000.0,586335000.0,502785000.0,-25849000.0,477989000.0,0.0,-153147000.0,0.0,269750000.0
2013-12-31,11038000.0,0.0,11038000.0,608000.0,0.0,12584000.0,191698000.0,56909000.0,0.0,30738000.0,285123000.0,297707000.0,30000000.0,1275000.0,57141000.0,43898000.0,45173000.0,1340000.0,41510000.0,0.0,86680000.0,143821000.0,0.0,3034000.0,78833000.0,0.0,34135000.0,938000.0,25866000.0
