,0,1,2,3,4,5,6,7,8,9,10,11,12,13,14,15,16,17,18,19,20,21,22,23,24,25,26,27,28
Date,Cash and cash equivalents,Short-term investments,Cash and short-term investments,Receivables,Inventories,Total current assets,Property Plant & Equipment Net,Goodwill and Intangible Assets,Long-term investments,Tax assets,Total non-current assets,Total assets,Payables,Short-term debt,Total current liabilities,Long-term debt,Total debt,Deferred revenue,Tax Liabilities,Deposit Liabilities,Total non-current liabilities,Total liabilities,Other comprehensive income,Retained earnings (deficit),Total shareholders equity,Investments,Net Debt,Other Assets,Other Liabilities
2018-12-31,0.0,0.0,0.0,0.0,0.0,746000.0,0.0,0.0,0.0,0.0,41000.0,0.0,268000.0,0.0,0.0,0.0,0.0,0.0,0.0,0.0,41000.0,0.0,80000.0,-337428000.0,0.0,0.0,0.0,0.0,-268000.0
2017-12-31,0.0,0.0,0.0,0.0,0.0,2263000.0,2155000.0,0.0,0.0,0.0,59000.0,60384000.0,1049000.0,0.0,10281000.0,0.0,0.0,0.0,0.0,0.0,59000.0,10340000.0,78000.0,-295953000.0,50044000.0,0.0,0.0,58121000.0,9232000.0
2016-12-31,0.0,0.0,0.0,0.0,0.0,2563000.0,2505000.0,0.0,0.0,0.0,100000.0,64026000.0,780000.0,0.0,5480000.0,0.0,0.0,0.0,0.0,0.0,100000.0,5580000.0,83000.0,-243825000.0,58446000.0,0.0,0.0,61463000.0,4700000.0
2015-12-31,0.0,0.0,0.0,0.0,0.0,3993000.0,3809000.0,0.0,0.0,0.0,101000.0,89081000.0,1221000.0,0.0,6655000.0,0.0,0.0,0.0,0.0,0.0,101000.0,6756000.0,80000.0,-202856000.0,82325000.0,0.0,0.0,85088000.0,5434000.0
2014-12-31,103830000.0,0.0,103830000.0,0.0,0.0,3266000.0,3068000.0,0.0,0.0,0.0,241000.0,108082000.0,1153000.0,0.0,10278000.0,0.0,0.0,0.0,0.0,0.0,241000.0,10519000.0,89000.0,-150833000.0,97563000.0,0.0,-103830000.0,986000.0,9125000.0
2013-12-31,39149000.0,0.0,39149000.0,0.0,0.0,2730000.0,2467000.0,0.0,0.0,0.0,83796000.0,46585000.0,1224000.0,0.0,7446000.0,0.0,0.0,0.0,0.0,0.0,83796000.0,91242000.0,96000.0,-103166000.0,-44657000.0,0.0,-39149000.0,4706000.0,6222000.0
2012-12-31,4832000.0,13996000.0,18828000.0,0.0,0.0,1184000.0,1184000.0,0.0,0.0,0.0,26219000.0,20332000.0,1144000.0,0.0,1745000.0,0.0,0.0,0.0,0.0,0.0,26219000.0,27964000.0,88000.0,-70448000.0,-7632000.0,13996000.0,-18828000.0,320000.0,601000.0
