,0,1,2,3,4,5,6,7,8,9,10,11,12,13,14,15,16,17,18,19,20,21,22,23,24,25,26,27,28
Date,Cash and cash equivalents,Short-term investments,Cash and short-term investments,Receivables,Inventories,Total current assets,Property Plant & Equipment Net,Goodwill and Intangible Assets,Long-term investments,Tax assets,Total non-current assets,Total assets,Payables,Short-term debt,Total current liabilities,Long-term debt,Total debt,Deferred revenue,Tax Liabilities,Deposit Liabilities,Total non-current liabilities,Total liabilities,Other comprehensive income,Retained earnings (deficit),Total shareholders equity,Investments,Net Debt,Other Assets,Other Liabilities
2019-12-31,682940.0,0.0,682940.0,0.0,0.0,900749.0,0.0,0.0,355032480.0,0.0,355032480.0,355933229.0,75108.0,48002.0,384304.0,0.0,48002.0,0.0,0.0,0.0,0.0,350933218.0,863.0,4999143.0,5000011.0,355032480.0,-634938.0,0.0,350548914.0
2018-12-31,892518.0,0.0,892518.0,0.0,0.0,1005193.0,0.0,0.0,350437823.0,0.0,350437823.0,351443016.0,8735.0,37530.0,96194.0,0.0,37530.0,0.0,44449.0,0.0,0.0,346443014.0,863.0,4999032.0,5000002.0,350437823.0,-854988.0,0.0,346346820.0
2017-12-31,928388.0,0.0,928388.0,0.0,0.0,1221811.0,0.0,0.0,345000000.0,0.0,345000000.0,346221811.0,93876.0,42915.0,141791.0,100000.0,142915.0,0.0,0.0,0.0,100000.0,341221801.0,5216537.0,-216687.0,5000010.0,345000000.0,-785473.0,0.0,340980010.0
