,0,1,2,3,4,5,6,7,8,9,10,11,12,13,14,15,16,17,18,19,20,21,22,23,24,25,26,27,28
Date,Cash and cash equivalents,Short-term investments,Cash and short-term investments,Receivables,Inventories,Total current assets,Property Plant & Equipment Net,Goodwill and Intangible Assets,Long-term investments,Tax assets,Total non-current assets,Total assets,Payables,Short-term debt,Total current liabilities,Long-term debt,Total debt,Deferred revenue,Tax Liabilities,Deposit Liabilities,Total non-current liabilities,Total liabilities,Other comprehensive income,Retained earnings (deficit),Total shareholders equity,Investments,Net Debt,Other Assets,Other Liabilities
2019-12-31,13511000.0,0.0,13511000.0,3619000.0,0.0,17598000.0,210000.0,17093000.0,0.0,8730000.0,19434000.0,37032000.0,852000.0,841000.0,9174000.0,1472000.0,2313000.0,0.0,851000.0,0.0,10220000.0,24080000.0,124788000.0,-116661000.0,12952000.0,0.0,-11198000.0,0.0,4686000.0
2018-12-31,11506000.0,0.0,11506000.0,1796000.0,0.0,14645000.0,1066000.0,19413000.0,0.0,9976000.0,20582000.0,35227000.0,962000.0,0.0,7475000.0,1944000.0,1944000.0,3328000.0,1582000.0,0.0,26490000.0,23989000.0,108513000.0,-97989000.0,11238000.0,0.0,-9562000.0,0.0,0.0
2017-12-31,1571000.0,1415000.0,2986000.0,630000.0,0.0,3753000.0,730000.0,40000.0,0.0,0.0,200000.0,4523000.0,1390000.0,1528000.0,4523000.0,38722000.0,300000.0,0.0,0.0,0.0,15500000.0,43245000.0,19000000.0,-79982000.0,-38723000.0,3229000.0,37264000.0,137000.0,1605000.0
2017-06-30,17700000.0,20900000.0,38600000.0,600000.0,0.0,39900000.0,200000.0,0.0,0.0,0.0,200000.0,40100000.0,1400000.0,200000.0,5900000.0,100000.0,300000.0,1400000.0,0.0,0.0,15500000.0,21400000.0,159600000.0,-163800000.0,18700000.0,20900000.0,-17400000.0,0.0,0.0
2016-12-31,8405000.0,4668000.0,13073000.0,1590000.0,0.0,14852000.0,990000.0,0.0,0.0,500000.0,8600000.0,15886000.0,2949000.0,0.0,4698000.0,37549000.0,1000000.0,0.0,0.0,0.0,900000.0,45527000.0,18900000.0,-70400000.0,-29642000.0,-2196000.0,18044000.0,41537000.0,1749000.0
2016-06-30,49700000.0,19300000.0,69000000.0,700000.0,0.0,72400000.0,300000.0,0.0,0.0,0.0,300000.0,72700000.0,3900000.0,400000.0,9200000.0,300000.0,700000.0,1300000.0,0.0,0.0,17300000.0,26500000.0,157600000.0,-134300000.0,46200000.0,19300000.0,-49000000.0,0.0,0.0
2015-12-31,17946000.0,2503000.0,20449000.0,179000.0,0.0,20921000.0,801000.0,0.0,0.0,1500000.0,5800000.0,21770000.0,1351000.0,18947000.0,24395000.0,9913000.0,0.0,300000.0,0.0,0.0,200000.0,35568000.0,25300000.0,-54038000.0,-13799000.0,-259000.0,-2086000.0,37972000.0,4097000.0
2015-06-30,44700000.0,12900000.0,57600000.0,12600000.0,0.0,70800000.0,200000.0,0.0,7900000.0,500000.0,8600000.0,79400000.0,1900000.0,200000.0,9000000.0,800000.0,1000000.0,0.0,0.0,0.0,1400000.0,9900000.0,155600000.0,-108900000.0,69500000.0,20800000.0,-43700000.0,0.0,0.0
2014-06-30,81700000.0,36900000.0,118600000.0,18700000.0,0.0,101100000.0,2000000.0,0.0,10000000.0,900000.0,12900000.0,114000000.0,2800000.0,0.0,2800000.0,0.0,0.0,0.0,0.0,0.0,1100000.0,27100000.0,146400000.0,-89800000.0,86900000.0,46900000.0,-81700000.0,0.0,23200000.0
2013-06-30,66800000.0,0.0,66800000.0,11000000.0,0.0,80000000.0,3700000.0,600000.0,0.0,21400000.0,4300000.0,84300000.0,4400000.0,0.0,4700000.0,0.0,0.0,300000.0,0.0,0.0,200000.0,16100000.0,118700000.0,-78600000.0,68200000.0,0.0,-66800000.0,0.0,11200000.0
2012-06-30,53800000.0,0.0,53800000.0,6000000.0,0.0,61200000.0,4900000.0,1800000.0,0.0,0.0,1624000.0,69300000.0,2900000.0,0.0,9500000.0,0.0,5951000.0,18447000.0,0.0,0.0,0.0,10000000.0,-20000.0,-69900000.0,59300000.0,0.0,-53800000.0,1400000.0,6600000.0
2011-12-31,94310000.0,2079000.0,96389000.0,0.0,0.0,97881000.0,84000.0,0.0,0.0,0.0,84000.0,97965000.0,146000.0,0.0,6252000.0,0.0,0.0,2526000.0,0.0,0.0,32842000.0,39094000.0,280590000.0,-228078000.0,58871000.0,2079000.0,-94310000.0,0.0,0.0
2010-12-25,53564000.0,54603000.0,108167000.0,1030000.0,0.0,110026000.0,597000.0,0.0,2500000.0,,,113871000.0,552000.0,0.0,17933000.0,0.0,,,,,,53301000.0,,-223547000.0,60570000.0,57103000.0,-108167000.0,829000.0,17381000.0
2009-12-26,59510000.0,59489000.0,118999000.0,9122000.0,0.0,129693000.0,855000.0,0.0,0.0,,,131317000.0,1735000.0,5951000.0,33910000.0,0.0,,,,,,33910000.0,,-224425000.0,97407000.0,59489000.0,-113048000.0,1572000.0,26224000.0
