,0,1,2,3,4,5,6,7,8,9,10,11,12,13,14
Date,Depreciation & Amortization,Stock-based compensation,Operating Cash Flow,Capital Expenditure,Acquisitions and disposals,Investment purchases and sales,Investing Cash flow,Issuance (repayment) of debt,Issuance (buybacks) of shares,Dividend payments,Financing Cash Flow,Effect of forex changes on cash,Net cash flow / Change in cash,Free Cash Flow,Net Cash/Marketcap
2018-12-31,17403000000.0,700000000.0,34339000000.0,18087000000.0,-230000000.0,0.0,-17934000000.0,-14558000000.0,-2745000000.0,-9772000000.0,-15377000000.0,0.0,1028000000.0,16252000000.0,0.0
2017-12-31,16954000000.0,400000000.0,25305000000.0,17830000000.0,-5928000000.0,0.0,-19372000000.0,-24067000000.0,0.0,-9472000000.0,-6734000000.0,0.0,-801000000.0,7475000000.0,0.0
2016-12-31,15928000000.0,400000000.0,22715000000.0,17593000000.0,-3765000000.0,0.0,-10983000000.0,-19010000000.0,-2877000000.0,-9262000000.0,-13322000000.0,0.0,-1590000000.0,5122000000.0,0.0
2015-12-31,16017000000.0,300000000.0,38930000000.0,27717000000.0,-3545000000.0,-5134000000.0,-30043000000.0,-8996000000.0,-5094000000.0,-8538000000.0,-15015000000.0,0.0,-6128000000.0,11213000000.0,0.0
2014-12-31,16533000000.0,300000000.0,30631000000.0,17545000000.0,-0.0,0.0,-15856000000.0,-17194000000.0,-10564000000.0,-7803000000.0,-57705000000.0,0.0,-42930000000.0,13086000000.0,0.0
2013-12-31,16606000000.0,400000000.0,38818000000.0,17184000000.0,-0.0,-153000000.0,-14833000000.0,-8021000000.0,-68000000.0,-5936000000.0,26450000000.0,0.0,50435000000.0,21634000000.0,0.0
2012-12-31,16460000000.0,700000000.0,31486000000.0,20110000000.0,-0.0,0.0,-20502000000.0,-4966000000.0,-2778000000.0,-5230000000.0,-21253000000.0,0.0,-10269000000.0,11376000000.0,0.0
2011-12-31,16496000000.0,500000000.0,29780000000.0,16244000000.0,-0.0,0.0,-17250000000.0,-13733000000.0,-13121000000.0,-5555000000.0,-5836000000.0,0.0,6694000000.0,13536000000.0,0.0
2010-12-31,16405000000.0,500000000.0,33363000000.0,16458000000.0,-0.0,0.0,-15054000000.0,-7039000000.0,-6668000000.0,-5412000000.0,-13650000000.0,0.0,4659000000.0,16905000000.0,0.0
2009-12-31,16534000000.0,0.0,31390000000.0,-16872000000.0,-5958000000.0,84000000.0,-23156000000.0,-8872000000.0,0.0,-5271000000.0,-16007000000.0,0.0,-7773000000.0,14518000000.0,-0.677
