,0,1,2,3,4,5,6,7,8,9,10,11,12,13,14,15,16,17,18,19,20,21,22,23,24,25,26,27,28,29,30
Date,Revenue,Revenue Growth,Cost of Revenue,Gross Profit,R&D Expenses,SG&A Expense,Operating Expenses,Operating Income,Interest Expense,Earnings before Tax,Income Tax Expense,Net Income - Non-Controlling int,Net Income - Discontinued ops,Net Income,Preferred Dividends,Net Income Com,EPS,EPS Diluted,Weighted Average Shs Out,Weighted Average Shs Out (Dil),Dividend per Share,Gross Margin,EBITDA Margin,EBIT Margin,Profit Margin,Free Cash Flow margin,EBITDA,EBIT,Consolidated Income,Earnings Before Tax Margin,Net Profit Margin
2018-12-31,130863000000.0,0.0383150578415,23323000000.0,107540000000.0,0.0,31083000000.0,31083000000.0,22278000000.0,4833000000.0,19623000000.0,3584000000.0,0.0,0.0,15528000000.0,0.0,15528000000.0,3.76,3.76,4128000000.0,4132000000.0,2.3649564375599996,0.821775444549,0.303225510649,0.17023910501800002,0.11865844432700001,0.135110764693,39681000000.0,22278000000.0,15528000000.0,0.149950711813,0.11865844432700001
2017-12-31,126034000000.0,0.00042863946658199995,22147000000.0,103887000000.0,0.0,30110000000.0,30110000000.0,27414000000.0,4733000000.0,20594000000.0,-9956000000.0,0.0,0.0,30101000000.0,0.0,30101000000.0,7.37,7.36,4084000000.0,4089000000.0,2.31645879188,0.824277575892,0.352031991367,0.217512734659,0.238832378565,0.0639351286161,44368000000.0,27414000000.0,30101000000.0,0.163400352286,0.238832378565
2016-12-31,125980000000.0,-0.04285063060330001,22238000000.0,103742000000.0,0.0,31569000000.0,31569000000.0,27059000000.0,4376000000.0,20986000000.0,7378000000.0,0.0,0.0,13127000000.0,0.0,13127000000.0,3.22,3.21,4080000000.0,4086000000.0,2.26676456192,0.823479917447,0.341220828703,0.21478806159699998,0.104199079219,0.0448960152405,42987000000.0,27059000000.0,13127000000.0,0.166581997142,0.104199079219
2015-12-31,131620000000.0,0.035733677476199995,23119000000.0,108501000000.0,0.0,29986000000.0,29986000000.0,33060000000.0,4920000000.0,28240000000.0,9865000000.0,0.0,0.0,17879000000.0,0.0,17879000000.0,4.38,4.37,4085000000.0,4093000000.0,2.0860004886400003,0.824350402674,0.372868864914,0.251177632579,0.135838018538,0.16072785291,49077000000.0,33060000000.0,17879000000.0,0.214557058198,0.135838018538
2014-12-31,127079000000.0,0.0541600995438,49931000000.0,77148000000.0,0.0,41016000000.0,41016000000.0,19599000000.0,4915000000.0,15270000000.0,3314000000.0,0.0,0.0,9625000000.0,0.0,9625000000.0,2.42,2.42,3974000000.0,3981000000.0,1.9600602863599998,0.607086930177,0.284327072136,0.154226898229,0.0757402875377,0.105760983325,36132000000.0,19599000000.0,9625000000.0,0.120161474358,0.0757402875377
2013-12-31,120550000000.0,0.0406056316144,44887000000.0,75663000000.0,0.0,27089000000.0,27089000000.0,31968000000.0,2667000000.0,29277000000.0,5730000000.0,0.0,0.0,11497000000.0,0.0,11497000000.0,4.01,4.0,2866000000.0,2874000000.0,2.06541405706,0.627648278723,0.402936540854,0.265184570718,0.09537121526339999,0.18427208627099997,48574000000.0,31968000000.0,11497000000.0,0.24286188303599998,0.09537121526339999
2012-12-31,115846000000.0,0.04483427282980001,46275000000.0,69571000000.0,0.0,39951000000.0,39951000000.0,13160000000.0,2571000000.0,9897000000.0,-660000000.0,0.0,0.0,875000000.0,0.0,875000000.0,0.31,0.31,2853000000.0,2862000000.0,1.8273934311700002,0.600547278283,0.255684270497,0.113599088445,0.00755313088065,0.13216684218699998,29620000000.0,13160000000.0,875000000.0,0.08543238437239999,0.00755313088065
2011-12-31,110875000000.0,0.040444798949,45875000000.0,65000000000.0,0.0,35624000000.0,35624000000.0,12880000000.0,2827000000.0,10483000000.0,285000000.0,0.0,0.0,2404000000.0,0.0,2404000000.0,0.85,0.85,2833000000.0,2839000000.0,1.9566748855200002,0.5862457722659999,0.264947012401,0.116166854566,0.0216820744081,0.12208342728299999,29376000000.0,12880000000.0,2404000000.0,0.0945479143179,0.0216820744081
2010-12-31,106565000000.0,-0.0115297566043,44149000000.0,62416000000.0,0.0,31366000000.0,31366000000.0,14645000000.0,2523000000.0,12580000000.0,2467000000.0,0.0,0.0,2549000000.0,0.0,2549000000.0,0.9,0.9,2830000000.0,2833000000.0,1.9103423932199999,0.585708253179,0.291371463426,0.13742786093,0.0239196734387,0.158635574532,31050000000.0,14645000000.0,2549000000.0,0.11805001642200001,0.0239196734387
2009-12-31,107808000000.0,0.1074,44579000000.0,63229000000.0,0.0,30717000000.0,47251000000.0,15978000000.0,3102000000.0,6813000000.0,1919000000.0,6707000000.0,0.0,4894000000.0,0.0,4894000000.0,1.72,1.72,2840648086.0,2841000000.0,1.855,0.5865,0.245,0.092,0.045,0.1347,26449000000.0,9915000000.0,11601000000.0,0.0632,0.0454
