,0,1,2,3,4,5,6,7,8,9,10,11,12,13,14,15,16,17,18,19,20,21,22,23,24,25,26,27,28,29,30
Date,Revenue,Revenue Growth,Cost of Revenue,Gross Profit,R&D Expenses,SG&A Expense,Operating Expenses,Operating Income,Interest Expense,Earnings before Tax,Income Tax Expense,Net Income - Non-Controlling int,Net Income - Discontinued ops,Net Income,Preferred Dividends,Net Income Com,EPS,EPS Diluted,Weighted Average Shs Out,Weighted Average Shs Out (Dil),Dividend per Share,Gross Margin,EBITDA Margin,EBIT Margin,Profit Margin,Free Cash Flow margin,EBITDA,EBIT,Consolidated Income,Earnings Before Tax Margin,Net Profit Margin
2019-12-31,6907900000.0,0.583092837089,5128400000.0,2278000000.0,209900000.0,1166600000.0,1614900000.0,663100000.0,0.0,446800000.0,120300000.0,0.0,0.0,326700000.0,400000.0,326700000.0,1.91,1.84,170500000.0,177300000.0,0.460800902425,0.32976736779599997,0.165998349716,0.09599154591119999,0.0472936782524,0.120181241767,1146700000.0,663100000.0,326700000.0,0.0646795697679,0.0472936782524
2018-12-31,4363547000.0,0.124116765711,3129662000.0,1233885000.0,87500000.0,633244000.0,760448000.0,473437000.0,0.0,367582000.0,75879000.0,0.0,0.0,294944000.0,0.0,294944000.0,3.06,3.05,95994000.0,96464000.0,0.47973337203500005,0.282771103417,0.133545943243,0.10849820111899999,0.0675927175759,0.050730747256800005,582734000.0,473437000.0,294944000.0,0.08423926681669999,0.0675927175759
2017-12-31,3881756000.0,0.324294449895,2816443000.0,1065313000.0,95166000.0,511898000.0,643580000.0,421733000.0,0.0,352063000.0,89773000.0,0.0,0.0,262261000.0,0.0,262261000.0,2.74,2.72,95453000.0,96125000.0,0.439198959688,0.274441000413,0.13524317345,0.10864490194599999,0.0675624639983,0.0255927987231,524981000.0,421733000.0,262261000.0,0.09069683926550001,0.0675624639983
2016-12-31,2931188000.0,-0.113908775036,2006949000.0,924239000.0,71400000.0,371805000.0,465878000.0,458361000.0,0.0,412837000.0,99433000.0,0.0,0.0,304887000.0,0.0,304887000.0,3.37,3.34,90359000.0,91141000.0,0.35582229732,0.315312085066,0.18018496254799998,0.156373797928,0.10401482265900001,0.136153327593,528156000.0,458361000.0,304887000.0,0.140842893735,0.10401482265900001
2015-12-31,3307998000.0,0.086565275744,2260182000.0,1047816000.0,71213000.0,347373000.0,440249000.0,607567000.0,0.0,585368000.0,186740000.0,0.0,0.0,398628000.0,0.0,398628000.0,4.14,4.1,96074000.0,97006000.0,0.277951879265,0.316752307589,0.203235008002,0.183666072349,0.120504305021,0.12056597374000001,672301000.0,607567000.0,398628000.0,0.17695536696199998,0.120504305021
2014-12-31,3044454000.0,0.186277856228,2108472000.0,935982000.0,61886000.0,324539000.0,408873000.0,527109000.0,0.0,507855000.0,156175000.0,0.0,0.0,351680000.0,0.0,351680000.0,3.66,3.62,95781000.0,96885000.0,0.19864788150899998,0.307438378113,0.193259612397,0.173137449277,0.115514965902,0.139507116875,588370000.0,527109000.0,351680000.0,0.166813162557,0.115514965902
2013-12-31,2566392000.0,0.0733003167551,1802365000.0,764027000.0,46289000.0,262718000.0,326717000.0,437310000.0,0.0,421087000.0,128852000.0,0.0,0.0,292235000.0,0.0,292235000.0,3.05,3.01,95463000.0,96832000.0,0.13057666887,0.297704715414,0.190346213673,0.17039875436000002,0.113869977774,0.0757542105805,488503000.0,437310000.0,292235000.0,0.164077428546,0.113869977774
2012-12-31,2391122000.0,0.21522516602400002,1696555000.0,694567000.0,41307000.0,245709000.0,302288000.0,392279000.0,14921000.0,377358000.0,125626000.0,0.0,0.0,251732000.0,0.0,251732000.0,5.24,5.19,47734000.0,48371000.0,0.158483388807,0.29047744113400004,0.18251473575999996,0.164056455505,0.10527777336300001,0.08424371487530001,436415000.0,392279000.0,251732000.0,0.15781628875499998,0.10527777336300001
2011-12-31,1967637000.0,0.305654500429,1397213000.0,570424000.0,37193000.0,247534000.0,299723000.0,270701000.0,-15387000.0,255314000.0,85165000.0,0.0,0.0,170149000.0,0.0,170149000.0,3.54,3.51,47820000.0,48329000.0,0.07964162304210001,0.28990306647,0.160370027602,0.13757669732799999,0.0864737753966,0.10705988960400001,315550000.0,270701000.0,170149000.0,0.129756657351,0.0864737753966
2010-12-31,1507012000.0,0.0751960594057,1057934000.0,449078000.0,40203000.0,195892000.0,246268000.0,202810000.0,0.0,186827000.0,63728000.0,0.0,0.0,123099000.0,0.0,123099000.0,2.57,2.56,47597000.0,48005000.0,0.0398708467868,0.297992318575,0.16018186981899998,0.134577561426,0.081684153809,0.10304695649399999,241396000.0,202810000.0,123099000.0,0.123971806462,0.081684153809
2009-12-31,1401616000.0,-0.1099,1008290000.0,393326000.0,42447000.0,160998000.0,213294000.0,180032000.0,16674000.0,163359000.0,48304000.0,0.0,0.0,115055000.0,0.0,115055000.0,1.205,1.195,95131872.0,94998000.0,0.02,0.2806,0.154,0.1284,0.08199999999999999,0.1057,215552000.0,180033000.0,115055000.0,0.1166,0.0821
