,0,1,2,3,4,5,6,7,8,9,10,11,12,13,14
Date,Depreciation & Amortization,Stock-based compensation,Operating Cash Flow,Capital Expenditure,Acquisitions and disposals,Investment purchases and sales,Investing Cash flow,Issuance (repayment) of debt,Issuance (buybacks) of shares,Dividend payments,Financing Cash Flow,Effect of forex changes on cash,Net cash flow / Change in cash,Free Cash Flow,Net Cash/Marketcap
2019-09-30,31058000.0,5265000.0,234054000.0,35530000.0,-0.0,-257954000.0,-421373000.0,-13395000000.0,-123854000.0,-63318000.0,337827000.0,0.0,150508000.0,198524000.0,0.0
2018-09-30,46735000.0,4771000.0,190702000.0,27127000.0,-2211000.0,34759000.0,-674445000.0,-13145000000.0,-164249000.0,-55997000.0,439323000.0,0.0,-44420000.0,163575000.0,0.0
2017-09-30,41680000.0,5909000.0,179700000.0,15461000.0,-3370000.0,269339000.0,-544536000.0,4445000000.0,-98374000.0,-74519000.0,227538000.0,0.0,-137298000.0,164239000.0,0.0
2016-09-30,22988000.0,89000.0,221721000.0,37933000.0,-0.0,449405000.0,-131064000.0,868000000.0,-87850000.0,-49926000.0,75662000.0,0.0,166319000.0,183788000.0,0.0
2015-09-30,21217000.0,232000.0,142871000.0,36860000.0,-0.0,595223000.0,-290489000.0,210554000.0,-126728000.0,-51111000.0,-350176000.0,0.0,-497794000.0,106011000.0,0.0
2014-09-30,17347000.0,324000.0,173715000.0,51794000.0,-0.0,505104000.0,781022000.0,-0.0,-104291000.0,-42065000.0,-376457000.0,0.0,578280000.0,121921000.0,0.0
2013-09-30,15774000.0,473000.0,181422000.0,29246000.0,-0.0,165488000.0,-391894000.0,22470000.0,-110238000.0,-37835000.0,-337395000.0,0.0,-547867000.0,152176000.0,0.0
2012-09-30,38633000.0,848000.0,174956000.0,32010000.0,-0.0,1566689000.0,1054340000.0,995306000.0,-41914000.0,-32430000.0,-1293868000.0,0.0,-64572000.0,142946000.0,0.0
2011-09-30,27330000.0,0.0,261697000.0,10539000.0,-0.0,667699000.0,-164033000.0,100000000.0,-59680000.0,-25697000.0,-170284000.0,0.0,-72620000.0,251158000.0,0.0
2010-09-30,27390000.0,0.0,250881000.0,13027000.0,111684000.0,1052545000.0,307284000.0,-539034000.0,-888622000.0,-22450000.0,-167931000.0,0.0,390234000.0,237854000.0,0.0
