,0,1,2,3,4,5,6,7,8,9,10,11,12,13,14,15,16,17,18,19,20,21,22,23,24,25,26,27,28
Date,Cash and cash equivalents,Short-term investments,Cash and short-term investments,Receivables,Inventories,Total current assets,Property Plant & Equipment Net,Goodwill and Intangible Assets,Long-term investments,Tax assets,Total non-current assets,Total assets,Payables,Short-term debt,Total current liabilities,Long-term debt,Total debt,Deferred revenue,Tax Liabilities,Deposit Liabilities,Total non-current liabilities,Total liabilities,Other comprehensive income,Retained earnings (deficit),Total shareholders equity,Investments,Net Debt,Other Assets,Other Liabilities
2019-12-31,138455000.0,899490000.0,1037945000.0,549416000.0,0.0,1587361000.0,28700000.0,71127000.0,899490000.0,8301000.0,3705298000.0,5292659000.0,0.0,22700000.0,22700000.0,1141464000.0,1164164000.0,0.0,0.0,3498882000.0,1156748000.0,4789167000.0,123281000.0,390363000.0,503492000.0,1798980000.0,1025709000.0,0.0,3609719000.0
2018-12-31,93475000.0,938225000.0,1031700000.0,559019000.0,0.0,1590719000.0,29005000.0,72071000.0,938225000.0,12277000.0,3420047000.0,5010766000.0,0.0,22681000.0,22681000.0,950722000.0,973403000.0,0.0,0.0,3524048000.0,958515000.0,4562582000.0,119888000.0,355524000.0,448184000.0,1876450000.0,879928000.0,0.0,3581386000.0
2017-12-31,82923000.0,793495000.0,876418000.0,1798130000.0,0.0,2674548000.0,28333000.0,73049000.0,793495000.0,10739000.0,1855302000.0,4529850000.0,0.0,22681000.0,22681000.0,791356000.0,814037000.0,0.0,0.0,3242707000.0,799103000.0,4116566000.0,117961000.0,317756000.0,413284000.0,1586990000.0,731114000.0,0.0,3294782000.0
2016-12-31,107797000.0,755545000.0,863342000.0,1746145000.0,0.0,2609487000.0,29020000.0,74234000.0,755545000.0,16804000.0,1771628000.0,4381115000.0,0.0,22681000.0,22681000.0,848930000.0,871611000.0,0.0,0.0,3063752000.0,860563000.0,3990311000.0,115123000.0,294365000.0,390804000.0,1511090000.0,763814000.0,0.0,3107067000.0
2015-12-31,97631000.0,395067000.0,492698000.0,1614107000.0,0.0,2106805000.0,29593000.0,75519000.0,395067000.0,11770000.0,1664799000.0,3771604000.0,0.0,22681000.0,22681000.0,378973000.0,401654000.0,0.0,0.0,2934255000.0,391166000.0,3396216000.0,110949000.0,273074000.0,375388000.0,790134000.0,304023000.0,0.0,2982369000.0
2014-12-31,80350000.0,382884000.0,463234000.0,1491655000.0,0.0,1954889000.0,27495000.0,62963000.0,382884000.0,15019000.0,1631985000.0,3586874000.0,0.0,22681000.0,22681000.0,406297000.0,428978000.0,0.0,0.0,2754818000.0,417398000.0,3240595000.0,101204000.0,252837000.0,346279000.0,765768000.0,348628000.0,0.0,2800516000.0
2013-12-31,85317000.0,422808000.0,508125000.0,1301089000.0,0.0,1809214000.0,25402000.0,63607000.0,422808000.0,12751000.0,1379653000.0,3188867000.0,0.0,22681000.0,22681000.0,288082000.0,310763000.0,0.0,0.0,2505321000.0,298323000.0,2859221000.0,97566000.0,232595000.0,329646000.0,845616000.0,225446000.0,0.0,2538217000.0
2013-03-31,99034000.0,387102000.0,486136000.0,1205635000.0,0.0,1691771000.0,26812000.0,64114000.0,387102000.0,0.0,1360077000.0,3051848000.0,0.0,32991000.0,32991000.0,341218000.0,374209000.0,0.0,0.0,2319641000.0,341218000.0,2750557000.0,92662000.0,216920000.0,301291000.0,774204000.0,275175000.0,0.0,2376348000.0
2012-12-31,92650000.0,415879000.0,508529000.0,1180433000.0,0.0,1688962000.0,27232000.0,64287000.0,415879000.0,19884000.0,1382922000.0,3071884000.0,0.0,32991000.0,32991000.0,361172000.0,394163000.0,0.0,0.0,2312631000.0,373128000.0,2776232000.0,91453000.0,213674000.0,295652000.0,831758000.0,301513000.0,0.0,2370113000.0
2011-12-31,87020000.0,593392000.0,680412000.0,0.0,0.0,680412000.0,26028000.0,65015000.0,593392000.0,0.0,2383686000.0,3064098000.0,0.0,32991000.0,32991000.0,540450000.0,573441000.0,0.0,0.0,2126315000.0,540450000.0,2782747000.0,88030000.0,194198000.0,281351000.0,1186784000.0,486421000.0,0.0,2209306000.0
2010-12-31,85971000.0,,,0.0,0.0,,26069000.0,65966000.0,,0.0,,2909525000.0,0.0,,,,555072000.0,0.0,0.0,2036330000.0,,2640661000.0,4025000.0,178939000.0,268864000.0,2675666000.0,,,
2009-12-31,51853000.0,,,0.0,0.0,,27524000.0,67057000.0,,0.0,,2884473000.0,0.0,,,,661820000.0,0.0,0.0,1923010000.0,,2629527000.0,3337000.0,168514000.0,254946000.0,2686033000.0,,,
