,0,1,2,3,4,5,6,7,8,9,10,11,12,13,14,15,16,17,18,19,20,21,22,23,24,25,26,27,28,29,30
Date,Revenue,Revenue Growth,Cost of Revenue,Gross Profit,R&D Expenses,SG&A Expense,Operating Expenses,Operating Income,Interest Expense,Earnings before Tax,Income Tax Expense,Net Income - Non-Controlling int,Net Income - Discontinued ops,Net Income,Preferred Dividends,Net Income Com,EPS,EPS Diluted,Weighted Average Shs Out,Weighted Average Shs Out (Dil),Dividend per Share,Gross Margin,EBITDA Margin,EBIT Margin,Profit Margin,Free Cash Flow margin,EBITDA,EBIT,Consolidated Income,Earnings Before Tax Margin,Net Profit Margin
2019-12-31,200143.0,-0.6112392026,0.0,0.0,23228810.0,15779233.0,39008043.0,-38807900.0,0.0,0.0,0.0,0.0,0.0,-38399089.0,0.0,-38399089.0,-1.27,-1.27,30262642.0,30262642.0,0.0,0.0,-189.997511779,-193.90086088400002,-191.85826634,-133.990916495,-38026672.0,-38807900.0,-38399089.0,0.0,-191.85826634
2018-12-31,514823.0,-0.553883028642,0.0,0.0,32871685.0,18572548.0,51444233.0,-50929410.0,0.0,0.0,0.0,0.0,0.0,-50840122.0,0.0,-50840122.0,-1.99,-1.99,25486270.0,25486270.0,0.0,0.0,-96.72043789809999,-98.92605808209998,-98.7526237173,-64.85110805069999,-49793906.0,-50929410.0,-50840122.0,0.0,-98.7526237173
2017-12-31,1154009.0,-0.205195665664,0.0,0.0,33230668.0,17311169.0,50541837.0,-49387828.0,0.0,0.0,0.0,0.0,0.0,-49376875.0,0.0,-49376875.0,-2.31,-2.31,21343001.0,21343001.0,0.0,0.0,-41.5915855076,-42.7967442195,-42.787252959,-30.543735794099998,-47997064.0,-49387828.0,-49376875.0,0.0,-42.787252959
2016-12-31,1451941.0,-0.4192236,0.0,0.0,32832677.0,14449984.0,47282661.0,-45830720.0,0.0,0.0,0.0,0.0,0.0,-45817394.0,0.0,-45817394.0,-2.6,-2.6,17649013.0,17649013.0,0.0,0.0,-30.849807258000002,-31.5651393548,-31.5559612959,-23.5544646787,-44792100.0,-45830720.0,-45817394.0,0.0,-31.5559612959
2015-12-31,2500000.0,-3.43956228398,0.0,0.0,18825041.0,11252298.0,30077339.0,-27577339.0,0.0,0.0,0.0,0.0,0.0,-27561702.0,0.0,-27561702.0,-2.07,-2.07,13303715.0,13303715.0,0.0,0.0,-10.6715304,-11.0309356,-11.0246808,-8.415411599999999,-26678826.0,-27577339.0,-27561702.0,0.0,-11.0246808
2014-12-31,-1024774.0,1.0,0.0,0.0,12511647.0,5059703.0,17571350.0,-20374709.0,0.0,0.0,0.0,0.0,0.0,-45603110.0,0.0,-45603110.0,-5.75,-5.75,7933791.0,7933791.0,0.0,-0.0,18.5586997719,19.8821486494,44.5006508752,16.809674132999998,-19018473.0,-20374709.0,-45603110.0,-0.0,44.5006508752
2013-12-31,0.0,,0.0,0.0,2109890.0,1438518.0,4435470.0,-4435470.0,908611.0,-5521081.0,0.0,0.0,0.0,-5521081.0,0.0,-5521081.0,-2.11,-2.11,,2617022.0,0.0,0.0,,0.0,,0.0,-4607753.0,-4612470.0,-5521081.0,0.0,0.0
