,0,1,2,3,4,5,6,7,8,9,10,11,12,13,14,15,16,17,18,19,20,21,22,23,24,25,26,27,28,29,30
Date,Revenue,Revenue Growth,Cost of Revenue,Gross Profit,R&D Expenses,SG&A Expense,Operating Expenses,Operating Income,Interest Expense,Earnings before Tax,Income Tax Expense,Net Income - Non-Controlling int,Net Income - Discontinued ops,Net Income,Preferred Dividends,Net Income Com,EPS,EPS Diluted,Weighted Average Shs Out,Weighted Average Shs Out (Dil),Dividend per Share,Gross Margin,EBITDA Margin,EBIT Margin,Profit Margin,Free Cash Flow margin,EBITDA,EBIT,Consolidated Income,Earnings Before Tax Margin,Net Profit Margin
2019-08-31,136866000000.0,0.040513315645,106790000000.0,30076000000.0,0.0,25242000000.0,25242000000.0,4998000000.0,704000000.0,4527000000.0,588000000.0,0.0,0.0,3982000000.0,0.0,3982000000.0,4.32,4.31,921500000.0,923500000.0,1.77910124526,0.219747782503,0.051407946458599994,0.0365174696418,0.029094150483,0.0284365729984,7036000000.0,4998000000.0,3982000000.0,0.033076147472700004,0.029094150483
2018-08-31,131537000000.0,0.112702387196,100745000000.0,30792000000.0,0.0,24569000000.0,24569000000.0,6414000000.0,616000000.0,5975000000.0,998000000.0,0.0,0.0,5024000000.0,0.0,5024000000.0,5.07,5.05,991000000.0,995000000.0,1.74773869347,0.234093829113,0.0622182351734,0.0487619453082,0.038194576431,0.052441518356099996,8184000000.0,6414000000.0,5024000000.0,0.0454244813246,0.038194576431
2017-08-31,118214000000.0,0.007354006357,89052000000.0,29162000000.0,0.0,23740000000.0,23740000000.0,5557000000.0,693000000.0,4853000000.0,760000000.0,0.0,0.0,4078000000.0,0.0,4078000000.0,3.8,3.78,1073500000.0,1078500000.0,1.5975892443200002,0.246688209518,0.0609995432013,0.0470079685993,0.034496760113,0.0499094861861,7211000000.0,5557000000.0,4078000000.0,0.0410526671968,0.034496760113
2016-08-31,117351000000.0,0.134439890182,87477000000.0,29874000000.0,0.0,23910000000.0,23910000000.0,6001000000.0,596000000.0,5144000000.0,997000000.0,0.0,0.0,4173000000.0,0.0,4173000000.0,3.85,3.82,1083100000.0,1091100000.0,1.4324993126199999,0.25456962446,0.0613799626761,0.0511371867304,0.0355599867065,0.055576859166099994,7203000000.0,6001000000.0,4173000000.0,0.043834309038699996,0.0355599867065
2015-08-31,103444000000.0,0.354120850351,76520000000.0,26924000000.0,0.0,22571000000.0,22571000000.0,4668000000.0,605000000.0,5311000000.0,1056000000.0,0.0,0.0,4220000000.0,0.0,4220000000.0,4.05,4.0,1043200000.0,1043200000.0,1.32668711656,0.260276091412,0.06949653919030001,0.04512586520240001,0.040795019527500004,0.04266076331159999,7189000000.0,4668000000.0,4220000000.0,0.0513417887939,0.040795019527500004
2014-08-31,76392000000.0,0.0578118725508,54823000000.0,21569000000.0,0.0,17992000000.0,17375000000.0,4194000000.0,156000000.0,3458000000.0,1526000000.0,99000000.0,0.0,1932000000.0,0.0,1932000000.0,2.03,2.0,956560612.0,953100000.0,1.2819999999999998,0.2823,0.065,0.0473,0.025,0.0365,4930000000.0,3614000000.0,2031000000.0,0.0453,0.0253
2013-08-31,72217000000.0,0.00815266706685,51098000000.0,21119000000.0,0.0,17543000000.0,17047000000.0,4072000000.0,165000000.0,4047000000.0,1499000000.0,0.0,0.0,2548000000.0,0.0,2548000000.0,2.69,2.67,945003680.0,946000000.0,1.14,0.2924,0.076,0.0583,0.035,0.0428,5495000000.0,4212000000.0,2548000000.0,0.055999999999999994,0.0353
2012-08-31,71633000000.0,-0.00763327053087,51291000000.0,20342000000.0,0.0,16878000000.0,16878000000.0,3464000000.0,88000000.0,3376000000.0,1249000000.0,0.0,0.0,2127000000.0,0.0,2127000000.0,2.43,2.42,858464942.0,874700000.0,0.95,0.284,0.065,0.0484,0.03,0.0402,4630000000.0,3464000000.0,2127000000.0,0.0471,0.0297
2011-08-31,72184000000.0,0.0706615247701,51692000000.0,20492000000.0,0.0,16561000000.0,16561000000.0,3931000000.0,71000000.0,4294000000.0,1580000000.0,0.0,0.0,2714000000.0,0.0,2714000000.0,2.97,2.94,905418846.0,915100000.0,0.75,0.2839,0.076,0.0605,0.038,0.0337,5451000000.0,4365000000.0,2714000000.0,0.0595,0.0376
2010-08-31,67420000000.0,0.0644983026762,48444000000.0,18976000000.0,0.0,15518000000.0,15518000000.0,3458000000.0,85000000.0,3373000000.0,1282000000.0,0.0,0.0,2091000000.0,0.0,2091000000.0,2.13,2.12,973178093.0,981700000.0,0.588,0.2815,0.067,0.0513,0.031,0.0405,4488000000.0,3458000000.0,2091000000.0,0.05,0.031
2009-08-31,63335000000.0,0.0729,45722000000.0,17613000000.0,0.0,14366000000.0,14366000000.0,3247000000.0,83000000.0,3164000000.0,1158000000.0,0.0,0.0,2006000000.0,0.0,2006000000.0,2.03,2.02,990000000.0,991300000.0,0.475,0.2781,0.067,0.0513,0.032,0.0345,4222000000.0,3247000000.0,2006000000.0,0.05,0.0317
