,0,1,2,3,4,5,6,7,8,9,10,11,12,13,14,15,16,17,18,19,20,21,22,23,24,25,26,27,28,29,30
Date,Revenue,Revenue Growth,Cost of Revenue,Gross Profit,R&D Expenses,SG&A Expense,Operating Expenses,Operating Income,Interest Expense,Earnings before Tax,Income Tax Expense,Net Income - Non-Controlling int,Net Income - Discontinued ops,Net Income,Preferred Dividends,Net Income Com,EPS,EPS Diluted,Weighted Average Shs Out,Weighted Average Shs Out (Dil),Dividend per Share,Gross Margin,EBITDA Margin,EBIT Margin,Profit Margin,Free Cash Flow margin,EBITDA,EBIT,Consolidated Income,Earnings Before Tax Margin,Net Profit Margin
2018-12-31,3831000000.0,0.159433448338,2658500000.0,1172500000.0,184400000.0,476000000.0,660400000.0,512500000.0,0.0,463700000.0,49300000.0,0.0,0.0,394100000.0,0.0,394100000.0,7.46,7.43,52846962.0,53062573.0,0.107420346918,0.30605586008900004,0.16632732967900002,0.133777081702,0.10287131297299999,0.09143826677110002,637200000.0,512500000.0,394100000.0,0.121038893239,0.10287131297299999
2017-12-31,3304200000.0,0.17587188612100002,2290400000.0,1013800000.0,147000000.0,411200000.0,558200000.0,435000000.0,0.0,652600000.0,229700000.0,0.0,0.0,406100000.0,0.0,406100000.0,7.53,7.5,53903938.0,54139815.0,0.13114193316,0.306821620967,0.164063918649,0.131650626475,0.122904182556,0.09587797348829999,542100000.0,435000000.0,406100000.0,0.19750620422499998,0.122904182556
2016-12-31,2810000000.0,0.06945765937199999,1935900000.0,874100000.0,135200000.0,377700000.0,512900000.0,355900000.0,0.0,369100000.0,121800000.0,0.0,0.0,223000000.0,0.0,223000000.0,4.0,3.98,55695738.0,55981816.0,0.119681719507,0.311067615658,0.16153024911,0.12665480427,0.079359430605,0.107259786477,453900000.0,355900000.0,223000000.0,0.131352313167,0.079359430605
2015-12-31,2627500000.0,-0.0783935461242,1842000000.0,785500000.0,139500000.0,368400000.0,507900000.0,270900000.0,0.0,297500000.0,11500000.0,0.0,0.0,275200000.0,0.0,275200000.0,4.76,4.72,57768018.0,58274987.0,0.109824134324,0.29895337773499997,0.139904852521,0.10310180780200001,0.104738344434,0.11630827783099999,367600000.0,270900000.0,275200000.0,0.113225499524,0.104738344434
2014-12-31,2851000000.0,0.0479691233229,1979300000.0,871700000.0,145000000.0,386800000.0,531800000.0,331000000.0,0.0,356800000.0,55600000.0,0.0,0.0,291500000.0,0.0,291500000.0,4.87,4.81,59907763.0,60546454.0,0.0924909656972,0.30575236759,0.151736232901,0.11609961417000002,0.10224482637700001,0.0668537355314,432600000.0,331000000.0,291500000.0,0.125149070502,0.10224482637700001
2013-12-31,2720500000.0,0.09812706870110001,1911400000.0,809100000.0,119400000.0,352800000.0,472200000.0,331900000.0,0.0,640900000.0,-21000000.0,0.0,0.0,653200000.0,0.0,653200000.0,10.46,10.31,62474493.0,63382564.0,0.08835237400620001,0.297408564602,0.153317404889,0.12199963242100001,0.24010292225699997,0.20499908105099998,417100000.0,331900000.0,653200000.0,0.235581694541,0.24010292225699997
2012-12-31,2477400000.0,-0.113345979027,1737200000.0,740200000.0,104300000.0,308200000.0,412500000.0,324500000.0,0.0,336100000.0,23600000.0,0.0,0.0,302000000.0,0.0,302000000.0,4.73,4.62,63906992.0,65323389.0,0.08419648894819999,0.29878098006,0.162024703318,0.13098409622999999,0.121901994026,0.107612819892,401400000.0,324500000.0,302000000.0,0.135666424477,0.121901994026
2011-12-31,2794100000.0,0.28423036264199997,1986100000.0,808000000.0,105100000.0,327200000.0,432300000.0,369900000.0,0.0,404900000.0,36700000.0,0.0,0.0,357000000.0,0.0,357000000.0,5.35,5.19,66693064.0,68829440.0,0.0,0.289180773773,0.160373644465,0.13238609928099998,0.127769228016,0.083640528256,448100000.0,369900000.0,357000000.0,0.144912494184,0.127769228016
2010-12-31,2175700000.0,0.458732819309,1556600000.0,615100000.0,85900000.0,307400000.0,393300000.0,217600000.0,0.0,-177300000.0,36900000.0,0.0,0.0,-226100000.0,0.0,-226100000.0,-3.5,-3.5,64562222.0,64562222.0,0.066602416503,0.282713609413,0.138300317139,0.100013788666,-0.103920577285,-0.117525394126,300900000.0,217600000.0,-226100000.0,-0.0814910143862,-0.103920577285
2009-12-31,1491500000.0,-0.4237,1163700000.0,327800000.0,75200000.0,271700000.0,342700000.0,-14900000.0,-500000.0,8100000.0,-10700000.0,5100000.0,0.0,18800000.0,0.0,18800000.0,0.29,0.29,64069176.0,64024237.0,0.07,0.2198,0.065,0.0051,0.013000000000000001,0.0536,97200000.0,7600000.0,23900000.0,0.0054,0.0126
