,0,1,2,3,4,5,6,7,8,9,10,11,12,13,14,15,16,17,18,19,20,21,22,23,24,25,26,27,28,29,30
Date,Revenue,Revenue Growth,Cost of Revenue,Gross Profit,R&D Expenses,SG&A Expense,Operating Expenses,Operating Income,Interest Expense,Earnings before Tax,Income Tax Expense,Net Income - Non-Controlling int,Net Income - Discontinued ops,Net Income,Preferred Dividends,Net Income Com,EPS,EPS Diluted,Weighted Average Shs Out,Weighted Average Shs Out (Dil),Dividend per Share,Gross Margin,EBITDA Margin,EBIT Margin,Profit Margin,Free Cash Flow margin,EBITDA,EBIT,Consolidated Income,Earnings Before Tax Margin,Net Profit Margin
2019-09-30,13952027027.027,-0.11876595775999998,0.0,13952027027.027,0.0,6828378378.3784,7364864864.8649,6587162162.1622,0.0,6583108108.1081,1999324324.3243,4054054.0541,0.0,4583783783.7838,0.0,4583783783.7838,1.3277,1.2804,2320808588.5135,2320808588.5135,0.902,1.0,0.3189,0.4718,0.2223,0.3381,6583108108.1081,6583108108.1081,4587837837.8378,0.4718,0.3285
2018-09-30,15832374100.7194,-0.0661458786781,0.0,15832374100.7194,0.0,6882014388.4892,7392805755.3957,8439568345.3237,0.0,8436690647.481999,2612949640.2878,2877697.8417,0.0,5823741007.1942,0.0,5823741007.1942,1.7086,1.6554,2441988689.9281,2441988689.9281,1.0245,1.0,0.3835,0.5329,0.2647,0.8884,8436690647.481999,8436690647.481999,5826618705.035999,0.5329,0.3678
2017-09-30,16953797963.9781,0.0551184246345,0.0,16953797963.9781,0.0,7268598277.2122,7936570086.1394,9017227877.8387,0.0,9011746280.3446,2754894283.4769,5481597.4941,0.0,6256851996.8677,0.0,6256851996.8677,1.8637,1.7956,2620334262.3336,2620334262.3336,1.1049,1.0,0.4166,0.5315,0.289,0.1218,9011746280.3446,9011746280.3446,6262333594.3618,0.5315,0.3691
2016-09-30,16068147013.7825,0.0587366066747,0.0,16068147013.7825,0.0,7057427258.8055,7918070444.1041,8150076569.6784,0.0,8138591117.9173,2437978560.49,11485451.7611,0.0,5700612557.4273,0.0,5700612557.4273,1.7198,1.6677,2437907952.5268,2437907952.5268,1.1639,1.0,0.3882,0.5065,0.2718,0.2386,8138591117.9173,8138591117.9173,5712098009.1884,0.5065,0.3548
2015-09-30,15176718092.5666,-0.12686484164200001,0.0,15176718092.5666,0.0,6643057503.5063,7171107994.3899,8005610098.1767,0.0,7966339410.9397,2347826086.9565,39270687.236999996,0.0,5618513323.9832,0.0,5618513323.9832,1.7882,1.7405,2180258281.2062,2180258281.2062,1.0743,1.0,0.3682,0.5249,0.2595,-0.0552,7966339410.9397,7966339410.9397,5657784011.2202,0.5249,0.3702
2014-09-30,17381865736.7044,0.0029976840808699995,0.0,17381865736.7044,0.0,7451612903.2258,8018308631.2119,9363557105.4926,0.0,9307759372.2755,2715780296.4255,55797733.2171,0.0,6591979075.85,0.0,6591979075.85,2.1142,2.0715,2710591376.6347,2710591376.6347,1.5397,1.0,0.4664,0.5355,0.3304,1.3981,9307759372.2755,9307759372.2755,6647776809.0671,0.5355,0.3792
2013-09-30,17329916123.0196,-0.0710093342273,0.0,17329916123.0196,0.0,7433364398.8816,8222739981.3607,9107176141.6589,0.0,9038210624.4175,2746505125.8155,68965517.2414,0.0,6291705498.6021,0.0,6291705498.6021,2.0345,1.9897,2870636434.2964,2870636434.2964,1.7344,1.0,0.4865,0.5215,0.3383,1.3597,9038210624.4175,9038210624.4175,6360671015.8434,0.5215,0.3631
2012-09-30,18654564315.3527,0.136061091753,0.0,18654564315.3527,0.0,8254149377.5934,9511410788.3817,9143153526.971,0.0,9074688796.6805,2917012448.1328,68464730.2905,0.0,6157676348.5477,0.0,6157676348.5477,2.0197,1.9647,3143387983.4025,3143387983.4025,1.7303,1.0,0.5041,0.4865,0.3423,0.8508,9074688796.6805,9074688796.6805,6226141078.8382,0.4865,0.3301
2011-09-30,16420388349.5146,0.00406159393247,0.0,16420388349.5146,0.0,7190291262.1359,8154368932.0388,8266019417.4757,0.0,8200000000.0,1412621359.2233,66019417.4757,0.0,6787378640.7767,0.0,6787378640.7767,2.2621,2.1709,2902143222.3301,2902143222.3301,1.5097,1.0,0.4845,0.4994,0.401,0.4424,8200000000.0,8200000000.0,6853398058.2524,0.4994,0.4134
2010-09-30,16353965183.7524,0.12263208441,0.0,16353965183.7524,0.0,7172147001.9342,8580270793.0368,7773694390.7157,0.0,7709864603.4816,1572533849.1296,63829787.234,0.0,6137330754.351999,0.0,6137330754.351999,2.0716,2.0029,2844241919.7292,2844241919.7292,1.0967,1.0,0.4555,0.4714,0.3627,0.008,7709864603.4816,7709864603.4816,6201160541.5861,0.4714,0.3753
2009-09-30,14567519858.782,0.5779,0.0,14567519858.782,0.0,6329214474.8455,6329214474.8455,8238305383.9365,0.0,5317740511.9153,2276257722.8597,62665489.85,0.0,3041482789.0556,0.0,3041482789.0556,1.1059,1.0874,1671920550.7502,1671920550.7502,0.8049,1.0,0.3222,0.365,0.1845,1.3978,5317740511.9153,5317740511.9153,3104148278.9056,0.365,0.2088
