,0,1,2,3,4,5,6,7,8,9,10,11,12,13,14,15,16,17,18,19,20,21,22,23,24,25,26,27,28,29,30
Date,Revenue,Revenue Growth,Cost of Revenue,Gross Profit,R&D Expenses,SG&A Expense,Operating Expenses,Operating Income,Interest Expense,Earnings before Tax,Income Tax Expense,Net Income - Non-Controlling int,Net Income - Discontinued ops,Net Income,Preferred Dividends,Net Income Com,EPS,EPS Diluted,Weighted Average Shs Out,Weighted Average Shs Out (Dil),Dividend per Share,Gross Margin,EBITDA Margin,EBIT Margin,Profit Margin,Free Cash Flow margin,EBITDA,EBIT,Consolidated Income,Earnings Before Tax Margin,Net Profit Margin
2019-12-31,8358917000.0,0.022297284654099997,6777456000.0,1581461000.0,0.0,1173137000.0,1173137000.0,346217000.0,0.0,282061000.0,59863000.0,0.0,0.0,223426000.0,0.0,223426000.0,5.18,5.14,0.0,0.0,0.0,0.189194485362,0.0488489118866,0.0414188823744,0.0267290607144,0.021569779912900003,408324000.0,346217000.0,223426000.0,0.0337437254132,0.0267290607144
2018-12-31,8176601000.0,0.0647973224712,6609220000.0,1567381000.0,0.0,1151944000.0,1151944000.0,352440000.0,0.0,281025000.0,55670000.0,0.0,0.0,227343000.0,0.0,227343000.0,4.87,4.82,46722000.0,47199000.0,0.0,0.191691021734,0.0513561808874,0.0431034851768,0.027804096102999998,0.0318605493897,419919000.0,352440000.0,227343000.0,0.034369415849,0.027804096102999998
2017-12-31,7679021000.0,0.046756162097199995,6194366000.0,1484655000.0,0.0,1099748000.0,1099748000.0,320890000.0,0.0,252440000.0,89307000.0,0.0,0.0,163460000.0,0.0,163460000.0,3.42,3.38,47849000.0,48361000.0,0.0,0.193339098825,0.050643304660800005,0.0417878789497,0.021286567649699998,0.0166186549041,388891000.0,320890000.0,163460000.0,0.0328739822433,0.021286567649699998
2016-12-31,7336017000.0,-0.0242695106077,5887814000.0,1448203000.0,0.0,1049286000.0,1049286000.0,332059000.0,0.0,131551000.0,30431000.0,0.0,0.0,101588000.0,0.0,101588000.0,2.3,2.1,44116000.0,48333000.0,0.0,0.19740998419199998,0.05528899401409999,0.0452642080846,0.013847841410399998,0.038478373209899996,405601000.0,332059000.0,101588000.0,0.0179322103534,0.013847841410399998
2015-12-31,7518487000.0,-0.047041393343599996,6024826000.0,1493661000.0,0.0,1054951000.0,1054951000.0,373742000.0,0.0,303910000.0,95537000.0,0.0,0.0,210687000.0,0.0,210687000.0,4.85,4.18,43433000.0,50373000.0,0.0,0.198665103764,0.0599728376201,0.0497097354827,0.028022526340700002,0.0347664363854,450905000.0,373742000.0,210687000.0,0.0404216965461,0.028022526340700002
2014-12-31,7889626000.0,0.05008210727,6278584000.0,1611042000.0,0.0,1076808000.0,1076808000.0,466217000.0,82064000.0,384153000.0,108716000.0,0.0,0.0,275906000.0,0.0,275906000.0,6.21,5.18,44440000.0,53258000.0,0.0,0.204197512024,0.0687986984427,0.059092408182600004,0.034970732453,0.0292292689159,542796000.0,466217000.0,275906000.0,0.048690901190999995,0.034970732453
2013-12-31,7513342000.0,0.141966601011,5967892000.0,1545450000.0,0.0,996810000.0,996810000.0,480998000.0,85607000.0,379851000.0,103333000.0,0.0,0.0,276430000.0,0.0,276430000.0,6.26,5.25,44148000.0,52650000.0,0.0,0.205694083938,0.0742449897795,0.0640191808119,0.0367918830262,0.0382407722156,557828000.0,480998000.0,276430000.0,0.0505568627117,0.0367918830262
2012-12-31,6579301000.0,0.074045687379,5247855000.0,1331446000.0,0.0,961014000.0,961014000.0,332871000.0,47762000.0,281639000.0,79880000.0,0.0,0.0,201777000.0,0.0,201777000.0,4.62,3.95,43677000.0,51133000.0,0.0,0.202368914266,0.05704967746569999,0.0505936724889,0.030668455509200002,0.04029303416880001,375347000.0,332871000.0,201777000.0,0.0428068270474,0.030668455509200002
2011-12-31,6125718000.0,1.0,4889149000.0,1236569000.0,0.0,871983000.0,871983000.0,332979000.0,53603000.0,279376000.0,83136000.0,0.0,0.0,196251000.0,0.0,196251000.0,4.54,3.96,43220000.0,49623000.0,0.0,0.201865152787,0.060649216957099995,0.054357546331699994,0.0320372240446,0.021905350523799997,371520000.0,332979000.0,196251000.0,0.0456070618987,0.0320372240446
2010-12-31,0.0,-1.0,0.0,0.0,0.0,0.0,0.0,0.0,0.0,0.0,0.0,0.0,0.0,0.0,0.0,0.0,0.0,0.0,0.0,0.0,0.0,0.0,0.0,0.0,0.0,0.0,0.0,0.0,0.0,0.0,0.0
2009-12-31,4623954000.0,-0.2433,3724061000.0,899893000.0,0.0,693896000.0,719941000.0,179952000.0,53754000.0,137151000.0,32063000.0,0.0,0.0,105088000.0,0.0,105088000.0,2.49,2.46,42278665.0,42278665.0,0.0,0.1946,0.047,0.0413,0.023,0.0603,216950000.0,190905000.0,105088000.0,0.0297,0.0227
