,0,1,2,3,4,5,6,7,8,9,10,11,12,13,14,15,16,17,18,19,20,21,22,23,24,25,26,27,28,29,30
Date,Revenue,Revenue Growth,Cost of Revenue,Gross Profit,R&D Expenses,SG&A Expense,Operating Expenses,Operating Income,Interest Expense,Earnings before Tax,Income Tax Expense,Net Income - Non-Controlling int,Net Income - Discontinued ops,Net Income,Preferred Dividends,Net Income Com,EPS,EPS Diluted,Weighted Average Shs Out,Weighted Average Shs Out (Dil),Dividend per Share,Gross Margin,EBITDA Margin,EBIT Margin,Profit Margin,Free Cash Flow margin,EBITDA,EBIT,Consolidated Income,Earnings Before Tax Margin,Net Profit Margin
2020-01-31,3096389000.0,0.0971621228979,488513000.0,2607876000.0,1549906000.0,1514272000.0,4129436000.0,-502230000.0,58685000.0,-482447000.0,-1773000.0,0.0,0.0,-480674000.0,0.0,-480674000.0,-2.12,-2.12,227185000.0,227185000.0,0.0,0.842231386302,-0.026133021400099998,-0.162198612642,-0.155236955047,0.279227836037,-80918000.0,-502230000.0,-480674000.0,-0.15580955752,-0.155236955047
2019-01-31,2822180000.0,0.31689881244,455073000.0,2367107000.0,1211832000.0,1238682000.0,3285464000.0,-463284000.0,60209000.0,-263505000.0,-5494000.0,0.0,0.0,-418258000.0,0.0,-418258000.0,-1.93,-1.93,216789000.0,216789000.0,0.0,0.838751249034,-0.04746720620230001,-0.164158203942,-0.148203870767,0.143205252677,-133961000.0,-463284000.0,-418258000.0,-0.0933693102495,-0.148203870767
2018-01-31,2143050000.0,0.365515764872,0.0,0.0,910584000.0,906276000.0,2446273000.0,-303223000.0,44549000.0,-314786000.0,6436000.0,0.0,0.0,-321222000.0,0.0,-321222000.0,-1.55,-1.55,207774000.0,207774000.0,0.0,0.0,-0.0302237465295,-0.141491332447,-0.14989010989,0.151275518537,-64771000.0,-303223000.0,-321222000.0,-0.146886913511,-0.14989010989
2017-01-31,1569407000.0,0.35020639293300004,0.0,0.0,680531000.0,781996000.0,1946072000.0,-376665000.0,30103000.0,-409092000.0,-814000.0,0.0,0.0,-408278000.0,0.0,-408278000.0,-2.06,-2.06,198214000.0,198214000.0,0.0,0.0,-0.132697254441,-0.240004664182,-0.26014794122900003,0.145177127412,-208256000.0,-376665000.0,-408278000.0,-0.260666608471,-0.26014794122900003
2016-01-31,1162346000.0,0.47532048841200003,0.0,0.0,469944000.0,582634000.0,1427005000.0,-264659000.0,31932000.0,-288901000.0,1017000.0,0.0,0.0,-289918000.0,0.0,-289918000.0,-1.53,-1.53,190016000.0,190016000.0,0.0,0.0,-0.111606182668,-0.227693819224,-0.249424870047,0.107515318158,-129725000.0,-264659000.0,-289918000.0,-0.24854991543000002,-0.249424870047
2015-01-31,787860000.0,0.680094170231,0.0,0.0,316868000.0,421891000.0,1003562000.0,-215702000.0,31060000.0,-245972000.0,2010000.0,0.0,0.0,-247982000.0,0.0,-247982000.0,-1.35,-1.35,183702000.0,183702000.0,0.0,0.0,-0.143474729013,-0.273782144036,-0.314753890285,-0.0020853958825199997,-113038000.0,-215702000.0,-247982000.0,-0.312202675602,-0.314753890285
2014-01-31,468938000.0,0.713597678846,0.0,0.0,182116000.0,263294000.0,622220000.0,-153282000.0,19618000.0,-170831000.0,1678000.0,0.0,0.0,-172509000.0,0.0,-172509000.0,-1.01,-1.01,171297000.0,171297000.0,0.0,0.0,-0.196130405299,-0.326870503137,-0.36787165894,-0.030839897811699997,-91973000.0,-153282000.0,-172509000.0,-0.364293360743,-0.36787165894
2013-01-31,273657000.0,1.0357294293600001,116535000.0,157122000.0,102665000.0,172320000.0,391520000.0,-117863000.0,1363000.0,-119066000.0,124000.0,0.0,0.0,-119758000.0,0.0,-119758000.0,-1.62,-1.62,8006000.0,74011000.0,0.0,0.5741566998100001,-0.324395136978,-0.430696090361,-0.43762081729999996,-0.017116317141499998,-88773000.0,-117863000.0,-119758000.0,-0.43509210435,-0.43762081729999996
2012-01-31,134427000.0,0.9752700022040001,65368000.0,69059000.0,62014000.0,85489000.0,147503000.0,-78444000.0,0.0,-79462000.0,167000.0,0.0,0.0,-79629000.0,342000.0,-79971000.0,-2.71,-2.71,,29478000.0,0.0,0.5137,-0.522,-0.5911,-0.595,-0.1397,-70143000.0,-79462000.0,-79629000.0,-0.5911,-0.5924
2010-12-31,68055000.0,1.6957813428400001,39864000.0,28191000.0,39175000.0,45077000.0,84252000.0,-56061000.0,0.0,-56118000.0,97000.0,0.0,0.0,-56215000.0,0.0,-56215000.0,-2.22,-2.22,,25367000.0,0.0,0.4142,-0.747,-0.8246,-0.826,-0.2791,-50805000.0,-56118000.0,-56215000.0,-0.8246,-0.826
2009-12-31,25245000.0,,20505000.0,4740000.0,30045000.0,26090000.0,56135000.0,-51395000.0,0.0,-49851000.0,91000.0,0.0,0.0,-49942000.0,0.0,-49942000.0,-2.28,-2.28,,21922000.0,0.0,0.1878,-1.845,-1.9747,-1.9780000000000002,-1.3609,-46589000.0,-49851000.0,-49942000.0,-1.9747,-1.9783
