,0,1,2,3,4,5,6,7,8,9,10,11,12,13,14,15,16,17,18,19,20,21,22,23,24,25,26,27,28,29,30
Date,Revenue,Revenue Growth,Cost of Revenue,Gross Profit,R&D Expenses,SG&A Expense,Operating Expenses,Operating Income,Interest Expense,Earnings before Tax,Income Tax Expense,Net Income - Non-Controlling int,Net Income - Discontinued ops,Net Income,Preferred Dividends,Net Income Com,EPS,EPS Diluted,Weighted Average Shs Out,Weighted Average Shs Out (Dil),Dividend per Share,Gross Margin,EBITDA Margin,EBIT Margin,Profit Margin,Free Cash Flow margin,EBITDA,EBIT,Consolidated Income,Earnings Before Tax Margin,Net Profit Margin
2017-12-31,749261000.0,0.0003484646194930001,236530000.0,512731000.0,69984000.0,281037000.0,660646000.0,88615000.0,0.0,55554000.0,1925000.0,0.0,0.0,53629000.0,0.0,53629000.0,1.1,1.06,48629000.0,50654000.0,0.0,0.684315612317,0.234204102442,0.11826986857699999,0.0715758594135,0.171296784432,175480000.0,88615000.0,53629000.0,0.0741450575968,0.0715758594135
2017-12,749000000.0,0.0541797735414,237000000.0,513000000.0,70000000.0,281000000.0,424000000.0,89000000.0,0.0,56000000.0,2000000.0,,,54000000.0,,54000000.0,1.1,1.06,49000000.0,51000000.0,,0.6849132176234999,0.21361815754339003,0.074766355140187,0.072096128170895,,160000000.0,56000000.0,54000000.0,0.074766355140187,0.072096128170895
2016-12-31,710505000.0,-0.0006962025316459999,224032000.0,486473000.0,65800000.0,285213000.0,665801000.0,44704000.0,0.0,14242000.0,10252000.0,0.0,0.0,2118000.0,0.0,2118000.0,0.08,0.08,49262000.0,50880000.0,0.0,0.6846862442910001,0.192492663669,0.0629186282996,0.00298097831824,0.148767425986,136767000.0,44704000.0,2118000.0,0.0200448976432,0.00298097831824
2016-12,711000000.0,0.308281551022,224000000.0,486000000.0,66000000.0,285000000.0,442000000.0,45000000.0,0.0,14000000.0,10000000.0,,,4000000.0,,4000000.0,0.08,0.08,49000000.0,51000000.0,,0.68354430379747,0.17299578059072,0.019690576652602,0.0056258790436006,,123000000.0,14000000.0,4000000.0,0.019690576652602,0.0056258790436006
2015-12-31,543461000.0,0.000848987108656,188445000.0,355016000.0,24313000.0,212085000.0,293302000.0,61714000.0,0.0,41701000.0,-48260000.0,0.0,0.0,89206000.0,0.0,89206000.0,1.79,1.72,50243000.0,52442000.0,0.0,0.653250187226,0.23819740515,0.113557366582,0.164144253221,0.25389862382,129451000.0,61714000.0,89206000.0,0.0767322770171,0.164144253221
2015-12,543000000.0,-0.0017226259658699998,188000000.0,355000000.0,24000000.0,212000000.0,293000000.0,62000000.0,0.0,42000000.0,-48000000.0,,,90000000.0,,90000000.0,1.79,1.72,50000000.0,52000000.0,,0.6537753222836099,0.21731123388582002,0.077348066298343,0.16574585635359002,,118000000.0,42000000.0,90000000.0,0.077348066298343,0.16574585635359002
2014-12-31,543937000.0,-0.000115808823529,191778000.0,352159000.0,29683000.0,207828000.0,314496000.0,37663000.0,0.0,9086000.0,21544000.0,0.0,0.0,-13871000.0,0.0,-13871000.0,-0.24,-0.24,50920000.0,50920000.0,0.0,0.647426080594,0.226816708553,0.0692414746561,-0.025501115018799998,0.187595254597,123374000.0,37663000.0,-13871000.0,0.0167041403692,-0.025501115018799998
2014-12,544000000.0,0.10498359789999999,192000000.0,352000000.0,30000000.0,208000000.0,314000000.0,38000000.0,0.0,9000000.0,22000000.0,,,-12000000.0,,-12000000.0,-0.24,-0.24,51000000.0,51000000.0,,0.64705882352941,0.20588235294117999,0.018382352941176003,-0.022058823529412002,,112000000.0,10000000.0,-12000000.0,0.016544117647058997,-0.022058823529412002
2013-12-31,492315000.0,0.000640243902439,171747000.0,320568000.0,32468000.0,196358000.0,310327000.0,10241000.0,0.0,-44337000.0,21327000.0,0.0,0.0,-65664000.0,0.0,-65664000.0,-1.34,-1.34,48947000.0,48947000.0,0.0,0.6511440845800001,0.194290241004,0.0208017224744,-0.13337802017,0.178233448097,95652000.0,10241000.0,-65664000.0,-0.09005819444869999,-0.13337802017
2013-12,492000000.0,0.206929541808,172000000.0,321000000.0,32000000.0,196000000.0,310000000.0,10000000.0,34000000.0,-44000000.0,21000000.0,,,-66000000.0,,-66000000.0,-1.34,-1.34,49000000.0,49000000.0,,0.65243902439024,0.14227642276423003,-0.022357723577236,-0.13414634146341,,70000000.0,-11000000.0,-66000000.0,-0.08943089430894301,-0.13414634146341
2012-12-31,407646000.0,1.04636429808,160330000.0,247316000.0,34258000.0,167618000.0,283326000.0,-36010000.0,0.0,-138955000.0,-16738000.0,0.0,0.0,-122217000.0,0.0,-122217000.0,-2.61,-2.61,46892000.0,46892000.0,0.0,0.606693062118,0.13342704209,-0.08833644878149999,-0.299811601242,0.136557208951,54391000.0,-36010000.0,-122217000.0,-0.340871736752,-0.299811601242
2011-12-31,199205000.0,0.0,84821000.0,114384000.0,19252000.0,96907000.0,155151000.0,-40767000.0,0.0,-62593000.0,-50084000.0,0.0,0.0,-12309000.0,0.0,-12309000.0,-0.4,-0.4,30675000.0,30675000.0,0.0,0.574202454758,-0.023789563514999997,-0.20464847769900002,-0.0617906177054,0.0534825933084,-4739000.0,-40767000.0,-12309000.0,-0.314214000653,-0.0617906177054
