,0,1,2,3,4,5,6,7,8,9,10,11,12,13,14,15,16,17,18,19,20,21,22,23,24,25,26,27,28
Date,Cash and cash equivalents,Short-term investments,Cash and short-term investments,Receivables,Inventories,Total current assets,Property Plant & Equipment Net,Goodwill and Intangible Assets,Long-term investments,Tax assets,Total non-current assets,Total assets,Payables,Short-term debt,Total current liabilities,Long-term debt,Total debt,Deferred revenue,Tax Liabilities,Deposit Liabilities,Total non-current liabilities,Total liabilities,Other comprehensive income,Retained earnings (deficit),Total shareholders equity,Investments,Net Debt,Other Assets,Other Liabilities
2019-12-31,37500000.0,261800000.0,37500000.0,1176500000.0,549800000.0,2093600000.0,23620100000.0,0.0,1720800000.0,884600000.0,32858200000.0,34951800000.0,908100000.0,693200000.0,3182700000.0,11211000000.0,11904200000.0,0.0,17900000.0,0.0,21514500000.0,24838400000.0,4186600000.0,5927700000.0,10113400000.0,1982600000.0,11866700000.0,0.0,141200000.0
2018-12-31,84500000.0,256800000.0,84500000.0,1280900000.0,548200000.0,2247600000.0,22000900000.0,0.0,1665300000.0,962100000.0,31228200000.0,33475800000.0,876400000.0,365000000.0,3331700000.0,9994000000.0,10359000000.0,0.0,20000000.0,0.0,20301400000.0,23686900000.0,4250100000.0,5538200000.0,9788900000.0,1922100000.0,10274500000.0,0.0,53800000.0
2017-12-31,38900000.0,210000000.0,38900000.0,1350700000.0,539000000.0,2213500000.0,21347000000.0,0.0,1553400000.0,1376400000.0,29377000000.0,31590500000.0,859900000.0,842100000.0,3869300000.0,8746600000.0,9588700000.0,0.0,17300000.0,0.0,18229400000.0,22098700000.0,4308900000.0,5176800000.0,9491800000.0,1763400000.0,9549800000.0,0.0,0.0
2016-12-31,37500000.0,204400000.0,37500000.0,1241700000.0,587600000.0,2168700000.0,19915500000.0,0.0,1443900000.0,1129700000.0,27954500000.0,30123200000.0,861500000.0,157200000.0,2431600000.0,9158200000.0,9315400000.0,0.0,14500000.0,0.0,18731400000.0,21163000000.0,4340200000.0,4613900000.0,8960200000.0,1648300000.0,9277900000.0,0.0,0.0
2015-12-31,49800000.0,382600000.0,49800000.0,1028600000.0,687000000.0,2206800000.0,19189700000.0,0.0,1466700000.0,1052100000.0,27148400000.0,29355200000.0,815400000.0,157700000.0,2709000000.0,9124100000.0,9281800000.0,0.0,9500000.0,0.0,15397500000.0,20670000000.0,4377600000.0,4299800000.0,8685200000.0,1849300000.0,9232000000.0,0.0,2563500000.0
2014-12-31,61900000.0,682200000.0,61900000.0,352100000.0,400600000.0,1535400000.0,11257700000.0,0.0,456900000.0,242700000.0,13628000000.0,15163400000.0,363300000.0,424100000.0,1668700000.0,4186400000.0,4610500000.0,0.0,7200000.0,0.0,2196800000.0,10743700000.0,0.0,0.0,4419700000.0,1139100000.0,4548600000.0,0.0,6878200000.0
2013-12-31,26000000.0,776800000.0,26000000.0,406000000.0,329400000.0,1551100000.0,10906600000.0,0.0,438800000.0,310000000.0,13218300000.0,14769400000.0,342600000.0,342200000.0,1496400000.0,4363200000.0,4705400000.0,0.0,8400000.0,0.0,2689300000.0,10536400000.0,0.0,0.0,4233000000.0,1215600000.0,4679400000.0,0.0,6350700000.0
2012-12-31,35600000.0,524400000.0,35600000.0,285300000.0,360700000.0,1313900000.0,10572200000.0,0.0,413800000.0,98100000.0,12971100000.0,14285000000.0,368400000.0,412100000.0,1443300000.0,4453800000.0,4865900000.0,0.0,11300000.0,0.0,3331700000.0,10149900000.0,0.0,0.0,4135100000.0,938200000.0,4830300000.0,0.0,5374900000.0
2011-12-31,14100000.0,593600000.0,14100000.0,349400000.0,382000000.0,1426200000.0,10160400000.0,0.0,393300000.0,155100000.0,12435900000.0,13862100000.0,325700000.0,32600000.0,1364500000.0,4614300000.0,4646900000.0,0.0,11100000.0,0.0,3987000000.0,9898800000.0,0.0,0.0,3963300000.0,986900000.0,4632800000.0,0.0,4547300000.0
2010-12-31,0.0,0.0,0.0,0.0,0.0,0.0,9601500000.0,0.0,0.0,0.0,0.0,0.0,0.0,0.0,0.0,3932000000.0,3932000000.0,0.0,0.0,0.0,3932000000.0,3932000000.0,0.0,0.0,-3932000000.0,0.0,3932000000.0,0.0,0.0
2009-12-31,214700000.0,0.0,214700000.0,587400000.0,378100000.0,1529300000.0,9015800000.0,441900000.0,358700000.0,0.0,11168600000.0,12697900000.0,290600000.0,1120800000.0,1894100000.0,3875800000.0,4996600000.0,739100000.0,1055600000.0,0.0,7236900000.0,9131000000.0,0.0,,3566900000.0,358700000.0,4781900000.0,349100000.0,482700000.0
