,0,1,2,3,4,5,6,7,8,9,10,11,12,13,14
Date,Depreciation & Amortization,Stock-based compensation,Operating Cash Flow,Capital Expenditure,Acquisitions and disposals,Investment purchases and sales,Investing Cash flow,Issuance (repayment) of debt,Issuance (buybacks) of shares,Dividend payments,Financing Cash Flow,Effect of forex changes on cash,Net cash flow / Change in cash,Free Cash Flow,Net Cash/Marketcap
2018-12-31,26399000.0,940000.0,22002000.0,5567000.0,-0.0,0.0,-22450000.0,-1870000.0,-3544000.0,-14591000.0,6161000.0,0.0,17999000.0,16435000.0,0.0
2017-12-31,26684000.0,870000.0,24761000.0,7367000.0,-0.0,0.0,-2979000.0,-1065000.0,-3677000.0,-20742000.0,-22968000.0,0.0,-1186000.0,17394000.0,0.0
2016-12-31,20666311.0,1454410.0,10442931.0,1958159.0,-0.0,0.0,-60537298.0,-5173977.0,-4863372.0,-17692166.0,44480163.0,0.0,-5614204.0,8484772.0,0.0
2015-12-31,17502786.0,697000.0,-9304298.0,531258.0,-0.0,0.0,-52932252.0,-17024012.0,-11306185.0,-14192289.0,63572987.0,0.0,1336437.0,-9835556.0,0.0
2014-12-31,8220490.0,456988.0,-4441020.0,521405.0,-0.0,0.0,-18161992.0,-8061986.0,-9969748.0,-5432518.0,31417677.0,0.0,8814665.0,-4962425.0,0.0
2013-12-31,3466957.0,0.0,-2451570.0,707089.0,-0.0,0.0,-22582154.0,-10938118.0,10707115.0,-2886574.0,24135615.0,0.0,-898109.0,-3158659.0,0.0
2012-12-31,833713.0,0.0,-289884.0,47337.0,-0.0,0.0,-8802055.0,-128855.0,11317792.0,-0.0,11041124.0,0.0,1949185.0,-337221.0,0.0
2011-12-31,744931.0,0.0,349712.0,-33346.0,0.0,0.0,-33346.0,-396086.0,0.0,-281395.0,-411996.0,0.0,-95630.0,316366.0,-9.4222
