,0,1,2,3,4,5,6,7,8,9,10,11,12,13,14,15,16,17,18,19,20,21,22,23,24,25,26,27,28
Date,Cash and cash equivalents,Short-term investments,Cash and short-term investments,Receivables,Inventories,Total current assets,Property Plant & Equipment Net,Goodwill and Intangible Assets,Long-term investments,Tax assets,Total non-current assets,Total assets,Payables,Short-term debt,Total current liabilities,Long-term debt,Total debt,Deferred revenue,Tax Liabilities,Deposit Liabilities,Total non-current liabilities,Total liabilities,Other comprehensive income,Retained earnings (deficit),Total shareholders equity,Investments,Net Debt,Other Assets,Other Liabilities
2018-12,4000000.0,,,11000000.0,,,,7000000.0,,,,508000000.0,,,,360000000.0,360000000.0,,,,,464000000.0,0.0,-233000000.0,42000000.0,,356000000.0,0.0,0.0
2017-12,4000000.0,,,12000000.0,,,,14000000.0,,,,458000000.0,,,,308000000.0,308000000.0,,,,,387000000.0,-53000000.0,-205000000.0,64000000.0,,304000000.0,0.0,0.0
2016-12,5000000.0,,,17000000.0,,,,18000000.0,,,,489000000.0,,,,306000000.0,306000000.0,,,,,384000000.0,-53000000.0,-170000000.0,95000000.0,,301000000.0,0.0,0.0
2015-12,11000000.0,,,3000000.0,,,,12000000.0,,,,314000000.0,,,,189000000.0,189000000.0,,,,,207000000.0,0.0,-140000000.0,98000000.0,,178000000.0,0.0,0.0
2014-12,10000000.0,,,2000000.0,,,,7000000.0,,,,200000000.0,,,,141000000.0,141000000.0,,,,,147000000.0,0.0,-28000000.0,43000000.0,,131000000.0,0.0,0.0
