,0,1,2,3,4,5,6,7,8,9,10,11,12,13,14,15,16,17,18,19,20,21,22,23,24,25,26,27,28,29,30
Date,Revenue,Revenue Growth,Cost of Revenue,Gross Profit,R&D Expenses,SG&A Expense,Operating Expenses,Operating Income,Interest Expense,Earnings before Tax,Income Tax Expense,Net Income - Non-Controlling int,Net Income - Discontinued ops,Net Income,Preferred Dividends,Net Income Com,EPS,EPS Diluted,Weighted Average Shs Out,Weighted Average Shs Out (Dil),Dividend per Share,Gross Margin,EBITDA Margin,EBIT Margin,Profit Margin,Free Cash Flow margin,EBITDA,EBIT,Consolidated Income,Earnings Before Tax Margin,Net Profit Margin
2019-12-31,63162000.0,-0.0387618134502,0.0,0.0,0.0,6633000.0,53702000.0,10854000.0,18985000.0,-8129000.0,15000.0,0.0,0.0,-8039000.0,0.0,-8039000.0,-2.34,-2.34,9671847.0,9671847.0,0.0,0.0,0.489408188468,0.171843830151,-0.127275893734,0.19856875969700002,30912000.0,10854000.0,-8039000.0,-0.128700801115,-0.127275893734
2018-12-31,65709000.0,0.122559152644,0.0,0.0,0.0,8228000.0,61779000.0,6393000.0,20228000.0,-13831000.0,40000.0,0.0,0.0,-16500000.0,9790000.0,-16500000.0,-3.17,-3.17,9256234.0,9256234.0,1.57634303541,0.0,0.499048836537,0.09729260831849999,-0.251107154271,0.25011794426899997,32792000.0,6393000.0,-16500000.0,-0.210488669741,-0.251107154271
2017-12-31,58535000.0,0.325508586787,0.0,0.0,0.0,7364000.0,57993000.0,542000.0,17165000.0,-14159000.0,137000.0,0.0,0.0,-12094000.0,9969000.0,-12094000.0,-2.54,-2.54,8654240.0,8654240.0,2.39674425484,0.0,0.46512343042599996,0.00925941744256,-0.20661142906,0.29715554796300003,27226000.0,542000.0,-12094000.0,-0.24188946784,-0.20661142906
2016-12-31,44160408.0,0.592272358267,0.0,0.0,0.0,9924361.0,44451544.0,-291136.0,13356111.0,-12955310.0,107464.0,0.0,0.0,-11202570.0,4713169.0,-11202570.0,-0.24,-0.24,67362991.0,67362991.0,0.262639258402,0.0,0.46139009857,-0.006592692712439999,-0.253679042096,0.192135271939,20375175.0,-291136.0,-11202570.0,-0.293369345682,-0.253679042096
2015-12-31,27734205.0,0.616282865943,0.0,0.0,0.0,13480089.0,40067741.0,-12333536.0,9043761.0,-21377297.0,0.0,0.0,0.0,-17520679.0,13627532.0,-17520679.0,-2.67,-2.67,38940463.0,38940463.0,0.36446122892800004,0.0,0.18638536781599999,-0.444704868952,-0.631735396778,-0.354636305602,5169250.0,-12333536.0,-17520679.0,-0.7707917713879999,-0.631735396778
2014-12-31,17159252.0,0.970630808504,0.0,0.0,0.0,9495711.0,22091641.0,-4932389.0,6813426.0,0.0,0.0,0.0,0.0,-10550255.0,2718257.0,-10550255.0,-1.8,-1.8,7352433.0,7352433.0,0.738873513026,0.0,0.19162263017099998,-0.287447786186,-0.614843525813,-0.289198212137,3288101.0,-4932389.0,-10550255.0,0.0,-0.614843525813
2013-12-31,8707492.0,2.5774721145900004,0.0,0.0,0.0,5297166.0,10584908.0,-1877416.0,2497810.0,0.0,0.0,0.0,0.0,-3660254.0,141418.0,-3660254.0,-0.82,-0.82,4620600.0,4620600.0,0.624718434835,0.0,0.182548660395,-0.21560927072900002,-0.420356860506,-0.36275186931000003,1589541.0,-1877416.0,-3660254.0,0.0,-0.420356860506
2012-12-31,2433979.0,0.0,0.0,0.0,0.0,1307151.0,2673523.0,-239544.0,966113.0,0.0,0.0,0.0,0.0,-1161777.0,0.0,-1161777.0,-0.35,-0.35,3301502.0,3301502.0,0.0,0.0,0.244114267214,-0.09841662561589999,-0.47731595054799997,-0.138547210144,594169.0,-239544.0,-1161777.0,0.0,-0.47731595054799997
