,0,1,2,3,4,5,6,7,8,9,10,11,12,13,14
Date,Depreciation & Amortization,Stock-based compensation,Operating Cash Flow,Capital Expenditure,Acquisitions and disposals,Investment purchases and sales,Investing Cash flow,Issuance (repayment) of debt,Issuance (buybacks) of shares,Dividend payments,Financing Cash Flow,Effect of forex changes on cash,Net cash flow / Change in cash,Free Cash Flow,Net Cash/Marketcap
2019-12-31,84454000.0,8596000.0,108710000.0,133696000.0,-0.0,-40331000.0,-173280000.0,-0.0,-747000.0,-0.0,-44428000.0,-13000.0,-109011000.0,-24986000.0,0.0
2018-12-31,84808000.0,12268000.0,93321000.0,108730000.0,-0.0,0.0,-133354000.0,-6181000.0,-149412000.0,-0.0,162825000.0,-65000.0,122727000.0,-15409000.0,0.0
2017-12-31,72595000.0,14215000.0,97728000.0,74458000.0,-0.0,0.0,-74458000.0,-4207000.0,-26685000.0,-0.0,-16054000.0,-16000.0,7200000.0,23270000.0,0.0
2016-12-31,52650000.0,12805000.0,115205000.0,107271000.0,-0.0,0.0,-107331000.0,-2212000.0,-19485000.0,-0.0,-3121000.0,14000.0,4767000.0,7934000.0,0.0
2015-12-31,41869000.0,9398000.0,98575000.0,103116000.0,-0.0,1614000.0,-101502000.0,-814000.0,-14718000.0,-0.0,8843000.0,-47000.0,5869000.0,-4541000.0,0.0
2014-12-31,31162000.0,7164000.0,21207000.0,70945000.0,-0.0,31348000.0,-39199000.0,-627000.0,-8849000.0,-0.0,-480000.0,-17000.0,8849000.0,-49738000.0,0.0
2013-12-31,21190000.0,4506000.0,20671000.0,29540000.0,-0.0,8596000.0,-40403000.0,-187000.0,-27338000.0,-0.0,-11068000.0,0.0,27338000.0,-8869000.0,0.0
2012-12-31,17061000.0,2735000.0,24596000.0,18146000.0,-14000.0,-41558000.0,-62468000.0,-0.0,-58138000.0,-0.0,2077000.0,0.0,58138000.0,6450000.0,0.0
2011-12-31,13956000.0,3450000.0,29529000.0,17073000.0,-171000.0,9373000.0,-7335000.0,-0.0,-93933000.0,-0.0,46018000.0,0.0,93933000.0,12456000.0,0.0
2010-12-31,10002000.0,867000.0,24160000.0,-11256000.0,-271000.0,-9373000.0,-19934000.0,-738000.0,2000.0,0.0,-1134000.0,0.0,3092000.0,12904000.0,0.0863
2009-12-31,6658000.0,740000.0,14522000.0,-4321000.0,-216000.0,1644000.0,-3659000.0,-596000.0,39000.0,0.0,-974000.0,0.0,9889000.0,10201000.0,0.0863
