,0,1,2,3,4,5,6,7,8,9,10,11,12,13,14,15,16,17,18,19,20,21,22,23,24,25,26,27,28
Date,Cash and cash equivalents,Short-term investments,Cash and short-term investments,Receivables,Inventories,Total current assets,Property Plant & Equipment Net,Goodwill and Intangible Assets,Long-term investments,Tax assets,Total non-current assets,Total assets,Payables,Short-term debt,Total current liabilities,Long-term debt,Total debt,Deferred revenue,Tax Liabilities,Deposit Liabilities,Total non-current liabilities,Total liabilities,Other comprehensive income,Retained earnings (deficit),Total shareholders equity,Investments,Net Debt,Other Assets,Other Liabilities
2019-12-31,298000.0,0.0,298000.0,108000.0,2666000.0,4016000.0,84000.0,28000.0,0.0,57000.0,206000.0,4222000.0,1554000.0,0.0,2700000.0,0.0,0.0,451000.0,0.0,0.0,57000.0,3628000.0,188318000.0,-187678000.0,594000.0,0.0,-298000.0,0.0,871000.0
2018-12-31,3217555.0,0.0,3217555.0,112306.0,1383429.0,5141514.0,109501.0,61113.0,0.0,37240.0,264192.0,5405706.0,531544.0,0.0,1377997.0,0.0,0.0,0.0,0.0,0.0,37240.0,1587906.0,179501104.0,-175639834.0,3817800.0,0.0,-3217555.0,0.0,172669.0
2017-12-31,249143.0,0.0,249143.0,54789.0,692884.0,1200260.0,64662.0,94445.0,0.0,0.0,256653.0,1456913.0,1331936.0,5241361.0,9155620.0,0.0,5241361.0,0.0,0.0,0.0,22059786.0,31215406.0,-41886.0,-108283423.0,-94493334.0,0.0,4992218.0,203444.0,2582323.0
2016-12-31,92262.0,0.0,92262.0,7089.0,585961.0,786829.0,58264.0,0.0,0.0,0.0,155810.0,942639.0,1034699.0,3855100.0,7343907.0,0.0,3855100.0,0.0,0.0,0.0,1619287.0,8963194.0,-37396.0,-82631210.0,-72755396.0,0.0,3762838.0,101517.0,2454108.0
2015-12-31,25000.0,0.0,25000.0,38000.0,574000.0,784000.0,204000.0,0.0,0.0,,,1072000.0,997000.0,0.0,3735000.0,0.0,,,,,,3735000.0,,-72923000.0,-2664000.0,0.0,,,2738000.0
