,0,1,2,3,4,5,6,7,8,9,10,11,12,13,14
Date,Depreciation & Amortization,Stock-based compensation,Operating Cash Flow,Capital Expenditure,Acquisitions and disposals,Investment purchases and sales,Investing Cash flow,Issuance (repayment) of debt,Issuance (buybacks) of shares,Dividend payments,Financing Cash Flow,Effect of forex changes on cash,Net cash flow / Change in cash,Free Cash Flow,Net Cash/Marketcap
2019-12-31,91000.0,105000.0,-11032000.0,0.0,-0.0,0.0,-34000.0,-0.0,5851000.0,-0.0,8149000.0,-3000.0,-2920000.0,-11032000.0,0.0
2018-12-31,27258849.0,2832911.0,-9952150.0,86793.0,-0.0,0.0,-86793.0,-200000.0,10272679.0,-0.0,13010476.0,-3121.0,2968412.0,-10038943.0,0.0
2017-12-31,65178.0,0.0,-10388491.0,-166021.0,0.0,0.0,-166021.0,10740883.0,-25000.0,0.0,10715883.0,-4490.0,156881.0,-10554512.0,-0.311
2016-12-31,146153.0,615548.0,-6444512.0,0.0,0.0,0.0,0.0,4791274.0,219750.0,0.0,6512082.0,-746.0,66824.0,-6444512.0,-0.311
2015-12-31,169000.0,,-7759000.0,-46000.0,,,-46000.0,2912775.0,5000000.0,0.0,7467000.0,-12000.0,-349000.0,,-0.311
