,0,1,2,3,4,5,6,7,8,9,10,11,12,13,14,15,16,17,18,19,20,21,22,23,24,25,26,27,28,29,30
Date,Revenue,Revenue Growth,Cost of Revenue,Gross Profit,R&D Expenses,SG&A Expense,Operating Expenses,Operating Income,Interest Expense,Earnings before Tax,Income Tax Expense,Net Income - Non-Controlling int,Net Income - Discontinued ops,Net Income,Preferred Dividends,Net Income Com,EPS,EPS Diluted,Weighted Average Shs Out,Weighted Average Shs Out (Dil),Dividend per Share,Gross Margin,EBITDA Margin,EBIT Margin,Profit Margin,Free Cash Flow margin,EBITDA,EBIT,Consolidated Income,Earnings Before Tax Margin,Net Profit Margin
2019-03-31,8465968208.0925,0.011495437171,5968684971.0983,2497283236.9942,0.0,1162731213.8728,1099956647.3988,1397326589.5954,106575144.5087,1665794797.6879,364768786.1272,2052023.1214,0.0,1301026011.5607,0.0,1301026011.5607,0.2166,0.21600000000000003,87163259.7543,86811804.0029,0.0002,0.295,0.0035,0.2094,0.0022,0.163,2053786127.1676,1772369942.1965,1303078034.6821,0.1968,0.1537
2018-03-31,8369754224.2704,-0.0125581110661,5922811059.9078,2446943164.3625,0.0,1174961597.5422,1174961597.5422,1271981566.8203,89554531.49,1574055299.5392,343932411.6743,46082.9493,0.0,1230122887.8648,0.0,1230122887.8648,0.1942,0.1939,99575811.0753,97287115.2074,0.0002,0.2924,0.0037,0.1988,0.0023,0.1166,1988095238.0952,1663609831.0292,1230168970.8141,0.1881,0.147
2017-03-31,8476199276.1993,0.0964606541658,6029783629.7836,2446415646.4156,0.0,1121706321.7063,1058843458.8435,1387572187.5722,91506891.5069,1695664895.6649,388280588.2806,3819203.8192,0.0,1307384307.3843,0.0,1307384307.3843,0.2019,0.2013,101463806.9146,99732163.1324,0.0003,0.2886,0.0039,0.2108,0.0024,0.1329,2143019943.0199,1787171787.1718,1311203511.2035,0.2001,0.1542
2016-03-31,7730509292.783001,0.030471151083,5381426502.5344,2349082790.2486,0.0,946219526.9129,946219526.9129,1402863263.3357,81130823.0751,1726421071.6872,382663528.8438,7422157.8566,0.0,1343757542.8434,0.0,1343757542.8434,0.2051,0.2047,99325644.2795,98823447.532,0.001,0.3039,0.004,0.2338,0.0026,0.1282,2033309196.2346,1807551894.7622,1351179700.7,0.2233,0.1738
2015-03-31,7501917239.1756,0.0341568832296,5133152260.7445,2368764978.4311,0.0,902300687.0107,902300687.0107,1466464291.4204,57501198.2745,1775874740.3739,393417478.8305,8483783.352,0.0,1382457261.5434,0.0,1382457261.5434,0.2112,0.2105,105077961.6392,104582223.5022,0.001,0.3158,0.0043,0.2444,0.0029,0.1427,2038248921.553,1833375938.6483,1390941044.8954,0.2367,0.1843
2014-03-31,7254138478.2427,0.0528556602958,4935905788.0231,2318232690.2197,0.0,881750605.5291,881750605.5291,1436482084.6906,48291990.3115,1679896433.6424,377516077.8418,7316462.0396,0.0,1302380355.8006,0.0,1302380355.8006,0.1989,0.1983,109710340.3825,109345551.8082,0.0009,0.3196,0.0044,0.2382,0.003,0.1383,1913705838.1358,1728188423.9539,1309696817.8401,0.2316,0.1795
2013-03-31,6889964837.3497,0.096071326185,4798781273.5875,2091183563.7622,0.0,851359561.1112,851359561.1112,1239824002.651,49577495.9038,1532999502.9364,311345937.8855,12132034.8313,-92269739.87,1221653565.0509,0.0,1221653565.0509,0.1867,0.1863,120706693.4774,120434844.8241,0.0008,0.3035,0.0048,0.2297,0.0033,0.1611,1782046797.6215,1582576998.8402,1227857655.7006,0.2225,0.1773
2012-03-31,6286055179.7582,0.0320555012247,4452915770.9981,1833139408.7601,0.0,717238251.129,717238251.129,1115901157.6311,66479973.1792,1354546709.5273,255487408.0502,9860571.5187,-67426588.045,1099059301.4771,0.0,1099059301.4771,0.1683,0.1678,129076354.172,128832775.6128,0.001,0.2916,0.0051,0.2261,0.0035,0.0874,1620782140.5329,1421026682.7065,1104127635.2377,0.2155,0.1748
2011-03-31,6090811174.6887,0.00585942438555,4187434085.0443,1903377089.6443,0.0,693055088.0736,693055088.0736,1210322001.5707,43172893.5263,1387972624.2567,199214630.3153,15168854.4822,-68461797.3746,1188757993.9414,0.0,1188757993.9414,0.1829,0.1818,146423577.8975,145853581.8019,0.0024,0.3125,0.0059,0.235,0.0044,0.1059,1615393245.8207,1431145517.783,1196477055.9856,0.2279,0.1952
2010-03-31,6055330423.9401,0.1967,4148089597.435,1907240826.5052,0.0,744366761.6673,744366761.6673,1162874064.8379,29479871.7492,1229626825.7927,206938012.1126,4119166.3698,0.0,1022688813.6801,0.0,1022688813.6801,0.1579,0.1566,144972596.6334,144223914.6553,0.0004,0.315,0.0053,0.2079,0.0038,0.1425,1433469896.6869,1259106697.5419,1026807980.0499,0.2031,0.1689
