,0,1,2,3,4,5,6,7,8,9,10,11,12,13,14,15,16,17,18,19,20,21,22,23,24,25,26,27,28
Date,Cash and cash equivalents,Short-term investments,Cash and short-term investments,Receivables,Inventories,Total current assets,Property Plant & Equipment Net,Goodwill and Intangible Assets,Long-term investments,Tax assets,Total non-current assets,Total assets,Payables,Short-term debt,Total current liabilities,Long-term debt,Total debt,Deferred revenue,Tax Liabilities,Deposit Liabilities,Total non-current liabilities,Total liabilities,Other comprehensive income,Retained earnings (deficit),Total shareholders equity,Investments,Net Debt,Other Assets,Other Liabilities
2018-12-31,11688000.0,47941000.0,59629000.0,23270000.0,48874000.0,131773000.0,27679000.0,1379000.0,141792000.0,45561000.0,1803170000.0,1934943000.0,42939000.0,173800000.0,217521000.0,1337349000.0,1511149000.0,600000.0,182000.0,0.0,1427634000.0,1648156000.0,0.0,286623000.0,286787000.0,189733000.0,1499461000.0,0.0,3001000.0
2017-12-31,7052000.0,50641000.0,57693000.0,18848000.0,16379000.0,92920000.0,26074000.0,1727000.0,50047000.0,35713000.0,1510511000.0,1603431000.0,22072000.0,491000000.0,513263000.0,1085405000.0,1576405000.0,0.0,191000.0,0.0,1163685000.0,1344521000.0,2319000.0,256301000.0,258910000.0,100688000.0,1569353000.0,0.0,-332427000.0
2016-12-31,10076000.0,45406000.0,55482000.0,16484000.0,25443000.0,97409000.0,16802000.0,2182000.0,-2879000.0,41876000.0,1240478000.0,1337887000.0,17792000.0,0.0,17998000.0,900255000.0,900255000.0,0.0,206000.0,0.0,1005233000.0,1141627000.0,2512000.0,194729000.0,196260000.0,42527000.0,890179000.0,0.0,118396000.0
2015-12-31,9732000.0,41295000.0,51027000.0,14072000.0,20526000.0,85625000.0,20247000.0,932000.0,118000.0,40086000.0,1222952000.0,1308577000.0,21665000.0,549000000.0,570939000.0,878684000.0,1427684000.0,0.0,274000.0,0.0,975426000.0,1098245000.0,28720000.0,182058000.0,210332000.0,41413000.0,1417952000.0,0.0,0.0
2014-12-31,13493000.0,41590000.0,55083000.0,8912000.0,18593000.0,82588000.0,17955000.0,1164000.0,6054000.0,39720000.0,1179038000.0,1261626000.0,21614000.0,0.0,22078000.0,840956000.0,840956000.0,0.0,464000.0,0.0,931466000.0,1044765000.0,41376000.0,174702000.0,216861000.0,47644000.0,827463000.0,0.0,91221000.0
2013-12-31,12801000.0,0.0,12801000.0,13286000.0,3280000.0,29367000.0,4950000.0,1396000.0,0.0,0.0,1169862000.0,1199229000.0,16283000.0,362000000.0,378849000.0,787614000.0,1149614000.0,0.0,566000.0,0.0,874299000.0,986624000.0,44741000.0,167455000.0,212605000.0,0.0,1136813000.0,0.0,0.0
2012-12-31,5379000.0,0.0,5379000.0,12916000.0,0.0,18295000.0,5989000.0,0.0,0.0,0.0,1060420000.0,1078715000.0,15374000.0,2648000.0,18428000.0,696988000.0,699636000.0,0.0,406000.0,0.0,787236000.0,879162000.0,47785000.0,152911000.0,199553000.0,0.0,694257000.0,0.0,73498000.0
2011-12-31,6440000.0,15239000.0,21679000.0,542000.0,0.0,22221000.0,6901000.0,0.0,0.0,0.0,1110984000.0,1133205000.0,16833000.0,0.0,16833000.0,0.0,0.0,0.0,0.0,0.0,84706000.0,896544000.0,88757000.0,156704000.0,236661000.0,15239000.0,-6440000.0,0.0,795005000.0
2010-12-31,79238000.0,,,0.0,0.0,,1012390000.0,0.0,,0.0,,1125962000.0,18099000.0,,,,731632000.0,3174000.0,75645000.0,0.0,,898992000.0,-10469000.0,145324000.0,226970000.0,19000000.0,,,
2009-12-31,61686000.0,,,0.0,0.0,,998381000.0,0.0,,0.0,,1097702000.0,14352000.0,,,,726235000.0,3387000.0,69118000.0,0.0,,876909000.0,-8287000.0,136402000.0,220793000.0,17427000.0,,,
