,0,1,2,3,4,5,6,7,8,9,10,11,12,13,14
Date,Depreciation & Amortization,Stock-based compensation,Operating Cash Flow,Capital Expenditure,Acquisitions and disposals,Investment purchases and sales,Investing Cash flow,Issuance (repayment) of debt,Issuance (buybacks) of shares,Dividend payments,Financing Cash Flow,Effect of forex changes on cash,Net cash flow / Change in cash,Free Cash Flow,Net Cash/Marketcap
2019-12-31,844828000.0,7721000.0,755960000.0,0.0,-0.0,0.0,-733847000.0,-297000000.0,-8652000.0,-0.0,-27068000.0,0.0,-4955000.0,755960000.0,0.0
2018-12-31,812029000.0,12669000.0,1092003000.0,0.0,-0.0,0.0,-953054000.0,-0.0,-13607000.0,-0.0,-1004721000.0,0.0,-865772000.0,1092003000.0,0.0
2017-12-31,980654000.0,21641000.0,577109000.0,0.0,-0.0,0.0,73397000.0,-0.0,-879379000.0,-0.0,155648000.0,0.0,879379000.0,577109000.0,0.0
2016-12-31,1507151000.0,25647000.0,595010000.0,0.0,-0.0,0.0,-222576000.0,-0.0,-55975000.0,-0.0,-315262000.0,0.0,73225000.0,595010000.0,0.0
2015-12-31,1289818000.0,28098000.0,1051392000.0,0.0,-0.0,0.0,-1982119000.0,-0.0,1095095000.0,-0.0,868680000.0,0.0,16053000.0,1051392000.0,0.0
2014-12-31,1101529000.0,23258000.0,1815302000.0,0.0,-0.0,0.0,-2860517000.0,-0.0,-78100000.0,-0.0,423855000.0,0.0,78100000.0,1815302000.0,0.0
2013-12-31,903921000.0,22436000.0,1744745000.0,0.0,-0.0,0.0,-1857699000.0,-253988000.0,-699460000.0,-538000.0,812414000.0,0.0,699460000.0,1744745000.0,0.0
2012-12-31,694242000.0,18190000.0,1401215000.0,0.0,-0.0,0.0,-1764507000.0,-0.0,-44800000.0,-1077000.0,408092000.0,0.0,44800000.0,1401215000.0,0.0
2011-12-31,476885000.0,13509000.0,1192083000.0,0.0,-0.0,0.0,-1760036000.0,-0.0,-15811000.0,-1077000.0,564812000.0,0.0,-3141000.0,1192083000.0,0.0
2010-12-31,0.0,0.0,0.0,0.0,-0.0,0.0,0.0,-0.0,0.0,-0.0,0.0,0.0,0.0,0.0,0.0
2009-12-31,394792000.0,7650000.0,453824000.0,-523547000.0,0.0,0.0,-523547000.0,-483141000.0,234753000.0,0.0,72059000.0,0.0,2336000.0,-69723000.0,-0.2113
