,0,1,2,3,4,5,6,7,8,9,10,11,12,13,14,15,16,17,18,19,20,21,22,23,24,25,26,27,28,29,30
Date,Revenue,Revenue Growth,Cost of Revenue,Gross Profit,R&D Expenses,SG&A Expense,Operating Expenses,Operating Income,Interest Expense,Earnings before Tax,Income Tax Expense,Net Income - Non-Controlling int,Net Income - Discontinued ops,Net Income,Preferred Dividends,Net Income Com,EPS,EPS Diluted,Weighted Average Shs Out,Weighted Average Shs Out (Dil),Dividend per Share,Gross Margin,EBITDA Margin,EBIT Margin,Profit Margin,Free Cash Flow margin,EBITDA,EBIT,Consolidated Income,Earnings Before Tax Margin,Net Profit Margin
2020-01-31,523964000000.0,0.0185826343057,394605000000.0,129359000000.0,0.0,108791000000.0,108791000000.0,20568000000.0,0.0,20116000000.0,4915000000.0,0.0,0.0,14881000000.0,0.0,14881000000.0,5.22,5.19,2850000000.0,2868000000.0,2.10878661088,0.24688528219500003,0.060223603148300005,0.039254605278199996,0.028400806162299997,0.0277690833721,31555000000.0,20568000000.0,14881000000.0,0.038391950592,0.028400806162299997
2019-01-31,514405000000.0,0.028104720162,385301000000.0,129104000000.0,0.0,107147000000.0,107147000000.0,21957000000.0,0.0,11460000000.0,4281000000.0,0.0,0.0,6670000000.0,0.0,6670000000.0,2.28,2.26,2929000000.0,2945000000.0,2.07198641766,0.250977342755,0.06344222937180001,0.04268426628819999,0.0129664369514,0.0338429836413,32635000000.0,21957000000.0,6670000000.0,0.0222781660365,0.0129664369514
2018-01-31,500343000000.0,0.0297814449455,373396000000.0,126947000000.0,0.0,106510000000.0,106510000000.0,20437000000.0,0.0,15123000000.0,4600000000.0,0.0,0.0,9862000000.0,0.0,9862000000.0,3.29,3.28,2995000000.0,3010000000.0,2.03455149502,0.253719948116,0.061889543772999996,0.040845979658,0.019710478611700003,0.0365469288068,30966000000.0,20437000000.0,9862000000.0,0.0302252654679,0.019710478611700003
2017-01-31,485873000000.0,0.00776346628503,361256000000.0,124617000000.0,0.0,101853000000.0,101853000000.0,22764000000.0,0.0,20497000000.0,6204000000.0,0.0,0.0,13643000000.0,0.0,13643000000.0,4.4,4.38,3101000000.0,3112000000.0,1.99742930591,0.256480602956,0.0675979113884,0.046851749325400004,0.0280793540699,0.0430379955256,32844000000.0,22764000000.0,13643000000.0,0.0421859210123,0.0280793540699
2016-01-31,482130000000.0,-0.007250062287529999,360984000000.0,121146000000.0,0.0,97041000000.0,97041000000.0,24105000000.0,0.0,21638000000.0,6558000000.0,0.0,0.0,14694000000.0,0.0,14694000000.0,4.58,4.57,3207000000.0,3217000000.0,1.95648119366,0.251272478377,0.0696057080041,0.0499968888059,0.0304772571713,0.0330035467612,33559000000.0,24105000000.0,14694000000.0,0.0448800116151,0.0304772571713
2015-01-31,485651000000.0,0.0196454290837,365086000000.0,120565000000.0,0.0,93418000000.0,93418000000.0,27147000000.0,0.0,24799000000.0,7985000000.0,0.0,0.0,16363000000.0,0.0,16363000000.0,5.07,5.05,3230000000.0,3243000000.0,1.9071847055200002,0.248254404912,0.0747862147921,0.05589816555509999,0.033692919401,0.03374851488,36320000000.0,27147000000.0,16363000000.0,0.0510634179689,0.033692919401
2014-01-31,476294000000.0,0.0152015721648,358069000000.0,118225000000.0,0.0,91353000000.0,91353000000.0,26872000000.0,0.0,16551000000.0,8105000000.0,0.0,0.0,16022000000.0,0.0,16022000000.0,4.9,4.88,3269000000.0,3283000000.0,1.86993603412,0.24821853729,0.075041885894,0.056418934523599994,0.033638886906,0.0212935707777,35742000000.0,26872000000.0,16022000000.0,0.034749545448800004,0.033638886906
2013-01-31,469162000000.0,0.049696834097800006,352488000000.0,116674000000.0,0.0,88873000000.0,88873000000.0,27801000000.0,0.0,17756000000.0,7981000000.0,0.0,0.0,16999000000.0,0.0,16999000000.0,5.04,5.02,3374000000.0,3389000000.0,1.58188256123,0.248685954958,0.0773762580942,0.059256717295900006,0.0362326872168,0.027054620792000002,36302000000.0,27801000000.0,16999000000.0,0.0378462023779,0.0362326872168
2012-01-31,446950000000.0,0.0595023337735,335127000000.0,111823000000.0,0.0,85265000000.0,85265000000.0,26558000000.0,0.0,24398000000.0,7944000000.0,0.0,0.0,15699000000.0,0.0,15699000000.0,4.54,4.52,3460000000.0,3474000000.0,1.45308002303,0.250191296566,0.0776104709699,0.0594205168363,0.0351247343103,0.0240407204385,34688000000.0,26558000000.0,15699000000.0,0.0545877614946,0.0351247343103
2011-01-31,421849000000.0,0.0334015981813,315287000000.0,106562000000.0,0.0,81020000000.0,81020000000.0,25542000000.0,0.0,23538000000.0,-7579000000.0,0.0,0.0,16389000000.0,0.0,16389000000.0,4.48,4.47,3656000000.0,3670000000.0,1.20899182561,0.252606975482,0.0786608478389,0.0605477315343,0.0388503943354,0.025942932186599998,33183000000.0,25542000000.0,16389000000.0,0.0557972165396,0.0388503943354
2010-01-31,408214000000.0,0.0,304657000000.0,103557000000.0,0.0,79607000000.0,79607000000.0,23950000000.0,0.0,22066000000.0,7139000000.0,0.0,0.0,14335000000.0,0.0,14335000000.0,3.71,3.7,3866000000.0,3877000000.0,1.08769667269,0.253683117189,0.07620267800710001,0.0586702072932,0.0351163850333,0.0344549672476,31107000000.0,23950000000.0,14335000000.0,0.0540549809659,0.0351163850333
