,0,1,2,3,4,5,6,7,8,9,10,11,12,13,14,15,16,17,18,19,20,21,22,23,24,25,26,27,28,29,30
Date,Revenue,Revenue Growth,Cost of Revenue,Gross Profit,R&D Expenses,SG&A Expense,Operating Expenses,Operating Income,Interest Expense,Earnings before Tax,Income Tax Expense,Net Income - Non-Controlling int,Net Income - Discontinued ops,Net Income,Preferred Dividends,Net Income Com,EPS,EPS Diluted,Weighted Average Shs Out,Weighted Average Shs Out (Dil),Dividend per Share,Gross Margin,EBITDA Margin,EBIT Margin,Profit Margin,Free Cash Flow margin,EBITDA,EBIT,Consolidated Income,Earnings Before Tax Margin,Net Profit Margin
2019-12-31,2319136000.0,0.0228723606016,2012754000.0,306382000.0,19500000.0,108274000.0,148274000.0,142786000.0,27340000.0,117731000.0,28156000.0,0.0,0.0,89575000.0,0.0,89575000.0,1.64,1.62,54695000.0,55290000.0,0.321884608428,0.132110406634,0.0798452527148,0.061568618658,0.0386242980144,0.0468446007479,185172000.0,142786000.0,89575000.0,0.050765026285699996,0.0386242980144
2018-12-31,2267278000.0,0.283005906083,1983627000.0,283651000.0,8800000.0,95114000.0,123382000.0,110987000.0,28759000.0,96004000.0,26583000.0,0.0,0.0,69421000.0,0.0,69421000.0,1.22,1.19,56996000.0,58430000.0,0.30409036453899996,0.125106405125,0.066895193267,0.048951650393099996,0.030618653733700003,0.03460625472480001,151670000.0,110987000.0,69421000.0,0.042343285649100004,0.030618653733700003
2017-12-31,1767161000.0,-0.0424196020036,1506286000.0,260875000.0,3900000.0,77825000.0,98766000.0,130816000.0,16400000.0,122538000.0,11116000.0,0.0,0.0,111422000.0,0.0,111422000.0,1.88,1.78,59358000.0,62599000.0,0.244652470487,0.147623787533,0.0938618495994,0.07402607911789999,0.0630514141043,0.0669565478188,165869000.0,130816000.0,111422000.0,0.0693417294746,0.0630514141043
2016-12-31,1845444000.0,-0.08978840329099999,1519910000.0,325534000.0,6400000.0,74129000.0,100469000.0,202532000.0,15663000.0,185417000.0,65984000.0,0.0,0.0,119433000.0,0.0,119433000.0,1.87,1.82,63729000.0,65762000.0,0.0,0.176398741983,0.129671775464,0.109747031067,0.0647177589783,0.0858373377897,239302000.0,202532000.0,119433000.0,0.10047284014,0.0647177589783
2015-12-31,2027489000.0,0.0881085592076,1724046000.0,303443000.0,4800000.0,73495000.0,99554000.0,180369000.0,19548000.0,163311000.0,59022000.0,0.0,0.0,104289000.0,0.0,104289000.0,1.55,1.5,67201.0,69368.0,0.0,0.14966443714400002,0.107703173729,0.08896176502070001,0.0514375170469,0.0547218751865,218367000.0,180369000.0,104289000.0,0.0805484024821,0.0514375170469
2014-12-31,1863315000.0,0.139164240569,1630681000.0,232634000.0,1700000.0,61694000.0,85272000.0,122386000.0,22165000.0,98462000.0,37532000.0,0.0,0.0,60930000.0,0.0,60930000.0,0.88,0.85,68895.0,71063.0,0.0,0.12484952893100001,0.0891180503565,0.0656818627017,0.0326997850605,0.039004677148,166055000.0,122386000.0,60930000.0,0.052842380381199996,0.0326997850605
2013-12-31,1635686000.0,0.37771679621,1420563000.0,215123000.0,2200000.0,58666000.0,82652000.0,103191000.0,26308000.0,77623000.0,31094000.0,0.0,0.0,46529000.0,0.0,46529000.0,0.67,0.67,68460.0,69081.0,0.0,0.131518518836,0.0893631173709,0.0630872918152,0.0284461687634,0.0674438737019,146170000.0,103191000.0,46529000.0,0.0474559298056,0.0284461687634
2012-12-31,1187244000.0,0.0,1120524000.0,66720000.0,1000000.0,30994000.0,34949000.0,19790000.0,4136000.0,15213000.0,171000.0,0.0,0.0,15042000.0,0.0,15042000.0,0.22,0.22,68086000.0,68418000.0,0.0,0.0561973781295,0.029800950773400003,0.016668856612499998,0.012669678684399999,-0.00710132036885,35381000.0,19790000.0,15042000.0,0.012813709734499999,0.012669678684399999
2011-12-31,1187244000.0,0.853991117663,1120524000.0,66720000.0,0.0,33949000.0,33949000.0,19790000.0,4136000.0,15213000.0,171000.0,0.0,0.0,15042000.0,0.0,15042000.0,0.22,0.22,0.0,0.0,0.0,0.0561973781295,0.029800950773400003,0.016668856612499998,0.012669678684399999,-0.00710132036885,35381000.0,19790000.0,15042000.0,0.012813709734499999,0.012669678684399999
2010-12-31,640372000.0,0.8954889888700001,612289000.0,28083000.0,0.0,40545000.0,43500000.0,-15417000.0,4140000.0,-141811000.0,-51000.0,0.0,0.0,-141760000.0,25454000.0,-167214000.0,-3.36,-3.36,68294834.0,68294834.0,0.0,0.0439,-0.18899999999999997,-0.215,-0.261,-0.0473,-120816000.0,-137671000.0,-141760000.0,-0.2215,-0.2214
2009-12-31,337840000.0,-0.596,360750000.0,-22910000.0,0.0,43164000.0,43164000.0,-66074000.0,4379000.0,-104766000.0,-3001000.0,0.0,0.0,-101765000.0,3320000.0,-105085000.0,-3.48,-3.48,31201125.0,31201125.0,0.0,-0.0678,-0.239,-0.2971,-0.311,-0.0227,-80802000.0,-100387000.0,-101765000.0,-0.3101,-0.3012
