,0,1,2,3,4,5,6,7,8,9,10,11,12,13,14
Date,Depreciation & Amortization,Stock-based compensation,Operating Cash Flow,Capital Expenditure,Acquisitions and disposals,Investment purchases and sales,Investing Cash flow,Issuance (repayment) of debt,Issuance (buybacks) of shares,Dividend payments,Financing Cash Flow,Effect of forex changes on cash,Net cash flow / Change in cash,Free Cash Flow,Net Cash/Marketcap
2019-12-31,210900000.0,10100000.0,266300000.0,247500000.0,-0.0,-1600000.0,-224100000.0,-112800000.0,-1600000.0,-0.0,-34400000.0,0.0,7800000.0,18800000.0,0.0
2018-12-31,191600000.0,13000000.0,269300000.0,314100000.0,-0.0,-73300000.0,-287700000.0,-74300000.0,-73300000.0,-0.0,-37800000.0,0.0,-56200000.0,-44800000.0,0.0
2017-12-31,203100000.0,13400000.0,195500000.0,301300000.0,-0.0,-4800000.0,134500000.0,-3082200000.0,329300000.0,-0.0,-291400000.0,0.0,38600000.0,-105800000.0,0.0
2016-12-31,207000000.0,1100000.0,191200000.0,-287500000.0,-54300000.0,17700000.0,-321400000.0,-26300000.0,0.0,0.0,94400000.0,0.0,-35800000.0,-96300000.0,-1.5068
2015-12-31,221100000.0,0.0,208200000.0,-231900000.0,0.0,0.0,-232500000.0,-171600000.0,0.0,0.0,-173000000.0,0.0,-197300000.0,-23700000.0,-1.5068
2014-12-31,251300000.0,0.0,201500000.0,-251900000.0,256900000.0,0.0,5600000.0,41800000.0,0.0,0.0,39900000.0,0.0,247000000.0,-50400000.0,-1.5068
