,0,1,2,3,4,5,6,7,8,9,10,11,12,13,14,15,16,17,18,19,20,21,22,23,24,25,26,27,28,29,30
Date,Revenue,Revenue Growth,Cost of Revenue,Gross Profit,R&D Expenses,SG&A Expense,Operating Expenses,Operating Income,Interest Expense,Earnings before Tax,Income Tax Expense,Net Income - Non-Controlling int,Net Income - Discontinued ops,Net Income,Preferred Dividends,Net Income Com,EPS,EPS Diluted,Weighted Average Shs Out,Weighted Average Shs Out (Dil),Dividend per Share,Gross Margin,EBITDA Margin,EBIT Margin,Profit Margin,Free Cash Flow margin,EBITDA,EBIT,Consolidated Income,Earnings Before Tax Margin,Net Profit Margin
2018-12-31,336890000.0,1.0,116230000.0,220660000.0,0.0,22089000.0,22089000.0,77952000.0,51144000.0,26050000.0,0.0,0.0,0.0,25630000.0,0.0,25630000.0,0.32,0.32,78960000.0,79042000.0,1.2026391032600001,0.654991243433,0.597468016266,0.231387099647,0.0760782451245,0.434581020511,201281000.0,77952000.0,25630000.0,0.0773249428597,0.0760782451245
2017-12-31,0.0,0.0,0.0,0.0,0.0,22580000.0,22580000.0,66555000.0,47534000.0,21420000.0,-84000.0,0.0,0.0,19668000.0,0.0,19668000.0,0.25,0.25,76820000.0,76935000.0,1.19147332164,0.0,0.0,0.0,0.0,0.0,180508000.0,66555000.0,19668000.0,0.0,0.0
2016-12-31,0.0,0.0,0.0,0.0,0.0,19545000.0,19545000.0,171502000.0,53126000.0,119288000.0,-615000.0,0.0,0.0,119339000.0,0.0,119339000.0,1.65,1.65,72163000.0,72339000.0,1.18398097845,0.0,0.0,0.0,0.0,0.0,283095000.0,171502000.0,119339000.0,0.0,0.0
2015-12-31,0.0,0.0,0.0,0.0,0.0,20257000.0,54235000.0,148143000.0,59546000.0,89187000.0,0.0,0.0,0.0,89740000.0,0.0,89740000.0,1.31,1.31,68177000.0,68310000.0,0.900453813497,0.0,0.0,0.0,0.0,0.0,260564000.0,148143000.0,89740000.0,0.0,0.0
2014-12-31,0.0,0.0,0.0,0.0,0.0,19761000.0,52885000.0,64030000.0,59785000.0,5070000.0,0.0,0.0,0.0,111639000.0,0.0,111639000.0,1.67,1.67,66795000.0,66837000.0,1.2010862247,0.0,0.0,0.0,0.0,0.0,163629000.0,64030000.0,111639000.0,0.0,0.0
2013-12-31,0.0,0.0,0.0,0.0,0.0,17535000.0,47315000.0,65191000.0,63573000.0,-193000.0,0.0,0.0,0.0,37346000.0,0.0,37346000.0,0.55,0.55,66580000.0,66580000.0,1.2031240612799998,0.0,0.0,0.0,0.0,0.0,167250000.0,65191000.0,37346000.0,0.0,0.0
2012-12-31,0.0,0.0,0.0,0.0,0.0,15488000.0,49880000.0,80821000.0,64697000.0,17099000.0,0.0,0.0,0.0,23708000.0,0.0,23708000.0,0.35,0.35,66239000.0,66376000.0,1.4724297939,0.0,0.0,0.0,0.0,0.0,188622000.0,80821000.0,23708000.0,0.0,0.0
2011-12-31,0.0,0.0,0.0,0.0,0.0,15728000.0,50474000.0,83310000.0,66473000.0,-1128000.0,0.0,0.0,0.0,104884000.0,0.0,104884000.0,1.58,1.58,65982000.0,65982000.0,1.7435815828599999,0.0,0.0,0.0,0.0,0.0,187032000.0,83310000.0,104884000.0,0.0,0.0
2010-12-31,0.0,-1.0,0.0,0.0,0.0,14406000.0,51242000.0,90657000.0,68389000.0,13131000.0,0.0,0.0,0.0,37426000.0,0.0,37426000.0,0.6,0.6,62140000.0,62264000.0,1.74979121162,0.0,0.0,0.0,0.0,0.0,191935000.0,90657000.0,37426000.0,0.0,0.0
2009-12-31,256549000.0,-0.0453,89289000.0,167260000.0,0.0,13118000.0,90667000.0,76593000.0,72694000.0,40745000.0,0.0,203000.0,0.0,40745000.0,0.0,40745000.0,0.71,0.71,59728786.0,56894000.0,1.72,0.652,0.81,0.4422,0.159,0.3512,207886000.0,113439000.0,40948000.0,0.1588,0.1588
