,0,1,2,3,4,5,6,7,8,9,10,11,12,13,14
Date,Depreciation & Amortization,Stock-based compensation,Operating Cash Flow,Capital Expenditure,Acquisitions and disposals,Investment purchases and sales,Investing Cash flow,Issuance (repayment) of debt,Issuance (buybacks) of shares,Dividend payments,Financing Cash Flow,Effect of forex changes on cash,Net cash flow / Change in cash,Free Cash Flow,Net Cash/Marketcap
2019-03-31,8728553.0,17635309.0,244664271.0,9805084.0,-0.0,-74519863.0,-206965839.0,-357250000.0,-74519863.0,-0.0,-63116750.0,2667447.0,-22750871.0,234859187.0,0.0
2018-03-31,9195783.0,5434619.0,218026468.0,9171468.0,-0.0,-4614331.0,-169808648.0,-345200000.0,-4614331.0,-0.0,-31464357.0,132431.0,16885894.0,208855000.0,0.0
2017-03-31,9438080.0,4810698.0,219362747.0,6813582.0,-0.0,-4995809.0,-131613502.0,-354450000.0,-4995809.0,-0.0,-84150466.0,-775393.0,2823386.0,212549165.0,0.0
2016-03-31,9801904.0,-6356767.0,206070359.0,8654804.0,-0.0,0.0,-101892779.0,-421560000.0,0.0,-0.0,-128637933.0,-1501558.0,-25961911.0,197415555.0,0.0
2015-03-31,7680556.0,15968637.0,241929281.0,8629469.0,-0.0,-115324097.0,-108250836.0,-315071600.0,-115324097.0,-0.0,-112480974.0,-2428219.0,18769252.0,233299812.0,0.0
2014-03-31,7713316.0,14913204.0,245963584.0,7384059.0,-0.0,-190536775.0,-165589908.0,-204000.0,-190536775.0,-0.0,-71828265.0,-601093.0,8545411.0,238579525.0,0.0
2013-03-31,8419786.0,11165327.0,232044089.0,6884296.0,-0.0,-183045655.0,-181537866.0,-985000.0,-183045655.0,-0.0,-50036946.0,387912.0,469277.0,225159793.0,0.0
2012-03-31,10323282.0,6617827.0,219401302.0,6855688.0,-0.0,-139799981.0,-178332860.0,-0.0,-139799981.0,-0.0,-38139791.0,-191055.0,2928651.0,212545614.0,0.0
2011-03-31,8122191.0,5340707.0,199835870.0,-6394287.0,-3724395.0,-161275485.0,-171394167.0,13100000.0,-41459884.0,0.0,-25972355.0,116064.0,2469348.0,193441583.0,-0.2469
2010-03-31,8009049.0,4850156.0,183606001.0,-5244623.0,-3742221.0,-152999243.0,-161986087.0,-28607500.0,4318332.0,0.0,-22617824.0,182668.0,-997910.0,178361378.0,-0.2469
