,0,1,2,3,4,5,6,7,8,9,10,11,12,13,14,15,16,17,18,19,20,21,22,23,24,25,26,27,28
Date,Cash and cash equivalents,Short-term investments,Cash and short-term investments,Receivables,Inventories,Total current assets,Property Plant & Equipment Net,Goodwill and Intangible Assets,Long-term investments,Tax assets,Total non-current assets,Total assets,Payables,Short-term debt,Total current liabilities,Long-term debt,Total debt,Deferred revenue,Tax Liabilities,Deposit Liabilities,Total non-current liabilities,Total liabilities,Other comprehensive income,Retained earnings (deficit),Total shareholders equity,Investments,Net Debt,Other Assets,Other Liabilities
2019-03-31,135265.0,0.0,135265.0,0.0,0.0,220654.0,13734.0,0.0,290392032.0,216000.0,290621766.0,290842420.0,5214351.0,3222373.0,8499449.0,3222373.0,6444746.0,0.0,62725.0,0.0,3438373.0,285842419.0,6580407.0,-1589439.0,5000001.0,290392032.0,6309481.0,0.0,273904597.0
2018-03-31,482676.0,0.0,482676.0,0.0,0.0,775533.0,17393.0,0.0,311919253.0,0.0,311936646.0,312712179.0,2818894.0,0.0,2900119.0,0.0,0.0,0.0,81225.0,0.0,0.0,307712178.0,7570769.0,-2579238.0,5000001.0,311919253.0,-482676.0,0.0,304812059.0
