,0,1,2,3,4,5,6,7,8,9,10,11,12,13,14,15,16,17,18,19,20,21,22,23,24,25,26,27,28
Date,Cash and cash equivalents,Short-term investments,Cash and short-term investments,Receivables,Inventories,Total current assets,Property Plant & Equipment Net,Goodwill and Intangible Assets,Long-term investments,Tax assets,Total non-current assets,Total assets,Payables,Short-term debt,Total current liabilities,Long-term debt,Total debt,Deferred revenue,Tax Liabilities,Deposit Liabilities,Total non-current liabilities,Total liabilities,Other comprehensive income,Retained earnings (deficit),Total shareholders equity,Investments,Net Debt,Other Assets,Other Liabilities
2018-12-31,2241766.6667,1301748.8889,3543515.5556,0.0,0.0,3661432.5926,31071169.6296,0.0,0.0,0.0,31071169.6296,34732602.2222,446078.5185,0.0,446078.5185,0.0,0.0,0.0,0.0,0.0,0.0,446078.5185,0.0,-73398939.2593,34286523.7037,1301748.8889,-3531194.3577,83261.1705,0.0
2017-12-31,310581.304,3134195.6009,3444776.9049,0.0,0.0,3581349.5679,31932872.7416,0.0,0.0,0.0,31932872.7416,35514222.3095,528304.7918,0.0,528304.7918,0.0,0.0,0.0,0.0,0.0,0.0,528304.7918,0.0,-75594978.7903,34985917.5177,3134195.6009,,,0.0
2016-12-31,455126.4881,4919466.5179,5374593.006,0.0,0.0,5477088.5417,28811248.5119,0.0,0.0,0.0,28811248.5119,34288337.0536,525515.625,0.0,525515.625,0.0,0.0,0.0,0.0,0.0,0.0,525515.625,0.0,-69621145.0893,33762821.4286,4919466.5179,,,0.0
2015-12-31,600380.3326,7013322.4873,7613702.8199,0.0,0.0,7736852.4946,26312216.1967,0.0,0.0,0.0,26312216.1967,34049068.6913,476978.30799999996,0.0,475123.1634,0.0,0.0,0.0,0.0,0.0,0.0,476978.30799999996,0.0,-66147808.3876,33572090.3832,7013322.4873,,,-1855.1446
2014-12-31,6430149.7418,7832661.79,14262811.5318,0.0,0.0,14588111.8761,28008190.1893,0.0,0.0,0.0,28008190.1893,42596302.0654,1065207.4009999998,0.0,1633469.8189,0.0,0.0,0.0,0.0,0.0,0.0,1065207.4009999998,0.0,-76905672.9776,41531094.6644,7832661.79,,,0.0
2013-12-31,5680897.5564,16130631.5789,21811529.1353,0.0,0.0,22476659.7744,25408400.3759,0.0,0.0,0.0,25408400.3759,47885060.1504,1398552.6316,0.0,1166533.2681,0.0,0.0,0.0,0.0,0.0,1950988.9669,1398552.6316,0.0,-82192122.1805,46486507.5188,16130631.5789,,,0.0
2012-12-31,33719861.166999996,0.0,33719861.166999996,0.0,0.0,34105211.2676,17840739.4366,0.0,0.0,0.0,17840739.4366,51945950.7042,1633469.8189,0.0,1244271.8154,0.0,0.0,0.0,0.0,0.0,0.0,1633469.8189,0.0,-86606541.2475,50312480.8853,0.0,,,0.0
2011-12-31,1333792.5636,7928015.6556,9261808.2192,0.0,0.0,9704361.0568,41288246.5753,0.0,0.0,0.0,41288246.5753,50992607.6321,1166533.2681,0.0,1700771.9466,0.0,0.0,0.0,0.0,0.0,,1166533.2681,0.0,-80404722.1135,49826074.36399999,7928015.6556,,,653625.9542
2010-12-31,1635604.8144,22072414.2427,23708019.0571,0.0,0.0,23897138.4152,73765299.8997,0.0,0.0,0.0,73845841.5246,97742979.9398,1244271.8154,,,,0.0,0.0,1950988.9669,0.0,,3195260.7823,0.0,-34462990.9729,94547719.1575,22072414.2427,,,
2009-12-31,3278750.9542,9762450.3817,13041201.3359,0.0,0.0,13163860.687,58275391.2214,0.0,0.0,0.0,58352013.3588,71515874.0458,1047145.9924,,,,0.0,0.0,0.0,0.0,,1700771.9466,0.0,-28933670.8015,69815102.0992,9762450.3817,,,
