,0,1,2,3,4,5,6,7,8,9,10,11,12,13,14,15,16,17,18,19,20,21,22,23,24,25,26,27,28,29,30
Date,Revenue,Revenue Growth,Cost of Revenue,Gross Profit,R&D Expenses,SG&A Expense,Operating Expenses,Operating Income,Interest Expense,Earnings before Tax,Income Tax Expense,Net Income - Non-Controlling int,Net Income - Discontinued ops,Net Income,Preferred Dividends,Net Income Com,EPS,EPS Diluted,Weighted Average Shs Out,Weighted Average Shs Out (Dil),Dividend per Share,Gross Margin,EBITDA Margin,EBIT Margin,Profit Margin,Free Cash Flow margin,EBITDA,EBIT,Consolidated Income,Earnings Before Tax Margin,Net Profit Margin
2019-12-31,8520000.0,-0.640050697085,0.0,0.0,0.0,0.0,10340000.0,193214000.0,84349000.0,193214000.0,34341000.0,0.0,0.0,158873000.0,0.0,158873000.0,2.83,2.83,56108084.0,56214364.0,1.18423469133,0.0,24.1522300469,22.677699530500004,18.6470657277,17.7420187793,205777000.0,193214000.0,158873000.0,22.677699530500004,18.6470657277
2018-12-31,23670000.0,-0.9184622539139999,0.0,0.0,0.0,0.0,6980000.0,174524000.0,67721000.0,174524000.0,31412000.0,0.0,0.0,143112000.0,0.0,143112000.0,2.93,2.92,48889041.0,49022990.0,1.09289539459,0.0,7.980861850439999,7.373215040139999,6.046134347280001,7.89556400507,188907000.0,174524000.0,143112000.0,7.373215040139999,6.046134347280001
2017-12-31,290295000.0,0.145916393637,0.0,0.0,0.0,0.0,4940000.0,148289000.0,42129000.0,148289000.0,53807000.0,0.0,0.0,94482000.0,0.0,94482000.0,2.15,2.14,44003208.0,44075293.0,1.01789453788,0.0,0.577347181316,0.510821750288,0.325468919547,0.46708003927,167601000.0,148289000.0,94482000.0,0.510821750288,0.325468919547
2016-12-31,253330000.0,0.06896158861030001,0.0,0.0,0.0,0.0,3598000.0,117671000.0,32767000.0,117671000.0,31036000.0,0.0,0.0,86635000.0,0.0,86635000.0,2.16,2.16,40100320.0,40127076.0,0.9421319410369999,0.0,0.535589941973,0.464496901275,0.341984762957,0.480148423006,135681000.0,117671000.0,86635000.0,0.464496901275,0.341984762957
2015-12-31,236987000.0,0.22646303848299998,0.0,0.0,0.0,0.0,3136000.0,109177000.0,24725000.0,109177000.0,28415000.0,0.0,0.0,80762000.0,0.0,80762000.0,2.15,2.15,37488331.0,37547127.0,0.8790819068529999,0.0,0.522218518315,0.46068771704800004,0.340786625427,0.333663871858,123759000.0,109177000.0,80762000.0,0.46068771704800004,0.340786625427
2014-12-31,193228000.0,0.0417333829325,0.0,0.0,0.0,0.0,1920000.0,93694000.0,22763000.0,93694000.0,23720000.0,0.0,0.0,69974000.0,0.0,69974000.0,2.39,2.39,29249499.0,29333876.0,0.8568932383840001,0.0,0.532127848966,0.484888318463,0.362131782143,0.45249135736,102822000.0,93694000.0,69974000.0,0.484888318463,0.362131782143
2013-12-31,185487000.0,0.101787337171,37337000.0,148150000.0,0.0,37337000.0,39625000.0,84688000.0,32403000.0,84688000.0,20763000.0,0.0,0.0,63925000.0,0.0,63925000.0,2.18,2.18,29270922.0,29344683.0,0.757990808761,0.798708265269,0.494536005219,0.456571080453,0.344633316621,0.55332718735,91730000.0,84688000.0,63925000.0,0.456571080453,0.344633316621
2012-12-31,168351000.0,-0.00598706934727,35447000.0,132904000.0,0.0,35447000.0,37597000.0,63132000.0,43335000.0,63132000.0,13588000.0,0.0,0.0,49544000.0,0.0,49544000.0,1.84,1.84,26867227.0,26888847.0,0.710926727353,0.7894458601369999,0.456148166628,0.375002227489,0.294289906208,0.420817221163,76793000.0,63132000.0,49544000.0,0.375002227489,0.294289906208
2011-12-31,169365000.0,-0.0648655811565,0.0,0.0,0.0,0.0,2410000.0,53647000.0,54802000.0,53647000.0,9838000.0,0.0,0.0,43809000.0,0.0,43809000.0,1.65,1.65,26614697.0,26615281.0,0.620094899618,0.0,0.39593186313600004,0.316753756679,0.258666194314,0.6269654296930001,67057000.0,53647000.0,43809000.0,0.316753756679,0.258666194314
2010-12-31,181113000.0,0.049389010887099995,0.0,181113000.0,0.0,131567000.0,141152000.0,39961000.0,0.0,39961000.0,4350000.0,0.0,0.0,35611000.0,0.0,35611000.0,1.34,1.34,26586953.0,26579735.0,0.56,1.0,0.258,0.2206,0.19699999999999998,0.5597,46812000.0,39961000.0,35611000.0,0.2206,0.1966
2009-12-31,172589000.0,-0.0683,0.0,172589000.0,0.0,137721000.0,149648000.0,22941000.0,0.0,22941000.0,-992000.0,0.0,0.0,23933000.0,5233000.0,18700000.0,0.7,0.7,26567653.0,26566133.0,0.84,1.0,0.177,0.1329,0.10800000000000001,0.2247,30530000.0,22941000.0,23933000.0,0.1329,0.1387
