,0,1,2,3,4,5,6,7,8,9,10,11,12,13,14,15,16,17,18,19,20,21,22,23,24,25,26,27,28,29,30
Date,Revenue,Revenue Growth,Cost of Revenue,Gross Profit,R&D Expenses,SG&A Expense,Operating Expenses,Operating Income,Interest Expense,Earnings before Tax,Income Tax Expense,Net Income - Non-Controlling int,Net Income - Discontinued ops,Net Income,Preferred Dividends,Net Income Com,EPS,EPS Diluted,Weighted Average Shs Out,Weighted Average Shs Out (Dil),Dividend per Share,Gross Margin,EBITDA Margin,EBIT Margin,Profit Margin,Free Cash Flow margin,EBITDA,EBIT,Consolidated Income,Earnings Before Tax Margin,Net Profit Margin
2019-03-31,32199528.0,0.625237461021,19252768.0,12946760.0,0.0,20429462.0,21010131.0,-8063371.0,554482.0,-8617565.0,0.0,0.0,0.0,-8617565.0,0.0,-8617565.0,-0.27,-0.27,34656829.0,31932168.0,0.0,0.4021,-0.23199999999999998,-0.2504,-0.268,-0.2946,-7482414.0,-8063083.0,-8617565.0,-0.2676,-0.2676
2018-03-31,19812199.0,0.552238587298,11687017.0,8125182.0,0.0,13636468.0,14055245.0,-5930063.0,465336.0,-6687280.0,0.0,0.0,0.0,-6687280.0,0.0,-6687280.0,-0.32,-0.32,21958062.0,20643082.0,0.0,0.4101,-0.293,-0.314,-0.33799999999999997,-0.1486,-5803167.0,-6221944.0,-6687280.0,-0.3375,-0.3375
2017-03-31,12763630.0,0.800533122221,7350394.0,5413236.0,0.0,7592673.0,7952229.0,-2538993.0,367115.0,-3454600.0,0.0,0.0,0.0,-3454600.0,0.0,-3454600.0,-0.22,-0.22,15971977.0,15550257.0,0.0,0.4241,-0.214,-0.2419,-0.271,-0.22,-2727929.0,-3087485.0,-3454600.0,-0.2707,-0.2707
2016-03-31,7088806.0,0.915647068107,4432459.0,2656347.0,0.0,9815157.0,10133485.0,-7477138.0,350053.0,-8281584.0,0.0,0.0,0.0,-8281584.0,0.0,-8281584.0,-2.19,-2.19,5719040.0,3772941.0,0.0,0.3747,-1.074,-1.1189,-1.168,-0.4873,-7613203.0,-7931531.0,-8281584.0,-1.1683,-1.1683
2015-03-31,3700476.0,1.0,2532436.0,1168040.0,0.0,7907122.0,8082158.0,-6914118.0,137056.0,-7139449.0,0.0,0.0,0.0,-7139449.0,0.0,-7139449.0,-3.19,-3.19,2394417.0,2234096.0,0.0,0.3156,-1.845,-1.8923,-1.929,-0.9472,-6827357.0,-7002393.0,-7139449.0,-1.9293,-1.9293
2014-12-31,0.0,-1.0,0.0,0.0,3474.0,0.0,1901469.0,-1901469.0,-1121492.0,0.0,0.0,0.0,0.0,-3987927.0,0.0,-3987927.0,0.0,0.0,1322317495.0,1322317495.0,0.0,0.0,0.0,0.0,0.0,0.0,-1885255.0,-1901469.0,-3987927.0,0.0,0.0
2014-03-31,552699.0,1.0,411851.0,140848.0,0.0,4378946.0,4421353.0,-4280505.0,11055.0,-4229513.0,0.0,0.0,0.0,-4229513.0,0.0,-4229513.0,-2.5,-2.5,1632044.0,1604415.0,0.0,0.2548,-7.556,-7.6325,-7.652,-3.0166,-4176051.0,-4218458.0,-4229513.0,-7.6525,-7.6525
2013-12-31,0.0,0.0,56344.0,-56344.0,55874.0,0.0,2558393.0,-2614737.0,-1053978.0,0.0,0.0,0.0,0.0,-3237046.0,0.0,-3237046.0,0.0,0.0,922685840.0,922685840.0,0.0,0.0,0.0,0.0,0.0,0.0,-2568987.0,-2614737.0,-3237046.0,0.0,0.0
2012-12-31,0.0,0.0,0.0,0.0,0.0,0.0,0.0,0.0,0.0,0.0,0.0,0.0,0.0,0.0,0.0,0.0,0.0,0.0,0.0,0.0,0.0,0.0,0.0,0.0,0.0,0.0,0.0,0.0,0.0,0.0,0.0
2012-08-31,0.0,0.0,0.0,0.0,0.0,0.0,42626.0,-42626.0,0.0,0.0,0.0,0.0,0.0,-42626.0,0.0,-42626.0,0.0,0.0,5879891.0,5879891.0,0.0,0.0,0.0,0.0,0.0,0.0,-42626.0,-42626.0,-42626.0,0.0,0.0
2011-12-31,0.0,0.0,0.0,0.0,0.0,0.0,0.0,0.0,0.0,0.0,0.0,0.0,0.0,0.0,0.0,0.0,0.0,0.0,0.0,0.0,0.0,0.0,0.0,0.0,0.0,0.0,0.0,0.0,0.0,0.0,0.0
