,0,1,2,3,4,5,6,7,8,9,10,11,12,13,14,15,16,17,18,19,20,21,22,23,24,25,26,27,28
Date,Cash and cash equivalents,Short-term investments,Cash and short-term investments,Receivables,Inventories,Total current assets,Property Plant & Equipment Net,Goodwill and Intangible Assets,Long-term investments,Tax assets,Total non-current assets,Total assets,Payables,Short-term debt,Total current liabilities,Long-term debt,Total debt,Deferred revenue,Tax Liabilities,Deposit Liabilities,Total non-current liabilities,Total liabilities,Other comprehensive income,Retained earnings (deficit),Total shareholders equity,Investments,Net Debt,Other Assets,Other Liabilities
2019-03-31,11032451.0,0.0,11032451.0,3068181.0,2058012.0,16537343.0,1945265.0,0.0,0.0,0.0,1945265.0,18482608.0,2898958.0,3131279.0,7125695.0,0.0,3131279.0,0.0,0.0,0.0,0.0,7125695.0,0.0,-38694879.0,11356913.0,0.0,-7901172.0,378699.0,1095458.0
2018-03-31,988905.0,0.0,988905.0,2599095.0,1002020.0,4886491.0,1169635.0,0.0,0.0,0.0,1169635.0,6056126.0,2052988.0,2723598.0,5595885.0,0.0,2723598.0,0.0,0.0,0.0,0.0,5595885.0,0.0,-30077314.0,460241.0,0.0,1734693.0,296471.0,819299.0
2017-03-31,603805.0,0.0,603805.0,1419281.0,819988.0,3150321.0,1120148.0,0.0,0.0,0.0,1120148.0,4270469.0,1343824.0,1626290.0,3429437.0,8006.0,1634296.0,0.0,0.0,0.0,8006.0,3437443.0,0.0,-23388534.0,833026.0,0.0,1030491.0,307247.0,459323.0
2016-03-31,1192119.0,0.0,1192119.0,911390.0,434708.0,2549023.0,1226534.0,0.0,0.0,0.0,1226534.0,3775557.0,847452.0,1043264.0,2153472.0,95204.0,1138468.0,0.0,0.0,0.0,95204.0,2248676.0,0.0,-19933934.0,1526881.0,0.0,-53651.0,10806.0,262756.0
2015-03-31,90113.0,0.0,90113.0,416373.0,193355.0,717341.0,1199900.0,0.0,0.0,0.0,1199900.0,1917241.0,605535.0,452419.0,1413331.0,233770.0,686189.0,0.0,0.0,0.0,233770.0,1647101.0,0.0,-11652350.0,270140.0,0.0,596076.0,17500.0,355377.0
2014-12-31,4967.0,0.0,4967.0,0.0,141636.0,184884.0,0.0,0.0,0.0,0.0,76708.0,261592.0,1474363.0,842531.0,8336135.0,0.0,842531.0,0.0,0.0,0.0,0.0,8336135.0,44164448.0,-52256430.0,-8074543.0,0.0,837564.0,0.0,0.0
2014-03-31,2665.0,0.0,2665.0,166404.0,57965.0,281322.0,286986.0,0.0,0.0,0.0,286986.0,568308.0,338557.0,83348.0,836323.0,0.0,83348.0,0.0,0.0,0.0,0.0,836323.0,0.0,-4512901.0,-351835.0,0.0,80683.0,54288.0,414418.0
2013-12-31,2199.0,0.0,2199.0,0.0,141636.0,179272.0,0.0,59422.0,0.0,83400.0,92922.0,272194.0,1209319.0,593153.0,5807697.0,0.0,593153.0,0.0,0.0,0.0,0.0,5807697.0,41798829.0,-48268503.0,-5535503.0,0.0,590954.0,0.0,0.0
2012-12-31,0.0,0.0,0.0,0.0,0.0,0.0,0.0,0.0,0.0,0.0,0.0,0.0,0.0,0.0,0.0,0.0,0.0,0.0,0.0,0.0,0.0,0.0,0.0,0.0,0.0,0.0,0.0,0.0,0.0
2012-08-31,1462.0,0.0,1462.0,0.0,0.0,1462.0,0.0,0.0,0.0,0.0,4000.0,5462.0,0.0,20604.0,20604.0,0.0,20604.0,0.0,0.0,4000.0,0.0,20604.0,0.0,7300.0,-15142.0,0.0,19142.0,0.0,0.0
2011-12-31,0.0,0.0,0.0,0.0,0.0,0.0,0.0,0.0,0.0,0.0,0.0,0.0,0.0,0.0,0.0,0.0,0.0,0.0,0.0,0.0,0.0,0.0,0.0,0.0,0.0,0.0,0.0,0.0,0.0
