,0,1,2,3,4,5,6,7,8,9,10,11,12,13,14,15,16,17,18,19,20,21,22,23,24,25,26,27,28
Date,Cash and cash equivalents,Short-term investments,Cash and short-term investments,Receivables,Inventories,Total current assets,Property Plant & Equipment Net,Goodwill and Intangible Assets,Long-term investments,Tax assets,Total non-current assets,Total assets,Payables,Short-term debt,Total current liabilities,Long-term debt,Total debt,Deferred revenue,Tax Liabilities,Deposit Liabilities,Total non-current liabilities,Total liabilities,Other comprehensive income,Retained earnings (deficit),Total shareholders equity,Investments,Net Debt,Other Assets,Other Liabilities
2019-12-31,79268000.0,0.0,79268000.0,267628000.0,37542000.0,415601000.0,453278000.0,403886000.0,0.0,229000.0,932019000.0,1347620000.0,35686000.0,19315000.0,151881000.0,72143000.0,91458000.0,0.0,0.0,0.0,83270000.0,410443000.0,914861000.0,21437000.0,937177000.0,0.0,12190000.0,0.0,175292000.0
2018-12-31,17237000.0,0.0,17237000.0,341711000.0,44992000.0,432152000.0,502848000.0,422178000.0,0.0,0.0,928453000.0,1360605000.0,53847000.0,938000.0,179719000.0,45000000.0,45938000.0,0.0,0.0,0.0,70113000.0,527671000.0,813859000.0,18653000.0,832934000.0,0.0,28701000.0,0.0,277839000.0
2017-12-31,2774000.0,0.0,2774000.0,373633000.0,44598000.0,446516000.0,474109000.0,429487000.0,0.0,3266000.0,909852000.0,1356368000.0,52579000.0,1965000.0,185193000.0,75000000.0,76965000.0,0.0,0.0,0.0,107806000.0,699721000.0,674137000.0,-17859000.0,656647000.0,0.0,74191000.0,0.0,406722000.0
2016-12-31,40041000.0,0.0,40041000.0,76027000.0,1001000.0,124655000.0,248867000.0,23828000.0,0.0,0.0,280411000.0,405066000.0,11444000.0,0.0,46384000.0,0.0,0.0,0.0,66000.0,0.0,23974000.0,70358000.0,0.0,-1043000.0,112716000.0,0.0,-40041000.0,7586000.0,34940000.0
2015-12-31,16305000.0,0.0,16305000.0,79703000.0,701000.0,107117000.0,368692000.0,170611000.0,0.0,0.0,543131000.0,650248000.0,9857000.0,22305000.0,65550000.0,245341000.0,267646000.0,0.0,0.0,0.0,256923000.0,322473000.0,0.0,0.0,317154000.0,0.0,251341000.0,10408000.0,33388000.0
