,0,1,2,3,4,5,6,7,8,9,10,11,12,13,14,15,16,17,18,19,20,21,22,23,24,25,26,27,28,29,30
Date,Revenue,Revenue Growth,Cost of Revenue,Gross Profit,R&D Expenses,SG&A Expense,Operating Expenses,Operating Income,Interest Expense,Earnings before Tax,Income Tax Expense,Net Income - Non-Controlling int,Net Income - Discontinued ops,Net Income,Preferred Dividends,Net Income Com,EPS,EPS Diluted,Weighted Average Shs Out,Weighted Average Shs Out (Dil),Dividend per Share,Gross Margin,EBITDA Margin,EBIT Margin,Profit Margin,Free Cash Flow margin,EBITDA,EBIT,Consolidated Income,Earnings Before Tax Margin,Net Profit Margin
2018-12-31,1901275687.4096,0.249291368756,208074529.6671,1693201157.7424,246417945.0072,1101390882.7786,1347808827.7858,345392329.9566,-2247322.7207,351505354.5586,43372648.3357,-20115.7742,0.0,308132706.2229,19131982.6339,289000723.589,1.9595,1.9276,42541987.1201,42677643.7048,0.0,0.8906,0.0311,0.1837,0.022000000000000002,0.2754,409039797.3951,349258031.8379,308112590.4486,0.1849,0.1621
2017-12-31,1521883313.1802,0.39216317246,139887696.4933,1381995616.6868,206838119.7098,903624093.1076,1110462212.8174,271533403.8694,245314.3894,231448609.4317,22171856.1064,705411.1245,0.0,209276753.3253,15040356.711,194236396.6143,1.3331,1.315,43783403.416,44056185.7618,0.0,0.9081,0.0296,0.1522,0.0193,0.2641,297538391.7775,231693923.82099998,209982164.4498,0.1521,0.1375
2016-12-31,1093178833.6933,0.584561974638,101833981.2815,991344852.4118,159524406.0475,798169330.4536,957693736.5011,33651115.9107,7003599.712,-117930453.5637,-7340532.7574,-707847.3722,0.0,-110589920.8063,2263066.9546,-112852987.761,-0.7862,-0.7862,41709286.8251,41321104.1037,0.0,0.9068,-0.0069,-0.1015,-0.0148,0.2206,-52348452.1238,-110926853.8517,-111297768.1785,-0.1079,-0.1012
2015-12-31,689893390.8489,1.6246220566799998,49609613.3107,640283777.5381,117207826.2209,766523031.8903,883730858.1112,-243447080.5731,8033584.9638,-249950084.7327,-7515945.1548,-12433369.2805,0.0,-242434139.5779,887690.6486,-243321830.2265,-2.0644,-2.0644,142000000.0,36175009.3976,0.0,0.9281,-0.0468,-0.3507,-0.0544,-0.2378,-209695886.6122,-241916499.7689,-253979818.2098,-0.3623,-0.3514
2014-12-31,262854375.2018,,13736034.8725,249118340.3294,43321924.443,199127865.6765,242449790.1195,6668550.2099,0.0,28660154.9887,6149176.6225,0.0,0.0,22510978.3662,0.0,22510978.3662,0.268,0.2583,,27218158.3791,0.0,0.9477,0.021,0.109,0.0139,0.2502,34220051.6629,28660154.9887,22510978.3662,0.109,0.0856
