,0,1,2,3,4,5,6,7,8,9,10,11,12,13,14,15,16,17,18,19,20,21,22,23,24,25,26,27,28,29,30
Date,Revenue,Revenue Growth,Cost of Revenue,Gross Profit,R&D Expenses,SG&A Expense,Operating Expenses,Operating Income,Interest Expense,Earnings before Tax,Income Tax Expense,Net Income - Non-Controlling int,Net Income - Discontinued ops,Net Income,Preferred Dividends,Net Income Com,EPS,EPS Diluted,Weighted Average Shs Out,Weighted Average Shs Out (Dil),Dividend per Share,Gross Margin,EBITDA Margin,EBIT Margin,Profit Margin,Free Cash Flow margin,EBITDA,EBIT,Consolidated Income,Earnings Before Tax Margin,Net Profit Margin
2017-12,21000000.0,,8000000.0,13000000.0,,9000000.0,9000000.0,4000000.0,0.0,3000000.0,0.0,,,3000000.0,,3000000.0,,,,,,0.61904761904762,0.23809523809524,0.14285714285714002,0.14285714285714002,,5000000.0,3000000.0,3000000.0,0.14285714285714002,0.14285714285714002
2016-12,19000000.0,,7000000.0,12000000.0,,8000000.0,8000000.0,4000000.0,0.0,4000000.0,1000000.0,,,3000000.0,,3000000.0,,,,,,0.63157894736842,0.31578947368421,0.21052631578947,0.15789473684211,,6000000.0,4000000.0,3000000.0,0.21052631578947,0.15789473684211
2015-12,18000000.0,,7000000.0,11000000.0,,8000000.0,8000000.0,3000000.0,0.0,3000000.0,1000000.0,,,2000000.0,,2000000.0,,,,,,0.61111111111111,0.27777777777778,0.16666666666667002,0.11111111111111001,,5000000.0,3000000.0,2000000.0,0.16666666666667002,0.11111111111111001
2014-12,15000000.0,,6000000.0,9000000.0,,6000000.0,6000000.0,3000000.0,0.0,3000000.0,1000000.0,,,2000000.0,,2000000.0,,,,,,0.6,0.26666666666667005,0.2,0.13333333333333,,4000000.0,3000000.0,2000000.0,0.2,0.13333333333333
2013-12,13000000.0,,6000000.0,8000000.0,,5000000.0,5000000.0,2000000.0,0.0,2000000.0,1000000.0,,,1000000.0,,1000000.0,,,,,,0.61538461538462,0.23076923076923,0.15384615384615,0.076923076923077,,3000000.0,2000000.0,1000000.0,0.15384615384615,0.076923076923077
