,0,1,2,3,4,5,6,7,8,9,10,11,12,13,14,15,16,17,18,19,20,21,22,23,24,25,26,27,28,29,30
Date,Revenue,Revenue Growth,Cost of Revenue,Gross Profit,R&D Expenses,SG&A Expense,Operating Expenses,Operating Income,Interest Expense,Earnings before Tax,Income Tax Expense,Net Income - Non-Controlling int,Net Income - Discontinued ops,Net Income,Preferred Dividends,Net Income Com,EPS,EPS Diluted,Weighted Average Shs Out,Weighted Average Shs Out (Dil),Dividend per Share,Gross Margin,EBITDA Margin,EBIT Margin,Profit Margin,Free Cash Flow margin,EBITDA,EBIT,Consolidated Income,Earnings Before Tax Margin,Net Profit Margin
2019-12-31,4573924000.0,-0.31911945528700003,2924254000.0,1649670000.0,0.0,896670000.0,896670000.0,878305000.0,414030000.0,488218000.0,176840000.0,0.0,0.0,122985000.0,0.0,122985000.0,1.15,1.15,106745000.0,106985000.0,5.29533112119,0.360668432619,0.334982172856,0.192024397432,0.026888291104099998,-0.0354669207446,1532183000.0,878305000.0,122985000.0,0.106739421118,0.026888291104099998
2018-12-31,6717660000.0,0.06521852197650001,611706000.0,6105954000.0,0.0,761415000.0,3798322000.0,735544000.0,381849000.0,305740000.0,-497344000.0,0.0,0.0,572430000.0,0.0,572430000.0,5.37,5.35,106529000.0,107032000.0,5.3234640107599995,0.908940613249,0.196952063665,0.109494079784,0.0852127079965,-0.0765866387998,1323057000.0,735544000.0,572430000.0,0.045512872041800004,0.0852127079965
2017-12-31,6306368000.0,0.41199029083800004,410825000.0,5895543000.0,0.0,685485000.0,3883214000.0,1055565000.0,388664000.0,560269000.0,-328985000.0,0.0,0.0,747181000.0,0.0,747181000.0,7.32,7.28,102071000.0,102598000.0,3.1263767324900003,0.934855530156,0.25893604686599997,0.167380812537,0.118480399495,0.149230587241,1632946000.0,1055565000.0,747181000.0,0.08884178658780001,0.118480399495
2016-12-31,4466297000.0,0.09578636089410002,375234000.0,4091063000.0,0.0,548141000.0,2627881000.0,521662000.0,289365000.0,310597000.0,8128000.0,0.0,0.0,241975000.0,0.0,241975000.0,2.39,2.38,101445000.0,101855000.0,3.19294094546,0.9159854349140001,0.21286493038899998,0.11679966648,0.054177991297900005,-0.057183165382900004,950718000.0,521662000.0,241975000.0,0.0695423972029,0.054177991297900005
2015-12-31,4075883000.0,-0.249882721797,361246000.0,3714637000.0,0.0,464793000.0,2327480000.0,658814000.0,300906000.0,289247000.0,7723000.0,0.0,0.0,195290000.0,0.0,195290000.0,1.93,1.92,101163000.0,101671000.0,4.90903994256,0.911369879852,0.245646894182,0.161637122557,0.047913544132599996,-0.33083064455,1001228000.0,658814000.0,195290000.0,0.07096548159010001,0.047913544132599996
2014-12-31,5433661000.0,-0.0333174047881,337206000.0,5096455000.0,0.0,492464000.0,3159477000.0,1266278000.0,315062000.0,958862000.0,-3782000.0,0.0,0.0,731554000.0,0.0,731554000.0,7.25,7.18,100927000.0,101931000.0,9.250649949480001,0.9379412885709999,0.29759788106,0.233043246533,0.13463372116900002,-0.00528152197938,1617046000.0,1266278000.0,731554000.0,0.176467026559,0.13463372116900002
2013-12-31,5620936000.0,0.0905367263426,323573000.0,5297363000.0,0.0,448788000.0,3295277000.0,1290091000.0,299022000.0,986523000.0,-17634000.0,0.0,0.0,728652000.0,0.0,728652000.0,7.25,7.17,100540000.0,101641000.0,10.1827608937,0.942434320547,0.29934427291099996,0.229515333389,0.129631790862,0.20812476783199998,1682595000.0,1290091000.0,728652000.0,0.17550866973,0.129631790862
2012-12-31,5154284000.0,-0.021918891675400003,308394000.0,4845890000.0,0.0,441699000.0,3068521000.0,1029276000.0,288759000.0,732998000.0,4299000.0,0.0,0.0,502036000.0,0.0,502036000.0,4.87,4.82,103092000.0,104249000.0,9.16548839797,0.940167441297,0.276748429074,0.199693303667,0.09740169536639999,0.183290831471,1426440000.0,1029276000.0,502036000.0,0.142211410935,0.09740169536639999
2011-12-31,5269792000.0,0.259300432194,283940000.0,4985852000.0,0.0,389053000.0,3075425000.0,1008240000.0,229918000.0,805567000.0,-19546000.0,0.0,0.0,613371000.0,0.0,613371000.0,4.94,4.88,124039000.0,125667000.0,8.22369436686,0.946119315525,0.27059170456799997,0.191324439371,0.116393777971,0.252702383699,1425962000.0,1008240000.0,613371000.0,0.152865046666,0.116393777971
2010-12-31,4184698000.0,0.37400935313100003,272747000.0,3911951000.0,0.0,391254000.0,2491304000.0,625252000.0,222863000.0,-239125000.0,20447000.0,0.0,0.0,160127000.0,0.0,160127000.0,1.3,1.29,122787000.0,123939000.0,9.61874793245,0.934822775742,0.252145316102,0.14941388840999997,0.0382648879322,0.184836277313,1055152000.0,625252000.0,160127000.0,-0.057142713763300004,0.0382648879322
2009-12-31,3045611000.0,0.0195,1991049000.0,1054562000.0,0.0,365070000.0,819599000.0,234963000.0,211385000.0,23653000.0,2999000.0,18453000.0,0.0,20654000.0,0.0,20654000.0,0.17,0.17,123125207.0,119840000.0,4.0,0.3463,0.212,0.0772,0.006999999999999999,0.0178,645585000.0,235038000.0,39107000.0,0.0078,0.0068
