,0,1,2,3,4,5,6,7,8,9,10,11,12,13,14
Date,Depreciation & Amortization,Stock-based compensation,Operating Cash Flow,Capital Expenditure,Acquisitions and disposals,Investment purchases and sales,Investing Cash flow,Issuance (repayment) of debt,Issuance (buybacks) of shares,Dividend payments,Financing Cash Flow,Effect of forex changes on cash,Net cash flow / Change in cash,Free Cash Flow,Net Cash/Marketcap
2019-03-31,64787.0,2399321.0,1341052.0,56475.0,-0.0,-1737164.0,-1793639.0,-28646.0,-541018.0,-0.0,1071490.0,0.0,618903.0,1284577.0,0.0
2018-03-31,0.0,,2000.0,0.0,,,0.0,,,,-7000.0,,-5000.0,,0.3637
2017-12-31,1084000.0,4385000.0,-7119000.0,0.0,-0.0,-629000.0,-1149000.0,-418000.0,-25000.0,-0.0,9462000.0,0.0,1194000.0,-7119000.0,0.0
2016-12-31,0.0,0.0,1908.0,0.0,-0.0,0.0,0.0,7400.0,-41.0,-0.0,-7400.0,0.0,-5492.0,1908.0,0.0
2016-06-30,38137.0,0.0,-7118337.0,-244461.0,0.0,0.0,-1143180.0,20000.0,0.0,0.0,9461663.0,0.0,1200346.0,-28678.0,0.3637
