,0,1,2,3,4,5,6,7,8,9,10,11,12,13,14,15,16,17,18,19,20,21,22,23,24,25,26,27,28,29,30
Date,Revenue,Revenue Growth,Cost of Revenue,Gross Profit,R&D Expenses,SG&A Expense,Operating Expenses,Operating Income,Interest Expense,Earnings before Tax,Income Tax Expense,Net Income - Non-Controlling int,Net Income - Discontinued ops,Net Income,Preferred Dividends,Net Income Com,EPS,EPS Diluted,Weighted Average Shs Out,Weighted Average Shs Out (Dil),Dividend per Share,Gross Margin,EBITDA Margin,EBIT Margin,Profit Margin,Free Cash Flow margin,EBITDA,EBIT,Consolidated Income,Earnings Before Tax Margin,Net Profit Margin
2019-12-31,61150000.0,0.106126657381,0.0,0.0,0.0,10392000.0,110928000.0,25616000.0,83837000.0,36217000.0,0.0,0.0,0.0,25616000.0,0.0,25616000.0,0.82,0.81,31430113.0,31670356.0,0.854174168424,0.0,0.47448896157,0.41890433360600005,0.41890433360600005,0.7086345053149999,29015000.0,25616000.0,25616000.0,0.592264922322,0.41890433360600005
2018-12-31,55283000.0,0.264796723787,0.0,0.0,0.0,10666000.0,97063000.0,6973000.0,67616000.0,26963000.0,-343000.0,0.0,0.0,6973000.0,0.0,6973000.0,0.22,0.22,31198319.0,31383102.0,0.35267386888700003,0.0,0.178734873288,0.126132807554,0.126132807554,0.8720221406219999,9881000.0,6973000.0,6973000.0,0.48772678761999994,0.126132807554
2017-12-31,43709000.0,-0.302664326739,0.0,0.0,0.0,15846000.0,33789000.0,33341000.0,57657000.0,31557000.0,6613000.0,0.0,0.0,33341000.0,0.0,33341000.0,0.18,0.18,30836400.0,31075787.0,0.20118557254900002,0.0,0.8348623853210001,0.762794847743,0.762794847743,5.05154544831,36491000.0,33341000.0,33341000.0,0.7219794550319999,0.762794847743
2016-12-31,62680000.0,-0.385484171413,0.0,0.0,0.0,15197000.0,77023000.0,-30594000.0,53747000.0,-26547000.0,10992000.0,0.0,0.0,-30594000.0,0.0,-30594000.0,-1.73,-1.73,30539369.0,30539369.0,1.71611273304,0.0,-0.750670070198,-0.488098276962,-0.488098276962,0.667086790045,-47052000.0,-30594000.0,-30594000.0,-0.423532227186,-0.488098276962
2015-12-31,101999000.0,0.025672224121599998,6000.0,101993000.0,0.0,48080000.0,119713000.0,17183000.0,65653000.0,18928000.0,1745000.0,0.0,0.0,17183000.0,0.0,17183000.0,-0.43,-0.43,32280319.0,32280319.0,2.79117439948,0.9999411758939999,0.36160158432899997,0.168462435906,0.168462435906,0.686094961715,36883000.0,17183000.0,17183000.0,0.185570446769,0.168462435906
2014-12-31,99446000.0,0.09272913072619998,5443000.0,94003000.0,0.0,15263000.0,62783000.0,62168000.0,45473000.0,86736000.0,-2212000.0,0.0,0.0,62168000.0,0.0,62168000.0,0.34,0.34,128031064.0,129259386.0,0.8063244242859999,0.94526677795,0.737344890694,0.625143293848,0.625143293848,-0.708505118356,73326000.0,62168000.0,62168000.0,0.872191943366,0.625143293848
2013-12-31,91007000.0,-0.264280748274,14062000.0,76945000.0,0.0,16110000.0,61561000.0,46453000.0,61010000.0,0.0,-1041000.0,0.0,0.0,46453000.0,7221000.0,46453000.0,0.33,0.33,118478672.0,120038973.0,0.7785638086059999,0.8454844132870001,0.8026635313770001,0.510433263375,0.510433263375,0.747722702649,73048000.0,46453000.0,46453000.0,0.0,0.510433263375
2012-12-31,123698000.0,0.31365823094,8046000.0,115652000.0,0.0,4434000.0,78452000.0,64443000.0,42792000.0,0.0,14602000.0,0.0,0.0,64443000.0,1244000.0,64443000.0,0.71,0.71,88410272.0,89284488.0,0.829371390918,0.934954485925,0.6302688806610001,0.520970427978,0.520970427978,0.331428155669,77963000.0,64443000.0,64443000.0,0.0,0.520970427978
2011-12-31,94163000.0,0.0771087369312,2743000.0,91420000.0,0.0,3950000.0,41345000.0,37716000.0,30431000.0,0.0,12036000.0,0.0,0.0,37716000.0,0.0,37716000.0,0.54,0.53,70410131.0,70809088.0,0.9867236250799999,0.970869662182,0.49644764928900004,0.40053949003300005,0.40053949003300005,0.35084905960900004,46747000.0,37716000.0,37716000.0,0.0,0.40053949003300005
2010-12-31,87422000.0,0.67584250278,13262000.0,74160000.0,0.0,6642000.0,13625000.0,60535000.0,0.0,25168000.0,5721000.0,0.0,0.0,19447000.0,0.0,19447000.0,1.64,1.64,14028447.0,11928771.0,4.0,0.8483,0.33399999999999996,0.2879,0.222,0.2349,29171000.0,25168000.0,19447000.0,0.2879,0.2224
2009-12-31,52166000.0,-0.0467,8363000.0,43803000.0,0.0,5630000.0,7698000.0,36105000.0,0.0,6337000.0,-2000.0,0.0,0.0,6339000.0,0.0,6339000.0,1.0,1.0,6426295.0,6301351.0,4.6,0.8397,0.121,0.1215,0.122,0.8937,6337000.0,6337000.0,6339000.0,0.1215,0.1215
