,0,1,2,3,4,5,6,7,8,9,10,11,12,13,14,15,16,17,18,19,20,21,22,23,24,25,26,27,28
Date,Cash and cash equivalents,Short-term investments,Cash and short-term investments,Receivables,Inventories,Total current assets,Property Plant & Equipment Net,Goodwill and Intangible Assets,Long-term investments,Tax assets,Total non-current assets,Total assets,Payables,Short-term debt,Total current liabilities,Long-term debt,Total debt,Deferred revenue,Tax Liabilities,Deposit Liabilities,Total non-current liabilities,Total liabilities,Other comprehensive income,Retained earnings (deficit),Total shareholders equity,Investments,Net Debt,Other Assets,Other Liabilities
2018-12-31,26268000.0,0.0,26268000.0,13000.0,0.0,27663000.0,1061000.0,0.0,0.0,0.0,1093000.0,28756000.0,500000.0,0.0,2043000.0,4925000.0,4925000.0,0.0,0.0,0.0,5761000.0,7804000.0,0.0,-54994000.0,20952000.0,0.0,-21343000.0,1382000.0,1543000.0
2017-12-31,25764000.0,0.0,25764000.0,30000.0,0.0,27638000.0,1317000.0,0.0,0.0,0.0,1349000.0,28987000.0,1049000.0,0.0,3356000.0,4855000.0,4855000.0,1034000.0,0.0,0.0,5656000.0,9012000.0,0.0,-33615000.0,19975000.0,0.0,-20909000.0,1844000.0,2307000.0
2016-12-31,19623000.0,0.0,19623000.0,15000.0,0.0,20041000.0,503000.0,0.0,0.0,0.0,535000.0,20576000.0,509000.0,1213000.0,12158000.0,4454000.0,5667000.0,9310000.0,0.0,0.0,5970000.0,18128000.0,0.0,-22604000.0,2448000.0,0.0,-13956000.0,403000.0,10436000.0
2015-12-31,18731000.0,0.0,18731000.0,294000.0,0.0,19204000.0,385000.0,0.0,0.0,,,19621000.0,635000.0,0.0,1343000.0,0.0,,,,,,1391000.0,,-5663000.0,-23956000.0,0.0,,,708000.0
