,0,1,2,3,4,5,6,7,8,9,10,11,12,13,14,15,16,17,18,19,20,21,22,23,24,25,26,27,28,29,30
Date,Revenue,Revenue Growth,Cost of Revenue,Gross Profit,R&D Expenses,SG&A Expense,Operating Expenses,Operating Income,Interest Expense,Earnings before Tax,Income Tax Expense,Net Income - Non-Controlling int,Net Income - Discontinued ops,Net Income,Preferred Dividends,Net Income Com,EPS,EPS Diluted,Weighted Average Shs Out,Weighted Average Shs Out (Dil),Dividend per Share,Gross Margin,EBITDA Margin,EBIT Margin,Profit Margin,Free Cash Flow margin,EBITDA,EBIT,Consolidated Income,Earnings Before Tax Margin,Net Profit Margin
2019-12-31,6829000.0,1.0,0.0,0.0,38845000.0,10803000.0,49648000.0,-42819000.0,1434000.0,-41618000.0,-23000.0,0.0,0.0,-41595000.0,0.0,-41595000.0,-1.54,-1.54,25939405.0,25939405.0,0.0,0.0,-6.13047298287,-6.27017132816,-6.09093571533,-0.859862351735,-41865000.0,-42819000.0,-41595000.0,-6.09430370479,-6.09093571533
2018-12-31,0.0,-1.0,0.0,0.0,23634000.0,8382000.0,38016000.0,-38016000.0,1394000.0,0.0,0.0,0.0,0.0,-34497000.0,0.0,-34497000.0,-1.63,-1.63,19425711.0,19425711.0,0.0,0.0,0.0,0.0,0.0,0.0,-37146000.0,-38016000.0,-34497000.0,0.0,0.0
2017-12-31,311000.0,-0.827509706045,0.0,0.0,25573000.0,7313000.0,32886000.0,-32575000.0,24000.0,0.0,0.0,0.0,0.0,-30704000.0,0.0,-30704000.0,-1.71,-1.72,17985061.0,18001759.0,0.0,0.0,-102.620578778,-104.74276527299999,-98.72668810290001,-93.3794212219,-31915000.0,-32575000.0,-30704000.0,0.0,-98.72668810290001
2016-12-31,1803000.0,-0.8842524234450001,2200000.0,-397000.0,19828000.0,6792000.0,26620000.0,-24817000.0,0.0,0.0,0.0,0.0,0.0,-22997000.0,0.0,-22997000.0,-1.48,-1.48,15493474.0,15493474.0,0.0,-0.220188574598,-13.285080421500002,-13.7642817526,-12.754853022699999,-11.0072102052,-23953000.0,-24817000.0,-22997000.0,0.0,-12.754853022699999
2015-12-31,15577000.0,-0.45093408530100004,896000.0,14681000.0,15152000.0,9786000.0,24938000.0,-9361000.0,0.0,0.0,0.0,0.0,0.0,-15752000.0,0.0,-15752000.0,-1.1,-1.1,14281837.0,14281837.0,0.0,0.942479296399,-0.534313410798,-0.600950118765,-1.0112345124200002,-1.19753482699,-8323000.0,-9361000.0,-15752000.0,0.0,-1.0112345124200002
2014-12-31,28370000.0,0.0370668226349,0.0,0.0,11768000.0,5496000.0,17264000.0,11106000.0,0.0,0.0,0.0,0.0,0.0,13018000.0,0.0,13018000.0,4.11,3.28,3165572.0,3963797.0,0.0,0.0,0.417483256962,0.391469862531,0.458864998238,-0.0445188579485,11844000.0,11106000.0,13018000.0,0.0,0.458864998238
2013-12-31,27356000.0,0.9119373776909999,0.0,27356000.0,12303000.0,5341000.0,17644000.0,9712000.0,64000.0,12032000.0,0.0,0.0,0.0,12032000.0,8199000.0,3833000.0,2.87,1.91,,1337662.0,0.0,1.0,-0.239,0.4422,-0.301,-0.1268,12801000.0,12096000.0,12032000.0,0.4398,0.4398
2012-12-31,14308000.0,1.0682278115100001,0.0,14308000.0,10455000.0,7006000.0,17461000.0,-3153000.0,93000.0,-4301000.0,0.0,0.0,0.0,-4301000.0,0.0,-4301000.0,-3.24,-3.24,,1327460.0,0.0,1.0,-1.557,-0.2941,-1.733,3.1489,-3422000.0,-4208000.0,-4301000.0,-0.3006,-0.3006
2011-12-31,6918000.0,,0.0,6918000.0,12302000.0,6730000.0,19032000.0,-12114000.0,91000.0,-11992000.0,0.0,0.0,0.0,-11992000.0,0.0,-11992000.0,-9.06,-9.06,,1323683.0,0.0,1.0,,-1.7203,,-2.0207,-10769000.0,-11901000.0,-11992000.0,-1.7334,-1.7334
