,0,1,2,3,4,5,6,7,8,9,10,11,12,13,14,15,16,17,18,19,20,21,22,23,24,25,26,27,28
Date,Cash and cash equivalents,Short-term investments,Cash and short-term investments,Receivables,Inventories,Total current assets,Property Plant & Equipment Net,Goodwill and Intangible Assets,Long-term investments,Tax assets,Total non-current assets,Total assets,Payables,Short-term debt,Total current liabilities,Long-term debt,Total debt,Deferred revenue,Tax Liabilities,Deposit Liabilities,Total non-current liabilities,Total liabilities,Other comprehensive income,Retained earnings (deficit),Total shareholders equity,Investments,Net Debt,Other Assets,Other Liabilities
2019-12-31,72084000.0,0.0,72084000.0,5715000.0,0.0,81250000.0,1380000.0,0.0,0.0,468000.0,7060000.0,88310000.0,1476000.0,238000.0,5895000.0,25854000.0,26092000.0,0.0,0.0,0.0,26756000.0,32651000.0,220246000.0,-164600000.0,55659000.0,0.0,-45992000.0,0.0,0.0
2018-12-31,13164000.0,0.0,13164000.0,5952000.0,0.0,21312000.0,1566000.0,5506000.0,0.0,0.0,7575000.0,28887000.0,1279000.0,0.0,8952000.0,24617000.0,24617000.0,0.0,245000.0,0.0,26669000.0,35621000.0,0.0,-152564000.0,-111966000.0,0.0,11453000.0,2196000.0,7673000.0
2017-12-31,11241000.0,0.0,11241000.0,604000.0,0.0,13260000.0,1343000.0,5647000.0,0.0,0.0,7130000.0,20390000.0,1772000.0,0.0,4990000.0,18809000.0,18809000.0,0.0,214000.0,0.0,20038000.0,25028000.0,0.0,-147638000.0,-96684000.0,0.0,7568000.0,1415000.0,3218000.0
