,0,1,2,3,4,5,6,7,8,9,10,11,12,13,14,15,16,17,18,19,20,21,22,23,24,25,26,27,28,29,30
Date,Revenue,Revenue Growth,Cost of Revenue,Gross Profit,R&D Expenses,SG&A Expense,Operating Expenses,Operating Income,Interest Expense,Earnings before Tax,Income Tax Expense,Net Income - Non-Controlling int,Net Income - Discontinued ops,Net Income,Preferred Dividends,Net Income Com,EPS,EPS Diluted,Weighted Average Shs Out,Weighted Average Shs Out (Dil),Dividend per Share,Gross Margin,EBITDA Margin,EBIT Margin,Profit Margin,Free Cash Flow margin,EBITDA,EBIT,Consolidated Income,Earnings Before Tax Margin,Net Profit Margin
2019-12-31,1149087000.0,0.0858811177775,772857000.0,376230000.0,0.0,30732000.0,36089000.0,111481000.0,48605000.0,62610000.0,5367000.0,0.0,0.0,55400000.0,0.0,55400000.0,0.49,0.49,112636123.0,112918598.0,1.1146525216299998,0.327416461939,0.234327775007,0.0970170230801,0.048212189329399996,0.0487630614566,269263000.0,111481000.0,55400000.0,0.0544867359913,0.048212189329399996
2018-12-31,1058207000.0,1.0,689762000.0,368445000.0,0.0,30460000.0,35342000.0,131824000.0,51402000.0,204525000.0,5993000.0,0.0,0.0,193688000.0,0.0,193688000.0,1.75,1.75,110124142.0,110377734.0,1.1028764189,0.348178569977,0.27644402276700003,0.124572980523,0.183034132263,0.24021198120999998,292535000.0,131824000.0,193688000.0,0.19327503976100002,0.183034132263
2017-12-31,0.0,0.0,603253000.0,0.0,0.0,31552000.0,37400000.0,103505000.0,46294000.0,108649000.0,7833000.0,0.0,0.0,98862000.0,0.0,98862000.0,0.92,0.92,106767108.0,107019152.0,1.10673648395,0.0,0.0,0.0,0.0,0.0,259792000.0,103505000.0,98862000.0,0.0,0.0
2016-12-31,0.0,0.0,592337000.0,0.0,0.0,32018000.0,37465000.0,111503000.0,48113000.0,91807000.0,5077000.0,0.0,0.0,85855000.0,0.0,85855000.0,0.79,0.79,108012708.0,108142998.0,1.0646089171700002,0.0,0.0,0.0,0.0,0.0,268170000.0,111503000.0,85855000.0,0.0,0.0
2015-12-31,0.0,-1.0,610242000.0,0.0,0.0,25556000.0,30760000.0,104072000.0,50816000.0,95426000.0,6295000.0,0.0,0.0,88758000.0,12000.0,88758000.0,0.79,0.79,111989686.0,112138223.0,0.603772720743,0.0,0.0,0.0,0.0,0.0,255961000.0,104072000.0,88758000.0,0.0,0.0
2014-12-31,926666000.0,0.42154812838699995,593303000.0,333363000.0,0.0,40369000.0,238912000.0,94451000.0,57427000.0,115664000.0,5865000.0,0.0,-75120000.0,109799000.0,0.0,109799000.0,0.97,0.97,111664641.0,113397997.0,0.0,0.3597,0.373,0.1868,0.11800000000000001,0.1158,346055000.0,173091000.0,109799000.0,0.1248,0.1185
2013-12-31,651871000.0,0.39622815284400004,426633000.0,225238000.0,0.0,26188000.0,213523000.0,11715000.0,52792000.0,-47849000.0,3619000.0,0.0,5626000.0,-51468000.0,0.0,-51468000.0,-0.45,-0.45,,113397997.0,0.0,0.3455,0.24100000000000002,0.0076,-0.079,0.1823,157240000.0,4943000.0,-51468000.0,-0.0734,-0.079
2012-12-31,466880000.0,,309828000.0,157052000.0,0.0,19820000.0,132582000.0,24470000.0,45061000.0,-42451000.0,3695000.0,5689000.0,12661000.0,-46146000.0,0.0,-46146000.0,,,,,0.0,0.3364,0.33899999999999997,0.0056,-0.099,0.1453,158387000.0,2610000.0,-40457000.0,-0.0909,-0.0988
