,0,1,2,3,4,5,6,7,8,9,10,11,12,13,14
Date,Depreciation & Amortization,Stock-based compensation,Operating Cash Flow,Capital Expenditure,Acquisitions and disposals,Investment purchases and sales,Investing Cash flow,Issuance (repayment) of debt,Issuance (buybacks) of shares,Dividend payments,Financing Cash Flow,Effect of forex changes on cash,Net cash flow / Change in cash,Free Cash Flow,Net Cash/Marketcap
2019-12-31,8619000.0,31851000.0,64374000.0,11038000.0,-0.0,-496855000.0,-50970000.0,-0.0,-50312000.0,-0.0,10662000.0,0.0,24066000.0,53336000.0,0.0
2018-12-31,3645000.0,20548000.0,-79756000.0,9147000.0,-0.0,-377840000.0,-164767000.0,-0.0,233999000.0,-0.0,254241000.0,0.0,9718000.0,-88903000.0,0.0
2017-12-31,-815000.0,13651000.0,-33683000.0,7278000.0,-0.0,-76529000.0,31950000.0,-0.0,-16528000.0,-0.0,3733000.0,0.0,2000000.0,-40961000.0,0.0
2016-12-31,-571000.0,7848000.0,94617000.0,3009000.0,-0.0,-316149000.0,-213653000.0,-0.0,112018000.0,-0.0,120974000.0,0.0,14528000.0,91608000.0,0.0
2015-12-31,2209000.0,4869000.0,26666000.0,3675000.0,-0.0,-215798000.0,-185106000.0,-0.0,110316000.0,-0.0,116381000.0,0.0,12590000.0,22991000.0,0.0
2014-12-31,882000.0,1861000.0,-21351000.0,2285000.0,-0.0,0.0,-2283000.0,-8000.0,-54649000.0,-0.0,308000.0,0.0,54649000.0,-23636000.0,0.0
2013-12-31,711000.0,198000.0,-5453000.0,-120000.0,0.0,0.0,-1278000.0,-10000.0,72520000.0,0.0,82394000.0,0.0,75663000.0,-5573000.0,0.2899
2012-12-31,527000.0,29000.0,-11052000.0,56000.0,0.0,0.0,-1161000.0,-12000.0,0.0,0.0,-12000.0,0.0,-12225000.0,-10996000.0,0.2899
2011-12-31,607000.0,-57000.0,-1085000.0,78000.0,0.0,0.0,-1286000.0,-11000.0,0.0,0.0,-11000.0,0.0,-2382000.0,-1007000.0,0.2899
