,0,1,2,3,4,5,6,7,8,9,10,11,12,13,14,15,16,17,18,19,20,21,22,23,24,25,26,27,28
Date,Cash and cash equivalents,Short-term investments,Cash and short-term investments,Receivables,Inventories,Total current assets,Property Plant & Equipment Net,Goodwill and Intangible Assets,Long-term investments,Tax assets,Total non-current assets,Total assets,Payables,Short-term debt,Total current liabilities,Long-term debt,Total debt,Deferred revenue,Tax Liabilities,Deposit Liabilities,Total non-current liabilities,Total liabilities,Other comprehensive income,Retained earnings (deficit),Total shareholders equity,Investments,Net Debt,Other Assets,Other Liabilities
2019-12-31,56700000.0,681000.0,57381000.0,0.0,0.0,59973000.0,34000.0,0.0,0.0,0.0,35751000.0,95724000.0,614000.0,5184000.0,8875000.0,27093000.0,32277000.0,798000.0,5517000.0,0.0,27136000.0,51736000.0,1238299000.0,-1194384000.0,43988000.0,681000.0,-24423000.0,0.0,15725000.0
2018-12-31,45780000.0,392000.0,46172000.0,0.0,0.0,47626000.0,59000.0,0.0,0.0,0.0,16159000.0,63785000.0,1244000.0,789000.0,5703000.0,21690000.0,22479000.0,490000.0,5517000.0,0.0,39297000.0,45000000.0,1211122000.0,-1192402000.0,18785000.0,392000.0,-23301000.0,0.0,0.0
2017-12-31,43471000.0,0.0,43471000.0,0.0,0.0,44195000.0,83000.0,0.0,0.0,0.0,740000.0,44935000.0,1679000.0,0.0,7422000.0,14572000.0,14572000.0,1413000.0,1637000.0,0.0,31727000.0,39149000.0,1184783000.0,-1179059000.0,5786000.0,0.0,-28899000.0,0.0,0.0
2016-12-31,25742000.0,0.0,25742000.0,474000.0,0.0,27160000.0,1036000.0,0.0,0.0,0.0,1517000.0,28677000.0,5689000.0,17855000.0,32506000.0,25312000.0,43167000.0,899000.0,8625000.0,0.0,43450000.0,75887000.0,1146357000.0,-1193613000.0,-47210000.0,0.0,17425000.0,0.0,0.0
2015-12-31,65767000.0,496000.0,66263000.0,3718000.0,0.0,72219000.0,1997000.0,0.0,500000.0,0.0,2661000.0,74880000.0,6831000.0,5910000.0,23295000.0,42757000.0,48667000.0,3198000.0,9666000.0,0.0,43603000.0,77189000.0,1136881000.0,-1140083000.0,-2309000.0,996000.0,-17100000.0,0.0,10291000.0
2014-12-31,78445000.0,0.0,78445000.0,2993000.0,0.0,83842000.0,5120000.0,0.0,0.0,0.0,5789000.0,89631000.0,5990000.0,19247000.0,36475000.0,16290000.0,35537000.0,1089000.0,5503000.0,0.0,18229000.0,86532000.0,1121707000.0,-1119477000.0,3099000.0,0.0,-42908000.0,0.0,31828000.0
2013-12-31,101659000.0,19990000.0,121649000.0,3731000.0,0.0,127060000.0,6456000.0,0.0,0.0,0.0,7722000.0,134782000.0,9616000.0,5835000.0,29645000.0,35150000.0,40985000.0,2218000.0,4274000.0,0.0,39255000.0,138769000.0,1076403000.0,-1081176000.0,-3987000.0,19990000.0,-60674000.0,0.0,69869000.0
2012-12-31,45345000.0,39987000.0,85332000.0,7477000.0,0.0,95837000.0,8143000.0,0.0,0.0,0.0,9839000.0,105676000.0,3867000.0,3391000.0,23657000.0,37653000.0,41044000.0,3409000.0,4103000.0,0.0,45375000.0,84033000.0,977962000.0,-956942000.0,21643000.0,39987000.0,-4301000.0,0.0,15001000.0
2011-12-31,48344000.0,0.0,48344000.0,0.0,0.0,62695000.0,12709000.0,0.0,0.0,0.0,15341000.0,78036000.0,2128000.0,2796000.0,21010000.0,33524000.0,36320000.0,5695000.0,0.0,0.0,42015000.0,63025000.0,900801000.0,-886053000.0,15011000.0,0.0,-12024000.0,0.0,0.0
2010-12-31,37304000.0,0.0,37304000.0,20864000.0,0.0,58880000.0,14869000.0,0.0,0.0,0.0,15372000.0,74252000.0,3581000.0,0.0,35528000.0,13694000.0,13694000.0,18130000.0,0.0,0.0,15133000.0,50661000.0,0.0,-853310000.0,23591000.0,0.0,-23610000.0,712000.0,31947000.0
2009-12-31,23909000.0,0.0,23909000.0,7231000.0,0.0,32152000.0,20270000.0,0.0,0.0,0.0,20672000.0,52824000.0,2942000.0,0.0,18678000.0,13341000.0,13341000.0,5008000.0,0.0,0.0,16620000.0,35298000.0,0.0,-784554000.0,17526000.0,0.0,-10568000.0,1012000.0,15736000.0
