,0,1,2,3,4,5,6,7,8,9,10,11,12,13,14,15,16,17,18,19,20,21,22,23,24,25,26,27,28,29,30
Date,Revenue,Revenue Growth,Cost of Revenue,Gross Profit,R&D Expenses,SG&A Expense,Operating Expenses,Operating Income,Interest Expense,Earnings before Tax,Income Tax Expense,Net Income - Non-Controlling int,Net Income - Discontinued ops,Net Income,Preferred Dividends,Net Income Com,EPS,EPS Diluted,Weighted Average Shs Out,Weighted Average Shs Out (Dil),Dividend per Share,Gross Margin,EBITDA Margin,EBIT Margin,Profit Margin,Free Cash Flow margin,EBITDA,EBIT,Consolidated Income,Earnings Before Tax Margin,Net Profit Margin
2019-12-31,53276000.0,-0.175855454489,35848000.0,17428000.0,9884000.0,22592000.0,32476000.0,-15048000.0,343000.0,-15502000.0,-407000.0,0.0,0.0,-15095000.0,0.0,-15095000.0,-0.93,-0.93,16309259.0,16309259.0,0.0,0.327126661161,-0.19472182596299997,-0.28245363766,-0.28333583602400003,-0.112057962309,-10374000.0,-15048000.0,-15095000.0,-0.290975298446,-0.28333583602400003
2018-12-31,64644000.0,0.119492934331,43703000.0,20941000.0,10744000.0,23194000.0,33938000.0,-12997000.0,254000.0,-12507000.0,160000.0,0.0,0.0,-12667000.0,0.0,-12667000.0,-0.78,-0.78,16176415.0,16176415.0,0.0,0.323943444094,-0.114767031743,-0.201055008972,-0.195950126849,-0.20373120475200002,-7419000.0,-12997000.0,-12667000.0,-0.19347503248599998,-0.195950126849
2017-12-31,57744000.0,0.208336820959,43362000.0,14382000.0,9909000.0,24155000.0,34064000.0,-19682000.0,94000.0,-19979000.0,38000.0,0.0,0.0,-20017000.0,0.0,-20017000.0,-1.25,-1.25,16062424.0,16062424.0,0.0,0.249064837905,-0.232024106401,-0.34084926572499996,-0.34665073427500004,-0.18460792463300002,-13398000.0,-19682000.0,-20017000.0,-0.34599265724600003,-0.34665073427500004
2016-12-31,47788000.0,0.184249002552,33626000.0,14162000.0,7814000.0,20722000.0,28536000.0,-14374000.0,298000.0,-14531000.0,67000.0,0.0,0.0,-14598000.0,0.0,-14598000.0,-0.92,-0.92,15934935.0,15934935.0,0.0,0.296350548255,-0.177973549845,-0.300786808404,-0.305474177618,-0.0836820959237,-8505000.0,-14374000.0,-14598000.0,-0.304072152005,-0.305474177618
2015-12-31,40353000.0,-0.0807972665148,32010000.0,8343000.0,7279000.0,22576000.0,34274000.0,-25931000.0,152000.0,-26038000.0,-173000.0,0.0,0.0,-25865000.0,0.0,-25865000.0,-1.79,-1.79,14427956.0,14427956.0,0.0,0.206750427478,-0.513072138379,-0.642604019528,-0.640968453399,-0.388075236042,-20704000.0,-25931000.0,-25865000.0,-0.645255619161,-0.640968453399
2014-12-31,43900000.0,0.11195542046599999,33443000.0,10457000.0,8178000.0,24029000.0,32207000.0,-21750000.0,144000.0,-21684000.0,159000.0,0.0,0.0,-21843000.0,0.0,-21843000.0,-1.52,-1.52,14411054.0,14411054.0,0.0,0.238200455581,-0.39248291571800004,-0.49544419134400003,-0.497562642369,-1.18480637813,-17230000.0,-21750000.0,-21843000.0,-0.493940774487,-0.497562642369
2013-12-31,39480000.0,0.377673866769,23907000.0,15573000.0,5127000.0,16119000.0,21246000.0,-5673000.0,372000.0,-5947000.0,370000.0,0.0,0.0,-6455000.0,152000.0,-6455000.0,-0.51,-0.51,12838230.0,12838230.0,0.035518914990599997,0.39445288753799995,-0.0836119554205,-0.14369300911900001,-0.16350050658600002,-1.00058257345,-3301000.0,-5673000.0,-6455000.0,-0.150633232016,-0.16350050658600002
2012-12-31,28657000.0,0.874231523872,16514000.0,12143000.0,1930000.0,18285000.0,20215000.0,-8072000.0,842000.0,-9173000.0,995000.0,480000.0,0.0,-10168000.0,0.0,-10168000.0,-1.16,-1.16,13281608.0,13281608.0,0.0,0.4237,-0.23199999999999998,-0.2907,-0.355,-0.4025,-6648000.0,-8331000.0,-9688000.0,-0.3201,-0.3548
2011-12-31,15290000.0,0.13764880952400002,11647000.0,3643000.0,1531000.0,7286000.0,8817000.0,-5174000.0,1570000.0,-7006000.0,1031000.0,420000.0,0.0,-8037000.0,0.0,-8037000.0,-0.8,-0.8,,,0.0,0.2383,-0.27899999999999997,-0.3555,-0.526,-0.23,-4266000.0,-5436000.0,-7617000.0,-0.4582,-0.5256
2010-12-31,13440000.0,,10374000.0,3066000.0,1153000.0,5978000.0,7131000.0,-4065000.0,1114000.0,-5310000.0,198000.0,328000.0,0.0,-5508000.0,0.0,-5508000.0,-0.55,-0.55,,,0.0,0.2281,-0.23199999999999998,-0.3122,-0.41,-0.5734,-3124000.0,-4196000.0,-5180000.0,-0.3951,-0.4098
