,0,1,2,3,4,5,6,7,8,9,10,11,12,13,14,15,16,17,18,19,20,21,22,23,24,25,26,27,28
Date,Cash and cash equivalents,Short-term investments,Cash and short-term investments,Receivables,Inventories,Total current assets,Property Plant & Equipment Net,Goodwill and Intangible Assets,Long-term investments,Tax assets,Total non-current assets,Total assets,Payables,Short-term debt,Total current liabilities,Long-term debt,Total debt,Deferred revenue,Tax Liabilities,Deposit Liabilities,Total non-current liabilities,Total liabilities,Other comprehensive income,Retained earnings (deficit),Total shareholders equity,Investments,Net Debt,Other Assets,Other Liabilities
2019-12-31,5265000.0,0.0,5265000.0,6522000.0,19770000.0,34930000.0,38895000.0,0.0,0.0,985000.0,40436000.0,75366000.0,5818000.0,153000.0,24917000.0,1211000.0,1364000.0,11846000.0,503000.0,2243000.0,2153000.0,26784000.0,176850000.0,-116948000.0,48582000.0,0.0,-3901000.0,0.0,0.0
2018-12-31,7592000.0,0.0,7592000.0,6695000.0,15930000.0,34203000.0,41906000.0,0.0,0.0,1203000.0,43479000.0,77682000.0,4376000.0,144000.0,12912000.0,1364000.0,1508000.0,2343000.0,90000.0,0.0,1996000.0,14907000.0,175214000.0,-101853000.0,62775000.0,0.0,-6084000.0,0.0,0.0
2017-12-31,21848000.0,0.0,21848000.0,8647000.0,15430000.0,47965000.0,46797000.0,62000.0,0.0,1229000.0,47595000.0,95560000.0,4291000.0,137000.0,18806000.0,1508000.0,1645000.0,8282000.0,0.0,0.0,1545000.0,20351000.0,173718000.0,-89186000.0,75209000.0,0.0,-20203000.0,0.0,0.0
2016-12-31,27825000.0,0.0,27825000.0,6447000.0,15838000.0,51599000.0,51134000.0,0.0,0.0,1813000.0,52579000.0,104178000.0,2036000.0,132000.0,14735000.0,1644000.0,1776000.0,7371000.0,0.0,0.0,1663000.0,16398000.0,171116000.0,-68761000.0,87780000.0,0.0,-26049000.0,0.0,0.0
2015-12-31,19342000.0,0.0,19342000.0,9368000.0,19839000.0,51467000.0,54832000.0,0.0,0.0,1762000.0,56491000.0,107958000.0,3231000.0,138000.0,16964000.0,1812000.0,1950000.0,7103000.0,0.0,0.0,1921000.0,18885000.0,156627000.0,-54163000.0,89073000.0,0.0,-17392000.0,0.0,0.0
2014-12-31,36202000.0,0.0,36202000.0,14238000.0,17014000.0,70592000.0,55298000.0,0.0,0.0,471000.0,62838000.0,133430000.0,2553000.0,132000.0,12357000.0,1950000.0,2082000.0,902000.0,306000.0,0.0,2528000.0,14885000.0,154902000.0,-28298000.0,118545000.0,0.0,-34120000.0,0.0,0.0
2013-12-31,98445000.0,0.0,98445000.0,9042000.0,12764000.0,123548000.0,32772000.0,0.0,0.0,60000.0,34887000.0,158435000.0,1748000.0,127000.0,8734000.0,2082000.0,2209000.0,916000.0,768000.0,0.0,2526000.0,11735000.0,153363000.0,-6455000.0,146700000.0,0.0,-96236000.0,0.0,475000.0
2012-12-31,2802000.0,0.0,2802000.0,8413000.0,7485000.0,20243000.0,12467000.0,0.0,0.0,178000.0,12832000.0,33075000.0,3888000.0,12142000.0,24925000.0,7618000.0,19760000.0,4281000.0,178000.0,0.0,8109000.0,33034000.0,-174000.0,-31355000.0,-2545000.0,0.0,16958000.0,1543000.0,8895000.0
2011-12-31,3496000.0,0.0,3496000.0,1335000.0,4431000.0,10116000.0,7919000.0,0.0,0.0,374000.0,8499000.0,18615000.0,864000.0,1294000.0,11095000.0,4135000.0,5429000.0,4938000.0,374000.0,0.0,23119000.0,34214000.0,-220000.0,-27485000.0,-17705000.0,0.0,1933000.0,854000.0,8937000.0
