,0,1,2,3,4,5,6,7,8,9,10,11,12,13,14,15,16,17,18,19,20,21,22,23,24,25,26,27,28
Date,Cash and cash equivalents,Short-term investments,Cash and short-term investments,Receivables,Inventories,Total current assets,Property Plant & Equipment Net,Goodwill and Intangible Assets,Long-term investments,Tax assets,Total non-current assets,Total assets,Payables,Short-term debt,Total current liabilities,Long-term debt,Total debt,Deferred revenue,Tax Liabilities,Deposit Liabilities,Total non-current liabilities,Total liabilities,Other comprehensive income,Retained earnings (deficit),Total shareholders equity,Investments,Net Debt,Other Assets,Other Liabilities
2018-03-31,46000.0,0.0,46000.0,18793000.0,25703000.0,45682000.0,1672000.0,16224000.0,0.0,0.0,17896000.0,63578000.0,10006000.0,14159000.0,29874000.0,14159000.0,28318000.0,4694000.0,0.0,0.0,20311000.0,33303000.0,172477000.0,-142213000.0,30275000.0,0.0,28272000.0,0.0,0.0
2017-03-31,3460000.0,0.0,3460000.0,10452000.0,12858000.0,27239000.0,1862000.0,16584000.0,0.0,0.0,18446000.0,45685000.0,7342000.0,3145000.0,12753000.0,0.0,3145000.0,5089000.0,0.0,0.0,6755000.0,16403000.0,171784000.0,-142513000.0,29282000.0,0.0,-315000.0,0.0,0.0
2017-03,3000000.0,,,10000000.0,13000000.0,18000000.0,2000000.0,16000000.0,,,4000000.0,46000000.0,7000000.0,,13000000.0,,,4000000.0,,,4000000.0,16000000.0,,-143000000.0,29000000.0,,-3000000.0,0.0,0.0
2016-03-31,5594000.0,0.0,5594000.0,14277000.0,14858000.0,35529000.0,1003000.0,16657000.0,0.0,0.0,17660000.0,53189000.0,9611000.0,4413000.0,17433000.0,0.0,4413000.0,8390000.0,0.0,0.0,8687000.0,22001000.0,171138000.0,-139961000.0,31188000.0,0.0,-1181000.0,0.0,0.0
2016-03,6000000.0,,,14000000.0,15000000.0,18000000.0,1000000.0,17000000.0,,,5000000.0,53000000.0,10000000.0,,17000000.0,,,5000000.0,,,5000000.0,22000000.0,,-140000000.0,31000000.0,,-6000000.0,0.0,0.0
2015-03-31,19455000.0,0.0,19455000.0,6633000.0,7883000.0,34286000.0,1030000.0,0.0,0.0,0.0,1030000.0,35316000.0,5008000.0,0.0,5008000.0,0.0,0.0,1415000.0,0.0,0.0,1517000.0,6525000.0,168379000.0,-139599000.0,28791000.0,0.0,-19455000.0,0.0,0.0
2015-03,19000000.0,,,7000000.0,8000000.0,1000000.0,1000000.0,0.0,,,2000000.0,35000000.0,3000000.0,,5000000.0,,,2000000.0,,,2000000.0,7000000.0,,-140000000.0,29000000.0,,-19000000.0,0.0,0.0
2014-03-31,5400000.0,0.0,5400000.0,6182000.0,7240000.0,19263000.0,883000.0,0.0,0.0,0.0,883000.0,20146000.0,4381000.0,0.0,4381000.0,0.0,0.0,524000.0,0.0,0.0,636000.0,5017000.0,154969000.0,-139848000.0,15129000.0,0.0,-5400000.0,0.0,0.0
2014-03,5000000.0,,,6000000.0,7000000.0,1000000.0,1000000.0,0.0,,,1000000.0,20000000.0,3000000.0,,4000000.0,,,1000000.0,,,1000000.0,5000000.0,,-140000000.0,15000000.0,,-5000000.0,0.0,0.0
2013-03-31,10280000.0,0.0,10280000.0,5046000.0,3836000.0,19514000.0,697000.0,0.0,0.0,0.0,697000.0,20211000.0,4689000.0,0.0,4689000.0,0.0,0.0,0.0,0.0,0.0,0.0,4689000.0,153604000.0,-138090000.0,15522000.0,0.0,-10280000.0,0.0,0.0
2013-03,10000000.0,,,5000000.0,4000000.0,1000000.0,1000000.0,0.0,,,0.0,20000000.0,3000000.0,,5000000.0,,,0.0,,,0.0,5000000.0,,-138000000.0,16000000.0,,-10000000.0,0.0,1000000.0
2012-03-31,199000.0,0.0,199000.0,8393000.0,3969000.0,12660000.0,363000.0,0.0,0.0,0.0,363000.0,13023000.0,6583000.0,0.0,6583000.0,0.0,0.0,0.0,0.0,0.0,0.0,6583000.0,141825000.0,-135620000.0,6440000.0,0.0,-199000.0,0.0,0.0
