,0,1,2,3,4,5,6,7,8,9,10,11,12,13,14,15,16,17,18,19,20,21,22,23,24,25,26,27,28
Date,Cash and cash equivalents,Short-term investments,Cash and short-term investments,Receivables,Inventories,Total current assets,Property Plant & Equipment Net,Goodwill and Intangible Assets,Long-term investments,Tax assets,Total non-current assets,Total assets,Payables,Short-term debt,Total current liabilities,Long-term debt,Total debt,Deferred revenue,Tax Liabilities,Deposit Liabilities,Total non-current liabilities,Total liabilities,Other comprehensive income,Retained earnings (deficit),Total shareholders equity,Investments,Net Debt,Other Assets,Other Liabilities
2019-12-31,404900000.0,28900000.0,433800000.0,782000000.0,561700000.0,1999900000.0,802400000.0,5572800000.0,0.0,12200000.0,6603000000.0,8602900000.0,307900000.0,2300000.0,995500000.0,1433100000.0,1435400000.0,29200000.0,56100000.0,0.0,2393000000.0,3510400000.0,4285400000.0,1404200000.0,5092500000.0,28900000.0,1030500000.0,0.0,121900000.0
2018-12-31,309600000.0,0.0,309600000.0,701900000.0,598900000.0,1888000000.0,870600000.0,5851600000.0,0.0,18600000.0,6799000000.0,8687000000.0,283900000.0,92400000.0,1013300000.0,1564900000.0,1657300000.0,29300000.0,58100000.0,0.0,2540700000.0,3565900000.0,4371300000.0,1225900000.0,5121100000.0,0.0,1347700000.0,0.0,11900000.0
2017-12-31,320600000.0,54400000.0,375000000.0,746200000.0,623100000.0,2002500000.0,876000000.0,7339900000.0,9400000.0,43800000.0,8372000000.0,10374500000.0,284400000.0,30100000.0,954500000.0,1611600000.0,1641700000.0,8900000.0,54200000.0,0.0,2792100000.0,3758200000.0,4588500000.0,2316200000.0,6616300000.0,63800000.0,1321100000.0,0.0,11600000.0
2016-12-31,383900000.0,14100000.0,398000000.0,636000000.0,517100000.0,1882600000.0,799800000.0,8909600000.0,8200000.0,22800000.0,9773500000.0,11656100000.0,223000000.0,21100000.0,771000000.0,1511100000.0,1532200000.0,14100000.0,64200000.0,0.0,2759200000.0,3541800000.0,4869400000.0,3948000000.0,8114300000.0,22300000.0,1148300000.0,0.0,11600000.0
2015-12-31,284600000.0,0.0,284600000.0,399900000.0,340400000.0,1196700000.0,558800000.0,2588300000.0,57700000.0,16900000.0,3206200000.0,4402900000.0,133600000.0,12100000.0,476000000.0,1141000000.0,1153100000.0,2200000.0,20200000.0,0.0,1587500000.0,2064900000.0,0.0,3591000000.0,2338000000.0,57700000.0,868500000.0,0.0,1400000.0
2014-12-31,151639000.0,57698000.0,209337000.0,426606000.0,387095000.0,1206970000.0,588845000.0,2760179000.0,57700000.0,41882000.0,3443295000.0,4650265000.0,132611000.0,112831000.0,653592000.0,1152882000.0,1265713000.0,3482000.0,28948000.0,0.0,1674475000.0,2328986000.0,0.0,3380748000.0,2321279000.0,115398000.0,1114074000.0,0.0,919000.0
2013-12-31,74954000.0,0.0,74954000.0,472802000.0,438559000.0,1143802000.0,637172000.0,3076919000.0,70000000.0,104385000.0,3934245000.0,5078047000.0,132789000.0,309862000.0,796405000.0,1166178000.0,1476040000.0,4922000.0,14446000.0,0.0,1703668000.0,2542994000.0,0.0,3095721000.0,2535053000.0,70000000.0,1401086000.0,0.0,42921000.0
2012-12-31,80132000.0,75100000.0,155232000.0,442412000.0,402940000.0,1111096000.0,614705000.0,3041595000.0,0.0,86029000.0,3861201000.0,4972297000.0,165290000.0,298963000.0,927780000.0,1222035000.0,1520998000.0,5514000.0,39191000.0,0.0,1795074000.0,2763599000.0,0.0,2818461000.0,2208698000.0,75100000.0,1440866000.0,0.0,40745000.0
2011-12-31,77128000.0,47800000.0,124928000.0,427709000.0,361762000.0,1012903000.0,591445000.0,2981163000.0,0.0,51250000.0,3742495000.0,4755398000.0,149117000.0,276701000.0,724073000.0,1490010000.0,1766711000.0,6304000.0,9054000.0,0.0,2147174000.0,2907321000.0,0.0,2535709000.0,1848077000.0,47800000.0,1689583000.0,0.0,36074000.0
2010-12-31,540038000.0,66000000.0,606038000.0,344796000.0,308738000.0,1315045000.0,423105000.0,1381798000.0,0.0,39329000.0,1942906000.0,3257951000.0,114479000.0,7754000.0,360091000.0,604015000.0,611769000.0,5656000.0,13113000.0,0.0,987948000.0,1418565000.0,0.0,2320350000.0,1839386000.0,66000000.0,71731000.0,0.0,70526000.0
2009-12-31,450348000.0,0.0,450348000.0,348684000.0,291640000.0,1217796000.0,439619000.0,1401682000.0,0.0,0.0,1870136000.0,3087932000.0,100847000.0,82174000.0,444556000.0,387151000.0,469325000.0,0.0,84890000.0,0.0,736418000.0,1180974000.0,83542000.0,2083459000.0,1832105000.0,0.0,18977000.0,127124000.0,261535000.0
