,0,1,2,3,4,5,6,7,8,9,10,11,12,13,14
Date,Depreciation & Amortization,Stock-based compensation,Operating Cash Flow,Capital Expenditure,Acquisitions and disposals,Investment purchases and sales,Investing Cash flow,Issuance (repayment) of debt,Issuance (buybacks) of shares,Dividend payments,Financing Cash Flow,Effect of forex changes on cash,Net cash flow / Change in cash,Free Cash Flow,Net Cash/Marketcap
2018-12-31,11309985.5282,3922865.4124,-9498118.6686,-1392908.8278,-1698408.1042,-39251808.9725,-42343125.9045,0.0,-10093342.9812,-25686975.398000002,-21952532.5615,0.0,-73793777.1346,-10891027.4964,0.3129
2017-12-31,12547460.7013,25652509.0689,101038694.075,-4757859.734,19897521.1608,-165699818.6215,-150560157.1947,0.0,1879685.6106,-58209340.9915,-56329655.3809,0.0,-105851118.5006,96280834.341,0.0615
2016-12-31,4660907.1274,23587185.0252,148428509.7192,-3458459.3233,-17116198.7041,-17793376.5299,-38368034.5572,-17117350.612,95056299.496,-18268682.5054,59670266.3787,0.0,169730741.5407,144970050.396,0.0615
2015-12-31,1830226.4674,4773224.4646,66370975.1964,-985364.3506,0.0,45219534.7404,27709751.9643,18314589.4315,39187028.1929,-108611924.2027,-51109382.2215,0.0,42971344.9391,65385610.8458,0.0615
2014-12-31,1643364.5463,1122699.3865,69665482.7252,-2110268.0013,0.0,-50791088.1498,-52901356.1511,-7345495.6409,2583144.9790000003,-16144656.1188,-20907006.7808,0.0,-4142880.2067,67555214.7239,0.0615
