,0,1,2,3,4,5,6,7,8,9,10,11,12,13,14
Date,Depreciation & Amortization,Stock-based compensation,Operating Cash Flow,Capital Expenditure,Acquisitions and disposals,Investment purchases and sales,Investing Cash flow,Issuance (repayment) of debt,Issuance (buybacks) of shares,Dividend payments,Financing Cash Flow,Effect of forex changes on cash,Net cash flow / Change in cash,Free Cash Flow,Net Cash/Marketcap
2018-12-31,8106130.0,1712718.0,-6484440.0,-2675025.0,-721930.0,0.0,-3396955.0,0.0,-102809.0,0.0,-766503.0,0.0,-10647898.0,-9159465.0,1.3498
2017-12-31,8896002.0,2582783.0,614579.0,-1834526.0,-5995090.0,0.0,-7829616.0,-7256653.0,34654485.0,0.0,27397832.0,0.0,20182795.0,-1219947.0,0.4912
2016-12-31,8893093.0,23443.0,762170.0,-2096481.0,0.0,0.0,-2096481.0,-543750.0,17877.0,0.0,-525873.0,0.0,-1860184.0,-1334311.0,-0.0153
2015-12-31,6514393.0,16942.0,-887673.0,-3418566.0,-11448910.0,0.0,-15123769.0,15272988.0,0.0,0.0,15272988.0,0.0,-738454.0,-4306239.0,-0.0153
