,0,1,2,3,4,5,6,7,8,9,10,11,12,13,14,15,16,17,18,19,20,21,22,23,24,25,26,27,28,29,30
Date,Revenue,Revenue Growth,Cost of Revenue,Gross Profit,R&D Expenses,SG&A Expense,Operating Expenses,Operating Income,Interest Expense,Earnings before Tax,Income Tax Expense,Net Income - Non-Controlling int,Net Income - Discontinued ops,Net Income,Preferred Dividends,Net Income Com,EPS,EPS Diluted,Weighted Average Shs Out,Weighted Average Shs Out (Dil),Dividend per Share,Gross Margin,EBITDA Margin,EBIT Margin,Profit Margin,Free Cash Flow margin,EBITDA,EBIT,Consolidated Income,Earnings Before Tax Margin,Net Profit Margin
2018-12-31,59593624.0,0.09318127682739999,23775911.0,35817713.0,0.0,17907687.0,71129490.0,-35311777.0,-143973.0,-35167804.0,19122.0,0.0,0.0,-35186926.0,0.0,-35186926.0,-2.14,-2.14,16628808.0,16422693.0,0.0,0.601,-0.457,-0.5925,-0.59,-0.1537,-27205647.0,-35311777.0,-35186926.0,-0.5901,-0.5904
2017-12-31,54513945.0,-0.010460352591200001,20558001.0,33955944.0,0.0,16026758.0,56094393.0,-22138449.0,1343445.0,-23481894.0,-45540.0,0.0,0.0,-23436354.0,995743.0,-24432097.0,-2.52,-2.52,16418318.0,9680988.0,0.0,0.6229,-0.243,-0.4061,-0.44799999999999995,-0.0224,-13242447.0,-22138449.0,-23436354.0,-0.4308,-0.4299
2016-12-31,55090208.0,0.135744030445,20535177.0,34555031.0,0.0,11066545.0,42429177.0,-7874146.0,1587084.0,-9461230.0,43292.0,0.0,0.0,-9504522.0,4634662.0,-14139184.0,-191.6,-191.6,16209081.0,73796.0,0.0,0.6272,0.018000000000000002,-0.1429,-0.257,-0.0242,1018947.0,-7874146.0,-9504522.0,-0.1717,-0.1725
2015-12-31,48505831.0,,17104969.0,31400862.0,0.0,12555983.0,39856490.0,-8455628.0,746232.0,-9201860.0,13283.0,0.0,0.0,-9215143.0,4318364.0,-13533507.0,-189.96,-189.96,13909000.0,71244.0,0.0,0.6474,-0.04,-0.1743,-0.27899999999999997,-0.0888,-1941235.0,-8455628.0,-9215143.0,-0.1897,-0.19
