,0,1,2,3,4,5,6,7,8,9,10,11,12,13,14,15,16,17,18,19,20,21,22,23,24,25,26,27,28,29,30
Date,Revenue,Revenue Growth,Cost of Revenue,Gross Profit,R&D Expenses,SG&A Expense,Operating Expenses,Operating Income,Interest Expense,Earnings before Tax,Income Tax Expense,Net Income - Non-Controlling int,Net Income - Discontinued ops,Net Income,Preferred Dividends,Net Income Com,EPS,EPS Diluted,Weighted Average Shs Out,Weighted Average Shs Out (Dil),Dividend per Share,Gross Margin,EBITDA Margin,EBIT Margin,Profit Margin,Free Cash Flow margin,EBITDA,EBIT,Consolidated Income,Earnings Before Tax Margin,Net Profit Margin
2018-12-31,11560212201.5915,-0.154062782652,9537665782.4934,2022546419.0981,144986737.4005,1110053050.3979,861273209.5491,1161273209.5491,0.0,2391087533.1565,1367055702.9178,0.0,0.0,1024031830.2387,0.0,1024031830.2387,2.6109,2.6109,10432700.0796,10432700.0796,0.0021,0.175,0.0109,0.2068,0.0024,0.0844,4760265251.9894,2391087533.1565,1024031830.2387,0.2068,0.0886
2017-12-31,13665567567.5676,0.0386741955568,11449297297.2973,2216270270.2703,132756756.7568,1442702702.7027,1347459459.4595,868810810.8108,0.0,470432432.4324,-214540540.5405,0.0,0.0,684972972.973,0.0,684972972.973,1.6989,1.6989,21260150.973,21260150.973,0.0039,0.1622,0.0135,0.0344,0.0027,0.0489,3408270270.2703,470432432.4324,684972972.973,0.0344,0.0501
2016-12-31,13156741186.048,0.09063701626160002,11103012085.9165,2053729100.1315,197570292.4416,1398835243.2839,3572045838.8127,-1518316738.6812,0.0,-1866366084.2883,-89235393.5751,0.0,0.0,-1777130690.7133,0.0,-1777130690.7133,-4.5169,-4.5169,24629769.7414,24629769.7414,0.0095,0.1561,0.0047,-0.1419,-0.0085,-0.0713,980963116.0373,-1866366084.2883,-1777130690.7133,-0.1419,-0.1351
2015-12-31,12063354709.1092,-0.279302476129,9235648613.15,2827706095.9592,191068531.2524,1289113806.6909,1546086687.7849,1281619408.1743,0.0,2257281928.4555,1903499961.3691,-11821061.5777,0.0,353781967.0865,0.0,353781967.0865,0.9024,0.9024,30388070.231,30388070.231,0.0097,0.2344,0.0278,0.1871,0.0022,-0.1433,4343969713.3586,2257281928.4555,341960905.5088,0.1871,0.0293
2014-12-31,16738443396.2264,0.21034364819499998,12322169811.3208,4416273584.9057,239858490.56599998,1726886792.4528,2088207547.1698,2328066037.7358,0.0,2620872641.5094,1559316037.7358,18042452.8302,0.0,1061556603.7736,0.0,1061556603.7736,2.7064,2.7064,46381225.5896,46381225.5896,0.0171,0.2638,0.0354,0.1566,0.0074,-0.0141,5027122641.5094,2620872641.5094,1043514150.9434,0.1566,0.0634
2013-12-31,13829496623.6955,0.011879237583899999,10450276243.0939,3379220380.6016,127225291.5899,1574125230.2026,1666513198.2812,1712707182.3204,0.0,2209023941.0681,1422498465.3161,7059545.7336,0.0,786525475.752,0.0,786525475.752,2.0028,2.0028,60361079.3432,60361079.3432,0.0138,0.2443,0.044000000000000004,0.1597,0.0087,-0.0147,3963627992.6335,2209023941.0681,779465930.0184,0.1597,0.0569
2012-12-31,13667141403.8657,0.045745053068399995,10227263479.1455,3439877924.7202,118413021.3632,1606103763.9878,1724516785.351,1715361139.3693,0.0,1742624618.5148,948728382.5025,0.0,0.0,793896236.0122,0.0,793896236.0122,2.0183,2.0183,80022948.7284,80022948.7284,0.0326,0.2517,0.0511,0.1275,0.0118,0.0134,3427466937.9451,1742624618.5148,793896236.0122,0.1275,0.0581
2011-12-31,13069286212.5087,0.17547223486400002,9565914903.5108,3503371308.9979,133457335.5034,1687979539.6419,1821436875.1453,1681934433.8526,0.0,1763775866.0777,730295280.1674,0.0,0.0,1033480585.9103,0.0,1033480585.9103,2.6273,2.6273,91446824.6919,91446824.6919,0.7905,0.2681,0.0584,0.135,0.0184,0.0094,3274819809.3467,1763775866.0777,1033480585.9103,0.135,0.0791
2010-12-31,11118328298.0866,0.231698257265,7527442094.6626,3590886203.4240003,86606243.7059,1118831822.7593,1205438066.4653,2385448136.9587,0.0,2270896273.9174,813192346.425,0.0,0.0,1457703927.4924,0.0,1457703927.4924,3.7059,3.7059,99021347.6838,99021347.6838,0.7251,0.32299999999999995,0.0816,0.2042,0.033,0.0905,3598439073.5146,2270896273.9174,1457703927.4924,0.2042,0.1311
2009-12-31,9026827985.2709,-0.1068,6096002104.1557,2930825881.1152,145186743.819,944765912.6775,1089952656.4966,1840873224.6186,0.0,1553655970.5418,583377169.9106,0.0,0.0,970278800.6312,0.0,970278800.6312,2.4671,2.4671,103448919.7791,103448919.7791,0.868,0.3247,0.0823,0.1721,0.0281,0.1101,2824566017.8853,1553655970.5418,970278800.6312,0.1721,0.1075
