,0,1,2,3,4,5,6,7,8,9,10,11,12,13,14,15,16,17,18,19,20,21,22,23,24,25,26,27,28
Date,Cash and cash equivalents,Short-term investments,Cash and short-term investments,Receivables,Inventories,Total current assets,Property Plant & Equipment Net,Goodwill and Intangible Assets,Long-term investments,Tax assets,Total non-current assets,Total assets,Payables,Short-term debt,Total current liabilities,Long-term debt,Total debt,Deferred revenue,Tax Liabilities,Deposit Liabilities,Total non-current liabilities,Total liabilities,Other comprehensive income,Retained earnings (deficit),Total shareholders equity,Investments,Net Debt,Other Assets,Other Liabilities
2019-12-31,605000000.0,43000000.0,648000000.0,584000000.0,0.0,1527000000.0,1170000000.0,774000000.0,68000000.0,447000000.0,3704000000.0,5231000000.0,960000000.0,431000000.0,1541000000.0,10131000000.0,10562000000.0,441000000.0,150000000.0,0.0,10131000000.0,13247000000.0,0.0,-7628000000.0,-8016000000.0,111000000.0,9957000000.0,0.0,1575000000.0
2018-12-31,292000000.0,214000000.0,506000000.0,561000000.0,0.0,1207000000.0,1237000000.0,767000000.0,62000000.0,195000000.0,2923000000.0,4130000000.0,911000000.0,321000000.0,1301000000.0,9751000000.0,10072000000.0,414000000.0,69000000.0,0.0,9758000000.0,12056000000.0,0.0,-7592000000.0,-7926000000.0,276000000.0,9780000000.0,0.0,997000000.0
2017-12-31,1522000000.0,0.0,1522000000.0,400000000.0,13000000.0,2507000000.0,1697000000.0,622000000.0,38000000.0,139000000.0,2804000000.0,5311000000.0,813000000.0,375000000.0,1512000000.0,9429000000.0,9804000000.0,11000000.0,123000000.0,0.0,9435000000.0,11645000000.0,0.0,-6063000000.0,-6334000000.0,38000000.0,8282000000.0,0.0,698000000.0
2016-12-31,704000000.0,0.0,704000000.0,370000000.0,36000000.0,1482000000.0,2160000000.0,692000000.0,21000000.0,774000000.0,0.0,5478000000.0,1132000000.0,66000000.0,1369000000.0,9061000000.0,9127000000.0,8000000.0,37000000.0,0.0,0.0,11134000000.0,0.0,-5223000000.0,-5656000000.0,21000000.0,8423000000.0,3996000000.0,9765000000.0
2015-12-26,737000000.0,21000000.0,758000000.0,377000000.0,229000000.0,1688000000.0,4189000000.0,927000000.0,61000000.0,676000000.0,6387000000.0,8075000000.0,1985000000.0,923000000.0,3088000000.0,3054000000.0,3977000000.0,0.0,77000000.0,0.0,3086000000.0,7164000000.0,0.0,1150000000.0,911000000.0,82000000.0,3240000000.0,0.0,990000000.0
2014-12-27,578000000.0,21000000.0,599000000.0,325000000.0,301000000.0,1646000000.0,4498000000.0,1018000000.0,52000000.0,571000000.0,6699000000.0,8345000000.0,1972000000.0,267000000.0,2411000000.0,3077000000.0,3344000000.0,0.0,77000000.0,0.0,3170000000.0,6798000000.0,0.0,1737000000.0,1547000000.0,73000000.0,2766000000.0,0.0,1217000000.0
2013-12-28,573000000.0,0.0,573000000.0,319000000.0,294000000.0,1691000000.0,4459000000.0,1527000000.0,22000000.0,399000000.0,7004000000.0,8695000000.0,1929000000.0,71000000.0,2265000000.0,2918000000.0,2989000000.0,0.0,169000000.0,0.0,3041000000.0,6529000000.0,0.0,2102000000.0,2166000000.0,22000000.0,2416000000.0,0.0,1223000000.0
2012-12-29,776000000.0,17000000.0,793000000.0,301000000.0,313000000.0,1909000000.0,4250000000.0,1724000000.0,72000000.0,481000000.0,7102000000.0,9011000000.0,1945000000.0,10000000.0,2188000000.0,2932000000.0,2942000000.0,53000000.0,97000000.0,0.0,3043000000.0,6857000000.0,0.0,2286000000.0,2154000000.0,89000000.0,2166000000.0,0.0,1626000000.0
2011-12-31,1198000000.0,15000000.0,1213000000.0,286000000.0,273000000.0,2321000000.0,4042000000.0,980000000.0,167000000.0,549000000.0,6513000000.0,8834000000.0,1874000000.0,320000000.0,2450000000.0,2997000000.0,3317000000.0,0.0,142000000.0,0.0,3109000000.0,7011000000.0,0.0,2052000000.0,1823000000.0,182000000.0,2119000000.0,0.0,1452000000.0
2010-12-25,1426000000.0,0.0,1426000000.0,256000000.0,189000000.0,2313000000.0,3830000000.0,1134000000.0,57000000.0,366000000.0,6003000000.0,8316000000.0,1602000000.0,673000000.0,2448000000.0,2915000000.0,3588000000.0,0.0,61000000.0,0.0,2976000000.0,6740000000.0,0.0,1717000000.0,1576000000.0,57000000.0,2162000000.0,0.0,1316000000.0
2009-12-26,353000000.0,0.0,353000000.0,239000000.0,122000000.0,1208000000.0,3899000000.0,1102000000.0,144000000.0,,,7148000000.0,1413000000.0,59000000.0,1653000000.0,3207000000.0,,,,,,6034000000.0,,996000000.0,1025000000.0,144000000.0,,,181000000.0
