,0,1,2,3,4,5,6,7,8,9,10,11,12,13,14,15,16,17,18,19,20,21,22,23,24,25,26,27,28,29,30
Date,Revenue,Revenue Growth,Cost of Revenue,Gross Profit,R&D Expenses,SG&A Expense,Operating Expenses,Operating Income,Interest Expense,Earnings before Tax,Income Tax Expense,Net Income - Non-Controlling int,Net Income - Discontinued ops,Net Income,Preferred Dividends,Net Income Com,EPS,EPS Diluted,Weighted Average Shs Out,Weighted Average Shs Out (Dil),Dividend per Share,Gross Margin,EBITDA Margin,EBIT Margin,Profit Margin,Free Cash Flow margin,EBITDA,EBIT,Consolidated Income,Earnings Before Tax Margin,Net Profit Margin
2018-11-30,0.0,0.0,0.0,-323833.7842,0.0,682311.5265,2156773.3694,-1640256.2369,-100627.4421,-2637966.5109,0.0,0.0,1991459.5016,-2637966.5109,0.0,-2637966.5109,-4.7118,-4.7118,436512.4611,436512.4611,0.0,0.0,-4.845,0.0,-5.369,0.0,-2580024.1433,-1640256.2369,-2637966.5109,0.0,0.0
2018-02-28,0.0,0.0,0.0,0.0,0.0,554603.0534,680020.2492,-680020.2492,0.0,-4969228.2443,0.0,0.0,4424232.0611,-4969228.2443,0.0,-4969228.2443,-8.8168,-8.8168,436616.0305,430632.8244,0.0,0.0,-0.753,0.0,-1.64,0.0,-4484730.5344,-2637966.5109,-4969228.2443,0.0,0.0
2017-11-30,0.0,-1.0,0.0,-281455.1804,0.0,943922.3947,1298933.6438,-1298933.6438,-168881.6453,-963254.9889,0.0,0.0,82082.77900000001,-963254.9889,0.0,-963254.9889,-1.663,-1.663,428756.8367,425850.7021,0.0,0.0,1.6163,0.0,0.5124,0.0,-442172.94899999996,-1298933.6438,-963254.9889,0.0,0.0
2017-02-28,418731.4149,-0.9697028519140001,440972.0224,0.0,0.0,3012999.2006,555406.8702,-555406.8702,0.0,268250.9992,0.0,0.0,-3333577.9376,268250.9992,0.0,268250.9992,0.4396,0.1599,465706.6347,467255.7954,0.0,-0.0531,0.1282,0.6406,0.0686,-0.9875,846676.2590000001,-4969228.2443,268250.9992,0.6406,0.6406
2016-11-30,13820819.4946,-0.175897877174,7588951.2635,0.0,0.0,4226151.6245,217772.5473,-217772.5473,-35341.1044,1280417.87,230512.6354,0.0,0.0,1049905.2347,0.0,1049905.2347,1.8051,1.6697,528967.509,528830.3249,0.0,0.4509,0.0905,0.0933,0.0331,0.1714,1968760.8303,-217772.5473,1049905.2347,0.0926,0.076
2016-02-29,16770760.7004,-0.09877007885399999,10537726.6537,0.0,0.0,4611259.7276,944895.048,-944895.048,0.0,873498.0545,298299.6109,0.0,0.0,575198.4436,0.0,575198.4436,0.9728,0.8268,629702.3346,586117.7043,0.0,0.3717,0.1335,0.0531,0.0849,0.027999999999999997,1553663.4241,-963254.9889,575198.4436,0.0521,0.0343
2015-11-30,18608748.2305,-0.040483379357,11412617.7958,0.0,0.0,4708086.9565,345306.3056,-345306.3056,-5981.7488,1662245.7027,94138.5238,0.0,0.0,1568107.179,0.0,1568107.179,2.3256,2.2245,723811.9312,681243.6805,0.0,0.3867,0.08,0.0956,-0.0041,0.1212,2463146.6127,-345306.3056,1568107.179,0.0893,0.0843
2015-02-28,19393877.9487,-0.00320038090404,11990621.5385,-22240.6075,0.0,6012501.5385,3198300.5596,-3220541.1671,0.0,614206.1538,698337.4359,0.0,0.0,-84131.2821,0.0,-84131.2821,-0.1026,-0.1026,804774.359,790536.4103,0.0,0.3817,0.1346,0.0405,0.0559,0.1425,1505280.0,268250.9992,-84131.2821,0.0317,-0.0043
2014-02-28,19456145.0237,0.0,12722418.9573,6231868.231000001,0.0,3997163.981,4907834.8375,1324033.3935,8550.5415,1844932.7014,696808.5308,0.0,0.0,1148124.1706,0.0,1148124.1706,1.4218,1.4218,756706.1611,754540.2844,0.0,0.3461,,0.106,,0.1995,2753510.9005,1288968.4116,1148124.1706,0.0948,0.059000000000000004
2013-02-28,,0.0,,6233034.0467,,,5361872.5681,871161.4786,17670.2335,,,,,,,,,,,,,,,,,,,891168.2879,,,
2012-02-29,,0.0,,7196130.4348,,,5403210.3134,1792920.1213,116913.0435,,,,,,,,,,,,,,,,,,,1779158.7462,,,
2011-02-28,,0.0,,7403256.4103,,,6573185.641,830070.7692,171700.5128,,,,,,,,,,,,,,,,,,,785906.6667,,,
2010-02-28,,,,6733726.0664,,,4696223.6967,2037502.3697,217589.5735,,,,,,,,,,,,,,,,,,,2062522.2749,,,
