,0,1,2,3,4,5,6,7,8,9,10,11,12,13,14
Date,Depreciation & Amortization,Stock-based compensation,Operating Cash Flow,Capital Expenditure,Acquisitions and disposals,Investment purchases and sales,Investing Cash flow,Issuance (repayment) of debt,Issuance (buybacks) of shares,Dividend payments,Financing Cash Flow,Effect of forex changes on cash,Net cash flow / Change in cash,Free Cash Flow,Net Cash/Marketcap
2019-06-30,785500000.0,109300000.0,951100000.0,786900000.0,-0.0,-402500000.0,-747900000.0,-135000000.0,-402500000.0,-0.0,-275200000.0,-2000000.0,186100000.0,164200000.0,0.0
2018-06-30,747400000.0,96700000.0,971100000.0,789900000.0,-176900000.0,-93500000.0,-966800000.0,-315700000.0,-93500000.0,-0.0,35600000.0,-3900000.0,36000000.0,181200000.0,0.0
2017-06-30,606900000.0,114100000.0,909800000.0,835500000.0,-1434800000.0,0.0,-2270300000.0,-2408800000.0,166500000.0,-0.0,1411300000.0,-800000.0,50000000.0,74300000.0,0.0
2016-06-30,516300000.0,155900000.0,714000000.0,704100000.0,-437500000.0,-81100000.0,-1141600000.0,-535000000.0,306100000.0,-0.0,291700000.0,-2000000.0,-137900000.0,9900000.0,0.0
2015-06-30,406200000.0,200700000.0,605400000.0,530400000.0,-73900000.0,0.0,-1389900000.0,-1288500000.0,78600000.0,-0.0,795700000.0,-3800000.0,11200000.0,75000000.0,0.0
2014-06-30,338200000.0,253700000.0,566500000.0,-360800000.0,-393300000.0,0.0,-754100000.0,392800000.0,0.0,0.0,392700000.0,1000000.0,206100000.0,205700000.0,-0.601
2013-06-30,324500000.0,105800000.0,425800000.0,-332600000.0,-2483400000.0,0.0,-2805700000.0,2045700000.0,343800000.0,0.0,2328900000.0,-300000.0,-51300000.0,93200000.0,-0.601
2012-06-30,84961000.0,26253000.0,167630000.0,-146963000.0,-351273000.0,0.0,-475410000.0,,,,,,,20667000.0,-0.601
