,0,1,2,3,4,5,6,7,8,9,10,11,12,13,14,15,16,17,18,19,20,21,22,23,24,25,26,27,28
Date,Cash and cash equivalents,Short-term investments,Cash and short-term investments,Receivables,Inventories,Total current assets,Property Plant & Equipment Net,Goodwill and Intangible Assets,Long-term investments,Tax assets,Total non-current assets,Total assets,Payables,Short-term debt,Total current liabilities,Long-term debt,Total debt,Deferred revenue,Tax Liabilities,Deposit Liabilities,Total non-current liabilities,Total liabilities,Other comprehensive income,Retained earnings (deficit),Total shareholders equity,Investments,Net Debt,Other Assets,Other Liabilities
2019-06-30,186100000.0,0.0,186100000.0,177000000.0,0.0,485200000.0,5808900000.0,2825400000.0,0.0,24800000.0,8849400000.0,9334600000.0,73700000.0,5000000.0,643500000.0,5839700000.0,5844700000.0,174900000.0,36400000.0,0.0,7177400000.0,7993100000.0,1581200000.0,-216000000.0,1341500000.0,0.0,5658600000.0,0.0,172200000.0
2018-06-30,256700000.0,0.0,256700000.0,235600000.0,0.0,630800000.0,5447200000.0,2931200000.0,0.0,37600000.0,8586000000.0,9216800000.0,45900000.0,5000000.0,618200000.0,5690100000.0,5695100000.0,164400000.0,11800000.0,0.0,6987900000.0,7727700000.0,1881600000.0,-377200000.0,1489100000.0,0.0,5438400000.0,0.0,121600000.0
2017-06-30,220700000.0,0.0,220700000.0,191600000.0,0.0,514600000.0,5016000000.0,3028800000.0,0.0,38300000.0,8224800000.0,8739400000.0,72400000.0,5000000.0,620300000.0,5532700000.0,5537700000.0,146000000.0,20100000.0,0.0,6615000000.0,7328900000.0,1884000000.0,-479100000.0,1410500000.0,0.0,5317000000.0,0.0,93600000.0
2016-06-30,170700000.0,0.0,170700000.0,148400000.0,0.0,397100000.0,4079500000.0,2149400000.0,0.0,7000000.0,6330400000.0,6727500000.0,97000000.0,5800000.0,486500000.0,4085300000.0,4091100000.0,129400000.0,9100000.0,0.0,4976900000.0,5508300000.0,1777600000.0,-563100000.0,1219200000.0,0.0,3920400000.0,0.0,44900000.0
2015-06-30,308600000.0,0.0,308600000.0,88000000.0,0.0,567900000.0,3299200000.0,2172700000.0,0.0,129500000.0,5526700000.0,6094600000.0,40000000.0,16500000.0,386900000.0,3652200000.0,3668700000.0,86600000.0,12700000.0,0.0,4466300000.0,4883400000.0,1705800000.0,-486900000.0,1211200000.0,0.0,3360100000.0,0.0,30200000.0
2014-06-30,297400000.0,0.0,297400000.0,35300000.0,0.0,542400000.0,2822400000.0,1577000000.0,0.0,160400000.0,4439300000.0,4981700000.0,27000000.0,22900000.0,357500000.0,3156100000.0,3179000000.0,576800000.0,135600000.0,0.0,4207800000.0,4565300000.0,14400000.0,-331600000.0,416400000.0,0.0,2881600000.0,209700000.0,307600000.0
2013-06-30,91313000.0,0.0,91313000.0,71499000.0,0.0,303496000.0,2437707000.0,1329186000.0,0.0,98734000.0,3947744000.0,4251240000.0,33530000.0,22800000.0,281760000.0,2821072000.0,2843872000.0,382403000.0,5992000.0,0.0,3363227000.0,3644987000.0,-4755000.0,-152347000.0,606253000.0,0.0,2752559000.0,140684000.0,225430000.0
