,0,1,2,3,4,5,6,7,8,9,10,11,12,13,14
Date,Depreciation & Amortization,Stock-based compensation,Operating Cash Flow,Capital Expenditure,Acquisitions and disposals,Investment purchases and sales,Investing Cash flow,Issuance (repayment) of debt,Issuance (buybacks) of shares,Dividend payments,Financing Cash Flow,Effect of forex changes on cash,Net cash flow / Change in cash,Free Cash Flow,Net Cash/Marketcap
2018-12-31,191000000.0,45000000.0,785000000.0,64000000.0,-72000000.0,0.0,-137000000.0,-1566000000.0,-44000000.0,-0.0,-661000000.0,-5000000.0,-18000000.0,721000000.0,0.0
2017-12-31,366000000.0,35000000.0,478000000.0,50000000.0,-0.0,0.0,-51000000.0,-1825000000.0,-62000000.0,-0.0,-517000000.0,-4000000.0,-94000000.0,428000000.0,0.0
2016-12-31,327000000.0,27000000.0,372000000.0,77000000.0,-0.0,0.0,-39000000.0,484000000.0,-156000000.0,-0.0,-376000000.0,7000000.0,-36000000.0,295000000.0,0.0
2015-12-31,336000000.0,31000000.0,110000000.0,122000000.0,-52000000.0,-1000000.0,-148000000.0,165000000.0,0.0,-0.0,-149000000.0,-15000000.0,-202000000.0,-12000000.0,0.0
2014-12-31,83484000.0,19891000.0,248325000.0,39291000.0,-3398600000.0,-315369000.0,-3111336000.0,-0.0,0.0,-0.0,3192234000.0,1900000.0,331123000.0,209034000.0,0.0
2013-12-31,32110000.0,13109000.0,194766000.0,21711000.0,-95328000.0,-423932000.0,-153149000.0,-0.0,-63102000.0,-0.0,-44173000.0,643000.0,-1913000.0,173055000.0,0.0
2012-12-31,26177000.0,14727000.0,183331000.0,25943000.0,-59876000.0,-266079000.0,-105535000.0,-0.0,-54373000.0,-0.0,-49434000.0,-40000.0,28322000.0,157388000.0,0.0
2011-12-31,24000000.0,14095000.0,79621000.0,28150000.0,-0.0,-543837000.0,53220000.0,-0.0,-160200000.0,-0.0,-145799000.0,1835000.0,-11123000.0,51471000.0,0.0
2010-12-31,31209000.0,11871000.0,140459000.0,34218000.0,-0.0,-209974000.0,-39616000.0,-0.0,-102091000.0,-0.0,-92872000.0,562000.0,8533000.0,106241000.0,0.0
2009-12-31,32913000.0,11454000.0,105698000.0,-24890000.0,0.0,-15336000.0,-40651000.0,0.0,-60473000.0,0.0,-60460000.0,1089000.0,5676000.0,80808000.0,0.0928
