,0,1,2,3,4,5,6,7,8,9,10,11,12,13,14,15,16,17,18,19,20,21,22,23,24,25,26,27,28,29,30
Date,Revenue,Revenue Growth,Cost of Revenue,Gross Profit,R&D Expenses,SG&A Expense,Operating Expenses,Operating Income,Interest Expense,Earnings before Tax,Income Tax Expense,Net Income - Non-Controlling int,Net Income - Discontinued ops,Net Income,Preferred Dividends,Net Income Com,EPS,EPS Diluted,Weighted Average Shs Out,Weighted Average Shs Out (Dil),Dividend per Share,Gross Margin,EBITDA Margin,EBIT Margin,Profit Margin,Free Cash Flow margin,EBITDA,EBIT,Consolidated Income,Earnings Before Tax Margin,Net Profit Margin
2019-12-31,3648000.0,1.0,0.0,0.0,115639000.0,60792000.0,176431000.0,-429821000.0,0.0,-419503000.0,0.0,0.0,0.0,-419503000.0,0.0,-419503000.0,-9.74,-9.74,43078000.0,43078000.0,0.0,0.0,-116.12774122799999,-117.823739035,-114.995339912,-33.171875,-423634000.0,-429821000.0,-419503000.0,-114.995339912,-114.995339912
2018-12-31,0.0,-1.0,0.0,0.0,100925000.0,38950000.0,141175000.0,-141175000.0,0.0,-123716000.0,0.0,0.0,0.0,-123914000.0,0.0,-123914000.0,-3.27,-3.27,37884000.0,37884000.0,0.0,0.0,0.0,0.0,0.0,0.0,-138977000.0,-141175000.0,-123914000.0,0.0,0.0
2017-12-31,9821000.0,-0.659584055459,10729000.0,-908000.0,67449000.0,25885000.0,129757000.0,-119936000.0,0.0,-126022000.0,0.0,0.0,0.0,-126817000.0,0.0,-126817000.0,-4.65,-4.65,27301000.0,27301000.0,0.0,-0.0924549434884,-12.078607066500002,-12.2121983505,-12.912839833,-7.73342836778,-118624000.0,-119936000.0,-126817000.0,-12.831890846099999,-12.912839833
2016-12-31,28850000.0,0.0613641380325,0.0,0.0,41840000.0,26996000.0,101535000.0,-72685000.0,0.0,-69634000.0,-948000.0,0.0,0.0,-69707000.0,0.0,-69707000.0,-2.81,-2.81,24785000.0,24785000.0,0.0,0.0,-2.4364644714,-2.51941074523,-2.41618717504,-2.52974003466,-70292000.0,-72685000.0,-69707000.0,-2.41365684575,-2.41618717504
2015-12-31,27182000.0,-0.329352841035,0.0,0.0,27860000.0,26347000.0,74908000.0,-47726000.0,0.0,-57605000.0,-15901000.0,0.0,0.0,26144000.0,0.0,26144000.0,1.22,1.22,21449000.0,21449000.0,0.0,0.0,-1.66705908322,-1.75579427562,0.9618129644619999,-2.38797733794,-45314000.0,-47726000.0,26144000.0,-2.1192333161700003,0.9618129644619999
2014-12-31,40531000.0,0.227765660972,15817000.0,24714000.0,18936000.0,88899000.0,107835000.0,-20039000.0,3090000.0,8671000.0,84000.0,0.0,0.0,8587000.0,0.0,8587000.0,0.06,0.06,142607000.0,145046000.0,0.0,0.609755495793,-0.44304359626,-0.494411684883,0.211862524981,-1.99694061336,-17957000.0,-20039000.0,8587000.0,0.213935012706,0.211862524981
2013-12-31,33012000.0,-0.255245228534,21241000.0,11771000.0,12805000.0,50040000.0,86204000.0,-53192000.0,6610000.0,0.0,0.0,0.0,0.0,-80856000.0,0.0,-80856000.0,-0.74,-0.74,108568000.0,108568000.0,0.0,0.356567308857,-1.53934932752,-1.6112928631999999,-2.44929116685,-1.38525384709,-50817000.0,-53192000.0,-80856000.0,0.0,-2.44929116685
2012-12-31,44326000.0,0.17963593783300003,19496000.0,24830000.0,21414000.0,49494000.0,91757000.0,-47431000.0,10313000.0,0.0,5000.0,0.0,0.0,-47386000.0,0.0,-47386000.0,-0.59,-0.59,80558000.0,80558000.0,0.0,0.560167847313,-0.988471777286,-1.0700491810700001,-1.0690339755399998,-1.18429364256,-43815000.0,-47431000.0,-47386000.0,0.0,-1.0690339755399998
2011-12-31,37576000.0,0.602934903165,19293000.0,18283000.0,33043000.0,60459000.0,114000000.0,-76424000.0,7644000.0,-83912000.0,-9000.0,0.0,0.0,-83903000.0,0.0,-83903000.0,-1.96,-1.96,42712000.0,42712000.0,0.0,0.48656057057700003,-1.9439802001299997,-2.0338513945099996,-2.2328880136300002,-2.15797317437,-73047000.0,-76424000.0,-83903000.0,-2.23312752821,-2.2328880136300002
2010-12-31,23442000.0,1.0,12846000.0,10596000.0,28643000.0,51270000.0,80756000.0,-70160000.0,10013000.0,-73554000.0,10000.0,0.0,0.0,-73564000.0,0.0,-73564000.0,-141.04,-141.04,4252685.0,521625.0,0.0,0.452,,-2.7106,,-3.2162,-62113000.0,-63541000.0,-73564000.0,-3.1377,-3.1381
2009-12-31,0.0,0.0,0.0,0.0,21438000.0,14102000.0,35540000.0,-35540000.0,9188000.0,-45889000.0,0.0,0.0,0.0,-45889000.0,0.0,-45889000.0,-327.76,-327.76,,140000.0,0.0,0.0,,0.0,,0.0,-35684000.0,-36701000.0,-45889000.0,0.0,0.0
