,0,1,2,3,4,5,6,7,8,9,10,11,12,13,14
Date,Depreciation & Amortization,Stock-based compensation,Operating Cash Flow,Capital Expenditure,Acquisitions and disposals,Investment purchases and sales,Investing Cash flow,Issuance (repayment) of debt,Issuance (buybacks) of shares,Dividend payments,Financing Cash Flow,Effect of forex changes on cash,Net cash flow / Change in cash,Free Cash Flow,Net Cash/Marketcap
2018-12-31,193000000.0,26000000.0,1176000000.0,129000000.0,-0.0,2377000000.0,-2706000000.0,-162000000.0,-664000000.0,-236000000.0,1596000000.0,0.0,66000000.0,1047000000.0,0.0
2017-12-31,179000000.0,25000000.0,928000000.0,169000000.0,-0.0,2080000000.0,-3919000000.0,-153000000.0,-307000000.0,-129000000.0,2802000000.0,0.0,-189000000.0,759000000.0,0.0
2016-12-31,123086000.0,26144000.0,596067000.0,195663000.0,-0.0,3690069000.0,-3436254000.0,-280120000.0,-97240000.0,-107851000.0,2779195000.0,0.0,-60992000.0,400404000.0,0.0
2015-12-31,151088000.0,24974000.0,535169000.0,157361000.0,-0.0,1681280000.0,-2650718000.0,-287752000.0,0.0,-108055000.0,2071926000.0,0.0,-43623000.0,377808000.0,0.0
2014-12-31,128648000.0,23632000.0,454107000.0,175799000.0,-0.0,1779327000.0,-1340557000.0,-1223275000.0,0.0,-96130000.0,557272000.0,0.0,-329178000.0,278308000.0,0.0
2013-12-31,130616000.0,28052000.0,876566000.0,88580000.0,-0.0,1104010000.0,-1393160000.0,-832122000.0,0.0,-119660000.0,-150230000.0,0.0,-666824000.0,787986000.0,0.0
2012-12-31,214617000.0,31533000.0,765627000.0,68894000.0,-0.0,1212047000.0,-1908974000.0,-372891000.0,0.0,-133581000.0,1760904000.0,0.0,617557000.0,696733000.0,0.0
2011-12-31,299948000.0,29019000.0,1097067000.0,77669000.0,-0.0,2206881000.0,-2492444000.0,-8663000.0,25500000.0,-156135000.0,1695601000.0,0.0,300224000.0,1019398000.0,0.0
2010-12-31,372754000.0,0.0,1460994000.0,79071000.0,-0.0,1084074000.0,-1925697000.0,-73558000.0,0.0,-109316000.0,18640000.0,0.0,-446063000.0,1381923000.0,0.0
