,0,1,2,3,4,5,6,7,8,9,10,11,12,13,14,15,16,17,18,19,20,21,22,23,24,25,26,27,28,29,30
Date,Revenue,Revenue Growth,Cost of Revenue,Gross Profit,R&D Expenses,SG&A Expense,Operating Expenses,Operating Income,Interest Expense,Earnings before Tax,Income Tax Expense,Net Income - Non-Controlling int,Net Income - Discontinued ops,Net Income,Preferred Dividends,Net Income Com,EPS,EPS Diluted,Weighted Average Shs Out,Weighted Average Shs Out (Dil),Dividend per Share,Gross Margin,EBITDA Margin,EBIT Margin,Profit Margin,Free Cash Flow margin,EBITDA,EBIT,Consolidated Income,Earnings Before Tax Margin,Net Profit Margin
2018-12-31,2230000000.0,0.0799031476998,0.0,0.0,0.0,1070000000.0,1070000000.0,1143000000.0,251000000.0,1143000000.0,259000000.0,0.0,0.0,850000000.0,34000000.0,850000000.0,4.36,4.08,193589000.0,206501000.0,1.14285160847,0.0,0.5991031390129999,0.512556053812,0.38116591928300003,0.469506726457,1336000000.0,1143000000.0,850000000.0,0.512556053812,0.38116591928300003
2017-12-31,2065000000.0,0.105846366076,0.0,0.0,0.0,1011000000.0,1017000000.0,936000000.0,127000000.0,936000000.0,344000000.0,0.0,0.0,550000000.0,40000000.0,550000000.0,2.71,2.6,200776000.0,209653000.0,0.615302428298,0.0,0.53995157385,0.453268765133,0.266343825666,0.367554479419,1115000000.0,936000000.0,550000000.0,0.453268765133,0.266343825666
2016-12-31,1867348000.0,0.0886676072432,0.0,0.0,0.0,982531000.0,990384000.0,704908000.0,86966000.0,704908000.0,235858000.0,0.0,0.0,411309000.0,47982000.0,411309000.0,2.0,1.99,203855000.0,204269000.0,0.5279851568280001,0.0,0.44340637096,0.377491501316,0.22026371088799998,0.21442387814199998,827994000.0,704908000.0,411309000.0,0.377491501316,0.22026371088799998
2015-12-31,1715260000.0,0.0209911339022,0.0,0.0,0.0,972712000.0,981959000.0,451859000.0,118211000.0,451859000.0,142388000.0,0.0,0.0,246614000.0,62857000.0,246614000.0,1.2,1.2,203265000.0,203698000.0,0.5304666712489999,0.0,0.351519303196,0.26343469794700003,0.143776453715,0.220262817299,602947000.0,451859000.0,246614000.0,0.26343469794700003,0.143776453715
2014-12-31,1679995000.0,-0.00962844449894,0.0,0.0,0.0,956428000.0,967351000.0,621423000.0,172998000.0,621423000.0,222961000.0,0.0,0.0,326568000.0,71894000.0,326568000.0,1.68,1.68,192207000.0,192789000.0,0.498628033757,0.0,0.44647216211999996,0.369895743737,0.19438629281599998,0.165660016845,750071000.0,621423000.0,326568000.0,0.369895743737,0.19438629281599998
2013-12-31,1696328000.0,-0.0205619132303,0.0,0.0,0.0,912918000.0,927293000.0,406432000.0,245077000.0,406432000.0,142977000.0,0.0,0.0,293979000.0,95512000.0,293979000.0,1.58,1.58,183844000.0,184297000.0,0.649278067467,0.0,0.31659443220899997,0.239595172632,0.173303158351,0.464524549498,537048000.0,406432000.0,293979000.0,0.239595172632,0.173303158351
2012-12-31,1731940000.0,-0.022900022623,0.0,0.0,0.0,885661000.0,902671000.0,541566000.0,306782000.0,541566000.0,193416000.0,0.0,0.0,178631000.0,170885000.0,178631000.0,0.97,0.97,183081000.0,183236000.0,0.729010674758,0.0,0.43661039066000007,0.312693280368,0.10313925424699999,0.40228472118,756183000.0,541566000.0,178631000.0,0.312693280368,0.10313925424699999
2011-12-31,1772531000.0,0.0261330829362,0.0,0.0,0.0,874293000.0,894363000.0,323804000.0,432396000.0,521273000.0,198583000.0,0.0,0.0,323804000.0,170414000.0,323804000.0,0.83,0.83,182393000.0,182605000.0,0.855042304428,0.0,0.351899064107,0.182678892499,0.182678892499,0.575108700497,623752000.0,323804000.0,323804000.0,0.294083996274,0.182678892499
2010-12-31,1727389000.0,1.52281855278,0.0,0.0,0.0,825344000.0,850861000.0,-292728000.0,592456000.0,-403168000.0,-106819000.0,0.0,0.0,-292728000.0,-102666000.0,-292728000.0,-2.48,-2.48,166054000.0,166054000.0,0.6583159695040001,0.0,0.046327723518000005,-0.169462697748,-0.169462697748,0.8000068311190001,80026000.0,-292728000.0,-292728000.0,-0.233397341305,-0.169462697748
2009-12-31,684706000.0,-0.5478,0.0,684706000.0,0.0,1091095000.0,2307726000.0,-1623020000.0,0.0,-1617454000.0,-401343000.0,-5566000.0,0.0,-1216111000.0,18336000.0,-1234447000.0,-9.92,-9.92,138209896.0,124443000.0,0.1,1.0,-2.051,-2.3623,-1.8030000000000002,1.4040000000000001,-1404414000.0,-1617454000.0,-1221677000.0,-2.3623,-1.7761
