,0,1,2,3,4,5,6,7,8,9,10,11,12,13,14,15,16,17,18,19,20,21,22,23,24,25,26,27,28
Date,Cash and cash equivalents,Short-term investments,Cash and short-term investments,Receivables,Inventories,Total current assets,Property Plant & Equipment Net,Goodwill and Intangible Assets,Long-term investments,Tax assets,Total non-current assets,Total assets,Payables,Short-term debt,Total current liabilities,Long-term debt,Total debt,Deferred revenue,Tax Liabilities,Deposit Liabilities,Total non-current liabilities,Total liabilities,Other comprehensive income,Retained earnings (deficit),Total shareholders equity,Investments,Net Debt,Other Assets,Other Liabilities
2018-12-31,62951607.0,200350000.0,263301607.0,89708.0,3822.0,269144397.0,20494482.0,321566.0,3149855.0,8044258.0,32842752.0,301987149.0,45198878.0,3642616.0,48841494.0,0.0,3642616.0,2063942.0,0.0,0.0,2063942.0,50905436.0,2661729.0,-249626508.0,251081713.0,203499855.0,-259658991.0,5749260.0,0.0
2017-12-31,229660148.0,0.0,229660148.0,0.0,0.0,230614654.0,11853764.0,20089.0,1650348.0,5062137.0,19019574.0,249634228.0,12069144.0,0.0,12069144.0,0.0,0.0,2394124.0,0.0,0.0,2394124.0,14463268.0,449908.0,-110551613.0,235170960.0,1650348.0,,,0.0
2016-12-31,83948770.0,0.0,83948770.0,0.0,0.0,84092297.0,1246058.0,7000.0,500000.0,1376921.0,4814988.0,88907285.0,1273456.0,0.0,5173456.0,0.0,0.0,778434.0,0.0,0.0,778434.0,5951890.0,-698532.0,-60167437.0,-51551749.0,500000.0,,,3900000.0
2015-12-31,13160696.0,0.0,13160696.0,0.0,0.0,13229716.0,707584.0,2525.0,0.0,0.0,710109.0,13939825.0,1960985.0,0.0,3940985.0,0.0,0.0,61599.0,0.0,0.0,61599.0,4002584.0,-103620.0,-22655225.0,-18369903.0,0.0,,,1980000.0
