,0,1,2,3,4,5,6,7,8,9,10,11,12,13,14,15,16,17,18,19,20,21,22,23,24,25,26,27,28,29,30
Date,Revenue,Revenue Growth,Cost of Revenue,Gross Profit,R&D Expenses,SG&A Expense,Operating Expenses,Operating Income,Interest Expense,Earnings before Tax,Income Tax Expense,Net Income - Non-Controlling int,Net Income - Discontinued ops,Net Income,Preferred Dividends,Net Income Com,EPS,EPS Diluted,Weighted Average Shs Out,Weighted Average Shs Out (Dil),Dividend per Share,Gross Margin,EBITDA Margin,EBIT Margin,Profit Margin,Free Cash Flow margin,EBITDA,EBIT,Consolidated Income,Earnings Before Tax Margin,Net Profit Margin
2018-12-31,129452.0,1.0,43590.0,85862.0,120278023.0,21575921.0,141795168.0,-141709306.0,39672.0,-139074895.0,0.0,0.0,0.0,-139074895.0,0.0,-139074895.0,-2.64,-2.64,50555903.0,52609810.0,0.0,0.6633,-1061.285,-1074.0292,-1074.336,-830.8333,-137385448.0,-139035223.0,-139074895.0,-1074.3356,-1074.3356
2017-12-31,0.0,0.0,0.0,0.0,39341518.0,12049518.0,50861875.0,-50861875.0,0.0,-50384176.0,0.0,0.0,0.0,-50384176.0,0.0,-50384176.0,-2.32,-2.32,49049731.0,21752757.0,0.0,0.0,,0.0,,0.0,-49836049.0,-50384176.0,-50384176.0,0.0,0.0
2016-12-31,0.0,0.0,0.0,0.0,32149157.0,6380144.0,35995478.0,-35995478.0,0.0,-37512212.0,0.0,0.0,0.0,-37512212.0,0.0,-37512212.0,-3.97,-3.97,49049731.0,9439028.0,0.0,0.0,,0.0,,0.0,-37313207.0,-37512212.0,-37512212.0,0.0,0.0
2015-12-31,0.0,,0.0,0.0,13587145.0,2762292.0,16046742.0,-16046742.0,0.0,-18021737.0,0.0,0.0,0.0,-18021737.0,0.0,-18021737.0,-2.07,-2.07,49306000.0,8693655.0,0.0,0.0,,0.0,,0.0,-17895230.0,-18021737.0,-18021737.0,0.0,0.0
