,0,1,2,3,4,5,6,7,8,9,10,11,12,13,14,15,16,17,18,19,20,21,22,23,24,25,26,27,28
Date,Cash and cash equivalents,Short-term investments,Cash and short-term investments,Receivables,Inventories,Total current assets,Property Plant & Equipment Net,Goodwill and Intangible Assets,Long-term investments,Tax assets,Total non-current assets,Total assets,Payables,Short-term debt,Total current liabilities,Long-term debt,Total debt,Deferred revenue,Tax Liabilities,Deposit Liabilities,Total non-current liabilities,Total liabilities,Other comprehensive income,Retained earnings (deficit),Total shareholders equity,Investments,Net Debt,Other Assets,Other Liabilities
2018-11-30,4417000.0,16267000.0,4417000.0,3017000.0,,,0.0,,,,,,,,,100000000.0,,,,,,,,-19022000.0,,,,,
2017-12-31,30000.0,32866000.0,16297000.0,2320000.0,,,,,,,,,,,,120000000.0,,,,,,,,1853000.0,,,,,
2016-12-31,497000.0,7539000.0,33363000.0,3117000.0,,,,,,,,,,,,120000000.0,,,,,,,,17841000.0,,,,,
2015-12-31,10866000.0,,18405000.0,1608000.0,,,,,,,,,,,,0.0,,,,,,,,-4709000.0,,,,,
